
10473
10272
11072
11102
10576
10329
11410
10359
10250
11458
10087
10349
11226
11409
10888
11321
11384
11088
11280
10307
10168
10766
11160
10402
10222
11118
11245
11267
10600
10358
11248
Khoa_OK
10255
Oanh_OK
11499
11193
10283
11100
11456
10651
11455
11201
10635
11243
10276
10872
11069
9944005072
10354
10171
10542
10398
11216
11500
10220
11468
11184
11214
11249
11074
10887
11185
10824
11272
1641764600
9563444161
8493773300