
10473
10272
11072
11102
10609
10576
10329
11410
10359
10234
10250
11458
10087
10349
11318
11226
11409
10888
11321
10861
11088
11280
10307
10125
10766
11160
10533
10402
11109
10222
11118
11245
11267
10600
10358
11248
11489
10437
11272
11499
11193
10283
1149822
11273
11100
11456
11455
1641764600
11201
10635
11243
10276
10872
10229
9944005072
10354
10171
10542
10423
10398
11216
11500
10220
11468
11184
11281
11070
11214
11249
9563444161
11074
11317
10225
10966
10887
8493773300
11185
11251
10824