[-0.14686261  0.08832892  0.03807509 -0.1111773  -0.12442634 -0.02934889
 -0.0274176  -0.16473484  0.15042318 -0.09302654  0.22199205 -0.04796927
 -0.24991944 -0.08590914 -0.02388412  0.18686558 -0.17846571 -0.12140638
 -0.05667356 -0.02732431  0.06934009 -0.00250164  0.00481336  0.03449105
 -0.17805278 -0.3374542  -0.07385726 -0.08699831 -0.05893229 -0.00303072
 -0.02958003  0.04943002 -0.14992718 -0.02582525  0.04891162  0.06950944
 -0.0111286  -0.06618806  0.1583803  -0.04362118 -0.30867621  0.02168742
  0.1031419   0.21235295  0.21568123 -0.01393163  0.02382966 -0.12232609
  0.14448325 -0.15430245 -0.01350498  0.12669985  0.04434746  0.01313762
  0.02849405 -0.13017219  0.0126851   0.14830457 -0.15734453 -0.07617978
  0.12255041 -0.07695549 -0.03445355 -0.10270107  0.21805339  0.0917206
 -0.14881466 -0.15471701  0.14123493 -0.12341397 -0.0477137   0.06125549
 -0.21338494 -0.21076094 -0.27231044  0.00224426  0.41435263  0.15831093
 -0.15419139  0.03825086 -0.09162913  0.06691258  0.16191936  0.12386665
  0.02839753  0.02421686 -0.04656945  0.01231806  0.22724524 -0.05731339
 -0.02140325  0.23524454  0.03009146  0.06203682 -0.0187772  -0.02656144
 -0.0684398   0.03719293 -0.14005728  0.00731395 -0.0159521   0.01250516
  0.07781162  0.12804301 -0.16392086  0.12045057  0.05030919  0.08184958
  0.00786758  0.01325967 -0.02445692 -0.06075801  0.08642101 -0.23454919
  0.17983948  0.16084372  0.069452    0.10330497  0.10342913  0.0149337
 -0.00229304 -0.01157172 -0.20857082  0.01942567  0.12781565 -0.06774538
  0.14142226 -0.00713666]