[-0.12501268  0.0865951   0.00542257 -0.08371695 -0.14918695  0.01827671
  0.02223926 -0.12874493  0.15263163 -0.03196279  0.25806978 -0.02494662
 -0.29096714 -0.12550692  0.00577841  0.19113232 -0.1259589  -0.07050769
 -0.13091993 -0.05341028  0.0306935  -0.0214058   0.02550169  0.05514709
 -0.15923451 -0.33035088 -0.09383366 -0.05957328 -0.04787694 -0.08326947
 -0.01813428  0.12330917 -0.11480109 -0.06367683  0.04810272  0.05219263
 -0.07316117 -0.03485408  0.14994045 -0.04438257 -0.23329686  0.01068641
  0.07846837  0.25030673  0.24006248  0.01228773  0.05766797 -0.05205823
  0.09784284 -0.19761471  0.01969158  0.11767113  0.08295678  0.03564356
  0.02390148 -0.12734842 -0.00319657  0.18573546 -0.17259623 -0.02462553
  0.09364863 -0.1654242  -0.07944461 -0.0400385   0.20139351  0.1357045
 -0.14706551 -0.14537835  0.17095692 -0.10547011 -0.03524033  0.02912
 -0.21376501 -0.21790402 -0.2815111   0.05422259  0.45023051  0.14768529
 -0.18627018  0.00394235 -0.08300086  0.07550421  0.10480233  0.08272611
 -0.04092976 -0.05845756 -0.08713236  0.03719331  0.17664856 -0.06354796
 -0.03505216  0.24847949  0.05989513  0.0200951   0.02204205  0.00760817
 -0.03270906  0.02507501 -0.1144439   0.00944533  0.03071463 -0.07776868
  0.08267299  0.08326681 -0.14315461  0.19216762  0.05286909  0.10022398
  0.00566738 -0.00990033 -0.05670698 -0.02890445  0.12475461 -0.26105875
  0.19641559  0.17398287  0.04846431  0.12566873  0.08593898  0.06956802
  0.0256561  -0.02823479 -0.14206353 -0.01011476  0.13057469 -0.05116225
  0.11499552  0.02592458]