[-1.08655110e-01  1.04373038e-01  1.01190917e-01 -8.48778486e-02
 -8.63569230e-02 -1.23475259e-02 -3.77227701e-02 -1.57988906e-01
  1.41841635e-01 -9.28404257e-02  2.45971486e-01 -4.78577018e-02
 -2.44378000e-01 -6.79950118e-02 -3.90067063e-02  2.29203090e-01
 -1.63874388e-01 -1.29755884e-01 -8.35372731e-02 -3.67486122e-04
  4.83878367e-02  3.69366668e-02  6.43078750e-03  4.93115000e-02
 -1.22913957e-01 -3.34823817e-01 -8.55443329e-02 -8.31449479e-02
 -3.76176797e-02 -2.11591125e-02 -8.63615200e-02  2.56975051e-02
 -1.66485399e-01 -2.32855957e-02  6.01025820e-02  9.92830247e-02
 -2.12732386e-02 -7.56298155e-02  8.71671215e-02 -5.28800078e-02
 -2.77853549e-01  3.35761607e-02  7.76761621e-02  2.18378067e-01
  2.24933609e-01  7.35496078e-03  1.15614524e-02 -1.29154876e-01
  9.50575024e-02 -1.79423645e-01 -1.01300124e-02  6.95183724e-02
  3.71435694e-02  6.18895255e-02  3.55984713e-03 -1.73023388e-01
  1.33342743e-02  1.30072698e-01 -8.71838704e-02 -4.53451574e-02
  7.63894767e-02 -1.56843513e-01 -2.05221530e-02 -7.11223185e-02
  2.41551876e-01  4.31933776e-02 -1.68512926e-01 -1.46848187e-01
  9.49844047e-02 -1.21923544e-01 -2.06724107e-02  4.70471419e-02
 -1.89237148e-01 -1.52846321e-01 -3.12654585e-01  1.21895485e-02
  4.38329786e-01  6.97156116e-02 -2.17996344e-01  3.70626971e-02
 -8.63482431e-02  9.76910219e-02  1.28894195e-01  1.63418010e-01
  4.29948196e-02  1.03223342e-02 -1.19169869e-01 -9.69549548e-03
  2.40421399e-01 -1.21427052e-01  2.85851117e-02  2.41370186e-01
 -2.18050275e-02  8.01330060e-02 -9.83491819e-03  2.43180189e-02
 -6.44527674e-02  2.36366093e-02 -1.02124549e-01  1.42883807e-02
 -1.83723867e-02  3.11321253e-03  2.07496434e-03  1.15623057e-01
 -1.63480863e-01  1.00979879e-01  5.10358922e-02  7.58014247e-02
  6.45659640e-02 -8.20193347e-03 -3.06019969e-02 -1.22115947e-01
  1.15716778e-01 -2.41077527e-01  1.72939405e-01  2.11032256e-01
  5.98958805e-02  1.14361994e-01  7.90935084e-02  6.92088008e-02
 -2.55443156e-02  4.85450355e-03 -2.03766808e-01  3.14751528e-02
  1.26667365e-01 -6.17077835e-02  5.46455868e-02 -9.58666578e-03]