[-0.08260243  0.12581122  0.10563137 -0.10080417 -0.14678188  0.02294105
 -0.00642633 -0.07436048  0.20463367 -0.09814393  0.25265652 -0.01863924
 -0.34470189 -0.03771539  0.05279548  0.21970582 -0.12471044 -0.07336336
 -0.08449756 -0.05014566  0.00240352  0.07437503 -0.00109361  0.04465082
 -0.15008643 -0.33111593 -0.10251371 -0.07888681 -0.01621724 -0.05453371
 -0.06193964  0.11578132 -0.11898269 -0.04464249  0.07223158  0.0829361
 -0.08622511 -0.10068001  0.18899116  0.00560147 -0.24852183 -0.00147851
  0.07939252  0.22493239  0.18463767 -0.03016025  0.04629025 -0.06786992
  0.11885587 -0.29202831  0.01247194  0.12565343  0.07286333  0.0698983
  0.11849004 -0.20691662  0.01356797  0.15817334 -0.19606148 -0.02917584
  0.05042245 -0.12588438 -0.03804426 -0.08148035  0.23530491  0.09773755
 -0.14304109 -0.13888459  0.13989221 -0.11807527 -0.02085155  0.13431525
 -0.17239833 -0.18158649 -0.26812348  0.07825331  0.45806214  0.14981693
 -0.17760366  0.03693252 -0.08116893 -0.04406755  0.039173    0.07946151
 -0.02442746 -0.04449917 -0.06434494  0.01645813  0.22764146 -0.09199585
  0.05525928  0.2785407   0.03737495  0.05262691 -0.00877621 -0.00526394
 -0.08755963 -0.05347971 -0.10224476 -0.02527836  0.01785587 -0.14069292
  0.00549226  0.11142218 -0.27544174  0.15369958  0.02375996 -0.037022
  0.00854893  0.00208322 -0.07333874 -0.01597514  0.18554991 -0.31297341
  0.17647044  0.17189942 -0.01057967  0.13151278  0.04985408  0.07621755
 -0.02780893 -0.06095678 -0.12959345 -0.0760183   0.13894339 -0.06816466
  0.03933863 -0.00706685]