[-1.21219806e-01  1.11649275e-01  9.38429385e-02 -7.36396238e-02
 -1.43914446e-01  1.09380214e-02 -3.63727845e-02 -1.42238781e-01
  1.42062739e-01 -7.52440318e-02  2.53071994e-01 -3.04320306e-02
 -2.62709111e-01 -5.05134724e-02 -2.26524826e-02  2.13135630e-01
 -1.58350229e-01 -1.10754304e-01 -8.99691805e-02 -2.62375269e-02
  4.33849804e-02  3.81883197e-02 -3.02904914e-03  3.56289260e-02
 -1.29830539e-01 -3.61387670e-01 -8.91241580e-02 -7.86995515e-02
 -5.05696200e-02 -4.97012511e-02 -5.80596738e-02  3.80296968e-02
 -1.38857231e-01 -2.07766481e-02  5.15455008e-02  9.16084722e-02
 -4.94771898e-02 -9.29694399e-02  1.02189101e-01 -5.62203191e-02
 -2.72078127e-01  3.43938172e-02  8.87311846e-02  2.36948654e-01
  2.25462154e-01 -5.96048264e-03  1.12570077e-02 -8.19880366e-02
  1.11666039e-01 -1.82491347e-01 -1.78705733e-02  9.87916738e-02
  3.83816324e-02  5.87742440e-02  1.72873419e-02 -1.54921651e-01
  9.78469834e-05  1.32897019e-01 -1.17158286e-01 -6.22841194e-02
  7.92535767e-02 -1.58699140e-01 -3.04370914e-02 -9.84397605e-02
  2.14491114e-01  5.78819290e-02 -1.62037313e-01 -1.42149717e-01
  8.66383761e-02 -1.22137003e-01 -2.72792019e-02  3.92574854e-02
 -2.26143673e-01 -1.88259110e-01 -3.05628896e-01  3.49993370e-02
  4.47085679e-01  1.00295477e-01 -1.87167943e-01  1.52524775e-02
 -6.69219643e-02  7.18681738e-02  9.87853333e-02  1.44597888e-01
  4.80584875e-02 -3.23098409e-03 -1.13067411e-01  2.79868376e-02
  2.25139454e-01 -1.19797163e-01  1.59571152e-02  2.52812952e-01
 -1.93635223e-03  6.68689385e-02 -2.10322794e-02  2.96040531e-02
 -6.50831908e-02  1.57080889e-02 -1.11818328e-01  2.16998290e-02
 -1.93156172e-02 -1.52433561e-02  1.72325633e-02  9.98979062e-02
 -1.59794524e-01  1.20441794e-01  6.08896874e-02  8.06831568e-02
  2.51017399e-02 -2.46436819e-02 -5.56707457e-02 -9.15796980e-02
  1.37406453e-01 -2.41533116e-01  1.68039560e-01  2.13096067e-01
  6.36372119e-02  1.24589436e-01  7.40917549e-02  3.83675657e-02
 -2.60494929e-02 -1.46098835e-02 -1.94294676e-01  1.46156317e-02
  1.09522931e-01 -5.05364798e-02  5.06595075e-02  3.38902319e-04]