[-1.64491296e-01  8.31177831e-02  3.18566337e-02 -9.81987938e-02
 -6.39373884e-02 -2.21888330e-02  2.13562082e-02 -1.24395311e-01
  2.08129629e-01 -5.36065362e-02  2.60203689e-01  2.34918036e-02
 -2.12134078e-01 -1.53376564e-01  8.20564255e-02  1.39321283e-01
 -1.59195885e-01 -8.77151862e-02 -9.05826315e-02 -6.70398697e-02
  1.85240451e-02 -6.54490432e-03  2.33176965e-02  7.92815015e-02
 -1.93796486e-01 -3.26554477e-01 -7.68740326e-02 -9.68939215e-02
 -2.48228721e-02 -6.33673593e-02 -4.44429182e-03  1.23839952e-01
 -1.55245051e-01 -5.85418455e-02  3.09871621e-02  1.03882089e-01
 -6.88273683e-02 -1.41553460e-02  1.45736486e-01 -4.17532511e-02
 -2.05441862e-01 -5.78350015e-02  3.37973312e-02  2.45815620e-01
  2.51880378e-01 -2.03591473e-02  7.15117482e-03 -1.36458753e-02
  1.07497387e-01 -2.09409386e-01 -1.96853187e-02  1.21298127e-01
  3.60498577e-02  5.49041815e-02  6.07488938e-02 -1.41074881e-01
  1.27007095e-02  1.15888976e-01 -1.71036094e-01 -5.84660172e-02
  2.99291462e-02 -1.85651809e-01 -8.75649154e-02 -5.30857034e-02
  1.97277546e-01  8.14132169e-02 -1.47227272e-01 -1.22495763e-01
  1.22523487e-01 -1.00990824e-01 -1.29074482e-02  8.79386440e-02
 -1.92029461e-01 -2.27722570e-01 -2.90347785e-01  6.00181930e-02
  3.85340273e-01  1.53431952e-01 -1.64138645e-01  4.56840955e-02
 -8.90828222e-02  2.96929069e-02  7.13995174e-02  7.85297975e-02
 -2.12157238e-02  1.38355074e-02 -7.32600242e-02  5.33454381e-02
  1.28601298e-01 -1.83430370e-02 -9.64810792e-03  2.50782847e-01
 -7.79899675e-03  5.88649325e-02  3.33819608e-03 -6.69687847e-03
 -3.17458995e-02  2.54196133e-02 -1.18040122e-01  1.94781576e-03
  6.48716688e-02 -4.42542732e-02  7.11385533e-02  9.06525850e-02
 -1.77457824e-01  1.84681654e-01  6.87320158e-02  8.56068730e-02
  1.13952514e-02 -2.35989224e-02 -7.19945058e-02 -3.78829166e-02
  1.19737171e-01 -2.88438469e-01  1.77044973e-01  1.91525415e-01
  3.01306434e-02  1.54535398e-01  5.66057377e-02  2.18026098e-02
 -2.59777252e-02 -1.84978303e-02 -1.53812572e-01  2.54002865e-02
  1.10947423e-01 -4.99723181e-02  8.11449066e-02 -2.31949249e-04]