[-0.11603829  0.07957026  0.02285329 -0.08995747 -0.16891468  0.02655252
  0.01523595 -0.12259614  0.1697613  -0.04882406  0.25909051 -0.03401819
 -0.29306382 -0.08261569 -0.00736903  0.20059632 -0.11929058 -0.06608724
 -0.13318858 -0.04146691  0.02860621  0.02019069  0.00384089  0.06863216
 -0.15195201 -0.32474244 -0.07397442 -0.0657923  -0.03859293 -0.07311751
 -0.05928167  0.11212474 -0.10992682 -0.06416678  0.06442081  0.08043844
 -0.07580315 -0.04494537  0.13986421 -0.04742482 -0.25613901  0.01801732
  0.09007638  0.2377014   0.24152856  0.01890918  0.02963179 -0.06494559
  0.10985138 -0.20165634  0.01352125  0.10351463  0.0762025   0.04560885
  0.03246404 -0.16536236 -0.0165162   0.1836807  -0.161337   -0.03787515
  0.08400736 -0.1634481  -0.05040042 -0.06143284  0.2133545   0.10317069
 -0.16025734 -0.14076795  0.15106194 -0.12293404 -0.03540535  0.04169047
 -0.21257208 -0.20368879 -0.29317948  0.05006426  0.45059571  0.14700086
 -0.19442122 -0.00441275 -0.06450149  0.06229987  0.10871339  0.09945614
  0.00071011 -0.06296817 -0.09353327  0.01422161  0.18842988 -0.07823511
 -0.00685251  0.25414774  0.0493024   0.03805146 -0.00273929  0.01784586
 -0.06884357  0.01849269 -0.11750358  0.01023923  0.00346844 -0.04493156
  0.07415473  0.10328274 -0.14752202  0.17886846  0.04558873  0.08822011
  0.00782757 -0.01444799 -0.05310202 -0.04732823  0.13553095 -0.25464505
  0.18579407  0.16803531  0.06245636  0.12529109  0.08188709  0.05119301
  0.02368239 -0.01518476 -0.17092401 -0.00897922  0.13136397 -0.0783832
  0.10562451  0.02454512]