[-0.10296806  0.12122279  0.06988649 -0.06505481 -0.17924608  0.04411366
 -0.04573232 -0.13113278  0.10523336 -0.05455343  0.27267924 -0.02466212
 -0.2897588  -0.0328044  -0.02596814  0.18135223 -0.15176591 -0.07243
 -0.10883335 -0.01373741  0.03193318  0.05107085  0.02884317  0.01679598
 -0.12429438 -0.33453834 -0.08324607 -0.02863304  0.00456974 -0.06539886
 -0.06914715  0.03970333 -0.13670002 -0.01834784  0.06539703  0.05116112
 -0.05349795 -0.09938686  0.11007118 -0.05664223 -0.24953802  0.05533892
  0.08131241  0.21783428  0.22986682  0.00950082  0.03252562 -0.12446003
  0.08609328 -0.16485779  0.03591707  0.12352147  0.06657839  0.06220607
 -0.0111582  -0.17328878 -0.0070362   0.16461928 -0.12877421 -0.04238158
  0.10516169 -0.07896844 -0.00912412 -0.08265624  0.18991642  0.07198882
 -0.16760771 -0.18270485  0.09412194 -0.1138401  -0.04020125  0.04753564
 -0.21919756 -0.20880523 -0.27628434  0.06177629  0.42885438  0.11944699
 -0.19023345 -0.00504297 -0.06217827  0.03839142  0.07555264  0.11597855
 -0.01406362 -0.05207738 -0.09170214  0.04090757  0.22909747 -0.0953147
 -0.0205923   0.26329118  0.04196449  0.02229613  0.00664086  0.07063379
 -0.06024124  0.03853082 -0.10588522  0.03027846 -0.01209044 -0.07039966
  0.02384217  0.12050509 -0.1628966   0.18010081  0.0404712   0.07230993
  0.03070329 -0.03683956 -0.0642876  -0.05520887  0.14160091 -0.27164993
  0.20661293  0.1950247   0.1197952   0.13058484  0.09257782  0.0669631
  0.02976795 -0.00049844 -0.16050242 -0.02533345  0.10589852 -0.07708744
  0.0736744   0.03094479]