[-0.11421857  0.07839605  0.07609197 -0.04016504 -0.09978051  0.02397444
 -0.02442929 -0.13061474  0.12012704 -0.05359235  0.24155362  0.01794999
 -0.27932563 -0.05983117  0.0107164   0.15187636 -0.1477174  -0.02655395
 -0.1032799  -0.02469173  0.0258831   0.05487273  0.0521099   0.03037252
 -0.1252276  -0.29967776 -0.04048488 -0.08382432 -0.01415964 -0.02462432
 -0.04740099  0.0613471  -0.13314123 -0.00900862  0.03671275  0.06214829
 -0.07338732 -0.05935025  0.1474023  -0.05990667 -0.2303915   0.01516248
  0.03349504  0.20556073  0.22753654 -0.02077275  0.01914801 -0.08295595
  0.09654688 -0.21620786  0.01596089  0.09084854  0.04498868  0.06047882
  0.01907383 -0.19886126 -0.0164841   0.14615829 -0.11127622 -0.01506578
  0.0542564  -0.12261428 -0.02504445 -0.06550353  0.20800124  0.08702406
 -0.16920328 -0.14187686  0.09632981 -0.1080118  -0.0377532   0.07356132
 -0.18538943 -0.19927835 -0.25956774  0.04879397  0.40856323  0.12242105
 -0.22023197 -0.01489744 -0.10246227  0.03813628  0.11361001  0.1129561
  0.02231452 -0.04847467 -0.06696232 -0.00541431  0.19842254 -0.07360512
 -0.03743206  0.26500914  0.03352998  0.04344016 -0.00352394  0.00647144
 -0.04416263  0.02490769 -0.12886439  0.00770499  0.00132761 -0.06720264
  0.04595918  0.10420295 -0.17249452  0.19140014  0.06288701  0.08071145
  0.09008645 -0.01235749 -0.08379943 -0.03097723  0.14983976 -0.2738958
  0.23995499  0.17212628  0.10246908  0.14703158  0.07564988  0.06714904
  0.00299297  0.01980185 -0.17900823 -0.01311209  0.12185767 -0.05615384
  0.06735702  0.01870661]