[-0.13871205  0.08678484  0.09262949 -0.04724286 -0.09386393  0.00819676
  0.00943875 -0.11933731  0.16000549 -0.06062163  0.24040106  0.0136936
 -0.2514782  -0.08586346  0.05032307  0.15419737 -0.14472441 -0.04669406
 -0.11298682 -0.06376062  0.01456245  0.04192617  0.03041067  0.04608488
 -0.17199998 -0.32312825 -0.04352986 -0.0857368  -0.01603047 -0.04313659
 -0.03650402  0.08340326 -0.12611906 -0.02005477  0.04983277  0.09868126
 -0.09226315 -0.0441919   0.133396   -0.06078203 -0.24060838 -0.01512793
  0.03624296  0.23143239  0.25870681 -0.00239605  0.00915554 -0.04328718
  0.1147354  -0.2209736  -0.00893891  0.09840625  0.03135199  0.06064841
  0.04880103 -0.18920018 -0.00834423  0.13339715 -0.1252033  -0.04829457
  0.04276357 -0.18317857 -0.03284369 -0.04248531  0.20784222  0.0546927
 -0.17642091 -0.11156444  0.10352458 -0.12277772 -0.00959476  0.08181482
 -0.18377094 -0.20611382 -0.29454646  0.05170843  0.43034554  0.13149516
 -0.18601201 -0.00800181 -0.09671515  0.05797378  0.09747563  0.12055179
 -0.00789089 -0.03595754 -0.07797978  0.01174708  0.17629504 -0.05341807
 -0.02282849  0.2593132   0.01709767  0.0448772  -0.02185972 -0.00538167
 -0.06148708  0.01145758 -0.10477143 -0.00487416  0.02776703 -0.05973757
  0.06000398  0.11416792 -0.21092747  0.20287707  0.06126033  0.08921824
  0.0650013  -0.02175542 -0.07959646 -0.02662316  0.14195161 -0.29732534
  0.19148695  0.21019784  0.07628425  0.16043523  0.07095943  0.0235496
 -0.00806037  0.00503336 -0.16944198  0.00303711  0.10922233 -0.06686706
  0.07428867  0.00896957]