[-1.89042374e-01  5.78654669e-02  3.58744524e-02 -6.85249567e-02
 -7.47880712e-02 -2.25717779e-02  2.63760481e-02 -1.81014255e-01
  1.17642522e-01 -1.12426162e-01  1.86195418e-01 -1.19211599e-02
 -2.33125642e-01 -1.18794739e-01 -4.50659357e-02  1.69103503e-01
 -1.35370195e-01 -1.42649695e-01 -8.61175507e-02 -5.61778024e-02
  3.54216211e-02  2.16174405e-02 -1.29688522e-02  4.65459935e-02
 -1.29084602e-01 -3.06891680e-01 -7.52414912e-02 -5.80349080e-02
 -3.75698060e-02 -2.56311335e-02 -5.00246398e-02  7.24173561e-02
 -1.77555725e-01 -3.69013138e-02  6.47510216e-02  9.00500044e-02
 -2.54644752e-02 -4.09746170e-02  1.25435278e-01 -1.64111014e-02
 -2.29828045e-01  1.60907616e-03  1.10209994e-01  2.36658245e-01
  2.07319096e-01 -1.84734315e-02 -9.56323463e-03 -8.76858830e-02
  1.39416143e-01 -1.31436616e-01 -4.51162867e-02  1.03546381e-01
  8.73825923e-02  5.86841367e-02  1.17580397e-02 -1.81002200e-01
  2.38234556e-04  1.20572366e-01 -1.05981700e-01 -1.93935279e-02
  2.24055909e-02 -1.45225927e-01 -8.66406187e-02 -5.19963689e-02
  1.52680963e-01  5.53422756e-02 -1.47352755e-01 -1.75490052e-01
  1.49971545e-01 -1.29939005e-01 -3.36992443e-02  3.84280831e-02
 -1.88154832e-01 -1.95166320e-01 -2.49351129e-01  4.00465094e-02
  3.60167623e-01  1.33990541e-01 -1.84672967e-01  3.17022204e-02
 -4.91399243e-02  7.94739053e-02  1.15922987e-01  1.39224067e-01
 -2.00459342e-02  2.97400095e-02 -4.85724881e-02 -1.12496633e-02
  1.78965852e-01 -9.47532244e-03 -6.77239448e-02  1.89482197e-01
 -1.20991943e-02  5.23816943e-02  2.44016927e-02 -6.80702552e-03
 -7.54522011e-02  2.54060160e-02 -1.54975221e-01 -3.01604029e-02
  1.96817126e-02 -5.56350239e-02  4.37754355e-02  1.14433303e-01
 -1.39814258e-01  1.44448191e-01  3.81408446e-02  8.37488994e-02
 -2.07426958e-04  4.17551491e-03 -7.42034838e-02 -1.43983131e-02
  6.57491833e-02 -2.21956968e-01  2.38702208e-01  2.09810019e-01
  4.98769358e-02  1.36644289e-01  1.31410435e-01  1.09737962e-02
  2.27296334e-02  3.11020743e-02 -1.47548586e-01 -4.76534180e-02
  1.40509203e-01 -5.92474118e-02  1.12308122e-01 -4.10364270e-02]