[-7.78278932e-02  1.25796080e-01  9.37733278e-02 -4.15756702e-02
 -1.65986836e-01  2.03270372e-02 -2.89077517e-02 -1.16956607e-01
  1.48254931e-01 -5.27149737e-02  2.70764887e-01  7.28569168e-04
 -2.64250606e-01 -5.55763803e-02 -3.62067687e-04  1.66858718e-01
 -1.67164817e-01 -9.21737701e-02 -9.93858501e-02 -2.78967749e-02
  5.09294756e-02  5.33117168e-02 -2.23723073e-02  5.54798683e-03
 -1.21029399e-01 -3.54761481e-01 -6.19774647e-02 -6.32674173e-02
  7.70557811e-03 -6.73407540e-02 -3.32024060e-02  8.26304704e-02
 -1.17629267e-01 -8.90785083e-03  5.87142371e-02  9.76355150e-02
 -5.66487275e-02 -5.10850511e-02  1.14969850e-01 -8.01630989e-02
 -2.75303304e-01  2.97269505e-02  9.31331217e-02  2.02294067e-01
  2.49181986e-01  6.09213626e-03  2.09637117e-02 -9.97593626e-02
  8.99344757e-02 -1.62892804e-01 -1.57787499e-03  1.44577086e-01
  7.93169364e-02  6.68989643e-02  4.69067357e-02 -2.05626890e-01
 -1.38139566e-02  1.38996333e-01 -1.23714171e-01 -8.45255181e-02
  7.34933987e-02 -1.43488288e-01 -1.17166026e-03 -4.72736806e-02
  2.02895388e-01  2.27254145e-02 -1.38641134e-01 -1.50352418e-01
  1.13483571e-01 -1.43659234e-01 -6.93497285e-02  4.53156978e-02
 -1.96698695e-01 -1.76433265e-01 -3.20205927e-01  3.61920297e-02
  4.64033276e-01  9.81462821e-02 -1.98573649e-01  5.28553091e-02
 -5.96528538e-02  1.56229502e-02  9.36763287e-02  1.22875035e-01
 -2.09673736e-02 -3.21728773e-02 -1.28890708e-01  1.74891781e-02
  2.00767383e-01 -8.09843019e-02  3.66071090e-02  2.20739350e-01
  2.48286631e-02  6.14209138e-02 -6.45634544e-04  5.04102884e-03
 -6.31248876e-02  3.01215649e-02 -1.23072140e-01 -1.17462007e-02
 -3.30121331e-02 -4.73798513e-02  1.82814915e-02  1.22505508e-01
 -1.87449083e-01  1.42730758e-01  6.37145266e-02  6.27962276e-02
  1.62115991e-02 -2.59995945e-02 -3.99894528e-02 -5.96474595e-02
  1.57007232e-01 -2.76227474e-01  1.80256590e-01  1.87085256e-01
  6.93267584e-02  1.51335880e-01  9.74249914e-02  6.02939241e-02
 -7.67531386e-03 -4.10448983e-02 -2.02904582e-01  1.28200548e-02
  8.42666253e-02 -7.86541477e-02  4.67794426e-02  2.67772563e-02]