[-0.13458757  0.08169387  0.01765062 -0.08965094 -0.15617596  0.03307077
  0.02822604 -0.11406733  0.18060844 -0.04746221  0.25711471 -0.0192603
 -0.2956492  -0.08942657  0.00389438  0.18955572 -0.11151019 -0.06096458
 -0.13774335 -0.05224303  0.02659686  0.01598789  0.01112247  0.06532308
 -0.15724753 -0.31248817 -0.07670406 -0.06062589 -0.04087179 -0.08073897
 -0.03805776  0.103549   -0.11584073 -0.06368337  0.06127371  0.07580322
 -0.08355137 -0.03134347  0.14440085 -0.03838032 -0.24160807  0.01201822
  0.08112519  0.24129033  0.24170116  0.02702445  0.02213812 -0.06345115
  0.11563528 -0.20330918  0.01369195  0.10744385  0.08477446  0.04359928
  0.03416634 -0.15770563 -0.01234274  0.19302729 -0.1622435  -0.02557768
  0.07459422 -0.17272128 -0.06137465 -0.05147786  0.20090628  0.10747786
 -0.15940236 -0.14335619  0.15274446 -0.11891883 -0.03593835  0.05253751
 -0.20557737 -0.21092962 -0.28581306  0.05288424  0.44705638  0.14701667
 -0.19102781 -0.01232915 -0.06656778  0.06492788  0.09538883  0.09681364
 -0.02145267 -0.07575557 -0.0862022   0.00930957  0.184931   -0.06497436
 -0.01703547  0.25097811  0.0501248   0.03650955 -0.00622835  0.00768369
 -0.06770502  0.0131662  -0.1111902  -0.00679598  0.00566505 -0.05912684
  0.07624467  0.09632175 -0.16141184  0.19577719  0.04567381  0.08734488
  0.00714874 -0.01075492 -0.0524171  -0.02802049  0.13369897 -0.25969532
  0.19876584  0.17575629  0.05633702  0.12846963  0.08440392  0.05392077
  0.02425592 -0.00255977 -0.15716784 -0.01672957  0.12579203 -0.07825311
  0.11483393  0.01696159]