[-1.23725526e-01  8.67956132e-02  7.83963874e-02  2.76841666e-03
 -9.48219895e-02  7.67669408e-03  1.78149696e-02 -1.45881534e-01
  1.44055262e-01 -8.21837187e-02  2.45866612e-01  4.74969251e-03
 -2.60486543e-01 -7.63999969e-02  1.85863730e-02  1.75749496e-01
 -1.46449015e-01 -1.18913069e-01 -1.12246573e-01 -6.76686177e-03
  4.38500308e-02  4.06956114e-02  3.05920895e-02  9.95778479e-03
 -1.20005630e-01 -3.25843781e-01 -4.93954793e-02 -5.17987721e-02
  3.14513110e-02 -5.60560711e-02 -8.50238428e-02  7.07372129e-02
 -1.55689701e-01 -4.20884565e-02  7.04491138e-02  8.01275223e-02
 -5.93963265e-02 -4.94462959e-02  1.52907729e-01 -3.43885086e-02
 -2.88780421e-01  9.17965826e-03  5.52437268e-02  2.20820054e-01
  2.56767750e-01  2.54394058e-02 -2.53268667e-02 -1.10066891e-01
  9.84589309e-02 -1.90075412e-01 -6.61607832e-03  1.40761837e-01
  8.49020854e-02  8.37229416e-02 -3.82376107e-04 -2.10817650e-01
 -1.68837700e-02  1.03022687e-01 -9.54348370e-02 -6.41762838e-02
  8.11224729e-02 -1.18430160e-01 -9.16759670e-03 -6.17730208e-02
  1.68262064e-01  1.27431629e-02 -1.58738405e-01 -1.30510360e-01
  8.44921246e-02 -1.23150781e-01 -3.31744701e-02  6.21337965e-02
 -1.95933864e-01 -2.18658760e-01 -2.53912389e-01  2.88409572e-02
  3.97788554e-01  1.07249521e-01 -2.09081039e-01 -3.10042663e-03
 -6.21187650e-02  5.98498546e-02  1.11269332e-01  1.29270554e-01
  3.92945297e-03 -2.87144426e-02 -8.08535442e-02 -3.11035756e-02
  1.90170184e-01 -7.16984496e-02 -1.30470889e-02  2.22733021e-01
 -2.14490481e-03  5.13717048e-02  5.65251056e-03  3.14531140e-02
 -4.75454517e-02  4.77905683e-02 -1.44219697e-01 -2.32502315e-02
 -1.53375417e-02 -4.82606515e-02  3.46480682e-02  1.14093684e-01
 -1.69737846e-01  1.74606279e-01  5.45836464e-02  1.00197129e-01
  6.83530718e-02 -2.42279898e-02 -6.97412193e-02 -5.24367951e-02
  1.05070047e-01 -2.52438039e-01  2.31381491e-01  2.26278737e-01
  4.31537516e-02  1.34995326e-01  1.02283828e-01  7.65071809e-02
 -2.87927571e-03  3.27122398e-02 -1.89986020e-01 -2.57331468e-02
  1.24948196e-01 -5.64131252e-02  5.98479025e-02 -1.98454987e-02]