[-1.79203287e-01  7.44169429e-02  2.56534554e-02 -3.85255031e-02
 -1.07372962e-01 -4.07540165e-02  2.91348584e-02 -1.91588268e-01
  8.37888196e-02 -8.64215121e-02  2.13298440e-01 -2.32846588e-02
 -2.65148699e-01 -1.37133628e-01  1.26626892e-02  1.71375051e-01
 -1.26791447e-01 -1.19686902e-01 -1.11114196e-01 -6.75124750e-02
  3.28806564e-02 -1.45756826e-02  3.99983954e-03  4.55918834e-02
 -1.31438777e-01 -2.83786744e-01 -6.28060102e-02 -3.49671841e-02
 -1.82626285e-02 -4.39413451e-02 -4.24561575e-02  9.63027850e-02
 -1.79734632e-01 -6.72367588e-02  6.70496076e-02  8.60213041e-02
 -3.55175994e-02 -2.85602640e-02  1.33619905e-01 -4.05118689e-02
 -2.26067945e-01  2.19829759e-04  1.10205844e-01  2.24432454e-01
  1.98080346e-01  1.52350208e-02  1.42247332e-02 -8.30957741e-02
  1.04861073e-01 -1.42220721e-01 -4.05962691e-02  8.91481042e-02
  8.35091397e-02  5.33609279e-02  3.54673080e-02 -2.00845361e-01
  1.75607798e-03  1.07985735e-01 -1.09309487e-01 -2.04704050e-02
  5.70415929e-02 -1.42834947e-01 -5.78933954e-02 -7.46965036e-02
  1.79821536e-01  3.96323092e-02 -1.34080842e-01 -1.46956295e-01
  1.43124312e-01 -1.25772476e-01 -5.11962250e-02  6.50933906e-02
 -1.57316327e-01 -1.95545182e-01 -2.88833916e-01  3.63783613e-02
  3.59054625e-01  1.52574822e-01 -1.87558070e-01 -6.87024603e-03
 -2.92744283e-02  5.78205660e-02  1.31467000e-01  1.12814523e-01
 -2.28085350e-02  1.23506021e-02 -5.35514131e-02 -6.57948712e-03
  1.90956607e-01 -1.29966233e-02 -5.38112782e-02  2.14211091e-01
  2.66433116e-02  4.31796797e-02  1.25672910e-02 -1.13157695e-02
 -4.88239191e-02  2.16834191e-02 -1.45958900e-01 -1.72453455e-03
  1.26923313e-02 -8.35339203e-02  6.40487894e-02  1.03916921e-01
 -1.36111021e-01  1.19123697e-01  3.39128338e-02  8.24231729e-02
 -3.84175703e-02  1.24243060e-02 -9.80900750e-02 -5.04875695e-03
  5.99736460e-02 -2.72984564e-01  2.36853763e-01  2.37883076e-01
  4.44113016e-02  1.05915569e-01  1.15650229e-01  1.98173728e-02
  3.02227139e-02  1.31153157e-02 -1.23066477e-01 -6.09214790e-02
  1.46046177e-01 -7.64100775e-02  1.12548448e-01 -9.95702390e-03]