[-0.14175421  0.08695623  0.05615282 -0.04030531 -0.16100113 -0.023091
 -0.02658164 -0.11705495  0.17912184 -0.01669751  0.26284865 -0.0247881
 -0.24168654 -0.10215111  0.01481282  0.18915272 -0.19885863 -0.06846892
 -0.03160632 -0.06688293  0.00300203  0.03354827  0.04163047  0.01835074
 -0.1463619  -0.3186993  -0.05966493 -0.11022232  0.00377212 -0.06873969
 -0.03245861  0.09505107 -0.1405994  -0.05218926  0.09457453  0.09810422
 -0.09086839 -0.04114835  0.19380854 -0.06566174 -0.21782313 -0.03734615
  0.06536045  0.21904357  0.22108868  0.00765532 -0.0058226  -0.09061638
  0.14812891 -0.16119584 -0.0055873   0.15985808  0.03337318  0.02953184
  0.02511789 -0.13246842 -0.01187831  0.18131481 -0.1384012  -0.05024384
  0.09909423 -0.15427499 -0.04489566 -0.08148378  0.22333829  0.06536241
 -0.1201808  -0.15260002  0.10429209 -0.12197068 -0.05786757  0.08323036
 -0.18005781 -0.20396192 -0.26514241 -0.01007042  0.39678308  0.07425182
 -0.17203991  0.02061676 -0.03435411 -0.00525207  0.12422471  0.1394598
  0.00737087 -0.02251405 -0.08369395 -0.02907104  0.21927594 -0.09042835
  0.02960741  0.21952422  0.00533565  0.08495352 -0.00488395 -0.05963677
 -0.03656973  0.01427812 -0.10486536 -0.02917201 -0.01987986 -0.05301955
  0.03652251  0.08004373 -0.16666403  0.12767246  0.06043558  0.08160324
 -0.00117982 -0.06928473 -0.02477363 -0.04780186  0.16104607 -0.25993353
  0.23138836  0.1545959   0.03247105  0.14807276  0.05021627  0.05886875
 -0.03627336 -0.01235078 -0.16156638  0.02299527  0.09290446 -0.07545599
  0.08708385 -0.02032355]