[-0.19642521  0.05857538  0.03730227 -0.07104357 -0.08336405 -0.00171625
  0.03263475 -0.17014889  0.11480784 -0.10719154  0.18949962 -0.00150196
 -0.24806409 -0.10775255 -0.04018255  0.17524895 -0.13833039 -0.14550281
 -0.09397729 -0.06331086  0.01730606  0.02916724 -0.02169403  0.05168041
 -0.13514417 -0.31257504 -0.06579945 -0.0642617  -0.03913074 -0.04502159
 -0.04897739  0.06608824 -0.16737953 -0.01558826  0.06395539  0.08697417
 -0.03250165 -0.04405728  0.12616217 -0.0075133  -0.22473295 -0.00211491
  0.10607617  0.24225198  0.21262589 -0.02185637 -0.01177896 -0.07910295
  0.13720219 -0.14845347 -0.04592572  0.10013586  0.08075859  0.06540149
  0.00585667 -0.19152699 -0.01015471  0.12650208 -0.12255377 -0.01352742
  0.00511154 -0.16043656 -0.09069776 -0.05114773  0.15503792  0.06301058
 -0.15926656 -0.17527018  0.1424654  -0.14309658 -0.02922682  0.03247834
 -0.18037462 -0.2007972  -0.2479248   0.05287289  0.35415983  0.13909788
 -0.19176713  0.02163223 -0.04231128  0.06841388  0.10458286  0.1449603
 -0.02241465  0.01271199 -0.04855433 -0.01616606  0.17444803 -0.00679968
 -0.05595789  0.19565862 -0.01652011  0.04364512  0.02357349  0.00748072
 -0.08993588  0.01789561 -0.13730495 -0.03390415  0.00449822 -0.06527407
  0.04640566  0.10972847 -0.14166798  0.1600543   0.03134483  0.07330358
 -0.00256429 -0.00190537 -0.06547856 -0.02047768  0.07459374 -0.23223682
  0.23886931  0.2216707   0.04788875  0.14979325  0.12024605  0.01292821
  0.0165395   0.04062014 -0.14236633 -0.0451185   0.13509959 -0.06865127
  0.10206014 -0.04402   ]