[-0.14532048  0.08736926  0.08217762 -0.08088099 -0.11084687  0.01152382
  0.02256921 -0.12241957  0.16373304 -0.04589105  0.2174181   0.02716176
 -0.26481524 -0.10012385  0.07155351  0.14353301 -0.14156641 -0.05528548
 -0.10209131 -0.07067872  0.00539142  0.05833764  0.03294266  0.06352305
 -0.16859178 -0.32198355 -0.04458186 -0.07727013 -0.03676647 -0.03803659
 -0.02851957  0.10054506 -0.12426007 -0.02255829  0.0612607   0.10518407
 -0.12037623 -0.0533736   0.13908575 -0.04782647 -0.22190237 -0.03456208
  0.03912946  0.23427896  0.26232263 -0.00354035  0.00320704 -0.01746947
  0.12992263 -0.23689404 -0.00477985  0.11217815  0.01738028  0.06053187
  0.05121301 -0.17984976 -0.00855566  0.13223176 -0.16826195 -0.04735743
  0.03032333 -0.20942955 -0.04711751 -0.0536172   0.20447074  0.09291177
 -0.16820545 -0.1207621   0.11044189 -0.13717622 -0.01900738  0.08580335
 -0.1916983  -0.20303085 -0.26656717  0.05282143  0.40457049  0.14707044
 -0.16058537 -0.02482943 -0.08263325  0.05584117  0.08940377  0.10452922
 -0.01065778 -0.04065516 -0.06596375  0.02318171  0.17054103 -0.04713212
 -0.03985383  0.28180194  0.02625668  0.04997988 -0.00781142 -0.01434229
 -0.03966952  0.01232128 -0.10774436  0.00578379  0.03113817 -0.07293445
  0.08324629  0.1109537  -0.19075739  0.2007457   0.05721226  0.09455752
  0.04346075 -0.04082006 -0.09553612 -0.02991753  0.1372066  -0.2972599
  0.20847355  0.19421172  0.0615669   0.15850192  0.0434317   0.01588416
 -0.00525955 -0.02110022 -0.14115833  0.00048621  0.12660599 -0.05042977
  0.08732739  0.00920593]