[-0.1196361   0.07794762  0.02488662 -0.07772426 -0.16561888  0.03233297
  0.02110542 -0.1191242   0.17129003 -0.04409146  0.25328112 -0.02037671
 -0.2940174  -0.07675766 -0.01055941  0.20006147 -0.12425591 -0.06485664
 -0.12526892 -0.0352205   0.03178505  0.01453979  0.00423917  0.0676746
 -0.14460485 -0.33537567 -0.07682377 -0.05775337 -0.0436967  -0.07270157
 -0.04696863  0.11866903 -0.10705473 -0.05659013  0.06112218  0.07861351
 -0.07641753 -0.04611129  0.14111924 -0.03263831 -0.247703    0.01440402
  0.08432088  0.24570413  0.24444146  0.01519515  0.02638418 -0.05809876
  0.10259233 -0.1999833   0.0007543   0.10967769  0.08431091  0.04619901
  0.02837486 -0.17173477 -0.01881088  0.17521016 -0.16561951 -0.03913108
  0.06578245 -0.16051809 -0.05118433 -0.06244608  0.21176474  0.10412629
 -0.16812393 -0.13552462  0.1549582  -0.11522573 -0.02996709  0.03394512
 -0.22418864 -0.21207802 -0.29145178  0.04816066  0.44484457  0.14420496
 -0.19728723 -0.01454244 -0.06878334  0.06372281  0.09177621  0.10732406
 -0.00349196 -0.0655263  -0.08940401  0.01301484  0.16974199 -0.06726672
 -0.02048732  0.25416473  0.04440027  0.03697879 -0.00565563  0.01765754
 -0.06664672  0.01800133 -0.12713699 -0.00376827 -0.00570126 -0.04839977
  0.07623329  0.10969508 -0.14765806  0.17746373  0.05067908  0.09167346
  0.00976306 -0.0105697  -0.06806872 -0.04262007  0.13796869 -0.25708833
  0.18744558  0.17714655  0.05863443  0.12388394  0.08162101  0.04997772
  0.01783105 -0.01392811 -0.16733456 -0.0015952   0.12183267 -0.07828753
  0.09737699  0.01957791]