[-1.80328727e-01  8.18788260e-02 -4.65035765e-03 -7.74506256e-02
 -1.17281795e-01 -2.71070879e-02  5.68574257e-02 -1.29182294e-01
  1.35186031e-01 -8.55781659e-02  1.23950005e-01  2.35443022e-02
 -2.62145013e-01 -7.29041547e-02  2.60295514e-02  1.40274167e-01
 -1.36805937e-01 -1.37485147e-01 -1.65885359e-01 -1.30447850e-01
  1.37085337e-02  3.83333527e-02 -3.29134427e-02  3.78726609e-02
 -1.18353441e-01 -2.85515398e-01 -8.76654014e-02  4.23774145e-05
  3.39536183e-02 -6.01060092e-02  3.03129107e-02  7.69306570e-02
 -1.86880141e-01 -4.96457629e-02  9.67971906e-02  6.35245964e-02
 -7.52868801e-02 -5.45730554e-02  1.58726558e-01 -4.73782420e-04
 -1.73824415e-01  3.83395189e-03  1.09018758e-01  2.52321333e-01
  2.32001707e-01  8.41463916e-03 -2.65922304e-02 -7.22066164e-02
  1.49803832e-01 -1.95129290e-01 -1.63247027e-02  1.58555195e-01
  1.14451066e-01  1.05210446e-01  7.11227879e-02 -1.75961941e-01
  2.33789086e-02  1.18553855e-01 -1.70547456e-01 -1.56434607e-02
  3.72827686e-02 -1.55523553e-01 -1.03037737e-01 -8.67270827e-02
  1.35040939e-01  7.03138188e-02 -1.44754753e-01 -1.99314103e-01
  1.66417882e-01 -1.58822998e-01 -5.36235087e-02  2.07981635e-02
 -1.34941533e-01 -1.71747506e-01 -2.57268280e-01  5.85882477e-02
  3.25262934e-01  2.05598429e-01 -1.78568125e-01  1.43080791e-02
 -5.25869913e-02  4.27776128e-02  4.67444323e-02  7.02443570e-02
 -1.05127469e-01 -4.92513999e-02 -2.71795522e-02  2.70809960e-02
  1.53471231e-01  1.19033335e-02 -7.42055252e-02  2.01808333e-01
  3.14371847e-02  3.04415226e-02  4.60575847e-03 -7.24343583e-03
 -1.20095193e-01 -1.15528274e-02 -1.44062266e-01 -3.58760245e-02
  4.73600440e-02 -8.10440704e-02  7.85388276e-02  1.40518710e-01
 -1.39661342e-01  2.35068008e-01  1.51861608e-02  5.78178763e-02
 -5.24478517e-02  7.77765596e-03 -1.20585695e-01  3.29754837e-02
  7.50596672e-02 -2.48934701e-01  2.86915570e-01  2.10496411e-01
  3.72501346e-03  1.24722183e-01  1.12419285e-01  2.30141934e-02
  2.39263959e-02  2.88045984e-02 -1.13663219e-01 -1.06493056e-01
  1.08788311e-01 -5.12707010e-02  8.53022113e-02 -1.15276349e-03]