[-0.13502394  0.09034823  0.06663711 -0.04226523 -0.15683778 -0.03207554
 -0.02919134 -0.11665251  0.17118572 -0.02341209  0.2617451  -0.0260488
 -0.23391171 -0.09053209  0.0005171   0.19581802 -0.19759279 -0.07285832
 -0.04338795 -0.04420393  0.01307163  0.04378208  0.05266383  0.00495995
 -0.13019474 -0.31419989 -0.0522785  -0.10278641  0.00046113 -0.07087329
 -0.04232704  0.08528968 -0.15229942 -0.05063919  0.09771066  0.0981386
 -0.08813857 -0.05678897  0.19858395 -0.07098396 -0.23400433 -0.02078849
  0.08025932  0.2043132   0.23078083 -0.00463348 -0.00533212 -0.12278302
  0.14501016 -0.15711172 -0.00301472  0.15416355  0.03053548  0.03978086
  0.01082764 -0.13042544 -0.00908912  0.1811316  -0.12268557 -0.05408422
  0.11755927 -0.13959809 -0.05264543 -0.08205083  0.22474913  0.06660805
 -0.12565266 -0.16387857  0.09663357 -0.12138889 -0.06435783  0.08535495
 -0.18129916 -0.19310215 -0.25054464 -0.01811923  0.38503295  0.05465503
 -0.18135662  0.01908907 -0.04300966  0.0032503   0.11925387  0.15104873
  0.009381   -0.01779388 -0.08134508 -0.02675808  0.23690858 -0.09559771
  0.03263222  0.21762183  0.01170224  0.07460272 -0.00135776 -0.05052049
 -0.03435507  0.01320333 -0.1210709  -0.03405367 -0.01861102 -0.0517655
  0.02010003  0.09330413 -0.16567469  0.12003996  0.05041287  0.07949042
  0.022185   -0.07930861 -0.0086432  -0.05643077  0.14942506 -0.23650382
  0.23743725  0.14551704  0.04040253  0.13615549  0.05900218  0.078522
 -0.03308746  0.00057957 -0.17278758  0.02852664  0.09774309 -0.05909472
  0.09005998 -0.02659019]