[-1.47315904e-01  9.14844498e-02  8.04437324e-02 -4.08938825e-02
 -1.02454714e-01 -1.35063520e-02 -9.84687358e-05 -1.51278645e-01
  1.40761375e-01 -5.79248480e-02  2.33462021e-01  3.71827148e-02
 -2.73778260e-01 -8.74562636e-02  2.96440721e-02  1.36206657e-01
 -1.27683744e-01 -6.58536032e-02 -1.21389739e-01 -4.16819602e-02
 -2.54332717e-03  3.40294912e-02  5.15897870e-02  3.67689542e-02
 -1.50579959e-01 -3.08692127e-01 -5.28750606e-02 -9.10784975e-02
 -5.17619252e-02 -3.55016477e-02 -1.67343020e-03  8.48400816e-02
 -1.24561302e-01 -2.74927747e-02  2.15660688e-02  5.37686162e-02
 -9.50624347e-02 -3.16622667e-02  1.89509884e-01 -6.22558855e-02
 -2.41868928e-01 -9.65788495e-03  3.61405313e-02  2.34793350e-01
  2.52386540e-01 -2.02748533e-02  2.78864503e-02 -6.46193847e-02
  1.22573368e-01 -2.18224242e-01 -1.81653281e-03  1.01385891e-01
  4.28369530e-02  5.55045493e-02  3.36747169e-02 -1.77085027e-01
 -9.46759246e-03  1.39568850e-01 -1.38936803e-01 -2.87508257e-02
  4.40925695e-02 -1.66445717e-01 -4.12296727e-02 -4.80688214e-02
  2.19305024e-01  9.57298204e-02 -1.45587549e-01 -1.21919170e-01
  1.43437073e-01 -1.28632769e-01 -4.20896895e-02  9.06786323e-02
 -1.94027901e-01 -2.01263115e-01 -2.77915537e-01  3.65168452e-02
  4.23371404e-01  1.24870680e-01 -1.78838849e-01 -1.84426811e-02
 -1.01782911e-01  3.87357548e-02  9.21690390e-02  9.52681452e-02
 -1.85532235e-02 -5.40766381e-02 -5.94946258e-02  9.15416609e-03
  2.11756378e-01 -3.98186333e-02 -5.85985593e-02  2.46313959e-01
  5.35659008e-02  4.54514325e-02  1.22125046e-02 -2.15943716e-02
 -2.55043264e-02  1.31097762e-02 -1.40695736e-01  2.03761477e-02
  2.55595963e-03 -5.94829097e-02  7.16558769e-02  1.02748610e-01
 -1.64070070e-01  1.98696107e-01  6.92939088e-02  8.85012671e-02
  4.66519743e-02 -1.51096657e-03 -8.33832175e-02 -2.90793311e-02
  1.48017988e-01 -2.60657340e-01  2.37526491e-01  1.65330410e-01
  7.88911134e-02  1.39899150e-01  6.02296852e-02  3.99769656e-02
 -2.30124835e-02  1.66750494e-02 -1.66821197e-01 -4.55719745e-03
  1.37250185e-01 -5.09478748e-02  1.13836646e-01  2.83398274e-02]