[-0.10454452  0.13881439  0.03942867 -0.1087329  -0.10444714 -0.03941379
 -0.01477186 -0.15151289  0.22066489 -0.09643864  0.21495073  0.00315923
 -0.26009923 -0.05663921 -0.04444505  0.18289761 -0.16032177 -0.14231239
 -0.09263972 -0.08257826  0.03089653 -0.01796927  0.00956929  0.11996569
 -0.12744643 -0.28743267 -0.04532985 -0.0922656  -0.01212642 -0.06706394
  0.00589398  0.04300461 -0.15854685 -0.00427861  0.05926318  0.07175659
 -0.04788464 -0.04372261  0.14996107 -0.03885716 -0.25281003 -0.01807752
  0.05821918  0.22452469  0.23450089  0.01333621  0.0337728  -0.1217522
  0.13378111 -0.19528137  0.02088265  0.14384925  0.04450955  0.0371777
  0.07821111 -0.20788983 -0.0147243   0.15076296 -0.15273814 -0.03795922
  0.09029607 -0.11811379 -0.0524193  -0.08159749  0.23542555  0.08917513
 -0.17105249 -0.12581338  0.20295499 -0.1648594  -0.01554824  0.05560456
 -0.14165251 -0.18985736 -0.2435336   0.04085903  0.43104109  0.21136215
 -0.12637159  0.05883678 -0.10944181  0.07523412  0.03997898  0.10443711
 -0.06001645  0.01672019 -0.05082867  0.01353273  0.14397638 -0.01429876
  0.00708104  0.23614521 -0.01483896  0.02470252 -0.02284508 -0.04521726
 -0.12171306  0.01720705 -0.13895404 -0.02881766 -0.06806052 -0.01306175
  0.08362858  0.08533496 -0.17390199  0.11466147  0.02163937  0.03622755
 -0.0359433   0.07681791 -0.05484543 -0.07638354  0.10525053 -0.27590111
  0.22187351  0.15774986  0.10377939  0.14856817  0.09095927  0.06190225
  0.04127606 -0.06041275 -0.117571   -0.0041113   0.09173059 -0.07535451
  0.10984562  0.00538182]