[-0.08823304  0.105385    0.07485011 -0.02486007 -0.14244674 -0.0029604
 -0.05801273 -0.1293335   0.16805482 -0.03175237  0.2330102  -0.01600062
 -0.22180615 -0.08002683  0.03958749  0.17892697 -0.19667093 -0.04974264
 -0.04206413 -0.05114747 -0.00777139  0.04518544  0.02878271 -0.00278009
 -0.12229568 -0.31563196 -0.07164188 -0.0860067   0.01208896 -0.05329278
 -0.0627287   0.06876289 -0.1405227  -0.08532743  0.08800534  0.08534321
 -0.09230183 -0.05589835  0.14792798 -0.06413995 -0.22092214  0.00501149
  0.06829941  0.21016322  0.23789819  0.03168091 -0.00460179 -0.09834023
  0.14063089 -0.15819417 -0.01133037  0.12314911  0.04227572  0.02453012
  0.03114369 -0.16246526 -0.02556384  0.16263068 -0.13301633 -0.03999772
  0.1046465  -0.14290759 -0.02221127 -0.06774577  0.22708857  0.06321473
 -0.11620293 -0.16126095  0.10010483 -0.09887372 -0.04358723  0.06897388
 -0.16465861 -0.19513193 -0.27644375  0.00718978  0.4052251   0.05177377
 -0.17616539  0.01298772 -0.04708023  0.00839195  0.12465396  0.13110426
  0.0211274  -0.04630088 -0.07724683 -0.035427    0.22004068 -0.09943565
  0.02476303  0.20510383 -0.00954325  0.06369682 -0.01017047 -0.02214531
 -0.06780364  0.04283921 -0.12871523 -0.03074691  0.00655151 -0.05782333
  0.04418948  0.11493702 -0.17582153  0.12602639  0.05830004  0.07012513
  0.04444025 -0.05930365 -0.05146063 -0.05586269  0.17468634 -0.2778475
  0.21550313  0.16355057  0.0238629   0.14439161  0.05566617  0.0770522
 -0.02430953  0.00230127 -0.18348068  0.0055672   0.0854547  -0.05749412
  0.06468281 -0.0037469 ]