[-9.46945101e-02  1.38405547e-01  8.78727809e-02 -5.06000035e-02
 -1.67791709e-01  3.96497697e-02 -7.56421685e-03 -1.13008432e-01
  1.50788561e-01 -5.03386147e-02  2.67053097e-01  8.84958822e-03
 -2.82647938e-01 -6.82589412e-02  1.77384634e-02  1.75876066e-01
 -1.72961667e-01 -8.16086158e-02 -1.13614164e-01 -4.24053259e-02
  4.47381102e-02  6.51515722e-02 -2.69191209e-02  1.21889235e-02
 -1.18662357e-01 -3.48081976e-01 -5.57780750e-02 -6.86254874e-02
  1.88904721e-02 -7.39939436e-02 -3.20299380e-02  8.85097608e-02
 -1.04419127e-01 -1.16497306e-02  6.18276261e-02  8.79518017e-02
 -7.17158094e-02 -6.05034344e-02  1.29181504e-01 -8.28356966e-02
 -2.53903210e-01  2.09125187e-02  9.25083384e-02  2.07035020e-01
  2.53212363e-01 -1.60627514e-02  1.78504493e-02 -8.33114386e-02
  1.07728079e-01 -1.82656795e-01 -1.19755315e-02  1.48414254e-01
  8.13567340e-02  7.80086368e-02  5.93027435e-02 -2.05592558e-01
 -1.38988672e-02  1.40339300e-01 -1.37878880e-01 -8.47144574e-02
  5.83749302e-02 -1.59037575e-01 -9.18442663e-03 -4.68675606e-02
  1.85199484e-01  1.83707215e-02 -1.45608723e-01 -1.45953342e-01
  1.09046064e-01 -1.36074170e-01 -5.86781204e-02  4.25028317e-02
 -2.05866575e-01 -1.79246947e-01 -3.17662627e-01  4.94163930e-02
  4.62040335e-01  1.16697147e-01 -2.00148821e-01  4.29146029e-02
 -5.58911376e-02  1.33662077e-03  9.09891054e-02  1.21666372e-01
 -2.15534996e-02 -5.98982051e-02 -1.15923837e-01  3.05047724e-02
  1.83735311e-01 -8.16635415e-02  3.14175300e-02  2.30331853e-01
  3.68034057e-02  6.10470548e-02 -7.92986806e-03  4.39604977e-03
 -6.10501356e-02  1.43523142e-02 -1.13721430e-01 -4.53700137e-04
 -3.55804339e-02 -6.00667596e-02  2.40569748e-02  1.22382954e-01
 -1.81124076e-01  1.57537177e-01  7.14475065e-02  6.40282631e-02
  2.18215468e-03 -3.88359502e-02 -5.19014373e-02 -4.01530676e-02
  1.56907484e-01 -2.72434115e-01  1.84160575e-01  1.91840425e-01
  5.28277270e-02  1.51882753e-01  8.81362855e-02  4.96337302e-02
 -3.88185307e-03 -3.98889072e-02 -1.87140182e-01  1.73109773e-04
  9.97738913e-02 -7.62872323e-02  4.10699733e-02  1.67324487e-02]