[-0.1793032   0.06413622  0.03655624 -0.07097148 -0.09579371 -0.01627257
  0.02657623 -0.18043964  0.10997387 -0.10629608  0.18611065 -0.01696083
 -0.24610856 -0.10136902 -0.04439604  0.17012982 -0.14284347 -0.13722669
 -0.10019034 -0.06351101  0.02192727  0.05375266 -0.01453877  0.0271375
 -0.12131342 -0.30813694 -0.0723284  -0.0556563  -0.02084184 -0.03109258
 -0.05573544  0.07161557 -0.16851854 -0.03957954  0.08650782  0.09107427
 -0.03926654 -0.04777006  0.1088325  -0.01616936 -0.22819932  0.01091983
  0.13155301  0.23505151  0.21226406 -0.00787578 -0.0194996  -0.10787193
  0.14395519 -0.11832511 -0.04291224  0.09838083  0.09331381  0.0807686
  0.00842444 -0.18324523  0.00175596  0.12129649 -0.10733218 -0.02215728
  0.04432149 -0.14827789 -0.0828311  -0.05907327  0.15540054  0.0341139
 -0.1486547  -0.1842594   0.13454276 -0.14096858 -0.04663352  0.03965866
 -0.18077485 -0.18301621 -0.23169596  0.03967034  0.34843272  0.12915401
 -0.17856793  0.02675635 -0.03876707  0.06951879  0.10918565  0.14581363
 -0.01646142  0.01734081 -0.04426286 -0.02051246  0.19131009 -0.0305302
 -0.04994994  0.19905789 -0.00897725  0.05691592  0.02386888 -0.00866524
 -0.09289625  0.02909179 -0.14398269 -0.03939412  0.01167849 -0.06627456
  0.04456265  0.10675504 -0.13289058  0.16098049  0.03667028  0.0917358
  0.01398697 -0.01391343 -0.05493454 -0.02481121  0.07447476 -0.22677751
  0.24871437  0.20887041  0.06121147  0.13887274  0.12621908  0.02050662
  0.02216944  0.03956881 -0.14951578 -0.04895532  0.14207704 -0.06878947
  0.09992387 -0.04244343]