[-9.38194767e-02  1.26501143e-01  4.92194891e-02 -8.13325271e-02
 -1.74315333e-01  7.63328606e-03 -1.20700374e-02 -1.15766682e-01
  1.61099657e-01 -4.06478159e-02  2.50616610e-01  4.76407958e-03
 -2.66854078e-01 -7.24678859e-02 -1.00164758e-02  1.72447816e-01
 -1.72943249e-01 -1.18035950e-01 -8.77094343e-02 -5.26918285e-02
  5.53205311e-02  3.24068666e-02 -3.22010182e-02  4.51474600e-02
 -1.38485238e-01 -3.45564455e-01 -7.76617005e-02 -7.34151974e-02
 -1.93307344e-02 -8.31389278e-02 -1.31747132e-04  1.02812387e-01
 -1.14859037e-01 -1.30128590e-02  6.57911226e-02  9.95327681e-02
 -6.95330724e-02 -4.31954823e-02  1.29805908e-01 -6.73828050e-02
 -2.52961278e-01  3.22743133e-02  1.12289980e-01  2.39334509e-01
  2.61192441e-01  6.51605427e-03  1.80514362e-02 -7.37069771e-02
  1.21629797e-01 -1.79199934e-01 -2.02491581e-02  1.44013062e-01
  8.17721412e-02  6.05335198e-02  4.97419015e-02 -1.80220932e-01
  1.23750512e-02  1.46474883e-01 -1.79302096e-01 -7.25265369e-02
  7.24733695e-02 -1.89189628e-01 -2.54204310e-02 -5.69765978e-02
  2.12191537e-01  3.54480557e-02 -1.44093752e-01 -1.48118272e-01
  1.27570227e-01 -1.63934350e-01 -6.05888329e-02  5.47563136e-02
 -1.91247463e-01 -1.87692538e-01 -3.03893447e-01  4.29191887e-02
  4.58768427e-01  1.39995173e-01 -1.65777802e-01  6.91787973e-02
 -4.03951257e-02  2.23214515e-02  7.79138133e-02  1.01678111e-01
 -4.86465879e-02 -2.71205064e-02 -1.39750466e-01  3.37945931e-02
  1.96733207e-01 -5.95774464e-02  3.15535925e-02  2.34444648e-01
  2.64422335e-02  7.58619756e-02  9.85391438e-03 -8.13637674e-03
 -7.76184127e-02  1.97064560e-02 -1.26555875e-01 -4.57596360e-03
 -4.50593159e-02 -5.79101034e-02  3.80722694e-02  9.53466222e-02
 -1.59411252e-01  1.52287617e-01  4.26265784e-02  6.61120936e-02
 -5.30727692e-02 -3.57176960e-02 -5.27659766e-02 -3.45767252e-02
  1.51400968e-01 -2.76139557e-01  1.78200886e-01  1.73047304e-01
  7.49825835e-02  1.46852300e-01  9.82245877e-02  2.83059310e-02
 -2.30605714e-02 -6.60738274e-02 -1.89339265e-01  1.95381641e-02
  1.07028626e-01 -9.54856500e-02  9.79005918e-02  1.56051666e-02]