[-0.13252012  0.08794342  0.06477379 -0.0318637  -0.15353443 -0.03769751
 -0.03145148 -0.1182025   0.17155214 -0.03448465  0.24852525 -0.03440196
 -0.23052846 -0.08794244 -0.00800487  0.20516656 -0.20806287 -0.07349226
 -0.04099044 -0.04708528  0.01728271  0.05145377  0.04736149  0.00531945
 -0.13171551 -0.31950149 -0.05501084 -0.10229155 -0.00499711 -0.07289843
 -0.03972273  0.07989129 -0.14108014 -0.05575168  0.09977431  0.09065508
 -0.07334957 -0.05427143  0.19699953 -0.06728765 -0.23948462 -0.02170466
  0.08838683  0.21175964  0.22445379  0.00086169 -0.00719039 -0.12848735
  0.1477983  -0.1554189  -0.00888749  0.14531623  0.02700661  0.03596455
  0.01603807 -0.12909164 -0.0140931   0.18260244 -0.12058079 -0.05404862
  0.12418661 -0.13228056 -0.0412407  -0.07431727  0.22718918  0.05337019
 -0.12430432 -0.16012044  0.09991748 -0.12390913 -0.06318427  0.07336146
 -0.17060749 -0.19382817 -0.25825402 -0.02089561  0.38792911  0.05259376
 -0.17572989  0.02334599 -0.04238369  0.00680952  0.13115212  0.15314639
  0.01213503 -0.01615206 -0.07543807 -0.02879466  0.23467325 -0.09142067
  0.03247524  0.21129309  0.00976666  0.06941199  0.00285773 -0.05028585
 -0.04467688  0.02168989 -0.12288711 -0.02692766 -0.01547099 -0.04595916
  0.02921644  0.09588622 -0.16319583  0.11546375  0.04792234  0.0714538
  0.02369743 -0.06657769 -0.02037828 -0.05921733  0.15149008 -0.23635776
  0.22864173  0.14683419  0.03604837  0.14206886  0.06026622  0.08162311
 -0.03309981  0.0049751  -0.17344287  0.0291826   0.102057   -0.06203317
  0.09282847 -0.02843235]