[-9.68505368e-02  1.14015833e-01  8.05201679e-02 -5.30819781e-02
 -1.49345905e-01  2.31838208e-02  1.35322427e-02 -1.17966175e-01
  1.57564998e-01 -5.68576232e-02  2.59222418e-01  4.51068813e-03
 -2.84959733e-01 -6.30910471e-02  8.17103125e-03  1.76239774e-01
 -1.76289245e-01 -1.08251169e-01 -1.15695052e-01 -3.31610031e-02
  5.13583533e-02  5.07607237e-02  8.01321527e-04  3.20141278e-02
 -1.33952722e-01 -3.56310219e-01 -5.76269515e-02 -7.85920247e-02
 -1.73985772e-02 -5.92637360e-02 -2.54233684e-02  8.83994102e-02
 -1.16176464e-01 -4.05372673e-04  7.79416487e-02  1.14691876e-01
 -6.87523559e-02 -4.47025374e-02  1.33344740e-01 -7.08679706e-02
 -2.76940197e-01  1.85633190e-02  9.87130031e-02  2.18744949e-01
  2.63587922e-01  1.04293833e-02  6.19372213e-03 -8.72171447e-02
  1.07929043e-01 -2.00288519e-01  1.05420901e-02  1.39648154e-01
  7.69305825e-02  7.23973513e-02  6.92088380e-02 -2.08885416e-01
  3.84615781e-03  1.49780020e-01 -1.39178112e-01 -8.20476338e-02
  5.83334155e-02 -1.68094069e-01  1.44658983e-02 -2.85808295e-02
  2.11424187e-01  2.13386398e-02 -1.56468928e-01 -1.31252483e-01
  1.07093252e-01 -1.50779173e-01 -4.77078073e-02  6.37509674e-02
 -1.96363539e-01 -1.88592419e-01 -3.08792263e-01  3.91956046e-02
  4.80428219e-01  1.17468193e-01 -1.86172515e-01  4.32609729e-02
 -7.19739944e-02  2.57199705e-02  9.25186574e-02  1.19642198e-01
 -3.81754227e-02 -3.23033333e-02 -1.46177530e-01  1.41994134e-02
  1.92127377e-01 -7.22438246e-02  2.34044399e-02  2.52820581e-01
  1.65301710e-02  5.20630144e-02  1.18619604e-02  8.86138514e-05
 -7.43614361e-02  1.65558755e-02 -1.25708118e-01 -3.21434736e-02
 -3.49920504e-02 -6.18669651e-02  2.59288307e-02  1.08676217e-01
 -2.00672299e-01  1.30842194e-01  3.99069414e-02  6.43706843e-02
  3.26429610e-03 -3.59984450e-02 -5.47754169e-02 -5.14095798e-02
  1.43778041e-01 -2.97933370e-01  1.74446046e-01  1.90712944e-01
  5.46772555e-02  1.57713756e-01  9.05991867e-02  4.50156890e-02
 -1.37760965e-02 -4.80273776e-02 -1.84696645e-01  2.04996075e-02
  1.11220397e-01 -5.91266826e-02  7.29174688e-02  1.44948456e-02]