[-0.12955375  0.08648475  0.04735055 -0.05398599 -0.14631738  0.0633563
  0.0238662  -0.11869843  0.15620585 -0.07136233  0.25539955 -0.02617563
 -0.30652878 -0.07107829  0.00699127  0.19641417 -0.10480352 -0.04412215
 -0.14070831 -0.05567838  0.01975019  0.03448568 -0.00462573  0.04432106
 -0.15254669 -0.33006775 -0.06885693 -0.08005259 -0.02837279 -0.06340399
 -0.07171346  0.09462179 -0.09593575 -0.057877    0.05554738  0.05729295
 -0.0680507  -0.02932954  0.12724569 -0.04563267 -0.22679377  0.00993675
  0.071581    0.24413955  0.21714549  0.02085443  0.03597338 -0.05329251
  0.10094612 -0.21881199  0.00604551  0.08560266  0.08886303  0.04335477
  0.04015195 -0.18622904 -0.02981732  0.16641204 -0.14069657  0.00803513
  0.07550979 -0.16453563 -0.05164708 -0.03710479  0.20891677  0.08802263
 -0.16941006 -0.12987518  0.14226431 -0.10547638 -0.00793993  0.02000405
 -0.20882662 -0.21471107 -0.28518048  0.06511357  0.44951722  0.14498147
 -0.21608917 -0.02125336 -0.08526812  0.06670803  0.12193825  0.10313834
  0.01293597 -0.09672948 -0.08437549  0.00890044  0.18438759 -0.08973558
 -0.00710535  0.25500131  0.03522083  0.02709989 -0.02453324  0.01970148
 -0.0912064   0.01067148 -0.09965395  0.01277477  0.00307808 -0.06006961
  0.0706499   0.10635545 -0.16608681  0.19227158  0.03989197  0.08669053
  0.03595374 -0.01362389 -0.07947343 -0.03380108  0.15069515 -0.24912404
  0.18447213  0.19348507  0.04848554  0.13725379  0.08990748  0.04651283
  0.04310737  0.01288066 -0.18233286 -0.02824697  0.12627108 -0.09269232
  0.06055498  0.01320584]