[-1.81240663e-01  5.26329577e-02  2.87800916e-02 -3.19783464e-02
 -1.18500017e-01 -2.31256522e-02  3.33006866e-02 -1.78765222e-01
  6.36869892e-02 -1.01292528e-01  1.86720088e-01 -1.80007964e-02
 -2.55424917e-01 -1.36782646e-01  1.82896375e-03  1.69915497e-01
 -1.04502693e-01 -1.39710590e-01 -1.21868543e-01 -7.36979395e-02
 -3.18338233e-03 -1.77580514e-03 -1.16735995e-02  3.86087149e-02
 -1.17808484e-01 -2.82411903e-01 -5.14062606e-02 -3.55505161e-02
 -2.10166667e-02 -3.22931744e-02 -5.61215095e-02  9.44449231e-02
 -1.83809221e-01 -5.69495335e-02  7.46522397e-02  1.02411412e-01
 -3.05988919e-02 -1.91479102e-02  1.24605082e-01 -3.86050008e-02
 -2.10831046e-01  2.95412238e-03  1.11304738e-01  2.33968213e-01
  1.90868825e-01  1.00945532e-02  6.89970283e-03 -6.56534955e-02
  1.25283003e-01 -1.43594965e-01 -4.64677997e-02  9.17470008e-02
  8.80777761e-02  5.08754365e-02  3.02870963e-02 -1.96230054e-01
  1.00022545e-02  1.28511459e-01 -1.10598721e-01 -1.18361097e-02
  2.81721987e-02 -1.46487266e-01 -5.85274175e-02 -6.93090707e-02
  1.90707713e-01  3.81233059e-02 -1.30123124e-01 -1.58110052e-01
  1.49320394e-01 -1.32998392e-01 -3.51271704e-02  4.52683084e-02
 -1.60756901e-01 -1.74239829e-01 -2.80099213e-01  4.53924946e-02
  3.52269530e-01  1.44557998e-01 -1.78356946e-01  8.66730046e-03
 -2.90401466e-02  5.72326779e-02  1.20074928e-01  1.10726073e-01
 -2.55987924e-02  2.83395872e-03 -5.48954196e-02 -1.69569105e-02
  1.93394780e-01 -7.92732835e-03 -4.21194397e-02  1.86450750e-01
  1.72785204e-02  2.74696052e-02  1.54641569e-02 -2.17622556e-02
 -6.50402158e-02  1.54047897e-02 -1.34268984e-01 -9.97826501e-05
 -4.81873518e-03 -1.00945354e-01  6.79483563e-02  1.04201689e-01
 -1.36631951e-01  1.14890575e-01  1.32232457e-02  8.67085382e-02
 -3.25870588e-02  1.00662187e-02 -8.68755877e-02 -1.31041063e-02
  5.62632084e-02 -2.65850991e-01  2.42135242e-01  2.30295762e-01
  3.47910188e-02  1.12632729e-01  1.11597411e-01  2.10012738e-02
  2.50267833e-02  3.51557322e-02 -1.21381499e-01 -7.23204538e-02
  1.39163136e-01 -8.43106732e-02  1.01148240e-01 -4.97508002e-03]