[-0.13751593  0.13763222  0.05602955 -0.06886464 -0.14662385  0.00298171
 -0.03328075 -0.13519824  0.14942226 -0.07104702  0.26206082 -0.02837508
 -0.26061895 -0.08853807 -0.02046642  0.17424186 -0.18912113 -0.09448594
 -0.0606279  -0.01398285  0.07389786 -0.00579778  0.03306645  0.02619428
 -0.14175153 -0.38941738 -0.09054875 -0.07136111 -0.01108374 -0.03417584
 -0.02996365  0.01709608 -0.16508357 -0.05138711  0.042084    0.10354563
 -0.04822589 -0.03676068  0.12204176 -0.0610771  -0.25415745  0.03033246
  0.08335223  0.25277132  0.22080834  0.04497612  0.04124244 -0.1153262
  0.10017686 -0.1355187   0.020747    0.11735914  0.07398921  0.02846657
  0.03702803 -0.16461606  0.0009664   0.18536644 -0.13768034 -0.04354834
  0.10718019 -0.08011746 -0.01008906 -0.08143991  0.25438106  0.04898391
 -0.16306891 -0.1509064   0.12439769 -0.10348868 -0.02706449  0.05343348
 -0.21193127 -0.20885168 -0.30722991  0.04457753  0.45641446  0.12652603
 -0.1633288  -0.00154053 -0.07941304  0.0503563   0.11310728  0.1278774
 -0.01689756 -0.00156441 -0.11362094  0.03454227  0.19271068 -0.06616836
 -0.01434539  0.21791099  0.01436343  0.05867811 -0.02450182 -0.00755355
 -0.10964604  0.05412219 -0.15535192 -0.01690068 -0.02323961 -0.03080885
  0.03254774  0.11935478 -0.16655922  0.1221023   0.04782264  0.06262702
 -0.00980867 -0.01656334 -0.07484225 -0.05239099  0.1294746  -0.2707983
  0.19874187  0.20621096  0.09789121  0.13880812  0.1208797   0.02553107
  0.00794441 -0.0134046  -0.20800009  0.02659211  0.10265737 -0.08641101
  0.12987658 -0.00056671]