[-0.10233008  0.13039038  0.04390464 -0.07603862 -0.15078096  0.01183863
 -0.04022625 -0.12504561  0.16186392 -0.0573167   0.26656938 -0.05277488
 -0.25144416 -0.07612403 -0.02295572  0.18250136 -0.21063533 -0.10286031
 -0.05438617 -0.00845394  0.07341854  0.02432984  0.02975693  0.03951711
 -0.15995932 -0.40126035 -0.07093725 -0.06913071  0.01333875 -0.03077075
 -0.06276091  0.04373735 -0.1693216  -0.05008176  0.07140364  0.11692309
 -0.04232397 -0.04527018  0.11298628 -0.05207854 -0.27212378  0.03334944
  0.09336438  0.24901699  0.22098123  0.04628012  0.02678351 -0.10991319
  0.08320464 -0.14160995  0.01590794  0.13160102  0.06433703  0.03768206
  0.01461637 -0.1694769  -0.0240542   0.19247894 -0.13770577 -0.04881709
  0.10865288 -0.08895399  0.00721814 -0.09449832  0.26172385  0.05116268
 -0.16305944 -0.15555491  0.10962401 -0.11245316 -0.02935732  0.0543873
 -0.20418154 -0.19755954 -0.29241535  0.02669708  0.43060881  0.11350335
 -0.16466056  0.00574007 -0.06825984  0.0575045   0.11423903  0.13311465
  0.00093037  0.01101124 -0.11366641  0.03137278  0.20397894 -0.07986464
  0.00904369  0.23419845 -0.00163217  0.06613927 -0.01974069 -0.00116954
 -0.11308757  0.05560476 -0.14498511 -0.01633133 -0.03024932 -0.01360096
  0.04151521  0.13287602 -0.15821597  0.1090238   0.04148216  0.0655246
  0.02033333 -0.01213804 -0.03958247 -0.0940771   0.13099431 -0.27238852
  0.19071387  0.19812725  0.10022403  0.14125448  0.09875638  0.03394096
  0.00478661 -0.01740595 -0.21286769  0.04076319  0.0994965  -0.09590025
  0.11061441 -0.00808632]