[-1.17288545e-01  8.94291103e-02  9.21281502e-02 -5.90462275e-02
 -1.04935579e-01  1.16673335e-02  2.21739747e-02 -1.46986067e-01
  1.57199338e-01 -6.60870001e-02  2.24921867e-01  1.87366698e-02
 -2.53168017e-01 -7.74508342e-02  5.35863303e-02  1.46232054e-01
 -1.42390162e-01 -5.80567531e-02 -1.06767610e-01 -6.36715218e-02
 -7.13797286e-03  5.34002855e-02  4.58355360e-02  6.00011460e-02
 -1.60293832e-01 -3.23083490e-01 -4.26791608e-02 -8.30412284e-02
 -9.48185753e-03 -3.61811630e-02 -4.38644812e-02  8.18203017e-02
 -1.31670281e-01 -1.36557538e-02  6.71673641e-02  1.02626197e-01
 -1.21832006e-01 -5.28883934e-02  1.39557794e-01 -4.39027324e-02
 -2.32482314e-01 -1.63022820e-02  3.50238048e-02  2.25178912e-01
  2.59540319e-01  7.17910414e-04  3.56446952e-04 -4.00003530e-02
  1.12269916e-01 -2.24452481e-01 -2.82464176e-03  9.93756875e-02
  2.54201293e-02  6.31680787e-02  3.52039337e-02 -1.95207030e-01
 -1.45091787e-02  1.25664279e-01 -1.46140799e-01 -4.26097214e-02
  3.92135791e-02 -2.00853825e-01 -3.73154841e-02 -2.68947221e-02
  2.07778335e-01  8.26941505e-02 -1.68450937e-01 -1.02984428e-01
  1.06995158e-01 -1.47011429e-01 -4.91043646e-03  6.86368793e-02
 -1.75762936e-01 -1.93865255e-01 -2.54295439e-01  4.20412607e-02
  4.18755502e-01  1.32323399e-01 -1.73731491e-01 -3.41299139e-02
 -8.94112885e-02  6.92848861e-02  9.55832079e-02  1.15300216e-01
 -1.61418561e-02 -4.72761802e-02 -6.57805726e-02  1.08170211e-02
  1.68701798e-01 -5.95942810e-02 -2.80763805e-02  2.71415025e-01
  1.20614506e-02  4.59686480e-02 -3.70468642e-03 -1.39297936e-02
 -6.16873316e-02  8.61146767e-03 -1.09914593e-01 -1.07751191e-02
  1.04468828e-02 -6.84822053e-02  7.32413530e-02  1.14555180e-01
 -2.09784314e-01  1.96117282e-01  5.59567325e-02  7.12999329e-02
  7.62642473e-02 -2.31229272e-02 -8.15064833e-02 -5.24657927e-02
  1.38165072e-01 -2.93782353e-01  2.10604191e-01  2.11910963e-01
  6.28455803e-02  1.66564345e-01  5.10439090e-02  2.47167237e-02
 -1.80259358e-05 -4.64603631e-03 -1.42470479e-01 -7.21149147e-04
  1.12551868e-01 -5.78782558e-02  7.27797374e-02 -6.71812100e-03]