[-0.11180711  0.14791131  0.03159962 -0.07088814 -0.12083919 -0.01707012
 -0.00428375 -0.15251096  0.19083117 -0.09419446  0.25647217  0.00333053
 -0.24506931 -0.06585111 -0.0629009   0.19331561 -0.18174452 -0.14440362
 -0.08731402 -0.05952842  0.0470508  -0.00752917  0.0109927   0.07245304
 -0.1217367  -0.31276867 -0.06460922 -0.07768312  0.01374316 -0.05428928
 -0.0022188   0.03639587 -0.13103615 -0.0027199   0.06236792  0.06588489
 -0.05016566 -0.03082807  0.19444232 -0.02482273 -0.25749335  0.04130749
  0.07307869  0.26031709  0.2157685   0.02604606  0.02545077 -0.12917267
  0.12431003 -0.15280834  0.02231703  0.14859082  0.08908791  0.04874355
  0.03374591 -0.19015227 -0.02027847  0.15904675 -0.15155979 -0.03769634
  0.09358556 -0.11907102 -0.02225744 -0.07879072  0.22773789  0.07975689
 -0.15771    -0.15377907  0.17353669 -0.15312932 -0.04665134  0.05476997
 -0.16378276 -0.18592915 -0.2470765   0.04109603  0.46218887  0.17946164
 -0.13886409  0.02554757 -0.07897323  0.03368944  0.07833333  0.12287717
 -0.06003333 -0.01883468 -0.07651361 -0.00352196  0.17937241 -0.03052425
 -0.02390498  0.21669708  0.01355205  0.06357671 -0.02650221 -0.04795716
 -0.10617178  0.04901331 -0.13361539 -0.02594955 -0.09749853 -0.01985317
  0.06925901  0.08523738 -0.15292032  0.13005577  0.03629228  0.05449467
 -0.03617704  0.08057979 -0.06030177 -0.06538998  0.11147125 -0.26413676
  0.23339982  0.17919256  0.11675924  0.13970904  0.126945    0.05345979
  0.03077948 -0.03072078 -0.16046648  0.00466181  0.09443568 -0.0853221
  0.13999654  0.01257099]