[-0.17503056  0.08620697  0.04238478 -0.06823605 -0.1455507   0.00563258
  0.02761247 -0.1590303   0.08762079 -0.11234857  0.17369519 -0.02121405
 -0.26340148 -0.08191661 -0.02012992  0.17991289 -0.12386622 -0.16533379
 -0.1607831  -0.07940274  0.00625769  0.03268496 -0.01707888  0.03979937
 -0.12096716 -0.29650199 -0.05399236 -0.02189158  0.01393322 -0.07065745
 -0.02354194  0.0728541  -0.15915015 -0.00543876  0.05076893  0.07132087
 -0.0526331  -0.05836353  0.13969938 -0.03921696 -0.24329197  0.02403182
  0.1265406   0.22605518  0.23872857  0.0036763   0.00213637 -0.07644769
  0.11011048 -0.1816403  -0.0152153   0.12246449  0.08787075  0.09372737
  0.01624071 -0.20350145 -0.02003526  0.12564333 -0.11364364 -0.01169012
  0.05957473 -0.14434688 -0.07491474 -0.07562929  0.16130519  0.08107939
 -0.15192144 -0.18115932  0.15933172 -0.16797483 -0.05857667  0.01864715
 -0.15989745 -0.16050741 -0.25076577  0.04754407  0.32472396  0.17048678
 -0.17566924  0.0005773  -0.02697028  0.08463872  0.07085948  0.10739379
 -0.06253716 -0.04038154 -0.04948539  0.00523403  0.17920928 -0.0162836
 -0.04078801  0.20723963  0.03951911  0.01433816  0.00983966  0.01941086
 -0.08310377  0.01553846 -0.13494636  0.01153261 -0.00365983 -0.06559326
  0.06683447  0.11009701 -0.10599513  0.19609344  0.01120748  0.08969637
 -0.02647649  0.0206893  -0.07321599 -0.00852071  0.07987694 -0.21565102
  0.25495982  0.21947773  0.04928717  0.12455078  0.14810956  0.05716298
  0.03942864  0.03608916 -0.13140246 -0.07380968  0.12437232 -0.08008274
  0.088667    0.02793301]