[-0.11869224  0.09554409  0.02304648 -0.08890986 -0.10668885 -0.02164114
 -0.01635454 -0.1600306   0.16330579 -0.09310398  0.21930809 -0.03458303
 -0.25386027 -0.08764553 -0.01866241  0.16571978 -0.15986972 -0.10318871
 -0.06510817 -0.00669285  0.10010355 -0.01998936  0.02605107  0.03685769
 -0.15397553 -0.33726671 -0.08440041 -0.08278131 -0.03450299 -0.00204925
 -0.03291925  0.00996407 -0.16088924 -0.03484352  0.04785867  0.05564312
 -0.03411192 -0.05647079  0.16093735 -0.04500371 -0.29403687  0.03596663
  0.07469445  0.19344775  0.20082198  0.03507754  0.03429972 -0.15091546
  0.13431333 -0.16861156  0.02477576  0.13063157  0.04456551  0.00406547
  0.03152739 -0.13488708  0.0011837   0.15586963 -0.17083003 -0.04760345
  0.12701164 -0.05165096 -0.05411099 -0.0893729   0.21489446  0.11582889
 -0.15643454 -0.15649484  0.14938684 -0.14337701 -0.03739183  0.057025
 -0.18561988 -0.22647503 -0.24590659  0.01680101  0.44481847  0.16177948
 -0.15577856  0.02076809 -0.10735897  0.07131982  0.16862462  0.11035454
  0.01363024  0.00283733 -0.05160541  0.00717307  0.22014804 -0.06756575
 -0.02170156  0.24137214  0.0346537   0.06348588 -0.02749854 -0.03087775
 -0.0734371   0.0457033  -0.15200907 -0.00584535 -0.01316511  0.01499175
  0.06853823  0.11391573 -0.16448168  0.12288423  0.04503712  0.05552572
  0.03004696  0.00869434 -0.06236919 -0.06712216  0.08250599 -0.24334358
  0.20365636  0.15660687  0.08543941  0.10591545  0.1127997   0.03549485
  0.03810861 -0.02214016 -0.221947    0.01107062  0.1297977  -0.05744166
  0.12781231 -0.02622263]