[-0.06582315  0.09342861  0.042783   -0.06652857 -0.17398901  0.0123072
 -0.00862833 -0.15867506  0.15415625 -0.06539289  0.2495759  -0.05242233
 -0.30036813 -0.07850438  0.00248336  0.18766257 -0.1673746  -0.10615207
 -0.07024443 -0.0324053   0.03492136  0.00133687  0.03667225  0.04368228
 -0.14244345 -0.37456614 -0.06987485 -0.08123562 -0.01335972 -0.05897523
 -0.06872675  0.08109654 -0.12190483 -0.04754076  0.08412965  0.08485872
 -0.08033835 -0.07362275  0.12116839 -0.05835325 -0.28032598 -0.0094041
  0.06853782  0.22729497  0.24354564  0.04444343  0.01562611 -0.09191915
  0.08638803 -0.21698821  0.03649999  0.09544679  0.0552683   0.02741233
  0.00924398 -0.17971085 -0.03645162  0.16220823 -0.22293162 -0.05143899
  0.12262908 -0.13734727 -0.02950998 -0.0826482   0.24098651  0.12803976
 -0.17420168 -0.12710303  0.13696449 -0.16212946 -0.01077399  0.05404523
 -0.18717261 -0.22880518 -0.26970503  0.02503297  0.45772442  0.15928024
 -0.13619272 -0.0620469  -0.06158183  0.08061104  0.1139886   0.08621085
 -0.00749657 -0.03411952 -0.08701798  0.03144475  0.18115526 -0.09650552
 -0.040337    0.2548252  -0.00671002  0.04841781 -0.00696627  0.03002226
 -0.06115051  0.0462855  -0.15264569 -0.00131034 -0.0285226  -0.03989505
  0.08400407  0.11591643 -0.13794254  0.12501147  0.02973363  0.05079345
  0.01682483 -0.04666905 -0.07790392 -0.07662688  0.14453433 -0.29566652
  0.1870265   0.19756062  0.11083695  0.14614289  0.05384299  0.01430156
  0.02697261 -0.0911506  -0.18952231  0.01930675  0.12225325 -0.06522524
  0.11163858 -0.00312371]