[-0.10634591  0.06490882  0.06363026 -0.02096397 -0.12601097 -0.00855528
 -0.03927827 -0.14281084  0.15487821 -0.05543283  0.22965191 -0.05705243
 -0.24903412 -0.08314757 -0.01246646  0.21605365 -0.19892405 -0.05885344
 -0.04394786 -0.04408258  0.01284758  0.05915513  0.03893509  0.00936634
 -0.10282506 -0.33953503 -0.05834581 -0.10608673 -0.01498027 -0.03394482
 -0.07421699  0.07646006 -0.12450127 -0.04901961  0.09697441  0.09656212
 -0.07920711 -0.07243127  0.16200155 -0.05655669 -0.21663193 -0.02745046
  0.05799301  0.2016639   0.20275496  0.0193977   0.00070702 -0.12973635
  0.14749175 -0.16789502 -0.01735302  0.10602959  0.03997907  0.0311253
  0.00808594 -0.17339575 -0.01797322  0.16614835 -0.12568174 -0.05149997
  0.08274167 -0.13096026 -0.0300695  -0.07224975  0.22733796  0.06036097
 -0.13127963 -0.14706056  0.1050166  -0.11719574 -0.02597002  0.05852805
 -0.1746427  -0.20579265 -0.27060229 -0.01956281  0.4103156   0.05407512
 -0.17556447 -0.01622147 -0.04606389  0.02638233  0.14700322  0.14883919
  0.0199534  -0.02761973 -0.08131112 -0.04263313  0.2175103  -0.11741942
  0.00851262  0.21481819 -0.00802684  0.08576494 -0.01231847 -0.03967225
 -0.04674209  0.04092329 -0.11120673 -0.0194001  -0.01426628 -0.04339322
  0.04043038  0.10115307 -0.1616904   0.10689548  0.04534418  0.06815427
  0.0525885  -0.06824536 -0.0556643  -0.07038423  0.16760582 -0.25012454
  0.18194287  0.1767246   0.05352822  0.16189052  0.04660432  0.07587617
 -0.03218063 -0.00562582 -0.21228385  0.03387747  0.11322253 -0.04074558
  0.04922033 -0.02465027]