[-0.03472506  0.11751323  0.09068587 -0.0485482  -0.14893313  0.03493449
 -0.03068857 -0.16973782  0.15514861 -0.07084958  0.25246653 -0.0419353
 -0.30685887 -0.05669753 -0.00440665  0.19526891 -0.16537765 -0.09042191
 -0.07009295 -0.01733033  0.03162501  0.01393568  0.05904487  0.00948574
 -0.12398856 -0.354287   -0.06635381 -0.07182129  0.00881447 -0.04389551
 -0.11647504  0.04997758 -0.13495374 -0.04091252  0.09072085  0.07474834
 -0.0727274  -0.09389167  0.09776574 -0.07118603 -0.27348945  0.01211085
  0.06648982  0.18735339  0.25297943  0.0261188   0.0208154  -0.10331068
  0.0682591  -0.20526114  0.0293888   0.09663289  0.04617437  0.04792881
  0.0029158  -0.20438503 -0.05673113  0.16559398 -0.16235869 -0.0525975
  0.12149101 -0.11695774 -0.02833869 -0.06479597  0.21830924  0.11915808
 -0.17474291 -0.16526492  0.09173756 -0.14467011  0.00501176  0.05370585
 -0.20570846 -0.20281358 -0.23871849  0.02184342  0.44316465  0.11975392
 -0.15146208 -0.04343083 -0.08351419  0.08830766  0.10029017  0.09669168
  0.0355745  -0.03017182 -0.08129377  0.01447721  0.18305264 -0.13781869
 -0.01829921  0.24773772 -0.03081557  0.03935419 -0.03016991  0.03235623
 -0.06599092  0.05652905 -0.14287136 -0.01753737 -0.04391665 -0.0298695
  0.0613855   0.11132135 -0.15871714  0.10230809  0.03217778  0.06001649
  0.06330661 -0.05278601 -0.0576021  -0.08833549  0.14326902 -0.30414265
  0.20387673  0.21358593  0.09134269  0.13183339  0.0494204   0.04075689
  0.05301477 -0.04858091 -0.17006528  0.00856244  0.09824373 -0.05455894
  0.06081629 -0.02237539]