[-1.69625565e-01  7.97566324e-02  2.27753669e-02 -8.39669332e-02
 -1.52568862e-01 -3.08687743e-02  5.62403984e-02 -1.39902234e-01
  1.28842399e-01 -1.25526726e-01  1.35568812e-01 -8.70974548e-03
 -2.71662205e-01 -5.31208329e-02  1.71150547e-02  1.74838290e-01
 -1.36370644e-01 -1.49551630e-01 -1.84366420e-01 -1.26490116e-01
 -1.53501276e-02  4.25196663e-02 -3.98033150e-02  3.28102857e-02
 -1.12834685e-01 -2.77569979e-01 -6.37535974e-02 -5.52755315e-03
  1.99284945e-02 -5.44423833e-02  3.96641577e-03  8.96363109e-02
 -1.74542785e-01 -4.57574241e-02  8.92893225e-02  6.86387941e-02
 -7.64077678e-02 -8.32943544e-02  1.31870002e-01 -3.37628275e-02
 -2.01829553e-01 -1.47549901e-02  1.10842086e-01  2.25309372e-01
  2.34695941e-01 -8.75601079e-03 -1.55167105e-02 -7.41152391e-02
  1.48720175e-01 -2.07211733e-01 -4.20673490e-02  1.28003106e-01
  8.32053646e-02  1.05181314e-01  6.62360191e-02 -1.90942764e-01
  2.57968362e-02  1.27022102e-01 -1.43793121e-01 -3.71148698e-02
  5.64283989e-02 -1.58773303e-01 -8.11677948e-02 -8.64751860e-02
  1.59926102e-01  5.79096489e-02 -1.44355699e-01 -1.80806622e-01
  1.74087450e-01 -1.58552065e-01 -5.19698374e-02  4.11206950e-03
 -1.34690970e-01 -1.65538654e-01 -2.49726683e-01  4.27333079e-02
  3.23587209e-01  2.00996503e-01 -1.67898640e-01  1.30889360e-02
 -4.72369008e-02  6.13174252e-02  5.59218414e-02  7.70995021e-02
 -7.56755322e-02 -5.27678803e-02 -4.27461974e-02  1.39760897e-02
  1.78077087e-01 -1.88228842e-02 -5.17508797e-02  2.04090819e-01
  2.51842644e-02 -8.67500727e-04  3.79702263e-03 -6.05274364e-03
 -1.22492425e-01 -1.65243444e-04 -1.36623949e-01 -1.03908470e-02
  4.49075811e-02 -8.57231095e-02  5.98745607e-02  1.32481828e-01
 -1.27561063e-01  2.18118668e-01 -2.76018865e-03  7.22257420e-02
 -5.24973385e-02 -1.07753007e-02 -1.01852082e-01  2.46167537e-02
  8.06261823e-02 -2.26543695e-01  2.68802315e-01  2.10521623e-01
  8.71592946e-03  1.38844416e-01  1.14217438e-01  2.64682118e-02
  2.98671778e-02  2.46041864e-02 -1.18982904e-01 -1.18234180e-01
  1.21700741e-01 -5.60942404e-02  7.98642859e-02  1.43200550e-02]