[-0.16916937  0.0745252   0.03300405 -0.02552215 -0.09242614 -0.0464599
  0.02774475 -0.1873055   0.06839842 -0.08225165  0.21759868 -0.03259058
 -0.24856301 -0.16410469  0.00188697  0.15879679 -0.11382433 -0.11906971
 -0.11078461 -0.05601675  0.04697296 -0.01070115 -0.0072802   0.03464287
 -0.12096985 -0.28710577 -0.05350037 -0.05287877 -0.02393178 -0.05698311
 -0.05143713  0.10024722 -0.19555362 -0.08669695  0.05180208  0.0849803
 -0.01548657 -0.01431659  0.12420314 -0.04538576 -0.20950961  0.01351593
  0.1115275   0.21702938  0.20803384  0.01178957  0.01012136 -0.07989866
  0.11412    -0.12981439 -0.05061134  0.08879595  0.09733696  0.0572576
  0.01899632 -0.19496357  0.01037552  0.08692948 -0.11213191 -0.02233704
  0.05052552 -0.1510058  -0.07425572 -0.04681165  0.17756091  0.03036293
 -0.11881606 -0.14240567  0.13722377 -0.12185168 -0.04460979  0.04616016
 -0.16660784 -0.16935402 -0.28697184  0.04239937  0.35723376  0.12518768
 -0.20608805  0.02008534 -0.04171009  0.06493392  0.13231096  0.10932668
 -0.01454421  0.01804066 -0.06030154  0.00134173  0.17418385 -0.01176485
 -0.04625334  0.18979228  0.0148865   0.0467728   0.03466414 -0.0192378
 -0.05212099  0.01727535 -0.1385774  -0.00356138  0.02131089 -0.08448981
  0.05376237  0.10061579 -0.12847656  0.11685045  0.02760729  0.09008835
 -0.0251803  -0.00681316 -0.07343373 -0.00132308  0.05102988 -0.24407493
  0.24487901  0.21042676  0.0225596   0.10974689  0.11667027  0.03324707
  0.0182416   0.02983205 -0.13327986 -0.06368109  0.14481811 -0.06431286
  0.11899997 -0.02222734]