[-0.1093029   0.0860418   0.0784285   0.01380102 -0.09084833 -0.07261444
 -0.00301873 -0.16565409  0.07157766 -0.02278938  0.2529712  -0.08646932
 -0.17156093 -0.11124803 -0.01676824  0.16047847 -0.17657749 -0.08395737
 -0.0298475  -0.05103142  0.03990361 -0.06891843  0.01455359  0.03105062
 -0.11199027 -0.30776963 -0.09656068 -0.11090815  0.01050756 -0.01814877
 -0.11910009  0.03215729 -0.16634208 -0.13710119  0.04240373  0.02723532
  0.0074485  -0.05729946  0.14521247 -0.0262612  -0.15133098  0.05185949
  0.04589745  0.25718591  0.22948988  0.07755828 -0.00135324 -0.05457843
  0.10408725 -0.18325335  0.01885208  0.08813015  0.06779341  0.00926729
 -0.00711853 -0.09558398  0.00235469  0.04616685 -0.17418608  0.01942878
  0.079712   -0.11714425 -0.03022881 -0.06986772  0.19825214  0.13616119
 -0.05194098 -0.13021809  0.14216357 -0.16548674 -0.06973372 -0.04503288
 -0.15487726 -0.1569185  -0.34228086  0.01923821  0.36906204  0.1519344
 -0.21051101  0.00043799 -0.06250792  0.06814509  0.17967761  0.08754754
 -0.000789    0.01696809 -0.09902343 -0.04285735  0.19477078 -0.0787899
 -0.06258187  0.24109443 -0.01568634  0.02972646  0.06761827 -0.00621457
 -0.0246887   0.01030189 -0.14505975 -0.00853715  0.05973238 -0.05000811
  0.06449034  0.14804937 -0.19335203  0.0201837  -0.02952597  0.05611053
  0.01435724 -0.01325862 -0.08690187 -0.08845317  0.11442094 -0.20359452
  0.16078342  0.23568034  0.00636463  0.08292804  0.06289034  0.02126593
 -0.00324145  0.01470475 -0.13351147 -0.03377075  0.06806894 -0.00193253
  0.0592206   0.04036736]