[-1.11260295e-01  9.59547162e-02  7.66940266e-02 -2.18009409e-02
 -3.14159207e-02 -2.88361218e-02 -6.39882460e-02 -1.23566233e-01
  1.14450492e-01 -5.12984395e-02  2.65476853e-01 -4.41614762e-02
 -1.46549031e-01 -1.09345712e-01 -1.38503639e-02  1.61317632e-01
 -1.77768439e-01 -6.79888725e-02 -5.97928837e-02 -7.98041280e-03
  6.91525936e-02 -4.20796089e-02  2.90318672e-02  5.75743429e-02
 -1.24296285e-01 -3.24046969e-01 -9.04965699e-02 -6.53534904e-02
  2.24443637e-02 -6.02688175e-03 -8.76899883e-02  1.84133854e-02
 -1.76055968e-01 -7.46905580e-02  4.12849709e-02  1.09625578e-01
 -7.42068840e-03 -6.89934790e-02  1.84518799e-01  2.08717342e-02
 -1.74510360e-01  8.22499543e-02 -3.41688260e-03  2.77490288e-01
  2.59135664e-01  6.81834668e-02  2.03248225e-02 -8.48021284e-02
  1.62643582e-01 -2.34797314e-01  5.91476560e-02  1.10509649e-01
  4.62929681e-02  3.25024351e-02  3.14682908e-02 -1.16025150e-01
  1.61994286e-02  1.24371909e-01 -1.20601550e-01 -2.96716182e-03
  3.75952423e-02 -1.16436459e-01 -4.73995414e-03 -7.23408014e-02
  1.97113231e-01  1.41862318e-01 -1.14384830e-01 -1.05008863e-01
  1.16426766e-01 -8.03685933e-02 -4.02358063e-02  2.20195781e-02
 -1.59774259e-01 -1.55524120e-01 -3.46941322e-01  6.62021935e-02
  4.81502980e-01  1.10102490e-01 -2.34856531e-01 -3.57676297e-03
 -5.91727570e-02  5.07584028e-02  1.96410671e-01  1.18496530e-01
 -1.39771244e-02 -4.22304980e-02 -9.74192694e-02 -1.52860004e-02
  2.32186154e-01 -4.12843600e-02 -6.14435747e-02  2.08249047e-01
 -7.05715222e-03  6.28148392e-02  3.75171378e-02  2.98102684e-02
 -2.65291575e-02  2.05301382e-02 -1.42031312e-01 -2.38153341e-04
  5.42625263e-02 -2.86754370e-02  1.78654250e-02  1.14844799e-01
 -2.12940261e-01  7.79989585e-02  3.39341201e-02  3.07971388e-02
  6.10449389e-02 -1.12308627e-02 -1.07572533e-01 -2.72424053e-02
  1.11813009e-01 -2.58001119e-01  1.87550381e-01  2.02525094e-01
  3.55597623e-02  1.27101883e-01  1.03412069e-01  6.01439662e-02
 -3.29197268e-03  9.90673061e-03 -1.36240780e-01 -4.32357304e-02
  7.24115744e-02  5.28597906e-02  8.19289908e-02  9.92165226e-03]