[-1.03532687e-01  1.11166731e-01  5.77682815e-02 -1.55945122e-03
 -6.15348034e-02 -7.13870898e-02 -6.32134750e-02 -1.62395939e-01
  8.59936699e-02 -1.62358920e-03  3.00138563e-01 -4.12127487e-02
 -1.62959531e-01 -1.81271270e-01 -3.81527953e-02  2.01320812e-01
 -2.03916535e-01 -1.00102141e-01 -5.04993685e-02  1.56990252e-03
  5.28932288e-02 -6.59682006e-02  7.20951334e-02  2.55336221e-02
 -7.43992552e-02 -3.54453176e-01 -7.75906593e-02 -8.53024572e-02
  6.38010427e-02 -7.71387527e-03 -1.39428020e-01  5.86362481e-02
 -2.10042432e-01 -1.55503497e-01  6.03498109e-02  9.92680565e-02
 -5.60211623e-03 -4.16226946e-02  1.88295394e-01 -3.16983461e-02
 -1.84181884e-01  2.55879890e-02  6.74140006e-02  2.57159293e-01
  2.75806040e-01  6.59070686e-02  4.60918471e-02 -8.67666528e-02
  1.21007144e-01 -1.52194098e-01  7.24315271e-02  9.15844887e-02
  1.10363744e-01  3.37843560e-02 -9.46898200e-03 -1.35355040e-01
  8.21291376e-03  8.13603401e-02 -1.06420793e-01 -7.21770851e-03
  8.91613364e-02 -1.29144073e-01 -4.69095968e-02 -6.77450746e-02
  2.21433029e-01  7.92198330e-02 -7.41344020e-02 -1.64099500e-01
  1.37769163e-01 -9.59862024e-02 -5.31933121e-02  1.46165835e-02
 -1.80687517e-01 -1.23003677e-01 -4.00512666e-01  9.08941310e-03
  4.11136597e-01  7.71606639e-02 -2.23653942e-01  2.09580343e-02
 -4.00425568e-02  2.89836060e-02  1.60509750e-01  1.31138459e-01
 -1.25972275e-02  4.09690030e-02 -1.45987242e-01 -3.57916765e-02
  2.01104328e-01 -7.24606737e-02 -6.47929013e-02  1.95314929e-01
 -1.77760478e-02  8.19782242e-02  7.06329644e-02  4.11470756e-02
 -1.97170973e-02  2.86755171e-02 -1.71859726e-01 -2.25838944e-02
  6.23406135e-02 -3.51932570e-02  2.06418317e-02  1.25560507e-01
 -1.40235618e-01  1.29781058e-02  2.72020523e-04  1.10381238e-01
  4.24437709e-02 -4.14553247e-02 -8.67275000e-02 -1.17411092e-01
  1.03357725e-01 -1.89122528e-01  1.74721301e-01  2.10098505e-01
  3.68989222e-02  8.42167363e-02  1.26032650e-01  7.53536448e-02
 -8.55037477e-03  1.18158264e-02 -1.68271169e-01 -8.07749294e-03
  7.64210075e-02  9.42557678e-03  9.94665250e-02  4.66395542e-02]