[-0.10539794  0.11398988  0.06127208 -0.00664043 -0.06728452 -0.06191042
 -0.06552322 -0.16467415  0.09084146 -0.0122415   0.2975255  -0.04039888
 -0.16381852 -0.17275532 -0.04006236  0.20375696 -0.20695892 -0.1044415
 -0.0507502   0.00090574  0.05068878 -0.06221728  0.07002719  0.02041465
 -0.07227103 -0.35506558 -0.08446522 -0.08397238  0.06242372 -0.00770837
 -0.13678269  0.05422847 -0.20240827 -0.15215522  0.0589499   0.09712019
 -0.00647231 -0.04429364  0.18137553 -0.03463152 -0.18726157  0.01483505
  0.06694555  0.25406146  0.26862758  0.06912535  0.03923097 -0.08825009
  0.11532152 -0.15228193  0.06942894  0.08914845  0.10704365  0.0345895
 -0.00791646 -0.13243186  0.01507817  0.08561805 -0.10579368 -0.01118923
  0.08785714 -0.13601539 -0.04117365 -0.06304056  0.22181478  0.08513902
 -0.07029089 -0.16649835  0.13805613 -0.09613855 -0.05816691  0.00817523
 -0.17749146 -0.1209739  -0.40218884  0.00101025  0.41570017  0.07409829
 -0.22000055  0.01483609 -0.03445491  0.02723536  0.16298036  0.1333625
 -0.02303158  0.03504632 -0.14759156 -0.03986641  0.20207162 -0.07588007
 -0.06186203  0.19252948 -0.02028211  0.08078815  0.0735447   0.04611127
 -0.02072611  0.03282136 -0.16884549 -0.02055874  0.06362002 -0.03736396
  0.01733628  0.13215478 -0.14072978  0.01013047 -0.00100551  0.1044724
  0.04435186 -0.04200289 -0.08636485 -0.12431019  0.10929137 -0.18378365
  0.16437639  0.21783975  0.03153161  0.08758222  0.12729995  0.07932674
 -0.01163195  0.01102088 -0.17275928 -0.00699747  0.07751057  0.00629559
  0.0903388   0.04631796]