[-1.21738374e-01  1.24516822e-01  7.44258985e-02  3.33437473e-02
 -2.14288272e-02 -7.64549598e-02  1.53209670e-02 -1.39748141e-01
  1.31987020e-01 -4.14727116e-03  2.93121904e-01 -2.12536994e-02
 -1.71944782e-01 -1.73424825e-01 -7.41191348e-03  1.85822532e-01
 -1.93000704e-01 -5.21440096e-02 -6.64646402e-02 -1.42895803e-02
  7.90395662e-02 -6.16749786e-02  3.50855552e-02  6.74816892e-02
 -9.43740606e-02 -3.36802542e-01 -6.47146031e-02 -1.12700477e-01
  5.05126789e-02 -3.69785987e-02 -1.05258539e-01  5.70153594e-02
 -1.58268169e-01 -1.62093669e-01  4.14687656e-02  7.12049007e-02
  5.49542857e-03 -1.05513670e-02  1.94567993e-01  5.02473209e-03
 -1.72268391e-01  4.84879762e-02  3.15696970e-02  2.81336218e-01
  2.65885890e-01  7.83043429e-02  3.96866314e-02 -1.01964414e-01
  1.46786317e-01 -1.99543476e-01  1.50175607e-02  9.59357321e-02
  7.94584975e-02  4.27519977e-02  1.08315051e-02 -1.31760493e-01
 -1.78181939e-02  6.16885088e-02 -1.97536945e-01  1.20990174e-02
  4.51651216e-02 -1.50551006e-01 -3.52488458e-02 -2.18141805e-02
  1.91527471e-01  1.07808709e-01 -7.20591992e-02 -1.03283085e-01
  1.78035125e-01 -1.30318627e-01 -2.83623841e-02  1.15609486e-02
 -1.56964228e-01 -1.65188968e-01 -3.53591412e-01  5.04869409e-02
  4.36090797e-01  1.25037596e-01 -1.92046389e-01  1.66922361e-02
 -8.61463025e-02  2.45535020e-02  1.67675152e-01  1.28299445e-01
  1.04111282e-03 -2.96149403e-04 -7.56462812e-02  5.00345649e-03
  1.62652597e-01 -5.33329509e-02 -3.31590027e-02  2.28129491e-01
  2.68353126e-03  6.48703575e-02  4.68608178e-02  6.08740002e-03
 -3.25097218e-02  3.46845277e-02 -1.71084046e-01 -3.33338901e-02
  4.70984392e-02 -2.03414112e-02  1.07780494e-01  9.35884640e-02
 -1.78502083e-01  1.99645068e-02  2.24522632e-02  5.19238375e-02
  4.57015596e-02 -1.33167999e-02 -8.48447606e-02 -8.11601356e-02
  1.06648602e-01 -2.07238346e-01  2.21200854e-01  2.18764499e-01
  5.90959284e-03  9.47954655e-02  7.13927671e-02  5.41427396e-02
  1.81674063e-02 -2.28910446e-02 -1.09762564e-01  1.31588494e-02
  9.34077129e-02  1.66643448e-02  8.76139700e-02 -9.09376889e-03]