[-0.14775844  0.08883361  0.02852295 -0.01296151 -0.02329322 -0.07089689
 -0.03493374 -0.14616893  0.1118503   0.00251296  0.26079878 -0.04793093
 -0.13320418 -0.16050331 -0.02229751  0.17303966 -0.21911171 -0.11222912
 -0.06173522 -0.02088825  0.04511638 -0.05524906  0.014835    0.03084501
 -0.07277533 -0.34006062 -0.08236324 -0.12278618  0.03471732 -0.02065454
 -0.10406985  0.04321122 -0.1949929  -0.15393327  0.0728773   0.11150163
  0.00763983 -0.03167476  0.16842094 -0.03560989 -0.1605484   0.05305872
  0.08121859  0.28033563  0.26955631  0.07131802 -0.00812879 -0.07685273
  0.12881126 -0.13572201  0.02273468  0.0967252   0.09282784  0.04576841
  0.01216269 -0.119659    0.02630074  0.04329161 -0.13798992 -0.02104907
  0.06344826 -0.13759889 -0.04366032 -0.04867999  0.21278945  0.08084559
 -0.06753649 -0.15456413  0.13986082 -0.10888758 -0.05439325 -0.00476434
 -0.16838765 -0.14315869 -0.35005459  0.0114963   0.39944586  0.08456053
 -0.22620694  0.0619475  -0.04711712  0.01761765  0.17593533  0.12254522
 -0.00291461  0.05092183 -0.12277293 -0.0348043   0.20438536 -0.04084728
 -0.05808757  0.1651796  -0.03031133  0.05298439  0.08655646  0.00884228
 -0.01310484  0.01629926 -0.19760856 -0.04645222  0.05673755 -0.02130536
  0.01985445  0.108334   -0.14940229  0.0187523   0.03367489  0.07866301
 -0.00071015 -0.03369942 -0.06956821 -0.07024927  0.1102898  -0.20571283
  0.19850515  0.20494477  0.02902286  0.10334448  0.09789928  0.03592446
 -0.01719587  0.02283112 -0.16962822 -0.01681027  0.06221632  0.04802468
  0.10905267  0.03444871]