[-1.21627606e-01  1.07168376e-01  5.47658168e-02 -7.01321242e-03
 -4.53630947e-02 -5.71276024e-02 -4.86442447e-02 -1.43786758e-01
  1.05626039e-01 -3.85007001e-02  2.98034489e-01 -3.34219746e-02
 -1.57928973e-01 -1.54772192e-01 -6.34292588e-02  1.95871159e-01
 -2.38600299e-01 -7.06024095e-02 -6.32976219e-02  1.23151904e-02
  6.33848459e-02 -3.59974615e-02  5.28536029e-02  2.70404015e-02
 -6.33932650e-02 -3.45078617e-01 -7.67467171e-02 -1.05431072e-01
  3.03078722e-02  9.43285995e-04 -1.24779500e-01  4.86001968e-02
 -1.74709484e-01 -1.54941067e-01  6.19672500e-02  1.22647718e-01
 -2.09267062e-04 -2.58266423e-02  1.56175315e-01 -2.73158103e-02
 -1.57332465e-01  5.89830875e-02  7.32186586e-02  2.76202381e-01
  2.81311005e-01  7.84764662e-02  2.76662596e-02 -1.30075216e-01
  1.26372695e-01 -1.58628032e-01  4.69382666e-02  8.33234116e-02
  1.09259389e-01  5.83694577e-02  2.44829934e-02 -1.14177898e-01
  2.17622053e-02  7.22308084e-02 -9.14039239e-02 -1.47785069e-02
  7.64745101e-02 -9.42653716e-02 -1.35048321e-02 -5.84456138e-02
  2.18162134e-01  6.73007071e-02 -8.57785866e-02 -1.59922257e-01
  1.36740372e-01 -1.14460282e-01 -1.05956994e-01  7.39450043e-04
 -1.70081377e-01 -1.27098873e-01 -3.79243225e-01 -7.55274296e-03
  4.11453307e-01  9.68205556e-02 -2.23298773e-01  2.97598448e-02
 -6.05700985e-02 -5.55655395e-04  1.72254547e-01  1.52353466e-01
  1.27095822e-02  1.48685938e-02 -1.19688950e-01 -3.59629579e-02
  2.11682081e-01 -7.00707436e-02 -5.97446673e-02  1.92994669e-01
 -6.37411699e-03  6.18284941e-02  6.39149174e-02  1.54741583e-02
 -2.66054813e-02  5.64618185e-02 -1.94610849e-01 -3.46808210e-02
  4.86919470e-02 -1.86431110e-02  8.82012676e-03  1.11695148e-01
 -1.59620032e-01  2.68514436e-02  1.48093130e-03  8.81313011e-02
  5.73774166e-02 -4.83348183e-02 -1.00328617e-01 -6.51019514e-02
  1.27851531e-01 -2.03966618e-01  1.95599735e-01  2.15458065e-01
  4.90668453e-02  8.76156464e-02  1.29140601e-01  6.11509159e-02
  3.81821627e-03  1.56299528e-02 -1.89259514e-01 -2.04965416e-02
  6.97231814e-02  1.12410635e-02  9.23729166e-02  2.85760947e-02]