[-0.13347265  0.10006549  0.07009972 -0.00663318 -0.03250126 -0.07780436
 -0.04079926 -0.15576789  0.10604355 -0.01523622  0.29764986 -0.06992501
 -0.16878565 -0.16690663 -0.03151625  0.18054135 -0.20762494 -0.07915609
 -0.06365066 -0.00772539  0.04898511 -0.05891373  0.04615859  0.03607439
 -0.05801028 -0.35664997 -0.08847616 -0.11566854  0.03865203 -0.02324311
 -0.13713332  0.04416727 -0.17243883 -0.15894525  0.04235187  0.0890404
  0.01499011 -0.0209605   0.16887715 -0.02697078 -0.17860679  0.0169869
  0.06477023  0.25654039  0.26858756  0.08278289  0.01948137 -0.1049449
  0.12960164 -0.15741543  0.04263364  0.09467992  0.120022    0.03318914
 -0.0072267  -0.11579734 -0.00778687  0.06572149 -0.11319625 -0.01436474
  0.07788817 -0.11569088 -0.05413939 -0.04562503  0.23157488  0.09490469
 -0.08455148 -0.14723629  0.13776964 -0.11938771 -0.06838726  0.01058278
 -0.16727276 -0.13356529 -0.36360866  0.00816523  0.41010013  0.06251963
 -0.23443227  0.02012209 -0.09958197  0.01293403  0.15862791  0.13301329
 -0.01796202  0.05129378 -0.12264185 -0.05870279  0.20447271 -0.07870757
 -0.03478274  0.20161466 -0.00655932  0.08634286  0.07034092  0.01353668
 -0.01927061  0.01643684 -0.18322329 -0.05164236  0.05955724 -0.01838101
  0.01755724  0.09874799 -0.18081172  0.03153308  0.0258629   0.07951892
  0.05829101 -0.04903071 -0.06366132 -0.11537816  0.13019174 -0.1945733
  0.14438844  0.21290623  0.04749677  0.0983005   0.11126751  0.0660121
 -0.00650656  0.01137579 -0.16020823  0.00971829  0.0934715   0.01683773
  0.06885719  0.01683624]