[-0.1648519   0.10798331  0.0355412  -0.02214315 -0.06519105 -0.08769739
 -0.02183855 -0.14994234  0.14193861 -0.02608244  0.25628337 -0.06503198
 -0.12318093 -0.16314618 -0.03036009  0.17429589 -0.21399336 -0.06963897
 -0.04664196 -0.00854355  0.08690172 -0.07518878  0.05725556  0.0405332
 -0.06830952 -0.35727096 -0.12519126 -0.09723873  0.0634505  -0.05214531
 -0.08030047  0.0396363  -0.19394921 -0.17295814  0.00148146  0.10578003
  0.00049025 -0.05567282  0.15501349 -0.02124339 -0.1655966   0.03165656
  0.06777377  0.2560693   0.26317149  0.09176555  0.01763381 -0.08387219
  0.11927608 -0.13890819  0.03345997  0.09713145  0.05942816  0.04272699
  0.0006055  -0.08940466  0.02806923  0.0839857  -0.11810233  0.00129627
  0.08459101 -0.11639512 -0.06084118 -0.04124783  0.22120316  0.1076071
 -0.05456833 -0.15623108  0.1498978  -0.11201689 -0.07887384 -0.00852609
 -0.17509055 -0.1303757  -0.34275311  0.02721683  0.41963521  0.08585306
 -0.18495716  0.04868305 -0.10001244  0.02099691  0.14297436  0.14540443
  0.00306928  0.01076608 -0.12492254 -0.048273    0.18072115 -0.05469113
 -0.04101792  0.20286171 -0.00570636  0.06045892  0.0471581  -0.0004984
 -0.0515762   0.04229148 -0.1464204  -0.07962815  0.11282035 -0.04392014
  0.0084634   0.12017872 -0.184672    0.05854927  0.02219154  0.09381852
  0.06969906 -0.03061066 -0.06856438 -0.08242438  0.1161823  -0.18393503
  0.19094449  0.22849241  0.01416837  0.11026525  0.1252933   0.11026027
  0.00546198  0.03977066 -0.15645282  0.00309136  0.06125752  0.03031488
  0.06207461  0.0371004 ]