[-1.19628012e-01  8.18213448e-02  6.75575584e-02 -1.07529704e-02
 -4.67967167e-02 -7.26544783e-02 -4.51702774e-02 -1.60068199e-01
  9.15695950e-02 -3.50449644e-02  2.97523379e-01 -2.74208616e-02
 -1.52797684e-01 -1.52509794e-01 -2.60646697e-02  1.73930377e-01
 -2.00104475e-01 -7.96700642e-02 -6.98459521e-02  1.50441220e-02
  3.98115888e-02 -6.08242266e-02  2.82188300e-02  2.70826463e-02
 -6.42721206e-02 -3.38484734e-01 -8.80171284e-02 -9.20379162e-02
  3.46089713e-03  1.31914159e-02 -1.19836621e-01  2.93144435e-02
 -1.80167526e-01 -1.52822152e-01  4.90636714e-02  1.04508199e-01
 -3.66224046e-03 -1.86032653e-02  1.58596739e-01 -4.19118442e-02
 -1.72718152e-01  6.03879876e-02  7.21068382e-02  2.50105381e-01
  2.71948099e-01  9.51645002e-02  3.81897353e-02 -1.18822597e-01
  1.37109354e-01 -1.59344196e-01  4.75145094e-02  7.02804700e-02
  1.26731157e-01  2.76545770e-02  5.32092853e-03 -1.38572082e-01
  1.47299217e-02  6.31679818e-02 -1.06060944e-01 -8.19166377e-03
  7.61857554e-02 -1.10004328e-01 -3.08208410e-02 -5.90189807e-02
  2.34264761e-01  7.82552809e-02 -8.81106108e-02 -1.49409518e-01
  1.34371802e-01 -1.22320056e-01 -7.77664706e-02  2.28349119e-04
 -1.66635349e-01 -1.48967817e-01 -3.76151323e-01  1.39335394e-02
  4.08149928e-01  8.15288424e-02 -2.44525746e-01  2.13019736e-02
 -6.92055896e-02  2.21041534e-02  1.67623430e-01  1.27257749e-01
  5.11554861e-03  2.15574242e-02 -1.38404354e-01 -6.11207969e-02
  2.32152566e-01 -7.28700757e-02 -3.53655554e-02  1.92072406e-01
  1.11490046e-03  6.16544001e-02  6.57974705e-02  1.50470305e-02
 -3.00289076e-02  4.52320240e-02 -1.84504211e-01 -2.02569142e-02
  5.04628085e-02 -2.40902137e-02  2.19498929e-02  1.02020815e-01
 -1.75293431e-01  4.99169864e-02 -5.55284275e-03  8.15978050e-02
  4.78033498e-02 -5.10301478e-02 -9.00351778e-02 -9.25729796e-02
  1.29245654e-01 -1.96953639e-01  1.70885995e-01  2.05757424e-01
  4.44572233e-02  1.04519069e-01  1.17323771e-01  7.28948936e-02
 -1.78602766e-02  3.60371247e-02 -1.91403747e-01 -1.10321464e-02
  7.43971989e-02 -1.13275053e-03  1.06937587e-01  3.98006216e-02]