[-0.14929008  0.14013186  0.05866874 -0.0263665  -0.05035938 -0.06563152
 -0.03923893 -0.16850658  0.10296106 -0.01137966  0.25401184 -0.06875891
 -0.16119774 -0.15414707 -0.0456049   0.19536543 -0.20926681 -0.09976801
 -0.04519261 -0.0081848   0.07000723 -0.08145002  0.03882493  0.02615821
 -0.05246339 -0.32249138 -0.09456005 -0.08157143  0.07513625 -0.00101632
 -0.11802224  0.01266395 -0.21938978 -0.16554169  0.04441821  0.08648259
 -0.02525552 -0.05816243  0.16880752 -0.0433029  -0.15629713  0.05406474
  0.04963135  0.26454082  0.24836206  0.08936041  0.03613406 -0.10410192
  0.13011785 -0.16072947  0.05801494  0.10020067  0.0746502   0.03183637
  0.01144711 -0.13824607  0.01216763  0.07885166 -0.10388054  0.00148062
  0.07415625 -0.1097489  -0.05245668 -0.08192789  0.20066726  0.09055162
 -0.06029171 -0.17172454  0.1520555  -0.08300846 -0.04181877  0.00108928
 -0.16282634 -0.12468032 -0.35989875  0.02464898  0.40994397  0.09714758
 -0.19665274  0.04655606 -0.06108047  0.03917388  0.16079588  0.13156526
 -0.00919698  0.03728135 -0.12062901 -0.03385832  0.18358873 -0.08911564
 -0.06041729  0.18929647 -0.01231159  0.05650146  0.03854114  0.00949198
 -0.03766305  0.03209586 -0.16656744 -0.0539889   0.09316842 -0.0132239
  0.02008331  0.1329032  -0.16662185  0.02006905  0.01067654  0.09747708
  0.0193958  -0.04888977 -0.07423437 -0.07149042  0.09367373 -0.19794412
  0.19098108  0.22471121  0.00799037  0.08497009  0.12807053  0.04802323
  0.02726279  0.02395928 -0.16131905 -0.02622345  0.08574641  0.04590352
  0.077587    0.04265845]