[-1.51137337e-01  1.13055542e-01  4.91669364e-02  2.20626593e-04
 -4.81941812e-02 -6.29047900e-02 -5.25820516e-02 -1.59724444e-01
  1.06353484e-01 -1.68136209e-02  2.99260587e-01 -5.08293509e-02
 -1.65708423e-01 -1.73419639e-01 -5.09433039e-02  2.01779768e-01
 -2.11643413e-01 -1.00730300e-01 -7.81300887e-02 -1.68191362e-02
  4.45035771e-02 -8.37571546e-02  5.08596189e-02  2.36885380e-02
 -7.19369650e-02 -3.69616508e-01 -8.50734934e-02 -8.09064880e-02
  5.23975603e-02 -1.06802899e-02 -1.15383506e-01  4.54912931e-02
 -2.07519487e-01 -1.66003510e-01  6.17895797e-02  1.04274966e-01
  1.75270475e-02 -3.47801074e-02  1.78962380e-01 -3.96048725e-02
 -1.81043401e-01  1.18450047e-02  6.86778948e-02  2.63111889e-01
  2.52779901e-01  8.61666724e-02  3.19844149e-02 -9.24097002e-02
  1.18283175e-01 -1.61760613e-01  5.57839051e-02  9.79974866e-02
  9.26017687e-02  4.40671518e-02 -9.75655671e-03 -1.22560039e-01
  1.38090644e-02  9.53111649e-02 -1.05444647e-01 -2.82261260e-02
  7.15437606e-02 -1.37454003e-01 -3.92240845e-02 -5.64614236e-02
  2.32742950e-01  1.03751242e-01 -7.79508129e-02 -1.71898752e-01
  1.40517786e-01 -1.03019811e-01 -4.54861932e-02  7.33987987e-03
 -1.54854432e-01 -1.31679058e-01 -3.98307532e-01  1.56432968e-02
  4.37508404e-01  9.64200944e-02 -2.24945769e-01  9.96957906e-03
 -7.59886354e-02  1.01892175e-02  1.59748539e-01  1.41142815e-01
 -2.04438232e-02  4.80524860e-02 -1.36832312e-01 -5.19761033e-02
  2.14663625e-01 -4.67418619e-02 -6.91473261e-02  1.92407116e-01
 -1.07641025e-02  6.55268505e-02  6.66638538e-02  3.62079851e-02
 -4.53293361e-02  1.06021874e-02 -1.70856819e-01 -5.59207611e-02
  6.25725240e-02 -2.07519392e-03  1.96883380e-02  1.22131161e-01
 -1.52511239e-01  3.23597454e-02 -3.97501653e-03  9.18973014e-02
  3.05479001e-02 -4.40186709e-02 -5.31558879e-02 -1.07280232e-01
  1.04282461e-01 -1.92259356e-01  1.60071284e-01  2.19874650e-01
  4.13820185e-02  1.13404356e-01  1.30960837e-01  6.38422370e-02
 -2.86552007e-03  1.74723100e-02 -1.53691515e-01 -1.98028330e-02
  7.18304366e-02  1.20838881e-02  1.06925033e-01  2.79372316e-02]