[-0.12282924  0.10565968  0.04744772 -0.00326675 -0.03513378 -0.04217347
 -0.0478785  -0.16221529  0.10535605 -0.02723935  0.31327844 -0.0366619
 -0.17093091 -0.1512161  -0.04532601  0.1837569  -0.20287426 -0.07736121
 -0.07136397  0.00776518  0.03815822 -0.06040769  0.04057955  0.00360568
 -0.03704081 -0.33598539 -0.08700176 -0.0791861   0.06236135  0.00269663
 -0.12645444  0.0513082  -0.1958335  -0.1549526   0.06068366  0.10711594
  0.00436238 -0.01426615  0.17884631  0.00530833 -0.15710978  0.03549943
  0.0367641   0.27040792  0.25691006  0.09301454  0.01747455 -0.10970459
  0.11814075 -0.1768322   0.03731446  0.11229187  0.11045618  0.04322775
 -0.01787412 -0.12510411  0.00755513  0.04163561 -0.08763214 -0.02689268
  0.08807991 -0.12176179 -0.05076282 -0.07368413  0.23408878  0.08441774
 -0.09161415 -0.15804309  0.14153232 -0.08043971 -0.0737851  -0.00316264
 -0.16968359 -0.11818444 -0.35856849  0.02998568  0.44147405  0.07090713
 -0.22798388  0.02418762 -0.09919699  0.00184723  0.14771174  0.13074957
  0.00858176  0.02320002 -0.1162555  -0.06485035  0.20986092 -0.09256637
 -0.0447881   0.17827229 -0.02418533  0.09048959  0.05621758  0.02880482
 -0.02273536  0.02884679 -0.17561591 -0.04802323  0.05112061 -0.02974321
  0.02490976  0.11503378 -0.16482878  0.05065485  0.01286652  0.08346922
  0.07612009 -0.04342978 -0.0723175  -0.09794182  0.1192764  -0.20554243
  0.19296777  0.21382003  0.03314497  0.08955011  0.13505571  0.09421513
 -0.00607251  0.04526518 -0.17034881 -0.05061226  0.05278371  0.03236107
  0.05401065  0.02048505]