[-0.14622368  0.10055069  0.08961078 -0.01916313 -0.01444165 -0.0590888
 -0.0142192  -0.08720154  0.14241473 -0.02173888  0.30827934 -0.06103316
 -0.17066607 -0.1206249  -0.03962328  0.1708765  -0.20909412 -0.03389425
 -0.0632381  -0.06816169  0.07070724 -0.03086388  0.02236792  0.03091258
 -0.12501661 -0.3356882  -0.06436392 -0.09223147  0.07000798 -0.02096381
 -0.0187854   0.03853203 -0.15171787 -0.101779    0.0397468   0.07853703
 -0.03516054 -0.04872076  0.20781279  0.04420954 -0.14075105  0.03014412
 -0.0080982   0.32132787  0.20295651  0.06500864 -0.00388505 -0.04233625
  0.1477741  -0.28636035  0.04187648  0.12156954  0.07505214  0.04717017
  0.08777638 -0.10864162  0.03577254  0.11048198 -0.18619218  0.02209361
  0.0424692  -0.12758924 -0.00471557 -0.07886904  0.20863143  0.14119367
 -0.11838581 -0.05090199  0.13294886 -0.06357282 -0.00562246  0.02035324
 -0.11653651 -0.15459564 -0.33497357  0.07214405  0.4418622   0.13206446
 -0.2034456  -0.02463971 -0.0538747   0.03193653  0.16225819  0.09589384
 -0.06889897 -0.01909846 -0.06827798 -0.03241056  0.13271287 -0.02476634
 -0.06822258  0.2347782  -0.02926017  0.05370304  0.04306326 -0.01423445
 -0.07031824 -0.01779028 -0.10762341 -0.01523372  0.07363468 -0.08117586
  0.05005297  0.0843747  -0.20070457  0.08700406  0.01450465  0.03198252
  0.04549756 -0.00214057 -0.08281436 -0.00612352  0.12585603 -0.24685173
  0.2164712   0.2016834   0.01261545  0.14097738  0.09370419  0.01872863
 -0.03314867  0.01164719 -0.08222363 -0.04798413  0.03789167 -0.0005246
  0.06915557 -0.00700863]