[-0.14087205  0.1104656   0.05299631 -0.03226892 -0.03218038 -0.05890211
 -0.00665634 -0.11955422  0.13280925 -0.0256285   0.24350385 -0.04965818
 -0.19162047 -0.17951123  0.00860629  0.18699042 -0.19592327 -0.09017246
 -0.07560032 -0.03267523  0.03959021 -0.06804717  0.04608526  0.06957855
 -0.14048396 -0.31552079 -0.05359287 -0.05865924 -0.02105922 -0.02299723
 -0.08764379  0.03534364 -0.18966818 -0.12200461  0.01035968  0.11648315
 -0.04353542 -0.0379806   0.19859083 -0.00982841 -0.15695898  0.04847949
  0.03405429  0.29113156  0.24073029  0.05659418  0.02440271 -0.08235774
  0.16233702 -0.23303418  0.05719682  0.13225827  0.06632245  0.0514946
  0.02566791 -0.11032677  0.03441944  0.10870309 -0.13724071 -0.0097444
  0.06803932 -0.10276505 -0.00850377 -0.06952625  0.2100236   0.10801256
 -0.08467804 -0.09624157  0.12698314 -0.07746807 -0.04447101  0.00195724
 -0.14802833 -0.18160234 -0.36802217  0.06805819  0.39439985  0.14464997
 -0.2112994  -0.0024788  -0.08694006  0.03981347  0.17239781  0.07685573
 -0.0408242  -0.00629979 -0.12969881  0.01254816  0.19683228 -0.04672192
 -0.05540625  0.20351315  0.06047012  0.04139169  0.0457157   0.00145205
 -0.04299413  0.05935128 -0.1790707   0.02416342  0.08308629 -0.05213239
  0.05748501  0.08854883 -0.18257582  0.09642028  0.05543337  0.03929171
  0.01407461  0.00229934 -0.13128929 -0.05710615  0.0971864  -0.22350755
  0.20206399  0.20281063  0.03741394  0.13081491  0.10240322  0.0784211
 -0.0258463   0.01662655 -0.09432494 -0.02122565  0.10285151  0.05410019
  0.13526633  0.06504326]