[-1.02271140e-01  1.03584521e-01  5.23871444e-02 -2.54702214e-02
 -6.15683608e-02 -5.82038052e-02 -3.46917957e-02 -1.61492214e-01
  9.83647034e-02 -1.09861931e-02  2.94760048e-01 -4.71349172e-02
 -1.58854336e-01 -1.72394142e-01 -2.70458367e-02  2.07820892e-01
 -2.15604052e-01 -9.02133211e-02 -6.20516241e-02 -3.65129556e-03
  4.79206406e-02 -5.89641295e-02  5.65297790e-02  2.58738305e-02
 -5.31374887e-02 -3.29908639e-01 -8.08266923e-02 -7.62924924e-02
  6.72191679e-02 -1.22093922e-02 -1.30581588e-01  6.19938038e-02
 -2.04387292e-01 -1.54815450e-01  5.92162497e-02  1.03181839e-01
 -1.35195255e-02 -3.51979546e-02  1.73349753e-01 -2.87095364e-02
 -1.70900360e-01  3.62100713e-02  7.84646943e-02  2.58008838e-01
  2.71550506e-01  6.42944053e-02  3.36428620e-02 -9.63191837e-02
  1.05639078e-01 -1.47917911e-01  5.85808419e-02  8.59981403e-02
  1.07798271e-01  3.71912904e-02 -5.51785016e-03 -1.28352299e-01
  2.21476816e-02  5.81389330e-02 -1.00553386e-01 -7.98136555e-03
  1.13726221e-01 -1.18176870e-01 -5.51137030e-02 -5.64589575e-02
  2.19215155e-01  6.90547451e-02 -6.59544691e-02 -1.84649557e-01
  1.32488847e-01 -1.00598812e-01 -7.42619932e-02  1.53141692e-02
 -1.79889113e-01 -1.13604046e-01 -3.83715779e-01 -1.51585939e-03
  4.15244818e-01  8.34855959e-02 -2.27449223e-01  3.06951590e-02
 -5.20390384e-02  2.53532175e-02  1.79092377e-01  1.30440578e-01
 -6.45497208e-03  4.67943102e-02 -1.45667106e-01 -2.82444544e-02
  1.92214951e-01 -7.72616044e-02 -5.96428514e-02  1.99847981e-01
  6.01384323e-03  7.15966746e-02  6.59708083e-02  1.81917939e-02
  7.70613588e-06  3.54615450e-02 -1.88844800e-01 -4.22402173e-02
  6.44221827e-02 -2.59477850e-02  2.40950733e-02  1.28367439e-01
 -1.49023727e-01  3.71657237e-02  9.99794900e-03  1.08132482e-01
  4.09378596e-02 -3.66107523e-02 -8.80381688e-02 -1.01463988e-01
  1.09658659e-01 -1.93101138e-01  1.56023353e-01  2.16586143e-01
  3.79756168e-02  6.11519180e-02  1.24401629e-01  8.32262859e-02
 -2.76818103e-03  1.88654866e-02 -1.74116924e-01  2.03393702e-03
  6.78978786e-02  8.38664547e-03  9.74201187e-02  5.15815876e-02]