[-0.11842779  0.1122868   0.05829864  0.01253692 -0.06650224 -0.0765084
 -0.06291091 -0.1452205   0.081689   -0.01723828  0.26602179 -0.05001075
 -0.16196536 -0.15637098 -0.03083342  0.17385001 -0.18914074 -0.09650686
 -0.06204794 -0.00047983  0.06393643 -0.0676991   0.06214552  0.01592054
 -0.0693628  -0.3623955  -0.06938674 -0.08358927  0.04266215 -0.00444487
 -0.10175709  0.049996   -0.19905736 -0.15936047  0.05677572  0.10103239
 -0.00659515 -0.0333549   0.1806948  -0.05383002 -0.1888947   0.03554705
  0.06648146  0.25599352  0.25743586  0.09282114  0.02820832 -0.10613555
  0.14625667 -0.18272802  0.05098131  0.12247943  0.05532215  0.0515163
 -0.00311532 -0.10048636  0.04655852  0.05691348 -0.11713183 -0.02501883
  0.08776695 -0.10058337 -0.03724044 -0.0665099   0.21476963  0.07820915
 -0.06054855 -0.16544588  0.12534426 -0.12808339 -0.07727854  0.01656947
 -0.17229533 -0.1315169  -0.38880572  0.00557501  0.41591653  0.09496539
 -0.2033145   0.03092622 -0.06142961  0.02385064  0.16936289  0.11519181
 -0.00496743  0.02515466 -0.13153769 -0.04164934  0.23290984 -0.07382798
 -0.0713783   0.19117193  0.01853074  0.07344665  0.07930693  0.04237797
 -0.02767639  0.01387868 -0.20686786 -0.03406531  0.07860566 -0.01578333
  0.01001478  0.12473743 -0.1640427   0.04792247 -0.00144711  0.09186112
  0.04764398 -0.03573098 -0.09817621 -0.10449405  0.1050391  -0.17124696
  0.19035152  0.21483277  0.05866153  0.08374823  0.13143687  0.05974674
 -0.01355506  0.02168114 -0.15865481 -0.04202697  0.0741353   0.03671626
  0.07288633  0.03079823]