[-0.12627582  0.11165609  0.0517344  -0.04765979 -0.02679641 -0.09791162
 -0.03303726 -0.16509941  0.10074135 -0.01611628  0.3028647  -0.05480566
 -0.17135799 -0.13322756 -0.04864613  0.17932408 -0.23703805 -0.06916481
 -0.05894591 -0.00198748  0.0315198  -0.05622643  0.05362871  0.05293929
 -0.04448165 -0.31103179 -0.09165791 -0.09852915  0.03043348  0.00141288
 -0.07485946  0.0181306  -0.19265504 -0.15675268  0.06800698  0.08819427
 -0.00768828 -0.05097362  0.19859515 -0.02252313 -0.13843283  0.04850379
  0.06633305  0.26303241  0.26339874  0.09720049  0.02217865 -0.1341953
  0.158204   -0.17419745  0.02567599  0.08293374  0.08497267  0.02662185
 -0.00992197 -0.15471965  0.03383926  0.08102297 -0.14337401 -0.01294682
  0.0709651  -0.11623593 -0.01321047 -0.03478677  0.22557048  0.09708976
 -0.08999877 -0.12482136  0.16890204 -0.09818996 -0.03997298  0.01051918
 -0.16541781 -0.13907522 -0.34558427  0.00665196  0.41942054  0.0821962
 -0.18668012  0.00664953 -0.07755511  0.03885696  0.15705523  0.11758733
 -0.02880063 -0.01130106 -0.12888697 -0.03271164  0.20674066 -0.06485128
 -0.06469526  0.17931461 -0.01763883  0.07555502  0.06654771  0.02054485
 -0.05137445  0.0328187  -0.19177251 -0.01601266  0.03645929 -0.0139068
  0.03782121  0.12239424 -0.15444544  0.01109063  0.0083592   0.04077723
  0.00483915 -0.03943526 -0.06266196 -0.07202954  0.10811279 -0.18865822
  0.21332912  0.20140135  0.02758551  0.1097008   0.10355563  0.05423246
 -0.013119    0.01013826 -0.14775275 -0.02535102  0.0600928   0.05056253
  0.1358327   0.01095819]