[-0.1146747   0.0941963   0.08055135  0.01973411 -0.09639712 -0.07799135
 -0.01083684 -0.17170361  0.06302995 -0.04795366  0.26828563 -0.08923252
 -0.16386376 -0.12704635 -0.024968    0.16826336 -0.17917167 -0.08795605
 -0.05505775 -0.02505354  0.0524033  -0.0704071   0.03561999  0.0224143
 -0.10129745 -0.32692021 -0.104132   -0.09118322  0.05538291 -0.0370979
 -0.13381916  0.00582169 -0.18733263 -0.1551158   0.03313943  0.00942841
  0.01477791 -0.05101499  0.16256694 -0.00586251 -0.18428305  0.06427463
  0.03360717  0.26530585  0.23649906  0.08455487  0.00718895 -0.0705757
  0.1021513  -0.17806821  0.05084078  0.07788987  0.09786852 -0.0045791
  0.01204206 -0.08613103 -0.02324737  0.07015884 -0.16939609  0.01934158
  0.08953772 -0.08445104 -0.02484027 -0.08082136  0.1892806   0.131624
 -0.05008459 -0.14967449  0.15333953 -0.16307667 -0.05583822 -0.02367635
 -0.1354257  -0.14286543 -0.35357451  0.01021411  0.37208295  0.15153889
 -0.21776639 -0.0140516  -0.0662021   0.05004261  0.17990631  0.10257503
  0.00827577  0.03076275 -0.07977821 -0.04663565  0.17606787 -0.07433233
 -0.06489144  0.24439715 -0.00371845  0.01698928  0.06449083 -0.01129413
 -0.04176732  0.00606138 -0.14013045 -0.01569201  0.03638342 -0.02585024
  0.0609689   0.1503589  -0.17636274  0.02742425 -0.03740765  0.05646212
  0.01962986 -0.01051927 -0.07335658 -0.10572529  0.08455903 -0.21940866
  0.14651811  0.23572503 -0.00813472  0.06680023  0.06580189  0.024238
  0.01722736  0.03324659 -0.13799924 -0.03698742  0.07193017 -0.02211639
  0.06389985  0.02886593]