[-1.22290231e-01  1.18094578e-01  4.73076478e-02 -9.32556402e-04
 -6.25386164e-02 -8.55293348e-02 -4.02277708e-02 -1.55486569e-01
  1.03592478e-01 -3.82982083e-02  2.62083948e-01 -4.58185896e-02
 -1.98333785e-01 -1.56785488e-01 -2.43365951e-02  1.70182750e-01
 -1.77637979e-01 -6.87295273e-02 -5.47280870e-02  3.11696524e-04
  8.68419707e-02 -3.42481844e-02  5.80984317e-02  2.24182215e-02
 -5.98213039e-02 -3.65217954e-01 -7.59592801e-02 -9.78106856e-02
 -1.92253273e-02 -2.19658203e-02 -1.22848921e-01  6.62495866e-02
 -1.41921714e-01 -1.47564054e-01  5.01547717e-02  1.01823464e-01
 -7.52262864e-03 -2.57016905e-02  1.75720692e-01 -1.92283150e-02
 -1.80452093e-01  1.34711964e-02  5.08946739e-02  2.63848543e-01
  2.65087515e-01  6.86981827e-02  3.22493054e-02 -1.25313714e-01
  1.46780685e-01 -1.61202356e-01  3.92737426e-02  1.02404833e-01
  1.00970760e-01  3.14880088e-02  2.56776996e-02 -1.04349948e-01
  6.24369318e-03  4.76054177e-02 -1.02900378e-01 -5.22078089e-02
  7.28929415e-02 -1.16065063e-01 -5.19130826e-02 -7.23684728e-02
  2.23382875e-01  7.51554891e-02 -8.31670985e-02 -1.14215724e-01
  1.27985314e-01 -1.21857308e-01 -1.06624983e-01 -1.79179814e-02
 -1.82409674e-01 -1.47834286e-01 -3.53362054e-01  1.09934304e-02
  4.07531589e-01  9.57373381e-02 -2.27926970e-01  2.62629595e-02
 -7.31588230e-02  7.42982654e-03  1.68585733e-01  1.50613025e-01
 -4.71073948e-03  3.97431217e-02 -1.05078436e-01 -3.45651992e-02
  2.06333041e-01 -1.03429034e-01 -5.41457608e-02  2.05294326e-01
  1.19337915e-02  1.02872148e-01  7.35140070e-02 -8.35078862e-03
 -1.91741921e-02  3.49915139e-02 -1.85339287e-01 -3.79788280e-02
  7.90762603e-02 -4.97510210e-02  1.99183207e-02  1.13459937e-01
 -1.85330138e-01  3.41203772e-02  1.88028719e-02  7.78537765e-02
  6.67435005e-02 -5.17447405e-02 -9.23048630e-02 -1.07959762e-01
  1.09820805e-01 -1.79215461e-01  1.60143420e-01  2.07440481e-01
  3.17410976e-02  1.10015087e-01  1.09181844e-01  7.13197887e-02
  6.94949552e-03  1.34716695e-02 -1.68070406e-01 -9.99408867e-03
  1.13404468e-01  5.98065965e-02  6.22791424e-02  1.10910144e-02]