[-0.12279417  0.09353016  0.05045853 -0.00936093 -0.06509862 -0.06019067
 -0.06931032 -0.14820705  0.08955431 -0.02991343  0.26480788 -0.05393114
 -0.17407867 -0.14517149 -0.03388117  0.16914636 -0.21535333 -0.09565563
 -0.05154788  0.02292349  0.06176572 -0.06649669  0.05613138  0.01649603
 -0.07587786 -0.36358923 -0.0755305  -0.09620908  0.02236436  0.02083255
 -0.11810359  0.05627666 -0.17246321 -0.14142589  0.05406887  0.10636786
  0.01578072 -0.02757175  0.17286912 -0.04373107 -0.20671652  0.01357642
  0.05459895  0.23782225  0.2437671   0.10326072  0.01874693 -0.10339713
  0.14861968 -0.19771977  0.0492743   0.10440576  0.08148051  0.02730845
  0.00387422 -0.13003755  0.03556465  0.06505002 -0.10977284 -0.04735702
  0.0609762  -0.09792129 -0.01273509 -0.06697493  0.2332768   0.10231352
 -0.07314836 -0.1372453   0.13648187 -0.10901576 -0.07368436  0.01548096
 -0.16691659 -0.13356583 -0.38650873 -0.01189633  0.42423016  0.08499727
 -0.21324246  0.00267166 -0.06923293  0.02769818  0.17735891  0.11742008
 -0.02876021  0.03351231 -0.13813439 -0.07009979  0.22926345 -0.08227837
 -0.05858402  0.18989879  0.01678123  0.09765293  0.08154389  0.03676934
 -0.01810406  0.01558233 -0.19852029 -0.02257879  0.07124712 -0.01331527
  0.00910277  0.13731977 -0.16882804  0.01403973  0.00213968  0.07119056
  0.05289365 -0.03656518 -0.07740138 -0.12090837  0.10815852 -0.18536006
  0.14231525  0.21467327  0.04079224  0.10350423  0.12016948  0.05723025
 -0.02964727  0.01189765 -0.17687954 -0.02819642  0.09602004  0.03269884
  0.05849174  0.02631401]