[-1.13204554e-01  8.08051974e-02  1.03217781e-01  1.50878672e-02
 -6.09965697e-02 -1.10086285e-01 -2.85504293e-02 -1.84271216e-01
  6.28074482e-02 -5.69765829e-02  3.00531119e-01 -6.34750053e-02
 -1.26540810e-01 -1.37727961e-01 -9.05923080e-03  1.83744147e-01
 -1.67691603e-01 -8.56112093e-02 -6.28927276e-02 -2.09143702e-02
  5.25282435e-02 -6.59122095e-02  3.21098305e-02  2.65850313e-02
 -1.15975790e-01 -3.06258231e-01 -1.05730467e-01 -9.07435790e-02
  4.74082008e-02 -5.65491691e-02 -1.27103388e-01  2.84998920e-02
 -1.68008894e-01 -1.47387609e-01  2.73029096e-02  5.40472344e-02
  2.25149225e-02 -5.87479733e-02  1.77354082e-01 -4.86158626e-03
 -1.92373514e-01  5.79273216e-02  4.61679772e-02  2.58028477e-01
  2.53563315e-01  6.79189190e-02  2.93444600e-02 -8.07668716e-02
  9.76910517e-02 -1.89093217e-01  1.55475019e-02  5.23340963e-02
  1.10648431e-01  2.94382703e-02 -1.87988970e-02 -1.00355290e-01
 -3.15631944e-04  4.51675951e-02 -1.58249885e-01  1.75524391e-02
  7.61744305e-02 -1.24501348e-01 -1.14439260e-02 -3.77192684e-02
  2.17076614e-01  1.12756066e-01 -7.52665997e-02 -9.18755382e-02
  1.32720247e-01 -1.45857915e-01 -6.03771619e-02 -1.51239177e-02
 -1.46859244e-01 -1.54083624e-01 -3.63623351e-01  1.73489973e-02
  3.93447369e-01  1.02784351e-01 -2.38130718e-01 -1.34716099e-02
 -6.21235557e-02  3.28064561e-02  1.64091870e-01  1.23315409e-01
  7.40463985e-03  1.59486011e-02 -8.11039284e-02 -2.98005696e-02
  2.28937194e-01 -8.78796205e-02 -2.85783950e-02  2.28965908e-01
 -1.31984276e-03  4.58496585e-02  5.37602603e-02  3.01164277e-02
 -1.62787475e-02  1.70317683e-02 -1.13791279e-01  9.76294186e-03
  4.94927913e-02 -4.16923948e-02  5.83567508e-02  1.39229298e-01
 -1.91111878e-01  4.30175476e-02 -1.42539218e-02  3.30248252e-02
  4.48128805e-02 -4.27548448e-03 -6.42722026e-02 -1.26786456e-01
  1.03443675e-01 -1.89036146e-01  1.54685125e-01  2.76250005e-01
 -6.78691780e-03  8.02667141e-02  6.76744878e-02  6.16308413e-02
  3.71579616e-03  4.35946696e-02 -1.17956497e-01 -1.50073413e-02
  6.87614307e-02 -1.65335853e-02  6.40931875e-02  2.44194698e-02]