[-0.12114768  0.1395372   0.08514825 -0.01222452 -0.04715268 -0.09595346
 -0.02707098 -0.17032239  0.11005737 -0.02628829  0.27129307 -0.04681146
 -0.13464838 -0.15441178 -0.02483289  0.17334557 -0.21781158 -0.06802233
 -0.06363356  0.01645201  0.07588258 -0.0589383   0.06769942  0.03238685
 -0.06139604 -0.31931517 -0.0935015  -0.10235327  0.06082961 -0.00817637
 -0.11733601  0.0050508  -0.20114003 -0.17486922  0.02503366  0.08602445
 -0.03717425 -0.05019268  0.17249422 -0.03627574 -0.16513595  0.05933132
  0.04813028  0.26968613  0.28391477  0.05850483  0.03689366 -0.12834308
  0.12096538 -0.16086498  0.03250571  0.09766491  0.09447116  0.04336942
  0.00053244 -0.1118006   0.02423     0.07885725 -0.12870561  0.0257583
  0.11031908 -0.11062598 -0.05288614 -0.05428072  0.22755937  0.09397253
 -0.09386463 -0.15566599  0.13095643 -0.10568596 -0.07197775 -0.00402664
 -0.17651498 -0.13808031 -0.35617885  0.00071869  0.42024764  0.07588475
 -0.2292074   0.02087711 -0.11475613  0.03234718  0.1649975   0.15277368
  0.01431281  0.00406219 -0.11788048 -0.02267452  0.18518859 -0.09917752
 -0.04621001  0.19999821  0.00358776  0.05345387  0.03082632  0.0011605
 -0.04457978  0.05875516 -0.17995305 -0.02395532  0.05954132 -0.03655136
  0.01800659  0.12133179 -0.16968895  0.05274455  0.03672658  0.0850661
  0.06859068 -0.06250117 -0.10274895 -0.08832382  0.12138146 -0.1951689
  0.21650401  0.22598536  0.0284855   0.08246396  0.11896536  0.07880093
  0.01673877  0.04243475 -0.17337935  0.0105919   0.06612506  0.01808743
  0.07929827  0.02689151]