[-1.16970062e-01  1.06666110e-01  6.20590560e-02 -1.59787796e-02
 -4.07263301e-02 -7.17787221e-02 -4.06560116e-02 -1.41912267e-01
  1.06189482e-01 -3.17507498e-02  2.94247419e-01 -3.70183252e-02
 -1.61146194e-01 -1.51626974e-01 -4.95295040e-02  1.86834082e-01
 -2.30942413e-01 -5.61095178e-02 -5.00637777e-02  1.93700157e-02
  6.57545626e-02 -4.33504768e-02  5.75139485e-02  3.79547291e-02
 -6.96844310e-02 -3.35013002e-01 -7.75401145e-02 -1.05295993e-01
  1.69670340e-02 -1.00126527e-02 -1.24861442e-01  6.04436658e-02
 -1.78595319e-01 -1.58292323e-01  5.51965348e-02  1.21006064e-01
 -5.45825576e-03 -1.73088517e-02  1.55295923e-01 -1.67857241e-02
 -1.50408074e-01  5.81474714e-02  5.93113676e-02  2.75900096e-01
  2.74809211e-01  7.29059577e-02  4.39858623e-02 -1.32841825e-01
  1.17827915e-01 -1.50400043e-01  4.67714854e-02  7.66729712e-02
  1.04042493e-01  5.56356125e-02  1.97040774e-02 -1.24434851e-01
  2.62566637e-02  6.53353557e-02 -1.00998454e-01  4.76927077e-03
  8.44350085e-02 -9.55433846e-02 -1.73130687e-02 -4.18146215e-02
  2.20327526e-01  6.30311221e-02 -8.56842324e-02 -1.54901251e-01
  1.28816113e-01 -1.10043503e-01 -1.02009356e-01  1.18502667e-02
 -1.71923906e-01 -1.39248952e-01 -3.72653157e-01 -1.79734454e-03
  3.97647232e-01  1.06641948e-01 -2.33291671e-01  3.12276967e-02
 -6.92443252e-02  3.10143316e-03  1.77350327e-01  1.59868583e-01
  1.26745943e-02  3.99423726e-02 -1.17447130e-01 -2.23605521e-02
  1.96794733e-01 -6.53253719e-02 -6.61407337e-02  2.05543756e-01
  1.66632235e-04  6.56657368e-02  6.46588132e-02  4.15677531e-03
 -2.49591060e-02  5.13779931e-02 -1.98696002e-01 -4.89431433e-02
  5.76093458e-02 -2.12408584e-02  1.12279719e-02  1.12393878e-01
 -1.66982129e-01  3.71541046e-02  8.73778772e-04  8.29128549e-02
  4.18430567e-02 -4.76625971e-02 -9.83153805e-02 -5.84745184e-02
  1.23106360e-01 -2.11491376e-01  1.90509185e-01  2.16917396e-01
  5.03455475e-02  8.52851793e-02  1.24321602e-01  5.45356758e-02
  1.05928276e-02  1.27830924e-02 -1.72039196e-01 -4.68236720e-03
  7.78309032e-02  2.14362144e-02  1.12269320e-01  2.37978231e-02]