[-1.31417677e-01  1.49668932e-01  6.78279176e-02 -9.35522653e-03
 -5.28809540e-02 -4.66173589e-02 -4.00264375e-02 -1.56562209e-01
  1.09236382e-01 -1.18703349e-02  2.52243817e-01 -6.74458444e-02
 -1.58106789e-01 -1.30417064e-01 -4.71617840e-02  1.84100136e-01
 -2.05939531e-01 -9.37808976e-02 -4.42259423e-02  1.13863056e-03
  6.56311512e-02 -6.59577772e-02  3.87715064e-02  2.22181082e-02
 -4.89356481e-02 -3.22405308e-01 -7.37395585e-02 -8.20221677e-02
  7.87862390e-02  1.87633082e-03 -1.29707560e-01  1.61802750e-02
 -2.09868595e-01 -1.49628058e-01  3.97707894e-02  9.58426520e-02
 -2.31041014e-02 -4.87492010e-02  1.61681086e-01 -4.54614572e-02
 -1.57616615e-01  5.97766154e-02  3.27876359e-02  2.59592801e-01
  2.56877154e-01  1.00733817e-01  2.31814515e-02 -1.10108294e-01
  1.28907189e-01 -1.71705291e-01  6.21499009e-02  1.11020163e-01
  8.52733925e-02  3.34323794e-02 -5.93010336e-05 -1.48355961e-01
  1.04653928e-02  7.10505843e-02 -1.01914443e-01  9.66372434e-03
  6.85931668e-02 -1.09486833e-01 -3.77056859e-02 -7.56475851e-02
  2.11038426e-01  8.82776901e-02 -6.64098486e-02 -1.47187456e-01
  1.47846818e-01 -8.54676515e-02 -4.83009256e-02 -9.48030222e-03
 -1.59870014e-01 -1.35384947e-01 -3.46283287e-01  2.94452347e-02
  4.15846556e-01  9.45833698e-02 -2.19529539e-01  4.46701460e-02
 -5.31759933e-02  4.42505069e-02  1.64811447e-01  1.45731613e-01
 -1.45054637e-02  1.41450260e-02 -1.25819385e-01 -4.49751914e-02
  1.88691542e-01 -9.57235321e-02 -6.12454824e-02  1.90478519e-01
 -1.74510311e-02  5.84920421e-02  4.02606279e-02  1.54764531e-02
 -3.08002625e-02  3.92279699e-02 -1.64039940e-01 -5.36152013e-02
  9.39313993e-02 -2.66930293e-02  4.49030101e-03  1.31231979e-01
 -1.78059295e-01  3.16890739e-02  7.78687233e-03  9.63181630e-02
  4.89440113e-02 -5.26242442e-02 -6.55705258e-02 -7.22793564e-02
  1.14860199e-01 -1.98911354e-01  2.05168873e-01  2.20978543e-01
  4.31151502e-03  1.06040590e-01  1.21723644e-01  7.04101399e-02
  3.55610959e-02  2.98844166e-02 -1.66206568e-01 -3.58526669e-02
  8.25228617e-02  3.62037830e-02  6.85746893e-02  4.99121137e-02]