[-0.10837451  0.09788593  0.11558707 -0.01153868 -0.04566789 -0.04078795
 -0.03614186 -0.10304218  0.11945182 -0.03898707  0.33393222 -0.02880441
 -0.20250908 -0.07398985 -0.03269552  0.1687582  -0.15370719 -0.03752487
 -0.08144033 -0.02574118  0.0742222  -0.03565982  0.04662345  0.01760476
 -0.08859863 -0.33939543 -0.0766523  -0.04285442  0.04555656 -0.02171809
 -0.0825279   0.01959983 -0.1643738  -0.12111606  0.07205557  0.06568787
 -0.01932979 -0.0620542   0.21940537  0.01623497 -0.16106288  0.09192166
  0.02963826  0.26579794  0.21775106  0.10456797  0.02070179 -0.11193977
  0.12635784 -0.25270492  0.06166869  0.11816888  0.0632719   0.04137028
  0.05979216 -0.15506618 -0.00463568  0.09470045 -0.14336893  0.00932337
  0.05250362 -0.11458379  0.00096822 -0.10301992  0.20825636  0.13191736
 -0.12602705 -0.08770954  0.1252588  -0.05130756 -0.02179531  0.00835107
 -0.16086553 -0.14999594 -0.33078384  0.08213636  0.44279423  0.11622428
 -0.22021504 -0.01636197 -0.07011189  0.04579037  0.13854735  0.09094112
 -0.0249872  -0.04572387 -0.06938121 -0.02008306  0.17439668 -0.0525731
 -0.06421774  0.21494465 -0.02109993  0.06881231  0.04225891  0.05217382
 -0.08916615 -0.00784487 -0.16955221 -0.00872812  0.03768663 -0.04248311
  0.06216288  0.11306299 -0.20218742  0.04110463 -0.01404467  0.00595666
  0.04760863  0.00859837 -0.09150203 -0.03703479  0.08937515 -0.25459695
  0.24355669  0.2073323   0.02572132  0.12640695  0.11821877  0.05035846
  0.00686518  0.03138954 -0.09408846 -0.07293655  0.04660077  0.04638057
  0.09319883  0.00814736]