[-0.12939918  0.09478469  0.07719418  0.0196212  -0.02669331 -0.03065868
 -0.04806712 -0.11493504  0.11314446 -0.0298955   0.28893846 -0.03925869
 -0.19550049 -0.09053616 -0.00419162  0.18088014 -0.16409545 -0.02406051
 -0.07583218 -0.02787164  0.08639453 -0.04323385  0.03558373  0.03473348
 -0.10023244 -0.34306926 -0.06879174 -0.03011813  0.05147314 -0.00519641
 -0.08267548  0.02783648 -0.18136542 -0.12256613  0.05749954  0.10178254
 -0.02403745 -0.0540034   0.18113504  0.00054342 -0.16611545  0.05848414
  0.01222486  0.26760316  0.21379773  0.10093337  0.01412414 -0.08083975
  0.10688037 -0.24713464  0.04431315  0.1010448   0.04642947  0.04867584
  0.03492955 -0.15213411  0.01030186  0.10228057 -0.11609577 -0.00668201
  0.04987161 -0.14298181  0.00594783 -0.09282394  0.20842412  0.1088261
 -0.11911067 -0.07096377  0.10812306 -0.04886748 -0.01082466 -0.00953178
 -0.1382661  -0.15839951 -0.3710452   0.07198247  0.43941903  0.09153391
 -0.22428174 -0.01620989 -0.04043723  0.04703579  0.16682795  0.11314646
 -0.0101673  -0.04634688 -0.07169374 -0.01635266  0.1850125  -0.04442938
 -0.04512687  0.21021619 -0.02107188  0.05642873  0.03776177  0.06250674
 -0.06332456  0.00168354 -0.13604687  0.00744069  0.06768421 -0.06193477
  0.05241356  0.11726856 -0.21484916  0.07693578  0.01559827  0.03543864
  0.08507282 -0.00415761 -0.1072247  -0.03434822  0.10599027 -0.24977899
  0.22372822  0.23362732  0.01983911  0.13543253  0.09738563  0.06908595
 -0.00737606  0.04313337 -0.13534312 -0.0601452   0.05797685  0.01894105
  0.05963962  0.01654661]