[-0.13392726  0.11262518  0.06815596  0.0138198  -0.02488486 -0.07752719
 -0.03994467 -0.1659348   0.11330358 -0.01564891  0.30607995 -0.04245643
 -0.12956776 -0.16348539 -0.02268565  0.16917442 -0.21533374 -0.08796579
 -0.07094678 -0.01908301  0.03956442 -0.05452851  0.03077775  0.0198204
 -0.03955227 -0.34080034 -0.09543113 -0.09098209  0.0852931  -0.04373044
 -0.13636503  0.04887633 -0.20841239 -0.17247806  0.05098068  0.08728655
  0.00876329 -0.02212491  0.16752163 -0.05379499 -0.1578885   0.04943408
  0.07410955  0.25021514  0.27677354  0.08354496 -0.00618676 -0.10274786
  0.1050277  -0.14532594  0.03211579  0.10423715  0.10292514  0.05992435
 -0.02672785 -0.13783245 -0.02154203  0.0398218  -0.11702033 -0.0102909
  0.07906912 -0.14653212 -0.05513932 -0.05263218  0.22769164  0.10807973
 -0.0788899  -0.18226963  0.12998776 -0.1273748  -0.05489031  0.0081285
 -0.14904581 -0.12527733 -0.34872776  0.02450025  0.41341233  0.06711421
 -0.22912446  0.04588614 -0.09052023 -0.00728126  0.14410859  0.13990596
 -0.00581888  0.04299909 -0.10929996 -0.0397127   0.19789982 -0.0464084
 -0.04753837  0.18274808 -0.03056628  0.08930573  0.06844313  0.02257906
 -0.02005375  0.01760164 -0.1826939  -0.04178884  0.02971031 -0.01275662
  0.01773076  0.11713212 -0.13535799  0.05486676  0.02071406  0.09289986
  0.04130699 -0.04086609 -0.04525263 -0.09665381  0.10976382 -0.21667552
  0.20350926  0.1982504   0.03458936  0.11351579  0.10248581  0.09042876
  0.00233645  0.02892401 -0.1670755  -0.00225834  0.06446218  0.00723008
  0.08770352  0.028514  ]