[-0.1097213   0.12183156  0.05348904 -0.00126254 -0.02499295 -0.04888119
 -0.06102198 -0.15857568  0.11764518 -0.02710583  0.28787199 -0.05460575
 -0.1614712  -0.14243324 -0.04124632  0.18983495 -0.22396962 -0.10018491
 -0.06478397 -0.01344582  0.06991111 -0.0044333   0.0653571   0.02166289
 -0.03218209 -0.34416035 -0.07138308 -0.09105633  0.07553467 -0.03185559
 -0.12353971  0.03341025 -0.19725403 -0.13562849  0.06203273  0.09543514
 -0.00675621 -0.00748667  0.16967861 -0.02994647 -0.15251921  0.04918563
  0.079384    0.2669718   0.28687331  0.09964948 -0.00665737 -0.13187432
  0.08292585 -0.16697364  0.04447027  0.11858952  0.09684312  0.03910145
  0.00932411 -0.12844329 -0.01655719  0.05229743 -0.09465223  0.02215496
  0.10108838 -0.10235836 -0.03893575 -0.05005975  0.23144618  0.06223845
 -0.09517095 -0.16422844  0.11473983 -0.11189536 -0.09240236  0.00362919
 -0.16158059 -0.12541305 -0.35691509 -0.01183656  0.44403583  0.03755612
 -0.21890242  0.05618746 -0.05348607 -0.00258688  0.16000378  0.12890157
 -0.02464117 -0.0042727  -0.12863567 -0.02054386  0.19855204 -0.06948213
 -0.04896989  0.17689849 -0.03978246  0.08375699  0.05761673  0.04445337
 -0.02012456  0.04160418 -0.19711874 -0.05022308  0.0246476  -0.02546465
  0.0105063   0.1194237  -0.13879023  0.03345243  0.02187648  0.07701289
  0.06087014 -0.01369835 -0.09695951 -0.09240694  0.12375537 -0.20356472
  0.19908486  0.21192412  0.04944932  0.08681171  0.11679123  0.10112164
  0.0124875   0.04842484 -0.18831021 -0.01304521  0.04661867  0.02289424
  0.07759129  0.04238647]