[-0.13624237  0.10591391  0.04042539 -0.01750595 -0.07541648 -0.02439337
 -0.08323591 -0.17626455  0.07684976 -0.06843493  0.2598803  -0.05400845
 -0.17742012 -0.08724678 -0.04142277  0.18242933 -0.18873081 -0.08784883
 -0.0922895   0.01381705  0.05293539 -0.02402466  0.00963438  0.03674623
 -0.07332274 -0.32652646 -0.07203905 -0.03865977  0.03367295  0.00208774
 -0.14505644  0.01319556 -0.19653977 -0.11301531  0.07669603  0.11432578
 -0.00970983 -0.02934027  0.14482836 -0.02599336 -0.18548565  0.06539274
  0.07075105  0.25894305  0.24818249  0.10821263  0.0023691  -0.1332228
  0.142349   -0.21870279  0.06038074  0.09247963  0.08305883  0.0517873
  0.00131218 -0.14346604  0.0072085   0.09068035 -0.09024914  0.00473915
  0.0891868  -0.11851921 -0.04170495 -0.10157137  0.23307733  0.12055232
 -0.10341706 -0.15579991  0.10521581 -0.11261213 -0.08814234 -0.01648911
 -0.14012949 -0.14631294 -0.36428279  0.01361929  0.41171432  0.11838167
 -0.24478881  0.02313532 -0.02824834  0.04424867  0.19028482  0.12076529
 -0.00557402  0.00773135 -0.09441203 -0.0266344   0.25864634 -0.07622864
 -0.03597729  0.2066838  -0.00135163  0.06548245  0.05975139  0.04318484
 -0.03960943 -0.0014095  -0.18393297 -0.02476438  0.06248147 -0.0049164
  0.0324572   0.12386453 -0.17711422  0.09095342 -0.00413023  0.0729771
  0.07366071 -0.04403191 -0.088162   -0.06737656  0.11152231 -0.20925836
  0.21180502  0.19987817  0.0542565   0.10470913  0.1241367   0.06167919
  0.01043636  0.05569405 -0.17409487 -0.06320047  0.1041012  -0.00081617
  0.0902596   0.02339037]