[-0.10912228  0.1285124   0.0809729   0.03474437 -0.03722606 -0.06005787
 -0.00120274 -0.14895318  0.11390828 -0.01357804  0.29629311 -0.02820331
 -0.17598228 -0.15189253 -0.02031171  0.19509153 -0.19290744 -0.05470419
 -0.06533196 -0.00377629  0.08019219 -0.05434644  0.02297146  0.05126676
 -0.08126774 -0.34357843 -0.06120127 -0.09567603  0.05618658 -0.02893796
 -0.12016854  0.04691192 -0.15734938 -0.14745665  0.05548085  0.06575315
 -0.00247432 -0.01784893  0.18714184  0.00285081 -0.18154213  0.054598
  0.03858602  0.27990124  0.25724289  0.07787676  0.03792907 -0.11363546
  0.13708843 -0.20482861  0.01460454  0.09785777  0.08690644  0.0464859
 -0.0034256  -0.13287421 -0.01390908  0.05083936 -0.19470128  0.01001624
  0.06168006 -0.15209535 -0.03003064 -0.03170438  0.2041931   0.10030749
 -0.08796111 -0.1194722   0.14895412 -0.13141946 -0.03395277  0.0022437
 -0.15520851 -0.16198759 -0.36958161  0.03865343  0.44899827  0.11872178
 -0.19881423  0.01375098 -0.0926425   0.01747116  0.172355    0.13466512
  0.0096334  -0.00339947 -0.07788391  0.00297493  0.17881264 -0.07576115
 -0.03708086  0.22592199 -0.0006191   0.06913134  0.02997849  0.02279923
 -0.03887587  0.03038783 -0.15837736 -0.03083792  0.02784765 -0.01320497
  0.10370268  0.10692086 -0.1878784   0.03305927  0.0181872   0.05545681
  0.0584436  -0.02335973 -0.09372867 -0.0906446   0.10428383 -0.21914594
  0.21298265  0.22579442  0.02828924  0.08837801  0.081162    0.04060213
  0.02146182 -0.01591091 -0.12274285  0.00796529  0.08642638  0.0084905
  0.0795814  -0.00758844]