[-1.14905275e-01  9.89294574e-02  7.00696856e-02 -1.03266565e-02
 -4.01226580e-02 -6.58259615e-02 -4.65426557e-02 -1.41970918e-01
  1.05439737e-01 -3.74766700e-02  2.93183655e-01 -4.47090492e-02
 -1.67875394e-01 -1.47197649e-01 -4.44088057e-02  1.84883386e-01
 -2.24134281e-01 -5.63367270e-02 -4.20561358e-02  2.05190238e-02
  5.67395091e-02 -4.83408645e-02  6.03053086e-02  3.04399040e-02
 -7.16760829e-02 -3.45541060e-01 -8.87544528e-02 -1.06046259e-01
  1.16207078e-02 -6.16726140e-03 -1.25147387e-01  5.49415462e-02
 -1.71692178e-01 -1.51257932e-01  4.96123768e-02  1.13268971e-01
 -5.02210995e-03 -1.98495984e-02  1.51815444e-01 -2.11502798e-02
 -1.57566950e-01  4.85718548e-02  5.80987521e-02  2.68317878e-01
  2.62907326e-01  8.04074779e-02  4.33518253e-02 -1.28331497e-01
  1.15712009e-01 -1.42351672e-01  4.81472425e-02  7.71763623e-02
  9.66734812e-02  4.94389273e-02  1.74412839e-02 -1.16721630e-01
  2.53435653e-02  6.91921115e-02 -1.01925157e-01  4.55254177e-03
  8.85601193e-02 -9.34485793e-02 -1.74157284e-02 -4.58378829e-02
  2.18795776e-01  6.23668805e-02 -8.40251744e-02 -1.62601620e-01
  1.26401305e-01 -1.13628708e-01 -9.77013931e-02  1.49294930e-02
 -1.73029840e-01 -1.44827992e-01 -3.72332245e-01 -6.29574060e-07
  3.96429509e-01  9.92255285e-02 -2.18618065e-01  3.25071588e-02
 -6.73314035e-02 -3.16982879e-03  1.71699360e-01  1.58058271e-01
  1.52065028e-02  3.99854146e-02 -1.17117405e-01 -3.35677639e-02
  2.01481208e-01 -6.89503625e-02 -5.96896410e-02  2.00672418e-01
 -9.09301173e-03  6.39600009e-02  6.02877513e-02  7.08087021e-03
 -2.87488904e-02  5.63264266e-02 -1.91534370e-01 -4.56065908e-02
  5.75919338e-02 -2.66407877e-02  8.86765029e-03  1.04874030e-01
 -1.73878834e-01  4.08726148e-02  1.85558572e-04  8.08939263e-02
  4.93774526e-02 -4.54831980e-02 -1.04024507e-01 -6.42732829e-02
  1.31009981e-01 -2.18659833e-01  1.78687617e-01  2.18029663e-01
  5.99482022e-02  8.67869481e-02  1.24437228e-01  5.97189032e-02
  5.02893561e-03  1.61776785e-02 -1.80177018e-01 -6.76649809e-03
  7.67636523e-02  1.64697319e-02  1.03824593e-01  2.58492362e-02]