[-1.32149488e-01  1.12744085e-01  5.62753193e-02 -1.20904017e-02
 -3.31643112e-02 -5.70748113e-02 -5.33928536e-02 -1.64163068e-01
  1.08493410e-01 -1.73601080e-02  2.76048243e-01 -4.18790430e-02
 -1.71794683e-01 -1.74132735e-01 -3.27443145e-02  1.93849206e-01
 -1.88703567e-01 -9.44312736e-02 -6.37881979e-02 -3.33334925e-03
  6.04227148e-02 -6.41041026e-02  4.96353321e-02  3.50151695e-02
 -1.05368428e-01 -3.53602856e-01 -8.87477100e-02 -8.77282917e-02
  9.27384105e-03  3.37997830e-04 -1.11439101e-01  3.28089558e-02
 -2.09596276e-01 -1.45453691e-01  5.63418269e-02  1.21246912e-01
  4.51171352e-03 -3.68921757e-02  1.59471527e-01 -3.52270976e-02
 -1.89116597e-01  2.15214752e-02  6.49261922e-02  2.58823782e-01
  2.56693184e-01  9.00663137e-02  3.06486730e-02 -1.05674520e-01
  1.32329985e-01 -1.51165396e-01  5.97000495e-02  8.37902650e-02
  7.18963519e-02  3.73668186e-02  7.02213077e-03 -1.25120088e-01
  3.02246045e-02  8.49048272e-02 -1.04753353e-01 -3.67123485e-02
  5.99554367e-02 -1.26368627e-01 -3.94688472e-02 -5.33972941e-02
  2.28640229e-01  9.24976096e-02 -7.46107027e-02 -1.53184161e-01
  1.43065184e-01 -1.06452979e-01 -5.31232655e-02  1.38306338e-02
 -1.66817352e-01 -1.35255635e-01 -3.99319857e-01  1.09915538e-02
  4.41439480e-01  8.94314647e-02 -2.43959218e-01  1.50606995e-02
 -5.89836724e-02  3.71315964e-02  1.93082884e-01  1.38686091e-01
 -3.78094311e-03  4.38396744e-02 -1.42841458e-01 -4.36696298e-02
  2.34312162e-01 -6.27082288e-02 -6.08006679e-02  1.93759963e-01
 -3.03602102e-03  6.41971678e-02  7.14206323e-02  2.40033157e-02
 -4.35191654e-02  2.59400550e-02 -1.81141391e-01 -5.42774759e-02
  8.75276253e-02  3.98910791e-03  1.62743106e-02  1.34219795e-01
 -1.68483853e-01  4.02011573e-02  2.32147407e-02  7.84057081e-02
  5.01236208e-02 -3.46459486e-02 -8.23182464e-02 -1.11396246e-01
  1.09871797e-01 -1.88753992e-01  1.64729953e-01  2.04036981e-01
  2.37296019e-02  1.01187423e-01  1.21508576e-01  7.93503299e-02
 -1.97307859e-02  2.03450192e-02 -1.70104221e-01 -1.52587593e-02
  9.30058956e-02  2.03759428e-02  1.17619097e-01  1.91113204e-02]