[-0.11722975  0.1898068   0.09300952 -0.04785    -0.16853538 -0.00700082
 -0.04795093 -0.19927692  0.13674922 -0.0866969   0.24768065  0.00076004
 -0.22688849 -0.058574   -0.04949323  0.17068847 -0.16516069 -0.15650862
 -0.08045862 -0.06874693 -0.00663418  0.02750382 -0.00991996 -0.0066579
 -0.04468566 -0.37288353 -0.09191158 -0.05836334  0.06048614 -0.02471591
 -0.02069708  0.0231858  -0.17223342 -0.04025173  0.05581272  0.06682318
 -0.1010154  -0.08843279  0.20068823 -0.0173023  -0.21259654 -0.02076645
  0.07726397  0.19724302  0.21775953  0.00877394  0.05518608 -0.18808596
  0.1808825  -0.14200687  0.02634354  0.17417191  0.08021238  0.09676596
  0.01217971 -0.17145254  0.00397341  0.11624177 -0.20560086 -0.06013226
  0.08420976 -0.1472455  -0.08895641 -0.08804365  0.2113813   0.13593943
 -0.08881848 -0.18945603  0.18527882 -0.14398089 -0.05671114  0.06482062
 -0.13600834 -0.1496679  -0.27553317  0.03319241  0.45466301  0.10712107
 -0.11281761 -0.00355669 -0.06356901 -0.03768829  0.07001372  0.11284311
 -0.09382149 -0.02229405 -0.06579334  0.03109357  0.21047471 -0.05814269
 -0.0285444   0.17087293 -0.00841933  0.09479348  0.03033921  0.06885181
 -0.11003508  0.01917615 -0.12751295 -0.04972873 -0.00199767 -0.04112986
  0.03835579  0.07596762 -0.14425087  0.14813869  0.01616148  0.03564985
 -0.0338059  -0.11816658 -0.02957079 -0.01781583  0.15673187 -0.21598497
  0.24991834  0.11939847  0.00921354  0.18251179  0.11131447  0.05683576
 -0.04189875 -0.11852819 -0.1620459  -0.0391975   0.09194875 -0.01740645
  0.09945687 -0.00593633]