[-0.11398771  0.18069594  0.10440543 -0.04854306 -0.11624086  0.01651352
 -0.00409269 -0.17556621  0.15884021 -0.09703875  0.23892856 -0.00467802
 -0.27873316 -0.05159011 -0.04723004  0.1977049  -0.13231423 -0.09275076
 -0.05679853 -0.01123947  0.02329808  0.05927301  0.00296744 -0.01420617
 -0.03893293 -0.38076621 -0.08976734 -0.02003247 -0.03805756 -0.03333288
 -0.03983275  0.00616243 -0.16180246 -0.03515842  0.05932413  0.08498316
 -0.09284376 -0.07316834  0.14774249  0.03884163 -0.22103611 -0.00738494
  0.06464318  0.20128386  0.2109158   0.00802079  0.03788466 -0.22919181
  0.17113408 -0.15860565 -0.04076422  0.1287576   0.03364833  0.06252607
 -0.01250148 -0.17347537 -0.02200929  0.12359466 -0.1947185  -0.06928166
  0.06351452 -0.13984527 -0.11170287 -0.05274436  0.18887579  0.12613718
 -0.13841651 -0.19354886  0.15281887 -0.13416593 -0.01950297  0.05521538
 -0.13153414 -0.18270256 -0.2375474   0.04513311  0.44254979  0.03975425
 -0.14194283 -0.02191534 -0.10086828  0.0079766   0.08861461  0.1561933
 -0.01951554 -0.03030245 -0.07022183  0.00191623  0.19484578 -0.1005393
  0.00751064  0.19544429 -0.02700961  0.09820665  0.01197155  0.09141447
 -0.15627074  0.06114758 -0.13579412 -0.0839185   0.01048259 -0.06886222
  0.04893     0.09349755 -0.18525369  0.16149716  0.02046727  0.02058594
  0.06138256 -0.12554227 -0.01720979 -0.0380629   0.13207911 -0.22930966
  0.23351967  0.13791588 -0.04179957  0.17739019  0.09928773  0.10182618
 -0.02904342 -0.05708466 -0.16413908 -0.01834045  0.07053708  0.00463959
  0.0547928  -0.08666155]