[-0.15331504  0.21759628  0.07348362 -0.07326312 -0.11957675 -0.01242758
 -0.05533824 -0.19152868  0.15751933 -0.08445712  0.21998763 -0.02625879
 -0.1871272  -0.05331793 -0.02278011  0.19591278 -0.16243637 -0.15873705
 -0.04668849  0.00243445  0.0521094   0.05985219  0.02160941  0.033129
 -0.04929807 -0.37434667 -0.12458032 -0.04899862  0.03588082 -0.04318705
 -0.03231734 -0.01238849 -0.21028288 -0.06102125  0.03896892  0.10033368
 -0.05210444 -0.10164034  0.14301677 -0.02332204 -0.28132734  0.00582251
  0.12183883  0.20969844  0.19803949  0.03241782  0.02186897 -0.17846894
  0.11842215 -0.10527762  0.03903401  0.10620859  0.02670761  0.0932193
 -0.01312058 -0.18714505  0.0312016   0.11139756 -0.16028856 -0.05597
  0.11830185 -0.10366251 -0.03121394 -0.07452101  0.22398543  0.12269067
 -0.08392197 -0.20157568  0.13840578 -0.13282666 -0.0674099   0.0827634
 -0.14336707 -0.14625023 -0.2850225   0.00575826  0.45185819  0.07667588
 -0.13047861  0.01414053 -0.04643732 -0.00580489  0.09909014  0.16213588
 -0.03086228  0.01235134 -0.08470785  0.00988047  0.2667504  -0.02122305
 -0.0304054   0.18048024 -0.01282793  0.09294109  0.02489004  0.08383773
 -0.08683013  0.03830219 -0.14975193 -0.03983508 -0.04070909 -0.02832213
 -0.03948678  0.13100377 -0.18366949  0.16853625  0.06671797  0.03929302
 -0.02826667 -0.03663826 -0.01656601 -0.01633906  0.12805389 -0.19904862
  0.24877997  0.15602536  0.03338806  0.16636887  0.10953249  0.09895407
 -0.02693632 -0.07327577 -0.22097135 -0.0236438   0.10995962 -0.04788753
  0.12407916  0.02387647]