[-0.13609529  0.16601081  0.03039513 -0.12149451 -0.13107322 -0.03157275
 -0.03117863 -0.19922599  0.16614947 -0.09917708  0.29287449 -0.05331962
 -0.22878824 -0.0646139  -0.0766063   0.20934252 -0.20057094 -0.14567266
 -0.06569829 -0.04733246  0.03665645  0.02663929  0.01285956  0.03978358
 -0.0430089  -0.37132463 -0.10441165 -0.07854749  0.02158958 -0.04653242
 -0.0104912   0.04246446 -0.19773178 -0.03783206  0.06120772  0.05171731
 -0.02912413 -0.09996171  0.14966214 -0.00587917 -0.2366749   0.00322445
  0.14516847  0.17740099  0.1956751   0.02690882  0.0167471  -0.19576859
  0.15524912 -0.11731791 -0.01829086  0.11697107  0.03727914  0.05743298
  0.00160968 -0.17446612  0.01815647  0.11289648 -0.17466512 -0.07762587
  0.07350593 -0.12001506 -0.10284733 -0.09184723  0.20857377  0.13148634
 -0.10864784 -0.18415697  0.15149455 -0.14429687 -0.0546904   0.0829405
 -0.14876911 -0.13638999 -0.24392059 -0.0068541   0.43850446  0.04375653
 -0.11132202  0.02406129 -0.04202567 -0.01670602  0.0700845   0.14581048
 -0.05244708 -0.023983   -0.07460091 -0.01595316  0.23298359 -0.05097732
  0.00671855  0.19302981 -0.0510357   0.08127903  0.02096707  0.07490367
 -0.12594698  0.0071225  -0.10448807 -0.061442   -0.04158479 -0.05309227
 -0.04919444  0.07130704 -0.18573344  0.09208594  0.01387327  0.01309461
 -0.02231904 -0.07632482  0.0510183  -0.03504285  0.09728037 -0.21149011
  0.22865646  0.15286343  0.02316861  0.1710137   0.07709438  0.07158319
 -0.04456545 -0.06807514 -0.17584634 -0.04801121  0.08706067 -0.04625814
  0.07510883 -0.06454264]