[-0.13416949  0.17284207  0.08353732 -0.06719936 -0.1143525  -0.0023821
 -0.01577326 -0.18178464  0.16171458 -0.0919046   0.24331279 -0.00141726
 -0.26834786 -0.08927476 -0.04950024  0.19153611 -0.13195328 -0.09639937
 -0.0578604  -0.01745484  0.03520992  0.04947278  0.0106956  -0.00215376
 -0.03905305 -0.37967399 -0.09320164 -0.03291703 -0.05165535 -0.0324957
 -0.02653547  0.00579343 -0.16695194 -0.04596883  0.0538583   0.09255962
 -0.10914423 -0.07275108  0.14832607  0.0292157  -0.21357994 -0.01738254
  0.07183268  0.19677351  0.2077416   0.00927463  0.04598749 -0.21722046
  0.18607394 -0.14478035 -0.03072695  0.13686372  0.05078064  0.06465297
  0.00484357 -0.16007495 -0.00478636  0.13686511 -0.20009212 -0.08122995
  0.0573778  -0.14022909 -0.12021042 -0.05592408  0.19600679  0.13957433
 -0.13579209 -0.19625083  0.15894429 -0.12573719 -0.03326344  0.06683034
 -0.14745741 -0.18058202 -0.25092706  0.04702262  0.43165755  0.0402585
 -0.12715064 -0.02674697 -0.094942    0.00908537  0.07091328  0.14803796
 -0.03306777 -0.02824694 -0.07284467 -0.00336527  0.18291208 -0.08983511
 -0.00745323  0.17774656 -0.01599573  0.09424857  0.01154605  0.0766418
 -0.15162152  0.05520602 -0.12792119 -0.07840177  0.01010753 -0.06400478
  0.03930721  0.08362835 -0.16942109  0.15670045  0.02177775  0.02043767
  0.03043425 -0.12997946 -0.01764218 -0.03240136  0.10992163 -0.22237723
  0.24319182  0.12669218 -0.0186407   0.18025893  0.09449544  0.09060445
 -0.04039665 -0.06000831 -0.15700144 -0.02493501  0.07924484  0.0147742
  0.07092527 -0.08480158]