[-0.11917915  0.18717043  0.07190179 -0.06437805 -0.12685907  0.00710204
 -0.02613822 -0.17316143  0.17599843 -0.10581827  0.24908566 -0.0020299
 -0.24953809 -0.08025572 -0.05303964  0.18957579 -0.14906172 -0.10591971
 -0.05813672 -0.03295722  0.04107943  0.04517796  0.00060657 -0.00880791
 -0.0365422  -0.39177227 -0.09395852 -0.02784154 -0.03564519 -0.04580435
 -0.02239369  0.00770483 -0.16346887 -0.045327    0.04772344  0.08811083
 -0.11036495 -0.07794733  0.14767326  0.03062724 -0.20719345 -0.01202714
  0.07414681  0.210403    0.19778052  0.0075412   0.0445671  -0.21358573
  0.19647378 -0.14151637 -0.02311452  0.13943633  0.04714881  0.07078527
  0.0103639  -0.15939607 -0.0071007   0.13493015 -0.19899729 -0.06879085
  0.06653382 -0.1407464  -0.12522434 -0.07019382  0.19167352  0.15141121
 -0.11697342 -0.22352479  0.15494321 -0.12780116 -0.04509605  0.06926639
 -0.1399129  -0.18170446 -0.24652234  0.04000724  0.43713117  0.04967731
 -0.11740505 -0.02405049 -0.08027139 -0.00830436  0.08182535  0.14993571
 -0.03229085 -0.01917134 -0.08282058  0.00947011  0.19201411 -0.08637878
 -0.02330296  0.179539   -0.01878077  0.10268029  0.00986734  0.07039962
 -0.15802753  0.06913994 -0.14087968 -0.08037826  0.00686714 -0.05842078
  0.02096782  0.07024582 -0.15521584  0.16182549  0.02124992  0.03217859
  0.01211947 -0.13247295 -0.03065664 -0.02009955  0.12132522 -0.22398484
  0.23718245  0.12494145  0.00528402  0.18825836  0.10528423  0.07759929
 -0.02846572 -0.0775097  -0.17588906 -0.01762608  0.06498646  0.0124253
  0.06148232 -0.07554433]