[-0.14859961  0.21400645  0.06854384 -0.08824806 -0.12739997 -0.02200314
 -0.03840464 -0.19594824  0.14522846 -0.07404315  0.25050861 -0.01564963
 -0.20919381 -0.05269901 -0.01678275  0.19320343 -0.17071758 -0.15134498
 -0.06253064 -0.01860867  0.05933827  0.031632    0.01670913  0.03454834
 -0.0456874  -0.36218864 -0.12498891 -0.05438241  0.04631248 -0.03725728
 -0.00788554 -0.00264221 -0.18750736 -0.04399917  0.04351393  0.06258376
 -0.06244177 -0.12115035  0.16523208 -0.02349894 -0.26461625 -0.01943938
  0.12449326  0.19013375  0.20985952  0.02119472  0.03587789 -0.16490088
  0.12967812 -0.1174494   0.00924655  0.11052313  0.04816236  0.0967158
 -0.00693676 -0.19093803  0.04668249  0.11832126 -0.19646084 -0.07061402
  0.08913969 -0.14293057 -0.05044779 -0.06208472  0.22816686  0.14124988
 -0.0971327  -0.18084191  0.15905933 -0.12413595 -0.05689441  0.08733577
 -0.15704222 -0.145887   -0.27124617  0.00080916  0.46831733  0.08060247
 -0.12226146 -0.00305275 -0.04949463 -0.00545059  0.09089685  0.15543215
 -0.06062907 -0.02413489 -0.08873589  0.01182315  0.23730694 -0.03433029
 -0.02890905  0.18982026 -0.00849642  0.0966064   0.0198983   0.09127852
 -0.09065576  0.02395917 -0.11655767 -0.04387818 -0.04075581 -0.03435881
 -0.0176285   0.12116233 -0.16926222  0.13883106  0.05697519  0.04070256
 -0.0420544  -0.05924862  0.01278969 -0.02287212  0.10129178 -0.20619409
  0.22856688  0.16017051  0.00813238  0.16327719  0.08651301  0.08359545
 -0.03226179 -0.09851044 -0.19991419 -0.0162274   0.10434034 -0.03494898
  0.11095208 -0.00279828]