[-0.1218151   0.1887849   0.05537377 -0.10473511 -0.18291335 -0.01044714
 -0.03987923 -0.19523481  0.13627955 -0.10340083  0.26006556 -0.02958224
 -0.2117729  -0.05325473 -0.03991636  0.2001746  -0.18185779 -0.15589128
 -0.09425517 -0.05686234 -0.00076549  0.0412171   0.0175583   0.02488448
 -0.02433978 -0.37766314 -0.0944026  -0.06475388  0.07313962 -0.03233834
 -0.01616386  0.04501925 -0.17451946 -0.03083686  0.0670256   0.05683104
 -0.0654794  -0.08477794  0.17993489 -0.03547758 -0.23694876  0.00871569
  0.123984    0.20517646  0.2281343   0.01179278  0.04659739 -0.17213213
  0.16544089 -0.1661388   0.02487589  0.1296659   0.02526939  0.08473504
  0.01412668 -0.17711753  0.01159368  0.11639589 -0.17035146 -0.06925339
  0.08439299 -0.11288489 -0.08652851 -0.0743498   0.2328223   0.13151525
 -0.09785119 -0.16914706  0.15812147 -0.1365293  -0.04051013  0.07051421
 -0.16595314 -0.1240262  -0.24440514  0.0252841   0.48028299  0.08644294
 -0.106686    0.01501246 -0.04281743 -0.01539315  0.07764579  0.11773124
 -0.08394852 -0.03282172 -0.07121138  0.05524163  0.22830248 -0.07384409
 -0.00368016  0.20326756  0.00384843  0.08591696  0.03161077  0.09060133
 -0.09031466 -0.01282731 -0.1483649  -0.049946   -0.00906774 -0.03555496
 -0.00579851  0.08849897 -0.17194787  0.14106803  0.02024363  0.0271037
 -0.04009619 -0.08334667  0.03393632 -0.02126746  0.11914116 -0.18362497
  0.23069382  0.14348277  0.02160238  0.17838986  0.0822626   0.04967476
 -0.02552663 -0.10262194 -0.14451584 -0.03830903  0.10583048 -0.01531107
  0.08057862 -0.01405965]