[-0.16080002  0.1779754   0.02565033 -0.07638575 -0.17317514 -0.0028571
 -0.05350429 -0.20147491  0.15056592 -0.05475451  0.25883296 -0.01878655
 -0.19572699 -0.07985626 -0.0422352   0.17757957 -0.17195746 -0.11205442
 -0.09537216 -0.06745984  0.01733281  0.05231614  0.00536757  0.02255684
 -0.04545245 -0.36397916 -0.09165046 -0.08161879  0.07365483 -0.02654824
 -0.01544941  0.03014    -0.18390587 -0.06944313  0.08944283  0.08903693
 -0.08858861 -0.05698225  0.18207698 -0.02589183 -0.1959573  -0.01020847
  0.11986368  0.19857241  0.205523    0.03868361  0.05343556 -0.18904974
  0.17463817 -0.14519887  0.02338793  0.15374947  0.06237001  0.07044943
  0.05194187 -0.14597777  0.0083571   0.12833662 -0.18003336 -0.0535386
  0.10858295 -0.11223089 -0.10335667 -0.10647106  0.21243337  0.11725672
 -0.08966679 -0.17540418  0.15098035 -0.1291775  -0.0639004   0.09117385
 -0.12602088 -0.1527779  -0.27975658  0.01413943  0.48614669  0.1114344
 -0.1132248   0.00063282 -0.05941443 -0.05132145  0.07718533  0.08296608
 -0.07797369 -0.0327729  -0.06636456  0.03217189  0.22966872 -0.05144193
  0.02503206  0.18124282  0.00736716  0.08130472 -0.00126472  0.06492453
 -0.11392508 -0.01292074 -0.11015909 -0.06977049 -0.00777429 -0.03192421
  0.03716755  0.0728602  -0.1856834   0.15178759  0.01711966  0.01626694
 -0.04317583 -0.11210813  0.00049658  0.01325037  0.14636211 -0.21005206
  0.22731169  0.11883491  0.01407069  0.17262247  0.08519932  0.05423309
 -0.0534296  -0.09414355 -0.16277193 -0.06000751  0.08208429 -0.03855418
  0.08943041 -0.02252404]