[-1.33697256e-01  1.81251213e-01  5.35287522e-02 -9.96831581e-02
 -1.85588941e-01 -2.14006882e-02 -3.86358462e-02 -1.88993841e-01
  1.27925262e-01 -1.13140322e-01  2.67880261e-01 -4.08230163e-02
 -2.02279612e-01 -3.91320400e-02 -3.24809812e-02  2.10525706e-01
 -1.92935854e-01 -1.44432157e-01 -1.05326474e-01 -6.15901947e-02
  1.17666414e-02  3.19474824e-02  1.54720116e-02  2.20632534e-02
 -2.47779880e-02 -3.71442646e-01 -9.63249132e-02 -6.32268116e-02
  6.97774217e-02 -4.81661186e-02 -1.02151567e-02  3.36230658e-02
 -1.80033356e-01 -4.66608368e-02  6.02786355e-02  5.36626056e-02
 -5.55286184e-02 -9.44994465e-02  1.78966373e-01 -4.54409234e-02
 -2.42601857e-01  7.02226022e-03  1.27441630e-01  1.89349309e-01
  2.14886338e-01  1.75363608e-02  3.70893180e-02 -1.66706666e-01
  1.59552842e-01 -1.50495157e-01  4.44356911e-03  1.07374132e-01
  3.26465331e-02  8.12925920e-02 -1.12199785e-04 -1.64233372e-01
  3.53021659e-02  1.16330244e-01 -1.79287076e-01 -7.21272826e-02
  1.11478187e-01 -1.31526351e-01 -7.25862607e-02 -6.31126389e-02
  2.37537190e-01  1.20173171e-01 -9.96646658e-02 -1.70980811e-01
  1.52244553e-01 -1.31990463e-01 -4.26151454e-02  6.78472444e-02
 -1.53955668e-01 -1.27410442e-01 -2.64949471e-01  1.45940203e-02
  4.80468422e-01  7.95976594e-02 -1.05986767e-01  2.10438113e-04
 -3.65362838e-02 -1.53373210e-02  8.98651183e-02  1.34424627e-01
 -7.80944973e-02 -3.70279811e-02 -7.46928826e-02  5.06515317e-02
  2.28189811e-01 -5.83829284e-02 -1.08934706e-02  2.02459812e-01
  4.97821672e-03  9.01321471e-02  2.71532834e-02  9.82393548e-02
 -9.36130956e-02 -1.15603944e-02 -1.26113072e-01 -2.30517872e-02
 -1.94979198e-02 -3.53235304e-02 -1.34481117e-02  1.00065760e-01
 -1.53385580e-01  1.33974239e-01  1.16078001e-04  3.50284055e-02
 -5.23253344e-02 -7.37612471e-02  2.99586542e-02 -2.80524343e-02
  1.04880743e-01 -1.86092958e-01  2.04473838e-01  1.63288027e-01
  1.53083382e-02  1.64782643e-01  8.56348723e-02  5.23618758e-02
 -2.45242622e-02 -8.43244717e-02 -1.80319712e-01 -3.60007919e-02
  1.03050821e-01 -2.97517534e-02  8.97374153e-02 -9.18867812e-03]