[-0.13637988  0.21185045  0.04987248 -0.09584368 -0.09824892  0.01421868
 -0.03973773 -0.17460816  0.17340069 -0.05766757  0.24779458  0.0008997
 -0.24857068 -0.03417886 -0.07209606  0.20931733 -0.15928321 -0.14697197
 -0.07105858 -0.04527963  0.00856178  0.06647819  0.01154309  0.01696437
 -0.0090026  -0.34728044 -0.09233206 -0.06629815 -0.00147725 -0.05873877
 -0.00175191  0.00163706 -0.16290222 -0.00475915  0.06995107  0.07187451
 -0.08345896 -0.1000582   0.18197532 -0.00749849 -0.21463287 -0.01137482
  0.13804449  0.20463946  0.23870841 -0.01096625  0.00845767 -0.19341625
  0.1625445  -0.1594062   0.00549225  0.13664795  0.03394361  0.0910721
  0.03028674 -0.19559893 -0.01637361  0.12242936 -0.19413178 -0.06936391
  0.03641578 -0.08640139 -0.11942153 -0.08728191  0.19784683  0.1655412
 -0.13264373 -0.21506587  0.15591167 -0.14230578 -0.04609703  0.1007961
 -0.16313918 -0.1745985  -0.2447342   0.02927729  0.41823673  0.06597145
 -0.1074056   0.02142334 -0.02134695 -0.0231518   0.03484666  0.12092046
 -0.08123519 -0.01103433 -0.07167007  0.01192908  0.20725875 -0.04513856
 -0.04671198  0.17447792 -0.06253389  0.08239993  0.01904233  0.12357783
 -0.1056162  -0.00305904 -0.18632314 -0.1055338  -0.01325509 -0.0373479
 -0.01432126  0.09949734 -0.15158589  0.1146035   0.02549857  0.02313986
 -0.04677542 -0.08080442 -0.00447147  0.00961692  0.14943872 -0.19375639
  0.25847968  0.11092164 -0.00091083  0.1507313   0.10425613  0.06308474
 -0.0352756  -0.08390924 -0.16140929 -0.0336352   0.07343986  0.01217093
  0.0947492  -0.03609714]