[-0.14138915  0.17656657  0.02981453 -0.1065094  -0.11999886 -0.03330508
 -0.03753635 -0.1974877   0.15032683 -0.09176303  0.29399741 -0.04528126
 -0.2251952  -0.08607334 -0.08742284  0.21350363 -0.20984964 -0.14055991
 -0.0651482  -0.0454664   0.05181147  0.02665768  0.01738564  0.02379787
 -0.04058652 -0.37611124 -0.1000976  -0.07230669  0.02934039 -0.0385693
 -0.00866214  0.03814266 -0.20298672 -0.046151    0.06643014  0.05928881
 -0.02636232 -0.08373243  0.15545586 -0.01142883 -0.24113503  0.01430346
  0.15330875  0.19569559  0.19425206  0.03017707  0.02111676 -0.18456033
  0.14509407 -0.11867789 -0.02259422  0.12498669  0.03323455  0.06096861
 -0.00062717 -0.16469389  0.01466393  0.11092561 -0.17000066 -0.07939558
  0.08108517 -0.12170672 -0.09933355 -0.08832278  0.19682021  0.11358184
 -0.11024363 -0.18786804  0.14488791 -0.14933303 -0.04888509  0.08488795
 -0.14379588 -0.14222926 -0.25696009 -0.00150643  0.43975249  0.05378574
 -0.09813553  0.03083571 -0.03189336 -0.02118555  0.07982337  0.14565057
 -0.04908314  0.00492143 -0.07062375 -0.00120483  0.23290358 -0.04909132
  0.00238156  0.1953972  -0.04340398  0.0783421   0.02146086  0.07561611
 -0.10876439  0.0051749  -0.12149002 -0.05018744 -0.03909823 -0.06037713
 -0.03985636  0.06424981 -0.1779063   0.08361297  0.01471628  0.01678187
 -0.03395152 -0.0755638   0.03743019 -0.02733104  0.09764258 -0.20744804
  0.23688756  0.17177156  0.03057451  0.16375861  0.09804236  0.05761119
 -0.03715919 -0.07568147 -0.16914968 -0.05811114  0.08323754 -0.04666726
  0.08952667 -0.0677284 ]