[-0.12793429  0.19812046  0.08483464 -0.06348485 -0.17413615 -0.00734843
 -0.0300754  -0.19210866  0.13942765 -0.08485547  0.23799376 -0.01251443
 -0.24380927 -0.03672991 -0.05057623  0.18687207 -0.16799824 -0.17242827
 -0.08137602 -0.08406039 -0.01766948  0.03720035 -0.01598823  0.01899698
 -0.04698211 -0.37288037 -0.0767561  -0.06371333  0.05109726 -0.04243745
 -0.01625968  0.04875667 -0.16295472 -0.02478917  0.06641715  0.07501187
 -0.09969567 -0.09532855  0.2078021   0.00246477 -0.22553873 -0.0461541
  0.08085795  0.22220047  0.21614042 -0.00438728  0.04609566 -0.16463028
  0.17624219 -0.15578946  0.02871198  0.16866377  0.07783283  0.08771522
  0.01621125 -0.17431302 -0.00240995  0.11039203 -0.22291039 -0.07022582
  0.08251354 -0.16994604 -0.09311967 -0.10250352  0.21088989  0.14661765
 -0.08328062 -0.18204291  0.20586757 -0.15128998 -0.06484327  0.06402327
 -0.13055347 -0.14320867 -0.26561499  0.02090471  0.44840223  0.12089334
 -0.09876853  0.00184419 -0.05100348 -0.04190392  0.06142354  0.11929076
 -0.0957563  -0.01338775 -0.0550912   0.03513599  0.20522459 -0.05032412
 -0.04318831  0.16492827 -0.02029986  0.07728859  0.03776961  0.05680057
 -0.10742463  0.00932337 -0.13034998 -0.06247413 -0.02163029 -0.04765284
  0.03221902  0.0796142  -0.15699899  0.14345849  0.01734637  0.02546346
 -0.0496799  -0.10434917 -0.02502429 -0.01739144  0.15624779 -0.22257355
  0.23731093  0.12503637  0.00211838  0.18328443  0.09473455  0.04344164
 -0.03040399 -0.1319503  -0.16123337 -0.04814558  0.1086786  -0.01515795
  0.10172937 -0.00350877]