[-0.11235436  0.18089585  0.10823989 -0.04078282 -0.1204461  -0.0157321
 -0.05826597 -0.20285062  0.12407657 -0.08400122  0.26425123 -0.00385224
 -0.24402757 -0.1135499  -0.06910529  0.21127203 -0.17853199 -0.14253999
 -0.08604239 -0.0579554  -0.00884675  0.06057646  0.01569003 -0.01965643
 -0.04592895 -0.40096757 -0.09508287 -0.05325095  0.05091354 -0.0077586
 -0.06697354  0.01786094 -0.18455866 -0.0737545   0.09584213  0.09016468
 -0.08982217 -0.08378959  0.16185482 -0.01599676 -0.21679704  0.00421114
  0.10961354  0.19834375  0.20116416  0.01902667  0.06414317 -0.188105
  0.15805031 -0.13466519  0.02612268  0.1487551   0.0718302   0.0950541
  0.02869581 -0.17734616 -0.03676708  0.16386488 -0.15784609 -0.05318983
  0.04468535 -0.13886376 -0.08604936 -0.07208414  0.18065871  0.10989247
 -0.09834323 -0.20442712  0.19729476 -0.11976494 -0.04241468  0.06768434
 -0.13437097 -0.14298916 -0.28061685  0.03479009  0.46713659  0.07880694
 -0.12656319 -0.00139103 -0.06267048 -0.03631313  0.05908964  0.13359894
 -0.04621535 -0.0018448  -0.06882561  0.01686435  0.21186399 -0.06584836
 -0.01829306  0.16703109 -0.02124022  0.10146449  0.02570002  0.06270587
 -0.12951754  0.01928211 -0.14999923 -0.08723018  0.00219231 -0.0286516
  0.02033346  0.09043621 -0.13319932  0.12538289  0.03434547  0.0224975
  0.00336518 -0.08251382  0.00680679 -0.04167849  0.13020559 -0.21163554
  0.26090965  0.15865095  0.01811759  0.1809714   0.10436302  0.04964225
 -0.01498983 -0.10854168 -0.16012381 -0.06792983  0.0873078  -0.01633401
  0.08539668 -0.03191271]