[-9.55426618e-02  2.01057360e-01  6.37207627e-02 -9.24276859e-02
 -8.60305578e-02  3.62679623e-02 -4.93647233e-02 -1.97755277e-01
  1.77767560e-01 -8.60685855e-02  2.59605318e-01 -1.10683115e-02
 -2.69861519e-01 -1.12833772e-02 -1.01549722e-01  2.23498300e-01
 -1.59741864e-01 -1.56812608e-01 -7.51732513e-02 -4.21910547e-02
 -1.21626845e-02  7.06712231e-02  1.72610004e-02  4.70310263e-03
 -1.37675358e-02 -3.40226084e-01 -8.32872540e-02 -6.46015555e-02
  1.43788597e-02 -8.49653929e-02 -1.05378320e-02  3.83656472e-03
 -1.53969154e-01  2.58071851e-02  7.37135261e-02  6.91480115e-02
 -6.68591484e-02 -1.25237420e-01  1.75755933e-01  2.26679016e-02
 -2.20912084e-01 -1.25884414e-02  1.01846531e-01  2.12286472e-01
  2.51807719e-01 -2.01414581e-02  6.19802577e-03 -2.17810586e-01
  1.73469946e-01 -1.67302728e-01 -2.02075131e-02  1.30040273e-01
  3.78440917e-02  8.00447240e-02  1.62705053e-02 -1.82817623e-01
 -2.28606183e-02  1.23987675e-01 -1.76219970e-01 -6.20951615e-02
  5.76573424e-02 -8.30460414e-02 -9.41695496e-02 -9.35705453e-02
  1.99730709e-01  1.49441049e-01 -1.46016285e-01 -1.92388579e-01
  1.57469690e-01 -1.48519784e-01 -5.10320328e-02  7.74778500e-02
 -1.60330012e-01 -1.64666936e-01 -2.24770382e-01 -8.72737449e-03
  4.21109736e-01  7.61762708e-02 -1.21537484e-01  1.89797431e-02
 -3.12058218e-02  3.67078721e-03  4.42378633e-02  1.39302611e-01
 -6.75806403e-02 -1.27171893e-02 -6.13144003e-02 -1.11220777e-02
  2.34657153e-01 -5.86594455e-02 -4.32949960e-02  1.79304808e-01
 -9.76678059e-02  8.39976519e-02  1.27021438e-02  9.90475416e-02
 -1.20196141e-01 -3.09086288e-03 -1.67950675e-01 -1.23857856e-01
 -5.11430502e-02 -2.18666624e-02  4.15576110e-03  1.05049156e-01
 -1.46941319e-01  1.27035961e-01  1.45026641e-02  3.76048461e-02
  3.33159650e-03 -6.75903782e-02  1.46158012e-02 -1.88301993e-03
  1.63141936e-01 -1.97331861e-01  2.48341948e-01  1.18207827e-01
  9.42484010e-03  1.30405381e-01  1.06116109e-01  7.99991339e-02
 -3.91503237e-02 -6.12662919e-02 -1.61414281e-01 -4.26288359e-02
  5.31700328e-02  7.90543854e-05  9.25102755e-02 -6.14987984e-02]