[-0.13226508  0.17140839  0.03472259 -0.09735453 -0.12030949 -0.02584722
 -0.03261488 -0.20188084  0.1545582  -0.0782207   0.2851935  -0.05650053
 -0.22319095 -0.08554954 -0.08539622  0.20953111 -0.19683042 -0.14446361
 -0.06688397 -0.04446555  0.05205623  0.02124106  0.0164773   0.02463022
 -0.03978097 -0.38049033 -0.10353769 -0.06407236  0.03597155 -0.03986963
 -0.0071149   0.0607232  -0.21167696 -0.04422368  0.06811515  0.06506363
 -0.01798035 -0.09116264  0.14655589 -0.0126936  -0.24225651  0.02182894
  0.15325464  0.18480872  0.1939407   0.02423358  0.02296843 -0.18266496
  0.14701843 -0.10912007 -0.0316787   0.1342259   0.03772087  0.05866956
  0.00357459 -0.1623504   0.00798144  0.10527929 -0.16596213 -0.08768536
  0.07589435 -0.11369438 -0.10261424 -0.10206473  0.18488626  0.11966335
 -0.10300148 -0.19571945  0.14012372 -0.14569855 -0.04347052  0.08993372
 -0.14765596 -0.13312279 -0.24838041 -0.00116607  0.44034967  0.04116898
 -0.11001258  0.03934072 -0.03539943 -0.01483695  0.07060639  0.13951336
 -0.04701244  0.01139533 -0.0710075  -0.00994438  0.23373473 -0.04954137
  0.00709545  0.18902366 -0.04758994  0.07465938  0.02114117  0.06914908
 -0.10781004  0.00497469 -0.12346458 -0.0604929  -0.045918   -0.05364635
 -0.04343282  0.05467333 -0.17868641  0.08384077  0.01890019  0.01993407
 -0.03169988 -0.07772948  0.0388129  -0.01959023  0.09731876 -0.22137566
  0.23238643  0.155637    0.01475873  0.15983097  0.09315029  0.07297646
 -0.04059419 -0.0712759  -0.15262333 -0.06300896  0.08865297 -0.04479318
  0.07329999 -0.07551505]