[-1.27089277e-01  2.08171561e-01  1.11996830e-01 -4.26350199e-02
 -1.55387551e-01 -1.66884530e-02 -4.08753008e-02 -1.93257079e-01
  1.49631992e-01 -9.10031423e-02  2.50985563e-01 -5.65364910e-03
 -2.30452925e-01 -5.31599596e-02 -4.62365448e-02  1.78315893e-01
 -1.45441979e-01 -1.49291024e-01 -7.54882544e-02 -5.65117784e-02
 -2.06619482e-02  1.41096031e-02  2.47568428e-03  2.96223583e-03
 -1.86555255e-02 -3.81386936e-01 -9.27962735e-02 -4.35918868e-02
  6.33662567e-02 -3.26082222e-02 -3.48773859e-02  2.37126853e-02
 -1.72738656e-01 -4.91802953e-02  5.47555760e-02  9.99910757e-02
 -1.20397821e-01 -7.84031078e-02  1.93103239e-01 -1.04352832e-04
 -2.08732173e-01 -3.25258039e-02  6.86317682e-02  2.24331573e-01
  2.21285328e-01  2.48532947e-02  6.00126199e-02 -1.65867969e-01
  1.70924842e-01 -1.51800498e-01  5.60019203e-02  1.68282419e-01
  8.93219337e-02  9.76036713e-02  2.98848581e-02 -1.76394865e-01
  1.41958927e-03  1.09420970e-01 -2.01357052e-01 -5.27387261e-02
  1.05284296e-01 -1.20773830e-01 -8.30343142e-02 -7.96778649e-02
  2.21984848e-01  1.42257512e-01 -9.35896561e-02 -1.75358072e-01
  1.92546323e-01 -1.47970855e-01 -3.74839716e-02  6.91562593e-02
 -1.33972898e-01 -1.51414081e-01 -2.49556974e-01  4.51129787e-02
  4.68598127e-01  1.15788989e-01 -9.82162729e-02 -2.14268025e-02
 -6.69457838e-02 -5.79208732e-02  5.12023643e-02  1.13264918e-01
 -8.63381475e-02 -1.03697618e-02 -6.58860356e-02  1.97022520e-02
  2.04696581e-01 -4.59029041e-02 -3.33121195e-02  1.68871760e-01
 -8.33378080e-03  7.05097094e-02  2.02423912e-02  4.78883088e-02
 -1.08343676e-01  1.71969533e-02 -1.48654103e-01 -7.70149529e-02
 -3.53147574e-02 -6.17406070e-02  1.08879702e-02  5.99609427e-02
 -1.67746380e-01  1.64301977e-01  2.77246814e-02  3.58205065e-02
 -4.26498689e-02 -1.00606740e-01 -5.14596775e-02 -1.45382062e-02
  1.60240412e-01 -2.21617207e-01  2.44338468e-01  1.28104255e-01
  2.90160235e-02  1.76257685e-01  1.05975524e-01  6.09718971e-02
 -4.71067056e-03 -1.20790482e-01 -1.34949490e-01 -5.46604656e-02
  7.54871592e-02 -2.05629747e-02  9.79556143e-02  3.01095634e-03]