[-0.15265854  0.14138854  0.05146169 -0.10141852 -0.1376483  -0.00832991
 -0.02754689 -0.16065113  0.18323906 -0.07524468  0.2568562  -0.04425492
 -0.24471954 -0.016426   -0.06641354  0.22575641 -0.16595529 -0.13688128
 -0.07418533 -0.03690168 -0.00297906  0.08824744  0.00359988  0.03201641
 -0.03394255 -0.37432966 -0.10815953 -0.04781688  0.02069319 -0.04520209
 -0.006013    0.04373905 -0.14228873 -0.01354086  0.08958354  0.08001854
 -0.08542311 -0.11281127  0.18420117  0.02538121 -0.26716322 -0.05502928
  0.147495    0.21897526  0.24378918  0.00305364 -0.0165072  -0.15977281
  0.15493339 -0.18850504 -0.01988485  0.14784271  0.02197416  0.07295518
  0.05414024 -0.15618217 -0.02280887  0.14371906 -0.19046144 -0.08878993
  0.03534333 -0.08249172 -0.08117682 -0.09803858  0.20663725  0.16033453
 -0.13627808 -0.19506454  0.16929691 -0.1593139  -0.06640079  0.096924
 -0.15916054 -0.16985753 -0.25666353 -0.01657776  0.43330541  0.05015419
 -0.10409391  0.01850321 -0.0095213  -0.03762082  0.06495944  0.14163361
 -0.04544004 -0.02709598 -0.06653093 -0.03196793  0.21595402 -0.06031565
 -0.01203194  0.19462423 -0.05836369  0.06982191  0.02579665  0.12250639
 -0.11997496 -0.00737345 -0.16015609 -0.1144001   0.00316265 -0.01466648
  0.01019979  0.11553644 -0.15285861  0.13127041  0.0327375   0.03350401
 -0.00561934 -0.07236849  0.01292135 -0.02354058  0.13641277 -0.19502135
  0.21545763  0.10660253 -0.04004173  0.14157949  0.08626253  0.06345211
 -0.0483773  -0.064004   -0.14827918 -0.04112083  0.05481684 -0.01543695
  0.06223684 -0.04764823]