[-0.13697094  0.19291338  0.06000433 -0.08645651 -0.10218674  0.03138416
 -0.0344216  -0.19578983  0.17976747 -0.08048876  0.26570767 -0.02332884
 -0.26304871 -0.02917271 -0.08497053  0.23640168 -0.18440026 -0.14324807
 -0.08860248 -0.03341725  0.00614479  0.06010855  0.00958853  0.02032199
 -0.00412315 -0.37724185 -0.0964938  -0.07808934  0.01029448 -0.06906787
 -0.0142918  -0.00341232 -0.15064618 -0.01520928  0.07206034  0.06917162
 -0.07174036 -0.1142382   0.17492123 -0.00930195 -0.22985318 -0.00696285
  0.13455899  0.211054    0.24894078 -0.0032127   0.00833144 -0.20110412
  0.16253556 -0.16649537 -0.02502981  0.11711171  0.04418636  0.09197424
  0.03200159 -0.18605237 -0.01891684  0.11760966 -0.18178067 -0.06983075
  0.05284028 -0.10438772 -0.08577466 -0.08372659  0.20606218  0.13556109
 -0.14115964 -0.19590613  0.14959371 -0.14234367 -0.03884661  0.07960136
 -0.16519332 -0.1767424  -0.24902165  0.00196715  0.46030241  0.07605686
 -0.1267077   0.01217745 -0.03653326 -0.0230214   0.05274508  0.15320472
 -0.0396248  -0.01842135 -0.07075687  0.00341581  0.21009313 -0.06247605
 -0.02630862  0.18658358 -0.07060909  0.08087888  0.0115234   0.1127862
 -0.12433036  0.00436773 -0.16816603 -0.10961913 -0.04193798 -0.00442775
  0.00971578  0.08537643 -0.14156957  0.12888399  0.02287813  0.03272884
 -0.02360072 -0.08322483  0.01461999  0.00682023  0.15638648 -0.20508516
  0.23295669  0.13164835 -0.00311914  0.15275304  0.08897074  0.06815173
 -0.03848651 -0.06420853 -0.17467119 -0.03132327  0.06450707 -0.00253154
  0.09771993 -0.05260449]