[-1.10506810e-01  2.17132762e-01  4.74404916e-02 -1.11095861e-01
 -1.29156932e-01  9.07438458e-04 -4.55768220e-02 -2.03815296e-01
  1.67138651e-01 -9.25243869e-02  2.08187848e-01  1.30174104e-02
 -2.10869417e-01 -8.50863084e-02 -3.52991931e-02  1.95940897e-01
 -1.46863073e-01 -1.93642333e-01 -1.00874498e-01 -4.18235809e-02
  1.67266726e-02  5.37456758e-02 -5.35442401e-03  5.90873025e-02
 -5.52563928e-02 -3.51610720e-01 -7.42335543e-02 -6.38263971e-02
  3.56974266e-02 -3.01083382e-02 -4.59288284e-02  1.12680569e-02
 -2.13132426e-01 -3.67101990e-02  6.28142357e-02  9.55776572e-02
 -5.71522824e-02 -8.69259089e-02  1.52550220e-01  1.54010399e-04
 -2.64821172e-01 -6.29673153e-03  1.34302601e-01  2.06834674e-01
  2.06925064e-01 -7.48623256e-03  4.95728515e-02 -1.62542924e-01
  1.78079262e-01 -1.38490975e-01  2.17311140e-02  1.30590424e-01
  5.46509624e-02  8.57595578e-02  2.09272001e-02 -1.86931893e-01
  5.04974881e-03  1.16907656e-01 -1.89229131e-01 -4.81014624e-02
  8.23537782e-02 -1.38429374e-01 -1.05145238e-01 -1.07562743e-01
  2.12009534e-01  1.45878136e-01 -8.69110301e-02 -2.08440185e-01
  1.74622014e-01 -1.63032234e-01 -6.26270398e-02  7.53528103e-02
 -1.30984768e-01 -1.04081504e-01 -2.71931767e-01 -3.77797498e-03
  4.44008887e-01  1.05668224e-01 -1.10288560e-01  2.51239073e-02
 -7.25824684e-02 -1.25097809e-02  4.26182821e-02  9.89100337e-02
 -6.91462457e-02  3.09963264e-02 -6.59550801e-02  3.05184778e-02
  2.70253688e-01 -2.79441960e-02  1.37593970e-02  1.79924354e-01
 -1.19128218e-02  6.46335110e-02  1.34938536e-02  5.58016859e-02
 -1.16689101e-01 -1.24668633e-03 -1.48585841e-01 -5.04060574e-02
 -6.12753741e-02 -6.31250739e-02  1.21803693e-02  8.72802958e-02
 -2.03338176e-01  1.31881103e-01  4.76997159e-02  2.06971355e-02
 -3.03362515e-02 -2.57890709e-02 -2.30021700e-02 -4.78407964e-02
  1.28193647e-01 -1.87308267e-01  2.53839821e-01  1.37963355e-01
  5.17615676e-02  1.44810066e-01  9.16564763e-02  7.44441375e-02
 -3.99240516e-02 -1.03312969e-01 -1.56510070e-01 -6.04972057e-02
  1.06354535e-01 -4.73299585e-02  1.03982024e-01  4.56522423e-04]