[-0.16828708  0.13004696  0.04042705 -0.07791924 -0.15539095 -0.01999993
 -0.04177857 -0.19639809  0.13131887 -0.08394933  0.24689364 -0.07363512
 -0.23357759 -0.03429713 -0.07848209  0.215699   -0.18250734 -0.11515626
 -0.07063069 -0.06197092  0.0405684   0.0181302  -0.01794283  0.03330265
 -0.02469046 -0.3600176  -0.10736074 -0.05498918  0.04906301  0.00719179
 -0.0174942   0.05772313 -0.17616968 -0.06537445  0.08809821  0.04895107
 -0.03169508 -0.11762704  0.1656733  -0.01693737 -0.22401269 -0.00151206
  0.12549973  0.19005167  0.15014333  0.03670504  0.02636347 -0.19058463
  0.18166952 -0.14727227 -0.03355729  0.13791533  0.05614012  0.05298908
  0.00718164 -0.16725002  0.05208956  0.1323511  -0.20028809 -0.04795174
  0.06890711 -0.139064   -0.06241427 -0.10882304  0.21544051  0.11660907
 -0.10872797 -0.15975763  0.1576751  -0.0917999  -0.01552473  0.07840771
 -0.15368144 -0.17378946 -0.27013215  0.03214303  0.49876568  0.08917296
 -0.11184561  0.0189491  -0.0522467  -0.01851274  0.09701815  0.15138978
 -0.06599943 -0.04361231 -0.0534043  -0.01405999  0.22378846 -0.06005933
 -0.0098013   0.20596781 -0.0156825   0.07346714  0.00587969  0.08364969
 -0.1271885  -0.02053006 -0.08919696 -0.06913134  0.00509128 -0.05438186
  0.02304736  0.08716952 -0.18289065  0.08202083 -0.0007474   0.01836043
 -0.01428485 -0.08174285  0.02073546 -0.02506     0.10069022 -0.2203887
  0.19782604  0.15111063  0.0204371   0.1794039   0.08564585  0.06231282
 -0.03687646 -0.07394272 -0.13642791 -0.06036289  0.12512714 -0.01736355
  0.07130679 -0.05005627]