[-1.67797551e-01  2.05238745e-01  8.36082473e-02 -9.58283842e-02
 -1.35473207e-01 -2.06850283e-02 -4.79573272e-02 -1.81993216e-01
  1.68084010e-01 -7.81980231e-02  2.67312735e-01 -5.41290343e-02
 -2.18465254e-01 -4.37985063e-02 -4.30553518e-02  2.19601542e-01
 -1.64316580e-01 -1.55438125e-01 -4.67865840e-02 -5.96004073e-03
  5.19556664e-02  6.24218658e-02  6.34321710e-03  3.21282707e-02
 -3.03829499e-02 -3.96120936e-01 -1.14817023e-01 -5.75325787e-02
  4.79573086e-02 -4.51065265e-02 -1.23030664e-02  9.48815327e-03
 -2.07327470e-01 -7.18403906e-02  4.99196015e-02  9.14453492e-02
 -3.95359918e-02 -1.05426155e-01  1.38803586e-01 -2.72169206e-02
 -2.84475237e-01 -7.68333999e-03  1.31517589e-01  2.11636826e-01
  1.84797660e-01  3.78632918e-02  1.53120337e-02 -1.84528679e-01
  1.12547316e-01 -1.21541105e-01  7.87783042e-03  1.08636193e-01
  3.15110162e-02  8.15993175e-02 -2.18919152e-03 -1.87452003e-01
  3.82436216e-02  1.08736828e-01 -1.73170209e-01 -7.60407448e-02
  1.05245784e-01 -9.41892490e-02 -3.62875611e-02 -1.00413859e-01
  2.43656278e-01  9.43743289e-02 -1.05338074e-01 -1.68293834e-01
  1.30249023e-01 -1.20604351e-01 -6.00449033e-02  7.74280727e-02
 -1.59499243e-01 -1.41203061e-01 -2.98504084e-01 -7.92674764e-05
  4.63628918e-01  6.31272718e-02 -1.33082926e-01  3.85355428e-02
 -3.51177976e-02 -6.43150136e-03  7.69604966e-02  1.74918085e-01
 -3.22193839e-02  2.05092523e-02 -7.23307133e-02 -1.72088330e-03
  2.36512020e-01 -3.63336019e-02 -2.98600644e-03  1.98434979e-01
 -3.39926071e-02  1.09704472e-01  1.72409024e-02  8.65393057e-02
 -9.61715505e-02  6.09792024e-03 -1.30261987e-01 -5.62333465e-02
 -4.20556702e-02 -1.35856196e-02 -3.27000134e-02  1.22837059e-01
 -1.96386680e-01  1.49883136e-01  5.60575984e-02  4.87815812e-02
 -1.99251827e-02 -4.08591330e-02  3.53739560e-02 -2.91149020e-02
  1.23449981e-01 -1.97685435e-01  2.28999779e-01  1.63738891e-01
  1.89805180e-02  1.65052280e-01  1.06229961e-01  7.63366520e-02
 -3.95668782e-02 -6.31142110e-02 -2.13527590e-01 -2.14603152e-02
  1.04929999e-01 -7.01494962e-02  1.07694343e-01  3.70549853e-03]