[-0.11280399  0.18761873  0.0639563  -0.09494844 -0.10201631  0.02608456
 -0.03991139 -0.18596186  0.18774417 -0.08477471  0.27009773 -0.01525146
 -0.25146255 -0.04053986 -0.08075848  0.22989225 -0.17675792 -0.14424855
 -0.07437994 -0.04302318  0.01234479  0.06282569  0.01534686  0.00956659
 -0.01671491 -0.36881456 -0.09498964 -0.05596225  0.01354625 -0.08081663
 -0.00760314  0.01044657 -0.15657318 -0.00554355  0.06955343  0.06991611
 -0.06086749 -0.12320538  0.16509676  0.00165946 -0.22781777 -0.00735927
  0.12097456  0.196784    0.24103239 -0.00336735  0.00611095 -0.21147166
  0.16388118 -0.14669476 -0.02610851  0.12037834  0.02729614  0.07881469
  0.01549293 -0.18341422 -0.02497665  0.12322642 -0.17458199 -0.07240093
  0.05074569 -0.11029891 -0.09827077 -0.09115524  0.19355081  0.14070693
 -0.13665977 -0.20159875  0.15898399 -0.13545303 -0.04745556  0.07358908
 -0.16228722 -0.16613597 -0.24380679  0.00165488  0.42634192  0.05832361
 -0.12998246  0.00821358 -0.02342528  0.00174232  0.05208468  0.1584143
 -0.05232508 -0.01650514 -0.07111969 -0.00133613  0.21396029 -0.05732802
 -0.0302579   0.19064747 -0.07563082  0.09507971  0.01470473  0.10969392
 -0.12081573  0.01590272 -0.16898678 -0.10441222 -0.02298023 -0.01479593
  0.0039603   0.10139082 -0.1365304   0.12059746  0.0209692   0.03486579
 -0.00606877 -0.07812984  0.01756601 -0.01011894  0.14852034 -0.19449709
  0.23767789  0.13501219  0.00874879  0.1533426   0.10330514  0.08537903
 -0.03595684 -0.07072643 -0.17136005 -0.02292597  0.0571853  -0.00440393
  0.08663407 -0.05452836]