[-0.14919524  0.17970243  0.03004174 -0.10211531 -0.11838476 -0.03240563
 -0.02081186 -0.21277967  0.17388974 -0.09754209  0.30580425 -0.05021544
 -0.22989519 -0.08173634 -0.07860538  0.21480322 -0.21345352 -0.14719012
 -0.07471792 -0.04456262  0.05577844  0.01299924  0.01733541  0.04164259
 -0.04136147 -0.38618883 -0.11157667 -0.08551887  0.02257092 -0.05979554
 -0.00657116  0.04054347 -0.20412588 -0.05442504  0.05418443  0.05285938
 -0.0279417  -0.0869958   0.14883529 -0.02541324 -0.24666563  0.00593976
  0.15639679  0.18914519  0.19147454  0.02114543  0.01932559 -0.17566185
  0.13160853 -0.09998558 -0.0309665   0.12145833  0.05540297  0.06352498
  0.00441015 -0.17058675  0.00151216  0.10880838 -0.16374885 -0.06823681
  0.08651901 -0.13725768 -0.09948593 -0.07910137  0.19740914  0.11635347
 -0.1135809  -0.18640326  0.14749371 -0.14231659 -0.04499335  0.07872484
 -0.15638106 -0.15464003 -0.24889863 -0.00555871  0.44686374  0.04256576
 -0.10684985  0.02810263 -0.04990422 -0.01761482  0.05847248  0.15472662
 -0.04121753  0.00421944 -0.07778395  0.00590717  0.2158488  -0.04824598
  0.00806857  0.20197527 -0.06039269  0.07013267  0.01375027  0.07196869
 -0.11660828  0.01342779 -0.11129598 -0.05251159 -0.04860547 -0.05543407
 -0.04323774  0.0547474  -0.17061418  0.07616567  0.0224348   0.02932923
 -0.0343551  -0.06185877  0.0320938  -0.0387891   0.09896912 -0.21841493
  0.23358218  0.17299943  0.01737066  0.16523427  0.08516235  0.0690091
 -0.02740203 -0.07278027 -0.17467083 -0.04335019  0.08694089 -0.04580906
  0.07951952 -0.06811648]