[-1.34879395e-01  1.64274320e-01  5.14212763e-03 -5.02252094e-02
 -1.38380468e-01 -2.69556791e-02 -2.65010837e-02 -1.69594496e-01
  1.14093661e-01 -5.92670999e-02  2.73460180e-01 -1.19006773e-02
 -2.43671283e-01 -1.39858216e-01 -5.19258343e-02  1.56227142e-01
 -1.72853142e-01 -1.22609489e-01 -7.33312145e-02 -3.13196741e-02
  8.63855034e-02  9.86048300e-03  1.75637063e-02  2.04806027e-04
 -6.78402483e-02 -3.55861932e-01 -8.79639909e-02 -7.23136067e-02
  3.89767997e-02 -8.46227333e-02 -5.95357418e-02  4.00200598e-02
 -2.06468150e-01 -9.36251730e-02  5.10769859e-02  6.75302446e-02
 -4.43337373e-02 -5.33789508e-02  1.22017264e-01 -4.78840843e-02
 -2.09617302e-01  3.77043709e-02  1.29611179e-01  1.87304839e-01
  1.96703956e-01  3.61588486e-02  3.85143757e-02 -1.64965972e-01
  1.35077506e-01 -9.56744105e-02  2.02912968e-02  1.28744513e-01
  1.06985487e-01  7.11535290e-02  8.00564326e-03 -1.73848078e-01
  1.74926650e-02  9.73807201e-02 -1.63811848e-01 -4.42183875e-02
  8.82755816e-02 -1.16455816e-01 -9.95082930e-02 -5.42496629e-02
  1.62541285e-01  7.48976395e-02 -8.78036320e-02 -1.93642348e-01
  1.20777905e-01 -1.42276645e-01 -5.43223210e-02  7.38380924e-02
 -1.44855112e-01 -1.69002250e-01 -2.54825205e-01  3.66870873e-02
  4.20390517e-01  9.19337794e-02 -1.34200767e-01  5.85013889e-02
 -4.00313251e-02 -1.80221461e-02  9.16947201e-02  1.21278785e-01
 -5.18026017e-02  1.76605526e-02 -1.00536920e-01  4.02393527e-02
  1.87520012e-01 -5.54298349e-02 -1.74580552e-02  1.80982158e-01
 -1.61039678e-03  9.17729661e-02  5.04391305e-02  5.02267443e-02
 -9.14974511e-02  3.28400768e-02 -9.58100855e-02 -3.17533463e-02
  1.13817342e-02 -9.80796814e-02 -2.31683962e-02  4.78523336e-02
 -1.24832705e-01  9.96769443e-02  1.93827953e-02  6.49641380e-02
 -2.82238927e-02 -9.31448042e-02 -3.39879026e-03 -1.60340816e-02
  6.67320266e-02 -2.46459752e-01  2.64595479e-01  1.58485308e-01
  2.04834100e-02  1.62955239e-01  1.07722484e-01  5.99792600e-02
  8.70008022e-03 -6.37441874e-02 -1.70076013e-01 -5.61214946e-02
  1.07907586e-01 -4.13529687e-02  1.06366001e-01 -4.08899672e-02]