[-8.85219425e-02  2.23518282e-01  6.06307052e-02 -1.04693115e-01
 -1.39051005e-01  1.71378997e-04 -3.81731912e-02 -2.00927168e-01
  1.75739437e-01 -9.63766947e-02  1.97414562e-01  1.62392203e-02
 -2.14019105e-01 -7.47449026e-02 -3.85596007e-02  1.89711213e-01
 -1.26023993e-01 -1.84532404e-01 -1.10738330e-01 -3.74942832e-02
  1.56811979e-02  4.63174842e-02 -8.03748053e-03  6.01754002e-02
 -4.47480567e-02 -3.49946499e-01 -8.11628401e-02 -5.96069694e-02
  4.25520353e-02 -3.33891176e-02 -5.95309623e-02  1.07720203e-03
 -2.06891447e-01 -4.79510799e-02  5.88780008e-02  9.23320651e-02
 -8.45807195e-02 -8.03955048e-02  1.50873750e-01 -4.80150811e-05
 -2.58840859e-01  1.17321499e-02  1.15860604e-01  2.08831623e-01
  2.15819716e-01  1.02291172e-02  5.64500988e-02 -1.62654579e-01
  1.85897082e-01 -1.43019840e-01  2.35801414e-02  1.30352765e-01
  6.88279346e-02  8.69206116e-02  2.73859799e-02 -1.95592865e-01
  9.63656988e-04  1.25093982e-01 -1.96306422e-01 -4.34930138e-02
  7.02853948e-02 -1.47627994e-01 -1.05302177e-01 -9.04138982e-02
  2.19497964e-01  1.47116035e-01 -8.89339969e-02 -1.97849303e-01
  1.80208966e-01 -1.70402795e-01 -4.43351902e-02  6.67830557e-02
 -1.29761785e-01 -9.78500471e-02 -2.63235539e-01  1.64902140e-03
  4.52152729e-01  1.05030470e-01 -1.16972543e-01  1.53285777e-02
 -8.37699994e-02 -2.62328627e-04  3.71003523e-02  9.28195044e-02
 -7.80774280e-02  1.93393882e-02 -7.60952383e-02  2.74861250e-02
  2.54946560e-01 -4.97603118e-02  2.15957575e-02  1.78781256e-01
 -2.33723572e-03  7.00965896e-02  3.35938414e-03  4.29942608e-02
 -1.39034256e-01 -4.47865902e-03 -1.50451660e-01 -6.19244836e-02
 -5.81189878e-02 -5.28666936e-02  1.52285425e-02  8.49448442e-02
 -2.05910489e-01  1.40470907e-01  4.42668237e-02  1.70632079e-02
 -3.30199301e-02 -3.75473611e-02 -2.92917192e-02 -5.13823144e-02
  1.32275268e-01 -1.87362507e-01  2.54362136e-01  1.37224063e-01
  3.95451039e-02  1.42974272e-01  9.18267146e-02  6.09930567e-02
 -3.12934294e-02 -1.05894268e-01 -1.52115941e-01 -5.61316609e-02
  1.12278402e-01 -4.70650494e-02  1.02426045e-01 -7.00915745e-03]