[-0.15629815  0.11496135  0.06397592 -0.08691534 -0.17140324 -0.02674957
 -0.01260116 -0.16804855  0.15321498 -0.07974351  0.27300903 -0.0805895
 -0.23092227 -0.00228387 -0.07943412  0.19991468 -0.1472429  -0.12101413
 -0.0907199  -0.04456751  0.03279603  0.0358445  -0.02296414  0.04602886
 -0.04962097 -0.35452327 -0.09756696 -0.05632483  0.05853062 -0.0231345
 -0.02815182  0.03111977 -0.1567971  -0.06235195  0.08715372  0.05382193
 -0.07915726 -0.12658553  0.19523339 -0.01282107 -0.26410094 -0.00379018
  0.10845987  0.21824332  0.16035195  0.03612286  0.00429099 -0.17548041
  0.17014734 -0.19159296  0.00393252  0.15017016  0.04949397  0.05685502
  0.00645008 -0.11936525  0.03570352  0.15511398 -0.22431801 -0.05112726
  0.09751796 -0.13952312 -0.05770011 -0.11419367  0.22855525  0.13303234
 -0.13434745 -0.13082483  0.15016729 -0.11663971 -0.03810265  0.07050737
 -0.14484893 -0.17058384 -0.25960425  0.04539822  0.53219938  0.08853043
 -0.1150867   0.00313153 -0.05838289 -0.0210075   0.09276528  0.139805
 -0.06359487 -0.05556601 -0.06152686 -0.00271608  0.22921374 -0.07066907
 -0.001097    0.20005205 -0.0031421   0.06224181  0.00975758  0.09774353
 -0.13686624 -0.02911254 -0.09277026 -0.0611407   0.0145807  -0.01962088
  0.02929075  0.10418638 -0.18040641  0.13740946  0.01479071 -0.00200723
  0.02001289 -0.08053149  0.02742519 -0.05227764  0.09932282 -0.20516419
  0.19196956  0.11687861  0.04332345  0.16335113  0.07755072  0.03691468
 -0.0280099  -0.05849942 -0.15100101 -0.05895641  0.12179484 -0.02174357
  0.09842942 -0.04441117]