[-0.14299865  0.17050464  0.06723665 -0.07671452 -0.14811696  0.00642884
 -0.0264649  -0.15585478  0.15125257 -0.07534664  0.24528793  0.00760865
 -0.26895168 -0.08689275 -0.03366091  0.16513646 -0.12394084 -0.0841845
 -0.05334247 -0.05585492  0.04234255  0.05387581  0.01685994  0.00279246
 -0.03950262 -0.38851473 -0.08658121 -0.04193862 -0.04047845 -0.05141025
 -0.00815994  0.00669464 -0.15950207 -0.04130158  0.05413092  0.09742289
 -0.13489302 -0.07328953  0.15720649  0.02894009 -0.17752092 -0.02701832
  0.06918111  0.20883189  0.20017312  0.01193132  0.05944996 -0.19014531
  0.1834556  -0.14890435  0.0025987   0.15755311  0.05579404  0.06641897
  0.02973032 -0.15460156 -0.00439532  0.13350749 -0.20598224 -0.06133677
  0.0614011  -0.12753373 -0.13757776 -0.07240553  0.19833665  0.15258744
 -0.12932019 -0.20467193  0.15123616 -0.12187822 -0.05472583  0.07238833
 -0.1592758  -0.18989442 -0.23357804  0.0688782   0.41691071  0.06624693
 -0.11793363 -0.03005249 -0.08017305 -0.00765539  0.06146036  0.12930284
 -0.04542829 -0.028603   -0.07046686  0.02939242  0.16299437 -0.08822477
 -0.02818584  0.18570933 -0.00360945  0.09856692  0.01536394  0.07207656
 -0.14567617  0.05481061 -0.12923971 -0.07673571  0.03185621 -0.07783663
  0.03871962  0.06218768 -0.16445763  0.166916    0.01405562  0.01979869
 -0.00504071 -0.14519034 -0.0495107  -0.00363589  0.12251859 -0.23240097
  0.25902662  0.12697478  0.00593     0.19056152  0.10344159  0.06366066
 -0.01515942 -0.08318286 -0.14947188 -0.02815462  0.06698552  0.02351777
  0.06008296 -0.06613799]