[-0.1546507   0.20746635  0.05888659 -0.08590909 -0.13143086 -0.02182986
 -0.04202692 -0.17066734  0.14556231 -0.06817717  0.2451537  -0.01916839
 -0.20262802 -0.07594914 -0.01822177  0.1820617  -0.16395645 -0.13946247
 -0.05591531 -0.01376918  0.05468732  0.03010534  0.03376818  0.02531165
 -0.02751504 -0.37116727 -0.12079888 -0.06373432  0.03484283 -0.03591846
 -0.02491577 -0.01256587 -0.18882698 -0.07101813  0.04191566  0.06754964
 -0.08578549 -0.08987797  0.15457831 -0.03474819 -0.24407144 -0.01339116
  0.13930479  0.19650784  0.20096855  0.05206069  0.03475758 -0.17254299
  0.13049941 -0.12433519  0.04635326  0.10559185  0.05096314  0.09597181
  0.01856387 -0.18457146  0.04542921  0.11587935 -0.16353527 -0.04312117
  0.09158535 -0.11576392 -0.05672154 -0.06935621  0.23714247  0.1248701
 -0.08718055 -0.17456053  0.15559597 -0.11641475 -0.06427292  0.09282341
 -0.14347748 -0.1510952  -0.26892292  0.01713829  0.46429935  0.08311956
 -0.11074042 -0.00568361 -0.04064699 -0.02680283  0.07563948  0.15525529
 -0.07641808 -0.01359338 -0.09376451  0.01466499  0.230726   -0.03910809
 -0.01846501  0.18752973  0.00571071  0.10816729  0.02333817  0.0803147
 -0.09007573  0.02853456 -0.14149101 -0.04875991 -0.02024124 -0.05999491
 -0.03436557  0.10786741 -0.17579953  0.13547249  0.05133109  0.03187873
 -0.04646955 -0.06360497  0.01207388 -0.01237491  0.10039917 -0.19443032
  0.23055361  0.15709257  0.04602605  0.1707422   0.09368964  0.07799565
 -0.01977065 -0.09834645 -0.20326185 -0.01487635  0.10014707 -0.03225329
  0.10276029  0.01868977]