[-0.14087091  0.1922383   0.03999034 -0.09152929 -0.19457695 -0.01907371
 -0.02531835 -0.18268788  0.13380277 -0.10248605  0.25558326 -0.03502623
 -0.20907398 -0.05659191 -0.03410402  0.19874553 -0.1720566  -0.15081337
 -0.09209155 -0.05314121  0.02569658  0.04066628  0.0045302   0.02327851
 -0.02306333 -0.37602615 -0.09588079 -0.06309196  0.07436138 -0.04634912
 -0.01485577  0.02870619 -0.19087127 -0.0581545   0.06437299  0.05293736
 -0.06737496 -0.08362245  0.17705159 -0.03094121 -0.2376103   0.01190335
  0.12278765  0.20510554  0.20088868  0.02404406  0.052765   -0.17952779
  0.16234879 -0.14092469  0.01908821  0.11701178  0.03889517  0.08563627
  0.00366677 -0.17646389  0.01698822  0.10688162 -0.1815325  -0.0681211
  0.09851562 -0.1071533  -0.09119169 -0.07833655  0.23427872  0.11638355
 -0.08689457 -0.18285523  0.16082309 -0.13987939 -0.04736806  0.07640674
 -0.15050982 -0.12614064 -0.24726315  0.0317553   0.46772096  0.0814143
 -0.10294628  0.00569915 -0.03821724 -0.01960409  0.07684068  0.12335443
 -0.0771919  -0.0170006  -0.06409647  0.05802632  0.2333173  -0.06933882
 -0.00763906  0.19327283  0.01563371  0.08287865  0.03080934  0.08404281
 -0.09421911 -0.00681829 -0.13153331 -0.0408846  -0.00323613 -0.04533665
 -0.0107213   0.09024857 -0.1710898   0.14590196  0.00790872  0.02209253
 -0.0646522  -0.08925831  0.02057213 -0.00689169  0.10639586 -0.18502191
  0.2416867   0.14792581  0.01866332  0.17348683  0.08301606  0.04297357
 -0.01946243 -0.09531257 -0.16459334 -0.048397    0.1174495  -0.02558209
  0.09246667 -0.0193676 ]