[-0.12591723  0.17794016  0.10784316 -0.04496443 -0.14681724 -0.0168885
 -0.05423158 -0.21060763  0.11292394 -0.09642553  0.23711522 -0.01779001
 -0.2449491  -0.1011647  -0.07510158  0.21184902 -0.17380717 -0.161771
 -0.09033408 -0.07397139 -0.00367558  0.05155227  0.0045743   0.00510756
 -0.04847291 -0.38691327 -0.09323251 -0.04411731  0.03599701 -0.01573461
 -0.04072097  0.02784452 -0.18929181 -0.0546055   0.0829116   0.09543075
 -0.07747792 -0.09619858  0.16247144 -0.02130541 -0.22531812 -0.01412174
  0.11903816  0.18835458  0.20926844  0.00743507  0.05808538 -0.18895985
  0.18189166 -0.15278159  0.00965262  0.16561519  0.06964751  0.09079587
  0.03369066 -0.17996973 -0.02372719  0.16881453 -0.14952588 -0.06236314
  0.02856696 -0.14176655 -0.0748068  -0.08012065  0.17813192  0.11642604
 -0.09397794 -0.19139107  0.20431021 -0.13002241 -0.04358573  0.07587599
 -0.13517645 -0.14052625 -0.28876179  0.02133896  0.48065352  0.08363631
 -0.12060322 -0.00285529 -0.06901196 -0.02160445  0.05601707  0.13810453
 -0.06180346 -0.01668397 -0.07119318  0.02458945  0.2147405  -0.06242725
 -0.01256557  0.1702766  -0.01175395  0.09630628  0.02561216  0.06920385
 -0.13174653  0.0147554  -0.13303438 -0.07796334 -0.00327345 -0.03010963
  0.02565524  0.09035992 -0.13981184  0.11358309  0.02576737  0.02379933
 -0.01279132 -0.08588135  0.00717968 -0.0342433   0.12774746 -0.2118994
  0.24134004  0.15401551 -0.02098316  0.18595232  0.10038365  0.06901516
 -0.02699369 -0.12466907 -0.13715264 -0.06222891  0.09437539 -0.01703536
  0.07027345 -0.03627805]