[-9.62710232e-02  2.07008228e-01  6.67117983e-02 -1.18880406e-01
 -8.40579420e-02  3.24336179e-02 -5.11005335e-02 -2.00325295e-01
  1.88899025e-01 -9.63050053e-02  2.67779499e-01 -2.47660503e-02
 -2.61330366e-01 -3.22647132e-02 -8.38478431e-02  2.36558869e-01
 -1.81618109e-01 -1.48374245e-01 -8.61576796e-02 -2.56307665e-02
 -7.23589351e-03  6.37888089e-02  1.30397724e-02  5.04694227e-03
 -1.16860224e-02 -3.70212048e-01 -9.54089612e-02 -6.37073070e-02
  2.60741124e-03 -7.93003365e-02  1.61022099e-03  1.09301961e-03
 -1.62485406e-01  7.39349751e-03  5.89983538e-02  6.43421337e-02
 -5.91179617e-02 -1.32477045e-01  1.53494522e-01 -5.93851879e-03
 -2.32736856e-01  1.40762853e-03  1.19756699e-01  1.89884037e-01
  2.39586115e-01 -1.27364891e-02  1.13012865e-02 -2.14965612e-01
  1.67358026e-01 -1.42947257e-01 -2.89524999e-02  1.03706174e-01
  2.91095264e-02  8.24978501e-02  2.34616939e-02 -1.86115026e-01
 -1.19211245e-02  1.28703162e-01 -1.77926794e-01 -7.57723823e-02
  5.86128011e-02 -8.95834193e-02 -9.26872343e-02 -8.51565450e-02
  2.08074838e-01  1.43605873e-01 -1.42448172e-01 -2.03909829e-01
  1.53454542e-01 -1.30986497e-01 -4.19975333e-02  6.18793666e-02
 -1.65207610e-01 -1.62055865e-01 -2.37755105e-01  2.25595245e-03
  4.03224677e-01  6.17521517e-02 -1.26314804e-01  2.79115438e-02
 -2.20028143e-02  5.28932177e-03  4.66009080e-02  1.53997824e-01
 -5.10881059e-02 -1.02639776e-02 -5.77930398e-02 -4.27282619e-04
  2.23947749e-01 -6.17648028e-02 -2.53151041e-02  1.94021434e-01
 -9.87102613e-02  8.52986202e-02 -3.96979594e-04  8.63085091e-02
 -1.22309685e-01  2.62853745e-02 -1.63216114e-01 -8.98390785e-02
 -2.45318264e-02 -3.84588470e-03 -3.13937967e-03  1.01051711e-01
 -1.39248222e-01  1.20309174e-01  2.11228374e-02  4.36832719e-02
  7.32022896e-03 -6.63633272e-02  1.78509932e-02 -1.41254989e-02
  1.57433242e-01 -1.97935656e-01  2.53562719e-01  1.26726329e-01
  1.22785885e-02  1.35610208e-01  1.11744635e-01  8.03731903e-02
 -2.29577124e-02 -5.40529490e-02 -1.86988279e-01 -2.42717303e-02
  7.59190246e-02 -1.12125613e-02  9.00846347e-02 -5.28230481e-02]