[-0.09895329  0.19739045  0.05177907 -0.14333926 -0.10355035  0.00951997
 -0.04541472 -0.21138477  0.18497889 -0.09825     0.22097757 -0.0058904
 -0.20560792 -0.0842916  -0.07983432  0.20451908 -0.1516315  -0.1728435
 -0.10419919 -0.04121736 -0.00172851  0.04551386 -0.01923702  0.06920662
 -0.04369088 -0.34785149 -0.0826465  -0.08394295  0.03077634 -0.01870442
 -0.04960635  0.00905622 -0.21467257 -0.03548425  0.04838261  0.09006894
 -0.06229319 -0.07743141  0.14018503 -0.00579318 -0.24822393  0.01752733
  0.12102038  0.20122229  0.21059437 -0.00198127  0.03990261 -0.16034827
  0.17290877 -0.1370344   0.00056923  0.12888627  0.05743003  0.08355685
  0.00672345 -0.18594037  0.00657692  0.1074595  -0.193058   -0.05535939
  0.05717089 -0.13921177 -0.11128608 -0.08391558  0.22368708  0.15270887
 -0.10452332 -0.19737142  0.19086456 -0.1659334  -0.02150139  0.05679571
 -0.14095506 -0.10367627 -0.25610951  0.00492617  0.44183874  0.10287674
 -0.12073108  0.04498086 -0.0970196   0.00583871  0.04347162  0.10205211
 -0.05693785  0.03649556 -0.0552802   0.02001528  0.23706058 -0.04814756
  0.02199381  0.18539596 -0.02530433  0.06787949  0.00786458  0.0416841
 -0.12581392 -0.00500986 -0.14143907 -0.04281734 -0.05711392 -0.0283044
  0.01967744  0.07618824 -0.18832695  0.14085865  0.04996336  0.01897009
 -0.01637252 -0.02393316  0.00063307 -0.06460996  0.14371237 -0.18314502
  0.25412422  0.12761919  0.04541057  0.15028667  0.09742165  0.0687001
 -0.03994314 -0.09023618 -0.15599777 -0.04969075  0.10358924 -0.05953888
  0.10861015 -0.01466596]