[-0.12239434  0.20980854  0.04825879 -0.09081391 -0.17940889 -0.01204698
 -0.03573028 -0.19589093  0.13510554 -0.11238974  0.27130145 -0.05734335
 -0.21863507 -0.04457375 -0.04810499  0.19982424 -0.1855716  -0.15544315
 -0.08301375 -0.04942819  0.01032338  0.0238665   0.00138177  0.02970742
 -0.01876242 -0.38084832 -0.09537891 -0.06585193  0.0620048  -0.04533042
 -0.02414511  0.02336823 -0.1780719  -0.06033002  0.0494972   0.0653595
 -0.07246575 -0.07532452  0.15896718 -0.03650209 -0.21915142  0.01424342
  0.12763289  0.22027957  0.1984551   0.04438679  0.03724496 -0.18353966
  0.15627663 -0.14976309  0.00859694  0.11057227  0.05036892  0.09480283
 -0.00108863 -0.17248276  0.03079464  0.10764571 -0.17901489 -0.05895516
  0.0992667  -0.10058482 -0.07767894 -0.0773803   0.26565218  0.12127961
 -0.09879972 -0.15619828  0.15168737 -0.14152312 -0.06107895  0.06062
 -0.13832839 -0.12201893 -0.25159487  0.02166426  0.48241305  0.07437037
 -0.1099773  -0.00480996 -0.03322132 -0.02721497  0.07948788  0.12929344
 -0.09098142 -0.02954322 -0.07860275  0.03781583  0.23122576 -0.06688558
  0.0005944   0.19266909  0.00550028  0.0985109   0.03439919  0.08900111
 -0.1094852   0.00602181 -0.13802713 -0.04329592 -0.0155722  -0.05224816
 -0.02611711  0.08647609 -0.17420384  0.14972001  0.01465663  0.02842337
 -0.03513459 -0.07068808  0.026532   -0.02674888  0.12547305 -0.19878612
  0.21397285  0.15850165  0.02834619  0.1689906   0.08258202  0.05247637
 -0.02696099 -0.08406936 -0.18199913 -0.04397243  0.10455888 -0.04624427
  0.07893673 -0.01397123]