[-0.16908972  0.18891612  0.0172751  -0.06657902 -0.15831146 -0.00495879
 -0.05590311 -0.18080655  0.16779898 -0.05799473  0.24295466 -0.00673492
 -0.19452907 -0.08476472 -0.04322762  0.18173634 -0.17741126 -0.11898332
 -0.09804857 -0.0613916   0.03125684  0.05639738  0.00168601  0.01832323
 -0.05320811 -0.37453428 -0.0905421  -0.08008756  0.07389914 -0.02963736
 -0.01407474  0.02468638 -0.18838358 -0.08197636  0.09186535  0.09373966
 -0.08104916 -0.04410687  0.18634409 -0.02247556 -0.19401513 -0.00674493
  0.1160195   0.21312208  0.2116425   0.03588001  0.05548423 -0.1936717
  0.1674985  -0.14247368  0.01358775  0.15862571  0.05463061  0.08720608
  0.05437016 -0.13907     0.01507616  0.11556631 -0.18023628 -0.06981204
  0.10708731 -0.11016965 -0.10234182 -0.09852786  0.20540896  0.08642926
 -0.08762966 -0.18489911  0.14356212 -0.14117609 -0.05404904  0.08961701
 -0.11500429 -0.15115963 -0.29392847  0.01210719  0.48027727  0.12375804
 -0.10850942  0.02512862 -0.06365396 -0.06489693  0.07200462  0.08376327
 -0.07460626 -0.01032649 -0.06225189  0.04520058  0.22460786 -0.04034055
  0.02957845  0.17239597  0.01944643  0.082335    0.00713231  0.06315174
 -0.11619351 -0.01944678 -0.11811024 -0.06560945 -0.01646919 -0.02345948
  0.0379727   0.06899378 -0.18136042  0.16200672  0.02061423  0.0119009
 -0.05858687 -0.10384078 -0.00987663  0.01249855  0.14335681 -0.20901775
  0.21750365  0.12446076  0.01368274  0.17548016  0.09076918  0.05181597
 -0.06259054 -0.08289601 -0.16502972 -0.05906593  0.07471483 -0.03388713
  0.10109194 -0.0237808 ]