[-0.13381884  0.19914451  0.09314157 -0.0814708  -0.15937817 -0.00813733
 -0.03239299 -0.1995647   0.14739649 -0.08208107  0.22840948 -0.00960186
 -0.24109554 -0.03421062 -0.03775554  0.19429596 -0.16644412 -0.18227237
 -0.07234917 -0.0793361  -0.03071274  0.03922726 -0.01792733  0.02585409
 -0.05188205 -0.38173053 -0.07290211 -0.05975353  0.04908403 -0.02872691
 -0.02443195  0.0614416  -0.17356128 -0.02161516  0.06495991  0.08702662
 -0.10187924 -0.10046557  0.19445181  0.0084259  -0.23708843 -0.03855101
  0.08654592  0.22636214  0.21197048 -0.00691133  0.05227129 -0.15915875
  0.17635384 -0.16183211  0.02951216  0.15734182  0.06529403  0.08430117
  0.02714667 -0.18781449  0.00870402  0.0964552  -0.22984393 -0.06062684
  0.08637161 -0.16651168 -0.09481803 -0.11638508  0.20976289  0.15166137
 -0.08030868 -0.18622488  0.19710468 -0.15147279 -0.06843237  0.06575842
 -0.13208984 -0.14491549 -0.2854867   0.01992572  0.42772552  0.13612099
 -0.09758206  0.02230701 -0.03233884 -0.0288841   0.06884073  0.12639241
 -0.09380139  0.00575831 -0.05009443  0.02264851  0.20828454 -0.03153595
 -0.05010075  0.1692946  -0.02765708  0.08033488  0.03277026  0.05753058
 -0.10570518  0.00190559 -0.14171819 -0.06430041 -0.02337263 -0.04197427
  0.0284289   0.08873516 -0.17362714  0.15113609  0.01765562  0.03371235
 -0.04701797 -0.08509814 -0.02185805 -0.01439487  0.14591803 -0.23267496
  0.23787975  0.13864349  0.00896867  0.17644797  0.09759587  0.03100597
 -0.03459399 -0.11806393 -0.16614978 -0.05281321  0.11436108 -0.02453178
  0.10322871  0.01206482]