[-0.15536828  0.18574433  0.02049071 -0.07799233 -0.1586796  -0.00051833
 -0.0497295  -0.19445461  0.17035431 -0.07220163  0.24930899 -0.00830615
 -0.20273963 -0.07589909 -0.05334247  0.19479129 -0.18687294 -0.12241028
 -0.09836044 -0.05505481  0.03269751  0.0499661   0.00061436  0.01893423
 -0.03826168 -0.3787944  -0.09236243 -0.08257432  0.05816883 -0.02259745
 -0.01375418  0.01616404 -0.18497418 -0.07609644  0.08734545  0.07747275
 -0.08559575 -0.06161106  0.18036398 -0.02120373 -0.20592017  0.00177793
  0.12635329  0.20312381  0.20514579  0.03933063  0.04740283 -0.19937693
  0.17925492 -0.14339004  0.00326914  0.14519387  0.05086088  0.08922543
  0.03687664 -0.15120175  0.01416152  0.12602349 -0.18434384 -0.06565091
  0.1002567  -0.12318575 -0.10813098 -0.09770042  0.21645382  0.10603537
 -0.10027218 -0.18198113  0.14400384 -0.13167475 -0.05298169  0.074801
 -0.12562148 -0.1526721  -0.27100241  0.01272948  0.48515651  0.10373311
 -0.11108048  0.0097344  -0.07004666 -0.04668539  0.07375251  0.09857796
 -0.061207   -0.02623852 -0.06173776  0.02367871  0.22705701 -0.05601292
  0.0286123   0.1855223   0.00524831  0.0840478   0.0010674   0.06893512
 -0.12973489 -0.00630303 -0.12298739 -0.07300963 -0.01969746 -0.02676093
  0.03042284  0.06255671 -0.18135871  0.15326236  0.02367099  0.02027
 -0.0348566  -0.10396897 -0.00137042 -0.00329675  0.13755336 -0.20236526
  0.23336935  0.12989551  0.02175002  0.18292496  0.0929896   0.0570945
 -0.05759925 -0.08402715 -0.1751809  -0.0546144   0.08731367 -0.02522321
  0.09162024 -0.03572225]