[-0.07207185  0.10406772  0.10764676 -0.0719683  -0.15503192  0.03879794
 -0.03729495 -0.11466625  0.13672076 -0.09226036  0.23238793 -0.08320682
 -0.21122389  0.00186437 -0.0215645   0.1965932  -0.19268741 -0.10029247
  0.01161321 -0.07775074 -0.03549462  0.05906672 -0.02110872  0.02603943
 -0.12198098 -0.33207625 -0.10647924 -0.08271531  0.01853066 -0.0167978
 -0.0119438   0.1160541  -0.08870693  0.01245122  0.03922169  0.0697459
 -0.06612343 -0.10640915  0.13863896  0.02607699 -0.21327241 -0.00251567
  0.07064866  0.24942289  0.18387485  0.02137406  0.02807172 -0.10208312
  0.13222778 -0.19094452  0.04356062  0.09773376  0.03492475  0.03229094
  0.04201093 -0.19338754  0.01977375  0.1107411  -0.18309659  0.02006735
  0.08365231 -0.07518902  0.04180125 -0.05117713  0.19729565  0.15044841
 -0.07116653 -0.1428344   0.21360064 -0.12454144 -0.05643822  0.09535568
 -0.13555887 -0.17234653 -0.2438865  -0.01588751  0.4386695   0.09868196
 -0.1474985  -0.04376469 -0.0065174  -0.01571533  0.18090284  0.13280968
 -0.02187776 -0.10904864 -0.11081859 -0.04964155  0.26555702 -0.04274994
 -0.05933581  0.20826416  0.01160501  0.02860489  0.04144688  0.05877122
 -0.08043693  0.04742941 -0.14011274 -0.03872549 -0.04455971 -0.08299971
 -0.05244204  0.12499221 -0.18528204  0.18622734  0.05042759  0.01486713
 -0.04214932 -0.03161652 -0.04990368  0.04055108  0.2138516  -0.23548639
  0.14240067  0.1372502   0.0349645   0.17130004  0.06308359  0.06296342
 -0.03820467 -0.13984334 -0.19555958 -0.04221452  0.0367029  -0.07963447
  0.0403587   0.05562399]