[-7.49301910e-02  1.36015251e-01  1.06197558e-01  4.43672389e-02
 -1.80369206e-02 -3.45761850e-02 -2.11530309e-02 -1.87164828e-01
  1.26584008e-01 -7.42225870e-02  3.36909741e-01  1.28532173e-02
 -1.52023703e-01 -1.52669013e-01  2.57765390e-02  2.00284481e-01
 -2.11597309e-01 -9.78900120e-02 -7.81417787e-02  3.28932479e-02
 -2.79552173e-02 -3.36945690e-02  6.56879917e-02  3.04184146e-02
 -7.05280229e-02 -3.09652120e-01 -1.14362776e-01 -1.19353943e-01
  9.56333578e-02 -1.95422564e-02 -6.42683730e-02 -2.20200866e-02
 -1.74545750e-01 -4.74942252e-02  2.38985494e-02  2.14834809e-02
 -5.15001677e-02 -1.99578386e-02  2.25295812e-01 -1.48987118e-02
 -2.23943740e-01  5.22750616e-02 -7.83645362e-03  2.00620756e-01
  1.97084352e-01  1.45879490e-02  6.27713129e-02 -1.50235772e-01
  7.04879388e-02 -1.34263352e-01  8.56682286e-03  1.21385887e-01
  8.40898305e-02  6.67814538e-02 -4.11369503e-02 -1.60194457e-01
 -3.61497924e-02  1.03520826e-01 -1.08886659e-01  1.42047554e-02
  6.14287034e-02 -1.04429759e-01 -3.19356918e-02  1.53665124e-02
  2.16786847e-01  1.08509183e-01 -1.12294376e-01 -1.68867946e-01
  1.38266206e-01 -1.23216115e-01 -2.84720492e-02  8.84822085e-02
 -1.26016498e-01 -1.49595603e-01 -2.99537033e-01 -6.60839537e-03
  4.50702280e-01  9.00188088e-03 -2.13092804e-01 -1.48217259e-02
 -1.48640543e-01 -8.73502530e-03  9.77291092e-02  1.39228135e-01
 -2.38167197e-02 -2.03536041e-02 -9.31658968e-02 -4.22458202e-02
  2.10701749e-01 -7.63711855e-02  3.10539845e-02  1.89661279e-01
 -1.07294666e-02  6.87956586e-02  1.42621296e-02  1.74694117e-02
 -1.20903109e-03  1.55052487e-02 -8.27938765e-02 -2.85256710e-02
 -3.77023146e-02 -5.23361526e-02  2.26209126e-02  6.31098002e-02
 -1.95484594e-01  1.22325912e-01  7.97157213e-02  4.08014655e-02
  9.34834182e-02  5.13876341e-02 -4.17235047e-02 -9.40403417e-02
  1.54361069e-01 -2.52212942e-01  2.61898905e-01  2.02078342e-01
 -2.54507730e-04  1.01185217e-01  7.34329149e-02  1.50374874e-01
 -8.96199420e-02 -1.50920469e-02 -1.47324800e-01  2.16752524e-03
  3.20032947e-02 -2.94413473e-02  5.95880933e-02 -1.52968066e-02]