[-0.11318219  0.10044406  0.14234886 -0.01909446 -0.16008756 -0.00106929
  0.00545203 -0.12567826  0.1102914  -0.10891757  0.19724122 -0.08025747
 -0.19892548 -0.05084592  0.02905565  0.22029714 -0.15228596 -0.22309041
 -0.02440012 -0.04560231  0.01924868  0.01488929  0.00057726  0.06296196
 -0.150344   -0.36281356 -0.08460728 -0.06512769  0.00112055 -0.07806035
 -0.04296553  0.10927331 -0.13440238 -0.02387101  0.07149031  0.16093008
 -0.03580461 -0.09716224  0.13754503  0.00900057 -0.2914972   0.05989644
  0.11837124  0.27133799  0.23067968  0.03426139  0.00199432 -0.04963044
  0.14734384 -0.235075    0.04456114  0.12282872  0.0672434   0.04499841
  0.10328133 -0.17144488  0.0017876   0.08123416 -0.14718574 -0.01815375
  0.06361039 -0.08254422  0.03687313 -0.07550954  0.15956463  0.10417785
 -0.06868272 -0.08476307  0.20258224 -0.119656   -0.07376345  0.05895641
 -0.17437406 -0.14716932 -0.2471488  -0.00136763  0.428615    0.10541175
 -0.17575976  0.0170942   0.04105756  0.06685679  0.08844303  0.16693358
  0.00261278 -0.01965256 -0.10439527  0.00518461  0.18557766 -0.03173239
 -0.00442369  0.21019819  0.01646656  0.02813867  0.0786913   0.05025971
 -0.06991694  0.00482937 -0.20469384 -0.07919087 -0.03288944 -0.02298541
 -0.02164471  0.12231737 -0.18532306  0.12025862  0.01595142  0.02760092
 -0.05621456  0.03124601 -0.01471362  0.01044321  0.08698342 -0.24136451
  0.13407056  0.20065658 -0.07446066  0.12000448  0.05503185  0.0527338
  0.00734977 -0.08678671 -0.14760807 -0.07008751  0.06513548 -0.03258683
  0.00937924  0.04424674]