[-1.95644721e-01  1.05363987e-01  9.52738672e-02  2.56570429e-03
 -7.04168230e-02 -7.74634406e-02  2.16262732e-02 -8.28950256e-02
  9.47209895e-02 -1.36951376e-02  2.77048022e-01 -4.27874289e-02
 -2.00463533e-01 -1.37817249e-01  1.23951305e-02  1.03716902e-01
 -1.46441653e-01 -8.56349021e-02 -2.27566864e-02 -3.49076279e-02
  4.93532903e-02 -4.82192077e-02  6.92306086e-02  4.85382304e-02
 -1.03739016e-01 -3.51247936e-01 -9.16805416e-02 -1.17715232e-01
  3.90623920e-02 -4.53451388e-02 -5.92911430e-02  1.16109870e-01
 -1.70971051e-01 -8.93444270e-02 -4.81689489e-03  1.18059658e-01
  4.08941502e-04  3.08750216e-02  1.86897263e-01 -6.23477213e-02
 -1.51674256e-01  2.28442259e-05  3.13597620e-02  2.94092625e-01
  2.31688842e-01  2.88530793e-02  1.34819625e-02  1.15967100e-03
  4.91222925e-02 -1.55984983e-01  3.83277982e-02  1.36963814e-01
  1.07805662e-01 -3.23267584e-03  6.25746772e-02 -1.39246985e-01
 -1.46480622e-02  3.67999934e-02 -1.38121352e-01  1.08887479e-02
  2.09983741e-03 -1.02795057e-01 -3.87039445e-02 -5.01570366e-02
  1.83392838e-01  7.92779177e-02 -5.49047068e-02 -1.16502561e-01
  1.92859456e-01 -1.24386720e-01 -1.80311371e-02  6.86095282e-02
 -1.89549342e-01 -1.68893144e-01 -2.76232839e-01  4.75555472e-02
  3.51512074e-01  1.03984796e-01 -1.80136442e-01  8.38097557e-02
 -6.11640327e-02 -2.18090769e-02  8.34357888e-02  5.23895733e-02
 -7.36140832e-02  6.69042394e-02 -1.40983284e-01  4.31818925e-02
  1.45827293e-01 -4.09277789e-02 -5.45150340e-02  1.80583701e-01
 -2.23237346e-03  3.59956771e-02  1.01984739e-01 -3.41463797e-02
  1.74577441e-02  3.09362868e-03 -2.22700045e-01 -1.73601806e-02
  5.99005818e-02 -1.51163280e-01 -2.29003038e-02  6.19118884e-02
 -1.93074539e-01  2.26332676e-02  4.51147035e-02  3.25900093e-02
 -6.22437075e-02 -2.11664778e-03 -1.43641233e-01 -7.18075037e-03
  1.60510927e-01 -2.34871313e-01  2.22658917e-01  2.03853652e-01
 -1.61133858e-03  1.25067070e-01  1.08582787e-01  2.06733365e-02
  1.16963210e-02 -3.31538580e-02 -9.07248631e-02 -3.20641771e-02
  9.17130187e-02 -1.10980971e-02  8.75648484e-02  5.68359159e-02]