[-0.03214717  0.1053241   0.1174695  -0.00101424 -0.04141407 -0.04446274
 -0.06270989 -0.20984094  0.11246383 -0.09153721  0.34085014 -0.01792138
 -0.18118237 -0.14466991  0.00530657  0.21126734 -0.16644154 -0.13987021
 -0.05858494  0.03607025 -0.02456409 -0.05183557  0.06199159  0.04397602
 -0.0547279  -0.31340653 -0.14156504 -0.09153157  0.04492231 -0.03917916
 -0.07650062  0.01401156 -0.16612309 -0.04957639  0.04689088  0.03987459
 -0.03762708 -0.06467133  0.21576846 -0.02728696 -0.23973505  0.07398754
  0.03057546  0.19554897  0.20791093  0.00622456  0.07178854 -0.16435646
  0.08291566 -0.15517142  0.03740273  0.1127286   0.10053737  0.06417684
 -0.02218721 -0.15493625 -0.03908956  0.13307413 -0.10679519  0.02054604
  0.05681872 -0.10642707 -0.02520585 -0.03142361  0.2285711   0.14267008
 -0.12412152 -0.1757552   0.13749762 -0.13233761 -0.05136064  0.09773703
 -0.15766637 -0.13960055 -0.30612573 -0.00497208  0.40634885  0.0023579
 -0.2413177  -0.02170152 -0.10160393  0.02042758  0.07610913  0.15070638
  0.00160316 -0.02250552 -0.09324215 -0.06096832  0.24942732 -0.09729027
  0.02853963  0.21602498 -0.01424473  0.06797307  0.03119102  0.05497989
  0.00737615 -0.00885388 -0.12231171 -0.01913119 -0.05921648 -0.03030327
 -0.006587    0.07561637 -0.18483679  0.07798509  0.0396356   0.02021049
  0.06628095  0.02327292 -0.01531868 -0.1218729   0.14295487 -0.26097867
  0.22329386  0.19786747  0.0240997   0.08300406  0.05303208  0.14704143
 -0.06665086 -0.05110726 -0.12477475  0.00120385  0.04890415 -0.00813974
  0.02848563 -0.01818493]