[-1.34003356e-01  7.78752789e-02  7.82312080e-02 -1.27638970e-02
 -1.03494279e-01 -8.77751037e-02 -1.36817545e-02 -1.26908347e-01
  2.80779544e-02 -1.63798165e-02  2.89581150e-01 -3.28828804e-02
 -2.06259087e-01 -1.49579719e-01  6.31024987e-02  8.82079452e-02
 -1.19715713e-01 -9.87857133e-02 -9.21966508e-02 -1.20348409e-02
  1.28912507e-02 -5.61636351e-02  9.24949721e-02  2.85563674e-02
 -9.05437469e-02 -3.63354117e-01 -1.26584366e-01 -1.04882717e-01
  5.39603345e-02 -7.95053020e-02 -1.88756548e-02  7.45207444e-02
 -1.19031526e-01 -4.88889515e-02  2.85690272e-04  7.03830346e-02
 -3.27628702e-02 -5.94284125e-02  2.73317099e-01 -4.57284488e-02
 -1.78501710e-01 -3.03982981e-02  4.02369201e-02  2.68433481e-01
  2.40885258e-01  6.46898930e-04  6.27681836e-02  4.08352055e-02
  1.10625818e-01 -1.68482304e-01  1.04096942e-01  1.04705587e-01
  1.75137445e-01  4.73633036e-03  6.21232986e-02 -1.30731821e-01
  8.60910304e-03  1.25907943e-01 -2.05839515e-01  3.78826894e-02
  2.11301185e-02 -1.68592438e-01 -8.94093439e-02 -5.07529080e-02
  1.89768955e-01  1.66676745e-01 -6.09615631e-02 -1.36939079e-01
  1.72394201e-01 -1.51516289e-01 -4.61701900e-02  3.63465324e-02
 -1.99972317e-01 -1.44569263e-01 -2.89232105e-01  1.34643707e-02
  2.92308182e-01  8.87718201e-02 -2.12248608e-01  3.22371423e-02
  3.45293595e-03 -1.76549330e-02  6.24469221e-02  7.93758184e-02
 -9.60759148e-02  3.34141739e-02 -1.34360537e-01  2.49064714e-03
  1.57301441e-01 -5.42083979e-02 -4.18202356e-02  2.19417334e-01
  1.07579760e-03  2.07527839e-02  1.15050711e-01 -4.76312749e-02
  2.59413365e-02 -2.88234986e-02 -1.21370509e-01  2.52465904e-02
  7.21275732e-02 -1.77912682e-01  1.24170107e-03  2.91032288e-02
 -1.91424027e-01  7.43667260e-02  5.12191234e-03  7.00786486e-02
 -1.48573937e-02 -7.39304647e-02 -1.00528680e-01 -4.31502238e-02
  1.73943058e-01 -2.31765673e-01  1.89732403e-01  1.89163059e-01
 -1.17933424e-02  1.23290144e-01  7.94803575e-02  5.99254668e-02
  3.60541651e-03 -6.79622311e-03 -1.29479215e-01 -1.66530497e-02
  7.74086118e-02 -6.45598862e-03  6.61687478e-02  7.50484765e-02]