[-0.10333214  0.06457623  0.09336493 -0.06186242 -0.08421459 -0.03557936
 -0.04005102 -0.14813107  0.10486772 -0.10456388  0.17601328 -0.06983451
 -0.19207333 -0.0375958  -0.03710605  0.20048599 -0.15024202 -0.11226715
 -0.08958992  0.03583606  0.00727826  0.01847876  0.02503116  0.00924311
 -0.09693177 -0.35071227 -0.0856777  -0.01083664 -0.03971497  0.00415206
 -0.11004274  0.08669166 -0.17073572 -0.04439128  0.04397041  0.11469668
 -0.0181326  -0.0824818   0.1314057   0.02737649 -0.26642326  0.08326387
  0.06591406  0.22169946  0.24265127  0.01905876  0.03918746 -0.15602413
  0.14629395 -0.15747689  0.0165621   0.09990091  0.05898916  0.03583488
  0.01757034 -0.14991346  0.00265305  0.1227867  -0.0858068  -0.03836298
  0.09366851 -0.02559334 -0.01977585 -0.11642569  0.17905098  0.10493189
 -0.12028489 -0.15624385  0.1460277  -0.09114797 -0.03958457  0.01757943
 -0.176118   -0.15716659 -0.24269927 -0.0119746   0.34384149  0.05084403
 -0.20745707  0.01306094 -0.06771713  0.0374434   0.13440929  0.14484154
  0.02614198 -0.00513862 -0.04654455 -0.04146552  0.25830767 -0.05286995
 -0.00700851  0.19013421  0.00928873  0.01837252  0.01657262  0.02183179
 -0.07065307  0.07765015 -0.16188894  0.00095119 -0.00113067 -0.06091771
 -0.01773381  0.11869387 -0.19340084  0.15626244  0.02738859  0.08749045
  0.08277824 -0.0248644  -0.0477445  -0.03650146  0.11118256 -0.22361927
  0.17994843  0.17722623  0.0088115   0.0954484   0.08987644  0.1045288
 -0.00051135  0.04999295 -0.21624863 -0.02870811  0.10578506 -0.02840477
  0.03978828  0.02784098]