[-0.12051367  0.09587743  0.06072557  0.01191444 -0.0796502  -0.06938715
  0.00985537 -0.15177257  0.05961001 -0.01831388  0.31175086 -0.05960553
 -0.21480203 -0.16825756  0.062339    0.13450474 -0.11763119 -0.09735343
 -0.0778622  -0.00445507  0.01298475 -0.06421585  0.11660141  0.03853491
 -0.06906659 -0.38542977 -0.13346983 -0.14274356  0.05736392 -0.04503099
 -0.0403955   0.06394595 -0.11334234 -0.05395534  0.00458995  0.06794956
 -0.04844982 -0.06551453  0.27214453 -0.06105023 -0.18725699 -0.0145644
  0.03781472  0.24547206  0.23360066  0.00449073  0.08696687 -0.00533372
  0.0560181  -0.13956442  0.09619049  0.08812165  0.13748188 -0.00556446
  0.03789989 -0.1374364  -0.02029158  0.09822904 -0.17740382  0.00582755
  0.04947653 -0.12351236 -0.10198754 -0.03726213  0.19904312  0.16454433
 -0.0665785  -0.1454151   0.1621958  -0.17518172 -0.0415522   0.03301685
 -0.21343577 -0.15699928 -0.29877886  0.02552384  0.33104953  0.0733394
 -0.19583744  0.01714546  0.00519303 -0.00166418  0.09235819  0.10301074
 -0.07551843  0.01145625 -0.14450745 -0.0077863   0.15491033 -0.08421463
 -0.04016174  0.20492887 -0.00989245  0.03233329  0.08516653 -0.03629627
  0.03899182 -0.00668657 -0.13812302  0.01557002  0.05690978 -0.12514965
 -0.00815722  0.03924623 -0.18475088  0.04232573  0.00601095  0.04409659
 -0.00051076 -0.06230999 -0.10866829 -0.05512642  0.17759755 -0.19757721
  0.16468532  0.19945672  0.00578465  0.11324531  0.1061479   0.07642913
  0.00860584 -0.00766621 -0.1820316   0.01283715  0.08539918  0.00558593
  0.05605782  0.05335264]