[-0.08218276  0.12744775  0.0410576   0.0198777  -0.0622867  -0.01198302
 -0.04131038 -0.19484974  0.14659238 -0.08654307  0.33078134 -0.00142302
 -0.15720484 -0.15208553  0.04291057  0.18537095 -0.21135108 -0.12139781
 -0.09694467 -0.00540882 -0.02968125 -0.05893018  0.03485747  0.07025351
 -0.08773649 -0.32031199 -0.10954802 -0.10999478  0.09682702 -0.06149332
 -0.07467326 -0.00080344 -0.18316334 -0.06472411  0.08293984  0.07352804
 -0.0209898  -0.0226284   0.22221342 -0.03788562 -0.19203876  0.0777541
  0.01702329  0.18792848  0.2240444   0.04240848  0.02986685 -0.11650517
  0.12000896 -0.13017364  0.00675802  0.14016123  0.1237031   0.05528193
 -0.00914321 -0.16161366 -0.0309906   0.13358624 -0.14350644 -0.00638899
  0.05169142 -0.14800148 -0.03826597  0.01545144  0.22265375  0.13201194
 -0.12373952 -0.18141058  0.13745603 -0.13192894 -0.01628919  0.08494336
 -0.12972255 -0.14410962 -0.27144703  0.00239701  0.46114984  0.04501551
 -0.24458742 -0.02712908 -0.10564267 -0.01351112  0.0836815   0.12476056
 -0.01796754 -0.07783205 -0.0996237  -0.03287163  0.20660837 -0.02987086
  0.03438067  0.18914784 -0.02212255  0.06945651  0.01170532  0.02259741
 -0.0452955  -0.01576057 -0.05795282 -0.04195748 -0.05492085 -0.02144392
  0.02255243  0.07187767 -0.18072848  0.10924979  0.0194071   0.03673201
  0.03442715  0.02899699 -0.0074574  -0.06458546  0.12723617 -0.30719969
  0.25538447  0.18728867 -0.02755709  0.11178096  0.02856291  0.1166713
 -0.0436286  -0.0215007  -0.14347835 -0.0497976   0.01246858 -0.04983168
  0.07613717 -0.0436276 ]