[-0.12311652  0.09395766  0.09786776  0.0141341  -0.07623785 -0.06785966
 -0.033532   -0.14320017  0.04345929 -0.0423057   0.3093546  -0.04019728
 -0.21091905 -0.13019273  0.03409746  0.10440625 -0.11403085 -0.08308445
 -0.10442162  0.00739593  0.0253863  -0.03250976  0.09773722  0.01449348
 -0.07231677 -0.35042173 -0.10514299 -0.10343226  0.07227962 -0.09482806
 -0.05416501  0.05341835 -0.12816887 -0.07400931 -0.00370908  0.06786934
 -0.04861788 -0.05762217  0.27526459 -0.02647759 -0.19968133 -0.02070132
  0.02698008  0.27294719  0.24418254 -0.00742272  0.0511706  -0.01674006
  0.08673709 -0.15920232  0.09364669  0.10552143  0.19290148  0.01258348
  0.06171745 -0.14081819 -0.00591419  0.10965589 -0.17059404  0.03668739
  0.0591434  -0.13582821 -0.06130352 -0.04935347  0.1734802   0.13492255
 -0.05254294 -0.13579445  0.17025043 -0.12940153 -0.05432257  0.0488033
 -0.18311076 -0.15631695 -0.28564495 -0.01998225  0.29562944  0.0867032
 -0.22814603  0.02235916 -0.01777619 -0.03808878  0.07274368  0.08776263
 -0.07185916  0.0451442  -0.11089605 -0.00047529  0.16173504 -0.05632898
 -0.03844708  0.20427056 -0.00038826  0.00138313  0.11389019 -0.04938678
  0.0031088  -0.01786058 -0.1640837  -0.01127331  0.03494813 -0.15229057
  0.00499945  0.0394048  -0.19816642  0.09406993  0.02397287  0.0546492
  0.01124039 -0.07281923 -0.10554929 -0.02518271  0.19282222 -0.2081265
  0.18589966  0.18301237  0.02474798  0.10670724  0.11079542  0.06241356
  0.0060624   0.0056067  -0.16145632 -0.02055265  0.06827086 -0.01337045
  0.08045682  0.06296903]