[-0.07180122  0.14365283  0.14532712 -0.03617972 -0.19390872  0.03039068
 -0.02765518 -0.1053056   0.08273155 -0.08458924  0.25313354 -0.08666812
 -0.20243196  0.00796166 -0.01333363  0.22034471 -0.18675552 -0.13692722
 -0.04106742 -0.05227991  0.00446812  0.08064886 -0.02719382 -0.04453835
 -0.11142917 -0.38729474 -0.054975   -0.03481769  0.06806295 -0.0274811
 -0.04430173  0.10241558 -0.13733679 -0.01084121  0.0708571   0.08723376
 -0.07142738 -0.07115622  0.17181632  0.06925207 -0.26495466  0.08339234
  0.04560474  0.29025209  0.22934237  0.03448034  0.02981891 -0.10835018
  0.09080398 -0.21466152  0.03616702  0.14245991  0.0336107   0.03142743
  0.0307359  -0.14286956 -0.01288507  0.05516387 -0.19095354 -0.02532
  0.14823206 -0.07904255  0.03066779 -0.09296087  0.21605162  0.08487097
 -0.0744959  -0.12660228  0.19969408 -0.10277671 -0.07381853  0.03844739
 -0.13147438 -0.13694294 -0.2419142   0.01732253  0.46472961  0.07555599
 -0.20138204 -0.01285596 -0.00607902 -0.01576494  0.19383626  0.13036081
  0.01348718 -0.06054476 -0.08178177 -0.01389764  0.2603038  -0.07970946
 -0.03979675  0.2163616   0.03114647  0.01623139  0.07903605  0.05199375
 -0.06673122  0.02040651 -0.18068922 -0.05575489 -0.0496398  -0.08326545
 -0.03395346  0.13940431 -0.17356278  0.19822297  0.02180599  0.01847907
 -0.03152008 -0.04292403 -0.03901691  0.00454724  0.17177075 -0.22936141
  0.17423108  0.17547837 -0.00771724  0.13313089  0.09771512  0.04530896
 -0.01361743 -0.06590099 -0.19636121 -0.08272269  0.04368402 -0.05156849
  0.05028624  0.05564063]