[-0.15408282  0.04141481  0.08320387 -0.02540496 -0.0862517  -0.07453281
  0.00923506 -0.1557976   0.09611783 -0.03162537  0.27528387 -0.02911831
 -0.20642805 -0.14339882  0.05434677  0.125104   -0.10823297 -0.09699519
 -0.09894817 -0.01254761 -0.00939006 -0.08432935  0.09056743  0.0401012
 -0.08723255 -0.34579152 -0.13433428 -0.12139771  0.01369931 -0.05810506
 -0.07908519  0.06669049 -0.14959787 -0.06007507 -0.01363516  0.07251186
 -0.07256093 -0.06742489  0.23836279 -0.04888517 -0.17134656 -0.04272971
  0.0414989   0.21574466  0.23179321 -0.00126475  0.05262646 -0.00816567
  0.08809272 -0.17403428  0.0853404   0.09773455  0.14032127  0.00572978
  0.04622587 -0.14316133  0.01506739  0.0840636  -0.21476455  0.02707765
  0.04875229 -0.1498695  -0.14263928 -0.05379255  0.19171797  0.22412542
 -0.05708937 -0.1676463   0.17586975 -0.15836173 -0.0348983   0.00740728
 -0.20775953 -0.184707   -0.30654836 -0.00255298  0.28715739  0.09694178
 -0.1944145   0.03169781 -0.04215063 -0.00453059  0.05846551  0.04583626
 -0.09877757  0.05368654 -0.12824842  0.00865487  0.15460767 -0.06749757
 -0.02592861  0.19809107 -0.00375671  0.00488797  0.08247232 -0.04817325
  0.02551563 -0.0147332  -0.17536581  0.01558299  0.06119183 -0.13662961
  0.01543088  0.02228317 -0.20397833  0.0712426   0.02513286  0.0262307
 -0.03100008 -0.09809299 -0.15616709 -0.03033723  0.17518315 -0.21041639
  0.20149277  0.18819445  0.04223813  0.11664542  0.09536143  0.04800628
 -0.01122376  0.00192514 -0.15055755  0.01276292  0.09804301 -0.00472591
  0.07277315  0.08571202]