[-1.15775399e-01  1.30147383e-01  9.09402966e-02  2.87895161e-03
 -2.55012158e-02 -1.55671043e-02 -3.69286351e-02 -1.94698527e-01
  1.40379116e-01 -8.47754925e-02  3.31223369e-01  7.40743428e-03
 -1.56741545e-01 -1.90196604e-01  5.92568889e-02  2.08565861e-01
 -2.43151575e-01 -1.12082385e-01 -6.09197877e-02  1.24313682e-03
 -3.14385705e-02 -3.74098495e-02  5.34773469e-02  5.50528280e-02
 -1.07267395e-01 -3.50889534e-01 -9.42150876e-02 -1.37276039e-01
  4.89059724e-02 -3.71470936e-02 -6.63930699e-02 -8.49501789e-03
 -1.95005611e-01 -3.32277603e-02  1.03862649e-02  3.84616069e-02
 -2.82860305e-02 -3.63461450e-02  2.18199566e-01 -3.71014024e-03
 -2.04577014e-01  5.20334356e-02  1.65764918e-03  1.92438528e-01
  2.39209056e-01 -1.43208606e-02  4.23440561e-02 -9.69220996e-02
  8.18447322e-02 -1.25308156e-01  6.20614737e-03  1.26923919e-01
  9.68985483e-02  3.18953469e-02 -2.14778651e-02 -1.58490703e-01
 -4.59319763e-02  8.41178522e-02 -1.02384046e-01 -4.35365317e-03
  4.55905423e-02 -1.29815251e-01 -4.86425422e-02  2.38779243e-02
  2.09264591e-01  1.11258507e-01 -9.32025537e-02 -1.44481927e-01
  1.45874217e-01 -9.43168849e-02 -1.76764950e-02  5.32423072e-02
 -1.69188663e-01 -1.65902123e-01 -2.89435834e-01  1.70230418e-02
  4.14061993e-01  2.28261091e-02 -2.53488749e-01 -1.72680113e-02
 -1.22480445e-01  3.99018917e-03  1.04803659e-01  1.36220410e-01
 -7.49277044e-03 -5.23702279e-02 -8.42061862e-02 -1.73708461e-02
  1.98653460e-01 -4.00783531e-02  2.38460042e-02  2.09820583e-01
 -1.83086898e-02  3.37896571e-02  3.24305557e-02 -2.19692588e-02
  1.31948888e-02  3.75363231e-03 -7.97290280e-02 -3.13398801e-02
 -2.02018395e-02 -6.68691546e-02  9.49811749e-03  7.74174109e-02
 -2.21932933e-01  8.99933875e-02  7.88735151e-02  2.32470054e-02
  7.93171749e-02  4.91758548e-02 -4.53289412e-02 -9.28588733e-02
  1.51199296e-01 -2.37449199e-01  2.50504076e-01  2.19533831e-01
 -8.36647023e-03  1.28543079e-01  4.60122302e-02  1.40136063e-01
 -8.18679407e-02  1.94910844e-03 -1.33212492e-01  4.19385724e-05
  3.96560840e-02 -1.80713218e-02  7.33827278e-02 -1.25208199e-02]