[-0.18098262  0.11152893  0.13868986  0.02616174 -0.04894728 -0.07686561
  0.03808114 -0.10011908  0.08520512 -0.0138871   0.31258735 -0.0350727
 -0.20479408 -0.15057401  0.04854862  0.09992033 -0.15278448 -0.0875781
 -0.03991454 -0.06361414  0.03068989 -0.05715983  0.05944696  0.0503162
 -0.10375651 -0.33658871 -0.08654886 -0.15247838  0.07285856 -0.05320751
 -0.06007142  0.09441224 -0.18354464 -0.08617762 -0.03133601  0.06811371
  0.02869816  0.01612795  0.18313421 -0.05722813 -0.15066651 -0.00246988
  0.01618917  0.26331434  0.22039714  0.0229451   0.02590077  0.02825946
  0.03546251 -0.16486213  0.02910327  0.11779324  0.13549896 -0.01892794
  0.05115141 -0.18417795 -0.04337853  0.00485293 -0.14701429  0.03241972
  0.010466   -0.11987585 -0.06571338 -0.04011827  0.18448818  0.09842195
 -0.04521592 -0.12947457  0.20556621 -0.12850611 -0.01289219  0.07583218
 -0.18512206 -0.14465068 -0.27625868  0.06563155  0.33916664  0.08952846
 -0.19665004  0.07175247 -0.09520491  0.00552905  0.05621485  0.04380742
 -0.06599908  0.06537309 -0.13471961  0.02397236  0.12336605 -0.03809398
 -0.03756978  0.19080874 -0.02461005  0.02589427  0.08357146 -0.05878373
  0.01961411 -0.00430007 -0.18860894 -0.00551077  0.04673779 -0.13761896
 -0.0147457   0.05192285 -0.21517503  0.00960971  0.02903362  0.01746708
 -0.05050931  0.00513237 -0.13162532 -0.00789771  0.16920964 -0.25165898
  0.22403084  0.22516151 -0.00750754  0.11704393  0.0937265   0.02707503
  0.01071987 -0.02580757 -0.10921774 -0.03771952  0.08934297 -0.05323642
  0.04612798  0.05288899]