[-7.76084438e-02  1.18679874e-01  9.64022204e-02  2.48755645e-02
 -2.53031384e-02 -1.63993854e-02 -1.09611927e-02 -1.81559160e-01
  1.12617351e-01 -7.00986311e-02  3.09950143e-01  1.94510724e-02
 -1.83045164e-01 -1.27228409e-01  2.69345045e-02  1.43664315e-01
 -1.87410042e-01 -1.08684972e-01 -6.21400736e-02  1.36038065e-02
 -3.81693505e-02 -3.55912708e-02  9.04345959e-02  4.28803898e-02
 -5.76580353e-02 -2.98537195e-01 -9.76684391e-02 -1.03021637e-01
  9.61702690e-02 -6.44917488e-02 -3.90209444e-02 -4.96228002e-02
 -2.14387462e-01 -2.14697514e-02  2.45846789e-02  6.71329126e-02
 -6.40043467e-02 -4.59562093e-02  2.37305045e-01 -2.64463276e-02
 -2.07663298e-01  2.86910571e-02 -1.64925016e-03  1.86061278e-01
  2.54351765e-01  1.80356409e-02  8.12376570e-03 -1.09632231e-01
  6.37686774e-02 -1.77769691e-01  3.81329954e-02  1.31195471e-01
  7.59041235e-02  3.88457850e-02 -3.39318328e-02 -1.57862529e-01
 -5.80243655e-02  1.10348724e-01 -1.09387234e-01  1.56159764e-02
  4.96715568e-02 -1.29343852e-01 -1.16357803e-02  1.81538854e-02
  1.99070379e-01  1.11705877e-01 -1.11808039e-01 -1.49941161e-01
  1.48128375e-01 -1.70538113e-01 -8.02275445e-03  1.15642704e-01
 -1.07277349e-01 -1.59092054e-01 -2.44069085e-01  1.12139499e-02
  4.49166298e-01  5.66736870e-02 -1.81563720e-01 -2.60316487e-02
 -1.39999509e-01 -3.94783122e-03  8.22123066e-02  1.18512750e-01
 -2.17916822e-04 -5.43881357e-02 -1.08979262e-01 -2.23918017e-02
  2.16634989e-01 -4.87197749e-02 -8.69972538e-03  1.77703440e-01
 -4.66681495e-02  5.40437102e-02  2.67632604e-02  1.24618830e-02
 -8.24150722e-03  2.30699778e-03 -1.09419622e-01 -5.02429493e-02
 -7.18492717e-02 -5.64984977e-02  2.00114828e-02  8.15230832e-02
 -1.77912027e-01  9.77221504e-02  5.15566245e-02 -2.24609766e-03
  8.01382065e-02  2.15942077e-02 -3.85136716e-02 -7.33587220e-02
  1.50328740e-01 -2.79319316e-01  2.84210205e-01  1.88939035e-01
 -1.16078621e-02  1.17759965e-01  5.28871529e-02  1.45797417e-01
 -4.03891578e-02 -3.28526311e-02 -1.24523059e-01 -2.77203061e-02
 -1.10567203e-02 -8.38706922e-03  1.02540098e-01 -2.94099655e-02]