[-1.76148877e-01  1.13123178e-01  9.58650187e-02 -3.26215080e-03
 -6.97917044e-02 -1.01751767e-01 -6.00184919e-03 -1.45422205e-01
  8.65639970e-02 -2.74735633e-02  2.64505148e-01 -6.60245195e-02
 -2.19800815e-01 -1.47681370e-01  3.14291306e-02  1.20498061e-01
 -1.23318329e-01 -1.05295517e-01 -5.14051877e-02 -3.89857143e-02
  5.29491017e-03 -3.55263501e-02  1.11429930e-01  8.60817060e-02
 -7.69550353e-02 -3.74845326e-01 -8.96007121e-02 -1.29422590e-01
  3.37733328e-02 -5.85790984e-02 -7.73737207e-02  5.69754504e-02
 -1.71062812e-01 -9.93740857e-02  2.11938331e-03  1.25265762e-01
  2.73067830e-03 -3.20646949e-02  1.97189555e-01 -6.70897365e-02
 -1.74338341e-01 -5.07473014e-02  3.41237485e-02  2.79996186e-01
  2.14202479e-01  2.23927703e-02  6.58072382e-02 -2.92977151e-02
  6.32252172e-02 -1.37680188e-01  9.55367833e-02  9.37964246e-02
  9.94776487e-02 -2.23943572e-02  5.44520281e-02 -1.40742198e-01
 -3.12247574e-02  1.01121046e-01 -1.21005110e-01  2.05479339e-02
  6.57696277e-02 -6.11155592e-02 -6.17487542e-02 -4.82455567e-02
  2.23954752e-01  1.09984808e-01 -6.87725544e-02 -1.25509560e-01
  1.57475695e-01 -1.50373980e-01 -4.37647887e-02  5.67410998e-02
 -1.74872622e-01 -1.55357942e-01 -2.75515079e-01  3.71608213e-02
  3.55635613e-01  9.70762894e-02 -2.07703218e-01  2.08121445e-02
 -6.78068325e-02 -8.89262557e-03  1.00223951e-01  8.36543590e-02
 -5.51718064e-02  7.83236101e-02 -1.54675558e-01  2.10275371e-02
  1.79920554e-01 -3.15893181e-02 -4.74273860e-02  1.89253911e-01
 -2.54483166e-04  1.30692217e-02  8.32480192e-02 -2.13365871e-02
 -2.37583891e-02  1.66340843e-02 -2.02589378e-01 -3.58676575e-02
  8.05666894e-02 -8.02748129e-02 -2.54606847e-02  6.34782836e-02
 -2.02736124e-01  5.28159924e-02  2.96812356e-02  2.10697036e-02
 -1.23912087e-02 -2.88828462e-02 -1.17913604e-01 -5.80198467e-02
  1.67252302e-01 -1.99777082e-01  1.68305382e-01  1.92854747e-01
  3.61346863e-02  1.32702425e-01  8.55657905e-02  4.82781157e-02
  3.85105237e-02 -2.44420432e-02 -1.22795038e-01 -2.06770953e-02
  1.09936692e-01 -1.15894517e-02  9.78086889e-02  4.68050912e-02]