[-1.43576548e-01  7.29267970e-02  1.29039094e-01 -5.08957803e-02
 -5.64838536e-02 -5.30141480e-02 -6.12394772e-02 -1.75732538e-01
  7.53023252e-02 -7.38730952e-02  1.91936120e-01 -5.93569688e-02
 -1.78820014e-01 -4.93978113e-02 -8.09889694e-04  2.14595824e-01
 -1.70420572e-01 -1.31451741e-01 -8.80939886e-02  3.25736627e-02
 -1.94996838e-02 -1.57174002e-02  4.17479686e-02  1.94127634e-02
 -1.08680859e-01 -3.36092532e-01 -1.06755950e-01 -6.01341836e-02
 -2.69254539e-02  3.61735821e-02 -1.28970847e-01  2.28223763e-02
 -1.72828421e-01 -4.83343862e-02  6.47815689e-02  1.13581412e-01
 -1.81078147e-02 -8.06042776e-02  1.43198133e-01 -1.45345991e-02
 -2.50807643e-01  5.76164015e-02  1.01765394e-01  2.09031388e-01
  2.55606771e-01  2.64718570e-02  4.21549529e-02 -1.11287132e-01
  1.22718610e-01 -1.98698834e-01  3.43845598e-02  7.37107769e-02
  6.56217337e-02  5.84494658e-02  2.76344474e-02 -1.58704922e-01
  2.05485839e-02  1.36659488e-01 -9.67013687e-02 -1.22336010e-02
  6.95105419e-02 -2.99556255e-02 -2.26964317e-02 -6.44490495e-02
  2.19181895e-01  1.52896225e-01 -1.19572520e-01 -1.62589118e-01
  1.26430735e-01 -9.91411507e-02 -3.49811614e-02  2.55720746e-02
 -1.89566061e-01 -1.50403664e-01 -2.74334282e-01 -3.87276076e-02
  3.68256539e-01  3.93955745e-02 -2.26944596e-01  3.58793885e-04
 -7.20971599e-02  2.61958595e-02  1.31118879e-01  1.22208022e-01
  2.35157367e-02 -2.67950166e-03 -6.65365830e-02 -4.79808860e-02
  2.82263726e-01 -6.54973537e-02  1.60283912e-02  1.92111671e-01
  1.16247600e-02  2.39216052e-02  9.79859661e-03  2.77767479e-02
 -3.52696627e-02  2.94984765e-02 -1.74471363e-01 -2.12765168e-02
 -1.98575743e-02 -5.54945832e-03 -1.75506547e-02  1.21145390e-01
 -2.19372943e-01  1.16820753e-01  4.67756391e-02  6.39059469e-02
  4.96568605e-02 -2.09999140e-02 -3.68685164e-02 -5.35609499e-02
  1.17843643e-01 -2.14068219e-01  1.74186870e-01  2.24052176e-01
  2.67044315e-03  6.49149641e-02  5.68658710e-02  4.92262654e-02
  1.73943792e-03  5.61117195e-02 -1.99105650e-01 -4.91362950e-03
  9.57198068e-02 -4.63857204e-02  2.57901102e-02  3.82211432e-02]