[-5.42065613e-02  6.93378076e-02  1.27976522e-01  1.54172424e-02
  4.93522128e-03 -2.35817730e-02 -2.49433834e-02 -1.74374565e-01
  1.30464420e-01 -1.16392590e-01  3.41190398e-01 -2.77750078e-03
 -1.73505530e-01 -1.37688145e-01  1.74184870e-02  1.86925530e-01
 -1.70717731e-01 -7.27750584e-02 -8.16036686e-02  6.74730539e-03
  2.45987321e-03 -2.99225505e-02  8.58631283e-02  1.23883045e-04
 -8.77207965e-02 -3.03905129e-01 -1.18017495e-01 -7.93438703e-02
  5.19769564e-02 -4.85236868e-02 -6.86184093e-02  4.50857468e-02
 -1.72970757e-01 -2.72754766e-02  7.01065967e-03  7.27115795e-02
 -3.19543295e-02 -4.80650030e-02  2.09717080e-01 -1.71657186e-02
 -1.98546723e-01  2.95881238e-02 -3.43758240e-02  2.09472641e-01
  2.19547853e-01 -7.41182035e-03  3.15062813e-02 -9.83770415e-02
  7.22295046e-02 -1.92836434e-01  2.17051767e-02  8.74181166e-02
  4.99270558e-02  5.54279350e-02 -3.84315625e-02 -1.45958588e-01
 -2.17730422e-02  9.97808501e-02 -9.86832902e-02 -1.93876680e-02
  4.65112440e-02 -1.59048527e-01 -4.30726483e-02  1.67045351e-02
  1.74951911e-01  1.35463506e-01 -9.17322040e-02 -1.65904820e-01
  1.43017054e-01 -1.19291261e-01  2.42775097e-03  7.19851628e-02
 -1.69160247e-01 -1.45179659e-01 -2.88089603e-01  5.16370696e-04
  4.21893746e-01  1.74757298e-02 -2.15861440e-01 -1.27969757e-02
 -1.07037880e-01  2.89603956e-02  1.31941140e-01  1.32901609e-01
  3.12549286e-02 -1.15520051e-02 -1.09704509e-01 -4.79006348e-03
  1.99766189e-01 -1.08853184e-01 -1.09451544e-02  2.08381459e-01
 -1.15371896e-02  5.46841621e-02  3.81971076e-02  6.30883127e-03
  2.70678829e-02  2.17558052e-02 -1.30673856e-01  1.93574277e-04
 -2.01778132e-02 -2.57990789e-02  1.10408932e-03  8.37385654e-02
 -1.64105877e-01  1.19602084e-01  5.28683662e-02  2.55138613e-02
  1.01975538e-01 -1.08398488e-02 -4.41275053e-02 -1.05199449e-01
  1.37044370e-01 -2.40456387e-01  1.79264978e-01  2.16863558e-01
  4.73846821e-03  1.20992124e-01  4.69425358e-02  1.53612047e-01
 -4.36579064e-02  3.32901115e-03 -1.69487640e-01  1.30772712e-02
  2.75686029e-02  2.74587758e-02  1.43669164e-02 -1.89645682e-02]