[-8.39602128e-02  6.48752376e-02  1.07963122e-01 -1.80954058e-02
 -1.08724095e-01 -6.23047650e-02 -5.37605397e-02 -1.96071461e-01
  9.71101671e-02 -1.00700572e-01  2.23122641e-01 -4.60673235e-02
 -1.62473559e-01 -6.47764653e-02 -4.23329435e-02  2.14132145e-01
 -1.77393392e-01 -1.32097870e-01 -7.09805787e-02  2.48481631e-02
  2.76578050e-02 -1.12206340e-02  3.88086028e-02 -1.05441380e-02
 -9.79101807e-02 -3.51083964e-01 -1.13398984e-01 -5.63924201e-02
  2.79703680e-02 -4.53383522e-03 -1.00381732e-01  6.66503236e-02
 -1.58484682e-01 -6.08098097e-02  4.97146808e-02  2.46759299e-02
 -1.64590310e-02 -7.62543976e-02  1.64284095e-01 -1.46981329e-02
 -2.91696459e-01  1.07226588e-01  6.81646243e-02  1.92776665e-01
  2.52952904e-01  4.76576481e-03  5.77018335e-02 -1.54706642e-01
  1.05273150e-01 -1.56984836e-01  9.95727908e-03  9.97937247e-02
  7.92662650e-02  3.46271470e-02  1.25476811e-02 -1.34004608e-01
 -1.95283201e-02  1.25699610e-01 -1.03804290e-01  5.30249113e-03
  1.15976058e-01 -5.49029894e-02 -3.31936032e-02 -7.27588460e-02
  1.56290397e-01  9.93451327e-02 -1.14004552e-01 -1.64578825e-01
  1.35694087e-01 -1.18786275e-01 -4.86292318e-02  2.27816980e-02
 -1.73817798e-01 -1.72796175e-01 -2.77353793e-01 -3.22844647e-02
  3.63139331e-01  5.80539517e-02 -2.18609199e-01  1.89829506e-02
 -5.37719429e-02  6.31238148e-02  1.37586519e-01  1.39281496e-01
  1.74429622e-02 -2.24758442e-02 -4.56726104e-02 -4.82842885e-02
  2.23153457e-01 -6.40208498e-02  2.68330262e-03  2.31883809e-01
  1.97275731e-04  3.62613983e-02  1.51096331e-02  5.75037263e-02
 -3.26046795e-02  3.89563255e-02 -1.31732985e-01  1.27435324e-03
 -7.14253285e-04 -2.71307230e-02  1.00933379e-02  1.23537041e-01
 -1.75069839e-01  1.23150207e-01 -3.58490646e-03  1.05341688e-01
  7.38129020e-02 -1.24949431e-02 -1.52119128e-02 -5.33792451e-02
  1.01320110e-01 -2.15905219e-01  1.87149420e-01  2.18318745e-01
 -5.90675650e-03  7.25030228e-02  8.35531130e-02  6.19632676e-02
 -1.11416383e-02  1.61765963e-02 -2.13817760e-01 -1.01030273e-02
  8.58755633e-02 -6.04215935e-02  1.79102104e-02  1.87963676e-02]