[-0.08958904  0.09352785  0.10135262 -0.08443918 -0.13945597 -0.03758205
 -0.01566719 -0.12375343  0.10989682 -0.12362289  0.19900456 -0.12093224
 -0.24769254 -0.03694674  0.03709786  0.21575323 -0.20037861 -0.20845039
 -0.05323208 -0.05156348  0.01216645  0.0377945  -0.00914742  0.04833792
 -0.14497644 -0.39311695 -0.09510586 -0.03853235 -0.00854342 -0.02900777
 -0.02738879  0.12953548 -0.14284356 -0.03325589  0.08931869  0.16855037
 -0.02758819 -0.1244925   0.1803645   0.02499082 -0.2706455   0.02563546
  0.13483979  0.26587948  0.22750865  0.01249912  0.01291378 -0.04967252
  0.14382602 -0.21156164  0.02580048  0.13690443  0.09548036  0.03233353
  0.12286418 -0.16917473 -0.00823497  0.10476033 -0.17290579 -0.07567763
  0.0596396  -0.08093917  0.02990647 -0.13720186  0.20184202  0.08867361
 -0.09694054 -0.09548061  0.22272344 -0.11187351 -0.08388039  0.03126016
 -0.17471546 -0.12302738 -0.27507448 -0.03557881  0.37046701  0.08433755
 -0.17788786  0.0414685   0.04688531 -0.00765376  0.08572732  0.16821475
  0.0118751   0.01389857 -0.08058862  0.01273519  0.20477083 -0.04241884
 -0.01613165  0.18459111 -0.00176124  0.03460022  0.08093652  0.00463619
 -0.09621249 -0.01263889 -0.21622589 -0.03505791 -0.04707705 -0.02814606
 -0.04632557  0.12765251 -0.15094411  0.10751917  0.02534317 -0.00914584
 -0.09162072 -0.01070484 -0.03293454 -0.0074459   0.11053671 -0.25198063
  0.10660046  0.16946319 -0.07681834  0.12970641  0.05443039  0.03996189
 -0.00187773 -0.05705402 -0.19653478 -0.08878598  0.07387947 -0.02148199
  0.05598902  0.04189156]