[-8.85006562e-02  1.05832674e-01  1.18383363e-01 -4.89589609e-02
 -1.55941293e-01  7.26928585e-04 -5.13118133e-03 -1.19832687e-01
  7.77133182e-02 -9.46550146e-02  2.18359306e-01 -9.43694934e-02
 -1.68744281e-01 -2.33640969e-02  2.22670170e-03  2.01800734e-01
 -1.76213726e-01 -1.38408288e-01 -4.81596403e-02 -5.91106527e-02
  2.40557492e-02  7.72978887e-02 -3.92956696e-02 -1.55892326e-02
 -9.29575786e-02 -3.51617247e-01 -6.42435029e-02 -6.00874536e-02
  9.35768113e-02 -3.59424576e-03 -3.54141146e-02  8.51175562e-02
 -1.26125142e-01 -2.65723411e-02  4.18434925e-02  8.93088728e-02
 -7.09199384e-02 -5.85232936e-02  1.65993378e-01  1.43461032e-02
 -2.63004512e-01  8.43432248e-02  5.96451126e-02  2.90902078e-01
  2.20869899e-01  4.75103669e-02  3.12902294e-02 -1.03539839e-01
  1.10928237e-01 -1.99143618e-01  5.41485064e-02  1.03084043e-01
  5.00236265e-02  4.26681004e-02  2.76819915e-02 -1.59766361e-01
  1.27825588e-02  5.04140444e-02 -1.81465998e-01  1.60102543e-04
  1.41624734e-01 -7.70890862e-02  3.85498218e-02 -6.25828654e-02
  2.13190913e-01  6.12248480e-02 -6.99170604e-02 -1.08229578e-01
  1.91845372e-01 -1.20288089e-01 -6.46666661e-02  3.82960141e-02
 -1.36810586e-01 -1.22183025e-01 -2.58793205e-01  2.15187855e-02
  4.69545573e-01  7.10822344e-02 -1.84315920e-01  5.39719779e-03
  1.11067230e-02  9.29211546e-03  2.28898630e-01  1.32205307e-01
 -6.36361539e-03 -6.45271838e-02 -9.63604972e-02 -3.96356499e-03
  2.43129283e-01 -7.65263066e-02 -4.12027203e-02  1.91766635e-01
  5.22922948e-02  2.55220868e-02  7.02139214e-02  6.35043383e-02
 -5.41938357e-02  3.80265005e-02 -1.62710518e-01 -2.33048405e-02
 -3.03625013e-03 -6.44783452e-02 -1.60194654e-02  1.40915453e-01
 -1.58943906e-01  2.27051407e-01  3.54075804e-02  4.66345027e-02
 -2.11164486e-02 -2.35327296e-02 -3.34193744e-02  8.00677668e-03
  1.54397175e-01 -1.85297564e-01  1.59511492e-01  1.70457348e-01
  1.39285473e-03  1.38118193e-01  8.78896192e-02  5.18159680e-02
 -2.00100560e-02 -5.11737652e-02 -2.32570335e-01 -5.20537756e-02
  6.99300915e-02 -4.31160703e-02  7.14661852e-02  8.48781690e-02]