[-1.37734488e-01  6.62416592e-02  9.07559097e-02 -1.57393347e-02
 -1.00029863e-01 -1.11537553e-01 -1.43934162e-02 -1.26748964e-01
  3.97377275e-02 -1.01004895e-02  2.78445810e-01 -2.59218365e-02
 -2.03563437e-01 -1.44875750e-01  5.03625385e-02  8.06978941e-02
 -1.07234813e-01 -6.33940473e-02 -1.06834225e-01 -1.87765490e-02
  6.69681747e-03 -4.67605107e-02  1.06533170e-01  5.40015511e-02
 -7.70915076e-02 -3.50620300e-01 -1.20784678e-01 -1.19188286e-01
  3.47434133e-02 -7.78362826e-02 -2.53095608e-02  6.30502030e-02
 -1.15362816e-01 -6.90157637e-02 -4.59863618e-03  7.89114833e-02
 -7.66957030e-02 -6.73937574e-02  2.72877306e-01 -4.33335528e-02
 -1.65901870e-01 -3.36786322e-02  3.76104303e-02  2.57638603e-01
  2.38933548e-01 -7.37485150e-03  6.45584017e-02  1.91972498e-02
  1.28747433e-01 -1.87040880e-01  8.91387239e-02  1.10342421e-01
  1.67407557e-01  4.96889744e-03  1.08694926e-01 -1.18412793e-01
  1.72679313e-02  1.42648458e-01 -2.17232332e-01  4.19811383e-02
  2.10632948e-04 -1.35123774e-01 -9.34087113e-02 -5.38397096e-02
  1.71931148e-01  1.90104395e-01 -5.10531366e-02 -1.20497502e-01
  1.85492888e-01 -1.57108992e-01 -4.76223044e-02  6.16328977e-02
 -1.81884483e-01 -1.75375104e-01 -2.64574647e-01  5.92783093e-03
  2.97286510e-01  1.10055685e-01 -2.01929212e-01  1.67500973e-02
 -1.13686873e-02 -3.89211476e-02  6.50705323e-02  4.64396067e-02
 -1.04781210e-01  3.51306796e-02 -1.18920289e-01  1.46695003e-02
  1.46105692e-01 -5.24000637e-02 -2.90655829e-02  2.21820861e-01
  2.06080880e-02  1.25365704e-02  1.13493465e-01 -6.59809560e-02
  1.45304874e-02 -1.23405010e-02 -1.59347773e-01  1.79582555e-02
  8.89215097e-02 -1.77977592e-01  1.53982714e-02 -2.74785538e-03
 -1.96816236e-01  6.27051815e-02  2.46651024e-02  3.40622813e-02
 -1.96816362e-02 -8.25736746e-02 -1.36470780e-01 -1.64695233e-02
  1.91961020e-01 -2.30095655e-01  2.13171348e-01  1.75732702e-01
 -7.17255194e-03  1.18652917e-01  7.40657672e-02  3.62635814e-02
  4.50575072e-03 -3.94303985e-02 -1.04192935e-01 -1.57678034e-02
  9.12381634e-02 -1.13111513e-03  6.37097433e-02  5.39736860e-02]