[-0.10212689  0.13471161  0.1325082   0.02523873 -0.0141324  -0.00889593
  0.00267199 -0.14113438  0.11657903 -0.07847372  0.32022214  0.02464124
 -0.18520901 -0.1551808   0.04957561  0.19392799 -0.15317465 -0.10292315
 -0.12449848  0.02266537 -0.02017942 -0.03436771  0.07606194 -0.01378073
 -0.06034691 -0.34572467 -0.08580761 -0.06086102  0.06286749 -0.07342402
 -0.03417635  0.01101836 -0.19812219 -0.03627593  0.03665987  0.10082635
 -0.04357561 -0.0160495   0.2150126  -0.01534745 -0.20832184  0.01648959
  0.02933854  0.1735907   0.27399221  0.02782384  0.0048545  -0.08947897
  0.08906153 -0.20807746  0.02173963  0.0908671   0.08570205  0.07120895
  0.00076862 -0.1570041  -0.03021663  0.0937404  -0.11269485 -0.03936617
  0.02106019 -0.17571895 -0.06697989  0.0327838   0.16695975  0.09116436
 -0.10184759 -0.13431357  0.14767541 -0.12101896  0.03104305  0.08139677
 -0.11620464 -0.131722   -0.28119442  0.01868537  0.41767439  0.04255148
 -0.20591259 -0.02971337 -0.10677084 -0.00209599  0.04234366  0.10314218
 -0.0258036  -0.04243306 -0.11627982 -0.00923743  0.17819157 -0.05515907
  0.03708922  0.20768176 -0.03045953  0.07656985  0.01431821  0.00828146
 -0.02235744 -0.02355638 -0.13540834 -0.08457196 -0.02982035 -0.04674929
  0.01749168  0.08017083 -0.19241832  0.10287616  0.0335436   0.03622539
  0.08522304 -0.00824369 -0.01943029 -0.07858549  0.12274267 -0.21311282
  0.20487161  0.21337982 -0.05304798  0.10681011  0.09665052  0.13595082
 -0.03651384 -0.01665976 -0.13640782 -0.00802653  0.01529973  0.00427862
  0.04680168 -0.02383272]