[-0.03381248  0.13355397  0.11511468 -0.04053259 -0.15603237  0.02481502
 -0.00116197 -0.10698892  0.15856317 -0.06883001  0.23376456 -0.10206927
 -0.17923264 -0.04079721 -0.00179204  0.21451549 -0.17013703 -0.09969418
 -0.01237498 -0.06312271  0.0540315   0.05657116  0.00370598  0.03548626
 -0.15495069 -0.33732316 -0.06085867 -0.05330168  0.05572066 -0.11010738
 -0.0489836   0.10869723 -0.12872601 -0.03528925  0.05439022  0.09972636
 -0.08257627 -0.09630328  0.16092987  0.07231599 -0.23946936  0.07243287
  0.03199808  0.27432278  0.24944301  0.02717287  0.03290461 -0.12591921
  0.16252375 -0.17348394  0.02075239  0.11797848  0.05578009  0.00083663
  0.07105441 -0.11929458 -0.04688858  0.12485199 -0.18197356  0.00670706
  0.10688104 -0.0618297   0.01725267 -0.07913958  0.18169454  0.08668029
 -0.07660974 -0.13230614  0.18423502 -0.11228389 -0.08457093  0.08602987
 -0.12654214 -0.15554473 -0.23318951 -0.00399916  0.41424212  0.05757347
 -0.21368806 -0.01113395  0.00815609  0.01977629  0.18345286  0.16687405
  0.01697877 -0.04806091 -0.08048819 -0.03734409  0.23369761 -0.07373541
 -0.02873709  0.24125674  0.01134985  0.02228033  0.03720532 -0.00087436
 -0.10477185  0.05738848 -0.15644799 -0.1119866  -0.0118802  -0.0391862
 -0.01575192  0.12945928 -0.19291513  0.17401572  0.01619488  0.03634722
 -0.00548253 -0.05013455 -0.06474056  0.01319114  0.16705178 -0.26440153
  0.13526057  0.14684811 -0.02592492  0.09544639  0.07920074  0.05929276
  0.02301569 -0.05948893 -0.16780141 -0.01796669  0.0765292  -0.06328709
  0.0436058  -0.01141575]