[-0.13506627  0.06024903  0.08454932 -0.0253826  -0.09578148 -0.07121497
 -0.00154352 -0.12289176  0.06504912 -0.03005032  0.29267293 -0.02678166
 -0.21368049 -0.1569268   0.08889691  0.10040414 -0.09539838 -0.09538456
 -0.09512696 -0.00890778 -0.00165836 -0.03902117  0.09799667  0.03748335
 -0.09619566 -0.38400415 -0.11416832 -0.11781593  0.01009729 -0.06101438
 -0.04409439  0.09052626 -0.11867081 -0.0618803   0.00321563  0.09403702
 -0.04194568 -0.06067207  0.24928498 -0.03794253 -0.19080819 -0.03931516
  0.03342214  0.25172615  0.2320839  -0.02812528  0.0966645   0.004224
  0.08639973 -0.14558804  0.07517844  0.09833188  0.15147547 -0.00568122
  0.05761318 -0.13408981 -0.00843251  0.12492505 -0.1779146   0.02392089
  0.04103154 -0.14739566 -0.10401908 -0.06313287  0.20644061  0.16396798
 -0.08717038 -0.13671677  0.15388423 -0.13298938 -0.06383498  0.03178828
 -0.23029721 -0.15111665 -0.3174611   0.00731488  0.30103946  0.06373028
 -0.21142165  0.01460827 -0.03429101  0.00724538  0.05149405  0.09886345
 -0.09179     0.04663563 -0.11931273  0.02032402  0.15577912 -0.0401158
 -0.03612335  0.19347042 -0.00362186  0.02800801  0.09306641 -0.02445353
  0.02087244 -0.02701214 -0.13685118  0.02619813  0.06173852 -0.16889898
  0.01415778  0.05338332 -0.21516971  0.07493539  0.00830866  0.05885025
  0.00668642 -0.06612325 -0.09501486 -0.03603347  0.17022692 -0.22248057
  0.15961532  0.19599609  0.01164116  0.12442029  0.08678988  0.06229337
 -0.02553732  0.00243599 -0.16237222  0.00855506  0.07191112  0.01242644
  0.0728152   0.06950267]