[-5.87106720e-02  9.83721912e-02  1.03844061e-01  5.91296516e-02
 -1.19647672e-02 -2.56655347e-02 -4.60594483e-02 -2.01859668e-01
  1.10509254e-01 -8.20593759e-02  3.18606913e-01 -2.40926426e-02
 -1.90925002e-01 -1.30841956e-01  6.88060001e-03  2.06891403e-01
 -2.04267174e-01 -9.95230898e-02 -7.38297626e-02  6.28431374e-03
  3.25926405e-04 -4.40296344e-02  7.01879933e-02  1.42189953e-02
 -6.06982596e-02 -3.17402035e-01 -1.08590081e-01 -8.31453204e-02
  9.88878459e-02 -7.27704242e-02 -7.06758574e-02 -2.80442033e-02
 -1.80828363e-01 -1.92540493e-02  4.86404970e-02  5.92341311e-02
 -9.43613332e-03 -6.27539456e-02  2.17170194e-01 -5.26905134e-02
 -1.94394991e-01  3.39462571e-02  2.91231181e-02  1.70909390e-01
  2.49190286e-01  4.10654135e-02  1.41649842e-02 -1.24861196e-01
  1.05301023e-01 -1.89259872e-01  2.51528565e-02  9.38900635e-02
  6.70190901e-02  4.88484912e-02 -2.75420994e-02 -1.59500048e-01
 -4.55084145e-02  1.03852727e-01 -1.26926616e-01  2.38209255e-02
  8.45311284e-02 -1.56245187e-01 -2.81568058e-02  1.54711073e-02
  1.84985310e-01  1.02512084e-01 -1.06254593e-01 -1.70028359e-01
  1.06260061e-01 -1.77450344e-01  1.73226669e-02  6.30351529e-02
 -1.11320496e-01 -1.50230035e-01 -2.97821283e-01 -2.05285680e-02
  4.33860987e-01  3.31358127e-02 -1.94851652e-01  2.42655305e-03
 -7.67717510e-02  4.89933556e-03  1.11852609e-01  1.08180061e-01
  6.25270605e-03 -3.96332592e-02 -1.34494662e-01 -2.55690850e-02
  2.38325030e-01 -7.83810243e-02  3.23188752e-02  2.08556220e-01
 -6.98547885e-02  5.27298264e-02  1.78572442e-02  3.00729070e-02
 -2.64876485e-02 -9.58074164e-03 -8.44026729e-02 -4.06219698e-02
 -4.41513285e-02 -3.77494060e-02  3.86834927e-02  5.23967221e-02
 -1.66343614e-01  8.48321766e-02  5.99987945e-03  3.94487865e-02
  8.29463750e-02 -1.63331665e-02 -6.20953627e-02 -7.45644495e-02
  1.59371868e-01 -2.46923283e-01  2.30316788e-01  1.88738421e-01
  5.36693819e-03  1.05492391e-01  4.76681665e-02  1.58438936e-01
 -5.19584790e-02 -2.74481415e-03 -1.31878644e-01 -1.13092652e-02
 -4.05621482e-03 -1.83163118e-02  7.99555853e-02 -2.61789449e-02]