[-0.08560207  0.04766976  0.08200844 -0.02610052 -0.09428263 -0.05590063
 -0.01205268 -0.12713008  0.04512592 -0.02515639  0.29441154 -0.01566811
 -0.22247438 -0.13504671  0.09185807  0.0853399  -0.10671387 -0.10864507
 -0.07299027 -0.0368902  -0.01051857 -0.04968015  0.08778823  0.02242319
 -0.11899585 -0.32561299 -0.12224294 -0.09883761  0.04503955 -0.0867219
 -0.03161029  0.06855827 -0.12517889 -0.03937009  0.01755039  0.06795461
 -0.05784728 -0.11270509  0.27932993 -0.03452623 -0.17027031 -0.02091143
  0.02498911  0.249384    0.20782331 -0.0281834   0.08447298 -0.00366074
  0.09852822 -0.14728823  0.10410646  0.10570631  0.16817696  0.00740492
  0.02776346 -0.16500776 -0.00683942  0.122904   -0.18677972  0.05246481
  0.03694415 -0.16949759 -0.07327612 -0.08573108  0.19207922  0.15367369
 -0.08423275 -0.15177687  0.16180219 -0.12234974 -0.07677518  0.03095766
 -0.20599101 -0.15485804 -0.30463549  0.01268149  0.26859429  0.07067721
 -0.22899686  0.01180045 -0.02344406 -0.00570956  0.03817805  0.10428387
 -0.08238268  0.02603729 -0.12021893  0.00237929  0.19290836 -0.06444881
 -0.06046858  0.18976782 -0.00731688  0.02544052  0.09534647 -0.01915485
  0.00228788 -0.01404202 -0.12207667  0.03881826  0.04582952 -0.18406931
  0.00605656  0.06644301 -0.21234325  0.10495521  0.01711703  0.02584405
 -0.01215078 -0.07252224 -0.11404355 -0.03105997  0.18080813 -0.26299658
  0.19758424  0.20563304  0.05196368  0.14176187  0.08997906  0.07050373
 -0.0094069  -0.00286549 -0.1585563  -0.02066088  0.05573614  0.01486257
  0.07385144  0.09370136]