[-0.09672185  0.08970947  0.10796268  0.02696016 -0.08251661 -0.04643399
 -0.02443666 -0.14839031  0.06589781 -0.02890508  0.3044208  -0.06461036
 -0.22732727 -0.10169026  0.03840388  0.11042112 -0.10477527 -0.08049175
 -0.05937118  0.01618858  0.0226473  -0.07535656  0.09352046  0.01570215
 -0.06203246 -0.35367581 -0.10213514 -0.11426017  0.07131837 -0.06401052
 -0.07760144  0.06181249 -0.13547078 -0.05838917 -0.00744742  0.05056049
 -0.04283328 -0.08270271  0.24467924 -0.03823726 -0.17766538 -0.03832047
 -0.00534689  0.23492482  0.23286639  0.01815764  0.06432218 -0.05194373
  0.06872354 -0.17309032  0.08262905  0.09611312  0.14072399  0.00081482
  0.04145169 -0.16108577 -0.00848735  0.06882081 -0.16526072  0.02832369
  0.06568461 -0.08920176 -0.08556773 -0.09066661  0.20241992  0.15482555
 -0.0683519  -0.13351637  0.13513017 -0.14513914 -0.05653908  0.03126929
 -0.19022976 -0.16966452 -0.29515779 -0.00177701  0.31267568  0.0956332
 -0.23606932  0.00721617 -0.00746518 -0.00446209  0.1116953   0.10381583
 -0.05973407  0.02813491 -0.10542983 -0.03008841  0.15960915 -0.08886465
 -0.04376991  0.19901997 -0.03206159  0.02459712  0.07050566 -0.03367953
  0.02185675  0.01011302 -0.15965898 -0.00539683  0.04608572 -0.10555808
 -0.00116661  0.05387173 -0.20638783  0.05193099  0.0060191   0.04309115
  0.03641919 -0.09545233 -0.12789245 -0.03600413  0.18734437 -0.23448864
  0.16468111  0.19367464  0.02655337  0.10032485  0.10495327  0.07287162
  0.02012716  0.01536308 -0.17545657 -0.00112255  0.08228391 -0.00782561
  0.02862278  0.03702171]