[-0.12620835  0.08177859  0.09154967 -0.08085062 -0.10089562 -0.03196084
 -0.04630241 -0.15330821  0.10240274 -0.10869285  0.19562483 -0.06996482
 -0.2069162  -0.04694406 -0.01111825  0.19666144 -0.15132521 -0.13102567
 -0.07263596  0.01746478 -0.01269431  0.02206138  0.00618913  0.01451365
 -0.11228549 -0.36809477 -0.06711909 -0.01028541 -0.05628512  0.01978387
 -0.10127472  0.11267761 -0.17228799 -0.04676858  0.05391935  0.13026676
 -0.02275686 -0.07887866  0.13923018  0.01830467 -0.27516577  0.06766026
  0.07448116  0.23269859  0.2460566  -0.00605137  0.03211598 -0.13515817
  0.14723244 -0.161484   -0.00355005  0.11166932  0.05345153  0.01928583
  0.02142634 -0.15862289  0.00801327  0.09462232 -0.08951465 -0.07503495
  0.0878073  -0.06079037 -0.01227242 -0.12533735  0.18773085  0.10158892
 -0.10078704 -0.15111108  0.15681945 -0.08294394 -0.04851694  0.0204495
 -0.18789005 -0.15254687 -0.26539573 -0.01288017  0.32942328  0.06530552
 -0.19801785  0.03138817 -0.050729    0.03826056  0.13325311  0.13824557
  0.01694185  0.00182448 -0.05217565 -0.02755432  0.2660943  -0.04009465
 -0.01840609  0.18482229  0.0111661   0.02983917  0.04661222  0.01401702
 -0.06709359  0.05159404 -0.18170588  0.0035128  -0.00083451 -0.06587721
 -0.00589764  0.14388852 -0.20793985  0.14475444  0.02570985  0.08491759
  0.0584294  -0.02100541 -0.0279448  -0.03290444  0.10592326 -0.21036518
  0.17111687  0.16917764  0.01169402  0.10816971  0.09970415  0.06580912
 -0.02351243  0.03831309 -0.21344562 -0.03823717  0.10282584 -0.02564642
  0.06417222  0.0387578 ]