[-0.12893176  0.06166931  0.06793656  0.00066406 -0.08161008 -0.07562989
 -0.02559557 -0.12674944  0.0511306  -0.00741823  0.29768366 -0.06665652
 -0.20234986 -0.13171206  0.04610904  0.11034738 -0.10952806 -0.08081825
 -0.09814667 -0.02134815 -0.0092733  -0.07287068  0.10762931  0.0408108
 -0.08729448 -0.36240521 -0.11763412 -0.13297066  0.05300964 -0.06210987
 -0.06963878  0.09295912 -0.13137981 -0.0739971   0.0084823   0.09410581
 -0.04029731 -0.07239871  0.25220805 -0.04344688 -0.15547009 -0.02503343
  0.02532795  0.24740501  0.22479606  0.01105853  0.07351553  0.00490435
  0.10342832 -0.1692283   0.08828322  0.08987822  0.16585173 -0.00671861
  0.0826015  -0.10946355  0.0095212   0.10786557 -0.18556277  0.02622145
  0.02318545 -0.10664222 -0.10190276 -0.09215503  0.1909551   0.18679844
 -0.06245822 -0.12048616  0.16244413 -0.13763016 -0.04987495  0.04988913
 -0.18391989 -0.16523694 -0.29722711  0.00683559  0.32833669  0.10015815
 -0.21718274  0.02646799  0.01936767 -0.03909143  0.08086281  0.08880993
 -0.09607323  0.04955787 -0.11792888 -0.00219126  0.15952976 -0.05847161
 -0.04282543  0.19184187 -0.01581405  0.04222284  0.09331834 -0.03411825
  0.02325626 -0.02220986 -0.14030452  0.01253057  0.07740084 -0.12878579
 -0.01447959  0.01560639 -0.16983311  0.04163433 -0.00198628  0.04571118
 -0.00663139 -0.07092004 -0.10158042 -0.02858579  0.17114274 -0.24208279
  0.14122547  0.18034883 -0.01757978  0.10246976  0.08327841  0.05345599
  0.00979943  0.00365595 -0.15873604 -0.02934628  0.09071008 -0.00048431
  0.04730508  0.05463111]