[-0.10973668  0.04676835  0.11149149 -0.01745647 -0.11495238 -0.04740622
 -0.01865364 -0.07612463  0.03995537 -0.06772468  0.26236963 -0.04046224
 -0.24565358 -0.11059009  0.0831027   0.08440231 -0.09294862 -0.09113844
 -0.0912657  -0.00807125  0.01740405 -0.02453134  0.09000616  0.00862328
 -0.1197223  -0.3823649  -0.11264793 -0.07457347 -0.00488043 -0.09187207
 -0.06895401  0.09691745 -0.13651349 -0.05648738 -0.00095455  0.07404685
 -0.06495684 -0.078707    0.25384435 -0.03044414 -0.189155   -0.03539013
  0.03816715  0.23504224  0.20173021 -0.01864202  0.06926296 -0.00530094
  0.09040824 -0.19705914  0.0993833   0.14215447  0.14103493  0.02597873
  0.07912382 -0.11593544 -0.00269332  0.15099815 -0.16744463  0.05493264
  0.02271179 -0.15848462 -0.06576703 -0.10647281  0.16204886  0.13944097
 -0.05894149 -0.15972953  0.13642257 -0.11696561 -0.0922304   0.04410052
 -0.1965832  -0.18816589 -0.30729458  0.0211795   0.25900251  0.12476704
 -0.2076968   0.04166114 -0.03320476 -0.05034518  0.04689483  0.0852499
 -0.06688865  0.03905012 -0.10118423  0.04138078  0.17838331 -0.06033629
 -0.04882319  0.18914168 -0.00235649  0.01931253  0.09364095 -0.03512958
 -0.02046097 -0.01928073 -0.16599981  0.0155334   0.06555858 -0.18391858
 -0.01937081  0.05583353 -0.21581642  0.09607975 -0.00984339  0.00148401
 -0.00997933 -0.0884681  -0.13449983 -0.00661824  0.16234969 -0.25438085
  0.18313347  0.20047756  0.02656784  0.14739758  0.10839593  0.05502837
  0.00078124 -0.01043786 -0.15537713 -0.04255228  0.11373688  0.04096866
  0.06976669  0.06414352]