[-8.84060189e-02  1.22707263e-01  1.51316300e-01 -4.44491915e-02
 -1.81282610e-01  1.47914430e-02 -2.15621032e-02 -1.01123370e-01
  8.96424204e-02 -7.71239325e-02  2.46600613e-01 -6.86965361e-02
 -2.10382417e-01  4.40200791e-04  5.97811886e-04  2.29328066e-01
 -1.91269353e-01 -1.44941613e-01 -4.89019640e-02 -7.11174831e-02
  1.75604057e-02  8.50230530e-02 -3.32733020e-02 -4.86930124e-02
 -1.00677207e-01 -3.90983552e-01 -5.77021018e-02 -5.18732481e-02
  6.52657598e-02 -3.96774299e-02 -4.34769839e-02  9.38176736e-02
 -1.31528869e-01 -1.51045471e-02  7.55089298e-02  1.02059104e-01
 -8.03806707e-02 -7.49583468e-02  1.74483344e-01  6.70376495e-02
 -2.64861941e-01  8.19146559e-02  4.67707030e-02  2.91500390e-01
  2.55384684e-01  2.90551037e-02  2.92866211e-02 -9.78934541e-02
  1.03398465e-01 -2.17891365e-01  3.01680993e-02  1.49379179e-01
  4.24179249e-02  4.90537733e-02  3.82423736e-02 -1.46411017e-01
 -1.91666074e-02  5.07009104e-02 -1.88634887e-01 -3.21056619e-02
  1.46217003e-01 -9.70395431e-02  3.12767401e-02 -8.50591660e-02
  2.09816098e-01  7.77247548e-02 -8.48589912e-02 -1.28784344e-01
  1.87725514e-01 -1.02109648e-01 -8.11971202e-02  2.43327804e-02
 -1.63430184e-01 -1.27191275e-01 -2.46944189e-01  1.71032902e-02
  4.59125191e-01  5.54823577e-02 -1.98806509e-01 -1.12370150e-02
 -1.86013784e-02 -8.36783741e-03  1.78658649e-01  1.24714337e-01
  1.97311472e-02 -5.61252423e-02 -8.84714797e-02 -7.95153435e-03
  2.50062734e-01 -9.25047025e-02 -3.33618894e-02  2.01469779e-01
  1.63558647e-02  2.78707147e-02  7.19306171e-02  6.37520850e-02
 -7.53553882e-02  1.54184615e-02 -1.81325510e-01 -7.58243054e-02
 -4.68365960e-02 -7.54605830e-02 -1.77623965e-02  1.41730517e-01
 -1.64474234e-01  1.99129105e-01  2.10423768e-02  3.52521352e-02
 -4.57609296e-02 -4.46066707e-02 -3.99401709e-02  4.91939066e-03
  1.66106835e-01 -2.02289134e-01  1.91006288e-01  1.94960535e-01
 -1.91348772e-02  1.22786261e-01  9.15011093e-02  3.73811573e-02
 -3.23001221e-02 -5.60582653e-02 -2.00242996e-01 -6.73463643e-02
  3.53462882e-02 -1.16081750e-02  4.79024723e-02  5.43857180e-02]