[-1.55391738e-01  8.34663436e-02  6.01977184e-02 -2.60750558e-02
 -7.91219249e-02 -7.12423325e-02 -2.09552399e-03 -1.43886715e-01
  9.07663926e-02 -4.20256816e-02  2.61915237e-01 -5.93574755e-02
 -1.97878167e-01 -1.29738837e-01  3.26387659e-02  1.23426259e-01
 -1.80531219e-01 -9.56435576e-02 -5.91556802e-02 -4.73099425e-02
 -4.46262723e-03 -9.66140851e-02  7.34253898e-02  5.70102520e-02
 -7.88688138e-02 -3.27105254e-01 -1.00785449e-01 -1.26078174e-01
  3.28353345e-02 -5.77356182e-02 -3.70677672e-02  6.03892803e-02
 -1.91684663e-01 -5.77382743e-02 -7.50176609e-03  9.33605209e-02
 -2.80768033e-02 -7.78162573e-03  2.07337841e-01 -8.61022621e-02
 -1.74888209e-01 -6.78511858e-02  5.13949580e-02  2.09121615e-01
  2.56834716e-01  4.16473709e-02  9.79749858e-03 -1.83910485e-02
  7.86721110e-02 -1.74318939e-01  4.06635515e-02  1.19659580e-01
  7.41802678e-02 -1.79943386e-02  5.89186549e-02 -1.43425986e-01
 -1.27452435e-02  6.90197572e-02 -1.48774549e-01 -2.50907778e-03
  4.30273823e-02 -1.34082243e-01 -5.43549731e-02 -5.10357581e-02
  2.05932885e-01  1.26226410e-01 -5.41447476e-02 -1.47469237e-01
  1.92778811e-01 -1.72680333e-01 -2.13717315e-02  6.79213703e-02
 -1.50538445e-01 -1.80028901e-01 -3.28418016e-01 -4.47939662e-03
  3.49068373e-01  1.18264847e-01 -1.29705116e-01  3.88282128e-02
 -5.04385307e-02 -3.18995975e-02  9.31412950e-02  5.34638055e-02
 -8.30869079e-02  5.13460301e-02 -1.39157921e-01  2.77855881e-02
  1.69715226e-01 -4.92919944e-02 -3.12963538e-02  1.60917804e-01
 -5.86881451e-02  1.53160887e-02  5.52328341e-02 -2.47042291e-02
 -9.24496353e-03  7.79330730e-04 -1.95146859e-01 -1.37247173e-02
  4.24425863e-02 -1.05412878e-01  1.12133576e-02  7.52511173e-02
 -1.74744070e-01 -4.62481767e-05 -6.12120843e-03  1.10356696e-03
 -8.43976960e-02 -5.01181781e-02 -1.36205301e-01 -2.07182057e-02
  1.74378380e-01 -2.23347336e-01  1.91321597e-01  1.97254881e-01
 -2.86322273e-03  1.08770728e-01  9.81617868e-02  4.40988131e-02
 -1.50462827e-02 -4.43291478e-02 -1.34416416e-01 -1.07901655e-02
  6.70312047e-02 -6.33781636e-03  1.08536385e-01  4.10564914e-02]