[-0.1358577   0.09625781  0.09749933 -0.05597242 -0.05407621 -0.04759793
 -0.06809069 -0.17188077  0.0973477  -0.08241724  0.20081516 -0.0275844
 -0.18070129 -0.06028598 -0.01265911  0.21726505 -0.16371763 -0.13538647
 -0.07848977  0.03612845 -0.00343296 -0.00983795  0.05361697  0.02779522
 -0.12979925 -0.34277263 -0.08243357 -0.04356975 -0.0399093   0.0026577
 -0.11717273  0.02886567 -0.18530314 -0.04285138  0.06556167  0.12358703
 -0.02084576 -0.08663058  0.15980171 -0.01103502 -0.25039309  0.05657983
  0.08637279  0.21577123  0.23280512 -0.00141251  0.06315827 -0.1470596
  0.13583259 -0.16958919  0.04380104  0.06375728  0.07234704  0.04729995
  0.03031541 -0.16507794  0.02015797  0.13781862 -0.09799901 -0.01934796
  0.08300523 -0.01859609 -0.03192013 -0.08643865  0.20091692  0.13964219
 -0.11743759 -0.18616417  0.11999109 -0.09352014 -0.03443167  0.04047239
 -0.16566037 -0.16989928 -0.27494037 -0.03440061  0.31813809  0.0691171
 -0.23363887 -0.00534312 -0.05045385  0.02629269  0.12554839  0.12670448
  0.01300822  0.01560768 -0.07413828 -0.02642036  0.27684116 -0.0377763
 -0.0054551   0.192425    0.01266466  0.02613663  0.00752115  0.03450453
 -0.07649031  0.06232948 -0.16819878 -0.00948203 -0.00530762  0.00044597
 -0.00909721  0.13993393 -0.19669752  0.12943789  0.01313769  0.07154756
  0.05190951 -0.009872   -0.053263   -0.06143869  0.09826218 -0.20920287
  0.17816558  0.1989058   0.01315228  0.06939714  0.07717957  0.05902643
  0.00426115  0.05900621 -0.22343341  0.00138337  0.09977826 -0.05787772
  0.05683678  0.02651851]