[-0.08221402  0.12804523  0.12938505  0.00212603  0.00054106 -0.00959595
 -0.00087284 -0.16709624  0.11356485 -0.09560092  0.33177531  0.00146602
 -0.18473962 -0.1769529   0.02076805  0.19307745 -0.16268833 -0.11215978
 -0.11214083  0.02119852 -0.01333275 -0.03069816  0.06764036 -0.00884768
 -0.06007049 -0.36232385 -0.0697868  -0.07727695  0.03541872 -0.0455168
 -0.04608254  0.03724725 -0.18788582 -0.02957017  0.03328503  0.1012759
 -0.04236049 -0.0121488   0.2083402  -0.0030448  -0.2010674  -0.00159792
  0.02071718  0.19911276  0.26547942  0.02290874  0.00491013 -0.091519
  0.08557363 -0.21290997  0.01929154  0.0905374   0.08724326  0.05525773
  0.02065734 -0.14636603 -0.01079628  0.06169145 -0.10424656 -0.04193054
  0.0368924  -0.18351324 -0.06669194  0.01147204  0.20231588  0.09199581
 -0.10020804 -0.11754935  0.15378609 -0.11659721  0.00710572  0.0572063
 -0.12082646 -0.12288769 -0.28273174  0.00965734  0.41728115  0.05967443
 -0.23269057 -0.03086422 -0.09778544  0.0113759   0.1035913   0.11264572
 -0.01906412 -0.02807668 -0.12222538 -0.02845841  0.17848253 -0.06158227
  0.01418402  0.211447   -0.04430887  0.07215565  0.03453387 -0.02786207
 -0.01758168  0.00361041 -0.1468484  -0.06137631 -0.01556386 -0.04349312
  0.01201168  0.08711302 -0.17891698  0.08440778  0.02293979  0.03714425
  0.10526469 -0.02337938 -0.03700586 -0.09504315  0.12556158 -0.20587485
  0.18775992  0.19724976 -0.02540188  0.10733365  0.10257778  0.12808345
 -0.04035986 -0.01613589 -0.16053532 -0.00515107  0.03484447 -0.00434066
  0.04820484 -0.03355578]