[-0.10686897  0.05743245  0.13541496 -0.03226878 -0.1145935  -0.08985596
 -0.04519654 -0.18002848  0.10891582 -0.09011886  0.22062626 -0.02590319
 -0.17160818 -0.08446022 -0.03817829  0.22615567 -0.2062407  -0.14046368
 -0.06926204  0.01549353  0.02244175  0.01975832  0.05644575 -0.02218431
 -0.12523165 -0.37641081 -0.10568777 -0.04498842  0.00922876 -0.00338463
 -0.11329912  0.07822146 -0.16134389 -0.06009193  0.0767361   0.0793208
 -0.01826116 -0.08989213  0.14110513 -0.0012055  -0.30563724  0.10106911
  0.07089148  0.20349105  0.26799884  0.00790318  0.04191009 -0.15346366
  0.1404478  -0.17545199  0.00779382  0.09804099  0.04823418  0.02739785
  0.02756962 -0.11096231 -0.00843756  0.11686047 -0.1241795  -0.06544202
  0.10791705 -0.07706448 -0.0398936  -0.07745732  0.13616493  0.10206785
 -0.11070684 -0.16754191  0.12511176 -0.12990509 -0.05689477  0.0265889
 -0.16640371 -0.14996436 -0.28646699 -0.03555968  0.38304806  0.04345033
 -0.20066932  0.02586446 -0.04325844  0.05913527  0.13423033  0.14699581
  0.01247586  0.01646681 -0.0754376  -0.03112137  0.22096737 -0.07566912
  0.00660829  0.21978565  0.01763862  0.0626156   0.03856957  0.0537076
 -0.05055112  0.04647706 -0.1486918  -0.01167612  0.02661852  0.0033183
  0.0044403   0.11903621 -0.15974095  0.12797546  0.00573608  0.08200904
  0.07073773 -0.05080624  0.00229899 -0.06619568  0.06473532 -0.22292435
  0.17443691  0.21648364 -0.02187313  0.09165581  0.0647084   0.03552118
 -0.03259651  0.01442351 -0.19411074 -0.01832926  0.0976431  -0.04467842
  0.03567789 -0.0033357 ]