[-0.18632762  0.07420724  0.08340527 -0.02256672 -0.09425863 -0.0981501
  0.05465725 -0.13192266  0.12177005 -0.03867586  0.2956208  -0.01505913
 -0.23029995 -0.17518896  0.04075457  0.12309662 -0.1090702  -0.09731444
 -0.05437542 -0.03791346  0.03496445 -0.07138531  0.07702153  0.07106797
 -0.09620454 -0.35522383 -0.09571025 -0.11123937  0.01566838 -0.04816219
 -0.03589538  0.11374878 -0.15624525 -0.09819563 -0.00905704  0.15431051
 -0.01847021 -0.00442671  0.20404676 -0.08175299 -0.1805384  -0.03051038
  0.03960404  0.24484661  0.21547739 -0.00160355  0.07272322 -0.02149276
  0.07915272 -0.18725422  0.03511516  0.10308792  0.10252897 -0.03469932
  0.08488093 -0.16084304 -0.0123935   0.08713388 -0.15160458  0.0164685
  0.00783678 -0.1216168  -0.05523147 -0.01948445  0.20899515  0.11303816
 -0.0685768  -0.10726651  0.21076503 -0.15066986 -0.03213298  0.05957517
 -0.19577996 -0.17125909 -0.32008168  0.03912031  0.39452916  0.09079609
 -0.1711591   0.06773029 -0.08228617  0.00171261  0.08188266  0.06808348
 -0.06739369  0.04610924 -0.17605101  0.03770445  0.16655593 -0.04093664
 -0.02703807  0.20632386  0.01558041  0.06430185  0.07752307 -0.02742015
 -0.00344816 -0.00224662 -0.19046755 -0.00901486  0.07589772 -0.13043164
  0.01788176  0.07181374 -0.19831775  0.01087376  0.0148432   0.03821827
 -0.03692953 -0.01863884 -0.12433951 -0.03565456  0.14649592 -0.21852925
  0.20333961  0.20720036 -0.01436377  0.11887663  0.10953206  0.02446962
  0.02676762 -0.04656283 -0.10829612  0.00621961  0.07795087 -0.02637514
  0.07719336  0.05883371]