[-0.11026591  0.13698609  0.10884511  0.03054581 -0.01739944 -0.03381119
 -0.01294737 -0.15914425  0.12815884 -0.06762536  0.32532096  0.00280353
 -0.16184627 -0.16611187  0.06243602  0.1789137  -0.2186363  -0.07213998
 -0.11614281  0.01549526 -0.02960745 -0.02811395  0.07880403  0.050629
 -0.07098255 -0.35254931 -0.08444176 -0.13592994  0.08152782 -0.06228215
 -0.04883001 -0.03885002 -0.16659175 -0.06015366  0.00106489  0.02835839
 -0.03791417 -0.03558956  0.22633921 -0.02482887 -0.21426697  0.03706556
 -0.00540335  0.19500969  0.25016794  0.01593976  0.03089298 -0.1037572
  0.08653281 -0.15738438  0.03754399  0.10833643  0.09696814  0.04611321
  0.01652067 -0.14188163 -0.0446553   0.09314997 -0.11307693 -0.01163134
  0.05430336 -0.11520053 -0.02602607  0.01649079  0.19272487  0.10767309
 -0.08981019 -0.13415091  0.11788235 -0.13231014 -0.00627084  0.06814829
 -0.12531315 -0.14829089 -0.28284574  0.02281634  0.41339332  0.05243966
 -0.2383287  -0.03963272 -0.13721775 -0.01451728  0.10531042  0.12631381
 -0.0110572  -0.06455299 -0.08600014 -0.0325672   0.16183613 -0.0498039
  0.02738549  0.20015244 -0.01203272  0.01910201  0.02876589 -0.02549771
 -0.02995504  0.01467237 -0.07615745 -0.03166756 -0.01318458 -0.04535461
  0.02750492  0.04946503 -0.20103852  0.1034882   0.06132913  0.0211256
  0.11322107  0.03404107 -0.04314086 -0.1033273   0.15476152 -0.23011699
  0.23823391  0.19586933 -0.02984394  0.12754729  0.04642652  0.16347975
 -0.07098932  0.02200755 -0.1199384   0.00559292  0.03877851 -0.00917592
  0.06884538 -0.02678245]