[-0.0699586   0.14018868  0.05051798  0.02207596 -0.05196452 -0.00550178
 -0.03434009 -0.19281612  0.13292301 -0.07879719  0.33997676 -0.00506225
 -0.13984418 -0.16899849  0.05068897  0.18973552 -0.20786677 -0.106272
 -0.10936943  0.0031753  -0.02994288 -0.04661897  0.03684946  0.06981137
 -0.08174344 -0.3078731  -0.11095674 -0.10155147  0.10539855 -0.06689291
 -0.08211558  0.00109875 -0.18840277 -0.06801992  0.07465875  0.0578416
 -0.00254612 -0.01349126  0.20057893 -0.03558222 -0.19610628  0.08915099
  0.02065767  0.18955028  0.21655484  0.03532888  0.03011124 -0.1098369
  0.09727135 -0.12863791  0.00959099  0.12574887  0.12827605  0.04624237
 -0.01716935 -0.15648156 -0.0440133   0.13638423 -0.12388591  0.00195767
  0.05147976 -0.14200132 -0.04275662  0.01511391  0.21007502  0.12714402
 -0.11667567 -0.18618466  0.12093895 -0.1232591  -0.01782282  0.08795185
 -0.12593313 -0.13684192 -0.2849597   0.00970695  0.45612273  0.04469066
 -0.26383126 -0.02690322 -0.11785267  0.00051249  0.08561123  0.12075797
 -0.01750841 -0.06428375 -0.09994914 -0.02891388  0.20620492 -0.03695663
  0.0411544   0.19933647 -0.01703018  0.05880377  0.00182865  0.00845511
 -0.02257917 -0.02059007 -0.05855239 -0.04082682 -0.0536264  -0.02501873
  0.01400004  0.07849687 -0.20108472  0.10864796  0.03269815  0.02994597
  0.05248255  0.04144143 -0.00126733 -0.07138935  0.13143049 -0.30071887
  0.24147923  0.20098352 -0.02492434  0.10320567  0.03272722  0.13012561
 -0.04275971 -0.01990644 -0.12958626 -0.04376853  0.02768574 -0.06272089
  0.06510501 -0.04486008]