[-0.11658738  0.08619296  0.06594153  0.01830482 -0.07961189 -0.04892333
  0.01536338 -0.15004633  0.07046945 -0.03246341  0.30352622 -0.05735965
 -0.2124856  -0.16392484  0.05286515  0.13522147 -0.11973619 -0.10624336
 -0.05888696  0.00555349  0.02624737 -0.06108655  0.10869964  0.02724375
 -0.06565864 -0.39041522 -0.12881789 -0.13557921  0.06795803 -0.02904721
 -0.02938581  0.06621351 -0.10999707 -0.04165762 -0.00292536  0.06807765
 -0.03775332 -0.06791475  0.26511329 -0.0666287  -0.20428884 -0.03393613
  0.03335057  0.25025764  0.21205468  0.01483935  0.08249174 -0.01997509
  0.05771942 -0.13601302  0.09913422  0.08938295  0.11650423 -0.0038822
  0.03675883 -0.14388302 -0.00575563  0.10012268 -0.17459877  0.00975015
  0.05687291 -0.11011853 -0.07196122 -0.04261463  0.20436175  0.14836882
 -0.06160988 -0.15169254  0.15953779 -0.16924155 -0.05040417  0.03512246
 -0.21408461 -0.1582817  -0.31237254  0.02009485  0.34097931  0.07955205
 -0.18621813  0.00941351  0.01160968  0.00138034  0.12300833  0.11174591
 -0.07099167  0.0064317  -0.15784715 -0.02130866  0.16648813 -0.07835831
 -0.05199698  0.19344892 -0.01469675  0.01957746  0.0731278  -0.0182668
  0.02552313  0.01890469 -0.15106259  0.00577136  0.06499559 -0.10868593
 -0.00487423  0.06113836 -0.186268    0.05012049  0.00380204  0.04551614
  0.00738907 -0.06703664 -0.11958327 -0.0448879   0.17764655 -0.18458416
  0.16496854  0.19291618  0.02793325  0.11914978  0.11802486  0.0807985
 -0.00161328 -0.01846233 -0.19852374  0.01333955  0.08647155  0.00263645
  0.06284785  0.05645313]