[-9.87597182e-02  6.60355613e-02  1.30691335e-01 -3.09844147e-02
 -1.13718942e-01 -7.65147656e-02 -5.03430739e-02 -1.85028732e-01
  1.08094536e-01 -8.71879235e-02  2.14008018e-01 -3.91473174e-02
 -1.67551860e-01 -7.46607333e-02 -3.86896804e-02  2.16383576e-01
 -2.02983186e-01 -1.44782335e-01 -5.92051260e-02  9.97204613e-03
  2.87390295e-02  5.23792859e-03  6.03807829e-02 -1.93351638e-02
 -1.30111009e-01 -3.74662459e-01 -1.05947450e-01 -5.49010299e-02
  1.64946709e-02 -6.44737063e-03 -1.20022766e-01  6.58540577e-02
 -1.66615173e-01 -5.85414059e-02  6.46796450e-02  6.93691075e-02
 -2.08032876e-02 -9.30722058e-02  1.46073088e-01 -8.35014507e-03
 -2.98325092e-01  1.00805365e-01  6.29642159e-02  2.00821355e-01
  2.69514412e-01  1.01659130e-02  4.65293638e-02 -1.35484681e-01
  1.36569768e-01 -1.64770886e-01  1.35133266e-02  9.68856141e-02
  5.53188920e-02  2.84498278e-02  1.79298446e-02 -1.14124969e-01
 -1.52442604e-02  1.24499314e-01 -1.11805514e-01 -4.85839136e-02
  1.09805264e-01 -8.35530758e-02 -3.45467292e-02 -7.56421685e-02
  1.46281734e-01  9.94066149e-02 -1.04837649e-01 -1.76750869e-01
  1.24443412e-01 -1.21668570e-01 -5.59219122e-02  2.52855066e-02
 -1.73227027e-01 -1.45960048e-01 -2.80961782e-01 -2.95297038e-02
  3.75416249e-01  3.81423980e-02 -1.96402833e-01  2.58931816e-02
 -4.81916741e-02  6.65127039e-02  1.27170339e-01  1.44019663e-01
  1.87978633e-02  1.18135996e-02 -7.93520287e-02 -3.89523990e-02
  2.24530801e-01 -8.19679797e-02 -2.51914212e-03  2.15342209e-01
  2.91331159e-03  6.09103628e-02  2.88987514e-02  5.24437688e-02
 -5.54922819e-02  5.70727699e-02 -1.33708447e-01 -6.97767688e-03
  2.36544497e-02  2.11705265e-04 -1.38947740e-03  1.24288023e-01
 -1.68666661e-01  1.24161616e-01 -5.23670251e-03  9.23536941e-02
  6.68251589e-02 -4.77026664e-02 -1.42808107e-03 -6.52089491e-02
  7.22674131e-02 -2.33458310e-01  1.71210796e-01  2.25194499e-01
 -1.28942868e-02  8.91587660e-02  6.35504350e-02  3.04112174e-02
 -1.73366256e-02  2.66813319e-02 -2.11034328e-01 -1.66865811e-02
  9.57290009e-02 -4.35535647e-02  2.37715524e-02  1.01109352e-02]