[-0.03723167  0.10244838  0.1003088   0.03625793 -0.02981209  0.00318427
 -0.03222151 -0.16888668  0.12923954 -0.11414456  0.33676657  0.01667509
 -0.20321262 -0.14325774  0.01194089  0.17139851 -0.15065213 -0.06406211
 -0.11059387  0.0238915   0.00861517 -0.03356094  0.0994679   0.0069181
 -0.0683723  -0.34629673 -0.09966233 -0.08062106  0.02377494 -0.06593569
 -0.04158351  0.016054   -0.13783467 -0.04714522  0.02505398  0.04603648
 -0.04233639 -0.02371973  0.21900284 -0.01775013 -0.19429751  0.05082556
 -0.02083818  0.20797895  0.23840943  0.01036896  0.03736095 -0.11062855
  0.10985871 -0.24514766  0.02371708  0.07528385  0.07191848  0.05341017
  0.05433848 -0.11955451 -0.05675873  0.1574596  -0.10692637  0.02064631
 -0.01340065 -0.16742508 -0.04557536 -0.02402278  0.1727286   0.15315552
 -0.10027742 -0.14662002  0.12625185 -0.13779008 -0.04198771  0.07010404
 -0.12840669 -0.15647009 -0.31498876 -0.00041731  0.39934248  0.07796336
 -0.24498716 -0.03796548 -0.06258142  0.03302608  0.10500645  0.13947719
  0.02589287 -0.04624088 -0.08115202 -0.03081635  0.17105418 -0.0963584
 -0.0171846   0.2477113  -0.0345738   0.0806784   0.03646079  0.00779283
 -0.01475501 -0.0134735  -0.14159398 -0.03443363 -0.00879314 -0.01863791
  0.03619281  0.05452812 -0.16539767  0.08543371 -0.01135731  0.02944662
  0.11164828 -0.01599743 -0.02171952 -0.06138667  0.14052416 -0.26839587
  0.22020435  0.20671682 -0.03658563  0.11958491  0.04280127  0.10717404
 -0.03071185 -0.00556726 -0.12926659 -0.01919235  0.02295137  0.01736164
  0.00690742 -0.0535004 ]