[-0.11682291  0.09469654  0.10466256 -0.04946989 -0.07710173 -0.02910235
 -0.07384092 -0.17385565  0.08024691 -0.07344436  0.20261589 -0.04616844
 -0.17422245 -0.06632084 -0.00666472  0.22255984 -0.16315469 -0.1491341
 -0.07997942  0.04135567 -0.01819553 -0.01588172  0.05336258  0.03239564
 -0.12649834 -0.34558198 -0.07492223 -0.05525225 -0.02942243 -0.00096452
 -0.12571859  0.03121686 -0.18398938 -0.03429813  0.07040497  0.12073994
 -0.022365   -0.07120389  0.16463163 -0.00624137 -0.2574937   0.05992057
  0.09027927  0.21324544  0.24666336  0.01910935  0.05387293 -0.1275683
  0.12168401 -0.18346602  0.0449261   0.08255285  0.06635519  0.04504685
  0.02073589 -0.1700341   0.0099119   0.13628435 -0.10386193 -0.01728741
  0.07137995 -0.01466788 -0.03573754 -0.0839931   0.21089311  0.14061569
 -0.11197721 -0.18611078  0.1213696  -0.10440636 -0.04096488  0.04273757
 -0.17175017 -0.16167171 -0.27187359 -0.04959741  0.33086091  0.06368684
 -0.25036231 -0.01458065 -0.0507287   0.01969161  0.11873613  0.11795657
  0.02656088  0.00614085 -0.07852505 -0.04536491  0.26913574 -0.05360101
  0.01884595  0.19958867  0.01785275  0.01778078  0.00552177  0.03164482
 -0.06418562  0.05333778 -0.17609715 -0.03320215 -0.02714942  0.00785271
 -0.01018838  0.13388629 -0.21616451  0.13427757  0.01806648  0.06228893
  0.04333788 -0.01172321 -0.03964726 -0.06860428  0.11904736 -0.21437
  0.16591753  0.21722482  0.01152833  0.06320389  0.07051112  0.06048333
  0.00064448  0.05249143 -0.2207744  -0.00337509  0.08405574 -0.07142931
  0.03278069  0.03367442]