[-0.08862188  0.08770459  0.08578307 -0.06922607 -0.09016309 -0.02447311
 -0.05036381 -0.15715456  0.11303671 -0.10504989  0.19468375 -0.07887205
 -0.16885465 -0.06267726 -0.0476609   0.21404222 -0.16217498 -0.13699852
 -0.0705431   0.03915803  0.02216809  0.01433904  0.02155145  0.02390826
 -0.08776589 -0.3612459  -0.103921   -0.04067458 -0.0090328  -0.02096135
 -0.1211867   0.05708714 -0.15271036 -0.04161949  0.05392257  0.09499543
 -0.03167448 -0.09054976  0.13759659  0.00515258 -0.2714282   0.08387237
  0.07996722  0.23282829  0.24461532  0.02632687  0.03568905 -0.15238881
  0.15025143 -0.14932886  0.0274408   0.09758111  0.06246694  0.03487101
  0.02565558 -0.13988256 -0.00477261  0.13400789 -0.0903805  -0.02518605
  0.08880743 -0.03476578 -0.02501949 -0.10145139  0.19464622  0.1134693
 -0.11640879 -0.17973343  0.14459951 -0.1078257  -0.05182529  0.01375115
 -0.1794201  -0.14537634 -0.24930881 -0.025043    0.36328232  0.04718561
 -0.20247073  0.03036105 -0.05174948  0.04587348  0.13850188  0.14769383
  0.00310479 -0.00098356 -0.06730931 -0.04812139  0.25857183 -0.06850508
  0.00097467  0.19040214 -0.00829799  0.03925515  0.0204663   0.01370593
 -0.06763699  0.07360537 -0.15841396 -0.01087749 -0.0019033  -0.0407143
 -0.0200261   0.13083009 -0.19174205  0.13540329  0.02711337  0.09392325
  0.07351845 -0.01424327 -0.05271278 -0.05219023  0.11454149 -0.21629229
  0.17490239  0.17795034  0.03318321  0.08251493  0.10699087  0.08250341
  0.0064545   0.027812   -0.22883224 -0.00402123  0.11291229 -0.03757831
  0.03455237  0.02068848]