[-0.09801793  0.13813534  0.13468848  0.0244857   0.00512691 -0.00650809
  0.00347015 -0.15543269  0.11825054 -0.07159479  0.32649469  0.01061575
 -0.17534235 -0.16155352  0.03425281  0.19731393 -0.17795534 -0.11034837
 -0.10566616  0.01966353 -0.01262899 -0.01985527  0.06029456 -0.00557534
 -0.05919019 -0.34260592 -0.09612019 -0.07560707  0.05738032 -0.05068352
 -0.03249742  0.01159142 -0.18745878 -0.02727535  0.03617704  0.08339137
 -0.02490106 -0.01238373  0.20625308  0.00094504 -0.20025209  0.02211797
  0.03060349  0.19125675  0.26159102  0.02623097  0.01051652 -0.08799274
  0.07601535 -0.18663108  0.00481184  0.10614747  0.09973828  0.06575483
 -0.01164491 -0.145688   -0.04034024  0.07790237 -0.09545418 -0.02945904
  0.03289344 -0.16868673 -0.05714507  0.03434859  0.16625707  0.0785979
 -0.10332556 -0.13614866  0.14396201 -0.11335351  0.00989763  0.07820883
 -0.13140708 -0.12632553 -0.27497372  0.0142329   0.44271573  0.02158393
 -0.2071455  -0.02749611 -0.12185629  0.00455829  0.05855742  0.10880865
 -0.0182111  -0.04372325 -0.11897687 -0.01299213  0.18910958 -0.06169013
  0.03446651  0.1986901  -0.03769482  0.07536478  0.0055867   0.00236108
  0.00315413 -0.00051204 -0.11326601 -0.070004   -0.03886978 -0.03890887
  0.01698358  0.07520821 -0.19440612  0.09202644  0.05262331  0.03740541
  0.0914511   0.01084091 -0.02439938 -0.08118534  0.13295916 -0.21574679
  0.19399849  0.21660049 -0.05125133  0.09886023  0.08217099  0.1455708
 -0.04821334 -0.02232811 -0.13853489 -0.00951544  0.01257303  0.00689009
  0.03834369 -0.029964  ]