[-0.11860788  0.06429013  0.1226925  -0.06345015 -0.08749143 -0.04284254
 -0.04177587 -0.14934479  0.13253586 -0.1106021   0.23563018 -0.00255291
 -0.17726642 -0.09533789 -0.00474619  0.22828765 -0.205935   -0.11532556
 -0.06980864  0.04199499  0.0256308  -0.00312244  0.05336971  0.02744997
 -0.09817114 -0.35630792 -0.08934977 -0.0447445  -0.0198404  -0.04705147
 -0.1345001   0.05418441 -0.15103801 -0.06200274  0.03351358  0.07797051
  0.00333327 -0.054334    0.15380402 -0.02607501 -0.28215417  0.08214188
  0.08385174  0.19807141  0.24774003  0.03358837  0.03595147 -0.15417448
  0.14842549 -0.19471659  0.00339297  0.08735736  0.0631528   0.01295047
  0.00863668 -0.15357648 -0.0306799   0.10490545 -0.09143091 -0.01663253
  0.08192555 -0.05148192 -0.04397996 -0.08367774  0.1708166   0.10610723
 -0.13615881 -0.17191911  0.10353452 -0.09937739 -0.0617559   0.02754032
 -0.18528008 -0.17076729 -0.28188285 -0.03520378  0.36665773  0.04412604
 -0.22483912  0.00783056 -0.08980787  0.03467463  0.10316404  0.13831881
  0.00314331  0.01049651 -0.0800062  -0.01157874  0.22230172 -0.06555228
  0.03502314  0.21592334  0.02875552  0.08049911 -0.00566712  0.06790795
 -0.05992123  0.07308638 -0.17979395 -0.00503698  0.02682163 -0.00723832
  0.0240491   0.13224383 -0.19993715  0.1380038   0.0155344   0.07662126
  0.09024956  0.01257997 -0.04640245 -0.07841828  0.09082361 -0.20084465
  0.16567682  0.23706201  0.00757827  0.07867619  0.08622468  0.08683939
 -0.01998295  0.04115688 -0.20782188  0.0082704   0.10926894 -0.05306938
  0.04870318  0.01219928]