[-9.52123627e-02  7.59347826e-02  1.17293112e-01 -7.94770345e-02
 -6.83117434e-02 -3.33754010e-02 -5.30593954e-02 -1.45455509e-01
  1.29527733e-01 -1.25318214e-01  1.97006643e-01 -4.87540849e-02
 -1.74493566e-01 -5.04341386e-02 -7.33204326e-03  2.14395911e-01
 -1.82297900e-01 -1.47047743e-01 -7.39028230e-02  4.33496498e-02
  2.25732718e-02 -9.03320592e-03  6.43254304e-03  4.12558031e-04
 -1.06394768e-01 -3.17716986e-01 -8.76250267e-02 -3.27718407e-02
 -9.81073361e-03 -3.86853181e-02 -1.23320974e-01  4.46845852e-02
 -1.65489495e-01 -4.48058657e-02  4.58582751e-02  8.18920285e-02
 -2.78404891e-03 -7.80910701e-02  1.63025767e-01 -2.14575231e-02
 -2.94363350e-01  7.94179142e-02  7.67469630e-02  1.93968534e-01
  2.27214500e-01  3.25695761e-02  2.31251214e-02 -1.76245943e-01
  1.49436474e-01 -1.67023763e-01  2.14567687e-02  9.81163308e-02
  7.80104771e-02  2.20288783e-02  2.33745407e-02 -1.59388527e-01
 -3.87749082e-04  1.22746266e-01 -9.82489139e-02 -1.30305951e-02
  9.26763415e-02 -3.93769704e-02 -1.32724391e-02 -9.03420374e-02
  1.78896397e-01  8.33541676e-02 -1.20023802e-01 -1.74623877e-01
  1.25038370e-01 -8.35219547e-02 -5.35045154e-02  4.41702418e-02
 -1.60929665e-01 -1.70863971e-01 -2.64469475e-01 -4.00485992e-02
  3.65841210e-01  4.77752574e-02 -2.28968248e-01  3.08772624e-02
 -6.49050176e-02  3.64340842e-03  1.37255013e-01  1.51146665e-01
 -2.44915482e-05  4.61638160e-03 -5.84676825e-02 -3.08730304e-02
  2.72256494e-01 -6.34342507e-02  2.36096401e-02  1.79403722e-01
  1.00110350e-02  4.12688181e-02 -2.19977107e-02  2.87485160e-02
 -6.34343624e-02  7.11038485e-02 -1.64784551e-01 -2.79396456e-02
  1.20016476e-02 -7.70170009e-03 -1.38456821e-02  1.61526784e-01
 -2.11554676e-01  1.26085803e-01  2.72528715e-02  5.57318293e-02
  6.74809590e-02  6.91233436e-03 -3.11561059e-02 -7.29117543e-02
  9.88730416e-02 -2.17756316e-01  1.46377191e-01  2.13696763e-01
  1.21314451e-02  6.27820715e-02  9.25906226e-02  8.13673660e-02
  1.59493294e-02  4.34054658e-02 -2.39182457e-01 -2.91378959e-03
  1.18875481e-01 -3.24559323e-02  5.99408038e-02  2.13929638e-02]