[-0.10679745  0.06904911  0.09390997 -0.05413602 -0.08853517 -0.03405289
 -0.04579557 -0.15497862  0.09377303 -0.09797015  0.18220744 -0.06603847
 -0.18074571 -0.05671019 -0.01788832  0.19597489 -0.14188097 -0.11741824
 -0.08288106  0.04177056  0.00548119  0.00538789  0.0242199   0.01315468
 -0.08953518 -0.35777107 -0.08877077 -0.01261835 -0.02234142  0.01626745
 -0.12258627  0.08327892 -0.1748365  -0.04776601  0.04476942  0.11457726
 -0.01960159 -0.07073405  0.13714741  0.02677072 -0.27689621  0.09032302
  0.06325516  0.21346746  0.2541846   0.02412778  0.04831363 -0.14512913
  0.14875148 -0.1614465   0.01280231  0.10754772  0.0688258   0.02312961
  0.02086164 -0.15753585 -0.00568474  0.1159334  -0.08629862 -0.03622329
  0.08491296 -0.02648847 -0.01788031 -0.11121299  0.18230858  0.11036082
 -0.11719423 -0.15678494  0.15005934 -0.09507962 -0.03620061  0.02648986
 -0.18045865 -0.15960935 -0.25828707 -0.00333572  0.35630223  0.0509093
 -0.21017587  0.01448083 -0.06000042  0.03966378  0.13808575  0.14606115
  0.01692677 -0.00634666 -0.04966507 -0.05095001  0.25881493 -0.0504442
  0.000442    0.18881983  0.01143697  0.03813166  0.01650557  0.02673033
 -0.05682562  0.06507229 -0.16452433  0.00439428 -0.01213812 -0.06337515
 -0.01084028  0.12310401 -0.19938898  0.14313674  0.0228263   0.0870389
  0.06698366 -0.02058385 -0.04224125 -0.03325534  0.10150619 -0.22637458
  0.17880896  0.18704446  0.00275022  0.08944543  0.09765805  0.09387374
  0.00074711  0.04445818 -0.20981674 -0.02971847  0.10231725 -0.03757338
  0.03181462  0.02814692]