[-0.03582484  0.10746403  0.13807492  0.00706853 -0.04971266 -0.0485327
 -0.05427068 -0.22374038  0.10390673 -0.07643476  0.34752795 -0.03229764
 -0.17470172 -0.14769785  0.01820524  0.21692517 -0.18402708 -0.14603196
 -0.06763954  0.02175281 -0.05727733 -0.04557956  0.04997627  0.03990077
 -0.066357   -0.28953215 -0.13587175 -0.09635007  0.06835718 -0.0268446
 -0.06561061  0.0182246  -0.16402887 -0.04620197  0.04942954  0.03935885
 -0.02650291 -0.06742982  0.20879641 -0.0100114  -0.24875946  0.05891168
  0.02140118  0.20657475  0.23088136  0.00822759  0.05095969 -0.11849832
  0.07031333 -0.1400817   0.00842836  0.12587306  0.10627244  0.04913413
 -0.04065016 -0.15024571 -0.05967794  0.12656637 -0.11655792 -0.00995598
  0.06908941 -0.11459088 -0.02570081 -0.03428133  0.22545174  0.13719426
 -0.12827939 -0.15777653  0.15953529 -0.12530051 -0.05973474  0.06750714
 -0.17486595 -0.11753678 -0.31043008 -0.00697591  0.40185457 -0.01738279
 -0.22509788 -0.02206309 -0.09152248  0.0372372   0.04904326  0.14394145
 -0.00098522 -0.01436852 -0.07197018 -0.07214456  0.22412971 -0.10068395
  0.04370665  0.20502317 -0.03771741  0.036741    0.02629688  0.02966793
  0.03264207 -0.00453038 -0.11314549 -0.01459778 -0.05887761 -0.03295652
  0.0271589   0.07670616 -0.189127    0.07077293  0.06255446  0.02849391
  0.06760766  0.03413286 -0.01757368 -0.12468453  0.16514416 -0.25622225
  0.22721826  0.21091866  0.00672368  0.06668982  0.0585642   0.14556351
 -0.07091051 -0.02904959 -0.10530106 -0.01956712  0.03677302 -0.02470311
  0.03089361 -0.0034295 ]