[-0.06510124  0.1098536   0.1090849  -0.05704705 -0.13892694  0.04175436
 -0.03978196 -0.11586862  0.14292604 -0.09705815  0.22340749 -0.0795278
 -0.21355534 -0.00245201 -0.02337349  0.19359255 -0.18014757 -0.11907022
  0.00866217 -0.06899792 -0.03702077  0.06172527 -0.01845914  0.03010658
 -0.12853032 -0.34482136 -0.11009184 -0.07671564  0.00845573 -0.02621598
 -0.03280013  0.10491358 -0.09123813  0.01594777  0.05154448  0.08391437
 -0.06123278 -0.10332229  0.13857852  0.02899854 -0.21732353  0.00284057
  0.06109464  0.26046708  0.19551615  0.02857146  0.02756966 -0.11173183
  0.13473371 -0.18405208  0.05517936  0.09940376  0.05280866  0.02378463
  0.04840491 -0.19261718 -0.00540337  0.12004906 -0.1705244   0.0118584
  0.06986471 -0.07308903  0.03967799 -0.06226579  0.19317338  0.15214825
 -0.07489597 -0.14469497  0.21286257 -0.13761812 -0.04793602  0.09467226
 -0.12636717 -0.1748054  -0.23314491 -0.02255407  0.43300793  0.09298002
 -0.16247986 -0.04333843 -0.00384163 -0.00694762  0.17622937  0.12961654
 -0.02756427 -0.09641533 -0.11359153 -0.05236     0.28144002 -0.0423478
 -0.05738015  0.19042103 -0.00354204  0.02459121  0.04814551  0.04567361
 -0.08126044  0.05257244 -0.14333899 -0.04470643 -0.05375379 -0.07912141
 -0.05794939  0.11886411 -0.19182304  0.17851999  0.04902485  0.00862931
 -0.03201496 -0.03274478 -0.05887892  0.03321815  0.21979228 -0.25146899
  0.14064349  0.13294338  0.01980531  0.17657748  0.05444724  0.07154991
 -0.03670394 -0.1366661  -0.19807217 -0.04332997  0.04614463 -0.07639288
  0.05130139  0.03983857]