[-0.06795857  0.09442016  0.11236384  0.03945629 -0.01328767 -0.01506999
 -0.03942069 -0.18290125  0.10233232 -0.06931964  0.33840889 -0.00415486
 -0.17843392 -0.13649568 -0.00345449  0.18276206 -0.17613347 -0.0915853
 -0.05329027  0.03481515  0.0297599  -0.06185361  0.06000482  0.00778882
 -0.0708617  -0.3287923  -0.10659011 -0.0571802   0.05540482 -0.06645929
 -0.06838811  0.01684908 -0.15626511 -0.01557097  0.03857528  0.07351156
 -0.02243827 -0.04746898  0.19684695 -0.04710262 -0.18787317  0.05067259
  0.01659588  0.20677042  0.22383408  0.03415231  0.02427881 -0.11807109
  0.08994529 -0.23021586  0.0263717   0.09656314  0.07752471  0.06003574
 -0.01101336 -0.15446228 -0.01833146  0.09079032 -0.11631391  0.03322165
  0.04106323 -0.16848727 -0.01734732 -0.0128293   0.19000679  0.13440463
 -0.11745091 -0.14436243  0.08498783 -0.13452274 -0.01589825  0.04773318
 -0.12675031 -0.1704057  -0.31549597 -0.00426108  0.40942335  0.0548359
 -0.23907386 -0.00692044 -0.08045147  0.03199723  0.11981964  0.11598428
 -0.00507298 -0.03710793 -0.14525457 -0.02856131  0.2257912  -0.09023773
  0.00671867  0.22317968 -0.04364954  0.07996479  0.01982871  0.04942094
 -0.00792486  0.00720958 -0.10528763 -0.01989277 -0.01904866 -0.0447889
  0.02704901  0.07386781 -0.18897176  0.09441625  0.01419722  0.04708966
  0.09776466 -0.02398214 -0.05233498 -0.06441482  0.1283489  -0.26794693
  0.23227473  0.21436901  0.01764739  0.11902919  0.06142373  0.12152996
 -0.04408297 -0.016309   -0.11954995  0.00056881  0.007691   -0.00320354
  0.0314668  -0.01600977]