[-1.27220109e-01  8.50231573e-02  1.23901300e-01 -4.19066846e-02
 -7.26234242e-02 -2.72872988e-02 -2.81678382e-02 -1.54653773e-01
  1.23767689e-01 -9.08332989e-02  2.30549574e-01 -2.83166915e-02
 -1.90400168e-01 -1.00288332e-01  1.28897649e-04  2.19124943e-01
 -1.87166840e-01 -1.36963114e-01 -4.84064929e-02  2.06111968e-02
  2.91756000e-02  4.85393684e-03  3.22750770e-02  1.64308287e-02
 -1.32865354e-01 -3.43325824e-01 -1.12393141e-01 -4.53340933e-02
 -3.33349891e-02 -1.95854343e-02 -1.24573939e-01  6.73619211e-02
 -1.60781682e-01 -6.07712828e-02  5.18274270e-02  7.39167705e-02
  7.32239056e-03 -4.29389104e-02  1.38173580e-01 -3.71148363e-02
 -2.53512025e-01  6.90643787e-02  1.10825852e-01  2.21366271e-01
  2.09905192e-01  3.82277369e-02  2.97993254e-02 -1.41432777e-01
  1.30470023e-01 -1.74892038e-01  3.28709781e-02  8.77576396e-02
  6.96538165e-02  1.78683177e-02  1.05820540e-02 -1.53837964e-01
 -4.12393399e-02  1.35819152e-01 -8.09267834e-02  1.35866133e-02
  8.38269517e-02 -5.09148650e-02 -6.75221607e-02 -9.67981741e-02
  1.63031816e-01  1.22030996e-01 -1.40095755e-01 -1.81875914e-01
  9.00529847e-02 -9.96541306e-02 -6.46734685e-02  3.20731290e-02
 -1.82884023e-01 -1.59542993e-01 -3.03317398e-01 -2.96832602e-02
  3.63370776e-01  7.40822731e-03 -2.30023414e-01 -6.84980163e-03
 -4.16223295e-02  4.58681546e-02  1.24952666e-01  1.41845986e-01
 -2.12609917e-02  2.79167900e-03 -8.46872479e-02 -1.29416287e-02
  2.48541579e-01 -4.99598868e-02  2.43140552e-02  2.10344106e-01
  9.04644188e-03  7.16488734e-02 -9.46232583e-03  7.04988018e-02
 -3.93803902e-02  5.26133589e-02 -1.69167429e-01  8.03929102e-03
  2.40681004e-02 -1.84260756e-02 -2.05572005e-02  1.42512843e-01
 -2.03544617e-01  1.19858645e-01  3.14180218e-02  8.66659507e-02
  7.27173313e-02 -9.33002401e-03 -5.99077307e-02 -6.07949160e-02
  1.01678662e-01 -2.06773475e-01  1.44405976e-01  2.17851445e-01
 -1.08473804e-02  6.68744072e-02  8.43936577e-02  7.29081482e-02
 -1.69800576e-02  3.07759102e-02 -2.31757790e-01  7.75681203e-03
  1.29693076e-01 -7.92255178e-02  3.16588394e-02  4.21884796e-03]