[-0.12108763  0.14427266  0.1257582  -0.07220265 -0.14241414  0.0357848
 -0.03018006 -0.1043177   0.1191947  -0.09675913  0.20759729 -0.08872806
 -0.17774226 -0.01849478 -0.00924973  0.22475381 -0.18972269 -0.1887673
 -0.04423641 -0.12191164  0.01638204  0.05505013  0.01085569  0.04661876
 -0.19028752 -0.34085155 -0.03453609 -0.07655346  0.03763605 -0.05722223
 -0.02013937  0.09998467 -0.14910167  0.0240334   0.0653789   0.1746832
 -0.0345895  -0.10100471  0.14848456  0.03889215 -0.28184721  0.05419663
  0.09991207  0.27426291  0.25727347  0.00395013 -0.00085932 -0.04126704
  0.17383032 -0.20451787  0.03552761  0.14992724  0.01865963  0.02138349
  0.1013177  -0.16436516 -0.02525008  0.10770706 -0.14144389 -0.06216897
  0.06565952 -0.06141962  0.00783377 -0.12574145  0.12934659  0.106186
 -0.09052732 -0.12280811  0.21568881 -0.0923424  -0.04638363  0.10823329
 -0.16757737 -0.12941159 -0.22666235  0.00141843  0.4230074   0.09353913
 -0.14246941  0.00818667  0.0479107   0.02756292  0.0837525   0.15849163
 -0.0014183  -0.00181106 -0.08686813  0.00057449  0.1849249  -0.01507849
 -0.03190584  0.19333893 -0.01451782 -0.00454339  0.05282447  0.07627562
 -0.145227    0.00165264 -0.19852354 -0.11479813 -0.03858558 -0.03370991
 -0.05535784  0.12239762 -0.17856728  0.16397782  0.00397509  0.0324709
 -0.08764586  0.00430567  0.00808289  0.04796235  0.13428284 -0.21228154
  0.10238262  0.18009214 -0.04932239  0.1299091   0.10206193  0.03320205
 -0.00972136 -0.0622908  -0.18203913 -0.09988552  0.02244548 -0.05671861
  0.03329328  0.03206306]