[-0.19708426  0.10394942  0.09178431  0.0130627  -0.09460846 -0.09239411
  0.04096506 -0.13201077  0.11506546 -0.03757018  0.29578587 -0.05305182
 -0.20094159 -0.16900992  0.02479996  0.12751359 -0.15283293 -0.10955389
 -0.02973708 -0.0331872   0.03700485 -0.07417331  0.06855118  0.08831967
 -0.07502694 -0.35631153 -0.0751678  -0.14318019  0.05314536 -0.04920075
 -0.07512321  0.09670042 -0.16983445 -0.1024214  -0.03125583  0.10508498
  0.00800384  0.00519021  0.19571303 -0.11302199 -0.1684934  -0.02577024
  0.02270352  0.25613296  0.22115469  0.0123104   0.05877742 -0.02694559
  0.07052997 -0.13757716  0.02957531  0.11709248  0.12580982 -0.03186268
  0.01580372 -0.16435379 -0.03994599  0.03800982 -0.13296281  0.03413612
  0.05151285 -0.11442579 -0.06266185 -0.03819045  0.20563869  0.08943452
 -0.0420106  -0.15006842  0.21345945 -0.15434928 -0.03236297  0.05936909
 -0.20500736 -0.16386802 -0.29352865  0.02648892  0.34582227  0.08912236
 -0.17378221  0.05002835 -0.1009024   0.02273882  0.0696292   0.0565323
 -0.05968111  0.04033704 -0.18671082  0.03914482  0.16403386 -0.05637875
 -0.03973342  0.17878526  0.01395249  0.02277272  0.06630295 -0.03063603
  0.00765995  0.03053891 -0.19472544  0.0009912   0.06959458 -0.10804284
  0.00614584  0.0697028  -0.18925688  0.02019163  0.00788247  0.05708674
 -0.04061555 -0.01468387 -0.141573   -0.03764759  0.16861899 -0.18045212
  0.21040438  0.1997972   0.03832203  0.12273192  0.09141766  0.04613038
  0.0103886  -0.04191915 -0.13231014 -0.00315498  0.09543704 -0.02875863
  0.08690416  0.07140601]