[-0.17202953  0.07903793  0.09336119  0.00151772 -0.08513051 -0.09510905
  0.02986935 -0.08007874  0.08289436 -0.00254573  0.26211849 -0.05937277
 -0.23165038 -0.14312053  0.03984956  0.09917873 -0.12403988 -0.09049524
 -0.05518983 -0.06566697  0.0298811  -0.05775991  0.08322996  0.07192396
 -0.09601053 -0.35022661 -0.07109194 -0.12704037  0.05056525 -0.07952002
 -0.063648    0.08999585 -0.15313852 -0.09872218 -0.01351432  0.13356222
 -0.01314708 -0.0299579   0.2375239  -0.08041357 -0.14880665 -0.02408807
  0.01987316  0.28167817  0.23888569  0.00348885  0.05399832  0.00552641
  0.09781091 -0.19130604  0.06793224  0.14491494  0.09989267  0.0031632
  0.06763958 -0.13068686 -0.01229774  0.10463553 -0.14429782  0.05296997
  0.03262414 -0.12457205 -0.02880977 -0.06672668  0.17363353  0.08635824
 -0.03978515 -0.12512848  0.17937098 -0.15833628 -0.04889938  0.05930501
 -0.19078563 -0.16477479 -0.29315493  0.05445869  0.32017681  0.12533896
 -0.1919319   0.04769704 -0.05005881 -0.02227275  0.09860122  0.05415624
 -0.05026523  0.02667116 -0.1728981   0.03572579  0.18410289 -0.04370023
 -0.04413269  0.17464578  0.01018712  0.02249772  0.09084318 -0.02058841
 -0.01790784  0.01314782 -0.19584022  0.01151889  0.0818007  -0.15387787
 -0.00959973  0.05119431 -0.19245988  0.04293302 -0.00093825  0.02211778
 -0.0633702  -0.05227027 -0.13203654  0.00341363  0.18945231 -0.19941142
  0.22408132  0.21755071  0.01894694  0.12673452  0.08011311  0.03632028
  0.01695327 -0.02952336 -0.10765547 -0.03278537  0.0747814   0.00722177
  0.08073767  0.06962301]