[-0.08072143  0.07122912  0.14455605 -0.02185818 -0.10773029 -0.05649979
 -0.0531587  -0.17458624  0.10563266 -0.09624532  0.20747952 -0.04923225
 -0.17607281 -0.0581837  -0.04062769  0.21812306 -0.18784146 -0.14107613
 -0.06563105  0.02640407  0.01900719  0.01717193  0.05324789 -0.01945009
 -0.1145026  -0.3707391  -0.09922729 -0.04052881  0.01264108 -0.00559656
 -0.1278398   0.06953015 -0.15387967 -0.04714164  0.06879219  0.07268295
 -0.02881274 -0.09121132  0.13697317 -0.00969655 -0.3008666   0.09806917
  0.05863592  0.21240997  0.25449511  0.0088272   0.03787751 -0.13976012
  0.12273622 -0.17082988  0.00646084  0.1071239   0.06074391  0.03231102
  0.02565489 -0.11727458 -0.0101776   0.13110307 -0.0937961  -0.02897939
  0.1084728  -0.07487851 -0.01621702 -0.08135217  0.1546012   0.0790306
 -0.11787124 -0.16864078  0.11543565 -0.11339054 -0.05339594  0.02556728
 -0.16999306 -0.15628006 -0.27115223 -0.03413782  0.37572131  0.03850028
 -0.21481533  0.02268401 -0.04975554  0.06079997  0.12826441  0.15531062
  0.0188942   0.00382425 -0.07976162 -0.04905397  0.23280473 -0.08682692
  0.00856621  0.22315431  0.00269235  0.04709616  0.01800433  0.04308796
 -0.05142235  0.05951269 -0.14122452 -0.00717734  0.01342082 -0.02083399
 -0.01185883  0.12702651 -0.18199883  0.12773131  0.00675452  0.09477872
  0.09267522 -0.03265687 -0.01918469 -0.07316985  0.09254078 -0.24207182
  0.1623144   0.22894087  0.00491275  0.08014701  0.07013218  0.04716617
 -0.00754897  0.02744694 -0.20794748 -0.01897489  0.09437541 -0.05316095
  0.00242005  0.01171295]