[-0.10676944  0.07027733  0.10598115 -0.06598541 -0.10618868 -0.04223071
 -0.05535027 -0.15394612  0.10203103 -0.11272781  0.19633606 -0.06808778
 -0.19244233 -0.04026865 -0.04109874  0.21176334 -0.15121423 -0.11749134
 -0.07577071  0.02720983  0.00766531  0.02209098  0.02879781  0.01122659
 -0.08933824 -0.35996532 -0.08448507 -0.0098915  -0.03326487  0.00750746
 -0.11175141  0.09851661 -0.16507767 -0.04193396  0.05287869  0.11310899
 -0.01265246 -0.07469558  0.13876975  0.017679   -0.2806749   0.08239034
  0.0796467   0.22059532  0.23946725  0.00628765  0.04246637 -0.14780243
  0.13172519 -0.15149765 -0.00497734  0.11072189  0.06746139  0.0225812
  0.02156201 -0.14637689 -0.00205861  0.10933711 -0.07908418 -0.0499429
  0.09903251 -0.03347943 -0.01992042 -0.11914773  0.19285452  0.09956368
 -0.12384582 -0.16382226  0.1498066  -0.09271806 -0.05536573  0.01945232
 -0.18528748 -0.14713292 -0.25304478 -0.02604604  0.34666318  0.04791606
 -0.21124677  0.0296298  -0.06436341  0.03465221  0.11959457  0.15206632
  0.02172428  0.01181311 -0.04673696 -0.04047338  0.2525956  -0.05783899
  0.00116331  0.19505106  0.0168952   0.03873751  0.02077689  0.02155171
 -0.06474911  0.06151914 -0.1739441   0.00444243 -0.01734023 -0.05658109
 -0.01093527  0.12537883 -0.19797872  0.14550613  0.02164409  0.08501991
  0.06645884 -0.00324971 -0.03924549 -0.04310926  0.1052588  -0.22153166
  0.17469288  0.18539806  0.01630773  0.08840354  0.1037      0.08872157
 -0.00062846  0.0425791  -0.20560336 -0.03525592  0.09510008 -0.05186991
  0.03800104  0.03224034]