[-0.09786548  0.1130171   0.12364316 -0.03849937 -0.1118482  -0.01110079
 -0.0410606  -0.10210375  0.11488421 -0.0791394   0.2109323  -0.0677709
 -0.17256205 -0.0660964   0.03693415  0.1997111  -0.22104457 -0.18640676
 -0.00664584 -0.05403655  0.01192635  0.01886413  0.00311819  0.03326297
 -0.19648795 -0.39199734 -0.07694223 -0.11650229 -0.00094808 -0.02250007
 -0.03944391  0.11914898 -0.12558453 -0.04227111  0.07954263  0.14771846
 -0.01313481 -0.06527839  0.15387248  0.0233118  -0.27855861  0.08098256
  0.09917193  0.28413495  0.25898886  0.03190517  0.01684748 -0.04620121
  0.15229331 -0.19350207  0.01010109  0.12714492  0.05765287  0.05073084
  0.08530084 -0.15299742  0.00991503  0.05316368 -0.18607903 -0.07121116
  0.04025207 -0.09543337  0.04989869 -0.07672321  0.19350003  0.09239795
 -0.06945259 -0.12285637  0.18045674 -0.11683428 -0.0737101   0.07650062
 -0.17573409 -0.13137853 -0.27111423 -0.00965161  0.39529496  0.08919069
 -0.18054007  0.05476325  0.01525317  0.00138915  0.10922337  0.17716396
  0.03112778  0.01645551 -0.07350822 -0.02288402  0.20174427 -0.04298029
 -0.02327234  0.1791629  -0.00208118  0.05023879  0.09250303  0.02636001
 -0.10322639  0.01677178 -0.20265928 -0.0804018  -0.04112093  0.00174541
 -0.02083503  0.11104383 -0.18094552  0.1356826   0.01714583  0.01401321
 -0.06832454  0.00654427  0.00822129  0.00079237  0.12336148 -0.25816602
  0.13854888  0.19196127 -0.05191001  0.1391723   0.06348109  0.01256847
 -0.04373316 -0.0407307  -0.18171863 -0.05545897  0.06035563 -0.03833954
  0.05733993  0.02067155]