[-1.03149928e-01  1.28246307e-01  1.33651346e-01 -5.01214527e-02
 -2.07524642e-01  1.03998370e-02 -2.12896075e-02 -9.43921134e-02
  9.03484151e-02 -6.42044768e-02  2.21954614e-01 -7.21136332e-02
 -2.02467665e-01 -1.15321595e-02  4.91167838e-03  2.20990524e-01
 -1.72250673e-01 -1.37131289e-01 -5.44692166e-02 -6.69536889e-02
 -3.66031018e-04  8.03516209e-02 -3.12113799e-02 -2.10578106e-02
 -8.66851956e-02 -4.00324106e-01 -5.48888035e-02 -5.66321313e-02
  6.05605952e-02 -4.21543382e-02 -4.03456762e-02  1.18980549e-01
 -1.36409089e-01 -2.80740261e-02  6.52262345e-02  1.10763751e-01
 -8.65414515e-02 -6.36727810e-02  1.71205088e-01  5.52018248e-02
 -2.76916981e-01  6.38086498e-02  6.46912456e-02  2.77399629e-01
  2.37884089e-01  4.04230319e-02  2.91779917e-02 -7.94618502e-02
  1.06322937e-01 -2.06109196e-01  4.64345329e-02  1.41718268e-01
  3.53988670e-02  3.47029530e-02  4.45365012e-02 -1.60207301e-01
 -8.02443828e-03  4.65238057e-02 -2.02960640e-01 -3.78613025e-02
  1.41686425e-01 -1.03128247e-01  3.09838360e-04 -8.49194303e-02
  2.06142694e-01  9.99363884e-02 -6.45723343e-02 -1.32877409e-01
  1.96714967e-01 -1.17702894e-01 -7.09150359e-02  4.82565537e-02
 -1.41888767e-01 -1.25233144e-01 -2.46266156e-01  1.96385477e-02
  4.63505417e-01  7.98146352e-02 -1.88457504e-01 -1.57418456e-02
 -9.82434768e-03 -2.03175284e-02  1.81646451e-01  1.15481019e-01
  4.82579315e-04 -5.04634976e-02 -9.29314420e-02 -1.35635585e-02
  2.31287360e-01 -6.11477308e-02 -3.59206162e-02  1.96224511e-01
  4.03241478e-02  3.10586970e-02  7.39673302e-02  5.26098274e-02
 -7.24153146e-02  5.90721518e-03 -1.88851744e-01 -7.74349645e-02
 -3.08898725e-02 -8.00294578e-02 -3.21453884e-02  1.22436069e-01
 -1.67212084e-01  2.02660605e-01  3.35957557e-02  3.26432362e-02
 -5.83124757e-02 -4.21450734e-02 -4.74215448e-02  1.48022799e-02
  1.69589341e-01 -2.00469300e-01  1.83507174e-01  1.70166597e-01
 -1.93544682e-02  1.37675166e-01  1.05780341e-01  3.94220464e-02
 -2.97412109e-02 -8.95282552e-02 -1.98489830e-01 -7.54883289e-02
  6.48288950e-02 -3.35438214e-02  6.57817498e-02  6.32129908e-02]