[-0.06457527  0.11571112  0.09156628  0.02570241 -0.01742079  0.00331942
 -0.03129623 -0.17902081  0.1146796  -0.08241051  0.32415959  0.02059611
 -0.18394659 -0.13868776  0.03093493  0.149832   -0.17572041 -0.09105494
 -0.09302313  0.00324145 -0.05274313 -0.01995566  0.09769582  0.04103266
 -0.06457607 -0.2920602  -0.09443689 -0.1050936   0.07943618 -0.0901603
 -0.02092746 -0.03748805 -0.21991542 -0.02196175  0.0150107   0.06498068
 -0.03774328 -0.02855706  0.22634411 -0.02436668 -0.1949698   0.03032398
 -0.02515258  0.19477539  0.23366673 -0.00108927  0.0180919  -0.09997496
  0.06059476 -0.18056874  0.02980197  0.12089852  0.0652436   0.02991829
 -0.0299164  -0.15040997 -0.05255941  0.12989195 -0.09541868  0.01622785
  0.05159868 -0.11710334 -0.02444546  0.03495334  0.19413492  0.10548712
 -0.12312027 -0.15209658  0.13352327 -0.14202739  0.00357915  0.11705082
 -0.11698546 -0.15612303 -0.27545428  0.01492253  0.46892211  0.03621371
 -0.20952271 -0.03099198 -0.14751711  0.0058245   0.07838558  0.11564755
  0.00460969 -0.04654624 -0.10415819  0.00561731  0.19857164 -0.03815026
 -0.00963184  0.18162976 -0.04121712  0.04508399  0.0235874   0.02983985
  0.00174081 -0.01323952 -0.10036164 -0.02289909 -0.06705943 -0.04493325
  0.00914799  0.0796441  -0.17245011  0.12325075  0.05734959 -0.00391289
  0.08038703  0.03594104 -0.03403041 -0.06790127  0.15955593 -0.29174477
  0.25612867  0.19218984 -0.01949978  0.11789584  0.04366293  0.15683527
 -0.04880029 -0.01622378 -0.13049516 -0.04188984 -0.02263345 -0.00988917
  0.08239426 -0.03164279]