[-0.02009264  0.11571783  0.11389186  0.00623736 -0.03924654 -0.03104423
 -0.05915945 -0.22152773  0.10936723 -0.09164532  0.33973971 -0.01733372
 -0.19828607 -0.13781662 -0.00296448  0.20963101 -0.17189172 -0.13355996
 -0.06375965  0.05086879 -0.0246974  -0.04023954  0.06781504  0.03043137
 -0.04958336 -0.31519005 -0.12551571 -0.06777835  0.04951308 -0.03042606
 -0.0864399   0.00672549 -0.17211665 -0.04403779  0.0597356   0.04948395
 -0.05010888 -0.07713062  0.21900924 -0.02342446 -0.24155085  0.07184833
  0.03592941  0.18703298  0.21488836  0.00645958  0.05778181 -0.16680394
  0.09230732 -0.16771342  0.03804341  0.11525796  0.09662339  0.06195619
 -0.0168283  -0.15334557 -0.04245627  0.14447893 -0.10669602  0.00897559
  0.06283261 -0.10818256 -0.01148886 -0.0331015   0.21874543  0.13540368
 -0.1235026  -0.17152612  0.1235431  -0.13405041 -0.05449628  0.08509925
 -0.1466984  -0.14118062 -0.30723354 -0.00435671  0.4052259   0.00883785
 -0.22360526 -0.02032979 -0.07873656  0.01117241  0.08269633  0.14696965
 -0.00157335 -0.02768905 -0.09249263 -0.05919788  0.25936878 -0.09249574
  0.02031719  0.21849409 -0.03133811  0.06335283  0.03018824  0.04613823
  0.00156163 -0.00289528 -0.12567309 -0.02055804 -0.05624364 -0.03646134
  0.00270232  0.08445313 -0.18583325  0.06632607  0.02815403  0.02074899
  0.08720999  0.00283149 -0.02695542 -0.11078443  0.13699925 -0.26450181
  0.23781124  0.18504921  0.02986761  0.07714203  0.06144757  0.13361974
 -0.05011227 -0.03818198 -0.12406206 -0.01580263  0.05368455 -0.00953366
  0.04767112 -0.02615076]