[-0.04230278  0.09278733  0.09375868  0.03350921 -0.05520093  0.01698857
 -0.04136928 -0.16174142  0.12093616 -0.11548956  0.35421401  0.00815998
 -0.21072207 -0.1381899  -0.00400863  0.17351083 -0.15206464 -0.05001561
 -0.09257679  0.03057148  0.00871177 -0.030456    0.08862595  0.00646138
 -0.06870877 -0.34162423 -0.11151893 -0.08272178  0.03196056 -0.08689045
 -0.04020325  0.02260586 -0.12455982 -0.04090653  0.02114238  0.03130279
 -0.03574628 -0.02685225  0.21192031 -0.01175545 -0.19637145  0.04009132
 -0.02547535  0.21616204  0.23435822  0.01164321  0.03167549 -0.11280501
  0.11237053 -0.24003123  0.0247334   0.07190187  0.08857604  0.03322988
  0.0520518  -0.11705846 -0.04977984  0.14455922 -0.10793706  0.02002054
 -0.00468011 -0.14528666 -0.03158366 -0.02493747  0.17038162  0.14216773
 -0.09898441 -0.14276518  0.14092623 -0.13968949 -0.03885711  0.07916512
 -0.12946568 -0.16612487 -0.31130853 -0.01844559  0.41329867  0.08527505
 -0.25333628 -0.04144869 -0.06110119  0.01883292  0.11103319  0.14008562
  0.02323105 -0.04891846 -0.08809429 -0.03797858  0.1816504  -0.09836768
 -0.01499114  0.2564809  -0.02329208  0.07854795  0.05015306  0.00607152
 -0.00899926 -0.02204258 -0.12881064 -0.0348924  -0.02194443 -0.03417636
  0.02692378  0.06134742 -0.1665152   0.10797366 -0.00419741  0.0355926
  0.10083916 -0.02120578 -0.02514648 -0.04751066  0.15716754 -0.26758021
  0.19961578  0.19116974 -0.02512336  0.114513    0.04445684  0.10754871
 -0.04097453 -0.02102568 -0.13291009 -0.02454143  0.01313404 -0.01922754
  0.01133999 -0.05327112]