[-0.1434499   0.07368916  0.11699338 -0.0485815  -0.0575381  -0.05011461
 -0.0616562  -0.16805218  0.07958491 -0.07504066  0.1803389  -0.05324732
 -0.1803789  -0.0555906  -0.00165174  0.21298054 -0.16618811 -0.13538824
 -0.08075726  0.03517094 -0.0110915  -0.01166591  0.0430426   0.01290845
 -0.10656444 -0.34133229 -0.09927109 -0.0571728  -0.03020495  0.03664589
 -0.13156693  0.02737299 -0.1722807  -0.05136315  0.0625382   0.11317568
 -0.02157434 -0.07540441  0.14965771 -0.01124978 -0.25656268  0.05548381
  0.10512876  0.2166146   0.25113595  0.02880046  0.03829068 -0.1075877
  0.1184495  -0.19612971  0.04669206  0.07627042  0.06950279  0.05695711
  0.03052985 -0.15712868  0.02409138  0.12672117 -0.09853588 -0.01393692
  0.07818493 -0.03303181 -0.02369886 -0.0679787   0.22068834  0.15004723
 -0.11374927 -0.16422631  0.12015738 -0.09827919 -0.04183071  0.01930273
 -0.18349524 -0.14971495 -0.27298936 -0.03763976  0.36004516  0.05018207
 -0.22395472  0.01023789 -0.06505407  0.01933885  0.14105247  0.12623627
  0.02610497  0.00071746 -0.06652609 -0.0489989   0.27490094 -0.06151901
  0.00596132  0.18521088  0.01457529  0.02376991  0.0115422   0.02494591
 -0.03852537  0.03882278 -0.17522137 -0.0223655  -0.0125029  -0.00947314
 -0.0149532   0.1221474  -0.2156571   0.12194595  0.04644366  0.06993995
  0.05517368 -0.01853287 -0.03988681 -0.05239381  0.10691065 -0.21002443
  0.1802872   0.21313229  0.004231    0.07090742  0.0651041   0.05275875
  0.00600196  0.05763783 -0.2091053  -0.00924302  0.09790508 -0.0409307
  0.03996402  0.04914245]