[-0.11498847  0.07958251  0.10475641 -0.09268308 -0.0818857  -0.03181809
 -0.05430755 -0.16297439  0.12476937 -0.11648986  0.22116888 -0.08067461
 -0.16757031 -0.05434301 -0.03275901  0.2298094  -0.21049488 -0.14491551
 -0.07184166  0.02050406  0.01596641 -0.01267037  0.02594251  0.01326481
 -0.10297482 -0.31065705 -0.10204624 -0.0430956  -0.00817158 -0.02778566
 -0.11157464  0.05082735 -0.1648405  -0.03904185  0.0473555   0.07198481
 -0.0022688  -0.07948226  0.15622842 -0.05075063 -0.26448306  0.0626558
  0.11638768  0.19596878  0.2209686   0.0261573  -0.00358829 -0.16215205
  0.14088662 -0.17446749  0.02859489  0.09438724  0.08044077  0.04341897
  0.01995217 -0.14676762  0.02505956  0.15974718 -0.08272514 -0.01210583
  0.09279656 -0.04640059 -0.01443852 -0.08956791  0.18628913  0.11165571
 -0.11480093 -0.18746367  0.09474721 -0.07264482 -0.06385564  0.04174938
 -0.16905151 -0.16268642 -0.27630219 -0.0505155   0.34861094  0.04074155
 -0.22873496  0.0138029  -0.04345883  0.00822296  0.13411629  0.12931882
 -0.02570851 -0.02180785 -0.09050696 -0.03887921  0.2659286  -0.07373771
  0.02750485  0.19032823  0.00355636  0.036345   -0.0227235   0.04140952
 -0.06495257  0.07424396 -0.16385974 -0.01642574  0.01058146 -0.00450388
 -0.04238098  0.14535519 -0.21639517  0.12248801  0.02473156  0.05551651
  0.0421794  -0.02522619 -0.01614419 -0.04811318  0.1089473  -0.20333242
  0.14705366  0.21301048  0.02878152  0.07771323  0.08861154  0.06783529
 -0.0044609   0.03678545 -0.22979306  0.00751754  0.12704897 -0.05820408
  0.04308903  0.02759897]