[-0.12020894  0.09286962  0.08096381  0.02340869 -0.10486095 -0.05671442
 -0.00088564 -0.17294286  0.06023805 -0.02785688  0.30465591 -0.06446613
 -0.23268047 -0.14123319  0.04030696  0.12142239 -0.11468045 -0.09497669
 -0.05378773  0.02052692  0.03461627 -0.01925849  0.14000292  0.03265801
 -0.05663964 -0.37708986 -0.12696379 -0.11124476  0.07276003 -0.049047
 -0.03288091  0.06023872 -0.10742903 -0.04561039  0.01932788  0.07033206
 -0.05994799 -0.06221282  0.27642509 -0.02562438 -0.19709085 -0.05151858
  0.01693612  0.25893933  0.21410254  0.02510471  0.05764952 -0.05198448
  0.04694862 -0.18200527  0.12405629  0.11146243  0.13612144  0.01329057
  0.0418312  -0.14175628  0.00469749  0.11325023 -0.18178347  0.03212286
  0.08319031 -0.09854318 -0.055707   -0.04012836  0.20436747  0.15064839
 -0.06992148 -0.12920772  0.13415775 -0.16003238 -0.08681922  0.04959387
 -0.19021331 -0.18503569 -0.28059745  0.00884799  0.35147306  0.11426061
 -0.22944377 -0.02260316  0.00870734 -0.0101955   0.12557326  0.11428761
 -0.06999227  0.00138186 -0.14509377 -0.02455267  0.14672503 -0.08628622
 -0.057252    0.24568991  0.01264029  0.05700533  0.092258   -0.02562202
  0.03510016  0.02057288 -0.16366647 -0.01697147  0.04935279 -0.08929577
  0.00753202  0.05030438 -0.18057133  0.10465636  0.01601046  0.02681992
  0.01278461 -0.09710071 -0.10983199 -0.02997482  0.18100564 -0.20818214
  0.18252425  0.18795955  0.03910336  0.13673295  0.10708868  0.07917847
  0.02518404 -0.02886635 -0.16424647  0.00821955  0.09571435 -0.01677137
  0.05651232  0.04900938]