[-0.111585    0.1348971   0.10788947  0.02365333 -0.02764857 -0.01276002
 -0.0425672  -0.15671565  0.12315061 -0.0791618   0.32202947 -0.0029295
 -0.16286306 -0.16987121  0.0452028   0.19929209 -0.22177497 -0.07701036
 -0.09338957  0.02666881 -0.0239082  -0.03140463  0.0840449   0.0477365
 -0.08753555 -0.35003385 -0.08480451 -0.11798948  0.0671026  -0.06559565
 -0.06009343 -0.02947274 -0.17839517 -0.04168167  0.00933979  0.03705555
 -0.03470793 -0.03601651  0.22091492 -0.02746593 -0.21399522  0.03816098
  0.00102435  0.19615227  0.24440663  0.02454393  0.03312955 -0.10377015
  0.0837921  -0.15699537  0.03239412  0.11586735  0.08872705  0.03794594
  0.00707951 -0.14514233 -0.03021622  0.10473346 -0.10074235 -0.01139332
  0.0446545  -0.1035368  -0.02728137  0.01721922  0.20730738  0.10885134
 -0.0942357  -0.14752963  0.12910104 -0.12139048 -0.00678415  0.0687734
 -0.13357316 -0.15697071 -0.28888729 -0.00231811  0.40730116  0.04835794
 -0.25167292 -0.02281832 -0.11742049 -0.00464121  0.10707481  0.13916495
 -0.01346892 -0.05469794 -0.08222746 -0.04043041  0.18184263 -0.04762679
  0.025942    0.20546041  0.00264212  0.0091305   0.03538918 -0.03226024
 -0.0093618   0.00596446 -0.08011509 -0.03214441 -0.02172758 -0.05468366
  0.01116674  0.06389586 -0.2181776   0.11171563  0.06044773  0.02499775
  0.10772331  0.04358861 -0.04792057 -0.09822544  0.15217319 -0.25107309
  0.23359986  0.20720668 -0.0183591   0.12667511  0.05286319  0.17340341
 -0.0638408   0.02989811 -0.11915892 -0.01032112  0.03671459 -0.03169429
  0.07259367 -0.01900399]