[-0.1012155   0.1357138   0.14515989 -0.05177699 -0.21409598  0.01053769
 -0.03267844 -0.09041347  0.09024289 -0.05739365  0.21676147 -0.06781863
 -0.21696773 -0.03848607  0.01122764  0.23198321 -0.16412635 -0.13633472
 -0.06323538 -0.07116584  0.00195637  0.08296948 -0.01189177 -0.02024954
 -0.09161897 -0.41057584 -0.06080283 -0.0604473   0.03949924 -0.03332427
 -0.03546513  0.09601721 -0.13605793 -0.03585434  0.07606977  0.11389108
 -0.10445268 -0.09463973  0.16632567  0.03899651 -0.26282364  0.03805823
  0.07777029  0.25251681  0.2536276   0.03354887  0.04418833 -0.08929692
  0.13345006 -0.22276001  0.04832668  0.13890691  0.03266815  0.0483765
  0.06802078 -0.15955821  0.00903435  0.076652   -0.21408466 -0.05549784
  0.1060254  -0.09496234 -0.005483   -0.07549793  0.20532863  0.11726125
 -0.06397166 -0.13506906  0.20936505 -0.1216676  -0.05774369  0.0542023
 -0.14080007 -0.13093162 -0.2500568  -0.00082315  0.47687665  0.07862243
 -0.20019507 -0.03028389 -0.01971718 -0.02023622  0.1672598   0.10716319
 -0.00054855 -0.06322364 -0.10753477 -0.01952767  0.24040738 -0.07824697
 -0.02632378  0.21006203  0.05991626  0.03066046  0.08798014  0.05329353
 -0.08038802  0.00421951 -0.18870145 -0.08090802 -0.03230963 -0.0839042
 -0.03694656  0.10085034 -0.1694539   0.201299    0.04574237  0.02696127
 -0.07029393 -0.07582825 -0.05118459  0.0188599   0.1756651  -0.19957606
  0.1784973   0.15918541 -0.03304711  0.16287057  0.09382363  0.05034522
 -0.03641488 -0.11935935 -0.175036   -0.07534466  0.05682425 -0.02459459
  0.05637764  0.05973737]