[-0.09532766  0.09863854  0.13790722 -0.02556759 -0.12669985  0.00492431
 -0.04232061 -0.11906096  0.11080331 -0.11141398  0.21506666 -0.08333518
 -0.22453776 -0.03883789  0.02218883  0.21343303 -0.18944652 -0.2087661
 -0.00059753 -0.04204794  0.0067367   0.02423766  0.02153334  0.02193643
 -0.16611385 -0.3894985  -0.08402943 -0.08519211 -0.01147234 -0.02008193
 -0.07678415  0.11718544 -0.13871577 -0.04022032  0.08507992  0.16145973
 -0.02491904 -0.07703698  0.15185502  0.01885216 -0.28187785  0.06971756
  0.09929347  0.27110541  0.23957722  0.03492544  0.00926106 -0.09776945
  0.13184023 -0.18218611  0.03791599  0.13624272  0.10108485  0.0475883
  0.08799982 -0.17172243  0.00531041  0.06056555 -0.14205964 -0.05714722
  0.06015628 -0.06171414  0.08519987 -0.10268541  0.21030934  0.07243313
 -0.07384651 -0.11270225  0.17857298 -0.09354716 -0.07494724  0.08435859
 -0.19512388 -0.14993142 -0.26331156 -0.01545827  0.39016399  0.08351368
 -0.19010796  0.03687638  0.02344497  0.00646922  0.10849085  0.19069336
  0.0231222   0.00921185 -0.08465859 -0.02002922  0.21736367 -0.06762449
 -0.03819707  0.171878   -0.00736882  0.05915155  0.09390254  0.03333943
 -0.09960961  0.0217599  -0.2232186  -0.08775838 -0.06678095 -0.00541454
 -0.03351335  0.11986011 -0.15794021  0.09974258  0.00786055  0.0105745
 -0.06333477  0.00459809 -0.01074937 -0.01662956  0.11513909 -0.26036796
  0.1364218   0.18182497 -0.05082192  0.12999472  0.07014235  0.04649463
 -0.03236963 -0.04203449 -0.18027952 -0.04908312  0.08456439 -0.02679307
  0.06707426  0.02882808]