[-0.10814636  0.13837351  0.14374219  0.02257167 -0.00187034 -0.02254278
  0.00758713 -0.15645595  0.11024844 -0.06833061  0.32934484 -0.00664314
 -0.18880039 -0.15890534  0.03633142  0.21244588 -0.18275501 -0.11339783
 -0.09615906  0.0175098  -0.01401646 -0.0428202   0.06016403 -0.01361634
 -0.0527592  -0.34476849 -0.09074827 -0.07728634  0.05833523 -0.03915065
 -0.03259994  0.02726291 -0.18621713 -0.02221974  0.03181874  0.083869
 -0.02784045 -0.01872599  0.21167564 -0.01020957 -0.20018207  0.00354793
  0.02067104  0.18878633  0.26088008  0.02452401  0.01909561 -0.09369203
  0.07581888 -0.19084615 -0.00781291  0.09889918  0.08871718  0.06249802
 -0.01721307 -0.15367551 -0.03105837  0.06772207 -0.10386777 -0.0408307
  0.02930742 -0.17772628 -0.0656921   0.01589212  0.18652968  0.07816913
 -0.1008283  -0.13471486  0.15612195 -0.10947137  0.01395428  0.0766225
 -0.13600273 -0.12466096 -0.28884909  0.00764132  0.4206073   0.01456015
 -0.20053189 -0.02345926 -0.11414363  0.0083418   0.06306873  0.11303097
 -0.02222806 -0.03562948 -0.12106144 -0.02305153  0.19165169 -0.08752663
  0.03508271  0.19811608 -0.04135113  0.07700741 -0.00147986 -0.00687995
  0.01381844  0.00119568 -0.11717106 -0.068612   -0.02522114 -0.04598547
  0.01604504  0.0755981  -0.19863044  0.06623905  0.04596125  0.04349838
  0.08255216 -0.00912453 -0.02992631 -0.08781051  0.13523954 -0.21729997
  0.19254006  0.23216823 -0.04986778  0.09282805  0.0857781   0.13491152
 -0.05049669 -0.02424206 -0.14039785  0.00588974  0.02942184  0.01461252
  0.02421026 -0.02443966]