[-1.38743356e-01  6.96065053e-02  7.52247646e-02 -1.59797017e-02
 -9.58419666e-02 -9.48209390e-02  1.98388108e-04 -1.29775822e-01
  3.96111049e-02 -2.93046888e-02  2.94963747e-01 -4.97228876e-02
 -2.07992077e-01 -1.50249064e-01  5.73839359e-02  9.94297490e-02
 -1.24149382e-01 -9.26742926e-02 -9.23933908e-02  9.05256160e-03
  1.49566904e-02 -4.75344285e-02  9.11460817e-02  4.26226370e-02
 -6.67533726e-02 -3.76130015e-01 -1.27558783e-01 -1.18192665e-01
  3.61498669e-02 -5.59453852e-02 -2.78740656e-02  8.66702348e-02
 -1.08306147e-01 -5.99336587e-02  1.63051486e-03  8.10870752e-02
 -4.57855873e-02 -4.16295193e-02  2.69815564e-01 -4.85454202e-02
 -1.96329668e-01 -2.82838289e-02  4.53183465e-02  2.81576037e-01
  2.54350543e-01 -6.10122597e-03  6.55999258e-02  8.73900112e-03
  1.01394117e-01 -1.66374132e-01  8.73377994e-02  1.06037430e-01
  1.67394683e-01  5.45646576e-03  6.62592202e-02 -1.22637786e-01
  4.82562324e-03  1.16382293e-01 -1.94840118e-01  2.16898229e-02
  3.08782216e-02 -1.52179211e-01 -7.94681311e-02 -4.62398939e-02
  1.92066416e-01  1.53542206e-01 -6.16303682e-02 -1.35266140e-01
  1.86216742e-01 -1.55170232e-01 -6.04483746e-02  4.13279720e-02
 -2.12333366e-01 -1.54110447e-01 -2.95859843e-01 -1.62386824e-03
  3.12989444e-01  7.57191107e-02 -2.00495318e-01  3.69062610e-02
 -1.54343313e-02 -2.40170751e-02  7.77130648e-02  7.88799152e-02
 -8.51100013e-02  2.92324182e-02 -1.36642441e-01  1.44888824e-02
  1.62820384e-01 -7.13658407e-02 -3.37360352e-02  1.99320510e-01
  7.63706444e-03  1.18956966e-02  1.18910968e-01 -3.82652469e-02
  3.42470892e-02 -1.10519594e-02 -1.69208705e-01  1.90086253e-02
  6.47172779e-02 -1.69091910e-01  2.14593648e-03  2.65498143e-02
 -2.03165770e-01  7.47936964e-02  2.58554462e-02  5.31509705e-02
 -1.48049993e-02 -8.17778856e-02 -1.10410683e-01 -2.42264122e-02
  1.84353083e-01 -2.13809490e-01  1.90155819e-01  1.81154519e-01
  7.44795520e-03  1.22293882e-01  8.43474269e-02  5.02520017e-02
 -9.59858578e-03 -2.84288228e-02 -1.48294851e-01 -5.56518603e-03
  8.67776051e-02  1.95391010e-02  7.29461834e-02  6.86505064e-02]