[-0.05861792  0.12335932  0.10060453 -0.00447745 -0.02946057  0.0061743
 -0.03379108 -0.1546717   0.13027462 -0.05162296  0.32863998 -0.00647012
 -0.2150249  -0.13579804  0.04643705  0.17026898 -0.18234313 -0.0848992
 -0.09575022 -0.00408896 -0.06597357 -0.06982501  0.06141587  0.07932884
 -0.1054377  -0.27829784 -0.07899239 -0.13642113  0.07982747 -0.08835804
 -0.05964998  0.01530292 -0.21624513 -0.04130642  0.01615133  0.0664453
 -0.02385844 -0.06028209  0.18280827 -0.0291959  -0.17520221  0.03288361
 -0.02244633  0.17133728  0.22544029  0.01694001  0.03867139 -0.05936193
  0.08802831 -0.21035866  0.03890939  0.10395699  0.0912468   0.02337515
  0.01935978 -0.20759237 -0.04126536  0.12212753 -0.11821315  0.03546984
  0.02977874 -0.10382345 -0.05936905 -0.01484557  0.20957075  0.1372377
 -0.11591867 -0.13953266  0.19516473 -0.10689894  0.02548211  0.11798775
 -0.11906981 -0.14531723 -0.24684222  0.03493008  0.41180292  0.08517893
 -0.25179619 -0.02458161 -0.15575941  0.02766608  0.02843732  0.07822275
  0.0064094  -0.05300198 -0.11016023 -0.05067747  0.17763393 -0.03394542
  0.04068105  0.23353548 -0.03633803  0.00496722  0.01022499 -0.02092019
 -0.03837265 -0.03638483 -0.09058043 -0.05896469 -0.02426984 -0.06704208
 -0.01154737  0.07891161 -0.20884119  0.08948006  0.03470762  0.01736774
  0.08485814  0.05001415 -0.03490346 -0.07600115  0.17462768 -0.31609753
  0.23073676  0.18533255 -0.0146002   0.09218755  0.03548312  0.15565465
 -0.02934374 -0.03212033 -0.12599339 -0.0694999   0.01641338 -0.05756714
  0.01120368 -0.01232697]