[-0.11491605  0.07439832  0.10671224 -0.08848511 -0.07450973 -0.04533926
 -0.04055745 -0.16296569  0.11971813 -0.11193261  0.21214537 -0.08304472
 -0.1717459  -0.06024304 -0.02860804  0.22912423 -0.20552973 -0.14915638
 -0.08595087  0.01222338  0.01435842 -0.01923248  0.02835906  0.01247933
 -0.09964669 -0.30758771 -0.1016914  -0.0471664  -0.01643051 -0.02796364
 -0.10264297  0.04987567 -0.16445227 -0.0474664   0.04211015  0.06389391
 -0.00084336 -0.08066995  0.15833528 -0.05023035 -0.26167718  0.05836046
  0.1208952   0.19702518  0.21819077  0.0330819   0.00142786 -0.15651202
  0.14594848 -0.17685474  0.03108169  0.09221534  0.07558604  0.04682779
  0.02386621 -0.14376454  0.02333541  0.15645652 -0.08042505 -0.00942072
  0.09513626 -0.04319669 -0.02444751 -0.09181543  0.18575227  0.10947024
 -0.11676871 -0.17888591  0.10109823 -0.07246786 -0.06706371  0.03283457
 -0.1715546  -0.15433736 -0.2810646  -0.04507335  0.34649593  0.0340564
 -0.22293094  0.00584218 -0.05357581  0.0191393   0.12897389  0.12520669
 -0.02586818 -0.02115359 -0.0898879  -0.04254048  0.2582446  -0.07390601
  0.02229635  0.18548976  0.00601115  0.02894509 -0.02565168  0.04420007
 -0.06790725  0.07299881 -0.16704586 -0.01335596  0.02177866 -0.00204726
 -0.04158263  0.1422281  -0.20939381  0.11654653  0.02562343  0.0583522
  0.04186513 -0.01891541 -0.02301041 -0.05610579  0.09983359 -0.19506119
  0.14415216  0.21748865  0.02100643  0.0708935   0.08637273  0.07282963
 -0.00554573  0.04229096 -0.22662596  0.00135013  0.1309552  -0.03966652
  0.03477993  0.03114299]