[-0.04516535  0.12171526  0.12219582  0.03086332 -0.01289587 -0.01109447
 -0.04474513 -0.17168947  0.10775013 -0.08642051  0.3148253   0.02873064
 -0.18433547 -0.1309977   0.03258324  0.15130128 -0.16922139 -0.08401425
 -0.10338807  0.00102017 -0.048204   -0.00233178  0.10499358  0.02079124
 -0.05173706 -0.30287725 -0.10095413 -0.09467611  0.084874   -0.07822277
 -0.02348379 -0.04646539 -0.20944643 -0.02736263  0.015349    0.05625482
 -0.01854886 -0.02028039  0.19384384 -0.0121458  -0.20338762  0.03421634
 -0.02823582  0.19413452  0.24138656  0.01977824  0.02461604 -0.10171527
  0.05437059 -0.18139154  0.03827893  0.10670662  0.06943453  0.04108446
 -0.02098009 -0.15525199 -0.05358098  0.13038102 -0.09607214  0.01646254
  0.05277026 -0.11011302 -0.02507685  0.03794952  0.19286023  0.10498013
 -0.1253214  -0.15927897  0.13280149 -0.14349629 -0.00481591  0.10288701
 -0.12011583 -0.13365166 -0.27968234  0.02377032  0.46295401  0.03162619
 -0.21621589 -0.03838043 -0.14364932  0.01825946  0.06187459  0.12188518
  0.00491675 -0.03717013 -0.0980111  -0.00212137  0.17904623 -0.05348305
 -0.00276997  0.18688375 -0.04705055  0.05295116  0.01677663  0.03910372
 -0.01583275  0.00211086 -0.10634158 -0.03408055 -0.05157263 -0.03331879
  0.01439551  0.08215394 -0.17022674  0.13660075  0.04683859 -0.00239511
  0.09618228  0.04438022 -0.01721582 -0.08266878  0.15894829 -0.27254358
  0.25755736  0.21188238 -0.01813264  0.11537611  0.03860547  0.16582397
 -0.03991876 -0.00710098 -0.12724753 -0.04496489 -0.02990346 -0.01825181
  0.05470531 -0.02634688]