[-0.10444158  0.10493266  0.13911806 -0.02648086 -0.12365178 -0.00319053
 -0.04517626 -0.12497211  0.09663723 -0.10803451  0.20848854 -0.08285505
 -0.21053497 -0.04747168  0.01942017  0.21137773 -0.18240832 -0.20014326
 -0.00653588 -0.04578019 -0.00980882  0.02140017  0.02701431  0.01457673
 -0.17089608 -0.37654033 -0.09046794 -0.07632297 -0.00351218 -0.02299369
 -0.07311092  0.12197158 -0.13504907 -0.03252232  0.08311176  0.17683697
 -0.0202885  -0.0696606   0.1582716   0.01888321 -0.27945039  0.05769302
  0.09485805  0.27574441  0.2530888   0.02209371  0.0025489  -0.07979736
  0.14129989 -0.18644209  0.03567262  0.12585148  0.08556058  0.04705942
  0.08033787 -0.15713987  0.00867687  0.07520236 -0.14924014 -0.08039393
  0.05358651 -0.07666503  0.06394941 -0.09631946  0.20071816  0.08635025
 -0.07491864 -0.11506019  0.18458545 -0.10393198 -0.06417346  0.08172689
 -0.17769489 -0.13406003 -0.27109817 -0.01470754  0.38963613  0.0868746
 -0.18944046  0.03745404  0.02900069 -0.00148704  0.10725949  0.18201564
  0.01010709  0.02411579 -0.08579343 -0.02670904  0.21095137 -0.05819438
 -0.03332383  0.16459858 -0.00202035  0.06266933  0.10457027  0.03486131
 -0.09932733  0.00488767 -0.22759314 -0.089594   -0.06134981 -0.01528085
 -0.03764176  0.12237339 -0.16059414  0.12844764  0.01354642  0.01043769
 -0.06784226 -0.01022542  0.00272717 -0.00685692  0.12085021 -0.25531396
  0.11750835  0.176944   -0.06425851  0.1369289   0.08042733  0.04591448
 -0.04147154 -0.03746607 -0.17250703 -0.05698913  0.08165041 -0.03706234
  0.0718324   0.02864791]