[-0.15292048  0.13798255  0.13656715 -0.00478886 -0.16872177  0.00948386
 -0.00561103 -0.14429621  0.13026907 -0.09698641  0.20007184 -0.06491363
 -0.26083562 -0.00115791  0.01547496  0.16753094 -0.17387609 -0.18381524
 -0.04811156 -0.05914794  0.02157898  0.02422157  0.04941773  0.04042011
 -0.14419846 -0.365522   -0.07328039 -0.04814449  0.00665457 -0.05320253
 -0.01310256  0.08813292 -0.13250262 -0.023758    0.05635889  0.14984183
 -0.04898646 -0.10100152  0.1925195   0.00676313 -0.27595454  0.02424849
  0.04850782  0.26407859  0.24667545  0.01085458  0.00465634 -0.07101277
  0.17648359 -0.21084721  0.02318734  0.17257544  0.07711647  0.00338401
  0.11476912 -0.15877096 -0.02660353  0.12162945 -0.13604364 -0.074667
  0.06114889 -0.10138065  0.06342217 -0.11496241  0.14617585  0.09147859
 -0.05904914 -0.09623288  0.21001413 -0.10266604 -0.05504559  0.09740406
 -0.17297874 -0.15892561 -0.22462057 -0.00718472  0.44831797  0.09091996
 -0.15949559 -0.00138407  0.0019148   0.02447886  0.07518581  0.15848862
 -0.01539767 -0.02221634 -0.11077996 -0.02485949  0.1881815  -0.0397043
 -0.04655905  0.19043148  0.0297204   0.00898818  0.11307986  0.01522667
 -0.11001285 -0.01088745 -0.20424496 -0.08803044 -0.0747598  -0.04846613
 -0.0256321   0.08733155 -0.15854213  0.11232122  0.0071787   0.01273589
 -0.07795014 -0.02954124 -0.02102494  0.00929741  0.12224983 -0.27572176
  0.10973122  0.15470159 -0.09919795  0.16847967  0.03998623  0.07646123
 -0.02435831 -0.02679372 -0.11290699 -0.09639083  0.0715446   0.00166465
  0.04999318  0.01013631]