[-0.19434254  0.1031575   0.09186996  0.02175359 -0.09522085 -0.09741687
  0.03645145 -0.13393426  0.10995307 -0.03157943  0.29624692 -0.04819016
 -0.19278613 -0.17121589  0.0253868   0.13179253 -0.14793037 -0.10961491
 -0.03364446 -0.03700135  0.0334245  -0.07853081  0.06869024  0.08314205
 -0.08021521 -0.35383326 -0.07999926 -0.13756181  0.05951421 -0.05502657
 -0.07301243  0.09080256 -0.16712487 -0.10267832 -0.02965497  0.10077808
  0.01623002  0.00300105  0.19503209 -0.11523688 -0.17356327 -0.01899359
  0.02990991  0.25514033  0.22608641  0.01875822  0.06056743 -0.02721013
  0.08060046 -0.13565288  0.03723266  0.10463408  0.12356516 -0.03259781
  0.01626012 -0.16137624 -0.04503911  0.03609317 -0.13417615  0.02981788
  0.05123832 -0.10476959 -0.06294113 -0.04437504  0.19986857  0.0891173
 -0.04398938 -0.14915536  0.20394841 -0.16505417 -0.0271749   0.05920954
 -0.19771414 -0.16045578 -0.3066085   0.03086736  0.35132214  0.08832916
 -0.1727024   0.04753637 -0.08566236  0.01754873  0.06688876  0.05782083
 -0.0635322   0.0466628  -0.18507251  0.03424223  0.17271996 -0.05318382
 -0.03684505  0.18067981  0.0133756   0.02732748  0.06387725 -0.01940571
  0.00264667  0.02608675 -0.18747108  0.00255371  0.06942981 -0.10228562
  0.00961694  0.06781039 -0.18486075  0.02815155  0.00392621  0.06279691
 -0.04319832 -0.00854068 -0.13949706 -0.04280997  0.16624726 -0.1746165
  0.20082811  0.19827868  0.03601507  0.11786062  0.09227132  0.04955067
  0.00629291 -0.03146134 -0.12539607 -0.00243461  0.09169792 -0.04014262
  0.09128805  0.07416163]