[-1.22183539e-01  4.22850810e-02  7.96613172e-02 -4.21356820e-02
 -9.24642310e-02 -6.26995489e-02  1.86025733e-04 -1.15162849e-01
  6.69178441e-02 -4.85399477e-02  2.72464246e-01 -3.10578179e-02
 -2.14819744e-01 -1.47367433e-01  9.09825563e-02  9.02187154e-02
 -1.16628818e-01 -1.04130603e-01 -5.96070662e-02 -1.02763902e-02
  7.01170741e-03 -4.79190387e-02  7.81051069e-02  2.65574735e-02
 -1.12498738e-01 -3.63804668e-01 -1.22577384e-01 -1.08033597e-01
  4.66967758e-04 -5.77608235e-02 -4.18584459e-02  9.64298472e-02
 -1.19309224e-01 -4.90360148e-02  7.55637977e-03  9.50982198e-02
 -3.69926430e-02 -5.42830303e-02  2.45130301e-01 -3.97855006e-02
 -1.96052715e-01 -4.75578494e-02  3.29955630e-02  2.53229886e-01
  2.20769048e-01 -2.39262134e-02  6.58615977e-02  1.29122948e-02
  1.08022265e-01 -1.67693138e-01  8.12171921e-02  1.08385347e-01
  1.30153015e-01 -4.29213885e-03  6.41456395e-02 -1.23868562e-01
 -2.19450332e-03  1.34883121e-01 -1.75872982e-01  2.59071775e-02
  2.68726237e-02 -1.65555030e-01 -7.31202886e-02 -6.59659952e-02
  1.86098754e-01  1.53279871e-01 -7.05036446e-02 -1.43857345e-01
  1.58596367e-01 -1.25987217e-01 -8.67568254e-02  1.99886169e-02
 -2.15548903e-01 -1.61224812e-01 -3.21984738e-01  6.99699810e-03
  2.97165483e-01  8.45431834e-02 -2.06694201e-01  4.30752113e-02
 -2.55781319e-02 -6.99451426e-03  8.21491703e-02  9.22925323e-02
 -7.48845935e-02  5.53110540e-02 -1.26269594e-01  1.10486755e-02
  1.75219268e-01 -5.62716313e-02 -4.49547358e-02  1.78464457e-01
 -1.76455285e-02  3.62720564e-02  1.03883281e-01 -2.82836799e-02
  1.29856290e-02 -1.70329362e-02 -1.72540769e-01  1.16540184e-02
  6.63544908e-02 -1.66571409e-01  1.99891184e-03  7.07463920e-02
 -2.22625211e-01  8.20399672e-02  1.97173189e-02  3.10621895e-02
 -1.85910780e-02 -6.80008158e-02 -1.04094282e-01 -1.96831953e-02
  1.60676107e-01 -2.32578740e-01  1.71897933e-01  1.96366191e-01
  1.57309603e-02  1.43051103e-01  9.37081352e-02  4.10162769e-02
 -1.92609970e-02 -1.49716763e-02 -1.54318064e-01 -1.46785891e-02
  8.42970312e-02  4.19171415e-02  7.78842717e-02  6.89833984e-02]