[-0.13567975  0.08472593  0.07763924 -0.05117873 -0.06401537 -0.04014329
 -0.05180092 -0.16494262  0.08263791 -0.06735522  0.19483116 -0.04722673
 -0.18564828 -0.06900366 -0.00603785  0.21297304 -0.15696439 -0.12824175
 -0.08458015  0.03034248 -0.00411641 -0.02146745  0.05183613  0.02590496
 -0.1124137  -0.33703989 -0.07847992 -0.0606278  -0.03704205  0.00465007
 -0.10726267  0.02729735 -0.18481381 -0.04365329  0.05718289  0.10738398
 -0.02101549 -0.07943027  0.16557534 -0.0071219  -0.23815878  0.05083514
  0.08897948  0.21295564  0.21932247  0.01477503  0.06091336 -0.13505302
  0.14077649 -0.1753215   0.06153035  0.06324556  0.08030819  0.04198971
  0.03436993 -0.16796902  0.02476484  0.12842557 -0.10428824 -0.00930113
  0.08140195  0.00473791 -0.04338072 -0.09267175  0.20723324  0.14058112
 -0.10794856 -0.1854253   0.12093242 -0.09455454 -0.04205903  0.03876349
 -0.17018524 -0.16981533 -0.28217033 -0.02387606  0.30873546  0.07297485
 -0.23661168 -0.0168359  -0.05083029  0.02287327  0.1293502   0.11624309
  0.01423671  0.01080391 -0.07875849 -0.0448318   0.26781973 -0.05278899
 -0.01078109  0.19629364  0.01965939  0.0154799  -0.00254441  0.02414662
 -0.06683747  0.05444438 -0.16955261 -0.01926987  0.00334606 -0.00356774
 -0.0187409   0.13068597 -0.21003249  0.12449264  0.00936807  0.06452046
  0.03331719 -0.0236326  -0.06270727 -0.04906084  0.10317635 -0.20424496
  0.17562909  0.20030704  0.02176897  0.06360614  0.07807107  0.0520327
  0.00805299  0.05797018 -0.22732596 -0.0061719   0.10556244 -0.04919738
  0.03410226  0.03780068]