[-7.70321190e-02  1.17471233e-01  1.18454449e-01 -6.86571673e-02
 -1.04066588e-01  4.68770377e-02 -2.09222119e-02 -1.07953571e-01
  1.28027469e-01 -1.05912223e-01  2.76910275e-01 -6.19986132e-02
 -2.27093458e-01 -1.01537488e-01  2.68798266e-02  2.12992713e-01
 -1.67116553e-01 -1.35354742e-01 -1.58195980e-02 -5.68820015e-02
 -2.91223526e-02  4.23145406e-02  2.49717887e-02  1.57458279e-02
 -1.47500753e-01 -3.71543735e-01 -9.80029926e-02 -8.16159248e-02
 -1.68334190e-02 -4.42260019e-02 -4.70579080e-02  1.09195709e-01
 -1.31819770e-01 -1.58731099e-02  7.95500427e-02  1.45778641e-01
 -4.76683639e-02 -7.74137527e-02  1.15349881e-01  1.58449244e-02
 -1.82680845e-01  1.08817294e-02  9.47274193e-02  2.83307642e-01
  2.36256585e-01  1.21621517e-02  1.13659231e-02 -6.54406697e-02
  1.46118030e-01 -2.01248273e-01  5.09493239e-02  7.70808607e-02
  8.56848881e-02  1.93285979e-02  1.14957206e-01 -1.64964899e-01
 -2.60382928e-02  1.17966570e-01 -1.50886595e-01 -5.86474827e-03
 -5.52940788e-03 -6.06551543e-02 -4.37827688e-03 -9.96843874e-02
  2.24706963e-01  1.08658865e-01 -1.29293844e-01 -8.79041776e-02
  2.22078681e-01 -8.56012180e-02 -3.47009189e-02  5.28846197e-02
 -1.87131003e-01 -1.66510537e-01 -2.71290660e-01 -1.03342850e-02
  3.93893570e-01  8.50279853e-02 -2.25940019e-01  2.36772001e-04
  2.60377619e-02  6.56047603e-03  9.04213265e-02  1.86182186e-01
  1.26265204e-02 -1.01130567e-02 -8.89402479e-02 -1.65296402e-02
  2.18132243e-01 -6.56426251e-02 -4.03899513e-02  2.35314161e-01
 -3.58602367e-02  4.38528471e-02  6.50436133e-02 -7.14185124e-04
 -6.91210851e-02 -3.17080542e-02 -2.24483654e-01 -8.91646370e-02
 -6.51142523e-02 -8.07959959e-02 -7.70243183e-02  1.18723087e-01
 -1.78735092e-01  1.26593307e-01  5.88534139e-02  2.29094122e-02
 -4.26528789e-02 -3.34908366e-02 -3.88939865e-02  2.54814792e-03
  1.64120540e-01 -2.62522489e-01  1.35563537e-01  1.64835274e-01
 -1.38980215e-02  1.55799434e-01  6.33278266e-02  4.58324514e-02
  3.07790050e-03 -8.41681734e-02 -1.53546095e-01 -5.53175323e-02
  3.95355783e-02 -6.61681667e-02  3.87884453e-02  2.20414903e-02]