[-1.08426630e-01  5.76030873e-02  1.03756204e-01 -1.67768691e-02
 -1.26220822e-01 -2.05057282e-02 -2.74978969e-02 -1.05383396e-01
  4.46900800e-02 -6.58852980e-02  2.68187523e-01 -1.92120597e-02
 -2.34004840e-01 -1.11697234e-01  7.86838681e-02  8.96361545e-02
 -9.44131389e-02 -1.19491890e-01 -5.78918569e-02  6.89014373e-03
  2.15488337e-02 -2.78211366e-02  6.94237947e-02  1.93474200e-02
 -9.02158543e-02 -3.59834045e-01 -1.23575650e-01 -6.77251816e-02
  3.27528566e-02 -6.99319392e-02 -2.66099703e-02  6.15825132e-02
 -1.20137110e-01 -2.01227646e-02  7.82002695e-03  1.09489478e-01
 -4.85604480e-02 -9.80018079e-02  2.49569699e-01 -4.98441383e-02
 -2.01200828e-01 -4.71159182e-02  2.23232266e-02  2.58473128e-01
  1.95047900e-01 -1.82285365e-02  7.76381120e-02 -2.65060607e-02
  9.87284705e-02 -1.77708864e-01  1.28915563e-01  1.19132139e-01
  1.34216875e-01  1.85959246e-02  3.02726813e-02 -1.61858484e-01
  2.35925280e-02  1.56697839e-01 -1.68734416e-01  5.50990365e-02
  5.85835241e-02 -1.69670746e-01 -5.86724579e-02 -7.52301663e-02
  1.86577171e-01  1.46330863e-01 -7.64633119e-02 -1.83897555e-01
  1.35858163e-01 -1.38127357e-01 -8.77821967e-02  4.22060601e-02
 -2.08702236e-01 -1.54981002e-01 -3.24335158e-01  7.73137063e-03
  3.14765900e-01  8.53573009e-02 -2.19878748e-01  1.88491177e-02
 -1.56617593e-02  3.04987631e-03  9.27690417e-02  1.26854777e-01
 -5.97823225e-02  5.37770381e-03 -1.50273189e-01  1.53054418e-02
  1.98639974e-01 -6.14147186e-02 -5.04946187e-02  1.89911231e-01
  1.33756241e-02  2.46176068e-02  9.36597660e-02  2.45956192e-03
  1.13544455e-02  3.37283331e-04 -1.39013216e-01  2.97585409e-02
  4.61146347e-02 -1.60516903e-01 -1.42363161e-02  7.04174787e-02
 -2.20836714e-01  1.21410206e-01  1.44261243e-02  4.53363433e-02
  1.87003277e-02 -1.06229939e-01 -1.27625987e-01 -2.13269778e-02
  1.88551456e-01 -2.51432091e-01  1.72556147e-01  1.94442138e-01
  5.28036132e-02  1.57375962e-01  1.14583708e-01  9.35234055e-02
 -1.68488850e-03 -3.67331319e-02 -1.92163289e-01 -1.74869597e-03
  6.35309815e-02  1.65044311e-02  5.54198585e-02  8.57408866e-02]