[-8.27927738e-02  1.01017907e-01  1.18548714e-01  5.08272313e-02
 -9.68792010e-03 -2.87119895e-02 -3.59364413e-02 -2.01507136e-01
  1.19723134e-01 -8.46927911e-02  3.19344103e-01 -2.58584749e-02
 -1.79454133e-01 -1.37052685e-01  5.38846245e-03  2.13265106e-01
 -2.10791066e-01 -1.06791154e-01 -5.47199510e-02 -1.44793987e-02
 -7.36991409e-03 -3.96427996e-02  6.23376966e-02  1.75620764e-02
 -6.25424311e-02 -3.29976201e-01 -9.87988636e-02 -1.04058661e-01
  8.21357742e-02 -6.76680505e-02 -5.21070920e-02 -7.25824712e-03
 -1.63494900e-01 -8.23183544e-03  3.16826068e-02  5.58674634e-02
 -1.41895711e-02 -4.81515490e-02  2.21893594e-01 -4.36256416e-02
 -1.88709781e-01  1.02225747e-02  2.36649346e-02  2.02551201e-01
  2.59912521e-01  3.38177979e-02  9.67163593e-03 -9.76277143e-02
  9.95885059e-02 -1.93284854e-01  6.52847067e-03  8.50655586e-02
  6.43753409e-02  3.13899033e-02 -2.26449966e-02 -1.59021974e-01
 -5.65482937e-02  6.61793202e-02 -1.21879123e-01  2.29226034e-02
  6.55748025e-02 -1.76915497e-01 -3.99923660e-02  2.44473703e-02
  2.01622084e-01  1.00444846e-01 -9.98294204e-02 -1.49977952e-01
  1.30657420e-01 -1.63769722e-01  1.10964226e-02  5.44227138e-02
 -1.30226225e-01 -1.47739276e-01 -3.00211966e-01 -1.87473353e-02
  4.41658169e-01  1.79643519e-02 -1.92497760e-01 -2.30219099e-03
 -7.27748647e-02  1.46171749e-02  1.18012153e-01  1.17175914e-01
  2.35354272e-03 -4.71855775e-02 -1.37001321e-01 -2.25634165e-02
  2.23950893e-01 -8.99462998e-02  9.19583812e-03  1.95602849e-01
 -7.49180838e-02  5.13296388e-02  1.51979988e-02  2.05821395e-02
 -1.43134836e-02  2.94342334e-03 -1.01268999e-01 -5.13356216e-02
 -2.08877400e-02 -2.74967849e-02  4.32347283e-02  6.49332106e-02
 -1.68240055e-01  7.42341429e-02  2.16429438e-02  3.67170051e-02
  7.93211684e-02 -3.53241200e-03 -7.50820041e-02 -8.05469155e-02
  1.67954996e-01 -2.20958516e-01  2.18848705e-01  2.01121688e-01
  1.59281117e-04  1.12801425e-01  4.92000654e-02  1.37893841e-01
 -5.22022508e-02 -2.85236543e-04 -1.27729386e-01  2.19440466e-04
 -1.82863220e-03 -2.51328642e-03  7.18223378e-02 -1.83360167e-02]