[-0.09877529  0.1142324   0.14458841 -0.04984137 -0.16614772  0.01190439
 -0.00224548 -0.10841646  0.08322418 -0.08214646  0.22365455 -0.07986846
 -0.18490498 -0.02908178  0.01447555  0.20944853 -0.18459401 -0.13746946
 -0.03587806 -0.0618589   0.00926424  0.07097697 -0.03022072 -0.01385515
 -0.11198127 -0.37312007 -0.06298015 -0.0632167   0.0803963  -0.0089698
 -0.02689052  0.10176946 -0.12295111 -0.0161518   0.04412723  0.09545098
 -0.07142357 -0.081771    0.16245127  0.01831072 -0.26457974  0.06977778
  0.04230874  0.28627089  0.22808015  0.02946616  0.04117693 -0.08910232
  0.12314246 -0.21487592  0.04304456  0.11522228  0.01760597  0.03759892
  0.03190447 -0.16192001  0.01713554  0.0541191  -0.1971633  -0.01688056
  0.12499063 -0.08604919  0.05564652 -0.06124387  0.20124142  0.07845563
 -0.06534152 -0.11496413  0.19365631 -0.1167799  -0.04696825  0.05126837
 -0.15652601 -0.13096802 -0.26278493  0.02143824  0.4701483   0.08913182
 -0.17258722 -0.00995801 -0.00586784  0.01322082  0.21986035  0.13302369
  0.00095463 -0.06944563 -0.10508903  0.00122043  0.24669679 -0.06544124
 -0.05594387  0.20552413  0.04973232  0.02639399  0.06861773  0.05735321
 -0.05977586  0.02959316 -0.16496648 -0.03279872 -0.01756012 -0.05464546
 -0.01342728  0.14977786 -0.15833291  0.21714173  0.03334988  0.05000929
 -0.03953352 -0.03705183 -0.03801985  0.0186593   0.15702507 -0.18925327
  0.16172206  0.1741576  -0.00058095  0.13970521  0.08450749  0.03275258
 -0.03405252 -0.07700645 -0.20782275 -0.04359022  0.06834875 -0.0404345
  0.07463975  0.07117809]