[-4.33130749e-02  7.39827380e-02  9.95531678e-02  2.91072726e-02
 -7.55828992e-02  1.89036820e-02 -3.55211794e-02 -1.50217056e-01
  1.10940516e-01 -1.10323958e-01  3.45432609e-01  1.34374574e-03
 -2.29366615e-01 -1.35027394e-01 -2.09511234e-03  1.76175058e-01
 -1.37749016e-01 -6.30642325e-02 -1.02352574e-01  2.46958639e-02
  6.06677914e-03 -3.34146023e-02  8.32622871e-02 -3.11390427e-03
 -8.24312717e-02 -3.34042639e-01 -9.38017219e-02 -8.69427547e-02
  2.89430078e-02 -8.57565105e-02 -4.07762639e-02  3.84361483e-02
 -1.30849957e-01 -3.53214629e-02  2.91767325e-02  4.32870761e-02
 -6.09230287e-02 -4.95219529e-02  2.23302081e-01 -2.59853192e-02
 -2.06131577e-01  2.62094531e-02 -2.29366478e-02  1.97123140e-01
  2.36569524e-01  8.61351099e-03  3.02548390e-02 -1.01372615e-01
  1.18268169e-01 -2.56078362e-01  2.47192029e-02  8.37646648e-02
  7.75846913e-02  3.98740433e-02  6.21795915e-02 -1.30140826e-01
 -3.62975486e-02  1.52816996e-01 -1.21982135e-01 -1.82437900e-04
 -1.56615935e-02 -1.54883608e-01 -3.50409895e-02 -4.27640788e-02
  1.67404354e-01  1.34086490e-01 -1.04319945e-01 -1.28934383e-01
  1.45803824e-01 -1.39099047e-01 -2.76122149e-02  8.62087086e-02
 -1.31257966e-01 -1.69361576e-01 -3.07909250e-01 -1.54633047e-02
  4.08414036e-01  9.01808366e-02 -2.42966682e-01 -3.89517806e-02
 -4.03824672e-02  1.43844131e-02  1.01804130e-01  1.34110957e-01
  2.13237833e-02 -5.43293953e-02 -8.66849199e-02 -4.45598401e-02
  1.73064992e-01 -1.02887765e-01 -6.38704142e-03  2.50007480e-01
 -2.34253854e-02  6.13407269e-02  5.11867814e-02  6.96884561e-03
 -1.36798797e-02 -2.99928188e-02 -1.16054036e-01 -2.91192364e-02
 -1.42844114e-02 -5.01377843e-02  2.37261709e-02  5.98302782e-02
 -1.57235935e-01  9.83755589e-02 -1.66269727e-02  3.52761336e-02
  8.75099376e-02 -4.91027273e-02 -2.32660975e-02 -4.29092534e-02
  1.49125949e-01 -2.74903476e-01  1.95899650e-01  1.85420901e-01
 -3.67992185e-02  1.20130681e-01  4.85870764e-02  1.02444485e-01
 -4.49389368e-02 -2.21891236e-02 -1.42212749e-01 -3.88037078e-02
  2.39187963e-02 -1.13823218e-02  1.22431284e-02 -4.94760275e-02]