[-2.11292893e-01  6.21243715e-02  9.60567221e-02 -1.98038351e-02
 -1.04773343e-01 -1.08506002e-01  4.82606888e-02 -1.08020201e-01
  1.04850948e-01 -4.01465893e-02  2.73450553e-01 -1.75349191e-02
 -2.14744717e-01 -1.46628022e-01  4.04858403e-02  1.06132023e-01
 -1.24201156e-01 -8.77549872e-02 -3.84762287e-02 -3.61987837e-02
  3.99758592e-02 -6.26881644e-02  6.67770877e-02  7.10989460e-02
 -9.28743854e-02 -3.44112307e-01 -9.38392878e-02 -1.09236792e-01
  1.96956228e-02 -1.78881139e-02 -3.35334837e-02  1.18956245e-01
 -1.50695741e-01 -8.58180746e-02 -1.04095154e-02  1.45660982e-01
 -2.05839965e-02  1.34387789e-02  1.96139589e-01 -8.82313848e-02
 -1.72792599e-01 -4.83201817e-02  4.43558507e-02  2.54194856e-01
  2.22941980e-01  6.25712657e-03  5.65899983e-02 -3.66798049e-04
  8.94613788e-02 -2.07707956e-01  3.12763676e-02  1.16933100e-01
  1.01258337e-01 -2.73586754e-02  9.56973508e-02 -1.52237430e-01
 -2.55152094e-03  8.55382383e-02 -1.48243219e-01  2.90803798e-02
 -1.56802835e-03 -1.23174883e-01 -4.64166030e-02 -3.64694856e-02
  2.14415237e-01  1.12981655e-01 -6.63314089e-02 -1.12199843e-01
  2.12840244e-01 -1.49452910e-01 -3.66283283e-02  7.50445575e-02
 -2.00621367e-01 -1.68298677e-01 -3.09917182e-01  3.04861423e-02
  3.79859716e-01  9.75814462e-02 -1.51227519e-01  7.56412670e-02
 -7.88163617e-02 -2.85660452e-03  8.39555040e-02  6.15873449e-02
 -6.49767816e-02  3.60625498e-02 -1.70224175e-01  3.42072509e-02
  1.61759272e-01 -4.67879325e-02 -2.94567235e-02  1.93793491e-01
  1.93194151e-02  5.24979196e-02  7.42045790e-02 -3.19917463e-02
  2.84875790e-03 -8.70061200e-03 -1.95882037e-01 -6.84833899e-03
  7.28884116e-02 -1.35095164e-01  1.30723957e-02  7.10058361e-02
 -1.94767863e-01  1.27376318e-02  1.01558985e-02  4.66253534e-02
 -4.81501743e-02 -2.71856543e-02 -1.30043224e-01 -1.95532274e-02
  1.41090229e-01 -2.17021272e-01  2.08757922e-01  1.93710238e-01
 -2.21809875e-02  1.19568489e-01  8.82758722e-02  1.49158631e-02
  1.33004067e-02 -4.33802158e-02 -9.72650647e-02 -9.15863377e-04
  7.97439143e-02 -2.89240982e-02  6.62118047e-02  5.99085353e-02]