[-5.49513809e-02  1.12286709e-01  8.98061171e-02  3.11325975e-02
 -2.14613564e-02 -1.21942731e-02 -3.57261896e-02 -1.91677973e-01
  1.21241406e-01 -8.79597068e-02  3.13738137e-01  5.24799898e-03
 -1.73636034e-01 -1.33912638e-01  1.81392562e-02  1.49979442e-01
 -2.08944827e-01 -1.01094998e-01 -5.32003231e-02  2.10599266e-02
 -1.99677348e-02 -2.22388469e-02  8.27875957e-02  1.97646823e-02
 -5.52335158e-02 -3.02095741e-01 -1.08752012e-01 -8.77466127e-02
  1.01075642e-01 -5.47746830e-02 -5.02573550e-02 -3.71338427e-02
 -2.23365143e-01 -3.53835039e-02  2.73234453e-02  5.68315685e-02
 -4.52228971e-02 -4.29816023e-02  2.24342853e-01 -2.27529593e-02
 -2.01699853e-01  3.49905603e-02 -1.02121802e-02  1.77709132e-01
  2.31186673e-01  2.33761035e-02  4.95829387e-03 -1.27862096e-01
  7.21534267e-02 -1.58384129e-01  1.88823938e-02  1.39571831e-01
  6.58205152e-02  4.58593443e-02 -5.72836883e-02 -1.47672355e-01
 -4.99783978e-02  1.22468069e-01 -1.08393095e-01  1.68305691e-02
  6.35023043e-02 -1.32810801e-01 -8.96613207e-03  1.71087887e-02
  1.91366240e-01  9.27355215e-02 -1.10271312e-01 -1.71139508e-01
  1.25465408e-01 -1.54600337e-01 -2.12131627e-02  1.02296188e-01
 -1.13602273e-01 -1.61054298e-01 -2.75456250e-01  1.09070097e-03
  4.49848562e-01  2.98010688e-02 -1.80258378e-01 -1.28894970e-02
 -1.21115327e-01 -1.49337593e-02  9.66778249e-02  1.38349682e-01
  8.26198608e-03 -3.50847617e-02 -9.84066501e-02 -1.48884328e-02
  2.24567175e-01 -5.41699491e-02 -8.09211656e-03  1.84025407e-01
 -5.63626066e-02  7.55049363e-02  2.03919094e-02  2.30922755e-02
  4.94523859e-03  1.05137546e-02 -1.02065317e-01 -2.72883121e-02
 -6.37932345e-02 -4.86101769e-02  1.01352008e-02  8.70134383e-02
 -1.66439340e-01  1.05047427e-01  4.83251028e-02  6.29531452e-03
  8.00891444e-02 -2.79750297e-04 -3.83431837e-02 -6.94339797e-02
  1.51354745e-01 -2.82309264e-01  2.72755444e-01  1.95591509e-01
  8.21558852e-03  1.21115282e-01  5.41532114e-02  1.43346131e-01
 -4.49902415e-02 -2.42893975e-02 -1.51663229e-01 -3.04926876e-02
 -5.19629102e-03 -9.80101340e-03  9.29440707e-02 -3.45362835e-02]