[-0.10376688  0.07917076  0.12120312 -0.07436986 -0.06075218 -0.04239191
 -0.04953241 -0.15407231  0.14202312 -0.11061732  0.19402477 -0.03276066
 -0.17168528 -0.06282955  0.00290056  0.20816544 -0.18910752 -0.1289721
 -0.0552788   0.04421844  0.01088625 -0.01611459  0.02020084  0.00142128
 -0.10387999 -0.32116321 -0.09347312 -0.04063339 -0.00523469 -0.04123821
 -0.12807691  0.03642406 -0.16390942 -0.04745806  0.03437289  0.08644058
 -0.01786143 -0.07852349  0.15989183 -0.01945641 -0.29357377  0.07182385
  0.07652994  0.18556003  0.24391873  0.02308995  0.02437669 -0.18103395
  0.15864775 -0.15887396  0.02399801  0.086268    0.07655864  0.02077671
  0.0215642  -0.16746758 -0.00917673  0.12026081 -0.11073592 -0.0192174
  0.10020573 -0.03600417 -0.02627603 -0.07814939  0.1719837   0.10385163
 -0.11673694 -0.17696199  0.12019236 -0.09502618 -0.03788558  0.05624412
 -0.15204059 -0.17956452 -0.25517914 -0.03339026  0.3627623   0.04888704
 -0.21459754  0.02106053 -0.07648327  0.00385485  0.14185046  0.144739
 -0.00325311  0.00591741 -0.05772702 -0.03931465  0.25566289 -0.05620606
  0.02667316  0.17115492  0.01042957  0.05066198 -0.02123666  0.02693666
 -0.06940154  0.08190807 -0.16949056 -0.03845687  0.00595407 -0.01878348
 -0.00126334  0.14545487 -0.21541975  0.13564287  0.04713961  0.05605197
  0.07838899 -0.00081896 -0.0298104  -0.06633972  0.10134373 -0.22965048
  0.15955351  0.20272923  0.00670665  0.07799266  0.08554517  0.09250421
  0.00123841  0.03590089 -0.22249785  0.01813972  0.11226132 -0.0336615
  0.06999461  0.01330293]