[-0.08752455  0.06844857  0.13859026 -0.01597658 -0.11099674 -0.06441214
 -0.05426793 -0.18396528  0.10784595 -0.09084844  0.21499096 -0.04707063
 -0.17199403 -0.06611746 -0.04141901  0.22492988 -0.20121038 -0.13969219
 -0.05593401  0.01334603  0.01260638  0.01353436  0.05717012 -0.01738175
 -0.1214741  -0.37466261 -0.09912582 -0.04808534  0.01497921 -0.0031348
 -0.13177694  0.07535263 -0.15936631 -0.05422397  0.07472803  0.07764792
 -0.02562075 -0.08923657  0.13567996 -0.01541417 -0.28771576  0.10108508
  0.07435377  0.21278055  0.25556585  0.01017754  0.04367673 -0.14048307
  0.12821391 -0.16645049  0.00416249  0.09732559  0.05411136  0.03765704
  0.0242664  -0.11857072 -0.01548162  0.12912033 -0.09196839 -0.03363911
  0.10901564 -0.07423078 -0.03190597 -0.08145801  0.1564734   0.0832442
 -0.11521848 -0.17262967  0.10578384 -0.11850627 -0.06451172  0.0217654
 -0.16794029 -0.15083545 -0.28843832 -0.03251889  0.36670107  0.03647906
 -0.21128061  0.027571   -0.03566546  0.06509712  0.13000624  0.1552965
  0.0211986   0.01057483 -0.082555   -0.0473081   0.22862272 -0.08417822
  0.00847435  0.21539588  0.00167953  0.0524391   0.01905269  0.05648291
 -0.05665354  0.05331426 -0.14696781 -0.01348514  0.0245031  -0.00413343
 -0.01126502  0.122645   -0.18413137  0.12602563  0.00086361  0.08981338
  0.08451503 -0.04121239 -0.00986472 -0.06239051  0.08326529 -0.24691831
  0.16703796  0.23144375 -0.00229219  0.08852     0.06418066  0.03548417
 -0.01780986  0.03059782 -0.20300452 -0.02661483  0.09172095 -0.05148698
  0.00640561  0.00793026]