[-1.31517768e-01  8.33083466e-02  7.70906135e-02  6.31871680e-03
 -9.20779556e-02 -6.73307776e-02 -7.20919622e-03 -1.36994496e-01
  6.86004460e-02 -9.94456280e-03  3.10632557e-01 -6.54752180e-02
 -2.12725505e-01 -1.20019369e-01  4.30116840e-02  1.12082496e-01
 -1.11888885e-01 -8.04549828e-02 -6.80012479e-02  9.86056775e-03
  3.97668546e-03 -7.83952549e-02  1.11398116e-01  3.92676853e-02
 -7.02979118e-02 -3.75339597e-01 -1.23822264e-01 -1.42693669e-01
  5.72970808e-02 -5.93428388e-02 -6.97744116e-02  8.08334723e-02
 -1.27989203e-01 -7.37825632e-02  3.98242939e-03  7.72197694e-02
 -5.57668023e-02 -6.96040913e-02  2.50477523e-01 -4.35264707e-02
 -1.69538766e-01 -3.68445925e-02  1.90599747e-02  2.59289831e-01
  2.38477930e-01  2.57175397e-02  7.16313049e-02 -1.70896556e-02
  6.86435029e-02 -1.65075406e-01  9.78082642e-02  8.30064490e-02
  1.55790254e-01 -6.43939525e-03  6.33441210e-02 -1.39168367e-01
 -1.70638494e-03  8.00472721e-02 -1.72338367e-01  2.44428907e-02
  4.38567437e-02 -9.43111107e-02 -9.46563780e-02 -7.87897035e-02
  2.12727949e-01  1.75711453e-01 -6.34979233e-02 -1.11561060e-01
  1.60938606e-01 -1.44778192e-01 -4.75419164e-02  4.11362574e-02
 -2.02228144e-01 -1.76601022e-01 -2.79055178e-01  1.07051362e-03
  3.29109609e-01  9.87721980e-02 -2.10254654e-01  1.29506914e-02
  8.41620786e-04 -1.62057281e-02  9.17346254e-02  9.43186879e-02
 -8.22715536e-02  3.31056938e-02 -1.18873611e-01 -7.37883011e-03
  1.61146700e-01 -8.46662819e-02 -4.31060754e-02  1.99595720e-01
 -2.75752302e-02  2.94983629e-02  8.30082297e-02 -4.45423983e-02
  3.87161002e-02  4.67512029e-04 -1.55962199e-01 -5.04729105e-03
  7.04822764e-02 -1.25265941e-01 -1.22285346e-02  3.27777378e-02
 -2.06066355e-01  3.16647254e-02  1.41490763e-02  4.63816524e-02
  1.33439153e-02 -8.54950249e-02 -1.18010715e-01 -2.97344718e-02
  1.88151404e-01 -2.32083067e-01  1.69773206e-01  1.93337828e-01
 -8.80472362e-05  1.05896987e-01  9.29602236e-02  5.04852906e-02
  2.11783983e-02 -1.01294937e-02 -1.69534519e-01  3.43742227e-04
  9.47424918e-02  1.03616051e-03  4.72107492e-02  4.81197536e-02]