[-1.06029764e-01  6.88105971e-02  8.24193135e-02 -5.89524619e-02
 -9.94115844e-02 -3.20964046e-02 -5.35211675e-02 -1.51283845e-01
  1.03086606e-01 -9.96480510e-02  1.86095506e-01 -6.09112643e-02
 -1.90827236e-01 -4.84351292e-02 -3.83620076e-02  2.05610916e-01
 -1.47991449e-01 -1.17630742e-01 -8.90182853e-02  3.77423726e-02
  1.00011565e-02  1.11737680e-02  2.34998297e-02  2.14517917e-02
 -9.44712535e-02 -3.59247059e-01 -7.52760395e-02 -1.80174317e-02
 -3.88036557e-02  6.95804367e-03 -1.19671427e-01  9.22481120e-02
 -1.70815676e-01 -4.82120104e-02  5.22082560e-02  1.12628900e-01
 -6.83343271e-03 -7.43725598e-02  1.43591240e-01  2.11899038e-02
 -2.81230330e-01  8.26301575e-02  8.05315897e-02  2.17867285e-01
  2.38347635e-01  2.25933250e-02  4.28808220e-02 -1.45142496e-01
  1.43633559e-01 -1.59381136e-01  1.14008589e-02  1.11048020e-01
  6.59421682e-02  1.89501215e-02  1.99688654e-02 -1.54735923e-01
 -3.35514545e-03  1.16427556e-01 -7.75085464e-02 -4.60269824e-02
  9.26508978e-02 -2.35288143e-02 -3.13185044e-02 -1.22428492e-01
  1.93886086e-01  1.02121532e-01 -1.21966563e-01 -1.55244872e-01
  1.47626147e-01 -8.95753279e-02 -4.78170179e-02  1.94784142e-02
 -1.82762727e-01 -1.59496248e-01 -2.50173777e-01 -1.06088389e-02
  3.55765820e-01  5.88356368e-02 -2.14719817e-01  2.32089013e-02
 -7.04773366e-02  3.60512324e-02  1.30431160e-01  1.40219733e-01
  2.51704659e-02  4.92116451e-05 -4.71559353e-02 -4.74050529e-02
  2.62131274e-01 -4.74390760e-02  6.68937061e-03  1.97777599e-01
  1.89850684e-02  2.61193998e-02  1.20344916e-02  1.84550155e-02
 -6.18806854e-02  6.66174591e-02 -1.68185309e-01  1.95531175e-03
  5.94395620e-04 -5.30479625e-02 -8.75321962e-03  1.22958876e-01
 -2.08667025e-01  1.29852995e-01  2.42946427e-02  8.64997730e-02
  8.77277255e-02 -5.77176781e-03 -5.18756174e-02 -5.44092059e-02
  1.07036926e-01 -2.23121881e-01  1.74263090e-01  1.82479039e-01
  1.97203252e-02  8.63577724e-02  1.04762755e-01  9.65662152e-02
  7.42672523e-03  4.38986495e-02 -2.18422174e-01 -3.55351828e-02
  1.13169625e-01 -4.52552848e-02  3.30470018e-02  2.79255416e-02]