[-0.05695727  0.07929748  0.08477106 -0.00079642  0.00689961  0.01399613
 -0.03862283 -0.1621346   0.13783586 -0.12757866  0.34744439  0.02581285
 -0.14833014 -0.15352212  0.02893451  0.17168257 -0.18367788 -0.07328723
 -0.06285193  0.0260904   0.02767095 -0.03074727  0.08239156  0.00961114
 -0.0985397  -0.31548259 -0.13360257 -0.07326015  0.0306422  -0.04730832
 -0.05866675  0.03100417 -0.16072717 -0.00926539  0.00555421  0.06539686
 -0.0234158  -0.04801498  0.21518433 -0.00981471 -0.18967335  0.04869858
 -0.00738405  0.21286885  0.21936345 -0.01691018  0.01527945 -0.08885367
  0.09024816 -0.18925856  0.0460376   0.08984178  0.06782085  0.06258748
 -0.0266317  -0.12826864  0.0030084   0.09957572 -0.09655263 -0.00337384
  0.03296037 -0.16571285 -0.03170327  0.02133877  0.16787755  0.15432332
 -0.08967536 -0.1807199   0.09977823 -0.11043248 -0.020694    0.07562432
 -0.18380086 -0.16417713 -0.30006513  0.00853001  0.41972861  0.05043008
 -0.22988141 -0.00886246 -0.0816934   0.0158771   0.15179223  0.14325523
  0.02024685 -0.03383599 -0.12183403  0.00350356  0.2184418  -0.0777605
 -0.04361027  0.22254823 -0.011092    0.07288044  0.04965115  0.01581138
  0.03688435  0.00947568 -0.1287183   0.00162205 -0.02402163 -0.04040335
 -0.0211426   0.08434144 -0.17523077  0.12408213  0.05011861  0.03035228
  0.09467811 -0.00629681 -0.06245507 -0.07368693  0.12702961 -0.23647909
  0.1883436   0.19679296  0.02857968  0.13263109  0.06628141  0.14798848
 -0.05635718 -0.00549565 -0.1656628   0.0154176   0.02509491  0.02925563
  0.05182331 -0.02025159]