[-0.11738864  0.07191668  0.12110665 -0.06775782 -0.09060808 -0.03422431
 -0.05156696 -0.14911269  0.13355213 -0.12452712  0.23925589 -0.01577044
 -0.1836644  -0.08433879 -0.01536063  0.23025472 -0.20366152 -0.12889592
 -0.0741119   0.03736392  0.02596312  0.01480281  0.03016492  0.01400729
 -0.10815569 -0.36357364 -0.09208029 -0.04047693 -0.01573682 -0.04194205
 -0.12855451  0.06073518 -0.15084693 -0.05969469  0.04864876  0.08278245
  0.00641051 -0.04899724  0.14789933 -0.02437884 -0.28674465  0.09242075
  0.09531419  0.2172232   0.23992813  0.03092917  0.03057048 -0.1628397
  0.14706613 -0.18362074 -0.00596392  0.09359317  0.0649574   0.02247638
  0.0179309  -0.145904   -0.03063264  0.1147949  -0.09371042 -0.01430626
  0.08474397 -0.05758494 -0.03989632 -0.09316961  0.16548751  0.08319286
 -0.14131729 -0.17758781  0.10039487 -0.10190047 -0.06732412  0.02788248
 -0.18204211 -0.16807775 -0.29378071 -0.03892801  0.36646244  0.04142487
 -0.22501767  0.02318606 -0.06563631  0.02388751  0.11189315  0.14450219
  0.00869006  0.00942773 -0.07175251 -0.00609828  0.24056415 -0.06705844
  0.04086852  0.21085174  0.01875417  0.07393973 -0.0086498   0.07317644
 -0.07028046  0.06146372 -0.18200408 -0.00479809  0.01785777 -0.00386387
  0.01360195  0.13341597 -0.19745426  0.14019066  0.01996691  0.07359806
  0.07948407  0.00808301 -0.04189107 -0.07224238  0.09779587 -0.2061177
  0.16394193  0.23674726  0.0124968   0.07727465  0.09651981  0.06551325
 -0.01880367  0.0407446  -0.21683919 -0.00816888  0.10725474 -0.05694025
  0.0501495   0.00433817]