[-0.08344713  0.11067672  0.14262919 -0.04698009 -0.11630268 -0.00450212
 -0.01893478 -0.13469668  0.10906211 -0.08219063  0.2035877  -0.06015292
 -0.17780982 -0.05707642  0.03770891  0.19791612 -0.20940743 -0.21817696
 -0.01887165 -0.05387495 -0.00839888  0.04160945  0.02969881  0.02484148
 -0.19022155 -0.38881966 -0.10042781 -0.09344804  0.03882366 -0.02666952
 -0.02137102  0.11093693 -0.12436514 -0.01779757  0.10807081  0.16407809
 -0.03761009 -0.08489822  0.16167156  0.01860254 -0.30061266  0.06921925
  0.12335046  0.27992949  0.27374634  0.03198312  0.01091283 -0.05662332
  0.15423486 -0.20143567  0.03560851  0.12613849  0.06226757  0.05057563
  0.09643117 -0.15846488 -0.0028681   0.08169915 -0.18475519 -0.05757963
  0.0602931  -0.09370466  0.05639347 -0.07176297  0.17259866  0.09189222
 -0.08297844 -0.1387213   0.19664632 -0.14414464 -0.07174966  0.09080565
 -0.17197798 -0.11697432 -0.26159272 -0.03084226  0.41452858  0.08247837
 -0.15599166  0.04130937  0.0238381   0.02747718  0.08883327  0.17107309
  0.0032587   0.0049249  -0.09204946 -0.036758    0.21145009 -0.04017646
 -0.02796676  0.18296269 -0.01315036  0.05944518  0.09333321  0.03665389
 -0.11325276  0.00897821 -0.21783629 -0.09698282 -0.07486016  0.00791878
 -0.0121288   0.13476102 -0.16597252  0.15643063  0.01528148  0.02188016
 -0.05783418  0.01399475  0.00428975 -0.01271118  0.12186934 -0.26529941
  0.13131784  0.19363962 -0.05731899  0.12322328  0.07703988  0.02675284
 -0.03346969 -0.04534375 -0.17938529 -0.05284161  0.04752268 -0.05561877
  0.04937106  0.02283704]