[-0.09304768  0.09084594  0.10774668 -0.07961712 -0.13653646 -0.05002299
 -0.0214521  -0.11205299  0.09928607 -0.11551862  0.20275865 -0.10976731
 -0.24384575 -0.04275905  0.04027192  0.21113215 -0.19651535 -0.19822299
 -0.04787526 -0.05288761 -0.00375409  0.04550029 -0.00565607  0.05084928
 -0.14440385 -0.38242075 -0.09815178 -0.0321185  -0.03475833 -0.0206039
 -0.02526382  0.16134171 -0.13723503 -0.02574292  0.10140561  0.17214325
 -0.0184549  -0.11073767  0.17760704  0.03062344 -0.25117013  0.00718612
  0.13405724  0.27639383  0.22695509 -0.00437924  0.00440643 -0.01961582
  0.14962266 -0.22605996  0.01229081  0.14768088  0.08844808  0.03454951
  0.12869395 -0.16478728  0.00112771  0.11418547 -0.17571965 -0.08519334
  0.04060987 -0.09331796  0.03024857 -0.14459889  0.20607959  0.10099079
 -0.10534572 -0.08775768  0.22120741 -0.10068565 -0.07734203  0.02960613
 -0.18581602 -0.12085295 -0.27999973 -0.03096805  0.35827237  0.08336975
 -0.16616639  0.04479151  0.04648609 -0.01653799  0.05241005  0.14889626
 -0.01047184  0.02631517 -0.07634472  0.01914809  0.20020321 -0.02374202
 -0.01284028  0.18757395 -0.01518766  0.03315588  0.09052287 -0.00442341
 -0.07693495 -0.03184477 -0.22055589 -0.0139775  -0.06299841 -0.07251996
 -0.05117864  0.12846139 -0.16293131  0.09681419  0.02113178 -0.00790773
 -0.11295348 -0.00943857 -0.0426643   0.00978644  0.1122785  -0.25776604
  0.11244257  0.15870619 -0.07284229  0.1337748   0.04102799  0.03522639
 -0.02506843 -0.0678437  -0.16811508 -0.09942775  0.07522428 -0.02550586
  0.05123677  0.04457648]