[-0.20205526  0.09221568  0.07783402 -0.02336664 -0.0947454  -0.07994303
  0.03942498 -0.10811041  0.12815039 -0.01363122  0.26972184 -0.00109347
 -0.23448396 -0.13940354  0.04776282  0.09944692 -0.14246936 -0.08775142
 -0.06848632 -0.03874863  0.02394271 -0.06492058  0.0525206   0.07630017
 -0.11369064 -0.33168203 -0.07407942 -0.11044349  0.00380229 -0.06457967
 -0.03756365  0.09091868 -0.16888528 -0.11242165 -0.00611303  0.14113021
 -0.0345584   0.00609142  0.18674535 -0.08377739 -0.16957203 -0.03386627
  0.04471178  0.26048467  0.22496234  0.01783226  0.05263202 -0.01079409
  0.08868332 -0.20130001  0.05701914  0.11497837  0.12269481 -0.02950059
  0.09083774 -0.18792824 -0.02609094  0.10543918 -0.13207018  0.04381127
  0.02038938 -0.11064325 -0.05453561 -0.02625274  0.2098577   0.10826834
 -0.07698271 -0.11845004  0.21459179 -0.12167851 -0.03693934  0.06897099
 -0.17135295 -0.18692727 -0.29520568  0.03675013  0.38953879  0.08446085
 -0.1994375   0.04286684 -0.11260539 -0.01245459  0.06344058  0.05269786
 -0.06800834  0.02799106 -0.177169    0.02403498  0.17721105 -0.0156995
 -0.02482725  0.20050965  0.03169906  0.01555911  0.07559123 -0.02940088
 -0.03120327  0.00273595 -0.20318018 -0.03414023  0.07671039 -0.13913475
 -0.00756989  0.08511053 -0.21130307  0.05127607  0.03871422  0.04557333
 -0.03286159 -0.02154125 -0.13355736 -0.02765801  0.16899279 -0.23991945
  0.20476556  0.19403167  0.0029014   0.12574485  0.08967338  0.02539104
  0.03627278 -0.02775984 -0.12732981 -0.01364006  0.07286602 -0.0383891
  0.07036527  0.07175279]