[-1.29167244e-01  7.17349052e-02  1.13187067e-01 -8.29043910e-02
 -8.90953168e-02 -5.19340038e-02 -4.95095849e-02 -1.49313673e-01
  1.32408857e-01 -1.03000179e-01  1.91046476e-01 -7.92171061e-02
 -1.91115245e-01 -7.20700771e-02 -3.67952138e-02  2.33749256e-01
 -1.69829562e-01 -1.49103388e-01 -7.64117911e-02  2.87488643e-02
  1.25504779e-02 -8.45952053e-03  2.24598534e-02  1.90196913e-02
 -9.46270153e-02 -3.53660792e-01 -8.48416835e-02 -4.65975702e-02
 -3.52254771e-02 -1.97429135e-02 -9.78293791e-02  8.05641338e-02
 -1.53571889e-01 -4.79866639e-02  4.38816026e-02  7.47131258e-02
  1.16600022e-02 -5.59769273e-02  1.43725261e-01 -2.21978687e-02
 -2.95930266e-01  5.00314832e-02  1.03047095e-01  2.18172118e-01
  2.26796463e-01  1.88452285e-02  4.51523475e-02 -1.51791021e-01
  1.44853711e-01 -1.64962441e-01 -3.00345570e-02  8.86787772e-02
  8.95362943e-02  1.15887765e-02  2.02380363e-02 -1.53209433e-01
 -9.89931519e-04  1.10595040e-01 -7.81924129e-02 -1.32737355e-02
  8.75875801e-02 -5.64826503e-02 -5.37207425e-02 -1.04435205e-01
  2.02082738e-01  6.79646060e-02 -1.44739732e-01 -1.53601095e-01
  1.16964340e-01 -8.70332420e-02 -4.38950062e-02  3.01872101e-02
 -1.84465721e-01 -1.56716183e-01 -3.03569227e-01 -5.12921810e-02
  3.65779132e-01  2.69485004e-02 -2.17671201e-01  3.42526697e-02
 -6.54383674e-02  5.78413680e-02  8.69579911e-02  1.61983609e-01
 -3.82704325e-02  3.91747616e-02 -6.01487048e-02 -3.66223790e-02
  2.39791945e-01 -7.71446452e-02  3.12649272e-02  1.81373328e-01
  1.19282063e-02  6.60447478e-02 -2.73520332e-02  2.84010768e-02
 -5.31815663e-02  4.24572825e-02 -1.54660612e-01 -6.14233359e-05
  1.01053594e-02 -2.74879988e-02  6.71907375e-03  1.20201945e-01
 -2.18395472e-01  1.16345525e-01  3.09793446e-02  7.74982795e-02
  5.37156649e-02  2.30841897e-02 -2.05489602e-02 -6.95981905e-02
  1.01688914e-01 -2.03609332e-01  1.27775267e-01  2.32853994e-01
  2.62855031e-02  7.82789215e-02  1.03016369e-01  6.83658198e-02
 -1.53209213e-02  6.24176227e-02 -1.85253471e-01  1.30407221e-03
  1.16248667e-01 -5.43368459e-02  4.21330817e-02  2.14038640e-02]