[-0.07394848  0.13768725  0.16263841 -0.01718813 -0.12399268  0.03076506
 -0.03887958 -0.13760591  0.11772346 -0.09931503  0.21756248 -0.06995525
 -0.18240544 -0.02630985  0.03912129  0.19295597 -0.19361421 -0.20464423
 -0.01533032 -0.05363582  0.00738412  0.05131322  0.03371559  0.01194553
 -0.18915127 -0.40923491 -0.07668482 -0.0803683   0.04148072 -0.04276798
 -0.08852856  0.08766194 -0.14112364 -0.02155489  0.0952665   0.16214946
 -0.05326676 -0.07908217  0.14548962  0.0088711  -0.28947401  0.09139058
  0.08511656  0.28030524  0.27578646  0.028404    0.00372606 -0.07066617
  0.10990279 -0.18308981  0.05031113  0.13824159  0.05824224  0.05224216
  0.07517183 -0.16326791 -0.04900659  0.07503658 -0.14681184 -0.06040616
  0.07388773 -0.0809921   0.05117214 -0.08673539  0.18386674  0.09864659
 -0.07902473 -0.14122666  0.16163842 -0.1147482  -0.06403688  0.06653655
 -0.18540891 -0.13253368 -0.23565733 -0.00919152  0.423666    0.07808601
 -0.18998334  0.03116219  0.00972982  0.03405161  0.10577332  0.16569841
  0.02089389  0.01530191 -0.07993065  0.00203211  0.19542347 -0.0580681
 -0.04149307  0.17849112 -0.02323457  0.0459659   0.09527404  0.03990799
 -0.11278554  0.02227097 -0.23072325 -0.11734062 -0.06440897  0.01289782
 -0.01548736  0.14935182 -0.17736495  0.15978362  0.02018254  0.02532328
 -0.01692508  0.01709393 -0.00314231 -0.02769245  0.12740004 -0.27676344
  0.12916689  0.19587101 -0.04796653  0.14148414  0.0688797   0.03581446
 -0.0108455  -0.01890883 -0.19505168 -0.04155036  0.05645297 -0.02483444
  0.05299984  0.02611797]