[-4.76927459e-02  1.05003059e-01  1.16059236e-01 -8.44359472e-02
 -1.44332916e-01  4.56461459e-02 -3.13451178e-02 -1.10414267e-01
  1.32506698e-01 -9.61569548e-02  2.22345144e-01 -9.09696966e-02
 -2.15732887e-01  1.80550199e-02 -1.25173181e-02  2.16431901e-01
 -1.82011604e-01 -1.10311270e-01  2.70673307e-03 -7.11688250e-02
 -4.82918024e-02  5.82385324e-02 -2.77799275e-02  3.49069536e-02
 -1.13604188e-01 -3.41069072e-01 -1.12135209e-01 -7.19915554e-02
  1.46368640e-02 -1.21641131e-02 -4.22449186e-02  9.88719389e-02
 -9.27314088e-02  2.07606778e-02  6.13179691e-02  7.08683655e-02
 -5.91105893e-02 -1.23665035e-01  1.21536031e-01  3.92561667e-02
 -2.15951547e-01  1.68305021e-02  7.83604980e-02  2.37736464e-01
  1.91995367e-01  2.75409073e-02  3.61941867e-02 -1.15693584e-01
  1.29685134e-01 -1.84383512e-01  4.21922952e-02  8.63151699e-02
  1.91769097e-02  3.22493017e-02  4.89314608e-02 -1.98555574e-01
  2.51049729e-04  1.01351820e-01 -1.78109050e-01  5.52246207e-03
  6.52271435e-02 -5.02078198e-02  3.11315246e-02 -7.86145926e-02
  1.95453569e-01  1.52551457e-01 -8.37906972e-02 -1.52463198e-01
  2.18322709e-01 -1.33124024e-01 -5.44329062e-02  7.47816488e-02
 -1.43464789e-01 -1.59068868e-01 -2.45888993e-01 -1.89158302e-02
  4.32042658e-01  1.04722910e-01 -1.58463165e-01 -3.48369107e-02
 -3.01354768e-04 -8.44363589e-03  1.67308554e-01  1.43294007e-01
 -9.14313551e-03 -8.51370320e-02 -9.26303193e-02 -4.58182767e-02
  2.69860893e-01 -5.00962436e-02 -5.39227612e-02  1.96223229e-01
 -9.03142150e-03  3.48173976e-02  3.42477672e-02  6.16844110e-02
 -9.14316401e-02  3.30444276e-02 -1.61094040e-01 -5.74605875e-02
 -6.13406710e-02 -5.97569123e-02 -5.59427738e-02  1.42105684e-01
 -1.95743442e-01  1.80789143e-01  4.60152104e-02 -3.90044274e-03
 -4.95641343e-02 -1.16623538e-02 -4.52226512e-02  3.61446328e-02
  2.02951714e-01 -2.36163303e-01  1.34423405e-01  1.51026919e-01
  3.04180067e-02  1.49869308e-01  5.56039587e-02  5.50622903e-02
 -3.05685587e-02 -1.29835024e-01 -1.99061543e-01 -4.98908162e-02
  3.48826535e-02 -7.37449378e-02  3.90347615e-02  4.70181592e-02]