[-9.42242667e-02  9.32919979e-02  1.26644894e-01 -3.57849710e-02
 -1.12170137e-01 -6.85859937e-03 -3.04326806e-02 -1.22713163e-01
  1.18481927e-01 -8.86623189e-02  2.11640909e-01 -8.35277215e-02
 -2.30211094e-01 -4.91425358e-02  8.64889007e-03  2.14891031e-01
 -2.01206669e-01 -2.23991185e-01 -1.21476380e-02 -5.23105562e-02
  4.75507183e-03  1.24744000e-02  2.43574642e-02  2.79595442e-02
 -1.62577286e-01 -3.86780590e-01 -8.56156647e-02 -8.39653239e-02
  2.93066655e-03 -2.55598575e-02 -5.91015704e-02  1.29838794e-01
 -1.44104332e-01 -3.79550830e-02  9.60754976e-02  1.64144158e-01
 -2.00582277e-02 -9.06240568e-02  1.72821730e-01  1.83000732e-02
 -2.83069968e-01  5.80406599e-02  1.11957930e-01  2.65031636e-01
  2.44611859e-01  3.06710787e-02  4.29362198e-03 -9.18705836e-02
  1.44343376e-01 -1.87267959e-01  3.58789228e-02  1.53463647e-01
  9.29488242e-02  5.09792455e-02  8.72280523e-02 -1.73136696e-01
  6.67332113e-03  6.18855134e-02 -1.44304529e-01 -6.83042556e-02
  4.87165302e-02 -8.00104067e-02  6.10472523e-02 -1.05471872e-01
  1.82903707e-01  7.16393888e-02 -7.13384524e-02 -1.21855713e-01
  1.96552560e-01 -9.75741073e-02 -7.03423470e-02  9.05167684e-02
 -1.88075557e-01 -1.37701720e-01 -2.56759167e-01 -2.62031015e-02
  3.97321552e-01  6.89079389e-02 -1.82049349e-01  5.16646616e-02
  2.04835571e-02  1.02822487e-04  9.33919027e-02  1.81099698e-01
  1.23164710e-02  1.43107641e-02 -9.46428999e-02 -2.65661832e-02
  2.15565830e-01 -5.94103299e-02 -3.61480936e-02  1.64349243e-01
 -1.32443933e-02  6.54489473e-02  1.01207815e-01  4.15203646e-02
 -9.64126810e-02  1.98562127e-02 -2.25322649e-01 -9.24640894e-02
 -5.21601327e-02 -4.12091566e-03 -4.03079800e-02  1.06085457e-01
 -1.53815493e-01  9.43610892e-02  2.05212999e-02  1.27450172e-02
 -6.47579581e-02 -4.12264979e-03 -4.74433322e-03 -1.39696300e-02
  1.17133655e-01 -2.63327688e-01  1.41856506e-01  1.82283610e-01
 -5.79700544e-02  1.26139790e-01  7.25648031e-02  4.58309278e-02
 -3.11151650e-02 -5.60250096e-02 -1.76828459e-01 -5.97563386e-02
  7.70191029e-02 -1.83584429e-02  5.50289564e-02  2.40246467e-02]