[-7.54530206e-02  1.28147170e-01  9.27146673e-02 -5.56210950e-02
 -1.38265163e-01  4.31063212e-02  8.63040891e-03 -7.50943571e-02
  1.47709742e-01 -1.12197660e-01  2.19197899e-01 -6.15145341e-02
 -2.05262765e-01 -2.21124925e-02 -2.35508904e-02  2.44402885e-01
 -1.80169865e-01 -1.33031920e-01 -5.19011505e-02 -6.09223023e-02
  1.50748594e-02  9.55467522e-02 -3.46747376e-02  1.04668951e-02
 -8.31602365e-02 -3.58577698e-01 -4.84721437e-02 -5.21037169e-02
  7.21117407e-02 -1.75197385e-02 -5.17359860e-02  1.01152420e-01
 -1.03464685e-01 -9.88666061e-03  4.71094996e-02  9.36529860e-02
 -8.43745843e-02 -7.01067895e-02  1.74530253e-01  6.61866739e-02
 -2.56342977e-01  5.59202433e-02  6.34534881e-02  3.01894605e-01
  2.38795072e-01  4.95383516e-02  2.05387343e-02 -9.98510942e-02
  1.15524523e-01 -2.55032361e-01  1.32086100e-02  1.20209992e-01
  1.09177586e-02  6.75978661e-02  3.19058225e-02 -1.61300182e-01
 -1.40233675e-03  5.40639162e-02 -1.89395785e-01 -2.58617736e-02
  9.79781970e-02 -7.77373537e-02  1.78394672e-02 -4.68223058e-02
  2.30210900e-01  9.43637714e-02 -1.05873764e-01 -1.15547277e-01
  1.97686717e-01 -1.55393943e-01 -7.34859928e-02  5.54854460e-02
 -1.19007029e-01 -1.34902522e-01 -2.47504041e-01  2.56076492e-02
  4.86130625e-01  1.11844115e-01 -1.59404948e-01 -3.29080713e-03
  4.10608202e-03  1.07802452e-05  2.27249458e-01  1.56335279e-01
 -6.48239278e-04 -8.69366005e-02 -9.51477066e-02 -3.24020721e-02
  2.39386305e-01 -5.93994856e-02 -5.64100109e-02  2.05500171e-01
  5.77914901e-02  4.53904085e-02  5.04039712e-02  9.07152891e-02
 -6.30960539e-02  2.76341327e-02 -1.82171151e-01 -4.98467200e-02
 -2.03577168e-02 -3.99770439e-02 -2.03309506e-02  1.31530046e-01
 -1.39853060e-01  2.17314601e-01  3.50983068e-02  3.05671822e-02
 -1.23066967e-02 -4.91358479e-03 -4.79457825e-02  1.05305230e-02
  1.42314553e-01 -1.97957933e-01  1.57599136e-01  1.66167736e-01
 -8.30378849e-03  1.41953513e-01  1.06529310e-01  6.81647286e-02
 -1.38702979e-02 -8.34833384e-02 -2.00621650e-01 -8.10267851e-02
  5.57683073e-02 -3.36069167e-02  7.05580041e-02  4.14233468e-02]