[-0.10682633  0.13458799  0.1107728   0.02545044 -0.02179908 -0.02399332
 -0.03896476 -0.17026159  0.11698281 -0.08061343  0.32859874  0.00858179
 -0.14624381 -0.18283542  0.06907754  0.19547322 -0.22112003 -0.0959155
 -0.08918513  0.01215438 -0.03334282 -0.03032531  0.06819951  0.04957901
 -0.08472783 -0.34545287 -0.09371208 -0.13727501  0.07846284 -0.05083875
 -0.06143798 -0.03022329 -0.1808922  -0.04828979  0.00321354  0.02792524
 -0.02724093 -0.03154853  0.22448464 -0.0129145  -0.21025169  0.05884374
 -0.00722051  0.19703777  0.22965144  0.01583578  0.04648865 -0.10515817
  0.08166369 -0.137391    0.03374971  0.11985423  0.10504403  0.04367863
 -0.01487501 -0.15317461 -0.0356334   0.08109118 -0.11087068  0.00557313
  0.0563181  -0.10810759 -0.03433761  0.02401578  0.21046117  0.10845635
 -0.09110577 -0.14359711  0.13035968 -0.10771759 -0.01049124  0.06808742
 -0.14834473 -0.15209489 -0.28160939  0.02864601  0.41410413  0.03701779
 -0.25363487 -0.03047934 -0.13622044 -0.00318283  0.10212684  0.13623947
 -0.01070342 -0.06156714 -0.08089789 -0.02774807  0.17929104 -0.05092695
  0.03292919  0.20810358  0.00300032  0.03009333  0.02639716 -0.01782216
 -0.00464912  0.01132085 -0.06882485 -0.02611403 -0.01638444 -0.05078399
  0.02141017  0.06399012 -0.20895062  0.10743432  0.06786831  0.0242045
  0.10491967  0.06181515 -0.04301219 -0.11773749  0.14780094 -0.23226264
  0.2400068   0.21461387 -0.01734739  0.12291868  0.05364432  0.17528234
 -0.0746109   0.0140273  -0.12833381  0.00130873  0.04282624 -0.0153164
  0.05933672 -0.01001096]