[-0.10552186  0.08634228  0.1073365  -0.02247287 -0.11259674 -0.04873193
 -0.02383005 -0.1697794   0.09805119 -0.08036086  0.22103392 -0.05091618
 -0.16729401 -0.08928626 -0.02226451  0.20337439 -0.1554193  -0.12504868
 -0.07639323  0.01387845  0.03895007 -0.00468613  0.02098631 -0.01508779
 -0.09925406 -0.36610591 -0.10298464 -0.05033324  0.02388735 -0.02464277
 -0.105785    0.07168681 -0.16187537 -0.07856791  0.03677139  0.04480141
 -0.02592092 -0.06520937  0.1623302  -0.01160628 -0.28016114  0.10804667
  0.05410713  0.20946924  0.25622138  0.0024847   0.0516297  -0.12776481
  0.10796002 -0.13983767  0.00331866  0.10337241  0.08250827  0.04646283
  0.00389705 -0.12433028 -0.01385321  0.09890703 -0.12732814 -0.03445017
  0.10265519 -0.08779215 -0.04156053 -0.0675234   0.15298973  0.08821144
 -0.08306805 -0.17648041  0.15118806 -0.11484277 -0.04008133  0.02323825
 -0.18086152 -0.16038793 -0.27365547  0.00577732  0.35897827  0.07577165
 -0.21605296  0.03042617 -0.05815229  0.0634555   0.14839733  0.13341644
  0.02735602 -0.00318122 -0.04774953 -0.02379096  0.19676271 -0.06867274
 -0.01609673  0.21675928  0.02605693  0.05205763  0.03371432  0.02995258
 -0.01822821  0.05427906 -0.12911113  0.0123382   0.01599281 -0.02644666
  0.02592236  0.12286153 -0.16550103  0.13962951  0.00787222  0.10984546
  0.04878735 -0.02523232 -0.00790969 -0.04573241  0.08931198 -0.23067854
  0.18601315  0.21490553 -0.0279667   0.08616203  0.07789626  0.05599793
 -0.00162873  0.01351105 -0.21475434 -0.00357997  0.10640504 -0.04028166
  0.0345914   0.02882922]