[-0.18282014  0.07396214  0.09430283 -0.00409498 -0.1005853  -0.09430134
  0.05130325 -0.12085551  0.1100556  -0.04602353  0.29540989 -0.00573102
 -0.24298708 -0.17168622  0.05171391  0.11499579 -0.10615315 -0.09644781
 -0.04797243 -0.02760208  0.04422257 -0.05325549  0.07892384  0.06039622
 -0.09002131 -0.35556215 -0.09401191 -0.10166176  0.02176185 -0.03685255
 -0.03442572  0.11979103 -0.13988434 -0.09009667  0.00170827  0.14328611
 -0.02350349  0.00632674  0.21092002 -0.06741232 -0.18522446 -0.03996478
  0.03109119  0.25556546  0.2242281   0.00248067  0.06404411 -0.01385716
  0.07652765 -0.21268682  0.04786808  0.11845928  0.10558881 -0.01838058
  0.09348486 -0.16282474 -0.01665475  0.08417498 -0.14356054  0.02746539
  0.0084133  -0.13549249 -0.04831515 -0.03097572  0.20169125  0.10710865
 -0.06768509 -0.11744028  0.20972703 -0.15687501 -0.05730646  0.07135595
 -0.20416942 -0.1592387  -0.3241809   0.03441312  0.38103238  0.09930879
 -0.16868441  0.05495667 -0.07066926  0.00212792  0.07226294  0.0748048
 -0.05698102  0.02627877 -0.16535313  0.02704722  0.16110137 -0.04517035
 -0.03645512  0.21717747  0.0177566   0.0690076   0.08152493 -0.03034508
  0.01322443 -0.01445333 -0.19089194 -0.01404747  0.06810995 -0.14157768
  0.02106479  0.08213563 -0.20272784  0.02440686  0.00330667  0.04947027
 -0.02486327 -0.02218453 -0.12613958 -0.02163763  0.14684542 -0.21732251
  0.21939364  0.20952025 -0.00377974  0.10904445  0.09759311  0.02494476
  0.01980552 -0.04925336 -0.10857959 -0.00695401  0.06729048 -0.02789915
  0.05542574  0.05948377]