[-0.13531901  0.08007856  0.12186342 -0.0455913  -0.06037294 -0.0407909
 -0.06104046 -0.17150775  0.07874291 -0.07975198  0.19004411 -0.04955989
 -0.17710559 -0.04725033  0.00112778  0.21133831 -0.16828488 -0.13344388
 -0.08187632  0.02916642 -0.01249926 -0.01329951  0.03501141  0.01632605
 -0.11874219 -0.33584678 -0.09845803 -0.06340323 -0.03179822  0.03602725
 -0.13894327  0.01949529 -0.16866906 -0.05097705  0.06526058  0.10993027
 -0.02338373 -0.07417995  0.13958624 -0.0088225  -0.25673026  0.06916513
  0.11165531  0.21782401  0.2526072   0.02364127  0.04147195 -0.10956855
  0.11652851 -0.19321729  0.04015548  0.07350229  0.08050212  0.06491416
  0.03120703 -0.15671504  0.01633681  0.12348253 -0.0985179  -0.00801531
  0.08010035 -0.02688619 -0.01962638 -0.06990568  0.22584637  0.15399502
 -0.12051397 -0.16490524  0.11894932 -0.10276572 -0.0496963   0.01994238
 -0.18331824 -0.15402083 -0.26783615 -0.03108072  0.36264342  0.05564256
 -0.23196769  0.00531923 -0.0700298   0.01937248  0.13385032  0.12792177
  0.0311207   0.00541228 -0.05582793 -0.04994942  0.28379542 -0.06369588
  0.01148072  0.19095717  0.01511949  0.01724816  0.01450928  0.02596912
 -0.04467881  0.03471209 -0.17988931 -0.02542754 -0.0290485  -0.01624672
 -0.01398699  0.11835172 -0.22495298  0.12768409  0.04503777  0.06131917
  0.05193828 -0.00838448 -0.0415461  -0.05182981  0.1148347  -0.21971677
  0.18286835  0.21897142  0.01343656  0.06790194  0.06364044  0.04876904
  0.00731016  0.06003516 -0.20054798 -0.0137802   0.09388079 -0.05480744
  0.03599144  0.04300103]