[-0.11271179  0.12837003  0.11599579  0.01389044 -0.02667092 -0.01633515
 -0.03667473 -0.17344359  0.12912883 -0.09619118  0.31147048 -0.0046957
 -0.16358577 -0.15211445  0.04480248  0.19742166 -0.24035609 -0.10734036
 -0.08946127  0.02939363 -0.03476799 -0.05443069  0.06095344  0.03155565
 -0.08991776 -0.33534974 -0.08517083 -0.11289926  0.0586019  -0.05154466
 -0.06829276 -0.0435953  -0.18765983 -0.04423666  0.00532401  0.04948288
 -0.04284615 -0.02726453  0.21715735 -0.03026867 -0.21747409  0.03954875
  0.00240014  0.18047756  0.25359878  0.03194564  0.02624541 -0.12383857
  0.09943539 -0.16386096  0.03184598  0.11763736  0.09214095  0.05323868
 -0.00339598 -0.15249301 -0.03397926  0.11248983 -0.09710588 -0.00135646
  0.05973732 -0.11127949 -0.01237074  0.01631578  0.20616019  0.10488095
 -0.08713927 -0.15427756  0.14164032 -0.12063797 -0.0170962   0.06154973
 -0.12166983 -0.1587569  -0.28542641 -0.00293967  0.40719301  0.0377363
 -0.23123045 -0.03094626 -0.12285588 -0.01809845  0.10257864  0.12458115
 -0.01366805 -0.05668877 -0.08777472 -0.0481955   0.20823823 -0.05156347
  0.04244449  0.18909128 -0.01095531  0.01326771  0.03196336 -0.02235639
 -0.02020134  0.02666387 -0.09492717 -0.0388339  -0.0366076  -0.05899307
  0.01477365  0.06708189 -0.21063046  0.10703003  0.04983639  0.02409754
  0.08911937  0.03259756 -0.04347033 -0.10102757  0.15861477 -0.24228314
  0.23679025  0.21620505 -0.01316871  0.11999021  0.05252786  0.16517225
 -0.06671741  0.03265479 -0.13629875 -0.00174975  0.03114617 -0.01951913
  0.07211317 -0.00551494]