[-0.08622371  0.08789593  0.10006143 -0.05040665 -0.16015029 -0.04142065
 -0.02205837 -0.15542702  0.09682166 -0.10564547  0.22759357 -0.06602302
 -0.20307779 -0.03363469 -0.05146897  0.20452349 -0.1963715  -0.13542934
 -0.05238449  0.02828212  0.00773599  0.05364866  0.0341256   0.03750622
 -0.07555821 -0.38580072 -0.08354818 -0.05709845  0.03089    -0.00848407
 -0.08167987  0.09519654 -0.10825975 -0.01739232  0.0653023   0.08459432
 -0.03534494 -0.12128609  0.16672324  0.02917391 -0.30642471  0.05654664
  0.07960121  0.23936455  0.26035458  0.01934314  0.00841948 -0.12020973
  0.13987672 -0.2526401   0.02892341  0.11139148  0.03319765 -0.0102805
  0.08277041 -0.10745585 -0.0172518   0.10329907 -0.15562052 -0.03879027
  0.08283915 -0.04791607  0.00495034 -0.12007451  0.16925663  0.12930936
 -0.08934654 -0.12031352  0.19223635 -0.18283598 -0.10732875  0.05558825
 -0.12905148 -0.15646541 -0.23250513 -0.03415456  0.39978215  0.13042657
 -0.17308149  0.00522368 -0.00409557  0.00389414  0.15809083  0.13875072
  0.01953848 -0.05641593 -0.09685098 -0.06436017  0.26014039 -0.05723186
 -0.01212921  0.26099557  0.01392172  0.0241309   0.06097994  0.03045289
 -0.05409236  0.02309546 -0.19123644 -0.04619742  0.01487123 -0.0325921
 -0.03105699  0.13523699 -0.18074912  0.10159582 -0.01488968  0.02785482
  0.07171156 -0.057286   -0.03447811 -0.02666994  0.13056605 -0.20195547
  0.16254991  0.15919095  0.00758117  0.08793107  0.07187329  0.02620135
 -0.00112243 -0.07791574 -0.19688512 -0.07560404  0.09704725 -0.07475203
  0.01833757 -0.00280423]