[-0.13017836  0.07967387  0.07775406 -0.00927562 -0.09679375 -0.09130967
 -0.01741695 -0.14233778  0.04647739 -0.01830605  0.29370227 -0.01996784
 -0.19575113 -0.15711671  0.04935391  0.10138782 -0.1328797  -0.10085876
 -0.09856401 -0.01521767 -0.00244471 -0.04871921  0.09941585  0.0362547
 -0.08850055 -0.35799152 -0.12619811 -0.12310707  0.04737975 -0.07595223
 -0.03205312  0.06419121 -0.11982491 -0.05959724 -0.00055766  0.07700574
 -0.05085745 -0.05397896  0.278456   -0.04214932 -0.18608437 -0.02035207
  0.05143023  0.27244043  0.25383493 -0.0132695   0.06471008  0.02207765
  0.11121476 -0.15433042  0.08942717  0.11093199  0.17919748  0.00734961
  0.07006614 -0.11872407  0.00316094  0.12392729 -0.2008342   0.03022524
  0.0296938  -0.15094924 -0.07899291 -0.03264277  0.18598925  0.16222589
 -0.05755438 -0.1332407   0.17778851 -0.16141507 -0.05295533  0.04216688
 -0.20032671 -0.1555035  -0.30364916 -0.00179282  0.30728728  0.07893699
 -0.19724584  0.02961081 -0.00326583 -0.03265892  0.06743326  0.07594136
 -0.10091241  0.0406059  -0.13407326  0.01504429  0.16603784 -0.053351
 -0.03205049  0.20690551  0.00912485  0.01358474  0.11551279 -0.0372124
  0.02860153 -0.02091231 -0.14672683  0.03044445  0.05499065 -0.16655247
  0.00940259  0.02010574 -0.18421169  0.05563283  0.02475235  0.05146722
 -0.02824892 -0.06662451 -0.11603105 -0.04753794  0.18489012 -0.22090565
  0.19213484  0.18866879 -0.00736996  0.11084688  0.08228531  0.05001774
 -0.01249646 -0.02020171 -0.12399953 -0.00820345  0.07039492 -0.0033858
  0.08091155  0.07236911]