[-2.00436950e-01  9.81829837e-02  1.07239448e-01  8.54072336e-04
 -7.13754818e-02 -7.50544444e-02  1.79513246e-02 -8.72018263e-02
  1.04924560e-01 -1.57951992e-02  2.65913963e-01 -3.48171964e-02
 -1.96885049e-01 -1.51767001e-01  2.89348904e-02  9.28783864e-02
 -1.36974558e-01 -1.03028014e-01 -1.78935565e-02 -5.20124733e-02
  2.39237752e-02 -6.20384514e-02  6.10561259e-02  6.52650818e-02
 -1.01984017e-01 -3.39101762e-01 -9.07809883e-02 -1.34864762e-01
  2.80709565e-02 -5.03561758e-02 -6.72858953e-02  1.02930211e-01
 -1.77717969e-01 -9.15526673e-02 -1.37458807e-02  1.12618677e-01
  7.17787445e-03  1.19739017e-02  1.79756656e-01 -9.79764462e-02
 -1.34809449e-01 -1.53602483e-02  3.20921727e-02  2.60665566e-01
  2.08658963e-01  3.64448652e-02  8.57414957e-03  4.55587375e-04
  6.62763342e-02 -1.67322025e-01  3.99503298e-02  1.37998983e-01
  9.85701010e-02 -1.20196780e-02  5.29528372e-02 -1.44228816e-01
  4.93094558e-03  3.34246568e-02 -1.56248018e-01  2.58233137e-02
  4.73578286e-04 -1.25810400e-01 -5.62415607e-02 -5.03998473e-02
  1.93071634e-01  1.12931989e-01 -3.97511087e-02 -1.24492697e-01
  1.80088386e-01 -1.41054019e-01 -1.16586564e-02  8.05348307e-02
 -1.80447981e-01 -1.72367781e-01 -2.69718796e-01  5.39713763e-02
  3.56843233e-01  1.20103911e-01 -1.70768335e-01  7.96923414e-02
 -6.65309876e-02 -8.91817547e-03  8.63375068e-02  4.01912741e-02
 -9.09375474e-02  4.62629199e-02 -1.48091167e-01  4.86494638e-02
  1.57676205e-01 -2.38510314e-02 -5.04267514e-02  1.67314202e-01
 -2.13082018e-03  4.75655757e-02  8.95579681e-02 -4.43386994e-02
  3.17786299e-02  6.36153249e-03 -1.95508078e-01  1.28592672e-02
  7.13960901e-02 -1.34941742e-01 -1.66724082e-02  4.91619483e-02
 -1.90455034e-01  1.02229606e-04  3.20096128e-02  1.81024205e-02
 -5.77125363e-02 -1.22657204e-02 -1.40744165e-01 -9.67071112e-03
  1.61784098e-01 -2.42969185e-01  2.28655100e-01  1.93734214e-01
  2.33720732e-03  1.37125075e-01  8.46351609e-02  3.16562206e-02
  3.83203826e-03 -5.19888066e-02 -9.07826349e-02 -2.65153944e-02
  1.10633746e-01 -2.60721482e-02  9.89171788e-02  5.38223088e-02]