[-0.05228398  0.10228449  0.09957462 -0.06497898 -0.13951425  0.04890924
 -0.0465037  -0.1129441   0.13245715 -0.08902621  0.22855051 -0.05851298
 -0.21839201 -0.00995397 -0.01973304  0.18608567 -0.18687448 -0.12398373
  0.00339793 -0.05952259 -0.02259227  0.06576985 -0.02388141  0.00737216
 -0.12955904 -0.32449159 -0.10726807 -0.06490261  0.01915591 -0.02730152
 -0.01763391  0.10860129 -0.09879103  0.02675525  0.04481512  0.07863116
 -0.0562124  -0.09705491  0.14175178  0.04216843 -0.22024314  0.00182322
  0.0499506   0.26263082  0.18939875  0.00899978  0.02336739 -0.10991611
  0.12982391 -0.20461319  0.05679843  0.11189723  0.05274811  0.03883786
  0.03690294 -0.19015919  0.0140246   0.11612755 -0.17398103  0.02209594
  0.08522153 -0.08069172  0.0409238  -0.0684806   0.18350554  0.13570771
 -0.07733766 -0.15430458  0.20082545 -0.11998224 -0.06482767  0.09826242
 -0.13158253 -0.16914542 -0.25935173 -0.02357756  0.4276      0.09373384
 -0.16980225 -0.04408289 -0.01610486 -0.01062704  0.1688201   0.11000923
 -0.02960415 -0.08584615 -0.12915255 -0.03941127  0.28461525 -0.04807762
 -0.05407469  0.20587476  0.00814045  0.03659247  0.04789969  0.06746436
 -0.06486487  0.04236963 -0.14778027 -0.03472683 -0.05034963 -0.09496876
 -0.05355159  0.13235728 -0.18259081  0.19704343  0.05682207  0.01694141
 -0.03589591 -0.04051484 -0.0630961   0.03555338  0.22041404 -0.24162273
  0.14589117  0.14052074  0.04617162  0.15783541  0.062735    0.06873775
 -0.06248095 -0.14325944 -0.20513713 -0.04205362  0.02959974 -0.07013745
  0.03432269  0.05839095]