[-0.09116765  0.08419716  0.12281591 -0.07667857 -0.14588965 -0.02449625
 -0.02156562 -0.11368616  0.09229116 -0.11047444  0.18580011 -0.07667893
 -0.23049307 -0.02607706  0.06004666  0.20241015 -0.187172   -0.20459855
 -0.05415177 -0.07329615 -0.02226229  0.03188533  0.02312344  0.05458029
 -0.12794571 -0.37787926 -0.09587639 -0.04030235  0.03247024 -0.03413434
 -0.03059237  0.12420394 -0.13776536 -0.00252925  0.11092355  0.15386632
 -0.02866629 -0.12248383  0.17539339  0.03975406 -0.24477147  0.02043951
  0.12099997  0.24937128  0.24823312  0.03178429  0.01894371 -0.04488062
  0.1530131  -0.24184361  0.06468289  0.13340425  0.07664482  0.03146107
  0.14180622 -0.20217252 -0.00384963  0.09911183 -0.1653042  -0.0466542
  0.03966768 -0.08225581  0.02157089 -0.12657668  0.19396894  0.10956204
 -0.10130777 -0.0941708   0.23927997 -0.09948748 -0.06970296  0.0283162
 -0.16434534 -0.11179952 -0.24603143 -0.00990512  0.38874218  0.115632
 -0.1765819   0.03991696  0.03524409 -0.00883633  0.03762535  0.16542028
 -0.03197233 -0.01430398 -0.07246877  0.00135537  0.17420374 -0.01788845
 -0.00424078  0.19536357 -0.00946189  0.04534537  0.08114033  0.01573394
 -0.11595797 -0.02682988 -0.22079416 -0.07316265 -0.06742723 -0.04476269
 -0.03316063  0.13348214 -0.18151945  0.13123806  0.00641212 -0.02624165
 -0.09657145  0.00125508 -0.01451018  0.01816394  0.09018319 -0.26757365
  0.1253071   0.18560229 -0.04469309  0.15047719  0.05320881  0.04654171
  0.02084066 -0.06545207 -0.16141506 -0.09716751  0.05130033 -0.03333666
  0.01390287  0.0646335 ]