[-0.1045137   0.12682116  0.10245041  0.02020464 -0.02587177 -0.01482046
 -0.03989481 -0.16257273  0.12493088 -0.0967375   0.32824928 -0.00232353
 -0.15011793 -0.1797214   0.05546678  0.18917523 -0.21686666 -0.08738359
 -0.09687316  0.0177349  -0.03150957 -0.03082289  0.06592788  0.05338104
 -0.08567446 -0.35164255 -0.08543084 -0.12658404  0.05233396 -0.05346937
 -0.05820832 -0.02116385 -0.18896133 -0.04717423 -0.00403103  0.0369808
 -0.02648964 -0.01908976  0.22055964 -0.0096331  -0.21422827  0.05333528
 -0.00213226  0.20064521  0.23425277  0.01647316  0.03400692 -0.09271787
  0.09814472 -0.15673475  0.0336869   0.12457045  0.1117137   0.03628594
  0.0011516  -0.13609844 -0.03479272  0.09353903 -0.09031403 -0.00687752
  0.0482092  -0.09347203 -0.02702047  0.02379937  0.20848294  0.10861734
 -0.09126586 -0.1359933   0.12615582 -0.11550792 -0.01780878  0.06983119
 -0.14353088 -0.15271536 -0.29098752  0.01988438  0.42089567  0.03472947
 -0.25688121 -0.03732806 -0.13160346 -0.01205374  0.10447425  0.1352289
 -0.00795274 -0.05845857 -0.08103898 -0.03167712  0.19407415 -0.04328824
  0.03027812  0.20913796  0.00999829  0.01849475  0.02838517 -0.02763858
 -0.00245651  0.00264827 -0.08025356 -0.01953141 -0.02763011 -0.05045451
 -0.00312798  0.06267744 -0.22613721  0.11608648  0.06218057  0.0169691
  0.10158052  0.05478339 -0.04397305 -0.1049635   0.14582828 -0.23388524
  0.22021846  0.20313187 -0.01660597  0.12343597  0.04679369  0.16452691
 -0.07030512  0.02074048 -0.12799859 -0.01952441  0.03890861 -0.02347837
  0.05502991 -0.02044163]