[-0.10655914  0.12001552  0.13941288 -0.05927781 -0.16649954  0.0037985
 -0.00834847 -0.1093205   0.08870476 -0.0902332   0.22104321 -0.07631677
 -0.17455505 -0.03607837  0.00778603  0.21483736 -0.17266583 -0.15202641
 -0.03813628 -0.06544038  0.00773721  0.08559229 -0.04115135 -0.00359375
 -0.09820699 -0.36493608 -0.06028011 -0.06357392  0.08258323 -0.00745984
 -0.02214943  0.10223061 -0.12481041 -0.01448515  0.04211451  0.10836663
 -0.07504249 -0.07950407  0.17004482  0.02395084 -0.27086136  0.06491659
  0.05083379  0.29066622  0.2287325   0.03053088  0.03632331 -0.08254211
  0.12865581 -0.20886448  0.04628016  0.1163731   0.02938469  0.03974753
  0.03720839 -0.16902614  0.01521976  0.05629505 -0.19798593 -0.02047349
  0.12269336 -0.09560071  0.04452122 -0.07068942  0.20570886  0.08410221
 -0.06726184 -0.10801925  0.20369588 -0.12416141 -0.05551347  0.05405013
 -0.14881124 -0.11670355 -0.26023847  0.02096107  0.46188346  0.08714743
 -0.16985342 -0.00942392  0.01770166  0.01316818  0.21387795  0.13804568
 -0.00692355 -0.07066105 -0.10195432 -0.00894456  0.24104407 -0.05149073
 -0.04845336  0.19619966  0.04597966  0.02903245  0.06690203  0.05897905
 -0.05746873  0.02484527 -0.15792176 -0.02605747 -0.02160763 -0.05890357
 -0.01930433  0.14275552 -0.14951226  0.21646129  0.03234946  0.05508994
 -0.04865941 -0.0306776  -0.03014061  0.02212836  0.15519518 -0.17217539
  0.16745897  0.16007878 -0.01424047  0.14536615  0.09248724  0.04602524
 -0.0402314  -0.08648852 -0.21469481 -0.05613636  0.06940576 -0.04670216
  0.08553258  0.07756649]