[-6.63579628e-02  1.43798694e-01  1.23698749e-01  4.35208604e-02
  2.36534420e-02 -5.95091768e-02 -2.07578465e-02 -1.65936753e-01
  1.23050742e-01 -6.82492480e-02  3.29151005e-01 -2.24940926e-02
 -1.13160692e-01 -1.89262435e-01  1.37984576e-02  1.82153419e-01
 -1.88595966e-01 -1.20982997e-01 -8.37434232e-02  2.39947382e-02
  8.09823908e-03 -3.90332900e-02  1.36800678e-02  9.62324627e-03
 -6.80336431e-02 -2.92759836e-01 -1.05092622e-01 -8.73385891e-02
  1.37952924e-01 -7.44213089e-02 -4.53660451e-02 -6.96175545e-03
 -1.70994431e-01 -6.36562333e-02  4.72906837e-03  5.49623147e-02
 -2.04675756e-02 -3.98225747e-02  1.98437423e-01 -8.58546142e-03
 -2.21946076e-01  2.97009107e-02 -1.94157884e-02  2.31781051e-01
  2.24493027e-01  3.42471935e-02  1.25165032e-02 -1.15605094e-01
  6.49209693e-02 -1.24887250e-01  3.91268134e-02  1.23181298e-01
  1.16075829e-01  9.77639332e-02 -2.51448806e-02 -1.31320938e-01
 -1.31206391e-02  7.98627362e-02 -1.45747751e-01  5.86720591e-04
  7.70573616e-02 -1.14259295e-01  1.13283647e-02  7.13773072e-04
  1.98467806e-01  8.46408606e-02 -8.79511684e-02 -1.50757313e-01
  1.49220869e-01 -1.34630099e-01 -3.46521698e-02  6.89620748e-02
 -1.03062250e-01 -1.23112142e-01 -3.05836052e-01  2.46141944e-02
  4.24178421e-01  6.73348084e-02 -2.06141219e-01 -7.54566630e-03
 -1.08055726e-01 -3.14658545e-02  1.02594510e-01  1.24911502e-01
 -4.05160189e-02  1.61178414e-05 -7.91661292e-02 -4.32419069e-02
  1.93065211e-01 -2.67919954e-02 -4.09600884e-03  1.76777095e-01
 -4.71391641e-02  4.08759452e-02  1.12942643e-02 -3.28930765e-02
  1.05008287e-02  5.26762679e-02 -6.50951788e-02 -4.38484251e-02
 -1.09759942e-02 -5.18637858e-02  3.98938283e-02  9.70756039e-02
 -1.59016117e-01  1.33018568e-01  7.73107782e-02  7.27989972e-02
  9.59313363e-02  6.34360537e-02 -5.74089177e-02 -9.36557055e-02
  1.58956394e-01 -2.21410424e-01  2.49693304e-01  1.87979504e-01
  4.06993851e-02  7.79125616e-02  9.99949500e-02  1.64709657e-01
 -4.84802611e-02 -2.44365428e-02 -1.36178449e-01  1.32495901e-02
  3.17145027e-02 -3.28252204e-02  9.93212610e-02  1.76700447e-02]