[-0.07142887  0.07649212  0.11412042 -0.01743784 -0.11443056 -0.05532168
 -0.05168913 -0.2029701   0.09753509 -0.09208214  0.22159813 -0.0338829
 -0.15977357 -0.08760998 -0.03135301  0.21324049 -0.16776548 -0.13825543
 -0.07981756  0.02442834  0.01540898 -0.01522643  0.04860078 -0.019824
 -0.09324889 -0.35495386 -0.1132588  -0.0600164   0.02765158  0.00693889
 -0.09893591  0.06679256 -0.16363917 -0.06319989  0.05046712  0.02319547
 -0.03135849 -0.07875326  0.15839481 -0.02120986 -0.29420495  0.10570779
  0.06083829  0.18359721  0.25405046  0.01433349  0.06847196 -0.15378034
  0.11574624 -0.15093668  0.01801921  0.10017087  0.06343317  0.02244583
  0.01928416 -0.13490163 -0.01485788  0.13733223 -0.11960464 -0.00865367
  0.10789015 -0.06226743 -0.0510635  -0.07073623  0.15606835  0.11688008
 -0.10241307 -0.17411274  0.13818942 -0.11968328 -0.04348059  0.03198657
 -0.17950884 -0.16725795 -0.28880894 -0.02923195  0.3693113   0.05982919
 -0.2082449   0.01290728 -0.04453726  0.07926821  0.1448658   0.13457654
  0.00245925 -0.01798767 -0.06012718 -0.05371175  0.21470819 -0.06717225
 -0.00547837  0.22880316  0.00126753  0.03146495  0.01182095  0.04820664
 -0.03062485  0.03422863 -0.14271338 -0.01612766  0.01537362 -0.0098453
  0.00957193  0.12218031 -0.16894822  0.10776875 -0.00843977  0.10680111
  0.06656947 -0.03942074 -0.01045633 -0.05370816  0.09639338 -0.21114114
  0.18147652  0.20891903 -0.01153659  0.07154677  0.0915598   0.05177733
 -0.02106763 -0.00179133 -0.21553646 -0.00781261  0.10188086 -0.05024904
  0.02989129  0.01195585]