[-0.12591529  0.07168821  0.08477971 -0.02330539 -0.10867876 -0.10939107
 -0.01832088 -0.12391914  0.02448782 -0.00286838  0.27832475 -0.03369415
 -0.20821069 -0.13917688  0.04671576  0.07643262 -0.10350133 -0.06421345
 -0.10741409 -0.01452953  0.00631431 -0.04754075  0.10301735  0.04019309
 -0.07120462 -0.35490218 -0.12087391 -0.11551686  0.04482393 -0.07621952
 -0.02498961  0.06955315 -0.12349    -0.0715009   0.00456254  0.08491196
 -0.08267968 -0.06843223  0.27434751 -0.04283596 -0.16880852 -0.025621
  0.04622094  0.26130953  0.24650966 -0.00711057  0.06474282  0.02421812
  0.1194179  -0.19086544  0.09368304  0.11474073  0.16947088  0.00910053
  0.10358719 -0.118263    0.02599603  0.13943204 -0.22567876  0.04295518
  0.01518409 -0.14966981 -0.09487674 -0.05952662  0.16944529  0.18508874
 -0.04983294 -0.12256239  0.18365243 -0.16385888 -0.04335444  0.05735629
 -0.17843643 -0.16935842 -0.2656419   0.00509671  0.2953037   0.12200451
 -0.20072757  0.02422602 -0.00604083 -0.04022942  0.0699947   0.0442452
 -0.09708242  0.03219115 -0.12284151  0.0138693   0.14947064 -0.06051993
 -0.02706908  0.2169324   0.01386453  0.01141816  0.11655617 -0.06335334
  0.00879722 -0.02259395 -0.15940624  0.01875811  0.0758891  -0.19538288
  0.00898169  0.0019669  -0.19571002  0.06498096  0.01792273  0.03339994
 -0.02470587 -0.09474625 -0.1219779  -0.0144088   0.19301501 -0.2303483
  0.21845749  0.1790604  -0.01152064  0.11905973  0.08292087  0.03665042
  0.00517733 -0.04370868 -0.11220069 -0.02812893  0.07711965  0.00292592
  0.06628708  0.05578163]