[-0.03523176  0.11270528  0.11405122  0.0033317  -0.05642976 -0.01658269
 -0.06425465 -0.20540968  0.12279292 -0.10479417  0.33509189 -0.01386856
 -0.19201259 -0.13710628  0.0038635   0.21341418 -0.16345476 -0.14572412
 -0.05492864  0.05746731 -0.01416673 -0.05569878  0.05773615  0.03066415
 -0.07407736 -0.3310028  -0.12214097 -0.06022124  0.02712668 -0.04415941
 -0.08268571  0.03041356 -0.18758574 -0.03990271  0.04314623  0.06120533
 -0.03958042 -0.07713887  0.21230154 -0.02467624 -0.25649753  0.06667765
  0.0273799   0.18370427  0.21409397 -0.00592667  0.05476718 -0.14827323
  0.09430142 -0.16897811  0.03098395  0.12212674  0.09175109  0.05882666
 -0.02142122 -0.15570912 -0.0307248   0.13066491 -0.09871435 -0.00774903
  0.06495102 -0.11117753 -0.01036569 -0.03852985  0.22295442  0.13981174
 -0.11794122 -0.16668044  0.13340092 -0.12045521 -0.03533685  0.07933081
 -0.16009347 -0.15341936 -0.30468413  0.00181977  0.38968828  0.01648586
 -0.24269645 -0.02102997 -0.07673386  0.02941298  0.08486614  0.15542373
  0.01114959 -0.02014181 -0.0953171  -0.05711813  0.25936362 -0.07955875
  0.02308165  0.2281218  -0.01761718  0.05505949  0.04273474  0.04264696
  0.00596018 -0.00896006 -0.13155447 -0.00165713 -0.06667773 -0.03904598
 -0.01564911  0.09403829 -0.17609319  0.07099272  0.02468377  0.03296761
  0.07112665  0.00757264 -0.02925493 -0.12206453  0.1248377  -0.25741109
  0.22005926  0.17899033  0.01451324  0.08836216  0.06699415  0.15215166
 -0.05570887 -0.03357118 -0.1292492  -0.01123742  0.05739795 -0.01794525
  0.03587904 -0.02299264]