[-0.11497789  0.14500019  0.13229574 -0.06669577 -0.16780248  0.00138662
 -0.01259205 -0.12215848  0.07847043 -0.07235621  0.22151218 -0.09734076
 -0.21105354 -0.06412052  0.01817556  0.20197788 -0.16899054 -0.12727234
 -0.05155872 -0.06484883  0.00876334  0.07834555 -0.01272668  0.00987595
 -0.10066199 -0.37090689 -0.07103676 -0.0704791   0.06715881 -0.01324432
 -0.00950886  0.08388907 -0.1115132  -0.01277172  0.03771795  0.10436419
 -0.09220064 -0.06692665  0.16010217 -0.01039598 -0.25605279  0.04652989
  0.05145446  0.2741622   0.23084362  0.05151696  0.04332526 -0.10954475
  0.14615537 -0.20326959  0.07685337  0.10798293  0.05054576  0.0232562
  0.05970974 -0.16909647  0.01658137  0.0959428  -0.22219265 -0.01120731
  0.11356273 -0.10254087  0.02473238 -0.06149429  0.20253916  0.10132112
 -0.07541516 -0.10082835  0.21261139 -0.13383438 -0.02987505  0.08338111
 -0.12847643 -0.13633172 -0.2644248   0.01372025  0.46240997  0.08925062
 -0.17688642 -0.03840668  0.0145668   0.01602743  0.21017234  0.12667145
 -0.04935997 -0.09284872 -0.12218819 -0.0027034   0.22318199 -0.0701317
 -0.03747446  0.22301777  0.06660774  0.03223229  0.06512368  0.04780707
 -0.06962322  0.02160864 -0.14166522 -0.02898458  0.00052991 -0.0758247
 -0.01913446  0.11052864 -0.15043111  0.21610813  0.04312957  0.05217335
 -0.04445922 -0.0685791  -0.02953471  0.01721198  0.17504381 -0.19763243
  0.15088235  0.14050446 -0.01741944  0.16335627  0.07925311  0.05886614
 -0.03566717 -0.12017801 -0.19948451 -0.0330798   0.09727078 -0.05585848
  0.09288117  0.06771383]