[-5.54525815e-02  1.25820622e-01  1.16172038e-01  3.43421437e-02
  1.69696677e-02 -1.79233570e-02 -4.47258204e-02 -1.92339540e-01
  1.07581712e-01 -9.13971737e-02  3.25292349e-01 -1.88143924e-04
 -1.36678547e-01 -1.55713037e-01  2.73965746e-02  1.86639190e-01
 -2.05503613e-01 -8.70345011e-02 -6.61897883e-02  3.09028216e-02
 -1.37160169e-02 -5.12394272e-02  4.40393053e-02  4.67804521e-02
 -3.95049378e-02 -2.73770124e-01 -1.18215501e-01 -9.15090516e-02
  1.28778622e-01 -2.51969192e-02 -8.21014270e-02 -2.34767348e-02
 -1.60723969e-01 -2.30180640e-02  1.40697288e-03  2.01029833e-02
 -1.90815777e-02 -5.38745783e-02  2.15001628e-01 -3.69961895e-02
 -2.23204404e-01  7.58474693e-02 -2.11019795e-02  1.81437209e-01
  2.07717538e-01  2.80941315e-02  2.97145341e-02 -1.00686491e-01
  6.92403242e-02 -1.72682539e-01  2.64253858e-02  1.17270410e-01
  7.85239488e-02  5.09426780e-02 -4.03737351e-02 -1.80134222e-01
 -5.55805378e-02  1.05512954e-01 -1.09337442e-01  1.35304183e-02
  4.70684431e-02 -1.28868222e-01  4.64972062e-03 -8.08850583e-03
  1.93497300e-01  1.41935393e-01 -1.04902819e-01 -1.64864570e-01
  1.46534130e-01 -1.29018918e-01 -9.15746670e-03  8.64772350e-02
 -1.17613845e-01 -1.41252860e-01 -2.81087220e-01  3.12924460e-02
  4.26161289e-01  7.45644420e-02 -1.99794158e-01 -7.27859745e-03
 -1.36014223e-01  1.40124587e-02  1.11909486e-01  1.16225876e-01
 -3.43349250e-03 -4.79015075e-02 -8.31428021e-02 -6.76091835e-02
  1.99953780e-01 -4.88576964e-02  8.89734644e-03  1.95694849e-01
 -2.33829301e-02  5.13054840e-02 -6.83739781e-03 -5.94524294e-03
  2.70480867e-02  9.96348541e-03 -9.04590711e-02 -5.00451913e-03
 -6.41378686e-02 -3.73053923e-02  2.88924575e-02  8.27386752e-02
 -1.89929500e-01  1.02182627e-01  6.65613040e-02  2.83793006e-02
  9.54723135e-02  7.24990666e-02 -4.88032289e-02 -7.30882809e-02
  1.44414678e-01 -2.71936715e-01  2.47575000e-01  2.03928158e-01
  4.19471264e-02  1.08398609e-01  7.72958025e-02  1.63949236e-01
 -5.08306697e-02 -4.21132408e-02 -1.37191087e-01 -2.17007454e-02
  4.83794473e-02 -2.45729294e-02  6.05539978e-02  5.14242565e-03]