[-1.18227221e-01  9.84224603e-02  1.37753531e-01 -3.39346640e-02
 -7.85150826e-02  1.91848297e-02 -3.26884612e-02 -1.22693755e-01
  7.63482004e-02 -1.18432418e-01  2.64621258e-01 -7.62104616e-02
 -1.67375773e-01 -1.01908185e-01  1.08706588e-02  1.79276571e-01
 -1.77304611e-01 -1.52429894e-01 -4.71759699e-02 -1.14960782e-01
  1.19765447e-02  7.98472837e-02 -7.85922632e-02 -2.43191421e-02
 -1.84259579e-01 -3.31600517e-01 -9.30716619e-02 -9.28269327e-02
 -2.21735056e-04 -5.50324135e-02 -1.86166745e-02  9.01445895e-02
 -1.17283881e-01  1.73861273e-02  3.24808224e-03  1.02405369e-01
 -3.69103514e-02 -4.73920777e-02  1.12892710e-01  3.19837816e-02
 -1.89556047e-01  5.10221608e-02  5.93909882e-02  3.18338484e-01
  1.81089014e-01 -3.28132953e-03  1.06484015e-02 -3.25146690e-02
  1.06548302e-01 -1.72619253e-01  3.69610563e-02  9.71981287e-02
  1.19952224e-01  7.69237876e-02  5.28662615e-02 -1.33810714e-01
 -7.34078605e-03  7.71567449e-02 -1.73711523e-01  2.63053011e-02
  5.60637414e-02 -1.20329335e-01  3.85912322e-03 -5.98045103e-02
  1.79514363e-01  1.26039073e-01 -7.80107379e-02 -1.35602042e-01
  1.63049206e-01 -1.17341712e-01 -8.61226469e-02  7.43663684e-02
 -1.43250033e-01 -1.32577449e-01 -2.88728654e-01  1.75094511e-02
  4.25732613e-01  7.31145963e-02 -2.14475736e-01 -3.65372859e-02
  4.64996882e-03 -1.90599635e-02  1.72060609e-01  1.23058058e-01
 -1.97091643e-02 -2.13130750e-02 -9.80637744e-02  2.11452823e-02
  2.37376407e-01 -2.83661485e-02 -5.94445243e-02  1.91226527e-01
  1.55585632e-02  1.46218687e-02  4.50285636e-02  1.35429921e-02
 -3.68642919e-02  2.23741122e-02 -8.35329369e-02 -2.85511818e-02
 -1.80738103e-02 -8.22217837e-02 -4.07345705e-02  1.10703044e-01
 -1.45604268e-01  2.27537349e-01  6.47088513e-02  5.54348193e-02
 -3.62860151e-02  7.61380885e-03 -3.30974124e-02  2.15078499e-02
  1.69311747e-01 -2.36445472e-01  1.11204945e-01  1.77562982e-01
 -2.26628082e-03  1.43266320e-01  4.16050814e-02  5.17328270e-02
 -7.46230409e-02 -6.37309253e-02 -2.14052305e-01 -4.53613438e-02
  3.62654291e-02 -5.13479002e-02  5.56414984e-02  6.19133003e-02]