[-0.12424473  0.15453441  0.12911612 -0.07705343 -0.14895509  0.0388226
 -0.03073816 -0.11248394  0.09884248 -0.09686508  0.21568266 -0.11157848
 -0.18838595 -0.02015763  0.00909455  0.20518671 -0.19048154 -0.18649504
 -0.03998381 -0.12256755  0.03258077  0.03256349  0.01249365  0.04693847
 -0.19684073 -0.33063719 -0.04971489 -0.08071644  0.05690026 -0.0569847
 -0.03383417  0.08548065 -0.15391816  0.01728666  0.06552255  0.1796253
 -0.03317114 -0.09981196  0.13080631  0.0118765  -0.26288694  0.06230154
  0.08372082  0.26248038  0.25734395  0.01581644 -0.00079765 -0.04728401
  0.17028312 -0.19807592  0.05738889  0.14944868  0.03131693  0.02048092
  0.10452498 -0.1697938  -0.01993882  0.10456445 -0.14191905 -0.05499908
  0.07340924 -0.07299405  0.01029829 -0.1403598   0.12945066  0.10923981
 -0.0885727  -0.13314265  0.20535548 -0.08646751 -0.03469686  0.11967881
 -0.17744456 -0.11497235 -0.22960804  0.00468301  0.42440873  0.09729974
 -0.14676276  0.00416622  0.0402292   0.03806104  0.08051993  0.15198015
 -0.00773716 -0.0035956  -0.09778687  0.01733658  0.16881494 -0.03889566
 -0.03458683  0.19259815 -0.02251929  0.00649711  0.05607248  0.06867839
 -0.15096429 -0.0114525  -0.17724757 -0.11548986 -0.0334359  -0.0406771
 -0.06181059  0.12517677 -0.17345527  0.15517274 -0.0112105   0.03949384
 -0.09840976 -0.0208198   0.01227489  0.0544796   0.13431829 -0.23459506
  0.09314229  0.18149613 -0.05586783  0.12288062  0.09309711  0.03008991
 -0.00939063 -0.06069566 -0.18528099 -0.08864146  0.02983666 -0.05403284
  0.03174625  0.02782476]