[-0.08348755  0.11676035  0.13200627 -0.0448221  -0.1918294   0.02448468
 -0.02253801 -0.07197323  0.09012045 -0.07462525  0.23122154 -0.06990418
 -0.20140934 -0.02184191 -0.0103945   0.22933006 -0.17397745 -0.15472095
 -0.04448865 -0.06745809  0.0273437   0.07983401 -0.04152618 -0.03743672
 -0.1035964  -0.39448962 -0.05331817 -0.04617446  0.06381763 -0.04594619
 -0.02904103  0.09796337 -0.13736327 -0.02583098  0.06626513  0.11782892
 -0.08303547 -0.09663477  0.18259205  0.06995016 -0.26527509  0.06933033
  0.05348129  0.28699803  0.24534324  0.03202257  0.03756518 -0.09114407
  0.12783095 -0.22788893  0.03615578  0.13700376  0.04762477  0.0437055
  0.03735776 -0.13799389  0.00747346  0.05464235 -0.19934855 -0.04818664
  0.12802605 -0.09629586  0.03371917 -0.08604842  0.20396712  0.07725777
 -0.04921013 -0.13733     0.22153901 -0.11506023 -0.08204676  0.04465589
 -0.13622236 -0.11683977 -0.2507754   0.01114755  0.47721463  0.07426271
 -0.17750703  0.00115117 -0.01312502 -0.01305146  0.18708605  0.10740519
  0.01536479 -0.06368401 -0.10333752 -0.01627267  0.27963948 -0.07615317
 -0.04545113  0.18125714  0.04802948  0.03741854  0.0932002   0.03828526
 -0.05984352  0.03118457 -0.17854719 -0.05604601 -0.05048007 -0.0802509
 -0.02441015  0.12531655 -0.16167571  0.19804378  0.02767782  0.02684599
 -0.05247167 -0.04493502 -0.06466667  0.02011125  0.17007275 -0.20473476
  0.17685866  0.17234476 -0.00495701  0.1346817   0.11158114  0.04683849
 -0.03031468 -0.08966603 -0.2151213  -0.07610554  0.04591432 -0.02259114
  0.0620394   0.06801677]