[-1.19379066e-01  6.60681576e-02  1.21398918e-01 -6.03544973e-02
 -8.26976672e-02 -4.54665087e-02 -4.89202701e-02 -1.53111562e-01
  1.23454146e-01 -1.10034011e-01  2.37950251e-01 -1.65391210e-02
 -1.75524458e-01 -9.35093686e-02 -1.61529277e-02  2.28261814e-01
 -2.01974913e-01 -1.23527765e-01 -6.70560002e-02  3.21890898e-02
  2.37840004e-02  1.66862461e-04  4.18232605e-02  1.70602519e-02
 -9.79535654e-02 -3.55410993e-01 -9.14140493e-02 -4.22788747e-02
 -1.39202466e-02 -3.93381119e-02 -1.31246030e-01  4.92397621e-02
 -1.59712896e-01 -6.55721501e-02  4.45809327e-02  7.55963847e-02
  5.22691151e-03 -5.47851734e-02  1.48594007e-01 -3.26456726e-02
 -2.73151696e-01  8.46905634e-02  9.42877159e-02  2.04808861e-01
  2.37415776e-01  4.04889062e-02  3.33298407e-02 -1.61517918e-01
  1.35646731e-01 -1.78413510e-01  5.71438298e-03  8.69108364e-02
  6.80117384e-02  1.43897384e-02  1.03597101e-02 -1.51867971e-01
 -2.87583414e-02  1.12914383e-01 -9.00713503e-02 -1.18744345e-02
  8.44407082e-02 -5.07979095e-02 -4.26631868e-02 -8.92517492e-02
  1.74005732e-01  9.43024978e-02 -1.35924414e-01 -1.75313175e-01
  1.04521766e-01 -9.73183289e-02 -6.13681860e-02  2.11636517e-02
 -1.74408615e-01 -1.70150384e-01 -2.88145423e-01 -3.46763544e-02
  3.63900602e-01  4.24959436e-02 -2.24484876e-01  2.07603071e-02
 -7.64265880e-02  3.20196152e-02  1.13934696e-01  1.39052749e-01
  2.94804247e-03  7.98043888e-03 -7.57615194e-02 -1.49225593e-02
  2.27759317e-01 -6.34028539e-02  3.25171128e-02  2.03151464e-01
  1.49819553e-02  7.16566369e-02 -8.93076975e-03  6.55664578e-02
 -6.44325688e-02  7.69256651e-02 -1.72769740e-01 -2.92837853e-03
  2.32279841e-02 -4.59408108e-03  2.01007687e-02  1.33393601e-01
 -1.97252572e-01  1.27450272e-01  1.72725823e-02  7.47920275e-02
  8.57912973e-02  1.04953349e-02 -4.21698354e-02 -7.73769319e-02
  8.86145383e-02 -2.11488992e-01  1.69398233e-01  2.36666590e-01
  1.04132015e-02  8.38475004e-02  9.40178335e-02  7.90748447e-02
 -1.00655733e-02  4.11859341e-02 -2.16879711e-01  1.33285078e-03
  1.05456114e-01 -5.57078123e-02  5.36778755e-02  1.61734167e-02]