[-1.36368394e-01  1.26664013e-01  1.24951676e-01 -1.23232841e-01
 -1.45030037e-01 -4.85589094e-02 -3.21072899e-02 -1.16447642e-01
  1.78022549e-01 -6.68542013e-02  1.73232958e-01 -2.83940639e-02
 -2.33137637e-01 -3.71904974e-03 -9.63397846e-02  1.74857676e-01
 -1.42706439e-01 -1.64966926e-01 -1.38982460e-01 -1.11093126e-01
  3.26426141e-02  1.08320296e-01  3.08229122e-02  3.65313771e-03
 -1.30510002e-01 -2.61413038e-01 -6.28318936e-02  9.75281000e-05
  2.30297223e-02 -1.20050631e-01  6.71600923e-02  1.35291383e-01
 -1.49119481e-01  9.72761028e-03  3.28863524e-02  4.41315770e-02
 -3.50791849e-02 -1.41920939e-01  1.79496497e-01 -1.41776456e-02
 -2.35911399e-01 -8.30685422e-02  1.27308726e-01  2.53400594e-01
  2.39927322e-01 -4.97366898e-02  1.42916217e-02 -3.12254038e-02
  8.97845402e-02 -3.14266682e-01 -1.44025905e-03  1.87936440e-01
  2.57950854e-02  9.05920640e-02  1.03743531e-01 -2.02159077e-01
 -2.06887927e-02  1.57003209e-01 -1.26435071e-01  5.78919947e-02
  5.01002558e-02 -1.67884886e-01 -3.04270033e-02 -1.27822995e-01
  1.47935227e-01  9.35908407e-02 -1.41473994e-01 -2.03986272e-01
  1.63965732e-01 -1.42552108e-01 -6.04530685e-02  9.44437534e-02
 -1.36896953e-01 -1.65256843e-01 -2.68428057e-01  2.39765574e-03
  3.07207257e-01  1.35166854e-01 -1.43996790e-01  3.91786471e-02
 -8.07452798e-02  7.85327237e-03 -6.84042647e-02  8.35525915e-02
 -2.50655096e-02 -3.84197794e-02 -1.20901398e-01 -3.85090970e-02
  2.23328859e-01 -7.22490549e-02 -3.16874646e-02  2.62246966e-01
 -9.81001370e-03 -7.96633437e-02 -4.78777848e-02  8.29259232e-02
 -1.48584038e-01  1.78541970e-02 -9.17315558e-02  9.12815332e-03
  4.16734349e-03 -1.02921389e-01 -2.06778385e-02  1.32002950e-01
 -1.35408476e-01  1.71994179e-01 -2.78935619e-02  2.25116927e-02
 -7.80488178e-02 -4.41985689e-02 -5.46109341e-02 -4.36089747e-02
  1.64405152e-01 -2.06394434e-01  2.09728748e-01  2.07126662e-01
  2.89068129e-02  1.76270887e-01  8.10531005e-02  1.22347534e-01
  4.14322503e-02  1.62128620e-02 -2.12474260e-02 -1.18711472e-01
 -5.38788550e-03 -4.42581028e-02 -4.92784344e-02  8.87250826e-02]