[-0.10973094  0.09247588  0.12420187 -0.02289474 -0.13055332 -0.01577269
 -0.03254195 -0.1166239   0.10540264 -0.08883946  0.21268249 -0.06485092
 -0.23373197 -0.0686205   0.01765787  0.21479554 -0.18766661 -0.19573973
 -0.00709164 -0.04979495  0.01557356  0.01089256  0.05146573  0.0186667
 -0.16736317 -0.39056605 -0.0925824  -0.09556016 -0.01668319 -0.03240938
 -0.05884906  0.12748015 -0.12319239 -0.04413247  0.08527919  0.14898926
 -0.02375704 -0.063402    0.17096114  0.01697149 -0.27134436  0.04515904
  0.10162001  0.26949114  0.25152043  0.02923247  0.01329551 -0.08432861
  0.14630435 -0.19403224  0.04352209  0.12688087  0.08813837  0.04285875
  0.10021628 -0.14583799  0.00598868  0.0872888  -0.15766011 -0.0634225
  0.04408317 -0.0762808   0.04416943 -0.09929518  0.19161735  0.07744267
 -0.07674658 -0.10069169  0.183823   -0.09861236 -0.06619693  0.08706727
 -0.18576352 -0.15088196 -0.25706145 -0.01761333  0.39740741  0.08479074
 -0.18670124  0.03107904  0.02171842 -0.00546653  0.09858493  0.16541743
  0.00378159  0.01350623 -0.0900074  -0.02690193  0.1952403  -0.06513263
 -0.02724692  0.18900697  0.00472971  0.06976492  0.10891688  0.03447165
 -0.09264965  0.00664265 -0.228236   -0.10010885 -0.05042491 -0.03306083
 -0.03202217  0.08812611 -0.15411443  0.09994535  0.01533765  0.01770929
 -0.06776993 -0.01508718 -0.01479425 -0.01518097  0.11556251 -0.25305343
  0.12682331  0.18329577 -0.06185606  0.13592111  0.06782799  0.04380366
 -0.04336521 -0.05755037 -0.15660757 -0.04260706  0.09949201 -0.02435463
  0.06100268  0.01617802]