[-1.14434086e-01  6.59636334e-02  7.91223273e-02  1.33994399e-02
 -6.74588308e-02 -7.33720660e-02 -1.86701156e-02 -1.34440944e-01
  4.65521812e-02 -1.72302518e-02  2.97111720e-01 -7.54359663e-02
 -2.14001924e-01 -1.22677885e-01  2.98345331e-02  1.06147625e-01
 -1.09650992e-01 -6.31887317e-02 -8.35294947e-02  3.41372751e-03
  9.39697307e-03 -6.63226470e-02  1.15294039e-01  2.19047423e-02
 -6.00603521e-02 -3.68336290e-01 -1.16275132e-01 -1.26188323e-01
  5.68757616e-02 -6.25867322e-02 -7.34062642e-02  8.57296512e-02
 -1.34395152e-01 -7.78883323e-02  2.50681047e-03  7.16540217e-02
 -4.70042937e-02 -6.66446909e-02  2.48341635e-01 -3.35410498e-02
 -1.59191132e-01 -2.17067041e-02  1.78685579e-02  2.47529075e-01
  2.31175229e-01  3.04268133e-02  6.16684742e-02 -3.00316159e-02
  8.84210393e-02 -1.59879357e-01  8.88143554e-02  8.53681192e-02
  1.63100675e-01 -5.73502714e-03  8.32199976e-02 -1.19797342e-01
  2.38800771e-03  8.34015906e-02 -1.70485869e-01  2.67271642e-02
  3.42799686e-02 -8.78700688e-02 -8.48451033e-02 -9.73009467e-02
  1.81458846e-01  1.54702753e-01 -5.77469543e-02 -1.14121392e-01
  1.53346285e-01 -1.38674796e-01 -5.29771559e-02  4.59572636e-02
 -1.79721594e-01 -1.73392147e-01 -2.88124204e-01  2.79441848e-03
  3.12407345e-01  1.09424882e-01 -2.17446521e-01  2.06878763e-02
  1.83194038e-02 -3.81016918e-02  1.01853311e-01  9.67520699e-02
 -8.11048076e-02  4.51745987e-02 -1.03546500e-01 -1.72015708e-02
  1.48821637e-01 -7.38578811e-02 -5.63073047e-02  1.84775338e-01
 -3.46315503e-02  3.43229435e-02  8.72819945e-02 -4.74179685e-02
  1.37607781e-02  1.05397405e-04 -1.63382813e-01 -9.49624181e-03
  7.13501498e-02 -1.26363382e-01 -1.40648531e-02  2.69888528e-02
 -1.77475497e-01  3.95504646e-02 -2.89954664e-03  3.55315320e-02
  1.28737018e-02 -8.10959339e-02 -1.15891241e-01 -1.75898951e-02
  1.70568764e-01 -2.35145047e-01  1.61699817e-01  1.83049873e-01
 -6.79618958e-03  1.00329004e-01  9.67553705e-02  6.06235750e-02
  1.41762020e-02  1.28156189e-02 -1.65536031e-01 -3.04800812e-02
  9.98155475e-02  1.32840797e-02  5.66660948e-02  3.44502591e-02]