[-2.00341344e-02  1.19720161e-01  1.31485537e-01 -2.57990118e-02
 -1.38638377e-01  1.24325696e-02 -1.63226956e-04 -9.57622603e-02
  1.57452762e-01 -7.41346851e-02  2.19521761e-01 -1.12397984e-01
 -1.84210211e-01 -3.41612957e-02 -1.33644585e-02  2.24816561e-01
 -1.69901833e-01 -1.05445914e-01 -1.17596453e-02 -5.21431454e-02
  7.19391182e-02  6.46716803e-02  8.74835160e-03  1.60050355e-02
 -1.67352781e-01 -3.32165778e-01 -6.17414080e-02 -5.54399751e-02
  6.46093637e-02 -9.36142355e-02 -5.41637801e-02  1.04252495e-01
 -1.31661817e-01 -4.17721979e-02  7.13958368e-02  8.45058784e-02
 -7.05668256e-02 -1.11908928e-01  1.72788009e-01  9.16531458e-02
 -2.45434880e-01  7.30524063e-02  3.01501043e-02  2.67016858e-01
  2.55496562e-01  2.92125586e-02  3.88152935e-02 -1.52660474e-01
  1.46610081e-01 -1.83332771e-01  3.01828608e-03  1.31749377e-01
  3.08457706e-02  2.69991849e-02  7.14710131e-02 -1.12781897e-01
 -2.75988262e-02  1.19690314e-01 -1.84948832e-01 -1.11749768e-02
  1.11065269e-01 -4.45205830e-02  3.11085340e-02 -7.19937384e-02
  1.72283322e-01  5.27793542e-02 -7.48334602e-02 -1.25014275e-01
  1.90747276e-01 -1.13958314e-01 -8.27068686e-02  7.40855187e-02
 -1.21880151e-01 -1.49474189e-01 -2.30809793e-01 -1.30716925e-02
  4.07286137e-01  6.64661825e-02 -2.05654934e-01  1.36366216e-02
 -2.16753758e-03  1.71291232e-02  1.82903871e-01  1.70788035e-01
  3.29162218e-02 -4.45097052e-02 -5.31616770e-02 -3.93905900e-02
  2.28073582e-01 -8.26270655e-02 -4.32382338e-03  2.36214429e-01
  1.36035653e-02  6.98784739e-03  4.15940098e-02 -1.05561537e-03
 -1.09669618e-01  6.40238449e-02 -1.54468313e-01 -1.10110655e-01
 -1.54334605e-02 -2.69679856e-02  3.31144338e-03  1.37989610e-01
 -2.06280574e-01  1.67828336e-01  9.84095316e-03  7.59944413e-03
  1.38761662e-03 -5.90543225e-02 -4.97012511e-02  1.78425442e-02
  1.52297914e-01 -2.63018459e-01  1.34298906e-01  1.60459787e-01
 -2.95504238e-02  9.24728513e-02  7.78221264e-02  6.64021224e-02
  1.98720377e-02 -4.87551466e-02 -1.68784544e-01 -2.59121712e-02
  6.62111789e-02 -4.86066192e-02  2.92337965e-02 -2.08520573e-02]