[-6.53796792e-02  1.20829724e-01  1.09681420e-01 -4.18705717e-02
 -6.69470727e-02  2.64097899e-02 -3.49975191e-02 -1.45999134e-01
  1.16945706e-01 -1.09399751e-01  2.98077554e-01 -5.82997873e-02
 -2.12065324e-01 -8.68809372e-02  4.88023926e-03  2.00481370e-01
 -2.20999584e-01 -1.62771001e-01 -4.08824161e-02 -7.00608790e-02
 -5.76626509e-03  4.46133092e-02 -2.69355718e-02  4.19224193e-03
 -1.49356380e-01 -3.45152527e-01 -6.84851632e-02 -1.06751166e-01
  4.20158170e-02 -2.98722330e-02 -2.39894502e-02  5.79416938e-02
 -1.20750211e-01  1.87027045e-02  6.48112744e-02  9.45852622e-02
 -3.77859287e-02 -5.37752397e-02  1.66554138e-01  3.93055938e-02
 -2.20559344e-01  2.93268096e-02  8.09596106e-02  2.72625715e-01
  2.10832462e-01  3.55925523e-02 -6.44413894e-03 -1.02304898e-01
  1.23505309e-01 -1.98197559e-01  4.92612086e-02  1.04146294e-01
  1.32125244e-01  4.96901236e-02  8.28411952e-02 -1.98744357e-01
 -9.91262123e-03  9.52609405e-02 -2.01245353e-01 -1.01691483e-04
  2.87861917e-02 -7.25209862e-02  1.16734840e-02 -5.26421443e-02
  2.08651349e-01  1.30364060e-01 -9.81967077e-02 -1.18306927e-01
  2.13912874e-01 -1.27373502e-01 -9.25594941e-02  6.58842698e-02
 -1.14568077e-01 -1.48345307e-01 -2.78006643e-01 -5.05646542e-02
  4.40010518e-01  7.93202072e-02 -2.40766957e-01 -1.70581825e-02
  1.21537559e-02 -3.85474376e-02  1.63345352e-01  1.31873086e-01
 -3.54247205e-02 -4.56307530e-02 -8.68040323e-02 -5.72947524e-02
  2.32976109e-01 -3.02050170e-02 -3.51605900e-02  1.96935311e-01
 -1.66385286e-02  4.17386964e-02  6.36442751e-02 -4.63987840e-03
 -6.39745221e-02  1.83408409e-02 -1.69848919e-01 -9.30830762e-02
 -8.54070559e-02 -5.63961267e-02 -3.79718393e-02  1.01739503e-01
 -2.03330904e-01  1.67005390e-01  8.30629393e-02  8.45542003e-04
 -1.58145688e-02  2.11412851e-02 -2.86898017e-02  5.61509235e-03
  1.80336878e-01 -2.79126376e-01  1.72887653e-01  1.84304193e-01
  1.97689869e-02  1.48153365e-01  6.60018697e-02  3.68156098e-02
 -3.07658017e-02 -8.30267891e-02 -2.16097996e-01 -6.00715242e-02
  1.80965923e-02 -9.14706066e-02  5.69692515e-02  3.52664068e-02]