[-1.88174129e-01  9.29153487e-02  8.67648497e-02  4.23936825e-03
 -8.74867439e-02 -1.09447770e-01  4.91896346e-02 -1.40845686e-01
  1.16024904e-01 -3.52672227e-02  3.01298559e-01 -6.11113012e-02
 -1.99170560e-01 -1.71094343e-01  2.94171665e-02  1.36315808e-01
 -1.47751495e-01 -9.66555402e-02 -3.90198603e-02 -3.96695919e-02
  3.22764814e-02 -9.32126790e-02  8.32337588e-02  9.51183066e-02
 -7.11599141e-02 -3.50629777e-01 -8.68589506e-02 -1.48646832e-01
  5.64834476e-02 -4.42533121e-02 -6.85533509e-02  9.77447629e-02
 -1.64002642e-01 -9.89851207e-02 -3.25261317e-02  1.11622274e-01
  1.57810585e-03 -8.94585438e-03  2.02143595e-01 -1.00716077e-01
 -1.63393810e-01 -3.61316241e-02  1.31421564e-02  2.45223805e-01
  2.31190681e-01 -1.11296031e-04  7.32406601e-02 -1.83657110e-02
  7.77788982e-02 -1.46604881e-01  2.17375662e-02  1.08433984e-01
  1.20117143e-01 -1.95872840e-02  2.30567753e-02 -1.56743631e-01
 -3.26866172e-02  4.89274226e-02 -1.27992764e-01  1.97916552e-02
  4.39401828e-02 -1.06431745e-01 -6.48181811e-02 -3.54079865e-02
  2.16697887e-01  9.93776694e-02 -4.69533801e-02 -1.39407739e-01
  2.21774727e-01 -1.50515676e-01 -2.75714975e-02  5.56931980e-02
 -2.18273073e-01 -1.63509741e-01 -2.86013126e-01  3.80853638e-02
  3.39583367e-01  9.48818550e-02 -1.68856025e-01  4.47573960e-02
 -1.10246241e-01  2.78105978e-02  5.89858666e-02  5.67376092e-02
 -4.82260659e-02  4.89175804e-02 -1.80821210e-01  3.17098126e-02
  1.57709152e-01 -7.87072182e-02 -3.05910297e-02  1.90310493e-01
  7.09860399e-03  3.44140641e-02  5.62222078e-02 -4.41928916e-02
  7.52325216e-03  3.13846357e-02 -1.91954240e-01 -3.24068591e-03
  7.45805874e-02 -9.93037894e-02  1.28983855e-02  5.90596311e-02
 -1.89540774e-01  1.72270685e-02  3.81154427e-03  5.29455058e-02
 -4.74031493e-02 -2.13444326e-02 -1.34861499e-01 -3.84652168e-02
  1.67807534e-01 -1.75073206e-01  2.10986927e-01  2.11128876e-01
  3.52054946e-02  1.14538014e-01  8.87255892e-02  4.38029729e-02
  1.73398834e-02 -4.06534672e-02 -1.17235117e-01  1.05973659e-02
  9.48679224e-02 -1.92000028e-02  6.09469675e-02  6.17451258e-02]