[-0.09013151  0.08369092  0.1326208   0.04531604 -0.02864501 -0.04364616
 -0.03709574 -0.04777478  0.12006415 -0.05213944  0.18807018 -0.03091572
 -0.23338567 -0.06948946  0.03581076  0.09196083 -0.11312749 -0.11448548
 -0.09542676 -0.15575933  0.02667137 -0.00499832  0.04039431  0.03274073
 -0.15033594 -0.27771327 -0.04993797 -0.14968428  0.09192558 -0.15262221
 -0.00994805  0.00076455 -0.20989418 -0.04013293 -0.02603333  0.03758877
  0.04657914 -0.05358821  0.18007067 -0.06146908 -0.16163461 -0.06205332
 -0.00856389  0.25725371  0.18754581  0.03496258 -0.00481789 -0.02742488
  0.07011607 -0.22256775  0.07817722  0.13009697  0.1019756   0.04981414
  0.04950303 -0.18760726 -0.00195399  0.07584196 -0.11679155  0.07366819
  0.06683826 -0.08262508 -0.05934424 -0.06652533  0.20369306  0.0608447
 -0.08822883 -0.14416528  0.12865075 -0.1542654  -0.02637628  0.07172037
 -0.10410698 -0.12520044 -0.29608512  0.05648905  0.38647199  0.13604225
 -0.23419134  0.0271366  -0.12929635  0.02390401  0.04867052  0.04237241
 -0.09680869  0.02824275 -0.09366814  0.05293473  0.16170007 -0.02551053
 -0.02899707  0.13923894 -0.04265875  0.00574154 -0.00323367 -0.01392096
 -0.09894703  0.02495084 -0.10578906 -0.01397178  0.09720882 -0.06867523
  0.02273778  0.11517175 -0.22562218  0.14351252  0.01809379 -0.03001728
  0.04394936  0.0712558  -0.13392772 -0.03276717  0.20080228 -0.25186035
  0.21014011  0.22444451  0.04112424  0.13339499  0.07057204  0.12550996
 -0.00307733  0.02248979 -0.16890386 -0.05915958  0.04916326 -0.04662583
  0.0258531   0.04773032]