[-1.09922849e-01  8.09737369e-02  1.30273506e-01 -1.89906154e-02
 -1.09948233e-01 -6.02245815e-02 -3.37407403e-02 -1.87878951e-01
  1.06447257e-01 -1.02585867e-01  2.15696856e-01  1.60982469e-04
 -1.76531985e-01 -9.24387798e-02 -2.90050395e-02  2.16501340e-01
 -2.04117969e-01 -1.55471772e-01 -7.74776340e-02  1.90954283e-02
  1.64924301e-02  3.36787440e-02  5.98342381e-02 -1.88860409e-02
 -1.13328300e-01 -3.82329941e-01 -9.74664092e-02 -7.09813014e-02
  1.85225755e-02  1.64168365e-02 -8.85362476e-02  6.68959022e-02
 -1.55530930e-01 -5.72416447e-02  5.39336912e-02  5.70150688e-02
 -2.77356394e-02 -7.35014006e-02  1.58207878e-01  1.67251807e-02
 -2.95737743e-01  8.80306885e-02  6.00676425e-02  2.26284966e-01
  2.71332234e-01  7.63564510e-03  6.43256530e-02 -1.32286415e-01
  1.28951430e-01 -1.84321091e-01 -7.62760732e-03  9.60142687e-02
  4.16736118e-02  3.12139988e-02  4.33262624e-02 -1.48375615e-01
 -1.17838131e-02  1.12746194e-01 -1.03497207e-01 -3.27771679e-02
  8.51870775e-02 -7.76965693e-02 -2.41247173e-02 -6.31377622e-02
  1.59434021e-01  6.57731295e-02 -1.08941577e-01 -1.59003451e-01
  1.26528919e-01 -1.20700002e-01 -6.31153509e-02  3.61350775e-02
 -1.82180956e-01 -1.45897195e-01 -2.93431133e-01 -2.67069228e-02
  3.95519614e-01  5.53230830e-02 -1.84440956e-01  2.61466242e-02
 -4.69850898e-02  5.45190647e-02  1.28778994e-01  1.61435828e-01
  1.92130506e-02 -1.97913870e-03 -8.17155391e-02 -4.00870703e-02
  2.04169974e-01 -6.01881109e-02 -1.36991648e-03  2.27170184e-01
  1.47001713e-03  5.90954982e-02  2.42283922e-02  4.77219597e-02
 -6.50763735e-02  5.38504981e-02 -1.40387103e-01 -1.87332164e-02
  1.69833880e-02  2.06590141e-03  1.48907294e-02  1.22068956e-01
 -1.58591703e-01  1.23713270e-01 -1.08627966e-02  1.00113153e-01
  5.96730895e-02 -4.89706360e-02 -1.01842210e-02 -3.97613347e-02
  8.15418661e-02 -2.10984588e-01  1.77920938e-01  2.29988694e-01
 -2.82641053e-02  9.20890719e-02  8.75967145e-02  2.33618561e-02
 -4.03027087e-02  2.76532769e-02 -2.23825440e-01 -1.75247844e-02
  9.10669714e-02 -5.71284890e-02  3.08959521e-02  3.57031450e-03]