[-0.1838541   0.08469712  0.07586553 -0.00953614 -0.07020474 -0.10359778
  0.0265077  -0.10427113  0.10584246 -0.01037465  0.28060839 -0.05477615
 -0.22107971 -0.16484369  0.03224557  0.10526802 -0.12888514 -0.09113442
 -0.04205602 -0.06099657  0.02367452 -0.05860623  0.08242211  0.07564261
 -0.08431899 -0.36271057 -0.08015709 -0.14058739  0.044002   -0.05966531
 -0.07416043  0.1067034  -0.1600579  -0.11670174 -0.00320036  0.13384105
 -0.00763716 -0.00377573  0.22940166 -0.08683002 -0.1423057  -0.02514936
  0.03327677  0.28263083  0.23915294  0.01273455  0.04914081 -0.00847369
  0.05975464 -0.14412688  0.05190265  0.13702001  0.10953858 -0.02357112
  0.0414013  -0.13156168 -0.02254091  0.07324741 -0.14983538  0.02198047
  0.04104806 -0.12063866 -0.0742311  -0.04168077  0.19455604  0.10037907
 -0.04334265 -0.12262221  0.19592214 -0.16643862 -0.03887537  0.03885853
 -0.19967633 -0.1603739  -0.27316281  0.03041664  0.33156645  0.09846519
 -0.18979153  0.07071605 -0.05849205 -0.02098698  0.10538111  0.05389224
 -0.06774155  0.0437849  -0.15289007  0.04060914  0.17236863 -0.03128359
 -0.03819203  0.16311012  0.0098799   0.02284454  0.1064017  -0.04665764
  0.01317006  0.0063176  -0.21525978 -0.00367649  0.07464099 -0.14516011
 -0.0071247   0.05283996 -0.20439854  0.02627996  0.02786504  0.02320798
 -0.0383     -0.03755718 -0.12493267 -0.02652349  0.19073872 -0.18513088
  0.2107697   0.20871846  0.02545061  0.12985173  0.09200456  0.03723766
  0.02173536 -0.02846714 -0.12933247 -0.01530575  0.08260028 -0.00732361
  0.10913179  0.05821968]