[-2.40121018e-02  1.23947240e-01  9.89857316e-02 -4.54678461e-02
 -1.55562863e-01  8.58898833e-03  6.63061533e-03 -9.06922966e-02
  1.91222683e-01 -6.39700517e-02  2.37066224e-01 -8.15344825e-02
 -2.07175568e-01 -2.79327631e-02  1.82732102e-02  2.21925184e-01
 -1.77889094e-01 -1.18306458e-01 -2.08406728e-02 -7.19643906e-02
  5.64242192e-02  5.60996532e-02 -8.73618387e-03  3.27682607e-02
 -1.55255839e-01 -3.54812324e-01 -6.03081547e-02 -5.71526699e-02
  2.79936325e-02 -8.15383121e-02 -1.87991410e-02  1.28604189e-01
 -1.32240072e-01 -3.06833088e-02  6.78506345e-02  7.49545023e-02
 -7.80390501e-02 -1.01247028e-01  1.79909423e-01  9.49945152e-02
 -2.41874769e-01  6.45698532e-02  3.30416746e-02  2.59283453e-01
  2.51403302e-01  2.48442870e-02  3.65328714e-02 -1.26058027e-01
  1.54391274e-01 -1.83519199e-01  1.63365901e-02  1.43436149e-01
  4.76515591e-02  1.28019517e-02  9.18797925e-02 -1.36572734e-01
 -3.06662060e-02  1.03634678e-01 -2.11255461e-01 -2.66932454e-02
  9.19057876e-02 -7.18205646e-02 -4.13835427e-04 -9.54405889e-02
  1.73592284e-01  8.42698812e-02 -7.01071098e-02 -1.29692510e-01
  1.80962026e-01 -1.06450222e-01 -9.53798294e-02  8.07875320e-02
 -1.43154591e-01 -1.64695114e-01 -2.39022329e-01 -8.58954340e-03
  4.34106648e-01  6.67580813e-02 -2.11227611e-01  1.80360656e-02
  1.16473231e-02 -2.91416864e-03  1.75478712e-01  1.55939892e-01
  3.44949141e-02 -6.81689084e-02 -7.41237327e-02 -2.99458355e-02
  2.08977222e-01 -6.93086833e-02 -3.39111611e-02  2.32430652e-01
 -2.82760593e-03  2.59606689e-02  3.29659693e-02  1.46758964e-03
 -1.00680530e-01  5.96464053e-02 -1.44545361e-01 -1.18651450e-01
 -2.00935882e-02 -2.24948023e-02 -1.82824023e-02  9.95394140e-02
 -1.96034268e-01  1.65423170e-01  2.63901055e-02  2.65592933e-02
 -2.98338737e-02 -4.87159975e-02 -5.35119884e-02  2.92796325e-02
  1.49857044e-01 -2.80217737e-01  1.55520663e-01  1.34331182e-01
 -5.77649772e-02  1.19176291e-01  4.97422479e-02  5.82308173e-02
 -1.18262251e-03 -7.39015639e-02 -1.79168001e-01 -3.33526842e-02
  6.13568835e-02 -2.91435011e-02  5.24934940e-02 -5.65031404e-03]