[-0.12448225  0.08408808  0.12641566 -0.05900151 -0.08967324 -0.0386916
 -0.0401666  -0.15021406  0.13326764 -0.10454895  0.24450539 -0.0064705
 -0.18201423 -0.10030748  0.00207509  0.22990504 -0.19456881 -0.1198433
 -0.0687266   0.04363973  0.02934857 -0.00671703  0.05045131  0.02467296
 -0.1012205  -0.36043587 -0.09225915 -0.04126244 -0.01112457 -0.05328691
 -0.13662913  0.04420908 -0.15715937 -0.06531419  0.03028861  0.07225744
 -0.00654727 -0.06004803  0.14777279 -0.03503784 -0.28440139  0.07626339
  0.09068306  0.19678614  0.2529465   0.03423921  0.03202038 -0.16662998
  0.13778971 -0.18390246  0.00198705  0.08517342  0.05695846  0.01992659
  0.00777279 -0.15578413 -0.02673556  0.10815334 -0.10821559 -0.02427845
  0.0789656  -0.0514003  -0.05253273 -0.08444723  0.16481346  0.11006662
 -0.13149802 -0.17653762  0.10528008 -0.10496771 -0.05411613  0.0347848
 -0.17700741 -0.17841077 -0.28922433 -0.0395582   0.35963291  0.0491188
 -0.22358012  0.00585763 -0.07832359  0.03117396  0.10958286  0.13350563
 -0.00296392  0.00207971 -0.08515461 -0.00532269  0.2197123  -0.06394459
  0.04247537  0.2164676   0.02947038  0.07464922 -0.00726735  0.08212334
 -0.06589103  0.0767735  -0.18473677 -0.01103065  0.0260049  -0.00483346
  0.02260085  0.13362367 -0.20223747  0.13796373  0.02977564  0.07661586
  0.08324986 -0.00433055 -0.04131365 -0.07271642  0.08903255 -0.20248036
  0.16567396  0.23512976  0.00555807  0.0793323   0.09126563  0.07985733
 -0.02135454  0.02234757 -0.21504346  0.01759743  0.10828616 -0.06024156
  0.05183718  0.01211639]