[-0.12320115  0.06441507  0.08399082 -0.00798746 -0.08537763 -0.08478438
 -0.0057599  -0.1183575   0.04064513 -0.018722    0.29734668 -0.03678344
 -0.20494214 -0.15185238  0.06452505  0.09906694 -0.11016442 -0.09359171
 -0.08722632 -0.01182212  0.01342574 -0.0603466   0.09644879  0.0252191
 -0.09345943 -0.35810873 -0.12723057 -0.10855088  0.03309499 -0.07707841
 -0.02336467  0.09041228 -0.1169377  -0.05364414  0.00198421  0.08200311
 -0.04975852 -0.05258907  0.28390521 -0.04142275 -0.18356143 -0.0262001
  0.03258568  0.27159411  0.22180286  0.00115187  0.07269964  0.02261541
  0.09892933 -0.14516567  0.09432172  0.11394594  0.16987137  0.01168943
  0.05695356 -0.1227207   0.01031645  0.12259922 -0.19352406  0.02347345
  0.02085482 -0.17097913 -0.07631312 -0.05927087  0.18544984  0.15130846
 -0.04883503 -0.14182961  0.17895056 -0.13437571 -0.05976915  0.04776549
 -0.20638649 -0.15424274 -0.29182991  0.00692743  0.28245851  0.07637482
 -0.20803511  0.03389392 -0.00442471 -0.0314846   0.05999342  0.08401495
 -0.08552917  0.05044249 -0.13197097  0.00131515  0.16667114 -0.0695373
 -0.03878356  0.19183581  0.00469689  0.01173993  0.10911553 -0.05490414
  0.02384413 -0.00925746 -0.14477949  0.01110845  0.06573863 -0.17173372
 -0.00062587  0.02463273 -0.2044649   0.07849196  0.01371386  0.04521572
 -0.02795742 -0.07018569 -0.10624304 -0.03432438  0.18020067 -0.22975557
  0.18569832  0.19453621  0.00210717  0.12366756  0.08637944  0.06763396
 -0.01387772 -0.01331845 -0.1439904  -0.01404714  0.08682092  0.02199633
  0.07747351  0.07385508]