[-3.89240943e-02  9.75649431e-02  1.17595091e-01  8.96337163e-03
 -3.84895094e-02 -2.83413474e-02 -7.77576789e-02 -2.25449681e-01
  1.09768115e-01 -9.62451100e-02  3.45379859e-01 -1.53738884e-02
 -1.68446422e-01 -1.45089388e-01  1.94723420e-02  2.14747101e-01
 -1.96104586e-01 -1.34135738e-01 -5.53069711e-02  4.63136062e-02
 -2.30364017e-02 -6.43960685e-02  5.22896312e-02  3.78108844e-02
 -7.11562037e-02 -3.08972389e-01 -1.43075049e-01 -9.31859389e-02
  4.84846197e-02 -2.41477918e-02 -8.26885253e-02 -4.65586176e-03
 -1.57809064e-01 -3.70694734e-02  4.18984778e-02  4.04560119e-02
 -3.71063314e-02 -8.13460797e-02  2.17140272e-01 -2.66319420e-02
 -2.55639851e-01  7.24548623e-02  1.87911671e-02  1.80653304e-01
  2.18427420e-01  6.64208783e-03  5.60906343e-02 -1.35491386e-01
  9.38053057e-02 -1.51621744e-01  2.95308568e-02  1.21619478e-01
  8.93215537e-02  5.57367988e-02 -2.57491916e-02 -1.56070545e-01
 -4.69351895e-02  1.29607782e-01 -1.12416007e-01 -4.88749472e-03
  5.72977960e-02 -1.08465709e-01 -4.70591662e-03 -2.72180941e-02
  2.09478661e-01  1.58233285e-01 -1.22346602e-01 -1.73315272e-01
  1.28586754e-01 -1.20728433e-01 -4.17343564e-02  8.01574513e-02
 -1.76428601e-01 -1.56992987e-01 -3.09875458e-01 -5.58818225e-03
  4.15852278e-01 -1.67469797e-03 -2.26969942e-01 -2.71666925e-02
 -7.94302747e-02  1.26534402e-02  9.45832953e-02  1.55923739e-01
  2.32741460e-02 -2.21434850e-02 -8.21097270e-02 -6.41651824e-02
  2.41542369e-01 -9.73009616e-02  2.83007026e-02  2.16206580e-01
 -3.17948386e-02  4.98871915e-02  3.04304063e-02  5.19692674e-02
  2.28407755e-02  2.75064120e-03 -1.11823976e-01 -7.24717230e-03
 -5.86527660e-02 -1.98251549e-02  1.11833671e-02  7.04812035e-02
 -1.70644805e-01  6.38877451e-02  5.18170558e-02  3.19682285e-02
  6.50999919e-02  1.83727890e-02 -3.63913365e-02 -1.21261992e-01
  1.46865055e-01 -2.59008378e-01  2.19807014e-01  1.98560402e-01
  1.62848514e-02  8.10356960e-02  5.66526763e-02  1.42188951e-01
 -6.73258007e-02 -3.45321670e-02 -1.27086088e-01 -2.20350921e-04
  4.12597321e-02  6.43166888e-04  3.65529917e-02 -1.85496453e-02]