[-0.10536881  0.1236905   0.08292484 -0.07007455 -0.14626692 -0.03372006
 -0.01817872 -0.14524952  0.12340719 -0.08950716  0.23075406 -0.12150675
 -0.24660413 -0.02552287  0.02498979  0.22251427 -0.20417376 -0.20602345
 -0.05328339 -0.03866252 -0.02849044  0.01859048  0.03186306  0.04110326
 -0.12543751 -0.41309938 -0.10433867 -0.04494183  0.0185672  -0.01488618
 -0.033131    0.13582943 -0.15092799 -0.03138797  0.11846613  0.15456882
 -0.0317023  -0.12499781  0.17942616  0.01075591 -0.25353593  0.01173108
  0.12017372  0.27453557  0.21191399  0.01449254  0.01900425 -0.09488782
  0.11283579 -0.19724418  0.04398499  0.14844498  0.05278268  0.03359588
  0.09715628 -0.17361259  0.01693278  0.1044834  -0.18141696 -0.08396882
  0.09653853 -0.04898455  0.01113923 -0.14286061  0.22617744  0.11149637
 -0.11085272 -0.10150228  0.20811427 -0.08704939 -0.04677918  0.02599295
 -0.18502742 -0.1528035  -0.27256048 -0.01912892  0.40161109  0.09274968
 -0.16408624  0.02807478  0.02143803 -0.00153726  0.07228436  0.14681716
 -0.03683431 -0.00444705 -0.09770212  0.01594811  0.20109768 -0.03815719
 -0.02439353  0.18481055 -0.01908851  0.02487968  0.07804487  0.04036791
 -0.09737611 -0.01714929 -0.22805667 -0.04357323 -0.05014679 -0.04298094
 -0.05476455  0.13685952 -0.16604736  0.09877551  0.03621129 -0.01300208
 -0.07929819 -0.02193801 -0.02411781 -0.0188415   0.11249665 -0.26386297
  0.13240299  0.16697216 -0.02516999  0.14939098  0.05963202  0.04553669
 -0.01438364 -0.06230642 -0.17638794 -0.07565694  0.06659736 -0.01351716
  0.04405827  0.046506  ]