[-5.07948659e-02  1.02131866e-01  1.01726256e-01  4.87296022e-02
 -2.35302132e-02  1.63505634e-03 -4.55124751e-02 -1.86347678e-01
  1.02863424e-01 -9.21513140e-02  3.16821307e-01 -1.59249865e-02
 -1.88070044e-01 -1.22770786e-01 -3.42236919e-04  2.02178717e-01
 -2.06496716e-01 -8.31812546e-02 -6.99543431e-02 -6.15514582e-03
  7.09134340e-03 -1.83106940e-02  7.00337067e-02  9.02493671e-03
 -5.40447421e-02 -3.27482909e-01 -9.41361412e-02 -8.50124881e-02
  9.34565812e-02 -7.99425393e-02 -6.75851926e-02 -1.95559561e-02
 -1.63066968e-01 -1.06396750e-02  4.51000147e-02  5.58747463e-02
 -1.97432619e-02 -6.03895746e-02  2.15124279e-01 -4.77745757e-02
 -1.75065950e-01  4.12594266e-02  3.67148332e-02  1.85203820e-01
  2.44751245e-01  4.05819565e-02  1.65618956e-02 -1.15201585e-01
  1.02613740e-01 -2.06947520e-01  2.46686973e-02  8.60604942e-02
  5.88400736e-02  5.97327910e-02 -2.66773682e-02 -1.64209679e-01
 -4.83157337e-02  8.89864564e-02 -1.16873004e-01  3.68350744e-02
  7.20240101e-02 -1.65205896e-01 -2.80728769e-02  2.05172542e-02
  1.86543569e-01  9.95787457e-02 -1.10497549e-01 -1.59296811e-01
  9.34740230e-02 -1.69817522e-01  6.77282969e-03  4.96266186e-02
 -1.13110401e-01 -1.50057793e-01 -2.76877671e-01 -4.57567209e-03
  4.39347178e-01  4.37420271e-02 -1.98091850e-01 -5.53798676e-03
 -6.57032505e-02 -4.43391880e-04  1.22361362e-01  1.24046996e-01
  1.51539622e-02 -5.85254095e-02 -1.23969235e-01 -5.24981646e-03
  2.26492673e-01 -8.89600441e-02  1.96462907e-02  2.15167925e-01
 -6.11562096e-02  6.25540540e-02  1.84056070e-02  4.54703458e-02
 -3.15163247e-02  7.71644711e-03 -8.39646086e-02 -2.68192887e-02
 -3.22930552e-02 -4.74231057e-02  3.83617468e-02  5.29694073e-02
 -1.63838491e-01  1.05209045e-01 -9.27739020e-04  3.25059779e-02
  9.36641246e-02 -2.05667838e-02 -5.93414567e-02 -6.11552186e-02
  1.60537526e-01 -2.41233304e-01  2.33721897e-01  1.99913427e-01
  7.12470198e-03  1.30569622e-01  4.99042198e-02  1.56728491e-01
 -3.12631428e-02 -4.06431267e-03 -1.36762410e-01 -2.01369915e-02
 -8.50768294e-03 -1.00086993e-02  6.42802939e-02 -2.60999631e-02]