[-0.08392181  0.13891827  0.16076623  0.03747227 -0.00961587 -0.01638661
 -0.00113737 -0.16080788  0.10590484 -0.0727882   0.32360145  0.01672476
 -0.1911229  -0.14010267  0.02729379  0.20510776 -0.17135885 -0.0925943
 -0.10133228  0.02411962 -0.02501921 -0.0139049   0.06926607 -0.0085534
 -0.04520882 -0.33909091 -0.0913658  -0.07299118  0.06041193 -0.04849365
 -0.04346424  0.01438653 -0.17193384 -0.01881944  0.04125203  0.07298671
 -0.03618001 -0.01407503  0.19761823 -0.0079034  -0.19822457  0.0116678
  0.02040688  0.18486626  0.26471788  0.01983884  0.02017831 -0.10256415
  0.06984458 -0.20055905 -0.00450336  0.08863258  0.08494156  0.06202364
 -0.00306042 -0.15414007 -0.04834303  0.08488934 -0.09796651 -0.01882585
  0.02314008 -0.17919718 -0.07368555  0.02112447  0.16522434  0.07253764
 -0.11045577 -0.13177288  0.13741645 -0.13159078  0.01087171  0.0742561
 -0.11703154 -0.13131644 -0.27387497  0.00883365  0.42803153  0.02859696
 -0.22171085 -0.02500903 -0.09927111  0.00376189  0.05943526  0.1245478
 -0.01151395 -0.03942972 -0.11217197 -0.0234303   0.17306046 -0.08608727
  0.05394567  0.21186128 -0.04475501  0.07461184  0.00573921  0.00294447
 -0.0058084  -0.00468466 -0.11895759 -0.07857165 -0.029743   -0.0460996
  0.01991801  0.06407359 -0.19511633  0.09170807  0.03824168  0.03006086
  0.10986529 -0.01157982 -0.02136034 -0.08950579  0.14874081 -0.2178839
  0.19379684  0.22607398 -0.06029776  0.10254145  0.07067556  0.14713705
 -0.04616902 -0.01797928 -0.12667494 -0.00451411  0.02039297 -0.0140388
  0.0163536  -0.04733595]