[-7.70313144e-02  1.22041956e-01  1.20917454e-01 -8.71063098e-02
 -1.10596158e-01  5.86295314e-02 -2.29751859e-02 -1.15625240e-01
  1.33634731e-01 -1.03479199e-01  2.83085108e-01 -6.98289946e-02
 -2.21955255e-01 -9.18865725e-02  2.41244789e-02  2.30574608e-01
 -1.77371427e-01 -1.46046951e-01  2.39631790e-03 -4.81140316e-02
 -4.59183641e-02  5.15823178e-02  1.88858714e-02  1.61253102e-02
 -1.46982342e-01 -3.74208093e-01 -9.15759131e-02 -6.99648038e-02
 -2.19940115e-02 -3.96767929e-02 -4.84466627e-02  1.19023874e-01
 -1.46320149e-01  1.26202969e-04  9.05479640e-02  1.44001201e-01
 -5.13042994e-02 -9.69809294e-02  1.22632585e-01  3.46750244e-02
 -1.92708299e-01  8.92635435e-04  1.05408482e-01  2.75568873e-01
  2.33785778e-01 -3.91122466e-03  2.89550354e-03 -7.68152997e-02
  1.49593979e-01 -1.93987206e-01  3.90284359e-02  8.23800191e-02
  6.91018552e-02  2.37361621e-02  9.08862948e-02 -1.76062658e-01
 -2.66239624e-02  1.08023189e-01 -1.40174314e-01 -1.76886171e-02
  3.01610469e-03 -5.97792640e-02 -6.15162600e-04 -1.13055944e-01
  2.30931595e-01  1.13186769e-01 -1.27538845e-01 -1.09892957e-01
  2.13817820e-01 -6.53159693e-02 -4.34649251e-02  5.14524244e-02
 -1.93298802e-01 -1.66770384e-01 -2.57391304e-01 -1.38986660e-02
  3.81611854e-01  7.54629076e-02 -2.22871497e-01  4.24581161e-03
  2.38699615e-02 -9.13202006e-04  9.10247341e-02  2.00565726e-01
  3.23269702e-02 -1.34362048e-02 -7.90112987e-02 -2.24217977e-02
  2.38185152e-01 -7.08795637e-02 -3.90622020e-02  2.35600814e-01
 -5.63120209e-02  5.98866157e-02  4.89265025e-02 -3.44419549e-03
 -7.19166324e-02 -6.28171896e-04 -2.19605282e-01 -8.89271945e-02
 -7.64487758e-02 -6.42740577e-02 -6.89233169e-02  1.34694368e-01
 -1.84396908e-01  1.32230818e-01  6.83003291e-02  3.21701467e-02
 -3.41476053e-02 -3.42428200e-02 -3.05868741e-02  3.66202625e-03
  1.56454727e-01 -2.60954648e-01  1.58157751e-01  1.53432414e-01
 -5.13584539e-03  1.53977707e-01  7.73356333e-02  4.83128652e-02
  1.01444572e-02 -7.98959732e-02 -1.63387224e-01 -4.35381792e-02
  4.16473411e-02 -6.87836185e-02  3.72822583e-02  2.37760451e-02]