[-0.10152264  0.07748542  0.09841488 -0.00944602 -0.09967939 -0.04265397
 -0.04495643 -0.14565353  0.03953238 -0.02856585  0.31680995 -0.02596927
 -0.22370501 -0.11596302  0.06205431  0.07929494 -0.10358595 -0.09283748
 -0.09124444 -0.0030063  -0.01431388 -0.0199703   0.09351251  0.01019389
 -0.09162169 -0.32492015 -0.11130428 -0.09119817  0.08940236 -0.11130424
 -0.05746238  0.05667035 -0.13928671 -0.05683051  0.01800251  0.07779069
 -0.06248908 -0.10378567  0.26379469 -0.03709085 -0.19510479 -0.02125958
  0.02549226  0.25995564  0.23100524 -0.02950531  0.05112817 -0.03235122
  0.08731183 -0.16605198  0.12352668  0.10862579  0.17395167  0.0184587
  0.02360049 -0.17367141 -0.00510721  0.13357645 -0.17698391  0.0567919
  0.08264219 -0.15409772 -0.07579236 -0.06798577  0.17983918  0.16463764
 -0.0869812  -0.15621728  0.13434707 -0.11891031 -0.06157206  0.05649615
 -0.19084266 -0.15219112 -0.29618713  0.00170376  0.28216195  0.06589296
 -0.23684831  0.00308942 -0.01812952 -0.00970223  0.05279633  0.10294139
 -0.08674283  0.01861689 -0.11333785  0.01094753  0.18067703 -0.05030612
 -0.04666416  0.1992576  -0.01442469  0.01166995  0.1078164   0.00659678
 -0.00229357 -0.03409706 -0.13936156  0.01429562  0.04639724 -0.1684185
 -0.0042943   0.07175355 -0.20674787  0.12686436  0.02925982  0.04563908
  0.03610364 -0.11525178 -0.08209226 -0.01524384  0.19628826 -0.24937072
  0.21109255  0.17440115  0.06228957  0.12979484  0.10880535  0.06708258
 -0.00206653 -0.00298975 -0.16718467 -0.02046093  0.05382612 -0.01536488
  0.07439899  0.07025075]