[-1.03224993e-01  1.43859729e-01  1.45172969e-01 -6.21421449e-02
 -1.98629647e-01  1.16414623e-02 -2.43540965e-02 -8.95840302e-02
  8.80527347e-02 -6.23285249e-02  2.40325078e-01 -7.13212118e-02
 -2.04885051e-01 -3.07520875e-03 -9.52582061e-03  2.23805100e-01
 -1.85626566e-01 -1.37888923e-01 -5.14867865e-02 -7.65564144e-02
  1.39850890e-02  9.40641090e-02 -3.07584684e-02 -3.84155512e-02
 -9.68362093e-02 -3.90181899e-01 -5.13892956e-02 -3.74594070e-02
  6.23818636e-02 -3.90679911e-02 -2.60164384e-02  1.07424974e-01
 -1.41636670e-01 -1.55773107e-02  7.04151616e-02  1.17356732e-01
 -8.61910880e-02 -8.81216750e-02  1.90056920e-01  5.97575977e-02
 -2.61692375e-01  6.46997318e-02  6.82599023e-02  2.86757678e-01
  2.38683969e-01  2.16738526e-02  2.55274214e-02 -8.31356496e-02
  1.12890281e-01 -2.04825565e-01  4.19413745e-02  1.58125952e-01
  2.68164556e-02  3.92703824e-02  4.04164605e-02 -1.50255367e-01
 -4.12573898e-03  5.31328581e-02 -1.97156027e-01 -6.21718653e-02
  1.47218809e-01 -1.09128617e-01  1.10104932e-02 -1.01560608e-01
  1.99271783e-01  9.22545865e-02 -6.08187914e-02 -1.45790905e-01
  1.99451327e-01 -9.75105539e-02 -7.37326816e-02  4.14318107e-02
 -1.52869001e-01 -1.09073512e-01 -2.43445560e-01  1.58622656e-02
  4.50481176e-01  6.55553937e-02 -1.70450479e-01  3.30062408e-04
 -1.56226819e-02 -2.47202069e-02  1.74786404e-01  1.07608892e-01
  1.10978810e-02 -5.17769568e-02 -9.86028686e-02  4.53935331e-03
  2.44094610e-01 -7.32643455e-02 -4.14906256e-02  1.87433228e-01
  3.53510305e-02  2.48639565e-02  7.34577999e-02  4.36946824e-02
 -7.99280927e-02  2.10929979e-02 -1.82942793e-01 -5.80399521e-02
 -3.96548919e-02 -7.68045187e-02 -2.91523393e-02  1.31474108e-01
 -1.64949968e-01  1.92228004e-01  3.59969549e-02  3.15048061e-02
 -6.20301254e-02 -5.95118701e-02 -5.18798493e-02  1.76593475e-02
  1.67264387e-01 -2.00171068e-01  1.88918039e-01  1.59687802e-01
 -2.04944890e-02  1.35946602e-01  1.13726735e-01  4.02670614e-02
 -3.04954443e-02 -8.06255564e-02 -2.04282448e-01 -7.47053027e-02
  4.79676574e-02 -1.87813621e-02  7.09991008e-02  6.88378811e-02]