[-0.05028261  0.1049296   0.09300311  0.04228494 -0.01770833 -0.01477712
 -0.05521924 -0.19316818  0.11930748 -0.08892067  0.31188571 -0.01763612
 -0.17825371 -0.12324448 -0.01007747  0.20564197 -0.20172842 -0.09221386
 -0.06277287  0.0053754   0.02906529 -0.01978013  0.07262029  0.01401015
 -0.0552161  -0.32009575 -0.1000151  -0.07410621  0.0919496  -0.07543837
 -0.068602   -0.0372602  -0.18195044 -0.02666803  0.04872572  0.06409007
 -0.0119969  -0.06258222  0.21432166 -0.04546371 -0.19235139  0.04237672
  0.03894767  0.18665479  0.24213365  0.04184585  0.01169877 -0.13234071
  0.10832127 -0.19004105  0.02718277  0.09000519  0.05944212  0.05283434
 -0.03048706 -0.1475098  -0.03656808  0.09894347 -0.11404568  0.02542298
  0.09365134 -0.14615732 -0.02463038  0.01606414  0.19398744  0.0908867
 -0.11695226 -0.16680676  0.0794605  -0.16439441 -0.00838091  0.04304888
 -0.11373305 -0.14465342 -0.30267316 -0.01634454  0.45642167  0.02872176
 -0.20439485  0.01368138 -0.07064097  0.0092323   0.13404702  0.12525354
  0.01407668 -0.03205463 -0.13099854 -0.0113819   0.23766065 -0.0837856
  0.01330969  0.20513284 -0.06337269  0.07536662  0.02084748  0.05331335
 -0.03434103  0.00985325 -0.09391719 -0.02886964 -0.03031156 -0.0269574
  0.03632037  0.0626694  -0.1647083   0.10507949  0.01289835  0.04128857
  0.09451475 -0.00731239 -0.07216948 -0.07260788  0.14642116 -0.23676296
  0.23426567  0.18676005  0.01307058  0.11710316  0.068769    0.15570678
 -0.03407515  0.01052745 -0.14109603 -0.01826067 -0.00557316 -0.00686597
  0.09046347 -0.02241871]