[-3.27175260e-02  9.92172286e-02  1.02619208e-01  2.43547913e-02
 -3.27781253e-02  6.08754670e-03 -5.54544814e-02 -1.62677631e-01
  1.12910107e-01 -1.19689904e-01  3.35512012e-01  1.17837060e-02
 -1.97960392e-01 -1.32784545e-01 -9.94670670e-03  1.63805977e-01
 -1.54121593e-01 -5.48469983e-02 -9.99977440e-02  3.56197320e-02
  4.66905022e-03 -2.42479146e-02  9.33678001e-02 -7.48057384e-03
 -7.50987306e-02 -3.42902154e-01 -1.04428641e-01 -7.26230741e-02
  1.09641086e-02 -5.28124943e-02 -3.64129618e-02  3.36686186e-02
 -1.33519515e-01 -3.95111106e-02  2.49184109e-02  4.96605597e-02
 -4.35529239e-02 -1.56952050e-02  1.98193192e-01  7.29214400e-03
 -1.94659263e-01  4.81478423e-02 -3.70600037e-02  2.27874994e-01
  2.35895380e-01  1.70602314e-02  3.39739509e-02 -1.15502179e-01
  1.04884677e-01 -2.49949858e-01  2.67181452e-02  8.29317868e-02
  7.07192048e-02  5.67775331e-02  4.63614464e-02 -1.06475011e-01
 -3.24013829e-02  1.43570825e-01 -1.04699135e-01  1.80218201e-02
  2.64782575e-03 -1.55763328e-01 -2.79982276e-02 -3.66245955e-02
  1.74136370e-01  1.47340477e-01 -1.06025137e-01 -1.46531671e-01
  1.40398249e-01 -1.29774317e-01 -5.30044809e-02  7.05610737e-02
 -1.26530945e-01 -1.59837559e-01 -3.17504853e-01 -2.03209673e-03
  4.02056932e-01  9.58932564e-02 -2.42049336e-01 -5.00768982e-02
 -7.19141513e-02  2.33836379e-02  1.04316950e-01  1.43200487e-01
  2.75756121e-02 -4.72036116e-02 -7.41789564e-02 -4.26774025e-02
  1.81714654e-01 -9.78443176e-02 -2.85338294e-02  2.52758056e-01
 -2.78662201e-02  7.83462152e-02  4.04290259e-02  6.63108844e-03
 -1.62266586e-02 -1.11334480e-03 -1.42630383e-01 -2.41218098e-02
 -2.10224539e-02 -3.45057957e-02  2.57772114e-02  7.42014199e-02
 -1.58223018e-01  1.15456954e-01 -9.57990531e-03  3.22507769e-02
  1.16701916e-01 -1.22051081e-02 -2.79182550e-02 -6.64082393e-02
  1.47953525e-01 -2.64618129e-01  2.08141610e-01  2.07452938e-01
 -3.71304894e-04  1.15503669e-01  5.72857633e-02  1.11310773e-01
 -3.67849544e-02 -8.00439250e-03 -1.41842574e-01 -3.28985266e-02
  1.19316233e-02  6.40142290e-03 -7.90521782e-03 -4.37066294e-02]