[-0.10068969  0.07508865  0.11495115 -0.07936706 -0.06646049 -0.03009158
 -0.03804061 -0.14540793  0.13857749 -0.1151341   0.19765225 -0.05000467
 -0.17772745 -0.04421392 -0.00778627  0.2153635  -0.18843336 -0.14098582
 -0.07474475  0.03659105  0.02617891 -0.0083248  -0.00245132  0.00131614
 -0.09911039 -0.31936908 -0.08918574 -0.03600035 -0.00441877 -0.03117369
 -0.12136254  0.04464379 -0.17297637 -0.04663232  0.04072025  0.08130876
 -0.00573563 -0.08109982  0.1558895  -0.02066707 -0.28603584  0.07595936
  0.08134677  0.19224763  0.22018735  0.03253283  0.02474239 -0.16250128
  0.14690432 -0.15937009  0.01277431  0.09081323  0.09030802  0.02849858
  0.02126773 -0.16296773 -0.00440559  0.11022321 -0.09470028 -0.01467995
  0.10014275 -0.04835413 -0.01874983 -0.09882395  0.19167118  0.08041596
 -0.12034621 -0.1685148   0.12582283 -0.08168962 -0.05146104  0.03557386
 -0.1614214  -0.16325775 -0.26082811 -0.0266118   0.37214217  0.04641467
 -0.22678196  0.03297392 -0.06623008  0.01413076  0.13558701  0.15299015
 -0.00060127  0.02094343 -0.05864128 -0.03439224  0.26751325 -0.06580173
  0.02379499  0.17653291  0.00606102  0.04414925 -0.02203859  0.01531341
 -0.05644581  0.06607676 -0.15668701 -0.02081279  0.00750567 -0.01372245
 -0.01160474  0.14960049 -0.20351146  0.12243883  0.02937788  0.05977264
  0.06268496  0.01211535 -0.03421975 -0.07282985  0.097071   -0.22452593
  0.14815801  0.20663583  0.00223601  0.06865117  0.0837956   0.09410003
  0.00812006  0.0524694  -0.23323224 -0.00626749  0.12630419 -0.03169958
  0.06354582  0.02181845]