[-1.06572129e-01  7.03045949e-02  6.96343631e-02  9.77503788e-03
 -7.35557601e-02 -7.36205727e-02 -2.06919089e-02 -1.45669952e-01
  5.47776595e-02 -1.74964499e-02  2.96790421e-01 -7.64574930e-02
 -2.23407418e-01 -1.23512104e-01  2.96090730e-02  1.08919382e-01
 -1.36035010e-01 -6.88262582e-02 -7.21934512e-02 -6.23558229e-03
  1.76590178e-02 -6.46722987e-02  1.18939333e-01  2.17528325e-02
 -6.39980137e-02 -3.67324322e-01 -1.22845732e-01 -1.38064474e-01
  7.15084597e-02 -5.07617295e-02 -5.88691346e-02  7.14638978e-02
 -1.28449365e-01 -6.40431568e-02  5.13164047e-03  5.96841536e-02
 -4.28829901e-02 -7.30013996e-02  2.50767201e-01 -3.88918705e-02
 -1.61284953e-01 -4.12044488e-02  1.31614003e-02  2.43392155e-01
  2.39747912e-01  2.08952650e-02  6.19288199e-02 -2.62613744e-02
  7.69023970e-02 -1.65265664e-01  8.88349041e-02  8.91324580e-02
  1.65744707e-01 -8.03948008e-03  6.76138327e-02 -1.29356787e-01
 -3.38131940e-04  9.22637135e-02 -1.79315433e-01  3.25433202e-02
  5.20890020e-02 -1.04067259e-01 -8.78493413e-02 -7.80095384e-02
  1.89497337e-01  1.60506710e-01 -6.71151876e-02 -1.22369006e-01
  1.61817938e-01 -1.51470006e-01 -5.20254374e-02  3.78642082e-02
 -1.84717909e-01 -1.72196195e-01 -2.96288341e-01 -1.52949784e-02
  3.23179275e-01  1.04383089e-01 -2.12774038e-01  1.11065805e-02
  5.05565526e-03 -1.43222306e-02  1.08851306e-01  9.32800397e-02
 -8.44467804e-02  3.03428676e-02 -1.19432047e-01 -1.57479849e-02
  1.45276204e-01 -8.74975324e-02 -6.14036731e-02  1.93643138e-01
 -3.95295396e-02  3.87995653e-02  8.47814158e-02 -4.25774641e-02
  2.45064273e-02 -1.19037775e-03 -1.50094196e-01  1.13801879e-03
  6.45801201e-02 -1.28705665e-01 -6.98243594e-03  3.25331874e-02
 -1.74097583e-01  3.73174883e-02  3.85670434e-03  3.90276425e-02
  1.25368005e-02 -8.80643204e-02 -1.19431235e-01 -2.31079999e-02
  1.87489524e-01 -2.34181687e-01  1.66819736e-01  1.92941979e-01
  1.29810499e-03  1.09871648e-01  9.00736824e-02  6.11740313e-02
  8.67769029e-03 -6.60806010e-03 -1.74198300e-01 -1.67966001e-02
  7.79409334e-02  6.46639708e-03  5.06301634e-02  3.92302945e-02]