[-0.11772143  0.05605558  0.09145243 -0.02553177 -0.10108026 -0.04683962
 -0.00715284 -0.12831344  0.05179856 -0.04203174  0.27459723 -0.03321606
 -0.23001204 -0.13535111  0.09201389  0.08217184 -0.10686436 -0.11521222
 -0.06860729  0.00522173  0.01720805 -0.03721133  0.09167548  0.01391008
 -0.09366698 -0.37404341 -0.12356515 -0.09699923  0.02657763 -0.05675219
 -0.03021042  0.07242959 -0.12588826 -0.04171258  0.00927672  0.08697214
 -0.0609859  -0.07596775  0.25833577 -0.04449221 -0.19542229 -0.05186207
  0.02703517  0.2511498   0.21433006 -0.01485475  0.08113696 -0.01939688
  0.08428549 -0.16078818  0.1085724   0.12121087  0.14939776  0.00769976
  0.0420875  -0.14044924  0.005341    0.13537343 -0.17701221  0.05031617
  0.05879642 -0.16259012 -0.08492079 -0.07165657  0.20287769  0.14313178
 -0.08001777 -0.15479942  0.15036958 -0.12159617 -0.08496349  0.03249296
 -0.22051907 -0.16754358 -0.30167142  0.00358438  0.30353126  0.06993401
 -0.21545611  0.03050358 -0.0325228   0.00068386  0.07272075  0.11529785
 -0.0761449   0.03631536 -0.12523486  0.01769912  0.1738106  -0.06939273
 -0.0473998   0.19692251 -0.00453932  0.02920674  0.09922761 -0.02736856
  0.02557905 -0.00681762 -0.14983976  0.00957245  0.06567407 -0.16360641
  0.00481282  0.06043978 -0.21633427  0.10306501  0.02124876  0.04996586
  0.02058965 -0.10337551 -0.10731866 -0.03259101  0.17831431 -0.24595545
  0.17504312  0.19346178  0.03774793  0.14460726  0.09899253  0.07393707
 -0.00161309 -0.01288283 -0.18513305  0.00961032  0.08286788  0.03261909
  0.06525514  0.07775937]