[-0.10484723  0.08923449  0.12047005 -0.07761504 -0.1324535  -0.03122142
 -0.02498849 -0.10921811  0.10309742 -0.1249821   0.21085277 -0.10112696
 -0.23049973 -0.04163948  0.03963478  0.21052137 -0.19383122 -0.20987578
 -0.04656133 -0.04884544 -0.00093232  0.03823559  0.00185047  0.03567702
 -0.14613587 -0.39356706 -0.09779074 -0.03395995  0.00350827 -0.03778371
 -0.04392193  0.11874171 -0.15001801 -0.02542272  0.09280284  0.18362616
 -0.03014337 -0.1171646   0.17596339  0.01502633 -0.2611714   0.03475654
  0.12362874  0.26394436  0.22967134  0.01693694  0.00388241 -0.05252309
  0.1498771  -0.21381281  0.04948356  0.14136118  0.09459176  0.04272602
  0.116318   -0.16884486 -0.00719731  0.10350303 -0.17439727 -0.07562946
  0.04346463 -0.07107618  0.03276685 -0.13733578  0.19609806  0.10240662
 -0.10136312 -0.10758316  0.22268048 -0.10742462 -0.06773618  0.03778687
 -0.18015721 -0.12750457 -0.27305773 -0.01887281  0.35851264  0.08929641
 -0.17397265  0.0451478   0.05050311 -0.01318148  0.06044086  0.17443307
 -0.00136104  0.02628243 -0.0755675   0.02214558  0.1928546  -0.03435865
 -0.02236541  0.18122137 -0.00410415  0.04787933  0.08749849  0.0174681
 -0.09266058 -0.02136948 -0.22145872 -0.03754665 -0.0528792  -0.02632698
 -0.04925682  0.13714391 -0.14290863  0.12083048  0.01575679 -0.00400153
 -0.09350562 -0.00749844 -0.01892536 -0.01140992  0.09675102 -0.25743613
  0.11884552  0.17014651 -0.06854948  0.13773696  0.05542102  0.04190524
  0.00042473 -0.05060622 -0.19002083 -0.08299895  0.06495001 -0.02279849
  0.05506008  0.05291134]