[-1.09407149e-01  7.69242272e-02  1.02590494e-01 -8.13875422e-02
 -1.29594907e-01 -5.32917678e-02 -2.60850172e-02 -1.09090805e-01
  9.46327299e-02 -1.13078214e-01  2.04097509e-01 -9.41745639e-02
 -2.47702762e-01 -5.16147390e-02  3.47450152e-02  2.19696566e-01
 -2.16824934e-01 -2.00284392e-01 -4.67921458e-02 -4.99093831e-02
  2.18942831e-03  5.94529696e-02 -1.49828193e-04  4.03405800e-02
 -1.35783300e-01 -3.82938117e-01 -9.10832286e-02 -3.93589884e-02
 -2.74173804e-02 -8.63794889e-03 -2.75469106e-02  1.44494742e-01
 -1.39966175e-01 -2.77483668e-02  1.04837857e-01  1.76855877e-01
 -1.60944723e-02 -1.09008074e-01  1.73887327e-01  3.04728132e-02
 -2.59459794e-01  1.91608500e-02  1.40169159e-01  2.70893246e-01
  2.37907007e-01  1.78342988e-03 -5.73246216e-04 -3.81699651e-02
  1.47817686e-01 -2.26267740e-01  8.09590425e-03  1.45755082e-01
  9.37579870e-02  3.57791483e-02  1.18590347e-01 -1.65081099e-01
 -5.64888772e-03  1.11152664e-01 -1.75464422e-01 -8.49894658e-02
  3.23444866e-02 -8.61506090e-02  3.40420902e-02 -1.36874378e-01
  2.00680301e-01  9.37070176e-02 -1.12518266e-01 -9.93687436e-02
  2.14075804e-01 -1.05588078e-01 -8.86762813e-02  4.17166650e-02
 -1.90897867e-01 -1.26991883e-01 -2.84965605e-01 -3.58586013e-02
  3.49661410e-01  7.46195391e-02 -1.63863108e-01  4.66784723e-02
  4.93913256e-02 -1.32089630e-02  6.40130937e-02  1.67532250e-01
  7.32755801e-03  2.04996765e-02 -7.89736882e-02  1.52985333e-02
  1.97494850e-01 -3.84354666e-02 -2.10867319e-02  1.86165199e-01
 -9.72945057e-03  4.62564640e-02  8.40922743e-02  1.64000951e-02
 -7.39573911e-02 -2.53075939e-02 -2.24264607e-01 -3.04581467e-02
 -5.04232123e-02 -4.08805571e-02 -3.93447243e-02  1.28843114e-01
 -1.33612260e-01  8.40158835e-02  1.95631962e-02 -1.33633055e-03
 -9.94816646e-02 -1.60871148e-02 -2.50676703e-02 -2.72927317e-03
  9.82760414e-02 -2.44972423e-01  1.29846424e-01  1.70091107e-01
 -8.03711191e-02  1.28531441e-01  4.54258583e-02  3.00651640e-02
 -2.64771469e-02 -6.17195740e-02 -1.74941346e-01 -9.08784792e-02
  7.04284981e-02 -1.25538353e-02  5.95610216e-02  3.64253148e-02]