[-0.06693003  0.09801066  0.09816706  0.05464346 -0.01010451 -0.01443505
 -0.04285882 -0.19770536  0.10706966 -0.08295183  0.31699803 -0.01706737
 -0.17651175 -0.12676673  0.00783716  0.20447195 -0.20244661 -0.09223663
 -0.07398593  0.01164336  0.00544526 -0.03592082  0.07641151  0.01479124
 -0.05741003 -0.32516748 -0.11178619 -0.0867533   0.0966476  -0.07257657
 -0.07620065 -0.03057374 -0.1683739  -0.01767017  0.04815533  0.06102084
 -0.02225634 -0.05713254  0.21984561 -0.05279834 -0.18886428  0.03682985
  0.03656274  0.18529773  0.24454601  0.04060755  0.01600803 -0.12408274
  0.09839749 -0.1962529   0.0341402   0.08044275  0.06940248  0.06090277
 -0.02194929 -0.15816142 -0.03402854  0.09247871 -0.12101865  0.03567011
  0.07695954 -0.15575729 -0.02180854  0.02873863  0.19814081  0.10729776
 -0.11148021 -0.16379558  0.09114364 -0.16579559  0.01291747  0.05902187
 -0.11307436 -0.15725218 -0.29650721 -0.01512675  0.44581252  0.03275695
 -0.20541036 -0.00257039 -0.07385018 -0.00451496  0.12594169  0.11990278
 -0.00128037 -0.0425237  -0.13728322 -0.01346519  0.23829535 -0.08409131
  0.0206109   0.20999213 -0.05998883  0.06402808  0.0223513   0.04878093
 -0.02481449 -0.00133105 -0.08924641 -0.03533589 -0.0299297  -0.03841309
  0.03405975  0.05736826 -0.1679865   0.10049464  0.0119334   0.03648021
  0.08653929 -0.01829373 -0.06825707 -0.06810241  0.15471613 -0.2455496
  0.22967573  0.19445296  0.00984018  0.11407685  0.05143462  0.14842021
 -0.04329859  0.0018047  -0.13692774 -0.00056363  0.00225563 -0.01194504
  0.07643939 -0.01904318]