[-0.09266932  0.08234408  0.09517961 -0.06559539 -0.07643943 -0.0189398
 -0.04104098 -0.15488595  0.13378307 -0.10036814  0.20211659 -0.08035027
 -0.17251019 -0.0748404  -0.01382581  0.22042528 -0.18437928 -0.15913494
 -0.06570967  0.03425595  0.03297587 -0.01339395  0.02856628  0.02897933
 -0.10593023 -0.32615277 -0.110011   -0.03795822  0.00452874 -0.03720602
 -0.12122893  0.06121153 -0.18325289 -0.06259217  0.04134632  0.0741331
 -0.01011204 -0.09252381  0.14680594 -0.03738008 -0.26961309  0.06619706
  0.10873067  0.19626564  0.21224602  0.02772156  0.01740341 -0.15708771
  0.13008642 -0.15154795  0.03124258  0.09876297  0.07400668  0.05370861
  0.01617622 -0.15022564  0.00310001  0.13481864 -0.0775752   0.00449155
  0.09409391 -0.04356416 -0.01937392 -0.11377424  0.16983633  0.09998297
 -0.09734368 -0.20667098  0.10893591 -0.08975907 -0.06813295  0.05539503
 -0.16844837 -0.14811681 -0.28510883 -0.04357754  0.33870587  0.03635487
 -0.21782146  0.01321698 -0.03557975  0.01906453  0.11325672  0.14298718
 -0.00997275  0.00549128 -0.08571855 -0.03189073  0.26596373 -0.05994876
  0.0181914   0.18972331  0.00266956  0.04071844 -0.00555902  0.04661343
 -0.05708604  0.07330799 -0.16855295 -0.00828384  0.00798084 -0.01379609
 -0.0371133   0.14359801 -0.18847609  0.11967888  0.02392931  0.06735809
  0.04159412 -0.00870306 -0.04780028 -0.05132954  0.10639214 -0.20801376
  0.1475236   0.19869898  0.0305739   0.05858574  0.08526005  0.09868515
 -0.01125264  0.02931804 -0.23211299  0.00229061  0.12718527 -0.05102789
  0.03378832  0.02936314]