[-8.95139948e-02  1.14869848e-01  1.14299655e-01  2.90276408e-02
  3.00451946e-02 -2.62734033e-02 -1.89628676e-02 -1.68895602e-01
  1.39580518e-01 -8.37150812e-02  3.13460708e-01  3.07966657e-02
 -1.45762041e-01 -1.65692255e-01  5.25394194e-02  2.00315818e-01
 -1.78335011e-01 -1.02338783e-01 -1.01896740e-01 -1.06198282e-03
 -7.88071938e-03 -4.81437817e-02  8.54475722e-02  3.76803204e-02
 -6.84108734e-02 -3.13227445e-01 -1.00797854e-01 -1.06065132e-01
  7.74260461e-02 -5.14103770e-02 -6.07520342e-02 -3.47237177e-02
 -2.04809532e-01 -3.11793741e-02 -1.00137545e-02  6.68553635e-02
 -3.65903787e-02 -3.33092175e-02  2.07917050e-01 -2.79061031e-02
 -1.90671206e-01  3.28249149e-02 -2.31662784e-02  1.95586309e-01
  2.13639423e-01 -8.17035232e-03  3.81795727e-02 -1.00580446e-01
  7.96905681e-02 -2.14169621e-01  4.48692441e-02  8.10655653e-02
  6.83700964e-02  8.56277794e-02 -2.27922183e-02 -1.38875768e-01
 -2.21885685e-02  8.62056538e-02 -9.64938030e-02  2.70791948e-02
  5.06071039e-02 -1.52728617e-01 -7.54095912e-02  3.91090289e-03
  1.84907362e-01  1.42626241e-01 -1.02287315e-01 -1.67530701e-01
  8.53522941e-02 -1.24428988e-01 -9.45307966e-03  6.12131171e-02
 -1.11234903e-01 -1.43649325e-01 -3.25174451e-01  3.06807104e-02
  4.11280692e-01  4.96514030e-02 -2.40690261e-01 -9.67898406e-03
 -1.44610167e-01  3.89837511e-02  1.03758983e-01  1.00078098e-01
 -5.23560960e-03 -3.90337477e-03 -1.25056997e-01 -5.54850418e-03
  1.83084235e-01 -8.70356485e-02  1.51793780e-02  2.07392201e-01
 -2.75119245e-02  8.51144344e-02  4.78486996e-03  3.96004878e-02
  5.26995445e-03  1.18573559e-02 -1.05946682e-01 -1.06150843e-02
  5.27683506e-03 -2.03017201e-02  2.11338159e-02  3.63073535e-02
 -1.88540488e-01  1.27395511e-01  6.34258315e-02  3.70082632e-02
  1.16302632e-01  4.16405573e-02 -8.03383216e-02 -1.03399515e-01
  1.32308602e-01 -2.35531077e-01  2.39791021e-01  2.28799224e-01
 -1.46467416e-02  1.24349944e-01  7.73185566e-02  1.66242957e-01
 -7.25638866e-02 -2.95016915e-04 -1.31928936e-01  1.38205467e-02
  3.57828401e-02  3.28128673e-02  1.84534788e-02  3.88709386e-03]