[-1.02765322e-01  6.67241439e-02  1.25220343e-01 -3.18979770e-02
 -1.00221194e-01 -8.45541209e-02 -3.13336812e-02 -1.71577245e-01
  1.06514715e-01 -8.58478770e-02  2.02212095e-01 -2.79283859e-02
 -1.74787328e-01 -9.91131440e-02 -3.69447246e-02  2.21434951e-01
 -1.72563747e-01 -1.54988572e-01 -8.13444629e-02  2.08079331e-02
  3.04367729e-02  4.13520262e-02  4.29259688e-02 -2.42775064e-02
 -1.04138792e-01 -3.76287997e-01 -9.29517299e-02 -5.61732017e-02
  1.13245202e-02  1.81172546e-02 -9.48078185e-02  8.01696181e-02
 -1.52666911e-01 -6.71660081e-02  7.38644823e-02  7.55168125e-02
 -2.37492230e-02 -7.06862137e-02  1.50196314e-01  2.37318426e-02
 -2.95076638e-01  7.57134557e-02  5.54958582e-02  2.24833712e-01
  2.70609438e-01  6.14174688e-03  6.71005622e-02 -1.50955498e-01
  1.27868846e-01 -1.71850711e-01 -2.17899662e-02  9.66388956e-02
  5.57846092e-02  4.05151956e-02  3.18928473e-02 -1.28734782e-01
 -2.15893658e-03  1.13571145e-01 -1.10696234e-01 -5.22086620e-02
  8.61476362e-02 -8.07644874e-02 -4.10620384e-02 -7.54787549e-02
  1.72019795e-01  5.46502247e-02 -1.18435740e-01 -1.58002853e-01
  1.31041393e-01 -1.15372740e-01 -6.70664683e-02  3.64384912e-02
 -1.80465296e-01 -1.25563964e-01 -2.99385875e-01 -3.82586382e-02
  3.94570470e-01  3.00329924e-02 -1.98437691e-01  2.59469543e-02
 -6.23623915e-02  7.08725378e-02  1.27581254e-01  1.41083464e-01
  8.44771881e-03  9.33189970e-03 -7.55138770e-02 -4.60425429e-02
  2.19147757e-01 -7.76507407e-02 -4.00581956e-03  1.91900417e-01
  4.89356322e-03  7.64153525e-02  2.09791344e-02  4.33007367e-02
 -4.77310829e-02  5.05675338e-02 -1.29734769e-01 -2.13514809e-02
  2.85536479e-02 -7.67435133e-03  2.03281101e-02  1.27992123e-01
 -1.65954307e-01  1.32088155e-01  4.94120130e-03  1.00798361e-01
  6.84360489e-02 -4.59453836e-02 -5.55493683e-03 -4.46063951e-02
  8.14448819e-02 -2.06065804e-01  1.79745421e-01  2.23975465e-01
 -2.22421363e-02  8.06113034e-02  7.94647634e-02  2.88065430e-02
 -5.24949208e-02  2.61532106e-02 -2.12485060e-01 -1.48962783e-02
  9.48172063e-02 -3.63735855e-02  3.75438891e-02 -2.64753413e-04]