[-1.00371853e-01  1.17765941e-01  1.31107017e-01  1.86797660e-02
  2.39051543e-02 -3.12094036e-02 -2.20040325e-02 -1.84689149e-01
  1.52490005e-01 -1.04038738e-01  3.05850476e-01  3.46374996e-02
 -1.49039432e-01 -1.45369977e-01  4.96575050e-02  1.94786832e-01
 -2.04574108e-01 -9.56153125e-02 -9.68808755e-02  7.76133779e-03
 -1.23772128e-02 -4.93541211e-02  7.85169229e-02  2.96680629e-02
 -7.15089589e-02 -3.16916198e-01 -1.08081557e-01 -1.08071707e-01
  7.83269405e-02 -2.95391064e-02 -7.67626837e-02 -4.04906459e-02
 -2.02914461e-01 -2.45047826e-02 -6.58005429e-03  6.81904852e-02
 -3.84568349e-02 -2.53693815e-02  1.93877637e-01 -3.44052128e-02
 -1.76424876e-01  3.75757813e-02 -3.52308825e-02  1.79779455e-01
  2.28176504e-01 -2.49899924e-04  2.96582114e-02 -1.13859713e-01
  8.20746571e-02 -2.22711071e-01  3.64355594e-02  8.61917362e-02
  5.23982532e-02  8.33686814e-02 -1.25480222e-03 -1.36335567e-01
 -1.84822250e-02  8.57679769e-02 -1.03741877e-01  2.47797426e-02
  5.27430065e-02 -1.58338726e-01 -7.50584230e-02  1.56535245e-02
  2.00292930e-01  1.45602688e-01 -1.03439920e-01 -1.59390613e-01
  1.07800119e-01 -1.27122730e-01  3.50259687e-03  5.41596785e-02
 -1.08448043e-01 -1.41806722e-01 -3.02674621e-01  2.85972059e-02
  4.15662855e-01  5.98897301e-02 -2.46286824e-01 -1.30157638e-02
 -1.56973422e-01  3.16716433e-02  1.13553882e-01  9.30271372e-02
 -1.30002166e-03 -2.28596870e-02 -1.26501039e-01 -8.38905200e-03
  1.81624517e-01 -8.60422701e-02  3.60790193e-02  2.22011909e-01
 -2.05057915e-02  6.78082332e-02  8.70726164e-03  2.29591914e-02
 -8.58577713e-03 -8.41770507e-03 -1.16178192e-01 -3.09571624e-02
  7.88539648e-03 -1.39815928e-02  1.12933815e-02  5.48685007e-02
 -1.87237188e-01  1.18095577e-01  4.98128608e-02  1.81854963e-02
  1.16540305e-01  1.84463989e-02 -6.70953766e-02 -1.10685863e-01
  1.32757038e-01 -2.38041744e-01  2.35491738e-01  2.21003577e-01
 -2.40318216e-02  1.23712711e-01  4.30833586e-02  1.57862961e-01
 -7.81195685e-02  3.18167964e-03 -1.26069054e-01  9.85377282e-03
  3.46238278e-02  2.48642825e-02  1.08231483e-02 -1.14995483e-02]