[-1.06453121e-01  7.71457776e-02  8.65081772e-02 -3.81827168e-02
 -9.36228856e-02 -2.05927696e-02 -4.34570350e-02 -1.48629457e-01
  9.69812199e-02 -9.47395638e-02  1.85339734e-01 -5.50355315e-02
 -1.94032654e-01 -6.16877489e-02 -2.72034686e-02  1.93441704e-01
 -1.40219644e-01 -1.16528146e-01 -7.96101913e-02  3.92018035e-02
  9.02334973e-03  1.52389808e-02  3.22180986e-02  1.22726914e-02
 -1.06911495e-01 -3.57428521e-01 -7.68861547e-02 -1.69121325e-02
 -3.26960199e-02  8.36838968e-03 -1.25261724e-01  7.79996887e-02
 -1.68670282e-01 -5.19960038e-02  5.19765690e-02  1.17855482e-01
 -2.41509732e-02 -5.99781759e-02  1.42346695e-01  2.53313966e-02
 -2.73546696e-01  8.66601393e-02  7.04532489e-02  2.33564332e-01
  2.43971825e-01  2.86397524e-02  4.11865078e-02 -1.48045167e-01
  1.48784742e-01 -1.65092289e-01  2.47339662e-02  1.12000823e-01
  6.71474189e-02  2.30040699e-02  2.13963613e-02 -1.49348170e-01
 -1.05685815e-02  1.22923665e-01 -8.54936093e-02 -3.82192247e-02
  8.98827538e-02 -1.17652826e-02 -1.78430080e-02 -1.15041994e-01
  1.80689588e-01  1.07375018e-01 -1.15129851e-01 -1.61146984e-01
  1.41244650e-01 -1.06011704e-01 -4.72125784e-02  2.88699400e-02
 -1.73503861e-01 -1.62158355e-01 -2.55192101e-01 -1.16566904e-02
  3.57376188e-01  5.91518953e-02 -2.04018384e-01  8.37253500e-03
 -6.02017753e-02  2.98258718e-02  1.38891011e-01  1.36048019e-01
  1.78944301e-02 -1.93406956e-03 -5.08062355e-02 -4.57335077e-02
  2.66005158e-01 -4.66418937e-02 -8.04196869e-04  1.92553028e-01
  2.43148021e-02  3.00266389e-02  2.27937773e-02  1.97914895e-02
 -6.42963126e-02  7.26473555e-02 -1.74446627e-01 -2.22525006e-04
 -1.59529094e-02 -6.31851926e-02 -2.25949730e-03  1.21214867e-01
 -2.07382321e-01  1.50711045e-01  2.69681998e-02  8.80898312e-02
  8.02262351e-02 -1.65780932e-02 -5.87077439e-02 -3.70559841e-02
  1.10374846e-01 -2.27690101e-01  1.79222539e-01  1.79081678e-01
  1.81638505e-02  8.52217302e-02  1.01557724e-01  8.76673386e-02
  1.16471981e-03  4.59388345e-02 -2.17292115e-01 -3.18865888e-02
  1.02657095e-01 -5.38284294e-02  4.06332836e-02  2.56446432e-02]