[-0.15586339  0.03421659  0.06102292 -0.03438554 -0.10570212 -0.08514005
  0.02854753 -0.15267381  0.0671182  -0.01823509  0.25783798 -0.04924043
 -0.20590892 -0.13439952  0.04669517  0.11808836 -0.10981243 -0.1356581
 -0.09489354 -0.01642883 -0.01400359 -0.11625039  0.08927014  0.05439613
 -0.10469421 -0.32043296 -0.13287959 -0.13742776  0.00321466 -0.04686799
 -0.07255729  0.06441727 -0.15531342 -0.06557769 -0.00409599  0.08052393
 -0.05596247 -0.05853586  0.25041965 -0.05039009 -0.18325198 -0.03794951
  0.05623196  0.23531261  0.22963209  0.01039362  0.05731713  0.00769553
  0.0753582  -0.18149388  0.10196024  0.10066863  0.12526958  0.00492974
  0.03410796 -0.12958606  0.01221102  0.09295923 -0.18749146  0.02234954
  0.05772944 -0.13369317 -0.12395149 -0.07690054  0.19829102  0.21984045
 -0.04581716 -0.15291069  0.18003397 -0.16780257 -0.05517818  0.00746924
 -0.20422533 -0.16311695 -0.28718901 -0.00084413  0.3032487   0.1147918
 -0.1809413   0.0212298  -0.04457089  0.00186829  0.06628092  0.0358495
 -0.09079298  0.07008838 -0.13927013  0.00848369  0.17354472 -0.07867305
 -0.01622939  0.17984949  0.0036252  -0.00477825  0.09344666 -0.04622851
  0.02634898 -0.00707867 -0.18526348  0.0120472   0.05342629 -0.12579559
  0.0190511   0.02866351 -0.19552933  0.04110443  0.01159874  0.01440396
 -0.06269629 -0.07926437 -0.12649032 -0.04403706  0.16134715 -0.19093738
  0.17761286  0.19877791  0.02017531  0.09841939  0.09455319  0.04376839
 -0.01124653 -0.00127486 -0.14796393  0.00842637  0.1020079   0.01584417
  0.08069214  0.08852536]