[-4.05202545e-02  1.26001135e-01  1.34997949e-01 -4.12426218e-02
 -1.55874550e-01  1.72938574e-02  3.38167208e-03 -1.08521797e-01
  1.52768657e-01 -7.76262507e-02  2.35717729e-01 -9.03325528e-02
 -1.87797755e-01 -4.22249734e-02  8.14887695e-03  2.00155959e-01
 -1.71750650e-01 -1.00247882e-01 -1.59488395e-02 -6.24954998e-02
  4.90216427e-02  4.87804674e-02  9.43699677e-04  2.47847270e-02
 -1.63052514e-01 -3.37696105e-01 -5.99554963e-02 -5.38285486e-02
  5.42817675e-02 -9.31481570e-02 -3.34543101e-02  1.03014588e-01
 -1.29994616e-01 -3.88792381e-02  5.00596128e-02  9.35774148e-02
 -8.50528479e-02 -1.04881756e-01  1.64036617e-01  6.60008416e-02
 -2.37700820e-01  6.75755963e-02  2.02410128e-02  2.66794890e-01
  2.53544778e-01  2.07904410e-02  3.68670188e-02 -1.30412325e-01
  1.61389813e-01 -1.90016255e-01  2.47153081e-02  1.23493291e-01
  4.45255712e-02  5.15001221e-03  7.71217272e-02 -1.22985080e-01
 -4.03521471e-02  1.25631675e-01 -1.88637957e-01 -1.43326528e-03
  1.03844307e-01 -5.56479990e-02  1.99248549e-02 -7.46035725e-02
  1.77630663e-01  8.88571367e-02 -7.60404766e-02 -1.18835807e-01
  2.01690704e-01 -1.03666477e-01 -7.71003515e-02  8.13315064e-02
 -1.30814895e-01 -1.60124779e-01 -2.20114946e-01  5.43363858e-03
  4.11790103e-01  7.04535842e-02 -2.13605672e-01 -1.80334318e-02
 -1.33656738e-02  2.56131496e-02  1.83990702e-01  1.51225239e-01
  2.44035404e-02 -6.17862344e-02 -6.92669675e-02 -2.82211136e-02
  2.28211880e-01 -6.94887638e-02 -3.07497270e-02  2.46238783e-01
  2.30200961e-02  5.52451517e-03  4.71733212e-02 -7.54651008e-03
 -1.02217473e-01  5.67002408e-02 -1.73861668e-01 -1.10726170e-01
  1.11199915e-04 -3.26086953e-02 -7.09227612e-03  1.30867690e-01
 -1.95607096e-01  1.78560182e-01  2.51197349e-02  2.52504200e-02
  1.75307959e-03 -6.71318024e-02 -6.72358647e-02  2.12492049e-02
  1.69066593e-01 -2.59625763e-01  1.50350481e-01  1.44093230e-01
 -2.03223582e-02  1.05639718e-01  7.99617246e-02  4.61433530e-02
  2.45353971e-02 -7.29809627e-02 -1.61543608e-01 -2.14694198e-02
  7.72798285e-02 -5.42366207e-02  4.50413339e-02 -1.29851475e-02]