[-0.09991919  0.06053168  0.12949871 -0.03770005 -0.10899269 -0.0663043
 -0.04910933 -0.18151687  0.10701465 -0.10063856  0.21284759 -0.03187967
 -0.1714267  -0.07268473 -0.04358528  0.21969877 -0.2000567  -0.14111708
 -0.06498179  0.01262768  0.01855822  0.02261893  0.05948545 -0.02036311
 -0.12995979 -0.36900353 -0.10192957 -0.04114266  0.00133737 -0.00149267
 -0.11560322  0.0799185  -0.16302511 -0.04488646  0.06887884  0.07233571
 -0.02462566 -0.08695637  0.1452812  -0.00074748 -0.30070922  0.10288288
  0.06950314  0.21224211  0.26522848  0.00691984  0.03534216 -0.14157796
  0.14252488 -0.16957884  0.01570033  0.1007169   0.05777008  0.01970375
  0.02511193 -0.11505704 -0.01261771  0.12214696 -0.09902706 -0.05279766
  0.1008178  -0.07355189 -0.03698725 -0.08191183  0.13410561  0.09257791
 -0.10975386 -0.17098023  0.12685901 -0.1172592  -0.05524888  0.03056657
 -0.17662887 -0.15506959 -0.27803594 -0.03412202  0.37206897  0.03976601
 -0.20018053  0.02678989 -0.03630931  0.06551635  0.13127381  0.14931698
  0.00962236  0.00680019 -0.07322349 -0.03757014  0.22891629 -0.07725152
 -0.00813831  0.21894346  0.0124129   0.04903575  0.03216086  0.04693762
 -0.04796114  0.05251908 -0.14794411 -0.00816456  0.02554493 -0.01051618
 -0.01065517  0.12955233 -0.17749937  0.13365088  0.00398096  0.08957039
  0.08166441 -0.03868099 -0.01023959 -0.06597205  0.07301946 -0.2289115
  0.16275832  0.22027087 -0.01135317  0.08998386  0.07006335  0.03948112
 -0.02145943  0.0311144  -0.20868312 -0.02698537  0.10245229 -0.04584455
  0.02586157  0.00606457]