[-1.64882690e-01  1.37720928e-01  1.18776992e-01 -6.48808628e-02
 -1.61194146e-01  2.26112641e-02 -3.98630612e-02 -9.10475403e-02
  1.02707103e-01 -7.31292516e-02  2.02745393e-01 -7.76870847e-02
 -2.13404566e-01 -3.01041137e-02 -1.49619281e-02  2.20868155e-01
 -1.81807429e-01 -1.66826025e-01 -4.70596030e-02 -1.32129461e-01
  3.71002927e-02  2.24003196e-02  1.56714339e-02  4.45849225e-02
 -1.87091336e-01 -3.28547210e-01 -3.83015871e-02 -9.11747739e-02
  1.80799291e-02 -5.67625761e-02 -2.49892622e-02  7.18232766e-02
 -1.53474733e-01 -4.24971385e-03  5.59535883e-02  1.80342123e-01
 -3.69168483e-02 -9.46559235e-02  1.36969984e-01  7.72004435e-03
 -2.59338617e-01  3.59470621e-02  1.03777125e-01  2.36072645e-01
  2.42099717e-01  2.20917165e-02  1.49610015e-02 -4.97970730e-02
  1.85643777e-01 -2.06795692e-01  3.83097939e-02  1.47402138e-01
  4.29993346e-02  1.20041016e-02  1.15997575e-01 -1.71291038e-01
 -1.11267064e-02  1.36493608e-01 -1.46104038e-01 -5.65050319e-02
  4.98994626e-02 -6.50641620e-02 -1.37494951e-02 -1.35475963e-01
  1.17810108e-01  1.06816843e-01 -8.30834955e-02 -1.23551264e-01
  2.21614525e-01 -8.08786899e-02 -2.74127852e-02  1.32979080e-01
 -1.60620198e-01 -1.52990133e-01 -2.26065546e-01  7.19831465e-03
  4.25886452e-01  1.02812484e-01 -1.31953552e-01  1.61913966e-04
  2.80235391e-02  1.74969714e-02  6.82874098e-02  1.27959877e-01
 -3.30246659e-03 -1.19085750e-02 -1.02204598e-01 -2.92139885e-04
  1.68380812e-01 -3.22911628e-02 -7.09804473e-03  1.84805870e-01
  3.16647883e-03  8.24355800e-03  4.11093608e-02  7.51049295e-02
 -1.57319069e-01  3.01926141e-03 -1.70262367e-01 -1.15071706e-01
 -2.05365792e-02 -5.57042845e-02 -4.92380373e-02  7.76138306e-02
 -1.68518886e-01  1.20432608e-01 -5.86735224e-03  3.42331193e-02
 -1.09057009e-01 -2.91697923e-02  4.28326421e-05  5.59440069e-02
  1.38835743e-01 -2.23339483e-01  1.07814871e-01  1.91368729e-01
 -7.63182566e-02  1.34746373e-01  1.00614965e-01  3.28612961e-02
 -1.07811429e-02 -8.13895464e-02 -1.77802488e-01 -9.46765319e-02
  3.78075205e-02 -6.47445545e-02  2.75054127e-02  2.28159111e-02]