[-0.09528504  0.06946629  0.12286156 -0.05906485 -0.08003281 -0.04814434
 -0.04596506 -0.13793759  0.12982835 -0.12127391  0.20778325 -0.0472951
 -0.18333197 -0.05020326 -0.00439901  0.22726353 -0.17546718 -0.13374595
 -0.08929253  0.02432601  0.01440533  0.01002491  0.03261733  0.01593927
 -0.10140925 -0.34928241 -0.1041423  -0.04787953 -0.01596652 -0.03409739
 -0.14210032  0.05945106 -0.13997512 -0.05510138  0.04962346  0.07599734
  0.00114414 -0.04375635  0.1495932  -0.03283356 -0.2786811   0.08167829
  0.11171892  0.19922253  0.2276146   0.06254742  0.03553507 -0.16304027
  0.12333142 -0.18644869  0.03568615  0.08248224  0.06681981  0.03915958
  0.0333936  -0.16252494 -0.01542403  0.12177324 -0.09308129  0.00475509
  0.1026969  -0.04460521 -0.0338994  -0.07372322  0.20855692  0.10950623
 -0.12460996 -0.17326258  0.12092947 -0.10752989 -0.06385348  0.02477242
 -0.17064539 -0.14761595 -0.27951145 -0.02910789  0.37429756  0.03342706
 -0.2072486   0.02652383 -0.06492939  0.01754789  0.11740183  0.12276194
 -0.0231855  -0.01607291 -0.0749254  -0.011174    0.25458428 -0.06798649
  0.0460303   0.18036284  0.01502398  0.06562293 -0.01573112  0.05621299
 -0.07393112  0.06609003 -0.1741174  -0.00129411  0.01767079 -0.0079939
 -0.00435201  0.14200114 -0.20436852  0.12635764  0.01019139  0.04784697
  0.06960099  0.02797741 -0.04321249 -0.0764587   0.10282054 -0.20376854
  0.16020587  0.21895066  0.01672193  0.06671883  0.07836276  0.09048992
  0.00164275  0.04344038 -0.24079828  0.00627358  0.12566309 -0.05737407
  0.03719953  0.0379703 ]