[-0.03408847  0.09658484  0.10418957  0.01947829 -0.02937176  0.00336863
 -0.03422938 -0.18036704  0.12979995 -0.12637626  0.34343803  0.01635053
 -0.1889803  -0.13965818 -0.01123819  0.18122067 -0.16219464 -0.07535517
 -0.08383618  0.04075124  0.01592366 -0.02582405  0.08394464 -0.0089664
 -0.05531648 -0.34061956 -0.11034077 -0.07078054  0.017876   -0.04499169
 -0.04897679  0.02350304 -0.13999532 -0.04136667  0.0308202   0.05567459
 -0.04905273 -0.02826905  0.21307483 -0.01794167 -0.19570898  0.05209166
 -0.01025243  0.20990971  0.23253869  0.01133614  0.0248143  -0.13352482
  0.10241248 -0.2309653   0.02116166  0.078789    0.07360549  0.06119325
  0.021874   -0.10400885 -0.0360769   0.14000873 -0.11410584  0.00883693
  0.00711932 -0.16235898 -0.04139571 -0.02158104  0.18421489  0.14665918
 -0.10554879 -0.16083327  0.1194919  -0.14325152 -0.06095603  0.06246059
 -0.13421944 -0.16055767 -0.30594999 -0.00623763  0.40484485  0.0683031
 -0.24275784 -0.03110411 -0.05928164  0.01763736  0.12926579  0.14876004
  0.03529349 -0.04407116 -0.08876186 -0.041386    0.20144759 -0.1090588
 -0.02449536  0.24538481 -0.03153239  0.08849542  0.03694836  0.01379281
  0.00523584  0.0092741  -0.15492544 -0.03396067 -0.01487689 -0.01014764
  0.01796314  0.07007154 -0.15669681  0.0962503  -0.00451521  0.03279373
  0.11868446 -0.03707463 -0.03488124 -0.07623579  0.14310698 -0.24914955
  0.21671705  0.19960096 -0.01038883  0.11353333  0.0621849   0.10838901
 -0.02941438 -0.01552954 -0.15471144 -0.01021308  0.03611071  0.01291962
  0.02094669 -0.05384453]