[-1.45082101e-01  5.12043834e-02  7.22863004e-02 -9.33034997e-03
 -1.24907427e-01 -6.62056059e-02  5.18148392e-03 -1.63366795e-01
  6.09221160e-02 -3.33270766e-02  2.55718678e-01 -4.33142148e-02
 -2.10502252e-01 -1.20149150e-01  4.70879674e-02  1.10745311e-01
 -1.01226166e-01 -1.09047331e-01 -1.20404400e-01 -5.22034662e-03
 -8.57868884e-03 -9.06421468e-02  9.88770500e-02  3.34793814e-02
 -9.17238966e-02 -3.30705196e-01 -1.21620730e-01 -1.11326292e-01
  1.62668023e-02 -5.84031828e-02 -6.62960336e-02  6.23870566e-02
 -1.68059856e-01 -6.21640496e-02 -1.14890924e-02  7.75399730e-02
 -7.15711862e-02 -7.31352121e-02  2.50997812e-01 -4.66617793e-02
 -1.75543442e-01 -4.23081294e-02  4.80598360e-02  2.15156943e-01
  2.43008405e-01 -6.08723098e-03  4.35751379e-02  1.28434971e-04
  9.35973451e-02 -2.17684180e-01  9.93796214e-02  1.08191274e-01
  1.36857599e-01  2.63146292e-02  5.72230592e-02 -1.27976641e-01
  2.86554694e-02  1.10468268e-01 -1.87677369e-01  3.54600884e-02
  5.25297001e-02 -1.38158843e-01 -1.10014774e-01 -6.91876039e-02
  1.92186683e-01  2.30187461e-01 -3.01470812e-02 -1.59824416e-01
  1.63779289e-01 -1.59134656e-01 -6.59401193e-02  8.70689191e-03
 -1.95287421e-01 -1.70227453e-01 -3.07479233e-01 -1.04608126e-02
  2.98129052e-01  1.32750675e-01 -1.98805854e-01  1.04772048e-02
 -4.46704403e-02 -9.80176590e-03  6.34704083e-02  2.48984639e-02
 -8.56720284e-02  3.06057278e-02 -1.31573603e-01  1.56479776e-02
  1.84678033e-01 -7.89570585e-02 -2.71341503e-02  2.09623739e-01
  4.53644525e-03 -5.35862520e-03  8.35168362e-02 -5.76251522e-02
  2.12199967e-02 -1.65716596e-02 -1.78692564e-01  7.27171078e-03
  5.85986450e-02 -1.31830826e-01  2.07228046e-02  3.67888622e-02
 -2.08489329e-01  6.06155992e-02  1.82100409e-03  2.41417978e-02
 -3.10640819e-02 -1.06846727e-01 -1.45462528e-01 -1.24975685e-02
  1.75331414e-01 -1.98943287e-01  2.16287732e-01  1.85614422e-01
  1.79469436e-02  1.00743137e-01  9.63196084e-02  4.54451479e-02
 -2.71454896e-03  3.28774168e-03 -1.38949856e-01 -9.07074288e-03
  9.71380845e-02  8.03460740e-03  5.52625656e-02  9.11185667e-02]