[-0.10606194  0.15236944  0.01949019 -0.03627599 -0.10112748 -0.03224136
 -0.0072045  -0.13581434  0.18151842 -0.09775364  0.20239262 -0.07991261
 -0.2403599  -0.02359749 -0.03751352  0.22254442 -0.22423549 -0.13296565
 -0.04282353 -0.04018272  0.02698818  0.05776426 -0.00717868  0.0388396
 -0.12141716 -0.34687713 -0.08562096 -0.09506594  0.01208817 -0.03542865
 -0.06539152  0.04804562 -0.09669863 -0.03126754  0.04118787  0.08514003
 -0.06268274 -0.02894556  0.20650744  0.05934498 -0.24742916  0.03508997
  0.05441493  0.32457754  0.21796004  0.0451698   0.03211652 -0.16974157
  0.14932761 -0.19738738  0.05098411  0.11863963  0.05363963  0.03734679
  0.02452895 -0.15978253 -0.01044133  0.12392937 -0.20572415  0.02244629
  0.17173058 -0.06370842 -0.0211017  -0.02171336  0.23936556  0.12998179
 -0.12319692 -0.1318901   0.16902575 -0.17722078 -0.08283903  0.03432834
 -0.10123818 -0.18460178 -0.28653494 -0.01550043  0.44260913  0.07377361
 -0.16504863 -0.01106377 -0.01197042 -0.00933707  0.24168597  0.14426346
 -0.06508946 -0.04458151 -0.133709   -0.0175283   0.25804406 -0.04581667
 -0.03502807  0.19467966  0.02866086  0.05350766  0.05084809  0.07949102
 -0.11161997  0.03366871 -0.16568486 -0.03936832  0.01360056 -0.0607247
 -0.02450838  0.10933634 -0.14920181  0.19134262  0.03993355  0.03213186
 -0.02651547 -0.03663237 -0.07392636 -0.00332286  0.1751105  -0.19209944
  0.17156331  0.13412336  0.00487774  0.13178353  0.09147385  0.05277072
 -0.04163611 -0.04984903 -0.24529886 -0.01872073  0.07890736 -0.03416267
  0.12377445  0.02281334]