[-1.11814000e-01  5.55737019e-02  7.68516585e-02 -2.88371444e-02
 -9.86356735e-02 -8.11714903e-02  2.08929181e-04 -1.17130317e-01
  3.31478007e-02 -3.72932516e-02  2.68256038e-01 -3.77437398e-02
 -2.06375837e-01 -1.36964276e-01  5.85590117e-02  9.71320122e-02
 -1.02449775e-01 -9.00248066e-02 -7.96321258e-02 -3.39410976e-02
 -5.00288839e-03 -4.45012152e-02  8.40523914e-02  5.25516979e-02
 -8.73373523e-02 -3.25531334e-01 -1.12474814e-01 -9.82883871e-02
  7.03050802e-03 -6.93780705e-02 -5.17720990e-02  9.58818495e-02
 -1.24308765e-01 -3.31157707e-02  4.36154380e-03  7.60320351e-02
 -6.12343252e-02 -6.43184856e-02  2.73225039e-01 -3.47505361e-02
 -1.48490608e-01 -6.36810064e-02  3.92973796e-02  2.64097780e-01
  2.11107850e-01 -2.46839523e-02  5.46922684e-02  3.98318097e-02
  1.16792157e-01 -1.67907611e-01  9.16287750e-02  1.06968872e-01
  1.52189851e-01  2.58017182e-02  6.16396852e-02 -1.12591587e-01
  3.53420079e-02  1.30913764e-01 -2.01499417e-01  1.73785519e-02
  8.60282686e-03 -1.82171881e-01 -9.14438590e-02 -6.89284131e-02
  2.02876002e-01  1.60144761e-01 -4.28284220e-02 -1.41357720e-01
  1.72217414e-01 -1.36866361e-01 -7.48550296e-02  3.81869860e-02
 -1.94565639e-01 -1.58730537e-01 -2.84612507e-01  2.94235926e-02
  2.89583772e-01  1.37407929e-01 -1.96441010e-01  4.83538769e-02
  4.73027304e-03 -3.87506336e-02  8.73217583e-02  6.57765120e-02
 -9.08195972e-02  6.05385900e-02 -1.22033991e-01  2.83986758e-02
  1.56918243e-01 -5.83760738e-02 -6.24826662e-02  1.83195606e-01
  8.42552911e-03  1.97054967e-02  1.12025551e-01 -7.65295550e-02
  3.98410149e-02 -2.72317906e-03 -1.54706940e-01  3.56085934e-02
  6.54933676e-02 -1.69384882e-01  2.29256460e-03  2.68625263e-02
 -1.97004348e-01  7.87535682e-02  1.49160177e-02  1.66720990e-02
 -5.21796420e-02 -7.59477392e-02 -1.33722529e-01 -1.75666492e-02
  1.54562756e-01 -2.52762645e-01  1.80832520e-01  1.69167504e-01
  2.02815738e-02  1.41804487e-01  6.33647218e-02  5.06278574e-02
 -5.00505790e-04 -3.58824246e-02 -1.23702012e-01 -2.82976571e-02
  1.29376069e-01  2.66595688e-02  1.00634217e-01  7.57827610e-02]