[-0.06336122  0.09395458  0.10417445 -0.0706232  -0.11036562 -0.05004164
 -0.06802189 -0.13099329  0.11929927 -0.12653185  0.15304755 -0.1042731
 -0.24120931  0.0052263  -0.01305487  0.210887   -0.11702514 -0.12766407
 -0.10563055  0.01267034 -0.00407701  0.04867064  0.0010589   0.02693231
 -0.07106865 -0.37199855 -0.09433326 -0.00748417  0.00869113  0.03934776
 -0.11423905  0.05105053 -0.16465504 -0.0777356   0.10049944  0.08780873
 -0.05388426 -0.09787355  0.12194748  0.01979277 -0.29271579  0.01666355
  0.0583297   0.20376635  0.20537844  0.04841011  0.03755385 -0.17126806
  0.09412154 -0.19341362  0.00876169  0.13107696  0.04166443  0.04630612
  0.05451242 -0.13077593  0.03591319  0.12852864 -0.14509962 -0.05875393
  0.11926899 -0.03533027 -0.01943311 -0.09615295  0.22655283  0.10260878
 -0.12681608 -0.13129914  0.1809614  -0.13476287 -0.0290606   0.0069568
 -0.12023773 -0.14717658 -0.25793314 -0.02645685  0.40515468  0.10303725
 -0.19255744  0.02614492 -0.05592391  0.04174593  0.1530606   0.12528078
 -0.03272279  0.0015407  -0.01789695 -0.02678592  0.23523186 -0.06675211
  0.01945511  0.19439557  0.01654898  0.03162432  0.05613972  0.03369069
 -0.08256925  0.00276963 -0.17174153 -0.00950339  0.02251637 -0.04225964
  0.01730878  0.14669731 -0.18335843  0.13463482  0.02678698  0.01991195
  0.08448549  0.01944692 -0.04924456 -0.10554516  0.11566269 -0.20718406
  0.14601505  0.16695598 -0.00614411  0.09190899  0.08931839  0.09314028
  0.00392259 -0.01521888 -0.18546474 -0.06858476  0.10927399 -0.03018909
  0.04009515  0.00089381]