[-1.19234681e-01  8.29357952e-02  1.05553798e-01 -4.63858135e-02
 -1.03273623e-01 -3.70744430e-02 -5.49647920e-02 -1.55527309e-01
  8.82172585e-02 -7.09405318e-02  1.99406490e-01 -5.53801656e-02
 -1.88898966e-01 -7.13399276e-02 -1.25439782e-02  2.10559115e-01
 -1.40603170e-01 -1.20413534e-01 -7.35177323e-02  3.24809253e-02
  8.54008645e-03  2.34822812e-03  4.49076816e-02  2.30949875e-02
 -9.87690240e-02 -3.73573869e-01 -8.01977739e-02 -3.39262299e-02
 -1.97260901e-02  3.47710773e-03 -1.20676696e-01  8.23395476e-02
 -1.62971288e-01 -5.74374981e-02  6.73661977e-02  1.31212696e-01
 -3.46944146e-02 -5.28797396e-02  1.39659926e-01 -3.97267332e-03
 -2.67165571e-01  7.01876283e-02  9.70695317e-02  2.27405414e-01
  2.49640211e-01  3.91977020e-02  6.14809878e-02 -1.39755607e-01
  1.19788706e-01 -1.76882431e-01  4.58382852e-02  9.87646878e-02
  6.89251646e-02  3.32799107e-02  3.48853432e-02 -1.55945539e-01
  1.62733355e-04  1.09053604e-01 -9.24730152e-02 -3.22900377e-02
  1.01210497e-01 -2.56277155e-02 -4.12622951e-02 -1.00882865e-01
  2.13338718e-01  1.15736522e-01 -1.13049224e-01 -1.53427064e-01
  1.43276498e-01 -1.03662305e-01 -5.07347174e-02  1.89135615e-02
 -1.80848122e-01 -1.52109966e-01 -2.62460202e-01 -1.64496992e-02
  3.56839448e-01  5.52452318e-02 -2.16967449e-01  2.83311065e-02
 -5.44167645e-02  3.60767730e-02  1.23742990e-01  1.33013725e-01
  1.34708285e-02  6.92095375e-03 -5.47335036e-02 -3.36194150e-02
  2.47138217e-01 -6.58138320e-02  2.74900850e-02  2.00228140e-01
  3.43691707e-02  3.77123840e-02  2.84711011e-02  1.57138444e-02
 -4.69871461e-02  5.69085255e-02 -1.86165914e-01 -1.49224596e-02
 -1.02995215e-02 -3.87528427e-02  5.07534901e-03  1.08881235e-01
 -2.18866810e-01  1.42593876e-01  3.31257842e-02  8.06421414e-02
  7.46135339e-02 -1.90778915e-02 -4.86067757e-02 -5.94015978e-02
  1.13670483e-01 -2.23415971e-01  1.79646730e-01  1.96742937e-01
  2.35640164e-02  8.52309689e-02  9.59815085e-02  8.43939707e-02
  1.83712132e-02  3.32579724e-02 -2.04570442e-01 -3.08436691e-03
  1.07760608e-01 -6.57171533e-02  1.93251614e-02  4.15166318e-02]