[-1.85107216e-01  7.07824975e-02  7.25158453e-02 -9.19713266e-03
 -1.05762385e-01 -7.70382807e-02  3.01969945e-02 -1.02449156e-01
  1.02791883e-01 -5.21196090e-02  2.66425937e-01 -1.71280988e-02
 -2.36776352e-01 -1.62161514e-01  3.88997905e-02  1.03773952e-01
 -1.19868897e-01 -9.15573165e-02 -3.67730968e-02 -2.50720289e-02
  3.74298356e-02 -4.12980206e-02  6.35215044e-02  7.16697425e-02
 -9.14226100e-02 -3.52874458e-01 -7.37718642e-02 -1.02485500e-01
  5.41594112e-03 -4.46778014e-02 -5.48406020e-02  1.21192336e-01
 -1.38663039e-01 -8.31099600e-02  3.21323494e-03  1.69233471e-01
 -3.06553598e-02  8.32573697e-03  2.00518712e-01 -7.02116787e-02
 -1.72678053e-01 -3.66951525e-02  4.07363251e-02  2.67418712e-01
  2.32542157e-01  9.78501886e-03  3.15733179e-02 -7.19484314e-03
  1.20761052e-01 -2.24469304e-01  3.62230316e-02  1.33336484e-01
  9.65992659e-02 -1.73700619e-02  1.11014619e-01 -1.37146741e-01
  3.06428224e-03  8.67170393e-02 -1.49162844e-01  1.42619824e-02
 -3.52222472e-03 -1.30039990e-01 -3.09408009e-02 -4.46848534e-02
  1.88807473e-01  9.94356275e-02 -5.34206890e-02 -1.05980180e-01
  1.92773625e-01 -1.59308001e-01 -5.93525246e-02  7.87710473e-02
 -1.87958181e-01 -1.73715055e-01 -3.05997759e-01  3.46681587e-02
  3.84555846e-01  1.31642416e-01 -1.43391669e-01  7.64431730e-02
 -3.98247354e-02 -2.40748301e-02  1.03054881e-01  6.47281110e-02
 -5.48240319e-02  1.94431823e-02 -1.63604483e-01  4.64830957e-02
  1.65478557e-01 -3.62698250e-02 -3.24154980e-02  1.91047341e-01
  1.42883277e-02  6.88605607e-02  8.81627202e-02 -3.31983231e-02
  2.13547796e-03  4.43466008e-03 -1.97645769e-01 -7.06954533e-03
  8.00373405e-02 -1.44543990e-01  2.54394244e-02  6.73247576e-02
 -1.88600540e-01  1.52920755e-02  5.23131108e-03  4.49352041e-02
 -2.35234424e-02 -3.09385248e-02 -1.32817760e-01  2.00055176e-04
  1.38760880e-01 -2.32005075e-01  2.17793450e-01  1.78834066e-01
 -1.66496504e-02  1.17234960e-01  8.72123688e-02  1.76727418e-02
  1.33990794e-02 -5.83948754e-02 -1.05714135e-01 -3.02172750e-02
  7.91149586e-02 -8.14930350e-03  7.76827261e-02  4.47785519e-02]