[-1.44809753e-01  7.94541836e-02  9.30099785e-02 -5.50254174e-02
 -6.28359467e-02 -4.48761359e-02  5.71078202e-03 -1.53098255e-01
  1.35053143e-01 -1.23491429e-01  2.19443321e-01 -1.01182617e-01
 -2.19133139e-01 -6.91809058e-02 -4.23120670e-02  2.39945695e-01
 -1.65817842e-01 -9.71693993e-02 -9.24889967e-02  2.60087978e-02
  6.72991499e-02  2.20680493e-03 -1.55930016e-02  1.30647300e-02
 -7.29797706e-02 -3.69759172e-01 -1.07465588e-01 -3.98175456e-02
  8.87852348e-03 -3.69475186e-02 -7.25071058e-02  2.49659326e-02
 -1.72982141e-01 -1.11163989e-01  3.28694768e-02  8.05629268e-02
 -7.82848001e-02 -8.77477899e-02  1.37546211e-01 -4.64660302e-03
 -2.69590408e-01  2.02993453e-02  1.08610690e-01  2.32486054e-01
  1.80971980e-01  8.13560262e-02  3.50309648e-02 -1.89825296e-01
  1.21700577e-01 -1.97390750e-01  8.63942038e-03  5.87171800e-02
  7.62089416e-02  7.52679110e-02  3.88066731e-02 -1.63367987e-01
  1.40286935e-02  1.40198320e-01 -1.51332647e-01  2.52833907e-02
  8.83664414e-02 -6.68577775e-02 -2.25146562e-02 -8.59505758e-02
  2.02786312e-01  6.89521059e-02 -1.37958631e-01 -1.21309690e-01
  1.40315026e-01 -1.30113944e-01 -2.47418657e-02  3.38157900e-02
 -1.03545748e-01 -2.10180864e-01 -3.07858706e-01 -2.04846561e-02
  3.75573963e-01  6.96419850e-02 -1.75099239e-01 -1.09611666e-02
 -4.49805930e-02 -9.97927054e-05  1.55521885e-01  1.82188928e-01
  1.41427293e-02 -1.28865615e-03 -3.22815739e-02 -5.02048917e-02
  2.40200639e-01 -7.58997127e-02  2.55620982e-02  2.22722843e-01
 -7.74588436e-03  1.46840159e-02 -2.31745746e-02  3.99654135e-02
 -1.09331064e-01  4.93284874e-02 -1.29101247e-01 -3.90945524e-02
  2.63435990e-02 -5.18867671e-02  8.86596754e-05  1.03644125e-01
 -2.08122209e-01  1.54729649e-01  2.78938413e-02  5.05116545e-02
  6.92145452e-02 -6.29730299e-02 -6.54557124e-02 -4.49562781e-02
  1.26868412e-01 -2.13374048e-01  1.74693763e-01  2.36833364e-01
  9.32294317e-03  1.13049030e-01  1.13423161e-01  6.89484626e-02
  1.50570022e-02  5.65726543e-03 -2.33348325e-01 -2.49424507e-03
  1.28578529e-01 -5.64293638e-02  5.21100946e-02 -2.06745863e-02]