[-0.07317546  0.11363593  0.13918726  0.00777405 -0.09249005  0.0019623
 -0.02550399 -0.17324379  0.16090755 -0.15305482  0.27164033 -0.08237578
 -0.24271357 -0.10945999 -0.00834782  0.23865853 -0.1846377  -0.13658874
 -0.03251143  0.00909845  0.01714109 -0.0187613   0.01969078  0.00153243
 -0.12656121 -0.42512438 -0.10181365 -0.05936584 -0.04676225 -0.05631528
 -0.1110364   0.0818348  -0.18920305 -0.0824067   0.02157469  0.08855885
 -0.06429278 -0.06052457  0.10938676 -0.02756631 -0.25314033  0.0309845
  0.05578014  0.215572    0.20832808  0.05002935  0.02605543 -0.11184352
  0.10721274 -0.15297447 -0.00146919  0.10933939  0.05357764  0.05489059
  0.02494692 -0.15496412 -0.05298424  0.11816907 -0.10473461 -0.01805895
  0.07320948 -0.10381919 -0.01643677 -0.07866659  0.19073284  0.07959576
 -0.09519054 -0.14862463  0.14722452 -0.13018784 -0.022432    0.02879806
 -0.18071146 -0.2061462  -0.28638077 -0.01240131  0.35190302  0.05416865
 -0.1788002  -0.01115257 -0.0087908   0.03095011  0.11665805  0.19050796
  0.07694613  0.01855186 -0.06163505 -0.01638012  0.2095726  -0.08173414
 -0.00210249  0.23122148 -0.063356    0.02758166  0.01464798 -0.00954882
 -0.06525403  0.05690781 -0.1566454  -0.02772417 -0.02247717 -0.03098579
 -0.03927121  0.08778331 -0.15375154  0.10675573  0.00538647  0.08662796
  0.04024915 -0.04332935 -0.06484086 -0.06645933  0.1393352  -0.2453455
  0.1848761   0.21380587 -0.02073928  0.12240253  0.05611731  0.0816051
 -0.00579523 -0.02070975 -0.22217594 -0.02090517  0.1011612  -0.06093015
  0.0421222  -0.03504375]