[-0.08563358  0.11043775  0.08425068 -0.03793044 -0.06426077  0.00126234
 -0.03350376 -0.14163916  0.13516715 -0.14164428  0.27446195 -0.04689417
 -0.20757209 -0.14493121 -0.02620525  0.21578775 -0.2026494  -0.10914755
 -0.0598589   0.01837664  0.04254056 -0.0179902   0.02659138  0.00146058
 -0.07619454 -0.40747809 -0.08384401 -0.08732944 -0.00688781 -0.04805114
 -0.09033363  0.05032714 -0.16866295 -0.0808991  -0.00698849  0.07599904
 -0.02977036 -0.04180779  0.13875809  0.00779822 -0.25339553  0.02885848
  0.03599066  0.23967861  0.20244442  0.06448431  0.03027991 -0.11415166
  0.11380949 -0.16463614  0.03110442  0.0872159   0.05106791  0.03207931
  0.02938786 -0.13575824 -0.01525514  0.09478057 -0.12490126 -0.02141798
  0.07353145 -0.08975482 -0.02639203 -0.07104177  0.19665049  0.09507705
 -0.08864228 -0.14530037  0.15232426 -0.12743641 -0.04287434  0.03345361
 -0.14269377 -0.1735356  -0.27739796 -0.00164872  0.37596473  0.08826021
 -0.18753895 -0.01750117 -0.03539798 -0.01525977  0.18439206  0.18448375
  0.05767674  0.02066287 -0.06963359 -0.0355331   0.20049401 -0.06536423
 -0.01390237  0.22302635 -0.02844525  0.03562621  0.02566958  0.00158844
 -0.06078605  0.07771514 -0.15904467 -0.02210902  0.00955452 -0.04020775
 -0.0375351   0.07537506 -0.14634955  0.10220821  0.01397471  0.06586321
  0.05740645 -0.04872508 -0.05637589 -0.07064122  0.1316988  -0.20401232
  0.17333536  0.21580063  0.01392111  0.12029258  0.10266743  0.08277153
 -0.00052479 -0.04120536 -0.24911363 -0.02114172  0.09966677 -0.04218427
  0.05612174 -0.02886989]