[-0.11042847  0.09708326  0.14518116 -0.00562404 -0.08022603 -0.0522962
 -0.01163539 -0.15611772  0.12867847 -0.11603373  0.282195   -0.04247103
 -0.22975014 -0.11864213 -0.00868897  0.22728656 -0.19055887 -0.09766685
 -0.07245537  0.01742408  0.05327564 -0.02837493  0.03273546 -0.01064757
 -0.08724903 -0.40544286 -0.08524785 -0.05509857 -0.02989124 -0.02838036
 -0.09120247  0.06264593 -0.19581744 -0.09939934  0.02174072  0.08117762
 -0.05524749 -0.06636237  0.12450691 -0.03226004 -0.25638732  0.03521015
  0.07962881  0.20071815  0.2032651   0.0534956   0.04679418 -0.14673378
  0.10735261 -0.15603839  0.01177725  0.08502907  0.08176631  0.03919995
  0.05264446 -0.16474049 -0.01951536  0.08003669 -0.12025513 -0.01527524
  0.07877576 -0.11654667 -0.03388765 -0.10118905  0.18053418  0.07495214
 -0.09689792 -0.13538842  0.13100265 -0.12340238 -0.02471682  0.03484121
 -0.15652607 -0.20042591 -0.31392497 -0.02187675  0.35176325  0.07742292
 -0.20759211 -0.00558749 -0.03934237  0.01522141  0.14718592  0.20417066
  0.06833714  0.03902487 -0.07727619 -0.02187153  0.19105594 -0.09785771
  0.00099408  0.23385096 -0.02000216  0.02570068  0.00277037 -0.02029431
 -0.07937193  0.04679398 -0.16430663 -0.0352953  -0.01054155 -0.02546802
 -0.02035403  0.05882594 -0.14586876  0.05973439  0.01450622  0.06794015
  0.04336798 -0.06784686 -0.06378724 -0.08976101  0.09538131 -0.22277413
  0.18596624  0.21885924 -0.02413048  0.12541763  0.08430279  0.08955535
 -0.00633414 -0.01568488 -0.19231442  0.00079738  0.10376846 -0.03125195
  0.06540995 -0.03286906]