[-1.88997298e-01  9.71372873e-02  1.08175077e-01 -1.13511216e-02
 -4.34039943e-02 -7.61036947e-02 -5.74914319e-03 -1.69197857e-01
  8.29837397e-02 -9.20343399e-02  2.58931845e-01 -8.86581391e-02
 -2.25080118e-01 -1.19214110e-01 -4.42980342e-02  2.37263590e-01
 -1.57431871e-01 -1.26800627e-01 -4.68289964e-02  1.95747539e-02
  6.97950572e-02  1.41248165e-03 -7.05136743e-04  3.17972638e-02
 -6.29883707e-02 -3.54295820e-01 -7.51796886e-02 -3.95845883e-02
  1.15802297e-02 -2.10052058e-02 -5.91956079e-02  2.35512294e-02
 -1.91460729e-01 -8.27462748e-02  4.46235687e-02  1.18967056e-01
 -7.20382184e-02 -5.62112890e-02  1.75226375e-01 -4.17698249e-02
 -2.77687520e-01 -1.51581469e-03  1.04164816e-01  2.44578943e-01
  1.93979561e-01  6.75189793e-02  8.73729121e-03 -1.52137667e-01
  6.78107068e-02 -1.92289159e-01  1.25491177e-03  9.33137462e-02
  8.20930228e-02  6.11384287e-02 -1.31943477e-02 -1.82885289e-01
  1.64207257e-02  8.73085484e-02 -1.44095585e-01 -2.83415411e-02
  6.39104396e-02 -1.28931388e-01 -4.99342615e-03 -3.42738442e-02
  2.16834113e-01  5.34761250e-02 -1.32091686e-01 -1.35064185e-01
  1.35793269e-01 -1.58468351e-01 -3.91123593e-02  5.05184904e-02
 -1.04341462e-01 -1.96250424e-01 -3.48713130e-01 -3.74911726e-03
  3.89855087e-01  4.99361716e-02 -1.78807810e-01  4.05437313e-02
 -2.55708341e-02  1.14015220e-02  1.73300549e-01  1.99544787e-01
  1.83418188e-02  4.54224664e-06 -7.98655748e-02 -5.57134338e-02
  2.11648181e-01 -7.79241845e-02 -1.61533635e-02  1.81805030e-01
 -3.92650859e-03  5.18356934e-02  1.85570978e-02  4.39016372e-02
 -4.83586639e-02  5.72660044e-02 -1.21303894e-01 -1.11885900e-02
  7.54128164e-03 -2.31572520e-02  1.84242614e-02  1.11685872e-01
 -1.76386535e-01  1.13952748e-01  4.36732471e-02  5.07647991e-02
  5.61201088e-02 -3.12289596e-02 -6.68228790e-02 -8.17538723e-02
  8.23795199e-02 -2.33322605e-01  2.19220743e-01  2.36900523e-01
 -2.54129595e-03  1.33011892e-01  1.43567771e-01  7.16925636e-02
  2.68093199e-02  8.68336018e-03 -2.05429032e-01 -7.76887452e-03
  1.12720169e-01 -4.60519455e-02  9.22106057e-02 -1.79097208e-03]