[-0.09712654  0.10334899  0.09570251 -0.02464862 -0.05797463 -0.04574662
 -0.00084172 -0.12574658  0.13595788 -0.11887927  0.26243803 -0.05989685
 -0.19917141 -0.13120845 -0.01099902  0.2317258  -0.20823359 -0.08673047
 -0.06915504  0.02866548  0.07454635  0.008967    0.01465137  0.01413389
 -0.06520625 -0.43586412 -0.08753904 -0.0750391   0.01718794 -0.01337927
 -0.06964316  0.06676067 -0.18280129 -0.09834855  0.01436391  0.0631965
 -0.0312326  -0.06934945  0.14707433  0.02113557 -0.27538949  0.01411623
  0.05587066  0.22916488  0.20416854  0.05831281  0.04858514 -0.11238629
  0.11322953 -0.18922091  0.02625179  0.08386689  0.0420783   0.05278663
  0.0382559  -0.14432038 -0.01669572  0.09168008 -0.16283967 -0.02423049
  0.07128065 -0.08683016 -0.01770925 -0.07227198  0.17655753  0.08018331
 -0.09864789 -0.13008082  0.14312083 -0.14704701 -0.01989661  0.03864674
 -0.13954979 -0.18933298 -0.30678576  0.0120703   0.3920736   0.10037607
 -0.17102192 -0.0178154  -0.03704357 -0.01616513  0.19488081  0.19647154
  0.08185636  0.01118641 -0.05216848 -0.02295101  0.19510274 -0.06435383
 -0.02143741  0.24259244 -0.03293168  0.02839686 -0.00254004  0.01549811
 -0.06175422  0.06100246 -0.13948555 -0.01633397  0.0109041  -0.01876139
 -0.03002266  0.08331263 -0.152548    0.09816267  0.01524833  0.05698311
  0.05206665 -0.05987253 -0.06860599 -0.06767479  0.10488977 -0.18794273
  0.18489109  0.21445468 -0.01911146  0.13338445  0.08302843  0.07375022
  0.00634625 -0.06201869 -0.22977805 -0.01920246  0.11639965 -0.02236168
  0.05422452 -0.04922685]