[-1.13033593e-01  1.13554239e-01  1.27445772e-01 -3.44567113e-02
 -9.11742449e-02 -3.12549956e-02 -2.90588476e-02 -1.42630234e-01
  1.38432190e-01 -1.35723189e-01  2.34173462e-01 -5.63994944e-02
 -2.34059379e-01 -1.05211221e-01 -2.34671365e-02  2.61371225e-01
 -1.72903448e-01 -1.17642455e-01 -8.06464478e-02  3.66519690e-02
  5.40263020e-02 -1.62222646e-02  5.91844283e-02  1.12098223e-02
 -1.18846610e-01 -4.31178659e-01 -9.09516364e-02 -4.86491323e-02
 -4.64499965e-02 -4.79581468e-02 -8.24476928e-02  4.50578928e-02
 -1.77229613e-01 -7.91078433e-02  2.27647033e-02  1.03933156e-01
 -7.83267096e-02 -8.72355551e-02  1.26342848e-01 -2.63133477e-02
 -3.11379045e-01  2.47834269e-02  9.04270411e-02  2.16387779e-01
  2.26845026e-01  5.69063313e-02  5.94417341e-02 -1.39868602e-01
  1.46384075e-01 -1.88634366e-01  2.44029853e-02  5.26540987e-02
  6.22286573e-02  3.90400365e-02  5.84113598e-02 -1.49491772e-01
 -1.16123315e-02  1.55281454e-01 -1.43286929e-01 -3.04848552e-02
  6.46382421e-02 -8.45703781e-02 -2.94110011e-02 -8.46695527e-02
  1.92312881e-01  1.00887492e-01 -1.21214263e-01 -1.43056467e-01
  1.60672992e-01 -1.34108022e-01 -7.59615889e-03  5.20954132e-02
 -1.54774770e-01 -2.09915429e-01 -3.21976513e-01 -3.29445489e-02
  3.45523685e-01  7.91123882e-02 -1.64134130e-01 -2.51243021e-02
 -1.10543873e-02  5.01671992e-02  1.12403207e-01  1.96800992e-01
  2.94767078e-02  3.10505927e-02 -7.15810061e-02 -2.57158782e-02
  2.17116073e-01 -8.83796364e-02 -1.07491110e-02  2.35192046e-01
 -9.62882768e-03  2.02507861e-02 -3.96588584e-03  1.35489106e-02
 -1.12378798e-01  4.61541638e-02 -1.84724495e-01 -4.40960415e-02
  6.48385752e-03 -1.06755132e-02 -2.35476885e-02  9.29477736e-02
 -1.60150558e-01  1.08823203e-01 -2.60397769e-03  7.14272112e-02
  4.47395034e-02 -5.16561978e-02 -7.78124481e-02 -7.92846903e-02
  1.03978351e-01 -2.01389179e-01  1.61855683e-01  2.26669237e-01
  2.86596274e-04  1.10650934e-01  1.14563800e-01  5.79329729e-02
  8.51388182e-03 -1.57787520e-02 -2.23659351e-01  2.40768492e-03
  1.42982796e-01 -5.61730154e-02  7.54216239e-02 -3.18068378e-02]