[-0.1048016   0.06386657  0.09939083 -0.03393966 -0.05767167 -0.05363893
 -0.02300907 -0.16027418  0.1308991  -0.08909801  0.2506023  -0.03272782
 -0.19724824 -0.14112984 -0.03282914  0.23329197 -0.15976131 -0.11391894
 -0.03509842  0.04347098  0.06585038  0.00726193  0.04198027  0.02875564
 -0.07383825 -0.37594339 -0.10785788 -0.04848323  0.01568297 -0.01052644
 -0.10276069  0.04636299 -0.18442437 -0.10858317  0.07180248  0.09414844
 -0.0482124  -0.06693595  0.1524187  -0.02171309 -0.26578072  0.03221308
  0.08079111  0.22202408  0.21187536  0.08065076  0.03518761 -0.1714644
  0.11725219 -0.19567329  0.04378868  0.06038547  0.07028412  0.04364687
  0.00100129 -0.15985796  0.00684647  0.11787714 -0.16267405  0.01004627
  0.05361726 -0.11367827 -0.03669496 -0.05223172  0.21100426  0.07883275
 -0.13969682 -0.15221252  0.12431741 -0.14214502 -0.02919201  0.05386375
 -0.13213927 -0.18995342 -0.33436221 -0.00595299  0.40308055  0.06540002
 -0.20297463  0.02624655 -0.0335168   0.04085204  0.15695868  0.19693598
  0.02265356  0.01792536 -0.07713389 -0.04383068  0.21096113 -0.08219349
 -0.0159172   0.25256467 -0.01563868  0.09953812  0.01532896  0.06547054
 -0.04621809  0.05404517 -0.13816184 -0.0321259   0.05736471  0.00376899
  0.03423626  0.11933138 -0.17165963  0.11073522  0.00489076  0.08006498
  0.10587942 -0.05574374 -0.05996851 -0.09858187  0.08741439 -0.23698008
  0.19796716  0.21267538  0.01232654  0.11947375  0.10972994  0.06952595
  0.01959336 -0.03157226 -0.21270065  0.02019077  0.13262486 -0.05134068
  0.08664422 -0.01355873]