[-0.11287546  0.10615885  0.12012768 -0.02461337 -0.05745767 -0.04055241
 -0.02517345 -0.13241386  0.13004568 -0.15056017  0.27999792 -0.0474599
 -0.20881198 -0.11918306 -0.02873426  0.21946631 -0.19189088 -0.10059574
 -0.06557297  0.0358775   0.06797232  0.01036116  0.00883765 -0.03665235
 -0.0649403  -0.42016727 -0.1033712  -0.0523586   0.02334916 -0.01756576
 -0.07207195  0.05241594 -0.17992911 -0.08927774  0.01090339  0.08228105
 -0.03172585 -0.06885641  0.13790771  0.00853035 -0.26943329  0.03050838
  0.04251494  0.23134921  0.23233826  0.0523693   0.03261789 -0.1376655
  0.11140201 -0.17916891  0.00053343  0.08544276  0.05852034  0.06021707
  0.05346495 -0.13666965 -0.0046502   0.08479387 -0.14529386 -0.05651104
  0.0419404  -0.085738    0.00781998 -0.07716032  0.16706333  0.05179945
 -0.0988262  -0.12971711  0.14406127 -0.1467251  -0.02305328  0.04523245
 -0.14084493 -0.17941807 -0.31653246 -0.0086587   0.38903353  0.08761612
 -0.16477506  0.01681268 -0.01971635 -0.03962691  0.16995354  0.19725601
  0.06860971  0.01451102 -0.04925857 -0.02656435  0.21119983 -0.08064206
 -0.01636583  0.214794   -0.04430541  0.03589947  0.01192345  0.02327585
 -0.06122909  0.05293369 -0.13242851 -0.02477246 -0.000566   -0.04034591
 -0.03632635  0.08811023 -0.15634425  0.10079283  0.01127615  0.06165186
  0.04587729 -0.07795522 -0.04129425 -0.04339392  0.10784385 -0.21176326
  0.18625213  0.2255518  -0.04137168  0.13493942  0.09491148  0.0637289
 -0.0102578  -0.03312504 -0.21969555 -0.04059085  0.08110072 -0.01850544
  0.06568822 -0.04150753]