[-1.00130521e-01  7.37855956e-02  1.09583929e-01 -1.71210319e-02
 -6.23783469e-02 -5.42598963e-02 -2.39724405e-02 -1.45648956e-01
  1.19171672e-01 -8.61681625e-02  2.59439528e-01 -3.08430139e-02
 -1.99988127e-01 -1.53735653e-01 -1.97944827e-02  2.24147037e-01
 -1.45459563e-01 -1.13933101e-01 -4.02342193e-02  5.79477660e-02
  7.71186724e-02 -7.71041960e-06  4.79121357e-02  1.40656605e-02
 -6.04858994e-02 -3.80519181e-01 -1.16085231e-01 -4.78523523e-02
  2.59135794e-02 -1.78464781e-02 -1.11451566e-01  3.63058820e-02
 -1.77820772e-01 -1.26669750e-01  6.05005883e-02  8.34131613e-02
 -5.32872491e-02 -5.55019379e-02  1.44411266e-01 -2.68385466e-02
 -2.70502567e-01  2.85980292e-02  7.32055008e-02  2.14093015e-01
  2.10717559e-01  1.01933710e-01  3.76246236e-02 -1.76101521e-01
  1.04542673e-01 -1.98527575e-01  6.00802414e-02  6.63607270e-02
  7.88239241e-02  5.63960262e-02  5.15515124e-03 -1.57795310e-01
  1.59945730e-02  1.18472628e-01 -1.64855257e-01  4.46097646e-03
  5.39540909e-02 -8.91580507e-02 -2.72898022e-02 -4.63706627e-02
  1.96166232e-01  7.70301893e-02 -1.22690156e-01 -1.53390527e-01
  1.14114478e-01 -1.45916834e-01 -3.41597758e-02  6.99898228e-02
 -1.33005843e-01 -1.91558257e-01 -3.35060179e-01 -5.87759307e-03
  4.09946173e-01  6.66873679e-02 -1.95541635e-01  5.50012663e-03
 -3.17551233e-02  2.73792986e-02  1.58345759e-01  1.73370138e-01
  9.10189841e-03  8.17456376e-03 -8.43129382e-02 -4.49566767e-02
  2.03678399e-01 -8.71274695e-02 -1.13188662e-02  2.41485476e-01
 -2.24350370e-03  1.04188919e-01  2.01806612e-02  7.53300563e-02
 -3.01897470e-02  6.55630827e-02 -1.41621485e-01 -3.13991196e-02
  5.43249547e-02 -7.15290988e-03  2.02687271e-02  1.09745644e-01
 -1.71937302e-01  1.10009424e-01  1.00354245e-02  7.92772248e-02
  9.68283638e-02 -6.23827353e-02 -6.48212284e-02 -9.27498415e-02
  8.98822322e-02 -2.27163911e-01  1.92005202e-01  2.26571083e-01
  9.58547276e-03  1.10724501e-01  1.10799931e-01  7.32717216e-02
  1.25777749e-02 -5.04622534e-02 -2.17587471e-01  2.16347855e-02
  1.37226313e-01 -5.01247756e-02  7.38127232e-02 -1.43501526e-02]