[-0.09432215  0.07365976  0.13146217 -0.02439507 -0.06263884 -0.02841312
 -0.0069424  -0.1772912   0.12019956 -0.13755968  0.24218158 -0.09231655
 -0.23585999 -0.11807157 -0.00759209  0.25201231 -0.19988991 -0.13018414
 -0.04088105 -0.00301251  0.04432629 -0.01765111 -0.00730899  0.01711304
 -0.1131014  -0.39849967 -0.1012634  -0.06692679 -0.00516427 -0.03232962
 -0.08884864  0.07308701 -0.18629217 -0.0725682   0.03446441  0.1085083
 -0.04260037 -0.08266122  0.14089118 -0.01148914 -0.25389493  0.02875739
  0.07909267  0.18990944  0.20759347  0.08149691  0.03199434 -0.0937833
  0.13321091 -0.17965645  0.00324364  0.0907674   0.05940661  0.07125949
  0.01747552 -0.19253762 -0.03156401  0.09654528 -0.14480846 -0.02671717
  0.05683981 -0.1055217  -0.00748273 -0.05584546  0.19429037  0.07982057
 -0.12217332 -0.12512684  0.17405139 -0.15168576 -0.02012829  0.00801811
 -0.15903819 -0.15815924 -0.30051389 -0.00981262  0.34788415  0.05301747
 -0.18168318 -0.02064421 -0.01070093  0.02463335  0.13116519  0.19361432
  0.07057319  0.01074617 -0.04558554 -0.05607207  0.20106509 -0.06024547
  0.01050655  0.23521009 -0.04724679  0.04697904  0.0035135   0.01433805
 -0.0818833   0.03377564 -0.12118564 -0.02481344 -0.01005967 -0.01444909
 -0.01293106  0.12020767 -0.16085027  0.12814794 -0.01341574  0.07678971
  0.02595918 -0.03341339 -0.05955142 -0.05967277  0.11316849 -0.22098055
  0.17892385  0.23617053 -0.04738883  0.10662349  0.0734662   0.08009881
  0.00160655 -0.01484114 -0.24143405 -0.04335352  0.10496344 -0.0634522
  0.03860054 -0.02419811]