[-1.15506947e-01  1.23727515e-01  1.28505021e-01 -3.90835330e-02
 -3.83076593e-02 -5.09468876e-02 -2.68519856e-02 -1.73519447e-01
  1.13817595e-01 -1.07697383e-01  2.39997178e-01 -3.74395661e-02
 -2.17521101e-01 -1.19614027e-01 -3.30465958e-02  2.32534006e-01
 -2.32677028e-01 -1.10984877e-01 -6.42352402e-02  3.09835132e-02
  6.05917685e-02 -2.13711839e-02  6.36698231e-02  3.85635358e-04
 -1.00117043e-01 -3.98316443e-01 -7.90715441e-02 -6.88531697e-02
 -3.50287044e-03  3.48730362e-03 -5.98518066e-02  2.59559210e-02
 -1.85216814e-01 -5.73218279e-02  9.69248917e-03  6.66128844e-02
 -6.05885051e-02 -5.17826341e-02  1.74797475e-01 -3.13644819e-02
 -2.75230020e-01  3.11198737e-02  7.84752369e-02  2.23672658e-01
  2.10791215e-01  4.71685044e-02  5.45874797e-02 -1.62183329e-01
  1.28029868e-01 -1.84156761e-01  9.98112466e-03  9.49258879e-02
  4.47198413e-02  5.53629883e-02  3.62389199e-02 -1.44708946e-01
  9.08368919e-03  1.26561165e-01 -1.38505250e-01  4.82021971e-03
  7.72493407e-02 -8.22289959e-02 -4.73851291e-03 -6.24816008e-02
  2.18386292e-01  7.90261775e-02 -1.26237839e-01 -1.46747112e-01
  1.35573313e-01 -1.23953164e-01 -3.33325528e-02  4.92293090e-02
 -1.38307154e-01 -1.83410808e-01 -3.30893844e-01 -4.88251746e-02
  3.36489648e-01  6.46765977e-02 -1.77575305e-01 -9.46167391e-03
 -7.42958188e-02  1.48390448e-02  1.70699269e-01  1.77946970e-01
  1.21351788e-02  2.68400703e-02 -7.83463493e-02 -3.23781855e-02
  2.26684049e-01 -7.88220912e-02 -1.17753781e-02  2.47309729e-01
  1.91586209e-03  4.52484041e-02 -1.45252077e-02  1.51486546e-02
 -9.33593661e-02  5.78478947e-02 -1.82495028e-01 -2.37572938e-02
  7.19271600e-03 -2.65851105e-03  1.77221594e-03  1.06446877e-01
 -1.65369675e-01  9.34598446e-02  2.31662728e-02  7.80029222e-02
  6.20282479e-02 -4.11733724e-02 -8.72206390e-02 -9.11930576e-02
  1.07139103e-01 -2.07171828e-01  2.03712925e-01  2.32466921e-01
  1.86639372e-02  8.28122124e-02  1.22694783e-01  4.40295450e-02
 -2.00032424e-02 -1.51596731e-02 -2.20865607e-01  2.94011682e-02
  1.32255957e-01 -4.88164872e-02  7.49841705e-02 -2.02125106e-02]