[-0.14228372  0.07910144  0.11968237 -0.03419351 -0.06709187 -0.02730238
 -0.00593325 -0.14000796  0.08293045 -0.08697095  0.23814312 -0.10731121
 -0.25762805 -0.0943943  -0.04137656  0.24145244 -0.16385232 -0.12599528
 -0.08208699  0.03639704  0.06952679 -0.00439622  0.00344414 -0.01342586
 -0.1044421  -0.37698767 -0.09835954 -0.01935284  0.00905787 -0.0266263
 -0.07867774  0.03390758 -0.20387116 -0.07778218  0.07376426  0.10685427
 -0.04036979 -0.09365629  0.14455311 -0.02222363 -0.27204019  0.02503391
  0.08669639  0.21377268  0.17455356  0.08351695  0.03596517 -0.15011594
  0.09283089 -0.20444022  0.0071764   0.10605603  0.06756362  0.05880201
 -0.00333442 -0.1670451   0.00266382  0.14330719 -0.16494748 -0.01991618
  0.06090052 -0.09801451 -0.01896882 -0.09227785  0.18831782  0.06458966
 -0.15383036 -0.15762727  0.12649265 -0.12502579  0.00968827  0.04454757
 -0.12953734 -0.1962216  -0.307852   -0.00740971  0.37017298  0.04867096
 -0.18200748  0.01684303 -0.04582345  0.0216395   0.11690138  0.17560814
  0.02994038  0.03508106 -0.05556326 -0.03264487  0.23123634 -0.10568253
  0.01765687  0.21843024 -0.02825155  0.02227756 -0.01032247  0.03861521
 -0.0751735   0.0344578  -0.0932405  -0.01692855  0.01783196 -0.03991318
  0.00903631  0.10018277 -0.18067209  0.11372174 -0.00090761  0.05169423
  0.04864421 -0.08817591 -0.05104141 -0.06549884  0.10544208 -0.26537931
  0.1912245   0.24719231 -0.02704276  0.11110043  0.11443259  0.07009035
  0.02724907  0.01296562 -0.20246534 -0.03322255  0.12443608 -0.04925774
  0.06280395 -0.03523985]