[-0.14207627  0.10054425  0.11446796 -0.04699818 -0.04283787 -0.06276216
 -0.0103177  -0.14340745  0.1281855  -0.12220085  0.24837828 -0.07830939
 -0.25255767 -0.10621971 -0.0578052   0.23560047 -0.16530196 -0.12167607
 -0.0468186   0.04056585  0.08240361  0.00111213  0.03177882  0.00977382
 -0.06200962 -0.37113005 -0.10188528 -0.01896323 -0.03849814 -0.04105892
 -0.04393909  0.02353863 -0.19571987 -0.06941672  0.04842442  0.08096604
 -0.05675268 -0.07182141  0.17130376 -0.00426499 -0.26325503 -0.00831657
  0.07758313  0.23695175  0.17445163  0.07006955  0.02479159 -0.18244861
  0.11536782 -0.18611304  0.0007628   0.10441049  0.08096421  0.03368933
 -0.00314131 -0.161815    0.0133709   0.11372123 -0.13648441 -0.01438263
  0.0707637  -0.10405784 -0.06361472 -0.06421722  0.20559053  0.05337701
 -0.15526339 -0.18102334  0.14357705 -0.12928079 -0.02672243  0.0649166
 -0.13583128 -0.20660937 -0.30040231 -0.01254496  0.3577435   0.02430457
 -0.17744081  0.02561435 -0.05292399  0.03494922  0.10931271  0.21435919
  0.00913351  0.03644247 -0.07152184 -0.0432134   0.20952879 -0.10836767
 -0.02105906  0.2169628  -0.01823726  0.05680734 -0.00715604  0.01215449
 -0.06599595  0.06752826 -0.13677779 -0.02182101  0.03786459 -0.02705839
 -0.01560704  0.10314385 -0.18402597  0.1092357   0.00844504  0.0454008
  0.06674169 -0.06362524 -0.08916024 -0.09239967  0.08924282 -0.24305342
  0.19381778  0.22924674  0.01559602  0.11295998  0.13456471  0.08577934
  0.04318741  0.01554077 -0.21128583 -0.00922865  0.12340214 -0.03058648
  0.05892292 -0.0521881 ]