[-0.13587242  0.0689659   0.14005318 -0.021808   -0.07886212 -0.08159868
 -0.02487062 -0.1830029   0.11431225 -0.08625016  0.23490451 -0.03648356
 -0.20278025 -0.11719246 -0.0239259   0.25600377 -0.17585777 -0.11153223
 -0.07240663  0.03148409  0.03802721  0.00934514  0.04864222  0.00672965
 -0.09100872 -0.38226676 -0.10776398 -0.04667706 -0.00527095 -0.02345722
 -0.08776727  0.05795532 -0.17456384 -0.10374793  0.09342419  0.10443123
 -0.04172172 -0.06375708  0.14563151 -0.04264018 -0.28655154  0.00261404
  0.12022461  0.20859101  0.22072445  0.06879784  0.02438276 -0.16329047
  0.10814684 -0.18928504 -0.00043525  0.06183263  0.05143855  0.05576101
  0.03223772 -0.16749983  0.00422441  0.11066445 -0.16075888 -0.03092967
  0.05771101 -0.11618209 -0.04248814 -0.05926275  0.20345472  0.07455792
 -0.14740048 -0.14099865  0.12519692 -0.13551828 -0.01067045  0.03432031
 -0.13506515 -0.19160609 -0.32844114 -0.05852942  0.38717395  0.04966534
 -0.21341601  0.009252   -0.04980491  0.01815528  0.12833443  0.18662444
  0.04192068  0.03758249 -0.05725681 -0.0350528   0.19709879 -0.09939414
  0.03250296  0.23995487 -0.01494816  0.06669113 -0.00395325  0.05346933
 -0.07995855  0.04860865 -0.15807126 -0.04294172  0.02980202  0.01705844
  0.04771722  0.10965108 -0.17172395  0.11129411  0.03482736  0.06917808
  0.07534035 -0.05828862 -0.05429236 -0.10709429  0.09713939 -0.23131971
  0.19737706  0.23923461 -0.04147219  0.11406951  0.08995938  0.06675158
  0.00644675 -0.00945482 -0.18360838  0.01783304  0.11805286 -0.06915905
  0.05979227 -0.02463213]