[-1.23567976e-01  1.57924250e-01  1.12561248e-01 -3.06557715e-02
 -4.89708968e-02 -6.39533028e-02 -4.01119702e-02 -1.41258180e-01
  1.27973661e-01 -1.02308713e-01  2.42008641e-01 -4.83937226e-02
 -2.32538372e-01 -1.45744815e-01 -2.42467131e-02  2.29577348e-01
 -2.16340140e-01 -1.09349988e-01 -4.70354445e-02  4.17617671e-02
  8.00772980e-02  7.29015982e-03  6.80500418e-02  5.65528776e-03
 -9.48882923e-02 -4.17052835e-01 -8.31995979e-02 -5.89554124e-02
 -3.39057855e-02 -1.12890443e-02 -6.40907064e-02  5.15109710e-02
 -1.70529574e-01 -9.04402137e-02  1.79305319e-02  6.64957836e-02
 -3.87940668e-02 -3.60521823e-02  1.40269086e-01 -9.79595631e-03
 -2.79324114e-01  2.09921948e-03  6.14579506e-02  2.59786189e-01
  2.20690608e-01  5.22365235e-02  3.22048441e-02 -1.47955626e-01
  9.92579088e-02 -1.85436830e-01  9.40158963e-04  1.07647434e-01
  2.55038626e-02  4.70545664e-02  4.83210348e-02 -1.20362006e-01
  1.13921557e-02  1.05707601e-01 -1.41053841e-01 -4.26086448e-02
  7.89329410e-02 -6.86406642e-02 -4.32120083e-04 -8.00225362e-02
  2.11500004e-01  6.14112392e-02 -1.20084517e-01 -1.36197314e-01
  1.22628830e-01 -1.29551068e-01 -4.53804992e-02  5.75352199e-02
 -1.45040452e-01 -1.95811719e-01 -3.37207764e-01 -3.21698189e-02
  3.37430865e-01  9.42666531e-02 -1.69717714e-01 -7.42293475e-03
 -4.76006828e-02  1.05717182e-02  1.64515972e-01  1.76535472e-01
  1.08606769e-02  5.15157245e-02 -7.48850703e-02 -1.86768379e-02
  2.03828454e-01 -7.11799264e-02 -3.02611869e-02  2.56270975e-01
  1.53481960e-06  5.38824573e-02  1.68892201e-02  9.15052369e-03
 -5.84228747e-02  5.99619038e-02 -2.02000096e-01 -1.28307762e-02
  1.94440782e-02 -2.28697062e-02 -1.50228320e-02  1.10429659e-01
 -1.48129016e-01  7.86309168e-02  3.45532559e-02  7.29391947e-02
  3.65079604e-02 -4.10018563e-02 -9.70081612e-02 -8.87285098e-02
  1.06316984e-01 -1.93060935e-01  1.84161782e-01  2.26429746e-01
  2.71844864e-02  9.22597870e-02  1.19823597e-01  4.24963646e-02
 -2.33854018e-02 -4.10515182e-02 -1.93681195e-01  1.46056404e-02
  1.42748594e-01 -4.30420190e-02  8.25408697e-02 -3.36940698e-02]