[-1.31881416e-01  9.79368165e-02  8.90160874e-02 -4.02310938e-02
 -7.19399750e-02 -3.93902697e-02  8.07609595e-03 -1.17956690e-01
  1.25780627e-01 -1.04575172e-01  2.72274107e-01 -5.75676747e-02
 -2.12699816e-01 -1.26679704e-01 -1.05819562e-02  2.30358288e-01
 -2.11012349e-01 -8.44103023e-02 -7.71863759e-02  1.51520763e-02
  5.74887656e-02  1.10830516e-02  3.13735241e-03  2.20296383e-02
 -8.41965079e-02 -4.31476682e-01 -7.15575889e-02 -8.15995857e-02
 -4.03405726e-03 -2.18904056e-02 -6.30721971e-02  8.39112177e-02
 -1.75542817e-01 -1.03154741e-01  1.09900311e-02  7.86723420e-02
 -4.22044322e-02 -5.69741987e-02  1.46990776e-01  2.52822433e-02
 -2.66921610e-01  1.78135019e-02  8.05486590e-02  2.48498991e-01
  2.08224401e-01  7.06057325e-02  3.92726772e-02 -1.03548132e-01
  1.15033440e-01 -2.03306079e-01  8.58184602e-03  7.76945502e-02
  2.58113779e-02  4.48176861e-02  4.88750264e-02 -1.47246525e-01
  6.77850610e-03  6.00685067e-02 -1.72222212e-01 -3.02499663e-02
  7.05639645e-02 -1.08381391e-01 -1.92072857e-02 -6.65012226e-02
  1.89028457e-01  7.72606656e-02 -9.07829329e-02 -1.24309219e-01
  1.50483727e-01 -1.46959797e-01 -4.34577577e-02  3.53643447e-02
 -1.35008052e-01 -1.80630654e-01 -3.33071113e-01  1.47594390e-02
  3.85639340e-01  9.53492671e-02 -1.60023972e-01  1.32033601e-04
 -1.50798634e-02 -3.08034923e-02  2.05268696e-01  2.00750589e-01
  7.24195167e-02 -6.37025712e-03 -6.37656376e-02 -1.98840778e-02
  1.97795466e-01 -5.19583635e-02 -1.55665008e-02  2.33617350e-01
 -1.51309716e-02  2.86832433e-02  1.55357486e-02  3.00274789e-02
 -7.93144107e-02  6.34286031e-02 -1.44909441e-01 -3.49258626e-04
  2.92905457e-02 -1.74023136e-02 -1.95353646e-02  9.05382261e-02
 -1.48650438e-01  9.54338536e-02  8.57021101e-03  4.81813811e-02
  3.75281088e-02 -7.02806935e-02 -6.82544634e-02 -5.67937270e-02
  9.54528674e-02 -1.93423539e-01  1.83486626e-01  2.17453286e-01
 -1.93555057e-02  1.19985811e-01  9.83796567e-02  4.51148562e-02
  1.37237832e-03 -3.36637311e-02 -2.42759585e-01 -2.64306813e-02
  1.14022866e-01 -4.20107953e-02  5.84315844e-02 -3.28200124e-02]