[-0.1010652   0.05977386  0.10238054 -0.03006331 -0.06491935 -0.047782
 -0.02166006 -0.14723779  0.11340034 -0.08591805  0.25165758 -0.03294429
 -0.20142949 -0.13473639 -0.03363533  0.22054783 -0.14023827 -0.1253147
 -0.03572077  0.05109349  0.07472627  0.0028943   0.03354711  0.01374076
 -0.06885629 -0.35231456 -0.10129879 -0.05142679  0.01191449 -0.01713434
 -0.09718683  0.03350733 -0.18070757 -0.10602304  0.06664822  0.08841
 -0.0661843  -0.06437048  0.15318415 -0.01381196 -0.26684687  0.0180518
  0.06147094  0.22176845  0.20519833  0.08163087  0.03575144 -0.17855033
  0.11260078 -0.19372077  0.03954886  0.07627945  0.07183876  0.06201259
  0.00260371 -0.15522453  0.02583129  0.11468738 -0.14855631  0.00687518
  0.05229872 -0.09598128 -0.01836044 -0.07086515  0.21070682  0.05760408
 -0.12812184 -0.15859757  0.12013346 -0.13670348 -0.05771166  0.06604039
 -0.13371341 -0.1888465  -0.32245302 -0.01762351  0.3916795   0.06778836
 -0.20149377  0.02516042 -0.03668026  0.02847602  0.15282325  0.18449938
  0.02441796  0.03331987 -0.07496079 -0.0628271   0.22080624 -0.09545834
 -0.01329542  0.2380698  -0.01631984  0.099135    0.02663966  0.05319748
 -0.0341035   0.06954972 -0.13268062 -0.03696548  0.04369704 -0.01826813
  0.03086131  0.11050683 -0.17171794  0.1218145   0.00367249  0.09342813
  0.08710136 -0.06224838 -0.06643118 -0.08246172  0.09702563 -0.23474248
  0.20637095  0.21755026  0.0235943   0.10276663  0.12143483  0.06885154
  0.00451682 -0.02779341 -0.22229913  0.01859157  0.12732992 -0.04649876
  0.07611046 -0.00751524]