[-0.09840914  0.09250958  0.1070528  -0.03113106 -0.06563657 -0.04281402
 -0.00150247 -0.13876081  0.13383968 -0.11680613  0.27074406 -0.04045022
 -0.20702472 -0.13574725 -0.00951883  0.22518168 -0.20578592 -0.10032095
 -0.07432558  0.02141534  0.07051431 -0.01589447  0.02444482 -0.00475117
 -0.08537596 -0.41816169 -0.07960468 -0.07420192 -0.00043614 -0.01752752
 -0.08493089  0.05748007 -0.19878894 -0.10032054  0.0035527   0.07313377
 -0.04634329 -0.06828032  0.14843373  0.0123447  -0.27453348  0.02963393
  0.05654737  0.2106344   0.20853801  0.05613665  0.04688929 -0.13186012
  0.12499334 -0.18109542  0.02820567  0.08923217  0.04386303  0.04252326
  0.04483131 -0.1529641  -0.00857741  0.09702339 -0.14756571 -0.02842443
  0.06935582 -0.09625588 -0.01930761 -0.08095755  0.18120675  0.08510748
 -0.08616274 -0.13138725  0.14788191 -0.11982151 -0.02843696  0.02999849
 -0.14772145 -0.18413262 -0.31542796  0.00238472  0.37301105  0.07026635
 -0.17507003 -0.00484042 -0.04896493 -0.00885597  0.19204974  0.18436266
  0.07276859  0.01517675 -0.06750873 -0.02685869  0.20174174 -0.07839069
 -0.00350946  0.23198338 -0.03096104  0.03230623  0.00727625  0.00992291
 -0.0786206   0.07579374 -0.1513364  -0.01437042  0.01419742 -0.03065729
 -0.02520995  0.07940719 -0.1576436   0.06698417  0.01635575  0.06048898
  0.05306724 -0.08083333 -0.06777205 -0.07828999  0.09443427 -0.20283441
  0.19983803  0.22001024 -0.02254279  0.12276437  0.09797401  0.06623142
 -0.00450679 -0.04130883 -0.24179731  0.00194436  0.11860986 -0.01987768
  0.04734948 -0.03197473]