[-0.11067907  0.12981395  0.13546245 -0.03342406 -0.04779515 -0.05035131
 -0.02474931 -0.16428517  0.11181547 -0.10796361  0.23989864 -0.03518737
 -0.23061299 -0.11380829 -0.03123426  0.22929719 -0.21790181 -0.11649647
 -0.06353045  0.03606594  0.0706818  -0.01240465  0.06183131 -0.00394891
 -0.10256529 -0.39372888 -0.08018865 -0.05359758 -0.0021636  -0.00552559
 -0.07155237  0.02875491 -0.1905497  -0.06534633  0.01161286  0.08249336
 -0.06851669 -0.06056247  0.17611206 -0.02483113 -0.27411804  0.03366235
  0.07679681  0.22671615  0.21760242  0.04817384  0.05392336 -0.16358559
  0.12380423 -0.17986917  0.01103944  0.10920272  0.05291634  0.06650645
  0.03314615 -0.14654219  0.01459993  0.12216496 -0.13947986 -0.00055624
  0.08175275 -0.08250951  0.00564918 -0.07085904  0.2097615   0.05905684
 -0.12448668 -0.14682791  0.13242191 -0.13132109 -0.0420759   0.05081538
 -0.14120682 -0.1830572  -0.32783657 -0.05004634  0.32458937  0.06881487
 -0.17828988 -0.00158214 -0.06504755  0.00039877  0.15733473  0.18066405
  0.01890536  0.03491841 -0.08529817 -0.02631501  0.23423707 -0.08030983
 -0.00512203  0.25377288  0.00639284  0.0460212  -0.00630999  0.01992897
 -0.09515416  0.06085792 -0.17981869 -0.02075982  0.00433185 -0.02130196
 -0.00593122  0.10503631 -0.16571544  0.10295983  0.01717772  0.08450764
  0.05123376 -0.05842584 -0.09757183 -0.08242314  0.11373921 -0.20793243
  0.2045552   0.23356684  0.01277769  0.07735234  0.1302408   0.05012065
 -0.01687583 -0.01877796 -0.22624719  0.01842344  0.12778674 -0.05445072
  0.08200504 -0.01161105]