[-1.11040704e-01  1.23626649e-01  1.30898267e-01 -3.37090157e-02
 -5.28080277e-02 -4.26405929e-02 -1.53570464e-02 -1.66846499e-01
  1.10729687e-01 -1.14401102e-01  2.36817122e-01 -3.35158706e-02
 -2.29407817e-01 -1.00898288e-01 -2.87684202e-02  2.28312328e-01
 -2.27222040e-01 -1.04353122e-01 -6.10178970e-02  3.36848162e-02
  6.79391399e-02 -1.86377224e-02  5.67133240e-02  2.36900593e-03
 -9.75598320e-02 -3.85763645e-01 -8.07335973e-02 -5.43775670e-02
  1.01770670e-03 -1.11456809e-03 -7.18692169e-02  2.63484549e-02
 -1.85360894e-01 -6.24213330e-02  1.03376349e-02  7.09390566e-02
 -7.38339648e-02 -5.77230118e-02  1.72753736e-01 -3.87602188e-02
 -2.65333176e-01  4.22377773e-02  7.93316513e-02  2.16692671e-01
  2.11316854e-01  4.74451557e-02  5.62967658e-02 -1.62669763e-01
  1.20305158e-01 -1.85447693e-01  1.23707755e-02  1.00860178e-01
  5.00987247e-02  6.78593889e-02  2.31481399e-02 -1.58684731e-01
  4.68833139e-03  1.22112535e-01 -1.30285457e-01  1.18662259e-02
  8.28688666e-02 -8.22201446e-02  9.74016264e-04 -6.59812838e-02
  2.05358252e-01  6.55402318e-02 -1.27105698e-01 -1.56135753e-01
  1.31640792e-01 -1.34482890e-01 -3.80316637e-02  4.60264795e-02
 -1.42447755e-01 -1.86216459e-01 -3.15564692e-01 -4.50346284e-02
  3.29881459e-01  7.51120672e-02 -1.73183754e-01 -5.53775718e-03
 -7.45323375e-02  5.63601684e-03  1.53996199e-01  1.81445926e-01
  2.46666353e-02  2.16620620e-02 -7.76748583e-02 -2.15844661e-02
  2.25129008e-01 -8.13272521e-02 -7.53714982e-03  2.56602854e-01
  1.17467381e-02  4.55430225e-02 -1.41607644e-02  1.77946147e-02
 -9.50146616e-02  6.13088086e-02 -1.75520018e-01 -2.02202480e-02
 -4.28206666e-04 -1.98886190e-02 -9.17978614e-05  1.11324571e-01
 -1.69300511e-01  1.17735684e-01  1.05427476e-02  8.90543088e-02
  5.96466474e-02 -4.59630601e-02 -9.47326124e-02 -7.76257366e-02
  1.13284819e-01 -2.09556624e-01  2.04932407e-01  2.37536952e-01
  1.83624942e-02  8.08590576e-02  1.22020617e-01  5.24584129e-02
 -7.15598091e-03 -1.04770428e-02 -2.34758884e-01  2.32783388e-02
  1.25283971e-01 -5.95937930e-02  7.40094557e-02 -9.91491228e-03]