[-1.03158511e-01  1.07188702e-01  1.23714507e-01 -2.49065906e-02
 -6.84672818e-02 -3.60233299e-02  4.85934177e-03 -1.33280188e-01
  1.24180436e-01 -1.21295370e-01  2.79050201e-01 -4.78879996e-02
 -2.05095321e-01 -1.27230212e-01 -1.29755111e-02  2.34073356e-01
 -1.97822824e-01 -9.69828069e-02 -8.07859227e-02  2.56539341e-02
  7.47506768e-02 -2.56409659e-03  1.20161241e-02 -1.79890625e-03
 -7.18785748e-02 -4.21705693e-01 -8.58719647e-02 -7.16553256e-02
  1.23023596e-02 -1.87849235e-02 -7.74824843e-02  5.17598875e-02
 -1.84799418e-01 -1.00559190e-01 -9.25157976e-04  7.03461915e-02
 -4.78844456e-02 -6.79527447e-02  1.45755634e-01  9.25348699e-03
 -2.64551491e-01  3.66037041e-02  5.56915589e-02  2.16707423e-01
  2.13685989e-01  6.44040182e-02  5.23909815e-02 -1.27001151e-01
  1.16318300e-01 -1.86934516e-01  1.67969596e-02  8.17449391e-02
  4.01864909e-02  6.42411858e-02  4.59833145e-02 -1.51027963e-01
 -7.65203452e-03  9.09445584e-02 -1.51652277e-01 -2.50819456e-02
  6.22631498e-02 -9.83884484e-02 -3.85000999e-03 -7.86195099e-02
  1.76806316e-01  7.20453486e-02 -8.69313106e-02 -1.24801241e-01
  1.49740919e-01 -1.33892134e-01 -3.31344120e-02  2.70427112e-02
 -1.43544942e-01 -1.71819404e-01 -3.19007277e-01  6.14584982e-03
  3.84592503e-01  8.78829584e-02 -1.78389251e-01 -1.52505562e-02
 -3.63664366e-02 -1.45334890e-02  1.88262016e-01  1.84129834e-01
  7.63584301e-02  9.57557000e-04 -7.00218901e-02 -2.86461096e-02
  1.97584078e-01 -7.23767579e-02  2.68351287e-04  2.37765715e-01
 -2.50376556e-02  3.56702320e-02  8.16066936e-03  2.23418828e-02
 -7.99301863e-02  6.78432435e-02 -1.43176392e-01 -1.32043213e-02
 -3.30702023e-04 -2.55788807e-02 -2.38214824e-02  8.13926831e-02
 -1.47120088e-01  9.33466628e-02  5.43326652e-03  6.70736656e-02
  3.64398584e-02 -7.04565644e-02 -6.38695434e-02 -5.94443642e-02
  1.04410805e-01 -1.84827283e-01  1.89390585e-01  2.24644735e-01
 -3.53666507e-02  1.20404184e-01  9.84837636e-02  7.34232366e-02
 -1.44288037e-02 -4.44657505e-02 -2.41450146e-01 -1.22659449e-02
  1.10628866e-01 -2.74719875e-02  5.22880517e-02 -2.69875657e-02]