[-0.1097227   0.09350529  0.12164781 -0.05349743 -0.08662536 -0.02042928
 -0.03147166 -0.14460574  0.14047578 -0.14458245  0.23916793 -0.06728427
 -0.21944022 -0.0991286  -0.04534354  0.25548634 -0.19305098 -0.13612731
 -0.05674467  0.03768681  0.05734243 -0.00971392  0.02230408  0.01050253
 -0.11110195 -0.41387239 -0.08795262 -0.05109876 -0.02148728 -0.04335737
 -0.09266805  0.05446427 -0.17966425 -0.07342339  0.02926689  0.09662727
 -0.0498487  -0.07429428  0.11785574 -0.02672345 -0.30539218  0.03305693
  0.07590583  0.22617224  0.19352423  0.06035678  0.04832667 -0.14240272
  0.13333553 -0.17546968  0.01821711  0.07297071  0.05860208  0.03634652
  0.03132161 -0.15673944 -0.01785869  0.1365034  -0.11577421 -0.00850842
  0.07997417 -0.08485541 -0.01318712 -0.09858869  0.18812524  0.06037993
 -0.12940668 -0.15319714  0.15180163 -0.11612663 -0.0205646   0.03167911
 -0.1546865  -0.19759071 -0.30729961 -0.02254312  0.35873932  0.06764731
 -0.17118347  0.00611692 -0.02667107  0.04177008  0.12047719  0.19675981
  0.04099005  0.04405079 -0.06589218 -0.03455822  0.22477706 -0.08695155
  0.00269604  0.22255979 -0.03035566  0.03131033 -0.00713038  0.01931945
 -0.09861512  0.06636354 -0.15905266 -0.02014906  0.00246507 -0.0234807
 -0.02441747  0.1059603  -0.16302846  0.11880117  0.00221548  0.08254629
  0.05517728 -0.02187553 -0.07537582 -0.09133085  0.10880512 -0.20980075
  0.17065673  0.23924866  0.02980894  0.11232229  0.12188353  0.06289189
  0.01522549 -0.00242635 -0.23688531 -0.01111895  0.13515235 -0.06355391
  0.05744414 -0.01880255]