[-0.10020121  0.06558165  0.09839299 -0.02773373 -0.06394676 -0.05509327
 -0.02889609 -0.1535302   0.11805488 -0.09136794  0.25472987 -0.04102802
 -0.20279959 -0.14131883 -0.03781357  0.22871666 -0.15013473 -0.11343455
 -0.0345129   0.05316527  0.07326399  0.00757284  0.04724648  0.02035995
 -0.06547635 -0.37904724 -0.10588056 -0.04943369  0.01558474 -0.01692266
 -0.10336347  0.04507041 -0.1819098  -0.10638388  0.06802363  0.08436507
 -0.04708072 -0.0592329   0.15423293 -0.01487008 -0.27527207  0.02705391
  0.07246091  0.21888414  0.20577875  0.08610894  0.0339641  -0.18088143
  0.11455323 -0.18843558  0.05046293  0.06850978  0.07648785  0.04167068
 -0.00320587 -0.15742682  0.00733809  0.11798209 -0.15503655  0.00386177
  0.05963794 -0.09105249 -0.03301954 -0.0609923   0.20555548  0.06749387
 -0.13579811 -0.15716121  0.12282427 -0.14092381 -0.03280617  0.06543434
 -0.1319773  -0.19124754 -0.32020837 -0.01255028  0.3958548   0.05773227
 -0.20070894  0.01654111 -0.04308071  0.02821266  0.15280983  0.18578842
  0.02548531  0.01583285 -0.07404566 -0.05607549  0.21602808 -0.09124251
 -0.01084283  0.25014195 -0.01378192  0.10164865  0.01348817  0.05824542
 -0.04425022  0.06637811 -0.13573436 -0.03190715  0.04195875 -0.00949756
  0.02079505  0.11147247 -0.17821585  0.11422994  0.00859316  0.08454954
  0.10719748 -0.05707413 -0.06710462 -0.10083493  0.09252463 -0.23417473
  0.19771154  0.21445802  0.02783599  0.11193317  0.1185438   0.07162517
  0.02068663 -0.03697605 -0.22553395  0.02098885  0.13756254 -0.05788801
  0.06919374 -0.01746472]