[-0.07820504  0.10335379  0.11997765  0.00861532 -0.10319563 -0.00480895
 -0.02111408 -0.19144419  0.15499045 -0.16185208  0.26496911 -0.06408054
 -0.24529715 -0.11544815 -0.00466042  0.24081071 -0.18655547 -0.11303317
 -0.03590226 -0.00481644  0.0158499  -0.01084979  0.03633698  0.02092759
 -0.12322328 -0.43261716 -0.10053792 -0.08210839 -0.04904148 -0.05937003
 -0.0855271   0.08357766 -0.18240844 -0.07890671  0.02267689  0.09131601
 -0.07615121 -0.05965775  0.11636139 -0.02340922 -0.2483145   0.02981062
  0.05890116  0.21248917  0.19945291  0.05224427  0.04754015 -0.10836438
  0.11938274 -0.14901938 -0.00288556  0.08636891  0.04572812  0.05432537
  0.02648528 -0.18135278 -0.06051169  0.12086566 -0.12112036 -0.01275339
  0.06660112 -0.09942403 -0.02708528 -0.06292739  0.20652263  0.09933931
 -0.11117496 -0.13213848  0.16883078 -0.1428111  -0.01398024  0.02250794
 -0.18877189 -0.20594667 -0.27653161 -0.00306705  0.3523756   0.06027803
 -0.16969302 -0.04777737 -0.00808364  0.04362621  0.10072684  0.20568199
  0.07985043  0.00453622 -0.03979966 -0.0143748   0.18613556 -0.07097368
 -0.00820994  0.24001983 -0.0545918   0.02341959  0.01000186 -0.00782665
 -0.09557389  0.04309319 -0.15666734 -0.03373703 -0.03105215 -0.03222979
 -0.02218007  0.09648575 -0.14614598  0.12884484 -0.00984962  0.07055696
  0.03321486 -0.02812588 -0.0645413  -0.06246151  0.13430624 -0.22788969
  0.20905423  0.21781044 -0.01609947  0.13956361  0.04468675  0.08715004
 -0.00799447 -0.01728965 -0.22412601 -0.02777797  0.10020059 -0.06913821
  0.04124629 -0.05201941]