[-0.09686847  0.11039746  0.11435296 -0.02089857 -0.0843102  -0.01745854
 -0.02121164 -0.12585114  0.10814398 -0.13817205  0.28377864 -0.04391271
 -0.22192104 -0.1178864  -0.03103732  0.22187679 -0.19073799 -0.10879491
 -0.06378125  0.035928    0.06114415  0.00596998  0.00116712 -0.02995115
 -0.08883774 -0.4166511  -0.09239282 -0.04547809  0.03276759 -0.04805381
 -0.08259191  0.05452107 -0.17855065 -0.08206945  0.02161737  0.08269481
 -0.03566244 -0.06939793  0.1384943   0.01436615 -0.2773695   0.03941493
  0.03722102  0.24560113  0.21858346  0.05277757  0.03804212 -0.13941948
  0.11527532 -0.17163579  0.02046278  0.08636748  0.06406989  0.05957052
  0.02985287 -0.14534301 -0.0016097   0.09354319 -0.16215397 -0.05847784
  0.04565241 -0.09109086  0.01537943 -0.08380633  0.1649331   0.03557381
 -0.09421895 -0.14180525  0.1473835  -0.15034597 -0.02495302  0.04156595
 -0.1367287  -0.17766671 -0.32947427 -0.00363684  0.38500437  0.0995298
 -0.16927449  0.02168761 -0.01413818 -0.04288537  0.16268826  0.20148073
  0.06199039  0.02940264 -0.04578233 -0.01748227  0.21342178 -0.07886183
 -0.01694525  0.21782379 -0.02891833  0.03497239  0.02921177  0.01638146
 -0.06647097  0.05275631 -0.12214601 -0.01883052 -0.01994937 -0.05116793
 -0.02829653  0.09652598 -0.16812268  0.12604082  0.01130734  0.0605589
  0.03949603 -0.0778986  -0.04646239 -0.05496742  0.11390654 -0.24117596
  0.18275113  0.23743521 -0.0109361   0.13067161  0.09962577  0.05094707
 -0.00405464 -0.03409855 -0.22922723 -0.03186001  0.09780883 -0.05369882
  0.07205037 -0.03253196]