[-1.08794190e-01  1.00469068e-01  1.20567754e-01 -2.50388365e-02
 -5.11070490e-02 -3.75135504e-02 -1.47109302e-02 -1.37242362e-01
  1.22480705e-01 -1.41160995e-01  2.84385979e-01 -5.20724766e-02
 -1.98557764e-01 -1.28401473e-01 -1.78642869e-02  2.11878926e-01
 -1.85159728e-01 -1.15736246e-01 -5.98400608e-02  3.12491208e-02
  6.49573430e-02  2.10238068e-04  3.81651218e-03 -1.15394294e-02
 -7.97111467e-02 -4.01994199e-01 -9.99776646e-02 -6.23140596e-02
  4.81622927e-02 -3.22428532e-02 -8.00619647e-02  4.40571494e-02
 -1.85801104e-01 -9.12439749e-02  4.00706148e-03  7.80631080e-02
 -1.13240574e-02 -5.56213856e-02  1.30776972e-01  2.46385206e-02
 -2.69702196e-01  2.20993366e-02  1.77335069e-02  2.49091074e-01
  2.02754065e-01  6.07723892e-02  4.14554700e-02 -1.19119167e-01
  1.03524245e-01 -1.66765079e-01  8.96684080e-03  8.11883509e-02
  7.02021718e-02  4.73728068e-02  2.79494822e-02 -1.48388699e-01
 -1.49320066e-02  8.01862478e-02 -1.32763192e-01 -3.11789159e-02
  4.73591760e-02 -7.07341284e-02  1.42754260e-02 -8.00736547e-02
  1.69182613e-01  3.31776738e-02 -1.05812572e-01 -1.14084415e-01
  1.39873236e-01 -1.33502051e-01 -2.67811120e-02  3.05383708e-02
 -1.43108517e-01 -1.63945004e-01 -3.23277801e-01 -9.31600947e-03
  3.96258265e-01  7.30403066e-02 -1.74948320e-01  1.09330891e-02
 -3.70691195e-02 -2.49090400e-02  1.53912574e-01  1.93452865e-01
  5.40494993e-02  4.91338708e-02 -4.59637344e-02 -2.58262251e-02
  2.05411077e-01 -7.20145479e-02 -3.43168015e-03  2.14837581e-01
 -4.93744873e-02  5.05431071e-02  8.21030140e-03  1.95441414e-02
 -5.19692563e-02  5.64252101e-02 -1.10782735e-01 -1.00630503e-02
 -1.35170771e-02 -4.51525562e-02 -2.51913350e-02  9.20515880e-02
 -1.78682595e-01  1.17614701e-01  3.02072503e-02  7.10258409e-02
  4.69127148e-02 -3.54973115e-02 -5.20959273e-02 -6.29746020e-02
  1.11835815e-01 -2.15221167e-01  1.71276674e-01  2.56715029e-01
 -1.73941404e-02  1.19205594e-01  9.81741324e-02  5.46708293e-02
 -4.94853174e-03 -1.97431203e-02 -2.21313670e-01 -3.30076404e-02
  8.41167569e-02 -4.84316051e-02  4.89589758e-02 -2.62404922e-02]