[-0.07440067  0.10915139  0.12990536  0.02034931 -0.09734631 -0.00283152
 -0.02560483 -0.18574832  0.15058939 -0.15434955  0.26231503 -0.0733
 -0.24922566 -0.09755695 -0.01065655  0.23006701 -0.1849796  -0.12314089
 -0.02919707 -0.02596799  0.02600159 -0.01661436  0.02022972  0.00748862
 -0.13074934 -0.41027775 -0.07461505 -0.06771155 -0.05356195 -0.06370738
 -0.09924866  0.08464038 -0.18980907 -0.0751791   0.0219337   0.09608946
 -0.07479158 -0.06442287  0.11549926 -0.0395903  -0.23557368  0.03531117
  0.06369467  0.21304159  0.20800184  0.05193366  0.03208436 -0.10825437
  0.12276488 -0.14703415  0.00414228  0.10148318  0.0532443   0.05185754
  0.02170591 -0.18150899 -0.06842512  0.1164612  -0.1079753  -0.00739046
  0.08216997 -0.10752678 -0.02005262 -0.08626019  0.19787085  0.08859921
 -0.09765173 -0.1311736   0.16872631 -0.13783668 -0.03125498  0.01413193
 -0.18828115 -0.20715038 -0.28331792 -0.00341575  0.343142    0.06642378
 -0.16211559 -0.03146408  0.00859303  0.04834194  0.10769639  0.19409306
  0.07100928  0.00854895 -0.04125932 -0.00763945  0.20471342 -0.05830079
 -0.03011497  0.22145084 -0.06008082  0.01017136  0.01342914 -0.02161327
 -0.07968187  0.04364786 -0.17048195 -0.03265656 -0.04235957 -0.04499893
 -0.02602532  0.1059648  -0.15051918  0.10941374 -0.0132692   0.08097633
  0.02596209 -0.02515629 -0.07235583 -0.05234858  0.13464089 -0.23263441
  0.20408249  0.21417771  0.01054234  0.13441007  0.04497502  0.08142206
  0.00461239 -0.00837016 -0.2313336  -0.03370516  0.09485201 -0.05649056
  0.05920633 -0.02480935]