[-0.07976555  0.11017882  0.08716986 -0.04778044 -0.05398783 -0.01509045
 -0.03410571 -0.15277784  0.14928342 -0.14859317  0.28685939 -0.05974595
 -0.22308187 -0.14169407 -0.04042036  0.21477614 -0.22091837 -0.1079616
 -0.03621178  0.03690981  0.05292071 -0.01478172  0.038153    0.00832331
 -0.0826535  -0.40927193 -0.09268823 -0.09350344 -0.02050553 -0.04524943
 -0.08948975  0.05996973 -0.15782666 -0.06518096 -0.02465211  0.0528107
 -0.0210376  -0.05322979  0.15669696  0.01595317 -0.26310447  0.00734222
  0.03317653  0.23811188  0.20326698  0.04303673  0.03249324 -0.12776218
  0.09880175 -0.16105719  0.02236012  0.08402808  0.0469459   0.02087895
  0.02325462 -0.1497142  -0.03360712  0.08597571 -0.12366779 -0.02133821
  0.07068222 -0.08724554 -0.02743351 -0.07553003  0.21505845  0.10523248
 -0.09729411 -0.14873311  0.16305584 -0.13310418 -0.0504236   0.04325522
 -0.14513917 -0.17338416 -0.27991581 -0.02663406  0.35233033  0.07242744
 -0.18932763 -0.01090921 -0.05427241 -0.01637594  0.18467751  0.19524638
  0.06069794  0.03764543 -0.07649115 -0.04638667  0.20121284 -0.07314627
 -0.02341818  0.23614089 -0.03388513  0.04080707  0.03342915 -0.00710924
 -0.05638565  0.07855634 -0.16342008 -0.01577573  0.00752029 -0.03937588
 -0.04325816  0.08289672 -0.14219765  0.0854575   0.02514404  0.06015443
  0.06486299 -0.05315188 -0.0610719  -0.08257913  0.13861494 -0.21221264
  0.16377287  0.19341886  0.02444724  0.12406416  0.09988227  0.0892387
 -0.0150194  -0.04512236 -0.2504538   0.0033351   0.10295206 -0.04017839
  0.06484019 -0.02903934]