[-0.12467593  0.09178469  0.14370684 -0.01209707 -0.09382377 -0.04601312
 -0.01436543 -0.15544538  0.12888061 -0.11306776  0.27559659 -0.03923237
 -0.24446905 -0.12705414  0.00168443  0.23657672 -0.19989683 -0.1018469
 -0.07198202 -0.00586724  0.04862828 -0.02142558  0.0230113  -0.00951722
 -0.1157551  -0.42097273 -0.06246888 -0.07355759 -0.05669943 -0.02780068
 -0.08867033  0.07021262 -0.18372861 -0.0991384   0.02969577  0.11656366
 -0.05668043 -0.05439894  0.12194905 -0.02898316 -0.25656971  0.05049894
  0.09647962  0.21121259  0.21167374  0.04619928  0.052514   -0.12914802
  0.12623079 -0.16115998  0.00050397  0.08884832  0.07387355  0.03439198
  0.07009824 -0.16135484 -0.01380478  0.07495536 -0.13817631 -0.01292412
  0.09646798 -0.13533111 -0.04035081 -0.08816554  0.17527729  0.0751043
 -0.09245757 -0.12616897  0.1418584  -0.12380832 -0.03853941  0.01404613
 -0.1727946  -0.19627453 -0.32846603 -0.0175916   0.35747591  0.07644647
 -0.20380519 -0.0019902  -0.01790121  0.02497881  0.15706682  0.19706096
  0.07804406  0.0280218  -0.07943919 -0.0068367   0.18799712 -0.08463748
  0.00916596  0.22321594 -0.00977256  0.01998955  0.01863313 -0.0156653
 -0.09350109  0.03936998 -0.17728148 -0.03100801 -0.00760078 -0.04346874
 -0.00147483  0.05283765 -0.14853303  0.05956547  0.01013834  0.06258281
  0.02909779 -0.05374461 -0.06714752 -0.07659946  0.10226089 -0.21273188
  0.2003932   0.2316215  -0.02515957  0.12326908  0.08157648  0.0722973
 -0.01497022 -0.00239873 -0.19272055 -0.01684141  0.08083585 -0.0289727
  0.0740533  -0.02108854]