[-0.11339395  0.10466373  0.12879221 -0.05056454 -0.09688222 -0.00852467
 -0.03807555 -0.14756414  0.1506502  -0.14767535  0.24804334 -0.06733644
 -0.22383754 -0.09137159 -0.05629544  0.27247509 -0.19359574 -0.14339276
 -0.05082867  0.03696888  0.0565528  -0.00242696  0.03075808  0.00312084
 -0.11601269 -0.42322657 -0.10520964 -0.03643753 -0.0307376  -0.04593528
 -0.07777342  0.06130106 -0.16929404 -0.0613105   0.02424772  0.09281677
 -0.05608683 -0.0840286   0.11801281 -0.02535996 -0.3066743   0.03570712
  0.09272763  0.23237546  0.20748666  0.05976517  0.04696928 -0.15106431
  0.12477598 -0.16948521  0.01446589  0.07250383  0.0555603   0.04435311
  0.03351423 -0.14736599 -0.02247933  0.15144043 -0.11236196 -0.01354121
  0.07262    -0.08887015 -0.00910685 -0.10148896  0.19611955  0.07165213
 -0.13031487 -0.15276091  0.16658895 -0.10714728 -0.03249356  0.02915171
 -0.16717093 -0.19912334 -0.31992707 -0.02681101  0.3577303   0.05558402
 -0.16284704  0.00758604 -0.00327116  0.04953224  0.10575119  0.21072762
  0.02898412  0.02282686 -0.06958897 -0.03104214  0.22792076 -0.08827505
 -0.00309532  0.22834134 -0.03013491  0.03016055 -0.00432061  0.03756205
 -0.09607719  0.06784519 -0.16825949 -0.02728244  0.00421662 -0.01521244
 -0.02484468  0.11176758 -0.15094994  0.11746436  0.00526061  0.08744822
  0.05324868 -0.02412548 -0.06841352 -0.0827804   0.1132347  -0.20712507
  0.16802888  0.23006062  0.02042725  0.11510897  0.12784064  0.07784622
  0.00624746 -0.00828503 -0.23330608 -0.00221916  0.13346142 -0.0636815
  0.06199744 -0.00557396]