[-0.11033703  0.08058093  0.12693016 -0.01428876 -0.06147501 -0.02468389
 -0.00056073 -0.17880416  0.12788074 -0.13173358  0.24066196 -0.09319719
 -0.2354029  -0.12752485 -0.00909813  0.25769013 -0.19428919 -0.14634344
 -0.04400304 -0.01076138  0.0401079  -0.02191309 -0.00801844  0.03208588
 -0.12298273 -0.40919158 -0.10130457 -0.06804215 -0.00753767 -0.04409236
 -0.09772237  0.0830811  -0.18855803 -0.07876857  0.02970787  0.110484
 -0.04569136 -0.07464369  0.14675264 -0.00751796 -0.2450577   0.02177302
  0.08007801  0.21122813  0.20852092  0.08258116  0.03151764 -0.07803919
  0.12098183 -0.18780853  0.00594157  0.09594351  0.06414542  0.07276096
  0.00704468 -0.19295059 -0.04392855  0.09348779 -0.14551707 -0.01675508
  0.04878407 -0.12208746 -0.02293603 -0.05653035  0.19489692  0.09006386
 -0.11738272 -0.12132829  0.17382567 -0.15531716 -0.0150951  -0.00074564
 -0.16271088 -0.16538863 -0.30899638 -0.00542301  0.34740099  0.05895487
 -0.18407732 -0.02275519 -0.00501721  0.03073188  0.12555751  0.19017418
  0.06046122  0.01038999 -0.05116097 -0.04372869  0.19495516 -0.05260041
  0.00386265  0.23155479 -0.04332067  0.04735429  0.00621044  0.0133289
 -0.07397642  0.02856491 -0.12581396 -0.02107898 -0.01345904 -0.00444742
 -0.01080694  0.1149106  -0.15270989  0.12775503 -0.00533313  0.07564602
  0.0172181  -0.02950633 -0.07110834 -0.06822223  0.11504151 -0.21412317
  0.17104173  0.24591251 -0.0475426   0.11355374  0.07347991  0.07597993
  0.00383884 -0.01093283 -0.23616688 -0.03464354  0.11660583 -0.06685638
  0.04102702 -0.02021372]