[-0.10560664  0.06314715  0.08987853 -0.03044907 -0.0708257  -0.05150172
 -0.02256647 -0.15056464  0.11656499 -0.09044947  0.2573092  -0.03093747
 -0.19049558 -0.14847741 -0.03775773  0.22851968 -0.15776649 -0.1121214
 -0.04100675  0.04274793  0.07085276  0.00598262  0.04039832  0.02161391
 -0.05655305 -0.37420058 -0.10335485 -0.04685655  0.02414922 -0.02114233
 -0.09704371  0.04498075 -0.19356941 -0.11680648  0.06710657  0.09393132
 -0.04836488 -0.05607512  0.15388371 -0.02175554 -0.25465184  0.03967871
  0.08009737  0.22597559  0.2033134   0.08881204  0.03128431 -0.1747791
  0.12305295 -0.19315113  0.04680267  0.06475452  0.08623585  0.04238817
  0.00064922 -0.153697    0.01906498  0.10945377 -0.15850899  0.00878123
  0.05682416 -0.09561364 -0.03954303 -0.06217067  0.21143544  0.06611022
 -0.12923847 -0.15753466  0.12282103 -0.13676272 -0.04015526  0.05612702
 -0.13128889 -0.18589631 -0.33237395 -0.00217122  0.39805314  0.06757987
 -0.20602332  0.02419518 -0.03016651  0.03093453  0.15237206  0.18515757
  0.01367507  0.02032456 -0.08054446 -0.03902333  0.2084972  -0.08429835
 -0.01744238  0.24479608 -0.00650587  0.10458227  0.01859141  0.05686722
 -0.04192439  0.05967873 -0.14589489 -0.02888396  0.05913454 -0.00485078
  0.02427707  0.11500055 -0.16946052  0.11519512 -0.00464042  0.07932728
  0.09350058 -0.06194727 -0.07036803 -0.08546951  0.08814653 -0.22939232
  0.206458    0.21464364  0.01873118  0.11228207  0.12196837  0.06642111
  0.01788474 -0.03112575 -0.22401968  0.01104142  0.13734639 -0.06004199
  0.08258508 -0.01300689]