[-0.1090671   0.09600367  0.1287826  -0.04782581 -0.08401797 -0.02143934
 -0.03048538 -0.14865637  0.15030095 -0.13946207  0.2397313  -0.06600932
 -0.21950458 -0.09363778 -0.04122347  0.26823816 -0.19990186 -0.13774529
 -0.05634538  0.0360896   0.05567044 -0.01835972  0.01902105  0.01143777
 -0.12802415 -0.41114879 -0.09627534 -0.04349838 -0.02452886 -0.04459365
 -0.088802    0.04897493 -0.17704336 -0.07372855  0.02708374  0.09222583
 -0.04747    -0.08866594  0.11452261 -0.0359277  -0.31139067  0.04343699
  0.0794215   0.22185998  0.20041032  0.05126366  0.05218199 -0.14299598
  0.13844018 -0.17256616  0.00842099  0.0589771   0.05957777  0.0437068
  0.02839294 -0.15463878 -0.02592643  0.14783891 -0.1139331  -0.01672962
  0.0698401  -0.08652312 -0.00691624 -0.10238159  0.18394001  0.06599122
 -0.13267019 -0.1520368   0.14981298 -0.11245991 -0.01869812  0.03101904
 -0.15794033 -0.1957922  -0.32849324 -0.03041412  0.36289796  0.06022797
 -0.17507121  0.00176239 -0.02054559  0.05664474  0.11326482  0.203418
  0.04215267  0.04429729 -0.06311972 -0.02997651  0.22963159 -0.08617681
 -0.00309965  0.22261827 -0.02708689  0.03803019 -0.01400529  0.0288759
 -0.0946568   0.06089235 -0.15195946 -0.01844082  0.00390782 -0.00259566
 -0.01569323  0.11289821 -0.15965764  0.12428375  0.01166627  0.09395538
  0.05705316 -0.00758041 -0.06556856 -0.08804358  0.10590439 -0.21872245
  0.16259886  0.24184787  0.01353467  0.10620254  0.10772928  0.06006698
  0.00268595  0.00392923 -0.23221862 -0.00154652  0.13370125 -0.06527036
  0.06659352 -0.01370781]