[-1.27708718e-01  4.61884513e-02  1.49824306e-01 -1.44202681e-02
 -7.99656436e-02 -8.11073333e-02 -1.44755272e-02 -1.73811868e-01
  1.09676436e-01 -8.54379684e-02  2.28068665e-01 -4.80283014e-02
 -2.18505979e-01 -9.45492610e-02 -2.44363230e-02  2.40678936e-01
 -1.54954448e-01 -1.17814578e-01 -8.20662379e-02  2.96456516e-02
  3.64935771e-02 -2.35649082e-03  4.49870825e-02 -6.46693865e-03
 -9.46252868e-02 -3.78431618e-01 -1.01762407e-01 -4.35126759e-02
 -1.64705707e-04 -1.48625141e-02 -9.11818668e-02  5.51343337e-02
 -1.83030769e-01 -1.06221333e-01  8.33997652e-02  9.24539566e-02
 -5.41108251e-02 -7.60021135e-02  1.45609051e-01 -5.75698726e-02
 -2.89101243e-01 -5.91739407e-03  1.08129792e-01  1.93192706e-01
  2.00918913e-01  7.44065344e-02  3.25786732e-02 -1.75390750e-01
  1.00494660e-01 -2.00741693e-01  1.26243951e-02  7.18722865e-02
  5.17491102e-02  5.87663651e-02  2.68811267e-02 -1.63249061e-01
  5.32701705e-03  1.20815329e-01 -1.57374486e-01 -1.10859210e-02
  5.90831824e-02 -9.06047747e-02 -3.70327607e-02 -7.97347501e-02
  2.06581116e-01  7.67208412e-02 -1.43431008e-01 -1.32861570e-01
  1.37035593e-01 -1.35178179e-01 -1.21598616e-02  3.48006375e-02
 -1.35333419e-01 -2.00615525e-01 -3.22777450e-01 -6.23411909e-02
  3.83364171e-01  4.47631143e-02 -2.03231692e-01  6.51013572e-03
 -6.49616942e-02  2.14030091e-02  1.19664863e-01  1.65761203e-01
  2.90590357e-02  3.94807197e-02 -5.01787551e-02 -3.57582346e-02
  2.22864181e-01 -1.03889801e-01  2.62066070e-02  2.33499199e-01
 -1.22605441e-02  5.09035364e-02 -2.96601281e-03  5.42996712e-02
 -7.08688423e-02  4.20318544e-02 -1.60038412e-01 -4.12764028e-02
  3.98146026e-02  1.88427721e-03  4.31475602e-02  1.13961220e-01
 -1.80465683e-01  1.13636486e-01  3.17077525e-02  7.10360333e-02
  9.36343372e-02 -5.68191707e-02 -6.24158457e-02 -1.13099650e-01
  1.08373120e-01 -2.26159528e-01  2.00166628e-01  2.38402441e-01
 -2.01697964e-02  1.03393905e-01  8.40473473e-02  6.49951175e-02
  6.10860903e-03 -5.85652236e-03 -1.96450457e-01  1.52624818e-02
  1.24686241e-01 -6.31646141e-02  4.95326482e-02 -9.00884531e-03]