[-0.12352627  0.07746041  0.11881101 -0.04664887 -0.07954834 -0.02373273
 -0.02200721 -0.14649761  0.13703474 -0.14291343  0.24014273 -0.06387044
 -0.21779533 -0.10055613 -0.05095155  0.2642771  -0.18891114 -0.13737501
 -0.06418597  0.03282066  0.04788201 -0.01550293  0.02304412  0.01404
 -0.11998367 -0.40788326 -0.09967629 -0.04232057 -0.03752    -0.03647211
 -0.07872214  0.06482426 -0.17509826 -0.0708876   0.02980557  0.09218542
 -0.04275391 -0.07258776  0.11773305 -0.02489572 -0.29529187  0.0368627
  0.09474181  0.23669866  0.20579533  0.05978402  0.04915686 -0.14134911
  0.12936942 -0.18216252  0.01582046  0.05519483  0.05400665  0.03635279
  0.03279891 -0.15477887 -0.01882488  0.13976498 -0.11966727  0.00085043
  0.06403479 -0.09361551 -0.02361645 -0.09733716  0.17885847  0.07260566
 -0.12913676 -0.15713428  0.16312946 -0.12313365 -0.01831184  0.02984573
 -0.15834941 -0.19978182 -0.33159426 -0.02742539  0.35820037  0.06611677
 -0.16325693  0.01045007 -0.00916407  0.04956711  0.11412636  0.19913463
  0.03463678  0.03062738 -0.06546339 -0.02828172  0.22380722 -0.07373039
 -0.0092038   0.22124353 -0.03053052  0.01608227 -0.00161553  0.0339503
 -0.09305809  0.05950775 -0.16537999 -0.02061403  0.00642678 -0.0194078
 -0.01267244  0.10385025 -0.15787785  0.11722346 -0.00302627  0.08385836
  0.05072808 -0.02163464 -0.0774355  -0.07502875  0.10670574 -0.20892921
  0.16317759  0.23801795  0.02239692  0.11102986  0.11845145  0.06433769
  0.00608533  0.00769438 -0.22907789 -0.00598215  0.12629566 -0.06456601
  0.07055923 -0.00800579]