[-0.08768173  0.10551673  0.08383369 -0.06821091 -0.05647928 -0.00622353
 -0.04028032 -0.1510701   0.15520771 -0.16089603  0.28251573 -0.07845055
 -0.23391974 -0.10851576 -0.04801871  0.24137972 -0.24534474 -0.11857285
 -0.04662759  0.01299655  0.03145503 -0.01988286  0.00504897  0.02444782
 -0.10018773 -0.40496537 -0.07146382 -0.07513749 -0.03520015 -0.03837482
 -0.07027572  0.07418796 -0.16329318 -0.04314698 -0.00087901  0.09685842
 -0.02265681 -0.07347977  0.13133626  0.01438288 -0.26986855  0.02059335
  0.05060555  0.24673045  0.20753157  0.03530887  0.01332381 -0.12283418
  0.11525887 -0.16915193 -0.00700853  0.09439904  0.03730142  0.03211083
  0.02330681 -0.15558939 -0.01520974  0.10014305 -0.12816384 -0.03734536
  0.08159979 -0.10460997 -0.00756677 -0.08878648  0.21420665  0.11272749
 -0.11474204 -0.1354934   0.17618273 -0.12585914 -0.03919774  0.02713618
 -0.14900315 -0.18378022 -0.27032396 -0.02321297  0.34993997  0.09290767
 -0.18291488 -0.01287965 -0.02046902  0.00679732  0.18285172  0.21491306
  0.06323472  0.02573449 -0.06659913 -0.03754595  0.20791045 -0.05340542
 -0.01709121  0.23357077 -0.04772313  0.01351318  0.03028587 -0.01024631
 -0.08271446  0.06935804 -0.17289495 -0.02771483 -0.00738329 -0.03633151
 -0.03296166  0.08868568 -0.12861343  0.09086186  0.01847789  0.0644594
  0.05863626 -0.02721177 -0.03807284 -0.0771083   0.13807921 -0.20544074
  0.17312665  0.19756548  0.03064283  0.12489893  0.09984484  0.09236566
 -0.01634554 -0.03853409 -0.23744141 -0.01259895  0.08064552 -0.04486886
  0.07984772 -0.03783044]