[-0.0902136   0.10890724  0.1214601  -0.03458624 -0.0516135  -0.00515415
 -0.01023535 -0.14422803  0.13163839 -0.12032845  0.26818109 -0.01899211
 -0.23499325 -0.14611059  0.00497053  0.23529318 -0.16489922 -0.13325526
 -0.05282174  0.04280071  0.01669697 -0.01915531  0.04641111  0.01198803
 -0.10673361 -0.42119685 -0.0925511  -0.04912969 -0.00285506 -0.02422906
 -0.09423105  0.08457611 -0.20373324 -0.06065556  0.04168676  0.09581972
 -0.06012305 -0.04468386  0.15134214  0.01227476 -0.26872239  0.00815496
  0.05864387  0.20431666  0.21058014  0.07506997  0.05542836 -0.13849413
  0.10474124 -0.1866326   0.03720919  0.1015994   0.03616852  0.05372835
  0.03371633 -0.21139799 -0.009682    0.10022383 -0.14056097 -0.03487555
  0.00617307 -0.07572637 -0.02461934 -0.05708847  0.19279644  0.09101241
 -0.09535357 -0.16575339  0.19322556 -0.14285587  0.00204721  0.06426992
 -0.14671755 -0.18607475 -0.28985402 -0.02940244  0.32070971  0.07754876
 -0.18964477  0.00210821 -0.04095153 -0.00938805  0.12523559  0.18034439
  0.04377465  0.01428031 -0.06286186 -0.0592942   0.21725193 -0.05870194
  0.01637505  0.24637337 -0.02165036  0.04724562  0.01796631  0.00091383
 -0.07910719  0.05618526 -0.17370942 -0.05052679 -0.03567461 -0.02409753
 -0.03249481  0.11447524 -0.19882129  0.11814678  0.01303482  0.05907282
  0.04311658 -0.05029681 -0.05364838 -0.08573454  0.10595049 -0.23729169
  0.20417082  0.23692083 -0.01319212  0.114425    0.10165326  0.07579312
  0.00874993 -0.04925862 -0.23727994 -0.00239977  0.11043318 -0.09250832
  0.0177729  -0.02960913]