[-1.55771717e-01  8.64088610e-02  1.08195178e-01 -2.23689619e-02
 -6.12038150e-02 -7.21395835e-02  5.78010408e-03 -1.50026113e-01
  8.76783580e-02 -1.02425657e-01  2.35874534e-01 -8.92150551e-02
 -2.45481476e-01 -8.68413821e-02 -5.05761579e-02  2.32703790e-01
 -1.69868752e-01 -1.26142502e-01 -7.47983828e-02  3.51983570e-02
  7.98275769e-02 -8.06713651e-04 -2.51028384e-03  9.87440068e-03
 -6.14926331e-02 -3.54372233e-01 -7.86993504e-02 -2.17670649e-02
  2.13373872e-03 -2.43614819e-02 -6.66020662e-02  3.13085429e-02
 -1.92604259e-01 -8.21793601e-02  5.63478470e-02  9.66881141e-02
 -5.93059175e-02 -7.78798535e-02  1.65182978e-01 -2.49645039e-02
 -2.80978054e-01  7.07962224e-03  8.80759880e-02  2.31089950e-01
  1.89066708e-01  7.46758580e-02  2.43684892e-02 -1.58547074e-01
  9.10038650e-02 -2.05754325e-01 -1.32730408e-02  9.49377641e-02
  8.04258585e-02  6.38385713e-02 -5.11581544e-03 -1.98201701e-01
  1.11213969e-02  1.00915961e-01 -1.32552266e-01 -3.29108164e-02
  5.00787273e-02 -1.04490235e-01 -1.61450710e-02 -6.22844286e-02
  2.07584843e-01  3.79717909e-02 -1.41712889e-01 -1.44939244e-01
  1.36307761e-01 -1.46263883e-01 -2.69701723e-02  5.50987311e-02
 -1.15146182e-01 -1.98914349e-01 -3.05684686e-01 -1.70497596e-02
  3.68640065e-01  4.51916419e-02 -1.83291942e-01  2.77838707e-02
 -3.94577980e-02  1.93786267e-02  1.40299246e-01  1.96358562e-01
  2.02661157e-02  4.05409858e-02 -6.86747953e-02 -4.70183380e-02
  2.23193124e-01 -1.03118382e-01 -7.04898173e-03  2.10070565e-01
 -4.27534012e-03  3.85158546e-02  7.16609368e-03  2.70392299e-02
 -4.99350242e-02  5.67540303e-02 -1.21268295e-01 -1.82836987e-02
  3.75550501e-02 -3.37304249e-02  1.09851360e-04  1.04167573e-01
 -1.86496228e-01  1.09799996e-01  1.23247281e-02  5.75018302e-02
  4.67269607e-02 -7.27427229e-02 -6.28164336e-02 -6.33243322e-02
  9.22226608e-02 -2.47599557e-01  2.04261646e-01  2.53247559e-01
 -1.34035889e-02  1.19072966e-01  1.20991290e-01  5.34043014e-02
  3.78958583e-02  8.28186981e-03 -2.11827666e-01 -2.12851278e-02
  1.29816636e-01 -3.94566990e-02  6.41803369e-02 -2.78065782e-02]