[-9.38424841e-02  1.12646244e-01  1.18640162e-01 -3.43049057e-02
 -4.75875065e-02 -1.80502497e-02 -5.57363313e-03 -1.49208829e-01
  1.35546207e-01 -1.10981740e-01  2.75762498e-01 -1.90272313e-02
 -2.36711621e-01 -1.42819092e-01  1.27787339e-02  2.26612240e-01
 -1.70910284e-01 -1.39513716e-01 -5.24791256e-02  4.19196300e-02
  2.52593458e-02 -1.53033361e-02  3.73889320e-02  1.13115534e-02
 -1.11605719e-01 -4.26008850e-01 -8.52999911e-02 -5.53393625e-02
 -9.01415478e-03 -2.47013997e-02 -9.02539268e-02  9.70944986e-02
 -2.09145144e-01 -6.54581413e-02  4.24832776e-02  1.06810465e-01
 -5.62346056e-02 -3.26864496e-02  1.53099224e-01  7.34523917e-03
 -2.60036975e-01  9.88231692e-03  6.10477142e-02  2.06249937e-01
  2.11930200e-01  7.11641014e-02  5.82706705e-02 -1.50185198e-01
  8.88110623e-02 -1.76972345e-01  3.61751094e-02  1.14010669e-01
  3.61203887e-02  6.77031726e-02  3.78284939e-02 -2.25206658e-01
  2.67150637e-04  7.38199502e-02 -1.51981801e-01 -3.33137177e-02
  1.24406489e-02 -7.98029825e-02 -2.05107760e-02 -4.77680601e-02
  1.96144283e-01  8.42998847e-02 -8.27861205e-02 -1.66315183e-01
  1.96531802e-01 -1.39404938e-01 -1.24009242e-02  5.84076531e-02
 -1.57095522e-01 -1.88808009e-01 -3.02816957e-01 -3.60887460e-02
  3.09304923e-01  7.70958439e-02 -1.98453590e-01  1.91005748e-02
 -4.28939722e-02 -1.64805055e-02  1.30976275e-01  1.70735419e-01
  4.59425859e-02  2.08527129e-02 -7.36939535e-02 -3.29580233e-02
  2.10199162e-01 -5.45653403e-02  1.26704602e-02  2.40672782e-01
 -2.39149425e-02  4.61251773e-02  2.91928742e-02  1.12056872e-02
 -7.69676492e-02  6.21395223e-02 -1.82159588e-01 -5.34211658e-02
 -1.99473407e-02 -1.91637557e-02 -2.63959821e-02  1.23462632e-01
 -1.97264388e-01  1.14386611e-01  1.43466098e-02  5.83138280e-02
  2.77317595e-02 -5.37230931e-02 -4.93749194e-02 -7.78795704e-02
  1.08426146e-01 -2.34490305e-01  2.25780010e-01  2.33859107e-01
 -2.21437495e-02  1.14338592e-01  8.97623748e-02  6.95477948e-02
 -4.02446858e-05 -5.46504520e-02 -2.46742770e-01  5.11538377e-03
  9.67520997e-02 -7.45025277e-02  2.54471954e-02 -1.19689964e-02]