[-0.10588068  0.10653762  0.1456323  -0.00476133 -0.09179203 -0.06123095
 -0.0157852  -0.16701153  0.11235823 -0.11809061  0.28781039 -0.05174084
 -0.2295537  -0.11800672 -0.01442546  0.22371411 -0.19047271 -0.09527102
 -0.07813742  0.01487816  0.05662673 -0.04082502  0.04049736 -0.01925865
 -0.08169466 -0.3854005  -0.06940299 -0.07928834 -0.01614433 -0.02268267
 -0.08974468  0.03733636 -0.18757121 -0.10252657 -0.00293549  0.05342025
 -0.06387024 -0.05110994  0.1436705  -0.03601472 -0.26203984  0.031998
  0.05577926  0.19554876  0.19522206  0.04941818  0.05952007 -0.15835994
  0.10296762 -0.16280425  0.0180052   0.07864584  0.08229561  0.03329463
  0.04465933 -0.16074009 -0.01422871  0.09059194 -0.11638045 -0.01518515
  0.09316495 -0.09363278 -0.04242593 -0.09020228  0.1877594   0.06916022
 -0.08560222 -0.12280446  0.12540704 -0.11055978 -0.03625635  0.03882333
 -0.14576061 -0.18662558 -0.31588054 -0.03222638  0.35793889  0.05797386
 -0.20551048 -0.02113022 -0.06443392  0.01608447  0.1637539   0.16596556
  0.05581177  0.02608101 -0.07935141 -0.02985218  0.18107784 -0.1225755
  0.01353082  0.22468229 -0.00117858  0.02161549 -0.00178516 -0.01263809
 -0.07393912  0.05930739 -0.15208043 -0.03062192  0.00761589 -0.03131385
 -0.01708892  0.04854482 -0.17314599  0.05994313  0.02270983  0.06616547
  0.05671316 -0.07263054 -0.06150674 -0.0917682   0.10811486 -0.21305881
  0.17770255  0.23354994 -0.0221637   0.11449351  0.09093156  0.06787474
 -0.01905375 -0.01649479 -0.21051982  0.00856437  0.11283772 -0.02615575
  0.04562024 -0.02254148]