[-1.13289490e-01  1.03496984e-01  9.40001011e-02 -4.55438197e-02
 -6.19003177e-02 -4.52343635e-02  1.21704896e-03 -1.36666730e-01
  1.49714381e-01 -1.18420117e-01  2.68814176e-01 -5.99295311e-02
 -2.11792380e-01 -1.19259715e-01 -1.98151004e-02  2.32461765e-01
 -2.24429920e-01 -1.02391280e-01 -5.89802936e-02  3.07350457e-02
  6.62641153e-02 -9.10740346e-03  3.60943377e-05  2.31013205e-02
 -8.36634785e-02 -4.23631519e-01 -8.35511386e-02 -7.46035129e-02
 -9.44292825e-03 -1.67827662e-02 -7.44187236e-02  7.72126243e-02
 -2.01112509e-01 -1.00184880e-01  4.31069732e-03  9.24123675e-02
 -4.11251485e-02 -8.37762728e-02  1.39574587e-01  5.84510202e-03
 -2.67620385e-01  2.56913360e-02  6.48306459e-02  2.21563444e-01
  2.04806283e-01  4.91223745e-02  3.82439122e-02 -1.27740726e-01
  1.19370833e-01 -1.75898105e-01  2.01166351e-03  9.01369452e-02
  4.04703729e-02  5.81208058e-02  2.99650487e-02 -1.71608865e-01
  3.21398606e-03  8.40134397e-02 -1.52188882e-01 -3.42345983e-02
  6.12877905e-02 -1.07936144e-01 -5.80902956e-03 -8.08245763e-02
  1.84742719e-01  8.34563971e-02 -8.93259570e-02 -1.23109162e-01
  1.58993348e-01 -1.30990937e-01 -2.26717480e-02  3.17002200e-02
 -1.49221629e-01 -1.93072110e-01 -3.10272962e-01  8.66803515e-04
  3.60327393e-01  8.75166655e-02 -1.76779419e-01 -5.38253831e-03
 -2.99548265e-02 -3.99793871e-03  1.88234970e-01  2.02041194e-01
  7.57914409e-02  9.80865676e-03 -7.30445758e-02 -2.18120571e-02
  2.09026769e-01 -5.90915754e-02 -8.48312955e-03  2.32173800e-01
 -3.52771804e-02  2.66209822e-02  1.36814089e-02  1.50114736e-02
 -7.61533007e-02  6.88891858e-02 -1.48197591e-01 -5.03791124e-03
  1.65171605e-02 -3.36529985e-02 -4.07989696e-02  9.45745483e-02
 -1.49810076e-01  7.38713220e-02  1.73539035e-02  5.78568839e-02
  3.88923101e-02 -7.09673166e-02 -5.61407991e-02 -6.52965382e-02
  1.08258367e-01 -1.92218482e-01  2.05159947e-01  2.14291126e-01
 -3.15405652e-02  1.36819899e-01  8.45477432e-02  7.77891502e-02
 -1.81058329e-02 -5.24418652e-02 -2.42541745e-01 -1.08366348e-02
  1.14427201e-01 -2.22509857e-02  6.39991090e-02 -3.83994170e-02]