[-0.11230125  0.09088335  0.14797905 -0.00180309 -0.08189262 -0.06422409
 -0.01687638 -0.16473933  0.1218457  -0.11200756  0.28769705 -0.04742752
 -0.22829293 -0.12368149 -0.0260771   0.22859351 -0.19481118 -0.09135224
 -0.0713459   0.01119747  0.05414335 -0.03117363  0.04463991 -0.01515776
 -0.08554246 -0.40746805 -0.0839335  -0.0767782  -0.03286271 -0.03236842
 -0.09615736  0.04226056 -0.19359952 -0.10153245  0.01086205  0.06806298
 -0.05497518 -0.05714419  0.12530141 -0.03559192 -0.25835842  0.02623013
  0.0819676   0.19102305  0.2074236   0.05442928  0.04490553 -0.15429771
  0.10862616 -0.16070667  0.02062792  0.0737619   0.080738    0.03435039
  0.05588081 -0.14993075 -0.02856824  0.09803918 -0.11268677 -0.0152503
  0.08337567 -0.10490351 -0.04395869 -0.09174778  0.18139094  0.08066598
 -0.09631941 -0.1176788   0.12732224 -0.12060616 -0.0275839   0.02843226
 -0.1449654  -0.19778374 -0.31639645 -0.02642962  0.36413902  0.06226611
 -0.20332122 -0.01595162 -0.05402693  0.01874978  0.15785046  0.1793659
  0.06152884  0.03424602 -0.08023513 -0.02354765  0.18437712 -0.10771598
  0.01345074  0.2229069  -0.0279191   0.03284054  0.00301484 -0.00883049
 -0.08373369  0.05328485 -0.16250923 -0.03537562 -0.00174098 -0.02258374
 -0.01937653  0.04414838 -0.15170442  0.04754186  0.02451086  0.05910667
  0.05583569 -0.07537489 -0.05858523 -0.09080944  0.09878067 -0.21476136
  0.18986331  0.21786132 -0.0289894   0.12958482  0.08296803  0.0769159
 -0.01726816 -0.02668351 -0.19603668  0.00939505  0.1098233  -0.02859976
  0.0603189  -0.0383743 ]