[-0.1441828   0.08512469  0.11158257 -0.03974091 -0.05687147 -0.0290838
  0.00054091 -0.14721535  0.08859781 -0.09039458  0.24470697 -0.104616
 -0.26232567 -0.08764833 -0.04238242  0.24781993 -0.16852106 -0.13020158
 -0.10027033  0.02650376  0.05613178  0.00855204 -0.01252192 -0.01175038
 -0.10121264 -0.37432742 -0.09413341 -0.0102045   0.00913645 -0.02686065
 -0.08590366  0.04743447 -0.20676343 -0.07719481  0.08148184  0.12659243
 -0.04873871 -0.09091522  0.13131182 -0.01954046 -0.27031365  0.03411192
  0.10946528  0.22110532  0.19895898  0.0846033   0.01176027 -0.15462701
  0.09142344 -0.19560987 -0.00850465  0.10411727  0.08407664  0.0721077
 -0.0016652  -0.18543224  0.0240357   0.12861562 -0.1845199  -0.04452946
  0.06070723 -0.12481611 -0.00538864 -0.07075919  0.19283605  0.06115561
 -0.15120925 -0.14204411  0.13767962 -0.1291167   0.02267915  0.03273261
 -0.12810685 -0.19346367 -0.31665093 -0.01177128  0.38001856  0.05025988
 -0.17319322  0.03338844 -0.03198978  0.01719405  0.12477519  0.17047291
  0.00808817  0.01234705 -0.06755672 -0.02379977  0.22557984 -0.08899388
  0.02077519  0.2003357  -0.0354108   0.01552586  0.00472781  0.04361074
 -0.09199422  0.03407161 -0.09688167 -0.01736337 -0.00277394 -0.05627459
  0.01280169  0.10584909 -0.1742702   0.11412672  0.01184439  0.05040738
  0.04302173 -0.08619981 -0.03693553 -0.06166905  0.09633947 -0.27001604
  0.19927235  0.23813124 -0.03698596  0.12267214  0.11115529  0.07670908
  0.0106776   0.01322479 -0.20836647 -0.03348165  0.11673526 -0.0527536
  0.08973261 -0.02521456]