[-1.26574785e-01  1.42314404e-01  1.37564287e-01 -2.39997953e-02
 -5.38733862e-02 -3.99613567e-02  1.16550867e-02 -1.54970422e-01
  1.34362713e-01 -1.22647785e-01  2.44588569e-01 -5.48987873e-02
 -2.34331638e-01 -1.01010382e-01 -1.97660718e-02  2.22628638e-01
 -1.84130892e-01 -1.34494647e-01 -6.15986772e-02  3.38880531e-02
  7.26197287e-02 -2.98231933e-02  6.52595004e-03 -9.15099867e-03
 -7.17217550e-02 -3.91825616e-01 -9.53928754e-02 -6.10146634e-02
  1.19974222e-02 -2.03602668e-02 -8.41500908e-02  2.37702206e-02
 -1.96738347e-01 -9.20227990e-02  1.66417565e-02  9.44143981e-02
 -9.60979611e-02 -5.96371852e-02  1.48940906e-01 -1.15305101e-02
 -2.59429544e-01  2.81296130e-02  6.20359294e-02  2.16550186e-01
  2.11537436e-01  7.09889457e-02  4.75098863e-02 -1.61246672e-01
  8.81234482e-02 -1.77773848e-01  1.49716167e-02  1.10686600e-01
  7.11309835e-02  7.92067200e-02  4.66002040e-02 -1.91121027e-01
  1.17785614e-02  7.10500404e-02 -1.64052114e-01 -1.17210336e-02
  9.69381705e-02 -1.04642205e-01 -5.35361422e-03 -6.05927967e-02
  1.92374811e-01  6.80466145e-02 -9.82260555e-02 -1.53431222e-01
  1.71608597e-01 -1.48482367e-01 -1.24335894e-02  4.23696600e-02
 -1.24217741e-01 -1.91168711e-01 -2.90196627e-01 -1.35987876e-02
  3.68901223e-01  1.01083629e-01 -1.45518184e-01  1.17090344e-02
 -6.71881959e-02 -9.91595816e-03  1.45988584e-01  1.67733327e-01
  2.96598505e-02  1.83224585e-02 -7.31097981e-02 -2.89993938e-02
  1.92306787e-01 -7.47232065e-02  2.12951261e-03  2.03986883e-01
 -2.65385639e-02  3.24131623e-02 -2.82037276e-04 -1.22619523e-02
 -9.29238722e-02  7.26841465e-02 -1.56468734e-01 -3.05799432e-02
 -4.61534820e-02 -5.22971936e-02 -1.23169208e-02  8.83835480e-02
 -1.61301419e-01  9.55510885e-02  1.28751909e-02  5.82970940e-02
 -1.24545710e-03 -6.44987151e-02 -9.52733532e-02 -4.53242511e-02
  1.09086931e-01 -2.33865291e-01  2.16800719e-01  2.33196959e-01
 -1.18887043e-02  1.06263660e-01  1.28434896e-01  6.29359707e-02
  1.54389767e-02 -3.94228511e-02 -2.41688088e-01 -1.33035341e-04
  9.95804444e-02 -3.97998951e-02  6.96883872e-02 -9.80508421e-03]