[-1.60045728e-01  8.78552496e-02  1.04057662e-01 -2.39720829e-02
 -5.27451746e-02 -6.22799471e-02  3.54711595e-03 -1.43514693e-01
  1.05614118e-01 -9.82429534e-02  2.32110903e-01 -8.40473697e-02
 -2.30095223e-01 -1.08309560e-01 -5.12219258e-02  2.40450099e-01
 -1.67855427e-01 -1.29245684e-01 -5.96786737e-02  4.94957455e-02
  7.98941925e-02  1.56295821e-02  6.29354268e-04  1.19400267e-02
 -6.76351860e-02 -3.60763729e-01 -8.73631537e-02 -2.22885609e-02
 -8.00941046e-03 -3.32404077e-02 -5.84050976e-02  3.61134596e-02
 -1.91970989e-01 -8.25871453e-02  5.79027906e-02  1.09711580e-01
 -5.10183983e-02 -6.49185181e-02  1.62909001e-01 -1.97011475e-02
 -2.77557224e-01  7.80776143e-03  1.09693341e-01  2.36711308e-01
  1.85840309e-01  7.53497854e-02  1.13755064e-02 -1.69143513e-01
  9.96903926e-02 -1.98447973e-01 -1.19363684e-02  8.79039243e-02
  7.93215334e-02  5.86805455e-02 -9.84348264e-03 -1.80455387e-01
  1.72818042e-02  1.02184631e-01 -1.49378464e-01 -1.98279675e-02
  5.61841726e-02 -1.08987227e-01 -3.08249593e-02 -4.79674749e-02
  1.94244266e-01  3.47901359e-02 -1.37371078e-01 -1.52175844e-01
  1.31667510e-01 -1.48262918e-01 -2.57799774e-02  6.04713075e-02
 -1.09627865e-01 -1.99478552e-01 -3.23366195e-01 -2.36587543e-02
  3.78447562e-01  3.34774666e-02 -1.76814660e-01  3.49339657e-02
 -3.31914835e-02  1.64472628e-02  1.35866106e-01  1.90806493e-01
  1.16854403e-02  2.58462559e-02 -8.02766681e-02 -4.00823541e-02
  2.26292610e-01 -8.93046632e-02  5.08618448e-03  2.03796297e-01
 -1.59815696e-04  5.00507317e-02  3.02868313e-03  3.68895046e-02
 -4.87721600e-02  5.83159029e-02 -1.29538760e-01 -2.14974433e-02
  3.21233831e-02 -3.42106894e-02  4.95383283e-03  1.05578996e-01
 -1.90499470e-01  1.13576904e-01  3.01592946e-02  4.85185497e-02
  6.09775074e-02 -5.89844994e-02 -7.42472559e-02 -6.92077279e-02
  9.55957919e-02 -2.37145051e-01  1.95656434e-01  2.37806246e-01
 -9.36999824e-03  1.19892277e-01  1.28949791e-01  7.47315884e-02
  2.18570288e-02  4.30364488e-03 -2.09710717e-01 -1.10418024e-02
  1.23032026e-01 -4.19055372e-02  7.49007687e-02 -2.43057311e-02]