[-1.17351212e-01  1.33073017e-01  2.99309045e-02 -5.78411520e-02
 -1.31954685e-01 -4.58619706e-02  4.33418714e-02 -1.57851100e-01
  6.06355481e-02  2.12329514e-02  2.03995630e-01 -4.11762372e-02
 -2.51475543e-01 -1.59800261e-01  7.95928091e-02  1.18564717e-01
 -1.88067690e-01 -9.66004208e-02 -1.17389597e-01 -3.69323567e-02
  6.15830114e-03 -2.19987240e-02  8.50911140e-02  6.97890818e-02
 -1.19056061e-01 -3.11401367e-01 -6.67374879e-02 -9.64772925e-02
 -1.32068584e-03 -6.00716546e-02  9.54598933e-02  7.65312612e-02
 -1.69952661e-01 -5.65807037e-02  7.35782087e-05  4.64439504e-02
 -1.28672317e-01 -5.01958914e-02  2.13239670e-01 -3.22418064e-02
 -1.74866661e-01 -2.38934979e-02  3.96076255e-02  2.40100890e-01
  2.20094129e-01 -5.76030603e-03  5.14456891e-02  1.94732659e-02
  1.03214800e-01 -2.05786705e-01  1.70064960e-02  1.07712999e-01
  1.02878012e-01  1.17341187e-02  9.02102813e-02 -1.33857921e-01
  4.61340100e-02  1.58076122e-01 -2.40771532e-01  2.71886420e-02
  3.16491798e-02 -1.30766600e-01 -4.89768535e-02  6.58943900e-04
  1.89236030e-01  1.29332259e-01 -5.88876419e-02 -1.19818605e-01
  1.59997493e-01 -1.10578530e-01 -3.39232199e-02  1.28543258e-01
 -1.32371455e-01 -1.75782710e-01 -2.31200248e-01  2.17828224e-03
  3.72350127e-01  6.94055185e-02 -1.67981431e-01 -5.80419488e-02
 -2.71939486e-02  4.15735971e-03  1.04724064e-01  2.55207270e-02
 -9.19431597e-02 -5.51781543e-02 -1.26157135e-01  4.10002284e-02
  1.34905308e-01 -3.91244665e-02 -6.60845488e-02  2.61942297e-01
  5.39630726e-02 -2.43666526e-02  6.89859763e-02 -5.94984256e-02
  1.45927416e-02  5.49608842e-02 -9.76970345e-02  8.41492694e-03
  9.13991183e-02 -1.45229205e-01  3.15309428e-02  2.30174866e-02
 -1.30525097e-01  1.06019080e-01  4.72427420e-02  6.77074045e-02
 -4.52163927e-02 -6.47707805e-02 -1.37080550e-01  1.31597174e-02
  1.66708231e-01 -2.91178375e-01  2.31909901e-01  1.66830108e-01
 -7.67086968e-02  8.12096521e-02  2.01594848e-02  2.44273022e-02
 -8.69655889e-03 -5.79575785e-02 -9.92861465e-02 -1.72718875e-02
  1.30286306e-01 -3.31839211e-02  9.19884667e-02  1.56197296e-02]