[-0.12831102  0.14892018  0.02014916 -0.04848602 -0.09637918 -0.05168711
  0.04457016 -0.16403574  0.06104081  0.00842582  0.23378256 -0.00646725
 -0.24944864 -0.14931488  0.06850801  0.11835275 -0.15154873 -0.12843566
 -0.12628789 -0.05952426 -0.04141041  0.01109952  0.06331425  0.06390963
 -0.08267594 -0.27023599 -0.05840639 -0.07099723  0.01272323 -0.08364838
  0.08111471  0.10640241 -0.18105631 -0.06120957  0.04827648  0.01858648
 -0.06371566 -0.0265823   0.24359547 -0.04695733 -0.15005295 -0.02259716
  0.05390167  0.27187529  0.2056254  -0.03972772  0.04270672 -0.03387761
  0.1091677  -0.17369632 -0.028969    0.11051138  0.07622536  0.01164951
  0.01672902 -0.1614366   0.0127638   0.13033964 -0.2358834   0.03631529
  0.04216174 -0.19693147 -0.10211935 -0.04029627  0.16431628  0.1080616
 -0.08915403 -0.17690001  0.14756441 -0.12601896 -0.03333048  0.11601602
 -0.13137111 -0.1587044  -0.2703118   0.00958385  0.3345924   0.07131435
 -0.16460964 -0.0021337  -0.01289988  0.02341353  0.07428118  0.05135858
 -0.10836875 -0.0352341  -0.09895346  0.05937787  0.15498295  0.00051354
 -0.09151918  0.19201067  0.00626956  0.01015949  0.07395028  0.01031739
  0.01136512  0.01019141 -0.12662973  0.05830939  0.02395952 -0.14008743
  0.05270417  0.05588091 -0.10074963  0.11486455  0.0244555   0.06075232
 -0.08042245 -0.04243062 -0.08894283  0.02027912  0.13263956 -0.27932867
  0.26682904  0.15831347 -0.05455652  0.10486022  0.03716282  0.04314665
 -0.02964863 -0.02141408 -0.0932516  -0.06057618  0.10992284 -0.01550835
  0.14057694  0.00315472]