[-0.11966955  0.14449239  0.04187511 -0.04722734 -0.06831272 -0.06121355
  0.07604796 -0.12879315  0.1172629  -0.01263905  0.23894696  0.016094
 -0.28393599 -0.12733488  0.03577889  0.11181897 -0.12436284 -0.1096402
 -0.15194674 -0.04594937 -0.00423732  0.0152231   0.05918549  0.03415902
 -0.05132493 -0.24805574 -0.03843724 -0.02531793  0.03580536 -0.08659249
  0.04172456  0.09783518 -0.20275596 -0.10085632  0.067545    0.05051081
 -0.09192467 -0.03254678  0.21167476 -0.02514491 -0.18893503 -0.05630099
  0.04947489  0.2741732   0.24347682  0.01962207 -0.02759339 -0.0658057
  0.10540662 -0.23149157  0.00804614  0.11923168  0.05930837  0.02582834
  0.05765765 -0.19610724 -0.01793132  0.12182125 -0.19427279 -0.00555317
  0.03905752 -0.21067236 -0.10420609 -0.10216478  0.12996517  0.09382807
 -0.10394963 -0.18631314  0.18734863 -0.15042703 -0.04061239  0.12395432
 -0.07677536 -0.13810107 -0.25468537 -0.00883561  0.32810792  0.11507191
 -0.15832922 -0.02214365 -0.06372943  0.01574245  0.05396941  0.05632102
 -0.05351068 -0.03262269 -0.11054442 -0.02478236  0.13851574 -0.02164575
 -0.07757974  0.20328844 -0.01798705 -0.01069139  0.04126493 -0.00104224
 -0.07313304  0.02755561 -0.19124745 -0.03862461  0.02137242 -0.12396061
  0.03885363  0.09929967 -0.12577511  0.12239648  0.02758835  0.06759922
 -0.00989964 -0.07170931 -0.08059561 -0.00317262  0.10683896 -0.27388301
  0.27211973  0.15799771 -0.02881928  0.10534363  0.07793123  0.06147001
  0.01049384 -0.03565779 -0.12944277 -0.09696227  0.06952114 -0.00241809
  0.09554826 -0.00691017]