[-0.11889493  0.18465023  0.03210945 -0.01417479 -0.01498376 -0.0365261
  0.06157328 -0.17265414  0.1531128  -0.03343279  0.3151432  -0.02912043
 -0.24920945 -0.20235728  0.05211453  0.11834673 -0.16028471 -0.09797586
 -0.09723128 -0.03951219  0.00249156 -0.00572273  0.05598665  0.04899887
 -0.09218436 -0.28836402 -0.05499387 -0.12954228  0.01649978 -0.09722868
  0.02710567  0.09547645 -0.16481808 -0.09123362  0.0024881   0.00930477
 -0.02674572  0.03256435  0.16851775 -0.02184864 -0.1555822  -0.05247009
 -0.01867153  0.27759597  0.19498475  0.00597097 -0.00035686 -0.05571671
  0.07647573 -0.14324927 -0.02011231  0.0872715   0.09796748 -0.01807219
  0.03232925 -0.17536141 -0.04225924  0.07329533 -0.21901834  0.01145523
  0.03983378 -0.17544058 -0.12346613 -0.0314406   0.15969416  0.11248995
 -0.07185673 -0.16685186  0.19506794 -0.13066955 -0.01733335  0.11686935
 -0.11161736 -0.15777253 -0.24895795 -0.01675856  0.33024406  0.05627586
 -0.18314651 -0.015551   -0.08229091  0.02668423  0.07107025  0.05525854
 -0.05545373 -0.00113715 -0.10655221 -0.0193691   0.09955022 -0.0258968
 -0.06316772  0.21880846 -0.05110039 -0.00707698  0.05884726 -0.05809559
 -0.01623992  0.03707936 -0.12140679 -0.02858812  0.01250912 -0.12995058
  0.01702831  0.04816427 -0.15285328  0.10200212  0.05059519  0.08187415
  0.00633474 -0.03021352 -0.06134621 -0.0244896   0.16151956 -0.28220078
  0.22034882  0.15538518 -0.02286569  0.11816626  0.02428986  0.06766893
 -0.02881289 -0.03227136 -0.15386203 -0.03910352  0.07625725 -0.05005735
  0.06782422 -0.02568063]