[-0.11585926  0.13784505  0.05425806 -0.03367765 -0.08547072 -0.0606159
  0.03727911 -0.16550155  0.08453938  0.01780523  0.23334482 -0.0106784
 -0.21886018 -0.1882977   0.08036651  0.13165948 -0.18827401 -0.08742397
 -0.11441314 -0.04657891 -0.00286001 -0.03462267  0.09884453  0.07114813
 -0.09475043 -0.31559578 -0.0882818  -0.125245    0.0149077  -0.05114785
  0.08305933  0.06264465 -0.17247817 -0.08250734 -0.01427434  0.03950703
 -0.08651965 -0.02930927  0.20259094 -0.05591113 -0.14865433 -0.00109981
  0.03570163  0.22500341  0.22472544 -0.01241621  0.06718982  0.01906001
  0.07437994 -0.15188421  0.00458829  0.08313248  0.13882506  0.01180671
  0.08380326 -0.13151358  0.01445484  0.13145626 -0.22806907  0.02930521
  0.01060437 -0.11573664 -0.06081659  0.01912962  0.19036882  0.12935744
 -0.06296483 -0.1265444   0.16740805 -0.10094171 -0.00699328  0.12605159
 -0.15335116 -0.15723513 -0.2289232   0.0168747   0.3728717   0.03760849
 -0.18025574 -0.05400058 -0.05254965 -0.00558261  0.05529784  0.02098647
 -0.08540726 -0.04175213 -0.11584155  0.05479718  0.10835709 -0.0327696
 -0.05839226  0.23548727  0.0255578  -0.02076437  0.05181428 -0.04551563
  0.02061335  0.06112792 -0.10096486  0.00254332  0.0852169  -0.12622945
  0.0358929   0.00684929 -0.11953472  0.07670518  0.04619801  0.06187199
 -0.03980718 -0.01952158 -0.13655071 -0.00107195  0.18368562 -0.2646279
  0.2447557   0.1731977  -0.09602223  0.07304043  0.00514778  0.05271092
 -0.02025238 -0.05182388 -0.08605703 -0.00817196  0.11243639 -0.04107985
  0.10331076  0.01407583]