[-0.10141903  0.1460962   0.04199351 -0.02617528 -0.09484368 -0.0536678
  0.03595683 -0.171854    0.10188694  0.02759061  0.23837815 -0.01924874
 -0.23288873 -0.18055783  0.10546541  0.11797303 -0.18401304 -0.0877234
 -0.09837208 -0.00761416  0.00869735 -0.03190239  0.10939889  0.07910558
 -0.11475718 -0.33750817 -0.09731347 -0.09889134  0.02928465 -0.07868178
  0.0709978   0.06954861 -0.16386522 -0.07484052 -0.00801477  0.02423064
 -0.10155499 -0.03801214  0.23298013 -0.05217647 -0.17992651 -0.0300388
  0.03230346  0.22822337  0.22847033  0.00473508  0.07214759  0.00882289
  0.08604633 -0.15799795  0.02605396  0.09788626  0.11277056  0.01187612
  0.05400493 -0.13365148  0.01318344  0.14329268 -0.24090166  0.02803387
  0.04875488 -0.14452139 -0.06515684  0.0443079   0.17709181  0.11679474
 -0.05633934 -0.13924457  0.1474068  -0.11799448 -0.01778421  0.12845363
 -0.1469876  -0.17718598 -0.25043932  0.00183496  0.36560601  0.03589986
 -0.18095897 -0.05216661 -0.03532885 -0.00046283  0.08587235  0.03445988
 -0.08114909 -0.05670259 -0.15009712  0.05106834  0.13027968 -0.03509783
 -0.04755852  0.24516451  0.04903699 -0.01124334  0.05715249 -0.0127971
  0.01292917  0.06108198 -0.09977777  0.00668056  0.09737995 -0.08873126
  0.03450371  0.03079478 -0.13431479  0.12848543  0.05978502  0.05976587
 -0.02460685 -0.05827294 -0.12542441 -0.0191003   0.1630535  -0.27073261
  0.21237902  0.15834057 -0.07431306  0.08695366 -0.0049846   0.05655785
 -0.01640724 -0.05300859 -0.10905776 -0.00237733  0.11773963 -0.02929592
  0.10561067  0.0083508 ]