[-0.13058248  0.13241722  0.01724273 -0.04519887 -0.04637713 -0.08565871
  0.05267574 -0.15980932  0.08181274  0.0156841   0.29146156 -0.00275055
 -0.1988496  -0.22043574  0.06768713  0.11658364 -0.16820391 -0.08451954
 -0.12912099 -0.00228342 -0.00593228 -0.01971531  0.10804569  0.05274387
 -0.06705626 -0.31524068 -0.05700706 -0.08698525  0.01226906 -0.03607441
  0.07537927  0.11421026 -0.21041889 -0.10691263  0.01821367  0.05432928
 -0.04543843  0.04878135  0.2265892  -0.00795227 -0.17264435 -0.04532064
  0.00462707  0.25885534  0.24444182  0.0122513   0.03541335 -0.01906758
  0.08175697 -0.16974007 -0.00721795  0.10163665  0.09989297 -0.00552531
  0.01409634 -0.11777768  0.01984716  0.10474985 -0.20299052 -0.01925517
  0.03070518 -0.17493914 -0.08351397 -0.00565669  0.18115929  0.07405262
 -0.0582533  -0.138873    0.17502664 -0.1094647  -0.02568089  0.12361379
 -0.14989218 -0.16002408 -0.30243528  0.0157088   0.34236768  0.07185241
 -0.17195694 -0.01797851 -0.06194776  0.02882176  0.08712345  0.04930922
 -0.06554534  0.00901028 -0.11756964  0.01261674  0.11469231 -0.02980909
 -0.07775307  0.22846456  0.00269173  0.03329701  0.07490718 -0.05275303
  0.04991053  0.03411007 -0.15014194  0.00664218  0.04575275 -0.09228606
  0.05674248  0.05747814 -0.11755665  0.07657576  0.01965113  0.07836482
 -0.01862908 -0.03687758 -0.06690933 -0.06651956  0.12353692 -0.22522409
  0.22365919  0.18547098 -0.05908791  0.09020221  0.05359421  0.06635171
 -0.03887589 -0.01022555 -0.11059927 -0.0090536   0.10657841 -0.00321886
  0.11518338 -0.0092422 ]