[-0.14200293  0.17311089  0.01350558 -0.02012274 -0.00747719 -0.07540846
  0.06890525 -0.16354102  0.13707937 -0.00207182  0.30467075 -0.02439346
 -0.23621969 -0.21011035  0.05100197  0.10067701 -0.16347592 -0.07209303
 -0.10526308 -0.07071076  0.00541569  0.01453049  0.07197323  0.06644197
 -0.08482897 -0.2797285  -0.05921707 -0.14287946  0.02550011 -0.08950088
  0.05497409  0.11051925 -0.17058325 -0.10579301  0.01122106  0.00299562
 -0.01458445  0.03801377  0.17736277 -0.00486229 -0.13425231 -0.07485551
 -0.00946817  0.29196343  0.19351743 -0.00370754 -0.00244802 -0.01732382
  0.08861595 -0.14033568 -0.03558041  0.09065398  0.11054486 -0.01548712
  0.04107696 -0.1614943  -0.02411572  0.06207253 -0.23264001  0.00143705
  0.01786429 -0.16870594 -0.12969607 -0.02056359  0.15735804  0.10492932
 -0.07375363 -0.15578441  0.19299528 -0.12592083 -0.00760119  0.13873814
 -0.12102818 -0.15754376 -0.22992313  0.00507169  0.34881932  0.06013957
 -0.16721496 -0.00571418 -0.08748918  0.00471109  0.05520191  0.04912267
 -0.0656195   0.02265564 -0.09194847 -0.00112629  0.07766836 -0.01913486
 -0.0845975   0.21951859 -0.04913067  0.01140981  0.06632151 -0.0649144
 -0.00906279  0.03538696 -0.10493808 -0.01796405  0.03382547 -0.13773429
  0.02480709  0.02870425 -0.13580504  0.10615412  0.05811405  0.07709286
 -0.02177955 -0.02218528 -0.06124585 -0.01392444  0.14876686 -0.27818415
  0.23559825  0.15021117 -0.04219564  0.12412162  0.00427142  0.05240144
 -0.02209595 -0.02836093 -0.11432058 -0.05416619  0.08491646 -0.0503158
  0.07136629 -0.04166063]