[-1.00511663e-01  1.00193501e-01 -6.47638133e-03 -7.98764825e-02
 -3.62903774e-02 -4.88859303e-02  4.36736047e-02 -1.49893269e-01
  8.06894898e-02 -3.16932574e-02  1.71125203e-01 -2.81911790e-02
 -2.71794379e-01 -2.00223833e-01  1.48531586e-01  1.25390217e-01
 -1.35140851e-01 -1.46520481e-01 -1.44724116e-01 -7.84103870e-02
 -5.40636946e-03  2.88397707e-02  5.73614351e-02  5.99539541e-02
 -1.42887875e-01 -2.95518011e-01 -7.08258674e-02 -1.15098380e-01
 -3.26889157e-02 -6.10136278e-02  5.69189191e-02  1.16294883e-01
 -1.14561394e-01 -6.43965155e-02  5.72322570e-02  7.61156604e-02
 -7.57347643e-02 -4.54452075e-02  2.40248546e-01 -5.76667860e-02
 -1.65125117e-01 -5.92597239e-02  5.36684059e-02  2.60298997e-01
  2.20652625e-01 -6.31049499e-02  2.78240871e-02 -2.54066219e-03
  1.31049305e-01 -2.28915691e-01  1.89603250e-02  1.07412972e-01
  8.58785436e-02  7.22918063e-02  5.39409220e-02 -1.29703209e-01
  4.00072336e-02  1.61383271e-01 -2.88974315e-01  2.93387808e-02
  4.20365967e-02 -2.53997892e-01 -1.08336367e-01 -4.43249308e-02
  1.52908981e-01  1.06082164e-01 -1.09319501e-01 -1.64039984e-01
  1.44153640e-01 -1.32188275e-01 -4.45746854e-02  6.95724115e-02
 -1.61737680e-01 -1.82940707e-01 -2.94488907e-01  2.99306363e-02
  2.65890718e-01  1.27517328e-01 -1.63244382e-01  1.63899437e-02
 -3.01223099e-02  2.18128469e-02  6.65443242e-02  3.89805548e-02
 -4.69408259e-02 -5.64828627e-02 -7.85020143e-02  6.47129416e-02
  1.25187457e-01 -4.84827273e-02 -5.89231849e-02  2.30376586e-01
 -2.88897054e-03  3.26372050e-02  5.34323864e-02 -9.02622924e-05
 -7.28041818e-03  2.70278156e-02 -1.17785275e-01  7.54960105e-02
  7.15848282e-02 -1.45492092e-01  9.07528624e-02  6.26776293e-02
 -1.12322353e-01  1.60235986e-01  3.10325921e-02  6.64677769e-02
 -2.11427901e-02 -6.07427470e-02 -1.17365353e-01 -2.96672732e-02
  1.58802390e-01 -2.56047815e-01  2.17093304e-01  1.92588970e-01
 -1.33766299e-02  1.27567932e-01  3.46899815e-02  5.62436879e-02
 -1.71009470e-02 -3.70190181e-02 -1.83339819e-01 -9.54502355e-03
  1.41535953e-01  4.44057882e-02  6.52404055e-02  4.82772477e-02]