[-0.14198355  0.17135718  0.04631632 -0.03949048 -0.06935011 -0.05464857
  0.0857215  -0.1372475   0.11635069 -0.00272309  0.27319214  0.01695986
 -0.28093934 -0.15093112  0.03024021  0.11244199 -0.1120463  -0.11388793
 -0.1371178  -0.04228159 -0.00794918  0.01792854  0.04646385  0.02847374
 -0.03623519 -0.25820956 -0.05132578 -0.03405383  0.02780318 -0.1088981
  0.05013592  0.09344672 -0.19681273 -0.10927837  0.04650905  0.04819408
 -0.08406819 -0.01552751  0.19849296 -0.02936478 -0.18224834 -0.04443195
  0.04598019  0.28147921  0.21744771  0.00858642 -0.01638429 -0.06397607
  0.10646953 -0.18171214  0.00580449  0.10816918  0.08398701  0.01423252
  0.03257782 -0.19080833 -0.02464844  0.10765526 -0.1898974  -0.00633154
  0.04027171 -0.21988817 -0.1103396  -0.07186379  0.11602159  0.07874836
 -0.088033   -0.19183642  0.17759706 -0.13102685 -0.0335018   0.13595204
 -0.09564021 -0.13266122 -0.25767836  0.01983721  0.35731393  0.07047226
 -0.1448435  -0.01455979 -0.06099086  0.00583194  0.03436936  0.06629334
 -0.06698217 -0.02304395 -0.1341431  -0.00578028  0.13240008 -0.01829128
 -0.08588928  0.18400632 -0.02430109  0.0143088   0.04865658  0.0095865
 -0.0608351   0.03049247 -0.1573891  -0.04089369  0.02571418 -0.13483167
  0.01922488  0.08369841 -0.1175388   0.12460551  0.03919568  0.08700275
 -0.02352343 -0.06739229 -0.05827514  0.00133784  0.10665854 -0.25830749
  0.26529956  0.14503491 -0.03642805  0.10712961  0.08077367  0.0557496
  0.00077807 -0.0393985  -0.12796943 -0.08600019  0.07586371 -0.00349628
  0.11348633 -0.00828318]