[-1.23531811e-01  1.43626198e-01  2.53735818e-02 -2.42983345e-02
 -2.90644113e-02 -8.29560012e-02  4.60426696e-02 -1.46555081e-01
  9.39074308e-02  1.58687197e-02  3.03358197e-01  1.63009837e-02
 -2.19168425e-01 -2.18786672e-01  7.31378943e-02  1.02773122e-01
 -1.64085105e-01 -8.27211589e-02 -1.31914183e-01 -2.75127586e-05
  3.12600913e-03 -7.55029405e-03  9.80681628e-02  3.47365849e-02
 -6.29143342e-02 -3.08567256e-01 -5.85900359e-02 -9.51888040e-02
  1.32701965e-02 -4.65684272e-02  7.28961304e-02  1.02216244e-01
 -2.05192924e-01 -1.08274750e-01  1.78128630e-02  4.86973710e-02
 -3.36587690e-02  4.36994843e-02  2.09323689e-01 -1.15324100e-02
 -1.70158431e-01 -3.73712070e-02 -1.52941411e-02  2.54658550e-01
  2.51100391e-01  1.82961263e-02  1.45822540e-02 -1.68813467e-02
  7.19153136e-02 -1.88310534e-01 -6.84743002e-03  1.16326235e-01
  1.02553032e-01 -6.65297592e-03  2.81650219e-02 -1.37448594e-01
  1.58196371e-02  8.83032456e-02 -1.93963334e-01 -2.04540845e-02
  2.74324398e-02 -1.73133314e-01 -8.29650089e-02 -4.17455984e-03
  1.53761357e-01  6.78656995e-02 -6.65773377e-02 -1.39725238e-01
  1.61114857e-01 -1.28466725e-01 -2.02041790e-02  1.32537857e-01
 -1.44704267e-01 -1.66616350e-01 -2.93943018e-01  1.40634328e-02
  3.39777917e-01  7.33150318e-02 -1.92656696e-01 -2.00896543e-02
 -6.94505051e-02  3.57198529e-02  8.77143219e-02  4.33515422e-02
 -4.56618816e-02 -1.55801624e-02 -1.37425169e-01 -1.38508379e-02
  1.12775825e-01 -2.89389398e-02 -7.00253770e-02  2.42459223e-01
 -1.22035621e-02  3.12897675e-02  7.19751716e-02 -4.60795239e-02
  5.28671443e-02  2.47001443e-02 -1.30428568e-01  9.51273181e-03
  4.24479246e-02 -1.08158365e-01  2.62092706e-02  5.82746938e-02
 -1.18715338e-01  6.72082528e-02  1.97257362e-02  9.27670300e-02
  3.57991434e-03 -4.15996239e-02 -6.45884797e-02 -6.77906498e-02
  1.35391131e-01 -2.35663682e-01  2.31760666e-01  1.93582878e-01
 -7.93957785e-02  8.84829983e-02  4.49149720e-02  8.09072703e-02
 -4.63103689e-02 -1.55965686e-02 -1.28639400e-01 -3.19413058e-02
  7.05957189e-02 -8.23352486e-03  7.50205666e-02 -2.09169816e-02]