[-1.29518032e-01  1.23447768e-01  6.95806835e-03 -5.20435348e-02
 -3.77197266e-02 -9.11674201e-02  5.41185997e-02 -1.54026076e-01
  8.31468031e-02  2.62415167e-02  2.97557443e-01  1.70168502e-03
 -2.00764045e-01 -2.27580860e-01  6.15643077e-02  1.08449779e-01
 -1.66212425e-01 -6.74992055e-02 -1.36707380e-01 -7.24426983e-03
  2.47035245e-03 -2.91740187e-02  1.08847134e-01  5.07021807e-02
 -7.30322525e-02 -3.05196613e-01 -6.07389696e-02 -1.01895630e-01
  8.33841879e-03 -6.11442439e-02  6.10145517e-02  1.05431654e-01
 -2.18019605e-01 -1.23198606e-01  1.42181460e-02  4.91556823e-02
 -4.84254099e-02  3.86565290e-02  2.10796103e-01 -2.50645261e-02
 -1.68813288e-01 -2.21915282e-02  5.78505313e-03  2.40720272e-01
  2.50666499e-01  1.57965794e-02  2.24294700e-02 -2.59937048e-02
  9.57169756e-02 -1.66557327e-01  2.09855731e-03  9.12409648e-02
  1.08851470e-01 -6.93610264e-03  2.86718551e-02 -1.15288392e-01
  2.27955319e-02  1.04113422e-01 -2.10330352e-01 -2.31265929e-02
  1.82815623e-02 -1.62752837e-01 -8.39778483e-02 -6.63927663e-03
  1.59493625e-01  8.85459632e-02 -6.05629385e-02 -1.34508520e-01
  1.76258072e-01 -1.11367419e-01 -1.11184912e-02  1.33285359e-01
 -1.42320663e-01 -1.72688961e-01 -2.87613809e-01  2.03193184e-02
  3.41456980e-01  8.20769742e-02 -1.88040391e-01 -2.26356518e-02
 -6.57511428e-02  2.34369617e-02  9.20637399e-02  4.46085446e-02
 -5.78721277e-02  5.40183811e-03 -1.18917041e-01  1.11532863e-02
  1.09643519e-01 -2.70818528e-02 -8.27968717e-02  2.30574161e-01
  1.79046401e-04  3.74281295e-02  7.81590119e-02 -4.51102220e-02
  3.32784913e-02  3.16718183e-02 -1.44357890e-01  3.85879888e-03
  5.41230850e-02 -9.24039930e-02  3.75883393e-02  5.92082217e-02
 -9.86086354e-02  7.84128681e-02  1.98257230e-02  8.13287422e-02
 -2.25552004e-02 -4.36383598e-02 -4.72784676e-02 -5.77850752e-02
  1.08915977e-01 -2.31749445e-01  2.37053633e-01  1.74385190e-01
 -7.24426508e-02  8.61446932e-02  3.93519960e-02  5.90338893e-02
 -3.40808854e-02 -1.64508577e-02 -1.21346168e-01 -1.71474684e-02
  1.08231761e-01 -5.87227056e-03  1.19448438e-01 -2.19374485e-02]