[-0.10525826  0.11253005  0.01302542 -0.07528798 -0.06461357 -0.02379869
  0.04505367 -0.14711349  0.09399322 -0.03869228  0.19908616 -0.02568192
 -0.2805486  -0.21271233  0.13180198  0.131411   -0.130789   -0.15102288
 -0.13189052 -0.0580713   0.00167207  0.01875345  0.0675253   0.05375827
 -0.15432151 -0.30889988 -0.05780755 -0.10402304 -0.01643104 -0.08814352
  0.04137231  0.0968354  -0.1267395  -0.0656717   0.04339387  0.08797839
 -0.10341676 -0.06074893  0.24785398 -0.05956215 -0.17933066 -0.05320914
  0.05421973  0.25875062  0.21154146 -0.0560639   0.03741739 -0.01016366
  0.13540994 -0.22120745  0.04073863  0.10860276  0.08674341  0.07034506
  0.03929397 -0.1478117   0.02950056  0.16300328 -0.2773051   0.0260619
  0.05622247 -0.24737595 -0.12323936 -0.03803825  0.15634535  0.1149127
 -0.10694008 -0.17160937  0.14741693 -0.12370314 -0.04452313  0.07042543
 -0.16686912 -0.16925456 -0.29178759  0.02820182  0.27997822  0.11285533
 -0.1645748   0.00227808 -0.02215328  0.03723555  0.05727734  0.06474149
 -0.0467276  -0.04701436 -0.08969165  0.06776734  0.1083058  -0.04843672
 -0.06334495  0.22011839  0.0224798   0.03237813  0.06149502 -0.00396532
 -0.02156493  0.0266306  -0.11913856  0.06130678  0.07303595 -0.13089834
  0.08416346  0.06151406 -0.11112238  0.18243088  0.04073214  0.0704609
 -0.0063742  -0.07160199 -0.10564935 -0.02638275  0.14200996 -0.26061064
  0.22431388  0.1799586   0.00472503  0.13749841  0.05669811  0.060088
 -0.00491995 -0.02322535 -0.18231572 -0.01374676  0.1270165   0.02970671
  0.08965303  0.04836318]