[-0.14176016  0.16636279  0.00054105 -0.03857287 -0.03064169 -0.0718944
  0.05702202 -0.18599783  0.13384724 -0.01578026  0.30352598 -0.03108059
 -0.25222033 -0.22113061  0.04492597  0.11378635 -0.16879611 -0.0765738
 -0.09052521 -0.0510689   0.00452326 -0.00703131  0.08098456  0.07186231
 -0.09051861 -0.28894588 -0.06036473 -0.12916306  0.00979146 -0.08958244
  0.03744776  0.11476528 -0.17741744 -0.10398477  0.01360091  0.01051844
 -0.03388455  0.0356598   0.18242125 -0.03510072 -0.15158157 -0.06352481
  0.00836189  0.26871806  0.20122169 -0.01470719  0.01284256 -0.05198188
  0.09638979 -0.1302388  -0.02167935  0.09369916  0.10588235 -0.03087644
  0.04427434 -0.14681338 -0.03040037  0.08605492 -0.22775583  0.00194101
  0.03982074 -0.15599875 -0.12602685 -0.0215341   0.14887697  0.10335081
 -0.0750038  -0.16892855  0.20317617 -0.12336471 -0.01271424  0.14056638
 -0.12531774 -0.17494874 -0.25008217 -0.00851425  0.34440681  0.06610827
 -0.14988592 -0.0031954  -0.08610655 -0.00202677  0.06200891  0.04298145
 -0.06549931  0.00249132 -0.09663788  0.02585548  0.0914376  -0.02147414
 -0.07933005  0.21757999 -0.0325918   0.0067763   0.05534957 -0.04224467
 -0.01754066  0.04414647 -0.12118401 -0.0144555   0.03893974 -0.12717663
  0.0375379   0.05245227 -0.13224255  0.0972572   0.05168588  0.07817241
 -0.01857879 -0.02830954 -0.0668942  -0.01674791  0.1286708  -0.28004852
  0.23268779  0.13699034 -0.02296214  0.10615559  0.0114168   0.03869129
 -0.01059146 -0.04908488 -0.12704508 -0.04384593  0.09716818 -0.0423304
  0.0954202  -0.03274469]