[-0.14891598  0.1544802   0.01895803 -0.05257459 -0.08998664 -0.0675348
  0.04825344 -0.09768976  0.09570943  0.02467051  0.20820394  0.02570052
 -0.29325235 -0.1442149   0.04235535  0.09507977 -0.10707472 -0.10222781
 -0.1581831  -0.0762895  -0.00987815  0.00074105  0.03564667  0.04857295
 -0.07610284 -0.22515693 -0.02286459 -0.03158786  0.03403024 -0.12131801
  0.0523742   0.07987433 -0.22485299 -0.12279242  0.0416838   0.06202163
 -0.09578939 -0.0260525   0.18984289 -0.04096536 -0.17383409 -0.03519848
  0.05241845  0.26706395  0.21937697  0.01244764 -0.02081081 -0.05559775
  0.13090806 -0.22420962  0.03008084  0.14503916  0.10920429  0.03158791
  0.05503556 -0.17116527  0.02843826  0.12094114 -0.19260927  0.00722393
  0.07144926 -0.18165848 -0.12122104 -0.10617395  0.1228646   0.08740945
 -0.08720578 -0.17482381  0.18224213 -0.13601483 -0.04812619  0.12544458
 -0.06052658 -0.14042673 -0.25706431  0.02465495  0.31206426  0.14553253
 -0.18209352 -0.00109409 -0.08592166  0.02993811  0.0466276   0.01975339
 -0.08466279 -0.04226731 -0.1050055  -0.010214    0.13874333  0.00328298
 -0.06617161  0.18383417  0.04270748  0.00466924  0.05569543 -0.01961305
 -0.06976267  0.01073214 -0.14973854 -0.00553895  0.04845895 -0.15565804
  0.03405893  0.07308829 -0.12214781  0.16489413  0.05710458  0.088122
 -0.00080457 -0.02639266 -0.08776652 -0.00612114  0.10692436 -0.2754761
  0.3046394   0.14358    -0.0314713   0.09289609  0.0922138   0.08658436
 -0.00254549 -0.02901839 -0.10926391 -0.11901491  0.08722331 -0.03993939
  0.0994864   0.01712926]