[-1.61264986e-01  1.48626432e-01  1.42275961e-02 -5.64108491e-02
 -6.90076649e-02 -6.35954365e-02  8.39311406e-02 -1.24266349e-01
  8.82264599e-02  2.98382137e-02  2.53682703e-01  1.36535382e-02
 -2.67112106e-01 -1.49211675e-01  3.00241448e-02  1.09163024e-01
 -1.19059198e-01 -9.84594598e-02 -1.46626785e-01 -5.34591079e-02
 -8.85597151e-03  1.11670410e-02  5.82902804e-02  5.12577258e-02
 -4.88042012e-02 -2.55813718e-01 -4.62915748e-02 -2.80824136e-02
  2.10625716e-02 -9.32256356e-02  5.63798621e-02  1.15674019e-01
 -2.04031691e-01 -1.02074735e-01  5.69525063e-02  4.87147942e-02
 -7.80748650e-02 -1.19950576e-02  2.09372401e-01 -9.87146702e-03
 -1.65209785e-01 -4.71710823e-02  5.93616031e-02  2.90426821e-01
  2.31033131e-01  3.63406166e-03 -1.14537245e-02 -3.66310142e-02
  1.11370996e-01 -1.96583465e-01  1.49275651e-02  1.01358049e-01
  8.64497051e-02  1.41079398e-02  4.04144786e-02 -1.66982219e-01
 -1.32295759e-02  1.16513692e-01 -1.99270770e-01 -7.61697954e-03
  1.95981264e-02 -2.23846778e-01 -1.18383244e-01 -8.79956856e-02
  1.19624637e-01  1.07607558e-01 -8.34639296e-02 -1.90358326e-01
  1.73403934e-01 -1.20271981e-01 -3.61055546e-02  1.36390060e-01
 -9.00486782e-02 -1.30953327e-01 -2.58956730e-01  3.08422502e-02
  3.40273678e-01  9.14813504e-02 -1.50492460e-01 -8.46092496e-03
 -4.74069901e-02  2.12136074e-03  5.03936596e-02  5.04143834e-02
 -8.02135989e-02 -2.04436462e-02 -1.20255612e-01  2.17483568e-04
  1.30073220e-01 -7.00710854e-03 -1.05467014e-01  1.82972640e-01
 -1.49315689e-02  7.67785544e-03  6.59787133e-02  9.32252686e-03
 -5.07831834e-02  2.49581877e-02 -1.56811163e-01 -3.44545804e-02
  3.95658463e-02 -1.36005327e-01  3.43095176e-02  6.95613101e-02
 -1.07269503e-01  1.17821455e-01  3.21946703e-02  8.10856298e-02
 -3.66708450e-02 -6.72104955e-02 -6.41448349e-02  9.97225661e-03
  8.55971947e-02 -2.67685026e-01  2.68407494e-01  1.33782029e-01
 -5.09440862e-02  1.07573949e-01  7.22618923e-02  4.95353527e-02
  2.26967040e-05 -2.69461069e-02 -9.37290490e-02 -8.70882869e-02
  1.01420037e-01  9.83155798e-03  1.27211258e-01 -7.60946656e-03]