[-1.41463220e-01  1.90650135e-01  2.32750699e-02 -7.79844448e-03
 -4.72085318e-03 -8.16452056e-02  5.97356670e-02 -1.72091588e-01
  1.32350564e-01 -1.08483685e-02  3.09557706e-01 -1.40046058e-02
 -2.30110154e-01 -2.07202435e-01  5.65836094e-02  9.73849222e-02
 -1.59604192e-01 -6.69019967e-02 -1.08555615e-01 -6.28961325e-02
  2.01806473e-03  1.26109421e-02  8.82959738e-02  6.75726309e-02
 -8.30086544e-02 -2.73838818e-01 -6.05938397e-02 -1.48672923e-01
  2.78587081e-02 -9.24677178e-02  3.07472628e-02  8.77460688e-02
 -1.72746167e-01 -1.09211914e-01  5.89393917e-03  6.66131091e-04
 -2.21301075e-02  3.43597159e-02  1.73128411e-01  2.81734765e-03
 -1.29169375e-01 -7.65235871e-02 -3.07085868e-02  2.82935709e-01
  2.04912260e-01 -8.38960707e-03  2.56706029e-04 -3.01265456e-02
  9.02340412e-02 -1.41650394e-01 -1.98561735e-02  8.28071460e-02
  1.07033074e-01 -8.87559168e-03  4.39125076e-02 -1.62178203e-01
 -2.07890905e-02  6.19965680e-02 -2.18784124e-01  3.59269837e-03
  3.02206520e-02 -1.71708509e-01 -1.27509698e-01 -1.40595259e-02
  1.57804102e-01  1.18520513e-01 -6.47152811e-02 -1.52730107e-01
  1.84921607e-01 -1.24354020e-01 -3.60304350e-03  1.39551014e-01
 -1.12402752e-01 -1.56567380e-01 -2.16501623e-01  9.10795387e-03
  3.46536934e-01  7.61272162e-02 -1.76042482e-01 -2.06212904e-02
 -9.84897986e-02  9.07189958e-03  6.57364130e-02  4.93226685e-02
 -6.25203103e-02  1.85409635e-02 -9.90172327e-02 -4.02823603e-03
  7.43485689e-02 -2.22522002e-02 -8.19121003e-02  2.25384861e-01
 -5.35598509e-02  1.72330216e-02  7.71406442e-02 -7.26261660e-02
 -1.93992238e-02  3.59943248e-02 -9.88317728e-02 -2.37581097e-02
  2.88573336e-02 -1.40541703e-01  1.81685593e-02  2.37935875e-02
 -1.27569810e-01  1.01226948e-01  5.07729016e-02  8.01960379e-02
 -1.17855910e-02 -3.17899771e-02 -5.77735677e-02 -2.07409021e-02
  1.43107817e-01 -2.67398149e-01  2.40974829e-01  1.42177016e-01
 -4.80746292e-02  1.27568722e-01  3.51306028e-03  6.60745129e-02
 -2.70227194e-02 -2.81798244e-02 -1.10304616e-01 -4.53142412e-02
  8.69335085e-02 -4.45041023e-02  7.14859739e-02 -4.95237112e-02]