[-1.36403307e-01  1.72627151e-01  5.83246490e-03 -3.41703333e-02
 -7.72487698e-03 -7.55993575e-02  6.76545128e-02 -1.68854788e-01
  1.33253664e-01 -3.02512688e-03  2.97183037e-01 -2.60803644e-02
 -2.37466142e-01 -2.05844551e-01  5.19547760e-02  9.84757468e-02
 -1.62649438e-01 -6.79607987e-02 -1.01366937e-01 -6.88708648e-02
  2.82671419e-03 -5.01127099e-04  8.36855322e-02  7.66624883e-02
 -7.58744031e-02 -2.68968254e-01 -5.51169291e-02 -1.47184640e-01
  3.61219840e-03 -7.48392269e-02  5.16408160e-02  9.48437452e-02
 -1.84409663e-01 -1.09618664e-01  7.24519882e-03 -2.46921182e-03
 -3.48337106e-02  3.70689705e-02  1.81682810e-01 -5.71009889e-03
 -1.18188463e-01 -8.09407309e-02 -1.49456505e-02  2.76771158e-01
  2.01268360e-01 -7.92791508e-03 -1.79332832e-03 -2.55561303e-02
  8.67160484e-02 -1.44932345e-01 -4.51802239e-02  9.48543549e-02
  9.06955674e-02 -6.66476879e-03  3.86893265e-02 -1.49116442e-01
 -1.32554921e-03  7.05297366e-02 -2.26006553e-01 -6.59706304e-03
  1.09394947e-02 -1.71678394e-01 -1.18606627e-01 -1.07211247e-02
  1.65513620e-01  1.13366283e-01 -5.48422337e-02 -1.56849608e-01
  1.87660664e-01 -1.20476179e-01 -1.62398145e-02  1.31109640e-01
 -1.23348258e-01 -1.59387872e-01 -2.25965425e-01 -1.75254056e-04
  3.39601249e-01  6.73770458e-02 -1.58348188e-01 -7.81156635e-03
 -9.55000147e-02  5.25902817e-03  7.13454857e-02  3.04508246e-02
 -6.39622062e-02  9.31982230e-03 -9.29298326e-02  3.81186092e-03
  8.32515359e-02 -3.14926282e-02 -8.38617235e-02  2.08972618e-01
 -5.04270494e-02  7.07366318e-03  7.55687952e-02 -7.03658611e-02
 -7.63575081e-03  5.19665964e-02 -1.17659189e-01 -1.23156263e-02
  2.89333202e-02 -1.38583109e-01  3.15272175e-02  2.59297639e-02
 -1.44272089e-01  8.43681991e-02  5.23866899e-02  5.74955605e-02
 -3.57329659e-02 -3.31006013e-02 -6.70801327e-02 -9.40565299e-03
  1.42083868e-01 -2.68795311e-01  2.52303869e-01  1.53342932e-01
 -4.36491482e-02  1.22728281e-01 -1.29914400e-03  4.58328165e-02
 -3.03018540e-02 -3.01271137e-02 -1.05521262e-01 -4.70768288e-02
  9.04327556e-02 -2.27414798e-02  7.79579282e-02 -4.65132743e-02]