[-1.31759390e-01  1.62765294e-01  1.51835177e-02 -3.74877229e-02
 -7.05789849e-02 -6.40425906e-02  4.45003547e-02 -1.57731041e-01
  6.09562993e-02  2.45268308e-02  2.43022591e-01  2.67187064e-03
 -2.33863190e-01 -1.71246558e-01  6.62801042e-02  1.19856380e-01
 -1.56330764e-01 -1.05984710e-01 -1.53248504e-01 -4.77397256e-02
 -1.66578647e-02  2.75916643e-02  6.69205710e-02  6.33953288e-02
 -5.86011298e-02 -2.84210145e-01 -5.01718000e-02 -7.04848766e-02
  1.99910533e-02 -8.50124285e-02  8.74274820e-02  9.08863768e-02
 -1.84981287e-01 -7.87514448e-02  5.14720790e-02  2.89589223e-02
 -5.83335944e-02 -1.86913293e-02  2.30157807e-01 -4.00588922e-02
 -1.53399467e-01 -1.11412508e-02  6.21164739e-02  2.65330315e-01
  2.28347525e-01 -2.46313009e-02  3.16359363e-02 -2.23196149e-02
  1.20464168e-01 -1.71459898e-01 -3.69354077e-02  9.89492387e-02
  1.10284887e-01  2.16618907e-02  3.51750962e-02 -1.62037686e-01
  4.83916746e-03  1.24843232e-01 -2.45215759e-01  2.18466185e-02
  2.48887222e-02 -1.87506184e-01 -9.78709981e-02 -2.93388646e-02
  1.57987371e-01  1.02381088e-01 -1.01603404e-01 -1.69620603e-01
  1.34230286e-01 -1.30630165e-01 -1.78912263e-02  1.33346274e-01
 -1.26691446e-01 -1.61441416e-01 -2.67078906e-01  1.68847144e-02
  3.33593786e-01  7.38695040e-02 -1.72803357e-01 -1.91875864e-02
 -1.43175600e-02  2.70304531e-02  6.52841926e-02  5.02209738e-02
 -9.94424447e-02 -2.40069572e-02 -9.89535004e-02  4.78944890e-02
  1.31903440e-01  7.74310622e-03 -1.00692965e-01  2.12344483e-01
 -3.27508594e-03  2.17804573e-02  6.00978248e-02  2.42029884e-04
  1.10072922e-02  9.34803020e-03 -1.19844191e-01  4.16530967e-02
  2.61698551e-02 -1.23336069e-01  5.88306785e-02  3.91660891e-02
 -7.85327256e-02  1.02039091e-01  1.90738402e-02  8.82516578e-02
 -7.14482367e-02 -3.81977521e-02 -9.10186172e-02  1.73184220e-02
  1.24272250e-01 -2.73952693e-01  2.75339484e-01  1.52851447e-01
 -7.58360773e-02  9.56965983e-02  4.00671177e-02  4.33792137e-02
 -2.23028176e-02 -2.31710859e-02 -8.38158354e-02 -5.84090836e-02
  1.09498575e-01 -1.60436165e-02  1.48380086e-01 -1.75916944e-02]