[-1.43536717e-01  1.72977611e-01  9.86811332e-03 -2.73414496e-02
 -1.32172275e-02 -7.47508183e-02  5.97654060e-02 -1.72468781e-01
  1.46546036e-01 -1.54356826e-02  3.08089823e-01 -2.25747526e-02
 -2.32777312e-01 -2.10217118e-01  5.15023880e-02  1.06163442e-01
 -1.61778525e-01 -7.06775710e-02 -9.88893509e-02 -6.37994260e-02
  9.71459225e-03 -7.12186273e-04  7.99330994e-02  7.90916234e-02
 -9.18430462e-02 -2.88736284e-01 -5.92503138e-02 -1.53306350e-01
  1.81467142e-02 -1.01549029e-01  4.06832583e-02  1.02321841e-01
 -1.69466048e-01 -1.04442336e-01 -2.28032470e-03 -1.20721012e-03
 -2.92150434e-02  3.69139276e-02  1.72271490e-01 -2.50573196e-02
 -1.40850991e-01 -6.21445142e-02 -1.75151955e-02  2.77884066e-01
  2.01158360e-01 -1.60577800e-02  1.35417283e-02 -4.28787954e-02
  9.11244974e-02 -1.33739084e-01 -3.18162106e-02  7.80053735e-02
  1.01505898e-01 -1.96886826e-02  4.53775674e-02 -1.56485856e-01
 -2.98487190e-02  7.05772787e-02 -2.26511940e-01  1.04006296e-02
  2.72779204e-02 -1.62396908e-01 -1.32372022e-01 -2.02021785e-02
  1.59951329e-01  1.14793934e-01 -7.16058165e-02 -1.58204868e-01
  1.95521429e-01 -1.27065867e-01 -1.03872269e-04  1.40930787e-01
 -1.23908222e-01 -1.73152059e-01 -2.27677613e-01  3.86010413e-03
  3.45109463e-01  6.61941022e-02 -1.65011033e-01 -3.72441416e-03
 -9.10747200e-02  1.77363250e-02  6.78039417e-02  4.85553257e-02
 -6.19027503e-02  9.05440934e-03 -8.80438611e-02  1.40726147e-02
  7.74781927e-02 -2.25518253e-02 -7.90953562e-02  2.17835546e-01
 -4.40905057e-02  1.50288567e-02  6.60069883e-02 -6.03577383e-02
 -1.52870063e-02  4.44139056e-02 -1.07364610e-01 -6.30147243e-03
  2.63327491e-02 -1.29004717e-01  2.93451753e-02  2.70304438e-02
 -1.23930275e-01  1.01883985e-01  5.52408658e-02  8.14917609e-02
 -1.41130602e-02 -1.41502814e-02 -6.21267334e-02 -2.38894820e-02
  1.40070543e-01 -2.79362679e-01  2.38358900e-01  1.45493314e-01
 -3.09983492e-02  1.23843066e-01 -5.55360341e-04  5.47824316e-02
 -2.08497476e-02 -2.92975903e-02 -1.24997430e-01 -2.52749622e-02
  9.65515673e-02 -4.82733585e-02  7.32050538e-02 -4.49074581e-02]