[-1.51345879e-01  1.75509050e-01  2.85404809e-02 -1.86083410e-02
 -1.98688041e-02 -6.60285875e-02  6.92953840e-02 -1.62570551e-01
  1.33033887e-01 -6.04816666e-03  3.09593588e-01 -1.57461334e-02
 -2.44577393e-01 -2.14516148e-01  5.40146232e-02  1.00926556e-01
 -1.56875819e-01 -7.86780939e-02 -9.48244855e-02 -5.65467365e-02
  1.58517081e-02  5.27918711e-03  6.45439774e-02  5.84874228e-02
 -9.12741423e-02 -2.79729068e-01 -6.11411408e-02 -1.33181334e-01
  2.52927225e-02 -9.31478962e-02  4.34104130e-02  1.14306264e-01
 -1.73519567e-01 -1.02104746e-01  5.50947431e-03  1.69764869e-02
 -2.13646535e-02  3.89783271e-02  1.61524981e-01 -4.09111492e-02
 -1.36842594e-01 -6.82684183e-02  1.15907495e-03  2.68023521e-01
  1.84806451e-01 -2.45966774e-04  5.88303572e-03 -4.03777547e-02
  8.01557526e-02 -1.36568531e-01 -3.79596017e-02  9.44018885e-02
  9.56743881e-02 -1.32067157e-02  3.57911848e-02 -1.64678648e-01
 -2.14611720e-02  6.67115450e-02 -2.23013029e-01  2.73094885e-03
  1.77925732e-02 -1.73955068e-01 -1.34395987e-01 -2.50658840e-02
  1.49553463e-01  9.66070965e-02 -6.67812750e-02 -1.59919426e-01
  1.99150041e-01 -1.29141673e-01 -1.05237374e-02  1.41443521e-01
 -1.19157456e-01 -1.61680013e-01 -2.28625223e-01  1.96827808e-03
  3.48891258e-01  6.05247989e-02 -1.64390311e-01  1.10043529e-02
 -8.37432072e-02  3.71900992e-03  5.51950224e-02  4.88185063e-02
 -6.76816478e-02  1.60899851e-02 -1.06232584e-01  1.22481743e-02
  9.06525776e-02 -2.10692380e-02 -5.45175634e-02  2.16929466e-01
 -2.92999987e-02  1.82149857e-02  6.72742873e-02 -6.04981892e-02
 -5.53060183e-03  3.48157585e-02 -1.12699859e-01 -1.82675142e-02
  3.45628969e-02 -1.38075218e-01  1.91671588e-02  3.67238447e-02
 -1.31036475e-01  1.02834582e-01  5.94637580e-02  7.88271353e-02
 -1.38833374e-02 -3.27937379e-02 -5.07622175e-02 -1.92876682e-02
  1.42310902e-01 -2.72882015e-01  2.29667619e-01  1.49486765e-01
 -3.88115011e-02  1.21577598e-01  1.10124694e-02  6.49310946e-02
 -2.30527632e-02 -4.06080000e-02 -1.30269349e-01 -4.11575548e-02
  9.60976407e-02 -6.34897873e-02  6.64105043e-02 -3.96709144e-02]