[-1.57207668e-01  1.73466548e-01  1.80241242e-02 -1.10565228e-02
 -1.09639829e-02 -8.16175565e-02  6.95732385e-02 -1.56295940e-01
  1.27560899e-01  3.55413673e-03  3.10501069e-01 -2.60374099e-02
 -2.29889438e-01 -2.12374687e-01  6.07824214e-02  1.01811938e-01
 -1.51307344e-01 -5.34974001e-02 -1.10380553e-01 -6.14302121e-02
 -7.49072293e-03  8.23916402e-03  7.88124949e-02  7.63495564e-02
 -7.43316039e-02 -2.82056242e-01 -5.82486391e-02 -1.57066226e-01
  1.63060036e-02 -9.80091318e-02  3.63576859e-02  1.09801605e-01
 -1.63386747e-01 -1.07990876e-01  6.30185765e-04  5.39027911e-04
 -9.10364091e-03  4.88515981e-02  1.72432095e-01 -1.66927595e-02
 -1.25097468e-01 -7.70780593e-02 -1.43617345e-02  2.78321296e-01
  1.95954129e-01 -8.05951748e-03  3.84662533e-03 -2.46252269e-02
  9.69447419e-02 -1.42352253e-01 -3.17712724e-02  7.56780058e-02
  1.09262243e-01 -2.01914720e-02  4.63560186e-02 -1.48588702e-01
 -2.41688229e-02  5.79523742e-02 -2.24096164e-01  5.62874554e-03
  1.84931140e-02 -1.60948157e-01 -1.42659992e-01 -2.21966989e-02
  1.60185561e-01  1.20074861e-01 -6.27243966e-02 -1.55752584e-01
  1.90763280e-01 -1.27961144e-01 -9.11398511e-03  1.40011698e-01
 -1.16898276e-01 -1.58001617e-01 -2.27566674e-01  1.20549500e-02
  3.35596234e-01  6.81780502e-02 -1.79208949e-01 -9.35626589e-03
 -9.64907780e-02 -7.02278689e-04  5.69109134e-02  4.02441919e-02
 -6.68748915e-02  1.44182211e-02 -9.74485800e-02  2.10571292e-04
  8.01860914e-02 -2.23568380e-02 -6.55405149e-02  2.17307001e-01
 -4.20550816e-02  1.88301262e-02  6.52963445e-02 -7.02952966e-02
 -7.87711889e-03  3.13631594e-02 -1.05003729e-01 -1.56939011e-02
  4.14222591e-02 -1.35425717e-01  2.17284281e-02  2.19835937e-02
 -1.39437199e-01  1.02432288e-01  4.91962247e-02  7.62151480e-02
 -1.39155928e-02 -2.57250462e-02 -5.45972772e-02 -1.15510775e-02
  1.47661254e-01 -2.61140704e-01  2.33944535e-01  1.35348693e-01
 -4.86738607e-02  1.17154740e-01 -4.30659531e-03  6.19673692e-02
 -2.98099723e-02 -2.65772045e-02 -1.14340261e-01 -4.34874147e-02
  1.01238385e-01 -5.35567999e-02  5.97042143e-02 -4.43056338e-02]