[-0.17427148  0.1419221   0.01755932 -0.05489608 -0.08927349 -0.05813878
  0.06668637 -0.13112554  0.06985625  0.01842998  0.23701604  0.00318596
 -0.270239   -0.14471638  0.04882535  0.11014614 -0.12415929 -0.09982507
 -0.15742938 -0.06537294 -0.01791783  0.01588858  0.0416868   0.04885253
 -0.0609759  -0.2430938  -0.06161333 -0.03261269  0.00862759 -0.06817348
  0.06559911  0.11176963 -0.19415157 -0.09261744  0.0666544   0.03817474
 -0.06306734  0.00083009  0.19643971 -0.02555252 -0.16583709 -0.06379876
  0.08331685  0.27587816  0.23784409  0.02180025 -0.0192919  -0.01073799
  0.10520601 -0.20226328 -0.01273908  0.11508055  0.07947945  0.02480797
  0.04771049 -0.15982549  0.00574826  0.11945903 -0.19962287 -0.01562294
  0.01703673 -0.24961412 -0.11003601 -0.07644007  0.1313988   0.10921629
 -0.07896965 -0.19773613  0.17509191 -0.13629407 -0.05836507  0.12204348
 -0.09786287 -0.11778976 -0.28716981  0.00500062  0.35241103  0.09940522
 -0.14378707  0.00154227 -0.04487258  0.00158801  0.05009322  0.03755997
 -0.08139568 -0.04177797 -0.11239965 -0.00596871  0.14497334 -0.01534019
 -0.07806122  0.17562246 -0.0082762  -0.00669146  0.06008518  0.00570724
 -0.03717856  0.00744328 -0.1341375  -0.01602786  0.02952974 -0.14232108
  0.05348111  0.06864329 -0.12769298  0.1193368   0.03152062  0.07322896
 -0.06043151 -0.05778584 -0.06357526  0.02502057  0.09545716 -0.27375671
  0.26689407  0.15074271 -0.07128506  0.10775323  0.06042541  0.0577627
 -0.02132627 -0.02084499 -0.08081772 -0.11815708  0.08918471 -0.00104867
  0.12154903  0.00623522]