[-0.17085743  0.14679448  0.03307332 -0.05330295 -0.06330457 -0.06876282
  0.07946901 -0.12729554  0.1004259   0.01597337  0.26799718  0.0061985
 -0.23675966 -0.15802151  0.04837403  0.10732657 -0.11340266 -0.09702152
 -0.12558    -0.07959439 -0.00511392  0.01697231  0.04198679  0.05966004
 -0.05688323 -0.25737971 -0.05209439 -0.06349837  0.0005437  -0.1028397
  0.06348548  0.11327412 -0.20463049 -0.09285452  0.03258724  0.03754829
 -0.04108427  0.01741068  0.1910283  -0.01012345 -0.14832208 -0.05026272
  0.04401668  0.28026485  0.21266015  0.00951009 -0.016125   -0.0043999
  0.10161415 -0.171584   -0.01446029  0.09411235  0.07488424  0.00652463
  0.02409292 -0.15541004 -0.01845398  0.08698507 -0.20146513 -0.01128035
  0.0104653  -0.23148136 -0.13049324 -0.06319691  0.14897698  0.11342778
 -0.0706548  -0.16941369  0.16333415 -0.12336548 -0.04208466  0.11938109
 -0.11361822 -0.12088677 -0.25514305  0.04506804  0.34652042  0.07354899
 -0.1601195   0.00698221 -0.046846    0.02184703  0.05248293  0.04869365
 -0.07654591  0.01291023 -0.10252625  0.00968323  0.12099335 -0.0010189
 -0.09112399  0.18554898 -0.03048146  0.02596696  0.0696687  -0.01998251
 -0.01148778  0.00415409 -0.13619713 -0.02491491  0.03235192 -0.12409712
  0.03247792  0.05609866 -0.12723807  0.10843643  0.03041307  0.0704238
 -0.06250643 -0.0314472  -0.04742439  0.00374535  0.09391029 -0.25451732
  0.25932279  0.14621043 -0.06788366  0.11993879  0.0445406   0.05281013
 -0.0210826  -0.01578491 -0.08070654 -0.07771845  0.10838711  0.00218754
  0.12705548 -0.01221815]