[-0.10239083  0.10876682  0.00169741 -0.07082659 -0.05024118 -0.05453205
  0.06221741 -0.14379469  0.09293433 -0.01943919  0.17089301 -0.02988613
 -0.27409941 -0.20548351  0.1338129   0.11923422 -0.13032994 -0.1427031
 -0.15033099 -0.06971504  0.0062521   0.0375821   0.05747606  0.05048708
 -0.15130305 -0.28687978 -0.05498901 -0.11091431 -0.017322   -0.08153829
  0.05230436  0.11056819 -0.12419882 -0.0740163   0.04401555  0.07235498
 -0.0904823  -0.05737982  0.2366312  -0.06179726 -0.17904793 -0.05895912
  0.05589646  0.25286707  0.21537784 -0.0596014   0.02684314 -0.00626649
  0.13629206 -0.23384099  0.01918123  0.11260586  0.07131258  0.07611067
  0.05298413 -0.13564859  0.0271411   0.15931872 -0.28476629  0.02856288
  0.0476719  -0.24571149 -0.11663945 -0.04981102  0.13991649  0.10744548
 -0.09572347 -0.16115201  0.14593689 -0.14149635 -0.05412265  0.06916787
 -0.14595179 -0.17446299 -0.28036675  0.02770711  0.2696678   0.13018791
 -0.15710209  0.02057116 -0.03362624  0.02712443  0.0607611   0.03768317
 -0.04685572 -0.03816127 -0.08620192  0.06246766  0.12233036 -0.05155995
 -0.05405532  0.22603777  0.00965679  0.02398225  0.05518578 -0.01510111
 -0.02230007  0.03117352 -0.11284149  0.05923152  0.09587493 -0.14404877
  0.09287628  0.06055532 -0.1050141   0.17778654  0.03841227  0.07115146
 -0.00921691 -0.06814618 -0.09966117 -0.01831774  0.14876077 -0.24150662
  0.24075167  0.17128856 -0.01855794  0.13402434  0.03948589  0.06358388
 -0.01521619 -0.02580903 -0.16905992 -0.02458706  0.14123167  0.04157431
  0.08253016  0.04675769]