[-0.08286584  0.11299291 -0.00314031 -0.06707291 -0.04994803 -0.00629314
  0.04750649 -0.11941601  0.09545454 -0.03098954  0.151228   -0.02761233
 -0.27735513 -0.19272625  0.13064963  0.11549445 -0.13963749 -0.15350258
 -0.16064467 -0.07982783 -0.0019346   0.02203749  0.05760765  0.05041232
 -0.169515   -0.28855601 -0.07134931 -0.12575945  0.0140299  -0.09589538
  0.04210424  0.07378427 -0.12413893 -0.06120829  0.04431016  0.05626283
 -0.10821656 -0.08027919  0.25163901 -0.06839359 -0.16618505 -0.03356988
  0.06882337  0.24678162  0.20802763 -0.050614    0.03214515 -0.00215655
  0.14957771 -0.24268869  0.04910958  0.11947621  0.0880981   0.10047361
  0.06468958 -0.15037356  0.02908886  0.17827515 -0.28403351  0.06514486
  0.02432605 -0.23478185 -0.12323209 -0.04014029  0.13328837  0.12534413
 -0.09686583 -0.19111563  0.16305237 -0.14974804 -0.03200746  0.08289253
 -0.14273207 -0.17242026 -0.27578574  0.04056095  0.28208935  0.13856469
 -0.14510228  0.02121347 -0.01823811  0.01575263  0.03825871  0.05366776
 -0.07481703 -0.05881336 -0.06323223  0.07677116  0.12621693 -0.04828937
 -0.05859162  0.21521561  0.01924522  0.0224049   0.05366548 -0.01502932
 -0.02883237  0.0143609  -0.10544441  0.07497828  0.08548234 -0.15357682
  0.07662345  0.05348182 -0.10498824  0.17438032  0.03662427  0.04297639
 -0.01672458 -0.05219268 -0.121658   -0.0084254   0.16572013 -0.27678028
  0.24588743  0.18737009  0.00173487  0.12879568  0.04959043  0.0646752
  0.01201839 -0.02141314 -0.17877023 -0.03152381  0.13426732  0.0269316
  0.05864558  0.04806015]