[-0.13064347  0.12880115  0.00829994 -0.05138733 -0.04442244 -0.08935969
  0.05095728 -0.16965863  0.08472119  0.01594963  0.29689583  0.00193801
 -0.21002205 -0.21966317  0.06265357  0.110841   -0.17248994 -0.07677364
 -0.12948844 -0.00833111 -0.01350786 -0.01972587  0.10414106  0.05065178
 -0.06166466 -0.3096557  -0.06139728 -0.09563738  0.00379092 -0.04316346
  0.07388642  0.11226223 -0.21829394 -0.10822918  0.02033817  0.04622828
 -0.04864553  0.04843539  0.220645   -0.00798508 -0.16385534 -0.04492852
  0.00047697  0.24686825  0.24643663  0.01037657  0.02599239 -0.01878137
  0.07875638 -0.16426061 -0.0132704   0.10812073  0.0950601  -0.01095181
  0.01988751 -0.12157919  0.01419242  0.09338903 -0.20382385 -0.03099404
  0.0319331  -0.17140634 -0.09140733 -0.00755386  0.17049502  0.08068191
 -0.06056029 -0.14358948  0.18012576 -0.11831859 -0.02191594  0.12108018
 -0.148257   -0.16379581 -0.29112703  0.01593579  0.34281072  0.07686748
 -0.16923231 -0.01795193 -0.0693396   0.01862692  0.08243687  0.03879403
 -0.05725996  0.00835798 -0.11143167  0.00976203  0.10702077 -0.02477449
 -0.07683523  0.22481608 -0.0118355   0.03041663  0.0772889  -0.0564785
  0.04491785  0.03021595 -0.14366673  0.00913012  0.03591615 -0.0999599
  0.05140652  0.06068089 -0.10831834  0.07474244  0.01798912  0.07348176
 -0.02816802 -0.03595876 -0.06343289 -0.06282461  0.12089155 -0.23196967
  0.23771794  0.17804973 -0.06794789  0.08773004  0.04131951  0.06614451
 -0.04407758 -0.00942978 -0.11534705 -0.02639365  0.09380006 -0.00274162
  0.11349107 -0.01976046]