[-8.61432180e-02  1.02354638e-01  1.45238591e-02 -5.90943098e-02
 -5.01578115e-02 -5.56618571e-02  4.22962494e-02 -1.14195861e-01
  8.32427368e-02 -2.76138093e-02  1.73944727e-01 -3.03995851e-02
 -3.07938874e-01 -1.82879642e-01  1.47526547e-01  1.20242476e-01
 -1.31925449e-01 -1.33322895e-01 -1.63597479e-01 -6.01447821e-02
 -5.45659289e-03  3.35839875e-02  9.04346779e-02  2.90058609e-02
 -1.59298331e-01 -3.18797797e-01 -8.44333693e-02 -1.08184911e-01
 -7.92521890e-03 -7.92442858e-02  5.11086062e-02  8.47658440e-02
 -1.22915961e-01 -7.75592998e-02  5.62052615e-02  6.07516579e-02
 -9.56891999e-02 -6.27404600e-02  2.40784287e-01 -5.16823605e-02
 -1.91608191e-01 -5.98354936e-02  6.33698329e-02  2.41464972e-01
  2.23334178e-01 -3.24518159e-02  4.26928662e-02 -1.79328602e-02
  1.12496033e-01 -2.50085831e-01  5.55752926e-02  1.06219769e-01
  8.61806199e-02  8.38873684e-02  7.31114671e-02 -1.36832044e-01
  2.81066131e-02  1.88769028e-01 -2.70951360e-01  3.56680453e-02
  5.71830757e-02 -2.12664530e-01 -1.14131331e-01 -4.59725223e-02
  1.52275965e-01  1.05773263e-01 -1.09389842e-01 -1.72638446e-01
  1.61381319e-01 -1.58788100e-01 -4.78995703e-02  8.66740569e-02
 -1.43233165e-01 -1.67075470e-01 -3.05300802e-01  2.46145502e-02
  2.69703388e-01  1.15626954e-01 -1.45902440e-01 -1.36139558e-03
 -3.41321453e-02  2.64345314e-02  2.83923931e-02  4.11967263e-02
 -7.18082711e-02 -6.10563755e-02 -7.23593906e-02  4.65909243e-02
  1.32722810e-01 -5.45625277e-02 -4.71641794e-02  2.20416665e-01
  1.45300701e-02  2.47066598e-02  6.29144087e-02 -8.56460165e-03
 -2.80826185e-02 -1.95394459e-04 -1.12833314e-01  6.49144650e-02
  7.84814581e-02 -1.69258893e-01  6.41584918e-02  7.44504705e-02
 -1.25663444e-01  1.67425960e-01  2.06456948e-02  3.76437604e-02
  1.26441885e-02 -4.68604118e-02 -1.07474878e-01 -4.32530381e-02
  1.61262736e-01 -2.69087523e-01  2.24752694e-01  2.07732841e-01
 -1.21295666e-02  1.17167950e-01  3.66656072e-02  8.46355185e-02
 -1.88011285e-02 -6.06987206e-03 -1.86885893e-01 -3.11760306e-02
  1.21989369e-01  2.40962189e-02  4.57114838e-02  4.14986797e-02]