[-0.13538571  0.14353426  0.00562416 -0.03404079 -0.03179134 -0.08835799
  0.06166365 -0.15894435  0.09494428  0.01238649  0.30705568  0.00964105
 -0.20600228 -0.22473674  0.07203005  0.10769697 -0.17391281 -0.07184771
 -0.12977754 -0.00477825 -0.01649253 -0.01085872  0.11614483  0.0496737
 -0.06730921 -0.31132957 -0.0562067  -0.09496991  0.02283528 -0.03281085
  0.07530517  0.11171307 -0.21283804 -0.11388832  0.01968023  0.04679722
 -0.04668057  0.0556442   0.23189823 -0.00320122 -0.154806   -0.0578801
 -0.00329997  0.2636466   0.23780806  0.00646699  0.02187235 -0.01976587
  0.07936285 -0.17490342 -0.01196922  0.10284177  0.09091245  0.00478579
  0.01443189 -0.12282691  0.01544369  0.09594501 -0.20391014 -0.02538846
  0.02374383 -0.16737978 -0.09589478 -0.00445256  0.1810237   0.07595881
 -0.06332459 -0.1341695   0.17842557 -0.10965772 -0.01646921  0.12718183
 -0.13946873 -0.16454981 -0.28466076  0.02650935  0.33262452  0.08148708
 -0.16358481 -0.01872905 -0.07004104  0.01330251  0.07342335  0.04228258
 -0.06435212  0.00962995 -0.11126319  0.01607708  0.10122045 -0.02373439
 -0.07426881  0.2380183  -0.00784268  0.03965703  0.07924057 -0.05221698
  0.04045877  0.02990086 -0.15240954  0.00471964  0.05773257 -0.1029154
  0.05711071  0.05665967 -0.11375761  0.08511324  0.02438687  0.07733195
 -0.00412581 -0.03733644 -0.06155092 -0.06208941  0.12422621 -0.22374241
  0.24497895  0.17093022 -0.06251641  0.09919927  0.04807417  0.06758257
 -0.04465641 -0.00940847 -0.11097825 -0.02175688  0.09610773 -0.00823432
  0.10804277 -0.02012575]