[-7.92221501e-02  1.53323874e-01  2.20093853e-03 -3.57319079e-02
 -6.10095374e-02 -5.42863272e-02  4.20148559e-02 -1.59878507e-01
  1.17694557e-01  1.30313763e-03  2.70954043e-01 -3.96009535e-03
 -2.88533568e-01 -1.35391727e-01  4.22766693e-02  9.24904272e-02
 -1.69667691e-01 -7.29441568e-02 -1.56128481e-01 -1.20678674e-02
 -4.05744603e-03 -2.05263812e-02  8.83225128e-02  7.17180744e-02
 -9.16829929e-02 -2.47266874e-01 -4.02014442e-02 -4.48357761e-02
  3.67818251e-02 -6.68171644e-02  8.38100538e-02  7.35141262e-02
 -2.00581431e-01 -7.98606202e-02  2.44978303e-03  1.69995166e-02
 -5.65660000e-02 -4.06694934e-02  2.08157972e-01 -4.90453206e-02
 -1.94896758e-01 -5.51835075e-02  3.20730894e-03  2.30533361e-01
  2.41701841e-01 -1.33296316e-02  3.41530889e-02 -7.56417140e-02
  9.80986133e-02 -2.62040824e-01  7.21763587e-03  1.09749697e-01
  6.71977699e-02 -7.26748724e-03  6.41233325e-02 -1.87459782e-01
  5.85957337e-03  1.63300186e-01 -1.83589652e-01  2.20722761e-02
  5.45459278e-02 -1.25243843e-01 -2.73772478e-02 -6.77692816e-02
  1.35480598e-01  7.63135627e-02 -8.49736333e-02 -1.80158466e-01
  1.60091698e-01 -1.78801104e-01 -3.31002846e-02  1.76599130e-01
 -5.90220988e-02 -1.91660926e-01 -3.21198910e-01 -1.02371396e-02
  3.62177551e-01  1.36415422e-01 -1.64849728e-01 -3.27888504e-02
 -8.81471112e-02 -4.92561236e-03  6.86808452e-02  2.26708483e-02
 -5.83906583e-02 -6.27833679e-02 -1.66092753e-01 -2.94519868e-02
  1.86741695e-01 -9.66156647e-03 -5.78049421e-02  2.65946060e-01
  1.24933319e-02 -3.87695692e-02  3.69411893e-02  7.28732347e-03
 -5.66008985e-02  4.91038337e-02 -1.12187319e-01  3.08508575e-02
  1.74000002e-02 -1.31718323e-01  3.01722120e-02  8.31539929e-02
 -1.44412711e-01  1.31372467e-01 -9.14846081e-03  5.81667684e-02
  6.30465103e-03 -5.82518987e-02 -8.79387781e-02 -1.67436507e-02
  1.69349760e-01 -2.97641844e-01  2.02615768e-01  1.52603567e-01
  5.00362376e-06  9.74916220e-02  3.46159376e-02  9.83202085e-02
 -2.85573006e-02 -1.85929816e-02 -1.31272197e-01 -6.42764345e-02
  3.72395143e-02 -7.41044506e-02  6.87968358e-02  8.65555461e-03]