[-0.16106744  0.14871174  0.0097033  -0.04535381 -0.06920122 -0.07350259
  0.08074445 -0.14638031  0.09745566  0.01842371  0.27124095 -0.000432
 -0.25176144 -0.15911339  0.02295195  0.11545377 -0.12305229 -0.09123581
 -0.13529919 -0.03696455  0.01053928  0.01459636  0.05840332  0.04177798
 -0.02360572 -0.27437767 -0.06316762 -0.03292342  0.02132812 -0.10363425
  0.04094987  0.12070429 -0.19586115 -0.10674979  0.05265253  0.05486435
 -0.06024709 -0.00412312  0.19559118 -0.02375905 -0.16686997 -0.03906313
  0.06483687  0.27655101  0.21730438  0.00738466 -0.00742074 -0.06627458
  0.10681301 -0.16229777  0.00252854  0.09773036  0.08563774  0.00875289
  0.03317228 -0.16136026 -0.01473235  0.09646942 -0.19226266 -0.00904389
  0.04348917 -0.21135245 -0.12487924 -0.07857791  0.1195712   0.10263228
 -0.07394289 -0.20093866  0.15864578 -0.12581687 -0.04368166  0.13318855
 -0.10539954 -0.13952184 -0.25878426  0.01719992  0.35044029  0.07573442
 -0.14695959  0.00311673 -0.0478888  -0.00279244  0.06186541  0.05825035
 -0.07570719  0.00344294 -0.13456908  0.0151851   0.13474122 -0.0152415
 -0.09236407  0.18535756 -0.02406533  0.02948821  0.05903443  0.00997252
 -0.03634777  0.03234617 -0.15457889 -0.04219126  0.04979322 -0.12990604
  0.02942495  0.06801605 -0.10710068  0.10816728  0.02637279  0.0934604
 -0.03339728 -0.07610561 -0.05382699  0.01546898  0.08913924 -0.25234088
  0.26130784  0.13028015 -0.04469492  0.10187458  0.06759121  0.05900458
 -0.00753113 -0.03724476 -0.11427575 -0.06542826  0.09771179  0.01433236
  0.12484226 -0.01390465]