[-1.38388008e-01  1.55817300e-01  3.38696688e-02 -4.61307131e-02
 -9.25786123e-02 -5.08247316e-02  7.60683790e-02 -1.20869711e-01
  9.82564837e-02  7.99372513e-03  2.53125548e-01  1.61939021e-02
 -2.87369132e-01 -1.35185555e-01  4.74014431e-02  1.02602087e-01
 -1.05504766e-01 -9.74343866e-02 -1.60694942e-01 -5.32216690e-02
 -1.29577238e-02  2.19011214e-02  5.18521965e-02  3.52208167e-02
 -4.42332253e-02 -2.41556644e-01 -5.12795709e-02 -2.89219115e-02
  3.43668237e-02 -1.01242363e-01  4.49630916e-02  9.81702432e-02
 -1.88632116e-01 -1.10431828e-01  6.31088838e-02  4.25352566e-02
 -9.58220214e-02 -2.56142076e-02  2.03852773e-01 -3.50543670e-02
 -1.72399819e-01 -6.09355345e-02  6.04987703e-02  2.80422449e-01
  2.28746995e-01  1.54672563e-02 -1.58394035e-02 -5.09055741e-02
  1.09792523e-01 -2.14004830e-01  1.53496265e-02  1.13985099e-01
  8.71428996e-02  2.78019961e-02  5.68153262e-02 -1.83277950e-01
 -7.65667809e-03  1.24044433e-01 -2.01347589e-01 -1.30418467e-03
  4.86128218e-02 -2.20053434e-01 -1.12815462e-01 -1.08146086e-01
  1.26291081e-01  1.02278881e-01 -9.29541066e-02 -2.00520471e-01
  1.65826291e-01 -1.50509119e-01 -5.22103086e-02  1.31708011e-01
 -8.15215632e-02 -1.30894005e-01 -2.65283287e-01 -1.09089167e-04
  3.25434178e-01  1.10410392e-01 -1.56087697e-01 -2.20393334e-02
 -5.46362698e-02  1.90719147e-03  4.27420363e-02  4.33346033e-02
 -7.16695860e-02 -3.39888930e-02 -1.19537294e-01 -1.89604312e-02
  1.43845335e-01 -2.65380200e-02 -7.16527030e-02  1.92939162e-01
 -4.70397202e-03 -6.51984243e-03  5.05136847e-02  2.46816245e-03
 -6.04938976e-02  1.90905444e-02 -1.57844335e-01 -1.27073172e-02
  1.33205531e-02 -1.53588608e-01  3.33978236e-02  6.88536391e-02
 -1.26525864e-01  1.38495490e-01  2.95103826e-02  8.00754651e-02
 -3.64054292e-02 -8.93042088e-02 -8.22998509e-02  1.71856303e-02
  1.18741214e-01 -2.79422760e-01  2.68072188e-01  1.44136265e-01
 -3.63254808e-02  1.07493877e-01  7.56482333e-02  6.57692552e-02
 -5.38276043e-03 -3.69716883e-02 -1.16230063e-01 -1.03052989e-01
  7.98536018e-02 -1.92264970e-02  1.00620143e-01  2.60579889e-03]