[-0.12471876  0.1227993   0.09512801 -0.03638108 -0.10876559 -0.03145392
 -0.03780949 -0.13552089  0.13088202 -0.08518831  0.17843318 -0.00555082
 -0.21017146 -0.07668839  0.01809668  0.1967767  -0.1393408  -0.17688756
 -0.04168968 -0.00406313  0.03412158 -0.02021461  0.06143322  0.02672043
 -0.13824236 -0.31628832 -0.07520726 -0.01445211  0.00686211 -0.02047589
 -0.07774764  0.04305328 -0.19090001 -0.02663743  0.0433569   0.1253036
 -0.07788002 -0.12011991  0.20925415 -0.03174079 -0.26998624 -0.03262116
  0.09411697  0.21426289  0.21299301  0.01811814  0.02700993 -0.09117723
  0.08128177 -0.19380645  0.0467514   0.13639696  0.01375439  0.02367344
  0.06809568 -0.16553397  0.03172871  0.08753654 -0.11833819 -0.07938205
  0.04767973 -0.09926971 -0.03125506 -0.10919616  0.20118105  0.09959369
 -0.05472612 -0.13415854  0.15021096 -0.1092832  -0.06803491  0.04249856
 -0.14748096 -0.17866679 -0.31616566 -0.02221535  0.3740308   0.13792342
 -0.1260718   0.10344472  0.01327996  0.0056734   0.12651397  0.11541472
 -0.05472941  0.05831    -0.09517168  0.03681154  0.2258437  -0.06198918
 -0.0344878   0.14009127  0.01515692  0.02135808  0.04375024 -0.01211378
 -0.01760908  0.0427358  -0.20584749 -0.02403251  0.06283654 -0.0361021
  0.02263096  0.11958303 -0.20001474  0.03233868  0.06573527 -0.01378162
 -0.00389319 -0.00956865 -0.14290318 -0.04921062  0.08779867 -0.23608916
  0.19492978  0.1926105  -0.01104224  0.12214148  0.14766724  0.06888402
  0.01115987 -0.01970642 -0.13820897 -0.03622568  0.12829529  0.01303942
  0.13997601  0.06355403]