[-0.0061074   0.13765822  0.00131198 -0.00069827  0.02980941 -0.08940854
 -0.01763065 -0.15568674  0.12275906 -0.00255312  0.28913873 -0.06031279
 -0.18129751 -0.13641553 -0.04847993  0.15911591 -0.25504589 -0.07290673
 -0.06236001 -0.00972706  0.06329453  0.01703365  0.09355705  0.0352008
 -0.0279705  -0.30906147 -0.13206097 -0.11241778  0.09151884 -0.03439187
 -0.04018903  0.04259083 -0.19265549 -0.12264889  0.06099192 -0.01528716
 -0.02687565 -0.0505857   0.20596094  0.06080262 -0.11850448  0.04611947
  0.00482411  0.31096116  0.22896269  0.07279041 -0.01298834 -0.13480324
  0.03116148 -0.17034726  0.03490089  0.15053484  0.05933027  0.0684434
 -0.01649626 -0.1212758   0.00242032  0.05575047 -0.14935154 -0.03691466
  0.03518886 -0.03568174 -0.02904491 -0.04268722  0.19114201  0.07157329
 -0.08702926 -0.11643132  0.1330543  -0.1178294  -0.07348295  0.01189571
 -0.14813735 -0.13892817 -0.30167225 -0.02722072  0.40235496  0.03256034
 -0.18543145  0.03983274 -0.10409593 -0.01729842  0.13567519  0.08215146
 -0.03878919  0.00660991 -0.07185378  0.00409841  0.16146456 -0.10588332
 -0.0821354   0.19803345 -0.05321337  0.05785821  0.07608268  0.00064068
  0.03809341  0.04785214 -0.18240479 -0.01219313  0.01802319 -0.04599945
 -0.03910062  0.09959525 -0.18354452  0.05205824  0.11671903 -0.01943788
  0.04457761 -0.02823895 -0.11652919 -0.06614681  0.15642922 -0.25726745
  0.24992426  0.22850533  0.03297396  0.10123243  0.04865989  0.06299882
 -0.03589328 -0.04755517 -0.17370954 -0.02902472  0.07068037  0.0656724
  0.02056683 -0.02213206]