[-0.0176984   0.14688967  0.0345714  -0.01186454 -0.00058647 -0.07270812
  0.00748744 -0.16443841  0.10352243 -0.02435386  0.31724721 -0.07647612
 -0.17989619 -0.15117724 -0.02760611  0.16821644 -0.21295789 -0.05367007
 -0.07237293  0.02680395  0.06936156  0.01119898  0.11384933  0.00725213
  0.00759084 -0.33180165 -0.12432756 -0.09165415  0.1150273  -0.02258047
 -0.05191299  0.03152315 -0.18868075 -0.13796626  0.06228769 -0.02707715
 -0.05248564 -0.04128865  0.19680618  0.04527117 -0.13739069  0.07048142
 -0.00165793  0.27404872  0.20344661  0.09734522  0.02113119 -0.16810785
  0.06625306 -0.1818081   0.04144208  0.10952931  0.07650995  0.05272317
  0.00689992 -0.12350309  0.01347991  0.07166842 -0.15314063 -0.02192222
  0.05259765 -0.01800755 -0.01997707 -0.04306766  0.20252478  0.06830627
 -0.07955314 -0.12837391  0.13677207 -0.08217146 -0.05484937  0.04587087
 -0.14672479 -0.12265278 -0.28410888 -0.00976204  0.40724096  0.03523874
 -0.17186667  0.00187275 -0.11747503  0.01176052  0.12016338  0.08464446
 -0.03893863 -0.02381355 -0.07399016 -0.02424829  0.1469845  -0.13204899
 -0.06695399  0.22113131 -0.02532983  0.08679261  0.03648906 -0.00971622
  0.00265801  0.052364   -0.15841569 -0.03248946  0.00991533 -0.02993171
 -0.01493965  0.12077923 -0.20224655  0.07440387  0.05596424  0.00897386
  0.06368376 -0.03840874 -0.05527179 -0.0534424   0.094124   -0.2597459
  0.23347282  0.22481807  0.03307927  0.08125856  0.04951572  0.04599949
 -0.01069161 -0.03034306 -0.18517703 -0.02723569  0.08921055  0.04843604
 -0.00768092 -0.027375  ]