[-0.04322522  0.12863122  0.03476892 -0.0008396   0.01756211 -0.06882139
 -0.01645544 -0.15210037  0.13125132 -0.03572459  0.29102236 -0.04824586
 -0.19078942 -0.1521467  -0.03165754  0.15545656 -0.21717076 -0.06922888
 -0.07477006  0.02784576  0.08063153  0.02440988  0.09743255  0.02139157
 -0.00072723 -0.32513309 -0.12803978 -0.0936455   0.0680925  -0.02598907
 -0.05444519  0.0294913  -0.20115757 -0.13728471  0.04881755 -0.02135864
 -0.04065145 -0.04585711  0.18132873  0.04862975 -0.14353994  0.08110004
  0.00691557  0.26109558  0.22070031  0.09320142 -0.00828622 -0.1624912
  0.05818414 -0.16679059  0.03951524  0.14803329  0.07829742  0.04981867
  0.02268868 -0.10731158 -0.01559906  0.05630041 -0.10783835 -0.01792847
  0.04218666 -0.02193953 -0.02770241 -0.07492203  0.16286102  0.07142224
 -0.0712705  -0.14975266  0.12363715 -0.11042521 -0.10316069  0.0399166
 -0.15080407 -0.12884508 -0.28133637 -0.02368843  0.39239341  0.04402488
 -0.18560433  0.03557447 -0.12192982 -0.00663186  0.10248177  0.09182836
 -0.02227984 -0.00949468 -0.05474177 -0.04182228  0.17120202 -0.09019258
 -0.07071318  0.22121854 -0.03195347  0.0642118   0.0561044  -0.04642564
  0.02900957  0.03465215 -0.17751408 -0.05170405 -0.00433247 -0.03901195
 -0.03258097  0.09293331 -0.19456016  0.05404109  0.07734727  0.01973725
  0.08194283  0.00077    -0.10615008 -0.05450637  0.1127592  -0.24862595
  0.24891193  0.20388316  0.04873114  0.07723664  0.07307865  0.08769553
 -0.02670163 -0.00973638 -0.17071319 -0.05095105  0.0931613   0.06964307
  0.01920216 -0.02357535]