[-0.11439738  0.10488086  0.09399816 -0.02962264 -0.13817109 -0.05636866
 -0.06754214 -0.13422191  0.13567792 -0.10779561  0.19609819  0.00545751
 -0.18469313 -0.05558464 -0.03815429  0.20103335 -0.16885002 -0.15221933
 -0.00514017  0.03602986  0.03503932  0.01528274  0.08695301  0.02538092
 -0.08886767 -0.35946575 -0.12540616 -0.02499158  0.0081402  -0.03568543
 -0.09711194  0.04773512 -0.16363597 -0.0390054   0.05059568  0.11893302
 -0.07720484 -0.12129655  0.19664645  0.04126516 -0.26205379 -0.05663019
  0.03599178  0.2537435   0.22912703  0.01503857  0.02984738 -0.07006663
  0.09113007 -0.23334931  0.08461608  0.12522352  0.03088551  0.04080027
  0.05320974 -0.12936382  0.03335707  0.12808292 -0.11894303 -0.05252289
  0.06627309 -0.08781839  0.02741176 -0.07158328  0.23283081  0.14844422
 -0.07021928 -0.1343022   0.13855875 -0.14705411 -0.08048677  0.01823045
 -0.14885418 -0.17104755 -0.29117772 -0.03414227  0.41046053  0.14664291
 -0.13215663  0.04086781 -0.01314565 -0.02135516  0.12527294  0.1686389
 -0.0280128   0.06569015 -0.10345642 -0.01470614  0.22771907 -0.05576426
 -0.0570049   0.20772605 -0.00687005  0.06486762  0.0791008  -0.01372657
 -0.0139616   0.02589698 -0.15716396 -0.02671198 -0.01247672 -0.05018771
 -0.01951167  0.13702925 -0.15938994  0.07421315  0.01351744  0.02718822
 -0.00198615 -0.03703287 -0.10368832 -0.07875883  0.0917614  -0.21119475
  0.17091437  0.1805682  -0.00563366  0.14481235  0.09821603  0.07941672
  0.00408049 -0.04202022 -0.13757524 -0.01269756  0.09203207 -0.0075335
  0.09351747  0.03989033]