[-0.07743002  0.10934385  0.06627155 -0.01906757 -0.09152865 -0.02921844
 -0.06338473 -0.14050357  0.12095615 -0.12053877  0.19489823 -0.01829606
 -0.2089058  -0.0586835  -0.02725967  0.18086544 -0.1769146  -0.1316521
 -0.03648528  0.01634874  0.06083268  0.05757878  0.0651024   0.00837784
 -0.10752592 -0.35823569 -0.11899938 -0.04386162  0.04774208 -0.04351435
 -0.12681679  0.00727195 -0.15408365 -0.04313259  0.058348    0.105905
 -0.05211629 -0.10929503  0.19202821  0.04553887 -0.26144353 -0.01170997
  0.07730887  0.26396132  0.22782706  0.03216485 -0.00177199 -0.10630345
  0.10145042 -0.20809269  0.05657177  0.11929267  0.0238498   0.05166822
  0.05758565 -0.11620498  0.00506661  0.1093977  -0.12464235 -0.03429295
  0.07833785 -0.0757146  -0.01374521 -0.07254647  0.20667382  0.09431533
 -0.09355249 -0.14408486  0.1072784  -0.17938539 -0.09659155  0.0213972
 -0.12283315 -0.16634895 -0.28373328 -0.02046505  0.40185595  0.1384857
 -0.16067563  0.06930055  0.01907926 -0.04606486  0.18895671  0.18553357
 -0.00056891  0.07926303 -0.08855396  0.00910936  0.2383204  -0.0743378
 -0.01817532  0.21586762 -0.01376879  0.0868446   0.07602693  0.02088783
 -0.06656928  0.01983464 -0.19037853 -0.04348575  0.04928812 -0.02356832
 -0.00775274  0.13119709 -0.14396329  0.09445971  0.03191399 -0.00211134
  0.05015465 -0.05644347 -0.09938566 -0.07616526  0.10834152 -0.20535639
  0.15900049  0.18097344  0.00199786  0.11370995  0.12683952  0.06273192
  0.01669195 -0.01203991 -0.1957783  -0.03353029  0.0968762  -0.02134085
  0.08914077 -0.01622799]