[-0.05049595  0.12925465  0.04521791 -0.00476254  0.01741008 -0.09332333
 -0.02183507 -0.13661788  0.14316857 -0.04663743  0.22519688  0.00238665
 -0.16226657 -0.09330974 -0.02115161  0.14559212 -0.18941617 -0.06733532
 -0.07186672 -0.02742288  0.0560244   0.04395292  0.08427113  0.02945758
 -0.08133496 -0.30875525 -0.11313803 -0.10731073  0.07088207  0.01987492
 -0.03140616  0.0118899  -0.18712826 -0.11040657  0.07160157  0.02105958
 -0.04590609 -0.01274184  0.18550549  0.09720533 -0.15275988  0.07283833
  0.01492612  0.30934641  0.24023151  0.08495008  0.02823368 -0.12842941
  0.08283482 -0.19880919  0.0433758   0.12529336  0.06584092  0.04890596
  0.0641846  -0.11705475  0.01074061  0.04300692 -0.17493905  0.00804985
  0.05914137  0.01027446 -0.01414034 -0.01822001  0.2067385   0.10150073
 -0.09988772 -0.10100198  0.16123785 -0.14754891 -0.05789859  0.02572263
 -0.14116101 -0.11945808 -0.29430681 -0.01391188  0.44435787  0.08328841
 -0.144557    0.01907501 -0.1120721   0.0004639   0.1096113   0.0684263
 -0.07406422 -0.00054737 -0.02864009  0.0076253   0.1834524  -0.04535254
 -0.07971781  0.19363514 -0.0190243   0.0396863   0.05004616 -0.01191451
 -0.05832282 -0.00806856 -0.18942848 -0.07051664 -0.00594207 -0.04206644
  0.03048301  0.14170384 -0.21117155  0.10055362  0.05313427 -0.02458351
  0.04090207  0.07319818 -0.12988131 -0.05059716  0.11401957 -0.19620088
  0.24824198  0.19647269  0.02213587  0.06402917  0.06552917  0.03785694
 -0.03643574  0.01852372 -0.12746775 -0.06552459  0.0334808   0.02498295
  0.07644289 -0.01629057]