[-0.10581775  0.10261822  0.10589528 -0.03269708 -0.12985301 -0.06026156
 -0.05673279 -0.1344      0.11987885 -0.10529485  0.19635166 -0.0146953
 -0.18801586 -0.04942077 -0.04060989  0.20499519 -0.17989036 -0.14916085
 -0.00049072  0.03368876  0.03040047  0.02274362  0.07722714  0.02455916
 -0.08298995 -0.34168434 -0.13236462 -0.01137201  0.02349981 -0.02296627
 -0.0932586   0.03993479 -0.15059571 -0.02937829  0.05547112  0.12125316
 -0.07729597 -0.13236789  0.19312547  0.03500491 -0.26315996 -0.03716923
  0.05186684  0.26297623  0.25039589  0.02120869  0.01533017 -0.07547173
  0.09755938 -0.23593716  0.08276027  0.11810893  0.03012784  0.0393889
  0.05576744 -0.13222484  0.01714935  0.13380516 -0.12080491 -0.05079467
  0.05699747 -0.08440197  0.04231222 -0.08385412  0.22738659  0.13145962
 -0.08447216 -0.13796073  0.15370636 -0.16105905 -0.08231723  0.03005888
 -0.14258821 -0.16491227 -0.29476148 -0.02680558  0.40448102  0.14463449
 -0.12730537  0.05093284  0.00400446 -0.01997368  0.12897365  0.1853175
 -0.01459038  0.05754748 -0.10900646 -0.03080575  0.23176447 -0.06769317
 -0.059377    0.21714655 -0.00780747  0.06086517  0.07674741 -0.00859967
 -0.01652283  0.02657592 -0.17189144 -0.03569039 -0.01079553 -0.0465433
 -0.01814896  0.14337943 -0.15002729  0.07938456  0.01754125  0.03018926
 -0.00219501 -0.04424739 -0.09831963 -0.06944371  0.10077919 -0.22427928
  0.1630913   0.17586581 -0.00154345  0.13555644  0.10334904  0.07880231
  0.01246142 -0.04423661 -0.13462777 -0.01350211  0.08370413 -0.01336929
  0.0992163   0.04901483]