[-0.16466828  0.12939118  0.0862108  -0.02133189 -0.12717369 -0.02009111
 -0.04873234 -0.15605877  0.09003419 -0.0969797   0.20660053  0.02059889
 -0.18836528 -0.09095801 -0.01877592  0.17827797 -0.17847948 -0.14323728
 -0.0133944  -0.00117444  0.03178283  0.02961691  0.09788851  0.02800963
 -0.11008266 -0.35511723 -0.10272875 -0.01730736  0.02175789 -0.0554421
 -0.10453671  0.03895591 -0.15926088 -0.0155699   0.03243698  0.10157724
 -0.05318887 -0.09577199  0.19513658  0.02494816 -0.22260299  0.01719366
  0.06264835  0.28028545  0.20917045  0.00281085  0.03778892 -0.08190558
  0.09389216 -0.20730698  0.09774632  0.11841615  0.01857861  0.00581057
  0.0489624  -0.15568946 -0.03544265  0.09685843 -0.10832436 -0.00569735
  0.04907818 -0.06575941 -0.01453655 -0.10727151  0.16325609  0.15149431
 -0.07399288 -0.15761286  0.11142858 -0.1375777  -0.07301774  0.0195244
 -0.15538915 -0.18392669 -0.29462335  0.01859765  0.37775031  0.16361754
 -0.12115836  0.04731222  0.01013199 -0.02431243  0.10519528  0.16781481
 -0.06446657  0.07707169 -0.08181547  0.0538475   0.18749359 -0.0199452
 -0.07701055  0.22684966  0.01855147  0.05935484  0.07259194  0.01303885
 -0.03022755  0.0204975  -0.17693341 -0.01731843  0.00562238 -0.07725644
  0.01989053  0.13546479 -0.16353989  0.08294509  0.01182199  0.02332085
 -0.00774996 -0.00518458 -0.11045527 -0.04583859  0.06848896 -0.22700885
  0.16804956  0.20758072  0.02819084  0.15255474  0.12448092  0.05778585
  0.02830845  0.00265104 -0.11328869 -0.01397333  0.09815704 -0.0062604
  0.1038698   0.06164546]