[-0.05692681  0.15773726  0.06759631  0.02622952  0.02860866 -0.09084918
  0.01929656 -0.15010266  0.149756   -0.00715914  0.26785907 -0.01981883
 -0.18290751 -0.13322483 -0.020433    0.15346549 -0.2331413  -0.08893561
 -0.03713432  0.00246745  0.04384351  0.02245757  0.07789313  0.04827635
 -0.05719618 -0.29163167 -0.11801242 -0.1762846   0.0730143  -0.01181743
 -0.06514471  0.02656604 -0.17671247 -0.11899835  0.05527089 -0.01528641
 -0.01427623  0.00212517  0.1708256   0.06623697 -0.13263562  0.0386312
  0.00440184  0.31774339  0.20522018  0.07126299  0.02873675 -0.13237901
  0.03613009 -0.17752294  0.02505318  0.12674144  0.06536977  0.05085258
  0.01456497 -0.15595454 -0.0139441   0.02501555 -0.1593871   0.04160415
  0.0625433  -0.02387433 -0.04472312  0.00289927  0.23570268  0.07286686
 -0.10476178 -0.12166881  0.13508533 -0.13445345 -0.06627946  0.05396348
 -0.15082912 -0.11831763 -0.28555998 -0.01278649  0.43966922  0.02385465
 -0.1708536   0.03019807 -0.17853664 -0.0019543   0.09390149  0.08739074
 -0.04826373  0.02181618 -0.08237468 -0.0136828   0.16713125 -0.08361705
 -0.03832311  0.19610676 -0.0431503   0.03418609  0.03243442 -0.0221578
 -0.00429373  0.00863159 -0.16358073 -0.07285341 -0.00825146 -0.05128085
 -0.02131214  0.10797776 -0.23595762  0.03864489  0.09091388 -0.02607535
  0.04068172  0.0116128  -0.11557249 -0.06153313  0.1490262  -0.2532433
  0.25073543  0.21769714  0.03768308  0.06647646  0.02859833  0.03915003
 -0.04859668 -0.0288845  -0.13536924 -0.02112152  0.07220232  0.01568967
  0.02078354 -0.03671961]