[-0.04524244  0.12001909  0.06111157 -0.01265191  0.03469554 -0.10982306
  0.02038003 -0.14804092  0.11797959 -0.00420367  0.29334077 -0.02425568
 -0.17301127 -0.14903922 -0.01188189  0.15951158 -0.23006263 -0.08317614
 -0.04689973  0.03306819  0.06300959  0.00476416  0.06638848  0.03673267
 -0.04167077 -0.28526926 -0.12219542 -0.13651721  0.07829171 -0.01791921
 -0.03891699  0.01299541 -0.20684576 -0.11867062  0.04815972 -0.02713152
 -0.01215118 -0.04980744  0.17923461  0.07232994 -0.16722022  0.04890769
  0.01518256  0.28587994  0.17858249  0.08138417  0.03969168 -0.14949057
  0.04670723 -0.14762299  0.0477336   0.10726111  0.08023449  0.03247974
  0.00098677 -0.15674941  0.00661855  0.03276392 -0.16389558  0.02067346
  0.06866125 -0.00323403 -0.03808345 -0.03156252  0.21177697  0.06116601
 -0.09949793 -0.12485403  0.14149646 -0.10323644 -0.07433316  0.05390983
 -0.15429311 -0.12355275 -0.29383969 -0.00816556  0.40428525  0.01383302
 -0.18055052  0.02768005 -0.15293106  0.00537346  0.11030998  0.10708841
 -0.02635933  0.03326758 -0.07053655 -0.02687207  0.17874418 -0.08450978
 -0.04562473  0.19425009 -0.0404842   0.01463035  0.02199717 -0.02578895
  0.00695267  0.03701482 -0.14262949 -0.05862363  0.02175721 -0.03867593
 -0.02326731  0.12357414 -0.23196483  0.03436683  0.09394633 -0.02084389
  0.06469289  0.00926922 -0.10179224 -0.08503794  0.10441995 -0.24551196
  0.25344846  0.2191629   0.04313803  0.05009172  0.04558001  0.06166447
 -0.03587957 -0.02279102 -0.16290185 -0.02399882  0.08761877  0.03613082
  0.04260558 -0.03289024]