[-0.12427994  0.14002581  0.123239   -0.04272536 -0.12382857 -0.01765442
 -0.03975551 -0.12731127  0.12586133 -0.09784675  0.19312294 -0.01499144
 -0.23461473 -0.02965038  0.00891918  0.21315873 -0.13581757 -0.16281869
 -0.05014289  0.01492824  0.02041607 -0.00920034  0.05638874  0.0373813
 -0.13223377 -0.32723972 -0.07543337  0.00074323 -0.00310211 -0.03146178
 -0.08951612  0.02973984 -0.18298002 -0.0046098   0.04543661  0.11449692
 -0.08993141 -0.1335341   0.20018446 -0.02114952 -0.29165027 -0.03403116
  0.09322085  0.21915679  0.24072702  0.00814401  0.02774189 -0.09053891
  0.07704884 -0.23098056  0.0440295   0.12774639 -0.00838162  0.0285974
  0.08263019 -0.17078085  0.00742895  0.10496821 -0.10141312 -0.0799697
  0.04272516 -0.07352741 -0.00805472 -0.10020383  0.20942454  0.11071938
 -0.07805958 -0.12512797  0.15197994 -0.12384202 -0.0533547   0.04949277
 -0.14518034 -0.1907267  -0.30218714 -0.01966126  0.37220636  0.14239116
 -0.13338073  0.08415715  0.01303026  0.0104399   0.13079698  0.12124037
 -0.04082491  0.05164806 -0.09088497  0.03629518  0.24905637 -0.06852923
 -0.02273514  0.18142796  0.00913442 -0.00234434  0.0479621   0.0110802
 -0.02407805  0.01899801 -0.22318779 -0.03388731  0.04975486 -0.0289357
  0.00828692  0.13348725 -0.21249965  0.03285295  0.05515338 -0.01238932
 -0.002977   -0.01646238 -0.1434603  -0.04717321  0.09753629 -0.23735414
  0.1849954   0.18781026 -0.02426896  0.10430503  0.14393404  0.04874996
  0.02752256 -0.03350986 -0.11474782 -0.03752587  0.1291863   0.00462045
  0.12476271  0.04233994]