[-5.83222583e-02  1.19061269e-01  7.50898719e-02 -1.83462780e-02
  2.89176945e-02 -1.12743333e-01  8.59709457e-03 -1.44567966e-01
  1.03346519e-01  1.62578188e-02  2.95176446e-01 -4.15758304e-02
 -1.70591518e-01 -1.40401721e-01 -6.33166113e-04  1.61646947e-01
 -2.24990115e-01 -7.28026330e-02 -4.52816114e-02  1.45237772e-02
  8.17455575e-02  4.32033604e-03  6.65145740e-02  3.99381816e-02
 -4.51297313e-02 -2.90043384e-01 -1.27872810e-01 -1.36920974e-01
  7.95229524e-02 -8.81733373e-03 -3.03277429e-02  1.17843943e-02
 -2.00779110e-01 -1.21636823e-01  5.85012250e-02 -2.63914224e-02
 -6.35301275e-03 -5.36987558e-02  1.67403981e-01  6.36875778e-02
 -1.59709275e-01  5.45693897e-02  1.18924929e-02  2.70920396e-01
  1.76833004e-01  8.84782895e-02  5.13944626e-02 -1.47765562e-01
  2.64685806e-02 -1.43678173e-01  4.25912850e-02  1.16292886e-01
  6.21416643e-02  3.65142897e-02 -2.47236271e-03 -1.51257038e-01
  1.12296054e-02  3.77023406e-02 -1.69809878e-01  1.47741083e-02
  7.22907111e-02 -1.44459261e-02 -3.41741703e-02 -2.96592768e-02
  2.14931712e-01  7.03152195e-02 -1.05023734e-01 -1.29240334e-01
  1.39181226e-01 -8.54459405e-02 -7.31932968e-02  4.98109497e-02
 -1.65358350e-01 -1.19714141e-01 -2.90518373e-01  4.35691793e-03
  4.21225518e-01  2.83695030e-04 -1.94782481e-01  2.76603233e-02
 -1.61059946e-01  1.31195802e-02  1.13372520e-01  1.12051345e-01
 -1.46192089e-02  2.12741047e-02 -6.51775897e-02 -2.48991065e-02
  1.64513513e-01 -9.25119817e-02 -3.81754898e-02  2.02536106e-01
 -3.21479142e-02  2.45215986e-02  2.57541742e-02 -8.40953272e-03
  6.45489385e-03  3.61608565e-02 -1.29977256e-01 -5.66698983e-02
  1.61245745e-02 -2.30156630e-02 -1.71032902e-02  1.22293249e-01
 -2.24344283e-01  3.95835750e-02  9.29511040e-02 -2.32865382e-02
  4.70983945e-02  4.24524490e-03 -8.14298987e-02 -8.65377337e-02
  9.92470011e-02 -2.51111239e-01  2.40370318e-01  2.31806070e-01
  4.09477726e-02  5.72942495e-02  3.92088108e-02  6.39078170e-02
 -2.42088307e-02 -2.32001059e-02 -1.59941778e-01 -1.13110095e-02
  8.21837932e-02  4.19391021e-02  1.77150127e-02 -2.75460910e-02]