[-0.05174462  0.15338258  0.05129246  0.01378168  0.016861   -0.09077605
  0.0141634  -0.15389755  0.1402214  -0.00788854  0.27541107 -0.02157426
 -0.17691229 -0.13941239 -0.01980434  0.14497228 -0.23235786 -0.07642972
 -0.03804761  0.00417166  0.05258619  0.02878554  0.09412255  0.04319053
 -0.03672688 -0.28955624 -0.12486966 -0.16037293  0.08976846 -0.0200888
 -0.05933446  0.02701305 -0.18727969 -0.13019684  0.05603614 -0.01383513
 -0.01527627 -0.00462366  0.17819344  0.06062253 -0.13659206  0.04939496
  0.00682126  0.30846867  0.20718418  0.07675217  0.02224367 -0.13705172
  0.03579503 -0.15556747  0.02958916  0.12587209  0.08148251  0.03362165
  0.00212717 -0.14881897 -0.01943403  0.02323842 -0.14663401  0.0266349
  0.06081787 -0.02550167 -0.04345934 -0.00448651  0.22086079  0.06436371
 -0.09347089 -0.13268928  0.1388685  -0.12533484 -0.07585581  0.05999596
 -0.16031489 -0.11262906 -0.28233394 -0.01711376  0.43475866  0.01099083
 -0.16229251  0.03730106 -0.16794243 -0.00267449  0.08678081  0.09851135
 -0.0460382   0.02165132 -0.07483409 -0.00185331  0.16361834 -0.10030323
 -0.05364978  0.19074707 -0.04039809  0.05215869  0.03346656 -0.02502203
  0.01152182  0.02184087 -0.1623299  -0.06444891  0.00539475 -0.04985629
 -0.01847942  0.11559211 -0.23097609  0.03286445  0.09080702 -0.02344134
  0.05055247  0.00878797 -0.10756619 -0.06429999  0.14128804 -0.25382835
  0.2580626   0.22372067  0.03174595  0.06473207  0.03809836  0.04594722
 -0.02883626 -0.02534362 -0.14588292 -0.02553733  0.07542962  0.02569439
  0.02573727 -0.03352078]