[-6.79782256e-02  1.57605395e-01  6.39605522e-02  3.17765735e-02
  2.63688266e-02 -1.06042206e-01  2.21495070e-02 -1.67198107e-01
  1.41310945e-01 -1.16682956e-02  2.72938848e-01 -3.01007610e-02
 -1.75191462e-01 -1.41755804e-01 -6.05802052e-03  1.60622522e-01
 -2.37109095e-01 -6.34144768e-02 -5.77107035e-02 -6.86541898e-03
  3.33295949e-02  2.26672478e-02  1.07783735e-01  5.89693859e-02
 -5.41167930e-02 -2.91948140e-01 -1.15908466e-01 -1.67652220e-01
  9.01375115e-02  1.77020486e-02 -7.13742003e-02  2.60570254e-02
 -1.83986887e-01 -1.23323858e-01  5.89396022e-02 -9.68397129e-03
 -1.75956599e-02 -2.43231887e-03  1.83431730e-01  5.20139895e-02
 -1.38130829e-01  4.19292264e-02  8.11836775e-03  3.13435465e-01
  2.17871770e-01  7.14109242e-02  2.56153531e-02 -1.29880071e-01
  5.38119189e-02 -1.81543976e-01  2.92676929e-02  1.18204355e-01
  7.64598474e-02  3.39765921e-02  1.99386030e-02 -1.60042495e-01
  4.63713938e-03  3.13414484e-02 -1.55873492e-01  2.13495176e-02
  6.44296408e-02 -2.39798408e-02 -3.53451371e-02  1.64073445e-02
  2.37566739e-01  7.65557066e-02 -9.70784649e-02 -1.09775282e-01
  1.43444210e-01 -1.23889938e-01 -4.52256799e-02  5.57248853e-02
 -1.61233574e-01 -1.23851709e-01 -3.07700843e-01 -1.95379797e-02
  4.52668875e-01  3.04460861e-02 -1.64548919e-01  2.85423491e-02
 -1.81085855e-01  1.30655840e-02  1.08056419e-01  8.32383707e-02
 -6.12130575e-02 -5.13222069e-04 -9.00205895e-02 -2.35388242e-03
  1.66004702e-01 -9.69299451e-02 -4.74665426e-02  2.05803916e-01
 -2.27609631e-02  3.32456678e-02  2.16056649e-02 -3.54834460e-02
  2.12145605e-04  1.11251790e-02 -1.64760634e-01 -5.29286638e-02
  7.91272521e-03 -4.69614267e-02 -8.07930809e-03  1.08839564e-01
 -2.64208078e-01  3.75639461e-02  1.00499429e-01 -2.57287156e-02
  5.35071008e-02  7.88095780e-03 -1.21441387e-01 -5.19728661e-02
  1.39206469e-01 -2.56791055e-01  2.56506234e-01  2.24582180e-01
  3.82972211e-02  7.65681863e-02  2.90256925e-02  3.01351249e-02
 -3.91105227e-02 -2.45797299e-02 -1.31537110e-01 -2.36026328e-02
  8.27585533e-02  9.27200355e-03  2.84799039e-02 -1.91901047e-02]