[-0.04507386  0.12035006  0.04028481 -0.00578444  0.02017944 -0.07951649
 -0.01127186 -0.15605138  0.11706914 -0.03780969  0.30123538 -0.02998207
 -0.16769888 -0.15841368 -0.02546462  0.16231537 -0.21977918 -0.08157627
 -0.07527491  0.04716272  0.06852571  0.00163431  0.09197164  0.03460699
 -0.0080525  -0.31612784 -0.1350196  -0.0879323   0.08089621 -0.01077385
 -0.05064324  0.0265584  -0.20731674 -0.1249931   0.04241301 -0.0085129
 -0.03092977 -0.04763222  0.18609872  0.05008131 -0.1532595   0.07765477
 -0.00716718  0.26895565  0.21033914  0.09225648  0.01075124 -0.16779239
  0.0649216  -0.18005322  0.04126332  0.13558444  0.06487004  0.04793818
  0.0112258  -0.11734452  0.00370404  0.0589411  -0.12655447 -0.0230248
  0.02411776 -0.00448766 -0.02673565 -0.08280214  0.18124816  0.08641627
 -0.07577535 -0.14934975  0.14568684 -0.10911405 -0.08975346  0.04801657
 -0.15082933 -0.13159639 -0.29205412 -0.01846733  0.3971175   0.04721744
 -0.18922283  0.03271965 -0.12200878 -0.00531976  0.11066878  0.09367796
 -0.02113557  0.00080417 -0.06330114 -0.03726135  0.18025073 -0.09132515
 -0.05417028  0.22119443 -0.01945576  0.06195647  0.05296059 -0.03179662
  0.03579221  0.04998196 -0.18208323 -0.03283224  0.00444082 -0.0204849
 -0.02554465  0.10247711 -0.19032156  0.05724325  0.07804459  0.01318286
  0.08100455 -0.00150265 -0.10741083 -0.07332263  0.10776776 -0.24972598
  0.24734245  0.21292202  0.04090178  0.06648283  0.06802968  0.09042729
 -0.03547266 -0.01890536 -0.18134628 -0.03190671  0.1004793   0.0457641
  0.00672058 -0.02299915]