[-0.02656549  0.14371975  0.0526845  -0.00194304  0.01439476 -0.05004797
  0.00510617 -0.1547949   0.12315948 -0.01783909  0.29642555 -0.05756294
 -0.18127321 -0.13666008 -0.03429408  0.14939822 -0.2089244  -0.05208459
 -0.06756201 -0.00131401  0.06657124  0.03525272  0.0915378   0.01204178
 -0.01506581 -0.31154999 -0.11899336 -0.0809113   0.12488796 -0.00062613
 -0.05879087  0.03215101 -0.20421343 -0.12686203  0.05509942 -0.01917874
 -0.0485198  -0.03440984  0.18219216  0.06861082 -0.13858891  0.06302595
 -0.01503153  0.28952739  0.2075419   0.10100906 -0.01655828 -0.1481085
  0.05992777 -0.19773972  0.03615414  0.15015773  0.06118358  0.05972728
 -0.0063225  -0.12121935  0.00507652  0.04728499 -0.14763485 -0.02917803
  0.03038676 -0.04248966 -0.00772632 -0.04446205  0.17920478  0.07490192
 -0.07182647 -0.11028905  0.13275407 -0.09639197 -0.04815441  0.04142963
 -0.1274863  -0.11843997 -0.27791813 -0.00931404  0.41975173  0.03895909
 -0.18395615  0.00973853 -0.13415755  0.00114454  0.13245581  0.07555399
 -0.04498487 -0.00851012 -0.07048225 -0.02502046  0.16493557 -0.12429078
 -0.05678044  0.23511386 -0.01857397  0.06817654  0.05776703  0.00332544
  0.00121436  0.03128397 -0.1704361  -0.04939219  0.019478   -0.03960386
 -0.01130771  0.10686793 -0.22752343  0.09878945  0.095214   -0.00966108
  0.07645138 -0.04707314 -0.06872595 -0.04951802  0.12379539 -0.24770217
  0.23982556  0.21233094  0.02534633  0.10796151  0.05494738  0.05404116
 -0.03867147 -0.05005968 -0.14146748 -0.05285996  0.08206623  0.04355342
  0.0012624  -0.02850917]