[-0.05029589  0.13214493  0.05976094  0.00196299 -0.00386136 -0.06560723
  0.01236455 -0.15294598  0.13952011 -0.04087758  0.30620322 -0.05647679
 -0.18401352 -0.15078701 -0.01206279  0.15594749 -0.1915938  -0.05373125
 -0.06180177  0.00465501  0.05141085  0.02901225  0.10224142  0.02760229
  0.00855217 -0.34292129 -0.12697139 -0.11319523  0.10998716 -0.0265215
 -0.05612082  0.03246942 -0.18030737 -0.13955976  0.03581501 -0.02689916
 -0.04398593 -0.04278242  0.18421803  0.07839456 -0.12910515  0.04837052
 -0.02370719  0.28504989  0.19400747  0.08075177  0.01437315 -0.14537242
  0.04766904 -0.16767295  0.02181711  0.12164676  0.06063789  0.03375209
  0.03035927 -0.12303126 -0.00703466  0.03301155 -0.14400497 -0.00795099
  0.03936408 -0.02578513 -0.037726   -0.04904686  0.19419855  0.08678886
 -0.05050303 -0.12939934  0.14858221 -0.10085509 -0.06670699  0.03972767
 -0.14802682 -0.1076216  -0.25336605 -0.01457468  0.40346581  0.04189643
 -0.18314132  0.01187572 -0.13568459 -0.00727021  0.11384423  0.09050979
 -0.02257075 -0.00964578 -0.06104759 -0.03548067  0.13262367 -0.10360265
 -0.04866062  0.22071667 -0.02526943  0.06235654  0.0599577  -0.0473888
 -0.00731343  0.03605085 -0.16575058 -0.06960899  0.0089365  -0.04461583
 -0.00582614  0.08845507 -0.22049074  0.0754381   0.07716481 -0.00983255
  0.07409915 -0.01846338 -0.07339118 -0.04231393  0.12387671 -0.23679259
  0.23645397  0.20916867  0.03004004  0.09676594  0.0437481   0.06587569
 -0.03644998 -0.02387759 -0.14838634 -0.03505449  0.06584027  0.03850218
 -0.00974164 -0.03111257]