[ 3.28457286e-03  1.42479941e-01  3.12471725e-02  2.45560752e-03
  3.02816945e-04 -8.86390507e-02 -4.07480169e-03 -1.46145269e-01
  1.05844460e-01 -2.60357205e-02  2.97007769e-01 -6.10709079e-02
 -1.72372475e-01 -1.43352777e-01 -1.72702838e-02  1.53960496e-01
 -2.03589424e-01 -3.92486304e-02 -8.18530992e-02  3.58043015e-02
  5.25403209e-02  1.55567192e-03  1.32534206e-01  1.28181251e-02
  1.37526693e-03 -3.34937155e-01 -1.33390874e-01 -8.59500989e-02
  1.19841635e-01 -5.32988785e-03 -4.39535975e-02  4.14773077e-02
 -1.93272859e-01 -1.46292493e-01  5.07610440e-02 -2.29749251e-02
 -4.28479239e-02 -3.32423151e-02  1.92638263e-01  7.82389268e-02
 -1.39281645e-01  6.43941537e-02 -2.49067415e-02  2.79303223e-01
  2.20991090e-01  9.40673500e-02  2.73307357e-02 -1.46144092e-01
  5.09265177e-02 -1.94010183e-01  4.20674048e-02  1.11016504e-01
  8.07350576e-02  5.69071956e-02  1.44665409e-02 -1.10855661e-01
  3.00286561e-02  6.79146796e-02 -1.67899549e-01 -3.65595669e-02
  3.37947644e-02  3.20238923e-03  1.37825438e-03 -2.81902794e-02
  1.91753551e-01  7.96332434e-02 -6.17306195e-02 -1.03543870e-01
  1.39108494e-01 -1.04786992e-01 -4.22874540e-02  3.96815948e-02
 -1.30637690e-01 -1.20210268e-01 -2.90803611e-01 -2.68303342e-02
  4.02005881e-01  6.81512952e-02 -1.71606764e-01 -4.10083588e-03
 -1.33322820e-01 -1.06176324e-02  1.08692966e-01  6.31880090e-02
 -4.54540923e-02 -1.37622822e-02 -6.78757951e-02 -2.37344243e-02
  1.41472921e-01 -1.23205304e-01 -6.21603504e-02  2.26053596e-01
 -1.18880002e-02  7.05718845e-02  5.15694283e-02 -2.15492882e-02
 -5.33596438e-04  3.81527320e-02 -1.72633976e-01 -4.29941416e-02
 -9.19279922e-03 -4.46111821e-02 -1.46659063e-02  9.87839848e-02
 -2.20888376e-01  8.30935314e-02  7.05576912e-02 -1.64152291e-02
  5.80426119e-02 -2.23284718e-02 -6.74380660e-02 -5.44630401e-02
  1.11005448e-01 -2.46439561e-01  2.23546699e-01  2.30202511e-01
  1.83121916e-02  9.19833109e-02  4.74901497e-02  5.28781302e-02
 -3.12787890e-02 -4.49408889e-02 -1.42206177e-01 -4.04029004e-02
  6.59847930e-02  4.90380488e-02 -1.40657579e-03 -2.27788780e-02]