[-1.55590177e-01  1.17078878e-01  9.03891101e-02 -2.37851329e-02
 -1.15305208e-01 -1.45434933e-02 -4.08246666e-02 -1.33575946e-01
  9.57048163e-02 -9.81520638e-02  2.26069212e-01  2.92653590e-02
 -2.15116531e-01 -1.13369323e-01  3.30024021e-04  1.69656903e-01
 -1.76130056e-01 -1.21020451e-01 -7.93199334e-03  7.15644378e-03
  3.57912518e-02  5.34892315e-03  9.64435264e-02  5.20754941e-02
 -1.17447332e-01 -3.59969139e-01 -1.19301319e-01 -3.38721238e-02
 -7.91596342e-03 -7.78039247e-02 -1.08805321e-01  3.92809771e-02
 -1.45203471e-01 -1.70676839e-02  1.83718987e-02  9.53957140e-02
 -6.82638064e-02 -9.51097682e-02  2.04083398e-01  3.17191817e-02
 -2.19161272e-01 -1.06848953e-02  4.10291217e-02  2.74380326e-01
  2.19202548e-01  5.18764695e-03  2.36610230e-02 -6.81970268e-02
  1.11412443e-01 -2.43539572e-01  9.96860638e-02  1.36247531e-01
  3.13238017e-02  9.18231998e-03  6.26567602e-02 -1.44432530e-01
 -3.21620367e-02  1.12198614e-01 -1.38486832e-01 -1.50465742e-02
  1.34854540e-02 -8.82242247e-02  6.90701324e-03 -1.11635737e-01
  1.48106262e-01  1.65698394e-01 -7.97142535e-02 -1.44238546e-01
  1.14556246e-01 -1.50198892e-01 -5.78350686e-02  4.14345190e-02
 -1.54454038e-01 -2.17660338e-01 -2.99222618e-01  2.40923762e-02
  3.70546609e-01  1.91646680e-01 -1.07749082e-01  2.25589760e-02
 -2.12284699e-02 -6.45120367e-02  8.37109908e-02  1.48110136e-01
 -5.82335852e-02  5.71569689e-02 -8.11985359e-02  6.23380803e-02
  1.81157216e-01 -3.11057698e-02 -5.08812033e-02  2.47332364e-01
  3.75333289e-03  6.91186935e-02  5.73229082e-02  2.68948753e-03
 -3.69634144e-02  3.49173360e-02 -1.66286021e-01 -1.32009690e-03
 -1.33467903e-02 -9.76105779e-02  3.04357056e-02  1.16749644e-01
 -1.84823230e-01  7.27442726e-02  1.53639708e-02 -1.03729439e-03
 -1.88761223e-02 -3.57656665e-02 -1.42694905e-01 -3.76308821e-02
  9.05201659e-02 -2.48304725e-01  1.66515276e-01  2.11405396e-01
  3.37410383e-02  1.51975140e-01  1.11492686e-01  4.65963706e-02
  1.36514623e-02 -5.60192354e-02 -1.16222106e-01  7.62866065e-03
  1.15047000e-01 -1.03298854e-02  9.17300731e-02  3.51386331e-02]