[-1.61059186e-01  1.26288995e-01  8.30736309e-02 -3.53498086e-02
 -1.16225779e-01 -2.46589035e-02 -4.45927680e-02 -1.36196673e-01
  1.14341058e-01 -9.44830850e-02  2.17776209e-01  2.04878431e-02
 -2.09744960e-01 -9.69446748e-02 -3.29743735e-02  1.96695298e-01
 -1.92635551e-01 -1.43769160e-01 -7.12238252e-03  1.14059402e-02
  5.83651550e-02  2.03028899e-02  9.91594270e-02  3.09012420e-02
 -1.10316634e-01 -3.60233605e-01 -9.66853425e-02 -1.67988706e-02
  6.44912419e-04 -6.72818795e-02 -1.08321205e-01  4.60557938e-02
 -1.75354823e-01 -3.15933749e-02  3.71981114e-02  1.13073014e-01
 -4.27258424e-02 -8.80808830e-02  1.91823810e-01  2.81429831e-02
 -2.41463140e-01  2.66893450e-02  6.45517632e-02  2.74982601e-01
  2.08495900e-01  4.31061257e-03  2.69802120e-02 -1.01026297e-01
  8.92542154e-02 -2.02474743e-01  9.35538262e-02  1.32018849e-01
  2.41374876e-02  1.60563048e-02  3.79136167e-02 -1.49504393e-01
 -2.65427660e-02  1.00012518e-01 -1.06317900e-01 -1.58182885e-02
  5.78808151e-02 -7.73529634e-02  2.75980285e-03 -1.10409223e-01
  1.63813069e-01  1.28083035e-01 -8.13971534e-02 -1.67302758e-01
  1.05808929e-01 -1.30754337e-01 -7.37678334e-02  3.18785049e-02
 -1.61024272e-01 -1.90870285e-01 -2.94101775e-01  1.87805761e-02
  3.76379251e-01  1.58927634e-01 -1.31214932e-01  5.80903366e-02
 -9.23427939e-03 -3.60403955e-02  9.63633880e-02  1.86909005e-01
 -3.85000631e-02  9.57696661e-02 -8.32515806e-02  4.93416153e-02
  1.94417953e-01 -2.79154684e-02 -6.93129078e-02  2.36828595e-01
  1.53089017e-02  6.96352273e-02  7.13509843e-02  6.29395992e-03
 -3.63626219e-02  2.75697019e-02 -1.86036497e-01 -2.92306729e-02
 -1.51135689e-02 -7.77901560e-02  6.92425063e-03  1.28117323e-01
 -1.59635514e-01  7.14031085e-02  1.07950624e-02  2.19445340e-02
 -1.35758016e-02 -1.08053166e-04 -9.97242555e-02 -6.30926192e-02
  6.37760237e-02 -2.27604821e-01  1.85304835e-01  2.14414552e-01
  4.45756316e-02  1.44161567e-01  1.27410695e-01  6.93762004e-02
  2.95409095e-02 -2.22787797e-03 -1.14565395e-01 -2.21750140e-03
  1.05566062e-01 -4.30251053e-03  1.20780967e-01  4.71831746e-02]