[-1.03098869e-01  1.03008270e-01  1.00997746e-01 -2.88141370e-02
 -1.29479080e-01 -5.93528859e-02 -4.62581776e-02 -1.34697959e-01
  1.37857243e-01 -8.42993408e-02  1.94285735e-01  2.22394499e-03
 -1.87729329e-01 -4.13511805e-02 -2.36345306e-02  1.86325341e-01
 -1.66724399e-01 -1.46648645e-01 -1.08680995e-02  2.82945167e-02
  3.93803082e-02  1.96596533e-02  9.98337790e-02  2.46181451e-02
 -9.86973569e-02 -3.46394897e-01 -1.41968682e-01 -1.80517416e-02
  3.35850082e-02 -4.69359569e-02 -9.11017880e-02  4.15824540e-02
 -1.60661370e-01 -3.73136029e-02  5.69510572e-02  9.81455222e-02
 -1.03672683e-01 -1.56729981e-01  2.09684089e-01  3.93183380e-02
 -2.53405273e-01 -5.40965684e-02  3.73365209e-02  2.47273952e-01
  2.36390695e-01  1.21891503e-06  3.32455151e-02 -6.41197488e-02
  8.66635218e-02 -2.39646792e-01  9.06888917e-02  1.30053684e-01
  1.56591572e-02  4.95329052e-02  6.77233189e-02 -1.24144219e-01
  1.59497242e-02  1.48677588e-01 -1.31590351e-01 -3.41114365e-02
  5.35168163e-02 -8.90603736e-02  2.73570903e-02 -7.80542120e-02
  2.00087115e-01  1.58451304e-01 -6.65305778e-02 -1.41872332e-01
  1.45763382e-01 -1.50718972e-01 -8.09598938e-02  2.76604574e-02
 -1.44553527e-01 -1.81043670e-01 -2.79387683e-01 -3.33411656e-02
  3.95325750e-01  1.44548371e-01 -1.22042894e-01  4.68462221e-02
 -4.29940363e-03 -2.45391782e-02  1.06958203e-01  1.57644823e-01
 -3.98222394e-02  7.02498332e-02 -1.04262233e-01 -9.20399558e-03
  2.30292305e-01 -5.45978062e-02 -6.65981397e-02  2.23507270e-01
 -1.35164261e-02  4.87291887e-02  9.17004272e-02 -3.83819640e-03
 -1.33093540e-02  1.01209208e-02 -1.68474063e-01 -3.99345011e-02
 -1.06035953e-03 -6.36116043e-02 -2.39512082e-02  1.40759572e-01
 -1.59999490e-01  8.09802562e-02  1.96028370e-02  1.65100340e-02
 -1.70563012e-02 -5.61514199e-02 -1.09999597e-01 -5.53637706e-02
  9.64867398e-02 -2.25310966e-01  1.73411146e-01  1.77671537e-01
 -4.72650118e-03  1.40288219e-01  8.66503790e-02  6.31519407e-02
  1.15135442e-02 -4.95112725e-02 -1.19652919e-01 -1.55416355e-02
  8.88612792e-02  1.26047079e-02  8.56286883e-02  4.31334786e-02]