[-9.42088291e-02  1.27464890e-01  8.19577798e-02 -3.32091227e-02
 -1.08227231e-01 -2.89423596e-02 -6.47641420e-02 -1.22578539e-01
  1.32364109e-01 -9.48068127e-02  1.78113997e-01  9.09473783e-06
 -2.04715252e-01 -7.95194134e-02 -2.98332758e-02  1.81726232e-01
 -1.59800112e-01 -1.31536156e-01 -2.65396181e-02  1.67921335e-02
  6.72040805e-02  3.31734829e-02  1.02599122e-01  3.11593767e-02
 -9.97726768e-02 -3.62882763e-01 -1.01088084e-01 -5.74009679e-02
  5.44917816e-03 -6.43013939e-02 -1.12005845e-01  4.00822721e-02
 -1.62397817e-01 -3.58104743e-02  3.17140892e-02  1.29669681e-01
 -5.35182059e-02 -9.65971276e-02  1.87409669e-01  2.12910678e-02
 -2.56109148e-01 -3.37271020e-02  5.89031577e-02  2.56737232e-01
  2.30796322e-01  1.14724450e-02  1.27106858e-02 -7.62339756e-02
  1.04682855e-01 -2.27570936e-01  7.42918476e-02  1.28079936e-01
  2.14113630e-02  3.07491869e-02  8.04758742e-02 -1.10761784e-01
  1.71316024e-02  9.49428007e-02 -1.12418726e-01 -4.42430414e-02
  6.13057129e-02 -8.13845396e-02 -1.50893331e-02 -8.63129720e-02
  2.03090981e-01  1.12961046e-01 -7.57140145e-02 -1.40610322e-01
  9.02974829e-02 -1.59893736e-01 -8.24608132e-02  3.91962230e-02
 -1.45055577e-01 -1.63396701e-01 -2.96086401e-01 -1.30608622e-02
  3.82363558e-01  1.42876491e-01 -1.49772525e-01  6.12292066e-02
 -1.05518522e-02 -3.44666429e-02  1.35375172e-01  1.51804730e-01
 -2.88709309e-02  9.58839580e-02 -1.14355981e-01  3.08527779e-02
  2.14048743e-01 -8.59939083e-02 -2.81919725e-02  2.16119915e-01
 -1.10280206e-02  7.54428878e-02  5.95071800e-02  8.09190236e-03
 -5.16360663e-02  3.12783197e-02 -1.96581781e-01 -3.19109224e-02
  5.74540980e-02 -4.49031666e-02 -2.01638136e-02  1.15886919e-01
 -1.69811100e-01  4.80671227e-02  1.39281452e-02 -4.88071842e-03
  2.29676124e-02 -5.65900803e-02 -1.43352479e-01 -7.86825940e-02
  1.16941229e-01 -1.96901619e-01  1.57720268e-01  1.85495839e-01
 -3.62473098e-03  1.13303803e-01  1.30347937e-01  6.77180439e-02
  9.83405579e-03 -3.48357968e-02 -1.46149442e-01 -1.41058955e-02
  1.27239510e-01  1.44521974e-03  7.33892173e-02  4.87495214e-04]