[-6.48604780e-02  1.61168024e-01  5.84724434e-02  1.79541744e-02
  2.83927023e-02 -1.07087962e-01  2.18590256e-02 -1.74746439e-01
  1.36887908e-01 -1.09935915e-02  2.83085793e-01 -2.29717623e-02
 -1.71766475e-01 -1.40563965e-01 -1.07342722e-02  1.47542313e-01
 -2.38661125e-01 -6.58866987e-02 -5.42025864e-02 -5.13027934e-03
  4.91385423e-02  2.42129639e-02  1.06279723e-01  6.45615831e-02
 -3.81004401e-02 -2.82175988e-01 -1.24954022e-01 -1.70317888e-01
  1.00770392e-01  1.53532994e-04 -5.77560030e-02  2.23741494e-02
 -1.82449132e-01 -1.15291238e-01  4.43864651e-02 -1.75500251e-02
 -1.21154515e-02 -1.21710822e-02  1.87020987e-01  5.78644872e-02
 -1.38202295e-01  5.42224161e-02 -1.24615422e-02  3.10023636e-01
  2.16308668e-01  6.48499280e-02  2.81538572e-02 -1.24756530e-01
  3.81314792e-02 -1.68055683e-01  2.75514629e-02  1.26810014e-01
  7.74837807e-02  2.53795031e-02  4.17214539e-03 -1.59931093e-01
 -1.10880015e-02  1.60670113e-02 -1.45512998e-01  1.56334098e-02
  5.65341525e-02 -2.99067888e-02 -3.76173854e-02  1.49466665e-02
  2.20516011e-01  8.32954869e-02 -9.41332206e-02 -1.14069477e-01
  1.47450730e-01 -1.28768310e-01 -6.24935031e-02  5.24917953e-02
 -1.69679433e-01 -1.11597717e-01 -2.85742730e-01 -1.82210263e-02
  4.54778254e-01  2.17599850e-02 -1.75045520e-01  3.20435837e-02
 -1.89762652e-01  1.39070153e-02  1.01411320e-01  9.63908136e-02
 -5.13733290e-02  6.14115689e-03 -9.06486586e-02 -3.40875401e-03
  1.55734465e-01 -1.02652550e-01 -5.60322963e-02  2.10088968e-01
 -2.19623279e-02  4.31326665e-02  3.09791621e-02 -3.62700596e-02
  1.52646303e-02  1.09248161e-02 -1.53369948e-01 -5.61750643e-02
  3.31563177e-03 -3.96441855e-02 -1.96533389e-02  1.13494098e-01
 -2.48037934e-01  4.08182703e-02  1.04740478e-01 -2.34975498e-02
  5.33838868e-02  1.76358502e-02 -1.05159178e-01 -6.42959177e-02
  1.35817274e-01 -2.47080356e-01  2.52226949e-01  2.31295392e-01
  2.84718461e-02  7.45203644e-02  3.01897079e-02  4.42442261e-02
 -3.15989703e-02 -2.52420660e-02 -1.36636168e-01 -2.57377215e-02
  7.54576921e-02  2.77927518e-02  1.61769837e-02 -2.46196408e-02]