[-0.05540899  0.14322688  0.05353602  0.02050382  0.01847591 -0.10099025
  0.01502798 -0.16608034  0.13835633 -0.01199752  0.2750062  -0.01803446
 -0.17596538 -0.14773944 -0.00996246  0.14959113 -0.23516408 -0.07478548
 -0.04483207 -0.00266365  0.04307387  0.02687134  0.10337646  0.04736196
 -0.04969949 -0.28853637 -0.1217     -0.17121777  0.07992887 -0.00562027
 -0.06742512  0.02875263 -0.18781872 -0.1277708   0.0576437  -0.01375742
 -0.01740927 -0.00381382  0.17872356  0.05272739 -0.13751094  0.04867515
  0.01232994  0.30626509  0.21109016  0.07523137  0.02754468 -0.12996703
  0.04687168 -0.16046317  0.03901128  0.11587721  0.08354856  0.02795704
  0.01446195 -0.15097879 -0.01867935  0.03052652 -0.14459164  0.02708396
  0.06635018 -0.02128474 -0.04864211  0.00212613  0.23104647  0.0752345
 -0.09592276 -0.1271555   0.14019029 -0.12381925 -0.07626581  0.05790342
 -0.16593106 -0.1127724  -0.29284009 -0.0231213   0.43091488  0.01225488
 -0.16831683  0.02983798 -0.17505001  0.01212939  0.09777281  0.08841753
 -0.0409472   0.01386195 -0.08620837 -0.00789332  0.16757816 -0.10029779
 -0.05535532  0.19531164 -0.03203981  0.03835569  0.02678918 -0.03037175
  0.0059426   0.01477979 -0.16729163 -0.06666775  0.01167088 -0.03479683
 -0.01876577  0.11597612 -0.23740955  0.03170693  0.09169621 -0.01893686
  0.05448511  0.00657519 -0.11383935 -0.06452939  0.13034701 -0.25538221
  0.25651264  0.21571353  0.03255372  0.06465655  0.02829346  0.03588827
 -0.03617435 -0.02423776 -0.14989132 -0.02934601  0.0831705   0.02694022
  0.02891609 -0.02663603]