[-0.02435829  0.14657007  0.05582185 -0.00275796  0.01315784 -0.04318258
 -0.00147324 -0.15882897  0.12723213 -0.02761411  0.29684734 -0.06276679
 -0.18804911 -0.13601305 -0.03589994  0.15200292 -0.21107237 -0.05833023
 -0.06175691  0.00956466  0.06748091  0.03202594  0.08516877  0.00978655
 -0.01404604 -0.31624386 -0.11816833 -0.07900494  0.12386079 -0.00080082
 -0.06636878  0.02907371 -0.19955727 -0.1195956   0.0538782  -0.01597931
 -0.0519779  -0.0410556   0.18423116  0.06768359 -0.14508907  0.06036246
 -0.01720191  0.28364927  0.21042204  0.10171391 -0.01587569 -0.15249513
  0.06551861 -0.19929433  0.02894939  0.15491794  0.0584283   0.05774696
 -0.00627074 -0.1291634   0.00668411  0.04905981 -0.14970647 -0.02844883
  0.03603404 -0.04439936 -0.00624733 -0.04053047  0.183102    0.0747107
 -0.07391755 -0.11281134  0.13717617 -0.09972248 -0.04448789  0.04495662
 -0.12831996 -0.12309188 -0.27145669 -0.016105    0.4203971   0.03847218
 -0.18127246  0.008879   -0.12947707  0.00232662  0.1392533   0.07673048
 -0.04467385 -0.01350578 -0.07529753 -0.03313665  0.17369044 -0.12012179
 -0.05131938  0.23522393 -0.01973978  0.06662609  0.05832744 -0.00044031
  0.00264137  0.03027545 -0.17017078 -0.04945424  0.01446626 -0.0456899
 -0.01478276  0.10717759 -0.22798534  0.09570406  0.09282368 -0.00618048
  0.07711753 -0.05429969 -0.07209736 -0.04410104  0.12910697 -0.25121439
  0.23700021  0.20920794  0.03347801  0.10607994  0.05898309  0.05439938
 -0.03952377 -0.05444204 -0.14877425 -0.05432418  0.07889429  0.03936721
  0.00479407 -0.03260742]