[ 0.00271573  0.14885174  0.00250793 -0.00344824  0.02735347 -0.08749951
 -0.0131254  -0.16666786  0.12564321 -0.01614777  0.27769828 -0.04169836
 -0.18359463 -0.14493205 -0.05158864  0.16567168 -0.24263687 -0.07738125
 -0.0801537   0.00770789  0.08343785  0.02353417  0.09751859  0.02084623
 -0.00773968 -0.32316655 -0.13923202 -0.09630255  0.10918212 -0.03449434
 -0.04488201  0.02640442 -0.19981758 -0.13803436  0.06014816 -0.03396862
 -0.04303245 -0.04569646  0.20078464  0.06653057 -0.13794063  0.05931634
  0.00779589  0.30057046  0.21058999  0.10274222  0.00743658 -0.16584587
  0.03569775 -0.18381901  0.04616503  0.14680581  0.04928716  0.08026127
 -0.00995315 -0.13037646  0.006776    0.05402334 -0.16198064 -0.02095936
  0.04669422 -0.03003756 -0.03084561 -0.03900758  0.20153551  0.07168522
 -0.09204673 -0.12702458  0.13221072 -0.12352266 -0.06847241  0.01749834
 -0.12907429 -0.13196121 -0.3016009  -0.02435941  0.41648945  0.03927715
 -0.17389376  0.02837543 -0.12728247 -0.01771414  0.13292807  0.08616076
 -0.04175069  0.00700057 -0.06913912 -0.00350864  0.16328405 -0.11135445
 -0.07191645  0.21669798 -0.0349448   0.06867854  0.05831865  0.02005844
  0.0043269   0.04596959 -0.17450209 -0.02646225  0.02150891 -0.03062929
 -0.02796871  0.11326239 -0.17486259  0.07713526  0.09653056 -0.01422137
  0.05620984 -0.03053718 -0.10563651 -0.0830552   0.12725981 -0.24812622
  0.25763103  0.23218928  0.03609464  0.09260953  0.05512456  0.06959513
 -0.03185353 -0.05201551 -0.18515109 -0.03217103  0.08343815  0.06043693
  0.01154884 -0.02951922]