[-1.58222869e-01  1.30547583e-01  8.90837908e-02 -2.81409025e-02
 -1.17063344e-01 -2.95007508e-02 -4.28488366e-02 -1.40576228e-01
  1.02746144e-01 -9.60137397e-02  2.13581234e-01  1.78943779e-02
 -1.92157313e-01 -1.01526238e-01 -2.76169907e-02  1.81850240e-01
 -1.83064163e-01 -1.38398767e-01 -7.46306870e-03  4.47181799e-03
  5.43859005e-02  3.30950022e-02  9.38212276e-02  2.55868472e-02
 -1.11183301e-01 -3.53995413e-01 -1.09197952e-01 -1.75909624e-02
  2.04221662e-02 -6.09450750e-02 -9.91878211e-02  3.92397307e-02
 -1.58130154e-01 -3.02926842e-02  3.56324799e-02  1.06787063e-01
 -5.80239892e-02 -8.58577713e-02  1.96667850e-01  2.53989995e-02
 -2.27982432e-01  2.33561154e-02  6.79744408e-02  2.84518689e-01
  2.11164221e-01  1.12814289e-02  2.73112636e-02 -9.83446762e-02
  8.59723017e-02 -2.03492865e-01  9.54484940e-02  1.24803744e-01
  1.46440705e-02  1.65828075e-02  5.44950180e-02 -1.47284254e-01
 -2.69899461e-02  9.75612625e-02 -1.14723779e-01 -7.91059155e-03
  5.19635566e-02 -7.02890083e-02 -7.64914555e-03 -9.86365080e-02
  1.58073992e-01  1.33142143e-01 -7.66009390e-02 -1.69471115e-01
  1.09303631e-01 -1.49018764e-01 -7.91287422e-02  3.80938090e-02
 -1.47453859e-01 -1.81247935e-01 -3.02776545e-01  1.41992299e-02
  3.80500078e-01  1.59634426e-01 -1.23240426e-01  5.11004440e-02
  7.68842874e-03 -3.51443961e-02  1.22045331e-01  1.71840206e-01
 -5.64149618e-02  7.77486861e-02 -8.80189911e-02  4.89430539e-02
  1.86350986e-01 -2.33783852e-02 -7.58666992e-02  2.30331689e-01
  2.36895178e-02  7.33747929e-02  7.39520192e-02  1.09642763e-02
 -3.32428031e-02  2.88385693e-02 -1.87967166e-01 -2.21163128e-02
  7.60845561e-03 -7.15210363e-02  1.24661811e-02  1.37039885e-01
 -1.53193414e-01  7.77841955e-02  1.78758930e-02  1.98117644e-02
 -1.20296571e-02 -7.38055352e-03 -1.21811442e-01 -5.00416644e-02
  7.29552209e-02 -2.28151560e-01  1.72665522e-01  2.09186271e-01
  3.23295146e-02  1.38351649e-01  1.40450776e-01  5.48050106e-02
  2.73403525e-02 -1.08103855e-02 -1.21278003e-01 -3.36840753e-06
  9.85622406e-02 -9.76740941e-03  1.13697529e-01  4.78537753e-02]