[-5.15816808e-02  1.17296293e-01  3.90054919e-02 -1.20026199e-02
 -6.01035962e-03 -6.18324988e-02  4.65213525e-04 -1.69336379e-01
  1.41160294e-01 -5.47545813e-02  3.02407742e-01 -5.37643507e-02
 -1.86874181e-01 -1.41088471e-01 -3.06630135e-02  1.63281247e-01
 -2.11372957e-01 -7.04879463e-02 -4.48258296e-02  8.35689064e-03
  7.71556646e-02  4.04271744e-02  1.02646708e-01  2.54704300e-02
  6.72013173e-03 -3.33638221e-01 -1.34006992e-01 -9.88692269e-02
  9.13820490e-02 -3.21160480e-02 -6.65155575e-02  2.80765127e-02
 -1.98099390e-01 -1.26144245e-01  4.54003327e-02 -6.22958038e-03
 -3.36130075e-02 -6.57018498e-02  1.89256445e-01  5.88897243e-02
 -1.33000061e-01  5.61740063e-02  3.69714503e-03  2.66589344e-01
  1.80582121e-01  7.18167350e-02 -3.97855438e-05 -1.68159291e-01
  6.30225763e-02 -1.40467584e-01  2.41945721e-02  1.26854017e-01
  6.66948706e-02  2.69629005e-02  1.50710309e-03 -1.14535667e-01
 -1.44720851e-02  4.36528437e-02 -1.18813448e-01 -2.16645151e-02
  5.49201854e-02 -2.67029684e-02 -4.39373665e-02 -7.92622790e-02
  1.94307685e-01  6.53209761e-02 -7.16804489e-02 -1.45619914e-01
  1.25735328e-01 -8.89928490e-02 -9.18846726e-02  3.53422314e-02
 -1.65452003e-01 -1.11917034e-01 -2.57456273e-01 -2.01639384e-02
  4.16536480e-01  6.73702313e-03 -1.72550663e-01  3.54170017e-02
 -1.28395140e-01 -1.60420835e-02  1.04098879e-01  1.07109360e-01
 -1.21654104e-02  5.15568070e-03 -6.69326782e-02 -1.92336272e-02
  1.70246005e-01 -1.07621446e-01 -5.84945343e-02  2.03271434e-01
 -3.86516117e-02  8.59331116e-02  5.10753579e-02 -3.13433409e-02
  3.41981207e-03  4.54630554e-02 -1.62554622e-01 -5.15840463e-02
  2.86292261e-03 -4.40936349e-02 -3.15103792e-02  1.00078382e-01
 -2.08144233e-01  6.47986829e-02  8.04626122e-02 -5.47177438e-03
  8.29521269e-02 -2.39500180e-02 -9.67390165e-02 -5.30011170e-02
  1.12465873e-01 -2.47686386e-01  2.34695777e-01  2.00133324e-01
  5.07080965e-02  9.67452750e-02  5.33257388e-02  8.20612311e-02
 -3.33196111e-02 -8.40742979e-03 -1.88677713e-01 -3.81088220e-02
  9.13979933e-02  5.03476635e-02  1.41356904e-02 -3.08267511e-02]