[-0.05732582  0.12140159  0.06099681 -0.01408994  0.02492899 -0.11707717
  0.02458974 -0.14716135  0.11473148  0.01788904  0.2889438  -0.02733857
 -0.16152678 -0.13996825  0.00666333  0.15544443 -0.2228419  -0.06852905
 -0.04270906  0.01216283  0.06818813  0.00182843  0.06719693  0.04945304
 -0.04486951 -0.28410864 -0.1312959  -0.13890561  0.08881109 -0.00885225
 -0.02670274  0.02558446 -0.20730257 -0.12863451  0.05512447 -0.03619899
 -0.00510183 -0.05454257  0.17482059  0.06976809 -0.15828556  0.05028546
  0.00958071  0.28025833  0.1683331   0.08083782  0.05217736 -0.13883424
  0.03037058 -0.13305345  0.04093777  0.1115711   0.06882701  0.02797064
 -0.00922507 -0.15697283  0.01041825  0.02495358 -0.17296915  0.02033536
  0.06746232 -0.01714583 -0.04149013 -0.03026845  0.21320282  0.06908207
 -0.09445857 -0.12490052  0.14972292 -0.08963579 -0.0666478   0.04883548
 -0.16386254 -0.124074   -0.28654775  0.00682648  0.40896431  0.01066765
 -0.19112019  0.02965777 -0.16685931  0.01270652  0.10587944  0.11438089
 -0.01825451  0.0227844  -0.0612855  -0.02453092  0.16797295 -0.08784576
 -0.04343481  0.20700119 -0.03019732  0.01376605  0.02136668 -0.01780081
  0.00657373  0.03268823 -0.1280143  -0.05699233  0.02701697 -0.03544325
 -0.01671481  0.12991686 -0.24165438  0.03971199  0.09686204 -0.02517979
  0.05401422  0.01286319 -0.08818506 -0.0917288   0.10132492 -0.24718149
  0.24998911  0.23064199  0.03238321  0.0613564   0.03248192  0.06730723
 -0.02573462 -0.02639515 -0.15177833 -0.01826149  0.08868332  0.03592563
  0.0177169  -0.02649787]