[-0.11983182  0.13982464  0.09853832 -0.02741103 -0.09290624 -0.03255555
 -0.0512807  -0.15160774  0.1252612  -0.09468512  0.20640878  0.00910326
 -0.22451703 -0.07408654  0.00492801  0.205881   -0.15571415 -0.1669189
 -0.05327719  0.00700762  0.03526097  0.00428605  0.07427648  0.02055594
 -0.13327833 -0.32837114 -0.08269733 -0.00288832  0.02076609 -0.01076727
 -0.08866843  0.03799625 -0.19045456 -0.02311519  0.06600649  0.10065161
 -0.06376327 -0.10259032  0.20510378 -0.02687937 -0.29448256 -0.00772413
  0.10940319  0.22594297  0.22609694  0.01783182  0.02354854 -0.13049485
  0.06768231 -0.1854168   0.05945835  0.13858806  0.00806415  0.02980989
  0.06762288 -0.17206733  0.00419604  0.0942971  -0.09712373 -0.0742974
  0.05398541 -0.08082534 -0.01850216 -0.10029282  0.19262162  0.09087181
 -0.07664198 -0.15826155  0.13026182 -0.12833345 -0.06349116  0.06811138
 -0.1473836  -0.1822295  -0.32421947 -0.02589381  0.38016048  0.12941638
 -0.13934632  0.09771129  0.01088889 -0.00556106  0.1453784   0.14144751
 -0.04701227  0.05771696 -0.08251812  0.03349771  0.2462462  -0.0604362
 -0.04011733  0.17610605  0.01444931  0.02117266  0.04869102  0.01187319
 -0.02728291  0.02187379 -0.22259851 -0.04389405  0.04221409 -0.01690938
  0.01515978  0.13232958 -0.19196668  0.03148184  0.06708922 -0.00404955
  0.02131236  0.00092729 -0.12680964 -0.07684895  0.08011758 -0.23525529
  0.20433953  0.19086242  0.00717428  0.10627495  0.15341897  0.06657254
  0.01490806 -0.01751629 -0.12432104 -0.02587705  0.13181679 -0.00367375
  0.14452094  0.03022829]