[-0.00587031  0.13572206  0.00540581 -0.00267099  0.02353841 -0.08437523
 -0.01369328 -0.17007725  0.13504319 -0.0179407   0.28469285 -0.05687219
 -0.19034013 -0.13798161 -0.04967901  0.16113123 -0.25942859 -0.07396583
 -0.07220712  0.00817354  0.08498644  0.01601826  0.08360811  0.01290864
 -0.01485342 -0.32765779 -0.13994811 -0.10099667  0.11488672 -0.02200338
 -0.05327374  0.01854832 -0.19518712 -0.13848181  0.06034395 -0.03294328
 -0.02208268 -0.05074684  0.196559    0.04041451 -0.14920962  0.06260995
  0.01372761  0.28239712  0.20519756  0.0973545   0.00528644 -0.17000139
  0.04324702 -0.16009486  0.04086876  0.14334053  0.06797123  0.07114042
 -0.01417539 -0.12317498 -0.01374154  0.06029904 -0.14826749 -0.03288298
  0.05248883 -0.02454701 -0.0274672  -0.04182565  0.20030288  0.05939211
 -0.09970899 -0.13636497  0.12411057 -0.11728146 -0.06932222  0.02343599
 -0.13246463 -0.12990145 -0.29678255 -0.02146424  0.42508808  0.01345243
 -0.18257587  0.03526349 -0.13242142 -0.02546191  0.13946082  0.09739133
 -0.02083815  0.01200542 -0.06997397 -0.00620757  0.175686   -0.1258695
 -0.06152433  0.20681801 -0.03540544  0.06909782  0.04641562  0.02751971
  0.0077226   0.05419989 -0.15829244 -0.02453044  0.04068647 -0.00909151
 -0.0281497   0.10453556 -0.17577122  0.06945895  0.10385259 -0.00809435
  0.07257201 -0.03985623 -0.08616436 -0.08756772  0.12953036 -0.26586378
  0.24549606  0.21916249  0.02792066  0.09462629  0.03861074  0.06425955
 -0.02242813 -0.04383347 -0.19054244 -0.0339468   0.08396908  0.06101115
  0.01338821 -0.03453097]