[-0.10789807  0.13797405  0.09641468 -0.02270588 -0.09009035 -0.01671271
 -0.04362666 -0.12923627  0.10131168 -0.08885472  0.22713678 -0.00631474
 -0.22791408 -0.05425825 -0.0261151   0.19336449 -0.15769708 -0.15800925
 -0.04693617  0.00160243  0.01904899  0.01273267  0.04877135  0.02294111
 -0.1243236  -0.31022567 -0.05601804 -0.02219131  0.00459622 -0.0314681
 -0.10083391  0.0483288  -0.17641263 -0.01137526  0.04490317  0.10385243
 -0.03523948 -0.08015414  0.2036058   0.00215329 -0.28130579 -0.01267041
  0.09646467  0.24356759  0.22618659  0.01181481  0.01047209 -0.0995361
  0.07318769 -0.20020555  0.0420203   0.12363688  0.02837621  0.01988063
  0.04951049 -0.1749099  -0.0034597   0.07740869 -0.10512912 -0.0724747
  0.0432352  -0.08026879  0.00343202 -0.09209084  0.20498748  0.09157922
 -0.0673086  -0.16314472  0.14216672 -0.14397041 -0.08359813  0.08230165
 -0.11825892 -0.15905422 -0.31221822 -0.01713762  0.37556002  0.11547665
 -0.14208563  0.0881741   0.00425736 -0.04434737  0.13991673  0.11914378
 -0.04399269  0.07084166 -0.10498031  0.00161734  0.26828659 -0.04231764
 -0.04538301  0.15652418 -0.00520967  0.01266095  0.07554971  0.02435597
 -0.03774859  0.03398984 -0.21190968 -0.0365486   0.01869924 -0.06006687
 -0.01160472  0.12654205 -0.20303419  0.04192884  0.02944567 -0.01719069
 -0.00384954 -0.0101276  -0.11631771 -0.04221717  0.11493453 -0.24269556
  0.1870755   0.17559624  0.01430324  0.10039314  0.14524098  0.04999034
 -0.00097187 -0.01699784 -0.14594787 -0.0586523   0.11422427 -0.03746051
  0.14432031  0.03538521]