[-0.04431199  0.11708371  0.05477785 -0.01500589 -0.00604825 -0.08460255
  0.0182156  -0.15821137  0.13137768 -0.03729321  0.32727194 -0.04847762
 -0.17547242 -0.14911753 -0.00982731  0.16379929 -0.18906501 -0.04569806
 -0.07138357  0.00765638  0.06468415  0.02546335  0.12638894  0.03047172
  0.00687062 -0.33973083 -0.13678551 -0.0948915   0.11790993 -0.03188317
 -0.05866736  0.02944893 -0.19590329 -0.13772379  0.04319278 -0.0241594
 -0.03939216 -0.07348899  0.19567418  0.06789538 -0.14066967  0.06770077
 -0.0092822   0.26894003  0.19406359  0.06966079  0.02173082 -0.15334594
  0.05984451 -0.15227631  0.03632285  0.10666758  0.07162222  0.0184647
  0.01766599 -0.11242934 -0.00885602  0.05237821 -0.14090629 -0.02029487
  0.0399415  -0.02146928 -0.04141888 -0.06631175  0.17856626  0.08219265
 -0.06745649 -0.12049469  0.13650934 -0.08096945 -0.05820966  0.0358475
 -0.1687603  -0.11616013 -0.25712922 -0.0064992   0.41612211  0.03051545
 -0.18344621  0.02037529 -0.13176994 -0.0018467   0.09955783  0.10256664
 -0.0179575  -0.00574882 -0.06849724 -0.01276493  0.14059563 -0.11671928
 -0.05531977  0.2263166  -0.02742816  0.07660126  0.04394378 -0.0309794
 -0.01180537  0.03820826 -0.15855141 -0.05861031  0.01231232 -0.03535119
 -0.01364964  0.09451964 -0.21674824  0.06914815  0.08112023 -0.00826014
  0.08454525 -0.01589765 -0.06497777 -0.06133459  0.08944803 -0.23348927
  0.2323674   0.21315351  0.03135424  0.0969443   0.04721334  0.06946158
 -0.01930228 -0.01468805 -0.15383759 -0.03007093  0.07966825  0.05309508
  0.00926696 -0.02913713]