[-0.00634336  0.14048617  0.03371281 -0.00501664  0.0092843  -0.07111839
  0.00047032 -0.1594194   0.09917637 -0.03312991  0.30122718 -0.06743632
 -0.1834359  -0.14749472 -0.03587426  0.16846088 -0.21224168 -0.06770927
 -0.0649718   0.03426166  0.07193816  0.00800251  0.10586524  0.00054122
 -0.00051652 -0.31915438 -0.12548737 -0.07761867  0.10734971 -0.00941284
 -0.05686934  0.02853527 -0.19418614 -0.13091588  0.06170033 -0.01539251
 -0.04896284 -0.04325534  0.19397426  0.04269481 -0.14140528  0.06288303
 -0.00194984  0.27969283  0.20883062  0.09612262  0.01937511 -0.16739669
  0.05759386 -0.19282688  0.0469346   0.10636166  0.07573164  0.05714408
  0.00216979 -0.1207405   0.01129954  0.07074382 -0.13575934 -0.02787054
  0.04600262 -0.01194685 -0.00719232 -0.05573645  0.20983408  0.05398746
 -0.08140364 -0.12641038  0.14126132 -0.09360361 -0.06322759  0.04484504
 -0.13495053 -0.12023478 -0.29604527 -0.01862288  0.40821108  0.04256734
 -0.16702802  0.01345008 -0.11400266  0.00464128  0.12321793  0.07976423
 -0.03583698 -0.00463741 -0.07705243 -0.02146389  0.17843191 -0.1327531
 -0.07342889  0.21072137 -0.02549523  0.08310942  0.04196615 -0.01404461
  0.02049798  0.05403378 -0.17328154 -0.027208    0.00885422 -0.03186619
 -0.02038088  0.12735644 -0.19870503  0.07259914  0.06129467  0.0059586
  0.06648387 -0.03633639 -0.08135946 -0.05390558  0.10625275 -0.25839129
  0.22716224  0.22205876  0.04452779  0.07469425  0.05887381  0.04837167
 -0.01455406 -0.0365239  -0.19279417 -0.03144679  0.09398026  0.04462224
  0.01078317 -0.01711823]