[-1.10108376e-01  1.04857557e-01  9.59398076e-02 -2.42648330e-02
 -1.29877687e-01 -5.04411831e-02 -5.28051555e-02 -1.43253401e-01
  1.29028767e-01 -8.99499431e-02  1.98430240e-01  3.46314209e-03
 -1.86705068e-01 -6.75358474e-02 -2.40074228e-02  1.94838181e-01
 -1.63578257e-01 -1.46964595e-01 -2.30066311e-02  3.09807304e-02
  3.99115607e-02  2.50286162e-02  1.03409462e-01  9.40916594e-03
 -9.81811881e-02 -3.48950297e-01 -1.35074928e-01 -2.93115806e-02
  3.72254513e-02 -4.48783934e-02 -1.00389801e-01  3.96575108e-02
 -1.54613614e-01 -5.08214012e-02  5.35046235e-02  9.75100249e-02
 -8.42026100e-02 -1.39138177e-01  2.10859403e-01  3.06263510e-02
 -2.60019720e-01 -5.25531657e-02  4.84357364e-02  2.43269995e-01
  2.26334408e-01  1.95955280e-02  3.65910344e-02 -6.78721219e-02
  8.59312937e-02 -2.25041464e-01  8.99658054e-02  1.21119775e-01
  2.70888060e-02  4.66341786e-02  6.36091754e-02 -1.32901907e-01
  2.47999020e-02  1.38816997e-01 -1.19578838e-01 -3.68901156e-02
  6.04124665e-02 -8.05759057e-02  2.44423654e-02 -6.68248087e-02
  2.04307556e-01  1.48613170e-01 -5.97793758e-02 -1.41531095e-01
  1.31213218e-01 -1.41731665e-01 -8.75098780e-02  2.65742987e-02
 -1.55455947e-01 -1.67082071e-01 -2.92103648e-01 -4.81710993e-02
  4.05357450e-01  1.40188515e-01 -1.31391838e-01  3.39933373e-02
 -1.38637799e-04 -2.31228825e-02  1.27413645e-01  1.57963261e-01
 -3.99942882e-02  6.24561086e-02 -1.04670860e-01 -1.31866056e-02
  2.28305608e-01 -5.70943430e-02 -6.47315234e-02  2.07570985e-01
 -3.88501026e-03  6.12600930e-02  7.63547346e-02 -2.17800215e-03
 -1.23440390e-02  2.21930798e-02 -1.50467634e-01 -3.64581123e-02
  1.64375398e-02 -4.96035777e-02 -1.17577659e-02  1.46067068e-01
 -1.58131301e-01  8.14057887e-02  1.87956356e-02  3.31102945e-02
 -1.24314975e-03 -4.44670729e-02 -9.57634076e-02 -5.63620701e-02
  9.47631374e-02 -2.02545330e-01  1.73144937e-01  1.91578388e-01
 -2.02174038e-02  1.29250705e-01  9.81867313e-02  7.18984231e-02
  4.89917817e-03 -3.07390150e-02 -1.41130969e-01 -2.18096804e-02
  9.19762477e-02 -1.72550906e-03  9.85350832e-02  4.50964458e-02]