[-0.14672409  0.12741858  0.07937422 -0.03423794 -0.10766512 -0.02981601
 -0.04991571 -0.14221697  0.11699437 -0.1000185   0.20319776  0.01041237
 -0.20044707 -0.09614463 -0.04668276  0.19864883 -0.19797651 -0.13732158
 -0.01420238  0.01081443  0.05874221  0.02565661  0.09541637  0.01264632
 -0.09702427 -0.35111526 -0.1027123  -0.00719335  0.0163648  -0.0476093
 -0.10008943  0.04274186 -0.17234485 -0.03220322  0.03670942  0.10436163
 -0.04328198 -0.08929717  0.18306749  0.0274521  -0.23721862  0.01835727
  0.06983478  0.27226415  0.21243317  0.00416159  0.02416567 -0.11542869
  0.08450267 -0.19695175  0.07667408  0.12246926  0.00883138  0.01910043
  0.05136658 -0.14258721 -0.01941344  0.10093478 -0.08935042 -0.02271751
  0.0615557  -0.06089748 -0.00597259 -0.1089439   0.16505882  0.11374146
 -0.08078643 -0.18246983  0.09637537 -0.13488899 -0.08050305  0.03870933
 -0.1440623  -0.17464197 -0.30789968 -0.00128745  0.38068482  0.14634086
 -0.12957986  0.06100236 -0.00627648 -0.03715314  0.12910153  0.17662504
 -0.04022551  0.09404369 -0.09056479  0.03371656  0.20377319 -0.0371411
 -0.07633356  0.22083311  0.01233934  0.06991371  0.05916715  0.00584673
 -0.0362474   0.03725224 -0.19758938 -0.03605572  0.00792739 -0.06173436
 -0.00276229  0.12858985 -0.1508036   0.06865253  0.02370269  0.02529965
 -0.00459317 -0.01595381 -0.11997924 -0.04646703  0.07515132 -0.22515659
  0.17802057  0.2086256   0.04439287  0.12870374  0.14742261  0.05814187
  0.02238551 -0.00113512 -0.12021621 -0.00388369  0.10025159 -0.00674923
  0.11583545  0.03717322]