[-0.06599752  0.11110707  0.06683104 -0.00865655  0.01380749 -0.1204592
  0.02591736 -0.15511572  0.1081522   0.02287032  0.29237661 -0.0328421
 -0.16283627 -0.13329864  0.01047509  0.15587713 -0.22159851 -0.06909155
 -0.03820441  0.0053527   0.06211466 -0.00415859  0.06832863  0.05427946
 -0.04637324 -0.27854335 -0.13277073 -0.14666677  0.08978863 -0.00635528
 -0.02494631  0.02195103 -0.20665835 -0.12797014  0.05699196 -0.03706626
 -0.00968245 -0.05709857  0.17885225  0.06295165 -0.1558712   0.04763874
  0.00757296  0.27220231  0.15848096  0.08034006  0.05386924 -0.13794509
  0.0342451  -0.13409033  0.04360149  0.11037873  0.07419257  0.01969535
 -0.0115315  -0.15788443  0.00774115  0.02727947 -0.17176151  0.02842217
  0.07149009 -0.01988352 -0.04712337 -0.0349816   0.21432927  0.07668678
 -0.09202929 -0.12561479  0.1482299  -0.08529005 -0.07170311  0.04949282
 -0.16726528 -0.12538292 -0.28776404  0.00755347  0.41627595  0.00253457
 -0.19678652  0.02620498 -0.16677107  0.02069918  0.10432336  0.11305825
 -0.01803755  0.01920092 -0.06535412 -0.03207173  0.16408417 -0.09640942
 -0.04223245  0.20314796 -0.02982189  0.01963952  0.02320321 -0.02010208
  0.00645805  0.0266728  -0.12298224 -0.06159319  0.0281554  -0.02906301
 -0.01261083  0.12393346 -0.23992191  0.03736972  0.09458458 -0.02635806
  0.05337683  0.01491034 -0.0892198  -0.09531281  0.10229558 -0.24868527
  0.24935828  0.22857301  0.02643479  0.06223291  0.03015717  0.06804695
 -0.02984355 -0.0171879  -0.14822875 -0.0170879   0.09230861  0.03609018
  0.0117786  -0.02579329]