[-0.03935886  0.12742148  0.05470085 -0.0104563   0.04008449 -0.08006441
  0.01417602 -0.14893466  0.11004986 -0.02941617  0.32274804 -0.05685654
 -0.1751139  -0.14272849 -0.0186247   0.16862957 -0.20099615 -0.05190037
 -0.08025874  0.00346236  0.06347264  0.00870449  0.08571388  0.00291965
 -0.01166179 -0.32428074 -0.12620394 -0.10040287  0.09331509 -0.00764868
 -0.02091717  0.03628078 -0.18709694 -0.12251027  0.06149418 -0.02457958
 -0.05781073 -0.01074775  0.19852585  0.05746913 -0.140075    0.04662715
  0.00589643  0.27894741  0.19564813  0.10897072  0.00602216 -0.15104125
  0.03437101 -0.2032481   0.04136703  0.11432486  0.08257864  0.07254602
  0.02843253 -0.14684319  0.03526844  0.03972503 -0.17955063 -0.01864317
  0.022519   -0.0328477  -0.01641958 -0.00907265  0.19317786  0.06789558
 -0.09255071 -0.09755491  0.15058547 -0.08208499 -0.03016467  0.05553078
 -0.13240269 -0.15690471 -0.30465224 -0.00346737  0.43298873  0.05295043
 -0.18068404  0.00064173 -0.1174348  -0.01314682  0.12876646  0.07340849
 -0.05434866 -0.02650155 -0.06052351 -0.01691297  0.12148094 -0.10632095
 -0.07254282  0.21042524 -0.0357686   0.07114261  0.03170591  0.01451466
  0.00134477  0.04063655 -0.16401629 -0.04815115  0.00968338 -0.03045294
 -0.01056074  0.11612274 -0.21780394  0.09262123  0.07986841 -0.02275217
  0.03842449 -0.00776202 -0.06838813 -0.04323603  0.10035472 -0.26080659
  0.23189925  0.24545498  0.01221587  0.10211664  0.05635979  0.03541061
 -0.02248565 -0.05044169 -0.17770432 -0.03363511  0.06551072  0.05032793
  0.00557717 -0.02049441]