[-0.01635133  0.14111425  0.05735222 -0.01143473  0.01315388 -0.06520122
  0.00994615 -0.15016805  0.11803092 -0.01851292  0.30270892 -0.06489927
 -0.1805604  -0.13910596 -0.02814498  0.14701271 -0.20868555 -0.04998034
 -0.06951209  0.00393836  0.06428965  0.02300639  0.09709827  0.0075601
 -0.00660547 -0.31976759 -0.12421248 -0.07910843  0.12132235  0.0016823
 -0.05136586  0.03869164 -0.1966442  -0.12817843  0.0476413  -0.02196101
 -0.03387494 -0.0429242   0.18647671  0.08069891 -0.14095892  0.05880786
 -0.02851428  0.28434834  0.20828144  0.09163399 -0.0059989  -0.14962541
  0.06509414 -0.19746761  0.02915244  0.14516583  0.05419348  0.05628942
 -0.01616159 -0.11784955  0.0136457   0.05322585 -0.15812929 -0.03861157
  0.02254657 -0.04626806 -0.01200368 -0.04384008  0.17247011  0.079254
 -0.06868938 -0.10559642  0.1326444  -0.09478531 -0.04734316  0.03334126
 -0.13437784 -0.11487854 -0.28227124 -0.00495922  0.4169074   0.03430113
 -0.18864042  0.00339553 -0.13819017  0.00072911  0.13216913  0.0830702
 -0.04565054 -0.00412192 -0.0733789  -0.03109941  0.15787397 -0.13210545
 -0.05555701  0.23796259 -0.01981606  0.08003477  0.06221519  0.00502644
  0.00413858  0.03524336 -0.16965428 -0.04413161  0.02183706 -0.0508574
 -0.01953512  0.10118543 -0.235322    0.09062256  0.09294158 -0.01821901
  0.07389843 -0.05778697 -0.05151285 -0.0581281   0.12465467 -0.23973325
  0.22418745  0.23113494  0.02252422  0.11687531  0.05508703  0.0551386
 -0.04062087 -0.053368   -0.13558196 -0.04273588  0.07698312  0.05958803
 -0.0146192  -0.03287949]