[-5.78619502e-02  1.50031254e-01  7.34434053e-02  3.17828916e-02
  3.83769348e-02 -9.08852443e-02  1.30261062e-02 -1.51333556e-01
  1.46887287e-01 -1.19351344e-02  2.64242887e-01 -2.23280266e-02
 -1.75434664e-01 -1.20899118e-01 -1.14411255e-02  1.45819336e-01
 -2.36610726e-01 -6.84970617e-02 -5.07219695e-02  5.08458680e-03
  3.04740947e-02  3.27116288e-02  8.55587870e-02  4.53521051e-02
 -6.17878847e-02 -2.76206315e-01 -1.11799948e-01 -1.80968791e-01
  7.56361485e-02  1.13439001e-03 -6.64709285e-02  1.57578550e-02
 -1.82793826e-01 -1.08677045e-01  5.15607856e-02 -1.63333658e-02
 -2.53024194e-02  1.31897186e-03  1.71574965e-01  6.66554049e-02
 -1.34302258e-01  3.91484983e-02 -3.43702741e-05  3.13499600e-01
  2.20594674e-01  6.48585707e-02  1.08017186e-02 -1.24999128e-01
  4.34588380e-02 -1.89000890e-01  3.51830833e-02  1.20807171e-01
  7.61299282e-02  5.15890829e-02  2.11972725e-02 -1.52125821e-01
 -8.07023607e-03  3.74419801e-02 -1.53553739e-01  3.78336795e-02
  6.98723793e-02 -9.47866589e-03 -4.38437201e-02  1.33925257e-02
  2.33191490e-01  8.72692689e-02 -1.03984229e-01 -1.05807878e-01
  1.37963861e-01 -1.30520463e-01 -6.11913204e-02  5.26141822e-02
 -1.49503306e-01 -1.23498105e-01 -2.78937936e-01 -2.02471502e-02
  4.35478359e-01  2.85413805e-02 -1.79072425e-01  2.06067469e-02
 -1.77833721e-01  7.98050594e-03  1.04431763e-01  7.66226053e-02
 -5.38087450e-02  9.30012949e-03 -6.92877918e-02 -1.55227454e-02
  1.69021830e-01 -8.05591717e-02 -3.71372588e-02  2.00230390e-01
 -3.51212025e-02  1.26987649e-02  3.24102603e-02 -4.68480401e-02
  1.17326304e-02 -3.85637581e-03 -1.76060840e-01 -7.41173625e-02
 -1.21641299e-02 -5.14745787e-02 -2.41952725e-02  1.08232096e-01
 -2.54363865e-01  5.23598380e-02  1.10556558e-01 -3.05680577e-02
  6.29421845e-02  1.36323739e-02 -1.16199709e-01 -5.07476032e-02
  1.55064166e-01 -2.50793040e-01  2.54926771e-01  2.04428539e-01
  4.26626764e-02  6.77331910e-02  2.04681102e-02  4.06895280e-02
 -5.08414879e-02 -1.80654526e-02 -1.38386369e-01 -2.61641927e-02
  7.41498321e-02  1.59753542e-02  2.30134800e-02 -3.19311284e-02]