[-0.15836492  0.12363551  0.08590572 -0.03237593 -0.11153152 -0.03281592
 -0.05289355 -0.13743734  0.11361163 -0.09949776  0.20108636  0.01929542
 -0.19495888 -0.08224282 -0.03903149  0.19849247 -0.19798303 -0.13335329
 -0.02421616  0.00717014  0.05637708  0.01481452  0.09044321  0.01717873
 -0.09214683 -0.35054618 -0.0989488  -0.00896685  0.01968029 -0.04518444
 -0.09595735  0.03173095 -0.16936573 -0.03303601  0.03657313  0.10523506
 -0.04139728 -0.09043828  0.18753849  0.01463145 -0.2429992   0.01891108
  0.06710067  0.26319128  0.21060772  0.01062558  0.03019676 -0.10941561
  0.09018797 -0.20248929  0.08633194  0.11938999  0.01719983  0.01558861
  0.04926143 -0.15031211 -0.01038483  0.09557339 -0.09574204 -0.01752713
  0.06783293 -0.07407399 -0.00366072 -0.09853887  0.1645585   0.12156925
 -0.08167235 -0.18177116  0.09741968 -0.13319938 -0.07338995  0.02767767
 -0.14517502 -0.17974932 -0.31316876  0.00580449  0.39236429  0.15036552
 -0.13062771  0.06549282 -0.00639224 -0.037437    0.12472945  0.18461023
 -0.04633489  0.0889959  -0.08863793  0.03979135  0.19885571 -0.03413949
 -0.07616012  0.21723966  0.01430228  0.06750661  0.0569813   0.01201634
 -0.03891487  0.03570078 -0.18694618 -0.02790205  0.01333761 -0.0568537
  0.00555009  0.12412792 -0.15444788  0.07258658  0.01345369  0.02787827
 -0.00598429 -0.01034891 -0.12067679 -0.05013165  0.0743362  -0.21736191
  0.18148881  0.21488543  0.04362643  0.13431324  0.15105538  0.05829762
  0.03661951  0.00753927 -0.1238926  -0.00338887  0.09795685 -0.00815319
  0.11999865  0.04940169]