[-0.01675883  0.14205413  0.06181423 -0.00486577  0.00910027 -0.05535087
  0.00589756 -0.15113238  0.12039324 -0.02112235  0.30100319 -0.06528907
 -0.19055426 -0.12928252 -0.04169573  0.1490383  -0.21914101 -0.06308348
 -0.06693553  0.00305542  0.081263    0.02436944  0.07745522 -0.0015202
 -0.01445998 -0.3176733  -0.11520367 -0.08222421  0.12008542 -0.00101207
 -0.0414612   0.02426229 -0.19697377 -0.13185227  0.04747225 -0.02359043
 -0.0390025  -0.03846375  0.17042504  0.0722193  -0.14568429  0.06308296
 -0.03125175  0.29173306  0.20724037  0.10463276 -0.00570685 -0.15980563
  0.04903142 -0.19494058  0.02882304  0.14864199  0.04549585  0.0646085
 -0.00444215 -0.11853883  0.00490888  0.05673834 -0.14563546 -0.03194245
  0.03998343 -0.03803265  0.00671669 -0.06395823  0.18707828  0.05909208
 -0.07342246 -0.11813207  0.12859313 -0.09666111 -0.07153793  0.02910991
 -0.13136712 -0.10469093 -0.28844044 -0.00706533  0.42361113  0.02792624
 -0.18223087  0.00909151 -0.13199304  0.00043408  0.13698144  0.08431859
 -0.0281052  -0.00386029 -0.06377728 -0.03917062  0.16413401 -0.12716521
 -0.0575445   0.22411251 -0.03715893  0.06201936  0.06074759 -0.00282195
 -0.00535927  0.05280716 -0.16280539 -0.04867105  0.01312719 -0.04102007
 -0.01179373  0.10677635 -0.21621482  0.09247708  0.08062717 -0.00270822
  0.07502087 -0.05293931 -0.0664736  -0.05117325  0.13642131 -0.24852991
  0.24304283  0.22840272  0.03829271  0.09802221  0.05820127  0.05206377
 -0.0425651  -0.03159665 -0.15912992 -0.04099955  0.07327533  0.04150341
 -0.00610694 -0.0316828 ]