[-0.01727333  0.14178483  0.05745875 -0.01200375  0.01663987 -0.07377121
  0.001547   -0.14649191  0.10790946 -0.01795082  0.29798159 -0.06617115
 -0.18196909 -0.13768788 -0.0263013   0.14832084 -0.20650725 -0.04773609
 -0.06125659  0.00865452  0.06443319  0.02437936  0.10511801  0.00498287
 -0.00442135 -0.32393607 -0.12136638 -0.08077753  0.11345662  0.00953362
 -0.0488655   0.04128128 -0.19408138 -0.12550792  0.05197769 -0.01958595
 -0.03551906 -0.03824351  0.18335457  0.08217719 -0.12877922  0.04485648
 -0.02938421  0.28393134  0.20898652  0.09285478  0.00648962 -0.15732048
  0.05025496 -0.19939297  0.03219501  0.13510996  0.04471349  0.05686808
 -0.00877779 -0.11805733  0.01828443  0.04922598 -0.15966593 -0.02935505
  0.03044849 -0.0351277  -0.01501206 -0.05102692  0.19114554  0.07654735
 -0.07225796 -0.10905206  0.13769878 -0.09564058 -0.05254927  0.03368169
 -0.13163061 -0.11504878 -0.28525028 -0.00806413  0.40018931  0.04033765
 -0.18101512  0.00313672 -0.13509983 -0.00119016  0.13224243  0.07669916
 -0.04519702 -0.00570847 -0.06696551 -0.0309184   0.16003428 -0.12862913
 -0.06192097  0.23248003 -0.02708122  0.07821441  0.06207104 -0.00136348
  0.00790236  0.0401363  -0.17563397 -0.03911486  0.01650554 -0.05877577
 -0.01769487  0.10672817 -0.22741579  0.07998614  0.08147337 -0.02083397
  0.07129275 -0.05547532 -0.07104412 -0.05903959  0.12806146 -0.23940472
  0.22936895  0.23191097  0.03786768  0.10913797  0.05757449  0.0567377
 -0.03771145 -0.04942333 -0.14116167 -0.03473334  0.07617853  0.05624564
 -0.01529028 -0.0277011 ]