[-0.01773509  0.1425852   0.05543166 -0.00108476  0.01415627 -0.04858873
 -0.01004918 -0.155516    0.12247129 -0.0290618   0.28890488 -0.05850486
 -0.18796492 -0.13663915 -0.03813526  0.15049359 -0.22596624 -0.06934019
 -0.06664787  0.00512985  0.07344218  0.02580195  0.07883849 -0.00293113
 -0.02005774 -0.31746489 -0.11362691 -0.07634019  0.126398    0.00317833
 -0.06004427  0.02089619 -0.2005949  -0.12299068  0.05202719 -0.01633758
 -0.03738115 -0.04190385  0.17934838  0.07101616 -0.149128    0.0660283
 -0.02917835  0.28201193  0.20496538  0.1038362  -0.00971956 -0.15905058
  0.06225029 -0.1917693   0.02298995  0.16370374  0.05119484  0.06433114
 -0.00781884 -0.12141982  0.00827775  0.05502392 -0.14449605 -0.03707324
  0.03816328 -0.03893956  0.00820343 -0.05621749  0.18254648  0.05993275
 -0.07580778 -0.1203215   0.12614353 -0.09624212 -0.06237921  0.031455
 -0.12293123 -0.11196907 -0.28429186 -0.01630251  0.41870219  0.03396679
 -0.18208368  0.014585   -0.13399637 -0.00988732  0.13887231  0.08220493
 -0.03759815 -0.00070108 -0.06663893 -0.03790938  0.1753459  -0.11869156
 -0.04867766  0.22326794 -0.02639517  0.06990295  0.05606579  0.00108584
 -0.00519907  0.04741091 -0.15821199 -0.04112517  0.01383853 -0.04270069
 -0.00974902  0.10458777 -0.21760292  0.09505984  0.08776084 -0.00311015
  0.07587431 -0.04902583 -0.07030898 -0.05084349  0.12974368 -0.25701109
  0.24172647  0.22607736  0.03805756  0.10212616  0.06297947  0.05410041
 -0.04511351 -0.03865818 -0.15694483 -0.05538347  0.07198452  0.0403461
  0.00060281 -0.02839712]