[-0.055057    0.11616722  0.06029107 -0.0167871   0.01522148 -0.10806324
  0.0068183  -0.15646909  0.10498794  0.0211093   0.29360262 -0.03124645
 -0.17290863 -0.13233222  0.0067739   0.15706877 -0.22211388 -0.0723124
 -0.04041249  0.01464123  0.06292033  0.00083373  0.06890165  0.04327778
 -0.05474205 -0.28100154 -0.12403102 -0.13007046  0.08113714 -0.00568824
 -0.04198721  0.01550154 -0.21094885 -0.1261235   0.06564057 -0.02483435
 -0.0078216  -0.0571533   0.17951465  0.06356347 -0.16732749  0.05319921
  0.02024483  0.26812971  0.16762492  0.08487845  0.05842312 -0.15525128
  0.0453968  -0.12860687  0.04995864  0.1126266   0.07036587  0.02430414
 -0.01326979 -0.16379945  0.00581377  0.04148014 -0.1614664   0.0220471
  0.07713302 -0.01044503 -0.03615808 -0.03578158  0.21479623  0.06835725
 -0.0986197  -0.13487262  0.13559194 -0.0792455  -0.07964724  0.05575206
 -0.16813533 -0.12656866 -0.30641133 -0.00189515  0.41219458 -0.00776076
 -0.19165722  0.0277067  -0.15291397  0.01285598  0.11626709  0.11583008
 -0.01821572  0.02566923 -0.06561061 -0.02308209  0.18991771 -0.09276488
 -0.04423613  0.19625236 -0.0312893   0.0270746   0.02081556  0.00660233
  0.00258067  0.03493513 -0.12823795 -0.05404505  0.03267144 -0.02634359
 -0.01043192  0.13218869 -0.24326597  0.0348586   0.09365316 -0.01884108
  0.05483147  0.00345935 -0.08496536 -0.08850195  0.09936162 -0.25852948
  0.25053224  0.22766386  0.03613906  0.05399911  0.03957828  0.05706098
 -0.02513832 -0.01750071 -0.15997846 -0.02041298  0.08747661  0.03988744
  0.03051407 -0.02059957]