[-9.66672003e-02  1.31045684e-01  9.59213823e-02 -4.72906940e-02
 -1.21316671e-01 -2.48283930e-02 -8.48561823e-02 -1.16942815e-01
  1.31030783e-01 -8.69968534e-02  1.75832421e-01  9.14951134e-03
 -1.96838781e-01 -3.70188914e-02 -2.54650451e-02  1.89044595e-01
 -1.59093603e-01 -1.38708100e-01 -1.66630819e-02 -6.98917720e-04
  4.63911705e-02  6.09438680e-02  7.99109861e-02  4.86817434e-02
 -1.14789382e-01 -3.52283865e-01 -1.10987954e-01 -3.10503729e-02
  2.36426238e-02 -7.48388693e-02 -1.12073891e-01  3.42116728e-02
 -1.69108734e-01 -3.37017886e-02  6.44497499e-02  1.19462289e-01
 -5.59963770e-02 -1.08421579e-01  2.06212327e-01  5.81795983e-02
 -2.56909579e-01 -2.08532196e-02  7.51074478e-02  2.73544967e-01
  2.32680783e-01  2.73070764e-02  1.98571086e-02 -7.14114681e-02
  1.14136033e-01 -2.28333160e-01  6.58848509e-02  1.51094675e-01
  2.21901387e-02  2.39878502e-02  6.72193393e-02 -1.08163677e-01
  3.08545306e-04  1.14758573e-01 -1.10980533e-01 -2.26178896e-02
  7.93420151e-02 -8.23095217e-02 -1.22506348e-02 -9.15188715e-02
  2.10860729e-01  1.13236986e-01 -9.24324170e-02 -1.40920863e-01
  1.08542539e-01 -1.52265474e-01 -1.09699182e-01  1.90199558e-02
 -1.35746717e-01 -1.55710146e-01 -2.82553196e-01 -1.43650947e-02
  3.83882165e-01  1.29657269e-01 -1.62754729e-01  8.02777037e-02
  5.84906479e-03 -3.44690494e-02  1.22089699e-01  1.66033849e-01
 -3.92561816e-02  8.50417614e-02 -8.13499913e-02  1.88745018e-02
  2.50899583e-01 -5.14874347e-02 -7.06833461e-03  2.17014417e-01
 -9.65693500e-03  8.06200728e-02  6.97493926e-02  2.46197674e-02
 -6.45588189e-02  7.77145056e-03 -1.92270100e-01 -3.23613696e-02
  3.37376855e-02 -3.57463993e-02 -9.23062861e-03  1.41524389e-01
 -1.92625970e-01  9.11362767e-02  1.36410939e-02 -1.35305105e-02
  1.43872267e-02 -2.52400991e-02 -1.32346854e-01 -7.27356449e-02
  1.16751306e-01 -2.04042777e-01  1.66845128e-01  1.86601922e-01
 -1.41966566e-02  1.03306256e-01  1.37004584e-01  6.75713122e-02
  2.42929626e-02 -1.62686482e-02 -1.42171130e-01 -5.18334098e-02
  1.17575899e-01 -3.38478200e-02  8.21701810e-02  3.19113699e-03]