[-0.0396229   0.11704588  0.04651231 -0.01094429 -0.00653277 -0.05660268
  0.01267715 -0.16156147  0.14240207 -0.04852279  0.30900267 -0.05456516
 -0.17963807 -0.13818485 -0.01523128  0.1597399  -0.20744133 -0.0669891
 -0.05804078  0.0081231   0.05831057  0.03099334  0.10200745  0.02585405
 -0.0013839  -0.33125901 -0.13723347 -0.10274517  0.10585528 -0.02434123
 -0.06392751  0.03080227 -0.19527702 -0.13210183  0.04821707 -0.01095407
 -0.0380666  -0.06588005  0.19797634  0.06260639 -0.13290523  0.05860617
 -0.00057555  0.27227792  0.18431075  0.07232351  0.00693937 -0.15369293
  0.06238389 -0.14781357  0.03066808  0.12365405  0.06840951  0.03876306
  0.00282268 -0.12036635 -0.00859899  0.0461199  -0.12369191 -0.0222507
  0.0457739  -0.02564957 -0.03845169 -0.06365146  0.20195441  0.07406318
 -0.06733976 -0.14064831  0.1333828  -0.08491316 -0.07891619  0.0359218
 -0.17110787 -0.10441267 -0.25608617 -0.01028541  0.42456046  0.00994056
 -0.18100815  0.02832237 -0.13121769 -0.0129724   0.10645151  0.11060013
 -0.01292974  0.00174308 -0.06331893 -0.0194497   0.16436307 -0.11386843
 -0.0553362   0.20708466 -0.02978793  0.07931221  0.05517998 -0.03489706
  0.00583755  0.0404841  -0.16337197 -0.05192394  0.00907595 -0.03468376
 -0.02500062  0.10146719 -0.21471147  0.07223751  0.08549653 -0.00935739
  0.0832442  -0.02077942 -0.08102291 -0.05898204  0.11563966 -0.25006467
  0.23053586  0.20202573  0.03546871  0.09582074  0.04619556  0.08127289
 -0.02916304 -0.005014   -0.17642434 -0.03424549  0.08463509  0.05171928
  0.00567005 -0.02836572]