[-2.97062881e-02  1.31789640e-01  3.99116389e-02 -5.43187279e-03
  7.16161868e-03 -8.62590373e-02  5.79402596e-03 -1.65114731e-01
  1.07841969e-01 -2.34708879e-02  3.12558472e-01 -7.32266679e-02
 -1.81485578e-01 -1.44685254e-01 -4.05214354e-02  1.67385682e-01
 -2.24856138e-01 -8.02821070e-02 -4.95382696e-02  9.92333423e-03
  5.81418164e-02  1.76524190e-04  1.03734255e-01  1.71555746e-02
 -4.93986113e-03 -3.16865355e-01 -1.17092870e-01 -9.25065205e-02
  9.95183811e-02  7.40513531e-03 -5.46240881e-02  4.49620113e-02
 -2.06219897e-01 -1.31786227e-01  5.95151298e-02  1.38444332e-02
 -3.27157974e-02 -4.17606793e-02  1.86033115e-01  3.76948155e-02
 -1.27986208e-01  5.01515940e-02 -1.86510384e-04  2.78186053e-01
  2.12748557e-01  7.40424171e-02  4.72752517e-03 -1.53091326e-01
  4.39403094e-02 -1.78886101e-01  2.70268451e-02  1.12759821e-01
  7.61373118e-02  5.34980074e-02 -1.12178726e-02 -1.25822112e-01
  1.04888650e-02  6.25778586e-02 -1.34013250e-01 -3.95124853e-02
  3.10741644e-02 -2.83548143e-02 -1.10463900e-02 -6.51290342e-02
  2.02197239e-01  5.64514697e-02 -7.44323581e-02 -1.19901717e-01
  1.41409799e-01 -9.85189155e-02 -7.08670691e-02  4.05440927e-02
 -1.39944315e-01 -1.17573395e-01 -3.05387110e-01 -2.64720656e-02
  4.13581908e-01  3.52590866e-02 -1.71959221e-01  2.40858644e-02
 -1.16570331e-01  2.79973465e-04  1.13352478e-01  7.50122517e-02
 -3.38198841e-02  1.00462437e-02 -9.07554179e-02 -2.73423977e-02
  1.68136045e-01 -1.19169496e-01 -7.55943581e-02  2.02064544e-01
 -4.03517298e-02  8.96280110e-02  5.86746894e-02 -1.29066231e-02
  3.17300819e-02  5.08619435e-02 -1.83219284e-01 -3.29672471e-02
 -9.97240189e-03 -4.86430638e-02 -3.02997585e-02  1.04661167e-01
 -2.08587438e-01  4.74084020e-02  7.68995956e-02  3.13194329e-03
  5.02051972e-02 -2.89967190e-02 -7.80225918e-02 -5.21066673e-02
  1.22954942e-01 -2.64917731e-01  2.24717736e-01  2.35769942e-01
  4.03706022e-02  9.96770263e-02  5.75346947e-02  4.39434610e-02
 -3.30239460e-02 -4.35971394e-02 -1.75625816e-01 -2.92137507e-02
  7.48900399e-02  4.64238785e-02  1.38256727e-02 -2.84212315e-03]