[-1.56524926e-01  1.14270046e-01  8.43708515e-02 -3.60802189e-02
 -1.12439513e-01 -3.32245752e-02 -4.58894633e-02 -1.44394308e-01
  1.03998259e-01 -1.09309696e-01  2.09253535e-01  2.03903653e-02
 -1.95186451e-01 -1.05718374e-01 -3.30390446e-02  1.95039496e-01
 -1.88033298e-01 -1.45114765e-01 -7.76348729e-03  1.27689932e-02
  5.71327507e-02  1.43213961e-02  8.22066069e-02  3.01500540e-02
 -1.01940252e-01 -3.57834846e-01 -1.05295502e-01 -5.92352031e-03
  1.47485407e-02 -4.75238673e-02 -1.00866608e-01  4.09769528e-02
 -1.72044009e-01 -2.40305997e-02  3.18139791e-02  1.21198975e-01
 -4.14303802e-02 -8.67431685e-02  1.81796625e-01  2.62320917e-02
 -2.45492563e-01  2.70749424e-02  6.31024763e-02  2.78961957e-01
  2.16448948e-01  8.49001855e-03  3.14658359e-02 -9.31404978e-02
  9.71568152e-02 -2.11303219e-01  8.70902166e-02  1.18617490e-01
  2.56760959e-02  1.25131132e-02  4.14479896e-02 -1.45965263e-01
 -2.29239501e-02  9.82853174e-02 -1.13963507e-01 -1.94455814e-02
  5.46377599e-02 -7.98804685e-02 -4.86546336e-03 -1.07687317e-01
  1.70638785e-01  1.36399671e-01 -8.74076635e-02 -1.69462025e-01
  1.17154837e-01 -1.50160939e-01 -7.37240165e-02  2.40499768e-02
 -1.52309537e-01 -1.77598357e-01 -3.08488518e-01  1.61183234e-02
  3.82665098e-01  1.62310764e-01 -1.25428900e-01  6.45473227e-02
  3.52465548e-04 -2.04390176e-02  1.19046167e-01  1.86553344e-01
 -3.39353755e-02  9.34232250e-02 -8.24688226e-02  4.41610627e-02
  1.95466459e-01 -2.95852777e-02 -7.11565688e-02  2.25778461e-01
  1.66475978e-02  7.33494014e-02  6.53240606e-02  3.72914411e-03
 -2.76466496e-02  2.98540331e-02 -1.86377287e-01 -1.63044687e-02
 -7.80787412e-03 -6.21190555e-02  1.70988422e-02  1.25997379e-01
 -1.50648624e-01  8.38511884e-02  1.36907790e-02  2.93397009e-02
 -6.40170882e-03 -5.72026474e-03 -1.10195659e-01 -5.33551574e-02
  6.06691800e-02 -2.29872331e-01  1.86286554e-01  2.11542755e-01
  4.00194786e-02  1.39705345e-01  1.35410413e-01  6.03121780e-02
  3.17068659e-02 -8.91602505e-03 -1.21439599e-01 -5.38498769e-03
  9.97400209e-02 -1.80825796e-02  1.21494867e-01  4.57557738e-02]