[ 2.61462480e-03  1.48154259e-01 -1.51487289e-03 -5.13942773e-03
  3.20605636e-02 -8.31320956e-02 -7.67445192e-03 -1.63406119e-01
  1.32148504e-01 -1.66183040e-02  2.76143283e-01 -4.94547039e-02
 -1.83666721e-01 -1.39272198e-01 -5.02553657e-02  1.60526678e-01
 -2.44299248e-01 -7.61965215e-02 -8.41704905e-02  1.35699576e-02
  7.85687491e-02  1.69854872e-02  9.32752267e-02  2.80899908e-02
 -1.64629426e-02 -3.19387108e-01 -1.37503177e-01 -8.91919732e-02
  1.09968245e-01 -3.32667790e-02 -5.77926710e-02  2.51528677e-02
 -1.97336778e-01 -1.40198484e-01  6.59387931e-02 -2.52148807e-02
 -4.47375923e-02 -4.72639315e-02  2.02360198e-01  5.47973327e-02
 -1.45141482e-01  6.26458973e-02  1.18965451e-02  2.99481481e-01
  2.16306254e-01  1.05185546e-01 -2.26257369e-04 -1.71292365e-01
  3.56597006e-02 -1.86213508e-01  5.40322922e-02  1.52066872e-01
  5.01136892e-02  7.97633454e-02 -4.08601435e-03 -1.31156638e-01
 -1.65088847e-03  6.87940493e-02 -1.52321577e-01 -2.35179644e-02
  4.50833589e-02 -2.34642457e-02 -1.61400605e-02 -4.28311229e-02
  2.00091079e-01  7.26767704e-02 -9.91909057e-02 -1.25048399e-01
  1.30914316e-01 -1.25743762e-01 -6.22740053e-02  2.32283380e-02
 -1.21064506e-01 -1.42671704e-01 -2.96698183e-01 -2.15532519e-02
  4.14832175e-01  4.66507301e-02 -1.76416308e-01  2.61783246e-02
 -1.28261492e-01 -2.38796584e-02  1.42097160e-01  8.76915231e-02
 -4.17713188e-02  5.17670065e-04 -6.91602007e-02 -4.71684104e-03
  1.74679831e-01 -1.04989998e-01 -6.86035082e-02  2.15238377e-01
 -3.54392715e-02  6.00408800e-02  5.36636002e-02  2.16163788e-02
  3.45204026e-04  5.25034666e-02 -1.78355560e-01 -2.24112961e-02
  2.45123021e-02 -2.75625568e-02 -2.99764723e-02  1.20206371e-01
 -1.79651737e-01  7.38122240e-02  9.89381224e-02 -1.58800706e-02
  6.27621710e-02 -3.43422741e-02 -1.03910662e-01 -8.13226700e-02
  1.29984185e-01 -2.60791779e-01  2.54835099e-01  2.25711808e-01
  3.76110449e-02  9.20718238e-02  5.51507473e-02  6.63542897e-02
 -1.86233949e-02 -5.47291748e-02 -1.87184706e-01 -2.83536259e-02
  8.78863856e-02  5.49018644e-02  1.95081830e-02 -3.10875606e-02]