[-0.10382617  0.12655896  0.08743679 -0.03058312 -0.12049682 -0.01422134
 -0.07055403 -0.11910119  0.10485595 -0.10435098  0.20367387 -0.00939443
 -0.21808331 -0.06313322 -0.02272403  0.17487346 -0.15921192 -0.13238075
 -0.02535084  0.00873039  0.06635961  0.06128388  0.06974888  0.0157975
 -0.08899778 -0.35709128 -0.10029248 -0.040292    0.03263659 -0.07554802
 -0.1299639   0.03030766 -0.15303013 -0.03559672  0.03630669  0.11954653
 -0.06261123 -0.10666163  0.20248716  0.04201075 -0.2371209  -0.01035917
  0.04344203  0.28182873  0.22230017  0.00059417 -0.00085359 -0.0735344
  0.09142327 -0.2325336   0.08713976  0.14823976  0.03165426  0.04899088
  0.06911256 -0.09440114  0.0094763   0.11568146 -0.12167306 -0.01993833
  0.08109397 -0.09566333  0.01341006 -0.09979367  0.1995005   0.10491419
 -0.07151716 -0.14283903  0.08214252 -0.1430344  -0.10832983  0.02994359
 -0.14842592 -0.16124395 -0.27608413  0.01586957  0.39146841  0.15313768
 -0.15579776  0.06095953  0.00471316 -0.07405689  0.16527557  0.15318115
 -0.00144952  0.05252893 -0.09386471  0.04432822  0.23134457 -0.07174105
 -0.03280295  0.22250421 -0.00789108  0.07694816  0.06914329  0.00891107
 -0.0321938   0.03016278 -0.16847304 -0.01508756  0.02770533 -0.0675885
 -0.01804851  0.1247864  -0.15416923  0.0723289   0.0216256   0.00520603
  0.02510378 -0.06398027 -0.12629269 -0.06118324  0.11543559 -0.21393514
  0.17957173  0.18441488  0.01593004  0.10751162  0.11177265  0.05635755
  0.02553111 -0.03482693 -0.16593361 -0.02573101  0.12107716  0.00309456
  0.07544127  0.01694423]