[-0.06103818  0.13182493  0.05108071 -0.02450832  0.02725062 -0.11490717
  0.02432796 -0.16210417  0.11995111  0.03391415  0.27397275 -0.03549384
 -0.17388788 -0.13559833 -0.00553893  0.15736419 -0.23753281 -0.07713961
 -0.04921882 -0.00614823  0.04646067  0.016161    0.08332579  0.06960126
 -0.05417777 -0.27525821 -0.11930738 -0.14585733  0.06709858 -0.00064357
 -0.03574381  0.03143955 -0.22531648 -0.12729292  0.06552338 -0.01279519
 -0.01701369 -0.05593305  0.17135607  0.06880984 -0.1423807   0.03984959
  0.02993193  0.28510392  0.19412677  0.06972339  0.03215076 -0.13104813
  0.03701643 -0.13252522  0.04641566  0.11132085  0.07101955  0.02485214
  0.00054546 -0.16321561  0.01341628  0.02913844 -0.15988892  0.0131321
  0.05739009 -0.02943446 -0.04871892 -0.02122508  0.20202883  0.07239025
 -0.0866962  -0.12446926  0.14746906 -0.09396452 -0.07730334  0.05145454
 -0.16739444 -0.12034517 -0.31520349 -0.0061251   0.41911265  0.00872076
 -0.18990286  0.0299136  -0.13754788  0.01796064  0.11038402  0.11291454
 -0.04406455  0.02668206 -0.08201498 -0.00552379  0.16503711 -0.07733053
 -0.07294678  0.19392161 -0.04101359  0.01750836  0.03734744 -0.0136539
  0.01099775  0.02787381 -0.15479192 -0.06033165  0.03834806 -0.02739064
 -0.03077655  0.13492541 -0.23285805  0.01497165  0.1062934  -0.03710479
  0.03340664  0.00345257 -0.10244355 -0.07809357  0.10907717 -0.24621223
  0.2469528   0.2237293   0.02351633  0.06149674  0.03154299  0.04632722
 -0.02752701 -0.02359657 -0.14534454 -0.02658978  0.09475685  0.04622892
  0.04628691 -0.01869111]