[-0.17084976  0.12222593  0.08218442 -0.0264694  -0.12492169 -0.02572832
 -0.04165139 -0.14866111  0.09742504 -0.10282719  0.21220902  0.00742925
 -0.19486159 -0.09825788 -0.02398447  0.18447165 -0.18186723 -0.13959792
 -0.00369634  0.00640494  0.03678773  0.03176401  0.093069    0.03042902
 -0.10270157 -0.35732815 -0.11273047 -0.02068383  0.0118801  -0.06097348
 -0.10341007  0.04864984 -0.15241814 -0.02386354  0.03835459  0.11078577
 -0.0499854  -0.08801352  0.19544949  0.02514761 -0.22787228  0.01893537
  0.06716113  0.29053044  0.21353367  0.00919395  0.01876506 -0.08740257
  0.09555059 -0.20914219  0.088229    0.12502544  0.02011427  0.00829323
  0.04378283 -0.14523567 -0.0273795   0.09671812 -0.11629383 -0.02155449
  0.04883742 -0.06938993 -0.00784902 -0.10323431  0.16342176  0.14472885
 -0.07790833 -0.15975349  0.10393558 -0.14581889 -0.06923883  0.03452089
 -0.165369   -0.18850639 -0.2863749   0.01809908  0.38950464  0.16178668
 -0.11272167  0.04925471  0.00846653 -0.03267173  0.11283135  0.17611811
 -0.05074276  0.06757307 -0.07855155  0.05351676  0.18292883 -0.030278
 -0.07396992  0.22128053  0.01636063  0.06976926  0.0672171   0.00492114
 -0.02371988  0.02781587 -0.17510557 -0.02122783 -0.00050176 -0.07163998
  0.01879387  0.13369536 -0.16194773  0.08152168  0.0163602   0.02080793
 -0.00624574 -0.01176769 -0.09974009 -0.04339278  0.06851529 -0.23202948
  0.16918731  0.20688298  0.01982497  0.14972322  0.11756814  0.06055276
  0.02428072 -0.00337602 -0.116493   -0.00519972  0.10360191 -0.00415674
  0.11228546  0.04015757]