[-1.14367858e-01  9.07625780e-02  9.07957405e-02 -5.09049110e-02
 -1.59445390e-01 -5.82207404e-02 -8.85518361e-03 -1.29064187e-01
  1.65238798e-01 -9.65837911e-02  1.41364187e-01  2.05804911e-02
 -2.50265628e-01  3.65357511e-02  2.13949028e-02  1.65411711e-01
 -1.30325139e-01 -1.32962629e-01 -1.10957436e-01 -6.52293116e-02
  4.10087220e-03  3.90014946e-02  6.47452101e-02  5.47621734e-02
 -1.47445336e-01 -2.99129397e-01 -1.00445628e-01 -1.85100740e-04
  4.93460819e-02 -2.36032289e-02  6.87094638e-03  6.20496385e-02
 -1.70041770e-01 -5.42053021e-04  8.67352262e-02  6.47077337e-02
 -1.18195832e-01 -1.31673545e-01  2.44393215e-01 -1.60749070e-03
 -2.87364572e-01 -5.59739172e-02  4.46161330e-02  2.13217854e-01
  2.41433725e-01  2.31552505e-04  4.88490723e-02 -1.28824413e-01
  1.14193954e-01 -2.79269844e-01  4.31864224e-02  1.82382867e-01
 -5.32772839e-02  3.74064967e-02  8.81143734e-02 -1.55648991e-01
  1.40937017e-02  1.42090589e-01 -1.42494678e-01 -8.35156664e-02
  6.69336915e-02 -9.21698138e-02 -4.72668484e-02 -9.35131684e-02
  1.58099636e-01  1.06271863e-01 -1.10825494e-01 -1.00131609e-01
  1.81715116e-01 -1.85488760e-01 -3.11445296e-02  6.86387271e-02
 -1.28799468e-01 -1.91904038e-01 -2.92301267e-01 -4.79743211e-03
  4.68325138e-01  1.47863984e-01 -9.15262476e-02  4.65229563e-02
 -8.66964180e-03  1.42176216e-02  8.53667185e-02  1.17903650e-01
 -1.26479134e-01 -5.54945460e-03 -2.65604760e-02  8.34720060e-02
  2.18101740e-01 -4.35473807e-02 -1.03860311e-02  2.00805500e-01
  5.55209219e-02 -2.47743330e-03  5.79347908e-02  5.87005205e-02
 -5.47206365e-02 -5.55089489e-02 -1.72010019e-01 -9.48479678e-03
  6.10165372e-02 -3.68915796e-02  4.73278090e-02  1.55178234e-01
 -2.08831653e-01  1.49988383e-01  2.49369573e-02 -6.77384809e-02
 -8.60082358e-03 -2.86304262e-02 -9.47892368e-02 -4.47317064e-02
  1.08430162e-01 -2.18768626e-01  1.58387050e-01  1.79976672e-01
 -4.65519279e-02  1.43853113e-01  6.27569482e-02  7.41291121e-02
 -1.79767068e-02 -2.53049526e-02 -9.54885110e-02 -6.24582767e-02
  1.04733601e-01  4.18161694e-03  7.74159282e-02 -1.03121847e-02]