[-4.05108817e-02  1.21467166e-01  5.63204102e-02 -5.30071510e-03
  1.52640941e-03 -6.34145066e-02  2.01142821e-02 -1.65636703e-01
  1.33184671e-01 -4.97895777e-02  3.17088246e-01 -6.17505088e-02
 -1.77622095e-01 -1.42631292e-01 -1.73947513e-02  1.57573581e-01
 -1.99815914e-01 -6.60965070e-02 -4.75956686e-02  1.03969807e-02
  6.20739274e-02  2.93874182e-02  1.07731305e-01  2.18624603e-02
  2.48567387e-03 -3.26573342e-01 -1.29228517e-01 -1.09663837e-01
  9.34950635e-02 -1.61864087e-02 -5.00715263e-02  3.19419615e-02
 -1.91697910e-01 -1.20029531e-01  4.04865146e-02 -1.64028089e-02
 -3.64963003e-02 -5.61315902e-02  1.88787118e-01  6.68463707e-02
 -1.25540629e-01  4.50536944e-02 -1.39645431e-02  2.70315289e-01
  1.88258290e-01  6.39954135e-02  6.18525455e-03 -1.52393788e-01
  4.85763215e-02 -1.51891068e-01  2.41229944e-02  1.13420881e-01
  5.86406961e-02  3.13974433e-02  5.94274653e-03 -1.16938725e-01
 -5.71905589e-03  3.48908454e-02 -1.26445636e-01 -1.45231457e-02
  4.68715429e-02 -2.78109107e-02 -3.83851305e-02 -6.21199012e-02
  1.96238980e-01  6.77427948e-02 -5.97463511e-02 -1.38928071e-01
  1.38153255e-01 -8.95301849e-02 -8.24696049e-02  3.97667848e-02
 -1.68529436e-01 -1.08887970e-01 -2.58006483e-01 -1.41782900e-02
  4.12411541e-01  1.89720653e-02 -1.75138295e-01  2.39741411e-02
 -1.31112143e-01 -2.36077048e-03  1.06875919e-01  9.77821723e-02
 -8.03204067e-03 -4.00903460e-04 -7.20621869e-02 -2.84390990e-02
  1.54946625e-01 -1.15611590e-01 -6.73005059e-02  2.12711856e-01
 -4.70000915e-02  7.19102845e-02  5.60702346e-02 -4.75905202e-02
  1.35269463e-02  4.69275378e-02 -1.67848930e-01 -5.96230887e-02
 -9.97413299e-04 -4.63823453e-02 -2.56860238e-02  9.86367986e-02
 -2.17358783e-01  6.18463866e-02  7.41025582e-02 -6.85122376e-03
  7.67835602e-02 -2.20888257e-02 -9.14452001e-02 -4.82204445e-02
  1.21554591e-01 -2.39947006e-01  2.30123907e-01  2.05237180e-01
  4.89559248e-02  9.38623548e-02  5.12866154e-02  7.32949302e-02
 -3.31599936e-02 -9.91144124e-03 -1.73143432e-01 -2.79726721e-02
  7.43772313e-02  5.25519960e-02  1.83202815e-03 -2.48838384e-02]