[-0.00999817  0.14042583  0.03574003 -0.00626871 -0.00824243 -0.07797915
  0.00230738 -0.15633467  0.10375901 -0.03599922  0.30153841 -0.06779838
 -0.18133341 -0.14224535 -0.03598484  0.17493074 -0.21643732 -0.06734114
 -0.06923293  0.03097926  0.08034526  0.0100716   0.11011676  0.00527935
  0.00262087 -0.32911792 -0.12493266 -0.08036847  0.11565024 -0.01228827
 -0.06048385  0.02690871 -0.1977111  -0.14555292  0.06196202 -0.01493988
 -0.05260737 -0.04633199  0.18746485  0.03449742 -0.1488286   0.06975072
  0.00335866  0.27419302  0.20074764  0.09960774  0.02409594 -0.17338815
  0.05196838 -0.18738054  0.04808284  0.1031815   0.06985073  0.05932244
  0.00578062 -0.12136392  0.01354203  0.06902261 -0.13707145 -0.03367613
  0.05463484 -0.01001687 -0.00364859 -0.06017715  0.20740397  0.04799911
 -0.07535463 -0.12675838  0.13953863 -0.08955209 -0.06557357  0.03793782
 -0.13400379 -0.11415769 -0.29863617 -0.019075    0.41991612  0.04133689
 -0.16070803  0.01600385 -0.11982761  0.00111456  0.11548867  0.07674213
 -0.03341109 -0.00386346 -0.07925634 -0.01046539  0.16677076 -0.13730435
 -0.06479432  0.20658962 -0.0177982   0.08463071  0.0435445  -0.00577193
  0.00363065  0.05961521 -0.17602536 -0.02569266  0.00805016 -0.02814591
 -0.02000371  0.12417777 -0.19664274  0.07376307  0.06157539 -0.00081281
  0.06024687 -0.02954116 -0.08179099 -0.0579922   0.09795707 -0.25288227
  0.22988181  0.22787009  0.04713757  0.08200651  0.0596853   0.04599143
 -0.01519967 -0.03798825 -0.19622649 -0.03214095  0.09783115  0.04506594
  0.00894815 -0.01087162]