[-0.06244203  0.13181806  0.07744561 -0.00743216  0.02865858 -0.1120195
  0.0090352  -0.1438105   0.11947842 -0.0124635   0.28535399 -0.04218882
 -0.17800449 -0.13346322 -0.01393722  0.15759705 -0.24127041 -0.09472342
 -0.03226927  0.01468073  0.07335282  0.0019929   0.04443973  0.02440604
 -0.05568206 -0.29256281 -0.12247629 -0.14308289  0.07474345 -0.00793889
 -0.03232801  0.00923749 -0.19651869 -0.12047762  0.05723011 -0.03149864
 -0.00459265 -0.03588597  0.17633972  0.05659495 -0.15392254  0.04733149
  0.01218128  0.28356695  0.17564839  0.0805639   0.03795164 -0.15789643
  0.04648912 -0.14898942  0.02772882  0.13095795  0.06200115  0.04975916
  0.00212764 -0.14980705  0.01329301  0.03381751 -0.17197463  0.02351334
  0.07705683 -0.01502211 -0.03057889 -0.02485359  0.22637892  0.05174837
 -0.10499596 -0.13734208  0.14097358 -0.10268285 -0.07177355  0.04388385
 -0.15266068 -0.12006692 -0.28458652 -0.00260939  0.41903898  0.00752095
 -0.17709993  0.05080301 -0.16093555 -0.00999186  0.11214484  0.11396328
 -0.02348575  0.02930781 -0.05500314 -0.0237896   0.17439017 -0.08096047
 -0.0330094   0.19479485 -0.04490425  0.02970057  0.03244632 -0.02770986
 -0.00679599  0.03330319 -0.12894119 -0.05462238  0.00767701 -0.03914241
 -0.01589962  0.12241302 -0.22097433  0.04369682  0.08119251 -0.00977789
  0.04384203  0.00748219 -0.086784   -0.08079804  0.10989817 -0.25500855
  0.25079295  0.21606751  0.04165878  0.05862505  0.04304231  0.05210137
 -0.03064401 -0.01008093 -0.16539097 -0.01340483  0.07637493  0.02655204
  0.03022901 -0.03352992]