[-0.12534133  0.13665779  0.11008292 -0.0318236  -0.10661422 -0.02155752
 -0.04290123 -0.14016749  0.12016185 -0.09460066  0.19149099 -0.00469825
 -0.23684645 -0.04721134  0.00413318  0.20864797 -0.13925622 -0.16763516
 -0.04921418  0.01291524  0.01862382 -0.01035775  0.06498577  0.03189952
 -0.13186719 -0.32189775 -0.07930957 -0.00653394 -0.00355429 -0.01485624
 -0.08700713  0.02129996 -0.18088239 -0.01008475  0.0527243   0.10341091
 -0.0737288  -0.12239094  0.21103735 -0.0250129  -0.29009196 -0.0300944
  0.10484737  0.22312064  0.2352498   0.01230734  0.02460315 -0.09994809
  0.08171546 -0.21213432  0.05073973  0.12487284  0.00667538  0.02659627
  0.07236838 -0.17101264  0.01265628  0.09735443 -0.10437242 -0.08762405
  0.04466874 -0.07440975 -0.01159337 -0.09497873  0.21031784  0.0999467
 -0.07803889 -0.13693957  0.1474776  -0.12452564 -0.05212027  0.05433293
 -0.14956836 -0.18216448 -0.31426206 -0.01883642  0.38081384  0.13529372
 -0.12506372  0.09205117  0.00606932  0.0039905   0.12876348  0.12230151
 -0.04276773  0.04897953 -0.0871314   0.03104927  0.24688272 -0.06640001
 -0.0347915   0.16333717  0.01167042  0.00430228  0.04797989  0.01206914
 -0.02636553  0.02498624 -0.21825126 -0.02798696  0.04233594 -0.01929877
  0.02085805  0.12996921 -0.20971966  0.02979402  0.0607033  -0.01513971
  0.00537541 -0.00823899 -0.14186721 -0.05625096  0.08827092 -0.24264574
  0.18902402  0.18131727 -0.01043622  0.10499953  0.14248462  0.05245521
  0.01979153 -0.01851136 -0.12129841 -0.03880958  0.13179462  0.00144486
  0.1416923   0.04350522]