[-0.0353296   0.13161612  0.05399644 -0.0152467   0.00529007 -0.05587466
  0.00928653 -0.14877342  0.11671703 -0.0198181   0.31083551 -0.06943218
 -0.18629806 -0.13727403 -0.02641532  0.15014967 -0.21656175 -0.04947815
 -0.06637497 -0.00397462  0.05762378  0.0149855   0.09412716  0.0157664
  0.00053796 -0.32762507 -0.13185759 -0.09530073  0.11637306 -0.00257937
 -0.05772184  0.04200711 -0.19658285 -0.1252926   0.04234697 -0.03479461
 -0.0420296  -0.04850728  0.19309644  0.06251751 -0.12628546  0.06462318
 -0.01825206  0.27215049  0.20424965  0.08718137 -0.00636696 -0.13439281
  0.04868422 -0.19401076  0.02581793  0.15154366  0.06527638  0.05441295
 -0.01203041 -0.1212302   0.00583528  0.0367644  -0.13603351 -0.03507137
  0.01712996 -0.05544184 -0.02633058 -0.0459932   0.18172505  0.08056563
 -0.06668001 -0.11121898  0.13707204 -0.07971747 -0.04240512  0.0392746
 -0.14735162 -0.12013713 -0.25469741  0.00425055  0.41387168  0.03097231
 -0.19193499  0.0181109  -0.15359066 -0.00332125  0.11877942  0.07737549
 -0.03395859 -0.02016161 -0.07360919 -0.02415722  0.14942069 -0.13895451
 -0.0502879   0.23629525 -0.01846244  0.07812496  0.0607073  -0.00536462
  0.0185525   0.03124694 -0.15569809 -0.03821243  0.03077602 -0.05056104
 -0.02934795  0.08694173 -0.23251441  0.07871906  0.09326479 -0.0155557
  0.07428007 -0.0560539  -0.053661   -0.04958559  0.12509309 -0.25723243
  0.23131061  0.22633095  0.01432514  0.12019842  0.04754285  0.05774609
 -0.03675015 -0.05564805 -0.14427821 -0.04608457  0.085815    0.06324881
 -0.02521913 -0.02869327]