[-5.16551398e-02  1.47234827e-01  4.80460040e-02  1.73868611e-02
  1.58039983e-02 -1.03980318e-01  1.45926028e-02 -1.56955868e-01
  1.39421552e-01 -1.39818629e-02  2.68221408e-01 -1.42403422e-02
 -1.62749901e-01 -1.37042269e-01 -8.51271488e-03  1.37144908e-01
 -2.32002497e-01 -6.45203218e-02 -4.07865569e-02 -1.89945498e-03
  4.40478697e-02  2.19976436e-02  1.06428497e-01  5.06479554e-02
 -4.93529849e-02 -2.80777901e-01 -1.25131413e-01 -1.80914968e-01
  9.68155712e-02 -7.65179936e-03 -5.58850132e-02  3.02506331e-02
 -1.89537287e-01 -1.28500402e-01  4.92671542e-02 -2.41214968e-02
 -2.33677067e-02  1.93503348e-03  1.77703992e-01  6.14854805e-02
 -1.30349442e-01  5.11712730e-02 -3.14660370e-04  3.10236424e-01
  2.13737845e-01  7.68662021e-02  3.21385637e-02 -1.27019852e-01
  4.29388657e-02 -1.66921332e-01  3.92126702e-02  1.15731500e-01
  8.42232928e-02  3.08940951e-02  1.75461862e-02 -1.54204443e-01
 -5.05165895e-03  1.70867387e-02 -1.58539608e-01  3.53580415e-02
  6.42415956e-02 -5.37378108e-03 -4.31216545e-02  9.48166754e-03
  2.31591061e-01  7.48858973e-02 -9.55686569e-02 -1.12168767e-01
  1.41851321e-01 -1.26416311e-01 -5.92646673e-02  6.64354488e-02
 -1.63289651e-01 -1.16980031e-01 -2.79640585e-01 -1.91563908e-02
  4.37672913e-01  2.93254498e-02 -1.58004522e-01  2.60175355e-02
 -1.83057591e-01  2.81621213e-03  8.54458734e-02  8.22122768e-02
 -5.30130565e-02  5.81904640e-03 -7.51353949e-02  5.12997794e-04
  1.53059050e-01 -9.78877768e-02 -5.60340844e-02  1.92973137e-01
 -3.04476619e-02  3.10827289e-02  2.22732034e-02 -2.99122315e-02
 -6.00256259e-03  6.13412587e-03 -1.60741702e-01 -7.29859695e-02
  1.84127025e-03 -4.73069064e-02 -2.27114391e-02  1.18323706e-01
 -2.43951559e-01  4.75246608e-02  8.80471095e-02 -3.27934735e-02
  4.23209444e-02  1.28023624e-02 -1.10457197e-01 -5.34452014e-02
  1.31929010e-01 -2.47826248e-01  2.57611573e-01  2.16578841e-01
  3.19305062e-02  6.92076981e-02  2.39863899e-02  3.41520570e-02
 -4.11096774e-02 -2.51494348e-02 -1.38554096e-01 -3.31240557e-02
  7.27237687e-02  2.17812844e-02  2.78745592e-02 -3.26667093e-02]