[-0.06616146  0.13707036  0.04672856 -0.04202336 -0.08270309 -0.0584907
 -0.04741427 -0.18667974  0.17155869 -0.08754692  0.23688523 -0.09155862
 -0.22350028 -0.06025758 -0.01887418  0.24557927 -0.18259911 -0.17582642
 -0.09207252 -0.0028915   0.02804072 -0.07305668  0.00246497  0.12239734
 -0.13504873 -0.34710941 -0.10344012 -0.10436125 -0.00765161 -0.03687928
 -0.0995303   0.05848166 -0.15259905 -0.07460959  0.08189208  0.09693885
 -0.03229297 -0.12187386  0.16624138 -0.0030766  -0.26725605  0.06266044
  0.10532682  0.25868925  0.28032622 -0.0072892   0.04646369 -0.1232428
  0.15780824 -0.20144188  0.03144102  0.13424768  0.05366987  0.08737186
  0.0859917  -0.17743672  0.03020968  0.12415837 -0.18589365 -0.0865517
  0.05985747 -0.02788374 -0.03915382 -0.07111014  0.1668317   0.15192962
 -0.09186471 -0.14996646  0.13653697 -0.14407901 -0.01817901  0.04453781
 -0.20728445 -0.17071699 -0.28965271 -0.04709993  0.43717155  0.10829355
 -0.18401559  0.06231738 -0.05153966 -0.00321772  0.09726793  0.07154674
  0.02687944 -0.00914855 -0.08880588  0.01726329  0.20910612 -0.06778255
  0.02636211  0.18407288 -0.02064735 -0.05388854  0.04386666  0.05401225
 -0.11400201  0.00768857 -0.19604845 -0.09916162 -0.02901376  0.01435802
 -0.02355675  0.04691705 -0.2603772   0.09933008  0.07409124  0.01584362
 -0.03526681 -0.0291719  -0.06738714 -0.00201812  0.13987602 -0.24143274
  0.17468533  0.16917057  0.01060798  0.09174166  0.03684034  0.007847
 -0.03129286 -0.06557901 -0.1399844  -0.03923949  0.0738851   0.01038568
  0.05996677 -0.02088274]