[-0.07555633  0.1184232   0.03039822 -0.08130219 -0.10744341 -0.04919484
 -0.05119373 -0.14853634  0.13663737 -0.0700803   0.2527937  -0.15119927
 -0.25440902 -0.061127   -0.06439235  0.26156488 -0.17657323 -0.15371269
 -0.0603483   0.02882687  0.02522283 -0.06168646  0.01380613  0.10547099
 -0.12928928 -0.3742345  -0.10858463 -0.07900242 -0.04732634 -0.06174838
 -0.09699688  0.10515552 -0.1623262  -0.06719859  0.07063393  0.11820232
 -0.02697976 -0.11111061  0.17221968 -0.00660055 -0.30361518  0.04072908
  0.14621302  0.26006886  0.20731257  0.02668362  0.03397602 -0.09827801
  0.09718282 -0.19520625  0.04518071  0.13767426  0.05064508  0.0544302
  0.0484609  -0.14901903  0.02590308  0.13061319 -0.14492384 -0.09547114
  0.10759643 -0.03888157 -0.03889158 -0.12560831  0.21663521  0.14326082
 -0.10505338 -0.14327042  0.15083228 -0.11971384 -0.04430288  0.04415613
 -0.18803304 -0.17496648 -0.28158173 -0.01955284  0.37431526  0.11449932
 -0.15309094  0.08283262 -0.03057253  0.00338375  0.0899288   0.10593364
  0.03213533  0.04534274 -0.08017856  0.0082988   0.22167788 -0.08438683
  0.0366722   0.17863123 -0.02848557 -0.01178779  0.02850385  0.01764492
 -0.08360596  0.03057368 -0.18223818 -0.02959851  0.00712782 -0.00771293
 -0.03742983  0.07045179 -0.23142366  0.07703203  0.05184761  0.0066128
 -0.0077662  -0.01100129 -0.04517386 -0.03184057  0.13348244 -0.25115415
  0.17957543  0.15988815  0.02610467  0.07650343  0.09929929  0.04432376
 -0.00109756 -0.06497982 -0.19553675 -0.04761216  0.12839811 -0.03570383
  0.076567   -0.00448409]