[-0.08419983  0.09777694  0.02593368 -0.07406376 -0.11643391 -0.07117239
 -0.06105567 -0.14816841  0.14200203 -0.04708759  0.24089973 -0.13336085
 -0.23970909 -0.07698592 -0.0583603   0.25656044 -0.15940638 -0.14918528
 -0.05955593  0.00533391  0.02664981 -0.03979776  0.01285208  0.11697572
 -0.11264954 -0.3814902  -0.11997489 -0.06881145 -0.04337897 -0.07169525
 -0.09489603  0.13487126 -0.16994652 -0.07452931  0.08569675  0.14186288
 -0.01701664 -0.10336568  0.16792707 -0.00064732 -0.28737822  0.03318583
  0.16184594  0.2574566   0.22589636  0.02238346  0.03214647 -0.0893399
  0.10067344 -0.17845888  0.02682002  0.15430383  0.05391827  0.05172023
  0.03953875 -0.14078157  0.02381817  0.11327652 -0.15580416 -0.11309331
  0.107423   -0.06307303 -0.06956072 -0.12197088  0.21807323  0.14587393
 -0.10036766 -0.15691195  0.15540169 -0.13839261 -0.05654722  0.03210112
 -0.19842294 -0.1543832  -0.29874548 -0.0225807   0.38410598  0.0952233
 -0.15007371  0.11421058 -0.03872266  0.00228108  0.06197955  0.09255741
  0.01073981  0.06342968 -0.08353493  0.02481016  0.21495472 -0.06507608
  0.05147     0.17035523 -0.02065859  0.0162837   0.0440195   0.01910291
 -0.06900686  0.01302659 -0.18869178 -0.03082244  0.00416593 -0.0123902
 -0.01331964  0.06696209 -0.23317349  0.08672477  0.05904911  0.00890094
 -0.0169569  -0.01102411 -0.05528096 -0.02969597  0.13321222 -0.24931288
  0.18056463  0.14644416  0.02895497  0.08426084  0.09636973  0.06253954
 -0.02095846 -0.07292026 -0.18000381 -0.0400294   0.11956216 -0.03628008
  0.07607643  0.00769175]