[-0.07573044  0.06192908  0.05217912 -0.02940685 -0.11053826 -0.04935344
 -0.01936618 -0.15710261  0.15078959 -0.0464461   0.23749228 -0.05188931
 -0.24133702 -0.07516725 -0.02668579  0.26248243 -0.1801198  -0.15075181
 -0.05708414 -0.02333075  0.01662771 -0.05016423 -0.00774444  0.12980802
 -0.13190973 -0.38191488 -0.1271092  -0.10857331 -0.06169179 -0.02035516
 -0.04228891  0.11985805 -0.13750564 -0.05672026  0.10198198  0.08812537
  0.00148238 -0.10033005  0.17454043 -0.01158388 -0.26345095  0.03837676
  0.16190675  0.2412529   0.25556424  0.01402175  0.06079022 -0.08950143
  0.09934531 -0.22711603  0.04260343  0.14162385  0.08225739  0.06811675
  0.06631559 -0.17172241  0.00580127  0.09629066 -0.204687   -0.07818985
  0.03485298 -0.04073256 -0.02537565 -0.06585389  0.19689313  0.14212307
 -0.11947221 -0.12535489  0.18143944 -0.1778001  -0.0284387   0.0310927
 -0.20894432 -0.20639746 -0.31183156 -0.02432884  0.45209503  0.14512472
 -0.1906666   0.07168102 -0.10204859 -0.00834676  0.05871844  0.0855794
  0.06126098 -0.02321242 -0.07406946  0.0167662   0.20524631 -0.05398156
  0.03744776  0.23818505  0.00574253 -0.03804044  0.02594757  0.06561702
 -0.06119427  0.00289793 -0.16837853 -0.07142103 -0.04777422  0.02746364
  0.03572184  0.06624246 -0.27180541  0.10274229  0.05338681 -0.00080774
 -0.01989767  0.00939543 -0.07032248 -0.0358784   0.15527105 -0.27034956
  0.1654205   0.1711088  -0.02374853  0.12009276  0.014449    0.06266149
 -0.03184388 -0.13892774 -0.14326306 -0.02524012  0.06831598 -0.03722361
  0.04835922  0.01933272]