[-1.10087655e-01  7.91454315e-02  4.34096828e-02 -4.85798381e-02
 -7.80109465e-02 -6.11181520e-02  2.68484047e-03 -1.61176026e-01
  1.36684388e-01 -7.36418366e-02  2.29124770e-01 -7.30594173e-02
 -2.10224986e-01 -4.68196683e-02 -3.69946361e-02  2.47983083e-01
 -2.22788736e-01 -1.44518957e-01 -4.84610982e-02 -1.29560009e-02
  8.62631667e-03 -6.27751723e-02  2.72351317e-03  1.06802128e-01
 -1.25351220e-01 -3.43485475e-01 -1.23770475e-01 -1.03105523e-01
 -2.48054937e-02  2.26588245e-03 -4.49892245e-02  1.06711566e-01
 -1.14325456e-01 -2.92761326e-02  8.37736800e-02  1.16239332e-01
  3.26806679e-04 -1.02796100e-01  2.12800369e-01  1.39562851e-02
 -2.55950302e-01  4.56649177e-02  9.49667841e-02  3.00095201e-01
  2.73389190e-01 -2.36421879e-02  2.32489705e-02 -7.56158084e-02
  1.71906307e-01 -2.07641944e-01 -2.73759104e-02  1.20226517e-01
  6.33301437e-02  5.27198911e-02  4.81525473e-02 -1.36716843e-01
  5.08921407e-02  1.11356437e-01 -2.09327415e-01 -1.27550453e-01
  2.88561713e-02 -8.33128244e-02  1.70439817e-02 -6.26247451e-02
  1.81157261e-01  1.29240766e-01 -9.73354727e-02 -1.13567889e-01
  1.83858037e-01 -1.28725991e-01 -6.82768971e-03  1.88220590e-02
 -2.08180577e-01 -1.81602016e-01 -2.69250602e-01 -2.53709257e-02
  4.60567534e-01  1.33802399e-01 -1.36647657e-01  9.72487330e-02
 -7.00000599e-02 -1.19294915e-02  1.15243711e-01  8.89729485e-02
  8.38042516e-03  6.87803049e-03 -8.98215771e-02  1.89014077e-02
  1.99122742e-01 -7.19605014e-02  1.33166080e-02  1.76964790e-01
 -2.29197685e-02 -5.07649500e-03  5.68835326e-02  2.10271906e-02
 -7.58173317e-02  4.94962595e-02 -1.85339332e-01 -5.41126840e-02
 -3.13971937e-02 -1.93440970e-02  5.62080629e-02  6.26128837e-02
 -2.50489056e-01  9.25508514e-02  6.13671429e-02  1.94075312e-02
 -3.63329500e-02 -4.03014570e-03 -6.03617504e-02  1.26462532e-02
  1.34814858e-01 -2.63673455e-01  1.58644155e-01  1.71625406e-01
 -4.60367315e-02  1.22639693e-01  5.08516096e-02  2.03534700e-02
 -5.65646552e-02 -7.48244375e-02 -1.45775646e-01 -1.77926626e-02
  9.43296179e-02  2.35853922e-02  9.77670476e-02 -1.27653708e-03]