[-0.12068646  0.08887098  0.04561519 -0.02745025 -0.09494286 -0.04590415
 -0.02257459 -0.17923634  0.14720647 -0.04820672  0.22382994 -0.03139397
 -0.20784955 -0.08705504 -0.02257012  0.22233367 -0.21629241 -0.13696931
 -0.06945115 -0.01309646  0.03803205 -0.01841663  0.0255562   0.04741604
 -0.11511689 -0.39148024 -0.12057938 -0.10714439  0.02436705  0.00944756
 -0.0480591   0.04093709 -0.14899801 -0.09994449  0.10355362  0.10353166
 -0.03424652 -0.0910598   0.1942862   0.01217888 -0.22526307  0.07212766
  0.10231352  0.27957526  0.26780218  0.04766649  0.05766556 -0.16062096
  0.13667528 -0.18531278  0.01068524  0.13642675  0.04715375  0.05948194
  0.07864255 -0.1417046   0.03592253  0.07808427 -0.20871063 -0.08057477
  0.06879764 -0.03866131 -0.01156892 -0.08095153  0.1842964   0.06732634
 -0.09694968 -0.1311525   0.1523197  -0.13839592 -0.02992082  0.01030451
 -0.19157325 -0.19468103 -0.30526444 -0.0170696   0.46331635  0.13023864
 -0.1609786   0.0792231  -0.06610458 -0.03669583  0.12163948  0.11833506
  0.04337174 -0.00979168 -0.06746971  0.02648514  0.18911865 -0.08394562
  0.03472585  0.20067576  0.0056105   0.00733556  0.03445502  0.04962199
 -0.1139873   0.05686093 -0.17737825 -0.07195785  0.00066145  0.03386911
  0.08346617  0.07322662 -0.21550487  0.11319946  0.04387213  0.00116917
 -0.01245747 -0.07207602 -0.05992698 -0.01672324  0.13782947 -0.24839897
  0.18878189  0.20371974 -0.02189142  0.12591277  0.0574281   0.02471659
 -0.03543234 -0.027765   -0.1848595  -0.01331933  0.0483718  -0.00166669
  0.07247014  0.00047603]