[-0.03036905  0.13206969  0.03649439 -0.03660348 -0.05549965 -0.03162197
 -0.02947843 -0.1717158   0.14741252 -0.05740678  0.27258506 -0.09507214
 -0.25410184 -0.11696409 -0.02034251  0.23147647 -0.19746019 -0.16800076
 -0.0680435   0.01564132  0.02873488 -0.04396447  0.03644449  0.1128424
 -0.16144596 -0.39878222 -0.07743057 -0.08282558 -0.03606299 -0.03705161
 -0.10724843  0.11545195 -0.16527413 -0.05558591  0.09153339  0.12560847
 -0.04331632 -0.13585432  0.1897465   0.01877585 -0.26840088  0.06056442
  0.075658    0.29511377  0.26404852 -0.04942102  0.05852748 -0.08949132
  0.12536652 -0.22008614  0.01831165  0.18503948  0.03787194  0.07239047
  0.04359852 -0.13941054 -0.01774585  0.12666743 -0.17531541 -0.11744503
  0.05445519 -0.04449638 -0.03200574 -0.11483639  0.15743026  0.15278701
 -0.12491649 -0.14877881  0.12004032 -0.12895885 -0.02203836  0.04596133
 -0.2319515  -0.19953631 -0.27583492  0.00160657  0.40323454  0.10809725
 -0.16535361  0.05752609 -0.05277453  0.01488942  0.09724133  0.10785961
  0.06338093  0.02901032 -0.07516412  0.06963989  0.1940701  -0.08118551
 -0.01489347  0.19852675 -0.04259924 -0.023684    0.04867676  0.04837097
 -0.06142853  0.05918849 -0.18821788 -0.01123871 -0.01045794  0.00398256
  0.00438575  0.06416181 -0.20294018  0.08008337  0.06772679  0.02351676
  0.02442254 -0.04781712 -0.07049524 -0.03496071  0.11674311 -0.29138055
  0.19220772  0.1641541   0.00868587  0.0976891   0.03576413  0.02257409
 -0.0103976  -0.07909375 -0.15808944 -0.03634069  0.08884971  0.0400403
  0.05112509 -0.05548361]