[-0.09981489  0.12208878  0.04399954 -0.03217023 -0.04350919 -0.03787751
 -0.01937732 -0.19604437  0.17736872 -0.06596874  0.20817915 -0.03558534
 -0.21981779 -0.09076517 -0.04585137  0.24473701 -0.20650268 -0.15279581
 -0.0293247  -0.01811641  0.0454867  -0.03987138  0.02424665  0.07079794
 -0.11561739 -0.33402249 -0.15652737 -0.10594536  0.00392117  0.00774587
 -0.05052373  0.05912608 -0.12802015 -0.04811054  0.07200853  0.10076028
 -0.00638017 -0.09624467  0.19592707  0.00220661 -0.23335926  0.04571311
  0.09292608  0.28051275  0.25801402  0.01666564  0.03002371 -0.14189081
  0.15198182 -0.17014824 -0.00630209  0.14695363  0.05038584  0.07508891
  0.02253905 -0.14325732  0.05151767  0.07926808 -0.21534733 -0.11450615
  0.04229362 -0.06329017 -0.02057939 -0.0448367   0.19062701  0.11063298
 -0.09765479 -0.16399825  0.1522703  -0.15730301 -0.01217605  0.03972624
 -0.21345723 -0.18430997 -0.28519925 -0.02460648  0.43849522  0.12000751
 -0.13517979  0.11524999 -0.09528934 -0.01384808  0.11010122  0.10747921
  0.01678035  0.0246486  -0.09778773  0.00733825  0.20740278 -0.11164618
  0.01511721  0.20503619 -0.00662576  0.02715616  0.02242865  0.03978105
 -0.08357581  0.05428164 -0.17949398 -0.09336229  0.00742751  0.04282509
  0.05834357  0.06537911 -0.23483264  0.11363746  0.07217254  0.02333269
 -0.01313961 -0.05637518 -0.08149346 -0.0234944   0.1618098  -0.24042635
  0.17346412  0.17448805 -0.02490684  0.11209513  0.08145586  0.05397078
 -0.05607666 -0.07653179 -0.16040617  0.01175847  0.1044141   0.00421042
  0.08777899 -0.01368314]