[-5.88083528e-02  9.48290378e-02  3.01239099e-02 -5.10534309e-02
 -1.35611534e-01 -2.58278605e-02 -2.25147437e-02 -1.51923075e-01
  1.36763737e-01 -5.72314635e-02  2.45302305e-01 -9.90866348e-02
 -2.55940199e-01 -5.92301376e-02  6.48046145e-03  2.59926885e-01
 -1.54866695e-01 -1.63199350e-01 -9.21383575e-02 -1.41626922e-02
 -1.83309913e-02 -4.37986962e-02 -1.22735742e-02  1.19042806e-01
 -1.42950416e-01 -3.79260451e-01 -1.05734825e-01 -1.08257331e-01
 -4.35439534e-02 -4.87845577e-02 -9.58319157e-02  9.08101425e-02
 -1.38277739e-01 -7.37129003e-02  1.07694522e-01  8.17316696e-02
 -4.62714694e-02 -1.34051010e-01  1.53027996e-01 -1.99844502e-03
 -2.64281601e-01  4.02968526e-02  1.33964822e-01  2.58861303e-01
  2.31722787e-01  2.49014352e-03  6.49506003e-02 -8.50339532e-02
  1.12193130e-01 -2.34269768e-01  6.59496635e-02  1.16007403e-01
  4.06384245e-02  6.91841692e-02  8.70019794e-02 -1.65020943e-01
  1.21801076e-02  1.31261498e-01 -2.17302039e-01 -5.62145077e-02
  7.28256404e-02 -1.35523081e-02 -4.70905863e-02 -9.31006223e-02
  1.80422515e-01  1.84644669e-01 -9.84088629e-02 -1.44099697e-01
  1.53488025e-01 -1.56718448e-01 -3.34890187e-02  1.15886992e-02
 -1.99222490e-01 -2.11399913e-01 -2.87190914e-01 -1.01725543e-02
  4.13331330e-01  1.50866494e-01 -1.83965638e-01  4.19431217e-02
 -1.62922330e-02 -5.05806832e-03  1.05890267e-01  7.19236284e-02
  5.05980924e-02 -2.16864794e-02 -7.17875734e-02  4.28087823e-02
  2.14398742e-01 -6.97484314e-02  3.21426950e-02  2.22325370e-01
 -2.14157682e-02 -6.33534193e-02  4.37585674e-02  7.67208561e-02
 -8.18634704e-02  1.87192205e-02 -1.74612328e-01 -4.29446809e-02
 -1.82900389e-04  2.22572102e-03  6.36158744e-03  6.66087195e-02
 -2.35385925e-01  1.05074011e-01  4.46916297e-02  5.52502228e-03
 -3.57077010e-02 -2.99136993e-02 -6.55913278e-02 -1.26442807e-02
  1.43639758e-01 -2.47660562e-01  1.79085657e-01  1.65201187e-01
 -6.89750258e-03  9.43805426e-02  1.88383702e-02  6.41609589e-03
  5.53909456e-03 -1.07511871e-01 -1.71637669e-01 -5.02627976e-02
  8.47337246e-02 -1.88240018e-02  3.54291722e-02  1.11093698e-02]