[-9.65207815e-02  9.87318084e-02  2.55887061e-02 -4.60241996e-02
 -8.15271959e-02 -5.22610657e-02 -5.59058273e-03 -1.37719274e-01
  1.43104643e-01 -1.02957480e-01  2.05555275e-01 -4.82242070e-02
 -2.18089968e-01 -5.47016859e-02 -6.50961995e-02  2.38131717e-01
 -2.08735496e-01 -1.65072531e-01 -8.36929306e-02 -3.79425101e-02
 -1.10636186e-03  6.74184645e-03 -1.08788898e-02  9.49758291e-02
 -1.07214652e-01 -3.32905084e-01 -6.59934580e-02 -1.05648279e-01
 -7.37996921e-02 -2.58123521e-02 -4.08483855e-02  1.00580871e-01
 -1.30059719e-01 -4.41358164e-02  7.47975186e-02  6.43509477e-02
 -3.77563201e-02 -3.63873988e-02  1.89458802e-01  5.47525175e-02
 -2.38701567e-01  4.46979888e-02  1.34234279e-01  3.31951827e-01
  2.79092997e-01 -8.25264771e-03 -1.27388118e-02 -7.58474097e-02
  1.54787377e-01 -2.68780261e-01 -1.68536473e-02  1.28594264e-01
  2.94105206e-02  7.60074332e-02  7.75742754e-02 -1.32570088e-01
  4.00440805e-02  8.97810087e-02 -1.77629739e-01 -5.75330928e-02
  3.28529999e-02 -7.80907199e-02 -2.78222244e-02 -3.42997387e-02
  1.75727382e-01  1.07489228e-01 -7.40843266e-02 -1.21277943e-01
  1.54567078e-01 -1.77074194e-01 -6.07004277e-02  4.23327833e-02
 -1.64297089e-01 -1.79633051e-01 -2.70608753e-01 -4.48949225e-02
  4.32031482e-01  1.45825118e-01 -1.32210776e-01  8.24987665e-02
 -3.39010470e-02 -2.14831922e-02  1.43984526e-01  7.13603720e-02
  1.04669482e-02 -9.21838917e-03 -7.70659670e-02  2.04642769e-02
  2.13445380e-01 -3.24018970e-02 -2.01392658e-02  1.98541358e-01
  2.26889551e-03 -3.01521551e-02  8.31023455e-02  1.65190678e-02
 -6.16040304e-02  3.78779625e-03 -2.38923505e-01 -7.68863410e-02
 -4.86539714e-02 -2.51917876e-02  2.62706238e-03  4.72539254e-02
 -2.26066634e-01  1.09726109e-01  5.29702306e-02  8.40003975e-03
 -5.37889190e-02  2.76133418e-04 -6.68513700e-02  2.34608203e-02
  1.29037723e-01 -2.07120284e-01  1.83778033e-01  1.69524655e-01
  7.15267984e-03  1.08202003e-01  4.29854766e-02 -2.80840676e-02
 -5.75601459e-02 -6.94344118e-02 -1.36526063e-01 -5.40635400e-02
  7.58291930e-02  3.34859639e-03  9.66537818e-02 -1.44595802e-02]