[-0.06265905  0.1082372   0.02485504 -0.03446412 -0.09346662 -0.03333763
 -0.02134495 -0.14269225  0.16573252 -0.10728281  0.19552919 -0.07452103
 -0.23548639 -0.02392165 -0.06321057  0.25031492 -0.20101185 -0.15183477
 -0.10288941 -0.03039932 -0.01634712 -0.01043894  0.00431218  0.10006024
 -0.09249436 -0.36733216 -0.06939872 -0.11224522 -0.03686766 -0.03636457
 -0.07507331  0.07030042 -0.14663221 -0.05408612  0.05977511  0.04195845
 -0.06298573 -0.06935954  0.16977367  0.05650243 -0.23817194  0.04782066
  0.11080744  0.30403885  0.27718869  0.01849039  0.00958565 -0.11338151
  0.15008169 -0.25919208  0.00830722  0.11993813  0.02035789  0.0820075
  0.08904006 -0.15142019  0.02528389  0.09982023 -0.1715789  -0.03823817
  0.03919642 -0.01228822 -0.03121134 -0.04411547  0.1919817   0.12273381
 -0.07807898 -0.11385027  0.15227918 -0.17869624 -0.04371014  0.01878166
 -0.15657306 -0.19180277 -0.2794176  -0.05259179  0.42506847  0.14937147
 -0.15569885  0.0501818  -0.03851443 -0.01992017  0.14857136  0.07820301
  0.00475833 -0.02347815 -0.07373707  0.01071627  0.21232238 -0.05069749
 -0.01312205  0.20908792 -0.00770693 -0.04311058  0.05653036  0.0366373
 -0.10940089 -0.00099174 -0.24835663 -0.11100417 -0.02990759  0.01032287
 -0.01872197  0.05325879 -0.2312576   0.11907541  0.05723883 -0.00180527
 -0.03168557 -0.00793265 -0.08285233  0.01017336  0.14462499 -0.19861902
  0.18124747  0.17336376  0.02300496  0.10339395  0.04657919 -0.02752598
 -0.04190184 -0.06607408 -0.15193193 -0.05162103  0.07828769  0.00563242
  0.066204   -0.0165321 ]