[-7.23048821e-02  1.00042082e-01  2.34975554e-02 -6.85068592e-02
 -9.43772346e-02 -7.43570551e-02 -4.21901457e-02 -1.52383611e-01
  1.42862141e-01 -6.44698143e-02  2.51343548e-01 -1.40432060e-01
 -2.54889458e-01 -8.20068270e-02 -5.32028489e-02  2.55908102e-01
 -1.78200781e-01 -1.44876733e-01 -7.19402358e-02  2.37747431e-02
  2.91327685e-02 -7.45653138e-02  9.18571278e-03  1.27226263e-01
 -1.14903092e-01 -3.80939394e-01 -9.30904672e-02 -7.88012370e-02
 -3.56759690e-02 -5.37829176e-02 -1.09575666e-01  1.22040503e-01
 -1.64725631e-01 -7.76078105e-02  7.30421543e-02  1.37055799e-01
 -2.17419509e-02 -9.40087065e-02  1.87330320e-01  3.77527816e-04
 -2.93396622e-01  2.97080856e-02  1.33141771e-01  2.42454648e-01
  2.28086948e-01  3.27756666e-02  3.75228636e-02 -9.47072878e-02
  1.13085032e-01 -2.19206259e-01  4.20598388e-02  1.50673300e-01
  5.67366555e-02  4.70572039e-02  5.71413711e-02 -1.63916960e-01
  7.42915645e-03  1.19878255e-01 -1.65255845e-01 -9.79223475e-02
  9.51288566e-02 -4.90388200e-02 -6.09035492e-02 -1.16834939e-01
  2.09013805e-01  1.52666256e-01 -1.12074234e-01 -1.19912103e-01
  1.79605365e-01 -1.34027034e-01 -3.02063357e-02  3.32046449e-02
 -1.73025697e-01 -1.77579924e-01 -2.77739644e-01 -1.15145016e-02
  3.94045740e-01  1.14826083e-01 -1.66352138e-01  7.45148882e-02
 -4.25365157e-02 -1.05796531e-02  9.67242569e-02  8.72430429e-02
  3.24892327e-02  3.08655649e-02 -8.15759152e-02  9.82182380e-03
  1.96927294e-01 -6.52302578e-02  5.36197685e-02  1.78451300e-01
 -2.28484683e-02  1.43726449e-03  3.60825919e-02  2.50720736e-02
 -8.42398033e-02  2.81728208e-02 -1.97495818e-01 -2.69682556e-02
  8.66121892e-03 -1.17434468e-02 -2.14600898e-02  5.36563881e-02
 -2.18124196e-01  7.07841069e-02  5.42611964e-02 -3.44185228e-03
 -4.04753769e-03 -1.63728353e-02 -6.10730909e-02 -3.69189978e-02
  1.29313126e-01 -2.48195797e-01  1.85610339e-01  1.51387215e-01
  1.14086913e-02  8.79819617e-02  8.45343694e-02  5.52741960e-02
  7.05094356e-03 -8.57157633e-02 -1.88078627e-01 -5.30515090e-02
  1.20852940e-01 -3.11994851e-02  6.48696795e-02 -1.26751838e-02]