[-1.22433320e-01  9.56906304e-02  5.68334348e-02 -3.15775312e-02
 -1.01247385e-01 -3.47598307e-02 -1.76840611e-02 -1.69646502e-01
  1.49699047e-01 -3.70740481e-02  2.22108513e-01 -2.16847640e-02
 -2.19780430e-01 -8.02911445e-02 -2.03755479e-02  2.22961470e-01
 -2.23403677e-01 -1.42710686e-01 -6.68831244e-02 -9.99881048e-03
  2.37952303e-02 -2.41729449e-02  3.23504880e-02  6.50724545e-02
 -1.21900395e-01 -3.97969216e-01 -1.21455550e-01 -1.19943120e-01
  1.72987264e-02  9.99161322e-03 -4.36965190e-02  6.29022941e-02
 -1.43203124e-01 -7.69457072e-02  1.05821073e-01  1.11197494e-01
 -4.47361954e-02 -9.46909860e-02  1.97239920e-01  2.03490462e-02
 -2.21045613e-01  6.10734299e-02  1.02097206e-01  2.82271773e-01
  2.89367080e-01  2.91012265e-02  6.30384088e-02 -1.47338182e-01
  1.47641763e-01 -2.02281237e-01  5.68152918e-03  1.61380455e-01
  4.50116955e-02  7.39840567e-02  8.86430368e-02 -1.49339363e-01
  3.75076197e-02  8.56249630e-02 -2.13380575e-01 -8.13616067e-02
  4.78456728e-02 -4.34913896e-02 -1.43540176e-02 -8.64693448e-02
  1.70251235e-01  7.71527439e-02 -1.09089546e-01 -1.21166527e-01
  1.62928343e-01 -1.40829623e-01 -1.68140624e-02  2.25816853e-02
 -2.04735085e-01 -2.01057315e-01 -2.84972489e-01 -2.79649924e-02
  4.56657737e-01  1.39702618e-01 -1.60267740e-01  7.26361945e-02
 -8.16987455e-02 -4.73163314e-02  8.71192291e-02  1.19157650e-01
  4.14072350e-02 -2.00916808e-02 -7.31445476e-02  2.92494185e-02
  1.76922292e-01 -8.02620724e-02  5.92094250e-02  2.17968449e-01
  4.71358700e-03 -1.59127300e-03  3.20646167e-02  5.83310798e-02
 -1.22074924e-01  4.39489074e-02 -1.82151079e-01 -8.36109817e-02
 -3.09124719e-02  1.65438447e-02  7.00685903e-02  5.40220141e-02
 -2.28837326e-01  1.20629184e-01  5.31449020e-02  6.30923826e-03
 -2.83273403e-02 -9.05697718e-02 -5.11044338e-02 -5.35953805e-05
  1.50225550e-01 -2.56799906e-01  1.84564978e-01  2.00154290e-01
 -3.48844118e-02  1.31655023e-01  4.44121733e-02  2.67764870e-02
 -5.20517118e-02 -6.38079718e-02 -1.69735968e-01 -1.19836563e-02
  3.69956605e-02 -4.77492018e-03  4.39543016e-02 -7.71674374e-03]