[-0.11064146  0.09481187  0.05395469 -0.01458051 -0.03716287 -0.03034911
  0.00590982 -0.18687569  0.15956557 -0.07255063  0.21709318 -0.03282329
 -0.2288841  -0.09763931 -0.01917226  0.24403451 -0.19496588 -0.14882244
 -0.06053059 -0.02396913  0.02934232 -0.08153703  0.03215469  0.09258996
 -0.12372396 -0.34290734 -0.13553317 -0.12211374  0.00762483  0.01127305
 -0.05826752  0.06727284 -0.12904513 -0.04659763  0.06266891  0.1003433
 -0.00488589 -0.08318404  0.20141263 -0.0119565  -0.23659961  0.03714186
  0.08065429  0.26981878  0.27326182  0.01928946  0.0380032  -0.11085852
  0.1558076  -0.21090424  0.01455951  0.13455935  0.06976014  0.07039308
  0.04953928 -0.15560131  0.04814997  0.0822714  -0.20729445 -0.09144716
  0.01158346 -0.06239971 -0.00561213 -0.02827433  0.18127678  0.11564682
 -0.10173126 -0.12627929  0.16838238 -0.15052837  0.02120716  0.04226479
 -0.21753287 -0.19991906 -0.2913028  -0.01095113  0.46057209  0.14477335
 -0.15492085  0.08430396 -0.10809081 -0.01277736  0.10862738  0.09832119
  0.01543938 -0.00792998 -0.10042757  0.00955975  0.18733463 -0.09930568
  0.01491426  0.2169898  -0.00431503 -0.00243425  0.01899122  0.04762321
 -0.08934063  0.03703561 -0.18086317 -0.10569667  0.00444927  0.03527736
  0.06363541  0.05836922 -0.24983123  0.10073297  0.05708088  0.02423405
 -0.00393839 -0.03528459 -0.08594243 -0.02754388  0.1489937  -0.23997872
  0.15804206  0.19754308 -0.03862302  0.10838538  0.06423315  0.04496071
 -0.03947058 -0.07813012 -0.14247762  0.00710083  0.10369607  0.00821029
  0.0674451  -0.01095773]