[-0.08185394  0.11124338  0.03248706 -0.02128108 -0.09319352 -0.03545361
 -0.02989706 -0.14007159  0.14367566 -0.08859309  0.1998208  -0.0578827
 -0.21688199 -0.0333916  -0.06542092  0.23886438 -0.1809292  -0.14510365
 -0.09178624 -0.00063686  0.00063552 -0.00112292  0.01685989  0.08826198
 -0.0899443  -0.34315306 -0.07317295 -0.09446528 -0.05092805 -0.0442646
 -0.07598057  0.05155422 -0.14695737 -0.06341247  0.06687007  0.06086018
 -0.03719606 -0.06218803  0.17304072  0.06090336 -0.2526885   0.06390612
  0.11274493  0.30747166  0.2780301   0.02229541  0.00429506 -0.12496702
  0.12814416 -0.24561107 -0.00565202  0.11437154  0.00911262  0.06443129
  0.05021646 -0.14007773  0.03208542  0.09654785 -0.15436539 -0.06293408
  0.04969002 -0.01743178 -0.02836389 -0.03891757  0.1895809   0.11007183
 -0.08096325 -0.13390297  0.11655591 -0.18058883 -0.06940945  0.02938247
 -0.15697446 -0.17627442 -0.29782283 -0.05398299  0.44560477  0.12183823
 -0.16203146  0.06307445 -0.0566359  -0.0125919   0.14331712  0.0876505
  0.01247077 -0.00804845 -0.07719544 -0.00699312  0.23277433 -0.0449579
 -0.00943989  0.18751208  0.01063334 -0.02759011  0.06523295  0.03991896
 -0.07845728  0.00596543 -0.23802105 -0.10108395 -0.04572471  0.00164906
 -0.00935047  0.06870583 -0.26303896  0.11823773  0.06185128 -0.01047755
 -0.01015996 -0.0045363  -0.07479167  0.00725004  0.13954227 -0.21428123
  0.17211209  0.19446431  0.03145127  0.09526154  0.07115343 -0.00742215
 -0.048229   -0.02504991 -0.15208142 -0.04745438  0.06819008 -0.0005228
  0.08242117 -0.01479885]