[-0.03556286  0.11781347  0.02480745 -0.01780831 -0.08016225 -0.01106328
  0.00335035 -0.12450739  0.15888099 -0.0978327   0.19280933 -0.05966111
 -0.22998069 -0.01189029 -0.05347783  0.21880756 -0.18354921 -0.13371256
 -0.11535334 -0.01002978 -0.00739641  0.01141516 -0.00169109  0.09592798
 -0.10403617 -0.33764783 -0.05645654 -0.09023165 -0.04101582 -0.04226996
 -0.07588838  0.0651992  -0.13573222 -0.05746686  0.05975632  0.03354082
 -0.07404006 -0.06806907  0.15938722  0.08336269 -0.22602785  0.06272785
  0.10640585  0.32649946  0.2614418   0.03020751  0.01132168 -0.11157145
  0.12762862 -0.27574512  0.00134919  0.11085309  0.01351036  0.08424366
  0.09079815 -0.14381766  0.01708356  0.08812095 -0.1535753  -0.02646383
  0.03446443 -0.00419742 -0.0216805  -0.0505296   0.17984566  0.11090475
 -0.07348322 -0.11157542  0.12446927 -0.19208592 -0.09006738  0.00898944
 -0.12664002 -0.17723897 -0.28337449 -0.04041132  0.42665347  0.15124248
 -0.15565206  0.05108491 -0.03347925 -0.02468749  0.14852184  0.0815971
 -0.0054621  -0.02184039 -0.06377429  0.00316461  0.22806433 -0.04576669
 -0.01166948  0.202824    0.00655695 -0.06391317  0.06161474  0.02027563
 -0.10108931  0.01900076 -0.24222456 -0.09736196 -0.02415489 -0.01218161
 -0.0096127   0.06975254 -0.26358256  0.12888058  0.05509533 -0.0301692
  0.01073403  0.00722937 -0.10568148  0.01054441  0.14029324 -0.22243357
  0.16530336  0.18424003  0.03542886  0.08942887  0.05360107 -0.01539852
 -0.02670825 -0.02135304 -0.14644599 -0.073239    0.07432615  0.00586263
  0.04757787 -0.02131973]