[-1.35706708e-01  7.35039786e-02  4.65270691e-02 -3.97836231e-02
 -9.30572525e-02 -4.94543351e-02 -2.24254373e-02 -1.59840897e-01
  1.53605774e-01 -5.52515052e-02  2.21009016e-01 -3.47677991e-02
 -2.21759677e-01 -9.86569300e-02 -4.00914252e-02  2.36386329e-01
 -1.99841142e-01 -1.23102978e-01 -5.02813943e-02 -1.90737825e-02
  3.15264501e-02 -4.25379630e-03  4.73909155e-02  7.31215999e-02
 -1.05548553e-01 -3.95873040e-01 -1.23309650e-01 -1.35000139e-01
 -4.23696451e-02 -6.58082217e-03 -4.64717969e-02  7.81053975e-02
 -1.30955279e-01 -8.53162631e-02  9.49287564e-02  1.03893064e-01
 -3.79892625e-02 -9.84495059e-02  1.88417912e-01  1.14546195e-02
 -2.20939189e-01  2.57024411e-02  1.18443884e-01  2.81617731e-01
  2.60453194e-01  1.23370979e-02  5.34446351e-02 -1.50459215e-01
  1.56201258e-01 -1.81519553e-01  2.15883556e-04  1.34972319e-01
  4.19946946e-02  4.64727059e-02  9.01911184e-02 -1.32183850e-01
  5.65099604e-02  7.76542947e-02 -1.90399960e-01 -9.04895812e-02
  4.75231558e-02 -3.67830768e-02 -3.32667828e-02 -7.04632252e-02
  1.80454656e-01  9.10608545e-02 -8.83777440e-02 -1.37378544e-01
  1.77151158e-01 -1.34039402e-01 -3.57584506e-02  2.03395039e-02
 -2.28753686e-01 -2.07234308e-01 -2.94700444e-01 -2.96759661e-02
  4.46571022e-01  1.21042073e-01 -1.45835206e-01  8.84578750e-02
 -6.68124259e-02 -2.61902343e-02  1.01807728e-01  1.32447347e-01
  2.42073908e-02  4.79497947e-04 -7.10123330e-02  2.97042262e-02
  1.80298105e-01 -8.23919401e-02  2.10826825e-02  1.94428355e-01
  2.30888138e-03  4.41953633e-03  5.80351055e-02  3.00729573e-02
 -9.84489247e-02  5.64140081e-02 -2.00596094e-01 -6.75089210e-02
  6.45841518e-03  3.83909792e-04  5.80076538e-02  7.36241862e-02
 -2.25356132e-01  8.74765664e-02  4.62254249e-02 -2.01576296e-03
 -1.42810410e-02 -6.35813549e-02 -7.68053308e-02 -1.31573621e-02
  1.39324710e-01 -2.16335848e-01  1.76157042e-01  1.80199310e-01
 -8.23944900e-03  1.30031824e-01  5.88851087e-02  4.28102538e-02
 -4.80112247e-02 -4.88095991e-02 -1.80965051e-01 -8.51437449e-04
  7.30341226e-02  1.25262560e-02  5.43273576e-02 -1.24260401e-02]