[-7.27622211e-02  6.35515600e-02  4.87420745e-02 -4.08443958e-02
 -1.02184512e-01 -4.62555699e-02 -1.96288712e-02 -1.59119740e-01
  1.60613537e-01 -5.34960590e-02  2.47744307e-01 -4.71715406e-02
 -2.40765244e-01 -8.46136808e-02 -2.80000810e-02  2.62835503e-01
 -1.88673705e-01 -1.43143520e-01 -4.60798815e-02 -8.15033540e-03
  1.33750504e-02 -5.43475337e-02 -5.77390008e-03  1.16569735e-01
 -1.13485634e-01 -3.80704612e-01 -1.29947886e-01 -1.00658230e-01
 -4.14486788e-02 -6.79899752e-03 -5.89926019e-02  1.16955556e-01
 -1.47218689e-01 -6.84232637e-02  9.27648991e-02  8.24291334e-02
  4.62703733e-03 -1.03600122e-01  1.61653355e-01 -7.56537495e-03
 -2.61092573e-01  3.67397182e-02  1.45102978e-01  2.26710588e-01
  2.50945479e-01  1.85172893e-02  5.62164560e-02 -1.01182334e-01
  9.45500657e-02 -2.19490245e-01  2.99451053e-02  1.23071946e-01
  7.98913240e-02  5.76864555e-02  5.91199473e-02 -1.85602099e-01
  5.62483491e-03  9.12544355e-02 -1.95091531e-01 -8.59479159e-02
  2.32062861e-02 -3.13079767e-02 -1.96856987e-02 -6.41145930e-02
  1.97669625e-01  1.44552067e-01 -1.09621942e-01 -1.31820947e-01
  1.82913020e-01 -1.62469313e-01 -2.13400330e-02  3.45112793e-02
 -1.97401464e-01 -1.98083311e-01 -2.99933553e-01 -2.93482970e-02
  4.43754196e-01  1.30812511e-01 -1.90833285e-01  6.60920590e-02
 -1.02120362e-01 -1.20990044e-02  7.74912462e-02  7.76033774e-02
  5.82078807e-02 -2.64348630e-02 -8.01752433e-02 -1.12014567e-03
  2.12129384e-01 -6.03285804e-02  3.52761857e-02  2.29603216e-01
 -5.71975298e-03 -1.94838252e-02  2.51204800e-02  6.45210519e-02
 -5.76964580e-02  2.55545378e-02 -1.71483576e-01 -7.06823096e-02
 -3.32568176e-02  2.04139203e-02  2.66084429e-02  7.14702234e-02
 -2.66932368e-01  8.72128606e-02  5.99174276e-02  3.20055778e-03
 -5.19202230e-03 -8.82398381e-05 -6.73039556e-02 -2.95944512e-02
  1.51712298e-01 -2.67475933e-01  1.81348667e-01  1.74295470e-01
 -2.66935807e-02  1.19861580e-01  2.47378703e-02  5.55314384e-02
 -3.14567164e-02 -1.40921488e-01 -1.51032969e-01 -2.55255010e-02
  7.54094124e-02 -4.37904783e-02  4.86506745e-02  1.10928798e-02]