[-0.08217992  0.11581576  0.04389661 -0.0869935  -0.09491239 -0.07849609
 -0.03841943 -0.16643797  0.13609284 -0.05867986  0.24699476 -0.14358105
 -0.23954348 -0.08558991 -0.05847937  0.24576508 -0.166548   -0.16568322
 -0.05254796 -0.00864939  0.03641769 -0.06214767 -0.00462566  0.12856996
 -0.1336401  -0.36014566 -0.11265291 -0.08745807 -0.0500957  -0.05784181
 -0.07299579  0.13436492 -0.16217282 -0.05346759  0.06542981  0.11808147
 -0.0113778  -0.09534159  0.18173678 -0.00142452 -0.28568384  0.01953004
  0.14181125  0.25618783  0.21757987  0.00892289  0.03069119 -0.0689077
  0.10969897 -0.18753143  0.02093966  0.16081922  0.05143126  0.05121494
  0.05200154 -0.15233791  0.01691388  0.11417397 -0.16420558 -0.09825354
  0.08442412 -0.08908173 -0.07294611 -0.12294369  0.20209189  0.15154159
 -0.1051261  -0.12435069  0.18514578 -0.12069283 -0.04307571  0.03750539
 -0.19682395 -0.15635271 -0.27572554 -0.00912135  0.39167324  0.10479075
 -0.15878154  0.09169149 -0.0363475   0.014156    0.0790487   0.08618765
  0.01063978  0.04856248 -0.0754469   0.02422071  0.19072263 -0.06030953
  0.04062945  0.17209043 -0.04028692  0.0097051   0.0374903   0.01164122
 -0.0680729   0.02294321 -0.17870571 -0.01603033  0.00858944 -0.02125475
 -0.02269246  0.0606828  -0.22428182  0.0737775   0.06842914  0.00416507
 -0.03910754 -0.00365015 -0.05154243 -0.0174206   0.13250364 -0.24505667
  0.18829755  0.15016049  0.00203289  0.08820166  0.08486883  0.04529362
 -0.01418966 -0.09911973 -0.17271355 -0.05008298  0.13298905 -0.0347616
  0.07159551 -0.00866353]