[-0.10141183  0.10331354  0.04525923 -0.01988816 -0.04465383 -0.02940821
  0.00284833 -0.1753919   0.17238176 -0.06437188  0.20093529 -0.03550022
 -0.22010289 -0.07997444 -0.02856309  0.24312472 -0.20069957 -0.15316927
 -0.04385025 -0.01881568  0.03740315 -0.07060427  0.02041122  0.09359322
 -0.11592168 -0.34164569 -0.14112438 -0.11961986  0.00435434  0.0033176
 -0.05080385  0.0610075  -0.12957893 -0.04653613  0.05922288  0.09397737
 -0.00755377 -0.09632363  0.19945239 -0.00189161 -0.23785916  0.04161567
  0.08979645  0.27415839  0.26299706  0.02366661  0.02916892 -0.11210638
  0.15012781 -0.2011003   0.00552315  0.13824885  0.05723242  0.07713582
  0.03318844 -0.14988051  0.05648488  0.07955494 -0.22316566 -0.09116954
  0.02444729 -0.05534212 -0.00323704 -0.03675719  0.18845366  0.11306675
 -0.0994123  -0.13277385  0.15459855 -0.16354345  0.00722012  0.03864146
 -0.20513622 -0.20209627 -0.27883485 -0.01702356  0.45424351  0.1459581
 -0.13825101  0.09592342 -0.10474441 -0.02646272  0.10532597  0.09895926
  0.0168661   0.00400004 -0.09574816  0.00678296  0.20252958 -0.08770072
  0.0192595   0.22137594 -0.00678616  0.00374601  0.01293193  0.04452259
 -0.08230822  0.04828521 -0.17639421 -0.09843056 -0.00657447  0.02804984
  0.05500662  0.05334381 -0.259361    0.10988783  0.06518991  0.02429996
 -0.01322141 -0.03775034 -0.09427641 -0.01518478  0.1629857  -0.24527107
  0.16196522  0.19310375 -0.02058322  0.10914769  0.0681585   0.04095101
 -0.04200255 -0.09165367 -0.16015266  0.01243346  0.10350428 -0.00375918
  0.07688932 -0.00127183]