[-0.10067437  0.10915478  0.03594399 -0.01728876 -0.08835735 -0.02582222
  0.01274673 -0.17885292  0.13377523 -0.02188223  0.22854546 -0.03487728
 -0.23948932 -0.07268231 -0.02681633  0.21338354 -0.22081272 -0.10895193
 -0.08629721 -0.00954635  0.03600629 -0.00732463  0.04299539  0.05405285
 -0.12565902 -0.3680138  -0.10318186 -0.11679488  0.02073656 -0.00110102
 -0.05078356  0.06371637 -0.14393573 -0.08297995  0.09542079  0.07722419
 -0.03864485 -0.06928588  0.20772408  0.03724289 -0.21598938  0.07376759
  0.09987038  0.29348513  0.28616479  0.03732663  0.04907018 -0.15757613
  0.12140256 -0.20276789  0.00344282  0.13107334  0.04592142  0.06225662
  0.06185746 -0.13761446  0.0168675   0.06852607 -0.20810728 -0.06743353
  0.06396367 -0.04717111 -0.02538151 -0.07415997  0.17710391  0.05751246
 -0.10339965 -0.10308969  0.13974999 -0.15263775 -0.03453133  0.02912906
 -0.18541771 -0.19409722 -0.30066523 -0.01362436  0.47698924  0.13847177
 -0.16727932  0.05813399 -0.07121351 -0.04189905  0.1318454   0.11657115
  0.02175644 -0.01045011 -0.05842065  0.042836    0.18774073 -0.09166235
  0.0249039   0.23078184  0.0145329   0.00393003  0.03887093  0.04185839
 -0.09074385  0.03185882 -0.18434887 -0.08705753 -0.00204828  0.00606807
  0.08486746  0.07273307 -0.22903703  0.10708659  0.0518784  -0.00995496
  0.00782147 -0.07567304 -0.06192035 -0.01415427  0.15459274 -0.25629935
  0.17103998  0.20480184 -0.03342846  0.10175116  0.0466553   0.02727008
 -0.04306917 -0.02394181 -0.16405329 -0.0075944   0.07878726 -0.00080089
  0.08142676 -0.02523135]