[-0.06390779  0.13887295  0.05883468 -0.02613304 -0.09353179 -0.04324526
 -0.04082414 -0.18586257  0.16513664 -0.07546162  0.22891708 -0.07915332
 -0.22188032 -0.03281463 -0.01634963  0.22579245 -0.170352   -0.17521608
 -0.09929284 -0.00867787  0.03491464 -0.06859099  0.01154783  0.12295407
 -0.15703224 -0.33443367 -0.08968262 -0.09453855  0.00654518 -0.02553253
 -0.11116456  0.04450364 -0.15726827 -0.07251548  0.07829174  0.10004147
 -0.03809544 -0.13628635  0.16365343 -0.00846104 -0.27222943  0.09105124
  0.10662764  0.24676915  0.29420882  0.00313022  0.05923302 -0.11938753
  0.1375386  -0.20645063  0.0516299   0.13809507  0.049071    0.08382431
  0.08951682 -0.19647625  0.00251055  0.13409087 -0.16710608 -0.07138146
  0.05994452 -0.01270164 -0.02263684 -0.08713564  0.1524442   0.15441509
 -0.0945094  -0.14342584  0.13507411 -0.14544609 -0.03055329  0.04568145
 -0.2062265  -0.17421143 -0.28197747 -0.02608331  0.44472551  0.12370979
 -0.18174542  0.05884447 -0.04662065  0.01070442  0.08605134  0.06995957
  0.03429969 -0.02729963 -0.08700616  0.01468186  0.21186022 -0.052041
  0.01461098  0.18349378 -0.01570489 -0.07736134  0.0390033   0.0728303
 -0.12650308  0.0161443  -0.1928359  -0.10222156 -0.02891268  0.01564304
 -0.01698744  0.05718493 -0.26759005  0.10270938  0.05689445  0.01173212
 -0.0255696  -0.02253141 -0.06512576  0.0151666   0.1388015  -0.25582597
  0.18159299  0.17613219  0.01086792  0.09802914  0.04215303  0.01166468
 -0.00792316 -0.04339413 -0.14354895 -0.05872051  0.06169568  0.00281638
  0.06755104  0.00388909]