[-3.70908976e-02  1.41845331e-01  3.83242778e-02 -3.08556464e-02
 -6.71720132e-02 -9.93795414e-03 -2.57199891e-02 -1.63634554e-01
  1.56685188e-01 -5.44536076e-02  2.63273120e-01 -8.29798952e-02
 -2.59425372e-01 -8.75190869e-02 -3.45647968e-02  2.33668476e-01
 -1.83709532e-01 -1.60494193e-01 -7.14718252e-02  1.46203209e-02
  1.93240717e-02 -2.62814891e-02  4.47020046e-02  1.15098171e-01
 -1.66117296e-01 -3.92553419e-01 -7.63248578e-02 -8.15977529e-02
 -3.52502055e-02 -4.73306142e-02 -1.11536287e-01  1.14201345e-01
 -1.63223296e-01 -4.47308943e-02  1.00515641e-01  1.31209135e-01
 -4.68147323e-02 -1.40189752e-01  1.90705925e-01  4.14065085e-02
 -2.63725787e-01  4.57117744e-02  9.13405418e-02  3.06912065e-01
  2.75521219e-01 -5.25759719e-02  5.93793057e-02 -9.25145075e-02
  1.28525659e-01 -2.18204722e-01  2.61927750e-02  1.81535169e-01
  4.77575883e-02  7.74694309e-02  4.73854840e-02 -1.43719867e-01
 -1.86566673e-02  1.30069360e-01 -1.55749157e-01 -1.05240308e-01
  6.58559874e-02 -3.13130803e-02 -3.16809788e-02 -1.10936239e-01
  1.61866173e-01  1.41885847e-01 -1.31798580e-01 -1.38053656e-01
  1.31210431e-01 -1.25579461e-01 -2.27233972e-02  4.36614044e-02
 -2.34403536e-01 -1.97004840e-01 -2.64338464e-01 -1.06424820e-02
  4.24132109e-01  1.16244972e-01 -1.55331179e-01  5.48792891e-02
 -7.21643940e-02  9.66563821e-03  7.46657178e-02  1.11209966e-01
  5.66115864e-02  1.77480243e-02 -6.74027205e-02  7.11244792e-02
  2.12315559e-01 -7.03494772e-02 -8.56007170e-03  2.00570926e-01
 -4.17554341e-02 -3.41103449e-02  3.81144546e-02  4.60677147e-02
 -7.24530742e-02  5.10217659e-02 -1.83528900e-01 -2.90939249e-02
 -3.89750153e-02 -1.56585108e-02  5.60846413e-03  7.08250925e-02
 -2.36712977e-01  9.11122039e-02  7.89809301e-02  2.77190488e-02
  3.88979800e-02 -3.58504727e-02 -8.11137706e-02 -2.32513528e-02
  1.29312381e-01 -2.96282470e-01  1.86931595e-01  1.59932703e-01
  1.46815106e-02  9.48270112e-02  4.27752510e-02  3.57480161e-02
 -1.26034020e-05 -7.77683482e-02 -1.53895542e-01 -4.35993373e-02
  7.39656016e-02  2.54985821e-02  4.65797298e-02 -4.42282222e-02]