[-0.06176673  0.06045457  0.05078034 -0.03408671 -0.09771999 -0.05514957
 -0.02257916 -0.16848843  0.15374775 -0.06901854  0.24678889 -0.05117578
 -0.24171486 -0.07744157 -0.04353758  0.2487195  -0.19038792 -0.15158775
 -0.05185106 -0.01208023  0.00240431 -0.04889673 -0.0119685   0.10125778
 -0.10655518 -0.38406399 -0.13384457 -0.10462091 -0.04575108 -0.00681106
 -0.06153969  0.11400979 -0.13601425 -0.07465141  0.0922468   0.07616884
  0.00895326 -0.08561543  0.16838521 -0.01354639 -0.25955686  0.03817553
  0.14168428  0.24301992  0.25144503  0.01986239  0.05340907 -0.10490417
  0.07503783 -0.22433293  0.04527643  0.12728389  0.08729662  0.06364229
  0.04638841 -0.17544995 -0.01304393  0.09809839 -0.18613307 -0.07514464
  0.03795686 -0.03953185 -0.0233752  -0.05569626  0.2026643   0.14169595
 -0.1162133  -0.13077192  0.17967835 -0.1796283  -0.03219168  0.01972922
 -0.19180809 -0.19645563 -0.30219665 -0.02065601  0.44984457  0.13445824
 -0.18644632  0.06341841 -0.11349547 -0.01433485  0.08140127  0.07514761
  0.05699338 -0.02388402 -0.07208005  0.00692795  0.21070635 -0.0630524
  0.02259775  0.21764934 -0.01250337 -0.02172109  0.03029954  0.06831678
 -0.04926367  0.02405868 -0.17694013 -0.06309488 -0.02906816  0.02338123
  0.02803394  0.07941386 -0.25841567  0.09227315  0.05299829 -0.00411033
  0.01110159  0.00152792 -0.0589865  -0.04845508  0.1662811  -0.26250315
  0.17534427  0.18170148 -0.01711364  0.12799464  0.02446078  0.051957
 -0.02334106 -0.13765514 -0.16311501 -0.02523552  0.07065069 -0.03029147
  0.05271098  0.01374612]