[-0.11917716  0.10590954  0.0496452  -0.03053492 -0.10099205 -0.03300464
 -0.03454895 -0.18523283  0.14137748 -0.04216167  0.22469056 -0.02591152
 -0.21026783 -0.08300901 -0.02822161  0.22983713 -0.22085154 -0.13903387
 -0.05860695 -0.00250978  0.02293248 -0.00939155  0.02631107  0.05634031
 -0.1221204  -0.39258957 -0.12091231 -0.11640301  0.00932731  0.01082409
 -0.05634088  0.05725514 -0.13672535 -0.08191687  0.11486602  0.10993711
 -0.03535426 -0.08537564  0.1969419   0.02095273 -0.23235376  0.07315616
  0.12115671  0.28524807  0.28991097  0.02892566  0.05813438 -0.16081114
  0.14140919 -0.18132749  0.00176618  0.15054443  0.04882158  0.07698939
  0.07147707 -0.15115847  0.02800368  0.08268599 -0.20541559 -0.08256878
  0.06348135 -0.03644661 -0.00947077 -0.08143963  0.18449956  0.07543857
 -0.11459059 -0.13524994  0.14467035 -0.1472466  -0.03258909  0.01911665
 -0.20565724 -0.19692092 -0.29884788 -0.02826818  0.45122346  0.13411923
 -0.16694987  0.06999934 -0.07481016 -0.04596987  0.10309414  0.12654293
  0.04771413 -0.01720673 -0.05800143  0.01430754  0.19578616 -0.07861193
  0.05035653  0.21327178  0.00198714  0.00674587  0.03046798  0.06318041
 -0.1195083   0.04581212 -0.18031053 -0.08204782 -0.03739692  0.01523191
  0.08116746  0.07599643 -0.23294449  0.12136342  0.05128581  0.01355719
 -0.01372524 -0.06689008 -0.04996493 -0.01504781  0.15296966 -0.2511223
  0.19035406  0.20070267 -0.02451195  0.12417924  0.06147159  0.03574122
 -0.05206398 -0.04066274 -0.17088257 -0.00966025  0.04024281 -0.0110581
  0.06344932 -0.00648628]