[-1.02208771e-01  8.96602497e-02  5.64345308e-02 -5.10094650e-02
 -1.00438930e-01 -6.01558201e-02 -2.07750443e-02 -1.64021060e-01
  1.46926641e-01 -2.52165087e-02  2.34346822e-01 -2.86267288e-02
 -2.14469627e-01 -8.36394504e-02 -2.50333156e-02  2.52142996e-01
 -1.98170587e-01 -1.25861868e-01 -4.41663787e-02 -1.75202675e-02
 -8.66893120e-03 -1.88062117e-02  2.15598103e-02  1.03485182e-01
 -9.99171063e-02 -3.84782314e-01 -1.08448543e-01 -1.09970786e-01
 -3.79789434e-02  1.37710636e-02 -5.44211976e-02  1.25865191e-01
 -1.46913186e-01 -8.12113881e-02  1.00648299e-01  9.61059779e-02
 -2.81891115e-02 -1.04175448e-01  1.77054152e-01  1.64363068e-02
 -2.55418748e-01  2.23523770e-02  1.36659667e-01  2.61533618e-01
  2.93034166e-01  7.04364106e-03  5.57302125e-02 -8.63027424e-02
  1.25237554e-01 -2.01826677e-01 -2.35131546e-03  1.31675348e-01
  5.67644238e-02  5.61434813e-02  3.75663117e-02 -1.70161888e-01
  1.60642806e-02  9.92547497e-02 -1.94347382e-01 -1.06543802e-01
  2.53306907e-02 -5.53700030e-02 -2.72354372e-02 -5.28145507e-02
  2.06182361e-01  1.41541287e-01 -1.10617816e-01 -1.12474851e-01
  1.76379636e-01 -1.32093027e-01 -2.56177839e-02  2.54353266e-02
 -2.29211435e-01 -1.95588633e-01 -2.73808599e-01 -2.17875019e-02
  4.33674306e-01  9.88340676e-02 -1.57618701e-01  6.24943748e-02
 -8.99013802e-02  5.37079619e-03  9.50978026e-02  1.02833033e-01
  4.83730063e-02 -3.83638628e-02 -5.60384467e-02 -3.57209495e-03
  2.05610558e-01 -6.47857636e-02  9.51193925e-03  2.07477599e-01
 -2.17215661e-02 -1.18276803e-02  3.15194987e-02  6.46123290e-02
 -5.18506132e-02  5.31502031e-02 -1.79394111e-01 -6.66113868e-02
 -1.01221455e-02  3.89748078e-04  4.28910255e-02  7.69675300e-02
 -2.63202101e-01  8.22712183e-02  7.41660967e-02  3.87586802e-02
  1.69270393e-02 -3.63906808e-02 -5.12081943e-02 -2.43800543e-02
  1.46762297e-01 -2.40415439e-01  2.18809128e-01  1.84481546e-01
 -5.41022606e-02  1.32106349e-01  3.96562889e-02  3.88068072e-02
 -3.01500540e-02 -1.11780338e-01 -1.45245895e-01 -1.98648870e-02
  9.25448760e-02 -9.19224788e-03  6.09733425e-02 -5.82512561e-03]