[-0.08535878  0.1209745   0.06030946 -0.01917219 -0.04546864 -0.02620168
 -0.02014725 -0.17873859  0.17282519 -0.06412171  0.20417798 -0.05899346
 -0.2094066  -0.07447832 -0.04143237  0.25441128 -0.19164121 -0.14385431
 -0.05878692 -0.00893018  0.03342569 -0.05510709  0.01700792  0.06207981
 -0.10534052 -0.34658206 -0.13115403 -0.10291474  0.01723324  0.00833516
 -0.07766083  0.04793936 -0.14552861 -0.06804205  0.06958252  0.0952235
 -0.01529609 -0.10699304  0.17420273 -0.01574187 -0.236532    0.06312861
  0.08860619  0.25424731  0.25482461  0.02674969  0.03769438 -0.14998871
  0.13926195 -0.17702913 -0.01584625  0.13642327  0.0360815   0.07869902
  0.01294291 -0.15872532  0.04813849  0.08935674 -0.2050695  -0.09854516
  0.03702268 -0.0448315  -0.02870766 -0.05158054  0.19011682  0.1107675
 -0.09651973 -0.16533057  0.15149187 -0.14471033  0.01306283  0.02602885
 -0.20878868 -0.1898558  -0.28617311 -0.02757985  0.44717589  0.11771275
 -0.15451661  0.10189559 -0.10660612 -0.00314464  0.10589558  0.10975406
  0.03049832  0.01082499 -0.08951115 -0.00110272  0.20556672 -0.10996499
  0.02296578  0.19375011 -0.00821563  0.01022392  0.00191943  0.03750902
 -0.10033333  0.04874999 -0.18713352 -0.10735756 -0.00158585  0.04818307
  0.0454246   0.07667305 -0.2435514   0.11787444  0.06922397  0.02811879
  0.0096862  -0.04445441 -0.06234806 -0.02979161  0.16309349 -0.22728121
  0.16626309  0.19698727 -0.00564301  0.10831776  0.08403694  0.0523805
 -0.03714951 -0.04923331 -0.18389343  0.01160639  0.08820402 -0.00190749
  0.0652135  -0.00624075]