[-0.06525227  0.0726993   0.0545094  -0.04445976 -0.10321551 -0.03305243
 -0.02493178 -0.15501246  0.15758529 -0.0472307   0.24418509 -0.04775481
 -0.24616151 -0.0791854  -0.02527878  0.25578818 -0.18513797 -0.14433153
 -0.05345831 -0.01008193  0.00723948 -0.04099667 -0.00238801  0.11057621
 -0.12263602 -0.38107765 -0.12765603 -0.1040246  -0.04802007 -0.00698516
 -0.05899256  0.10975733 -0.13404471 -0.05946542  0.10009765  0.07594526
  0.00612226 -0.10336926  0.16594541 -0.01171664 -0.26142207  0.02703742
  0.14749959  0.23374557  0.25119859  0.01897974  0.05922249 -0.10168824
  0.09159024 -0.22653554  0.04861394  0.12884314  0.07134003  0.06072929
  0.06094756 -0.1873371  -0.00195527  0.10486472 -0.19380015 -0.07907119
  0.02527997 -0.03156929 -0.02752208 -0.06652769  0.20207666  0.15753566
 -0.1179867  -0.14767417  0.17787741 -0.16648343 -0.03350805  0.03189642
 -0.20331828 -0.19181395 -0.31267139 -0.03138924  0.44346619  0.13067628
 -0.20223475  0.05482604 -0.10489085 -0.00659253  0.07878768  0.08289953
  0.05364987 -0.03096498 -0.08186066 -0.0036329   0.21429257 -0.06429916
  0.02622595  0.22902007 -0.00244394 -0.02587157  0.02275764  0.07431456
 -0.06157073  0.02109427 -0.17319188 -0.07005826 -0.02698976  0.03052084
  0.02586208  0.09072804 -0.27164933  0.09792306  0.05791199 -0.00052024
  0.00252512 -0.00473548 -0.06112481 -0.03958116  0.16231504 -0.26677796
  0.1694306   0.1732087  -0.01940442  0.12099596  0.02273618  0.05906491
 -0.02768219 -0.13276827 -0.15957424 -0.02404494  0.06869953 -0.03924727
  0.03937503  0.01738097]