[-1.02564692e-01  1.16215169e-01  4.26770709e-02 -9.79810487e-03
 -4.97408435e-02 -3.95032130e-02 -8.91003944e-03 -1.97517008e-01
  1.68375656e-01 -6.79724887e-02  2.21078917e-01 -3.30324881e-02
 -2.25325748e-01 -9.62728709e-02 -3.28191184e-02  2.48971418e-01
 -2.01536343e-01 -1.53240830e-01 -3.86018120e-02 -3.84696089e-02
  4.69201282e-02 -6.55238405e-02  1.97639372e-02  7.98914060e-02
 -1.13513134e-01 -3.31686497e-01 -1.35977313e-01 -1.15774356e-01
  8.72120541e-03  1.20548988e-02 -5.76593392e-02  6.01289980e-02
 -1.26878202e-01 -5.86011000e-02  6.79423437e-02  8.34771395e-02
 -6.31608767e-03 -8.27565193e-02  2.03422412e-01 -2.14122906e-02
 -2.31633216e-01  5.34897223e-02  9.20636281e-02  2.68962681e-01
  2.58518040e-01  2.71609072e-02  3.30257900e-02 -1.33351952e-01
  1.41881034e-01 -1.83019578e-01  1.53991943e-02  1.39801621e-01
  7.11976811e-02  7.05313832e-02  2.66736485e-02 -1.65974587e-01
  3.79264615e-02  7.94745833e-02 -2.12356642e-01 -9.73093361e-02
  2.43757349e-02 -6.89823180e-02 -1.42795714e-02 -3.68468724e-02
  1.97599649e-01  1.11936070e-01 -9.24959853e-02 -1.47726640e-01
  1.55514643e-01 -1.52014539e-01 -5.45665342e-03  4.19306569e-02
 -2.13451371e-01 -2.00777218e-01 -2.91067511e-01 -6.50189538e-03
  4.59827632e-01  1.39489233e-01 -1.55927256e-01  1.04718544e-01
 -9.52136889e-02 -1.64588150e-02  1.19828902e-01  1.07189059e-01
  2.19490957e-02 -2.31952243e-03 -9.93686914e-02  2.49540783e-03
  1.91726044e-01 -1.08075999e-01 -3.35385348e-03  2.14182064e-01
  3.51028895e-04  1.86530631e-02  1.68617498e-02  3.84439416e-02
 -8.25450793e-02  4.71951738e-02 -1.77069530e-01 -1.16547361e-01
  8.39694589e-03  5.09486981e-02  6.13161214e-02  6.22493736e-02
 -2.39243254e-01  1.02638260e-01  6.05561733e-02  2.96018701e-02
 -1.44606028e-02 -3.78905647e-02 -7.26768598e-02 -2.90275216e-02
  1.52329847e-01 -2.40614176e-01  1.75281465e-01  1.86568543e-01
 -2.16608401e-02  1.24230161e-01  7.24712908e-02  4.39436845e-02
 -3.36440466e-02 -8.12930018e-02 -1.58813700e-01  1.57074481e-02
  1.13165550e-01  2.61695380e-03  9.49117169e-02  9.43119812e-04]