[-8.12062398e-02  8.54343995e-02  4.29818295e-02 -2.22399384e-02
 -1.01199582e-01 -3.40809748e-02 -2.63719112e-02 -1.71919271e-01
  1.45914882e-01 -5.01258783e-02  2.18317494e-01 -4.88628410e-02
 -2.07322836e-01 -5.55955172e-02 -4.21712138e-02  2.26396486e-01
 -2.07297131e-01 -1.25703350e-01 -5.86973242e-02 -1.04317022e-02
  2.67144646e-02 -1.71489792e-03  1.71391275e-02  5.66861928e-02
 -1.10275581e-01 -3.73196274e-01 -1.14702821e-01 -9.76042524e-02
  1.48823736e-02  1.50656106e-03 -7.13087544e-02  4.20228951e-02
 -1.54656112e-01 -9.02142152e-02  1.15390040e-01  1.05312444e-01
 -3.05886399e-02 -8.84550139e-02  1.87584713e-01  3.06762196e-02
 -2.02294946e-01  8.78715292e-02  1.08637288e-01  2.83687890e-01
  2.58825511e-01  3.99042629e-02  5.05290516e-02 -1.73011079e-01
  1.25704780e-01 -2.01079920e-01  7.80077651e-03  1.36315703e-01
  4.17157672e-02  6.77898154e-02  5.10425642e-02 -1.50174096e-01
  2.26703249e-02  9.21037197e-02 -1.95152566e-01 -6.41884282e-02
  7.05111250e-02  9.09705646e-04 -1.94719620e-02 -7.56874457e-02
  2.09600791e-01  7.12826401e-02 -1.20265417e-01 -1.20713495e-01
  1.28265962e-01 -1.48403704e-01 -3.51882838e-02 -1.40943648e-02
 -1.81801409e-01 -1.92275032e-01 -2.94133842e-01 -1.50816264e-02
  4.67664212e-01  1.14804402e-01 -1.88374862e-01  8.12525079e-02
 -7.95972496e-02 -3.17547731e-02  1.20844558e-01  1.12854861e-01
  4.04403470e-02 -5.83466135e-05 -5.69276698e-02  2.69952957e-02
  2.03649506e-01 -8.62898827e-02  4.97455150e-02  2.13671088e-01
  5.76148741e-03  1.61293298e-02  3.75359952e-02  5.24564646e-02
 -1.07319236e-01  3.97831686e-02 -1.90516099e-01 -7.11275712e-02
 -2.33248845e-02  1.96432807e-02  6.68221861e-02  8.21724311e-02
 -2.48553708e-01  1.28380820e-01  5.01557551e-02 -1.80890467e-02
  4.82025975e-03 -6.13429919e-02 -6.73287064e-02 -1.92087442e-02
  1.57694131e-01 -2.63304293e-01  1.79682314e-01  1.99142501e-01
 -8.10511597e-03  1.29701331e-01  5.75473383e-02  3.23936492e-02
 -2.70566642e-02 -1.98852308e-02 -1.78138673e-01 -1.01801399e-02
  4.25590537e-02 -1.67019721e-02  5.43185771e-02 -3.73896654e-03]