[-4.87810560e-02  7.76222870e-02  3.32521573e-02 -3.68996002e-02
 -1.23370826e-01 -2.53441837e-02 -2.33544800e-02 -1.52116105e-01
  1.53319940e-01 -4.43120264e-02  2.29025885e-01 -5.50413132e-02
 -2.60403246e-01 -4.89731431e-02 -1.98031049e-02  2.42099807e-01
 -1.87827989e-01 -1.36673212e-01 -6.33916333e-02  2.06096476e-04
  1.14626146e-03 -4.45707329e-02  1.13727273e-02  1.20274760e-01
 -1.13922969e-01 -3.88322264e-01 -1.04417227e-01 -1.07184939e-01
 -2.73818877e-02 -6.18218270e-04 -8.18330571e-02  1.03699282e-01
 -1.42455146e-01 -7.35065639e-02  1.01680197e-01  6.63666427e-02
 -1.16158631e-02 -1.05394356e-01  1.73008680e-01  3.90671287e-03
 -2.60030180e-01  3.58966179e-02  1.25004500e-01  2.31215343e-01
  2.48372078e-01  2.69775596e-02  6.57850057e-02 -1.06782258e-01
  8.99677500e-02 -2.49269918e-01  6.18783236e-02  1.28235996e-01
  6.18095957e-02  5.71318530e-02  5.93621098e-02 -2.04929218e-01
 -1.37424590e-02  1.05992056e-01 -2.00652704e-01 -6.42976984e-02
  2.13839877e-02  1.28852238e-03 -2.33030953e-02 -7.17299432e-02
  2.04759628e-01  1.65456831e-01 -1.14110209e-01 -1.24248348e-01
  1.68129951e-01 -1.64726645e-01 -1.67878568e-02  3.54782641e-02
 -1.92225054e-01 -2.04448298e-01 -2.79499203e-01 -2.88237985e-02
  4.53306407e-01  1.38210341e-01 -2.01822191e-01  2.96262987e-02
 -1.00223303e-01 -1.99032370e-02  9.30358544e-02  7.87421092e-02
  6.10941239e-02 -4.08729166e-02 -6.69951141e-02  7.58969411e-03
  2.05487520e-01 -7.18553364e-02  1.85221434e-02  2.41585210e-01
  5.98475803e-03 -2.94902679e-02  3.09067611e-02  8.67543668e-02
 -7.04538450e-02  1.60091724e-02 -1.82635993e-01 -7.83518851e-02
 -2.53093094e-02  2.64810212e-02  1.91920381e-02  7.99671933e-02
 -2.65399367e-01  9.08004194e-02  5.46606369e-02 -1.08767664e-02
  1.08245481e-02 -1.56199178e-02 -5.73079176e-02 -4.48385142e-02
  1.60762832e-01 -2.70477504e-01  1.73542231e-01  1.75874263e-01
 -2.57819295e-02  1.25196695e-01  3.41655599e-04  3.78863551e-02
 -5.13171684e-03 -1.29573867e-01 -1.55825198e-01 -3.16359662e-02
  7.42820725e-02 -2.91619785e-02  2.58451588e-02  4.45146719e-03]