[-0.05180868  0.1222459   0.0464176  -0.02212512 -0.07737812 -0.05577908
 -0.04080339 -0.18461272  0.17866509 -0.08907978  0.24088323 -0.09171697
 -0.23034291 -0.05545632 -0.02740942  0.24482384 -0.17490664 -0.17408413
 -0.0807092  -0.01107209  0.04083405 -0.06721281  0.00870921  0.12671193
 -0.14431547 -0.34589216 -0.10988462 -0.10160846 -0.02540577 -0.02917315
 -0.10659722  0.07041348 -0.15251577 -0.07885891  0.0934982   0.09896359
 -0.03458842 -0.12095584  0.17415957 -0.00847531 -0.26049182  0.05836882
  0.12025402  0.25650892  0.26517743 -0.00125543  0.04558552 -0.11151004
  0.13487576 -0.20121188  0.04118171  0.14576322  0.06036713  0.09834202
  0.08763113 -0.18390632  0.0194104   0.1305521  -0.17430034 -0.08946565
  0.0476808  -0.03556199 -0.02117477 -0.06508423  0.17411342  0.15604405
 -0.08379024 -0.15633403  0.14406338 -0.14709872 -0.02994756  0.04054381
 -0.21550965 -0.17391515 -0.2944096  -0.04414377  0.44072086  0.10760336
 -0.17316452  0.0770302  -0.05773989 -0.00132476  0.08794035  0.06663781
  0.04107022 -0.00655781 -0.08912826  0.01667642  0.20906477 -0.07166886
  0.01275697  0.17454466 -0.02583004 -0.06270235  0.05219598  0.0470063
 -0.10669219  0.01501212 -0.19820486 -0.09312125 -0.04226546  0.01622818
 -0.01896168  0.05064013 -0.26867738  0.08142966  0.06721034 -0.00148611
 -0.03897683 -0.0123101  -0.08161053 -0.00566624  0.13510852 -0.26541612
  0.18417917  0.16420338  0.00745427  0.10703149  0.02471528  0.02165485
 -0.02343679 -0.07036485 -0.13784252 -0.04825416  0.07308295  0.02283233
  0.06042894 -0.01008247]