[-2.94867158e-02  1.27891913e-01  2.75345277e-02 -2.46158857e-02
 -7.06333667e-02 -8.82228091e-03 -1.86673626e-02 -1.65393487e-01
  1.70765623e-01 -4.55613844e-02  2.61580825e-01 -9.02139917e-02
 -2.59381443e-01 -8.82042870e-02 -2.48340461e-02  2.39773497e-01
 -1.81525856e-01 -1.59657836e-01 -7.72530809e-02  1.52027830e-02
  6.26954576e-03 -2.75059994e-02  3.68093811e-02  1.12206377e-01
 -1.52966708e-01 -3.93553615e-01 -7.17452094e-02 -7.70460144e-02
 -2.96519231e-02 -5.47106452e-02 -1.19615093e-01  1.22752659e-01
 -1.69828519e-01 -5.23861162e-02  1.00115113e-01  1.23072378e-01
 -4.73722704e-02 -1.40775636e-01  1.91804811e-01  4.21167500e-02
 -2.57912546e-01  4.13221307e-02  8.21916983e-02  2.88065463e-01
  2.66051143e-01 -5.26140593e-02  5.87329157e-02 -1.04230978e-01
  1.09284960e-01 -2.16649055e-01  2.20725071e-02  1.79689974e-01
  3.38499919e-02  7.80146867e-02  3.15235518e-02 -1.58881292e-01
 -2.89135259e-02  1.23283379e-01 -1.68283150e-01 -1.01041771e-01
  6.48554564e-02 -3.21930312e-02 -4.66791689e-02 -1.03987209e-01
  1.64711818e-01  1.57300964e-01 -1.20370321e-01 -1.57692790e-01
  1.22421376e-01 -1.35455206e-01 -2.31579952e-02  3.38180475e-02
 -2.21829563e-01 -2.03956589e-01 -2.71671265e-01 -9.58341826e-03
  4.08182114e-01  1.01875223e-01 -1.73446342e-01  5.49091958e-02
 -6.54280111e-02  2.43380596e-03  8.81402791e-02  1.08904175e-01
  6.09048195e-02  1.76767185e-02 -6.86028078e-02  6.09918721e-02
  2.08398134e-01 -7.17535466e-02 -5.22271125e-03  1.99032351e-01
 -4.37577590e-02 -3.75431664e-02  4.23140116e-02  5.34289964e-02
 -6.11132644e-02  5.52522019e-02 -1.82202652e-01 -3.10651306e-02
 -2.80210059e-02 -8.79829004e-03  7.93399755e-03  6.82800412e-02
 -2.28724882e-01  9.22495052e-02  7.61144683e-02  1.70743708e-02
  3.67168188e-02 -4.98069339e-02 -7.60376453e-02 -3.02586537e-02
  1.37183547e-01 -2.97674567e-01  1.95103019e-01  1.59121856e-01
  1.06303273e-02  1.05037570e-01  3.12666968e-02  4.80945855e-02
 -3.70661175e-04 -6.70840964e-02 -1.53439447e-01 -3.12751234e-02
  6.96961209e-02  3.07721142e-02  3.69515829e-02 -3.85871641e-02]