[-0.04761359  0.07165307  0.04418766 -0.03527788 -0.10650098 -0.03545117
 -0.0231385  -0.15432762  0.16265263 -0.04763188  0.24014758 -0.07220162
 -0.25062177 -0.06929597 -0.02851236  0.26213878 -0.18706451 -0.14984345
 -0.0556073  -0.00692747 -0.00404762 -0.0485893  -0.01053243  0.1215778
 -0.11852672 -0.39250264 -0.12437673 -0.10182549 -0.03585472 -0.01721776
 -0.06479859  0.1242654  -0.12871119 -0.06899055  0.11567517  0.09517372
 -0.00927868 -0.11479181  0.17709747 -0.00525924 -0.26187441  0.03735781
  0.14293556  0.25187898  0.24709573  0.01847272  0.05897415 -0.09595753
  0.0968792  -0.23452242  0.04933424  0.13703845  0.076595    0.07174698
  0.06188719 -0.18431114 -0.0032193   0.11459573 -0.20930739 -0.0759405
  0.03637983 -0.0341391  -0.01722441 -0.07106484  0.20273641  0.15787481
 -0.11885063 -0.13818744  0.18198262 -0.17523402 -0.02508448  0.0244911
 -0.1940089  -0.19817431 -0.29883978 -0.02671514  0.44383779  0.14215253
 -0.19733129  0.05305878 -0.0885202  -0.01639977  0.07720473  0.09089353
  0.06368101 -0.03299049 -0.07352263 -0.00294134  0.21211402 -0.06261352
  0.03038424  0.22871847 -0.00688931 -0.03229475  0.0253481   0.06322425
 -0.06834114  0.01917083 -0.1774516  -0.07101339 -0.03961791  0.02902117
  0.02660965  0.08058069 -0.26498577  0.10424824  0.05629369 -0.00450452
  0.00118687 -0.00368728 -0.06075396 -0.0389212   0.17028584 -0.28082812
  0.16999267  0.17133795 -0.01203735  0.12210466  0.01534443  0.05337552
 -0.01139612 -0.13992201 -0.1592288  -0.03162836  0.06410518 -0.03298672
  0.03343871  0.01173328]