[-0.03703933  0.08367866  0.05435777 -0.03151705 -0.10840841 -0.02579455
 -0.02432137 -0.14837535  0.15063702 -0.0558863   0.24162583 -0.07029054
 -0.24251917 -0.04573764 -0.0316377   0.25131676 -0.17591695 -0.14825326
 -0.0619195   0.01308487  0.01064524 -0.02946167 -0.01833403  0.09872908
 -0.11410103 -0.37825021 -0.11509067 -0.07846168 -0.02811799 -0.01778556
 -0.08883771  0.10611262 -0.13620932 -0.06446268  0.11299445  0.08813871
 -0.007954   -0.10326032  0.17542537 -0.00103777 -0.26027009  0.0555071
  0.14588015  0.23895203  0.24125266  0.02381629  0.05314566 -0.11731656
  0.08029393 -0.23074237  0.04475865  0.13732632  0.06531607  0.0849468
  0.04752088 -0.18937775 -0.01195848  0.10043986 -0.18773818 -0.07355054
  0.03852111 -0.01445654 -0.02082127 -0.07361346  0.2035969   0.1423703
 -0.11413591 -0.14659548  0.16878633 -0.17234723 -0.0448857   0.01600471
 -0.18570729 -0.18543676 -0.2923238  -0.02796258  0.43865547  0.12472562
 -0.21263194  0.06167438 -0.08358998 -0.02374885  0.08904649  0.08143009
  0.06251249 -0.02043868 -0.06838135  0.00324748  0.23220344 -0.06933596
  0.03603891  0.21891169  0.00635853 -0.02051809  0.03721383  0.07246409
 -0.05543179  0.01678528 -0.19403639 -0.06403407 -0.04116901  0.02161052
  0.01232942  0.09732171 -0.26807338  0.11227008  0.06018287 -0.01466951
  0.00770648  0.00337799 -0.06304647 -0.04240607  0.16457678 -0.2727544
  0.17480041  0.17479621 -0.00979599  0.11097025  0.02488039  0.05872012
 -0.00522545 -0.10869997 -0.16713566 -0.04079662  0.06398594 -0.03154729
  0.02973217  0.01764477]