[-0.07616463  0.10778804  0.02765934 -0.02526911 -0.08189341 -0.0427544
 -0.02018193 -0.14699261  0.1644109  -0.09727269  0.20032275 -0.0365649
 -0.21838939 -0.03396202 -0.06621724  0.23094378 -0.18147576 -0.16091749
 -0.09932535 -0.01738064  0.0110994  -0.01244826  0.00328799  0.10129478
 -0.10837717 -0.33131224 -0.07409038 -0.09795996 -0.04744998 -0.04341276
 -0.06484177  0.05988135 -0.14198537 -0.05839517  0.07138357  0.04776843
 -0.05437422 -0.06758404  0.18641119  0.05533019 -0.25378641  0.06757871
  0.11706477  0.30943644  0.27941939  0.01823834  0.00769961 -0.1224162
  0.16451551 -0.25298771  0.00853714  0.12673603  0.01390974  0.07386626
  0.08271105 -0.15079013  0.02496285  0.10673528 -0.17133054 -0.05042822
  0.02999149 -0.03308309 -0.03717073 -0.04382642  0.16286018  0.13397603
 -0.07371446 -0.13841817  0.14531063 -0.18448891 -0.06434739  0.03994607
 -0.15680668 -0.17724256 -0.28145152 -0.05962613  0.44296408  0.13264818
 -0.14859299  0.07073736 -0.04420211 -0.01244978  0.13706565  0.0743924
  0.00149023 -0.01571041 -0.07620998 -0.00256526  0.22638504 -0.02933647
 -0.01640783  0.19124041  0.00690286 -0.04567986  0.07348481  0.04132367
 -0.10502666 -0.00271974 -0.2464087  -0.12051393 -0.03922844  0.01100318
 -0.00323772  0.05936297 -0.24817526  0.12099075  0.05831543  0.00293508
 -0.02522717  0.00055245 -0.07680043  0.01748202  0.12243005 -0.20918632
  0.18757077  0.16227196  0.02329119  0.09403744  0.0575408  -0.02178327
 -0.05040184 -0.04711876 -0.14448467 -0.05798233  0.07068627  0.01350773
  0.08925693 -0.02281926]