[-0.10366308  0.11435517  0.0371775  -0.01664977 -0.0473033  -0.03116661
  0.00095858 -0.19275452  0.16604288 -0.0648657   0.21376936 -0.03039007
 -0.22442567 -0.08709645 -0.03674432  0.23953222 -0.1963135  -0.1500936
 -0.05469406 -0.02453405  0.04583047 -0.05831893  0.0188203   0.07753563
 -0.10906202 -0.33561337 -0.1407467  -0.11316741  0.00815548  0.00654418
 -0.05641704  0.0662883  -0.12853721 -0.05389099  0.06476211  0.09170602
 -0.00770214 -0.07894165  0.20247512 -0.01493248 -0.2371383   0.0668651
  0.10027994  0.27228397  0.26902175  0.02384219  0.0319066  -0.12352393
  0.14496687 -0.18554157  0.00738912  0.14237747  0.07303559  0.06977575
  0.03137772 -0.15850317  0.03745473  0.07635053 -0.20699592 -0.0942599
  0.03442214 -0.0614504  -0.01629657 -0.03462475  0.18442614  0.10776851
 -0.09474083 -0.15673141  0.15467001 -0.16343871 -0.00493993  0.04712663
 -0.21853255 -0.19536988 -0.28373295 -0.01017699  0.45355448  0.13922061
 -0.14549452  0.10646322 -0.10439976 -0.01490714  0.11270314  0.09077976
  0.01942896 -0.00072386 -0.1070258   0.0039064   0.20582004 -0.09717446
  0.00110491  0.21338187  0.00193802  0.01251342  0.01380534  0.03715747
 -0.08230928  0.03899474 -0.18721363 -0.1104695  -0.00221818  0.04139077
  0.05284378  0.06580596 -0.24113126  0.10872307  0.05501678  0.03644918
 -0.01647568 -0.03820206 -0.08611453 -0.01504997  0.15806732 -0.23673609
  0.17169152  0.18442841 -0.02128648  0.10125444  0.08393871  0.03786404
 -0.03740941 -0.07331865 -0.17079338  0.00616074  0.11069065 -0.00096026
  0.09117154 -0.00268826]