[-0.10892385  0.08590831  0.06069325 -0.03127068 -0.10831328 -0.00300924
 -0.01353009 -0.15577103  0.15264151 -0.05926625  0.23253445 -0.03093547
 -0.2155164  -0.03144992 -0.06152825  0.22786212 -0.1755179  -0.15073878
 -0.04177776 -0.00363748  0.01022818 -0.02145787  0.00395104  0.06847367
 -0.10639533 -0.36163747 -0.10418903 -0.09546104  0.00312617  0.00276354
 -0.04633187  0.07799333 -0.13427947 -0.05822561  0.08077335  0.11900313
 -0.05345899 -0.10006122  0.20049869  0.03195046 -0.23022251  0.08266942
  0.09992292  0.31282997  0.25508729  0.01214442  0.04659022 -0.13171871
  0.14134029 -0.22193603  0.00985144  0.14365442  0.06550904  0.06195812
  0.06450064 -0.11990231  0.04797834  0.06414201 -0.19005106 -0.0670222
  0.07392403 -0.0130573   0.01619272 -0.09924623  0.18734264  0.09651433
 -0.08406403 -0.12270987  0.16457808 -0.1410379  -0.05873724  0.01612828
 -0.20026551 -0.18413772 -0.26705724 -0.00569004  0.47840396  0.14852417
 -0.13787016  0.09513743 -0.06061295 -0.03949299  0.10110599  0.0990162
  0.03433787 -0.02923615 -0.06893599  0.01360851  0.22893558 -0.07148141
  0.01881676  0.18704939  0.013547   -0.00807264  0.04467377  0.04332625
 -0.09026748  0.06199209 -0.19787195 -0.06913991 -0.04967257  0.00867348
  0.0703413   0.07258111 -0.23908627  0.13422459  0.04399755  0.01284091
  0.00986125 -0.01094323 -0.08243075  0.00155136  0.15073299 -0.23907761
  0.18177429  0.16308147  0.00513713  0.09605553  0.07774615  0.03740258
 -0.03256032 -0.03116859 -0.17089915 -0.0397598   0.05075591 -0.01368898
  0.06430998  0.02553558]