[-0.04303413  0.13164292  0.03680883 -0.03277658 -0.05501282 -0.04939345
 -0.0221769  -0.16739522  0.14743385 -0.04968774  0.2647495  -0.08457591
 -0.24811034 -0.10572135 -0.02972365  0.22835712 -0.18853222 -0.16190945
 -0.06791356  0.02533049  0.04395323 -0.03991073  0.03078589  0.12754217
 -0.15517344 -0.39102194 -0.08414111 -0.07981569 -0.04149515 -0.05229283
 -0.10322894  0.11896699 -0.16616355 -0.05760596  0.09081166  0.12998788
 -0.03686374 -0.13349508  0.19800352  0.0257805  -0.27524957  0.05636938
  0.08433437  0.29833236  0.27024582 -0.04978341  0.06159445 -0.08745429
  0.11343453 -0.21132536  0.01620225  0.1816089   0.05628132  0.07062943
  0.02967082 -0.1519355  -0.01861963  0.10860502 -0.17882131 -0.11590532
  0.06009136 -0.05648835 -0.0372923  -0.1001867   0.1583977   0.14144833
 -0.13354513 -0.14674024  0.12899037 -0.14219211 -0.01824281  0.04954837
 -0.2294929  -0.2000035  -0.27468508 -0.00340488  0.41572309  0.10282414
 -0.16442202  0.06635515 -0.0793288   0.00914512  0.07862667  0.10875624
  0.06314411  0.03264941 -0.07526659  0.07378607  0.19857608 -0.07000915
 -0.01435551  0.1936329  -0.03493593 -0.02533129  0.0443304   0.04607207
 -0.05370234  0.05711153 -0.17458391 -0.00555653 -0.02631598 -0.00973519
  0.00310814  0.06716072 -0.21992469  0.08492469  0.07681894  0.02090509
  0.02259015 -0.03559813 -0.09234177 -0.03816792  0.12089454 -0.29865435
  0.1943066   0.16842808  0.00924859  0.09613135  0.03956083  0.03404453
 -0.00114214 -0.08232587 -0.15990561 -0.03224115  0.08920132  0.03140023
  0.06171987 -0.04851812]