[-0.00617875  0.12887727  0.02954832 -0.01420399 -0.06613954 -0.00467821
 -0.02328871 -0.15662307  0.15274093 -0.05307729  0.2603156  -0.10347781
 -0.2644859  -0.07803696 -0.02584296  0.23753861 -0.17852959 -0.15568186
 -0.07206991  0.01752496  0.01443882 -0.02400833  0.03238311  0.10852406
 -0.16626416 -0.38238844 -0.07115428 -0.06939246 -0.03468838 -0.05218495
 -0.12717557  0.11406151 -0.16834888 -0.03944502  0.09707835  0.117408
 -0.03946214 -0.13250552  0.19216688  0.06136242 -0.24869521  0.05629723
  0.07271643  0.29067764  0.24513555 -0.0330672   0.05524835 -0.0988323
  0.10317313 -0.22738707  0.02247481  0.1815875   0.03884204  0.07077094
  0.0230897  -0.15385938 -0.02567284  0.12941001 -0.17409207 -0.08825682
  0.06489821 -0.02157599 -0.04474724 -0.10049526  0.17341565  0.14884388
 -0.129767   -0.13919233  0.11347882 -0.1327991  -0.03018519  0.0285763
 -0.20929597 -0.20544858 -0.27752057 -0.0021826   0.40615016  0.1033565
 -0.17973785  0.05182492 -0.05660573  0.00993774  0.09952983  0.10300056
  0.05159084  0.01811005 -0.07217068  0.06200481  0.20827818 -0.07492692
 -0.0018134   0.20919631 -0.04039795 -0.02475427  0.03381157  0.04952282
 -0.0573772   0.04771866 -0.17179093 -0.02179019 -0.01948498 -0.00981437
  0.00073919  0.07305151 -0.23740835  0.08674369  0.06762785  0.00184034
  0.04283596 -0.03883445 -0.08972951 -0.0332545   0.13450538 -0.31314817
  0.17615195  0.17038818  0.00759774  0.09244943  0.03986431  0.03970751
  0.00345242 -0.06584229 -0.16658683 -0.04348923  0.07843725  0.02091652
  0.03244862 -0.04117971]