[-0.09779831  0.08758861  0.056923   -0.04026513 -0.1085242  -0.06242232
 -0.03563511 -0.16262503  0.15391132 -0.04995853  0.2408901  -0.04507538
 -0.21480227 -0.07929558 -0.02830226  0.25705248 -0.19639596 -0.12447941
 -0.05043021 -0.00896622 -0.00422193 -0.03095056  0.03898054  0.09332076
 -0.08183138 -0.40326449 -0.11769173 -0.11205391 -0.02367015 -0.00431229
 -0.07540235  0.10905738 -0.13376577 -0.09145464  0.09444655  0.1052881
 -0.03843924 -0.11346474  0.17657192 -0.00274082 -0.25406033  0.02541159
  0.12464385  0.26183113  0.29490516  0.01017069  0.05936657 -0.1061632
  0.11712994 -0.19851679  0.02403553  0.12024998  0.06062015  0.06833877
  0.0465316  -0.16772367  0.01790474  0.10520972 -0.18039283 -0.10401114
  0.05232864 -0.04099612 -0.02062528 -0.04994169  0.21544774  0.14926709
 -0.10444794 -0.12541281  0.17918436 -0.13014238 -0.0207942   0.01513858
 -0.22946313 -0.19767882 -0.26183113 -0.02337472  0.43578416  0.10742971
 -0.15891331  0.05386487 -0.09405415 -0.00049349  0.0982831   0.1053103
  0.05696495 -0.04356046 -0.06717306  0.00433607  0.19661686 -0.08270863
  0.00897713  0.19980685 -0.01400738 -0.0105231   0.0369299   0.06067527
 -0.06165662  0.07000294 -0.195324   -0.06571032 -0.01193728  0.00651198
  0.03377407  0.0687902  -0.24316762  0.09067877  0.0721991   0.03982833
  0.02191045 -0.0412687  -0.05665247 -0.02844322  0.1501842  -0.23760696
  0.21483289  0.18432501 -0.02065576  0.14182757  0.04418163  0.05083392
 -0.00960518 -0.11095871 -0.16461475 -0.00376809  0.08002223  0.00835335
  0.04790065  0.01130159]