[-0.08047739  0.10425506  0.04736988 -0.03207406 -0.07877815 -0.05156252
 -0.00323134 -0.17838666  0.1531693  -0.06555036  0.22650252 -0.08396775
 -0.22368948 -0.04336729 -0.04343712  0.25349382 -0.19611855 -0.145537
 -0.08194371 -0.00773627  0.00966731 -0.04353878  0.02206051  0.094335
 -0.09778228 -0.36083046 -0.1242679  -0.09415612  0.00417876 -0.00720071
 -0.05258633  0.10102157 -0.11413278 -0.04849085  0.1062203   0.11992186
 -0.00953038 -0.12593286  0.2240129   0.01120151 -0.27437282  0.05806062
  0.10155632  0.29083648  0.27451274 -0.01449393  0.03746558 -0.11971326
  0.16801243 -0.19478612 -0.00611146  0.1438854   0.05102701  0.0710786
  0.04130374 -0.15185089  0.03533522  0.12449419 -0.20660444 -0.1362749
  0.06237405 -0.05442694  0.00437614 -0.07286365  0.17950357  0.13146314
 -0.10984667 -0.13813502  0.16966572 -0.14095575 -0.00200625  0.02789927
 -0.21702476 -0.17321259 -0.25635919 -0.03015022  0.47993976  0.12552209
 -0.14187679  0.0822603  -0.09835615 -0.01547665  0.09743168  0.10205702
  0.02413171  0.00276351 -0.07840293  0.0070518   0.20778318 -0.07947806
  0.01607192  0.18970022 -0.01592788 -0.00727403  0.03440364  0.02937022
 -0.09887215  0.04373403 -0.19588177 -0.08490767 -0.04803449  0.00974319
  0.05369064  0.06445368 -0.25781453  0.12063619  0.06752654  0.02881939
 -0.00900288 -0.02428859 -0.04580398  0.00477148  0.15401769 -0.25823116
  0.16243373  0.16214089 -0.01644291  0.11839686  0.0679574   0.04467544
 -0.0338454  -0.07866326 -0.16269748 -0.01597819  0.08544394  0.02874464
  0.08088645 -0.00788379]