[-0.07330709  0.11604177  0.03951395 -0.03946288 -0.09094604 -0.04665533
 -0.04482521 -0.14437008  0.14935975 -0.1142802   0.21422963 -0.06369218
 -0.21747427 -0.0313714  -0.05887294  0.21736144 -0.2061228  -0.13157021
 -0.08837502 -0.01484574 -0.00881776 -0.01778642  0.01264524  0.0884688
 -0.08686643 -0.37131989 -0.06683367 -0.11876988 -0.04233431 -0.02084677
 -0.06819719  0.05104883 -0.13889471 -0.05391243  0.03124506  0.05160215
 -0.06096309 -0.05752644  0.17306319  0.05275004 -0.2483611   0.06139381
  0.09281508  0.30854735  0.27630582  0.0106143   0.01537992 -0.09540757
  0.15089583 -0.26435205  0.01826726  0.11509025  0.01774586  0.06919672
  0.09642627 -0.1329578   0.02192938  0.11084946 -0.16790313 -0.02973045
  0.05104187 -0.01943867 -0.00918928 -0.04611192  0.20179854  0.15142849
 -0.0688401  -0.11425412  0.14008449 -0.17422147 -0.06187534  0.03149797
 -0.15073746 -0.1826065  -0.26810971 -0.03860924  0.42097893  0.15149896
 -0.13601436  0.04571054 -0.0528297  -0.03828974  0.15862837  0.0744831
  0.02180951 -0.01678195 -0.06985028  0.01076178  0.22269936 -0.04447956
 -0.01357608  0.21498226 -0.0091009  -0.03499847  0.05455703  0.01748826
 -0.10166968  0.01685316 -0.24408984 -0.09103073 -0.03071352 -0.00551627
 -0.01225238  0.03814662 -0.23817062  0.10748847  0.05269967  0.00570618
 -0.0152748  -0.01200527 -0.07182523  0.02157437  0.14915614 -0.20277727
  0.2025892   0.1646025   0.04742129  0.10407155  0.05599179 -0.04716109
 -0.03429494 -0.07149654 -0.15600811 -0.04354406  0.06638638  0.00721187
  0.07524579 -0.00633911]