[-0.06198833  0.1090697   0.03788688 -0.0797933  -0.08944532 -0.06398519
 -0.0478026  -0.16406052  0.14751691 -0.06546824  0.24313705 -0.15823328
 -0.2528511  -0.07959251 -0.05353406  0.25824362 -0.16595285 -0.15396526
 -0.07198663  0.01251836  0.02690305 -0.05663574  0.01156876  0.12355583
 -0.12532334 -0.38137707 -0.11806498 -0.08168127 -0.05251534 -0.06733236
 -0.08894373  0.12003609 -0.16948096 -0.06017006  0.06782468  0.11577753
 -0.02016053 -0.11977128  0.17054243 -0.00214518 -0.28857362  0.01865928
  0.13258593  0.2565845   0.20883532  0.01030674  0.04087255 -0.08757944
  0.09373208 -0.18571168  0.04176996  0.15519011  0.04602071  0.05536421
  0.04275126 -0.15191232  0.02067661  0.1263276  -0.14986557 -0.10168735
  0.10635028 -0.05080035 -0.07161362 -0.1108104   0.21548457  0.1540235
 -0.1095222  -0.14372683  0.16145664 -0.12136264 -0.03327612  0.01662144
 -0.21031235 -0.16623768 -0.28661725 -0.01197763  0.38676903  0.09537788
 -0.16951554  0.08829718 -0.05410701  0.02164769  0.0800707   0.10128778
  0.02077041  0.05367617 -0.07588112  0.03150313  0.19564906 -0.08046923
  0.04271634  0.18325107 -0.03390808 -0.01774561  0.02885079  0.00112313
 -0.07039777  0.02990898 -0.17678869 -0.01983571  0.02227131  0.00095629
 -0.02632338  0.07478724 -0.23584965  0.08332504  0.07253793  0.00170763
  0.00615482 -0.00780597 -0.06488251 -0.05366993  0.13809863 -0.24604474
  0.16762207  0.15392564  0.02875262  0.08415594  0.08319068  0.06999351
  0.00120018 -0.06850272 -0.18960239 -0.02933085  0.13349934 -0.01553982
  0.04999186 -0.00759649]