[-0.0568285   0.1275852   0.057542   -0.03519525 -0.08094396 -0.04781222
 -0.03894127 -0.1834718   0.17319281 -0.07258817  0.23723498 -0.07973994
 -0.21033557 -0.05232235 -0.01207037  0.22884126 -0.15829805 -0.17897277
 -0.0788635  -0.0089043   0.04400314 -0.07204404 -0.00131165  0.127516
 -0.14923179 -0.33845305 -0.10340568 -0.09075556 -0.00254737 -0.04043819
 -0.09704866  0.06718702 -0.1518849  -0.06154319  0.08513775  0.10103305
 -0.04028008 -0.13742243  0.17501588 -0.00971931 -0.26898217  0.07027236
  0.11149273  0.24466129  0.28896269 -0.00780332  0.04695626 -0.11576866
  0.1494873  -0.19920255  0.04673625  0.14650957  0.04382621  0.09664518
  0.08353855 -0.18408649  0.01560263  0.11588144 -0.19294994 -0.08521662
  0.04952993 -0.04045377 -0.03358001 -0.08673136  0.14848369  0.16466978
 -0.08772055 -0.15922301  0.14244044 -0.14940856 -0.02465927  0.05742853
 -0.20944576 -0.17084363 -0.27648675 -0.03502898  0.43649808  0.11421444
 -0.17868339  0.06845652 -0.0500435  -0.00253122  0.08281283  0.05736228
  0.03834577 -0.02164962 -0.08644363  0.01574648  0.21623436 -0.05098632
  0.0136341   0.17954248 -0.02607585 -0.06441286  0.04763269  0.07457126
 -0.11148999  0.01726888 -0.1923838  -0.10317693 -0.03566471  0.00881302
 -0.01445407  0.05382757 -0.27147374  0.11757314  0.06918242  0.01582992
 -0.03568719 -0.02776749 -0.07494456  0.01933491  0.13934159 -0.25934443
  0.18974976  0.15208802  0.01656228  0.10036508  0.0306886   0.02125358
 -0.02813569 -0.07942789 -0.13736884 -0.04699192  0.06171399  0.01569469
  0.068536   -0.00221359]