[-0.11426995  0.08101219  0.03711686 -0.04461057 -0.09545001 -0.02742789
 -0.03466199 -0.14100675  0.14000602 -0.02219882  0.23654385 -0.01266636
 -0.19969092 -0.06546027 -0.03947569  0.24214852 -0.18530741 -0.13355482
 -0.04578297 -0.03075003 -0.01142393 -0.02268075 -0.008934    0.10249748
 -0.11950754 -0.37517646 -0.09515212 -0.10533865 -0.03204289 -0.00241431
 -0.04997861  0.11049695 -0.14703183 -0.06479522  0.10106003  0.11772137
 -0.02325653 -0.10306176  0.17454033  0.00762616 -0.25106272  0.04635841
  0.14516182  0.26741084  0.28180489  0.01960287  0.04874048 -0.08156132
  0.14082314 -0.20374946  0.02043201  0.13590719  0.06449546  0.07670775
  0.01966131 -0.16700411  0.0261024   0.10373714 -0.18598607 -0.09317061
  0.020387   -0.04964344 -0.00586552 -0.04688254  0.20366061  0.15028425
 -0.11467164 -0.12465309  0.16080159 -0.14297426 -0.02964042  0.02588123
 -0.21492206 -0.19899559 -0.27087736  0.00873398  0.44652969  0.11155524
 -0.15130569  0.07436131 -0.07238475 -0.0094347   0.10146465  0.11275321
  0.04511772 -0.05832754 -0.05320037 -0.00650033  0.23746017 -0.03518526
  0.00318505  0.19512229 -0.02142151 -0.00648002  0.03095251  0.0934784
 -0.06684098  0.06044252 -0.14104855 -0.05778484 -0.01433386  0.00628622
  0.04758478  0.08319753 -0.2537432   0.11070516  0.0546064   0.06316493
  0.0353905  -0.00615052 -0.03705595 -0.02920279  0.14022328 -0.24394135
  0.22694424  0.17299885 -0.04090674  0.13366871  0.05810687  0.05141419
 -0.01479785 -0.08971834 -0.16492148 -0.02581759  0.07267313 -0.02373228
  0.06585356  0.00922491]