[-0.07388589  0.03997296  0.06843617 -0.04285945 -0.07494207 -0.05468549
 -0.01348561 -0.15470973  0.16225085 -0.05541584  0.2281156  -0.04312043
 -0.226136   -0.0693001  -0.02099128  0.23834205 -0.16152611 -0.14839564
 -0.04894028 -0.01731163  0.00519056 -0.04616543  0.00543302  0.13136171
 -0.10635709 -0.36352286 -0.14154093 -0.1168277  -0.05199861  0.00233306
 -0.0526073   0.11004479 -0.16030672 -0.05224452  0.08827034  0.0664527
 -0.00815858 -0.09846834  0.17920879  0.00469778 -0.24220045  0.00343319
  0.12827261  0.22609603  0.24626653  0.02093442  0.04803958 -0.09798104
  0.09101701 -0.22523379  0.05448334  0.13977927  0.08481164  0.05370278
  0.07510798 -0.16520309  0.00575311  0.06891384 -0.17130657 -0.05743153
  0.00717454 -0.02655089 -0.04491724 -0.07095864  0.20563447  0.15766247
 -0.11513567 -0.12055987  0.19358742 -0.16270472 -0.03910459  0.03199337
 -0.2089262  -0.18887143 -0.30268404 -0.02794081  0.45334551  0.11393338
 -0.20860484  0.06646384 -0.10717447 -0.00738861  0.0706281   0.09102821
  0.0272272  -0.01651148 -0.06006563  0.00375653  0.20915495 -0.06156144
  0.01496731  0.21230136 -0.02245935 -0.01869953  0.03197804  0.05362225
 -0.03196229  0.00295092 -0.18322234 -0.07382234 -0.01143044  0.03222117
  0.01312383  0.08784502 -0.26986954  0.0764768   0.06523627 -0.02415263
  0.00956949  0.0189914  -0.10193022 -0.05208084  0.14998472 -0.24762188
  0.17521481  0.15812631 -0.0378313   0.10287601  0.01705152  0.07629992
 -0.03189325 -0.11884003 -0.14121331 -0.02867469  0.09068846 -0.01079236
  0.03270791  0.00404032]