[-0.07262135  0.09974406  0.04518418 -0.05402619 -0.12846616 -0.02455877
 -0.02758153 -0.16108005  0.13202925 -0.07400881  0.24402368 -0.11956684
 -0.23832011 -0.06115128 -0.01412709  0.27515101 -0.15014343 -0.20085767
 -0.07999416 -0.00816395 -0.00135997 -0.04542224 -0.02256458  0.12834513
 -0.1813942  -0.36751652 -0.111901   -0.10943707 -0.06975403 -0.05952144
 -0.0765515   0.09546279 -0.13819574 -0.05237733  0.09576382  0.09424739
 -0.01846451 -0.14660847  0.16790207 -0.00869337 -0.29818431  0.04958258
  0.15644114  0.27530581  0.21385053 -0.01070506  0.05157228 -0.07453872
  0.10092111 -0.21640828  0.05762741  0.11380925  0.02980879  0.07441602
  0.07505833 -0.16438334  0.02264233  0.13161662 -0.20226245 -0.06282619
  0.07248112 -0.0481392  -0.02348874 -0.10902851  0.1904254   0.17331012
 -0.09620595 -0.13396274  0.16035466 -0.13776378 -0.04027377  0.01612006
 -0.2074977  -0.19898935 -0.30113631 -0.0118488   0.4142817   0.1459357
 -0.1907814   0.05885335 -0.00215711  0.01264783  0.10197573  0.09660005
  0.06542343 -0.0094877  -0.07491297  0.04086764  0.23300914 -0.05790676
  0.02917251  0.20448816 -0.02807422 -0.07658682  0.04664689  0.06872383
 -0.08502289  0.02214547 -0.16756165 -0.02304158 -0.01412396  0.0110506
 -0.00349481  0.07603257 -0.23322955  0.09711991  0.05523701 -0.00797053
 -0.05214139  0.00042275 -0.05794435 -0.0105301   0.14109689 -0.24469867
  0.17744039  0.16167364 -0.00232903  0.10239108  0.03967174  0.02685124
 -0.01163857 -0.09470748 -0.17649527 -0.0516445   0.10133286 -0.02619952
  0.07170131  0.02644739]