[-9.39008221e-02  1.12710692e-01  5.39508462e-02 -1.62888858e-02
 -4.01358008e-02 -3.32337506e-02 -1.08259497e-02 -1.83465764e-01
  1.68508202e-01 -6.95620701e-02  2.08699331e-01 -3.75130437e-02
 -2.12062508e-01 -8.29334259e-02 -3.79640348e-02  2.40941927e-01
 -1.92523301e-01 -1.40920326e-01 -4.46743481e-02 -1.10824062e-02
  4.76283804e-02 -5.80831580e-02  2.79017240e-02  7.53935277e-02
 -1.10250771e-01 -3.34192514e-01 -1.37828097e-01 -1.10184252e-01
  1.66986906e-03  1.04015963e-02 -6.35776445e-02  5.02284579e-02
 -1.34106264e-01 -5.40879555e-02  5.55843003e-02  8.91920254e-02
 -1.55777112e-02 -9.39991847e-02  1.89147815e-01 -2.17830902e-03
 -2.28043482e-01  5.27905896e-02  7.94158056e-02  2.67724574e-01
  2.69095629e-01  2.89686676e-02  2.80279871e-02 -1.32607922e-01
  1.48756474e-01 -1.96184531e-01  6.07964722e-03  1.31761774e-01
  4.48405258e-02  7.76317716e-02  3.67246605e-02 -1.53474167e-01
  5.33916354e-02  7.42490813e-02 -2.05841467e-01 -9.27390233e-02
  2.48430315e-02 -4.44874726e-02 -7.87208613e-04 -3.72880399e-02
  1.89637765e-01  1.13113537e-01 -9.25099552e-02 -1.40657023e-01
  1.52606815e-01 -1.48951277e-01  1.74706581e-03  3.71125154e-02
 -2.11495206e-01 -1.94302946e-01 -2.88926214e-01 -1.71014555e-02
  4.52328414e-01  1.30983934e-01 -1.45392910e-01  8.64568949e-02
 -1.02639534e-01 -1.31396903e-02  1.22670904e-01  9.08643752e-02
  2.57387664e-02 -1.04488805e-02 -1.01718806e-01  1.91148405e-03
  2.06519112e-01 -1.04158737e-01  1.18937436e-03  2.10656092e-01
 -7.99203012e-03  8.93615466e-03  1.27853304e-02  4.64369617e-02
 -8.59199911e-02  5.95821999e-02 -1.86434969e-01 -9.53489915e-02
  2.95654917e-03  3.67335975e-02  4.82055955e-02  7.12558106e-02
 -2.42196396e-01  1.01477385e-01  6.58269972e-02  2.60043126e-02
 -6.04411168e-03 -4.21150289e-02 -1.03616849e-01 -1.70808658e-02
  1.54856801e-01 -2.32073575e-01  1.77990600e-01  1.86311975e-01
 -1.50218820e-02  1.04419529e-01  7.48070851e-02  4.29918133e-02
 -4.22983691e-02 -7.19493926e-02 -1.61601946e-01  9.65869613e-03
  9.91989598e-02  1.28265768e-02  7.47893676e-02 -1.33128473e-04]