[-0.0585701   0.07422102  0.0390328  -0.05047983 -0.10976557 -0.03841152
 -0.01926437 -0.16190515  0.15940957 -0.05905524  0.25648972 -0.0486526
 -0.24143231 -0.0833719  -0.02830173  0.26125634 -0.19205849 -0.15642063
 -0.04542184 -0.00987196 -0.00407245 -0.0590272  -0.00371026  0.11426327
 -0.11442536 -0.37873587 -0.11838783 -0.11189891 -0.03471119  0.00070406
 -0.06062791  0.1203779  -0.13944732 -0.06033682  0.09867667  0.07681357
  0.00311479 -0.09370179  0.17833216 -0.0010986  -0.26239488  0.04026965
  0.13696162  0.24112003  0.24753737  0.0110197   0.05670112 -0.09570864
  0.09519418 -0.22829698  0.04978256  0.12686066  0.08601671  0.05269082
  0.05264021 -0.1854699  -0.00112626  0.09790762 -0.20227169 -0.07714647
  0.03241901 -0.02746891 -0.02550973 -0.07315765  0.21063662  0.15370083
 -0.12038378 -0.12875973  0.17957175 -0.16117413 -0.02838468  0.02878015
 -0.2030531  -0.19166069 -0.30316764 -0.02440268  0.44854069  0.14308374
 -0.19206573  0.05427972 -0.10301274 -0.01375825  0.07624932  0.07840701
  0.05300597 -0.03439993 -0.0750462  -0.00764791  0.20852736 -0.06212052
  0.0195759   0.22961819 -0.01010129 -0.01436761  0.01648713  0.06071521
 -0.05575256  0.01293615 -0.17564155 -0.07220527 -0.0531751   0.01886323
  0.02070992  0.08108794 -0.27127934  0.08778276  0.05734509  0.00363404
 -0.00459837  0.01312096 -0.05829022 -0.04292986  0.15363358 -0.26552185
  0.17861204  0.17754124 -0.00574754  0.11744795  0.03118048  0.03914299
 -0.02437272 -0.13896903 -0.15704601 -0.02901542  0.07069914 -0.04266327
  0.04975614  0.0193895 ]