[-7.38254711e-02  1.09349035e-01  3.43333669e-02 -2.48248875e-02
 -7.88297355e-02 -3.89252827e-02 -1.86750572e-02 -1.34158939e-01
  1.56003505e-01 -9.43390056e-02  2.03149989e-01 -3.44597846e-02
 -2.19921380e-01 -4.48209345e-02 -5.06366454e-02  2.11646587e-01
 -1.79076537e-01 -1.47225454e-01 -1.09384172e-01 -2.31591873e-02
  5.63142821e-05 -7.20335031e-03  7.14926934e-03  1.10179357e-01
 -1.18225239e-01 -3.53346556e-01 -7.17826188e-02 -1.09675013e-01
 -5.47138341e-02 -5.28031960e-02 -5.33250235e-02  6.30653426e-02
 -1.37356848e-01 -5.30618615e-02  7.03444555e-02  5.80540709e-02
 -6.72495440e-02 -5.16588874e-02  1.89288586e-01  6.65225014e-02
 -2.43686035e-01  6.49896488e-02  9.68255773e-02  3.25383455e-01
  2.88899153e-01  1.96483470e-02  1.66942775e-02 -9.99716222e-02
  1.71897992e-01 -2.55922347e-01  1.77382957e-02  1.35934904e-01
  2.04576850e-02  7.24382773e-02  9.83986259e-02 -1.37143418e-01
  2.02943645e-02  1.15939893e-01 -1.82392761e-01 -4.54099663e-02
  2.03966964e-02 -4.79377136e-02 -3.66881564e-02 -3.56268734e-02
  1.47257060e-01  1.21746920e-01 -7.29567334e-02 -1.27650961e-01
  1.52317762e-01 -1.92680761e-01 -5.13918698e-02  5.31629324e-02
 -1.51842028e-01 -1.85297847e-01 -2.70810336e-01 -4.85301390e-02
  4.48643446e-01  1.43482313e-01 -1.44059986e-01  5.62001131e-02
 -5.48490584e-02 -3.03122886e-02  1.23128965e-01  6.11322112e-02
  9.49016598e-04 -2.05759834e-02 -7.08040744e-02  1.42600155e-02
  2.19015285e-01 -2.00495981e-02 -8.96958448e-03  1.98472068e-01
  6.37287367e-03 -5.93403056e-02  7.62452558e-02  2.38373354e-02
 -1.06140696e-01 -2.52573797e-03 -2.35267878e-01 -1.16308950e-01
 -4.55723070e-02 -1.61806196e-02 -5.12321666e-03  3.53157967e-02
 -2.70561099e-01  1.42057717e-01  6.05947077e-02 -7.21141277e-03
 -2.88335234e-02 -7.77560566e-03 -9.00684819e-02  2.99414936e-02
  1.45936713e-01 -2.31266454e-01  1.83783993e-01  1.72220856e-01
  2.96561718e-02  1.06433153e-01  4.20487002e-02 -3.35623324e-02
 -5.14053069e-02 -6.76038861e-02 -1.40080780e-01 -6.67291433e-02
  6.39548302e-02  1.57396849e-02  8.46632645e-02 -3.09242457e-02]