[-0.0228092   0.14018913  0.04013373 -0.02320667 -0.07287698 -0.00759278
 -0.01669269 -0.14740312  0.16122593 -0.04913317  0.26349744 -0.08756555
 -0.25575131 -0.07368615 -0.04038418  0.21801625 -0.16692154 -0.15071626
 -0.06072984  0.02391539  0.03766615 -0.03019432  0.04630509  0.1219238
 -0.14608562 -0.39627966 -0.07322828 -0.07846967 -0.04978282 -0.06797095
 -0.11017299  0.11839713 -0.17533666 -0.04754968  0.07273176  0.10541359
 -0.03951901 -0.12573361  0.19590567  0.04735156 -0.2400661   0.04833852
  0.05117987  0.29866388  0.24964042 -0.04681239  0.065295   -0.08227155
  0.08362905 -0.22180021  0.02760927  0.18480082  0.03707982  0.06437919
  0.02020211 -0.13406701 -0.03011137  0.1168353  -0.14313687 -0.09256201
  0.06048537 -0.02366529 -0.04343186 -0.09902355  0.1703994   0.14662562
 -0.11626526 -0.13404553  0.10778301 -0.12942359 -0.03492613  0.02394892
 -0.2239652  -0.19749902 -0.24698751  0.00562895  0.42315474  0.10889079
 -0.18388519  0.0571735  -0.08923214  0.01650844  0.08896833  0.0951656
  0.05142889  0.03164279 -0.07114436  0.07816726  0.19806966 -0.06840595
 -0.01926005  0.21318416 -0.03464686 -0.02483189  0.05078498  0.02941106
 -0.03028596  0.0596041  -0.17338105 -0.01303947 -0.02543931 -0.01384708
 -0.01081382  0.06896212 -0.24459048  0.08222771  0.06622521  0.01613848
  0.04734831 -0.02282645 -0.09934702 -0.04083642  0.13418715 -0.29972425
  0.17102437  0.16797891  0.00194256  0.1003887   0.03705892  0.04846951
  0.01414532 -0.06954818 -0.15767372 -0.03104654  0.0936187   0.04117758
  0.03279629 -0.04338431]