[-0.04553136  0.11062048  0.03097584 -0.01221709 -0.06237125 -0.046058
 -0.00851914 -0.15301713  0.13928607 -0.04082309  0.25852981 -0.08334497
 -0.25962779 -0.10113674 -0.01038896  0.22033155 -0.16643389 -0.16547225
 -0.07722323  0.00672473  0.03982768 -0.04263785  0.02880003  0.1345223
 -0.16225539 -0.38632634 -0.07809209 -0.08498584 -0.04127246 -0.0496611
 -0.10058925  0.13508198 -0.1569268  -0.05307026  0.0988533   0.12864187
 -0.03904011 -0.12420548  0.20331311  0.0338616  -0.26458129  0.03924809
  0.08845507  0.29681104  0.26962653 -0.03897923  0.06046841 -0.0591591
  0.11732005 -0.23861857  0.02348997  0.18437852  0.06263908  0.07218443
  0.06634238 -0.15079437 -0.02248069  0.11679699 -0.18060003 -0.1093032
  0.02960747 -0.05193709 -0.03389864 -0.10591402  0.15617798  0.14056753
 -0.12212127 -0.12028674  0.1381686  -0.14217627 -0.02626582  0.05539571
 -0.22303922 -0.20148957 -0.27373183  0.00409994  0.42257062  0.11009361
 -0.15955794  0.0703977  -0.05882349 -0.00314027  0.07112192  0.08492607
  0.05290633  0.01852926 -0.07366201  0.06731313  0.19267307 -0.0638542
 -0.00275792  0.19457923 -0.03709881 -0.0359428   0.05224471  0.04734686
 -0.04739602  0.04045755 -0.17132252 -0.01995554 -0.02141292 -0.02302766
  0.00801725  0.04995919 -0.23536621  0.06732727  0.0673652   0.01005199
  0.00881107 -0.03326684 -0.09706248 -0.01952115  0.11358155 -0.31598598
  0.18415971  0.16628613 -0.01685398  0.09736069  0.01657628  0.02339522
 -0.00098983 -0.09255625 -0.14076075 -0.05206803  0.09412366  0.03715711
  0.0349238  -0.04337936]