[-0.08598702  0.08623442  0.05629746 -0.03620328 -0.08309301 -0.04886596
 -0.01304327 -0.16674307  0.14636806 -0.06750568  0.22149037 -0.09381381
 -0.21865121 -0.02389036 -0.04890711  0.24968517 -0.20487438 -0.13884667
 -0.07628366 -0.00250213  0.00127552 -0.04101991  0.02110197  0.07685073
 -0.09352286 -0.36630294 -0.12930739 -0.08775422  0.0019212   0.00304282
 -0.05841912  0.09274226 -0.12384862 -0.05323724  0.09825034  0.11128016
  0.00301008 -0.13277976  0.21497798  0.00113697 -0.26519594  0.06416669
  0.10922229  0.28416941  0.26604185 -0.0118505   0.0303531  -0.11608578
  0.14806794 -0.18836479 -0.00144647  0.13379307  0.0496632   0.05870619
  0.04076185 -0.14846581  0.03685365  0.12395527 -0.18556166 -0.12431735
  0.06521907 -0.03893039  0.0124727  -0.07841844  0.18610696  0.11754849
 -0.10576948 -0.13500482  0.16145407 -0.1180011   0.00183331  0.01025369
 -0.22375634 -0.17690241 -0.26296797 -0.02334751  0.47118029  0.11862451
 -0.14859143  0.09639316 -0.08972267 -0.01872165  0.10050233  0.10756212
  0.0267938   0.00800468 -0.08049139  0.01914655  0.20764457 -0.07953086
  0.01211106  0.18097088 -0.02366068 -0.01441039  0.03394576  0.03069747
 -0.09563061  0.04425545 -0.20417607 -0.07765523 -0.02415335  0.01555201
  0.04386045  0.07957157 -0.25240791  0.10512407  0.06365485  0.01895838
 -0.00269343 -0.02624897 -0.04215713  0.00504579  0.15607077 -0.24767633
  0.15301342  0.16278245 -0.01327171  0.12059535  0.07137304  0.03992128
 -0.02828426 -0.05335999 -0.17430191 -0.0138718   0.08144384  0.03036982
  0.08942198  0.01086736]