[-0.13524541  0.09015388  0.05426455 -0.03195622 -0.10842288 -0.03685236
 -0.03463336 -0.17301726  0.14317094 -0.03990104  0.22373469 -0.01988504
 -0.2027276  -0.08460335 -0.02919016  0.22726122 -0.22655459 -0.14184327
 -0.05908759 -0.01955776  0.02798381 -0.01494544  0.02520585  0.0463982
 -0.12261736 -0.39236841 -0.11279706 -0.10992265  0.01309528  0.01854749
 -0.04294771  0.05419369 -0.15243056 -0.08658584  0.10481012  0.11312669
 -0.03344156 -0.09621772  0.18497562  0.01247678 -0.22016387  0.07133435
  0.10773384  0.27718207  0.28268114  0.03297645  0.0553783  -0.15276411
  0.14780632 -0.19300973 -0.00273995  0.14935604  0.04188703  0.06119252
  0.06966185 -0.14750917  0.03780066  0.08493602 -0.20536415 -0.08803321
  0.04981607 -0.04398831 -0.01411367 -0.0887102   0.17596304  0.08204284
 -0.10026187 -0.13230768  0.14837269 -0.12949537 -0.02453467  0.01385382
 -0.20657633 -0.19800569 -0.29952201 -0.0231062   0.45549425  0.12361046
 -0.16259377  0.07427512 -0.067297   -0.02977865  0.1051141   0.12081728
  0.04455323 -0.02366235 -0.07324424  0.02105575  0.18828221 -0.0836673
  0.04037412  0.20199259  0.004872    0.0030615   0.03440155  0.06330249
 -0.11864481  0.05214839 -0.1766365  -0.07986553 -0.01448155  0.02601332
  0.07610683  0.06820519 -0.21670063  0.11080357  0.04491394  0.01205196
 -0.01804481 -0.08627361 -0.04169629 -0.01032865  0.14081284 -0.23895441
  0.19143781  0.20361017 -0.03448739  0.14227325  0.05640963  0.02912349
 -0.05598077 -0.03406408 -0.17003141 -0.01261951  0.035395   -0.0018398
  0.05997308 -0.00252056]