[-5.73407896e-02  1.29257903e-01  5.64642437e-02 -5.02937622e-02
 -8.62568840e-02 -6.10276945e-02 -4.63969670e-02 -1.90589443e-01
  1.67573974e-01 -8.88674185e-02  2.44868264e-01 -1.09915845e-01
 -2.23097995e-01 -6.01729415e-02 -2.65678763e-02  2.35192895e-01
 -1.70883611e-01 -1.69214159e-01 -7.56793693e-02 -7.52477441e-03
  4.13442105e-02 -7.42516145e-02  6.91979704e-03  1.29170537e-01
 -1.36577249e-01 -3.49589497e-01 -1.19744204e-01 -9.89357606e-02
 -2.66153608e-02 -5.09225130e-02 -8.89915153e-02  6.94051906e-02
 -1.43236980e-01 -6.82454854e-02  6.59054518e-02  9.33467001e-02
 -2.52206512e-02 -1.28230393e-01  1.71500191e-01 -1.53577989e-02
 -2.67793208e-01  7.67143667e-02  1.16917424e-01  2.53043562e-01
  2.68723160e-01 -8.30027461e-03  4.90822159e-02 -1.12031721e-01
  1.41596302e-01 -1.78833127e-01  2.65871920e-02  1.44473031e-01
  5.39417826e-02  7.80368671e-02  7.35259280e-02 -1.63344845e-01
  1.89577918e-02  1.11915223e-01 -1.77415654e-01 -8.77181143e-02
  7.50152618e-02 -2.83071734e-02 -3.58753018e-02 -8.25581849e-02
  1.70460671e-01  1.54820159e-01 -9.55753103e-02 -1.60529092e-01
  1.37139261e-01 -1.50204509e-01 -3.56868245e-02  4.49380092e-02
 -2.24289283e-01 -1.64644465e-01 -2.77117997e-01 -3.82211320e-02
  4.32218283e-01  1.01129375e-01 -1.74380794e-01  7.56395683e-02
 -6.31110668e-02 -1.42253572e-04  7.78759643e-02  7.25194216e-02
  3.52818482e-02  4.73908475e-03 -8.50178525e-02  2.33041104e-02
  2.10593566e-01 -6.39182106e-02  1.68513414e-02  1.85677692e-01
 -1.81619283e-02 -4.30398546e-02  4.44374047e-02  4.26803455e-02
 -1.02114320e-01  2.08854116e-02 -1.91628531e-01 -7.27823153e-02
 -3.52747403e-02  7.79927010e-03 -2.24743988e-02  4.54508252e-02
 -2.59916425e-01  1.11888602e-01  6.98308349e-02  1.69772599e-02
 -4.02387753e-02 -7.70109147e-03 -7.97612071e-02  5.02731884e-03
  1.48630187e-01 -2.54142851e-01  1.70322329e-01  1.60137504e-01
  3.11859250e-02  8.56206268e-02  4.67655659e-02  2.41952110e-02
 -2.37154122e-02 -6.21337779e-02 -1.47227004e-01 -3.89732905e-02
  7.43466094e-02  1.57909398e-03  7.26277158e-02 -4.95491177e-03]