[-0.11800146  0.11914667  0.11950646 -0.06778445 -0.07483541 -0.08017161
 -0.01118717 -0.17822163  0.14832132 -0.11985198  0.27452236 -0.11889262
 -0.25029716 -0.12543018 -0.0337432   0.26597142 -0.2538909  -0.15510161
 -0.03214861 -0.0164167   0.05880499  0.00270847 -0.00652709  0.05308591
 -0.11074246 -0.36011297 -0.09469151 -0.09214409 -0.03127601 -0.03810072
 -0.03218107  0.11767866 -0.18890469 -0.06208022  0.0421478   0.04161484
 -0.00386874 -0.07052746  0.15492657 -0.05771979 -0.23612688  0.02585335
  0.13440463  0.22505069  0.20657375  0.04248809  0.002777   -0.07581016
  0.10595419 -0.16606866 -0.06048001  0.12228014  0.06711119  0.03037266
  0.04770968 -0.17534354 -0.02492605  0.05872509 -0.12605274 -0.02484822
  0.09310284 -0.1139568  -0.02189966 -0.08318522  0.2257417   0.044127
 -0.11958174 -0.12708078  0.18395896 -0.13177532 -0.04695998  0.02401318
 -0.20025805 -0.1435149  -0.29177672 -0.0529506   0.32108608  0.06388115
 -0.17064784  0.05203539 -0.01451376  0.05881662  0.09816586  0.15472753
  0.03302728  0.02168127 -0.07607723 -0.00939431  0.20172369 -0.06664611
  0.0087858   0.25269216 -0.03632414  0.02597768 -0.00675717 -0.07533251
 -0.03155661  0.00121975 -0.16124932  0.01646299 -0.03345193  0.01128853
 -0.01808125  0.12270017 -0.12212236  0.02816921  0.01519309  0.07547523
 -0.04825612  0.03165633 -0.080415   -0.06698415  0.09477188 -0.1948881
  0.19496524  0.18606937 -0.01089901  0.06069961  0.06878721  0.05576468
 -0.01408114 -0.01862937 -0.18201552 -0.04394352  0.13369568 -0.07016633
  0.09029587 -0.01795968]