[-1.28607273e-01  1.25028491e-01  1.07722282e-01 -6.26164153e-02
 -9.27838907e-02 -5.99308908e-02 -3.87402289e-02 -1.74696714e-01
  1.36164352e-01 -1.01092197e-01  2.51861185e-01 -1.08939588e-01
 -2.45373368e-01 -1.21411100e-01 -5.72767816e-02  2.62790233e-01
 -2.37416059e-01 -1.50616884e-01 -2.91824173e-02  3.71506251e-03
  3.95505503e-02  1.34525299e-02  1.32486494e-02  4.22935449e-02
 -1.03583708e-01 -3.60195518e-01 -7.67748207e-02 -7.26621449e-02
 -5.96514232e-02 -3.67544964e-02 -5.45597188e-02  1.28842160e-01
 -1.85622171e-01 -3.76137383e-02  3.71137932e-02  5.03158569e-02
 -1.50886672e-02 -5.28667234e-02  1.40663177e-01 -3.53344046e-02
 -2.52986163e-01  1.80856735e-02  1.46257028e-01  2.36132577e-01
  2.28676945e-01  4.44905944e-02  2.87683052e-03 -1.01299755e-01
  1.13336504e-01 -1.53484732e-01 -5.34327999e-02  1.42753124e-01
  3.77140157e-02  2.87369322e-02  5.59035540e-02 -1.78609580e-01
 -2.53991615e-02  6.47261292e-02 -8.12266916e-02 -1.56990141e-02
  6.99174181e-02 -8.96677002e-02 -3.03584933e-02 -1.05341196e-01
  2.10491806e-01  3.33465263e-02 -1.24554537e-01 -1.36688590e-01
  1.55470967e-01 -1.21655419e-01 -7.83756673e-02  3.64403538e-02
 -2.04005405e-01 -1.74789593e-01 -3.18614006e-01 -5.25409766e-02
  3.15609127e-01  6.68479726e-02 -1.83684781e-01  5.98025918e-02
  2.40745451e-02  2.75697093e-02  1.03676915e-01  2.01966360e-01
  2.16567274e-02  3.86591069e-02 -8.46053585e-02 -2.64206268e-02
  2.09676132e-01 -6.84548318e-02  6.07794290e-03  2.47912526e-01
 -3.66332494e-02  2.36570388e-02 -1.44965323e-02 -2.95158010e-02
 -4.32978570e-02  2.00769212e-02 -1.83522597e-01 -1.94425937e-02
 -2.10403022e-03 -9.00194328e-03 -3.71153317e-02  1.20478235e-01
 -1.32304758e-01  4.01779190e-02  2.54745986e-02  8.48153010e-02
 -4.52118777e-02  5.04052639e-03 -6.09490760e-02 -4.85821143e-02
  9.38424990e-02 -1.85616106e-01  1.97871223e-01  1.89454004e-01
  9.27415024e-03  7.06921369e-02  9.84028205e-02  6.28293306e-02
 -1.30609497e-02 -3.04844230e-04 -1.59906819e-01 -5.00604510e-02
  1.19179919e-01 -5.95192276e-02  8.21975768e-02 -4.37401095e-03]