[-0.12678574  0.11259975  0.12397438 -0.0481311  -0.07564727 -0.07620396
 -0.0048378  -0.17890719  0.1606515  -0.1339367   0.26225412 -0.0913957
 -0.23841122 -0.14739318 -0.03114869  0.27271163 -0.2450598  -0.16176157
 -0.03554611 -0.02856869  0.05240563  0.00712191 -0.00309317  0.02576779
 -0.10276641 -0.36934909 -0.08823604 -0.07556623 -0.03159949 -0.04835077
 -0.0502838   0.13286321 -0.18926336 -0.06290301  0.05154763  0.04389174
 -0.00779825 -0.04104891  0.17288177 -0.04358676 -0.21993974  0.01448736
  0.13495316  0.23848389  0.22966039  0.0393387  -0.00505557 -0.06850052
  0.10687895 -0.17543192 -0.07763042  0.14069949  0.06736844  0.03083223
  0.05759649 -0.17127848 -0.03571069  0.045124   -0.12496648 -0.02819522
  0.07793678 -0.12768948 -0.04566887 -0.06706797  0.21671048  0.03510521
 -0.11763006 -0.12944417  0.17871849 -0.13648961 -0.04128902  0.00195285
 -0.2006965  -0.15218863 -0.2994577  -0.06704976  0.32676542  0.06851541
 -0.17808144  0.0606715  -0.01473107  0.03811694  0.09746257  0.143139
  0.01733267  0.03147403 -0.07067683 -0.00158707  0.18981376 -0.05676287
  0.00933099  0.23692067 -0.03428543  0.0235024  -0.00749405 -0.07635861
 -0.02365062 -0.00755753 -0.18217239 -0.00531386 -0.04061457 -0.01227945
 -0.00404237  0.12525325 -0.14113751  0.04276919  0.01568219  0.07175862
 -0.06513255  0.02262619 -0.09193935 -0.04747446  0.0889758  -0.19154857
  0.19960085  0.20757185 -0.02905709  0.07466952  0.06862952  0.0497722
 -0.01901161 -0.00710818 -0.15775312 -0.05686838  0.10731234 -0.05979841
  0.09788871 -0.01515027]