[-0.14905845  0.11296877  0.10472164 -0.05934004 -0.07963333 -0.04232385
 -0.05056443 -0.15009718  0.12572366 -0.10285318  0.23621546 -0.11419559
 -0.24881887 -0.11014662 -0.0609684   0.27456865 -0.21539114 -0.16086067
 -0.02155294  0.00232606  0.05140851 -0.00265912 -0.02062874  0.05268956
 -0.11442997 -0.35884219 -0.07341154 -0.07859941 -0.09288142 -0.03892628
 -0.06397697  0.1117779  -0.18792181 -0.03020074  0.04208128  0.07351384
  0.00613256 -0.03713547  0.13808657 -0.02592092 -0.23470178 -0.01395049
  0.16107398  0.22532474  0.20378833  0.04023828 -0.00791061 -0.07110749
  0.09319542 -0.18289176 -0.05549313  0.13940419  0.07132978  0.05378255
  0.05084536 -0.17715414 -0.001138    0.0404021  -0.08112495 -0.02322697
  0.05754828 -0.09293041 -0.04633479 -0.09092472  0.21582924  0.03685036
 -0.11880559 -0.13359922  0.15734604 -0.11362272 -0.06891933  0.01699131
 -0.18980889 -0.17674939 -0.32601422 -0.05575508  0.295724    0.09141869
 -0.20034121  0.06582004 -0.00221978  0.02588603  0.0814251   0.1529094
  0.02647291  0.05919154 -0.08116832 -0.01213644  0.20289473 -0.06609467
  0.03469442  0.23506378 -0.03195103  0.03600357 -0.01419888 -0.02722919
 -0.02711732  0.00720654 -0.17588113 -0.0092076  -0.00820833 -0.00313211
 -0.02056278  0.11559963 -0.16923773  0.03466383  0.02614837  0.06263045
 -0.05501166  0.03223623 -0.09094485 -0.05111485  0.10515505 -0.181578
  0.17111821  0.20716141 -0.00393197  0.06281903  0.10604876  0.05403523
 -0.01514192 -0.01750195 -0.17063454 -0.05190405  0.10926659 -0.06704193
  0.05006793  0.01041051]