[-0.11958452  0.10201976  0.07853746 -0.05600736 -0.02641274 -0.10398825
 -0.00295686 -0.17753381  0.13588582 -0.09926998  0.23246863 -0.09354885
 -0.21363549 -0.11158271 -0.02083402  0.23405032 -0.21588705 -0.13341109
 -0.07815146 -0.01720433  0.08095804  0.01721876  0.01251354  0.0345551
 -0.07613014 -0.32718417 -0.09160245 -0.06681488  0.01167497 -0.00691381
 -0.04710821  0.09034345 -0.18590246 -0.07987233  0.06241895  0.03161913
 -0.01787096 -0.06989297  0.190266   -0.03587903 -0.23101513  0.04915453
  0.13455379  0.21766105  0.20566593  0.0502483   0.01460804 -0.11226217
  0.12789245 -0.190607   -0.04695144  0.11902662  0.08502354  0.05484893
  0.05319174 -0.16700995 -0.00447085  0.07552662 -0.12140407 -0.00451631
  0.0750712  -0.07707708 -0.02937721 -0.06670248  0.20495176  0.06049389
 -0.12703586 -0.1410775   0.13451935 -0.12454934 -0.07264876  0.03375009
 -0.16674803 -0.15222387 -0.28621492 -0.03180422  0.33739242  0.05805717
 -0.18579052  0.05158172 -0.02480544  0.02254817  0.11528107  0.13413747
 -0.02034779  0.01218717 -0.06932167 -0.03043596  0.23804629 -0.06295236
 -0.01235955  0.22926126 -0.01293262  0.05368209 -0.02484948 -0.02476078
 -0.05136107  0.00884895 -0.16987376 -0.01664865  0.02065413  0.0109027
 -0.01127647  0.13870028 -0.15584242  0.07712432  0.00518615  0.05494411
 -0.02215976  0.0208482  -0.07245911 -0.03243193  0.06056309 -0.16677739
  0.21138111  0.19876961  0.0073256   0.05571983  0.09348197  0.03171792
  0.01263991  0.028472   -0.18446292 -0.06381068  0.14545047 -0.02401756
  0.07630723 -0.01954836]