[-0.0885855   0.08575039  0.07547187 -0.04770562 -0.05144308 -0.06737415
 -0.02633569 -0.16451798  0.15042363 -0.08684884  0.19015639 -0.07211261
 -0.22264853 -0.11906003 -0.03991612  0.24284931 -0.20426579 -0.17095008
 -0.05463893  0.00591369  0.07700557  0.0148194   0.03442091  0.02052872
 -0.09385281 -0.35511443 -0.09938103 -0.05046668  0.0094418   0.0126031
 -0.06997754  0.11804688 -0.19746463 -0.07718875  0.08754037  0.05141804
  0.00133353 -0.05955632  0.17601101 -0.00687935 -0.2429992   0.0576309
  0.13200867  0.22590546  0.19607833  0.05425578  0.02692898 -0.13122089
  0.13405849 -0.17849901 -0.03320814  0.1461387   0.10533839  0.05061581
  0.04919655 -0.16897373  0.01438346  0.08864298 -0.13278076  0.00825334
  0.06191739 -0.06668071 -0.03541055 -0.09654053  0.18445003  0.0451631
 -0.11557171 -0.17062016  0.11820161 -0.10748146 -0.05505092  0.04117973
 -0.18030433 -0.15371089 -0.28697482 -0.06235502  0.32477486  0.06159995
 -0.20681854  0.0638465  -0.02336672  0.02545224  0.0836985   0.13327698
 -0.02491944  0.03804212 -0.08596399 -0.03609578  0.22606364 -0.07869146
  0.00816153  0.22769289 -0.00978533  0.06330468 -0.02321014 -0.00594901
 -0.07991743  0.0239908  -0.18255417 -0.05135707  0.01243101  0.00777406
 -0.00084188  0.11547665 -0.16755043  0.08230118 -0.00209363  0.05776109
 -0.01492435 -0.00102981 -0.06978323 -0.03944562  0.07472532 -0.18126829
  0.1985693   0.20246473  0.00067219  0.06508487  0.09715541  0.04928949
 -0.01728483  0.0154546  -0.17056881 -0.05738914  0.13879909 -0.04581669
  0.06410251 -0.01882123]