[-0.12413056  0.11491878  0.1037939  -0.06472818 -0.0786496  -0.0716574
 -0.03187447 -0.16737552  0.12947926 -0.10822707  0.26132023 -0.10484111
 -0.24864812 -0.12241974 -0.05142831  0.27486849 -0.24390514 -0.14556046
 -0.02449328 -0.01672005  0.05625892  0.02066351 -0.00887093  0.03010921
 -0.11108609 -0.35396209 -0.07492416 -0.06294274 -0.05723819 -0.02666217
 -0.04850416  0.12691595 -0.17074773 -0.04121131  0.05193131  0.0799131
  0.00212115 -0.05487285  0.15568541 -0.01416807 -0.23500161  0.01526444
  0.14724223  0.24281399  0.24051178  0.02937585 -0.0038425  -0.09744921
  0.13452382 -0.18334232 -0.07899676  0.13002771  0.06939939  0.04089459
  0.05811075 -0.15050116 -0.00885946  0.07148267 -0.11822286 -0.0418128
  0.0608868  -0.10982447 -0.01471159 -0.09587995  0.21183498  0.03343323
 -0.12169801 -0.11140659  0.16042796 -0.12584038 -0.09205971  0.01718479
 -0.18262728 -0.16395636 -0.32489756 -0.06755891  0.3099539   0.07705559
 -0.1978284   0.06408695  0.02707688  0.01591091  0.1293139   0.17523324
  0.03327039  0.03345908 -0.08762588 -0.02206925  0.22899874 -0.07723203
  0.01832707  0.24451016 -0.0324165   0.05389427 -0.00114389 -0.02626505
 -0.04331182  0.01520901 -0.18206909 -0.02036556 -0.00994119 -0.00544546
 -0.01253187  0.11266072 -0.14236067  0.05092847  0.01911085  0.07174504
 -0.05297253 -0.0167636  -0.05018892 -0.0240583   0.10021911 -0.17937405
  0.18945062  0.19380654 -0.03380331  0.073504    0.08838308  0.04053539
 -0.03078221 -0.02543325 -0.16478477 -0.0563443   0.1070645  -0.06081289
  0.09467579 -0.01410212]