[-0.1082859   0.09778193  0.06121498 -0.06124881 -0.01930148 -0.07535777
  0.00145308 -0.17525952  0.13854599 -0.07792106  0.22201982 -0.09836015
 -0.20797355 -0.09944633 -0.02145714  0.2233374  -0.20309985 -0.11808705
 -0.05859175 -0.01827261  0.07580023  0.02310595  0.01227312  0.04405948
 -0.07023137 -0.32031789 -0.08495352 -0.0824296   0.01565894  0.00959991
 -0.01859585  0.08669457 -0.17944871 -0.0737467   0.05740878  0.02568356
 -0.00571811 -0.08048423  0.1722735  -0.03891817 -0.22764008  0.03363409
  0.1388458   0.20794311  0.17900695  0.03891767  0.0078349  -0.11903442
  0.12881432 -0.17800198 -0.04934282  0.0977824   0.06568612  0.04154418
  0.0534911  -0.15620635  0.00646767  0.08930063 -0.12877539  0.00416884
  0.06448066 -0.05488426 -0.02816915 -0.08629427  0.20019312  0.06540609
 -0.12083063 -0.14087112  0.12551522 -0.10641577 -0.08082282  0.04093648
 -0.15714218 -0.14600502 -0.28140947 -0.02679802  0.34940943  0.04635442
 -0.18296368  0.05186809 -0.02506209  0.02050168  0.12069654  0.12379866
 -0.01211541 -0.01201948 -0.06340493 -0.05503852  0.24138871 -0.05400836
 -0.01502481  0.21081217 -0.03973467  0.04508836 -0.02916656 -0.00236042
 -0.0720645   0.02707649 -0.1673318  -0.03722667  0.03065157 -0.00049749
 -0.01059223  0.14096346 -0.18214658  0.08477055  0.01860339  0.04726599
  0.01943665  0.03090493 -0.06872206 -0.01666391  0.08494751 -0.16187203
  0.21714237  0.17447616  0.0174156   0.06044775  0.09376343  0.04434304
 -0.00438255  0.02824933 -0.19582753 -0.06688408  0.14263621 -0.03585925
  0.06050218 -0.02400843]