[-0.13140824  0.12828904  0.12599328 -0.04598172 -0.07465348 -0.05182294
 -0.03073161 -0.16869655  0.12939376 -0.10353731  0.26221153 -0.12942745
 -0.2532905  -0.08448207 -0.06208904  0.28240725 -0.2246259  -0.13592526
 -0.03699076 -0.01783119  0.05555983  0.01488311 -0.01975603  0.02597415
 -0.08967578 -0.34348106 -0.07837891 -0.05008141 -0.03740672 -0.02378269
 -0.08694094  0.0873192  -0.18091579 -0.05351841  0.05229158  0.06396194
 -0.01944521 -0.06937597  0.13902655 -0.03806463 -0.22485875  0.03560638
  0.15883498  0.23182896  0.22498217  0.03982995 -0.01339908 -0.10129591
  0.09047953 -0.19378722 -0.07580623  0.1235608   0.06521296  0.05003206
  0.0608275  -0.16205077 -0.02206504  0.07598558 -0.08007363 -0.015766
  0.06386387 -0.09941876 -0.02459126 -0.08822827  0.21403527  0.03843748
 -0.13188307 -0.11849411  0.13139749 -0.11363921 -0.0755435   0.01434341
 -0.16539381 -0.1657055  -0.3194561  -0.05255293  0.34645483  0.05181051
 -0.21891652  0.06028392  0.02159828  0.01916096  0.14187939  0.17535663
  0.03638633  0.0104225  -0.09412556 -0.02683439  0.22940743 -0.09003808
  0.02700116  0.23667538 -0.03332246  0.03787204 -0.01919568  0.00488077
 -0.04299293  0.0062654  -0.17107034 -0.02481003  0.00514576 -0.00236459
 -0.03935566  0.11781912 -0.16250914  0.03931345  0.03147519  0.06275038
 -0.02590041 -0.01234869 -0.05179287 -0.02189996  0.09940199 -0.20373821
  0.17853312  0.21284194 -0.04227098  0.06311461  0.0867044   0.03480779
  0.002366   -0.00162008 -0.16708301 -0.06771752  0.09571528 -0.06218466
  0.0594593  -0.00979014]