[-0.10561317  0.10409021  0.08863091 -0.06964985 -0.01129671 -0.08825987
  0.00407316 -0.18941371  0.15071361 -0.10043476  0.25038388 -0.09591025
 -0.21977194 -0.12147725 -0.02885551  0.23733579 -0.21298747 -0.13237852
 -0.06159708 -0.01984018  0.07325662 -0.0024204   0.01263288  0.04490889
 -0.0850877  -0.32071245 -0.09116826 -0.06432106  0.00722446 -0.02024298
 -0.04185188  0.0899156  -0.18159293 -0.07639948  0.05410118  0.02856565
 -0.02232994 -0.078982    0.17407875 -0.0496146  -0.21805146  0.02572299
  0.12009621  0.22141516  0.19424602  0.04126161  0.01330208 -0.12555541
  0.13217323 -0.1860119  -0.04636499  0.11375471  0.06708965  0.04966151
  0.04366079 -0.15687439 -0.01171023  0.09434488 -0.11953242  0.00850205
  0.06822817 -0.0764935  -0.05530239 -0.09369305  0.18993698  0.06391066
 -0.14261562 -0.13970375  0.13517156 -0.1133154  -0.06805299  0.02953488
 -0.16735898 -0.16584583 -0.27906749 -0.04168586  0.33359489  0.06279527
 -0.19969293  0.04495744 -0.02984572  0.04067169  0.11610522  0.13989691
 -0.00721762  0.01943103 -0.06442855 -0.03759573  0.21885088 -0.06387856
 -0.01496886  0.2356092  -0.03477297  0.05075229 -0.02967814 -0.01460443
 -0.05815742  0.02502612 -0.17473738 -0.03185309  0.03276353  0.01368347
 -0.00952606  0.13280253 -0.15928061  0.10227957  0.02412984  0.07884636
  0.01756377  0.01911843 -0.07099666 -0.04355213  0.0798654  -0.17589512
  0.19904684  0.20023175  0.01513271  0.05917347  0.09216237  0.04619091
  0.01041294  0.01844336 -0.18759744 -0.05091098  0.13853019 -0.03585931
  0.06823231 -0.03376405]