[-0.11691101  0.08912595  0.07609497 -0.06882301 -0.03945983 -0.0986534
 -0.02518415 -0.19875318  0.14695537 -0.11106689  0.20930524 -0.09145182
 -0.22432494 -0.11162173 -0.04345923  0.24478106 -0.23286934 -0.15567102
 -0.06195967 -0.0214321   0.0691114   0.00702995  0.02849864  0.03218963
 -0.10014353 -0.34566697 -0.10540109 -0.06531573  0.00648983  0.00632892
 -0.0429075   0.10332859 -0.190768   -0.06518692  0.06784245  0.04247407
 -0.00808625 -0.05925008  0.1769715  -0.02947558 -0.23286656  0.04912687
  0.14998962  0.21823733  0.19771817  0.04996785  0.01100664 -0.13881187
  0.13174662 -0.1849907  -0.04851835  0.14065768  0.07775711  0.05513692
  0.06403833 -0.14839308  0.02465144  0.0901395  -0.14309861  0.01115646
  0.07658727 -0.06630241 -0.05511236 -0.06616794  0.17818247  0.06408825
 -0.12774749 -0.13607745  0.13038073 -0.11829903 -0.06194339  0.03230041
 -0.16411428 -0.17250714 -0.2767379  -0.0723727   0.33304748  0.06602909
 -0.19640151  0.06342111 -0.01413181  0.01784555  0.12592921  0.12643269
 -0.02393898  0.00850456 -0.07348543 -0.01125521  0.21663678 -0.06705628
  0.01466012  0.23763274 -0.00743776  0.05259232 -0.02491195  0.01266875
 -0.07771573  0.0172174  -0.18561266 -0.04211399  0.04327423  0.02216517
 -0.01065073  0.10208774 -0.15903166  0.09346631  0.02782614  0.0479652
 -0.01020281  0.0010359  -0.0594983  -0.02630855  0.07202783 -0.17515622
  0.21446684  0.20855184 -0.01765608  0.06536958  0.08722685  0.02599322
 -0.00762314 -0.0038074  -0.17001486 -0.06798428  0.13024066 -0.04432429
  0.06852118 -0.03189313]