[-0.1155972   0.13210736  0.12280659 -0.06299607 -0.07977487 -0.07546423
 -0.01012152 -0.16889568  0.15102707 -0.13114125  0.27481076 -0.14276372
 -0.24082117 -0.10802623 -0.04829507  0.27155805 -0.23628692 -0.1517989
 -0.03814187 -0.01388362  0.07429876  0.009847   -0.02620466  0.04322227
 -0.09086262 -0.35468087 -0.08627451 -0.05602053 -0.00640676 -0.03965616
 -0.05256103  0.10399332 -0.19578795 -0.06914011  0.04557438  0.06099761
  0.01057792 -0.08278916  0.15969896 -0.05687806 -0.23067306  0.03553767
  0.13524415  0.22948892  0.19563928  0.04191526 -0.00570749 -0.09012681
  0.10846751 -0.16657779 -0.07249659  0.13535146  0.06612827  0.02784405
  0.05088025 -0.16919808 -0.02623057  0.07174135 -0.11218281 -0.02406049
  0.08752604 -0.0918147  -0.01328383 -0.09880584  0.22670674  0.02706126
 -0.12377548 -0.12706183  0.17318861 -0.12545486 -0.05078106  0.00610674
 -0.18429112 -0.14165516 -0.2933172  -0.04678393  0.33436725  0.06481319
 -0.19820713  0.06898072 -0.00319981  0.03505255  0.1152169   0.16929196
  0.03823909  0.03219604 -0.08588658 -0.01222823  0.21807718 -0.06879209
  0.02228149  0.25462613 -0.03451502  0.02843483 -0.01813464 -0.06415378
 -0.04919056  0.00219465 -0.16306129  0.00414818 -0.01350598  0.00584717
 -0.03037089  0.14051192 -0.13998951  0.03265579  0.00773386  0.07289702
 -0.04257198  0.02291664 -0.07002027 -0.05725494  0.09661508 -0.18562368
  0.17958857  0.18765946 -0.02486527  0.06129517  0.08916511  0.0599553
  0.01568836 -0.00373952 -0.18121596 -0.06223003  0.11352974 -0.07429355
  0.08384866 -0.01236381]