[-0.1240377   0.12222373  0.12071861 -0.06292985 -0.07036247 -0.04953237
 -0.03708451 -0.17060125  0.13452768 -0.11288352  0.26934069 -0.12033021
 -0.26460418 -0.12168968 -0.07070135  0.28152737 -0.23335384 -0.15006953
 -0.01235676  0.00363313  0.0546001   0.00088797 -0.00388026  0.03613507
 -0.10938388 -0.3561314  -0.08603477 -0.06105871 -0.05876326 -0.03816876
 -0.07184769  0.0976995  -0.17498471 -0.03512325  0.03445729  0.05572921
 -0.00850282 -0.06782427  0.15342467 -0.04250323 -0.24745417  0.02531759
  0.13452858  0.22131978  0.21075216  0.0371097   0.00222639 -0.12666987
  0.11153678 -0.17310119 -0.03233221  0.12674393  0.0712308   0.03268418
  0.04272163 -0.17001711 -0.03857326  0.0809596  -0.08087008 -0.02646982
  0.06660386 -0.09190776 -0.01660841 -0.1165854   0.206778    0.0367779
 -0.13441049 -0.13240775  0.15487646 -0.11964533 -0.06981907  0.02832628
 -0.17266218 -0.1725062  -0.33161667 -0.04387276  0.29971287  0.06931873
 -0.20624116  0.05141882  0.00544923  0.03004777  0.11289554  0.18697496
  0.02974924  0.03013838 -0.08645022 -0.0411953   0.22529355 -0.08619174
  0.01266318  0.24384032 -0.0332456   0.05137563 -0.01570929 -0.02293504
 -0.04448947  0.01958035 -0.16438714 -0.00142461 -0.0149928   0.00380538
 -0.03697885  0.12128345 -0.14595881  0.04766808  0.02183816  0.06639641
 -0.02592337 -0.00300753 -0.06590827 -0.05475325  0.10518115 -0.20029114
  0.17856185  0.18995166  0.00347166  0.07655296  0.10832795  0.06349256
 -0.01544028 -0.01802917 -0.18078093 -0.03720066  0.13413006 -0.07296807
  0.08314496 -0.00547126]