[-0.14789501  0.11416771  0.11423028 -0.04664228 -0.076956   -0.07902041
  0.00952306 -0.17431757  0.13655266 -0.11132138  0.26400328 -0.08796311
 -0.25148192 -0.12114071 -0.03859819  0.26760149 -0.2344451  -0.15530376
 -0.03486017 -0.00829099  0.06592458  0.00448981 -0.01289694  0.06078303
 -0.08270886 -0.34875962 -0.09027509 -0.06900252 -0.02563449 -0.03137168
 -0.04753524  0.12640728 -0.19555758 -0.06840691  0.04141739  0.04724224
  0.00299863 -0.03327973  0.17715634 -0.03007807 -0.21246286  0.01584056
  0.14697291  0.24404649  0.19406888  0.05028374  0.01349785 -0.05965371
  0.09022991 -0.20040019 -0.0701333   0.12829939  0.10138627  0.03961477
  0.04513897 -0.19664302 -0.02259854  0.02902452 -0.11819284 -0.0043118
  0.0718163  -0.10350454 -0.03692736 -0.07325175  0.22649942  0.03052504
 -0.11755189 -0.13033591  0.16314985 -0.1359186  -0.06158955  0.02342087
 -0.19289388 -0.14634077 -0.30922943 -0.04194515  0.3307865   0.07293247
 -0.17957893  0.0580379  -0.0215823   0.02804744  0.08068582  0.13026707
  0.01413545  0.03431462 -0.08568594 -0.0036003   0.19513419 -0.05943609
  0.01679197  0.23958896 -0.00992727  0.03926639 -0.01761832 -0.05113983
 -0.01511859 -0.00184085 -0.16672269  0.01534149 -0.03755515 -0.00276352
 -0.00575953  0.11667363 -0.15519224  0.03964815  0.00379943  0.05535187
 -0.07275596  0.03891059 -0.11367303 -0.0446202   0.08463375 -0.1958975
  0.19672845  0.21858339 -0.03682445  0.05298882  0.0712679   0.04864969
 -0.00939594  0.00172737 -0.15679303 -0.06862552  0.13255906 -0.08417059
  0.0741771  -0.00873035]