[-0.10089346  0.09508392  0.07325993 -0.06404938 -0.0420027  -0.10300291
 -0.0100899  -0.17992114  0.13994995 -0.10996775  0.21070862 -0.08626222
 -0.22924118 -0.08634136 -0.03266538  0.22846845 -0.18506949 -0.14777289
 -0.08512675 -0.02456164  0.08636923  0.01142786  0.00132193  0.02481275
 -0.06998282 -0.32250589 -0.09887715 -0.04925208  0.01586228  0.00045871
 -0.05798937  0.08918493 -0.18209083 -0.07828259  0.07117876  0.04064317
 -0.00131986 -0.0712166   0.18328388 -0.02537748 -0.234569    0.0616319
  0.1210314   0.21876357  0.19434963  0.04287196  0.02342002 -0.13228577
  0.12780812 -0.18231575 -0.03676738  0.12666798  0.10259908  0.05621292
  0.0535939  -0.15665004  0.01491798  0.07620149 -0.13830145 -0.00287504
  0.09453385 -0.07769793 -0.04862697 -0.08721563  0.19418333  0.05643016
 -0.12870453 -0.14784589  0.13537836 -0.13209899 -0.06872878  0.02747316
 -0.16806482 -0.14483991 -0.2805365  -0.03288493  0.33979979  0.07918932
 -0.20439878  0.05445671 -0.02853023  0.03262611  0.12002818  0.12098616
 -0.01699981  0.01796717 -0.06920804 -0.02465346  0.23677213 -0.07163563
 -0.00846376  0.22587156  0.00066688  0.05685032 -0.02463941 -0.0032201
 -0.06008984 -0.00185908 -0.16687159 -0.01767316  0.02225265  0.00459308
 -0.01052866  0.13065863 -0.16139828  0.08957089 -0.0040973   0.05079672
 -0.01936451  0.01468481 -0.06430136 -0.04096305  0.06690446 -0.17193416
  0.19806108  0.20656347  0.00211848  0.04765913  0.08198845  0.03520129
  0.0099505   0.01616276 -0.186129   -0.07712459  0.13323981 -0.02825711
  0.06515369 -0.01656591]