[-1.18776917e-01  1.14568971e-01  8.28962550e-02 -5.17705083e-02
 -7.25000650e-02 -9.43567380e-02  2.84970482e-03 -2.01711610e-01
  1.24106646e-01 -1.09488748e-01  2.22181320e-01 -9.21923742e-02
 -2.43298396e-01 -9.37195495e-02 -3.37630734e-02  2.40409240e-01
 -2.08222032e-01 -1.54431388e-01 -7.48907253e-02 -2.75575165e-02
  8.74295458e-02  4.95316042e-03  7.90242106e-03  3.20260897e-02
 -8.23683888e-02 -3.06257248e-01 -1.02941334e-01 -6.23151176e-02
  1.15723750e-02 -6.99971011e-03 -6.59180805e-02  1.00063995e-01
 -1.81754425e-01 -8.18507075e-02  5.83260134e-02  3.02513335e-02
 -6.35415176e-03 -6.42458051e-02  1.65420651e-01 -3.23244892e-02
 -2.15957031e-01  5.74396253e-02  1.27252564e-01  2.21775278e-01
  1.88489825e-01  4.43984717e-02  2.12321971e-02 -1.01995371e-01
  1.02849059e-01 -1.98341697e-01 -4.77444492e-02  1.23002194e-01
  9.26220268e-02  5.46584092e-02  5.32165058e-02 -1.66239306e-01
 -1.66377390e-03  6.84773773e-02 -1.15449391e-01  2.54402049e-02
  9.71889868e-02 -8.38796571e-02 -4.90112901e-02 -7.96037391e-02
  1.93081722e-01  6.13213442e-02 -1.25445068e-01 -1.25937566e-01
  1.35338262e-01 -1.25590980e-01 -8.44920054e-02  1.86137948e-02
 -1.77414179e-01 -1.46478280e-01 -2.78820634e-01 -4.47131619e-02
  3.49107742e-01  9.15975794e-02 -2.06476837e-01  3.33897136e-02
 -2.34528463e-02  5.02821878e-02  1.21478692e-01  1.22754984e-01
 -9.87796392e-03  1.93347782e-02 -8.83080363e-02 -1.34663871e-02
  2.18022421e-01 -7.87664577e-02 -7.87685346e-03  2.65520275e-01
  9.94478632e-03  6.08797371e-02 -2.22592372e-02 -9.70087107e-03
 -3.45702134e-02 -2.07313653e-02 -1.67697206e-01 -2.05226894e-02
  2.04426851e-02  1.08642504e-03 -1.90342516e-02  1.30809352e-01
 -1.33658856e-01  6.13656640e-02  3.04621848e-04  7.42481276e-02
 -4.39207964e-02  2.06310973e-02 -7.48558939e-02 -3.58107500e-02
  6.43428639e-02 -1.66136160e-01  1.87240750e-01  2.27269039e-01
 -2.71999184e-02  3.15268114e-02  8.27347860e-02  2.34717894e-02
  1.49306105e-02  7.44245190e-04 -1.66654721e-01 -8.28397274e-02
  1.40599728e-01 -4.01560664e-02  5.03693186e-02 -1.02465665e-02]