[-0.12182959  0.13115166  0.10235677 -0.0567412  -0.08896334 -0.0523199
 -0.02920719 -0.16432129  0.13200383 -0.11029484  0.23917122 -0.10943004
 -0.24371235 -0.11847456 -0.05909383  0.26409802 -0.22730792 -0.16864806
 -0.0341651  -0.00050935  0.04990538  0.00884332 -0.0019764   0.02653358
 -0.11351907 -0.3507137  -0.09188987 -0.06715052 -0.05834809 -0.04241842
 -0.06142092  0.11007376 -0.1859809  -0.04703433  0.04548192  0.04937425
 -0.0114185  -0.0529847   0.14397456 -0.0371443  -0.24881406  0.04284352
  0.1418101   0.2406421   0.20735374  0.03908873  0.01339198 -0.10955732
  0.10226902 -0.14045097 -0.05126772  0.14616756  0.05755794  0.04038119
  0.04766908 -0.16200648 -0.02103262  0.06418698 -0.07405093 -0.01217431
  0.08410057 -0.09051874 -0.02319361 -0.10421411  0.1991493   0.01444374
 -0.12166524 -0.14973415  0.15271534 -0.1263455  -0.07322369  0.03007552
 -0.18957098 -0.17306539 -0.30885926 -0.04531938  0.32269964  0.07390913
 -0.18740521  0.07226362  0.00923423  0.02849123  0.10619133  0.19535427
  0.02251442  0.05323217 -0.08157549 -0.01760327  0.22874831 -0.0772244
  0.00817451  0.23338555 -0.02459723  0.03133051 -0.00739574 -0.03695283
 -0.03280889  0.02021531 -0.16289613  0.00631431 -0.01984284 -0.0268221
 -0.04348653  0.11293079 -0.12743109  0.0460228   0.02249133  0.08037607
 -0.06165244  0.02176174 -0.06992016 -0.05215684  0.094328   -0.20101359
  0.1901468   0.20432976 -0.00602295  0.06540336  0.10614341  0.07094207
 -0.00731092  0.00151259 -0.16751134 -0.05829672  0.11861394 -0.05649309
  0.08426651 -0.00091335]