[-0.10976622  0.10542534  0.08253146 -0.05846066 -0.0522963  -0.10235534
 -0.01446681 -0.18621884  0.13611405 -0.10992632  0.22529064 -0.09384276
 -0.23357248 -0.09332068 -0.03510747  0.23270285 -0.20364487 -0.15340216
 -0.08838524 -0.02289588  0.07527258  0.00362146  0.00715029  0.0307717
 -0.07459025 -0.33303413 -0.09379417 -0.05760765  0.01579601  0.00544018
 -0.05581209  0.09555526 -0.19529389 -0.07932147  0.05605554  0.0317239
  0.00646954 -0.06261814  0.17981037 -0.03809208 -0.23153245  0.05371289
  0.11415904  0.21505681  0.2013005   0.03280467  0.02404329 -0.11034553
  0.12277426 -0.19182248 -0.05184915  0.13052331  0.09760635  0.04578527
  0.04619231 -0.16115594  0.00487323  0.08436956 -0.12925641  0.00307586
  0.08753257 -0.08139756 -0.04765859 -0.08294891  0.19622181  0.05380814
 -0.12094907 -0.15278038  0.138943   -0.13125105 -0.05377699  0.03318523
 -0.17732139 -0.14719644 -0.2894145  -0.03539398  0.33931151  0.06914058
 -0.19888769  0.05264552 -0.0329092   0.03721336  0.1077793   0.10584614
 -0.0184819   0.01853647 -0.08474509 -0.02024561  0.23594657 -0.07077419
 -0.00311787  0.24208592 -0.00575242  0.05060733 -0.01973905 -0.01366273
 -0.04816972 -0.00745908 -0.16778894 -0.00121614  0.01351421 -0.00181794
 -0.01913079  0.12125551 -0.15098555  0.06640898 -0.01058629  0.06416862
 -0.03037109  0.01398343 -0.07482588 -0.05078154  0.08251014 -0.16656546
  0.19226183  0.21271591  0.0006354   0.04556667  0.0814799   0.02776776
  0.00198464  0.02035427 -0.17921185 -0.07071289  0.1376375  -0.04620912
  0.055493   -0.01548395]