[-0.12529808  0.12945187  0.12827857 -0.06070517 -0.09313246 -0.06523156
 -0.04456942 -0.19427554  0.13757505 -0.11657675  0.24651408 -0.11620885
 -0.25304818 -0.11022492 -0.05030305  0.26983941 -0.21569231 -0.16627927
 -0.04631379  0.00373013  0.02449309 -0.00150329  0.02265859  0.03715293
 -0.11423212 -0.37763441 -0.0818722  -0.05760958 -0.06766342 -0.01697425
 -0.06868043  0.1142738  -0.20862137 -0.03995116  0.04937869  0.06775589
 -0.00929641 -0.0548145   0.11761632 -0.04994633 -0.25064251  0.00744667
  0.14124984  0.21883953  0.19287327  0.00788056  0.01010414 -0.10605981
  0.09275995 -0.17188361 -0.04787249  0.11963575  0.06134086  0.02898808
  0.05164442 -0.16787615 -0.02069339  0.09785908 -0.09171221  0.00733272
  0.0680722  -0.10904508 -0.06839914 -0.10365126  0.22140574  0.07233317
 -0.13271983 -0.14646856  0.14400981 -0.10152853 -0.04387655  0.02814635
 -0.19508629 -0.17043114 -0.33607432 -0.06010763  0.3093946   0.0433497
 -0.21267787  0.03347676 -0.00771248  0.06285965  0.07343312  0.16709654
  0.00581597  0.04810989 -0.09350406  0.00064796  0.21549459 -0.089796
  0.01106896  0.24961375 -0.04326956  0.02571897 -0.02376455 -0.02197206
 -0.04948631 -0.01563226 -0.19182625 -0.02052734  0.00526833 -0.01217761
 -0.04751874  0.11867894 -0.15586777  0.02014154  0.02998237  0.05800341
 -0.01370804  0.00556265 -0.07042612 -0.08468699  0.10188349 -0.19141002
  0.19633508  0.20983528  0.01183496  0.06974097  0.08056403  0.03790335
 -0.01276295 -0.00313231 -0.13586333 -0.03732304  0.1254812  -0.06769975
  0.0475533  -0.01456105]