[-0.13811307  0.13478349  0.10574526 -0.06162424 -0.0908955  -0.05910849
 -0.03358795 -0.15550017  0.13348684 -0.10562737  0.23746069 -0.10389592
 -0.22942023 -0.11698108 -0.06030165  0.26738274 -0.23572998 -0.16132738
 -0.03979195 -0.00080521  0.05443378  0.00396677 -0.00412454  0.02121373
 -0.11009748 -0.35759088 -0.08235862 -0.05996352 -0.05584272 -0.03333957
 -0.04773729  0.11675801 -0.19286804 -0.05545522  0.04977676  0.06293475
 -0.00340853 -0.04187916  0.15265538 -0.04550241 -0.24720643  0.03800637
  0.15771154  0.23723637  0.20269807  0.04049592  0.00973117 -0.09558177
  0.1085173  -0.15660551 -0.06556036  0.14808305  0.05871515  0.0470037
  0.05495321 -0.15286995 -0.00436589  0.06666514 -0.08676266 -0.01645631
  0.08040045 -0.09543201 -0.02392424 -0.10070878  0.2084329   0.02451373
 -0.1189837  -0.14948139  0.1484113  -0.11868987 -0.07186011  0.02892672
 -0.18260044 -0.16832934 -0.31460732 -0.05214267  0.32080856  0.07695415
 -0.1860013   0.07308786  0.00923397  0.01596329  0.10291655  0.18354154
  0.01801024  0.05709425 -0.07451114 -0.01255172  0.23196447 -0.06606676
  0.01312048  0.23080277 -0.01626698  0.03547917 -0.01622142 -0.03887081
 -0.03220935  0.01411432 -0.17342408  0.00953635 -0.01825644 -0.02062154
 -0.03707224  0.11126746 -0.13534819  0.04270504  0.01675122  0.07769807
 -0.07053214  0.02482063 -0.06802001 -0.04295325  0.09207835 -0.19249004
  0.20194386  0.20954315 -0.01684303  0.06265751  0.10971599  0.05709312
 -0.00371526  0.00460124 -0.15674292 -0.06587683  0.11497076 -0.06735957
  0.08778504 -0.00110417]