[-0.1401891   0.10653897  0.12883092 -0.03907303 -0.08146813 -0.04067243
 -0.0292737  -0.16844837  0.12353774 -0.11040038  0.24806164 -0.12891559
 -0.24496432 -0.08504959 -0.04978909  0.2733019  -0.22425948 -0.14856207
 -0.02162113  0.00101299  0.05078317  0.00242905 -0.02176956  0.02978887
 -0.09896511 -0.33801204 -0.08731913 -0.05920324 -0.0435092  -0.02178086
 -0.09356556  0.09170461 -0.18667382 -0.0385674   0.03657128  0.06652673
 -0.00960923 -0.06754858  0.13472457 -0.03750192 -0.23420751  0.01633313
  0.14307027  0.21314898  0.20961963  0.03542988 -0.01038907 -0.0875399
  0.07196819 -0.17105922 -0.05686437  0.13245913  0.06793614  0.04633916
  0.02885781 -0.18028697 -0.03388014  0.05807842 -0.07434153 -0.00641862
  0.07824555 -0.08963941 -0.03067168 -0.09244216  0.20679684  0.04277457
 -0.12541804 -0.13805757  0.14329411 -0.11257472 -0.06270333  0.0134304
 -0.18067448 -0.17757867 -0.29371998 -0.05058159  0.32318944  0.05508859
 -0.21185432  0.058219   -0.00777067  0.02018745  0.11538094  0.16836117
  0.04936667  0.03905294 -0.09203101 -0.02921131  0.2173661  -0.08725762
  0.03444172  0.24129938 -0.03552613  0.01800422 -0.01325519 -0.01080686
 -0.02490643  0.01575753 -0.16560049 -0.02580591 -0.00489508 -0.02099641
 -0.0347958   0.10998444 -0.15943943  0.04843276  0.03519027  0.07548287
 -0.02564661 -0.00192379 -0.07996733 -0.04046964  0.11734676 -0.19749476
  0.16740189  0.20526211 -0.02440226  0.07224146  0.09860264  0.0734127
 -0.00252329 -0.00299063 -0.17552142 -0.05011702  0.10042371 -0.05900385
  0.05586556  0.0131864 ]