[-0.1360089   0.12928855  0.0963086  -0.05840491 -0.0636562  -0.07016061
 -0.03818742 -0.17255741  0.14259532 -0.12365659  0.25495598 -0.09688098
 -0.22796834 -0.12710552 -0.03436507  0.27486283 -0.25208983 -0.14942126
 -0.03843248 -0.01114344  0.04059403  0.00051977  0.00187556  0.04186086
 -0.11480957 -0.37271291 -0.09429174 -0.07974783 -0.0488216  -0.02118971
 -0.0463851   0.09838527 -0.19080046 -0.04363801  0.05096951  0.0371622
  0.00825436 -0.05625098  0.15429813 -0.00414471 -0.23115464  0.02799001
  0.14341746  0.23562835  0.2215883   0.04123171  0.00650976 -0.09444004
  0.11625635 -0.16019997 -0.06540175  0.12739617  0.0495747   0.03394337
  0.07850876 -0.16505693 -0.01591942  0.07039203 -0.11935931 -0.01807228
  0.06087729 -0.08879741 -0.0371067  -0.09019464  0.21416751  0.05018599
 -0.12931879 -0.11869883  0.16623607 -0.10470897 -0.04159342  0.02390937
 -0.17971857 -0.17998555 -0.29953042 -0.04779148  0.32712072  0.0946293
 -0.18315075  0.05574444 -0.00215895  0.01242464  0.10900646  0.17276935
  0.02846534  0.0220771  -0.05840183 -0.00931498  0.19784367 -0.04225589
  0.02157339  0.2514708  -0.05342452  0.01837731 -0.02652892 -0.03742564
 -0.06536897  0.00478552 -0.16207886 -0.02939888 -0.01583455 -0.00812627
 -0.01557531  0.10502457 -0.15286769  0.02953532  0.02505562  0.05994383
 -0.0526596   0.02476527 -0.06008444 -0.02836566  0.07829846 -0.2046417
  0.20300315  0.19688024 -0.02921035  0.07945002  0.08113042  0.04633283
 -0.0210768  -0.02210417 -0.15470219 -0.06190903  0.09989218 -0.05405534
  0.09392308 -0.02274938]