[-1.15544714e-01  9.30498689e-02  9.05880183e-02 -5.57939708e-02
 -5.48945777e-02 -1.01812564e-01 -1.58922782e-03 -1.87180504e-01
  1.21184550e-01 -1.04284190e-01  2.26807877e-01 -8.69070515e-02
 -2.28265867e-01 -1.13658801e-01 -2.77012475e-02  2.32874304e-01
 -2.06283256e-01 -1.58993468e-01 -5.99095225e-02 -2.31610285e-03
  8.99633542e-02 -8.64002388e-03  5.79817314e-03  3.75571176e-02
 -8.75300094e-02 -3.23453248e-01 -1.10156678e-01 -5.94433956e-02
  6.46146527e-03 -1.11802686e-02 -4.55383472e-02  9.79770347e-02
 -1.75906420e-01 -8.00656080e-02  5.09105138e-02  2.95537263e-02
  5.40935015e-03 -6.50536940e-02  1.75294563e-01 -3.04831415e-02
 -2.27745995e-01  4.79867123e-02  1.11569159e-01  2.30120465e-01
  1.97091207e-01  5.04374914e-02  2.60346215e-02 -1.03608966e-01
  9.96518061e-02 -1.96768209e-01 -4.07685712e-02  1.20532267e-01
  8.96049514e-02  5.07065952e-02  4.21062708e-02 -1.57347366e-01
  6.83564087e-03  6.86029866e-02 -1.31519735e-01  1.06610432e-02
  9.18877497e-02 -8.03826228e-02 -3.59842777e-02 -8.51567686e-02
  2.04726100e-01  4.62250896e-02 -1.35022163e-01 -1.25859573e-01
  1.40450105e-01 -1.20987810e-01 -7.50688836e-02  1.68528240e-02
 -1.76602975e-01 -1.47626743e-01 -2.82998085e-01 -3.64078656e-02
  3.29895109e-01  8.08407292e-02 -2.10113868e-01  4.13139537e-02
 -3.90932374e-02  4.82391529e-02  1.09201029e-01  1.17179804e-01
 -9.70020890e-04  1.65153295e-02 -8.10986310e-02 -2.63946485e-02
  2.13819221e-01 -6.64480254e-02  8.97223304e-04  2.52233475e-01
  1.68000907e-03  4.92760055e-02 -1.39037585e-02 -8.05004686e-03
 -3.32805589e-02  9.12374537e-03 -1.62162378e-01 -1.39837712e-03
  2.22553592e-02  4.12939070e-03 -4.68830531e-03  1.29729897e-01
 -1.46118075e-01  8.54713321e-02  2.79197632e-03  7.04069510e-02
 -2.42782831e-02  1.25377746e-02 -8.80640894e-02 -4.16152515e-02
  7.45982081e-02 -1.79106817e-01  1.91200629e-01  2.20775202e-01
 -3.21883522e-03  4.10464481e-02  8.57527107e-02  3.65117081e-02
 -9.09984155e-05  3.75897437e-03 -1.80226400e-01 -6.17633872e-02
  1.42546639e-01 -5.14340363e-02  6.04297332e-02 -6.54855883e-03]