[-0.1284449   0.11850178  0.09494311 -0.06509006 -0.05574994 -0.08307789
 -0.00769528 -0.17896585  0.12928045 -0.09325132  0.24975741 -0.10325622
 -0.23082025 -0.14169914 -0.04706858  0.24812153 -0.22779031 -0.16658346
 -0.05720538 -0.0114862   0.06315279  0.00827855 -0.01465859  0.04941652
 -0.09055355 -0.33740634 -0.09157133 -0.08311124 -0.0334422  -0.03775251
 -0.03398952  0.11334174 -0.19177245 -0.0618201   0.05142299  0.0407834
  0.00840379 -0.04694807  0.15026055 -0.04009453 -0.23674956  0.0254429
  0.15945196  0.23268674  0.21966176  0.05591541 -0.01256701 -0.09522247
  0.09134785 -0.14696385 -0.02840093  0.14096339  0.05553616  0.05383216
  0.05845873 -0.18505771 -0.01317738  0.04417896 -0.10831838 -0.02056757
  0.07658507 -0.09365375 -0.03075692 -0.08231571  0.20852697  0.03101964
 -0.11663719 -0.14325796  0.1669407  -0.13722187 -0.06226057  0.0310441
 -0.18871282 -0.13998775 -0.29480848 -0.03482698  0.32542551  0.06858221
 -0.18835071  0.06339317 -0.01950699  0.01634117  0.104459    0.14544256
  0.01611365  0.03038967 -0.07774591 -0.02914855  0.20771407 -0.04072125
  0.00823879  0.24240899 -0.03809416  0.00059857  0.00480634 -0.04686697
 -0.03631754  0.01013158 -0.17350881 -0.02188641 -0.01464464 -0.01712419
 -0.0314769   0.12152047 -0.13879618  0.03610729  0.03148878  0.07305416
 -0.05490825  0.02315099 -0.08468883 -0.05830751  0.09654226 -0.17766176
  0.21574345  0.18110543  0.01336846  0.05633708  0.09457483  0.07154073
 -0.01161476 -0.01562557 -0.16028504 -0.04662063  0.12790056 -0.05606503
  0.09084492 -0.00232577]