[-0.1224805   0.12643163  0.12190886 -0.06945313 -0.09000576 -0.08175477
 -0.02217556 -0.17222719  0.14529984 -0.13095808  0.27535498 -0.1345569
 -0.24559402 -0.12403315 -0.04255866  0.27008435 -0.25676799 -0.15601453
 -0.02917966 -0.01370828  0.07054382  0.00168862 -0.01386782  0.03354641
 -0.10986409 -0.37288895 -0.09283973 -0.06737531 -0.01139022 -0.04207894
 -0.03844258  0.1189926  -0.19416021 -0.06111451  0.04369777  0.05175864
  0.01111541 -0.072663    0.16956651 -0.04103991 -0.23188619  0.01560471
  0.12516722  0.2274628   0.20559099  0.04344599  0.00520438 -0.07474016
  0.10811062 -0.16658805 -0.0721978   0.14196298  0.07108127  0.02642077
  0.04946017 -0.16809279 -0.02577695  0.06117633 -0.12272102 -0.03398889
  0.08872555 -0.10316864 -0.01751179 -0.09099873  0.22682181  0.02942051
 -0.11466517 -0.12385982  0.19211914 -0.11692881 -0.04750484  0.00744923
 -0.19735152 -0.14327119 -0.28982842 -0.05938745  0.32814607  0.07176356
 -0.18449961  0.05649865 -0.01156702  0.03066819  0.10035604  0.15512733
  0.03227765  0.0351343  -0.07586285 -0.00105088  0.20853947 -0.07254951
  0.016252    0.24880229 -0.03242826  0.03508926 -0.01275064 -0.08375473
 -0.03964007  0.00297432 -0.15941973  0.00521033 -0.02233433  0.00498581
 -0.01859585  0.13384698 -0.1286274   0.03622701  0.01355809  0.06674119
 -0.06380837  0.02252413 -0.07566566 -0.05677178  0.09771251 -0.18280004
  0.18826871  0.19719149 -0.02194316  0.06719504  0.08235213  0.052088
  0.00158981 -0.01271932 -0.17129108 -0.06133721  0.11487841 -0.07057594
  0.09159438 -0.01523045]