[-0.10653186  0.09989045  0.08235144 -0.06128241 -0.0522305  -0.09414957
 -0.01125515 -0.19643638  0.14124233 -0.10708497  0.22751239 -0.07934021
 -0.22516914 -0.11006402 -0.04169903  0.23854017 -0.21020329 -0.15207058
 -0.07109269 -0.01777843  0.08066107 -0.00260612  0.01931175  0.03571408
 -0.08279362 -0.32314929 -0.10755479 -0.07264842  0.00910585 -0.00664614
 -0.04385135  0.08765607 -0.18182592 -0.075711    0.05014522  0.03375731
 -0.00286372 -0.06700268  0.18419689 -0.02877033 -0.22955278  0.04677024
  0.11529881  0.21855092  0.19159806  0.04099141  0.02874256 -0.11745536
  0.13228881 -0.17792068 -0.02709889  0.12151487  0.10547759  0.04727576
  0.04993748 -0.15751913  0.00461237  0.08873232 -0.13125621  0.00817081
  0.08560045 -0.07556297 -0.05135203 -0.08256794  0.19661225  0.06186933
 -0.12126839 -0.14666931  0.15488131 -0.11862719 -0.0706917   0.02984814
 -0.18128902 -0.14697485 -0.2823917  -0.04121821  0.33239388  0.06626764
 -0.20601419  0.03829865 -0.03644132  0.03703017  0.09909027  0.12477612
 -0.00573489  0.02107119 -0.08270805 -0.03428304  0.21929066 -0.08072285
 -0.00074617  0.24694017  0.00036189  0.04881944 -0.02145033 -0.01669339
 -0.0568411   0.0087033  -0.17023832 -0.0228901   0.01968188  0.01529346
 -0.0170915   0.11567616 -0.14921056  0.08167993  0.00331603  0.06113059
 -0.02442037  0.00598691 -0.07871123 -0.05378173  0.08779079 -0.16390242
  0.1937836   0.20562772  0.00064982  0.04849368  0.08490689  0.04365423
  0.00097466  0.00554218 -0.18552366 -0.0598302   0.14325596 -0.04904588
  0.05117014 -0.01358978]