[-1.44191608e-01  1.28664002e-01  1.15233973e-01 -4.41989377e-02
 -9.08284485e-02 -4.96612005e-02 -3.38630565e-02 -1.63697511e-01
  1.37768388e-01 -9.56471786e-02  2.55457610e-01 -1.10020913e-01
 -2.53120780e-01 -1.14319824e-01 -4.35926169e-02  2.59212196e-01
 -2.14966342e-01 -1.54672056e-01 -2.60680672e-02  1.34805962e-03
  3.98983248e-02 -1.02145399e-03  2.71735229e-02  2.87893359e-02
 -1.07495047e-01 -3.71018320e-01 -8.51537660e-02 -7.01439083e-02
 -5.27181700e-02 -1.81966424e-02 -6.57730699e-02  1.17137648e-01
 -2.02221751e-01 -5.49850278e-02  5.06998077e-02  6.04773834e-02
 -1.88676920e-02 -3.37955616e-02  1.47123724e-01 -4.16322425e-02
 -2.31102973e-01  1.49430605e-02  1.32535547e-01  2.39726186e-01
  2.02205330e-01  5.40989637e-02  2.66285613e-04 -9.16572139e-02
  7.91149288e-02 -1.64408997e-01 -4.94948961e-02  1.47831857e-01
  5.74532263e-02  2.26083491e-02  5.74500635e-02 -1.56362519e-01
 -1.50548192e-02  5.28070033e-02 -9.07175541e-02 -1.89368483e-02
  7.31456354e-02 -8.99229348e-02 -3.73626687e-02 -1.16695218e-01
  2.39324570e-01  3.60486545e-02 -1.20883942e-01 -1.33016169e-01
  1.44974068e-01 -1.05009511e-01 -5.40160052e-02  3.53063196e-02
 -1.96835354e-01 -1.71665832e-01 -3.12720835e-01 -4.75074351e-02
  3.18505615e-01  6.30723462e-02 -1.88537136e-01  6.56872541e-02
 -6.10265124e-04  2.39915233e-02  7.80351460e-02  1.67591587e-01
  6.85801217e-03  5.53417578e-02 -8.49034712e-02 -1.66509692e-02
  2.06920788e-01 -8.55342969e-02  1.43643646e-02  2.40274072e-01
 -3.48170139e-02  2.84934882e-02 -7.17518711e-03 -4.52976637e-02
 -3.73668484e-02 -7.21732248e-03 -1.87517628e-01 -2.38166098e-02
 -1.13065280e-02 -1.81580428e-02 -3.20899785e-02  1.09872676e-01
 -1.52697131e-01  2.49791164e-02  1.44991865e-02  6.09357730e-02
 -4.74420041e-02  5.24256518e-03 -8.10315758e-02 -5.93821183e-02
  9.88486037e-02 -2.04797611e-01  1.89913407e-01  1.94537878e-01
 -4.28085541e-03  6.75814375e-02  9.61193070e-02  5.42705953e-02
 -2.13157050e-02  1.58955213e-02 -1.47958845e-01 -5.41237667e-02
  1.26034126e-01 -6.78085983e-02  8.04529712e-02 -3.80551140e-03]