[-0.11054964  0.07814925  0.05932486 -0.07201412 -0.04738046 -0.1069557
 -0.02651518 -0.19618471  0.13413386 -0.1110334   0.20778158 -0.08843622
 -0.2337871  -0.10505762 -0.04245711  0.23629324 -0.24738143 -0.14989685
 -0.0483092  -0.02339994  0.06605093 -0.00148529  0.02416222  0.03735205
 -0.10710633 -0.33541095 -0.10102733 -0.0655966  -0.00723061 -0.00071128
 -0.03118476  0.10787503 -0.1921643  -0.0538469   0.06139791  0.04083992
 -0.00055054 -0.05152574  0.17681943 -0.02396023 -0.22780919  0.04759392
  0.13717018  0.22695599  0.19364737  0.04947245  0.00562295 -0.12438405
  0.13926995 -0.19929828 -0.06377977  0.13591337  0.07505453  0.04268084
  0.04807712 -0.14329903  0.02730997  0.08468771 -0.15621276  0.00385278
  0.07215127 -0.07092993 -0.04233102 -0.06646545  0.18220428  0.06245275
 -0.12605987 -0.12212642  0.12629947 -0.1310408  -0.06660642  0.02954492
 -0.15737519 -0.17768161 -0.28658715 -0.079475    0.31915721  0.07519763
 -0.18308519  0.05837643 -0.01609133  0.02496136  0.12880801  0.10651678
 -0.02693728  0.01733521 -0.08169414 -0.00269538  0.22647832 -0.07327112
  0.00887523  0.23610798 -0.0053917   0.05587059 -0.02014663  0.01121373
 -0.06962361  0.00962764 -0.18528426 -0.0277779   0.03708314  0.01287698
 -0.00257232  0.10487226 -0.1621943   0.08829903  0.02206327  0.03531493
 -0.02606991  0.00714888 -0.06763642 -0.02660406  0.0705331  -0.18363401
  0.21513967  0.21779262 -0.01810203  0.06540301  0.07176206  0.00846011
 -0.02984496 -0.01149777 -0.1594611  -0.07678949  0.1291018  -0.0363294
  0.07991057 -0.03726325]