[-0.14723882  0.09995383  0.09417263 -0.05900526 -0.06658772 -0.0789213
 -0.0321135  -0.16268796  0.132623   -0.11724011  0.25693884 -0.10788941
 -0.24155974 -0.12458558 -0.06386028  0.27602059 -0.25700375 -0.15073249
 -0.02621181  0.00108894  0.06966817 -0.01010626 -0.01881007  0.04557715
 -0.09984597 -0.35242113 -0.09472134 -0.06815404 -0.06218057 -0.02013918
 -0.04326702  0.10843369 -0.17627712 -0.04815114  0.03972889  0.04560631
  0.00981115 -0.04875169  0.16116937 -0.02739006 -0.2302804   0.01636302
  0.1456901   0.23178613  0.21543956  0.06206129  0.00318954 -0.10962772
  0.10991351 -0.18656312 -0.06117492  0.13591549  0.0720911   0.03360461
  0.05071284 -0.16418844 -0.00979708  0.04800401 -0.10630205 -0.02910941
  0.07311345 -0.09209135 -0.02454374 -0.10381774  0.22435676  0.04216363
 -0.1263658  -0.13075541  0.18025009 -0.13336916 -0.0801471   0.00881212
 -0.16974655 -0.17390667 -0.32079646 -0.05941888  0.31502882  0.09092768
 -0.187941    0.07228099 -0.0061475   0.01306567  0.11123271  0.1744169
  0.02140558  0.03563547 -0.07762888 -0.03205816  0.21398611 -0.06233671
  0.02637197  0.24518664 -0.01825655  0.03726035 -0.00569774 -0.04705222
 -0.03534305  0.02133302 -0.16876875  0.00352479 -0.01852528  0.00876739
 -0.00763943  0.11157427 -0.13209306  0.04509267  0.00657955  0.06389854
 -0.05600382  0.010032   -0.07899298 -0.04433037  0.08876617 -0.18471655
  0.17580143  0.18908586 -0.00355774  0.07254001  0.10089923  0.07028592
 -0.02119357 -0.01006559 -0.18726133 -0.04476572  0.11745375 -0.07246181
  0.08781847 -0.00066157]