[-1.47360712e-01  1.33348793e-01  9.64299366e-02 -6.90113381e-02
 -6.04754575e-02 -7.69012198e-02 -5.69579303e-02 -1.83670476e-01
  1.13216184e-01 -7.77429417e-02  2.52020687e-01 -9.93381739e-02
 -2.44905621e-01 -1.43299252e-01 -6.18280880e-02  2.73690075e-01
 -2.34423950e-01 -1.54118717e-01 -4.11038101e-02 -8.61800741e-03
  6.32304996e-02 -1.62858479e-02  6.67375047e-03  5.57088666e-02
 -1.04807831e-01 -3.32838863e-01 -6.38859123e-02 -7.92382360e-02
 -6.38386756e-02 -1.02260653e-02 -4.66554053e-02  8.71538743e-02
 -2.03266144e-01 -2.92353816e-02  5.61521426e-02  5.32319844e-02
  1.04453834e-02 -3.70059647e-02  1.55833751e-01 -3.99548821e-02
 -2.34603271e-01 -3.90363112e-03  1.60636649e-01  2.07344398e-01
  2.21010089e-01  4.33505774e-02 -1.23582780e-04 -9.82886031e-02
  1.06932499e-01 -1.92266628e-01 -4.01604436e-02  1.48129851e-01
  8.23239908e-02  1.80725902e-02  5.69605716e-02 -1.89023271e-01
 -1.17852222e-02  7.54392892e-02 -1.14679061e-01 -1.21295424e-02
  5.46359792e-02 -9.22509357e-02 -8.26116130e-02 -9.73708853e-02
  2.15380102e-01  7.08709881e-02 -1.50628313e-01 -1.23922825e-01
  1.54412314e-01 -1.01243295e-01 -4.98429723e-02  3.03466227e-02
 -1.81317732e-01 -1.85095221e-01 -3.32484573e-01 -6.49412498e-02
  3.11629802e-01  7.14108422e-02 -2.20934510e-01  5.39335608e-02
 -1.68456621e-02  4.82958220e-02  9.41341743e-02  1.31013662e-01
 -6.40732143e-03  3.53971273e-02 -8.75417814e-02 -2.48554256e-02
  1.92324013e-01 -7.19397664e-02  2.08054706e-02  2.43141934e-01
 -4.11844663e-02  2.45876145e-02 -3.16818506e-02 -1.92054063e-02
 -3.24866697e-02 -1.18368762e-02 -1.80132732e-01 -2.86066476e-02
  4.54051560e-03 -6.98631722e-03 -2.11177468e-02  9.38227773e-02
 -1.71357438e-01  4.74119047e-03  3.96771543e-02  5.73159344e-02
 -4.77225073e-02  8.06824886e-04 -9.22608972e-02 -4.83146496e-02
  1.01073347e-01 -1.84921190e-01  2.16569901e-01  2.01611906e-01
 -7.32712308e-03  6.87627122e-02  1.18850924e-01  4.25517708e-02
 -1.11745019e-02 -3.31523009e-02 -1.36299670e-01 -5.52089028e-02
  1.21952377e-01 -6.94731101e-02  8.41295049e-02 -1.32861529e-02]