[-0.12991932  0.11872985  0.10141744 -0.06786644 -0.05840911 -0.07225213
 -0.05006268 -0.17736058  0.12978369 -0.09611269  0.24463879 -0.11152574
 -0.22825257 -0.12016066 -0.0560728   0.26369616 -0.23832703 -0.16504425
 -0.03911982 -0.00280378  0.05594881 -0.00980398 -0.00806589  0.04056848
 -0.12130602 -0.34063578 -0.07115971 -0.06102758 -0.05840045 -0.00777164
 -0.05314711  0.10742074 -0.2142642  -0.02916357  0.06845932  0.05968725
  0.00395222 -0.03987053  0.1514508  -0.04218308 -0.23529795  0.01049049
  0.16381614  0.21646647  0.20665477  0.03433688 -0.0137924  -0.10816061
  0.11049099 -0.17282578 -0.04728014  0.15942805  0.07459434  0.03516918
  0.05704746 -0.17614204  0.0014714   0.06840019 -0.10259058 -0.00635398
  0.06677128 -0.10204678 -0.06173316 -0.10099943  0.20972744  0.04472395
 -0.13799855 -0.14879285  0.13459985 -0.09517004 -0.04903103  0.02373718
 -0.18141957 -0.17966597 -0.32914227 -0.06933224  0.29438198  0.05516592
 -0.2131428   0.08386286 -0.01188923  0.02834808  0.09380492  0.14345834
  0.00070996  0.04597141 -0.08748902 -0.00915152  0.21356021 -0.07687361
  0.03123008  0.23864856 -0.05653438  0.01829945 -0.03366394 -0.03001097
 -0.05394602  0.00497025 -0.17671716 -0.0239464   0.01153179 -0.00506526
 -0.02539519  0.10944032 -0.17757806  0.01804402  0.03242981  0.06445918
 -0.03383429 -0.00230158 -0.09431431 -0.05659368  0.09451726 -0.19683968
  0.21378718  0.18875858  0.00417732  0.06279907  0.11566841  0.03750315
 -0.01095899 -0.00590919 -0.15147486 -0.04358242  0.11600395 -0.06281423
  0.07324512 -0.00982252]