[-1.05728924e-01  1.06626891e-01  8.32884386e-02 -4.59927320e-02
 -1.63733922e-02 -9.87495109e-02  8.19682423e-03 -1.83977678e-01
  1.41141281e-01 -9.59828198e-02  2.36783266e-01 -1.03223279e-01
 -2.26369247e-01 -1.00139797e-01 -3.23392637e-02  2.41954789e-01
 -2.16089442e-01 -1.32070467e-01 -7.73260146e-02 -1.28067601e-02
  8.52045342e-02  8.04369058e-03  1.01174898e-02  3.39505896e-02
 -6.75631240e-02 -3.20998669e-01 -9.30412933e-02 -6.17105961e-02
  1.84815805e-02  2.50178942e-04 -5.33096194e-02  8.53763223e-02
 -1.77876398e-01 -8.64630640e-02  6.45316690e-02  2.75377929e-02
 -8.54979642e-03 -8.24825540e-02  1.94913581e-01 -3.55079770e-02
 -2.21338138e-01  4.62413840e-02  1.25061929e-01  2.15975791e-01
  1.95266753e-01  5.66994734e-02  2.08745059e-02 -1.29596710e-01
  1.30536005e-01 -1.97599813e-01 -3.48924696e-02  1.13349892e-01
  8.54419693e-02  5.70175946e-02  4.43372354e-02 -1.69009730e-01
 -1.63824018e-02  8.60614404e-02 -1.16078131e-01  8.33526283e-05
  8.07602629e-02 -6.31537065e-02 -3.63551639e-02 -8.32418203e-02
  1.92835227e-01  6.19511120e-02 -1.31577566e-01 -1.35623738e-01
  1.40198037e-01 -1.19298302e-01 -7.55211338e-02  2.07215771e-02
 -1.61407799e-01 -1.48035884e-01 -2.82128632e-01 -2.96241846e-02
  3.45352799e-01  5.14146797e-02 -1.91550866e-01  3.47542763e-02
 -2.58379821e-02  2.45324746e-02  1.15275122e-01  1.33277103e-01
 -1.29494043e-02  1.73331448e-03 -6.73124567e-02 -3.78563814e-02
  2.39306957e-01 -7.04707429e-02 -9.41744912e-03  2.31107026e-01
 -1.94192473e-02  5.13184182e-02 -3.39896493e-02 -9.11243074e-03
 -5.11346050e-02  2.30127033e-02 -1.68913767e-01 -1.71042681e-02
  3.14805619e-02  1.84604656e-02 -1.37358876e-02  1.39669761e-01
 -1.63590595e-01  7.65035599e-02  2.64140591e-03  5.69663309e-02
  2.23427080e-03  1.04006603e-02 -7.53338113e-02 -3.29902172e-02
  7.52616078e-02 -1.61346465e-01  1.97784364e-01  2.01369047e-01
  2.26708874e-03  4.92696762e-02  8.71573314e-02  4.32770178e-02
  2.44143587e-02  2.30704080e-02 -2.02326998e-01 -6.78951815e-02
  1.47376165e-01 -2.16362607e-02  5.46636358e-02 -2.15386171e-02]