[-0.11155818  0.11270296  0.08050681 -0.06302369 -0.04139262 -0.10302246
 -0.03619394 -0.1743443   0.15358002 -0.09330788  0.22604516 -0.0766746
 -0.23111336 -0.11309083 -0.03090127  0.23610087 -0.22395396 -0.15382577
 -0.0498809  -0.00337386  0.09517694  0.00276739  0.04281964  0.01913446
 -0.10299911 -0.36520243 -0.09351828 -0.05564211  0.01491684  0.01256056
 -0.05127974  0.09686408 -0.2113391  -0.08670963  0.06051436  0.04214342
 -0.00846857 -0.06735995  0.17276867 -0.0215273  -0.24146895  0.04908055
  0.11219906  0.2176652   0.19238061  0.04453492  0.02964091 -0.14179592
  0.11842351 -0.19587898 -0.0292875   0.13945799  0.06342701  0.06045129
  0.06093928 -0.148745    0.02000223  0.08976635 -0.1368964  -0.00877143
  0.07067221 -0.05158548 -0.0350741  -0.09484451  0.19859846  0.06610085
 -0.11935631 -0.14326681  0.11790252 -0.09616269 -0.06793295  0.04061143
 -0.16453341 -0.15715782 -0.29235181 -0.04960427  0.31916437  0.05855092
 -0.20145726  0.05915634 -0.02710339  0.01390795  0.10795911  0.12855099
 -0.01120105  0.03273944 -0.07835438 -0.01310575  0.22421959 -0.07608871
  0.00070112  0.24911697 -0.00943207  0.07027467 -0.01468062  0.02054566
 -0.08364165  0.0175282  -0.18550847 -0.04294832  0.05030769  0.02794108
 -0.02406363  0.12385541 -0.15567611  0.08280393  0.01127574  0.05551416
 -0.00562774 -0.00925904 -0.04743818 -0.04487818  0.05402693 -0.17111872
  0.22277084  0.2016789  -0.00357659  0.06407594  0.08497848  0.01553974
 -0.01098672  0.00262383 -0.17708461 -0.05759343  0.13734785 -0.03151354
  0.05532737 -0.02571772]