[-0.12142424  0.11728503  0.10246108 -0.07684778 -0.06845602 -0.04639466
 -0.04485388 -0.16579904  0.14632055 -0.1075989   0.23993538 -0.09599069
 -0.25231418 -0.10958763 -0.06778081  0.27280006 -0.23089169 -0.17238034
 -0.0545923  -0.01211614  0.03345216 -0.00250672  0.01251185  0.03194353
 -0.09215604 -0.35007289 -0.08022179 -0.05781445 -0.05897076 -0.00062184
 -0.0437381   0.10485383 -0.21942528 -0.02874047  0.04711649  0.04245747
 -0.00572657 -0.05548328  0.1468455  -0.04639744 -0.22581075  0.01008578
  0.14611968  0.21287099  0.19232266  0.03821283  0.00041893 -0.10751839
  0.08711987 -0.15369929 -0.05315334  0.14349148  0.06186148  0.02249738
  0.06184585 -0.1850581  -0.00855102  0.07995933 -0.07441091 -0.01820489
  0.04484753 -0.08703166 -0.06134545 -0.12565129  0.23533057  0.04241793
 -0.1329648  -0.16632628  0.15170988 -0.08746643 -0.04643437  0.03446555
 -0.1907775  -0.15791468 -0.31894875 -0.06060941  0.29487503  0.03988796
 -0.19911353  0.07602819 -0.00426786  0.03458246  0.0771138   0.15467769
 -0.01159928  0.05009924 -0.09190127 -0.02340861  0.20992242 -0.077342
  0.00763746  0.22724037 -0.05558533  0.01426217 -0.02981354 -0.04123599
 -0.04797415  0.01331436 -0.18594036 -0.01478555  0.01010756 -0.00170201
 -0.04581591  0.10500318 -0.14107776 -0.00252722  0.01733629  0.06384878
 -0.04104564  0.00536299 -0.10242335 -0.06309146  0.10586862 -0.20208143
  0.20199549  0.18766503  0.0026249   0.06076885  0.11919457  0.05793118
 -0.02215992  0.00958461 -0.17035042 -0.04519822  0.1347432  -0.06803711
  0.07794883 -0.00211442]