[-0.12057903  0.13258956  0.11938854 -0.06633522 -0.08768757 -0.0471806
 -0.04904008 -0.19004059  0.13724311 -0.11120971  0.24447866 -0.10258085
 -0.24888359 -0.10938419 -0.04478657  0.25911301 -0.2294526  -0.17267999
 -0.03872652  0.00549188  0.0242197  -0.01118956  0.02094522  0.03193865
 -0.11954681 -0.37572318 -0.08582839 -0.06168934 -0.06122206 -0.00988292
 -0.05473864  0.10621883 -0.21453266 -0.03479269  0.04608117  0.0706254
 -0.00542718 -0.0497475   0.11969769 -0.05694818 -0.23969899  0.01136372
  0.13806374  0.21774879  0.19326694  0.00191486  0.01030699 -0.10900613
  0.08857315 -0.16584504 -0.04494417  0.11974125  0.05922735  0.04005958
  0.03952914 -0.16868685 -0.01411912  0.08728456 -0.09369297  0.00752956
  0.0643689  -0.11210799 -0.06890243 -0.11109908  0.22060822  0.06927893
 -0.12588036 -0.17462268  0.13200612 -0.10269624 -0.04596151  0.0363626
 -0.19431712 -0.16445053 -0.33562428 -0.05171307  0.30469945  0.04555108
 -0.2102906   0.0429722  -0.00891216  0.04782517  0.06300332  0.16058774
  0.00215686  0.06022627 -0.09566227  0.00976306  0.21789157 -0.09235951
  0.00878431  0.24304198 -0.04996355  0.03258996 -0.01343291 -0.01760467
 -0.05204996 -0.00324707 -0.19809961 -0.02296722  0.00940239 -0.01470275
 -0.04013986  0.1139614  -0.14900248  0.02960056  0.02198248  0.05591931
 -0.01623381  0.00248224 -0.08079781 -0.08330681  0.12140806 -0.19242698
  0.20077775  0.20669924  0.02193118  0.07025146  0.09205504  0.04698448
 -0.02642539  0.0080226  -0.14278764 -0.02431227  0.12110683 -0.06784707
  0.05485134 -0.01297138]