[-1.19517900e-01  1.16017215e-01  8.91676396e-02 -4.44977731e-02
 -1.38293505e-02 -1.03358962e-01  1.63187291e-02 -1.85413286e-01
  1.28527656e-01 -9.07246843e-02  2.45819956e-01 -9.29103419e-02
 -2.11824656e-01 -1.31868824e-01 -1.89026911e-02  2.32574388e-01
 -2.08064184e-01 -1.21034913e-01 -7.50461370e-02  6.16683112e-03
  8.02659020e-02 -4.73702466e-03  2.97123380e-02  3.32197621e-02
 -5.91636710e-02 -3.30297321e-01 -9.87403095e-02 -7.52060860e-02
  1.57561805e-02 -1.04515720e-02 -5.39431274e-02  7.49592558e-02
 -1.74213499e-01 -9.82542261e-02  5.25556318e-02  2.28504390e-02
 -1.58375185e-02 -6.14408031e-02  1.84332207e-01 -3.40025313e-02
 -2.17909053e-01  4.80979457e-02  1.20677769e-01  2.27493331e-01
  2.05196723e-01  6.47882447e-02  2.99015641e-02 -1.20812275e-01
  1.22939132e-01 -2.04449296e-01 -2.53316145e-02  9.02178511e-02
  9.40813050e-02  4.55912501e-02  6.03032075e-02 -1.66067421e-01
 -1.26291290e-02  7.65582472e-02 -1.36295736e-01  1.27005698e-02
  7.43298158e-02 -4.90912497e-02 -3.68531533e-02 -6.17373474e-02
  2.06435010e-01  8.49031582e-02 -1.28265172e-01 -1.34776205e-01
  1.50478110e-01 -1.24994032e-01 -6.57500252e-02  3.13220546e-02
 -1.58760279e-01 -1.48262694e-01 -2.87702620e-01 -2.94416435e-02
  3.45057458e-01  6.20259047e-02 -1.91425830e-01  1.16367862e-02
 -4.58201766e-02  2.93750353e-02  1.07557394e-01  1.24270342e-01
 -2.36859582e-02  9.66730353e-04 -7.14358166e-02 -4.55282032e-02
  2.19693378e-01 -6.34365976e-02 -1.89475100e-02  2.32380018e-01
 -6.87790615e-03  4.06285189e-02 -2.95383539e-02 -1.94303002e-02
 -5.01711369e-02  1.74752511e-02 -1.80120856e-01 -2.81378217e-02
  1.54551938e-02  4.31592623e-03 -9.96899512e-03  1.48529589e-01
 -1.72490478e-01  7.71470219e-02 -2.57476786e-04  4.94627617e-02
 -6.96285581e-03  1.74464118e-02 -7.32081309e-02 -3.09093054e-02
  6.18279539e-02 -1.69395790e-01  2.00158834e-01  2.10808828e-01
  6.26963889e-03  4.40652780e-02  7.88147748e-02  3.41326855e-02
  2.37075780e-02  2.25641113e-02 -1.83067888e-01 -5.98757043e-02
  1.37879059e-01 -2.80237775e-02  5.57941198e-02 -2.00719126e-02]