[-0.14650576  0.10583784  0.07716125 -0.01984062 -0.01369178 -0.045566
 -0.01159688 -0.17112359  0.14508548 -0.08805674  0.25175762 -0.08207388
 -0.24055067 -0.13944118 -0.03422814  0.22406156 -0.21668239 -0.13550232
 -0.03772297  0.00125665  0.0302517  -0.02824517 -0.00197112  0.03405328
 -0.07426976 -0.33949289 -0.05943701 -0.07828287 -0.0024525  -0.02990562
 -0.08485981  0.09386846 -0.20676409 -0.07841862  0.0317564   0.06428853
 -0.00095287 -0.00402623  0.14637852 -0.05934179 -0.20462684 -0.00157533
  0.06257384  0.22252622  0.20051666  0.09543852 -0.0191333  -0.13288638
  0.08081808 -0.18327475  0.01127971  0.1270545   0.07628229  0.0243196
 -0.00143208 -0.18922798 -0.02999735  0.03092698 -0.10115253 -0.01698953
  0.08778971 -0.08810138 -0.04577162 -0.08324379  0.20952192  0.04192389
 -0.10668045 -0.12311739  0.18895178 -0.11625864 -0.03410747  0.00813237
 -0.13978255 -0.1867187  -0.31089684 -0.00116451  0.33970493  0.09528197
 -0.18163131  0.04980897 -0.05912704  0.03722556  0.12295246  0.11529227
 -0.01305568  0.00090276 -0.06337185 -0.03230505  0.18957487 -0.04330807
 -0.01578066  0.19139211 -0.03833539  0.03626362 -0.00323375 -0.03313389
  0.00170702  0.04763831 -0.17125808 -0.00285388  0.01444053 -0.01112696
  0.01000947  0.14038086 -0.16205244  0.06546103  0.03459851  0.06744149
  0.05137292  0.03344933 -0.09613923 -0.08752754  0.10624053 -0.21878651
  0.21522117  0.20494096  0.03669797  0.09765158  0.08960381  0.10063472
  0.01176663  0.00402552 -0.21852104 -0.04183748  0.1419241  -0.04119806
  0.066907    0.02342572]