[-0.13731824  0.09665304  0.09284578 -0.05340503 -0.06337474 -0.06596024
 -0.02358687 -0.16402809  0.13980046 -0.11830347  0.26637885 -0.10604169
 -0.24270311 -0.12335362 -0.05853644  0.27384013 -0.26331052 -0.15247627
 -0.02834571 -0.00321824  0.06323072 -0.00945234 -0.02357027  0.04416802
 -0.10102389 -0.35843149 -0.09252098 -0.07265328 -0.05425748 -0.03026275
 -0.04497738  0.10708541 -0.17952649 -0.04584384  0.04276817  0.03929519
  0.00345549 -0.04944545  0.16384971 -0.02544965 -0.22349487  0.02380846
  0.14186309  0.23568045  0.21598087  0.06046494 -0.00457662 -0.1106562
  0.10493797 -0.1819858  -0.05461417  0.13603388  0.07142401  0.03628252
  0.04344221 -0.16706224 -0.02414891  0.0438243  -0.11045509 -0.02175952
  0.07981239 -0.09699416 -0.03271199 -0.10501961  0.21976323  0.03984978
 -0.12785237 -0.141984    0.17508371 -0.13664621 -0.07386049  0.01093652
 -0.17061479 -0.17469232 -0.31387922 -0.05292327  0.31407315  0.08643236
 -0.1871766   0.06425367 -0.01137546  0.01166988  0.10904153  0.16978826
  0.02917858  0.02785836 -0.07490209 -0.02663007  0.20913425 -0.05826506
  0.02292404  0.24969089 -0.02870227  0.02914538 -0.00899234 -0.04896837
 -0.03694676  0.022549   -0.16927992 -0.00410096 -0.02460256  0.01141577
 -0.00473848  0.11330984 -0.13282813  0.04901239  0.00614865  0.06597488
 -0.04357889  0.00862926 -0.08758932 -0.04911571  0.09632757 -0.19730529
  0.17690812  0.18786639  0.00956077  0.06930516  0.09443491  0.06813367
 -0.02184573 -0.00925653 -0.19982597 -0.03579995  0.11199684 -0.06997224
  0.08429141 -0.00495766]