[-0.10961407  0.11854362  0.09879377 -0.01140584 -0.1271233  -0.03485633
 -0.01473316 -0.15687422  0.09462944 -0.05412314  0.36455414 -0.00283267
 -0.21568151 -0.16360247  0.00261363  0.15695888 -0.17531183 -0.1499196
 -0.05889628 -0.03561915  0.02372013 -0.02591354  0.03515361 -0.0018117
 -0.08145944 -0.30329075 -0.08360405 -0.09783161  0.0535092  -0.06886575
 -0.05151438  0.06994283 -0.1875577  -0.10969026  0.06982353  0.05782862
 -0.04331052 -0.01178904  0.18065304 -0.05893086 -0.20083594  0.02288576
  0.05997739  0.21736164  0.24182986  0.05831724  0.00393952 -0.08355834
  0.09264906 -0.14900905  0.03023403  0.14178871  0.16682938  0.01473792
  0.02728688 -0.17789651 -0.01353644  0.11991161 -0.14477031 -0.05568156
  0.0435711  -0.15352313 -0.01563392 -0.07158854  0.19820054  0.05927718
 -0.07351365 -0.16153707  0.16688739 -0.10836373 -0.06798685  0.11319362
 -0.18978211 -0.13620174 -0.29854122 -0.00238243  0.41652867  0.04995644
 -0.1887608   0.00502105 -0.02925253  0.00093057  0.05773824  0.10171177
 -0.02483365 -0.04105265 -0.11841106 -0.05519444  0.16874251 -0.06503741
 -0.02795256  0.14863871 -0.02238479  0.05561005  0.06199228 -0.03209571
 -0.01004047  0.00618124 -0.12477405 -0.03017412 -0.11255522 -0.06063156
 -0.03108811  0.09140529 -0.14189278  0.04566697 -0.00512772  0.0418555
 -0.07375899 -0.06955101  0.00925176 -0.04411217  0.10254484 -0.27858657
  0.21134754  0.20207651 -0.00591996  0.12007435  0.04780575  0.04691723
 -0.03721388 -0.02875347 -0.17879283 -0.04910318  0.07191689 -0.09079851
  0.09004216 -0.01616573]