[-8.56232643e-02  1.32513806e-01  7.53996298e-02  6.33066613e-03
 -6.76068962e-02 -2.52719205e-02 -4.42801155e-02 -1.68117389e-01
  8.49062577e-02 -5.88163100e-02  3.11794758e-01 -2.24037357e-02
 -2.08284184e-01 -1.25550374e-01 -2.34975182e-02  1.58706710e-01
 -1.99099422e-01 -1.13223948e-01 -8.59155655e-02  5.20339562e-03
  5.82618415e-02  3.03884391e-02  3.95148620e-02 -3.42425629e-02
 -2.36451812e-02 -2.83098459e-01 -1.03630498e-01 -6.67881072e-02
  7.42674023e-02 -3.07983365e-02 -8.18915293e-02 -1.80798955e-02
 -2.06028938e-01 -1.31176442e-01  8.17600042e-02  4.84294109e-02
 -1.07500935e-02 -3.16582508e-02  1.49471387e-01 -3.39282826e-02
 -1.90318376e-01  6.86500818e-02  9.27309692e-02  1.97854206e-01
  2.13155076e-01  7.67647475e-02 -7.42962910e-03 -1.46168232e-01
  8.44457671e-02 -1.04916334e-01  2.41741445e-02  1.36616752e-01
  1.77358061e-01  6.62483424e-02  3.08369584e-02 -1.68761879e-01
 -8.86932481e-03  9.70552713e-02 -8.40920433e-02 -2.04872657e-02
  8.74031782e-02 -5.78774773e-02  2.29867864e-02 -6.82116076e-02
  1.84080541e-01  2.62758378e-02 -9.66227502e-02 -2.08597139e-01
  9.46150571e-02 -1.03063107e-01 -1.18974768e-01  7.04919919e-02
 -1.60743535e-01 -1.15094677e-01 -3.17015141e-01 -2.12772898e-02
  3.93284172e-01  3.39875519e-02 -2.12660819e-01  2.55958624e-02
 -4.74725924e-02 -2.55760457e-02  7.46010467e-02  1.33975819e-01
 -8.67502019e-03  2.80515309e-02 -9.70521495e-02 -5.84007204e-02
  1.99953899e-01 -7.34332576e-02 -3.46855707e-02  1.58993766e-01
 -4.20793481e-02  7.61728957e-02  4.44638208e-02  1.36698326e-02
 -3.43142599e-02  2.33047251e-02 -1.32680833e-01 -3.70011851e-02
 -6.20907545e-02 -4.92467172e-02 -2.22302582e-02  1.01952232e-01
 -1.32989123e-01  6.60895631e-02  1.49232903e-04  6.11524247e-02
 -2.95334812e-02 -3.17419022e-02 -2.88937744e-02 -1.40279979e-02
  1.06417589e-01 -2.52719492e-01  2.52408773e-01  1.90408722e-01
 -1.69775297e-03  7.49410018e-02  9.73318815e-02  8.44998285e-02
 -2.09241882e-02  3.34944054e-02 -1.82780072e-01 -9.47386846e-02
  3.82797085e-02 -4.78446595e-02  9.79842320e-02  2.63679842e-03]