[-0.09869855  0.17944162  0.10029516  0.02685263 -0.06981697 -0.00719068
 -0.03625452 -0.09317342  0.11027267 -0.00284836  0.32511356 -0.03463101
 -0.20794821 -0.09584987 -0.0558255   0.11965425 -0.1901426  -0.04258204
 -0.14810959 -0.03392898  0.04929438  0.02684414  0.03767702 -0.00245656
 -0.04059292 -0.32202283 -0.04728951 -0.07915445  0.10632253 -0.12839523
 -0.07304697 -0.04442791 -0.18550013 -0.11503035 -0.00575713  0.02851564
 -0.03623591 -0.05055118  0.16603935 -0.06204273 -0.15991665  0.01721818
  0.04503608  0.22857177  0.22903951  0.0819505  -0.03651166 -0.12368107
  0.11015721 -0.20535338  0.04822727  0.14916019  0.13049017  0.07798465
  0.04438636 -0.12898065 -0.01743448  0.08198919 -0.11273932 -0.00962683
  0.06209967 -0.07346725 -0.03373772 -0.10732247  0.16770603  0.1033885
 -0.05969175 -0.17978679  0.08465675 -0.15926675 -0.07103274  0.09010509
 -0.06834819 -0.12616675 -0.2884981  -0.00615838  0.39089993  0.0826221
 -0.22936098 -0.02692949 -0.09592087 -0.04364613  0.10891306  0.04161573
 -0.06401651 -0.00904636 -0.12567483 -0.01825195  0.20207766 -0.07291143
 -0.0136923   0.18558183 -0.00538656  0.04066746  0.05345702  0.01871835
 -0.06149978  0.05661611 -0.0983656   0.01131284  0.0556676  -0.08044595
 -0.01262297  0.03682659 -0.16324194  0.11245274  0.02695086  0.05745491
  0.08450294 -0.06906453 -0.07940628 -0.03175564  0.21052663 -0.25103492
  0.25253037  0.15866631 -0.01341066  0.10910419  0.07240074  0.12611333
 -0.04860384  0.00056383 -0.15514076 -0.06414931  0.04132381 -0.07436362
  0.04712226 -0.00744823]