[-0.03779338  0.16139778  0.07235276 -0.00884571 -0.01242597 -0.10423648
 -0.08759072 -0.12386556  0.14722319 -0.02353927  0.27617756 -0.00666981
 -0.19622645 -0.10944817 -0.04556334  0.13655105 -0.23762392 -0.08401417
 -0.01183106 -0.0554638   0.09089278  0.03471478  0.06342188 -0.00588321
 -0.08691748 -0.31579071 -0.10827241 -0.1475201   0.09646471  0.01855595
 -0.03027489 -0.04202246 -0.18541887 -0.10392522  0.05507975  0.01019596
 -0.00958556 -0.01932899  0.17011359  0.03991563 -0.14710875  0.00913604
 -0.04108759  0.25281718  0.18120822  0.09788698  0.05508031 -0.16938126
  0.04792788 -0.16183069  0.06652302  0.18232124  0.06015326  0.09511683
 -0.01665006 -0.19443361  0.04478428  0.05958916 -0.17427114 -0.01821465
  0.09173947 -0.00554556 -0.01281628  0.00989315  0.25510809  0.05134013
 -0.13507503 -0.13618447  0.11848718 -0.12137762 -0.05700263  0.04630006
 -0.13364017 -0.14208575 -0.31296176  0.02608081  0.43488392  0.05296174
 -0.20827399  0.00435494 -0.16776116  0.01206065  0.11886511  0.06540015
 -0.07007761  0.03818882 -0.11306099 -0.03347534  0.15438841 -0.09816685
 -0.05406919  0.19771369 -0.01956799  0.10304808  0.05922672  0.0767557
 -0.07027597  0.03406209 -0.11222857 -0.03023935  0.05797246 -0.04726402
 -0.03042581  0.10713219 -0.19844304  0.13295524  0.05537982 -0.02242122
 -0.0051159  -0.0181041  -0.08934117 -0.07911643  0.17985664 -0.22591148
  0.27241239  0.23105252  0.06628218  0.16966628  0.09175988  0.0601888
 -0.07619868 -0.06445638 -0.16164684 -0.04971062  0.00817167  0.00370636
  0.04356102 -0.00102053]