[-5.33522144e-02  1.28725782e-01  1.01407044e-01  3.10282912e-02
 -9.88904163e-02  1.05221197e-02 -2.84287566e-03 -1.45318314e-01
  7.51885176e-02 -4.44808826e-02  2.81748533e-01 -4.08948436e-02
 -2.02801988e-01 -1.27963826e-01 -7.68587459e-03  1.28195763e-01
 -1.93239868e-01 -1.39183477e-01 -1.00577474e-01  1.07800551e-02
  1.34734632e-02 -1.25463651e-02  3.88132744e-02 -4.43990417e-02
 -5.55841401e-02 -3.15281123e-01 -9.25466418e-02 -2.80635413e-02
  1.08593896e-01 -4.97706756e-02 -1.17909871e-01  1.43440021e-02
 -2.20912337e-01 -1.25608459e-01  4.98796627e-02  3.81486230e-02
 -4.59768511e-02 -2.27370467e-02  1.48703977e-01 -8.19269866e-02
 -2.00309023e-01  5.57343960e-02  9.25422385e-02  2.13185772e-01
  2.29812726e-01  9.58205312e-02 -5.36938980e-02 -5.95902391e-02
  6.54185712e-02 -1.61665872e-01  6.44759163e-02  1.44869760e-01
  1.83118448e-01  6.69202358e-02  4.27197991e-03 -1.64742276e-01
 -1.77781973e-02  1.23307541e-01 -1.05087414e-01 -2.00856719e-02
  7.59896711e-02 -1.08035006e-01  2.26393025e-02 -6.37779906e-02
  1.90161332e-01  7.34880194e-02 -4.67903093e-02 -2.09601626e-01
  1.23501040e-01 -1.33127928e-01 -5.61460145e-02  4.86770347e-02
 -1.26287401e-01 -9.71926004e-02 -2.97490209e-01 -2.36305315e-02
  3.46550673e-01  5.11531942e-02 -2.03872800e-01 -1.20553318e-02
 -5.44976294e-02  1.58471968e-02  8.77371654e-02  4.97519933e-02
 -5.45145534e-02 -1.03982007e-02 -1.41986996e-01 -6.21760897e-02
  1.99317321e-01 -6.52906448e-02 -3.37308906e-02  1.52183563e-01
 -4.15397435e-03  2.31195111e-02  7.20186755e-02 -2.67548319e-02
 -1.54545931e-02  3.53744403e-02 -1.63871393e-01  1.33671286e-02
 -6.38026521e-02 -8.01128969e-02 -3.40575390e-02  1.20247141e-01
 -1.47204503e-01  8.65211710e-02  1.34104853e-02  6.81339428e-02
  8.14888813e-03 -5.63095026e-02 -5.13095148e-02 -5.32045960e-02
  1.23295546e-01 -2.86252320e-01  2.29320690e-01  1.90279067e-01
 -3.98598604e-05  9.09595639e-02  6.09332733e-02  8.16573128e-02
 -2.39127260e-02  1.56986639e-02 -1.89767703e-01 -7.32126012e-02
  7.17375353e-02 -1.03286229e-01  6.88532144e-02  4.10949439e-02]