[-0.11270095  0.12013074  0.04574641 -0.00530355 -0.07218804 -0.03652111
 -0.02634392 -0.16927607  0.09810252 -0.04413665  0.29771692 -0.01583823
 -0.21351336 -0.15341848 -0.03255425  0.14303486 -0.19425602 -0.12536018
 -0.0652203  -0.0362621   0.06035703  0.0131794   0.03789429 -0.02230751
 -0.05546838 -0.28327855 -0.11209939 -0.08876858  0.01554917 -0.02183263
 -0.03032403  0.0170647  -0.20855904 -0.12576681  0.06969621  0.05798452
 -0.00253795 -0.01966839  0.16297944 -0.036007   -0.15665255  0.04149498
  0.1180779   0.21357368  0.22368193  0.06349617 -0.01292853 -0.11292548
  0.08052818 -0.08906177  0.00612767  0.13726084  0.17379169  0.05846955
  0.04040283 -0.15390176  0.0093097   0.08366372 -0.07258383 -0.04669275
  0.05423681 -0.07960471 -0.00533415 -0.05851281  0.20301507  0.03581212
 -0.07179379 -0.19459713  0.11695534 -0.11543783 -0.13870262  0.07887325
 -0.18068875 -0.10642355 -0.32442281 -0.02903584  0.38587314  0.04261781
 -0.21448068  0.02312038 -0.04161997 -0.00404711  0.09231918  0.11235211
 -0.02433344  0.02298211 -0.11538561 -0.05670423  0.21114545 -0.05090567
 -0.07278641  0.14349438 -0.02409608  0.07470628  0.06693944 -0.02521276
 -0.00643658  0.01196005 -0.15083289 -0.04610086 -0.03746709 -0.04366379
 -0.03286051  0.10057787 -0.13832764  0.03696999  0.01013221  0.04824116
 -0.06783973 -0.03819297 -0.04207771  0.01200554  0.1172465  -0.24248539
  0.24406867  0.17838682 -0.02377799  0.08657349  0.09284672  0.06781701
 -0.05471771  0.01551682 -0.17019616 -0.08755698  0.04605327 -0.03908039
  0.1316473  -0.00362648]