[-0.07637262  0.14063394  0.07687674  0.00411148 -0.10691641 -0.00225098
 -0.0114642  -0.1197449   0.13522351 -0.01428153  0.32266572 -0.04476429
 -0.16386677 -0.15108384 -0.02121191  0.16373819 -0.21347724 -0.09369323
 -0.11332531 -0.0279946   0.09526729  0.04618884  0.02830989  0.00568148
 -0.07933053 -0.35374868 -0.07892417 -0.04458312  0.12836586 -0.10450613
 -0.0763742  -0.01474461 -0.20647822 -0.13671558  0.07703735  0.07751364
 -0.09373474 -0.04933759  0.15820722 -0.05351747 -0.20532535  0.08356588
  0.10297264  0.23663163  0.23581877  0.09695084 -0.0238061  -0.14034347
  0.12104117 -0.12296873  0.04460516  0.17805837  0.14855312  0.08973353
  0.03187876 -0.09898116 -0.03166503  0.12254868 -0.15093207 -0.02756734
  0.09879436 -0.11995765 -0.00559531 -0.08992805  0.15808167  0.05532792
 -0.07806998 -0.21002649  0.09449262 -0.1412774  -0.08773314  0.06925796
 -0.11600572 -0.12304866 -0.31182241 -0.01563829  0.4089593   0.0203501
 -0.20216174  0.00106742 -0.03703759 -0.01200701  0.09779823  0.10223953
 -0.03948994 -0.00057685 -0.11883918  0.00316128  0.19227564 -0.08834987
  0.00548324  0.17778988  0.00709611  0.04317806  0.06153182  0.02788117
 -0.0789061   0.05701596 -0.11867882 -0.01924747 -0.00653269 -0.04952515
  0.01940131  0.0571054  -0.13340814  0.14214635  0.03710023  0.06038899
  0.02015374 -0.07338246 -0.06779839 -0.04588633  0.13383982 -0.26847187
  0.26245776  0.15941344  0.00905608  0.11489601  0.07593974  0.10682851
 -0.04416851 -0.00861417 -0.15356179 -0.0430227   0.04614706 -0.05642723
  0.10212423 -0.01300978]