[-0.03276354  0.1154775   0.04682238  0.00075459 -0.06779398 -0.00861997
 -0.02869238 -0.14457846  0.1008772  -0.07219992  0.30576465 -0.02371801
 -0.21242218 -0.14291836  0.00206962  0.12964885 -0.22564963 -0.12190344
 -0.08896552 -0.02578559  0.06398374 -0.02104252  0.01225388 -0.04445325
 -0.07886349 -0.31850609 -0.11007847 -0.06481632  0.07756152 -0.05755178
 -0.07829271  0.0238858  -0.19359396 -0.12283822  0.04038575 -0.02537072
 -0.01756018 -0.02311894  0.17123269 -0.05401698 -0.18510406  0.10715733
  0.06589284  0.22335671  0.2577841   0.07954646 -0.03165222 -0.10477386
  0.12596415 -0.1180348   0.02583134  0.16819887  0.17039341  0.05656923
  0.02021728 -0.13026899 -0.00288409  0.08086544 -0.15302873 -0.04754722
  0.08861836 -0.07717817  0.00223394 -0.07591107  0.13692042  0.05035024
 -0.05255238 -0.19838057  0.1175319  -0.14753132 -0.05003163  0.05744034
 -0.16759358 -0.14263716 -0.2717382  -0.0351817   0.33384493  0.07966402
 -0.20926748  0.02089766 -0.02642241  0.002918    0.14748035  0.05080958
 -0.03223829 -0.00469955 -0.09893071 -0.03161781  0.19266497 -0.05458159
 -0.04523062  0.18642543 -0.00160291  0.02227027  0.10346334 -0.00774544
 -0.0184005   0.01796719 -0.15887776  0.01252977 -0.0583128  -0.07844384
 -0.02491577  0.07476333 -0.1174622   0.11083873  0.0040289   0.09414368
 -0.04088929 -0.05911485 -0.04148202 -0.02154744  0.12056952 -0.25509185
  0.20611453  0.16628504 -0.0176578   0.08604505  0.04134769  0.07543742
 -0.08413347 -0.00639998 -0.20595658 -0.07512286  0.05749114 -0.052335
  0.11791891 -0.01547617]