[-0.02513738  0.13075057  0.05179062  0.00307754 -0.06738048  0.0032988
 -0.02449791 -0.14417851  0.10927862 -0.07484718  0.31102064 -0.02542948
 -0.21770859 -0.13727246  0.01379953  0.12333677 -0.22121108 -0.13079463
 -0.09755776 -0.03384504  0.05901815 -0.02196315  0.01505815 -0.05355945
 -0.08969635 -0.31298769 -0.10933015 -0.07075359  0.08535833 -0.06971052
 -0.07310177  0.00968331 -0.19549932 -0.12129971  0.0326975  -0.03799899
 -0.02183    -0.02893167  0.17073594 -0.04218171 -0.17924808  0.09974428
  0.06029302  0.22015987  0.27217838  0.07154238 -0.03340728 -0.09049533
  0.11613818 -0.12396646  0.01988913  0.16748795  0.17953919  0.06598578
  0.03020581 -0.13128823 -0.01209122  0.0756264  -0.143658   -0.0466608
  0.08388878 -0.06952494  0.00288874 -0.06644039  0.14062829  0.04545658
 -0.05483864 -0.18860416  0.11522224 -0.14260685 -0.05219857  0.05628778
 -0.1686794  -0.13778853 -0.26512599 -0.03477725  0.33863285  0.07666986
 -0.21225324  0.02013096 -0.03127071  0.00416352  0.13106272  0.05030934
 -0.02967429 -0.00580878 -0.09152108 -0.03214638  0.18561117 -0.06030869
 -0.04633355  0.19068392 -0.01242684  0.0238672   0.1023578  -0.01257333
 -0.01416325  0.01224548 -0.14588998  0.00843616 -0.06859891 -0.07947374
 -0.02791801  0.07019969 -0.11830161  0.10998043  0.01093645  0.09664695
 -0.04559004 -0.0521429  -0.03450123 -0.01893686  0.12256175 -0.26848203
  0.2001956   0.17412244 -0.03640315  0.08145451  0.03774291  0.0718567
 -0.07379227  0.00694371 -0.1948636  -0.08050759  0.0375989  -0.05080978
  0.10218878 -0.01235777]