[-0.05934954  0.1226716   0.10024341  0.039605   -0.10039792 -0.00253372
  0.00680518 -0.14554018  0.07563429 -0.04894937  0.27484629 -0.043518
 -0.20206223 -0.12867023 -0.00715596  0.12818547 -0.18545632 -0.13051532
 -0.10674701  0.01297626  0.01493943 -0.01089183  0.04674998 -0.04247375
 -0.05767571 -0.29792899 -0.10146017 -0.02777735  0.10217511 -0.04884499
 -0.09934653  0.00482612 -0.22613136 -0.12830161  0.04587852  0.03612147
 -0.03466896 -0.01845816  0.15478669 -0.08607494 -0.21428724  0.06158126
  0.09202214  0.21158755  0.21929495  0.08659888 -0.0621209  -0.06180084
  0.06452799 -0.16892044  0.06072361  0.13890436  0.18661804  0.06181311
  0.01058929 -0.14733952 -0.01152917  0.14055263 -0.11566155 -0.02423709
  0.07956643 -0.09837776  0.03753743 -0.05664252  0.19202605  0.07850815
 -0.05254027 -0.2028368   0.1269825  -0.13859802 -0.05274309  0.06210838
 -0.10804894 -0.09917083 -0.30492321 -0.02139034  0.35683638  0.06010235
 -0.20374946 -0.01611829 -0.07428306  0.01313414  0.07538062  0.04547834
 -0.0560663  -0.00227132 -0.14149591 -0.05888171  0.19989151 -0.06180431
 -0.02522802  0.16549139  0.00843064  0.01562285  0.06421783 -0.02675331
 -0.01992228  0.02388515 -0.16136555  0.01339764 -0.06286896 -0.07946154
 -0.02305542  0.12492096 -0.15720266  0.09522938  0.01056643  0.05173844
  0.00151037 -0.04504291 -0.03903533 -0.04052889  0.11772043 -0.29243127
  0.23113881  0.17658818 -0.01319022  0.08774714  0.05435709  0.08384037
 -0.03252049  0.00626725 -0.1769781  -0.08150351  0.07065911 -0.10878079
  0.08239812  0.04468798]