[-0.02968102  0.112589    0.04879     0.00293732 -0.06044858 -0.02871481
 -0.00185514 -0.17113066  0.1274786  -0.08174559  0.28680786 -0.029083
 -0.2185287  -0.12753731 -0.01440255  0.12495829 -0.22291148 -0.13494933
 -0.07787099 -0.02726345  0.08732433  0.01365687  0.04818821 -0.04526372
 -0.06463286 -0.31641778 -0.11927851 -0.06174817  0.09620413 -0.0244969
 -0.0645242   0.04262795 -0.20530872 -0.1272869   0.06394918 -0.02349083
 -0.00561869 -0.03893245  0.17421702 -0.03721974 -0.18767482  0.1056409
  0.07019778  0.21641922  0.23325808  0.04535909 -0.0240412  -0.12371697
  0.09601043 -0.12536888  0.02205357  0.1723067   0.14756405  0.05373063
  0.03054886 -0.13607989 -0.0197481   0.08263969 -0.1329124  -0.02511135
  0.11815213 -0.05111508 -0.00173653 -0.08015545  0.12078959  0.03597993
 -0.07975722 -0.21554239  0.08149741 -0.14813428 -0.06638657  0.06729848
 -0.17534095 -0.12843116 -0.26554486 -0.0289385   0.35246795  0.06229319
 -0.18682219  0.0276437  -0.04754792  0.01364624  0.11970561  0.06092922
 -0.02638878  0.0124389  -0.09640255 -0.02777248  0.18202344 -0.04703688
 -0.07566871  0.20313969 -0.02868145  0.04303352  0.0799656   0.00757253
 -0.02654583  0.00879062 -0.17304444  0.003722   -0.06761103 -0.06516636
 -0.04168523  0.08964721 -0.11634596  0.0962266  -0.01316027  0.07782108
 -0.04224178 -0.06212221 -0.06360963  0.00502635  0.10322844 -0.25451848
  0.2184927   0.16770837  0.00810422  0.07901216  0.06096691  0.04455784
 -0.05541915  0.00548182 -0.19444638 -0.08700763  0.05684276 -0.04576386
  0.09787054 -0.03009829]