[-0.03304594  0.13788204  0.0940539   0.02518169 -0.09245239  0.02679402
 -0.0023044  -0.15616189  0.10460757 -0.09690807  0.29050049 -0.04187876
 -0.22376561 -0.12050398  0.01483159  0.13665618 -0.19581832 -0.17346369
 -0.0954854  -0.04564521  0.0395054  -0.02797139  0.00567404 -0.04724302
 -0.07368686 -0.3469604  -0.10810112 -0.04822018  0.10798573 -0.06023889
 -0.09839022  0.02363724 -0.20193255 -0.11732268  0.04358303 -0.01310326
  0.00037838 -0.03127186  0.14220774 -0.07376975 -0.17610459  0.0942641
  0.04946556  0.20997159  0.2420502   0.06127919 -0.02076337 -0.082721
  0.08001789 -0.13367656  0.01426753  0.17084256  0.16163705  0.062318
  0.01906498 -0.14421818 -0.0325324   0.0982246  -0.11831706 -0.02591452
  0.08360084 -0.0933556  -0.00094634 -0.06673098  0.15660839  0.04318028
 -0.06313783 -0.21894859  0.10714223 -0.132615   -0.03927955  0.02501001
 -0.16786744 -0.11555199 -0.25845513  0.00965716  0.35183439  0.06815131
 -0.22972329  0.02595369 -0.04308905  0.03330913  0.11070396  0.06111871
 -0.03169586 -0.01854971 -0.11567684 -0.026341    0.16557717 -0.05474405
 -0.03532947  0.18017048 -0.03767947  0.03202294  0.08735154  0.01092026
 -0.04511951  0.02688682 -0.14586544  0.00534596 -0.05308492 -0.05300561
 -0.03162309  0.09975534 -0.11311749  0.10337164 -0.0372515   0.09410272
 -0.03005257 -0.05869169 -0.03165509 -0.02913649  0.11708682 -0.27509221
  0.1898323   0.19836162 -0.04455912  0.09146153  0.05226362  0.06538313
 -0.02988399  0.01664441 -0.20328192 -0.07620743  0.06020577 -0.08265507
  0.05023583 -0.01240871]