[-0.11115286  0.12742683  0.09961683  0.01059663 -0.08976087 -0.0453411
  0.01462154 -0.17092453  0.11495838 -0.06908607  0.37989351 -0.01066123
 -0.192416   -0.18460844 -0.00504626  0.16849323 -0.19747666 -0.13312292
 -0.0595605  -0.02803836  0.03720572 -0.03028109  0.05048329 -0.01201002
 -0.07918914 -0.30090418 -0.10294646 -0.09925984  0.0783488  -0.04470796
 -0.05786195  0.06838534 -0.18568528 -0.11775388  0.07284724  0.03299711
 -0.01233326  0.00580679  0.18962292 -0.06881925 -0.20262311  0.04441874
  0.06721973  0.23466901  0.23473445  0.04615831  0.00917524 -0.09788026
  0.09103652 -0.13655119  0.0256719   0.13178448  0.17010626  0.01553608
  0.02270405 -0.17138353 -0.03506877  0.10602558 -0.11370759 -0.04115272
  0.06218121 -0.13846333 -0.02080804 -0.05795345  0.1912099   0.0395568
 -0.09878778 -0.17707697  0.14080048 -0.1038852  -0.04564503  0.11294714
 -0.19293626 -0.12940513 -0.31553182  0.00357691  0.43734547  0.03226442
 -0.1876411   0.01701361 -0.07015488  0.01046105  0.05565828  0.11957097
 -0.02656702 -0.01738512 -0.11938705 -0.04840028  0.16301885 -0.07748175
 -0.03462858  0.16229489 -0.03441979  0.05283255  0.03325697 -0.02231034
 -0.01467231  0.00177807 -0.1163962  -0.02886673 -0.0914095  -0.06229541
 -0.02839743  0.09537407 -0.17057712  0.05345067 -0.0064448   0.05859582
 -0.04623882 -0.05430217  0.00361675 -0.03019416  0.09238891 -0.28458625
  0.20960262  0.20272969 -0.00732259  0.11857241  0.06093973  0.05289201
 -0.03691928 -0.00735958 -0.15985428 -0.04800717  0.06390833 -0.08410437
  0.09474953 -0.02631497]