[-4.87554185e-02  1.41345382e-01  9.85322818e-02  4.50745523e-02
 -9.04859751e-02  5.12329442e-03 -1.30575327e-02 -1.52617499e-01
  9.83323082e-02 -6.25886545e-02  2.95689076e-01 -5.75122833e-02
 -1.97835088e-01 -1.27124101e-01  2.21407227e-03  1.45809218e-01
 -2.10825905e-01 -1.29290044e-01 -1.11479975e-01 -9.40597523e-03
  1.15837287e-02 -1.65256893e-03  4.42236699e-02 -3.23294066e-02
 -6.78664371e-02 -3.44485343e-01 -1.00027911e-01 -6.48499504e-02
  1.09708764e-01 -6.09041154e-02 -1.09240465e-01  7.80644128e-03
 -2.13947341e-01 -1.41870245e-01  4.78744470e-02  5.69271063e-03
 -2.09693443e-02 -1.59931760e-02  1.47984415e-01 -5.55241778e-02
 -1.86683506e-01  8.99978504e-02  6.67018741e-02  2.29895145e-01
  2.40428403e-01  9.53995883e-02 -4.23965454e-02 -7.82211795e-02
  7.24457428e-02 -1.36917561e-01  4.75688875e-02  1.48685738e-01
  1.62760243e-01  5.94829507e-02  3.16674188e-02 -1.49072334e-01
 -9.72224027e-03  1.02507234e-01 -1.33525237e-01 -2.09649689e-02
  1.02058902e-01 -7.24104345e-02  2.18354519e-02 -3.55996750e-02
  1.90836653e-01  6.76320717e-02 -5.00122979e-02 -2.03815416e-01
  1.20437719e-01 -1.27564892e-01 -4.06509601e-02  3.08568068e-02
 -1.39121264e-01 -1.00303434e-01 -2.96818584e-01 -1.99502707e-02
  3.64242017e-01  5.07905781e-02 -2.26170585e-01  3.88885452e-03
 -5.91073222e-02  1.55214043e-02  1.07581280e-01  6.05727844e-02
 -4.15076092e-02 -2.06129439e-02 -1.22899368e-01 -4.93344776e-02
  1.57240063e-01 -4.14876677e-02 -2.98533142e-02  1.77134261e-01
 -1.80389173e-02  2.17958121e-03  9.23386812e-02 -1.44026270e-02
 -5.32550886e-02  2.43065692e-02 -1.51153594e-01  1.30457440e-04
 -5.62974401e-02 -5.85782230e-02 -2.81439703e-02  1.05785690e-01
 -1.43767536e-01  1.07007109e-01 -3.27731366e-03  7.33353496e-02
 -4.29650396e-03 -3.95343117e-02 -4.24376205e-02 -3.37569676e-02
  1.25223055e-01 -2.88999885e-01  2.22565413e-01  1.74510539e-01
 -2.81925332e-02  8.96748379e-02  4.57650796e-02  7.99306110e-02
 -4.37125303e-02  3.59469056e-02 -1.94007829e-01 -8.24785531e-02
  4.75146733e-02 -1.00134268e-01  7.38794208e-02  2.64253262e-02]