[-0.08696458  0.12164046  0.03339411 -0.01469543 -0.06561276 -0.01107224
 -0.02242388 -0.16985559  0.12641898 -0.03925076  0.30101064  0.00519571
 -0.20500691 -0.13547386 -0.04993604  0.1365639  -0.2107164  -0.11627294
 -0.06691487 -0.04155971  0.05279422  0.02924964  0.03299468 -0.03616795
 -0.04578197 -0.26966494 -0.10840601 -0.0875093   0.05742919 -0.04299248
 -0.03465766  0.00168514 -0.2221022  -0.11717045  0.07703278  0.05896133
 -0.01593841 -0.0241034   0.17289338 -0.01555842 -0.14776869  0.05895909
  0.1248154   0.1945557   0.24227171  0.06549521 -0.03148438 -0.13396329
  0.09171466 -0.09963384  0.02195713  0.14548407  0.17742877  0.07606754
  0.04088367 -0.16440372  0.00153561  0.07431292 -0.09284681 -0.0193978
  0.083089   -0.06864432 -0.01218342 -0.04759841  0.1723028   0.04346487
 -0.06970202 -0.21901576  0.12116271 -0.14523624 -0.13594286  0.09410574
 -0.15232287 -0.11298063 -0.30772045 -0.0239838   0.39864689  0.07278532
 -0.19908929  0.01815685 -0.03599567 -0.02128595  0.09521585  0.09408706
 -0.03385858  0.01192398 -0.10691986 -0.06013975  0.2138032  -0.0226519
 -0.07680011  0.1513366  -0.0402901   0.08540501  0.06333081 -0.00770995
 -0.01461121  0.01018109 -0.15276712 -0.05987711 -0.05832535 -0.05997188
 -0.02262023  0.10598212 -0.13018696  0.06036368 -0.00504109  0.04279233
 -0.06259837 -0.02965444 -0.04344117  0.03310641  0.13606425 -0.253526
  0.2740348   0.16778643 -0.01610591  0.07844163  0.09858856  0.08589973
 -0.05095496  0.00725023 -0.17461692 -0.1021797   0.00205681 -0.05297711
  0.14193165 -0.00284788]