[-0.04444129  0.11057345  0.0737159   0.0340419  -0.11439123 -0.05612876
 -0.00082966 -0.19490349  0.09448879 -0.06482778  0.30840871 -0.04142812
 -0.19900344 -0.14178585 -0.00134223  0.11636338 -0.19572018 -0.16252224
 -0.06520802 -0.03247036  0.05123926 -0.03100277  0.01789005 -0.01275673
 -0.07216605 -0.31365663 -0.11258842 -0.06653141  0.10148572 -0.05651222
 -0.07118347  0.0567339  -0.21302918 -0.12425032  0.04150746  0.00460442
 -0.01929191 -0.00875533  0.16773045 -0.08800007 -0.18203834  0.0530271
  0.04773784  0.21439958  0.26293334  0.05112964 -0.01805208 -0.09389377
  0.1054315  -0.13346241  0.02079172  0.17076568  0.16548926  0.05880355
 -0.0029375  -0.13193837 -0.01075412  0.08345559 -0.1334898  -0.0165198
  0.10952672 -0.12359319  0.00370284 -0.05615496  0.16794257  0.02424613
 -0.05430888 -0.19163425  0.11938925 -0.17719398 -0.07481124  0.05378131
 -0.16901158 -0.12539293 -0.31635851 -0.02320276  0.37523708  0.06061668
 -0.21022908  0.02512971 -0.03708536  0.03013922  0.12763558  0.05912007
 -0.02414546 -0.01722322 -0.15235937 -0.02165942  0.19300643 -0.06748839
 -0.04329718  0.18588404 -0.0237765   0.06974963  0.09097041  0.01153158
 -0.00268305  0.02349882 -0.1325805   0.03948151 -0.06291502 -0.0435637
 -0.02294258  0.09793379 -0.08931692  0.10520232 -0.01891826  0.11129457
 -0.05763349 -0.08389194 -0.04751641 -0.04169556  0.11268546 -0.2548472
  0.21693826  0.16483913 -0.02221667  0.08704464  0.02285251  0.05670926
 -0.06183759 -0.01860047 -0.19394241 -0.04940344  0.0583304  -0.08594777
  0.07647909  0.00189137]