[-0.09920694  0.12882249  0.10864665  0.01509132 -0.10021179 -0.02707932
  0.01517907 -0.16482688  0.1032322  -0.04941013  0.38930008 -0.01549663
 -0.19773287 -0.18102661  0.0102056   0.17020695 -0.18161455 -0.14302289
 -0.08124761 -0.03741603  0.02621988 -0.03125693  0.04818738 -0.0082059
 -0.0724775  -0.3041873  -0.08713876 -0.09643068  0.09206577 -0.07112844
 -0.06387453  0.05740538 -0.20039101 -0.11648685  0.07230975  0.03897994
 -0.03012981 -0.0139814   0.18255325 -0.06285774 -0.19175319  0.04341429
  0.05924757  0.21332493  0.24074574  0.0598239   0.00653722 -0.09352324
  0.0814058  -0.14018428  0.03806815  0.13855317  0.17860512  0.02194467
  0.02009937 -0.17791857 -0.03729402  0.09908164 -0.11923231 -0.04907169
  0.05697458 -0.13504069 -0.02414664 -0.06375586  0.18720558  0.04879972
 -0.08261111 -0.16833626  0.14591022 -0.0975256  -0.0470333   0.1013989
 -0.18640634 -0.12484746 -0.29750812  0.01280923  0.43299747  0.02779783
 -0.20623517  0.00574782 -0.05934986  0.01215958  0.04567095  0.10676271
 -0.02771142 -0.03355888 -0.12261577 -0.05048354  0.15317637 -0.08145662
 -0.01915631  0.16109626 -0.03585885  0.04591131  0.04526201 -0.02627799
 -0.01239821  0.01177945 -0.10572683 -0.03624241 -0.09914609 -0.05412214
 -0.02653543  0.08307327 -0.15852931  0.05061689 -0.00553698  0.05333405
 -0.04137    -0.05969748  0.00855048 -0.04845559  0.09284046 -0.28661826
  0.20876911  0.20474494 -0.02151736  0.1171907   0.054003    0.07637914
 -0.0263203  -0.0055369  -0.16225977 -0.0472768   0.06216761 -0.08013176
  0.07020848 -0.01806364]