[-0.04564336  0.11381813  0.07283818  0.03223261 -0.10752659 -0.05641437
  0.00218595 -0.19372337  0.09568174 -0.06292956  0.31395409 -0.03919478
 -0.20612958 -0.13875203  0.00660797  0.11550589 -0.20831387 -0.15911531
 -0.07676931 -0.01797659  0.05392851 -0.03838967  0.0256148  -0.0045686
 -0.08015546 -0.32116324 -0.12086353 -0.07109654  0.09371321 -0.05902399
 -0.08125853  0.03801427 -0.2039175  -0.12786196  0.0373826  -0.00310312
 -0.02021436 -0.01844266  0.16778441 -0.09551514 -0.1841291   0.059503
  0.06137078  0.2069623   0.26596951  0.07025369 -0.01559324 -0.09232413
  0.11233556 -0.14460336  0.02681938  0.15667684  0.16496642  0.06321558
  0.00498104 -0.13931528 -0.01890191  0.09553627 -0.14034748 -0.0125401
  0.09365609 -0.11988058 -0.00051754 -0.05691496  0.16899835  0.04560346
 -0.06074825 -0.18622243  0.11943304 -0.18077828 -0.0784562   0.05239759
 -0.16531639 -0.12887172 -0.31550741 -0.03197207  0.36650261  0.05730618
 -0.21170996  0.0107799  -0.03334538  0.03130097  0.11973154  0.05576241
 -0.02734931 -0.02319928 -0.1603061  -0.02377965  0.19649808 -0.06756296
 -0.03511938  0.19217606 -0.01964969  0.06671546  0.08988801  0.02539496
 -0.01334351  0.02181016 -0.13748915  0.03991907 -0.04898171 -0.03257482
 -0.02929316  0.09211352 -0.09191815  0.1000546  -0.01911775  0.10394455
 -0.05317303 -0.09060201 -0.04441912 -0.0392129   0.1099176  -0.26026085
  0.21420883  0.16962461 -0.03091459  0.08673524  0.01058763  0.05022178
 -0.06345396 -0.01823856 -0.2034335  -0.05373114  0.06607385 -0.08419982
  0.07859951 -0.00138731]