[-0.08120245  0.13651586  0.05510557  0.02176571 -0.07138117 -0.01130847
 -0.03083112 -0.15094694  0.04943439 -0.02046558  0.30221251 -0.06279667
 -0.22462483 -0.14898957 -0.05204634  0.13683514 -0.23947704 -0.0987257
 -0.09363278 -0.01641078  0.02554933  0.01341002  0.05529536 -0.00331009
 -0.03662863 -0.34415516 -0.08189118 -0.05795682  0.0780236  -0.05370655
 -0.08755492  0.01174644 -0.19563971 -0.13358907  0.06768448  0.04180126
 -0.01961849 -0.02931461  0.17327975 -0.04740665 -0.14781629  0.04396901
  0.07743237  0.24769357  0.24589811  0.08708476 -0.04059266 -0.08915977
  0.07901811 -0.14443497  0.05113332  0.14697848  0.12928334  0.04737654
  0.02102297 -0.14293683 -0.02917792  0.11349522 -0.10557981 -0.0369526
  0.04119087 -0.12635726  0.02036261 -0.07582399  0.16635926  0.03523986
 -0.05672802 -0.20619781  0.12047265 -0.13788091 -0.07228012  0.04882396
 -0.11486335 -0.11033028 -0.33011445 -0.00509792  0.38403726  0.07680771
 -0.20044044  0.01996172 -0.03784757 -0.03964106  0.12479801  0.10622149
 -0.02091662 -0.00201565 -0.13049296 -0.0439753   0.15228878 -0.0449534
 -0.07869653  0.17049582 -0.03737025  0.05175517  0.11437684 -0.00652007
 -0.04507288  0.04329838 -0.14297809 -0.00136963 -0.02561527 -0.06286807
 -0.01115944  0.09205537 -0.09922775  0.05320876 -0.00505217  0.05994755
  0.00157693 -0.07650508 -0.05306696 -0.04387004  0.13463227 -0.29950899
  0.20550406  0.17837718 -0.00087544  0.12657319  0.07572874  0.0738764
 -0.02146633  0.01329144 -0.18044828 -0.07038007  0.05554596 -0.04412863
  0.10393085  0.0094629 ]