[-0.04689648  0.11159966  0.10100476  0.03762812 -0.08888469 -0.0054098
  0.006577   -0.16500337  0.10440979 -0.09107124  0.32470652 -0.03079305
 -0.22021571 -0.13232343  0.01125385  0.13823348 -0.19539027 -0.16639899
 -0.09069206 -0.06064944  0.03756641 -0.03140169  0.00941698 -0.03712553
 -0.07669305 -0.3322072  -0.11916053 -0.07532121  0.10881471 -0.06646489
 -0.08051123  0.02343481 -0.21626945 -0.12044267  0.03618328 -0.03114309
  0.00687099 -0.02640047  0.14800471 -0.06615841 -0.16460246  0.06866106
  0.04735819  0.19575064  0.23517565  0.06327797 -0.02088066 -0.07441314
  0.07543361 -0.1255338   0.00747787  0.1592751   0.17104594  0.06015139
 -0.0017335  -0.14672171 -0.04123161  0.10464467 -0.12707393 -0.02010269
  0.06868152 -0.10254496 -0.02822878 -0.05100179  0.160487    0.04499265
 -0.0627204  -0.2072476   0.12585866 -0.14065486 -0.04106138  0.03859907
 -0.17688727 -0.11598873 -0.26436719  0.00569695  0.34940705  0.04219685
 -0.21781626  0.01766887 -0.0564133   0.03932793  0.08337402  0.0524177
 -0.02616888 -0.01816319 -0.11293323 -0.03063348  0.15578119 -0.05550642
 -0.02126282  0.19145408 -0.05075362  0.0363053   0.0791136   0.00403735
 -0.02884462  0.01043981 -0.12379896 -0.00525449 -0.05533928 -0.0383132
 -0.02861619  0.08703466 -0.11752752  0.08395852 -0.03479906  0.09069362
 -0.02962619 -0.06323447 -0.0234233  -0.04434704  0.11523374 -0.2660431
  0.19635527  0.20334533 -0.0480306   0.08951356  0.03316008  0.05964515
 -0.04732925  0.00212849 -0.20666067 -0.06202816  0.06224932 -0.093822
  0.03844674 -0.02659298]