[-0.04154509  0.09982049  0.06681275  0.03664637 -0.11085816 -0.00162588
 -0.00215142 -0.13785663  0.08800646 -0.05128549  0.2674216  -0.08323611
 -0.19630139 -0.12486675 -0.00748257  0.13688001 -0.21385577 -0.12814485
 -0.10807121 -0.03636784  0.04001896  0.01140513  0.01980804 -0.02295597
 -0.06338631 -0.34424105 -0.10384115 -0.08145762  0.12264454 -0.06358682
 -0.08986548  0.0073966  -0.23059288 -0.14501786  0.04595935  0.00709401
 -0.02960251 -0.03644399  0.1348702  -0.05251886 -0.19012067  0.08305434
  0.08296006  0.198926    0.23562983  0.11984109 -0.04310815 -0.08639026
  0.0990734  -0.12978105  0.04080385  0.16235328  0.15649776  0.06758848
  0.01899147 -0.13078316 -0.00942537  0.11090606 -0.16223355 -0.02137271
  0.08047428 -0.07147326  0.0337874  -0.04857656  0.15969782  0.05040072
 -0.03037312 -0.19928704  0.13020521 -0.18167855 -0.05730135  0.04578413
 -0.12462889 -0.1091153  -0.30968538 -0.02790359  0.38401696  0.06090166
 -0.18621349  0.00757571 -0.0373992  -0.00449843  0.12059794  0.07471259
 -0.02865352 -0.02044265 -0.11556291 -0.04996484  0.17722858 -0.05417902
 -0.02290504  0.1725394  -0.01635956  0.0125236   0.08633266 -0.00227103
 -0.0588713   0.01611516 -0.11739463 -0.01056562 -0.06719712 -0.04994383
 -0.02718608  0.09207623 -0.12307119  0.10483173 -0.01716482  0.05397987
 -0.03808009 -0.06385145 -0.02073494 -0.03287754  0.12012809 -0.27118254
  0.20355017  0.17646682 -0.0410001   0.10585815  0.02414818  0.08619023
 -0.05798212  0.00122762 -0.20640074 -0.08857851  0.04845903 -0.0784225
  0.07128245  0.00916636]