[-8.64695683e-02  1.15043595e-01  8.94303396e-02 -2.77498359e-04
 -7.83010870e-02 -3.35113071e-02  2.32551452e-02 -1.78343832e-01
  1.14921823e-01 -6.42209053e-02  3.43727410e-01 -2.29607504e-02
 -2.01720595e-01 -1.47274598e-01 -6.67398004e-03  1.40058622e-01
 -2.33678937e-01 -1.26458570e-01 -1.03663795e-01 -2.84517091e-02
  4.56858613e-02 -2.92276889e-02  2.02482399e-02 -2.17754450e-02
 -5.62970713e-02 -3.00383627e-01 -9.82329249e-02 -7.57893473e-02
  1.10045791e-01 -4.48928736e-02 -7.34225139e-02  1.22071430e-02
 -2.27613807e-01 -1.45072743e-01  3.94411385e-02  2.02797889e-03
 -1.70518514e-02 -1.15733929e-02  1.64900362e-01 -7.98899457e-02
 -1.85506567e-01  6.48097321e-02  7.26114437e-02  1.79800063e-01
  2.59461612e-01  8.05867538e-02 -3.07609141e-02 -1.15997247e-01
  9.13273618e-02 -1.48586050e-01  1.32342819e-02  1.35847986e-01
  1.84844181e-01  3.77671085e-02  7.68768508e-03 -1.75363019e-01
 -4.50669192e-02  7.42063895e-02 -1.08233929e-01 -2.88980044e-02
  6.41195327e-02 -1.16717018e-01 -1.23324478e-02 -3.74925248e-02
  1.68126568e-01  3.12024057e-02 -6.62891343e-02 -1.94623560e-01
  1.46306798e-01 -1.27244934e-01 -5.28448522e-02  7.48118535e-02
 -1.51346251e-01 -1.31784990e-01 -3.02395135e-01 -4.14781971e-03
  3.96564096e-01  4.69429456e-02 -2.11614236e-01  2.11768989e-02
 -9.37423334e-02  2.42393352e-02  1.00684598e-01  7.11781308e-02
 -2.46742722e-02 -1.31020220e-02 -1.33997679e-01 -3.56319882e-02
  1.66593134e-01 -8.70268494e-02 -3.57566476e-02  1.89357430e-01
 -2.42851749e-02  6.74648434e-02  5.75696342e-02 -1.01684732e-02
 -2.37884372e-02  3.00317612e-02 -1.49416670e-01 -2.22282652e-02
 -2.17254814e-02 -5.33977104e-03  2.33457235e-04  1.01368465e-01
 -1.14939392e-01  5.26780486e-02 -5.40102227e-03  7.19171092e-02
 -1.52825732e-02 -6.70449734e-02 -2.87404656e-02 -5.75733557e-02
  1.06625080e-01 -2.60682017e-01  2.20779136e-01  1.94430113e-01
 -4.22196388e-02  9.46652815e-02  7.41743520e-02  5.43629304e-02
 -2.06072349e-02  5.70480479e-03 -1.86025217e-01 -4.18679900e-02
  7.31981620e-02 -6.65457174e-02  8.90017077e-02 -1.29774911e-02]