[-0.01655495  0.10370561  0.09059829  0.03262945 -0.08197363 -0.00883031
 -0.00459276 -0.14935817  0.10184252 -0.07594533  0.31975287 -0.03216906
 -0.21111277 -0.14452748  0.00602319  0.10947081 -0.18680255 -0.1195654
 -0.08636236 -0.0385287   0.05765679 -0.01846101  0.03814809 -0.05358585
 -0.0749919  -0.33065364 -0.1056663  -0.08506664  0.09174048 -0.08196107
 -0.09065577  0.02944248 -0.21000186 -0.11532482  0.01850349 -0.03821809
  0.00440252 -0.01619995  0.16254057 -0.04643474 -0.17434725  0.10939489
  0.02409706  0.19685537  0.25899005  0.05069081 -0.03249368 -0.09324058
  0.09973478 -0.14342815  0.01958471  0.17166571  0.1517338   0.04314822
  0.00932311 -0.11594611 -0.03485779  0.07052469 -0.14718285 -0.0289563
  0.08938741 -0.08054829 -0.02600607 -0.06861272  0.13543276  0.04927025
 -0.06033185 -0.19753084  0.09198403 -0.15785287 -0.04073043  0.05788404
 -0.17400424 -0.13316013 -0.26330945  0.01143271  0.34809181  0.07165856
 -0.22996728  0.02402578 -0.07541259  0.02310051  0.11334266  0.04375511
 -0.00364784 -0.00066512 -0.10330196 -0.0260869   0.15730177 -0.07126761
 -0.0379643   0.20556508 -0.03036585  0.04930688  0.08700156 -0.01011354
 -0.01917797  0.00308556 -0.14722238  0.01117207 -0.06812378 -0.06420808
 -0.03499448  0.06662133 -0.12744711  0.10919013 -0.02385944  0.06708556
 -0.02582394 -0.08410752 -0.02867385 -0.01872239  0.11956391 -0.2762616
  0.21212533  0.17578778 -0.01582267  0.09437478  0.03235161  0.06250709
 -0.06586777  0.00650871 -0.18776937 -0.06888407  0.05085418 -0.06625091
  0.06092509 -0.03279619]