[-7.77491648e-03  1.06811956e-01  5.04485145e-02  2.83669168e-03
 -6.70147985e-02  4.46983054e-03 -2.14948878e-03 -1.26655251e-01
  9.64571983e-02 -9.04335082e-02  2.84765571e-01 -3.27108391e-02
 -2.07883582e-01 -1.18354492e-01 -1.23959091e-02  1.37469411e-01
 -2.32383922e-01 -1.11838691e-01 -1.18715107e-01 -9.29620024e-03
  7.44309127e-02  6.27434021e-03  7.76884845e-03 -6.22369647e-02
 -6.26058951e-02 -3.04348737e-01 -9.75713357e-02 -4.10546958e-02
  9.64690074e-02 -3.74427140e-02 -7.56405219e-02  8.58915318e-03
 -1.83300242e-01 -1.16464399e-01  5.43257184e-02 -2.38279290e-02
 -2.74320301e-02 -4.65929136e-02  1.65611073e-01 -4.66465317e-02
 -1.97906151e-01  1.34077296e-01  7.00301901e-02  2.24642515e-01
  2.41816521e-01  7.52673298e-02 -4.44169790e-02 -1.35463506e-01
  1.31155655e-01 -1.43975914e-01  3.78988683e-02  1.62020013e-01
  1.65873468e-01  6.98830113e-02  4.33002599e-02 -1.25812933e-01
  9.17451829e-03  8.54923725e-02 -1.34991035e-01 -4.44337390e-02
  9.76673961e-02 -4.47107293e-02  3.25225443e-02 -9.01605636e-02
  1.31039843e-01  2.66876649e-02 -6.97199851e-02 -1.89319357e-01
  1.02016978e-01 -1.40559971e-01 -5.43144234e-02  4.27301042e-02
 -1.44747660e-01 -1.34244472e-01 -2.63941050e-01 -2.88421307e-02
  3.42350364e-01  9.14327651e-02 -2.16630146e-01  2.35728510e-02
 -3.14281024e-02  5.95897855e-03  1.65809751e-01  7.46938512e-02
 -2.75328457e-02 -6.46249158e-03 -9.01746079e-02 -3.51499282e-02
  1.93296060e-01 -7.19076246e-02 -4.90667187e-02  2.04844281e-01
  8.96810554e-03  9.67873074e-03  9.50845182e-02 -1.74894780e-02
 -3.14640887e-02  2.55210157e-02 -1.64189562e-01  1.44697549e-02
 -3.92254703e-02 -8.00941065e-02 -2.65231188e-02  8.43023956e-02
 -1.17032789e-01  1.19953349e-01 -1.11839350e-03  9.12367851e-02
 -3.10197094e-04 -6.34433851e-02 -5.42434044e-02 -1.30518097e-02
  1.14291705e-01 -2.54909962e-01  2.10447788e-01  1.55281022e-01
 -1.03652328e-02  7.79993609e-02  6.64608255e-02  8.05692673e-02
 -6.34581819e-02  6.89452374e-03 -2.08776221e-01 -7.98944011e-02
  6.24477230e-02 -4.70928960e-02  1.05698325e-01 -1.27811451e-02]