[-0.11843892  0.17805198  0.10515318  0.00660576 -0.10497655 -0.06303257
  0.00424902 -0.06083931  0.09765857 -0.01142455  0.26432759 -0.06589035
 -0.19547252 -0.229067    0.0370612   0.16388205 -0.1206304  -0.12473247
 -0.12375798 -0.01564343  0.0783334   0.02136533  0.03792977  0.00518743
 -0.11277767 -0.43264008 -0.03011574 -0.07976573  0.0318477  -0.13686836
 -0.07471245  0.10896908 -0.16351621 -0.11289439  0.03749716  0.11832336
 -0.0204393   0.025541    0.15292925 -0.02275089 -0.23339701  0.06439803
  0.06490407  0.27803633  0.25793964  0.06112046  0.05368554 -0.09483736
  0.13745134 -0.13903382  0.04288447  0.13470051  0.14075288  0.01903993
  0.11151278 -0.10630393 -0.009253    0.06164423 -0.19743372 -0.01992321
  0.06786305 -0.1459392  -0.07458591 -0.06061191  0.15584353  0.00472912
 -0.06246468 -0.10907277  0.14826421 -0.11973758 -0.00771454  0.10484762
 -0.12276965 -0.13912384 -0.31285068  0.04664118  0.40378189  0.06994464
 -0.22116415  0.02730472 -0.02375074 -0.01436278  0.09619175  0.09269796
 -0.08270817  0.01512866 -0.13665582  0.06540146  0.15394686 -0.04817644
  0.01755087  0.17905977  0.04169852  0.04738216  0.0505481  -0.01921936
 -0.05544279  0.02864614 -0.12010498 -0.01574702  0.05678719 -0.13875674
 -0.01605773  0.02619659 -0.16848885  0.07894329  0.02876724  0.04705815
 -0.0243677  -0.05491589 -0.05286426 -0.03188938  0.10275463 -0.25588509
  0.18576156  0.18542887 -0.02467345  0.11897504  0.07037591  0.06476066
 -0.00855321 -0.06562328 -0.11282762 -0.03426099  0.11221998 -0.02410785
  0.09285442  0.00287787]