[-7.07027987e-02  1.33948252e-01  9.92303267e-02  1.06282663e-02
 -8.98121223e-02 -3.94825302e-02 -1.38394386e-02 -8.80910233e-02
  6.36865124e-02 -3.51400301e-02  3.33369315e-01 -5.28791845e-02
 -2.18494892e-01 -1.76774427e-01  7.45486934e-03  1.43627882e-01
 -1.50195852e-01 -6.69462755e-02 -9.83279347e-02 -5.30568734e-02
  3.04877348e-02  2.14378606e-03  4.42493595e-02  8.54464155e-03
 -9.57865268e-02 -3.61834496e-01 -5.14972396e-02 -1.16483688e-01
  4.25305106e-02 -1.26796022e-01 -5.07299267e-02  1.28833339e-01
 -9.64491740e-02 -9.49592814e-02  2.42877696e-02  5.66518418e-02
  5.01882751e-03  4.77384552e-02  1.19029857e-01  1.06933061e-02
 -1.58690691e-01  4.90119867e-02  2.34902389e-02  3.01932305e-01
  2.57023841e-01  8.29900056e-02  2.92162281e-02 -3.86454426e-02
  9.71838310e-02 -2.16142565e-01  2.68843700e-03  9.96402130e-02
  1.37250647e-01 -4.43421304e-04  1.10800087e-01 -1.14431895e-01
 -2.94608269e-02  4.79936078e-02 -1.74526244e-01  9.63159557e-03
  5.74889127e-03 -1.18777707e-01 -3.60982679e-02 -4.86619286e-02
  1.68881416e-01  4.49688286e-02 -6.45202473e-02 -5.68718277e-02
  1.89787254e-01 -1.09665312e-01 -6.14323132e-02  5.79601713e-02
 -1.42042160e-01 -1.37604907e-01 -2.83951998e-01  2.31568366e-02
  4.01073903e-01  9.88374576e-02 -1.96957350e-01  3.33548449e-02
 -3.35219316e-02 -1.34523390e-02  6.06747940e-02  5.39908186e-02
 -6.24408685e-02 -1.66391786e-02 -9.69389156e-02  2.41132379e-02
  1.18774943e-01 -8.36533010e-02  4.36575292e-03  2.10125491e-01
 -1.52412029e-02  5.31316772e-02  7.46032745e-02 -2.95861643e-02
 -2.89639533e-02  1.95025336e-02 -1.43365175e-01 -4.01039831e-02
  2.72104498e-02 -1.40616938e-01  1.78509858e-02  2.80299429e-02
 -1.87449321e-01  7.40574524e-02  1.46158440e-02  3.25461067e-02
  3.45260883e-03 -6.35794690e-03 -3.85660343e-02 -4.76837764e-03
  1.57063976e-01 -2.67397463e-01  1.85362816e-01  2.38583550e-01
  2.59123364e-04  1.02787770e-01  5.09793870e-02  1.83435809e-02
  1.08374248e-03 -5.85990809e-02 -9.73026305e-02 -7.38618597e-02
  5.61784804e-02 -5.99470846e-02  2.19763489e-03  4.82491264e-03]