[-0.0877239   0.16141319  0.06920137  0.02348024 -0.15215959 -0.0203813
 -0.06187509 -0.18367368  0.09869315 -0.07071549  0.2703906  -0.02441664
 -0.22012015 -0.16895889 -0.00395932  0.16876897 -0.1432469  -0.15359829
 -0.07006549 -0.01919488  0.0370611   0.02234383  0.04741613 -0.0075082
 -0.11468651 -0.37451157 -0.08288405 -0.10109575  0.04145804 -0.10000824
 -0.07252296  0.09754162 -0.11301991 -0.06965057  0.05759887  0.11676925
  0.00386819 -0.03034305  0.13301131 -0.04167755 -0.22010219  0.08245715
  0.06313252  0.26391318  0.2362835  -0.01135702  0.06180134 -0.10259189
  0.10115132 -0.10996311  0.03866294  0.10355341  0.18650584  0.01047932
  0.05738008 -0.14067252 -0.03790763  0.1387869  -0.19052458 -0.01600386
  0.10051539 -0.10457932 -0.10376232 -0.0317378   0.17042349  0.12632336
 -0.10091146 -0.15377051  0.16121668 -0.1249001  -0.07749139  0.02285962
 -0.16357918 -0.12346679 -0.26728255 -0.00328273  0.36070737  0.03956277
 -0.25050768  0.015454   -0.01694799  0.0526645   0.05375906  0.09119282
 -0.0609735  -0.03253575 -0.12238445  0.00512983  0.14238173 -0.05701007
  0.01950058  0.19889596  0.02591652  0.0128339   0.07308748  0.03383122
 -0.05079067  0.01687103 -0.12591913 -0.04121082  0.0236498  -0.11742263
 -0.0047881   0.06586456 -0.1770526   0.10584054  0.02093654  0.07485159
  0.0501008  -0.05104033 -0.01789128 -0.033535    0.14574134 -0.27068374
  0.19225824  0.17728244 -0.02036747  0.13082676  0.07235695  0.07550245
  0.00233551 -0.05542053 -0.16646141 -0.06340094  0.06143247 -0.06566881
  0.00915309  0.02234254]