[-0.07117725  0.17568414  0.06630071 -0.01345532 -0.11209267 -0.01180193
 -0.00539174 -0.15967913  0.08411829 -0.03774733  0.26207563 -0.04135888
 -0.23428647 -0.13550231 -0.04900825  0.15097924 -0.16699068 -0.1214261
 -0.11555146 -0.02969951  0.03503579  0.02065571  0.04896044 -0.00897127
 -0.1178082  -0.31997141 -0.07503464 -0.06485172  0.05581468 -0.09364671
 -0.03651658  0.10841899 -0.11219682 -0.05866366  0.03013389  0.05882303
 -0.0011159  -0.04378489  0.1734889  -0.01777209 -0.20375612  0.11070117
  0.06656171  0.29451784  0.23389781  0.00109622  0.03581731 -0.07763194
  0.13115223 -0.13501666  0.04940774  0.10700523  0.19210866  0.02816948
  0.04457603 -0.13003986 -0.04326477  0.15436766 -0.18184607  0.00668066
  0.07202873 -0.12036365 -0.06304415 -0.06950815  0.11681546  0.12985627
 -0.09217566 -0.13508271  0.16497932 -0.11795688 -0.06726866  0.0309233
 -0.12395785 -0.09857477 -0.23685268 -0.00748493  0.32246599  0.07595746
 -0.2438225  -0.01899336 -0.03497214  0.04200286  0.06154732  0.05943974
 -0.10292125 -0.02938597 -0.12311278 -0.02405422  0.16931096 -0.04739066
 -0.03153546  0.22928734  0.04176473 -0.01967582  0.07339478  0.01365813
 -0.07349131  0.01649674 -0.1288988  -0.0333888   0.02919615 -0.15456116
 -0.01305375  0.05159067 -0.17726557  0.14254864  0.02771747  0.09372314
  0.0399761  -0.03647925 -0.02261084  0.0004646   0.1602014  -0.24981113
  0.19566892  0.15944774 -0.02927888  0.11978755  0.09532801  0.07842042
 -0.01317888 -0.044575   -0.11705413 -0.10373095  0.09432804 -0.04524095
  0.07046936  0.0342849 ]