[-0.07919081  0.15843557  0.08502217  0.00721434 -0.14267352 -0.0160175
 -0.03614089 -0.15163411  0.09008148 -0.04336038  0.26406884 -0.03395654
 -0.20252326 -0.11819055 -0.03110198  0.14663704 -0.12212886 -0.14681296
 -0.07443187 -0.0245194   0.0266416   0.01843958  0.00070613  0.02057401
 -0.10085735 -0.32585448 -0.0837796  -0.08702926  0.06921058 -0.09268302
 -0.0741845   0.09577377 -0.11485388 -0.08241444  0.03810587  0.10824201
 -0.02640303 -0.02211868  0.13917544  0.00164584 -0.19508438  0.09001708
  0.04537353  0.31609195  0.27512908  0.0067317   0.04021924 -0.07467451
  0.10048208 -0.16711576  0.04500401  0.12518208  0.17880754  0.05150347
  0.084883   -0.14178722 -0.02596551  0.09276618 -0.18609799 -0.01339578
  0.07024542 -0.06778335 -0.03806799 -0.08539169  0.16539243  0.11168859
 -0.07216285 -0.11530826  0.17174892 -0.1557999  -0.07926037  0.03361848
 -0.14740056 -0.10887887 -0.26216608  0.01000101  0.34956402  0.10854907
 -0.24391849  0.02175806  0.00093964  0.02367461  0.07255834  0.0462602
 -0.06128325 -0.00440073 -0.1025238  -0.01314659  0.15472713 -0.04777909
  0.01136524  0.19273257  0.02494984 -0.01318942  0.11499561  0.02354754
 -0.04144774  0.00121652 -0.16188279 -0.03581841 -0.01838925 -0.12980059
  0.00124739  0.05331929 -0.17845456  0.14079385  0.02089603  0.06091728
 -0.02276967 -0.05086696 -0.04504759  0.0174163   0.18957473 -0.25022271
  0.19580631  0.15833227 -0.03938555  0.10796995  0.06608253  0.06030416
 -0.04161757 -0.05661852 -0.11162247 -0.08093535  0.05275965 -0.08252248
  0.0371964   0.03578309]