[-8.25138465e-02  1.69752464e-01  7.06387460e-02  3.46705317e-04
 -1.16864838e-01 -1.80471633e-02 -3.72353122e-02 -1.11116886e-01
  9.75947380e-02 -2.91536041e-02  2.35645682e-01 -1.98959783e-02
 -2.20194697e-01 -1.90101966e-01 -5.22264745e-03  1.76173240e-01
 -1.72542229e-01 -1.35505170e-01 -7.01402798e-02 -4.17902181e-03
  5.04898690e-02  3.54137905e-02  3.20799649e-02 -5.21745086e-02
 -7.47335181e-02 -3.88170958e-01 -3.24470140e-02 -1.10001326e-01
  3.86861749e-02 -6.59942925e-02 -7.30934963e-02  1.10617094e-01
 -1.48324996e-01 -1.14403479e-01  6.17952049e-02  1.21523954e-01
 -4.72930931e-02  3.76556925e-02  1.76767036e-01  8.46623350e-03
 -2.05653116e-01  4.21071239e-02  6.98717162e-02  2.74647564e-01
  2.56995827e-01  4.29149047e-02  6.59846067e-02 -1.17999628e-01
  1.38168573e-01 -1.39568388e-01  3.40482593e-02  1.23374820e-01
  1.73795819e-01  5.52651472e-02  1.11490391e-01 -1.29658625e-01
 -9.44829639e-03  4.03540246e-02 -1.50965199e-01  1.66775880e-03
  6.96774349e-02 -1.12350605e-01 -5.16913831e-02 -4.56114784e-02
  1.99735001e-01 -1.84317399e-02 -6.52944595e-02 -1.07332043e-01
  1.66050240e-01 -9.62893069e-02 -8.91743228e-02  7.38168582e-02
 -1.22325733e-01 -1.28519893e-01 -3.05307150e-01  7.52111850e-03
  4.14286464e-01  7.46261701e-02 -2.41965458e-01  4.32410389e-02
 -4.65223100e-04 -5.54687493e-02  1.35540336e-01  1.42550990e-01
 -3.45230550e-02  4.43327576e-02 -1.03255622e-01  8.05349671e-04
  1.72134295e-01 -9.70296785e-02 -1.25888782e-02  1.75283432e-01
  3.16484533e-02  9.66476351e-02  7.75285885e-02 -4.65900777e-03
 -2.46680211e-02  2.38186326e-02 -1.72093347e-01 -7.53951892e-02
  4.49145101e-02 -1.17191255e-01 -5.81001723e-03  4.17420752e-02
 -1.15856126e-01  6.79697320e-02  3.56790386e-02  6.93541244e-02
 -1.99315101e-02 -5.23290448e-02 -4.86339889e-02 -3.87867875e-02
  1.35997668e-01 -2.40090042e-01  2.03510523e-01  1.75505295e-01
 -6.89042211e-02  1.08911470e-01  1.03559278e-01  6.94600716e-02
 -2.50212639e-03 -5.73152788e-02 -1.28712937e-01 -7.14014322e-02
  8.74460265e-02  1.49714295e-02  7.55413100e-02  1.56128323e-02]