[-4.76132594e-02  1.59229293e-01  4.91572879e-02  7.67769804e-03
 -1.31076559e-01 -3.74617875e-02 -1.17843840e-02 -1.19183712e-01
  4.08196449e-02 -6.32062030e-04  2.83025891e-01 -6.15030602e-02
 -2.81621248e-01 -1.64774969e-01  8.64265300e-03  1.67105064e-01
 -8.82618725e-02 -9.71412137e-02 -1.05391219e-01 -6.23864941e-02
  3.38672101e-02  3.76913808e-02  6.95673749e-02  2.27809232e-02
 -6.99553490e-02 -3.78096551e-01 -5.90575896e-02 -1.29846707e-01
  5.97929163e-03 -1.17353849e-01 -4.10149246e-02  1.16392411e-01
 -1.17355898e-01 -9.11616012e-02  7.12672099e-02  1.02218091e-01
 -5.10939658e-02  6.30487967e-03  1.86756775e-01  2.62496155e-02
 -1.28548354e-01  2.73238476e-02  5.54150753e-02  2.83983141e-01
  1.83261797e-01  5.91373406e-02  1.00466467e-01 -5.49794436e-02
  9.26449895e-02 -1.74573869e-01  5.00758104e-02  1.02360480e-01
  1.72649905e-01  2.61830539e-02  1.29609123e-01 -1.37681305e-01
 -3.08251083e-02  7.66087845e-02 -2.10131213e-01  1.94636565e-02
  3.22238468e-02 -8.34841952e-02 -1.06716216e-01 -9.08478424e-02
  2.19625786e-01  6.74520358e-02 -9.48125571e-02 -3.72393541e-02
  1.75840721e-01 -1.13223150e-01 -5.74007146e-02  6.71430603e-02
 -1.45953983e-01 -1.44241229e-01 -2.43660122e-01  5.42040169e-02
  3.90635699e-01  9.26277861e-02 -2.34739736e-01 -1.94842014e-02
  2.94583235e-02 -1.09058637e-02  7.06129298e-02  6.06111400e-02
 -5.57587855e-02  1.90930795e-02 -9.04975906e-02  4.40715030e-02
  1.16875269e-01 -1.09274223e-01 -9.24798194e-03  2.02340439e-01
  3.12250364e-03  7.72125721e-02  8.05535987e-02 -1.03443032e-02
 -2.13067718e-02 -1.94130223e-02 -1.27586395e-01 -1.63343549e-02
  3.16043161e-02 -1.56650335e-01 -9.81569290e-03 -1.80702712e-02
 -1.17142715e-01  3.87649052e-02 -1.41989818e-04 -5.09044342e-03
 -6.37273416e-02 -3.39858197e-02 -8.69725496e-02 -2.73008253e-02
  1.63511559e-01 -2.75059551e-01  2.04890773e-01  1.89159632e-01
 -1.03256680e-01  1.08356372e-01  3.34160291e-02  7.20641240e-02
  7.39605445e-03 -9.04773176e-02 -9.56710801e-02 -1.10025659e-01
  1.11949742e-01 -9.69543587e-03  2.62116194e-02 -2.46083811e-02]