[-7.45714828e-02  1.64837152e-01  4.96645160e-02 -1.04662520e-03
 -1.00946739e-01 -2.12372225e-02 -1.80727465e-03 -1.60821542e-01
  7.51783699e-02 -2.62979697e-02  2.51776457e-01 -3.34344544e-02
 -2.40224585e-01 -1.50210917e-01 -4.23011892e-02  1.32421196e-01
 -1.59447953e-01 -1.02073252e-01 -1.10901393e-01 -2.80627199e-02
  4.19099890e-02  1.87506676e-02  7.82015175e-02  5.11783781e-03
 -1.20521486e-01 -3.23608428e-01 -8.49941298e-02 -8.69630352e-02
  5.60349002e-02 -9.28461105e-02 -3.90785150e-02  1.05474845e-01
 -1.01972938e-01 -5.59678860e-02  3.09678447e-02  6.47954419e-02
  8.51628545e-04 -3.75036262e-02  1.71129897e-01 -1.31611219e-02
 -1.96738854e-01  8.96758810e-02  4.13409136e-02  2.84541905e-01
  2.26452589e-01 -5.79079334e-03  3.67808938e-02 -7.43613765e-02
  1.26206413e-01 -1.44064352e-01  6.75185099e-02  9.74342450e-02
  1.78087518e-01  9.76536609e-03  6.01174943e-02 -1.24563016e-01
 -4.49300706e-02  1.65803954e-01 -1.88584507e-01  1.00720134e-02
  5.74562959e-02 -1.19687341e-01 -8.00035819e-02 -6.31690100e-02
  9.72261280e-02  1.43273711e-01 -8.84880945e-02 -1.30935848e-01
  1.75671756e-01 -1.27669185e-01 -5.67067973e-02  4.40786444e-02
 -1.14208296e-01 -1.13911800e-01 -2.36378357e-01 -2.12419778e-04
  3.27939123e-01  1.01264596e-01 -2.32334599e-01 -1.88111309e-02
 -4.56921943e-02  4.59835604e-02  6.49293438e-02  4.91500758e-02
 -1.12860300e-01 -1.41617386e-02 -1.27019405e-01 -1.58338305e-02
  1.37783647e-01 -4.09326144e-02 -3.86040732e-02  2.44642958e-01
  3.34823206e-02  7.39676226e-03  8.54349881e-02 -6.45526161e-04
 -6.47733435e-02  8.89848080e-03 -1.33780867e-01 -3.86576690e-02
  4.88012545e-02 -1.59915030e-01 -5.26513113e-03  4.72239889e-02
 -1.71986073e-01  1.22069672e-01  2.73097940e-02  8.36972371e-02
  5.28542474e-02 -4.27526869e-02 -3.96248177e-02  1.67783746e-03
  1.63857207e-01 -2.60613620e-01  1.86074093e-01  1.59671351e-01
 -2.11912096e-02  1.21627979e-01  9.97383147e-02  6.34014755e-02
 -6.58355514e-03 -7.09638149e-02 -1.28988177e-01 -8.22925195e-02
  1.08600043e-01 -4.41291146e-02  5.00060022e-02  2.21031643e-02]