[-9.64393243e-02  1.99966818e-01  1.08697198e-01  1.87481474e-02
 -1.34255335e-01 -5.04915304e-02  1.76343080e-02 -8.43569934e-02
  1.00697659e-01 -2.54040770e-03  2.75845438e-01 -5.49015813e-02
 -1.95047185e-01 -1.94331631e-01  7.39060948e-03  1.64661989e-01
 -1.28576398e-01 -1.33493751e-01 -1.09825864e-01 -3.06853652e-02
  8.15789923e-02  2.16644239e-02  2.93390490e-02  1.31950271e-03
 -1.06640689e-01 -4.02325451e-01 -2.09383573e-02 -7.48430267e-02
  7.14674518e-02 -1.14969924e-01 -7.98136219e-02  9.30385217e-02
 -1.77060127e-01 -1.35285079e-01  4.87789623e-02  1.20395958e-01
 -4.50991094e-03  2.23355275e-02  1.46305770e-01 -5.27417548e-02
 -2.24735573e-01  9.67642590e-02  1.06862321e-01  2.74722338e-01
  2.27893636e-01  5.81293590e-02  4.78039011e-02 -1.08674102e-01
  1.25116229e-01 -1.57103851e-01  2.18001250e-02  1.23408809e-01
  1.51270524e-01  3.80354486e-02  7.49340579e-02 -1.24956660e-01
 -4.87850141e-03  5.58502078e-02 -1.98349148e-01 -1.04351340e-04
  6.33128211e-02 -1.32091030e-01 -6.64616078e-02 -4.51210812e-02
  1.76612079e-01  6.94849808e-03 -5.62388264e-02 -1.14590704e-01
  1.28762767e-01 -1.44933581e-01 -3.89795601e-02  8.20700005e-02
 -9.96704474e-02 -1.15747027e-01 -3.26338381e-01  3.64092849e-02
  4.11221415e-01  6.60104975e-02 -2.42628500e-01  5.03339283e-02
 -3.43212262e-02  2.67742574e-03  8.95250812e-02  8.55062529e-02
 -8.30793902e-02  3.62219475e-02 -1.59531161e-01  5.09396158e-02
  1.82778820e-01 -7.54388496e-02  3.33397873e-02  2.09161147e-01
  6.95136040e-02  6.95583224e-02  6.34388104e-02  2.14482620e-02
 -6.95644245e-02  7.10908044e-03 -1.51041612e-01 -3.00757829e-02
  6.12112880e-02 -1.20568588e-01 -9.40045062e-03  3.81494984e-02
 -2.05045268e-01  7.52263591e-02  1.95097979e-02  3.44617777e-02
 -1.09314779e-02 -4.50877659e-02 -2.76717842e-02 -4.91061360e-02
  1.17907718e-01 -2.50389159e-01  2.00141236e-01  2.07986355e-01
 -3.37312184e-02  1.22460626e-01  8.89440104e-02  4.20753025e-02
  4.04440099e-03 -6.40467331e-02 -8.88515636e-02 -5.41272126e-02
  9.52375755e-02 -6.43652007e-02  6.78688660e-02  1.76414885e-02]