[-1.00958064e-01  2.18813539e-01  1.09214701e-01 -5.28413476e-03
 -1.26586124e-01  9.35891364e-03 -4.64492515e-02 -1.49122700e-01
  8.26939270e-02 -4.05098982e-02  2.64483422e-01 -4.06971686e-02
 -2.29155019e-01 -1.46577269e-01  4.41801688e-03  1.52222902e-01
 -1.42196283e-01 -1.56034574e-01 -1.23526528e-01 -5.46573177e-02
  1.62709400e-03  6.63140863e-02  9.89148300e-03  2.53963079e-02
 -1.21489696e-01 -3.55758727e-01 -4.66449074e-02 -8.91986415e-02
  1.08073071e-01 -9.71396267e-02 -8.60956088e-02  6.41970485e-02
 -1.45869762e-01 -5.13975509e-02  3.64482962e-02  9.30046439e-02
 -6.18990231e-03 -1.35567263e-02  1.59367502e-01  7.64033664e-03
 -2.10582376e-01  5.17153852e-02  3.87635306e-02  2.59354979e-01
  2.59000182e-01  3.31571065e-02  3.15011591e-02 -5.48663735e-02
  1.13673091e-01 -1.62430033e-01  5.33300415e-02  1.36775970e-01
  1.72651261e-01  1.95207223e-02  7.22480118e-02 -1.89793974e-01
 -7.87388310e-02  9.91600826e-02 -2.02074990e-01 -1.38450330e-02
  2.89374143e-02 -1.32594630e-01 -7.69446641e-02 -6.61525503e-02
  1.66023210e-01  1.02241419e-01 -8.67997035e-02 -1.18190601e-01
  2.12496385e-01 -1.40235141e-01 -3.19373421e-02  7.25039989e-02
 -9.69960690e-02 -7.54096657e-02 -2.78853625e-01  1.70476828e-02
  4.09702867e-01  7.89637268e-02 -2.39941910e-01 -4.70498577e-03
 -3.47216539e-02 -1.31862462e-02  2.85468679e-02  5.34357131e-02
 -1.15766622e-01 -1.69717763e-02 -1.05267666e-01 -5.03882766e-05
  1.48697644e-01 -1.20173916e-02  1.77874733e-02  2.09187418e-01
  2.01124549e-02  3.66908722e-02  8.17299411e-02  1.80310439e-02
 -7.37148896e-02 -4.28724103e-02 -9.19441730e-02 -4.32240479e-02
 -9.95007623e-03 -1.35736257e-01 -3.60463187e-03  7.19161630e-02
 -1.79718658e-01  1.37660861e-01  3.82242016e-02  4.55696359e-02
 -4.81350813e-03 -1.14747463e-02 -2.07505431e-02 -2.83531044e-02
  1.83960393e-01 -2.70734549e-01  1.69894472e-01  1.63038701e-01
 -5.10705523e-02  1.35876596e-01  7.29095563e-02  7.39209056e-02
 -2.38561258e-02 -6.45812973e-02 -1.27317891e-01 -1.12632833e-01
  7.34819993e-02 -1.09984510e-01  5.56278117e-02  4.86487672e-02]