[-0.06768525  0.1713023   0.08116371  0.00626482 -0.12707675 -0.0123062
 -0.04581927 -0.18619888  0.0881604  -0.08656777  0.30073199 -0.03819937
 -0.21713293 -0.13367489 -0.06180637  0.16835384 -0.18000712 -0.14654821
 -0.08851421 -0.00579013  0.03137672  0.00062259  0.02523009 -0.01686596
 -0.07570969 -0.33207121 -0.08812663 -0.08718791  0.07513869 -0.09440734
 -0.0705552   0.06497156 -0.1116629  -0.06018457  0.04024699  0.06654399
  0.00220991 -0.03011086  0.16566186 -0.03795965 -0.21910913  0.09666438
  0.06760021  0.26706156  0.23409653  0.03348648  0.02922901 -0.09881655
  0.12888002 -0.13114171  0.03038822  0.12074827  0.19275169  0.03153488
  0.04884753 -0.14815858 -0.05691402  0.13385025 -0.15173818 -0.00769784
  0.08447106 -0.08685636 -0.06105844 -0.07593382  0.14369822  0.09975143
 -0.10973673 -0.14216724  0.15342182 -0.14052312 -0.07638399  0.03442957
 -0.13853948 -0.11826368 -0.23494947 -0.01356694  0.34844509  0.07024593
 -0.22480118 -0.01079494 -0.00617613  0.01569049  0.05662823  0.08435465
 -0.06043547 -0.01517912 -0.11040771 -0.03992771  0.1658365  -0.06954831
  0.02191013  0.20783749 -0.0044804   0.01253778  0.04260078  0.02600328
 -0.05984087  0.0281314  -0.12713473 -0.02787044 -0.00535964 -0.10917478
 -0.02039084  0.04352671 -0.1623774   0.10363311  0.00119746  0.08883608
  0.0213837  -0.04629264 -0.01900339 -0.01391706  0.16515487 -0.24773316
  0.19845761  0.187354   -0.02451731  0.10278568  0.09922376  0.0666891
 -0.00176839 -0.05191613 -0.16077586 -0.10575283  0.06444359 -0.08033329
  0.03329385 -0.00106427]