[-0.08245104  0.17670201  0.07986622  0.00746408 -0.10917934 -0.03528456
 -0.04488048 -0.12057666  0.09478506 -0.03664428  0.24275808 -0.01876903
 -0.22912696 -0.17960541  0.01125607  0.17237572 -0.17874274 -0.13468699
 -0.06195587 -0.01228339  0.04595397  0.04537728  0.03097661 -0.05002249
 -0.06595797 -0.40191561 -0.0314531  -0.10180366  0.03715198 -0.05208114
 -0.07587018  0.1046598  -0.14054763 -0.10594998  0.06743332  0.12798499
 -0.04486006  0.03308817  0.17644444  0.01198487 -0.19184478  0.03303064
  0.0622355   0.27929243  0.24885891  0.03854053  0.06112152 -0.1128756
  0.12681375 -0.141618    0.0261874   0.1266699   0.18163842  0.05421652
  0.10779848 -0.14762427 -0.0104847   0.03332128 -0.16313265 -0.00295575
  0.06086636 -0.12210592 -0.05441736 -0.04510531  0.21789108 -0.0103566
 -0.07598304 -0.10072036  0.14935282 -0.09310742 -0.09199832  0.05587959
 -0.12814519 -0.13080272 -0.30499622  0.00625812  0.40436274  0.06428351
 -0.25276753  0.04574227 -0.00292144 -0.05829112  0.13116638  0.14118223
 -0.0357695   0.04001722 -0.10942341  0.00374374  0.15969267 -0.10094658
 -0.01805347  0.17536394  0.01710139  0.11152386  0.07535679 -0.00808175
 -0.03129965  0.02466794 -0.16675684 -0.07712676  0.04812011 -0.12208595
 -0.00595281  0.04071659 -0.13012654  0.06866657  0.04323637  0.06543564
 -0.00657476 -0.05054453 -0.05651883 -0.04653526  0.14051384 -0.25129941
  0.21532145  0.18707    -0.06802755  0.12810475  0.0924896   0.06021509
 -0.00424899 -0.05126644 -0.12980314 -0.06759929  0.07752687  0.01671159
  0.06907475  0.01901365]