[-0.07922688  0.16563836  0.07646747  0.01580589 -0.14282225 -0.00812289
 -0.03437036 -0.16732249  0.07279509 -0.0725145   0.29512507 -0.02342097
 -0.23637168 -0.13584195 -0.03787838  0.15968993 -0.14288767 -0.13738525
 -0.08681352 -0.01224541  0.03781816  0.01373706  0.04245753 -0.00786977
 -0.09411958 -0.33543801 -0.08123426 -0.07911506  0.05483735 -0.10345051
 -0.05951861  0.10409591 -0.09278136 -0.05218226  0.0446542   0.08048216
  0.00568678 -0.03413841  0.1810852  -0.02504273 -0.21017924  0.09362119
  0.05891103  0.28124598  0.23186576  0.00706858  0.04042722 -0.08375284
  0.12550764 -0.14936426  0.03591486  0.10774898  0.1966061   0.02275222
  0.05504994 -0.14686489 -0.04428061  0.1233402  -0.17338403 -0.01202189
  0.06230789 -0.11396029 -0.07827352 -0.08190822  0.14708446  0.11378155
 -0.10410005 -0.13135189  0.1615932  -0.13338982 -0.08487344  0.04236932
 -0.15011799 -0.11502349 -0.24549797  0.00433204  0.3305119   0.0810776
 -0.2442743  -0.00082971  0.0093607   0.0311313   0.04562239  0.08921315
 -0.07112947 -0.02364356 -0.10826612 -0.02700494  0.15534964 -0.06346841
 -0.00300469  0.22381444  0.02507896  0.02437994  0.07597721  0.02372519
 -0.03911897  0.00102935 -0.13149647 -0.02035694  0.01140707 -0.13589482
 -0.01389638  0.04735032 -0.17328171  0.10837039 -0.00735345  0.08004391
  0.02714347 -0.05192765 -0.02774871 -0.00297344  0.15884995 -0.2645359
  0.19259892  0.18084036 -0.03191428  0.1122725   0.09541183  0.0678542
 -0.00232193 -0.04893417 -0.1441388  -0.10407533  0.08647463 -0.07622754
  0.02649127  0.01117853]