[-6.18635491e-02  1.62244633e-01  7.84720108e-02  2.68634711e-03
 -1.22462630e-01  9.72531363e-03 -2.16391366e-02 -9.72637162e-02
  1.28908575e-01 -4.95486483e-02  2.79412359e-01 -1.16383424e-02
 -2.22410083e-01 -1.79141745e-01  1.54734896e-02  1.64307281e-01
 -1.52732477e-01 -1.19901910e-01 -8.66251439e-02 -2.45244745e-02
  5.25406562e-02  3.99918929e-02  2.88885739e-02 -5.03539033e-02
 -7.69147947e-02 -4.17723477e-01 -5.70675805e-02 -9.98139158e-02
  7.32450709e-02 -8.79447460e-02 -6.86625391e-02  8.75455141e-02
 -1.44317612e-01 -1.28810152e-01  4.79017235e-02  1.18125848e-01
 -4.37161140e-02  1.40558099e-02  1.36612386e-01  1.96116716e-02
 -1.90425694e-01  7.20735714e-02  6.06895797e-02  2.93712616e-01
  2.46128991e-01  6.04812615e-02  6.59312010e-02 -1.12765186e-01
  1.10768668e-01 -1.35960087e-01  2.16425844e-02  1.06157996e-01
  1.60329729e-01  4.46090959e-02  1.26941562e-01 -1.21781133e-01
 -2.42339130e-02  3.49737667e-02 -1.78498313e-01 -4.56374744e-03
  5.50640039e-02 -8.75329599e-02 -6.65965900e-02 -7.12571368e-02
  1.87460065e-01  1.61391683e-02 -6.59567118e-02 -1.07560672e-01
  1.50839135e-01 -1.23280101e-01 -9.06951129e-02  4.71165292e-02
 -1.30840465e-01 -1.14976861e-01 -3.10740680e-01  3.28306865e-04
  4.19109672e-01  7.14451149e-02 -2.40440831e-01  4.55733947e-02
  1.70237105e-02 -3.77187729e-02  1.19906880e-01  1.36221007e-01
 -3.33703049e-02  5.10711335e-02 -9.40052271e-02  2.01375410e-02
  1.48375422e-01 -8.99440274e-02 -8.67105497e-04  1.78392425e-01
  1.56349707e-02  7.65105858e-02  9.06709358e-02  1.22140674e-02
 -4.97920886e-02  8.54931027e-03 -1.79724306e-01 -8.34384114e-02
  3.89824435e-02 -1.16801023e-01 -2.95718387e-03  2.00197063e-02
 -1.46247610e-01  9.71484184e-02  3.82550210e-02  4.68378551e-02
 -1.56938599e-03 -5.36257215e-02 -4.28570062e-02 -1.18873585e-02
  1.55194864e-01 -2.61255085e-01  1.96546525e-01  1.99183956e-01
 -7.09539577e-02  1.21514790e-01  9.10174251e-02  6.06045090e-02
 -2.16478389e-02 -4.52619344e-02 -1.31943420e-01 -8.47660452e-02
  3.55320163e-02 -1.54926274e-02  6.43268749e-02  2.07722117e-03]