[-1.22845352e-01  1.37904748e-01  1.14842072e-01  7.34607643e-03
 -1.00989774e-01 -6.63486049e-02  1.59010608e-02 -9.20323059e-02
  5.17034195e-02 -1.81953497e-02  2.75214165e-01 -3.22999433e-02
 -2.38781378e-01 -1.70456335e-01  6.25626463e-03  1.49462029e-01
 -1.65189192e-01 -6.42872974e-02 -8.02508593e-02 -5.62044643e-02
  5.25377207e-02  3.15598659e-02  4.34659980e-02  3.43349588e-04
 -8.73990878e-02 -3.76127779e-01 -2.76015438e-02 -9.08075422e-02
 -2.97827423e-02 -7.79948831e-02 -4.00831923e-02  1.66717157e-01
 -1.38337165e-01 -9.07150581e-02  4.36917618e-02  9.20746848e-02
 -1.78111289e-02  5.21419644e-02  1.31462723e-01  1.21281892e-02
 -1.47020862e-01  1.94955673e-02  6.07631579e-02  2.91592330e-01
  2.46782824e-01  3.79715674e-02  2.66959406e-02 -5.50005622e-02
  8.34124014e-02 -1.82851762e-01 -4.10912596e-02  1.28928423e-01
  1.05739132e-01  3.05950437e-02  8.00462961e-02 -1.31775618e-01
  5.14391391e-03  1.39411017e-02 -1.70406505e-01 -3.23858075e-02
  1.05583286e-02 -1.73002616e-01 -4.99621220e-02 -3.14948969e-02
  1.55941486e-01  1.32222176e-02 -4.93361652e-02 -6.79566637e-02
  1.64932027e-01 -1.04840197e-01 -5.05957417e-02  4.95415702e-02
 -1.58898145e-01 -1.51241824e-01 -2.79837191e-01  2.82003768e-02
  3.76650184e-01  9.27916244e-02 -1.88258305e-01  2.76512094e-02
 -4.38303314e-02 -2.35096980e-02  9.27617997e-02  7.43657574e-02
 -5.70289269e-02  1.32410889e-02 -9.59697291e-02  7.59473965e-02
  1.16405323e-01 -7.91758895e-02 -7.66699994e-03  2.01965615e-01
  2.24916283e-02  4.87436913e-02  8.48481134e-02 -4.59071212e-02
 -1.22173801e-02  3.79635952e-02 -1.79623351e-01 -2.36245319e-02
  2.56978814e-02 -1.65922061e-01  2.59152111e-02  3.74247134e-02
 -1.83916986e-01  3.53325866e-02  3.32594775e-02  7.65396003e-03
 -3.68562043e-02 -5.00436909e-02 -7.25716949e-02 -1.24874432e-02
  1.24177061e-01 -2.39293769e-01  2.07634687e-01  2.44198158e-01
 -2.88691111e-02  1.33101881e-01  4.82854359e-02  2.40823999e-02
 -1.62494294e-02 -6.94835931e-02 -7.00076893e-02 -4.55129407e-02
  9.68669802e-02  3.57733661e-04  3.64033133e-02 -1.52982790e-02]