[-0.05729673  0.16630359  0.06188644  0.02195746 -0.13622512 -0.01691863
 -0.00400862 -0.11797112  0.05056033 -0.02220037  0.2796602  -0.08175977
 -0.28724363 -0.14373319 -0.00799807  0.18284057 -0.10326387 -0.1178946
 -0.09250476 -0.05378937  0.04130588  0.0417615   0.04041148  0.01311943
 -0.08421429 -0.39015931 -0.04780109 -0.12777729  0.00525919 -0.10324265
 -0.05787012  0.12346776 -0.11452212 -0.08924085  0.06969743  0.11384346
 -0.05551495  0.01469492  0.17566867  0.02457497 -0.1435668   0.04674386
  0.06056468  0.30364591  0.18432277  0.07203086  0.08890814 -0.05907435
  0.08500369 -0.17978889  0.04010662  0.10453077  0.17111634  0.03684093
  0.11718444 -0.14731669 -0.03497834  0.05788593 -0.20309733  0.02129963
  0.04869451 -0.09284457 -0.08734105 -0.08976929  0.21993022  0.0425222
 -0.09205582 -0.0384366   0.17258504 -0.118591   -0.064199    0.05402374
 -0.14373221 -0.14480768 -0.25305668  0.05518357  0.40794083  0.09299301
 -0.22121441 -0.00320141  0.04614313 -0.00848779  0.0853221   0.07340079
 -0.04615497  0.01351271 -0.09358228  0.04114102  0.12710463 -0.11042567
 -0.01128176  0.19242646 -0.00230534  0.06617259  0.08007392 -0.00791383
 -0.02739436 -0.00769753 -0.13098766 -0.02213021  0.02619131 -0.15240793
 -0.01196097 -0.01111181 -0.12410464  0.04911471 -0.006547    0.00705153
 -0.05655194 -0.02799088 -0.09620335 -0.01502349  0.16943082 -0.27769718
  0.19735271  0.19687852 -0.09301177  0.1114881   0.05241404  0.05882654
  0.01008999 -0.07262568 -0.12281801 -0.11946783  0.11652204 -0.01547369
  0.038754   -0.01251601]