[-5.76334707e-02  1.67541891e-01  6.92346022e-02  4.31288173e-03
 -1.16613165e-01  7.83190224e-03 -4.50141123e-03 -8.85388479e-02
  1.29024729e-01 -4.14495282e-02  2.74787337e-01 -2.38305610e-02
 -2.33902976e-01 -1.91275239e-01  3.15381177e-02  1.55078694e-01
 -1.49403855e-01 -1.24388747e-01 -8.63321126e-02 -1.45837395e-02
  5.69737367e-02  2.45694742e-02  2.66877152e-02 -5.44575267e-02
 -7.86594525e-02 -4.22175139e-01 -5.45453988e-02 -9.18365866e-02
  8.04759338e-02 -8.58235285e-02 -6.52435347e-02  9.73378420e-02
 -1.36332512e-01 -1.30022243e-01  4.85797524e-02  1.22056462e-01
 -4.48300205e-02  4.77950275e-03  1.40979096e-01  1.59736220e-02
 -1.87443540e-01  6.34589717e-02  5.38704805e-02  2.86595285e-01
  2.45106146e-01  4.66152988e-02  7.13693649e-02 -1.07128598e-01
  1.08640172e-01 -1.52340591e-01  1.59868151e-02  1.12346485e-01
  1.66984275e-01  4.37698700e-02  1.47383332e-01 -1.16282895e-01
 -2.06100866e-02  4.74275239e-02 -1.87608048e-01 -5.48244361e-03
  4.87033539e-02 -8.20017233e-02 -5.77067621e-02 -7.29875788e-02
  1.93599865e-01  1.91318300e-02 -6.76179752e-02 -9.60109606e-02
  1.68998584e-01 -1.15276039e-01 -8.51527303e-02  4.72119562e-02
 -1.17597580e-01 -1.17345452e-01 -3.02030057e-01  1.24241021e-02
  4.11125630e-01  8.13212544e-02 -2.39517957e-01  4.91212755e-02
  1.08163273e-02 -4.02043723e-02  1.12283520e-01  1.27167210e-01
 -4.97173704e-02  4.33633626e-02 -9.98459533e-02  1.37530165e-02
  1.44563273e-01 -7.97750726e-02  5.26539749e-03  1.83775067e-01
  1.82683952e-02  7.61460215e-02  9.72660035e-02  9.98642281e-05
 -4.52722386e-02  5.09560574e-03 -1.74896106e-01 -7.90683478e-02
  4.75946553e-02 -1.46466658e-01 -1.36577711e-03  3.23727243e-02
 -1.46832034e-01  8.24569836e-02  3.12941633e-02  4.61034440e-02
  2.72827875e-03 -5.55711873e-02 -3.31004336e-02 -4.76826541e-03
  1.45249292e-01 -2.79229939e-01  1.90128833e-01  1.90282390e-01
 -7.77974129e-02  1.15759574e-01  8.38844925e-02  6.11704774e-02
 -1.18365809e-02 -5.53727262e-02 -1.24654531e-01 -8.41487721e-02
  3.24923843e-02 -1.22229010e-02  4.43622880e-02  5.62644098e-03]