[-0.08013921  0.17119731  0.07810556  0.00387195 -0.11498474 -0.02630918
 -0.01777126 -0.12693314  0.0937947  -0.0443082   0.24028364 -0.0233573
 -0.23092902 -0.16323732 -0.0078254   0.18145715 -0.18227243 -0.1356872
 -0.0485167  -0.01721064  0.040081    0.03397374  0.02151122 -0.04107514
 -0.07933019 -0.36991128 -0.03152883 -0.10094243  0.01195442 -0.04339295
 -0.06383442  0.12655136 -0.14370529 -0.11172541  0.07419115  0.13002133
 -0.04443628  0.03950632  0.17650451 -0.00566116 -0.18275099  0.04427213
  0.08227215  0.29300722  0.22522123  0.03651677  0.05018741 -0.11662944
  0.12905352 -0.1444198   0.0057383   0.11069693  0.16060781  0.06072265
  0.09134319 -0.14430927  0.00842344  0.02989822 -0.15132776 -0.00369246
  0.0631737  -0.1397175  -0.04311421 -0.05228381  0.21771947 -0.02289276
 -0.06519421 -0.09436043  0.15047465 -0.09475706 -0.09408698  0.05888809
 -0.1284205  -0.12787758 -0.30582318  0.00410559  0.3994551   0.08180174
 -0.23551272  0.0483535   0.01331486 -0.0358046   0.14616635  0.14927404
 -0.02701315  0.04649716 -0.10436475  0.01405259  0.16948168 -0.10434699
 -0.02289402  0.1750596   0.02524847  0.10553632  0.07816782 -0.0174686
 -0.02509862  0.02638537 -0.18596111 -0.06120079  0.0435441  -0.10985772
  0.00318693  0.05419114 -0.12992196  0.05490379  0.02805204  0.05856062
 -0.01894001 -0.04395564 -0.05135838 -0.03814099  0.13574687 -0.24787009
  0.20754559  0.18839003 -0.07933846  0.11651104  0.0905334   0.05311318
 -0.01402224 -0.05035545 -0.13244919 -0.06657972  0.100006    0.00723625
  0.08693126  0.00687501]