[-0.06051345  0.16580352  0.06860519  0.02840912 -0.12069652 -0.02760873
  0.00616286 -0.12506853  0.05637509 -0.00830953  0.28363323 -0.06798569
 -0.28870782 -0.14707711 -0.01980696  0.17543322 -0.1078557  -0.11805679
 -0.09090725 -0.05317917  0.05367085  0.04004327  0.03979654  0.01044811
 -0.08055796 -0.38476703 -0.06541673 -0.11484063  0.00498008 -0.09259593
 -0.05545389  0.1133194  -0.12030101 -0.09796099  0.07295733  0.10865364
 -0.04350246  0.01272939  0.16821466  0.03308732 -0.14118643  0.04941541
  0.06814852  0.30554119  0.18836142  0.08536507  0.09005379 -0.07663018
  0.08732731 -0.15915374  0.05013516  0.11181935  0.17617081  0.03707984
  0.11562572 -0.14953294 -0.03457357  0.06102001 -0.19229262  0.01898129
  0.05476018 -0.09576248 -0.07802527 -0.0892975   0.19974966  0.03618082
 -0.08276428 -0.0546989   0.17366102 -0.12981911 -0.07117262  0.0531833
 -0.14611514 -0.13941823 -0.2657913   0.05569196  0.42053184  0.09200525
 -0.21693651  0.00227081  0.04007903 -0.00404709  0.09832995  0.08445036
 -0.04768008  0.02031495 -0.107785    0.02752255  0.1322204  -0.10076409
 -0.01529164  0.18947893 -0.00305426  0.06875298  0.08571427 -0.01201863
 -0.03274116  0.0067068  -0.12839688 -0.0261555   0.01352586 -0.14070724
 -0.0080722  -0.01128753 -0.11778986  0.03668515 -0.00338094  0.01339127
 -0.05808419 -0.03306921 -0.093009   -0.02528699  0.15931998 -0.27779111
  0.19172683  0.19416156 -0.09701333  0.10913713  0.05323014  0.07757985
  0.00546543 -0.06997393 -0.11958971 -0.10700186  0.10915282 -0.01563117
  0.04674561 -0.01678433]