[-0.0633669   0.18125424  0.06856713 -0.00878467 -0.1275797  -0.00906349
 -0.0403506  -0.17297547  0.08909887 -0.08840293  0.30463615 -0.0463558
 -0.25038791 -0.13376145 -0.05153348  0.1663769  -0.18811485 -0.1387264
 -0.09567696 -0.01430777  0.04222755  0.00695754  0.03117349 -0.01867865
 -0.09158421 -0.3420516  -0.08275637 -0.08651149  0.05060611 -0.11199825
 -0.0377891   0.09548849 -0.09149883 -0.04304489  0.02382961  0.06494557
 -0.00843622 -0.03231817  0.16382293 -0.02847322 -0.19666605  0.09153976
  0.07048514  0.28718102  0.24135737  0.01090074  0.0344861  -0.0845522
  0.11637168 -0.14889343  0.01513276  0.11500352  0.20724009  0.03150132
  0.06404264 -0.14729664 -0.04352763  0.12340062 -0.17566113  0.00328084
  0.07811558 -0.09983242 -0.08119959 -0.05671783  0.15935282  0.11385938
 -0.12024591 -0.1112323   0.17840536 -0.11433031 -0.07985178  0.02363609
 -0.15222993 -0.12079892 -0.22090752 -0.02618347  0.33754241  0.05570848
 -0.23781934 -0.01080733 -0.00442654  0.02503409  0.04218728  0.0745104
 -0.08701438 -0.03776636 -0.12301379  0.00103975  0.14627635 -0.07274858
  0.0036283   0.22104605  0.01374794  0.00319488  0.06469946  0.02348386
 -0.05622956  0.01273554 -0.14366245 -0.03372225  0.02332061 -0.1437774
 -0.03279424  0.03797203 -0.14941509  0.11812713  0.02276989  0.0862498
  0.02255776 -0.05038705 -0.02869315  0.01085599  0.1745836  -0.24676953
  0.19901127  0.17479526 -0.02624422  0.10609581  0.09184618  0.06013418
 -0.00478146 -0.06536745 -0.15503651 -0.10601249  0.05906791 -0.06399053
  0.03600197  0.00845635]