[-0.03233439  0.13597494  0.07271266  0.00950601 -0.15845124 -0.01518768
 -0.00618689 -0.18122569  0.07684823 -0.04380997  0.25078794 -0.05199425
 -0.23133786 -0.11415813 -0.01066721  0.13917647 -0.11298741 -0.14530838
 -0.0710444  -0.04725584 -0.00595024 -0.01040734  0.03391305  0.02916949
 -0.09451744 -0.29071212 -0.07623444 -0.12175905  0.06253463 -0.10835627
 -0.06479933  0.10848578 -0.08727296 -0.0509976   0.03113304  0.08151149
 -0.05589798 -0.04872714  0.16366789  0.00273874 -0.1903595   0.0598577
  0.03021413  0.27588946  0.26550138  0.00956768  0.03952483 -0.06112318
  0.12154951 -0.19004332  0.05464631  0.11423191  0.15702806  0.03120968
  0.06216592 -0.14211576 -0.05032135  0.10963332 -0.21429308  0.02062442
  0.06445613 -0.0983929  -0.07310428 -0.07749198  0.16131304  0.16045372
 -0.07135466 -0.11243343  0.19208631 -0.17348178 -0.10123644  0.04673471
 -0.14112659 -0.10934867 -0.21415842 -0.00314666  0.33805978  0.09900368
 -0.1934877  -0.01568272 -0.02433812  0.0205038   0.03245554  0.03583353
 -0.05694604 -0.04319908 -0.10405514 -0.03123145  0.15234999 -0.09080024
  0.00916001  0.22129498 -0.00490538 -0.00798877  0.07105904  0.01593911
 -0.04934887  0.01759985 -0.13665907 -0.07941014  0.01426613 -0.14438549
  0.02382839  0.04456273 -0.19886528  0.12407165 -0.00133004  0.06194124
  0.01632188 -0.07134384 -0.0420399   0.0144379   0.20440435 -0.25598082
  0.20324039  0.16374798 -0.01780514  0.08554032  0.05149743  0.04623793
 -0.00973776 -0.09754302 -0.12758385 -0.07674491  0.05981424 -0.05030975
 -0.0076373   0.03877484]