[-0.11137681  0.1564279   0.08701862 -0.01224187 -0.0996196  -0.02818246
 -0.01607678 -0.15390378  0.10096115 -0.06476896  0.26263106 -0.04889522
 -0.22093044 -0.1525176  -0.00873103  0.18186067 -0.17921513 -0.17052576
 -0.05718848 -0.0425446  -0.02400788  0.02534488 -0.00089912  0.03073444
 -0.12158593 -0.36620265 -0.05868156 -0.08283445  0.01471545 -0.02294117
 -0.06051622  0.10861906 -0.14955457 -0.03851479  0.0598354   0.13045757
  0.0256849  -0.04694761  0.17098588 -0.00822037 -0.2247182   0.02289139
  0.06080056  0.27887928  0.237137   -0.00913053  0.01215362 -0.08404179
  0.16368352 -0.13740543 -0.01015155  0.12629244  0.10625841  0.00053319
  0.03151974 -0.16078386 -0.04219496  0.10013484 -0.21792682 -0.09005039
 -0.00177264 -0.14698423 -0.05974045 -0.10904992  0.19173163  0.11105068
 -0.0965303  -0.14424066  0.22955108 -0.14068095 -0.03948654  0.05590316
 -0.13178508 -0.11496977 -0.30964217  0.00632857  0.38187286  0.07709774
 -0.20203581  0.03670655 -0.02635765 -0.00779758  0.07292016  0.13046929
 -0.0401119   0.0245684  -0.11679428 -0.01684686  0.18417625 -0.02940972
 -0.01847567  0.17404392 -0.01657909  0.04030138  0.07732031  0.02022596
 -0.08085573  0.00867466 -0.16149905 -0.03585001 -0.00099623 -0.0816121
  0.00766323  0.09433991 -0.16586044  0.08905222  0.03547224  0.03615579
 -0.01394917 -0.05172116 -0.00311364 -0.03144602  0.14319806 -0.27031288
  0.17153688  0.13031584 -0.04366653  0.16833527  0.066115    0.05865357
 -0.05846826 -0.08225212 -0.15886994 -0.08202696  0.07725047 -0.05030194
  0.0970109   0.02093672]