[-5.54470792e-02  1.72449172e-01  5.74876927e-02  7.76675669e-03
 -1.22076966e-01  2.18165349e-02 -2.07287092e-02 -9.62081775e-02
  1.35610804e-01 -4.01096903e-02  2.65565068e-01 -1.76081676e-02
 -2.38539293e-01 -1.85229853e-01  3.47614065e-02  1.54046103e-01
 -1.42913207e-01 -1.26798376e-01 -8.45798627e-02 -2.35128067e-02
  5.17786704e-02  2.89432853e-02  2.68843062e-02 -4.66704406e-02
 -8.50147009e-02 -4.13943499e-01 -4.64439951e-02 -9.86800939e-02
  7.57860243e-02 -8.47605243e-02 -7.65135214e-02  9.72719416e-02
 -1.40972272e-01 -1.31368294e-01  5.70273995e-02  1.26253635e-01
 -4.42330837e-02  1.93877053e-02  1.39934719e-01  1.57933813e-02
 -1.88744351e-01  6.24883547e-02  5.70657738e-02  2.82894105e-01
  2.43741438e-01  4.49730642e-02  7.25872293e-02 -1.00237243e-01
  1.04809217e-01 -1.55395195e-01  3.40731442e-02  1.15858078e-01
  1.73552409e-01  4.01168764e-02  1.42818242e-01 -1.37516662e-01
 -3.88154685e-02  5.61556220e-02 -1.81389019e-01  1.09478291e-02
  5.45203872e-02 -8.35094228e-02 -6.80099204e-02 -6.77763075e-02
  1.96237981e-01  2.99046431e-02 -7.03774616e-02 -1.07858889e-01
  1.58651397e-01 -1.09962955e-01 -7.92637691e-02  5.72959892e-02
 -1.25431687e-01 -1.23816013e-01 -3.02557230e-01  1.66811571e-02
  4.14246529e-01  7.51606971e-02 -2.39824936e-01  4.42997329e-02
  8.47202167e-03 -3.89324240e-02  1.02894679e-01  1.17681108e-01
 -4.20383886e-02  3.87204662e-02 -9.25138593e-02  1.96171906e-02
  1.45856738e-01 -7.91844130e-02 -1.65831298e-04  1.81867272e-01
  1.04666743e-02  7.23826513e-02  8.74169320e-02  9.42727271e-03
 -4.64143306e-02 -5.33655426e-03 -1.76298186e-01 -8.86120126e-02
  3.80041115e-02 -1.43376455e-01 -1.78162090e-03  2.88947858e-02
 -1.55121714e-01  8.04733858e-02  3.09927501e-02  4.50026020e-02
 -2.94818799e-03 -5.28222285e-02 -4.11631726e-02 -3.10309418e-03
  1.59222648e-01 -2.82396972e-01  2.00028166e-01  1.88257575e-01
 -6.72246665e-02  1.19994484e-01  8.22642520e-02  5.40107973e-02
  4.96878114e-04 -5.53733110e-02 -1.23630397e-01 -8.53683278e-02
  3.39848213e-02 -1.76654551e-02  4.43609133e-02  8.95419531e-03]