[-0.04199735  0.14020489  0.07459585  0.00164137 -0.17321162 -0.00185961
 -0.00312901 -0.16700435  0.07643314 -0.02885038  0.23562752 -0.0472542
 -0.23374334 -0.10339496 -0.02864231  0.15299957 -0.12225274 -0.16961923
 -0.07730218 -0.05021609 -0.00751569 -0.0031803   0.0156519   0.03260877
 -0.10377562 -0.28892294 -0.06020055 -0.10690012  0.05939446 -0.11233275
 -0.06540428  0.11699505 -0.10693774 -0.04759957  0.04335777  0.08632367
 -0.04144397 -0.04309016  0.15727742  0.01349936 -0.20261315  0.08693614
  0.04514482  0.28809807  0.27824172  0.00434801  0.03322504 -0.06455682
  0.12649177 -0.1902962   0.04300835  0.12902512  0.16531397  0.03439359
  0.04251465 -0.1480886  -0.05164243  0.10500196 -0.20233765  0.02598674
  0.06658372 -0.11433112 -0.06490624 -0.0860583   0.14954661  0.14057793
 -0.07406812 -0.12310692  0.18119898 -0.173684   -0.10115051  0.03904919
 -0.14340821 -0.0985414  -0.22589993 -0.00415458  0.3367351   0.08926738
 -0.21297744 -0.00543818 -0.01548144  0.03621956  0.02984101  0.0512633
 -0.06096228 -0.04239152 -0.10537686 -0.02975176  0.17173505 -0.08341645
  0.01097325  0.21569014  0.0027484  -0.008372    0.07660072  0.02485873
 -0.0495104   0.0099421  -0.13660428 -0.06932861 -0.01343931 -0.14428014
  0.01946523  0.04351763 -0.19322923  0.12353177 -0.00236718  0.06817582
 -0.00335123 -0.06469882 -0.03177039  0.01354281  0.19936614 -0.2504136
  0.21786737  0.1754034  -0.02294977  0.080966    0.06030517  0.04552887
 -0.01426913 -0.07831963 -0.10800513 -0.08133142  0.06123978 -0.06699396
  0.00582336  0.03916423]