[-7.64168128e-02  1.39632568e-01  9.00014862e-02  3.04379407e-02
 -1.03091657e-01 -4.17114273e-02 -3.76143865e-03 -1.37128964e-01
  3.98357697e-02 -8.12278711e-04  3.25655252e-01 -2.83800941e-02
 -2.26570800e-01 -1.87599257e-01 -2.20561288e-02  1.76878929e-01
 -1.04856931e-01 -1.14534490e-01 -9.30967629e-02 -7.40385056e-03
  4.33947369e-02  9.35368892e-03  6.09574877e-02 -2.87255328e-02
 -9.74197313e-02 -3.82907957e-01 -6.19161502e-02 -1.11864842e-01
  1.46344518e-02 -9.30010974e-02 -8.58929679e-02  8.96171257e-02
 -1.59386814e-01 -1.01845138e-01  6.34130985e-02  9.33057517e-02
 -2.22374853e-02 -6.96704164e-03  1.77124709e-01  3.54057588e-02
 -1.88411519e-01  5.38279712e-02  4.62896302e-02  2.76123673e-01
  2.12459400e-01  4.04747091e-02  8.33323896e-02 -1.03239730e-01
  7.67017454e-02 -1.47245780e-01  5.48324063e-02  8.34418163e-02
  1.53544128e-01  2.35718172e-02  7.24940374e-02 -1.04505517e-01
 -3.98544967e-02  4.72339317e-02 -1.52134821e-01 -6.78690663e-03
  4.80362400e-02 -1.01478115e-01 -9.64416787e-02 -1.10513821e-01
  1.74874350e-01  3.24070826e-02 -9.23842192e-02 -7.21618757e-02
  1.32686421e-01 -1.14432015e-01 -7.38447085e-02  5.21218367e-02
 -1.35166928e-01 -1.43739641e-01 -3.18890840e-01  5.74831031e-02
  4.21873152e-01  7.74668902e-02 -2.62555569e-01 -7.07799802e-03
 -1.10224832e-03 -1.48785654e-02  1.08290471e-01  1.19749501e-01
 -1.45723047e-02  5.11340797e-02 -9.37264189e-02  2.61655456e-04
  1.67378560e-01 -1.07451618e-01 -1.17996195e-02  1.97835609e-01
 -1.85704287e-02  8.01324397e-02  7.05760345e-02  1.41517064e-02
 -6.94906665e-03  1.17311282e-02 -1.08345188e-01 -2.26166192e-02
  3.26239765e-02 -1.27409905e-01 -9.42031201e-03  3.30516584e-02
 -1.44520447e-01  2.38480698e-02  7.66561180e-03  2.52973288e-02
  2.57907603e-02 -4.50981744e-02 -5.96059337e-02 -8.63598436e-02
  1.20827273e-01 -2.63608307e-01  1.82215497e-01  2.24251255e-01
 -7.47130141e-02  9.37322378e-02  8.56408998e-02  7.91020170e-02
 -9.56681650e-03 -2.66242176e-02 -1.25638083e-01 -7.38652274e-02
  9.77883935e-02 -5.92629379e-03  3.60552371e-02 -2.46584378e-02]