[-8.17401111e-02  1.57301798e-01  1.07916407e-01 -4.59239399e-03
 -9.47560146e-02  3.04007833e-03 -1.98632721e-02 -1.49537995e-01
  7.05066621e-02 -7.95090348e-02  2.80484557e-01 -1.23718167e-02
 -2.22182468e-01 -1.70999885e-01  3.21440771e-03  1.80797189e-01
 -1.28026053e-01 -1.39059156e-01 -9.93091986e-02 -2.32280325e-02
 -4.72600535e-02  5.31192310e-02  3.05747390e-02  3.75636853e-03
 -8.46780539e-02 -3.44756931e-01 -4.51536588e-02 -8.33637640e-02
  1.90370567e-02 -4.32145521e-02 -9.31592360e-02  1.21302180e-01
 -1.18232943e-01 -3.64348479e-02  7.47720525e-02  1.12857006e-01
 -2.00250596e-02 -1.25544732e-02  1.64965734e-01  2.03053103e-04
 -1.81397319e-01  1.65329818e-02  4.16693799e-02  2.57857502e-01
  2.62118191e-01 -1.38753196e-02  2.79230364e-02 -7.57070556e-02
  1.49817064e-01 -1.72634155e-01  8.96155741e-03  9.35168266e-02
  1.65253147e-01  1.50578497e-02  5.55837750e-02 -1.39472172e-01
 -5.41786551e-02  1.02697827e-01 -1.69121727e-01 -3.17043401e-02
 -7.98733905e-03 -1.63692445e-01 -6.54173568e-02 -8.20267126e-02
  1.84745282e-01  9.73812267e-02 -1.06352665e-01 -1.31466910e-01
  2.01219305e-01 -1.35355696e-01 -6.88442215e-02  3.97584997e-02
 -1.34110093e-01 -9.31186602e-02 -3.08628768e-01 -4.53601405e-03
  3.73814166e-01  9.37925056e-02 -2.22298369e-01 -1.80900097e-03
 -3.44306529e-02 -1.59938764e-02  3.05174142e-02  1.03825383e-01
 -8.05131420e-02 -2.44084299e-02 -9.59593803e-02 -3.16739641e-02
  1.91999242e-01 -4.75720279e-02 -2.41987836e-02  1.89371988e-01
 -2.27597449e-02  7.33578801e-02  5.55628538e-02 -2.93032732e-02
 -4.14741226e-02 -2.02996936e-02 -1.39919266e-01 -4.33236435e-02
 -4.79263179e-02 -1.29071385e-01  1.70087237e-02  1.06832318e-01
 -1.69679925e-01  9.49399695e-02  3.28714703e-03  6.57470450e-02
  3.59568037e-02 -1.64135788e-02 -4.51087430e-02 -4.52066027e-02
  1.48709446e-01 -2.33881697e-01  1.67532474e-01  1.56358719e-01
 -7.00368313e-03  1.17721632e-01  9.41881686e-02  6.36183023e-02
 -2.87519936e-02 -4.49601971e-02 -1.39533743e-01 -8.47042352e-02
  9.18085501e-02 -5.64390197e-02  6.45365715e-02  2.53240950e-02]