[-5.55753112e-02  1.51345819e-01  8.41278955e-02  1.34041486e-02
 -1.31119445e-01 -4.96001921e-05 -8.11167657e-02 -1.99392468e-01
  7.80684352e-02 -9.06983837e-02  2.58267760e-01 -3.94078456e-02
 -1.95075080e-01 -1.43755168e-01 -2.42828354e-02  1.48480102e-01
 -1.52499720e-01 -1.49076968e-01 -6.31956533e-02 -4.60872799e-03
  2.29248721e-02  2.36668345e-02  4.75630388e-02 -3.61504522e-03
 -1.04682483e-01 -3.36162090e-01 -9.09172520e-02 -1.00229800e-01
  7.52349049e-02 -9.50998887e-02 -1.17357545e-01  7.83703104e-02
 -1.15459278e-01 -5.88390827e-02  3.78457084e-02  8.58827233e-02
 -7.87458755e-03 -3.23117971e-02  1.23237900e-01 -4.71099168e-02
 -2.23378614e-01  7.72760808e-02  6.11330383e-02  2.60997295e-01
  2.48886630e-01  1.61069073e-02  3.47302109e-02 -7.88974389e-02
  1.01461940e-01 -1.11874536e-01  5.67690544e-02  1.07675269e-01
  2.01053455e-01  3.28437202e-02  3.59374024e-02 -1.28067553e-01
 -4.49188836e-02  1.38182685e-01 -1.44672051e-01  2.44085621e-02
  1.07373632e-01 -9.25185010e-02 -5.62245958e-02 -4.45458591e-02
  1.66124076e-01  1.06272593e-01 -1.03636563e-01 -1.54350296e-01
  1.32235304e-01 -1.36353090e-01 -9.81850550e-02  3.46230902e-02
 -1.61118433e-01 -1.16798401e-01 -2.48367473e-01 -2.46752035e-02
  3.44079643e-01  6.46966770e-02 -2.32870743e-01 -1.11063349e-03
 -1.67012047e-02  2.76127141e-02  6.07406981e-02  9.26077291e-02
 -4.92260270e-02 -2.90469918e-02 -1.05479859e-01 -1.79117881e-02
  1.79537684e-01 -6.48105666e-02  6.62704883e-03  1.98408887e-01
 -6.36557874e-04  9.98916756e-03  4.00544591e-02  3.32754627e-02
 -4.06884253e-02  3.55586633e-02 -1.12872444e-01 -3.14569846e-02
  4.06813575e-03 -1.04750000e-01 -2.01276969e-02  8.04551989e-02
 -1.77128464e-01  1.38247773e-01  2.02545747e-02  9.97374877e-02
  6.93904236e-02 -3.96991037e-02 -3.26224528e-02 -3.07014082e-02
  1.62540004e-01 -2.58635610e-01  1.85630143e-01  1.88315585e-01
  2.51060408e-02  9.63488743e-02  7.31807500e-02  6.70535192e-02
  1.53804542e-02 -4.49201725e-02 -1.82706818e-01 -8.37599114e-02
  7.75892362e-02 -9.33273360e-02  2.11372189e-02  3.14183272e-02]