[-0.0526469   0.16119625  0.08134267 -0.0005371  -0.14105418 -0.00748979
 -0.02440399 -0.16304466  0.08771111 -0.04215888  0.27477005 -0.04660068
 -0.21859775 -0.11811137 -0.031804    0.14926887 -0.12748431 -0.1558532
 -0.08755808 -0.0435528   0.01417978  0.01233702  0.00376881  0.0157313
 -0.12609732 -0.32342264 -0.06993843 -0.0898565   0.0676939  -0.08961469
 -0.06063653  0.12632912 -0.10815815 -0.05385347  0.03452152  0.09331869
 -0.01521646 -0.02309146  0.15133537  0.02539337 -0.20136152  0.07834373
  0.03879534  0.31828317  0.26588604 -0.00810379  0.05485059 -0.06708237
  0.10459192 -0.17197044  0.04483705  0.129732    0.18251352  0.0320964
  0.07951578 -0.1458834  -0.05175686  0.11729345 -0.1991532  -0.00444077
  0.06257501 -0.07536731 -0.05703176 -0.09324818  0.16284072  0.13328062
 -0.08694648 -0.10132753  0.18419906 -0.13758092 -0.08115175  0.03340625
 -0.14538503 -0.09995296 -0.26520696  0.00201265  0.35513625  0.084526
 -0.2454156  -0.00207532 -0.01344464  0.02326843  0.0590138   0.03502555
 -0.0848433  -0.0130672  -0.10806055 -0.01613442  0.15898432 -0.05061641
  0.00823984  0.19762154  0.00936035 -0.0311464   0.09486107  0.03466826
 -0.06400035 -0.00669996 -0.1519264  -0.06006217 -0.0137325  -0.14371474
 -0.00357658  0.05689332 -0.19699565  0.13719593  0.02316932  0.05257141
 -0.01186378 -0.05409877 -0.03149831  0.01353572  0.19637893 -0.25280973
  0.17208453  0.15696302 -0.03889423  0.10686459  0.06776565  0.04958203
 -0.04726199 -0.07050263 -0.10905605 -0.08928077  0.05420166 -0.07394999
  0.02517099  0.03079471]