[-5.22964709e-02  1.69457510e-01  4.58040647e-02 -7.83744920e-03
 -1.04217246e-01  2.27291789e-02 -2.77848598e-02 -1.40042230e-01
  7.42196962e-02 -5.34520447e-02  2.91573584e-01 -6.44134432e-02
 -2.51760542e-01 -1.57307610e-01 -4.66621444e-02  1.57707557e-01
 -1.73174486e-01 -1.08863391e-01 -1.15098670e-01 -1.26278149e-02
  4.95637767e-02  5.45864040e-03  9.15854424e-03 -1.37561429e-02
 -1.05320059e-01 -3.61675233e-01 -5.91700673e-02 -9.11099836e-02
  6.35479689e-02 -1.12980880e-01 -2.54849531e-02  1.10536687e-01
 -8.84996578e-02 -4.82844263e-02  1.93431713e-02  6.87944517e-02
 -2.04591770e-02 -2.61356365e-02  1.69025853e-01 -2.09641010e-02
 -2.02723056e-01  8.15524682e-02  5.94124906e-02  2.84046650e-01
  2.62998044e-01  2.57615428e-02  3.70903574e-02 -6.71278238e-02
  1.06763862e-01 -1.70489505e-01  3.28931212e-02  1.19127095e-01
  1.63392559e-01  4.45891768e-02  7.10896179e-02 -1.61095694e-01
 -3.57041135e-02  1.24696366e-01 -1.95512801e-01 -6.27572183e-03
  4.25476991e-02 -1.13944113e-01 -7.03679174e-02 -4.66686599e-02
  1.26162097e-01  1.08296625e-01 -8.94186199e-02 -1.37822911e-01
  1.71866938e-01 -1.48135141e-01 -5.89634776e-02  3.77795175e-02
 -1.32802829e-01 -1.24808908e-01 -2.52896130e-01 -5.84184239e-03
  3.40915054e-01  1.00121975e-01 -2.31776223e-01  8.53757374e-03
  1.90565214e-02 -1.85802583e-05  9.80601609e-02  7.40575939e-02
 -7.09061697e-02 -4.77336757e-02 -1.06247835e-01 -1.38673130e-02
  1.26734436e-01 -4.70859781e-02 -1.30730337e-02  2.20925614e-01
 -1.48486870e-03 -1.36214299e-02  7.96665475e-02  7.80479191e-03
 -6.56861216e-02  3.07500195e-02 -1.17180519e-01 -5.14361523e-02
  5.57502583e-02 -1.41981900e-01  3.18706792e-04  4.62708920e-02
 -1.56644210e-01  1.44100979e-01  2.55069509e-03  1.02407090e-01
  4.68615443e-02 -6.76496252e-02 -2.55607255e-02  3.14364135e-02
  2.02496201e-01 -2.45061472e-01  1.91277474e-01  1.70280978e-01
 -2.95806061e-02  1.10309720e-01  1.19770423e-01  6.48767352e-02
 -1.78250147e-03 -5.29788435e-02 -1.83789372e-01 -8.03768635e-02
  5.73421530e-02 -6.81133196e-02  5.04876748e-02  2.89670541e-03]