[-0.03611908  0.16157562  0.07870819 -0.00589312 -0.17090516  0.01501479
 -0.01162361 -0.16216463  0.07327463 -0.01458509  0.2444839  -0.04254753
 -0.23542376 -0.11742144 -0.01987596  0.13865192 -0.10561128 -0.16345452
 -0.07738739 -0.05274981 -0.00777875  0.00511136  0.02087084  0.03044061
 -0.11491795 -0.27635536 -0.05896319 -0.101315    0.06850832 -0.1204583
 -0.07670552  0.11797023 -0.11144463 -0.05454693  0.03561117  0.08776792
 -0.04982751 -0.04744176  0.15529719  0.0242226  -0.18822969  0.07722829
  0.04209454  0.29782256  0.26173136 -0.00935343  0.03990441 -0.05407242
  0.12356784 -0.18528418  0.06653684  0.13335124  0.1861968   0.0426921
  0.05232399 -0.14316645 -0.04087699  0.11026701 -0.2035573   0.02990574
  0.07739205 -0.10988539 -0.07085475 -0.09590892  0.15171693  0.15291934
 -0.06475707 -0.12443435  0.16956769 -0.14496168 -0.11044884  0.04526633
 -0.14003986 -0.08675018 -0.22958422  0.01389391  0.33275369  0.09964861
 -0.22576241 -0.00589534 -0.02131934  0.03228746  0.03004912  0.03222312
 -0.08066824 -0.0304248  -0.10595658 -0.02349339  0.16379426 -0.07900625
  0.0033292   0.20700543  0.01607819 -0.00928211  0.08879664  0.01799271
 -0.04611797  0.01017243 -0.13374019 -0.05838037 -0.00952427 -0.16448148
  0.01424026  0.03626699 -0.19925375  0.13339517  0.02033175  0.06049943
 -0.00108557 -0.06485222 -0.04477071  0.01698231  0.19807211 -0.26859087
  0.2151413   0.15581779 -0.01654951  0.08641179  0.07180991  0.05831046
 -0.0159862  -0.0819692  -0.08576637 -0.0927974   0.07724514 -0.0649138
  0.0104444   0.05015463]