[-0.07921611  0.16294901  0.073769   -0.03625048 -0.09241368 -0.0451046
  0.01208488 -0.10048361  0.0877166  -0.03329976  0.27879566  0.00769878
 -0.24560933 -0.20710984 -0.0133737   0.16767368 -0.12998451 -0.10031783
 -0.10168781 -0.06367438  0.02743511  0.04507309  0.04874639 -0.02701729
 -0.08712305 -0.34703475 -0.03054883 -0.10619535 -0.00151163 -0.08561132
 -0.01045922  0.12616397 -0.13458999 -0.08226419  0.04682687  0.10371071
 -0.00539066  0.08608533  0.1476889   0.0592854  -0.15983307  0.03720574
  0.06318036  0.31396639  0.23409748  0.04438628  0.05881495 -0.05337213
  0.11844393 -0.19693126  0.01115213  0.08005088  0.16101424  0.01778769
  0.12224764 -0.1164676  -0.01552477  0.07474161 -0.17616563  0.02598314
  0.03020975 -0.15535109 -0.09976118 -0.04803023  0.18584524  0.01563895
 -0.09764927 -0.03923986  0.15219836 -0.11291144 -0.06687394  0.06643849
 -0.12105735 -0.09868524 -0.30253971  0.0372385   0.40459701  0.09010026
 -0.20547728  0.0052914  -0.00418593  0.00142056  0.08291992  0.07781625
 -0.073782    0.01910803 -0.0891737   0.02586317  0.13123636 -0.0779162
 -0.00067149  0.1915658  -0.00773394  0.08992538  0.03673267 -0.02850318
 -0.02867935 -0.01390554 -0.12632161 -0.04164917  0.01444246 -0.18083513
  0.00991583  0.00226973 -0.1746314   0.05452685  0.01559829  0.0228685
 -0.02327036 -0.01037016 -0.02371461 -0.01218716  0.13411242 -0.23943149
  0.22811048  0.23726277 -0.08089363  0.10552502  0.065028    0.03542344
 -0.02628844 -0.05677035 -0.05579145 -0.09890442  0.06530284 -0.04241156
  0.07163636 -0.02507907]