[-0.04631675  0.17378572  0.09360965  0.00783614 -0.15701047 -0.00489349
 -0.01860258 -0.15070854  0.08523809 -0.0472489   0.27089968 -0.04564733
 -0.21635054 -0.10014156 -0.02674227  0.14890192 -0.11107635 -0.15515624
 -0.10765405 -0.02845371  0.01637498  0.02340346 -0.0112075   0.01128446
 -0.12148181 -0.32149363 -0.06465511 -0.07189402  0.07557728 -0.09717675
 -0.07465222  0.113316   -0.10795354 -0.06561167  0.04797303  0.09390973
 -0.02593355 -0.0405253   0.13792989  0.01062259 -0.20997384  0.09780433
  0.04510672  0.31047103  0.26715302 -0.00899394  0.06219666 -0.09217409
  0.10715287 -0.17218237  0.03522126  0.13275321  0.17206512  0.04905098
  0.08997665 -0.13940711 -0.03890567  0.11525819 -0.18745664  0.00277397
  0.07553487 -0.07736167 -0.04580637 -0.10571589  0.15678771  0.10561464
 -0.08796846 -0.11140957  0.16565409 -0.15577997 -0.09026626  0.03614707
 -0.13239037 -0.10034569 -0.2715292   0.00062758  0.35442445  0.10833808
 -0.25623056  0.01179554 -0.01082053  0.02599124  0.06177827  0.05353454
 -0.07427617 -0.01389445 -0.10970551 -0.01658104  0.18112136 -0.04938485
  0.02239617  0.20928168  0.02094419 -0.03800748  0.0936736   0.0354165
 -0.07424146 -0.01995283 -0.13626941 -0.05733741 -0.01019296 -0.14911744
 -0.0057698   0.06575535 -0.20200971  0.148045    0.00344436  0.06695972
  0.00119267 -0.05865642 -0.02218344  0.01526245  0.19129851 -0.25641558
  0.17285518  0.15672675 -0.03988107  0.09448761  0.07088967  0.05765911
 -0.04549674 -0.05955061 -0.10624944 -0.09925919  0.04561821 -0.08218461
  0.02700281  0.02846503]