[-0.09386399  0.17404678  0.09960846  0.00841708 -0.09703214  0.00240954
 -0.01295334 -0.14202407  0.07500742 -0.05081838  0.30718797 -0.01939378
 -0.22772494 -0.18581973  0.02471994  0.16277708 -0.12542079 -0.12088881
 -0.09399595 -0.03282279 -0.02897597  0.04658135  0.03248397  0.01390662
 -0.10005174 -0.34043655 -0.04565049 -0.11228275  0.04371257 -0.07493951
 -0.09208773  0.1138214  -0.10487176 -0.05327409  0.06323598  0.10370623
 -0.0137435   0.0090424   0.16666725  0.00652465 -0.17888889  0.02194272
  0.03588713  0.27494955  0.25291458 -0.00277216  0.02869718 -0.05459185
  0.13684426 -0.17120729  0.02043157  0.09962209  0.17815565  0.01165273
  0.06085233 -0.15425865 -0.06961053  0.09729657 -0.1860698  -0.01712766
  0.00360129 -0.14846091 -0.08360608 -0.06580053  0.18778281  0.11082931
 -0.10751098 -0.11065209  0.20557892 -0.12441422 -0.06713601  0.04767391
 -0.14058827 -0.09648295 -0.29497108  0.01282297  0.38068414  0.08359769
 -0.23159841 -0.00311117 -0.04419348 -0.00833746  0.02008556  0.08940249
 -0.09088316 -0.01143657 -0.0902051  -0.02487594  0.15470335 -0.04287998
 -0.00292527  0.20518816 -0.00968525  0.0778065   0.06885578 -0.02902334
 -0.03227542 -0.03887583 -0.13440971 -0.05237333 -0.03685134 -0.151126
  0.0233262   0.08927246 -0.19399939  0.10434338  0.03033657  0.06589745
  0.03067793 -0.00340623 -0.02694222 -0.03293244  0.15943359 -0.25386736
  0.17570294  0.16454902 -0.00864263  0.11828432  0.0855708   0.05542207
 -0.02235386 -0.05210624 -0.12951398 -0.0798905   0.0799232  -0.07121941
  0.04038573  0.02844238]