[-0.11487128  0.14969169  0.13246657  0.01073333 -0.08646492 -0.07279217
  0.02211728 -0.09923613  0.05187688 -0.03138962  0.29946667 -0.03819919
 -0.22959498 -0.18938398  0.01184702  0.14876392 -0.16126503 -0.06607021
 -0.0800807  -0.03437638  0.0710066   0.0316586   0.0629137  -0.00890337
 -0.06807674 -0.39078686 -0.0304905  -0.08344985  0.00967648 -0.07801536
 -0.04550569  0.15457013 -0.13036299 -0.08615221  0.03833402  0.08751463
 -0.00834583  0.04859126  0.14349835  0.00244732 -0.15538464  0.0047135
  0.03573319  0.28454471  0.24320343  0.04253297  0.03229362 -0.07212248
  0.0833902  -0.19814958 -0.028994    0.12134041  0.11140712  0.02994359
  0.08372714 -0.13856171  0.00409407  0.00282094 -0.17897956 -0.0289993
  0.00413939 -0.16376683 -0.0446859  -0.03431172  0.16777387  0.00759037
 -0.06742623 -0.06997247  0.1626807  -0.10809665 -0.04284367  0.05701503
 -0.15270507 -0.1459114  -0.29370362  0.02248837  0.38292822  0.09007273
 -0.20511098  0.02191125 -0.05300384 -0.02271633  0.09533925  0.09457143
 -0.05636749  0.02003805 -0.10498742  0.06185773  0.10190147 -0.09697579
 -0.01796856  0.22064486  0.01801067  0.08324248  0.07364256 -0.03575844
 -0.00518555  0.04390704 -0.16722311 -0.00899435  0.02676429 -0.15110488
  0.02014872  0.04762816 -0.17706172  0.04636269  0.02572209  0.0206771
 -0.01818417 -0.05967935 -0.07011425 -0.02906774  0.113701   -0.25169864
  0.20077451  0.25453779 -0.02459532  0.1362818   0.05342358  0.02889532
  0.00380485 -0.06958988 -0.07915977 -0.03330612  0.09139364 -0.01206797
  0.01145981 -0.01310182]