[-1.03396550e-01  1.89968482e-01  8.57452080e-02 -1.88302118e-02
 -1.28060922e-01 -1.89413670e-02 -3.54529135e-02 -1.63412243e-01
  1.08850650e-01 -6.47214726e-02  2.65823275e-01 -3.28832753e-02
 -2.44544730e-01 -1.66260168e-01  2.73326822e-02  1.78369269e-01
 -1.68861315e-01 -1.36996552e-01 -8.55093524e-02 -3.81640010e-02
 -4.45671603e-02  2.03977190e-02  4.62017767e-02  4.13426198e-02
 -1.01030819e-01 -3.82866710e-01 -6.30377159e-02 -9.55535397e-02
  2.37757023e-02 -6.89905882e-02 -7.06071630e-02  8.76051560e-02
 -1.32099256e-01 -4.54264991e-02  5.06632589e-02  1.09737329e-01
 -1.42973727e-02 -5.67283928e-02  1.61436722e-01 -2.75550243e-02
 -2.22574577e-01  1.48978597e-02  5.30931652e-02  2.51672715e-01
  2.68478423e-01 -1.34939048e-02  4.76832725e-02 -7.53809139e-02
  1.73882768e-01 -1.40515909e-01  1.79763567e-02  1.05295599e-01
  1.27237260e-01 -8.36688746e-03  6.62454665e-02 -1.61972865e-01
 -5.71936965e-02  1.20711640e-01 -1.96838260e-01 -7.93125406e-02
  3.91485207e-02 -1.38918519e-01 -8.94378945e-02 -7.51835629e-02
  1.90474182e-01  1.26018897e-01 -1.07535593e-01 -1.43938079e-01
  2.12990269e-01 -1.37455732e-01 -2.86321770e-02  6.62855059e-02
 -1.34990364e-01 -1.20152570e-01 -2.79409140e-01  1.88493337e-02
  3.78882080e-01  9.09925625e-02 -1.97212532e-01  1.69494085e-03
 -3.90986353e-02  2.22951552e-04  2.71535404e-02  1.22498766e-01
 -6.57718927e-02 -2.58341827e-03 -1.19326286e-01  4.44684457e-03
  1.56677723e-01 -3.84105034e-02  4.67696041e-03  2.01245531e-01
  1.83281116e-03  3.63397114e-02  5.60102351e-02  9.91965737e-03
 -9.32804719e-02  7.17608666e-04 -1.41457871e-01 -4.10568938e-02
  1.43771144e-02 -9.20024216e-02  7.37306196e-03  7.39379153e-02
 -1.73086524e-01  1.15166046e-01  2.44351327e-02  4.89579551e-02
 -4.65750709e-05 -6.49495050e-02 -1.34441105e-03 -2.08519809e-02
  1.42244980e-01 -2.71648973e-01  1.65050611e-01  1.26706764e-01
 -2.56533232e-02  1.58810556e-01  5.70291653e-02  6.23819418e-02
 -2.39002444e-02 -8.97813886e-02 -1.42773554e-01 -8.27998444e-02
  8.23082551e-02 -5.63710146e-02  7.79661536e-02  1.35069937e-02]