[-1.00056648e-01  1.39897615e-01  7.55731836e-02  1.11221857e-02
 -1.48674995e-01 -3.86548229e-02 -6.98144436e-02 -1.85158238e-01
  7.85582215e-02 -7.83147365e-02  2.59066194e-01 -3.49659361e-02
 -2.02985078e-01 -1.74802586e-01 -3.40223196e-03  1.71462461e-01
 -1.53010592e-01 -1.47681311e-01 -7.25469440e-02 -2.51992550e-02
  3.40197757e-02  2.92660575e-02  5.14514036e-02 -1.80167798e-02
 -9.46075469e-02 -3.76450986e-01 -8.34338069e-02 -1.02770261e-01
  5.72836511e-02 -9.16569978e-02 -6.89951554e-02  1.02953650e-01
 -1.25903532e-01 -8.16633925e-02  5.62541299e-02  1.16302274e-01
  1.10951830e-02 -3.43115740e-02  1.25658706e-01 -5.52600734e-02
 -2.18224451e-01  7.65232891e-02  7.09020123e-02  2.56181091e-01
  2.33766899e-01  1.08618743e-03  5.51996715e-02 -8.12174156e-02
  9.99629125e-02 -1.11778595e-01  3.90715189e-02  7.79050291e-02
  1.91463143e-01 -2.57515174e-04  6.22274987e-02 -1.45755410e-01
 -3.91853750e-02  1.25137195e-01 -1.74216732e-01 -5.63333137e-03
  1.04147516e-01 -1.12381257e-01 -9.62714106e-02 -3.86421047e-02
  1.84229404e-01  1.07257940e-01 -1.00879453e-01 -1.45166248e-01
  1.74879998e-01 -1.03375606e-01 -6.70541674e-02  1.91207435e-02
 -1.63040757e-01 -1.12523392e-01 -2.64238000e-01  4.47040657e-03
  3.58936280e-01  4.24519293e-02 -2.45467588e-01  1.64583679e-02
 -1.93712022e-02  6.29919991e-02  5.44713847e-02  9.09497812e-02
 -4.86268774e-02 -2.76904944e-02 -1.18084848e-01 -2.07773154e-03
  1.38527080e-01 -6.20273463e-02  4.60328534e-04  1.89706251e-01
  1.58067495e-02  2.09023710e-02  6.32460043e-02  1.67572647e-02
 -4.73956801e-02  1.54802827e-02 -1.33429512e-01 -3.52669470e-02
  3.58614922e-02 -1.09199204e-01 -5.99775929e-03  8.09767470e-02
 -1.47437111e-01  9.51735079e-02  1.56574491e-02  8.03174302e-02
  4.83200699e-02 -3.29375863e-02 -2.60516312e-02 -4.19994853e-02
  1.30015582e-01 -2.56920218e-01  1.97443843e-01  1.84698939e-01
 -1.29304500e-02  1.34390578e-01  8.19894671e-02  7.46806785e-02
  1.76559370e-02 -4.14001159e-02 -1.70429692e-01 -7.71216378e-02
  7.69711584e-02 -5.45630269e-02  1.67404488e-02  3.69434915e-02]