[-0.08146857  0.17470683  0.05292432  0.00410513 -0.12221097 -0.01034667
 -0.0091157  -0.15453446  0.07132283 -0.02687718  0.25825968 -0.04512993
 -0.24809933 -0.12785235 -0.05412288  0.14731592 -0.17394447 -0.12371748
 -0.13076989 -0.03238687  0.03978526 -0.00393229  0.03655261  0.00415082
 -0.13557224 -0.31991148 -0.06432283 -0.07873853  0.04604107 -0.1026024
 -0.025468    0.10365374 -0.09359356 -0.05211452  0.02632464  0.06499201
  0.00806527 -0.03938944  0.17553236 -0.02370402 -0.20978729  0.11081968
  0.06186841  0.29471409  0.24325633  0.00414175  0.03866236 -0.05894029
  0.1273759  -0.1644434   0.04579208  0.10605746  0.19384871  0.02718478
  0.05914132 -0.14350848 -0.03922661  0.16117047 -0.18618469  0.01276488
  0.05404038 -0.13461441 -0.05841723 -0.05883265  0.10844474  0.1350348
 -0.08889559 -0.12313242  0.17878276 -0.1357895  -0.0673523   0.03313012
 -0.10972982 -0.11332356 -0.25055775 -0.00972016  0.33480534  0.09880117
 -0.2570805  -0.0252768  -0.02224071  0.03937477  0.06427097  0.0580575
 -0.10186671 -0.04166153 -0.13633899 -0.03054344  0.16378757 -0.03596665
 -0.02335627  0.24272874  0.05177154 -0.028036    0.08398344  0.01475548
 -0.07246039  0.00542944 -0.11782572 -0.03255529  0.03625745 -0.15782796
 -0.01144831  0.03922869 -0.1769008   0.13099252  0.0148378   0.09144119
  0.02657481 -0.03904139 -0.01783899  0.01290239  0.17940213 -0.26009658
  0.18254839  0.18056919 -0.03217877  0.11799003  0.09125558  0.0585146
 -0.00527617 -0.05070841 -0.12457941 -0.1042575   0.07746893 -0.06560238
  0.04954417  0.03851702]