[-7.04719201e-02  1.46410078e-01  8.93994123e-02  1.71158072e-02
 -9.98622030e-02 -3.56805734e-02 -1.49402171e-02 -1.41929805e-01
  2.61820145e-02 -1.13811642e-02  3.02709311e-01 -4.24220264e-02
 -2.35082507e-01 -1.84795737e-01 -2.27023698e-02  1.75422743e-01
 -1.20491318e-01 -1.27994820e-01 -7.02923387e-02 -2.22403090e-02
  3.38029675e-02  1.81153795e-04  4.45779525e-02 -2.56378055e-02
 -1.19067989e-01 -3.70048612e-01 -6.65571615e-02 -1.03268698e-01
 -2.29873843e-02 -8.15484971e-02 -7.44880810e-02  1.01183772e-01
 -1.65138245e-01 -8.23159292e-02  6.85669333e-02  1.05358355e-01
 -2.72682346e-02 -4.76811687e-03  1.54618248e-01  3.51294735e-03
 -1.65395871e-01  5.56778572e-02  6.62708655e-02  2.79950827e-01
  1.90876558e-01  2.54710801e-02  7.55064413e-02 -8.64362717e-02
  7.28092939e-02 -1.33642703e-01  4.16895263e-02  9.26630124e-02
  1.48455918e-01  3.80221643e-02  7.91379586e-02 -1.08529508e-01
 -1.68835092e-02  4.86357175e-02 -1.50505736e-01 -2.25593764e-02
  3.41853909e-02 -1.00945428e-01 -8.08663443e-02 -1.02943890e-01
  1.86170414e-01  3.47367451e-02 -9.09424946e-02 -7.79991820e-02
  1.28295600e-01 -1.02140583e-01 -5.84074333e-02  5.08844070e-02
 -1.42257422e-01 -1.47358641e-01 -3.10429305e-01  6.16038814e-02
  3.96650642e-01  8.59961510e-02 -2.50569135e-01  1.02777788e-02
  1.61344968e-02 -7.62030808e-03  1.04744993e-01  1.07227899e-01
 -3.22851650e-02  7.47231543e-02 -9.78869125e-02  3.55998836e-02
  1.59253046e-01 -1.05100155e-01 -2.17236821e-02  1.81690469e-01
 -1.72686875e-02  6.23440109e-02  8.38203058e-02  2.18753819e-03
 -7.24370638e-03  1.27474545e-02 -1.21505857e-01 -8.73867422e-03
  4.13699150e-02 -1.33083805e-01 -1.59939881e-02  4.19318378e-02
 -1.30477026e-01  1.73618495e-02  9.64499172e-03  1.48482416e-02
 -1.36651639e-02 -3.31466310e-02 -6.72007948e-02 -7.53804594e-02
  1.13767862e-01 -2.81661242e-01  1.79617569e-01  2.07584485e-01
 -8.35809037e-02  9.91027951e-02  7.10741207e-02  6.83553144e-02
 -2.22831015e-02 -3.93255316e-02 -1.05422728e-01 -7.81483203e-02
  1.09691575e-01  2.65370612e-03  5.84877431e-02 -2.47834101e-02]