[-0.13395618  0.18331449  0.10161515  0.01335475 -0.08970328 -0.05754194
  0.01650205 -0.05870477  0.10245631 -0.00257116  0.26232061 -0.05722218
 -0.1858889  -0.22038546  0.01444803  0.145579   -0.11709049 -0.11406583
 -0.11890384 -0.01626173  0.09179496  0.03301376  0.04301186 -0.00903887
 -0.12179748 -0.42043829 -0.03629684 -0.08368412  0.0282026  -0.12412083
 -0.06699181  0.09316089 -0.17504002 -0.11546717  0.03701184  0.11555753
 -0.02343115  0.03374074  0.14116238 -0.03317188 -0.21907738  0.07007409
  0.08506992  0.27741295  0.26472211  0.06042486  0.03929157 -0.09883419
  0.13271217 -0.13491085  0.03204969  0.13638701  0.13346012  0.03356953
  0.11376359 -0.08628129 -0.01058399  0.0546029  -0.17664516 -0.02841134
  0.05339333 -0.12862431 -0.0677323  -0.0535306   0.14623746  0.00123688
 -0.05785483 -0.11410041  0.13408995 -0.14152937 -0.01021458  0.10167775
 -0.11523938 -0.13810827 -0.30100617  0.04856231  0.39429969  0.0691082
 -0.20457533  0.05433148 -0.02705975 -0.01560541  0.09434288  0.09038201
 -0.08123065  0.03244665 -0.13111003  0.05969825  0.16960424 -0.05586271
  0.0201024   0.17845781  0.03508841  0.04269324  0.06312516 -0.02550492
 -0.05910829  0.02639917 -0.12364621 -0.01674281  0.0502114  -0.13681351
 -0.01775855  0.02178387 -0.16866021  0.0728739   0.02544046  0.04733136
 -0.01976122 -0.06151644 -0.04609421 -0.02979347  0.09646126 -0.24681392
  0.19808912  0.16905318 -0.0429326   0.12229655  0.07938471  0.06620186
 -0.00885038 -0.03765383 -0.09486341 -0.03752403  0.10552384 -0.02592055
  0.09245797 -0.01254211]