[-6.45476580e-02  1.65997520e-01  8.71129259e-02  1.38483793e-02
 -1.41971916e-01  1.18697165e-02 -6.76049665e-02 -1.85705066e-01
  7.71335438e-02 -7.19183981e-02  2.53099799e-01 -3.38852890e-02
 -2.13884875e-01 -1.32367358e-01 -2.45188153e-03  1.46993518e-01
 -1.42551973e-01 -1.54828057e-01 -6.40620887e-02 -1.53725417e-02
  1.48937032e-02  2.80938745e-02  4.75215502e-02  1.74514093e-02
 -1.21833682e-01 -3.34381729e-01 -7.42155239e-02 -1.03935078e-01
  6.09626770e-02 -9.80606526e-02 -1.05307832e-01  8.90280306e-02
 -1.03980973e-01 -4.39650826e-02  4.14478593e-02  9.25756320e-02
 -3.26214768e-02 -4.26630788e-02  1.25167355e-01 -3.63649242e-02
 -2.07788751e-01  8.20782408e-02  4.98119704e-02  2.84818143e-01
  2.56568283e-01 -2.23034629e-04  4.92363833e-02 -6.86821043e-02
  1.09584920e-01 -1.50511503e-01  6.57770410e-02  1.11300886e-01
  2.00014263e-01  2.68558301e-02  4.83658202e-02 -1.38349593e-01
 -5.23800552e-02  1.35917202e-01 -1.66855142e-01  4.34504971e-02
  1.07494608e-01 -9.93624255e-02 -6.83040395e-02 -6.52888045e-02
  1.74593166e-01  1.31298691e-01 -1.12555377e-01 -1.38933510e-01
  1.39824152e-01 -1.24942005e-01 -9.11362544e-02  3.93995456e-02
 -1.65223435e-01 -1.27653524e-01 -2.26523638e-01 -5.63853979e-03
  3.36040258e-01  7.40940794e-02 -2.33454227e-01 -7.29334727e-03
 -2.30742861e-02  4.94724065e-02  3.57819907e-02  7.60729462e-02
 -5.87873571e-02 -5.32618240e-02 -1.11353792e-01 -1.96138397e-03
  1.74460664e-01 -6.77882358e-02  4.45452193e-03  2.15632483e-01
  9.06652398e-03 -9.92779620e-03  4.79055606e-02  2.98349001e-02
 -4.74973880e-02  2.50525083e-02 -1.17302023e-01 -3.56935747e-02
  8.42453563e-04 -1.27426967e-01 -1.01387575e-02  6.47393987e-02
 -1.85163975e-01  1.49547935e-01  1.86501779e-02  9.95271876e-02
  6.69244528e-02 -4.97462787e-02 -5.08711748e-02 -1.26637192e-02
  1.72212973e-01 -2.72354841e-01  1.94833964e-01  1.70387730e-01
  2.87958421e-02  1.05325378e-01  6.23409227e-02  6.36722744e-02
  1.29038496e-02 -5.38010485e-02 -1.62331030e-01 -7.98572004e-02
  8.49672258e-02 -8.48338380e-02  1.16601530e-02  4.03295755e-02]