[-0.08064737  0.20210914  0.12079133  0.01831662 -0.10785317 -0.00152711
 -0.02944449 -0.16492596  0.07392853 -0.05146979  0.30690658 -0.03633075
 -0.23219399 -0.15547077  0.01441765  0.15363769 -0.13465929 -0.13335823
 -0.09469385 -0.02912526  0.01716973  0.02536636  0.04486058 -0.01451472
 -0.09607815 -0.35708386 -0.05995608 -0.08481746  0.07546318 -0.08288135
 -0.09693789  0.06027419 -0.15198313 -0.06749365  0.04493155  0.10694186
  0.00535109 -0.01334055  0.14718026 -0.0284793  -0.18670166  0.09034373
  0.02882195  0.23321752  0.25630924  0.03103837  0.03380938 -0.11119948
  0.09898439 -0.13496041  0.03087068  0.11087102  0.14864801  0.01363407
  0.05847118 -0.16995637 -0.07200015  0.08713295 -0.16106588 -0.0425633
  0.02943747 -0.11848819 -0.0606938  -0.08492931  0.17384028  0.08099024
 -0.08163299 -0.12216419  0.18345895 -0.11797329 -0.05029472  0.04549621
 -0.13007812 -0.08965439 -0.27488905  0.03072399  0.39223087  0.06075103
 -0.25931868  0.01434633 -0.03951656  0.00250428  0.04699231  0.08105775
 -0.05605434 -0.01649231 -0.11295203 -0.01084558  0.16213211 -0.06844178
  0.01839743  0.19145362 -0.00674413  0.06658629  0.07762327 -0.00295727
 -0.06423195 -0.00457638 -0.13966428 -0.0505804  -0.0270141  -0.12103847
 -0.01325614  0.07738592 -0.1825847   0.08797244  0.01961206  0.03114116
  0.01599215 -0.03493928 -0.00301201 -0.03213892  0.15657751 -0.27802858
  0.20040677  0.18758926 -0.04550746  0.13362539  0.07646865  0.08764712
 -0.01280561 -0.02737494 -0.14498356 -0.08553383  0.06961066 -0.06558297
  0.03842491  0.02289744]