[-9.49549302e-02  1.94825396e-01  1.45703033e-01 -3.05241179e-02
 -9.82907861e-02 -9.17524379e-03 -1.64764002e-02 -1.50790676e-01
  1.02836989e-01 -3.70339975e-02  2.69333869e-01 -1.71816759e-02
 -2.55822867e-01 -1.38409466e-01 -9.91066732e-03  2.15310976e-01
 -1.40746340e-01 -1.40484616e-01 -1.02209941e-01 -1.71950627e-02
 -4.98580970e-02  1.72095653e-02  2.92411782e-02  5.00084460e-02
 -6.82046637e-02 -3.64281148e-01 -2.77472734e-02 -8.36964771e-02
  3.93276624e-02 -6.14371896e-02 -7.80821070e-02  7.79972225e-02
 -1.78238943e-01 -4.80934195e-02  6.32550493e-02  1.20523468e-01
 -4.88089062e-02 -4.69176136e-02  1.42076060e-01 -3.15207355e-02
 -2.19242245e-01  2.11687088e-02  6.96004033e-02  2.18460009e-01
  2.68584818e-01 -3.49393493e-04  3.63611095e-02 -7.08317012e-02
  1.19581304e-01 -1.97468549e-01  3.85601888e-03  9.45416614e-02
  1.37061268e-01  2.64036115e-02  5.86942546e-02 -2.23283798e-01
 -7.20830038e-02  1.16559841e-01 -1.79125488e-01 -4.78907414e-02
 -2.82964688e-02 -1.32257596e-01 -7.87370056e-02 -6.38555661e-02
  2.03619435e-01  1.28154621e-01 -1.21147789e-01 -1.25081643e-01
  2.25806862e-01 -1.31840706e-01  1.45070134e-02  5.31812012e-02
 -1.25591084e-01 -9.63382050e-02 -2.67592669e-01  1.56615302e-02
  3.62348169e-01  6.71102926e-02 -2.20086575e-01 -7.32723204e-03
 -6.29321709e-02  2.28544008e-02 -2.55836528e-02  9.64606777e-02
 -6.50328100e-02 -1.68183930e-02 -8.87910053e-02 -2.43274067e-02
  1.41615734e-01 -5.29419482e-02  3.53753455e-02  2.06253633e-01
 -2.98787244e-02  3.52660529e-02  2.46776994e-02 -1.24438684e-02
 -9.64740291e-02 -1.49179762e-02 -1.56591117e-01 -7.55188987e-02
 -4.10984829e-02 -8.02605674e-02  2.10378077e-02  1.05111971e-01
 -1.91359818e-01  6.71988353e-02  2.43209638e-02  4.19717543e-02
  3.77152078e-02  1.86739571e-03 -1.06946332e-02 -8.03583786e-02
  1.46546975e-01 -2.40955621e-01  2.24369153e-01  1.74834445e-01
 -5.00118136e-02  1.14025451e-01  7.49528408e-02  6.53100535e-02
  7.60192517e-03 -5.93191050e-02 -1.09879315e-01 -5.74914105e-02
  8.96015316e-02 -9.29146335e-02  2.95141321e-02  5.39251429e-04]