[-0.09011716  0.19570343  0.13568661 -0.00542613 -0.1016289  -0.02225599
 -0.01791183 -0.14437525  0.07360718 -0.03600428  0.29998001 -0.00117828
 -0.24382308 -0.19818766  0.01158935  0.17147382 -0.11610561 -0.12964074
 -0.10660368 -0.01547357 -0.00472422  0.02953759  0.0476383   0.00457646
 -0.07784178 -0.36734325 -0.04103349 -0.09265236  0.0704117  -0.08409687
 -0.09040477  0.09913597 -0.1322691  -0.06473114  0.06172844  0.12299132
 -0.02346322 -0.00964902  0.1561598  -0.05327572 -0.20769672  0.04332342
  0.04861247  0.23880208  0.24563722  0.02402164  0.04116437 -0.04843255
  0.11457235 -0.17899612  0.04665883  0.0952562   0.15880516  0.01848393
  0.0678563  -0.18024258 -0.06028044  0.11904114 -0.21095757 -0.02617784
  0.00565665 -0.17412344 -0.10100482 -0.05632428  0.18928815  0.10597205
 -0.12025446 -0.12194114  0.18858293 -0.13877086 -0.01853842  0.06398943
 -0.13414627 -0.0880356  -0.28479281  0.05313281  0.36403432  0.09229132
 -0.22641869  0.0014339  -0.03106373  0.01944738  0.00920977  0.08178525
 -0.08409853 -0.01043953 -0.11435842 -0.02023552  0.1231598  -0.04779155
  0.00748909  0.2190686  -0.00537671  0.07081077  0.03778252 -0.01839229
 -0.05232377 -0.03645325 -0.13201228 -0.04857096  0.00563757 -0.11442935
  0.00682378  0.09007954 -0.16484122  0.06957205  0.00147357  0.06502359
  0.04305205 -0.02590857 -0.02053962 -0.07753511  0.13438955 -0.25822511
  0.2108968   0.18754716 -0.01701654  0.1125588   0.09600267  0.04893352
  0.0200048  -0.06723689 -0.12466475 -0.07593638  0.11812263 -0.08694802
  0.04844509  0.01003262]