[-4.67386730e-02  1.50499761e-01  7.17826337e-02 -4.36738972e-03
 -1.83092386e-01  9.41506959e-03  1.59337523e-03 -1.68491766e-01
  8.48733261e-02 -3.21190804e-02  2.46447131e-01 -4.10228670e-02
 -2.48056054e-01 -8.40696916e-02 -2.26645153e-02  1.48050278e-01
 -1.10832892e-01 -1.60598442e-01 -7.43673369e-02 -4.93190102e-02
 -1.90682076e-02 -8.65812041e-03  2.13470608e-02  4.75127064e-02
 -9.31079537e-02 -2.83850402e-01 -5.81414700e-02 -9.76646245e-02
  5.12190461e-02 -1.12040304e-01 -7.00406358e-02  1.27314553e-01
 -9.82828289e-02 -3.72784026e-02  3.98520082e-02  9.85624939e-02
 -4.29292209e-02 -6.01011291e-02  1.55990347e-01  8.16781726e-03
 -1.87171325e-01  7.31082186e-02  3.46408449e-02  2.85105735e-01
  2.76980549e-01 -1.28789637e-02  3.74576971e-02 -6.05793186e-02
  1.25288174e-01 -2.02591613e-01  4.42859940e-02  1.24048807e-01
  1.58298492e-01  3.34106535e-02  5.55880368e-02 -1.60245553e-01
 -4.82456349e-02  9.89359915e-02 -1.96183667e-01  1.28004355e-02
  5.06669246e-02 -1.07966304e-01 -5.94847463e-02 -1.00743309e-01
  1.63732633e-01  1.62501678e-01 -7.46511146e-02 -1.17768876e-01
  1.85046405e-01 -1.66830495e-01 -1.03733592e-01  3.96329425e-02
 -1.49998888e-01 -1.01121001e-01 -2.13989854e-01  8.85509141e-03
  3.34070444e-01  1.04362607e-01 -2.14490324e-01 -3.09432740e-03
 -1.33351265e-02  2.69781388e-02  1.43063013e-02  5.19346260e-02
 -6.33623376e-02 -4.50582467e-02 -1.09621994e-01 -2.44038794e-02
  1.71849594e-01 -8.18367973e-02  4.09074593e-03  2.25862905e-01
 -2.91717792e-04 -1.38018159e-02  8.54149982e-02  3.12185474e-02
 -4.57842126e-02  9.20779165e-03 -1.38536513e-01 -6.58498332e-02
 -5.78689994e-03 -1.60049245e-01  1.29803894e-02  4.54720929e-02
 -2.06545025e-01  1.16352558e-01 -1.31348819e-02  6.40702397e-02
 -3.80095909e-03 -7.32419640e-02 -3.34595330e-02  2.77489405e-02
  2.04448968e-01 -2.67295957e-01  2.18424514e-01  1.61447465e-01
 -2.82311738e-02  9.09744427e-02  4.68925834e-02  5.18806577e-02
 -5.14538260e-03 -8.41476694e-02 -9.13979039e-02 -8.92606601e-02
  6.03602044e-02 -6.30401000e-02 -5.49759483e-03  4.79985289e-02]