[-0.1017841   0.19403349  0.09975904 -0.02492937 -0.14290506 -0.00182727
 -0.02893881 -0.17075205  0.08019563 -0.0637041   0.25675997 -0.0335414
 -0.22325563 -0.14271119  0.00905915  0.16449313 -0.15423897 -0.16545859
 -0.0848984  -0.03390161 -0.04613556  0.05005811  0.00824518  0.02106073
 -0.09857604 -0.34945399 -0.04202426 -0.06953692  0.05818797 -0.08222123
 -0.08804648  0.09184474 -0.14016356 -0.03020424  0.05176411  0.11847394
 -0.0132351  -0.04598144  0.15900798 -0.00394321 -0.22578883  0.03996313
  0.05870482  0.27923357  0.26001188 -0.01496977  0.02328472 -0.07557824
  0.15743075 -0.13463931  0.03285605  0.11130001  0.13763     0.01086411
  0.04026791 -0.17177725 -0.06207218  0.10202656 -0.19735561 -0.04303337
  0.05812714 -0.15246883 -0.07267319 -0.09561043  0.17181702  0.10025629
 -0.09567481 -0.15094072  0.20219664 -0.13424306 -0.05799828  0.06088313
 -0.1167404  -0.08928175 -0.2736575   0.01428326  0.37415215  0.09588976
 -0.20755127 -0.00385468 -0.03181943 -0.0207392   0.03684497  0.10764237
 -0.05792928 -0.01040959 -0.11776278  0.00238176  0.17927177 -0.02286089
  0.00138676  0.19061992  0.00716768  0.02669615  0.04756776  0.02644126
 -0.09159121  0.00900474 -0.13055858 -0.04813131 -0.01508437 -0.11503408
  0.00896285  0.10429441 -0.18265282  0.15199186  0.03725375  0.06290396
  0.00404809 -0.05058494  0.00765503 -0.01439288  0.14300798 -0.27004644
  0.17718926  0.13947779 -0.00121059  0.14041422  0.06248335  0.05274064
 -0.01924024 -0.07958777 -0.15366988 -0.10066388  0.06488986 -0.06993882
  0.08023657  0.05555437]