[-3.55375893e-02  1.41432226e-01  6.98270947e-02  1.23233544e-02
 -1.61300138e-01  2.55813444e-04 -4.46702121e-03 -1.58766240e-01
  7.68238679e-02 -2.54685413e-02  2.38946989e-01 -4.97189723e-02
 -2.30127320e-01 -1.07437707e-01 -3.67332362e-02  1.43207729e-01
 -1.17918484e-01 -1.54871836e-01 -8.35251212e-02 -5.69241606e-02
 -5.68757718e-03 -2.72466592e-03  1.63480546e-02  1.56764332e-02
 -1.06753461e-01 -2.96864122e-01 -5.60529530e-02 -1.16593055e-01
  7.43497834e-02 -1.10702410e-01 -7.26333559e-02  1.24699533e-01
 -9.82740745e-02 -6.05974309e-02  3.83556448e-02  8.32261220e-02
 -4.19851653e-02 -3.83500569e-02  1.61480695e-01  3.14758681e-02
 -1.88509375e-01  8.99769068e-02  3.44495140e-02  2.97843218e-01
  2.84195185e-01  7.42059958e-04  3.43340039e-02 -5.31970151e-02
  1.17016129e-01 -1.95544928e-01  4.27365080e-02  1.25868529e-01
  1.68597549e-01  4.34029996e-02  5.48437126e-02 -1.35894462e-01
 -5.18461876e-02  9.74321812e-02 -2.11641505e-01  2.33888458e-02
  6.35705143e-02 -1.06947638e-01 -6.39687106e-02 -7.68506750e-02
  1.48367062e-01  1.41281024e-01 -6.51784316e-02 -1.11179210e-01
  1.87932298e-01 -1.69675484e-01 -9.24594626e-02  3.72116379e-02
 -1.33740276e-01 -9.27955881e-02 -2.16910988e-01  8.74920841e-03
  3.42620343e-01  1.04399078e-01 -2.07601592e-01 -7.80573953e-03
 -2.45479979e-02  1.62037779e-02  3.78849171e-02  3.40364613e-02
 -5.95080554e-02 -4.51643579e-02 -9.41117182e-02 -3.25366817e-02
  1.60282433e-01 -7.49334022e-02  1.49874226e-03  2.13093475e-01
  2.44733505e-03 -1.31798107e-02  8.47093388e-02  1.71553083e-02
 -5.60708158e-02  5.52419899e-03 -1.38256252e-01 -8.07856396e-02
 -8.45773425e-03 -1.54616028e-01  2.29039527e-02  4.11378853e-02
 -1.89677879e-01  1.21826388e-01 -2.55540037e-03  6.18450306e-02
  5.46934688e-03 -6.62178621e-02 -3.08366921e-02  2.12276410e-02
  2.04501197e-01 -2.51444191e-01  2.09436372e-01  1.71991780e-01
 -1.84800532e-02  8.09787139e-02  6.41221553e-02  3.22549231e-02
 -1.08924909e-02 -7.79264346e-02 -1.05345964e-01 -8.87583494e-02
  5.15799634e-02 -5.92949651e-02 -1.50837004e-05  3.74452136e-02]