[-0.0637135   0.16630773  0.07007968  0.00151255 -0.11824621  0.01954681
 -0.01175193 -0.07877173  0.10036973 -0.03347279  0.26263878 -0.00747973
 -0.22887388 -0.1790332   0.02548586  0.15954398 -0.15193026 -0.14120595
 -0.08587644 -0.02716322  0.04235518  0.04015156  0.00956399 -0.04870516
 -0.09323867 -0.41113526 -0.03094018 -0.09249146  0.02904021 -0.0868799
 -0.04964725  0.11417573 -0.14791392 -0.10604252  0.06707864  0.14314358
 -0.04846483  0.01965605  0.12753128  0.02174204 -0.17502868  0.06585633
  0.06864151  0.31431192  0.2406586   0.0423042   0.054045   -0.08794523
  0.10850774 -0.14572801  0.01578272  0.10704827  0.16067958  0.05416722
  0.13013504 -0.13162081  0.00733562  0.03062986 -0.18018328 -0.01205773
  0.04977986 -0.12026166 -0.0530007  -0.07999575  0.20187496  0.00382346
 -0.06025993 -0.10623838  0.14663444 -0.10226827 -0.08559831  0.05393322
 -0.13397168 -0.115629   -0.30309215  0.01471296  0.40361086  0.08964328
 -0.24047564  0.04495567  0.0261362  -0.02051668  0.12719803  0.12067664
 -0.03837194  0.04122145 -0.10917803  0.02967447  0.15462595 -0.06786635
 -0.02470209  0.15842448  0.00799268  0.06309444  0.10340493 -0.023351
 -0.03788177  0.01698575 -0.1814315  -0.07082187  0.01626853 -0.14475881
 -0.00733889  0.03128529 -0.13408692  0.07589176  0.0323133   0.05451233
 -0.01890654 -0.04545125 -0.05914615 -0.00486634  0.14371549 -0.28391546
  0.20563796  0.1912673  -0.06167101  0.11859524  0.08457357  0.05536277
 -0.03425633 -0.0477769  -0.13611631 -0.07589334  0.0495577  -0.00653352
  0.07719236  0.00537032]