[-0.08734255  0.17285815  0.07953771  0.00248369 -0.12182899 -0.01478686
 -0.05476546 -0.12793569  0.10363787 -0.05005666  0.241888   -0.018544
 -0.22407423 -0.17915282 -0.0049625   0.18576667 -0.19140887 -0.14174837
 -0.05817161 -0.00888317  0.04945805  0.04690802  0.03059795 -0.05065193
 -0.08011504 -0.39888439 -0.034555   -0.10548041  0.03861549 -0.0541377
 -0.0807882   0.10409082 -0.14897935 -0.11057162  0.06518145  0.12540942
 -0.0344336   0.0340272   0.17402761  0.0115708  -0.20965509  0.04471012
  0.06455286  0.27442068  0.24116492  0.03410012  0.06036959 -0.123787
  0.12311908 -0.13107662  0.024711    0.12612472  0.1695237   0.05901303
  0.09241797 -0.14091688 -0.01329378  0.04623743 -0.1501929  -0.00514302
  0.07268666 -0.12416686 -0.0430822  -0.04476367  0.20849219 -0.01376514
 -0.06887047 -0.11753398  0.1473435  -0.08795109 -0.09684251  0.06351341
 -0.12821239 -0.12372907 -0.31425044 -0.00107792  0.41847071  0.06439195
 -0.25168246  0.03855102 -0.0080794  -0.05730878  0.13630071  0.15132217
 -0.0229382   0.04380693 -0.09791812  0.00299709  0.16782646 -0.09463749
 -0.01425536  0.17729793  0.02850468  0.10491338  0.07761162  0.00368831
 -0.03303697  0.02377181 -0.16550966 -0.07732079  0.0327589  -0.10662786
 -0.00292852  0.04813622 -0.12740684  0.07574788  0.04105921  0.06179896
 -0.0084663  -0.04148014 -0.04307903 -0.04870716  0.14153115 -0.24944274
  0.2045131   0.19237664 -0.06108243  0.12833385  0.09801158  0.0680722
 -0.01519375 -0.04846991 -0.13461627 -0.06887251  0.08338379  0.00851404
  0.07841152  0.01670417]