[-0.09414182  0.17217773  0.07623485  0.00762077 -0.11290932 -0.02402033
 -0.04436618 -0.12843227  0.10420158 -0.04323968  0.23285706 -0.02483371
 -0.22717606 -0.17630859 -0.0025466   0.17977436 -0.18379468 -0.13630144
 -0.06402227 -0.01496467  0.04941987  0.04401154  0.03889656 -0.05375506
 -0.06923362 -0.39628181 -0.03453275 -0.11085159  0.0356773  -0.04858399
 -0.08469938  0.09993195 -0.15139844 -0.11334794  0.06605067  0.12464463
 -0.05034967  0.02968368  0.17808837  0.00722096 -0.19622196  0.03642268
  0.06742914  0.27802259  0.25203416  0.03817848  0.06192923 -0.12769254
  0.13149098 -0.12601344  0.02913306  0.12543692  0.17044641  0.05512276
  0.10176885 -0.1428638  -0.01224444  0.03241825 -0.1475452  -0.00115577
  0.07707514 -0.12264275 -0.05656915 -0.04920224  0.21379428 -0.01105537
 -0.06622086 -0.12074182  0.15444307 -0.0959678  -0.09171432  0.05753777
 -0.13482894 -0.12749992 -0.30805284 -0.00374241  0.41217396  0.06139969
 -0.24046949  0.05035623 -0.00465542 -0.05700328  0.13862242  0.16098611
 -0.02721909  0.05101315 -0.09931504  0.00403112  0.16712473 -0.10652142
 -0.02326567  0.17143139  0.02149621  0.09894612  0.07768876 -0.01497103
 -0.03452006  0.02566039 -0.17293809 -0.08062334  0.03776849 -0.11189008
 -0.00329517  0.04081972 -0.12123193  0.06511413  0.03846347  0.06953532
 -0.01351416 -0.05947653 -0.05528928 -0.04520176  0.13819744 -0.24422272
  0.20756744  0.18100233 -0.05961256  0.12635632  0.09938001  0.07001886
 -0.00222157 -0.03357623 -0.13944791 -0.06097635  0.08313597  0.02451687
  0.07924555  0.02037663]