[-0.03563399  0.14065407  0.03916954 -0.023112    0.01245975 -0.03215601
  0.07031316 -0.17286275  0.14988379 -0.06717817  0.24535982 -0.09856527
 -0.19297707 -0.07245892  0.01346995  0.14551054 -0.21823464 -0.10235709
 -0.03594863 -0.04035598  0.08208548 -0.00963931  0.04588225  0.0195734
 -0.14044599 -0.29650998 -0.1358775  -0.0967793   0.07371072 -0.03473943
 -0.05375037  0.07037594 -0.20324527 -0.08631508  0.05046364  0.02336783
 -0.06944412 -0.06734848  0.21535531  0.03972251 -0.11845646  0.05559182
 -0.02008493  0.29419503  0.18017791 -0.01878405 -0.00643794 -0.10830746
  0.08828667 -0.19897521  0.05081597  0.1333237   0.05277732  0.12255421
 -0.00122923 -0.13286981  0.04366101  0.0717169  -0.20945077  0.01378455
  0.09400295 -0.12744847  0.02631927 -0.01521649  0.12674035  0.06823634
 -0.06401948 -0.13051644  0.11660267 -0.07491554 -0.00123432  0.00113388
 -0.16269425 -0.17873977 -0.32005575  0.05849229  0.37546226  0.12492336
 -0.13894147  0.02242127 -0.0937423   0.0108855   0.13285191  0.06060639
 -0.05158536  0.00342981 -0.08680558  0.10117967  0.14049079 -0.09181146
 -0.10620788  0.21393923 -0.07029447  0.05344398  0.04715136  0.02566486
 -0.06405584  0.03097798 -0.15825985  0.01768865  0.00097971 -0.07144384
 -0.00414514  0.17716974 -0.20073114  0.12983775  0.0311091  -0.0368744
 -0.06388336 -0.05590961 -0.12272122  0.01496681  0.1009324  -0.26246244
  0.20370601  0.21543486  0.02057499  0.12826107  0.04340175 -0.01659387
 -0.02217347 -0.03247399 -0.18883839 -0.01058672  0.10606033  0.10450041
  0.04120553  0.00722773]