[-0.14742748  0.10881486  0.09474406 -0.08417331 -0.11194735 -0.0717729
 -0.06838309 -0.15502176  0.152141   -0.1422535   0.17313097 -0.0582219
 -0.21105659 -0.02081768 -0.04494883  0.2195601  -0.19182003 -0.16184005
 -0.04779011  0.03383285  0.05058861  0.00649131 -0.02137488  0.01879661
 -0.02215969 -0.41246128 -0.15971123 -0.06212554  0.00441155  0.0088223
 -0.04339799  0.00086172 -0.18364958 -0.09373393  0.02654561  0.07144696
 -0.01912211 -0.06691473  0.15972064 -0.02389036 -0.26003107  0.07895618
  0.09731491  0.19720379  0.15788724  0.0873153   0.04145425 -0.14977168
  0.09079956 -0.17869134 -0.0126455   0.11528745  0.06589695  0.06533299
  0.02898338 -0.19702226  0.04194656  0.09137344 -0.17953698 -0.0318265
  0.06839813 -0.0481048  -0.02481028 -0.06297809  0.25558829  0.08731853
 -0.0893257  -0.17367426  0.18417893 -0.12884116 -0.01081532  0.03089605
 -0.15525582 -0.1636654  -0.23313801  0.0112861   0.41798955  0.10460123
 -0.15806709  0.07028135 -0.09865784 -0.0147779   0.0681449   0.11527921
  0.01420073  0.01583939 -0.06856107 -0.01718009  0.1910219  -0.06231491
  0.04677064  0.19803701  0.03300535  0.09414615  0.00415148  0.00873235
 -0.1099121   0.02039413 -0.16474465 -0.04281775 -0.00910116  0.02883762
 -0.00484604  0.12182032 -0.16640192  0.13572749  0.00324435 -0.00305981
 -0.02873612  0.03436871 -0.01003026 -0.07646938  0.1163274  -0.19688213
  0.18537553  0.21266794 -0.02168395  0.1401906   0.07656018  0.07504274
 -0.02121505 -0.00997395 -0.25087115 -0.02799953  0.10663551 -0.04324293
  0.05289031  0.02506596]