[-3.12904008e-02  1.59330189e-01  3.28298658e-02 -3.05236783e-02
  1.30365221e-02 -2.26417091e-02  7.15586692e-02 -1.75732836e-01
  1.52924374e-01 -7.21371546e-02  2.35967085e-01 -8.66870210e-02
 -2.15953216e-01 -6.41513765e-02  1.82325076e-02  1.36353806e-01
 -2.19362006e-01 -1.01427913e-01 -3.33510786e-02 -3.48629765e-02
  7.55756572e-02  5.19036269e-03  4.69206162e-02  1.66554246e-02
 -1.32811755e-01 -2.98928976e-01 -1.33232728e-01 -7.91214332e-02
  7.22052976e-02 -2.70614810e-02 -4.74468358e-02  7.04562217e-02
 -2.03947350e-01 -7.72803351e-02  4.57889140e-02  3.85172218e-02
 -8.96858498e-02 -6.94366321e-02  2.12374792e-01  5.75816296e-02
 -1.22833751e-01  4.94814403e-02 -1.81890856e-02  3.02785873e-01
  1.87831670e-01 -2.58783139e-02 -9.63694882e-03 -1.06269099e-01
  9.77888033e-02 -2.15515614e-01  5.57602532e-02  1.43739611e-01
  6.39781207e-02  1.24003448e-01  9.72647499e-03 -1.30952910e-01
  4.20770757e-02  7.59928897e-02 -2.18251184e-01  1.00382930e-02
  1.02553777e-01 -1.14362136e-01  2.92673949e-02 -1.73157733e-02
  1.21689081e-01  7.71235749e-02 -6.80563152e-02 -1.23384528e-01
  1.22885086e-01 -8.73711556e-02 -7.93086644e-03  1.48280738e-02
 -1.53058872e-01 -1.83527723e-01 -3.09289157e-01  6.34195507e-02
  3.66045535e-01  1.37164563e-01 -1.19618192e-01  1.02065783e-02
 -8.39939713e-02  4.42388793e-03  1.27467021e-01  5.48250861e-02
 -6.54384717e-02  2.01015733e-03 -8.88630673e-02  1.02944173e-01
  1.47363514e-01 -8.18645135e-02 -1.12029985e-01  2.24457547e-01
 -6.18229024e-02  4.92997579e-02  5.42208366e-02  3.26110423e-02
 -6.66334257e-02  2.06237230e-02 -1.74947187e-01  7.17838714e-03
  2.09871687e-05 -9.34516788e-02 -1.04564298e-02  1.81195036e-01
 -2.00198457e-01  1.42768204e-01  3.14359404e-02 -3.81585471e-02
 -5.61957955e-02 -6.27432764e-02 -1.27964392e-01  2.16021873e-02
  1.06020167e-01 -2.60403514e-01  2.02530533e-01  2.00949952e-01
  1.20313689e-02  1.21279769e-01  4.33485359e-02 -1.38976900e-02
 -2.74069495e-02 -4.95888852e-02 -1.81761324e-01 -2.95059383e-02
  1.02552570e-01  1.04240634e-01  4.38387580e-02 -2.07193196e-04]