[-1.85137704e-01  7.91545138e-02  1.11040018e-01 -9.17078778e-02
 -1.06840089e-01 -7.80324712e-02 -8.47128257e-02 -1.56804666e-01
  1.54589221e-01 -1.64975286e-01  1.90064326e-01 -5.37445545e-02
 -2.04746768e-01  8.93283356e-03 -6.42997548e-02  2.29083344e-01
 -2.13091180e-01 -1.68615222e-01 -2.89733950e-02  1.38988364e-02
  4.57512029e-02  3.57090321e-04 -3.61621678e-02  2.92199012e-02
 -4.35478315e-02 -4.08577174e-01 -1.61730692e-01 -7.81960115e-02
 -1.22135496e-02 -1.82106276e-03 -2.96751559e-02  6.42740866e-03
 -1.64550230e-01 -6.71524033e-02  1.48700550e-02  8.45296979e-02
 -2.18841825e-02 -6.61159679e-02  1.77100822e-01 -1.70306098e-02
 -2.64753610e-01  7.75074288e-02  1.03016436e-01  2.34112173e-01
  1.82072058e-01  7.76393041e-02  1.45938266e-02 -1.32099077e-01
  1.04557253e-01 -1.65643036e-01 -2.28954218e-02  1.22782327e-01
  9.40070152e-02  6.09325543e-02  4.95906137e-02 -1.81633815e-01
  8.12079683e-02  7.31855184e-02 -2.06875086e-01 -3.53706554e-02
  7.64574930e-02 -1.01987936e-01  1.91833563e-02 -4.54329811e-02
  2.41380796e-01  7.21752197e-02 -7.06598684e-02 -1.42513797e-01
  2.11725339e-01 -1.23514287e-01 -2.19512056e-03  1.09974248e-02
 -1.70889467e-01 -1.85290188e-01 -2.44451910e-01 -9.73542314e-03
  3.90126795e-01  1.26956314e-01 -1.38860226e-01  1.13140859e-01
 -5.51564209e-02 -2.77928207e-02  7.73706064e-02  1.36058301e-01
  1.30433468e-02  4.76805260e-03 -7.19621107e-02 -6.15132321e-03
  1.64992720e-01 -4.86701392e-02  6.21379875e-02  1.88676313e-01
  1.84920579e-02  4.75477874e-02  3.45940702e-02  1.06501533e-02
 -1.34631678e-01  2.33585425e-02 -1.57252580e-01 -3.78837958e-02
 -3.36875282e-02  1.88736115e-02  2.35434417e-02  1.03734151e-01
 -1.69505373e-01  1.27563730e-01 -6.90150401e-03 -6.79562334e-03
 -5.69942072e-02  3.50473858e-02  4.47689369e-03 -7.10710660e-02
  1.13293231e-01 -1.93292499e-01  1.71343565e-01  2.10177705e-01
 -3.33410911e-02  1.57767281e-01  6.34834841e-02  7.08234832e-02
 -5.14485203e-02 -2.59138946e-03 -2.49387220e-01 -2.05727275e-02
  7.63088241e-02 -3.83183956e-02  8.64165947e-02  5.14809079e-02]