[-0.07492936  0.11301712  0.08124658 -0.11082486 -0.06764346 -0.02625777
 -0.0574757  -0.10953435  0.2036064  -0.11760908  0.24302764 -0.05060837
 -0.2096037  -0.05535975 -0.05598123  0.21560159 -0.21556489 -0.12153661
 -0.06294788  0.07586481  0.10035856 -0.01689819  0.03071043  0.05672264
 -0.14617223 -0.33391914 -0.08168634 -0.07717588 -0.01449438 -0.06251979
 -0.10569572 -0.02830637 -0.18502788 -0.04481233 -0.01751575  0.02795409
 -0.02481254 -0.10426623  0.16590992 -0.02662771 -0.34765276  0.05671934
  0.02202542  0.17577617  0.20892265  0.01858928  0.05305675 -0.21219909
  0.15732706 -0.18377887  0.02819213  0.11291688  0.05388211  0.01700619
  0.00554236 -0.1461316  -0.0261839   0.14312334 -0.10003525 -0.01518629
  0.0910281  -0.023308    0.00794153 -0.11404625  0.20502944  0.08563592
 -0.14101794 -0.18943129  0.14167216 -0.11331081 -0.03600687  0.10889025
 -0.15305655 -0.20686097 -0.28651625 -0.02994503  0.36204705  0.05813165
 -0.20526378  0.01258819 -0.11440804  0.0322863   0.11828418  0.18346755
  0.03102069  0.04892695 -0.09223279 -0.01195277  0.28400204 -0.12184862
  0.01983177  0.23215778  0.01822713  0.05892003 -0.02989577  0.04536612
 -0.10570706  0.07754377 -0.12905088  0.02253784  0.02972071  0.04832441
 -0.02993494  0.13690345 -0.14640351  0.11437215  0.01672536  0.03526069
  0.05442744 -0.01337354 -0.03911083 -0.12661646  0.11411365 -0.18845563
  0.16719984  0.16184108  0.06640134  0.06720903  0.08873352  0.08507248
 -0.01362106  0.00889205 -0.24835005  0.0420619   0.13892421 -0.05883064
  0.08546256 -0.03157964]