[-9.03704688e-02  1.33403495e-01  5.11122905e-02 -7.01517314e-02
 -8.31028447e-02 -6.50628880e-02 -2.68532429e-02 -1.81106672e-01
  1.61616847e-01 -6.90414831e-02  2.42142126e-01 -1.06158011e-01
 -2.99266040e-01 -5.35037927e-02 -2.89598797e-02  1.82287067e-01
 -1.84699997e-01 -1.22721694e-01 -5.47005013e-02 -1.33899888e-02
  9.38794017e-02 -2.99230423e-02  6.91143039e-04  1.40553460e-01
 -1.53247014e-01 -3.74588728e-01 -6.76117688e-02 -6.67401925e-02
 -1.99265759e-02 -6.52693659e-02 -6.17275722e-02  4.13774811e-02
 -2.15412378e-01 -1.69244297e-02 -9.59513150e-03  1.20964758e-02
  2.08740551e-02 -9.04590711e-02  1.39439672e-01  2.44212523e-03
 -2.86248982e-01  6.01421529e-03  3.17744091e-02  1.70211330e-01
  2.28037506e-01  2.11969689e-02  6.01010919e-02 -1.61350250e-01
  1.09031357e-01 -1.77213684e-01  1.63768511e-02  1.65444613e-01
  2.54147798e-02 -3.33014876e-04 -4.37491015e-02 -2.44054466e-01
 -9.85865816e-02  1.01855233e-01 -1.46506950e-01 -1.54015049e-02
  7.20121637e-02 -3.89620848e-02 -7.58436993e-02 -9.44450349e-02
  1.98433518e-01  1.21865727e-01 -1.79217562e-01 -1.33925155e-01
  1.74459577e-01 -1.70102105e-01  6.73915399e-03  3.99066731e-02
 -1.74965069e-01 -2.06599504e-01 -2.80573517e-01  1.15981987e-02
  3.60775441e-01  5.08278273e-02 -2.06647500e-01  1.05565181e-02
 -1.39689952e-01  7.08367378e-02  6.65227398e-02  1.41749814e-01
  5.54254046e-03  2.31855623e-02 -7.13994950e-02  3.31785940e-02
  2.00395584e-01 -4.41568382e-02  1.84517112e-02  3.04912239e-01
 -3.38522568e-02  4.73139249e-02 -3.22173233e-03  7.77293518e-02
 -1.25341207e-01  1.39306458e-02 -9.33570787e-02 -1.73242390e-03
  1.95402857e-02  7.08944339e-04  3.35962768e-03  1.26917407e-01
 -1.97486922e-01  1.34432465e-01  3.33547741e-02  6.18259795e-02
  3.94821763e-02 -1.37566254e-02 -4.91117425e-02 -1.06709115e-01
  1.29487887e-01 -2.16339752e-01  1.88227430e-01  1.58643648e-01
  5.65006323e-02  1.15208201e-01  5.56774996e-02  7.05344975e-02
  1.55089675e-02 -4.44998369e-02 -2.03879043e-01  2.97202170e-02
  1.06912754e-01 -8.98275897e-02  3.39411162e-02 -3.04933544e-02]