[-1.50773451e-01  5.83609119e-02  8.57498050e-02 -8.02780166e-02
 -1.72793671e-01 -5.76216578e-02 -2.49000620e-02 -1.41607806e-01
  1.14415586e-01 -8.05166662e-02  2.58284152e-01 -4.22643051e-02
 -1.89481542e-01 -1.05156600e-01 -2.45306659e-02  1.97755113e-01
 -1.54059216e-01 -1.60640985e-01 -1.34485553e-03 -4.23534289e-02
  6.93432018e-02 -4.92768269e-03 -1.62610042e-04  9.75472555e-02
 -2.25523785e-01 -3.68717849e-01 -1.06718935e-01 -4.91019599e-02
 -3.06639019e-02 -4.72679622e-02 -1.28404377e-02  9.77346078e-02
 -1.90879405e-01 -1.51361469e-02  3.17282490e-02  8.91433209e-02
  1.97651237e-02 -3.42296883e-02  1.23437643e-01  1.10932309e-02
 -2.62637436e-01  4.61642444e-02  8.47934783e-02  2.57302493e-01
  2.06414342e-01 -1.36341704e-02  7.75806382e-02 -8.19918886e-02
  1.01065435e-01 -1.46061078e-01 -2.29912233e-02  1.21310033e-01
  8.01440999e-02 -3.54520249e-04 -3.38176191e-02 -1.12781994e-01
 -1.27449632e-02  1.57419190e-01 -1.66410908e-01  1.27452109e-02
  7.47743845e-02 -1.11927748e-01 -2.81615499e-02 -6.10520653e-02
  1.80436313e-01  7.26914704e-02 -1.47867486e-01 -1.41381204e-01
  1.38171002e-01 -1.52494371e-01 -5.71088009e-02  3.42681743e-02
 -1.92509830e-01 -1.77226171e-01 -3.63305956e-01  5.23052085e-03
  3.73810470e-01  9.36500356e-02 -2.05204293e-01  1.23244701e-02
 -6.27108440e-02  1.01666860e-01  6.71127066e-02  1.21397875e-01
 -3.07050552e-02  1.60812642e-02 -1.33573920e-01  3.90896350e-02
  2.18820810e-01 -2.12529693e-02  2.98997201e-02  2.59158641e-01
  4.44642082e-02  6.41807616e-02  1.50126815e-02  8.37521181e-02
 -1.07665770e-01 -4.39898064e-03 -9.66060385e-02  9.48789995e-03
 -4.52415757e-02 -1.62138622e-02  4.91247699e-02  1.44422919e-01
 -1.93272680e-01  1.72187760e-01  1.34057831e-03  4.67630625e-02
 -5.30202948e-02  3.94211374e-02 -3.19794677e-02 -8.66081640e-02
  7.31346086e-02 -1.93766281e-01  1.20848656e-01  2.24557430e-01
  4.54073362e-02  1.21209599e-01  9.31782052e-02  1.78846773e-02
 -6.73392043e-02 -2.88034566e-02 -1.29520699e-01  1.56959705e-02
  5.79534471e-02 -1.26909927e-01  8.93435106e-02  1.44533729e-02]