[-1.29831359e-01  1.08628832e-01  9.20877010e-02 -8.31644759e-02
 -1.16283774e-01 -3.76519971e-02 -3.94307785e-02 -1.64685354e-01
  1.52179360e-01 -1.34674966e-01  1.81162044e-01 -6.94301650e-02
 -2.28033736e-01  4.00826288e-03 -3.74629013e-02  2.14427352e-01
 -1.82567164e-01 -1.63093194e-01 -7.76796862e-02  2.19276007e-02
  6.14143126e-02  2.25717910e-02 -1.71111319e-02  8.82427383e-04
 -3.74066830e-02 -4.02093977e-01 -1.37319967e-01 -6.95117265e-02
  3.83142941e-02  1.16847827e-04 -5.24982326e-02 -2.18788255e-02
 -2.00617582e-01 -7.35843033e-02  1.66991074e-02  5.56389056e-02
 -6.21382482e-02 -7.47539997e-02  1.51920214e-01 -2.10047755e-02
 -2.80495107e-01  7.96786994e-02  7.17021003e-02  1.90098315e-01
  1.70295164e-01  9.89300460e-02  2.95196604e-02 -1.69562131e-01
  6.82227314e-02 -1.71343833e-01 -1.48380576e-02  1.25490218e-01
  4.46805917e-02  6.05219714e-02  2.60867905e-02 -1.69537291e-01
  4.29208763e-02  8.54982808e-02 -1.91438422e-01 -2.39595268e-02
  9.73194167e-02 -5.88449202e-02 -1.31063536e-02 -7.09795728e-02
  2.41346389e-01  4.85493317e-02 -8.00567418e-02 -1.62765130e-01
  1.65548906e-01 -1.49120584e-01 -1.93665605e-02  3.44867110e-02
 -1.39469534e-01 -1.80444419e-01 -2.41116166e-01  2.86149676e-03
  4.24978644e-01  1.03951037e-01 -1.37161717e-01  8.13039839e-02
 -8.36191699e-02 -9.68902465e-03  1.04146339e-01  1.02900110e-01
 -9.95403156e-04  1.74429622e-02 -7.64166340e-02 -1.12934290e-02
  2.07192823e-01 -9.21867266e-02  5.94449155e-02  2.22810939e-01
  1.00062862e-02  5.48659638e-02  3.67686711e-03  2.17589624e-02
 -1.12602964e-01  2.80698817e-02 -1.36751771e-01 -5.98946214e-02
  1.63685307e-02  5.24752168e-03  1.53026460e-02  1.20057918e-01
 -1.79972872e-01  1.32040486e-01 -1.19960727e-02  9.02383775e-03
  5.76910516e-03  6.14726590e-03 -2.57948767e-02 -9.53313559e-02
  1.31193712e-01 -2.06779078e-01  1.72913790e-01  2.29114845e-01
 -2.23195832e-02  1.14217713e-01  8.67469013e-02  7.22267851e-02
 -3.35144773e-02  6.37770817e-03 -2.75229275e-01 -1.92412939e-02
  1.19649589e-01 -3.10997497e-02  5.69372661e-02  2.62952577e-02]