[-0.15090145  0.11458802  0.11387058 -0.07269243 -0.12586579 -0.08354604
 -0.05953979 -0.17448628  0.14781657 -0.1559308   0.1920992  -0.05678571
 -0.21198271  0.01119632 -0.04129621  0.22754954 -0.15757719 -0.13031326
 -0.07475562  0.02451034  0.03379121  0.00230047 -0.02142341  0.03390746
  0.0085603  -0.39675814 -0.16086517 -0.07109877  0.01774145 -0.00558511
 -0.0566811   0.0022763  -0.15447953 -0.08801144  0.01832787  0.05255945
 -0.05819608 -0.04564442  0.16544288 -0.02240722 -0.25991198  0.07645806
  0.07912976  0.20377992  0.17363773  0.09536042  0.04985389 -0.13557838
  0.06987392 -0.1829396  -0.03618367  0.11230745  0.07361723  0.06205455
  0.04319594 -0.21346651  0.0451521   0.07336878 -0.20012179 -0.00677541
  0.07405939 -0.09209528 -0.03376142 -0.01656013  0.26026025  0.10034809
 -0.09492373 -0.15059541  0.19080572 -0.14111947  0.00573828  0.01529368
 -0.16306274 -0.18114999 -0.2309093   0.00429216  0.42098036  0.11798412
 -0.1609465   0.06953063 -0.10045455 -0.00185811  0.07550874  0.10798711
  0.00357942 -0.01426815 -0.07837397 -0.02225554  0.14587767 -0.08802612
  0.06110665  0.20511162  0.02373455  0.06543954 -0.00744397  0.02561916
 -0.13420658 -0.00060633 -0.15280797 -0.06582288 -0.00380756  0.01279689
  0.02043673  0.10625545 -0.18131173  0.1423053  -0.00958181  0.00126581
 -0.03765298  0.03973648 -0.01661642 -0.0741485   0.12155074 -0.18540154
  0.19789401  0.23268358 -0.05096071  0.13706289  0.0813774   0.06555849
 -0.01629258 -0.00785321 -0.21880119 -0.03830783  0.08833197 -0.03054842
  0.04726191  0.02579902]