[-3.31345052e-02  1.50961444e-01  5.34774326e-02 -6.96428865e-03
  1.41512007e-02 -2.40926761e-02  5.42190783e-02 -1.88780427e-01
  1.64665654e-01 -9.67732668e-02  2.32872412e-01 -8.72265473e-02
 -1.94986224e-01 -6.13467768e-02  3.89926689e-04  1.46183699e-01
 -2.36765176e-01 -1.12399876e-01 -2.57007461e-02 -4.06772271e-02
  8.65657106e-02  8.27093516e-03  2.69208141e-02  6.49645785e-03
 -1.32350251e-01 -2.85172850e-01 -1.41791835e-01 -8.29992220e-02
  1.01502769e-01 -2.82120556e-02 -6.84010386e-02  3.69766764e-02
 -2.04980135e-01 -9.12442580e-02  4.75748479e-02  1.91056672e-02
 -6.09995127e-02 -7.30674937e-02  1.99475691e-01  3.71097513e-02
 -1.33735448e-01  5.69431968e-02 -1.21708093e-02  2.85732687e-01
  1.84160471e-01  9.69721284e-03 -2.16240566e-02 -1.33129835e-01
  9.53695998e-02 -1.91087037e-01  4.97494712e-02  1.43931076e-01
  6.81873485e-02  1.17143266e-01  4.09100961e-04 -1.46108672e-01
  3.52693535e-02  6.84129149e-02 -2.03802392e-01  1.66818257e-02
  1.12199023e-01 -1.00557983e-01  5.12910075e-02  2.04742257e-03
  1.21812895e-01  5.13820462e-02 -6.21088557e-02 -1.49515495e-01
  1.12039186e-01 -1.03169993e-01 -1.51291685e-02  7.92287197e-03
 -1.41200066e-01 -1.81600571e-01 -3.15824896e-01  4.72306237e-02
  4.03759450e-01  1.29342720e-01 -1.21801428e-01  3.56064141e-02
 -8.85174945e-02 -9.45086218e-03  1.51893005e-01  7.31911212e-02
 -5.23994081e-02 -2.73954170e-03 -8.45374241e-02  8.32553804e-02
  1.59876570e-01 -8.12089667e-02 -1.00642994e-01  2.07755879e-01
 -7.30411634e-02  4.77522388e-02  3.50471549e-02  2.77642962e-02
 -7.95035362e-02  5.50529733e-02 -1.46125361e-01 -1.28172641e-03
  4.31861123e-03 -5.08954711e-02  4.72894637e-03  1.87365159e-01
 -1.99498922e-01  1.38985917e-01  2.64964532e-02 -3.13195884e-02
 -4.13973331e-02 -5.01892753e-02 -1.34409323e-01  1.30931502e-02
  1.10494331e-01 -2.66144365e-01  2.03093290e-01  2.11596176e-01
  1.56748295e-02  1.22691296e-01  5.72687499e-02 -2.13026861e-03
 -5.99163678e-03 -2.67844032e-02 -2.01587319e-01 -2.78676953e-02
  9.75171104e-02  7.04887137e-02  6.06082790e-02  1.80584344e-03]