[-0.18128684  0.15140845  0.1180707  -0.05022605 -0.11739188 -0.05435058
 -0.05368292 -0.13382843  0.17859668 -0.13182648  0.23090832 -0.08352523
 -0.2238332  -0.03318427 -0.04818943  0.24127178 -0.16003235 -0.1533011
 -0.04670154  0.02804122  0.06175437 -0.03609806 -0.01753978  0.03517266
 -0.01743359 -0.45726967 -0.12466017 -0.04398685  0.00650571 -0.01504836
 -0.03953555  0.02698025 -0.18869744 -0.11861388  0.01703036  0.07154036
 -0.0229761  -0.08127142  0.14818469 -0.03841934 -0.2844874   0.01975515
  0.0871428   0.24056152  0.18153749  0.08679226  0.0303315  -0.11990104
  0.07523041 -0.16689065 -0.03698885  0.10897829  0.08779145  0.0477264
  0.05258255 -0.20184882  0.04156815  0.06360779 -0.18167935 -0.0805584
  0.03758185 -0.0858477  -0.00206146 -0.07927021  0.24749008  0.06929355
 -0.07925058 -0.13895847  0.20146811 -0.09987827  0.04358325  0.03879213
 -0.16104384 -0.19794358 -0.27054951  0.00675527  0.40331212  0.11165454
 -0.15045629  0.05789468 -0.06713229  0.00218252  0.0580821   0.15018857
  0.026176    0.00797217 -0.07229672 -0.01918319  0.14916119 -0.0764406
  0.02663004  0.19867443 -0.00185603  0.02424685 -0.00516289  0.03274713
 -0.12005823  0.05391223 -0.15810639 -0.04025335 -0.00294629  0.01938655
  0.00625287  0.09875204 -0.20646624  0.07375639  0.01336841  0.02345761
 -0.02615574  0.00532025 -0.01636678 -0.0810618   0.10182979 -0.22814658
  0.16429968  0.23278265 -0.04471574  0.16937581  0.07825576  0.05607634
  0.01419951 -0.04255772 -0.20159686 -0.03085606  0.08560162 -0.036237
  0.03549206  0.02002865]