[-0.05336749  0.14455946  0.00545186 -0.01290532  0.00967801 -0.04217578
  0.06348109 -0.16509664  0.16457593 -0.06416544  0.2217373  -0.07239036
 -0.19914944 -0.09946666  0.01130803  0.15183771 -0.2348332  -0.11852647
 -0.02998293 -0.04172722  0.08607775  0.02490678  0.04554077  0.01842896
 -0.12086187 -0.32918313 -0.12074905 -0.09328482  0.07302895 -0.04119801
 -0.05973956  0.0921219  -0.21520996 -0.10826094  0.06926765  0.02664085
 -0.05523431 -0.0429162   0.20065704  0.04751137 -0.12394758  0.05917519
  0.00247639  0.31040052  0.20015399 -0.00087216 -0.00336745 -0.1437671
  0.07618149 -0.16895205  0.0251809   0.1440179   0.01903134  0.09569291
  0.00650145 -0.12687503  0.01382084  0.03459786 -0.19907811 -0.00053526
  0.09925348 -0.09119591 -0.00444284 -0.01953401  0.12588528  0.02551522
 -0.06294567 -0.17029308  0.10898682 -0.11377374 -0.02164624  0.02563895
 -0.15129364 -0.17974681 -0.31354088  0.05635178  0.38591132  0.10152262
 -0.11115082  0.05932542 -0.07339525 -0.02462438  0.14930384  0.0751133
 -0.05052891  0.01540355 -0.07723008  0.11223817  0.15690136 -0.06239259
 -0.10764974  0.2007138  -0.0686708   0.05031933  0.05831709  0.04134582
 -0.06033089  0.05265495 -0.18136911 -0.00927225  0.03348682 -0.06509383
  0.00165326  0.18684186 -0.16971552  0.10282143  0.01928049 -0.02641805
 -0.04469712 -0.04918221 -0.14705758 -0.00555253  0.08968996 -0.25652885
  0.20785549  0.20866337  0.02171724  0.10457893  0.05101573 -0.0087868
 -0.0160452  -0.01696135 -0.20113359 -0.01246431  0.11256637  0.10132685
  0.05564541 -0.02274264]