[-9.51190516e-02  1.11571215e-01  4.82153855e-02 -4.07620892e-02
 -1.07335307e-01 -9.11434554e-03  1.13002164e-02 -1.20146014e-01
  1.79372475e-01 -1.22515298e-01  2.13637859e-01 -5.59138916e-02
 -2.44790599e-01 -3.27953584e-02 -8.64984281e-03  1.87569857e-01
 -1.86651304e-01 -8.36241841e-02 -5.82499504e-02 -1.53595898e-02
  1.19548321e-01 -1.12978341e-02 -1.59576535e-02  9.11774635e-02
 -1.82327151e-01 -3.66470039e-01 -8.15769807e-02 -1.09017387e-01
 -1.26679149e-03 -5.35414107e-02 -6.21099360e-02  6.75769290e-03
 -1.57693297e-01 -4.20283638e-02 -2.38295272e-03  2.11858824e-02
 -3.02409716e-02 -6.85982630e-02  1.53483555e-01  2.51851659e-02
 -2.64798343e-01  4.12708037e-02  2.09067538e-02  2.26769522e-01
  1.80291682e-01  3.38325240e-02  8.81257355e-02 -1.41232178e-01
  1.26640186e-01 -1.65992290e-01  1.67143475e-02  1.09586596e-01
  2.47790776e-02  6.64981231e-02  1.30866980e-02 -1.89693406e-01
 -1.57336295e-02  1.14236489e-01 -1.63253173e-01 -2.24670465e-03
  1.05708279e-01 -3.99077326e-05  1.13462750e-02 -3.23621780e-02
  1.88461065e-01  8.47623721e-02 -1.25252575e-01 -1.41621396e-01
  1.35522291e-01 -1.85422450e-01 -3.03893480e-02  2.73734313e-02
 -1.56223774e-01 -2.02589512e-01 -2.69147843e-01  1.43422710e-03
  4.29903895e-01  1.44098788e-01 -1.75591871e-01 -2.93540563e-02
 -1.22168541e-01  1.32341878e-02  1.75276980e-01  1.20732062e-01
  2.19769422e-02  1.06203603e-02 -5.16413562e-02  2.89915595e-02
  2.36800104e-01 -3.25653628e-02  6.14179485e-03  2.60228842e-01
  4.62179221e-02  1.68587361e-02 -6.11193432e-03  1.49611635e-02
 -1.32408857e-01  4.95172255e-02 -1.01701692e-01 -3.34110041e-03
 -4.75059710e-02 -1.69818755e-02  1.97410714e-02  1.15979291e-01
 -2.32087061e-01  2.02724218e-01  3.28341387e-02  3.10248323e-02
 -2.31603980e-02  3.51033844e-02 -1.20691180e-01 -2.67898738e-02
  1.29670754e-01 -2.11911514e-01  1.65226564e-01  2.06810907e-01
  7.26739019e-02  1.11905061e-01  7.09263906e-02  2.49710269e-02
 -1.27572194e-03 -2.63382047e-02 -2.32003137e-01  7.89466128e-03
  9.90372598e-02 -7.68638477e-02  7.50143752e-02 -2.65912097e-02]