[-0.08280969  0.13850105  0.09546947 -0.09513407 -0.10553037 -0.02513585
 -0.07542344 -0.14466202  0.16507642 -0.14404088  0.22282183 -0.06523859
 -0.22368316 -0.01903304 -0.05695756  0.22871327 -0.22798066 -0.16138662
 -0.03738594  0.04921842  0.08037785 -0.0132062   0.03305471  0.0538249
 -0.15899825 -0.32625666 -0.07027047 -0.09008074 -0.0011584  -0.03845644
 -0.08328734 -0.05988709 -0.18189484 -0.0378168  -0.00600291  0.05386734
 -0.01080695 -0.1206226   0.19464779 -0.04490046 -0.33286583  0.0688293
  0.02516841  0.19350323  0.20091951  0.01269633  0.04764096 -0.21250455
  0.17889683 -0.19353865  0.04400578  0.08858547  0.05333016  0.02438073
 -0.00387318 -0.15166822 -0.00352022  0.18102022 -0.1538351  -0.00573366
  0.08965499 -0.02212974  0.05635794 -0.09691092  0.21922544  0.08402392
 -0.1245927  -0.15982746  0.14488913 -0.1180509  -0.04556588  0.07125045
 -0.13742688 -0.2010341  -0.2976504  -0.02960625  0.35917503  0.09211636
 -0.19173403  0.02037039 -0.06063427  0.01985399  0.1313418   0.18103151
  0.0346069   0.02764695 -0.08903833  0.00816741  0.28653547 -0.12140055
  0.01186798  0.2506772   0.01135994  0.06087882 -0.01329858  0.06581089
 -0.13303094  0.08086436 -0.14089172  0.01587848  0.02034646  0.0692502
  0.0019181   0.13991152 -0.15305248  0.10340521 -0.01041375  0.0251447
  0.01914    -0.01895586 -0.03304163 -0.11097162  0.13145423 -0.18092909
  0.17664741  0.17498258  0.03867344  0.09224593  0.10135219  0.03608964
  0.01231867 -0.00691064 -0.25587106  0.02847389  0.14685756 -0.05771848
  0.11875077  0.01120269]