[-1.11206055e-01  1.20069720e-01  7.24395663e-02 -6.65269271e-02
 -1.13206439e-01 -7.18024895e-02 -7.77084008e-02 -1.41108394e-01
  1.72480628e-01 -1.60153106e-01  2.08117723e-01 -8.57372731e-02
 -2.15975642e-01 -2.92295218e-02 -4.34093550e-02  2.16630608e-01
 -1.81116417e-01 -1.43580317e-01 -4.12147120e-02  3.40581760e-02
  6.79571480e-02 -3.63405570e-02 -1.67165007e-02  2.39041876e-02
 -5.48428968e-02 -4.16017860e-01 -1.52029157e-01 -4.38955612e-02
  5.39809093e-03 -3.22643779e-02 -4.46005426e-02  1.42084826e-02
 -1.81486174e-01 -9.72163007e-02  2.91792839e-03  4.57700789e-02
 -4.62090299e-02 -7.81171918e-02  1.62838563e-01 -5.98589843e-03
 -2.57162958e-01  6.33006766e-02  7.74788037e-02  2.09950611e-01
  1.39396250e-01  1.05767131e-01  6.49317726e-02 -1.69427544e-01
  1.02600351e-01 -1.70852110e-01 -2.39926856e-02  1.35515198e-01
  5.97562678e-02  5.66246919e-02  2.22184267e-02 -1.63538441e-01
  3.98566350e-02  1.14095248e-01 -1.89345524e-01 -8.84821825e-03
  1.13583624e-01 -4.40645777e-02 -3.65444422e-02 -7.39966184e-02
  2.74720669e-01  1.14309743e-01 -1.04672134e-01 -1.57310158e-01
  1.67206243e-01 -1.23003595e-01 -1.82380434e-02  2.11085025e-02
 -1.37768850e-01 -1.95374921e-01 -2.37926841e-01  1.02276495e-02
  3.59301299e-01  1.00411832e-01 -1.32751748e-01  5.37585020e-02
 -7.70287812e-02  7.74911651e-03  9.35615748e-02  1.32538006e-01
 -2.35441700e-03 -2.88135116e-03 -6.49475902e-02 -1.31535232e-02
  1.96416155e-01 -7.35205337e-02  5.51644936e-02  1.96184978e-01
  1.51832867e-02  6.58194050e-02 -2.15353668e-02  1.53539805e-02
 -1.51103809e-01  4.32661176e-02 -1.41499206e-01 -2.05443632e-02
  1.69850159e-02  2.64848471e-02 -3.59468919e-04  9.79538634e-02
 -1.47419319e-01  1.21764176e-01 -1.55406957e-02  4.79691941e-03
 -7.05263903e-03  3.25027830e-03 -3.58817242e-02 -8.41677934e-02
  9.24959183e-02 -2.03677401e-01  1.90110981e-01  1.88456103e-01
 -1.58891827e-03  1.27139971e-01  1.08650066e-01  8.41241628e-02
 -9.49583016e-03 -1.51967797e-02 -2.39541695e-01 -2.26074662e-02
  1.06103145e-01 -3.94250080e-02  5.37521429e-02 -1.91115532e-02]