[-1.71456650e-01  9.83303711e-02  9.07219425e-02 -9.43750665e-02
 -1.18369438e-01 -6.42268509e-02 -7.28931576e-02 -1.71788558e-01
  1.51304513e-01 -1.44538164e-01  1.96695760e-01 -8.80313143e-02
 -1.99248195e-01 -2.49756593e-02 -5.72806783e-02  2.30079994e-01
 -2.00813293e-01 -1.83370113e-01 -4.30795625e-02  1.21567342e-02
  3.87084037e-02 -4.49928641e-03 -3.15820202e-02  2.89877951e-02
 -4.97215763e-02 -4.31004494e-01 -1.39633670e-01 -8.15868601e-02
 -6.32289972e-04  2.82166526e-04 -1.70242842e-02  1.06171835e-02
 -1.98623940e-01 -7.06574097e-02  5.14396420e-03  8.01672861e-02
 -2.23317444e-02 -6.79120943e-02  1.67279705e-01 -2.26958636e-02
 -2.73395389e-01  8.78690183e-02  9.01014879e-02  2.13500813e-01
  1.47041008e-01  6.47072345e-02  4.39644121e-02 -1.41588643e-01
  7.90374130e-02 -1.42362103e-01 -3.61109972e-02  1.25825182e-01
  5.53737059e-02  4.27025966e-02  3.24916504e-02 -1.61526099e-01
  6.93118051e-02  6.13779612e-02 -1.94252983e-01 -2.85598543e-02
  9.69347358e-02 -1.08144559e-01 -2.29458679e-02 -7.12569058e-02
  2.36207321e-01  6.33998439e-02 -5.32007925e-02 -1.83894500e-01
  1.84515178e-01 -1.26029596e-01 -2.45088879e-02  3.01936306e-02
 -1.52130768e-01 -1.62010550e-01 -2.86406696e-01 -6.25707966e-04
  3.85383010e-01  1.05741195e-01 -1.40893430e-01  1.14304021e-01
 -5.96834011e-02 -2.45799054e-03  8.28315467e-02  1.29396558e-01
  1.97800826e-02  2.15543658e-02 -8.91013071e-02 -3.62402317e-03
  1.74139380e-01 -5.52164502e-02  4.71263155e-02  1.76853761e-01
  7.51840184e-03  5.15289716e-02  1.63041037e-02  1.83882508e-02
 -1.30316496e-01  2.37613078e-02 -1.25110030e-01 -3.00182346e-02
  1.24313002e-02  3.14434730e-02  1.43995313e-02  1.01336956e-01
 -1.71616912e-01  1.22721158e-01 -2.54726354e-02 -6.56051654e-03
 -4.02338468e-02  2.99297515e-02  9.11159907e-03 -6.70643598e-02
  1.13761120e-01 -2.04166815e-01  1.80339232e-01  2.15217516e-01
 -2.23624017e-02  1.40563399e-01  8.36617798e-02  6.05097488e-02
 -6.58342913e-02  1.25785647e-02 -2.59132385e-01 -3.74433659e-02
  7.49840289e-02 -3.46462578e-02  7.89220855e-02  4.68658246e-02]