[-0.15672404  0.14585637  0.04393055 -0.09147333 -0.08220795 -0.0587293
 -0.00362847 -0.16628122  0.19566146 -0.1470428   0.24072941 -0.04184781
 -0.22854026 -0.02617531 -0.07362358  0.24122702 -0.20060129 -0.12460812
 -0.0705305   0.02711057  0.06552019 -0.01517392  0.01099769  0.07006611
 -0.02376709 -0.36809716 -0.14317867 -0.09953861  0.0561586  -0.01798446
 -0.00787693 -0.00149135 -0.16497672 -0.06507852  0.01460476  0.03048232
 -0.04582945 -0.05913119  0.19496053  0.00626414 -0.2396282   0.05964527
  0.07099936  0.23413754  0.17419991  0.06654149  0.05861774 -0.17249286
  0.09718901 -0.19248024 -0.05297744  0.09763715  0.04424208  0.04895271
  0.03933064 -0.19037341  0.04516137  0.08228446 -0.24447648 -0.00901855
  0.05092487 -0.04115799 -0.06024951 -0.01297662  0.25024921  0.13001178
 -0.1295847  -0.15270141  0.22558157 -0.17117253  0.00854217  0.05067226
 -0.13951777 -0.1774729  -0.22477956 -0.02564242  0.4523204   0.10865339
 -0.13740532  0.06146561 -0.09047695 -0.01652562  0.09258197  0.13540503
 -0.02020505 -0.0255961  -0.07135563 -0.0244867   0.16681866 -0.05903908
  0.02136117  0.21098283  0.02524137  0.03799897  0.0083309   0.04392277
 -0.13897982 -0.01786247 -0.16214982 -0.07480451 -0.0454178   0.00520496
 -0.01149283  0.08842312 -0.161497    0.142671    0.01162043 -0.02042597
 -0.05040505  0.03203973 -0.02657709 -0.03894662  0.10277521 -0.19326483
  0.22325806  0.19768099 -0.03081245  0.1186826   0.08106217  0.05795981
 -0.01490062 -0.01260943 -0.19284455 -0.05907611  0.07018029 -0.0599301
  0.08182354 -0.0424595 ]