[-0.14427029  0.14223389  0.03714919 -0.13935557 -0.06904086 -0.00045906
 -0.01756735 -0.13547085  0.17955787 -0.17789273  0.2004631  -0.07959164
 -0.23596361  0.02162531 -0.09141075  0.21825175 -0.21821843 -0.14838652
 -0.0672016   0.04560982  0.08990342 -0.01039131 -0.06867082  0.08489233
 -0.11960936 -0.29256979 -0.07999094 -0.05084334 -0.00161289 -0.03510597
 -0.05272184 -0.0445694  -0.14704426 -0.01294576  0.01744814  0.07838944
 -0.01138979 -0.0925187   0.17161781 -0.02186226 -0.31944674  0.10570991
  0.05408664  0.25391075  0.21723202 -0.00680682 -0.00828576 -0.18532209
  0.19535063 -0.22892845 -0.02195305  0.12192719  0.06956115  0.06113099
  0.00419999 -0.16825867  0.03799325  0.15021005 -0.14121774 -0.03255219
  0.09026755 -0.05498449  0.05404761 -0.06144891  0.1878503   0.06937535
 -0.14761479 -0.1892492   0.16259055 -0.15449314 -0.02319501  0.04328639
 -0.14118241 -0.20077713 -0.23728013  0.01429674  0.34896058  0.17943123
 -0.16318545  0.09567235 -0.08941469  0.04530981  0.12038225  0.1625395
  0.00829786  0.02274519 -0.07309624 -0.01028239  0.26153046 -0.06811347
  0.02554572  0.25910768  0.0172719   0.032317    0.00457408  0.01538364
 -0.15884052  0.03313095 -0.1454476  -0.02344528  0.00268314  0.02239098
  0.03412894  0.16980626 -0.21032827  0.19054078 -0.03171657  0.06192655
  0.01486105  0.02291169 -0.00215359 -0.03304619  0.12056364 -0.17306097
  0.18541424  0.16945359  0.06653681  0.07753204  0.14910163  0.00777694
  0.02402583  0.03163797 -0.24334334 -0.00452594  0.11430725 -0.07520395
  0.11284272 -0.01555622]