[ 0.00244432  0.14048979  0.03455873  0.01173455 -0.03880619 -0.02671143
  0.03935271 -0.15864669  0.15951861 -0.05435492  0.21745725 -0.06290034
 -0.20090242 -0.03591323 -0.00569292  0.14953077 -0.23287511 -0.10386103
 -0.06253289 -0.05299596  0.0723246   0.04374976  0.02141249 -0.00795574
 -0.09652735 -0.32656869 -0.13501926 -0.08042103  0.09000602 -0.04032863
 -0.05947204  0.08851677 -0.1865277  -0.13334666  0.10150975 -0.02228652
 -0.05151312 -0.0605742   0.18375276  0.05912494 -0.15228188  0.08910225
  0.03863256  0.30314502  0.22037859  0.03740699 -0.01006607 -0.12032217
  0.04159304 -0.18589289  0.01899515  0.14873566  0.0425477   0.11615337
  0.03936098 -0.14545417 -0.01302487  0.02800619 -0.17904215  0.00170481
  0.11940803 -0.08674487  0.03117389 -0.03453773  0.1393034   0.05596964
 -0.0692362  -0.17633487  0.08116756 -0.12818894 -0.05459211  0.01407868
 -0.13739789 -0.14392409 -0.28357822  0.02925429  0.4288654   0.0991809
 -0.14371319  0.02270218 -0.07849845 -0.02718461  0.15271543  0.06300703
 -0.02219566 -0.01584965 -0.0473569   0.06408652  0.17235401 -0.07127298
 -0.10475502  0.19280523 -0.08471661  0.02111974  0.05538511  0.05671411
 -0.07667374  0.05414332 -0.16906017 -0.02247927  0.00556814 -0.05522552
  0.01156975  0.17058645 -0.17030196  0.10960968  0.00857797 -0.02329465
 -0.03815579 -0.03254174 -0.13603379  0.02472462  0.12506852 -0.28109929
  0.24165273  0.20345426 -0.02435743  0.09236775  0.03681726  0.0034298
 -0.01660812 -0.02110392 -0.17197986 -0.06886007  0.07208553  0.07037326
  0.05072195 -0.03103458]