[-0.10409633  0.12584919  0.05524615 -0.06136143 -0.08247273 -0.06148873
 -0.03770391 -0.17624407  0.1544749  -0.06929665  0.23898029 -0.0866257
 -0.27917552 -0.07746029 -0.00590557  0.17681293 -0.17583874 -0.11216567
 -0.05922818 -0.00853443  0.08034858 -0.0090852   0.02117968  0.13042174
 -0.13503049 -0.38351941 -0.05923065 -0.07741351 -0.02904957 -0.03651689
 -0.06547522  0.04349563 -0.20683959 -0.0198498  -0.01823898  0.02425475
  0.02225575 -0.06185526  0.14499514  0.00739326 -0.2884326   0.00645596
  0.0281972   0.16380799  0.24578349  0.02673194  0.0637679  -0.15759563
  0.11099255 -0.17972744  0.02233694  0.15523234  0.02786858 -0.00762879
 -0.03648885 -0.23601365 -0.10427158  0.0925817  -0.14029549 -0.027139
  0.06359009 -0.02956948 -0.0810389  -0.09710544  0.20868802  0.12878133
 -0.17337176 -0.13253801  0.16101095 -0.17185915 -0.01468733  0.05478147
 -0.17221722 -0.19669153 -0.29349715  0.01067531  0.36941591  0.0411209
 -0.21132532  0.00172995 -0.14251058  0.05486848  0.07022292  0.13208139
  0.00395126  0.02066422 -0.06699701  0.01181375  0.20315397 -0.03777922
  0.0173416   0.29694554 -0.01743151  0.06012476  0.00338742  0.08125981
 -0.09710199  0.01453052 -0.10738547 -0.0040903   0.01276594 -0.01379783
  0.00571597  0.10338129 -0.21442457  0.14846206  0.03784551  0.0629118
  0.04701064 -0.01506396 -0.05176322 -0.0887095   0.14187728 -0.21215652
  0.18578736  0.15442222  0.0555447   0.13334976  0.06159006  0.08567517
 -0.01167598 -0.03953756 -0.20424174  0.02274566  0.10758876 -0.08199854
  0.04434971 -0.00816549]