[-1.32627055e-01  1.46975756e-01  9.24152657e-02 -6.96184039e-02
 -1.08547941e-01 -5.06759770e-02 -5.63381612e-02 -1.82146952e-01
  1.79123640e-01 -1.53218478e-01  1.70627400e-01 -9.27805230e-02
 -1.97268426e-01  4.61116545e-02 -4.22842428e-02  1.88986346e-01
 -1.39223382e-01 -1.67707905e-01 -5.81231080e-02  1.60245076e-02
  4.45730872e-02  4.66379896e-03 -2.77116001e-02  2.54393499e-02
 -8.37004408e-02 -3.80555451e-01 -1.61171570e-01 -6.34539276e-02
  7.05443844e-02  1.71287879e-02 -6.13147728e-02  1.44921092e-03
 -1.76226303e-01 -6.02123439e-02  4.57322672e-02  8.84556249e-02
 -4.65036966e-02 -7.66803250e-02  1.96870536e-01 -5.27191628e-03
 -2.65728772e-01  6.12231605e-02  5.67819774e-02  2.18250439e-01
  1.50675997e-01  9.79322568e-02  5.74929528e-02 -1.63059995e-01
  9.02503729e-02 -1.58288881e-01  1.17215887e-02  1.62156329e-01
  3.49609889e-02  1.06887840e-01  1.67504344e-02 -1.89105421e-01
  6.60928488e-02  9.27549452e-02 -2.13159248e-01 -9.92880017e-03
  1.13979973e-01 -7.06300065e-02 -2.14041453e-02 -3.78332213e-02
  2.70859301e-01  1.01747923e-01 -9.08318907e-02 -1.58211634e-01
  1.87674806e-01 -1.50058031e-01  8.98167212e-03  2.75243316e-02
 -1.51011139e-01 -1.79730594e-01 -1.94623068e-01  3.42763588e-02
  4.34924901e-01  1.45433798e-01 -1.23615481e-01  1.12375572e-01
 -8.16060454e-02 -1.41490614e-02  1.06096745e-01  1.33510187e-01
  5.28819859e-04  8.56435951e-03 -3.30684446e-02  3.75935296e-03
  2.09674463e-01 -8.20182934e-02  5.81317358e-02  2.12384537e-01
  2.39479030e-03  6.01324700e-02 -1.11497967e-02  2.22614259e-02
 -1.37110680e-01  2.42117830e-02 -9.09561291e-02 -4.50464375e-02
  3.32505815e-02  2.95327399e-02  3.52253728e-02  1.14719942e-01
 -2.06513599e-01  1.69815913e-01 -1.07146297e-02  1.10853501e-02
  3.83288483e-03  1.58257838e-02  2.45665753e-04 -8.21680799e-02
  1.31880641e-01 -2.35104665e-01  2.08031490e-01  1.90899178e-01
 -4.84642573e-02  1.47459194e-01  9.15555581e-02  8.91907141e-02
  3.57472226e-02  5.56494063e-03 -2.29074344e-01 -4.22470458e-02
  1.00890495e-01 -2.93595921e-02  5.20713218e-02  2.49351319e-02]