[-1.41418561e-01  7.64221549e-02  7.96312764e-02 -7.48667419e-02
 -1.51317820e-01 -5.40794730e-02 -2.76293252e-02 -1.51042208e-01
  1.15802646e-01 -1.01734675e-01  2.70277947e-01 -3.65577936e-02
 -1.89879671e-01 -1.11424141e-01 -2.52215955e-02  1.79814205e-01
 -1.39615014e-01 -1.41517282e-01 -2.27051303e-02 -1.87854916e-02
  1.01994812e-01 -5.08219411e-04 -6.68383623e-03  7.89342225e-02
 -2.04257324e-01 -3.72940361e-01 -1.18951611e-01 -3.75077352e-02
 -4.79633966e-03 -5.79685755e-02 -2.24647708e-02  6.17313087e-02
 -1.84669882e-01 -2.16652844e-02  1.62071772e-02  8.05338547e-02
  2.16131117e-02 -2.30390485e-02  1.25034645e-01  1.25692785e-02
 -2.72871792e-01  6.41541928e-02  6.33975863e-02  2.48598933e-01
  2.09694624e-01 -2.43076612e-03  8.58866498e-02 -1.10352956e-01
  1.07496217e-01 -1.25592649e-01  2.03153497e-04  1.14259079e-01
  9.53449011e-02  1.49770631e-02 -3.24597955e-02 -1.27401337e-01
 -3.46948616e-02  1.60991192e-01 -1.47698775e-01  3.07797976e-02
  9.00786892e-02 -9.66120437e-02 -2.52141114e-02 -5.32983802e-02
  1.75262794e-01  5.77561744e-02 -1.61362290e-01 -1.51838407e-01
  1.44026622e-01 -1.52428553e-01 -4.84921411e-02  3.88176180e-02
 -1.92476854e-01 -1.78860113e-01 -3.47323745e-01  2.96501797e-02
  3.85296583e-01  8.70630667e-02 -2.18030721e-01 -5.45928301e-03
 -7.78712705e-02  9.24185142e-02  8.13482627e-02  1.23322465e-01
 -2.00880226e-02  1.44995051e-02 -1.21667385e-01  3.64661254e-02
  2.35163242e-01 -2.34664213e-02  2.23694872e-02  2.67493218e-01
  3.99558544e-02  7.92258829e-02  8.93654395e-03  8.24622139e-02
 -1.09579086e-01  3.32795992e-03 -9.30224508e-02  1.53778093e-02
 -4.09593694e-02 -3.66759300e-02  3.71585116e-02  1.43116668e-01
 -1.80922866e-01  1.98455393e-01  8.75860918e-03  6.64024726e-02
 -3.55652124e-02  4.14529443e-02 -5.32494672e-02 -8.14737231e-02
  8.85487944e-02 -1.83886468e-01  1.53740093e-01  2.21688077e-01
  7.52622187e-02  1.13362812e-01  1.15160309e-01  3.33741270e-02
 -3.95326875e-02 -2.09829826e-02 -1.49551079e-01  1.74498204e-02
  6.16349764e-02 -1.26120180e-01  9.18713883e-02  6.84011588e-03]