[-0.03977403  0.14163826  0.03078547 -0.0192897   0.01578379 -0.03294558
  0.06629064 -0.17773382  0.15386939 -0.073576    0.23831797 -0.09215392
 -0.19981399 -0.07279908  0.00763415  0.14901891 -0.21780963 -0.11394683
 -0.02833064 -0.05590999  0.07508364 -0.00613424  0.03622272  0.02748845
 -0.14682175 -0.27930051 -0.12939809 -0.09059706  0.06606574 -0.02106836
 -0.05106731  0.07674646 -0.2050679  -0.08369851  0.05472375  0.03737468
 -0.06999119 -0.06610416  0.21586893  0.04713841 -0.12110432  0.05157996
 -0.01041159  0.2938709   0.18044819 -0.01486546 -0.01349984 -0.11425009
  0.09385204 -0.19601612  0.04810343  0.14422207  0.05767268  0.12112802
 -0.00668061 -0.14216708  0.03957006  0.07569867 -0.20833707  0.00292685
  0.08593946 -0.12791614  0.03024562 -0.01815061  0.1266744   0.07799888
 -0.06166558 -0.13016932  0.1291368  -0.08493137 -0.01747519  0.00639842
 -0.15335436 -0.17733458 -0.32350656  0.05564201  0.37303683  0.12913463
 -0.12319124  0.03089446 -0.08207428  0.00760219  0.13276246  0.06645544
 -0.06097774  0.00040354 -0.08003454  0.08997613  0.14774154 -0.07716135
 -0.11252349  0.20444353 -0.07073212  0.05501487  0.05145729  0.02531799
 -0.06745922  0.03268565 -0.16195162  0.00456294 -0.00218357 -0.068836
  0.00443656  0.17718662 -0.1996676   0.12330043  0.03119329 -0.0366377
 -0.06377158 -0.04591192 -0.12088364  0.01926547  0.10026435 -0.26043901
  0.20874821  0.20434637  0.01533445  0.13258204  0.05889362 -0.01044023
 -0.02459092 -0.041955   -0.18778448 -0.02012671  0.1083087   0.09917851
  0.0595659   0.0101107 ]