[-1.47919178e-01  9.71616432e-02  7.82780573e-02 -8.80931914e-02
 -1.09033421e-01 -6.64132237e-02 -5.89126945e-02 -1.73560813e-01
  1.70109123e-01 -1.63343117e-01  1.92258060e-01 -6.96410462e-02
 -2.20920712e-01 -9.10511613e-03 -4.29342352e-02  2.17217788e-01
 -1.72609732e-01 -1.71275496e-01 -9.62659866e-02  1.67536288e-02
  3.85956131e-02  5.25355572e-03 -2.62267478e-02  3.47873685e-03
 -1.62816383e-02 -4.11925405e-01 -1.47038132e-01 -6.55790269e-02
  1.43860206e-02  1.41607691e-02 -3.25893126e-02 -5.48779972e-05
 -1.85351804e-01 -9.64110270e-02  2.42248215e-02  5.64041920e-02
 -4.14316244e-02 -6.29579648e-02  1.74861193e-01 -3.38465981e-02
 -2.76870459e-01  6.39894530e-02  7.82076046e-02  1.98668107e-01
  1.42340541e-01  8.15143958e-02  3.90891209e-02 -1.66937619e-01
  8.80089849e-02 -1.76751912e-01 -3.10365260e-02  1.28583252e-01
  5.78559227e-02  6.33639470e-02  3.73160951e-02 -1.65300936e-01
  4.94349934e-02  9.13896114e-02 -1.69875473e-01 -1.48133608e-02
  9.80643854e-02 -8.37427005e-02 -4.09085900e-02 -7.57675916e-02
  2.59730428e-01  6.15758672e-02 -1.02684237e-01 -1.68662295e-01
  1.66859642e-01 -1.21802740e-01 -1.62724834e-02  3.76078151e-02
 -1.44141644e-01 -1.79032251e-01 -2.51490921e-01  6.28433749e-03
  4.26975697e-01  8.94053131e-02 -1.55796438e-01  7.11080059e-02
 -1.05073683e-01 -1.21635469e-02  8.61280113e-02  1.10716879e-01
  9.90544725e-03  6.91285729e-03 -7.82973617e-02 -2.52685435e-02
  2.10175022e-01 -8.47029537e-02  4.97341268e-02  2.08018824e-01
  1.20547879e-02  7.22118616e-02 -9.87919513e-03  4.24439870e-02
 -1.22539021e-01  7.75830308e-03 -1.40631184e-01 -3.94495018e-02
  3.72060500e-02  1.76580828e-02  2.36493140e-03  1.02162622e-01
 -1.59917936e-01  1.33667141e-01 -1.14801824e-02  1.94494706e-02
  4.58826451e-03  1.89573914e-02 -1.67681817e-02 -9.98338461e-02
  1.25129506e-01 -1.93041354e-01  1.79548517e-01  2.15378687e-01
 -1.66660193e-02  1.29193828e-01  9.42024365e-02  6.97512254e-02
 -3.70717533e-02  7.57434545e-03 -2.59487301e-01 -4.68777232e-02
  1.00922562e-01 -1.00317439e-02  4.42257039e-02  2.16158759e-02]