[-0.09584249  0.11223414  0.06667794 -0.05387245 -0.11112801 -0.00387401
 -0.01318512 -0.12482204  0.17485358 -0.12263047  0.23805502 -0.03327077
 -0.27173075 -0.028174    0.01222074  0.18089762 -0.19388925 -0.08000837
 -0.06382    -0.0010102   0.11705865 -0.01826015  0.00101068  0.09559392
 -0.20535676 -0.38533038 -0.06994795 -0.09627722 -0.01346879 -0.06188176
 -0.07447507  0.00197094 -0.16868277 -0.01763268  0.0025984   0.02793889
 -0.02076898 -0.08196378  0.17698388  0.02008972 -0.28085452  0.04515056
  0.02442707  0.19076042  0.22041558  0.00952548  0.09548176 -0.14910395
  0.14742766 -0.1563047   0.02285711  0.12492488  0.03733806  0.05536629
  0.01355597 -0.2093062  -0.04107178  0.13918002 -0.15971076 -0.03217989
  0.08786099 -0.01546273 -0.00282233 -0.04493469  0.18044876  0.07911693
 -0.14546104 -0.13975662  0.14276467 -0.16284607 -0.01212249  0.04117632
 -0.18953766 -0.20436621 -0.27255532 -0.00062016  0.39178023  0.12275753
 -0.19511896 -0.02966844 -0.12581028  0.01005481  0.12784748  0.12581462
  0.03005112  0.00273323 -0.04252988  0.04801653  0.23179869 -0.02013583
  0.02969545  0.27041152  0.04413481  0.01264128 -0.00395326  0.02631503
 -0.15038183  0.01754724 -0.11069665 -0.01329677 -0.06423856 -0.00890323
  0.01854548  0.12429623 -0.25425133  0.19406028  0.02728367  0.02159711
 -0.01555139  0.00364044 -0.09196628 -0.03354677  0.12312006 -0.2259872
  0.16161425  0.19639321  0.0777355   0.11355646  0.05236375  0.01897995
 -0.0126593  -0.01889554 -0.23594046  0.01785681  0.09804966 -0.082362
  0.08767231 -0.04002887]