[-0.15074417  0.13485222  0.11333066 -0.08282652 -0.08537992 -0.1054701
 -0.0974554  -0.16929522  0.11012097 -0.10620614  0.23717776 -0.08100449
 -0.17245458 -0.05465022 -0.05232057  0.21631961 -0.18276368 -0.12544644
 -0.05821139  0.05688495  0.09181752 -0.0365375  -0.0008197   0.05162051
 -0.07299014 -0.3966125  -0.15134077 -0.05388323  0.00769855 -0.03599708
 -0.04285442  0.00429324 -0.18541193 -0.11128353  0.04154484  0.10398729
 -0.00573449 -0.05030736  0.16109507 -0.03065196 -0.26180634  0.12468614
  0.09450899  0.25270948  0.23512642  0.06988851  0.08838408 -0.15535651
  0.12320385 -0.15476817  0.00807157  0.1062925   0.11591091  0.05226403
  0.03246877 -0.13626768  0.06027136  0.11938417 -0.19936733 -0.0269914
  0.13614035 -0.05696105 -0.00385202 -0.04029321  0.22765128  0.0434285
 -0.12279365 -0.16941985  0.14947808 -0.11817314 -0.00633889  0.02712362
 -0.17576419 -0.17356223 -0.30769843  0.00900539  0.38977432  0.10602607
 -0.16884108  0.12015595 -0.11210908  0.00815643  0.04472522  0.11014187
  0.01673183  0.04417552 -0.06986041  0.01879779  0.19454794 -0.05707608
  0.06330504  0.22152738  0.02842456  0.03395133  0.00456637  0.01404036
 -0.12380958  0.01969239 -0.1470264  -0.023558   -0.04185071  0.027995
  0.02719142  0.09336598 -0.23288634  0.16233425 -0.01419136  0.04025051
 -0.03738723 -0.00551618 -0.0426585  -0.05350877  0.11030286 -0.24296661
  0.15525809  0.21986888  0.0420429   0.0986008   0.12272751  0.02843688
  0.01619059  0.01252642 -0.21187139 -0.00437191  0.09708654 -0.05471456
  0.09829458  0.03051527]