[-3.16453278e-02  1.63137078e-01  4.13799249e-02 -7.69013679e-03
  3.22098061e-02 -2.19147038e-02  5.94952479e-02 -1.71554178e-01
  1.75156057e-01 -6.78323954e-02  2.32521445e-01 -6.96565956e-02
 -2.17480615e-01 -4.60691154e-02 -1.43740128e-03  1.40334859e-01
 -2.38852650e-01 -8.47530738e-02 -5.10408357e-02 -5.89427948e-02
  1.02047674e-01  3.49082015e-02  3.64172123e-02  1.10213412e-02
 -1.40735805e-01 -2.78416157e-01 -1.31933361e-01 -8.41704533e-02
  1.09542929e-01 -3.55328321e-02 -5.15186302e-02  2.71550715e-02
 -1.88713863e-01 -9.29754823e-02  4.87276316e-02  8.21096729e-03
 -7.79292211e-02 -6.69639111e-02  1.97499782e-01  5.87736666e-02
 -1.47893354e-01  6.80319443e-02 -1.21618249e-02  3.07914317e-01
  1.78932309e-01  1.47273121e-02 -2.28691231e-02 -1.27000391e-01
  7.80372769e-02 -2.11694866e-01  5.46589009e-02  1.54200956e-01
  5.71261421e-02  1.18420817e-01  1.79738086e-02 -1.47157535e-01
  1.81324016e-02  8.69324431e-02 -2.09466621e-01  3.66621390e-02
  1.21757939e-01 -9.69308540e-02  4.73727919e-02  2.35711035e-04
  1.04563333e-01  7.17109367e-02 -9.01598260e-02 -1.26299545e-01
  9.29745659e-02 -1.12527214e-01 -1.63966026e-02  1.67282000e-02
 -1.23103194e-01 -1.87161982e-01 -3.14233273e-01  4.73543666e-02
  4.05812114e-01  1.17582776e-01 -1.25739560e-01  7.61358161e-03
 -8.31285045e-02  3.78534687e-03  1.64539412e-01  7.33557045e-02
 -7.68501461e-02 -4.31707082e-03 -7.63864368e-02  7.62611032e-02
  1.46997795e-01 -6.53741583e-02 -1.01971984e-01  2.31948882e-01
 -6.52264282e-02  3.59689258e-02  4.21270244e-02  6.19851016e-02
 -9.47577506e-02  2.61422377e-02 -1.44696549e-01 -4.91180131e-03
  1.43691078e-02 -8.11301470e-02  3.61348246e-03  1.75746858e-01
 -1.95275977e-01  1.50583982e-01  4.20243926e-02 -2.79041063e-02
 -2.05601640e-02 -3.19203399e-02 -1.31905451e-01  1.03071760e-02
  1.22963600e-01 -2.59521693e-01  2.11202860e-01  2.20897824e-01
  4.53974260e-03  1.13776736e-01  6.04484491e-02  7.22268247e-04
 -2.18722504e-02 -2.57629007e-02 -1.85043737e-01 -3.57656144e-02
  8.24748650e-02  6.55535012e-02  5.34353666e-02 -1.65490415e-02]