[-1.44977018e-01  1.05711512e-01  1.06645845e-01 -8.43483508e-02
 -1.16797365e-01 -6.49648830e-02 -4.29918729e-02 -1.58589229e-01
  1.70397073e-01 -1.47501737e-01  1.84818342e-01 -5.90282455e-02
 -2.40836576e-01  6.82496373e-03 -4.70901430e-02  2.08987385e-01
 -1.42175600e-01 -1.29358768e-01 -5.72407246e-02  2.37039309e-02
  4.22935076e-02 -3.35138961e-04 -3.83477961e-03  4.52663116e-02
 -3.85860587e-03 -4.11123723e-01 -1.68943539e-01 -6.92066997e-02
  3.92674515e-03 -9.34763637e-04 -4.71685529e-02  7.01570651e-03
 -1.64821327e-01 -8.97510648e-02  6.23843167e-03  6.49697408e-02
 -7.27184191e-02 -6.12655766e-02  1.38794228e-01 -1.59719344e-02
 -2.48611435e-01  4.09887545e-02  7.61475787e-02  2.04422817e-01
  1.72557920e-01  1.03278778e-01  5.40324710e-02 -1.40343368e-01
  5.57713471e-02 -1.69729218e-01 -2.61783153e-02  1.14628673e-01
  7.16569275e-02  6.91499934e-02  4.53478694e-02 -2.06924006e-01
  5.05483933e-02  7.88045749e-02 -1.98381141e-01 -2.73814090e-02
  5.45933358e-02 -6.63995296e-02 -3.08962949e-02 -2.93396171e-02
  2.64124781e-01  9.79215801e-02 -9.11067575e-02 -1.40303418e-01
  2.08385989e-01 -1.50931761e-01  1.52617143e-02  2.86085065e-02
 -1.66652307e-01 -1.86180770e-01 -2.05850035e-01  2.30642711e-03
  4.05350119e-01  1.17853262e-01 -1.29258916e-01  7.14866668e-02
 -1.10554039e-01  7.36083928e-03  5.60972579e-02  1.04661763e-01
 -1.63664261e-03  2.67105969e-03 -7.13757798e-02 -1.75146665e-02
  1.38968304e-01 -9.09407288e-02  5.76471090e-02  2.05397040e-01
  2.11119931e-02  4.93012369e-02  1.19102197e-02  1.88116785e-02
 -1.30811214e-01  2.48716325e-02 -1.54543564e-01 -6.69714957e-02
 -1.45104737e-03 -2.52399524e-03  1.87315140e-02  8.33149478e-02
 -1.90609425e-01  1.38831511e-01  6.63697673e-03 -3.57538462e-03
 -1.79327410e-02  1.82620604e-02 -2.73490138e-02 -7.96857253e-02
  1.31927088e-01 -2.11557269e-01  1.85967371e-01  2.18974635e-01
 -4.56129611e-02  1.55167028e-01  6.78840131e-02  8.71744677e-02
 -1.81490574e-02 -3.24907601e-02 -2.11441949e-01 -2.34776381e-02
  9.48387384e-02 -3.20033804e-02  4.16271798e-02  1.65337157e-02]