[-0.01880617  0.14539683  0.02521311  0.00562294  0.00580486 -0.03844656
  0.05192759 -0.16082612  0.15898342 -0.03060015  0.25415146 -0.04651268
 -0.19398157 -0.11188992  0.01994254  0.14584497 -0.20483911 -0.09874946
 -0.04093134 -0.06237081  0.09081858  0.00042855  0.08066739  0.02371556
 -0.15868218 -0.31866795 -0.11981418 -0.10730564  0.0807961  -0.06515111
 -0.03352145  0.10444069 -0.19891082 -0.11913633  0.06440721 -0.03223129
 -0.05410758 -0.05930016  0.21666478  0.05079772 -0.13929449  0.09313576
 -0.01961862  0.28908122  0.1904351  -0.00673243  0.03073897 -0.09389327
  0.04669652 -0.18791948  0.03315208  0.13229226  0.02031691  0.07226852
  0.02473573 -0.14106904 -0.02579135  0.04333749 -0.20703237  0.02621068
  0.07568622 -0.09615383  0.00619    -0.03155069  0.09160727  0.07614411
 -0.05968199 -0.154971    0.10329312 -0.0921013   0.00493266  0.05455559
 -0.15511844 -0.18804024 -0.28284517  0.06157435  0.38649675  0.11323171
 -0.13174599  0.01873381 -0.08248448  0.00868563  0.11819012  0.03760017
 -0.03197484 -0.00706081 -0.05149408  0.08744239  0.13774972 -0.05331976
 -0.14167219  0.22240655 -0.07630581  0.03882877  0.05553678  0.03522437
 -0.05905548  0.04024918 -0.15617886  0.00473886 -0.00230123 -0.06685471
  0.01359496  0.14736341 -0.15326487  0.09526168  0.01447084 -0.02443262
 -0.06220531  0.00353042 -0.15185301  0.01207475  0.0955397  -0.27417907
  0.24281238  0.21996848  0.01361194  0.10286724  0.04914443 -0.02015188
 -0.00743479 -0.02367099 -0.1429076  -0.03676739  0.1021473   0.07369176
  0.06039594 -0.03163071]