[-0.14900759  0.12644234  0.10835978 -0.06236715 -0.10060638 -0.07576096
 -0.07371711 -0.17977838  0.16745242 -0.13817279  0.16787146 -0.08975649
 -0.20315769  0.02087268 -0.03874853  0.19181125 -0.14403157 -0.1746283
 -0.05276451  0.02396717  0.03796954 -0.00967911 -0.02597423  0.02906949
 -0.06338304 -0.41250736 -0.16738291 -0.06311317  0.05085112  0.01765975
 -0.0507124  -0.00676872 -0.17999257 -0.064418    0.03464125  0.08882751
 -0.0384923  -0.0899809   0.19041435 -0.00565978 -0.27082855  0.05719835
  0.05142022  0.20552574  0.16031271  0.09100107  0.06507919 -0.14479963
  0.09593783 -0.13904296  0.00320178  0.16862482  0.05719648  0.09595362
  0.02567684 -0.187032    0.05456809  0.09312656 -0.20743716 -0.02674395
  0.09049829 -0.07814507 -0.02237339 -0.04910127  0.25164121  0.10562476
 -0.08461632 -0.15464205  0.20361371 -0.1354394   0.0149259   0.01473953
 -0.16567929 -0.17650171 -0.19924717  0.02804187  0.40935597  0.12736037
 -0.13796847  0.10738855 -0.08350188 -0.00603647  0.0752225   0.13842545
  0.01504434  0.01716362 -0.0399606  -0.00743491  0.18127787 -0.07222509
  0.05951715  0.18879686 -0.00500075  0.06128128 -0.00154091  0.01439414
 -0.13642283  0.02619597 -0.09282749 -0.04760789  0.02649156  0.04015036
  0.03612615  0.09126582 -0.18299098  0.15947534  0.0049542   0.01758352
 -0.00770493  0.02054151  0.01479751 -0.08082186  0.11974219 -0.22321697
  0.22027169  0.18702421 -0.05934898  0.15821056  0.07245799  0.09447896
  0.01183524 -0.00071769 -0.21596661 -0.04648654  0.08259553 -0.01029107
  0.05396025  0.02888425]