[-1.95407525e-01  8.72275755e-02  8.97774175e-02 -1.06136732e-01
 -1.06782280e-01 -8.62411633e-02 -9.00315568e-02 -1.30767956e-01
  1.23632148e-01 -1.43919870e-01  1.92806140e-01 -1.23113148e-01
 -1.89981535e-01 -2.70887315e-02 -9.85351950e-02  2.31438562e-01
 -1.78878978e-01 -1.33664623e-01 -1.95657089e-02  4.37364541e-02
  1.04792975e-01 -7.36290542e-03 -8.65242407e-02  7.58386999e-02
 -4.29964997e-02 -3.96250129e-01 -1.08429193e-01 -4.32932451e-02
 -1.61963496e-02 -4.19081561e-02 -1.43242059e-02  3.28174867e-02
 -1.93573356e-01 -7.20045492e-02 -1.04038510e-02  1.19541705e-01
 -1.39795588e-02 -8.77920166e-02  1.43052727e-01 -2.29327530e-02
 -2.67787546e-01  7.11570010e-02  1.12404026e-01  2.26503015e-01
  1.67130873e-01  6.93144575e-02  3.73072587e-02 -1.09075449e-01
  1.18561305e-01 -1.81642577e-01 -5.35523891e-02  1.03294469e-01
  1.10122621e-01  5.74220195e-02  4.82633151e-02 -1.81191489e-01
  7.50024170e-02  7.32344240e-02 -1.92520663e-01 -4.38505448e-02
  5.45303337e-02 -6.08645566e-02  3.92423756e-02 -4.79629748e-02
  2.47176319e-01  7.81169161e-02 -6.22724481e-02 -1.33141369e-01
  2.27502853e-01 -1.26226231e-01 -2.04001963e-02  1.42533779e-02
 -1.38714314e-01 -1.58288553e-01 -2.72314042e-01  3.73646175e-03
  3.47135991e-01  1.18894793e-01 -1.36595175e-01  1.15709379e-01
 -4.43353169e-02  8.71581305e-03  8.17988142e-02  1.07503548e-01
  1.35172224e-02  8.50643497e-03 -5.17910607e-02 -5.85564272e-03
  1.99699506e-01 -2.80895717e-02  4.87435870e-02  1.67666689e-01
  3.51449810e-02  1.03261769e-02  2.04193834e-02 -2.29507219e-02
 -1.07864223e-01  4.10084985e-02 -1.18645243e-01  3.23508307e-03
 -6.27627084e-03  4.83092386e-03  3.12137790e-02  1.28129348e-01
 -1.97432071e-01  1.11792259e-01 -1.15076331e-02  7.08559237e-04
 -4.13696580e-02  6.83218315e-02 -3.85537930e-02 -3.63963991e-02
  8.63824412e-02 -1.97592422e-01  2.03583047e-01  1.83259055e-01
 -4.78489138e-03  1.27800629e-01  9.13461372e-02  6.13915883e-02
  3.69966030e-04 -3.75585258e-03 -2.00593665e-01 -5.50123416e-02
  1.02036215e-01 -4.52365875e-02  8.27910826e-02  4.09295820e-02]