[-3.23775895e-02  1.46407232e-01  3.48496400e-02 -2.26635300e-02
  1.70340631e-02 -3.16857994e-02  7.05296919e-02 -1.77172586e-01
  1.59714863e-01 -7.88167045e-02  2.35514998e-01 -9.04687271e-02
 -2.04224110e-01 -6.72428086e-02  1.54220900e-02  1.50934055e-01
 -2.26213798e-01 -1.08531274e-01 -3.48690413e-02 -5.50131463e-02
  7.84977600e-02  1.74275006e-03  4.32094298e-02  1.96124464e-02
 -1.42388999e-01 -2.85060704e-01 -1.37757197e-01 -8.98891687e-02
  7.25290701e-02 -2.50072125e-02 -4.77665849e-02  6.03286289e-02
 -1.99860618e-01 -8.30546841e-02  5.00148050e-02  2.10033320e-02
 -7.35910684e-02 -6.90572560e-02  2.12750718e-01  5.12318723e-02
 -1.20425180e-01  5.11064641e-02 -1.35135530e-02  2.94807404e-01
  1.77055418e-01 -1.17709208e-02 -1.05053596e-02 -1.11310683e-01
  9.04377475e-02 -2.04012230e-01  5.05025499e-02  1.32456899e-01
  6.21774010e-02  1.12668924e-01  4.08271281e-03 -1.36975601e-01
  3.18437517e-02  8.41327757e-02 -2.14529350e-01  2.11020838e-02
  9.97820646e-02 -1.25421390e-01  3.03348210e-02 -1.48603683e-02
  1.32936329e-01  7.67628178e-02 -7.06787854e-02 -1.23115256e-01
  1.28779262e-01 -8.38710293e-02 -1.08305430e-02  1.70245767e-06
 -1.48341164e-01 -1.78041980e-01 -3.26146901e-01  5.38095012e-02
  3.76110017e-01  1.25344917e-01 -1.20432727e-01  1.49657102e-02
 -8.61593038e-02  1.63285099e-02  1.28227636e-01  6.28677607e-02
 -7.32644498e-02 -9.12519579e-04 -8.47741067e-02  9.35238004e-02
  1.44552693e-01 -7.97956362e-02 -1.10277295e-01  2.17821002e-01
 -7.17853084e-02  5.24476580e-02  4.40286174e-02  2.49230526e-02
 -7.27534741e-02  2.06850674e-02 -1.60247371e-01  8.67603626e-03
 -3.90228746e-03 -7.81886652e-02  3.43175535e-03  1.84896335e-01
 -1.95558876e-01  1.21843927e-01  2.55675111e-02 -4.23314832e-02
 -6.28495738e-02 -4.07325774e-02 -1.28975317e-01  1.10736741e-02
  1.02472976e-01 -2.57045954e-01  1.94273829e-01  2.11546376e-01
  1.59488898e-02  1.26104102e-01  4.94713113e-02 -1.03665004e-02
 -2.77896319e-02 -3.77926789e-02 -1.89378679e-01 -1.68571435e-02
  1.05089657e-01  9.63475853e-02  5.52280024e-02  1.04817171e-02]