[-0.18319876  0.16549838  0.12040552 -0.03240832 -0.12351909 -0.07630163
 -0.03486023 -0.17252465  0.14272729 -0.08833225  0.24151202 -0.12853323
 -0.2556695  -0.05025328 -0.0532989   0.23006971 -0.13654238 -0.15128303
 -0.08358051  0.0232035   0.12736015 -0.01987373  0.00158961  0.06753306
 -0.08435776 -0.42304713 -0.12253588 -0.06788599 -0.02232119 -0.02645971
 -0.04109807  0.05337257 -0.17962469 -0.12078067  0.00286537  0.07543593
 -0.00559274 -0.08355845  0.16133551 -0.07562857 -0.30389029  0.07037834
  0.12115889  0.22510429  0.19601455  0.05049985  0.07160237 -0.0857197
  0.06812522 -0.18958861 -0.03559345  0.14379466  0.10121938  0.03110296
  0.06293257 -0.14724302  0.01000801  0.0918832  -0.18874167 -0.04928312
  0.12994054 -0.0710539  -0.02004283 -0.09072175  0.20582102  0.07719132
 -0.10542494 -0.1070235   0.18342189 -0.12983309  0.00979556  0.04821149
 -0.19924091 -0.19780371 -0.28608057  0.01182813  0.4154911   0.1020337
 -0.13866302  0.07205483 -0.06861066  0.05646513  0.04240837  0.09234627
  0.02460865  0.02102133 -0.08748251  0.04131147  0.17365128 -0.0573192
  0.0488237   0.25267109  0.03702703 -0.00366393  0.00327436  0.04506696
 -0.06789138 -0.00146853 -0.13521801  0.04968063 -0.01503734  0.00437848
  0.00825054  0.06640891 -0.17800796  0.06680312 -0.01161193  0.05377556
 -0.05930728 -0.00718106 -0.05189682 -0.03754022  0.11154201 -0.21501632
  0.13102756  0.19340491 -0.0519605   0.09572728  0.07629806  0.04875366
  0.01688214 -0.04252988 -0.2071638  -0.05830655  0.13205153 -0.06910972
  0.05699128  0.0286921 ]