[-1.80608943e-01  1.02257267e-01  1.06598653e-01 -8.41715261e-02
 -1.41996071e-01 -5.36109023e-02 -9.52006876e-02 -1.64607123e-01
  1.19197808e-01 -1.27918616e-01  2.27352783e-01 -7.25533739e-02
 -2.16295466e-01  2.60193627e-02 -6.30106330e-02  2.19782740e-01
 -1.91563815e-01 -1.46306396e-01 -3.06150112e-02  5.54155000e-02
  5.22664972e-02 -6.06931753e-05 -2.51154951e-03  2.85557806e-02
 -6.55661821e-02 -4.07263845e-01 -1.70725033e-01 -7.12670311e-02
  1.38764279e-02  3.96220684e-02 -4.21286896e-02 -2.84971297e-03
 -1.49826199e-01 -4.99250293e-02  3.14005315e-02  8.36455151e-02
 -3.89103219e-02 -8.27850103e-02  1.65175945e-01 -2.03258786e-02
 -2.69044697e-01  7.13942870e-02  7.45190009e-02  2.06635073e-01
  1.67379782e-01  1.07390836e-01  6.25432357e-02 -1.55178532e-01
  6.48240820e-02 -1.87727913e-01  2.88684368e-02  1.38659015e-01
  4.32150476e-02  6.60311952e-02  3.06148138e-02 -1.69870600e-01
  7.18692169e-02  1.05916657e-01 -1.79923669e-01 -2.92216782e-02
  1.01697408e-01 -4.52566706e-02  3.03150862e-02 -8.16118717e-02
  2.58268207e-01  1.01611353e-01 -9.94245186e-02 -1.39708325e-01
  1.87213317e-01 -1.21519007e-01 -3.02931722e-02  2.31580175e-02
 -1.81223795e-01 -1.89011753e-01 -2.46231034e-01  1.18905306e-02
  4.37386274e-01  1.37880594e-01 -1.34839043e-01  7.44008124e-02
 -6.74018413e-02 -2.15851311e-02  8.23144615e-02  1.34480581e-01
  2.37929728e-02 -3.52644436e-02 -8.31330642e-02 -3.20867673e-02
  1.99320108e-01 -7.99162611e-02  6.86606467e-02  2.28029087e-01
  2.91261226e-02  5.64894974e-02  1.84048396e-02  4.98768166e-02
 -1.17470674e-01  2.22236346e-02 -1.01496935e-01 -2.77412962e-02
 -2.43590809e-02  2.33761575e-02  1.18313497e-02  1.16905883e-01
 -1.66798979e-01  1.42994747e-01 -2.15337370e-02  1.87915936e-02
 -9.76275932e-03  1.76167842e-02  1.03482921e-02 -9.24123824e-02
  1.20423116e-01 -1.97096333e-01  1.63470715e-01  2.01701432e-01
 -1.20743914e-02  1.42237410e-01  8.47797319e-02  1.01950049e-01
 -3.45169120e-02  3.17041809e-03 -2.51964062e-01 -2.85567977e-02
  7.76991844e-02 -5.07522784e-02  4.41196114e-02  5.79226129e-02]