[-5.89640737e-02  1.36832282e-01  1.99822038e-02 -2.38800291e-02
  8.12984258e-03 -4.87411991e-02  6.58231005e-02 -1.80784553e-01
  1.58060789e-01 -7.28164092e-02  2.25038916e-01 -9.50103402e-02
 -1.96781799e-01 -7.19998255e-02 -2.38059933e-04  1.51561320e-01
 -2.24912092e-01 -1.19000487e-01 -3.87135148e-02 -5.45829833e-02
  7.01085851e-02  3.74486647e-03  1.99631266e-02  4.38890718e-02
 -1.31855622e-01 -2.81291217e-01 -1.32939309e-01 -9.47514400e-02
  4.32088338e-02 -2.13334356e-02 -5.54376952e-02  7.12464377e-02
 -1.90859750e-01 -8.44493881e-02  5.69293313e-02  5.03894500e-02
 -7.32864961e-02 -6.26326278e-02  2.02469692e-01  2.82678436e-02
 -1.28122985e-01  2.39111669e-02  1.89494472e-02  2.98645526e-01
  1.85661122e-01 -9.10469331e-03 -3.23790722e-02 -1.02548376e-01
  1.04438744e-01 -1.99676335e-01  4.03274857e-02  1.34356603e-01
  6.46674782e-02  1.24983527e-01  1.71721994e-03 -1.37792796e-01
  3.98142301e-02  9.11673680e-02 -2.12821051e-01 -3.64195625e-03
  8.24318603e-02 -1.41331360e-01  1.44584151e-02 -1.97736453e-02
  1.43992335e-01  9.79152471e-02 -6.95970431e-02 -1.28269657e-01
  1.30122587e-01 -1.10987224e-01 -3.09730358e-02  1.60246831e-03
 -1.41091615e-01 -1.80710241e-01 -3.25333208e-01  3.50434743e-02
  3.73202324e-01  1.27116352e-01 -1.18917659e-01  2.38645282e-02
 -7.04031661e-02  7.78764253e-03  1.41525745e-01  6.00098781e-02
 -7.48375952e-02  1.29854409e-02 -9.48326662e-02  8.40880647e-02
  1.57711983e-01 -6.74587265e-02 -9.95028540e-02  2.03377232e-01
 -6.81930780e-02  5.41883968e-02  5.53516857e-02  2.37366855e-02
 -5.42489849e-02  3.10705043e-02 -1.70354486e-01  1.23462295e-02
  9.77786910e-03 -7.00424239e-02  1.82509504e-03  1.64006427e-01
 -1.90204367e-01  1.15081094e-01  4.32557613e-02 -2.25647073e-02
 -6.63265958e-02 -5.71258254e-02 -1.28525913e-01  1.62258241e-02
  1.12269305e-01 -2.52524465e-01  2.00610429e-01  1.89642295e-01
  1.26048578e-02  1.36702105e-01  4.73037958e-02 -1.48066897e-02
 -3.48282941e-02 -6.38206676e-02 -1.96889207e-01 -1.06183924e-02
  1.21768594e-01  8.74627084e-02  6.88697621e-02  1.17516518e-02]