[-0.125651    0.13102208  0.08272632 -0.12167902 -0.12876754 -0.02783598
 -0.06826711 -0.15433799  0.14319849 -0.13680398  0.23885837 -0.10114218
 -0.18938254 -0.00147406 -0.06830951  0.20725074 -0.21249282 -0.14593363
 -0.02566909  0.05730311  0.11092466 -0.02339682 -0.01721645  0.09396582
 -0.17369482 -0.33285961 -0.10782348 -0.06611051  0.02726989 -0.05628789
 -0.07341421 -0.03346565 -0.19218881 -0.02999448  0.02183319  0.10588012
  0.00264204 -0.11200619  0.15403819 -0.04932625 -0.33394405  0.12561268
  0.06786659  0.21842833  0.19361858  0.00842571  0.03899287 -0.1920877
  0.16407117 -0.16865115  0.025593    0.1256921   0.05357775  0.0498833
 -0.01261212 -0.13326143  0.02498157  0.14970085 -0.16008681 -0.00112017
  0.13736217 -0.03390363  0.05073968 -0.10521948  0.18827     0.10133465
 -0.12779181 -0.205837    0.13552287 -0.16215096 -0.04740236  0.05897926
 -0.15567701 -0.1868335  -0.26800719 -0.00980936  0.35031375  0.14489627
 -0.19665958  0.0732734  -0.07241552  0.03844139  0.1115581   0.17444427
  0.04831915  0.06035522 -0.08088046  0.02340984  0.28573725 -0.08853474
  0.05955132  0.27468929  0.02678053  0.04558601  0.01082549  0.0431709
 -0.1558772   0.03770986 -0.12907901  0.00623288 -0.01900979  0.04316222
  0.01705379  0.14711939 -0.19235948  0.17759269 -0.02427737  0.0424023
 -0.00168652  0.01485972 -0.01106383 -0.07802042  0.12206461 -0.19244754
  0.19489163  0.17086874  0.06937887  0.07484236  0.12813489  0.04596131
  0.01592648  0.0109222  -0.22080369  0.01061914  0.10316321 -0.10552143
  0.10395233 -0.00327433]