[-3.45201567e-02  1.55331194e-01  3.38674076e-02 -1.42785078e-02
  1.07197184e-02 -2.54411288e-02  6.34283647e-02 -1.83792099e-01
  1.53190255e-01 -7.76841193e-02  2.35345110e-01 -8.70094001e-02
 -1.98592588e-01 -6.28069267e-02  8.91820621e-03  1.42711699e-01
 -2.18785867e-01 -1.07232444e-01 -3.53047922e-02 -4.03644927e-02
  8.27747211e-02  2.16307398e-03  3.70659120e-02  1.53695587e-02
 -1.30938590e-01 -2.85648197e-01 -1.42945424e-01 -8.31550509e-02
  8.48888010e-02 -2.35589296e-02 -5.33380397e-02  5.82463741e-02
 -2.09354311e-01 -8.86798054e-02  5.09529710e-02  2.86142137e-02
 -8.14546496e-02 -6.36143833e-02  2.08644897e-01  5.24765030e-02
 -1.28315866e-01  5.35983704e-02 -1.53070660e-02  2.96433806e-01
  1.87234730e-01 -4.25789971e-03 -1.68392416e-02 -1.17965236e-01
  8.27276483e-02 -1.95782930e-01  5.23305908e-02  1.46452233e-01
  6.38284683e-02  1.26344234e-01  1.93314254e-03 -1.38507724e-01
  3.90766822e-02  7.16186166e-02 -2.06420302e-01  8.59720283e-04
  1.01553239e-01 -1.12002648e-01  4.19352241e-02 -1.46703124e-02
  1.30676895e-01  7.22561777e-02 -6.18316419e-02 -1.36109814e-01
  1.25303328e-01 -9.18883234e-02 -1.64894741e-02  8.54364783e-03
 -1.49581119e-01 -1.74741328e-01 -3.21066648e-01  5.35130575e-02
  3.92060369e-01  1.33144513e-01 -1.19125180e-01  2.09314004e-02
 -9.15548354e-02 -2.70254025e-03  1.35936379e-01  6.22267611e-02
 -6.03770725e-02 -7.20515847e-04 -7.91167989e-02  8.94391462e-02
  1.48998529e-01 -8.22956264e-02 -1.07949428e-01  2.07175806e-01
 -6.89601228e-02  5.17042540e-02  4.63507697e-02  2.34046783e-02
 -6.98064193e-02  3.39615233e-02 -1.62418172e-01  2.06637385e-04
 -1.56284254e-02 -6.83995634e-02  2.33911141e-03  1.89978763e-01
 -1.95909783e-01  1.35700569e-01  3.48670781e-02 -3.60161066e-02
 -6.08700477e-02 -4.62091044e-02 -1.30289912e-01  1.55020058e-02
  1.03173614e-01 -2.62727678e-01  2.06612304e-01  2.04773068e-01
  1.01128435e-02  1.18902504e-01  5.69234081e-02 -3.57484259e-03
 -2.43872982e-02 -3.80472653e-02 -1.96723923e-01 -2.25800220e-02
  1.02770425e-01  9.21401009e-02  5.16625457e-02  5.43812988e-03]