[-1.50173053e-01  1.53674200e-01  3.62364165e-02 -1.43804953e-01
 -7.93924928e-02 -1.53843788e-02 -2.39463672e-02 -1.43995091e-01
  1.82461396e-01 -1.74437165e-01  2.11511880e-01 -9.82710049e-02
 -2.30841279e-01  7.89632264e-04 -1.03850499e-01  2.17387959e-01
 -2.09122300e-01 -1.45986497e-01 -5.37225865e-02  3.81617919e-02
  9.62904692e-02  5.54232800e-04 -6.44297004e-02  7.99321309e-02
 -1.09189034e-01 -2.97072977e-01 -9.09065753e-02 -5.19523509e-02
  9.43569094e-03 -4.06199284e-02 -4.84336279e-02 -4.38754037e-02
 -1.51519328e-01 -2.27147136e-02  1.39171882e-02  8.42155218e-02
 -1.85134821e-03 -9.03765038e-02  1.69418857e-01 -2.05356609e-02
 -3.14690053e-01  1.02396034e-01  5.29982336e-02  2.50277966e-01
  2.00553328e-01 -1.17024602e-02 -7.33661640e-04 -1.90214306e-01
  1.86903074e-01 -1.89293146e-01 -2.41582152e-02  1.26203060e-01
  6.90487027e-02  4.69927453e-02 -4.35911305e-03 -1.53827235e-01
  3.00299022e-02  1.42588064e-01 -1.39991909e-01 -3.98842804e-02
  1.18466511e-01 -6.05788194e-02  3.04031856e-02 -7.37470612e-02
  1.83746696e-01  6.50788918e-02 -1.36691645e-01 -2.05214664e-01
  1.73939496e-01 -1.57405123e-01 -3.03790029e-02  4.58510183e-02
 -1.39699161e-01 -1.78437442e-01 -2.32985601e-01  1.36702508e-02
  3.58190000e-01  1.63910627e-01 -1.50739595e-01  1.07996844e-01
 -9.10720229e-02  4.53835502e-02  1.16320841e-01  1.60841554e-01
  1.40321627e-02  3.96860279e-02 -7.15593845e-02 -8.43696482e-03
  2.55302876e-01 -6.96358755e-02  2.46821679e-02  2.39389420e-01
  1.46052269e-02  5.16715460e-02  9.36165731e-03 -4.04283870e-03
 -1.47543058e-01  3.70086543e-02 -1.27466470e-01 -4.93304804e-03
 -5.98134333e-03  6.23387424e-03  2.75120120e-02  1.49265289e-01
 -1.96781024e-01  1.91180035e-01 -1.86319370e-02  6.35749698e-02
  3.67981871e-03  2.69335005e-02 -3.43151405e-05 -2.61146110e-02
  1.27019659e-01 -1.74508363e-01  1.97979212e-01  1.54346809e-01
  7.26413056e-02  8.43809918e-02  1.57795846e-01  2.57583559e-02
  2.27581244e-02  2.61310320e-02 -2.39445135e-01 -1.55712133e-02
  1.03667520e-01 -8.52332115e-02  1.26246557e-01 -1.07038859e-02]