[-1.19345501e-01  1.17496632e-01  5.56196272e-02 -5.72665632e-02
 -9.58910510e-02 -2.48604175e-02 -1.22324647e-02 -1.30078539e-01
  1.68925956e-01 -1.07824825e-01  2.21989110e-01 -3.82077880e-02
 -2.56316632e-01 -3.97028290e-02  8.19039252e-03  1.96278483e-01
 -1.86415344e-01 -1.01356328e-01 -4.36908640e-02  2.56420504e-02
  1.22158401e-01 -1.41386138e-02 -4.76972386e-03  1.05659537e-01
 -1.81254223e-01 -3.68509859e-01 -8.20571706e-02 -9.24211591e-02
 -1.17601557e-02 -6.14303537e-02 -7.27716461e-02 -5.82907489e-03
 -1.80497348e-01 -3.83634865e-02  1.55804427e-02  4.29457054e-02
 -1.06928600e-02 -8.73134285e-02  1.74770087e-01  3.50614116e-02
 -2.91787863e-01  4.40498143e-02  2.94130500e-02  2.03486964e-01
  2.15260029e-01  1.76628958e-02  8.72780010e-02 -1.63103282e-01
  1.26350150e-01 -1.52202949e-01  1.28102526e-02  1.19891904e-01
  2.30193529e-02  6.16405979e-02 -1.87593643e-02 -2.16707423e-01
 -9.68637038e-03  1.20463289e-01 -1.78852618e-01 -2.61677150e-02
  1.00008145e-01 -2.06406154e-02  7.05976505e-03 -2.26102863e-02
  1.84615597e-01  7.62645602e-02 -1.34895191e-01 -1.61606669e-01
  1.46507725e-01 -1.73349589e-01 -2.01996882e-02  4.23211865e-02
 -1.82807431e-01 -2.07747728e-01 -2.77442664e-01 -2.07252058e-04
  4.00047511e-01  1.29034862e-01 -1.85230106e-01 -1.05430081e-03
 -1.24384761e-01  1.35410009e-02  1.35613143e-01  1.48299083e-01
  4.05602045e-02  1.21118240e-02 -4.45044376e-02  2.98686959e-02
  2.35671923e-01 -9.98198427e-03  2.60437075e-02  2.66777337e-01
  4.17781770e-02  2.84806974e-02  6.32953783e-03  3.17112170e-02
 -1.26868084e-01  3.51157151e-02 -1.03631794e-01 -1.77128855e-02
 -6.86213896e-02 -6.79402007e-03  3.47465575e-02  1.46543369e-01
 -2.46937305e-01  1.86654106e-01  3.01665347e-02  2.94261016e-02
 -1.73808169e-02  2.59315614e-02 -7.91596994e-02 -4.86862920e-02
  1.06131509e-01 -2.15917543e-01  1.78790435e-01  2.13286161e-01
  7.69935772e-02  1.02553703e-01  6.90706000e-02  4.04133759e-02
  1.42573565e-03 -1.08800996e-02 -2.39741996e-01  3.01624034e-02
  9.20272097e-02 -7.34144151e-02  9.49082896e-02 -2.45984308e-02]