[-0.01730262  0.13586317  0.01912443  0.00389347 -0.01224035 -0.0240001
  0.04433478 -0.15748714  0.14743184 -0.03837379  0.2425795  -0.05893553
 -0.21753156 -0.09107216  0.00523765  0.13667116 -0.21010295 -0.11298086
 -0.03759472 -0.06777044  0.09150674  0.02305009  0.06099019  0.01636718
 -0.15114664 -0.32038221 -0.12479775 -0.09858543  0.08078235 -0.05581233
 -0.0411678   0.10391225 -0.19950712 -0.12170803  0.07991075 -0.04217988
 -0.03849395 -0.05611511  0.21036172  0.05124098 -0.14254695  0.09660476
 -0.00312863  0.28899342  0.1944683   0.01394327  0.0019835  -0.09098744
  0.03675305 -0.18254803  0.03681892  0.15392125  0.0262626   0.07213354
  0.00830432 -0.15349659 -0.03604776  0.04326959 -0.19953212  0.02556316
  0.07253089 -0.11526971  0.01461521 -0.04278058  0.08157089  0.05074824
 -0.05859973 -0.16817974  0.10379126 -0.10263129 -0.00817142  0.04280483
 -0.16599104 -0.18230772 -0.28355941  0.06517186  0.38985643  0.11761375
 -0.1264475   0.037841   -0.06472372  0.00457762  0.11330148  0.04608702
 -0.02533531 -0.01701085 -0.0455145   0.08345949  0.13594383 -0.05356606
 -0.14923856  0.21802083 -0.09272557  0.04440112  0.07018672  0.04172933
 -0.06075244  0.0327239  -0.15509398  0.00310988 -0.00409763 -0.06969434
  0.01354625  0.15909612 -0.14489344  0.090928    0.00240533 -0.0255727
 -0.0658771  -0.004011   -0.14265931  0.01319603  0.10628802 -0.27310482
  0.24621701  0.22143789  0.01798157  0.11393116  0.05625322 -0.02123336
 -0.0024932  -0.01571747 -0.16013764 -0.05821198  0.1048097   0.06811371
  0.07333558 -0.02610304]