[-2.81310510e-02  1.39109999e-01  3.79506685e-02 -8.46137386e-03
  1.18380785e-02 -2.58530378e-02  6.72240406e-02 -1.83571845e-01
  1.58306703e-01 -8.57255533e-02  2.51515210e-01 -8.81878063e-02
 -1.97431639e-01 -7.22063035e-02  9.72241536e-03  1.48112819e-01
 -2.16820046e-01 -1.06206097e-01 -3.53009626e-02 -5.02388291e-02
  8.58884752e-02 -3.02253920e-03  4.14044261e-02  1.17426869e-02
 -1.35067210e-01 -2.92898744e-01 -1.41039327e-01 -8.63725170e-02
  9.21360031e-02 -4.17767279e-02 -5.61213084e-02  7.12309852e-02
 -1.99332342e-01 -8.97018388e-02  4.82450686e-02  2.54228543e-02
 -6.98205382e-02 -6.70126453e-02  2.14906290e-01  4.51067463e-02
 -1.27439007e-01  5.32718487e-02 -1.74349323e-02  2.98225075e-01
  1.75071806e-01 -7.09106261e-03 -1.07351234e-02 -1.17187001e-01
  9.39186215e-02 -1.93831801e-01  5.36133237e-02  1.36223629e-01
  6.31939620e-02  1.22481845e-01 -1.14830513e-03 -1.36188254e-01
  3.13654579e-02  7.43961260e-02 -2.12429553e-01  1.15331020e-02
  1.00565374e-01 -1.16305150e-01  3.02265324e-02 -2.02071015e-02
  1.24516010e-01  7.38193542e-02 -6.11900464e-02 -1.37066290e-01
  1.20654464e-01 -9.10696536e-02 -1.18558714e-02  1.27348127e-02
 -1.56591594e-01 -1.77329287e-01 -3.16558331e-01  4.90368009e-02
  3.86482865e-01  1.26796499e-01 -1.23100698e-01  1.97388679e-02
 -8.04045349e-02 -1.24056113e-03  1.36628702e-01  6.89209923e-02
 -5.37365191e-02  1.30666047e-02 -7.74374530e-02  9.48639140e-02
  1.45980060e-01 -8.23996514e-02 -1.09955110e-01  2.14861736e-01
 -6.99946359e-02  5.57888746e-02  4.71435487e-02  2.74081565e-02
 -6.80866167e-02  3.00246011e-02 -1.61400989e-01 -3.20885330e-03
 -6.58178329e-03 -6.37433156e-02  3.70025053e-03  1.76193759e-01
 -1.91863328e-01  1.43796518e-01  2.64918450e-02 -2.59934906e-02
 -5.51974252e-02 -5.14282696e-02 -1.20499313e-01  1.66984107e-02
  1.05116598e-01 -2.61830896e-01  1.96169361e-01  2.08897427e-01
  1.87727846e-02  1.22193173e-01  4.65362556e-02 -5.92413638e-03
 -2.40622275e-02 -3.91628444e-02 -1.99323103e-01 -1.58264972e-02
  1.02889203e-01  8.70074630e-02  5.06059304e-02 -1.84213379e-04]