[-0.04579518  0.14513175  0.01489526 -0.01147972  0.01620151 -0.03964249
  0.05127358 -0.16083807  0.15558358 -0.0629062   0.22665863 -0.07254223
 -0.21139768 -0.08291652 -0.01189641  0.1484751  -0.23084641 -0.10895272
 -0.05041003 -0.04752627  0.07885959  0.03181965  0.04610175  0.00241629
 -0.1076149  -0.3230823  -0.11807473 -0.09406572  0.09077998 -0.04895027
 -0.06222789  0.08078256 -0.2108244  -0.11559968  0.07703728  0.01962902
 -0.05013759 -0.03431817  0.2106667   0.04335765 -0.12836349  0.06489375
  0.0037508   0.31379974  0.20991214  0.01478086 -0.01090072 -0.15254287
  0.07316208 -0.17393155  0.02934582  0.14779516  0.03807602  0.10139716
  0.00476817 -0.13231181  0.01554099  0.0325838  -0.18598406  0.00131777
  0.11023068 -0.09984173  0.00343165 -0.01576015  0.12246759  0.00056768
 -0.0773245  -0.16292767  0.10057026 -0.11624785 -0.00904234  0.0311111
 -0.14108969 -0.16965675 -0.31453866  0.05235382  0.39935318  0.09888326
 -0.11914455  0.0539015  -0.08244701 -0.03174179  0.14671625  0.07303642
 -0.05749422  0.00591286 -0.07137961  0.10273844  0.1579899  -0.06988629
 -0.10519489  0.18686984 -0.0759284   0.05531917  0.05290807  0.05593854
 -0.07558421  0.04504313 -0.16955028 -0.0031443   0.0284198  -0.06774762
  0.00106361  0.18208157 -0.16904084  0.1127304   0.0127092  -0.02778851
 -0.03314912 -0.05203418 -0.13680296 -0.00619178  0.10724371 -0.25746644
  0.21123879  0.21914104  0.01807378  0.10117292  0.06365877 -0.00586436
 -0.01585439 -0.00512973 -0.20555757 -0.03066158  0.10202546  0.08920952
  0.06403068 -0.03042367]