[-0.05838469  0.12707911  0.07733165 -0.0911993  -0.07304244 -0.02561935
 -0.0561644  -0.09812729  0.21143194 -0.10508697  0.21390259 -0.05371878
 -0.22987108 -0.032849   -0.05032855  0.22352718 -0.20935133 -0.1350407
 -0.07049062  0.06320292  0.06303297  0.00469425  0.01246797  0.04028028
 -0.12875603 -0.35630143 -0.06980487 -0.06898099 -0.00602771 -0.05365753
 -0.09504145 -0.01307981 -0.1831481  -0.06720898  0.03490195  0.03217994
 -0.02952557 -0.1111507   0.16586833 -0.03658091 -0.34940416  0.03561904
  0.05106893  0.19350354  0.22286685  0.01666883  0.0446209  -0.22095887
  0.16365874 -0.18263443  0.01564482  0.1173342   0.05257229  0.04711562
  0.00327983 -0.15621006 -0.00811488  0.17765114 -0.11743312 -0.03838882
  0.1100228  -0.03312042  0.03257507 -0.08497103  0.22258651  0.04850862
 -0.1433627  -0.18806545  0.13106923 -0.12239473 -0.02080032  0.0769126
 -0.13935684 -0.2100644  -0.29527596 -0.01814157  0.35097334  0.08055758
 -0.17947194  0.04003174 -0.10696842  0.03746354  0.11561104  0.17869854
  0.01131034  0.03313    -0.07654148 -0.01549229  0.29055879 -0.10224499
  0.03072006  0.21782093 -0.00631434  0.04900131 -0.03082373  0.04112185
 -0.13067359  0.07908371 -0.14520071  0.00955458  0.01557949  0.05753554
  0.00550548  0.16086002 -0.1692801   0.10948666  0.00915388  0.04214081
  0.06177687 -0.02256757 -0.02017272 -0.1272776   0.11542115 -0.19498408
  0.17884499  0.15488166  0.07261743  0.08749272  0.10132515  0.06218255
  0.00212687 -0.00542683 -0.25071117  0.04633608  0.14609867 -0.0491431
  0.09355534 -0.03227125]