[-3.97742167e-02  1.44196615e-01  2.96608564e-02 -1.59561541e-02
  5.07975090e-03 -4.09852862e-02  7.78213367e-02 -1.68390319e-01
  1.53557703e-01 -7.27777407e-02  2.37061769e-01 -9.29125771e-02
 -2.00706959e-01 -5.85105792e-02  1.11954315e-02  1.46029517e-01
 -2.10900217e-01 -1.14518456e-01 -4.49685454e-02 -6.89908192e-02
  6.60697818e-02 -8.46301380e-04  2.91472115e-02  3.92713398e-02
 -1.38160929e-01 -2.71656722e-01 -1.27734229e-01 -9.17047411e-02
  7.06694126e-02 -3.21061313e-02 -4.70548831e-02  7.90266395e-02
 -1.98884636e-01 -9.21703726e-02  5.57780638e-02  4.20186222e-02
 -7.24423304e-02 -6.71373755e-02  2.18206450e-01  4.36863154e-02
 -1.13199115e-01  5.82868271e-02 -1.50330365e-02  3.10861081e-01
  1.73584327e-01 -1.64377969e-02 -2.00339910e-02 -1.03627801e-01
  9.56829786e-02 -2.06207514e-01  5.85325062e-02  1.37806237e-01
  6.91004321e-02  1.19640425e-01  3.43722827e-03 -1.49360433e-01
  4.47563045e-02  7.03251585e-02 -2.20244527e-01  5.96827222e-03
  9.51984897e-02 -1.30273506e-01  3.44895385e-02 -3.18525136e-02
  1.24036275e-01  7.90427700e-02 -5.49038425e-02 -1.23359971e-01
  1.28182754e-01 -9.35522765e-02 -8.29845201e-03  9.11195390e-03
 -1.47393256e-01 -1.75711766e-01 -3.17887068e-01  6.24780618e-02
  3.71961057e-01  1.48597673e-01 -1.22747935e-01  2.21725609e-02
 -7.74041340e-02  8.42001569e-03  1.27373010e-01  4.61991131e-02
 -6.99443445e-02  9.72029578e-04 -8.92731547e-02  1.01467669e-01
  1.40891105e-01 -7.11800605e-02 -1.17879808e-01  2.05098584e-01
 -6.48022220e-02  4.68466282e-02  5.75694218e-02  1.37959421e-02
 -6.93197772e-02  2.54049487e-02 -1.67425990e-01  1.89510528e-02
 -1.09125739e-02 -7.93784410e-02 -2.05682227e-04  1.64712086e-01
 -1.95027679e-01  1.27553180e-01  2.55856402e-02 -4.14354913e-02
 -8.66180286e-02 -4.34974879e-02 -1.38332590e-01  2.99868472e-02
  1.15773879e-01 -2.59262919e-01  2.07015142e-01  2.00502515e-01
  1.69783365e-02  1.34959430e-01  5.14321290e-02 -1.73108932e-02
 -3.03550754e-02 -5.06647192e-02 -1.87178880e-01 -2.32940949e-02
  1.13677345e-01  8.95125791e-02  6.83268309e-02  2.03675702e-02]