[-1.66463658e-01  1.31977543e-01  8.49944949e-02 -7.48331249e-02
 -1.04486465e-01 -5.14665730e-02 -9.73057896e-02 -1.41970649e-01
  1.55584201e-01 -1.64140150e-01  2.21228912e-01 -1.17716864e-01
 -2.07478479e-01 -4.12712358e-02 -1.07808806e-01  2.38281682e-01
 -1.51994571e-01 -1.50003880e-01 -4.19932529e-02  5.00862412e-02
  7.39507303e-02 -3.63145433e-02 -4.01251055e-02  1.03867881e-01
 -4.68247645e-02 -4.08322871e-01 -9.40361544e-02 -2.41733398e-02
 -2.35479455e-02 -5.83646707e-02 -8.97381082e-03  6.74080998e-02
 -1.90209106e-01 -6.88178837e-02 -9.43735708e-03  9.89668369e-02
  2.42678262e-03 -7.38464817e-02  1.43689439e-01 -5.36004417e-02
 -2.83868641e-01  3.96757983e-02  1.04064718e-01  2.40881592e-01
  1.77177742e-01  6.46953285e-02  3.83366868e-02 -1.33967623e-01
  1.00297153e-01 -1.88705832e-01 -2.31120940e-02  1.20012164e-01
  9.71795022e-02  4.36006896e-02  5.12993149e-02 -2.07999662e-01
  5.00359535e-02  6.75368086e-02 -1.43810779e-01 -6.60507604e-02
  4.11727130e-02 -1.89295206e-02  2.66947504e-02 -7.10794702e-02
  2.37831861e-01  7.38938227e-02 -8.63511190e-02 -1.23346306e-01
  2.26468444e-01 -1.20290749e-01  2.53702085e-02  3.93382162e-02
 -1.46890596e-01 -1.87472090e-01 -2.77919650e-01  1.10972673e-04
  3.81000012e-01  1.36420131e-01 -1.41934663e-01  9.68793035e-02
 -5.62159903e-02  1.46667380e-02  2.72327550e-02  1.18335940e-01
 -1.94832757e-02  2.09050532e-03 -4.57443222e-02  9.83979274e-03
  1.73191726e-01 -1.45221278e-02  2.97059249e-02  1.90110952e-01
  2.88212840e-02 -2.48042811e-02  2.05238126e-02  8.83938558e-03
 -1.09506465e-01  4.82114367e-02 -1.50627971e-01  3.19872424e-03
 -1.80016421e-02  1.70086545e-03  1.53839802e-02  1.16386913e-01
 -2.17842028e-01  1.17986500e-01  1.49067794e-03  1.68312993e-02
 -3.44355474e-03  9.71718580e-02 -5.75583540e-02 -6.37833178e-02
  1.07348539e-01 -2.11368278e-01  1.63786456e-01  1.69111714e-01
  2.88391355e-02  1.51914999e-01  1.10305689e-01  1.10524416e-01
  2.10891236e-02 -2.07657963e-02 -1.65267810e-01 -5.56316786e-02
  9.72232893e-02 -6.82084635e-02  6.59077615e-02  3.92184742e-02]