[-1.38658285e-01  9.88086537e-02  1.38173271e-02 -4.62619178e-02
 -1.02569818e-01 -5.01586795e-02  4.96794144e-03 -1.40688643e-01
  1.64313301e-01 -1.14243127e-01  2.23360658e-01 -8.93482640e-02
 -2.27876350e-01 -3.92749496e-02 -7.24764392e-02  1.95394441e-01
 -1.87037483e-01 -1.64973974e-01 -2.09417734e-02  3.57400551e-02
  1.46834925e-01 -1.20994104e-02 -2.93970089e-02  8.35071430e-02
 -1.38308629e-01 -3.04903835e-01 -1.05693102e-01 -9.16577876e-02
  1.48091167e-02 -2.75042839e-02 -4.44020964e-02 -3.22158635e-03
 -1.61399946e-01 -7.03930333e-02  3.73866521e-02  3.95610295e-02
  1.52699947e-02 -7.31688589e-02  2.09790945e-01 -3.46836746e-02
 -3.09823215e-01  6.86113015e-02  1.02519564e-01  2.65450656e-01
  1.46274373e-01  2.10315157e-02  1.62156764e-02 -1.48638844e-01
  1.28937602e-01 -1.33672684e-01  1.47503531e-02  1.09239019e-01
  1.18277147e-01  4.19057123e-02 -2.87602004e-03 -1.73019022e-01
  1.96716562e-02  1.42023265e-01 -1.50160402e-01  1.22314394e-02
  1.07281402e-01 -5.04709147e-02  3.36426459e-02 -6.04161397e-02
  1.85492635e-01  2.69140881e-02 -1.10511936e-01 -1.76487610e-01
  1.36201784e-01 -1.53644547e-01 -8.09452236e-02  4.21000309e-02
 -1.61022350e-01 -1.95719749e-01 -2.99024045e-01 -8.12205579e-03
  3.69355887e-01  1.08774565e-01 -1.82206303e-01  8.35279450e-02
 -1.91737358e-02  2.47586388e-02  1.40422165e-01  1.58499941e-01
  3.21500539e-03  4.94134836e-02 -1.05459712e-01 -1.20964302e-02
  2.57576078e-01 -6.07145540e-02 -1.18010495e-04  2.22333670e-01
  2.27044206e-02  3.55497226e-02  2.07947753e-02  1.87914148e-02
 -9.51398909e-02  4.59658168e-02 -1.48423240e-01  8.46127048e-03
 -5.25506621e-04  7.32924044e-03  6.23407587e-03  1.25843078e-01
 -2.01432660e-01  1.08521000e-01  1.31330108e-02  3.09133567e-02
 -5.52231856e-02  1.91529673e-02 -8.02764595e-02 -2.24130210e-02
  1.03056587e-01 -1.82521924e-01  1.98791906e-01  1.72164530e-01
  8.57759193e-02  9.10641029e-02  1.37631774e-01 -1.05098188e-02
  2.77028885e-02  6.15881104e-03 -2.45185599e-01 -1.61746889e-02
  1.41725034e-01 -8.08260590e-02  1.36499494e-01  1.16201593e-02]