[-9.28547010e-02  1.18879490e-01  2.18505003e-02 -5.84370606e-02
 -1.20313823e-01 -3.73406410e-02  2.10647788e-02 -1.51727781e-01
  2.13762805e-01 -1.58783481e-01  2.24282458e-01 -1.00714564e-01
 -2.41782948e-01 -5.40965870e-02 -4.75386493e-02  2.20378116e-01
 -1.87384158e-01 -1.25547618e-01 -3.98763940e-02  1.85998585e-02
  9.42551047e-02 -8.96135438e-03 -4.51915078e-02  1.24034643e-01
 -1.00573026e-01 -3.58849823e-01 -1.00514866e-01 -9.55464169e-02
  2.93000937e-02 -1.01568714e-01 -7.99189135e-02  2.79115494e-02
 -1.27170846e-01 -6.07769601e-02  6.00486249e-03  3.38329151e-02
 -3.72034088e-02 -8.63101110e-02  1.77980825e-01  3.89882713e-03
 -3.05636972e-01  6.84097931e-02  4.68424298e-02  2.35415980e-01
  1.85629889e-01  1.62364542e-03  1.70121025e-02 -1.82506472e-01
  1.76698282e-01 -1.62330255e-01 -3.31480391e-02  1.37103185e-01
  7.53641352e-02  5.71324900e-02  3.16934846e-03 -1.66143462e-01
 -2.55670305e-02  1.12592138e-01 -1.88105687e-01 -2.79953778e-02
  7.98932314e-02 -4.79672365e-02 -1.23839369e-02 -5.64380661e-02
  1.54133171e-01  7.41118118e-02 -1.12441041e-01 -1.65332064e-01
  1.60078883e-01 -2.14318678e-01 -4.95880358e-02  2.83932723e-02
 -1.45651236e-01 -2.14832619e-01 -2.42408901e-01  3.71947815e-03
  3.63779694e-01  1.36033326e-01 -1.70245767e-01  5.57058752e-02
 -6.43141866e-02 -2.83041591e-04  1.27734885e-01  1.74128547e-01
  3.59664857e-02 -3.31610697e-03 -4.54064421e-02 -8.04295577e-03
  2.00175092e-01 -8.38813111e-02  5.15248179e-02  2.47184753e-01
  2.12274492e-02  6.70796558e-02 -6.20447099e-05  1.15798786e-03
 -1.31627455e-01  5.94650991e-02 -1.26118764e-01 -8.60268995e-03
 -2.83757336e-02  9.44797706e-04  1.80722382e-02  9.10938904e-02
 -2.07942158e-01  1.85124218e-01  3.80901881e-02  2.22802293e-02
  1.93293043e-03  1.37299523e-02 -5.77968322e-02 -4.46615852e-02
  1.26196772e-01 -2.01535463e-01  2.12832838e-01  1.81674317e-01
  5.58923744e-02  1.13432460e-01  8.49346071e-02  3.02670598e-02
  2.36030016e-02 -3.99825275e-02 -2.15793297e-01  3.45304841e-03
  1.30968228e-01 -8.84429216e-02  3.89035009e-02 -5.98670803e-02]