[-1.24712013e-01  1.69585988e-01  5.70011325e-02 -3.45899835e-02
 -1.08909622e-01 -2.93487441e-02  6.79367036e-03 -1.52780801e-01
  2.07568869e-01 -1.01896964e-01  2.40761518e-01 -3.27467918e-04
 -2.76545376e-01 -4.15802412e-02  1.38937226e-02  1.66878179e-01
 -1.94485545e-01 -1.24857485e-01 -7.48442560e-02  3.34176086e-02
  6.90901205e-02 -1.50530143e-02  2.86920015e-02  1.12973608e-01
 -1.66250125e-01 -3.51704568e-01 -8.85710046e-02 -7.18803406e-02
  2.42984854e-03 -8.22937936e-02 -9.38132480e-02 -1.56738330e-02
 -1.20984212e-01 -4.16570231e-02  8.97244178e-03  3.57968621e-02
 -4.63974923e-02 -6.77599460e-02  2.30485916e-01  1.10890670e-02
 -3.01396817e-01  6.98766932e-02  1.00260181e-02  2.69337624e-01
  2.51093298e-01 -3.01874764e-02  6.87585473e-02 -1.54592499e-01
  1.89599693e-01 -2.27246627e-01  2.34560948e-02  1.77755445e-01
  1.08799957e-01  3.37250531e-02  1.93227865e-02 -1.51687860e-01
 -6.88427016e-02  1.82863876e-01 -1.50275469e-01  6.17010891e-03
  1.09937407e-01 -5.88109754e-02 -1.58526693e-02 -6.06982000e-02
  1.45492673e-01  9.72367302e-02 -1.73406959e-01 -1.34243757e-01
  9.67854187e-02 -1.70768693e-01 -6.28553927e-02  4.71334271e-02
 -1.70997933e-01 -2.40655169e-01 -2.87868649e-01  2.04092693e-02
  3.64985675e-01  1.23886518e-01 -2.15887934e-01 -1.52192460e-02
 -1.25269666e-01  3.08782961e-02  6.95909634e-02  1.29954800e-01
 -2.92684920e-02 -2.34554484e-02 -1.10602453e-01  1.98302902e-02
  2.36902475e-01 -5.61641529e-02  4.34132777e-02  2.74504572e-01
  6.39669597e-02  4.00584638e-02 -6.15524873e-03  8.29172656e-02
 -1.35765359e-01 -3.22002190e-04 -1.39283940e-01  1.23358821e-03
 -1.62594598e-02 -2.49914397e-02  1.60392467e-02  1.04135111e-01
 -2.59967148e-01  2.06739411e-01  3.06719150e-02  2.76166294e-02
  1.54073266e-02 -3.10414378e-02 -6.87957779e-02 -3.93427312e-02
  1.31465599e-01 -2.23901853e-01  1.81282803e-01  1.98032334e-01
  3.74020003e-02  1.08579315e-01  6.16681986e-02  7.91011006e-03
 -2.03712620e-02 -7.21674878e-03 -1.62249923e-01 -1.88294072e-02
  1.06382921e-01 -5.66989258e-02  6.63785711e-02 -4.09577005e-02]