[-1.95069555e-02  1.57217264e-01  2.32156515e-02  6.25796602e-05
 -8.52861162e-03 -2.64892969e-02  1.86429881e-02 -1.65370539e-01
  1.48946598e-01 -5.44845834e-02  2.46705085e-01 -4.93855290e-02
 -2.31819376e-01 -1.11706212e-01  8.75775237e-03  1.34118825e-01
 -2.04965428e-01 -1.19934104e-01 -3.20579670e-02 -6.19582012e-02
  1.07311584e-01  2.65716817e-02  5.29748611e-02  9.41934623e-03
 -1.76975161e-01 -3.12295169e-01 -1.26938596e-01 -8.38351473e-02
  7.33478889e-02 -6.41840696e-02 -7.14783594e-02  9.15838405e-02
 -1.87010959e-01 -1.09266870e-01  6.36346936e-02 -2.86943503e-02
 -3.69852744e-02 -5.75093217e-02  2.06637651e-01  4.75189649e-02
 -1.58211276e-01  9.19006541e-02 -1.10763870e-02  2.84887165e-01
  2.10177422e-01 -2.72838841e-03  5.46174962e-03 -9.37061012e-02
  5.45851588e-02 -1.82598278e-01  5.57282679e-02  1.65869579e-01
  5.50541095e-02  8.80308449e-02  8.75749718e-03 -1.37199715e-01
 -3.94255854e-02  5.64508103e-02 -1.99839875e-01  1.36735290e-02
  8.16438943e-02 -1.28999770e-01  1.21505149e-02 -4.29126434e-02
  7.80865029e-02  5.91527931e-02 -6.27735108e-02 -1.63234830e-01
  1.02204360e-01 -1.11890912e-01 -2.30617430e-02  4.49853987e-02
 -1.59364566e-01 -1.90744117e-01 -2.83802003e-01  7.15771988e-02
  3.71940464e-01  1.41004801e-01 -1.42329574e-01  5.08671887e-02
 -5.39249256e-02 -4.75096516e-03  1.24330640e-01  5.51176779e-02
 -2.34204624e-02  1.72497483e-03 -4.66289967e-02  9.36203226e-02
  1.50670782e-01 -6.20764755e-02 -1.36510998e-01  2.38163233e-01
 -6.88842162e-02  6.19711690e-02  8.01562071e-02  4.05140370e-02
 -4.51649353e-02  3.17393802e-02 -1.33330047e-01  1.92832444e-02
  1.25563862e-02 -7.64317289e-02  1.32722994e-02  1.43304646e-01
 -1.31827340e-01  1.15711167e-01  1.59829240e-02 -3.53720714e-03
 -5.30562773e-02 -1.90666746e-02 -1.27378494e-01  7.91820697e-04
  1.02655150e-01 -2.77059615e-01  2.39142135e-01  2.03191802e-01
  1.45271569e-02  1.20682716e-01  5.42740710e-02 -5.68581559e-03
  4.35172999e-03 -3.47830057e-02 -1.51912794e-01 -5.77092730e-02
  1.21490709e-01  5.79712577e-02  9.04575139e-02 -1.76086258e-02]