[-0.05851104  0.14162661  0.02027571 -0.0311763  -0.00352073 -0.03834167
  0.07764246 -0.15806691  0.15854982 -0.05703967  0.23671125 -0.09020283
 -0.19639365 -0.0660382   0.01494888  0.1503118  -0.20501132 -0.11373587
 -0.03330649 -0.07032374  0.05927218  0.00809382  0.01978317  0.04946314
 -0.14569294 -0.28537413 -0.11975006 -0.09292065  0.04799474 -0.03595699
 -0.05280044  0.1040349  -0.19294326 -0.0863279   0.06650089  0.05454499
 -0.07827855 -0.06241106  0.20940275  0.03437018 -0.11030068  0.03731518
  0.00159182  0.31307992  0.17240751 -0.02896292 -0.01943489 -0.09416896
  0.10083705 -0.20566189  0.04185666  0.13643907  0.0496443   0.12093828
 -0.00148894 -0.14049642  0.04558795  0.07080936 -0.21992059  0.00398927
  0.08166733 -0.15671825  0.01132527 -0.03601334  0.13115594  0.08874942
 -0.05919978 -0.12989412  0.12229085 -0.09295745 -0.01744205  0.00511436
 -0.15142027 -0.18253759 -0.32386675  0.06139464  0.35536954  0.14272402
 -0.12464924  0.03368899 -0.06253821  0.01197175  0.13087349  0.05360777
 -0.07335826  0.00642086 -0.09446942  0.10775314  0.15176187 -0.06712946
 -0.11042154  0.20515275 -0.06833507  0.06272415  0.06021162  0.02777637
 -0.06125367  0.02278017 -0.16653764  0.02582119  0.0101839  -0.08311045
  0.00187025  0.17176916 -0.19479994  0.12606432  0.02820856 -0.0274955
 -0.08339494 -0.0532093  -0.12784587  0.0261541   0.10892849 -0.25147143
  0.20927994  0.19337595  0.0175071   0.14126486  0.0484901  -0.02862378
 -0.03468202 -0.0584325  -0.18587674 -0.01244355  0.12254228  0.08988715
  0.06197223  0.01687684]