[-0.14841549  0.11362028  0.11744722 -0.07457775 -0.09291545 -0.0819711
 -0.07140334 -0.17851119  0.17798528 -0.16111729  0.20401259 -0.07414874
 -0.2142698  -0.02117281 -0.04788795  0.23341084 -0.18462536 -0.16439357
 -0.07515038  0.02224428  0.03547538 -0.0109304  -0.02411893  0.00819562
 -0.01493067 -0.40505049 -0.14411601 -0.05693451  0.02040288  0.00794234
 -0.03342536  0.01412751 -0.1855108  -0.10320778  0.03040334  0.05663713
 -0.0177636  -0.08554655  0.13527954 -0.04627691 -0.27317497  0.05254688
  0.06650869  0.20357881  0.16955775  0.07388731  0.02624864 -0.14898525
  0.09230326 -0.1645572  -0.05202246  0.10260256  0.06626724  0.05030337
  0.06252629 -0.20571855  0.05516247  0.08515837 -0.16841553 -0.04627991
  0.06652063 -0.07432026 -0.01186818 -0.06702632  0.23923457  0.05573174
 -0.08850651 -0.1607428   0.18986666 -0.09409191  0.03038185  0.03266847
 -0.16250454 -0.18067078 -0.24039936 -0.00367867  0.42994404  0.10020249
 -0.15005976  0.08865344 -0.08605329  0.01112696  0.06505223  0.11746581
  0.01339323  0.01345701 -0.06513309 -0.02670853  0.16126212 -0.0751536
  0.04069371  0.20377325 -0.0228281   0.0476367  -0.01179815 -0.00589378
 -0.11714166  0.04646279 -0.14081992 -0.04852536  0.02038906  0.02089453
  0.02058308  0.10714874 -0.16687492  0.09421136  0.00623938  0.04494257
  0.00461317  0.04312083 -0.01293217 -0.08715249  0.11286556 -0.22059827
  0.18376617  0.22301126 -0.02530387  0.13864551  0.07700087  0.06799797
 -0.00665152  0.00657105 -0.22327061 -0.03233781  0.09062277 -0.02647957
  0.03917291  0.02257711]