[-0.1089131   0.12544928  0.03405153 -0.05052188 -0.10687032 -0.04354522
  0.02524691 -0.17069831  0.17542464 -0.14520182  0.21165116 -0.10598769
 -0.24640515 -0.05901554 -0.04942112  0.22465491 -0.15682916 -0.13163628
 -0.06431326  0.01831034  0.10718141 -0.00799208 -0.04424945  0.10825682
 -0.08000714 -0.32899603 -0.09610419 -0.07595918  0.03166035 -0.08913783
 -0.08537161  0.00617413 -0.1259792  -0.07269184  0.02546984  0.05345121
 -0.01632522 -0.09761376  0.19297028 -0.01201943 -0.30351746  0.09479685
  0.06732678  0.24134707  0.21326485 -0.01084386  0.02140633 -0.19088928
  0.19050635 -0.16853234 -0.04054091  0.1223947   0.11071022  0.0500278
 -0.00360365 -0.16485827 -0.00866177  0.13017212 -0.20602243 -0.03093564
  0.11125161 -0.05870894 -0.01393381 -0.05630212  0.15454018  0.07014821
 -0.12023585 -0.19420491  0.15451472 -0.21260217 -0.04590563  0.03093173
 -0.15157917 -0.19879226 -0.25076658  0.00722488  0.35737333  0.1498969
 -0.18471117  0.06679502 -0.0838181   0.03115851  0.12535462  0.14758445
  0.03568804 -0.00461104 -0.06262628 -0.02330043  0.21330138 -0.07865952
  0.04264855  0.24265544  0.03741672  0.05296238 -0.00343941 -0.00208554
 -0.13646774  0.05246428 -0.13982339 -0.01581331 -0.04506359  0.00214781
  0.05404827  0.10401076 -0.22171989  0.18960667  0.00523011  0.04178585
 -0.00656452 -0.011426   -0.05443044 -0.01282557  0.12218811 -0.2040083
  0.19877777  0.18005863  0.06105219  0.08928128  0.11247923  0.02674236
  0.0359561  -0.0157544  -0.22590511 -0.00129058  0.13322946 -0.08886535
  0.07130612 -0.039208  ]