[-1.34664103e-01  1.38238773e-01  1.32719815e-01 -7.23170266e-02
 -1.25375733e-01 -6.59091398e-02 -1.01059057e-01 -1.11744933e-01
  1.48384839e-01 -1.24477975e-01  1.82449639e-01 -8.27431828e-02
 -1.94908351e-01  4.34836484e-02 -9.09513161e-02  2.36055493e-01
 -1.55171499e-01 -1.15767293e-01 -5.27697988e-02  5.35150766e-02
  9.25720856e-02  1.06863594e-02 -4.96739149e-02  7.72269145e-02
 -3.95429097e-02 -4.04610842e-01 -9.28812250e-02 -2.31165569e-02
  5.32049639e-03 -3.91599797e-02 -7.34990239e-02  1.48233790e-02
 -1.80672929e-01 -8.84054676e-02  1.20070642e-02  1.11765184e-01
 -6.38236329e-02 -9.16339979e-02  1.47429407e-01  5.36883948e-03
 -2.80861139e-01  1.03253722e-01  1.02614000e-01  2.25022539e-01
  2.04683825e-01  8.79332945e-02  5.79410568e-02 -1.55620232e-01
  1.10488534e-01 -2.06651002e-01 -3.27878483e-02  1.41590998e-01
  8.68694335e-02  7.42217675e-02  6.77245483e-02 -1.82739988e-01
  4.96047214e-02  8.87914374e-02 -1.80631652e-01 -3.50616761e-02
  6.47311509e-02 -1.25952559e-02  3.12681757e-02 -7.56037608e-02
  2.35140234e-01  8.97255391e-02 -7.68746138e-02 -1.21228613e-01
  2.01698348e-01 -1.34082720e-01 -3.66290286e-02  6.91747898e-03
 -1.29374892e-01 -1.68012723e-01 -2.46814087e-01 -2.61711664e-02
  3.78180474e-01  1.24556780e-01 -1.65778235e-01  1.00306027e-01
 -7.07404092e-02 -2.33395007e-02  5.84864095e-02  1.08419873e-01
  6.68261945e-03  1.14328589e-03 -4.36595455e-02 -8.29980429e-03
  2.07078531e-01 -4.01198529e-02  8.60633850e-02  1.94943264e-01
  5.43531440e-02  1.06069762e-02  1.32650016e-02  1.55034503e-02
 -1.61242694e-01  3.20212059e-02 -1.76068753e-01 -6.15142174e-02
 -3.28187682e-02  1.19289653e-02  1.58868935e-02  1.19549356e-01
 -2.43840024e-01  1.51542991e-01  2.08052970e-03 -1.56226521e-03
  2.04755372e-04  5.98051548e-02 -4.89461012e-02 -4.75752987e-02
  1.23964168e-01 -1.84510902e-01  1.88272566e-01  1.91465601e-01
 -1.01516377e-02  1.05928779e-01  1.03515618e-01  6.85677454e-02
  7.06350058e-03 -8.96346662e-03 -2.06724644e-01 -5.45197986e-02
  8.35338309e-02 -6.50410280e-02  5.01939617e-02  3.71282995e-02]