[-1.71144634e-01  9.50743482e-02  1.28679439e-01 -7.44070262e-02
 -1.40298516e-01 -6.82931468e-02 -5.87281585e-02 -1.62437394e-01
  1.35626391e-01 -1.46018386e-01  1.94518715e-01 -8.76887888e-02
 -2.26644874e-01  1.73266549e-02 -7.12349415e-02  2.39516780e-01
 -1.75789401e-01 -1.49420097e-01 -5.56596518e-02  2.92717703e-02
  6.36460036e-02  2.68435455e-03 -1.10964626e-02  5.74735692e-03
 -3.50526646e-02 -3.91863704e-01 -1.63683102e-01 -6.67240098e-02
  1.59585085e-02  1.34725240e-03 -2.91881301e-02  5.66799659e-03
 -1.60111427e-01 -7.31911585e-02  2.02771127e-02  6.70976415e-02
 -3.13017033e-02 -8.89729559e-02  1.73785597e-01 -2.46394109e-02
 -2.73685694e-01  8.01118538e-02  9.47411358e-02  2.10704476e-01
  1.32591322e-01  8.73474851e-02  5.25125749e-02 -1.65814504e-01
  8.71760249e-02 -1.68967381e-01 -1.95093378e-02  1.15542494e-01
  8.62078592e-02  6.89919740e-02  4.31678407e-02 -1.81740403e-01
  8.69626701e-02  7.42397010e-02 -1.91677108e-01 -2.21233200e-02
  9.42295194e-02 -4.76524644e-02  1.28821405e-02 -5.43196984e-02
  2.56652623e-01  6.65127859e-02 -8.69058669e-02 -1.42425969e-01
  1.87200651e-01 -1.09401040e-01 -1.01192202e-02  3.28820162e-02
 -1.72853351e-01 -1.72896251e-01 -2.47256905e-01 -3.40815051e-03
  4.39734370e-01  1.08204268e-01 -1.55295104e-01  7.55825564e-02
 -8.74743685e-02 -1.12164458e-02  7.35042468e-02  1.42145649e-01
 -5.78409818e-04  1.42624741e-02 -7.53580481e-02 -1.62172839e-02
  1.82207212e-01 -1.04829967e-01  5.43881170e-02  2.15627894e-01
  5.94027042e-02  5.96830063e-02  3.24202323e-04  1.71778928e-02
 -1.21110313e-01  1.37030752e-02 -1.26840562e-01 -4.67968881e-02
  3.55811237e-04  2.05774270e-02  1.76185705e-02  1.07745245e-01
 -1.78893879e-01  1.29430339e-01 -4.33771033e-03 -4.22147010e-03
 -3.45625989e-02  3.63779627e-02 -8.72952398e-03 -8.10343623e-02
  1.09051481e-01 -2.04611540e-01  1.58438727e-01  2.23860294e-01
 -3.55514586e-02  1.26687750e-01  8.69826078e-02  8.62302110e-02
 -2.29384955e-02  1.01908511e-02 -2.12457046e-01 -3.29356231e-02
  1.03671513e-01 -3.02711576e-02  4.78455387e-02  4.49933261e-02]