[-0.16356294  0.10818171  0.1005455  -0.07467738 -0.10910564 -0.07083986
 -0.06294005 -0.16123295  0.16703314 -0.15449697  0.19855958 -0.05771061
 -0.20817195 -0.0171307  -0.0369104   0.22713839 -0.18721713 -0.15486729
 -0.07120769  0.0244068   0.04175649 -0.0008193  -0.01977496  0.00925064
 -0.01785143 -0.41814041 -0.15432003 -0.06516298  0.03375619  0.0058099
 -0.02949617  0.00561781 -0.17381623 -0.10048695  0.03481578  0.06286279
 -0.03202855 -0.06700122  0.16469704 -0.02796653 -0.26025328  0.0588554
  0.0726835   0.20112215  0.15303935  0.08481982  0.04432758 -0.14799528
  0.08038407 -0.17539163 -0.04270155  0.11499112  0.05711136  0.06913357
  0.05388189 -0.18722479  0.04933135  0.08391999 -0.172526   -0.03366509
  0.06286015 -0.07031231 -0.02396735 -0.05715191  0.25243291  0.05808919
 -0.09509357 -0.16554128  0.1771246  -0.10683133  0.00336068  0.0392925
 -0.15182254 -0.17420836 -0.23523116  0.01076055  0.43874866  0.10475166
 -0.15289943  0.07819151 -0.10092819 -0.02106131  0.06762683  0.11917894
  0.01768038  0.00385927 -0.0604988  -0.02582008  0.16750455 -0.07490021
  0.04986225  0.19995745  0.00990818  0.08004387 -0.0093744   0.01462423
 -0.12080561  0.02088188 -0.1341458  -0.06132546  0.01927556  0.0283042
  0.01661622  0.1065399  -0.16554578  0.12643515 -0.00075208  0.01719014
 -0.00547327  0.04394924 -0.01364516 -0.08486309  0.11238357 -0.21637264
  0.18598463  0.23325768 -0.03993834  0.13954903  0.0848333   0.0684314
 -0.01751306  0.01001269 -0.22554122 -0.0397923   0.09043746 -0.02332326
  0.03357275  0.01103598]