[-1.56132817e-01  1.38440058e-01  1.21556632e-01 -5.44849820e-02
 -1.44974917e-01 -5.23430891e-02 -7.48106837e-02 -1.47318602e-01
  1.43290967e-01 -1.26129314e-01  2.01245591e-01 -4.84725349e-02
 -2.28979394e-01  1.89964864e-02 -4.97183464e-02  2.25428447e-01
 -1.76096246e-01 -1.48726419e-01 -5.89997545e-02  2.65726391e-02
  4.11078222e-02 -2.98921223e-04  8.29483557e-04  1.22538051e-02
 -2.43460760e-02 -4.33660954e-01 -1.29211932e-01 -7.10947588e-02
  3.35215852e-02  6.71244133e-03 -5.01187555e-02 -1.35694845e-02
 -1.83677241e-01 -8.73175561e-02  1.64863225e-02  4.03701104e-02
 -5.04226051e-02 -8.61781985e-02  1.64541677e-01 -2.76907068e-02
 -2.78829187e-01  5.90124428e-02  6.69631362e-02  1.99812040e-01
  1.73281595e-01  9.59301740e-02  6.05659373e-02 -1.49680659e-01
  8.24529454e-02 -1.88366398e-01 -2.93651279e-02  1.20184116e-01
  3.37608866e-02  4.80882004e-02  2.89762560e-02 -2.03738600e-01
  4.75380905e-02  9.06774029e-02 -1.66846097e-01 -4.28889506e-02
  5.46593778e-02 -6.10713363e-02 -1.76218420e-03 -4.83367406e-02
  2.63590127e-01  7.13261589e-02 -8.24123397e-02 -1.39271781e-01
  1.83286026e-01 -1.18208945e-01  4.28522145e-03  2.39554476e-02
 -1.62397057e-01 -1.70997962e-01 -2.68456638e-01  3.86965810e-03
  4.34238911e-01  8.54121521e-02 -1.45981908e-01  5.75298630e-02
 -8.69355798e-02  6.34266669e-03  8.15099999e-02  1.34055600e-01
 -2.01034802e-03 -2.90474892e-02 -9.01180133e-02 -3.44902761e-02
  1.95368692e-01 -8.75469223e-02  4.63038348e-02  1.98563859e-01
  2.66179480e-02  6.39616698e-02  4.49089659e-03  5.62031865e-02
 -1.41708642e-01  4.54027671e-03 -1.44095749e-01 -5.06333821e-02
 -7.51088024e-04  3.09922099e-02 -1.07859354e-02  1.38802335e-01
 -1.90798804e-01  9.71084386e-02 -9.39168874e-03  1.50817190e-03
 -8.74247774e-03  1.24049345e-02 -8.21076319e-05 -1.05262063e-01
  1.05076306e-01 -1.83625087e-01  1.75969824e-01  2.42901087e-01
 -3.70558873e-02  1.41596824e-01  8.59658048e-02  4.65747714e-02
 -2.78959814e-02  3.81155312e-03 -2.39600018e-01 -3.78281139e-02
  9.38373953e-02 -3.47682498e-02  1.59624312e-02  1.70194115e-02]