[-0.0221231   0.147083    0.04548176 -0.01303123  0.01174542 -0.02210712
  0.07242761 -0.17855391  0.15277466 -0.06899313  0.2537688  -0.0891432
 -0.19729732 -0.07642434  0.01047819  0.14929646 -0.20658994 -0.1132856
 -0.03828973 -0.03979618  0.07779688 -0.00549633  0.04805913  0.0111268
 -0.1440471  -0.29397708 -0.12998714 -0.09488403  0.08708204 -0.04556187
 -0.05950949  0.07984913 -0.19998251 -0.08798613  0.04739092  0.01962097
 -0.06552594 -0.07136258  0.21975754  0.05303289 -0.12826619  0.06574369
 -0.02815625  0.2977047   0.17982267 -0.02136829 -0.00194347 -0.11135578
  0.08795316 -0.20677987  0.06287884  0.13027821  0.06075063  0.11706666
  0.00353179 -0.13083808  0.03105711  0.06315903 -0.2164295   0.01912977
  0.10308858 -0.11577469  0.03027233 -0.02474839  0.11443353  0.07227167
 -0.05749111 -0.12485573  0.1173203  -0.07860832 -0.00669455  0.00836634
 -0.15672272 -0.17414086 -0.31860834  0.06304763  0.37701097  0.13464598
 -0.13544822  0.01823371 -0.08356217  0.00836807  0.12997584  0.05487124
 -0.05172019  0.00332701 -0.07936386  0.09690487  0.14501952 -0.08383751
 -0.11395068  0.22034183 -0.07349695  0.05204756  0.04795763  0.03007518
 -0.05948928  0.02862982 -0.15720181  0.01208162 -0.00607228 -0.06849863
  0.00060863  0.17687169 -0.1940113   0.12870827  0.0222457  -0.03207118
 -0.0543269  -0.04828505 -0.12360771  0.01514366  0.10218435 -0.26049694
  0.20147295  0.20966963  0.01754131  0.11340636  0.04913294 -0.01577273
 -0.01885775 -0.03726057 -0.18599012 -0.02103984  0.11035744  0.09471855
  0.04373534  0.0092223 ]