[-1.04783654e-01  9.91743356e-02  5.85497916e-02 -6.05473481e-02
 -1.07572220e-01 -7.92397931e-03 -7.77991628e-03 -1.34569317e-01
  1.63915947e-01 -1.32256478e-01  2.17382953e-01 -3.98094319e-02
 -2.49672011e-01 -2.36012246e-02  4.46834555e-03  1.84740439e-01
 -1.89989269e-01 -1.00797318e-01 -3.55558433e-02  1.69742610e-02
  1.06776111e-01 -5.98290877e-04 -1.00010994e-03  9.42198038e-02
 -1.90952539e-01 -3.57515901e-01 -8.80420730e-02 -8.56970549e-02
 -9.29336902e-03 -4.63921390e-02 -7.80129954e-02  1.20604588e-02
 -1.70985267e-01 -1.31277321e-02  1.98250711e-02  5.10989204e-02
 -9.16797388e-03 -8.55916068e-02  1.77344978e-01  2.43717078e-02
 -2.80950844e-01  4.25319970e-02  2.96732485e-02  2.09423110e-01
  2.06278116e-01  1.17621226e-02  7.47109577e-02 -1.50462538e-01
  1.23025887e-01 -1.60090312e-01  2.84391101e-02  1.12271525e-01
  1.86989512e-02  6.01468198e-02 -2.69057211e-02 -2.13425994e-01
 -1.81189235e-02  1.24650739e-01 -1.54917389e-01 -3.08461282e-02
  1.02103293e-01 -2.65305489e-02  9.89644509e-03 -3.29987295e-02
  1.97424740e-01  8.48444551e-02 -1.40596256e-01 -1.53499484e-01
  1.43342063e-01 -1.73523128e-01 -2.06192844e-02  3.91023569e-02
 -1.86200798e-01 -1.88412920e-01 -2.56996274e-01 -3.43670929e-03
  4.12472248e-01  1.24261491e-01 -1.83317825e-01 -1.56686399e-02
 -1.22427486e-01  1.83506291e-02  1.46590292e-01  1.45286158e-01
  4.10572402e-02  9.06364643e-04 -4.50543277e-02  3.78723517e-02
  2.51404643e-01 -2.04761270e-02  1.65722370e-02  2.57355005e-01
  4.85986099e-02  2.72628497e-02  7.16614444e-03  2.26126537e-02
 -1.11600257e-01  3.00672855e-02 -1.05186045e-01  2.89455056e-06
 -7.68992230e-02 -1.23979542e-02  1.87315699e-02  1.58404201e-01
 -2.48359755e-01  2.03923747e-01  3.28918658e-02  1.94820669e-02
 -1.03371521e-03  2.09627897e-02 -7.69557282e-02 -4.58198898e-02
  1.12745777e-01 -2.25768641e-01  1.62679955e-01  1.99749932e-01
  7.93201327e-02  1.19174652e-01  5.06911986e-02  5.09547479e-02
 -4.94451402e-03 -9.65925306e-03 -2.49001145e-01  2.14421302e-02
  9.55234841e-02 -7.77596757e-02  9.34010446e-02 -2.07717177e-02]