[-0.13501494  0.11006703  0.09300535 -0.0752051  -0.08936547 -0.05701709
 -0.06430294 -0.22070324  0.13285805 -0.16353391  0.24060626 -0.04855959
 -0.20833321 -0.01943723 -0.07587393  0.22389777 -0.22702287 -0.16098361
 -0.07613792  0.05604131  0.02146442 -0.01253788 -0.01130375  0.07520317
 -0.04724948 -0.37107    -0.12415401 -0.08065142  0.04577392 -0.02351524
 -0.052098   -0.02090363 -0.17336129 -0.04329894  0.02881355  0.06608203
 -0.03896888 -0.05724146  0.16084234 -0.01699959 -0.26470602  0.09381857
  0.05322439  0.21389592  0.22702788  0.10794759  0.04975326 -0.18857236
  0.11434329 -0.21869956  0.007705    0.1102974   0.05999054  0.04181295
  0.02613758 -0.20108686  0.0272552   0.07966471 -0.16202033  0.00992661
  0.10798855 -0.06091843 -0.01144017 -0.02346232  0.24461281  0.08871362
 -0.12942596 -0.13727629  0.22377709 -0.18498944 -0.03769076 -0.00323252
 -0.12813437 -0.16548996 -0.25288352 -0.01384591  0.43356577  0.11008864
 -0.17441405  0.07271095 -0.05986117  0.02522708  0.09257418  0.16411531
 -0.00347964 -0.04609874 -0.06550807 -0.04217442  0.19515197 -0.03797783
  0.07060828  0.23334448  0.00424683  0.03345346  0.03966565  0.03096636
 -0.11638144  0.01823339 -0.12041926 -0.01912872 -0.03179253  0.03671838
  0.01944508  0.12782051 -0.1604902   0.1736028  -0.04247945  0.02684945
  0.04507054  0.03030824 -0.00422436 -0.09455883  0.1141701  -0.20990267
  0.20842342  0.21062739  0.0093561   0.10298879  0.07237542  0.09865584
  0.00495346  0.0431855  -0.25706276 -0.05052381  0.06682206 -0.10888956
  0.04125475  0.00533792]