[-0.14107232  0.10905608  0.09942502 -0.07651385 -0.12973066 -0.06686094
 -0.06096259 -0.15426609  0.14545463 -0.13970284  0.17703341 -0.0501851
 -0.2157599  -0.02430195 -0.03444437  0.21704669 -0.17448683 -0.15700327
 -0.06165965  0.03333498  0.04443724 -0.0038007   0.00105363  0.01749485
 -0.01357167 -0.40950575 -0.15482093 -0.05879564  0.01525805  0.01367392
 -0.05297716 -0.00085463 -0.18981922 -0.09781336  0.02280281  0.06266776
 -0.03048584 -0.0665619   0.1683346  -0.02458397 -0.2612775   0.06738184
  0.08763664  0.18399633  0.15769005  0.09594649  0.05091022 -0.143483
  0.07853647 -0.18492384 -0.00476994  0.12115625  0.06260593  0.05760019
  0.03096147 -0.19894622  0.03894804  0.09185771 -0.17034915 -0.03133207
  0.06449361 -0.04122456 -0.03044293 -0.06444456  0.26875359  0.09499505
 -0.09003318 -0.16317753  0.18217911 -0.12247119 -0.00490703  0.03435424
 -0.1583214  -0.1633587  -0.22215588  0.01328076  0.43076229  0.10623115
 -0.16356654  0.05326589 -0.11198193 -0.01359317  0.06958675  0.11110802
  0.01065552  0.01037287 -0.07279087 -0.02051267  0.18307562 -0.07782348
  0.04835835  0.2069203   0.04260127  0.09092319 -0.00054828  0.01032663
 -0.10578454  0.02016807 -0.16312805 -0.04663339 -0.00085883  0.02324243
 -0.00162839  0.11243    -0.16540965  0.12097649  0.00088826 -0.00256169
 -0.02197488  0.02843509 -0.01786008 -0.09021246  0.11014996 -0.19701332
  0.18622869  0.21715312 -0.03740163  0.13823771  0.08230715  0.08707684
 -0.01144    -0.01340854 -0.23236084 -0.03148277  0.11204527 -0.0395073
  0.04642942  0.02494685]