[-1.48546413e-01  1.00838639e-01  7.43603632e-02 -8.68484452e-02
 -1.46178767e-01 -4.43542004e-02  1.75084081e-03 -1.24362424e-01
  1.78757489e-01 -1.55718774e-01  1.67750418e-01 -8.30879807e-02
 -2.55307108e-01  4.62870300e-02 -5.82790039e-02  2.21218854e-01
 -1.86523721e-01 -1.25534996e-01 -3.87727693e-02  3.14982086e-02
  5.66684715e-02  3.37339714e-02 -3.41131352e-02  4.60100621e-02
 -3.24581079e-02 -4.07031268e-01 -1.49934888e-01 -8.71216878e-02
  2.05059629e-02 -4.53966968e-02 -4.19796333e-02 -1.88605496e-04
 -1.52796924e-01 -6.13674782e-02  2.30275374e-02  6.06925376e-02
 -9.85068679e-02 -6.80628940e-02  1.65880606e-01  2.76867636e-02
 -2.61514515e-01  3.30776088e-02  9.73192677e-02  2.43361637e-01
  1.36698335e-01  1.10635661e-01  2.79851686e-02 -1.50583938e-01
  7.58932605e-02 -1.95889950e-01 -4.23207151e-04  1.06170632e-01
  5.65734319e-02  9.67132077e-02  4.73144017e-02 -1.91088840e-01
  7.83469453e-02  5.02240546e-02 -2.33107612e-01  1.74766723e-02
  1.09932028e-01 -7.51673207e-02 -2.22820835e-03  9.74094495e-03
  2.73291916e-01  6.14287518e-02 -9.92920548e-02 -1.07218146e-01
  1.80884123e-01 -1.88973084e-01 -1.00888517e-02  1.39301959e-02
 -1.10312618e-01 -2.00152069e-01 -2.02414349e-01  2.49237008e-02
  4.31509018e-01  1.39173314e-01 -1.32172659e-01  5.16674519e-02
 -4.61513959e-02 -4.46010195e-02  1.23969749e-01  1.66511774e-01
 -2.10890770e-02  6.68730587e-04 -7.63304383e-02 -1.98429800e-03
  1.72456220e-01 -8.79886970e-02  6.33268654e-02  2.23083287e-01
  3.84353474e-02  2.88203098e-02  3.47434543e-02  3.68309580e-02
 -1.59547403e-01  1.53037909e-04 -1.29704148e-01 -7.15381578e-02
  2.12834682e-02 -4.07939889e-02 -1.13321729e-02  1.02900803e-01
 -1.85229331e-01  1.72966823e-01 -9.34270490e-03 -6.51971698e-02
 -4.11161445e-02  2.82490603e-03 -3.90748344e-02 -7.23226368e-02
  1.16078213e-01 -1.96223378e-01  1.90831572e-01  2.03600407e-01
 -3.79499234e-02  1.61091134e-01  5.76829016e-02  7.96489567e-02
 -9.47432127e-03 -2.00293455e-02 -1.94921777e-01 -5.18354140e-02
  1.05335705e-01 -2.85779666e-02  7.33586028e-02 -1.41416965e-02]