[-0.14502767  0.04767289  0.07519937 -0.07952788 -0.16575773 -0.05216378
 -0.03157872 -0.15063739  0.10827275 -0.09358326  0.27479702 -0.03667144
 -0.17843877 -0.10963359 -0.01708332  0.19308774 -0.1597546  -0.14411557
 -0.03114667 -0.01200828  0.08359838 -0.01405795 -0.00630703  0.09608509
 -0.21463715 -0.36706606 -0.11547257 -0.04668054 -0.02032183 -0.05186315
 -0.02540497  0.0605113  -0.19391143 -0.02108267  0.03333478  0.09114259
  0.0126517  -0.0340088   0.1221477   0.00226279 -0.27986994  0.06674132
  0.07767577  0.24625647  0.22120221  0.00147573  0.07514086 -0.0930334
  0.11759552 -0.14184773  0.0006712   0.10891689  0.09714601  0.00958749
 -0.02123867 -0.13177209 -0.02642718  0.17390524 -0.14150174  0.01976882
  0.0714526  -0.09468725 -0.01674948 -0.05701166  0.18104459  0.07341935
 -0.15775096 -0.14790662  0.1463145  -0.14096034 -0.04701702  0.03848774
 -0.2072002  -0.19072056 -0.35472095  0.00859784  0.3786132   0.08624684
 -0.23509203 -0.01266758 -0.06478892  0.11046018  0.0861192   0.12480599
 -0.00131517  0.0131563  -0.13032351  0.03428239  0.23420179 -0.03649398
  0.03299623  0.27018654  0.04281438  0.05342825  0.01284746  0.07554998
 -0.09968126 -0.0009755  -0.10889577  0.00725972 -0.03522029 -0.00557527
  0.04260206  0.14170837 -0.18310261  0.17707168  0.01180221  0.0623408
 -0.04314036  0.03181015 -0.04632981 -0.08446155  0.08227941 -0.19157048
  0.15434358  0.22418313  0.05668396  0.10952859  0.09381867  0.02092194
 -0.05023941 -0.02159042 -0.14558083  0.02132624  0.06023959 -0.11920889
  0.08941562  0.00441898]