[-0.12868688  0.15590532  0.07417672 -0.02896484 -0.10998652 -0.06087313
 -0.01985614 -0.16164456  0.18970278 -0.12688866  0.24061225 -0.01013054
 -0.28278297 -0.01653415 -0.00715684  0.18887308 -0.19440337 -0.12613893
 -0.07314203  0.04489633  0.07116963 -0.02353714  0.03199185  0.08682033
 -0.15640634 -0.32826135 -0.092451   -0.0666725  -0.02035631 -0.05496189
 -0.09707095 -0.03359468 -0.13124669 -0.03163895  0.00853983  0.02462664
 -0.01676941 -0.0669475   0.21480456  0.01304232 -0.33250043  0.05918464
  0.01693344  0.22973557  0.24739492 -0.02047966  0.06438507 -0.18170519
  0.1674207  -0.20724128  0.01183664  0.15201393  0.10154133  0.02546794
  0.00849606 -0.17493497 -0.05506891  0.1598563  -0.12061085 -0.02631026
  0.12101122 -0.04253733 -0.01639465 -0.05459176  0.16786484  0.08058019
 -0.17290883 -0.14359699  0.11847583 -0.16117309 -0.06107351  0.06023958
 -0.17078833 -0.2302589  -0.29840159  0.00299999  0.37712631  0.10862962
 -0.21037845 -0.00144467 -0.13502581  0.04112534  0.07032524  0.14660655
 -0.00784122  0.00236719 -0.10509479 -0.00427987  0.23842087 -0.07882211
  0.04208445  0.26051697  0.05870193  0.04773584 -0.01030183  0.07399925
 -0.12862568 -0.00057934 -0.13844223 -0.01338399 -0.01634164 -0.00316827
  0.00994826  0.11378006 -0.24692081  0.16905266  0.02517814  0.02331395
  0.01638665 -0.00515807 -0.04924292 -0.06504343  0.11107745 -0.2165482
  0.17000653  0.20175944  0.03634886  0.0955477   0.07646453  0.02606755
 -0.02141294  0.01195382 -0.17476021 -0.01787254  0.09885325 -0.05519319
  0.07226645 -0.03109756]