[-0.04915093  0.13469042 -0.00195921 -0.01928068  0.0141074  -0.04642892
  0.05976875 -0.15647326  0.17357738 -0.06100547  0.21922353 -0.0721674
 -0.18696184 -0.08847413  0.01250025  0.15212351 -0.23939829 -0.1102021
 -0.03628158 -0.04977049  0.07601141  0.01195549  0.051209    0.02100201
 -0.13770247 -0.321845   -0.12118037 -0.10483711  0.08234728 -0.03981399
 -0.0527836   0.09673504 -0.22075585 -0.11217677  0.06992102  0.02059394
 -0.05645363 -0.03817349  0.20051086  0.04997693 -0.12414892  0.06052777
 -0.01419994  0.30553177  0.19727166  0.00231987  0.00335267 -0.13662568
  0.07514075 -0.17651725  0.02435519  0.14232019  0.01084133  0.09340543
  0.00482822 -0.13012083  0.01593432  0.03956437 -0.1933215   0.00414174
  0.09138963 -0.08760344  0.00202209 -0.01483916  0.12396771  0.02565826
 -0.064396   -0.15813087  0.1131564  -0.09856136 -0.00143418  0.02148389
 -0.14931093 -0.18632758 -0.31042063  0.05537565  0.38413993  0.10057005
 -0.10784061  0.06268224 -0.0889411  -0.02073774  0.13379107  0.06575613
 -0.05470101  0.01520194 -0.06956165  0.11154687  0.1531288  -0.07148691
 -0.10032085  0.19775794 -0.08080044  0.04635429  0.04976893  0.04234729
 -0.07791929  0.04799716 -0.17074911 -0.01376783  0.04060365 -0.06340039
  0.00348924  0.18634154 -0.17785294  0.10976984  0.01691834 -0.03100035
 -0.04574937 -0.03540407 -0.13964102 -0.00980348  0.0950337  -0.2491678
  0.21311842  0.21957882  0.01737633  0.11112729  0.05451031 -0.01537603
 -0.01939251 -0.0053334  -0.19509119 -0.01293219  0.10710919  0.10364336
  0.04629702 -0.02279346]