[-1.53954178e-01  9.85671431e-02  1.23328052e-01 -8.51307958e-02
 -1.01424806e-01 -7.45092630e-02 -6.48842752e-02 -1.58960685e-01
  1.66343451e-01 -1.68407783e-01  2.05950171e-01 -4.60083447e-02
 -2.20587358e-01 -5.52396709e-03 -5.25704734e-02  2.17514634e-01
 -1.92037359e-01 -1.49436623e-01 -5.61660603e-02  2.02606674e-02
  5.81425391e-02  1.39054283e-02 -1.92720778e-02 -2.94735702e-03
 -3.81075777e-02 -4.03755993e-01 -1.66699991e-01 -6.35199547e-02
  1.05439136e-02 -1.05938692e-04 -3.12090460e-02  9.48667512e-05
 -1.57339290e-01 -8.48651156e-02  1.57067217e-02  6.39998838e-02
 -3.00721359e-02 -6.33679628e-02  1.69459209e-01 -2.80939788e-02
 -2.61229008e-01  6.63611218e-02  8.75131711e-02  2.07406431e-01
  1.77729800e-01  9.64476094e-02  3.40437517e-02 -1.60259858e-01
  8.86097550e-02 -1.66893810e-01 -2.07147058e-02  1.15901627e-01
  8.70717317e-02  7.11518750e-02  4.93970476e-02 -1.87717363e-01
  4.39996384e-02  9.50702578e-02 -1.81135267e-01 -3.57903950e-02
  7.48348609e-02 -7.30264559e-02  3.95030202e-03 -5.85553832e-02
  2.57597357e-01  5.46607673e-02 -1.01863436e-01 -1.32188901e-01
  2.05668956e-01 -1.20445766e-01 -3.95367434e-03  2.18909625e-02
 -1.63831472e-01 -1.79143116e-01 -2.23655894e-01 -2.45847111e-03
  4.15896326e-01  1.11839056e-01 -1.47993773e-01  8.19988176e-02
 -9.63470265e-02 -1.90928932e-02  7.34729990e-02  1.28370881e-01
  1.90651659e-02 -2.73945043e-03 -5.50006218e-02 -2.28447411e-02
  1.76533714e-01 -7.53916353e-02  6.15030788e-02  2.07434848e-01
  2.28406638e-02  7.68529251e-02  2.77706678e-03 -2.03196774e-03
 -1.22733869e-01  3.25544886e-02 -1.44087479e-01 -3.70792858e-02
 -2.64058616e-02  1.86882187e-02  1.96744073e-02  1.05776727e-01
 -1.58344701e-01  1.39873907e-01  8.44445080e-03  1.45617323e-02
 -1.23802247e-02  3.20612006e-02 -2.54724408e-03 -9.22612548e-02
  1.23515151e-01 -2.09480286e-01  1.74117684e-01  2.17480063e-01
 -3.91870290e-02  1.54224500e-01  7.55302832e-02  9.65738222e-02
 -2.46384870e-02 -1.32150506e-03 -2.52097696e-01 -1.64649766e-02
  9.43695977e-02 -4.56122160e-02  6.65834472e-02  3.18610556e-02]