[-0.0685719   0.11944461  0.00492956 -0.02252314  0.00912954 -0.07803222
  0.06038874 -0.14951244  0.16086458 -0.05515651  0.22352171 -0.07597965
 -0.18030325 -0.09215318  0.0129752   0.1558219  -0.22601561 -0.12560481
 -0.02650601 -0.0799589   0.05879695  0.01937047  0.03515272  0.04463147
 -0.14280692 -0.30400383 -0.11304114 -0.11767483  0.0432627  -0.04368676
 -0.03761871  0.11597919 -0.21186595 -0.11040818  0.08042665  0.03323437
 -0.05656493 -0.04010934  0.22156821  0.03955158 -0.11955347  0.04050225
  0.01078069  0.31188548  0.19798015 -0.01900061 -0.01172498 -0.12153026
  0.08891366 -0.16999067  0.01632862  0.14286214  0.01705494  0.1013469
 -0.00809658 -0.12542571  0.03280244  0.03594821 -0.21296792 -0.01325024
  0.08179697 -0.12819873 -0.01216238 -0.01219831  0.12416754  0.04346426
 -0.05218014 -0.16069138  0.12379801 -0.11461253 -0.02327415  0.02717714
 -0.14959987 -0.1824365  -0.31316099  0.05117465  0.36366048  0.10065311
 -0.10742336  0.07457037 -0.06213502 -0.0228356   0.13466343  0.06646814
 -0.05978746  0.01800383 -0.06804901  0.11594325  0.15367353 -0.05306415
 -0.11032826  0.17909625 -0.0770026   0.05631561  0.07740169  0.03766828
 -0.05934456  0.04816301 -0.17762779  0.00591908  0.03710703 -0.05988233
  0.00899059  0.16985323 -0.1704734   0.10669462  0.01871421 -0.03496255
 -0.07895333 -0.03715187 -0.13128576  0.00201756  0.09463741 -0.23516884
  0.22037761  0.19769877  0.01351824  0.12714641  0.05086185 -0.02500406
 -0.0332165  -0.02883618 -0.19545726 -0.00772717  0.11818261  0.10571638
  0.07808883 -0.01196518]