[-1.52923837e-01  9.57052633e-02  7.95754865e-02 -1.00142099e-01
 -9.92473587e-02 -7.59764686e-02 -5.56091852e-02 -1.82215363e-01
  1.72048509e-01 -1.64036900e-01  1.92486390e-01 -6.92874715e-02
 -2.09830195e-01 -1.35447010e-02 -5.48414476e-02  2.18535259e-01
 -1.87425181e-01 -1.74612418e-01 -9.29491445e-02  2.55526304e-02
  4.70746346e-02  8.21609065e-05 -2.50332542e-02  1.21717500e-02
 -1.98787600e-02 -4.23494399e-01 -1.51983559e-01 -7.04034492e-02
  1.69263072e-02  1.82258449e-02 -2.22787857e-02 -3.53397592e-03
 -1.85498998e-01 -8.28152224e-02  1.99133735e-02  6.69835582e-02
 -3.14815007e-02 -7.44351298e-02  1.76662236e-01 -3.96710113e-02
 -2.92468548e-01  6.90358505e-02  8.68673399e-02  1.95662603e-01
  1.56826138e-01  8.29155967e-02  2.59466358e-02 -1.70107484e-01
  1.04216866e-01 -1.73967376e-01 -3.22949253e-02  1.25130460e-01
  4.78040837e-02  6.76456094e-02  3.48909684e-02 -1.62588596e-01
  6.38784096e-02  8.42701495e-02 -1.95139661e-01 -4.06431668e-02
  8.63176882e-02 -9.72224101e-02 -3.33017670e-02 -7.33512267e-02
  2.48479292e-01  7.85964206e-02 -9.58940610e-02 -1.67300060e-01
  1.79132447e-01 -1.40569285e-01 -7.46845035e-03  2.95919869e-02
 -1.43700734e-01 -1.72867835e-01 -2.51093477e-01 -5.00257406e-03
  4.26997393e-01  1.02950983e-01 -1.46581158e-01  8.24160203e-02
 -1.02254868e-01 -8.58838763e-03  9.73212942e-02  1.14897981e-01
  1.54735772e-02  5.65581210e-03 -8.06977972e-02 -2.62400806e-02
  2.05080941e-01 -8.15654844e-02  5.14202416e-02  2.05611616e-01
  7.09299324e-03  7.34116659e-02 -3.65720247e-03  3.87963057e-02
 -1.33426681e-01  2.07317807e-02 -1.43287048e-01 -3.53557877e-02
  2.95563098e-02  3.54627743e-02  1.14701176e-02  9.90627334e-02
 -1.58803314e-01  1.34476498e-01 -3.25176097e-03  1.65455081e-02
  9.81750246e-03  1.65006164e-02 -3.15078651e-03 -1.03404440e-01
  1.16361640e-01 -1.89550638e-01  1.93110213e-01  2.08296180e-01
 -2.33370010e-02  1.41435534e-01  9.13726836e-02  7.35498667e-02
 -4.54715453e-02 -2.62880558e-03 -2.63329059e-01 -3.82531323e-02
  1.01130448e-01 -9.00859479e-03  5.84506392e-02  1.78915132e-02]