[-0.12724873  0.13358526  0.08033304 -0.04629244 -0.08655433 -0.05099919
 -0.02366384 -0.12462381  0.16262859 -0.01177153  0.26164907 -0.02936079
 -0.27637386 -0.06664681  0.00265966  0.1868566  -0.12510027 -0.03516406
 -0.07545134 -0.01881882  0.07300875 -0.04085466  0.03012488  0.11389946
 -0.13381819 -0.35133836 -0.06298196 -0.07662088 -0.03825829 -0.06389492
 -0.07782735  0.00776879 -0.19081943 -0.08010963  0.02014707  0.04470529
 -0.02772501 -0.07387665  0.11279092  0.02860516 -0.20174646 -0.00525171
  0.00975031  0.21436261  0.26628515  0.02070396  0.08617045 -0.15035203
  0.11965976 -0.19548653  0.0048911   0.09626362  0.03006266  0.02691377
  0.00372583 -0.18932271 -0.03071069  0.12584279 -0.17985307 -0.00757967
  0.07078966 -0.01723408 -0.07111012 -0.06836047  0.21602093  0.11683639
 -0.17676657 -0.10420392  0.15027033 -0.12898926  0.01733576  0.02768473
 -0.18079501 -0.23517154 -0.29971299  0.05047333  0.42900783  0.13396293
 -0.2285109  -0.04613787 -0.15791062  0.04204993  0.07131931  0.09554155
 -0.00939469  0.01607897 -0.06873254  0.03708652  0.19287065 -0.02862585
  0.01906274  0.30901533  0.01577953  0.04132405 -0.00753044  0.05081106
 -0.12028767  0.01068552 -0.15414913 -0.05669998 -0.01577695 -0.03346087
  0.06510058  0.11305244 -0.23024707  0.14900909  0.05308677  0.0488176
  0.00732024 -0.01682672 -0.10045075 -0.0628707   0.13715909 -0.20384867
  0.16615342  0.19259237  0.11129729  0.10091159  0.06789949  0.03308024
  0.01697811 -0.03381624 -0.13315342  0.05001892  0.07542135 -0.06755608
  0.06623172 -0.01589769]