[-3.26895528e-02  1.41485125e-01  3.35628390e-02 -2.57326849e-02
  3.69902863e-03 -5.26255257e-02  6.98060915e-02 -1.73682943e-01
  1.34937122e-01 -5.80331795e-02  2.53588468e-01 -8.98078606e-02
 -1.89164028e-01 -8.85884091e-02  2.33877432e-02  1.45221576e-01
 -2.03601554e-01 -6.85478449e-02 -4.44076546e-02 -3.02948058e-02
  7.54705518e-02 -9.77284834e-03  7.42680803e-02  2.47135907e-02
 -1.22455336e-01 -2.91009545e-01 -1.44521520e-01 -9.47078690e-02
  7.70068616e-02 -4.13563959e-02 -5.24465442e-02  6.61061779e-02
 -1.94049940e-01 -8.65600705e-02  3.96209396e-02  2.00568419e-02
 -6.99717924e-02 -8.06280375e-02  1.97948888e-01  6.16424680e-02
 -1.19206540e-01  5.82125597e-02 -1.94586217e-02  2.87293404e-01
  1.95699528e-01 -2.37621199e-02 -1.48684529e-04 -1.07601941e-01
  1.06537856e-01 -2.14201495e-01  5.95128797e-02  9.77630019e-02
  6.27189353e-02  9.69818607e-02  3.45689096e-02 -1.20596305e-01
  4.81308922e-02  7.53989294e-02 -2.24810556e-01  1.21969609e-02
  9.05878022e-02 -8.49619433e-02  1.39475940e-02 -2.80098654e-02
  1.22950785e-01  1.01861157e-01 -6.11662529e-02 -1.08702935e-01
  1.25490054e-01 -8.24499354e-02  7.65737286e-03  2.51655411e-02
 -1.47642761e-01 -1.87176734e-01 -2.91522950e-01  5.79403825e-02
  3.72149438e-01  1.54186770e-01 -1.43053219e-01  1.77673443e-04
 -8.97435918e-02  6.13792986e-03  1.34435043e-01  5.12375422e-02
 -4.86116074e-02  5.44331223e-03 -8.94337147e-02  8.91141370e-02
  1.34943187e-01 -9.39418748e-02 -9.51076746e-02  2.51246363e-01
 -5.50878830e-02  5.69170974e-02  4.40625660e-02  2.51616887e-03
 -6.44994974e-02  2.63354015e-02 -1.65442035e-01 -2.08517839e-03
  2.91729392e-03 -8.74490216e-02 -6.31798804e-03  1.51944965e-01
 -1.97713628e-01  1.27383351e-01  3.57781649e-02 -3.45121548e-02
 -5.45044616e-02 -6.59804866e-02 -1.12312280e-01  3.10723186e-02
  9.29029733e-02 -2.57633328e-01  1.98739648e-01  1.94592074e-01
  1.20817376e-02  1.14270918e-01  3.29419523e-02 -1.17828129e-02
 -1.78986173e-02 -5.78950942e-02 -1.61948189e-01 -7.45458528e-03
  1.04695439e-01  7.96102136e-02  3.22783589e-02 -4.36101854e-03]