[-0.0147922   0.14741278  0.05492461 -0.01326001  0.01999367 -0.02200433
  0.06522124 -0.17785579  0.15929356 -0.07586364  0.25440261 -0.08397924
 -0.20903018 -0.060918    0.01824198  0.14080584 -0.22212064 -0.08665882
 -0.03420966 -0.02887054  0.07488969  0.01252074  0.04445549  0.00635365
 -0.12166049 -0.30707359 -0.1398492  -0.09167299  0.10336349 -0.02437567
 -0.06401157  0.05348418 -0.17914979 -0.08106259  0.04500601  0.01870766
 -0.06852162 -0.07633958  0.20712836  0.05024502 -0.14066401  0.06045804
 -0.0315939   0.29901725  0.17607047 -0.00418346  0.00161861 -0.10863613
  0.07385241 -0.20969379  0.05731786  0.13535826  0.05382686  0.10694802
  0.00544427 -0.14992677  0.02166178  0.07570779 -0.21394496  0.02548787
  0.11613078 -0.09333149  0.03820376 -0.00196981  0.13325624  0.07699284
 -0.09136625 -0.12009668  0.10235232 -0.09760145 -0.0023475   0.00344344
 -0.1595318  -0.18163861 -0.31181026  0.06423574  0.3936443   0.1159626
 -0.13604829  0.00133524 -0.09107742  0.01349656  0.15483923  0.07250539
 -0.05217155 -0.00658819 -0.08690196  0.07639308  0.14362413 -0.08290321
 -0.10266955  0.22760974 -0.07366152  0.04499801  0.03407818  0.04934093
 -0.06408983  0.02670085 -0.1502904   0.01464116  0.01110324 -0.07968654
 -0.00749192  0.18736407 -0.20914292  0.13973771  0.03158504 -0.0316834
 -0.01785743 -0.04972897 -0.12534605  0.00591512  0.12259872 -0.26525652
  0.19925678  0.22380896  0.01824814  0.1174385   0.04611906 -0.007151
 -0.01682201 -0.03542737 -0.19711721 -0.02610474  0.08426277  0.07960743
  0.03145586 -0.00580136]