[-0.13939273  0.13990837  0.12431055 -0.07805673 -0.08976974 -0.095153
 -0.0864931  -0.15501086  0.11656809 -0.09745108  0.23987046 -0.09616591
 -0.17700067 -0.03998203 -0.04570962  0.2171226  -0.1820787  -0.1222307
 -0.0530152   0.06717432  0.09211224 -0.02434871 -0.00280587  0.04593047
 -0.07820468 -0.40201339 -0.1452767  -0.04786179  0.02032523 -0.03433588
 -0.0463612   0.01331559 -0.17791049 -0.1090361   0.04803064  0.10234412
 -0.0078143  -0.06253956  0.15891033 -0.02578938 -0.27216187  0.12609525
  0.08333752  0.25146645  0.23196964  0.07437392  0.08953959 -0.15890597
  0.11700366 -0.15564294  0.00187722  0.11055922  0.10321388  0.05257182
  0.02005729 -0.14739124  0.04657964  0.12483205 -0.19619755 -0.02979827
  0.13433407 -0.05170011  0.00790497 -0.04800088  0.2242602   0.03594492
 -0.12886569 -0.16500871  0.14573486 -0.10964011 -0.00299707  0.02768133
 -0.1788608  -0.17083298 -0.29460159  0.01245799  0.39331099  0.08320134
 -0.16817592  0.11214488 -0.10910171  0.01526585  0.04047082  0.12039965
  0.02046693  0.03007109 -0.06587047  0.0084219   0.19959158 -0.06762039
  0.06761085  0.21926148  0.01916628  0.03309781 -0.00151171  0.02068439
 -0.12436222  0.03240163 -0.13360336 -0.02130269 -0.03804796  0.01749012
  0.02222516  0.10292912 -0.24347615  0.16749996 -0.01050164  0.04386887
 -0.01693618 -0.00769189 -0.03321166 -0.05300274  0.11875238 -0.24951135
  0.15715262  0.22367273  0.03626484  0.10444331  0.11947544  0.03846257
  0.02139535  0.02111871 -0.21632771 -0.0052165   0.09658188 -0.05275811
  0.08199907  0.02668216]