[-8.49590357e-03  1.49718389e-01  2.30976846e-02  2.94760964e-03
 -6.92535797e-03 -1.91787723e-02  5.45771606e-02 -1.51723176e-01
  1.63979486e-01 -4.41041663e-02  2.41061673e-01 -4.83823083e-02
 -2.13814855e-01 -8.79850462e-02  1.65406857e-02  1.40390798e-01
 -2.05518961e-01 -1.18715227e-01 -4.51354943e-02 -6.68496639e-02
  7.53928348e-02  1.39901387e-02  6.95718676e-02  1.16522955e-02
 -1.58338279e-01 -3.26613963e-01 -1.16848826e-01 -1.01576641e-01
  9.02026147e-02 -6.56091869e-02 -4.41681258e-02  1.15760088e-01
 -1.99415520e-01 -1.13883875e-01  6.65532351e-02 -2.88738646e-02
 -5.42513318e-02 -5.59694953e-02  2.22117499e-01  5.96729778e-02
 -1.41649410e-01  9.09849927e-02 -2.39724666e-02  3.04086715e-01
  1.95134431e-01 -1.50600299e-02  2.44401693e-02 -8.45038220e-02
  3.86674404e-02 -1.95162818e-01  3.78914736e-02  1.50632396e-01
  2.15413570e-02  7.75568858e-02  1.60859525e-02 -1.40702397e-01
 -3.76175158e-02  4.86002155e-02 -2.08545685e-01  2.95250062e-02
  8.39775652e-02 -1.04967177e-01  4.04612999e-03 -3.60032432e-02
  8.68151188e-02  6.52968511e-02 -6.35343194e-02 -1.61157310e-01
  1.04228355e-01 -1.03154615e-01  4.63376194e-03  4.49071974e-02
 -1.60342366e-01 -1.78109139e-01 -2.85343707e-01  6.70207962e-02
  3.77926618e-01  1.09389029e-01 -1.18698828e-01  2.34947279e-02
 -7.08758533e-02 -8.83086061e-04  1.08728863e-01  4.07543443e-02
 -3.71185504e-02 -1.18940249e-02 -4.91620712e-02  1.00032784e-01
  1.38746709e-01 -5.22577241e-02 -1.42846629e-01  2.12472185e-01
 -8.51154253e-02  2.80504227e-02  6.06902838e-02  5.67029975e-02
 -6.31801859e-02  2.48455238e-02 -1.60959870e-01  1.18225086e-02
 -7.79973296e-03 -8.01726282e-02  1.66060039e-04  1.61499307e-01
 -1.48416623e-01  9.70633924e-02  1.59569120e-03 -3.05701774e-02
 -6.53141588e-02 -1.00124087e-02 -1.47140101e-01  5.72926924e-03
  1.07529521e-01 -2.71615326e-01  2.29233608e-01  2.24663973e-01
  4.58035339e-03  1.01198234e-01  4.56181280e-02 -2.64447927e-02
 -7.48818880e-03 -1.96124855e-02 -1.57322451e-01 -5.31169437e-02
  9.57361385e-02  7.83905610e-02  5.06937206e-02 -2.91638412e-02]