[-1.20748177e-01  1.26361758e-01  7.06870258e-02 -8.06619227e-02
 -8.54753926e-02 -7.21283183e-02 -4.71110158e-02 -1.42185926e-01
  1.56191751e-01 -7.91323408e-02  2.35000327e-01 -5.49122468e-02
 -2.61142075e-01 -1.25200301e-02 -6.72439262e-02  1.96506664e-01
 -1.20150089e-01 -8.57520252e-02 -5.80892861e-02 -5.52702649e-03
  6.63301125e-02  4.17875330e-04 -4.95536113e-03  1.05587080e-01
 -7.94422403e-02 -3.30289930e-01 -5.44444919e-02 -4.43969481e-02
 -4.94288988e-02 -5.05546816e-02 -6.66237995e-02 -1.68208238e-02
 -1.89350709e-01 -3.84886302e-02  2.05908772e-02  5.27197123e-02
 -2.49676686e-02 -9.51318368e-02  1.42873615e-01  5.08158170e-02
 -2.73147881e-01  2.12050974e-02  1.09607652e-02  2.26558119e-01
  2.43538186e-01  2.12795716e-02  3.40665728e-02 -1.69303045e-01
  1.31937340e-01 -2.18158081e-01  5.20901335e-03  1.12431012e-01
  1.59460101e-02 -6.84605562e-04 -2.94258241e-02 -1.92601427e-01
 -3.86969633e-02  1.27473801e-01 -1.53249770e-01 -1.54359983e-02
  8.12661052e-02 -3.12622786e-02 -3.70107405e-02 -7.33106807e-02
  2.17123389e-01  1.30183980e-01 -1.78679332e-01 -1.11491017e-01
  1.78982124e-01 -1.59110293e-01 -1.12030581e-02  3.42661701e-02
 -1.47377953e-01 -2.17924520e-01 -2.70471066e-01  3.55703197e-02
  4.36874360e-01  1.23292975e-01 -1.86523184e-01 -2.93827839e-02
 -1.41706780e-01  6.16203733e-02  9.43163782e-02  1.24657512e-01
 -5.84668014e-03  7.74361705e-03 -6.83279335e-02 -8.12214892e-03
  2.45059282e-01 -2.19680741e-02 -2.02637296e-02  2.93984860e-01
 -5.98882139e-03  6.04035966e-02 -8.88198521e-03  6.29383624e-02
 -1.13583483e-01  7.24909781e-03 -1.50856718e-01 -5.33946753e-02
 -1.45986630e-02 -2.61289217e-02  4.12039086e-02  1.70139194e-01
 -2.27446869e-01  1.37511209e-01  2.64782067e-02  4.92123216e-02
  4.26646732e-02  3.76592763e-02 -5.55476211e-02 -8.69510472e-02
  1.17469452e-01 -1.66575208e-01  1.82478055e-01  1.81191504e-01
  1.23907343e-01  9.79772210e-02  1.04409479e-01  2.49402914e-02
  3.29079181e-02 -4.48869988e-02 -1.79964140e-01  8.28778464e-03
  6.01853505e-02 -3.72778289e-02  8.38567987e-02  3.71017319e-04]