[-0.02318317  0.12616898  0.04702426 -0.01673517  0.00958126 -0.03021268
  0.07531559 -0.17300521  0.1529064  -0.08484267  0.25128838 -0.08927898
 -0.19193964 -0.07698219  0.0218108   0.15058525 -0.20885511 -0.11404039
 -0.03588165 -0.03615714  0.0731152  -0.0207745   0.03660242  0.01115772
 -0.13598341 -0.28721866 -0.13723738 -0.09508386  0.08686308 -0.02697153
 -0.05560324  0.07807728 -0.20091096 -0.08935124  0.04643987  0.03093298
 -0.0638394  -0.07793635  0.20964189  0.04629485 -0.12117632  0.06258008
 -0.03295074  0.287925    0.17966859 -0.02361903 -0.00169803 -0.10890273
  0.09475438 -0.22177386  0.05889876  0.12652539  0.05808817  0.12066244
  0.01546211 -0.14098932  0.0552576   0.05970026 -0.21661332  0.01420209
  0.09309953 -0.10246539  0.04105273 -0.01736273  0.12362671  0.07608526
 -0.05285759 -0.12429186  0.12756634 -0.07916462  0.00148014  0.00380405
 -0.16486441 -0.17567815 -0.31477866  0.06013916  0.38279578  0.14304678
 -0.13802384  0.02792354 -0.08686502  0.00600013  0.13774209  0.0568677
 -0.03667359 -0.00166838 -0.08622304  0.09312803  0.14371268 -0.08945049
 -0.10327335  0.22051716 -0.0687903   0.04942229  0.05029566  0.01600634
 -0.05516193  0.02943124 -0.16121717  0.01116427 -0.00734937 -0.06603801
 -0.00383737  0.17476247 -0.19500579  0.12867413  0.02030558 -0.03199289
 -0.06377608 -0.05620817 -0.11935512  0.02582742  0.09968501 -0.25621006
  0.20303968  0.20900393  0.01390617  0.11581268  0.04091991 -0.01626083
 -0.01959959 -0.04145972 -0.18986651 -0.01561005  0.09294011  0.09184379
  0.02981444  0.01418743]