[-0.000511    0.16489807  0.06208595  0.01350898 -0.02427013 -0.04385145
 -0.00432382 -0.07694196  0.15194853  0.00330171  0.22070706 -0.00415293
 -0.27709901 -0.06926943 -0.00075074  0.10458115 -0.19086896 -0.06259698
 -0.12701885 -0.0716332   0.06070533  0.0331375   0.03323781 -0.03293261
 -0.14793232 -0.27932802 -0.06525326 -0.07541263  0.078351   -0.11261711
 -0.03602657  0.02564302 -0.21576741 -0.12175632  0.01827241 -0.0157206
 -0.01978216 -0.08463721  0.14008611  0.02822245 -0.17092243  0.06619233
 -0.0182391   0.24707842  0.25695738  0.01127817 -0.0206851  -0.10535651
  0.09663045 -0.26712784  0.0392338   0.14889659  0.0522355   0.09155711
  0.059907   -0.13475573 -0.00754351  0.10888369 -0.17292805  0.00825233
  0.10498216 -0.07130953 -0.01379426 -0.08533887  0.10433429  0.05148287
 -0.08954969 -0.11902063  0.10608514 -0.133324   -0.02527674  0.04979454
 -0.06730632 -0.16371781 -0.28492895  0.09379862  0.38595852  0.16241254
 -0.17747189  0.02515765 -0.11467631  0.0075783   0.07875441 -0.00098925
 -0.06952896 -0.00692875 -0.06964102  0.05474413  0.18080543 -0.03137943
 -0.03541801  0.25164953 -0.0556854   0.03138912  0.05083617  0.02635708
 -0.09258885  0.03106967 -0.11941538  0.01567016  0.09210422 -0.14589159
  0.02053958  0.12646578 -0.15975638  0.12514919  0.01768402  0.01840236
  0.06829007 -0.02094986 -0.09194259 -0.00347873  0.16798516 -0.27120218
  0.27236176  0.17986414  0.00342087  0.08657623  0.05881185  0.06893732
 -0.03294845 -0.02027813 -0.15150329 -0.084852    0.06386399 -0.00764014
  0.03628474 -0.00564583]