[-0.19850895  0.16634521  0.14940633 -0.05182135 -0.12290859 -0.07145515
 -0.04027539 -0.16636539  0.13337485 -0.1023351   0.22845235 -0.12371396
 -0.22232743 -0.02377233 -0.05719448  0.2316135  -0.15478121 -0.14787249
 -0.05744019  0.05387275  0.13396564 -0.01663693 -0.00120305  0.05812537
 -0.08585381 -0.42033792 -0.14778408 -0.06974953 -0.00733135 -0.04544864
 -0.04109739  0.02451822 -0.1837254  -0.1008895  -0.01334312  0.08366785
 -0.00649077 -0.10170621  0.1630291  -0.04557877 -0.29572138  0.09750278
  0.1042251   0.23280692  0.18940336  0.05773371  0.08005357 -0.0936152
  0.08286237 -0.17810233 -0.03068345  0.12088104  0.09331768  0.04253229
  0.04838049 -0.14279735  0.02653035  0.0867181  -0.19543873 -0.03228509
  0.12567095 -0.05945953  0.01032864 -0.06254472  0.21111071  0.09361465
 -0.08260449 -0.11937169  0.1939836  -0.12116072  0.0025718   0.03069951
 -0.20051868 -0.17222661 -0.26184341  0.00795215  0.4079766   0.10395066
 -0.13890761  0.07235076 -0.08280481  0.04659095  0.03975148  0.11725798
  0.02425004  0.03431248 -0.08522601  0.04177463  0.1875443  -0.06165313
  0.06185579  0.25283     0.05214211  0.00381118  0.00311769  0.01546638
 -0.09008367  0.00238954 -0.13008192  0.01374025 -0.0308687   0.02843269
  0.01182054  0.10587618 -0.18966894  0.08852001 -0.01779624  0.03529572
 -0.06461398  0.01388495 -0.03048099 -0.04581603  0.09247249 -0.19407177
  0.12186934  0.20349894 -0.05893488  0.08570268  0.07870737  0.05805088
  0.01870469 -0.01271933 -0.2080173  -0.03664378  0.12953529 -0.04495083
  0.05634052  0.0330953 ]