[-0.1445116   0.17141347  0.10659204 -0.0717808  -0.09838723 -0.00802839
 -0.0121723  -0.19646634  0.20917097 -0.1575238   0.24232893 -0.06750698
 -0.24910112 -0.01811734 -0.07384432  0.23314528 -0.19058429 -0.16789569
 -0.03295002  0.01839826  0.01283085 -0.0369592  -0.01230455  0.09847894
 -0.06295457 -0.41037035 -0.11243788 -0.09066945  0.00266585 -0.0571415
 -0.0795308   0.01791171 -0.18426625 -0.05455989  0.0051186   0.09606254
 -0.07535765 -0.06229023  0.1487309   0.03179043 -0.23103452  0.07360155
  0.04394871  0.26540476  0.22242296  0.0620902   0.04784212 -0.16091372
  0.11538179 -0.19517671 -0.01169628  0.12662941  0.07215293  0.03933962
  0.05185596 -0.20942457  0.0020908   0.03645476 -0.17484258 -0.00571523
  0.09687807 -0.07742564 -0.03549044 -0.04297362  0.23360148  0.1178483
 -0.09314213 -0.12413683  0.25245506 -0.16235285  0.01321233  0.00737311
 -0.14028491 -0.18156116 -0.19375595  0.00660803  0.43372756  0.13640575
 -0.15426078  0.05884737 -0.09244918  0.01791414  0.06700433  0.15940157
  0.01166409 -0.01643427 -0.07340908 -0.00914391  0.15863678 -0.04411074
  0.05751092  0.22532479 -0.00619946  0.01591783  0.04284007 -0.01033608
 -0.15497126  0.03591268 -0.16306852 -0.06399675 -0.08633213 -0.01636825
  0.00311413  0.07744708 -0.20469646  0.14719842  0.00304532  0.00498738
 -0.00871046  0.02151398 -0.0258819  -0.05399386  0.12724042 -0.24987178
  0.19357023  0.18893348 -0.0183783   0.14015563  0.05744673  0.08787514
  0.0152598  -0.01952205 -0.19855438 -0.04267653  0.04926354 -0.07703248
  0.03454611 -0.00701353]