[-0.0879715   0.11581691  0.08771469 -0.1076931  -0.11100588 -0.00955239
 -0.07505948 -0.13953589  0.17014222 -0.14119464  0.21633063 -0.06895783
 -0.21728683 -0.01244956 -0.0653258   0.21169959 -0.21332467 -0.16469058
 -0.02836953  0.03751669  0.09263664 -0.00376248  0.01586835  0.04527871
 -0.17715788 -0.32373086 -0.06244823 -0.09066357 -0.01134545 -0.0459898
 -0.07026996 -0.03937938 -0.18432844 -0.02984224 -0.00968708  0.07582177
 -0.01567915 -0.11973411  0.19096212 -0.03936798 -0.33247754  0.06214485
  0.02515525  0.20115678  0.19599061 -0.00092497  0.03946783 -0.20833166
  0.1602495  -0.18128026  0.04137192  0.09505516  0.04911704  0.0321869
 -0.0040651  -0.14795762  0.00124469  0.17104529 -0.14534251 -0.01233038
  0.0808921  -0.02477816  0.06219836 -0.10518205  0.21623094  0.07381024
 -0.11743641 -0.15725031  0.14375402 -0.11844661 -0.0628184   0.07741313
 -0.1463035  -0.20100735 -0.30706787 -0.03322966  0.35628778  0.0916303
 -0.20200579  0.01904725 -0.04947995  0.01503231  0.1453087   0.18550107
  0.04257238  0.04030632 -0.07894952  0.01167988  0.29585561 -0.11100356
 -0.00440559  0.23907869  0.0185037   0.05368115 -0.00336266  0.06474153
 -0.11741443  0.07663427 -0.14657675  0.00928927  0.01838032  0.06644343
 -0.0030588   0.15900241 -0.15864146  0.11436508  0.00058479  0.0153369
  0.01214651 -0.02170017 -0.02938942 -0.10511694  0.14345942 -0.18306665
  0.16247673  0.18094558  0.05403646  0.09601754  0.1008017   0.0276897
  0.00465917 -0.00152022 -0.2660208   0.03636793  0.13324039 -0.05149519
  0.11675449  0.01852999]