[-1.56107098e-01  1.11651182e-01  1.17940046e-01 -4.36705314e-02
 -1.55892059e-01 -5.67269213e-02 -5.87511249e-02 -1.90850124e-01
  1.42545506e-01 -1.59563109e-01  1.83711514e-01 -7.17264786e-02
 -2.38789797e-01  3.11740842e-02 -4.26269025e-02  1.95662409e-01
 -1.45708412e-01 -1.81774572e-01 -1.02759734e-01 -1.13535980e-02
  9.14419163e-03 -1.82517748e-02  8.32283963e-03  9.09754336e-02
 -9.70733091e-02 -4.10487503e-01 -1.18969217e-01 -7.04533383e-02
 -1.14920987e-02 -2.95639541e-02 -6.17338531e-02  7.08241239e-02
 -1.73869714e-01 -3.37462798e-02 -2.20903214e-02  7.01298341e-02
 -3.14130820e-03 -8.47736523e-02  1.28642946e-01  8.39297753e-03
 -2.98506975e-01  7.65549541e-02  8.10762867e-02  2.21498281e-01
  2.05052778e-01  5.55580929e-02  8.21037218e-02 -9.29848328e-02
  6.98051974e-02 -1.88336775e-01  1.18163554e-02  1.32780373e-01
  7.92717189e-02  3.40251140e-02  7.65095428e-02 -1.88825712e-01
  1.16103040e-02  4.21269089e-02 -1.52792260e-01 -2.40703877e-02
  9.76350382e-02 -4.05012555e-02 -2.82866657e-02 -5.76301105e-02
  2.33283669e-01  1.54858992e-01 -8.10572281e-02 -7.73570761e-02
  2.22437963e-01 -1.61147937e-01 -1.38769848e-02  2.88627148e-02
 -1.74914405e-01 -1.66642413e-01 -2.05132470e-01  1.61231682e-02
  4.36324894e-01  1.37785956e-01 -1.73275650e-01  4.76587974e-02
 -5.51086552e-02  3.19887511e-02  6.09534867e-02  1.54068351e-01
 -8.10031500e-03  2.00300667e-04 -5.91736510e-02  3.02200671e-02
  1.67381167e-01 -1.66531708e-02  3.63794379e-02  2.23150298e-01
  6.58051744e-02 -4.65929881e-02  5.78061454e-02  5.14218695e-02
 -1.15053356e-01 -3.03042121e-02 -1.41160086e-01 -3.28355171e-02
 -1.89151522e-02  2.22693812e-02 -2.86622029e-02  5.92502914e-02
 -1.60483778e-01  1.33851722e-01 -9.00991913e-03 -1.79499984e-02
 -2.74727475e-02  4.76757251e-02  2.58022230e-02 -7.26474077e-02
  8.24904963e-02 -2.16493413e-01  1.25408664e-01  1.77648529e-01
 -6.78628609e-02  1.45767853e-01  3.50534590e-03  1.10647455e-01
 -5.17769891e-04 -7.48845143e-03 -1.41636178e-01 -9.89487842e-02
  9.06945094e-02 -5.97812720e-02  3.37474570e-02  2.70017032e-02]