[-0.11977159  0.15259182  0.03209407 -0.07701509 -0.11002725 -0.06225367
 -0.0159441  -0.20457397  0.20178901 -0.11605681  0.20556067 -0.05733117
 -0.22554712 -0.02140195 -0.01237202  0.22613417 -0.22964719 -0.18988058
 -0.0501166   0.04375813  0.08445593 -0.00208124 -0.00980435  0.09376023
 -0.06050901 -0.39123788 -0.15661545 -0.05217717  0.08255259 -0.04484128
 -0.05591078  0.0181379  -0.20008953 -0.12031481  0.07481068  0.10629838
 -0.0584763  -0.12680185  0.17355198  0.02707739 -0.25309351  0.09882092
  0.08166965  0.25952455  0.19679795  0.07242467  0.04322368 -0.18340443
  0.10424577 -0.17922223  0.0071968   0.13859843  0.05160022  0.09248579
  0.02089306 -0.18327491  0.04166018  0.09169029 -0.23145843 -0.01864223
  0.13859312 -0.07496383 -0.02419009 -0.06100933  0.22471352  0.09842654
 -0.09634807 -0.17372607  0.16122323 -0.15006821 -0.056669    0.01604841
 -0.15756667 -0.15648082 -0.23204647 -0.0023963   0.41997147  0.1006237
 -0.13648288  0.08555695 -0.06233521  0.00490429  0.0839181   0.1467775
  0.02654387 -0.01633829 -0.06949376  0.02718592  0.19363616 -0.04956464
  0.04641974  0.24042802  0.00547694  0.04529103  0.03425783  0.04912016
 -0.12241203  0.03067403 -0.14635918 -0.07125134  0.00224692  0.03426773
  0.02044018  0.12187542 -0.18161054  0.13921194  0.01419436  0.02002582
  0.01280683 -0.02029205 -0.04589545 -0.06562988  0.09585992 -0.25307763
  0.23329535  0.20625173 -0.02131311  0.09415165  0.05093507  0.06636688
  0.01193918 -0.02351694 -0.23067768 -0.0271928   0.10224468 -0.01755538
  0.04880001 -0.01576619]