[-0.14181502  0.11105337  0.09964645 -0.08164398 -0.13783632 -0.06864202
 -0.07389569 -0.1608067   0.14717589 -0.14438514  0.17479074 -0.05208232
 -0.20765984 -0.02371706 -0.03730981  0.21831127 -0.18094805 -0.15386969
 -0.05362299  0.03779199  0.04225948  0.00573747 -0.00103021  0.01889414
 -0.00837147 -0.41694155 -0.15934813 -0.06537297  0.02096671  0.00235757
 -0.04404721 -0.0038931  -0.18340449 -0.09833683  0.02577725  0.05571633
 -0.03431113 -0.06794429  0.16876598 -0.01545812 -0.26296052  0.06797758
  0.08081595  0.1891048   0.15836541  0.09980826  0.05409322 -0.16076826
  0.08779573 -0.1773394  -0.01273326  0.12706958  0.05637576  0.05580147
  0.02869651 -0.19590224  0.04109802  0.08771237 -0.17973962 -0.02456768
  0.06728142 -0.03662166 -0.03047918 -0.06110542  0.26817057  0.08667287
 -0.0925526  -0.1598126   0.18931006 -0.12189659 -0.01232631  0.02943776
 -0.16275088 -0.17130469 -0.22572017  0.00378718  0.43299371  0.10829126
 -0.16636086  0.05406308 -0.11350172 -0.01398143  0.06669097  0.12613891
  0.01275512  0.00520023 -0.05791618 -0.02197183  0.17906903 -0.07984798
  0.04995604  0.20858501  0.04389233  0.0964781  -0.00171316  0.01152874
 -0.11081344  0.01490895 -0.16326252 -0.05720911 -0.00382937  0.03009636
  0.00487441  0.12060908 -0.16895112  0.13794005  0.00865981 -0.00769913
 -0.0212182   0.03210828 -0.01192553 -0.09162412  0.11614974 -0.19204369
  0.19345777  0.22421968 -0.02776074  0.14349954  0.0824625   0.08630081
 -0.01532531 -0.01442383 -0.2291017  -0.03244757  0.1043036  -0.03584601
  0.04206397  0.01937196]