[-0.16111405  0.14688341  0.13654546 -0.11854384 -0.11770705 -0.04633714
 -0.0767223  -0.13945548  0.15953346 -0.13891253  0.22174358 -0.09297749
 -0.18476552 -0.0234257  -0.07093802  0.21639128 -0.2143703  -0.16033389
 -0.03396444  0.02603786  0.06892586 -0.00114351 -0.03960016  0.07106923
 -0.10184845 -0.42074177 -0.09976461 -0.07494415  0.02984254 -0.042035
 -0.04117361  0.01150134 -0.19984382 -0.0848717   0.00854352  0.13560162
 -0.05172477 -0.09004536  0.15517198 -0.00820496 -0.26131353  0.10890683
  0.07926252  0.25181496  0.19377291  0.0664266   0.04209718 -0.14150374
  0.14528452 -0.1987278  -0.04220679  0.15711007  0.05533023  0.08744293
  0.02682764 -0.14094506  0.10411938  0.05515535 -0.24974911 -0.06297917
  0.09932459 -0.08953258  0.03515133 -0.05138608  0.21481608  0.06484481
 -0.06743157 -0.12396979  0.17926188 -0.14420205 -0.01612177  0.00103358
 -0.13902627 -0.15141758 -0.27594781 -0.00119492  0.41195583  0.16992913
 -0.11551277  0.13549657 -0.08687385 -0.0144048   0.04798792  0.12176257
 -0.01552439  0.0494678  -0.05609174  0.04618743  0.16450946 -0.03482954
  0.08190849  0.20722933  0.05101786  0.04739884  0.05195967  0.00218442
 -0.16756761  0.01838211 -0.14193718 -0.01857312 -0.04926369  0.02114609
  0.05515419  0.09554257 -0.22710316  0.19053094 -0.00196427 -0.01673085
 -0.03908902  0.03200559  0.00259015 -0.05429495  0.10325598 -0.21756087
  0.16281335  0.20768718  0.02136674  0.15964836  0.11186489  0.03801725
 -0.04069617 -0.00521572 -0.18939064 -0.0493125   0.07209925 -0.04474973
  0.10916018  0.03770651]