[-0.16489738  0.14756829  0.09335807 -0.05122793 -0.14277148 -0.07597246
 -0.10506629 -0.14602092  0.13635771 -0.11287055  0.21599784 -0.10511726
 -0.20633459 -0.0479157  -0.07265574  0.23724484 -0.17418151 -0.12945595
 -0.02838997  0.02862388  0.07453629 -0.04863922 -0.01565647  0.03782471
 -0.05415862 -0.40803838 -0.09643935 -0.04131473  0.03579526 -0.04720628
 -0.05200583  0.05523885 -0.22948733 -0.12212874  0.03445696  0.09785043
 -0.03016392 -0.05319033  0.13678984 -0.04746921 -0.2315208   0.02808508
  0.09053594  0.19821972  0.14430261  0.09984141  0.07120242 -0.16125236
  0.10043552 -0.17040364 -0.05275626  0.13198805  0.07210645  0.0473479
  0.02280186 -0.17920132  0.05098469  0.06490441 -0.16248754 -0.04713065
  0.08440851 -0.03204504 -0.04642217 -0.08888813  0.26609355  0.04645235
 -0.08601139 -0.14280491  0.17752042 -0.09296267  0.01238343  0.0328595
 -0.1245327  -0.16751286 -0.27690634 -0.00976399  0.4013311   0.09126465
 -0.13272737  0.09442977 -0.09278925 -0.01991411  0.01875166  0.10149484
 -0.02191762  0.04044414 -0.04345379  0.01193628  0.17919549 -0.07971781
  0.08295319  0.17567575  0.02513217  0.06013934 -0.0187727  -0.00338837
 -0.13588618  0.02019288 -0.12459741 -0.04742662  0.00456835  0.00125127
  0.02375059  0.10878053 -0.20391794  0.09616334 -0.00675629  0.01492182
 -0.0064834   0.03683523 -0.05053205 -0.09895565  0.09026691 -0.22263336
  0.1741313   0.21348934 -0.00217374  0.12130576  0.11635715  0.07790895
  0.012046    0.01018989 -0.16975456 -0.05118465  0.10633752 -0.06503297
  0.02335991 -0.0044291 ]