[-0.1578536   0.1243081   0.11579569 -0.08084926 -0.1269618  -0.08338536
 -0.05735552 -0.15431292  0.16069542 -0.14732775  0.1968037  -0.07713579
 -0.22712795  0.0124857  -0.05293972  0.22899643 -0.16558214 -0.13541614
 -0.06250255  0.02582228  0.05758129  0.00799196 -0.03033578  0.04712449
 -0.00702406 -0.42542228 -0.16455652 -0.06382594  0.02495644 -0.01629278
 -0.04098189  0.02020641 -0.16851497 -0.10257127  0.01271356  0.06498155
 -0.05310524 -0.06450889  0.14437118 -0.01611413 -0.25442091  0.06675592
  0.08075694  0.2213861   0.16421264  0.09617879  0.06046721 -0.13254115
  0.0589016  -0.18084538 -0.0400749   0.12222474  0.06576417  0.07397899
  0.03911669 -0.20627911  0.05703143  0.08037026 -0.20647943 -0.0153943
  0.08050669 -0.08779501 -0.02443708 -0.02450575  0.2665278   0.08181285
 -0.09604622 -0.13841377  0.19706611 -0.13550906  0.01299655  0.00810584
 -0.1652687  -0.17187323 -0.23348747  0.00814087  0.4172909   0.11377479
 -0.14593102  0.0957064  -0.10611176  0.00937117  0.06333488  0.11961007
  0.00695715 -0.00145002 -0.07635986 -0.00528074  0.13744473 -0.07334401
  0.06687497  0.21479307  0.02426639  0.05961657  0.01002279  0.02090179
 -0.14213832 -0.00381441 -0.13810447 -0.05610751 -0.00640932  0.01455619
  0.00835764  0.10034112 -0.17842278  0.14796141 -0.00072918  0.01243074
 -0.03043074  0.02970171 -0.0122972  -0.0778967   0.11867956 -0.20023847
  0.18384215  0.22424407 -0.04822737  0.14930893  0.08225823  0.0704902
 -0.01592991 -0.02000075 -0.22148204 -0.03010382  0.09534366 -0.04098061
  0.04119321  0.02006365]