[-0.1083888   0.12152996  0.10518012 -0.06610855 -0.11523467 -0.06528952
 -0.03934989 -0.16233385  0.16803621 -0.12927668  0.17916508 -0.08295756
 -0.2348585   0.02653554 -0.03163622  0.22398606 -0.16942041 -0.11326718
 -0.07546186  0.00954788  0.05233611  0.02854187 -0.00383417  0.01391899
 -0.03836413 -0.38902113 -0.13814048 -0.04354418  0.05483002  0.0023216
 -0.06556543  0.03391828 -0.17159201 -0.09205844  0.04883496  0.07153513
 -0.06734045 -0.07453211  0.1474953  -0.00931822 -0.25083813  0.03916237
  0.08648708  0.19377342  0.16125169  0.1121813   0.05568324 -0.16361558
  0.06373363 -0.1880907  -0.03089112  0.12224112  0.02133717  0.10286609
  0.03416166 -0.19736367  0.0574953   0.08462247 -0.19516848 -0.03143227
  0.10774656 -0.05586638 -0.02649258 -0.02631291  0.26576665  0.06942554
 -0.1066344  -0.13452408  0.14585219 -0.13618918 -0.01365513  0.01905203
 -0.13581313 -0.17359783 -0.22364123  0.0099351   0.43394873  0.10345399
 -0.13404338  0.07683405 -0.07336467 -0.01634922  0.11357658  0.11777389
 -0.0061241   0.01092874 -0.05238304  0.00312771  0.17806834 -0.09988165
  0.06372122  0.21338041  0.01633199  0.06578553 -0.0123758   0.04708096
 -0.13138218  0.03438574 -0.13647246 -0.06434709  0.05353874  0.02078663
  0.02363318  0.10641854 -0.18830864  0.16322318  0.00414246 -0.00217946
  0.01084297 -0.00763074 -0.02745457 -0.06654146  0.11843268 -0.22073613
  0.19333893  0.22164106 -0.04913887  0.13403974  0.07924028  0.07734575
  0.012628   -0.00357602 -0.20877421 -0.0460115   0.11791459 -0.0288703
  0.04137746 -0.00249835]