[-7.48582482e-02  9.71272141e-02  6.89604655e-02 -8.68872032e-02
 -7.28520751e-02 -2.27856170e-02 -5.41470051e-02 -8.89369845e-02
  1.78538308e-01 -1.00629844e-01  2.31513292e-01 -6.20676242e-02
 -2.01519355e-01 -6.74479306e-02 -4.52599414e-02  2.11681321e-01
 -2.18136653e-01 -1.28633112e-01 -4.92490157e-02  6.55339286e-02
  9.79524553e-02  6.54247997e-04  2.49667149e-02  6.26033843e-02
 -1.53430015e-01 -3.38804215e-01 -8.63090381e-02 -7.40993842e-02
  1.34325949e-02 -7.35078678e-02 -1.13312498e-01 -6.32070471e-03
 -1.91065773e-01 -4.13176008e-02  1.02629513e-02  3.18836868e-02
 -4.06922540e-03 -9.51490626e-02  1.64498523e-01 -3.38443485e-03
 -3.35827798e-01  5.07759340e-02  3.66123766e-02  1.90135211e-01
  1.95590317e-01  1.72544867e-02  5.12313060e-02 -1.89391777e-01
  1.39445364e-01 -1.58340141e-01  3.71826813e-02  1.23165600e-01
  6.32659718e-02  3.26462351e-02 -9.36276931e-03 -1.48913130e-01
 -3.49947326e-02  1.42753795e-01 -9.71536785e-02  6.13942757e-05
  8.64226818e-02 -2.05587354e-02  1.17539829e-02 -1.00376539e-01
  1.92134812e-01  6.76190406e-02 -1.32627264e-01 -2.27437004e-01
  1.36095449e-01 -1.19402371e-01 -5.00623547e-02  1.15418792e-01
 -1.46124527e-01 -1.86180800e-01 -2.81027943e-01 -1.89536642e-02
  3.73878807e-01  4.83632497e-02 -2.03632623e-01  2.96004768e-02
 -1.08455859e-01 -2.31527234e-03  1.07223049e-01  1.91281810e-01
  2.97098756e-02  5.88478148e-02 -8.35680887e-02 -6.42910600e-03
  2.81817645e-01 -9.93619412e-02  1.69959199e-02  2.15579346e-01
  1.25073185e-02  6.67449981e-02 -1.78430434e-02  4.07330506e-02
 -9.87463668e-02  8.65316316e-02 -1.07897021e-01  1.07661001e-02
  1.36498529e-02  2.58954912e-02 -2.76381429e-02  1.40225679e-01
 -1.49324775e-01  1.30394921e-01  2.39895582e-02  3.38817798e-02
  4.41844538e-02  1.50646595e-02 -4.73190434e-02 -1.14851885e-01
  1.03375271e-01 -2.17615038e-01  1.76197171e-01  1.66132927e-01
  8.19281191e-02  6.68766648e-02  8.71590003e-02  9.31033045e-02
  5.04388288e-03  1.17294556e-02 -2.37821341e-01  3.14914249e-02
  1.28774077e-01 -6.77429065e-02  7.31786266e-02 -2.47354154e-02]