[-0.17301552  0.11424845  0.07546416 -0.06714045 -0.06618328 -0.07816875
 -0.00947557 -0.17434761  0.12358866 -0.0626175   0.27743363 -0.09401082
 -0.27530363 -0.06212405 -0.02147987  0.20334391 -0.14660376 -0.08285773
 -0.04188081  0.00247733  0.09356844 -0.02091228  0.01109496  0.14432719
 -0.12891752 -0.35495633 -0.07698373 -0.06560676 -0.03296591 -0.04799547
 -0.06054372  0.02577926 -0.20855883 -0.0337319   0.00067835  0.0290888
  0.00228936 -0.07502114  0.15001386 -0.00524682 -0.27721664 -0.00821575
  0.04958425  0.18402848  0.22182155  0.02387433  0.04634449 -0.17232834
  0.05941125 -0.16286378  0.00414306  0.11529765  0.02161066  0.00400341
 -0.05291605 -0.22274986 -0.06390329  0.08982974 -0.1554164  -0.02310421
  0.06939423 -0.06596873 -0.05421961 -0.08875241  0.22630894  0.12106279
 -0.17620523 -0.12222006  0.19457988 -0.14975099  0.00206095  0.04608349
 -0.16391544 -0.21751189 -0.28972062  0.02519422  0.3666063   0.08601474
 -0.21291375  0.00602143 -0.14557342  0.05682468  0.08466589  0.14906417
  0.01433848  0.00708045 -0.05190087  0.00826991  0.19567838 -0.02280507
  0.01472067  0.29202506 -0.01445525  0.0390693   0.0149258   0.0639707
 -0.10977072  0.01046013 -0.11216547 -0.02022565 -0.01461407 -0.01978462
  0.0458819   0.15478972 -0.21416822  0.14373061  0.03888595  0.04469083
  0.04270417  0.02006493 -0.04601211 -0.0974882   0.10440061 -0.1992678
  0.19844942  0.16708891  0.07443746  0.12044431  0.08467757  0.09076242
  0.00288459 -0.02253078 -0.1992112   0.04719559  0.1200964  -0.0938672
  0.09090903 -0.00708957]