[-1.65941939e-01  9.59026143e-02  1.16717279e-01 -8.69384035e-02
 -1.03307955e-01 -6.39972314e-02 -6.59495145e-02 -1.49455473e-01
  1.61877528e-01 -1.68195859e-01  1.97942346e-01 -5.24048992e-02
 -2.27157950e-01 -4.86335624e-03 -5.48577122e-02  2.27286577e-01
 -1.87861472e-01 -1.45776019e-01 -4.85143773e-02  2.67725475e-02
  5.37265055e-02 -5.56342816e-03 -1.37860375e-02  2.14422420e-02
 -3.01817544e-02 -4.21978146e-01 -1.60806343e-01 -7.87876025e-02
 -1.01289561e-03 -1.09988125e-02 -3.00117787e-02  1.50711843e-04
 -1.59338251e-01 -7.95124993e-02 -2.93053690e-05  6.04173802e-02
 -3.11215818e-02 -6.78308532e-02  1.66449219e-01 -2.58570965e-02
 -2.69990176e-01  6.05038293e-02  8.17593187e-02  2.19569758e-01
  1.82799622e-01  8.59544352e-02  3.17358822e-02 -1.38035208e-01
  7.87154064e-02 -1.76056966e-01 -1.89891346e-02  1.05524205e-01
  8.92726779e-02  6.04834147e-02  5.23921549e-02 -1.82351992e-01
  6.22338764e-02  8.06139037e-02 -2.01997519e-01 -3.50526311e-02
  6.49639815e-02 -8.10422152e-02  1.24211386e-02 -4.00820710e-02
  2.56622672e-01  6.87371194e-02 -8.96151885e-02 -1.24935679e-01
  2.24279121e-01 -1.26010880e-01  1.75231118e-02  1.52829951e-02
 -1.66062057e-01 -1.90764621e-01 -2.31458306e-01 -3.18635418e-03
  4.00276810e-01  1.35098666e-01 -1.46471873e-01  8.19332451e-02
 -9.41185579e-02 -1.66953932e-02  6.89070746e-02  1.36034057e-01
  2.24267840e-02 -8.28167889e-03 -5.74111529e-02 -1.34549020e-02
  1.55927256e-01 -6.83347732e-02  5.64479008e-02  2.14195162e-01
  2.68465225e-02  4.49329130e-02  1.37254447e-02  5.06106019e-03
 -1.27416268e-01  2.45333351e-02 -1.54505193e-01 -3.97644863e-02
 -3.18828002e-02  1.48358094e-02  2.05779877e-02  1.08674623e-01
 -1.73889786e-01  1.31563053e-01  3.18585127e-03 -1.99266500e-03
 -2.18820106e-02  3.72197405e-02 -3.19343130e-03 -9.12997127e-02
  1.19170189e-01 -2.01067239e-01  1.66740060e-01  2.25411773e-01
 -2.89727096e-02  1.54095337e-01  6.49865642e-02  8.23214725e-02
 -2.09946781e-02 -1.79904215e-02 -2.47395396e-01 -1.49396975e-02
  8.95819217e-02 -4.48467396e-02  6.14694543e-02  3.92230004e-02]