[-3.51131074e-02  1.47995487e-01  4.48746793e-02 -1.16900271e-02
  1.24537544e-02 -2.45392807e-02  7.45703205e-02 -1.69170186e-01
  1.55018672e-01 -7.50372484e-02  2.49451429e-01 -8.26561078e-02
 -1.94687754e-01 -6.84927478e-02  9.60210990e-03  1.47520930e-01
 -2.10488006e-01 -1.02570176e-01 -4.61889170e-02 -4.98140864e-02
  8.50091204e-02  3.03620612e-03  4.06091437e-02  5.50138438e-03
 -1.43592462e-01 -2.84408659e-01 -1.25838935e-01 -9.37118530e-02
  9.25130919e-02 -4.50764634e-02 -4.35482077e-02  6.29744455e-02
 -1.99854314e-01 -9.46926773e-02  4.82074432e-02  2.49783639e-02
 -8.18462968e-02 -6.56469613e-02  2.20816955e-01  4.85696606e-02
 -1.27142400e-01  6.46132156e-02 -1.67310871e-02  3.06261361e-01
  1.78059727e-01 -1.34820295e-02 -7.28428829e-03 -1.21380687e-01
  9.20860171e-02 -2.09270746e-01  6.39307499e-02  1.30878702e-01
  6.26182184e-02  1.28697559e-01  1.61348376e-02 -1.37993604e-01
  4.04551998e-02  7.20137283e-02 -2.14729309e-01  2.21251901e-02
  1.05545640e-01 -1.09015726e-01  4.13335375e-02 -1.92692932e-02
  1.21965051e-01  6.18215799e-02 -5.97300343e-02 -1.21249221e-01
  1.21349595e-01 -7.78010264e-02 -6.93796435e-03  1.38754016e-02
 -1.50302216e-01 -1.78814307e-01 -3.21089000e-01  6.19219914e-02
  3.87950569e-01  1.42506167e-01 -1.24851897e-01  1.85726024e-02
 -8.54322240e-02  3.44934320e-04  1.34812221e-01  6.33248612e-02
 -5.49757667e-02 -9.20471211e-04 -7.07731321e-02  1.01768337e-01
  1.39253169e-01 -7.98756778e-02 -1.12744808e-01  2.13249087e-01
 -6.25932142e-02  4.50395159e-02  4.26065065e-02  2.07822416e-02
 -7.88661540e-02  2.74732411e-02 -1.62081912e-01 -2.37849797e-03
 -9.48245358e-03 -6.69502392e-02  1.10218888e-02  1.81976900e-01
 -1.93704292e-01  1.43580824e-01  2.81746220e-02 -3.35879065e-02
 -5.78986295e-02 -4.21266183e-02 -1.19972862e-01  2.36567017e-02
  1.01771511e-01 -2.54585624e-01  2.09491059e-01  2.08150104e-01
  1.98069140e-02  1.19351469e-01  5.73326461e-02 -1.41665367e-02
 -1.91206280e-02 -2.90627480e-02 -1.91458270e-01 -1.44302370e-02
  9.94828567e-02  9.20338482e-02  5.68343177e-02  1.04090795e-02]