[-0.06307656  0.13381679  0.01397436 -0.00433029  0.01205545 -0.04741732
  0.05175593 -0.15213658  0.15802152 -0.05748246  0.21772645 -0.06812376
 -0.18706335 -0.1029521   0.02050819  0.1518735  -0.22037916 -0.13192533
 -0.03347529 -0.05008971  0.07625162  0.01999393  0.05154549  0.01891903
 -0.13910618 -0.33440265 -0.11418413 -0.10565457  0.06546709 -0.04814704
 -0.06279315  0.09317956 -0.22080722 -0.10510594  0.06382181  0.02750764
 -0.0452926  -0.03546297  0.21627831  0.05489788 -0.13973182  0.04888969
 -0.00464844  0.30427229  0.20914006 -0.00637287 -0.00881871 -0.12308047
  0.0785483  -0.16845599  0.0346682   0.14578412  0.0235144   0.09612894
 -0.0018462  -0.1235013   0.01341828  0.02115733 -0.20735721 -0.00718613
  0.08867098 -0.10705077 -0.00895206 -0.02047894  0.1171034   0.03063442
 -0.04755666 -0.17438078  0.11574426 -0.11170508 -0.00901726  0.03721967
 -0.15521744 -0.18082978 -0.32169408  0.05849553  0.36916873  0.10178243
 -0.10627615  0.06442403 -0.06932993 -0.02963749  0.12864633  0.06639358
 -0.05101608  0.03237332 -0.06832472  0.11873104  0.15062706 -0.0574833
 -0.10952752  0.19566064 -0.07802008  0.05838686  0.06735019  0.0455634
 -0.05351112  0.05035495 -0.17453046 -0.00272659  0.0373747  -0.06080437
  0.01548668  0.17667292 -0.16766138  0.09769183  0.01212023 -0.0232298
 -0.05487272 -0.03789843 -0.14559937 -0.01569795  0.09367413 -0.24532786
  0.20549405  0.20999353  0.01671329  0.10452944  0.05438891 -0.0122694
 -0.02605883 -0.01386786 -0.20319545 -0.00223305  0.1140715   0.10235815
  0.06096019 -0.00532999]