[-0.13869803  0.14151117  0.02979293 -0.14216648 -0.08377549  0.00275538
 -0.00949759 -0.13278109  0.17264073 -0.18407272  0.21926467 -0.07788248
 -0.24077456  0.02081781 -0.09022851  0.21632944 -0.22025037 -0.1382481
 -0.06192607  0.05531119  0.09290788 -0.01430164 -0.05893472  0.08978008
 -0.10920004 -0.29261914 -0.08881159 -0.06258913  0.01331452 -0.04157096
 -0.05039309 -0.05969999 -0.14257462 -0.00651214  0.00809226  0.06942021
 -0.00970487 -0.09192415  0.18669203 -0.02141099 -0.31508985  0.10572588
  0.05273676  0.24054146  0.18665147  0.00104066  0.00386005 -0.18366323
  0.18897551 -0.21426712 -0.0083703   0.11189475  0.06982836  0.05743933
 -0.00350761 -0.16282479  0.04028312  0.15325233 -0.15106826 -0.03122878
  0.09959733 -0.04871886  0.04819458 -0.05734494  0.1965463   0.07123464
 -0.14689122 -0.1834076   0.17159455 -0.15822338 -0.03553027  0.03865702
 -0.13331074 -0.18198271 -0.2328497   0.02017562  0.37921548  0.17959371
 -0.15392756  0.08855834 -0.09554172  0.02355874  0.11375596  0.16256896
  0.00450109  0.01952181 -0.07705899 -0.00906988  0.252884   -0.0653512
  0.036794    0.24805461  0.03155115  0.04494689  0.00660222  0.01516118
 -0.16005278  0.02440486 -0.12795381 -0.01361345 -0.01694459  0.00797671
  0.02393011  0.1622432  -0.21278167  0.1979786  -0.02748755  0.03759932
  0.00970375  0.04609919  0.00307967 -0.03761288  0.10966565 -0.17931585
  0.18266867  0.16509344  0.07314258  0.08229041  0.14245018  0.02554253
  0.01926743  0.02748083 -0.25196379 -0.02402096  0.11001193 -0.07824986
  0.12027533 -0.01003972]