[-3.30352299e-02  1.55802935e-01  3.83336656e-02 -1.02682803e-02
  7.84990378e-03 -2.40630414e-02  6.11706153e-02 -1.82798997e-01
  1.53990865e-01 -7.63850957e-02  2.40502149e-01 -8.91096964e-02
 -2.00193837e-01 -6.49775937e-02  8.85372516e-03  1.47018179e-01
 -2.25166351e-01 -1.03536427e-01 -3.82968299e-02 -4.15682904e-02
  8.55484456e-02  2.77618499e-04  3.59796509e-02  1.35148289e-02
 -1.36917159e-01 -2.87377775e-01 -1.36059985e-01 -8.58478546e-02
  8.42381641e-02 -3.99138927e-02 -5.80315255e-02  5.14499135e-02
 -2.06907898e-01 -9.02235135e-02  4.24379818e-02  2.64255889e-02
 -7.83089623e-02 -7.01141134e-02  2.05523491e-01  4.26396988e-02
 -1.27830431e-01  6.74194768e-02 -1.39737194e-02  2.96552479e-01
  1.82783827e-01 -7.90392235e-03 -1.72113236e-02 -1.16961002e-01
  9.20865163e-02 -1.94291130e-01  5.00372238e-02  1.39376283e-01
  5.70983477e-02  1.24836080e-01  3.74810258e-03 -1.34278104e-01
  3.43835540e-02  7.54875466e-02 -2.07423642e-01  1.29616056e-02
  1.08714461e-01 -1.08008020e-01  4.09594886e-02 -1.89736672e-02
  1.24894060e-01  6.55111149e-02 -6.26785830e-02 -1.32057533e-01
  1.10427082e-01 -8.99666324e-02 -1.18701952e-02  9.27117933e-03
 -1.49560601e-01 -1.82447940e-01 -3.17098886e-01  5.66428900e-02
  3.88609231e-01  1.33709937e-01 -1.25776485e-01  1.93901788e-02
 -8.30408409e-02 -2.96139717e-03  1.44129410e-01  6.36938363e-02
 -4.85334508e-02  6.04246603e-03 -8.40395540e-02  9.81238410e-02
  1.51845023e-01 -8.07714909e-02 -1.03091970e-01  2.20770821e-01
 -6.46714941e-02  4.97897267e-02  4.27829809e-02  2.38494407e-02
 -7.17729777e-02  3.32561098e-02 -1.61535874e-01  4.04027430e-03
 -7.39509845e-03 -6.67066649e-02  1.37259063e-04  1.76353008e-01
 -1.85250685e-01  1.35881752e-01  3.72092053e-02 -2.47223154e-02
 -5.86277358e-02 -4.70250547e-02 -1.32192194e-01  1.59456860e-02
  1.06940322e-01 -2.62513191e-01  2.05795094e-01  2.05236509e-01
  1.72580648e-02  1.13919020e-01  5.22418283e-02 -8.31155479e-03
 -2.31256932e-02 -3.38271484e-02 -1.94411904e-01 -1.78403798e-02
  1.03973806e-01  8.78287181e-02  5.80080338e-02  5.15837455e-03]