[-0.13084553  0.09393262  0.10370224 -0.0911827  -0.09713838 -0.02364388
  0.03931373 -0.12968819  0.15155177 -0.09566241  0.27634886 -0.10112336
 -0.22872317 -0.0893031  -0.00512468  0.22582698 -0.1701037  -0.13687359
 -0.03377117  0.03148578  0.12550063 -0.06987166  0.0229588   0.07086738
 -0.16155179 -0.3502135  -0.10313108 -0.04566047 -0.04249589 -0.08349926
 -0.05537544  0.11430385 -0.17719017 -0.02937094  0.00576819  0.12140033
 -0.00857937 -0.11319659  0.11780566 -0.03139571 -0.26913315  0.06589738
  0.06115949  0.21841522  0.17107855 -0.01813133  0.02409394 -0.0507957
  0.12679046 -0.21578157 -0.02413725  0.0943796   0.03699199 -0.00156312
  0.07689936 -0.15183571  0.00439366  0.11754831 -0.17163154 -0.01764763
  0.03785137 -0.13859667 -0.01462299 -0.1508749   0.10979412  0.11839564
 -0.09192633 -0.15753455  0.15873985 -0.05484467  0.01020586  0.07565355
 -0.20675877 -0.19846396 -0.23912199  0.01086009  0.35355559  0.09456696
 -0.16912134  0.0462978  -0.03929481  0.04386627  0.04277449  0.1145786
  0.07959028  0.0324419  -0.15480164  0.03220228  0.16789451 -0.10408092
  0.03271364  0.24889575 -0.04178622  0.0037604  -0.01713432  0.0041674
 -0.12003507  0.06544662 -0.14750098 -0.02120855 -0.0146628  -0.06323191
 -0.04032263  0.08273389 -0.17419392  0.07027566 -0.00589585  0.03886241
 -0.05971137 -0.03764624 -0.05122966  0.00222981  0.06396081 -0.25009626
  0.15749419  0.20634337 -0.01042206  0.0905083   0.04955408  0.03565274
  0.01189385 -0.02889132 -0.17489646 -0.0225315   0.10087581 -0.03180098
  0.00711817 -0.01138356]