[-0.14458691  0.03731012  0.12748049 -0.05759379 -0.07376764 -0.0995046
 -0.0145258  -0.04879019  0.08924233 -0.04568525  0.24768619 -0.08123157
 -0.22142909 -0.069317    0.00507856  0.21081482 -0.20193605 -0.07052878
 -0.04321443  0.03068777  0.11545386 -0.01386401  0.02608484  0.05804536
 -0.10936421 -0.45903698 -0.07145575 -0.08283345 -0.06312851 -0.0533158
  0.00961217  0.08456378 -0.17973562 -0.0443447   0.04729487  0.06875597
  0.00204896 -0.10270257  0.13565175 -0.00681705 -0.2979649  -0.00451214
  0.10928195  0.20050485  0.2277519   0.05110775  0.04169537 -0.06710179
  0.12997091 -0.23585895 -0.05578699  0.0784032   0.03954225 -0.00394946
  0.06317246 -0.12723944  0.02694698  0.07478331 -0.26354793 -0.0410336
  0.02587271 -0.09149788 -0.0290361  -0.09324341  0.18580712  0.09699541
 -0.12840199 -0.11356335  0.22448881 -0.14875548  0.02802688  0.09479773
 -0.15210597 -0.23253134 -0.23886941 -0.03146579  0.38201243  0.07229144
 -0.16639738  0.01290043 -0.06098505  0.00718609  0.06697042  0.14027879
  0.05835282  0.02838579 -0.06300936 -0.0026377   0.21069828 -0.03696324
  0.02065454  0.24605821 -0.00548776 -0.01502668  0.04399678  0.0145764
 -0.07985046  0.01566351 -0.1798187  -0.02512515 -0.04345112 -0.07275159
 -0.01594846  0.0770455  -0.19102995  0.08980381 -0.00334291 -0.0120446
 -0.01618305 -0.02107657 -0.05022709 -0.0508984   0.08486101 -0.23415494
  0.16043162  0.2087971   0.022676    0.12455831 -0.00675761  0.0515074
 -0.01446098 -0.06460976 -0.18667732 -0.0290899   0.07093319 -0.05263697
  0.0378272  -0.05865423]