[-0.16447026  0.08358555  0.10325197 -0.11433597 -0.08019008 -0.04320275
 -0.02853147 -0.163353    0.09674765 -0.09863477  0.29218435 -0.15878695
 -0.26604226 -0.09097708 -0.03186942  0.25176701 -0.18639289 -0.15922466
 -0.04507125  0.01635469  0.07461223 -0.03049642  0.00175569  0.07692314
 -0.17379849 -0.36527058 -0.12055435 -0.10330521 -0.0592915  -0.01021252
 -0.06251096  0.02361388 -0.21005754 -0.06085201  0.0727204   0.13838845
  0.01933673 -0.13215111  0.12293398 -0.07115813 -0.28033766  0.06991567
  0.13387482  0.19888823  0.16839857  0.02648896  0.01607158 -0.11279439
  0.11989095 -0.20931113  0.04501959  0.07083219  0.04729762  0.03152204
  0.02476535 -0.18426032  0.04181054  0.16073425 -0.23293905 -0.02980046
  0.08872891 -0.10066438 -0.01661019 -0.11936845  0.18695925  0.16003115
 -0.15887566 -0.18643154  0.13568391 -0.12990221  0.02590491  0.07728436
 -0.19762184 -0.16943727 -0.34305665  0.0105245   0.3783606   0.08232259
 -0.17104684  0.01741043 -0.02393416  0.06684816  0.07132807  0.13664955
  0.0554378   0.01425298 -0.10739453  0.00431536  0.20629148 -0.06196336
  0.01259484  0.24066572 -0.06111075  0.00582621  0.01442508  0.0713779
 -0.13184933 -0.0207944  -0.10341132  0.02274337 -0.03742272 -0.01608306
 -0.02951318  0.12285959 -0.18183923  0.06915273 -0.04538368  0.0117794
 -0.05018792 -0.05031298 -0.00776026 -0.0337681   0.09472197 -0.25101385
  0.16545229  0.18677442  0.01982041  0.10669412  0.07439341  0.02594953
 -0.02581357 -0.01017259 -0.23691367 -0.03369364  0.09911619 -0.0739085
  0.10711481 -0.0075245 ]