[-0.07543629  0.06402132  0.14337724 -0.05177309 -0.07992524 -0.00604519
  0.04092598 -0.10663777  0.10173315 -0.03694012  0.27863881 -0.0857143
 -0.24304512 -0.07304233 -0.02068448  0.2486548  -0.19275086 -0.11815268
 -0.04350342  0.03656843  0.07166767 -0.03769485  0.01554111  0.04067496
 -0.12628999 -0.35535896 -0.08252543 -0.05633707 -0.02341383 -0.07145926
 -0.06143612  0.13686806 -0.17439933 -0.0394905   0.0635068   0.11438086
 -0.02747056 -0.12133324  0.11387859 -0.03571949 -0.26373649  0.05081314
  0.11815161  0.23906508  0.21798678  0.02910749  0.01535852 -0.07108052
  0.08567672 -0.22823203 -0.00104958  0.07655681  0.05144225  0.03985728
  0.04469281 -0.1554535   0.0207283   0.04658737 -0.20688184 -0.02055251
  0.05254652 -0.11746001  0.02249203 -0.12465713  0.15242647  0.05899769
 -0.11726683 -0.1270957   0.1623373  -0.13459119  0.00051329  0.06195391
 -0.18753879 -0.19836691 -0.30504712 -0.0190259   0.36006927  0.10415118
 -0.17029548  0.04569724 -0.00358207  0.01059617  0.06338452  0.17385456
  0.07030009  0.06312472 -0.10392324  0.02013487  0.2068202  -0.09930182
  0.01224921  0.27529177 -0.03183446 -0.03302881  0.01652179  0.0226499
 -0.0370509   0.02663537 -0.18900962 -0.02203727 -0.05552071 -0.05176632
 -0.01449401  0.10692982 -0.17767066  0.05529683 -0.00272623  0.02878161
 -0.02648481 -0.05814273 -0.08053694 -0.05283821  0.11250389 -0.26910359
  0.12878917  0.22925155  0.02829906  0.05470026  0.04085698  0.0505335
  0.01525026 -0.05686247 -0.17022428 -0.00642405  0.09534533 -0.05828742
  0.03504085  0.00697373]