[-1.61397338e-01  5.70333265e-02  9.84310508e-02 -9.93153676e-02
 -7.16129318e-02 -4.79398221e-02  1.43163120e-02 -8.99088159e-02
  1.23884432e-01 -5.01406863e-02  2.95083851e-01 -1.40229329e-01
 -2.57863730e-01 -4.08879668e-02 -2.29831617e-02  2.15557680e-01
 -2.16789320e-01 -9.78567600e-02  9.31966305e-03  3.41225788e-02
  1.34539768e-01 -8.53900462e-02 -1.99128967e-02  7.74946585e-02
 -1.28085330e-01 -3.51055771e-01 -1.24066807e-01 -7.54911005e-02
  1.54002979e-02 -4.92134765e-02 -3.40248793e-02  3.64351682e-02
 -1.91386193e-01 -4.63460609e-02  3.83677371e-02  1.02260672e-01
  1.82739384e-02 -1.56600431e-01  1.24487363e-01 -6.00760877e-02
 -2.80184954e-01  4.91148569e-02  1.21117972e-01  1.88380703e-01
  1.73242956e-01  2.37437934e-02  2.50180215e-02 -9.06511471e-02
  1.27899289e-01 -2.28087023e-01 -7.27592641e-03  1.11870922e-01
  6.80639967e-02  3.16514671e-02  2.20862236e-02 -1.82146162e-01
  4.03171517e-02  1.23023465e-01 -2.44563371e-01 -2.63695866e-02
  5.73757105e-02 -3.58092971e-02  2.67586205e-02 -9.62483063e-02
  1.24288656e-01  1.30951658e-01 -1.37255594e-01 -1.78351834e-01
  1.54996380e-01 -1.39771566e-01  3.11047733e-02  1.01566270e-01
 -2.00421557e-01 -2.29088649e-01 -2.78982490e-01 -7.25968136e-03
  3.48229736e-01  8.92753825e-02 -1.26098409e-01  5.98725975e-02
 -5.00096381e-02  1.73869729e-02  5.73350079e-02  1.45968616e-01
  7.44471774e-02  3.50766480e-02 -1.05812050e-01  1.17588835e-02
  2.02441171e-01 -8.30269456e-02  3.79023477e-02  2.38791868e-01
 -2.97164824e-02 -6.23744214e-03 -1.82774831e-02  8.33385438e-02
 -9.72720608e-02  1.06188348e-02 -1.27434701e-01 -1.07198283e-02
 -5.60096279e-02 -2.00235639e-02 -3.60136330e-02  9.96519104e-02
 -2.32568741e-01  7.74825215e-02 -3.82549432e-03  6.57528653e-05
 -8.40080902e-02 -7.30715618e-02  2.61619291e-03  2.39368510e-02
  7.95336589e-02 -2.71877885e-01  1.65089652e-01  2.24066064e-01
  2.30728425e-02  8.84095356e-02  3.34827118e-02 -9.73949116e-03
  2.79644486e-02 -7.19223768e-02 -1.91854239e-01 -2.02709939e-02
  3.80793139e-02 -6.64005429e-02  2.11363714e-02 -3.45567092e-02]