[-1.54694393e-01  6.49710223e-02  1.62462533e-01 -8.25570971e-02
 -9.80175361e-02 -9.06303599e-02 -6.47441309e-04 -9.98981968e-02
  9.08512101e-02 -3.87705527e-02  2.66597599e-01 -1.03418998e-01
 -2.44809777e-01 -9.11608934e-02 -2.02085320e-02  2.31578514e-01
 -1.78921223e-01 -1.34149373e-01 -9.18074138e-03  4.29324657e-02
  1.19157195e-01 -3.36477943e-02 -5.73136425e-03  6.35536537e-02
 -1.40399426e-01 -3.61733377e-01 -1.09755300e-01 -4.81891893e-02
 -7.28284344e-02 -5.93233071e-02 -6.95179850e-02  9.91470963e-02
 -1.79352671e-01 -5.09970859e-02  6.02399707e-02  1.34511158e-01
  1.63319744e-02 -1.28518403e-01  1.06759205e-01 -4.09878604e-02
 -2.87546813e-01  5.50004020e-02  1.34859577e-01  1.99282452e-01
  2.16950521e-01  1.61007158e-02  4.42514233e-02 -8.94106179e-02
  1.19661368e-01 -2.16550142e-01 -5.40741757e-02  1.18815482e-01
  6.34012744e-02  6.17985195e-03  6.12447970e-02 -1.22342460e-01
  1.68446433e-02  8.36576447e-02 -2.25641206e-01 -4.53418903e-02
  6.34451061e-02 -1.18208781e-01 -7.51752499e-03 -1.44653559e-01
  1.46971673e-01  1.05115987e-01 -1.31059602e-01 -1.55640945e-01
  1.83093652e-01 -1.42857328e-01 -3.24772000e-02  8.13838020e-02
 -1.87720343e-01 -1.93448573e-01 -2.85099715e-01 -4.79376409e-03
  3.51434559e-01  7.33676627e-02 -1.65463805e-01  7.52721950e-02
 -2.05329899e-02  2.37563010e-02  3.50491181e-02  1.56274110e-01
  6.24308847e-02  6.75056428e-02 -1.09696113e-01  2.18433123e-02
  2.25244507e-01 -8.26099515e-02  6.99016973e-02  2.23235250e-01
 -9.73085780e-03  8.25999863e-03  2.30829101e-02  3.91917340e-02
 -6.00748025e-02  3.02478205e-02 -1.51598617e-01  3.11384238e-02
 -4.64295410e-02 -5.91960661e-02 -1.12389773e-02  9.06224623e-02
 -1.61709771e-01  3.01173180e-02 -2.44663246e-02 -1.23100150e-02
 -8.64060745e-02 -6.60011470e-02 -3.01103424e-02 -2.35398132e-02
  5.85178621e-02 -2.62554616e-01  1.59940496e-01  2.01853663e-01
 -1.91378091e-02  6.43655434e-02  2.10350268e-02  5.43687902e-02
  3.78958903e-05 -5.50790019e-02 -1.41445234e-01 -4.38042320e-02
  9.09425840e-02 -6.47008196e-02  4.90206704e-02 -2.86595207e-02]