[-0.09624234  0.05324464  0.08945593 -0.05263866 -0.06418192 -0.03257553
  0.08116752 -0.14167221  0.13995233 -0.06286124  0.22059913 -0.08362149
 -0.25499582 -0.05105133 -0.00362     0.24787772 -0.19452254 -0.15233427
 -0.07963561  0.01268137  0.09522928 -0.06791171  0.00993447  0.10508436
 -0.12412038 -0.31418583 -0.10419066 -0.08447077 -0.00715736 -0.0735386
 -0.05286087  0.1041848  -0.17560881 -0.04947849  0.04325468  0.07974919
 -0.0045634  -0.15024342  0.14669007 -0.02478217 -0.27822903  0.04249926
  0.10576423  0.21366373  0.19556713  0.01221255  0.03280772 -0.06936003
  0.11115029 -0.22477868 -0.00551814  0.06839243  0.07429639  0.02259116
  0.07244811 -0.19550346  0.01138719  0.07161251 -0.20460705 -0.00567116
  0.01592146 -0.09198038  0.01026275 -0.09040859  0.1214545   0.11165886
 -0.07320993 -0.16176835  0.20080999 -0.15427832 -0.0113272   0.07222296
 -0.18473087 -0.188457   -0.2655687  -0.05958107  0.37089056  0.1145056
 -0.17433152  0.05752027 -0.03360398  0.01203249  0.0706334   0.16504046
  0.06298113  0.06546205 -0.11515237  0.0160302   0.1966335  -0.08349655
  0.00736283  0.27221808 -0.01290753 -0.04511221  0.00769531 -0.0078094
 -0.07261506  0.02920266 -0.17474002 -0.07820051 -0.02774177  0.02136456
 -0.00355377  0.10975392 -0.18304263  0.04090079 -0.0113321   0.02089066
 -0.06108908 -0.02578454 -0.06674222 -0.03025362  0.08766747 -0.23916893
  0.11008891  0.2238525  -0.03604749  0.02807345  0.00955633  0.02892276
  0.04359409 -0.05053566 -0.20135967  0.00307126  0.12313683 -0.04428032
  0.01884314 -0.00737985]