[-0.11137413  0.08068394  0.13012664 -0.06282839 -0.09691876 -0.03068857
  0.02082246 -0.04989396  0.11902044 -0.05024306  0.26360065 -0.06146492
 -0.25850761 -0.06224888 -0.01535283  0.22873524 -0.1796052  -0.09807625
 -0.03025894  0.06454035  0.14490996 -0.03176272  0.01843461  0.05117763
 -0.10811396 -0.38945574 -0.08488208 -0.02954881 -0.03760195 -0.08209705
 -0.05480981  0.09047103 -0.15510358 -0.025065    0.03342725  0.10359259
  0.01189248 -0.13020635  0.12689738 -0.00973784 -0.29792345  0.07319655
  0.09063941  0.21832421  0.21918245  0.04333582  0.03410259 -0.0452487
  0.11886537 -0.24889152 -0.04774969  0.10306954  0.07195986 -0.00739868
  0.05130812 -0.1274263   0.03092831  0.04358972 -0.23113845 -0.0580379
  0.05564673 -0.10894751  0.02776368 -0.10889794  0.14249693  0.05908843
 -0.12084426 -0.12968118  0.15860549 -0.14658847  0.00577196  0.08884474
 -0.18701407 -0.21264207 -0.24884799  0.01208902  0.3904407   0.13489494
 -0.15378244  0.05743909 -0.03904844  0.02193501  0.04762256  0.14372256
  0.06619253  0.04762246 -0.14577751  0.01338693  0.21539643 -0.08798704
  0.02431489  0.26727673  0.02502189  0.00471989  0.0039137   0.01744738
 -0.05894028  0.02613191 -0.15404026 -0.00595755 -0.05303842 -0.05669267
 -0.01624129  0.08748718 -0.18223803  0.06099593 -0.03546236  0.00094117
 -0.0511096  -0.02439259 -0.06873726 -0.03545905  0.05726447 -0.25787899
  0.11623516  0.22537446  0.01649431  0.06798518  0.03432539  0.05473579
  0.01708435 -0.05280296 -0.14675435 -0.06033759  0.08375033 -0.04796534
  0.0612906  -0.02576731]