[-0.08897226  0.07555493  0.11464097 -0.03534226 -0.10763057 -0.02757855
  0.02454269 -0.12143778  0.14323376 -0.04259471  0.24567179 -0.06267115
 -0.2557784  -0.05929529 -0.00139665  0.24482678 -0.19225882 -0.12325203
 -0.03253613  0.04406374  0.12603183 -0.05071675  0.01351725  0.07962146
 -0.13074194 -0.39671493 -0.08967655 -0.05706469 -0.06840806 -0.06654268
 -0.07121438  0.10120425 -0.19191901 -0.04330503  0.03111991  0.07370828
 -0.01983556 -0.15833551  0.10217708 -0.0048191  -0.30171475  0.06951786
  0.12976034  0.2007091   0.20782664  0.01198606  0.04473851 -0.07790964
  0.11410779 -0.23568527 -0.02165438  0.09760358  0.05739889 -0.01102064
  0.06301776 -0.18164377 -0.01717977  0.044028   -0.20741867 -0.00145158
  0.06490226 -0.07695501 -0.02326295 -0.14450596  0.13353921  0.13392809
 -0.10981411 -0.14421143  0.16226421 -0.13473694 -0.01460431  0.05160124
 -0.21157412 -0.2383583  -0.2848058  -0.02859604  0.38306949  0.0907824
 -0.1803108   0.02405445 -0.04034026  0.04090567  0.05278626  0.16501421
  0.09236212  0.03892631 -0.12475803  0.02910829  0.22119312 -0.08267249
  0.02043075  0.2864891  -0.01394337 -0.0250641  -0.01443061  0.03023509
 -0.0840307   0.0309046  -0.19908099 -0.03527341 -0.05962621 -0.02926717
 -0.02777513  0.10051973 -0.1887314   0.0337979   0.01049041  0.01379274
 -0.03298678 -0.03825951 -0.1058109  -0.03789579  0.07561876 -0.23177245
  0.1497322   0.20775855  0.02784625  0.05611784  0.02014015  0.04231703
  0.01575334 -0.06438936 -0.19127299 -0.01076792  0.0843898  -0.05735371
  0.00348266 -0.01711129]