[-1.21635452e-01  5.71237095e-02  1.19361274e-01 -4.59266417e-02
 -8.75413194e-02 -8.85493159e-02  5.44068106e-02 -1.00844815e-01
  1.21029757e-01 -5.56004830e-02  2.63734639e-01 -2.59269923e-02
 -2.09752306e-01 -1.33689493e-01  3.97782587e-02  2.39052609e-01
 -1.82960346e-01 -9.84979421e-02 -5.69739603e-02  4.79523726e-02
  9.98185426e-02 -5.31919189e-02  2.48785242e-02  6.96065351e-02
 -1.01603650e-01 -3.58509481e-01 -1.03827916e-01 -6.85478374e-02
 -2.74312198e-02 -6.43866882e-02 -5.83258159e-02  9.36355814e-02
 -1.47790059e-01 -5.44966832e-02  4.35091816e-02  9.10018608e-02
  8.26685515e-04 -1.02359831e-01  1.26258716e-01 -2.49175914e-02
 -2.70409942e-01  2.66409870e-02  8.07706341e-02  2.00280577e-01
  2.47128397e-01  4.98647976e-04  5.96175864e-02 -3.47787626e-02
  1.51137874e-01 -2.35582575e-01 -4.93328236e-02  6.30481318e-02
  1.00424640e-01  1.06669990e-02  8.32333192e-02 -1.44957468e-01
  1.61453541e-02  8.65485892e-02 -2.19080672e-01 -2.91321855e-02
  2.01260913e-02 -1.11100316e-01 -1.18804285e-02 -6.74178749e-02
  1.46088079e-01  8.13459232e-02 -1.24984302e-01 -1.35205835e-01
  1.68519616e-01 -1.38239175e-01  3.44930822e-03  7.06017986e-02
 -2.02928051e-01 -2.11293131e-01 -2.77468443e-01 -8.34306143e-03
  3.70384187e-01  1.07759312e-01 -1.85296461e-01  2.65642833e-02
 -6.63331524e-02  3.52961533e-02  5.04131876e-02  1.23576336e-01
  7.07966909e-02  2.58038584e-02 -1.39116406e-01 -1.19590794e-03
  1.83490813e-01 -9.70178992e-02  4.19419557e-02  2.64035642e-01
 -4.22669714e-03  1.21169928e-02 -2.41215173e-02  2.19438225e-04
 -3.96388285e-02  4.40741442e-02 -1.29262164e-01 -9.77797341e-03
 -2.73563769e-02 -6.07536547e-02  9.70477890e-03  7.85530880e-02
 -1.86747164e-01  5.66879027e-02 -1.27658714e-02  5.39346226e-02
 -5.08778170e-02 -3.43006067e-02 -8.39400962e-02 -2.96158642e-02
  5.67498580e-02 -2.45029569e-01  1.68425843e-01  2.41319180e-01
 -4.28324230e-02  6.16969578e-02 -1.64916145e-03  3.83090973e-02
  8.09958205e-03 -6.29334673e-02 -1.28352597e-01 -1.41314445e-02
  8.76363665e-02 -5.14847748e-02  1.64787322e-02 -2.81184856e-02]