[-0.14726363  0.03184241  0.08646163 -0.074927   -0.07414096 -0.07761034
 -0.00307461 -0.1008592   0.10050552 -0.03974784  0.21726356 -0.02730213
 -0.18584119 -0.11912619 -0.04451367  0.24104849 -0.25447628 -0.13517934
 -0.01494984  0.03867732  0.1100608  -0.03570431 -0.0013875   0.0722456
 -0.13718326 -0.35391968 -0.08685929 -0.07308222 -0.08007446 -0.03761054
 -0.04852831  0.13428433 -0.18378437 -0.03198003  0.05649525  0.12006327
  0.03010423 -0.07801608  0.10702816 -0.02895608 -0.28487617  0.04120766
  0.17510767  0.21863869  0.25643018  0.01054675  0.00169096 -0.06100589
  0.14625207 -0.20866068 -0.07523222  0.10330166  0.05631626  0.02526184
  0.04959784 -0.13935484  0.04849198  0.07568379 -0.23046122 -0.05063943
  0.01532557 -0.14182989  0.0011158  -0.10480411  0.12909876  0.09535297
 -0.10018122 -0.17590348  0.19218156 -0.15414444 -0.03814201  0.06215552
 -0.18993874 -0.20960844 -0.32077023 -0.04929269  0.33028543  0.11346489
 -0.1366058   0.08635315 -0.00316136  0.0010434   0.06626576  0.13875376
  0.04378803  0.05862497 -0.11849796  0.01447942  0.21336769 -0.03277544
  0.03653768  0.1942918  -0.01766664 -0.01319284  0.02576587  0.03032693
 -0.06436539  0.05986563 -0.21932974  0.00155076 -0.07487316 -0.05421827
  0.00566927  0.10564686 -0.14443462  0.02681388 -0.00501334 -0.00059043
 -0.10525163 -0.0373723  -0.06710832 -0.01206058  0.05573406 -0.21090046
  0.19493508  0.21626203  0.02454796  0.07816153  0.03209722  0.03634044
 -0.05058258 -0.06132752 -0.16874026 -0.01771867  0.09335319 -0.07371203
  0.0827158  -0.01863561]