[-0.12051708  0.07564321  0.09102454 -0.05981929 -0.046285    0.02268502
  0.07920311 -0.17039984  0.17220236 -0.11562574  0.24982917 -0.03660236
 -0.30289567 -0.08272785  0.01300413  0.21061157 -0.16030125 -0.18638626
 -0.12570262 -0.03190643  0.02996152 -0.03314501  0.01727601  0.03948299
 -0.21898095 -0.32308924 -0.0908578  -0.0866638  -0.08341695 -0.04777115
 -0.04992239  0.10996383 -0.15168051 -0.04691084  0.03830941  0.07187906
 -0.03869861 -0.06567402  0.17226294 -0.04915606 -0.25936934  0.05834834
  0.11646485  0.22400354  0.2069851  -0.03626502  0.02504605 -0.07447175
  0.14078455 -0.23759246 -0.03336475  0.09037679  0.083813    0.06312655
  0.03483155 -0.15111992  0.01143845  0.12063018 -0.22493617 -0.0017345
  0.07315423 -0.16445328 -0.07058865 -0.04277005  0.10929739  0.11440516
 -0.13038146 -0.190881    0.12028432 -0.15638857  0.00779653  0.09551015
 -0.19007936 -0.21224895 -0.27508247 -0.00720334  0.3706868   0.08675649
 -0.13536745  0.04399831 -0.04840849  0.04669524  0.05739711  0.07566022
 -0.00989982  0.01991725 -0.10290664  0.04206304  0.20253806 -0.03891255
 -0.01419096  0.2550132  -0.00133789 -0.00668855  0.04154719  0.06327793
 -0.08247232  0.00635729 -0.15493672  0.01848099 -0.0299078  -0.0473776
  0.02617497  0.04110146 -0.15617678  0.14054652 -0.02791185  0.07027411
 -0.02881492 -0.04650391 -0.0797505  -0.01237863  0.11075697 -0.28085667
  0.11166295  0.19571291 -0.02018681  0.07250988  0.06117959  0.00341535
 -0.0287341   0.02269543 -0.20550334 -0.02526553  0.13774316 -0.06393728
  0.09506635 -0.02047115]