[-0.13252477  0.05059115  0.0728384  -0.06014492 -0.04421852  0.03188515
  0.07243665 -0.15408252  0.13405634 -0.09797426  0.29386288 -0.02379273
 -0.28613254 -0.10944033  0.01304222  0.20390463 -0.18138058 -0.15616186
 -0.09334853 -0.03262658  0.04732447 -0.04512321 -0.01107774  0.03660906
 -0.21248333 -0.30944324 -0.08749173 -0.09206607 -0.06543753 -0.03255353
 -0.05811522  0.11593606 -0.14702736 -0.0382897   0.03484026  0.06228566
 -0.03119547 -0.07071443  0.16738576 -0.0590707  -0.23372875  0.06080241
  0.1000705   0.2154233   0.20881942 -0.02220185  0.01508977 -0.0518444
  0.13308114 -0.26526684 -0.02830431  0.08755504  0.08360403  0.05675786
  0.01383694 -0.18150641  0.01028148  0.11602018 -0.22886543 -0.0116314
  0.01631754 -0.18203659 -0.048178   -0.05639342  0.11616421  0.11935582
 -0.14154066 -0.16813388  0.13070402 -0.12924315  0.01205497  0.0911481
 -0.19367668 -0.23549068 -0.29012156  0.03428459  0.38498896  0.10810323
 -0.15238871  0.04227362 -0.04059924  0.03305758  0.07670502  0.07790866
  0.00529623 -0.01853323 -0.11432236  0.02360154  0.19007613 -0.04073106
 -0.02534753  0.25687933 -0.01646352  0.00820099  0.04170307  0.08759122
 -0.06456771  0.01318426 -0.12198203  0.0287987  -0.01257701 -0.0715111
  0.02145116  0.07227029 -0.15761887  0.13752627 -0.03685892  0.06787981
 -0.03033704 -0.07258981 -0.05455691  0.01291896  0.09807362 -0.29404184
  0.13144957  0.2069578  -0.01283052  0.11395319  0.05849053 -0.00399067
 -0.03753759 -0.00521119 -0.22873807 -0.03357735  0.13255005 -0.06651969
  0.08838288 -0.01219876]