[-0.11484402  0.06105137  0.09447843 -0.08304121 -0.08345854 -0.07734551
  0.05304294 -0.11510825  0.11856542 -0.05234393  0.27056608 -0.07204995
 -0.23321748 -0.12607914 -0.01833629  0.24958639 -0.20823696 -0.1186771
 -0.04055547 -0.00109576  0.08618987 -0.03663904  0.02156313  0.09121723
 -0.10118041 -0.33969411 -0.08772536 -0.08255541 -0.06153814 -0.0375492
 -0.01997594  0.16167359 -0.17657483 -0.05198408  0.06872453  0.13029189
 -0.01652086 -0.07535871  0.13266572 -0.02217252 -0.25409794  0.01339558
  0.13017444  0.23550108  0.2034055   0.00798631  0.03593097 -0.05919626
  0.12276237 -0.21575728 -0.02108331  0.09980589  0.08972516  0.0039604
  0.0728324  -0.15915528  0.0143235   0.08688118 -0.19872861 -0.03376597
  0.03652397 -0.1306375  -0.01751161 -0.11639573  0.17222165  0.08880517
 -0.12449403 -0.12639976  0.21022041 -0.12151226 -0.01758848  0.09073054
 -0.2039461  -0.19106011 -0.28337958 -0.02563665  0.38847914  0.08620754
 -0.13647431  0.04758671 -0.046089    0.01357676  0.04787412  0.16487603
  0.054681    0.05479316 -0.10351826  0.02866233  0.17756025 -0.08932804
  0.01198213  0.24228369 -0.02553832  0.01070753 -0.00982183 -0.03504044
 -0.03128081  0.03550123 -0.17841721 -0.01266482 -0.07766171 -0.06063076
 -0.01736874  0.06990484 -0.16412909  0.01264659  0.01089163  0.02434417
 -0.08285154 -0.03633281 -0.07307777 -0.03157296  0.08167147 -0.2530582
  0.16815953  0.20602503 -0.00394514  0.07389167  0.03108084  0.04317094
  0.01717923 -0.10951066 -0.16153626 -0.00164711  0.11444759 -0.05574807
  0.04412109 -0.02370765]