[-0.09905729  0.08825457  0.11693139 -0.0639568  -0.08859973 -0.02099701
  0.01689171 -0.05329633  0.12129086 -0.05069162  0.27578208 -0.05586356
 -0.2609615  -0.06890451 -0.00744186  0.22403827 -0.19253667 -0.10509415
 -0.0269113   0.06750189  0.14430861 -0.03822419  0.02495663  0.05349857
 -0.12332851 -0.39457244 -0.07230927 -0.0286247  -0.03643391 -0.08476616
 -0.05060965  0.10002121 -0.16489802 -0.01435486  0.03841009  0.10414513
 -0.00070849 -0.1298158   0.13637927 -0.01123629 -0.30707309  0.07268222
  0.08946217  0.21621506  0.2229981   0.03440091  0.03205932 -0.04623098
  0.11357391 -0.24570704 -0.03862413  0.11600257  0.06545775 -0.00696541
  0.04422187 -0.13587351  0.02115837  0.04319711 -0.22574763 -0.07566266
  0.05332401 -0.10449111  0.02268486 -0.11201882  0.12781556  0.06133629
 -0.1188298  -0.13487047  0.15727769 -0.14592858  0.01111982  0.10183626
 -0.18660532 -0.22191381 -0.2380977   0.00427672  0.38431031  0.13162656
 -0.14380392  0.06019343 -0.03423515  0.01581106  0.04599578  0.14215606
  0.06770661  0.05019532 -0.13701725  0.02192313  0.21217299 -0.08103546
  0.01999356  0.26705027  0.02209887 -0.00418821  0.01204107  0.0131588
 -0.05094877  0.03093707 -0.16029984 -0.0095349  -0.0672337  -0.05901358
 -0.02294658  0.08688407 -0.18732564  0.06301875 -0.02308562  0.00516132
 -0.03866588 -0.01871094 -0.06452989 -0.04633434  0.05160582 -0.27178535
  0.11372818  0.22249375  0.02551961  0.07221231  0.03388947  0.05589561
  0.01845327 -0.05926937 -0.16002712 -0.05501753  0.07928497 -0.0412644
  0.05815962 -0.03422419]