[-0.13907669  0.09913045  0.12341917 -0.07562337 -0.0773742  -0.07095543
 -0.00359107 -0.09970405  0.11880751 -0.04153375  0.27842593 -0.0459726
 -0.23357959 -0.11520107  0.00128425  0.21724398 -0.20314424 -0.13286914
 -0.03538279  0.0875925   0.16448541 -0.05730598  0.03628403  0.06806812
 -0.13462961 -0.40627751 -0.09254702 -0.05049227 -0.06278746 -0.03705528
 -0.04405383  0.06700242 -0.20901687 -0.04790729  0.0479333   0.11107693
  0.00813092 -0.11917913  0.12093256 -0.02950309 -0.29797104  0.04845669
  0.10466412  0.19921747  0.22199304  0.02439307  0.06965096 -0.0754998
  0.12737872 -0.22324114 -0.01950332  0.11262669  0.09623716  0.00559009
  0.06606058 -0.15224378  0.01785834  0.05893682 -0.20400906 -0.04546213
  0.04584065 -0.09450388 -0.01567267 -0.14368264  0.14052258  0.08247953
 -0.13226798 -0.167733    0.15537465 -0.12408467 -0.00572952  0.10122001
 -0.21388161 -0.21568468 -0.29633084 -0.02034878  0.3716625   0.09952781
 -0.18687539  0.02815073 -0.07221463  0.04100417  0.01134618  0.13829517
  0.07847167  0.07221528 -0.14652635  0.0167421   0.21946143 -0.09692087
  0.02189517  0.25601897  0.00738103 -0.00050764 -0.00883904  0.01512188
 -0.06595968  0.02964975 -0.16416121 -0.00322678 -0.06861207 -0.03306125
 -0.03542973  0.08415952 -0.18054602  0.03334653 -0.01148488  0.01277793
 -0.06478126 -0.0343178  -0.0901379  -0.07121452  0.04211438 -0.24631535
  0.15215971  0.2290751   0.02390835  0.07468414  0.02795283  0.0555608
 -0.00186974 -0.0404721  -0.14765039 -0.04016886  0.07886567 -0.02734729
  0.03968194 -0.0382694 ]