[-0.13202769  0.07899603  0.04599784 -0.05424789 -0.02137888  0.03631405
  0.05999851 -0.12753403  0.16614787 -0.07045906  0.23479374  0.00395939
 -0.29102048 -0.09817363  0.03736793  0.2185916  -0.17442848 -0.18419103
 -0.11230184 -0.01756993  0.01332682 -0.05471313 -0.01044012  0.0502818
 -0.19068602 -0.3069407  -0.06263421 -0.08988078 -0.05884472 -0.02421491
 -0.0617956   0.10658494 -0.17347722 -0.0391689   0.0587195   0.09722754
 -0.02548673 -0.07556996  0.18602848 -0.03059985 -0.23805797  0.03250513
  0.0869872   0.21467648  0.22737689 -0.02357328  0.00998496 -0.02759544
  0.13898079 -0.27911326 -0.02249484  0.08085119  0.08132363  0.06848355
  0.00467909 -0.20452681  0.01071745  0.12316715 -0.2456512  -0.04612151
  0.01127655 -0.18087518 -0.06643555 -0.04706403  0.15275469  0.14940958
 -0.14245693 -0.1794759   0.1501532  -0.13335383  0.03638798  0.08340404
 -0.16725944 -0.20235805 -0.27997035  0.0350295   0.39053684  0.11740222
 -0.14985356  0.02950616 -0.05787976  0.02467239  0.05310559  0.07227504
 -0.0007934  -0.01706782 -0.10446192  0.00133946  0.19824283 -0.00818842
 -0.02202406  0.22292669 -0.01158969  0.01425276  0.01952009  0.05635909
 -0.05945666 -0.00274009 -0.14555942  0.0038276  -0.06269949 -0.03325614
  0.02940658  0.0900732  -0.14524072  0.10990997 -0.01221326  0.05721799
 -0.03418442 -0.02952936 -0.05709752 -0.02784451  0.07954683 -0.29172465
  0.12985633  0.19129461 -0.02022586  0.09935082  0.04983782  0.01708454
 -0.01687622  0.00367476 -0.22959642 -0.03291192  0.13056873 -0.04001733
  0.08494084 -0.00333089]