[-0.15370779  0.0441413   0.14635825 -0.06394847 -0.06510103 -0.09146594
  0.01754096 -0.08408009  0.11923927 -0.02697077  0.2935172  -0.06810986
 -0.23742421 -0.09270526  0.00972015  0.24749568 -0.20530868 -0.09680028
 -0.02785663  0.07523466  0.10579157 -0.04119618  0.02947703  0.05916164
 -0.12752366 -0.37592956 -0.14513278 -0.06805283 -0.06359925 -0.03354028
 -0.05746661  0.08329603 -0.17897023 -0.07061611  0.07205749  0.11655562
  0.02342239 -0.12576641  0.1098469  -0.02243839 -0.28705308  0.04036842
  0.12789926  0.19666784  0.16861053  0.0414534   0.05397764 -0.08564725
  0.111427   -0.20548511 -0.01811398  0.08289426  0.07912206  0.01905786
  0.0660681  -0.14120123  0.048794    0.08838186 -0.2052681  -0.03947085
  0.05924461 -0.0767571   0.0076152  -0.11021884  0.14141601  0.10502764
 -0.11496683 -0.16856904  0.15497884 -0.11107659 -0.01713623  0.09373029
 -0.2030555  -0.20884731 -0.28874752 -0.03410915  0.35972077  0.05886716
 -0.16616683  0.05333031 -0.0610768   0.00529282  0.03448897  0.15132806
  0.08022064  0.07978657 -0.12648444  0.0080419   0.23319045 -0.09966213
  0.07700012  0.25148213 -0.01000991  0.0168061  -0.00904747  0.01370631
 -0.0423338   0.04766138 -0.13825634  0.00695659 -0.03160346 -0.02925179
 -0.0249795   0.06484276 -0.21133696  0.02993717  0.01170526  0.00700083
 -0.04860158 -0.04551541 -0.05469264 -0.03174275  0.06945548 -0.26415098
  0.16902356  0.22758029 -0.01726553  0.05310545  0.01281437  0.05164151
 -0.01032684 -0.06376515 -0.1722675  -0.01539374  0.09276765 -0.06179556
  0.02003615 -0.02585415]