[-0.12040206  0.09142215  0.08964846 -0.0537344  -0.02589072  0.02192466
  0.07383559 -0.1719413   0.18332347 -0.10553938  0.26804891 -0.03089543
 -0.29671338 -0.08584391 -0.00049479  0.21126977 -0.16529952 -0.17549954
 -0.11241126 -0.01871053  0.03726613 -0.03115585  0.01010874  0.02239773
 -0.20083253 -0.32500443 -0.09004679 -0.07572223 -0.07354534 -0.04736613
 -0.05402897  0.1013598  -0.1670623  -0.0576827   0.02583596  0.07028287
 -0.03299681 -0.06481796  0.16531311 -0.05129595 -0.26027602  0.07641906
  0.11115678  0.23189545  0.20552257 -0.03070303  0.0183017  -0.08531771
  0.12467233 -0.22676364 -0.03192379  0.08095057  0.07845315  0.0593775
  0.01619186 -0.16491167 -0.00186116  0.11538102 -0.21306913 -0.0061292
  0.07737286 -0.15846951 -0.06080451 -0.04042735  0.11690543  0.11030132
 -0.13207451 -0.19246034  0.10504525 -0.14481086  0.01678445  0.09489802
 -0.18926951 -0.21375214 -0.2921482   0.01712727  0.37785789  0.07208846
 -0.13071001  0.0478397  -0.04668244  0.05149796  0.07409457  0.08665593
 -0.0017041   0.01754048 -0.11010486  0.03903307  0.20550935 -0.03568037
 -0.03033969  0.24379495 -0.01770154  0.00135726  0.02471834  0.07472331
 -0.07856783  0.01914365 -0.15401371  0.02004004 -0.02278242 -0.03462993
  0.02002889  0.06470267 -0.14758128  0.1225298  -0.01999127  0.07716365
 -0.00905825 -0.0419612  -0.06613754 -0.02156815  0.10028801 -0.27988705
  0.12701464  0.19303955 -0.01651487  0.07505763  0.07055701  0.00827965
 -0.02480987  0.03406827 -0.21804178 -0.01453461  0.13267864 -0.05142855
  0.10797768 -0.01966271]