[-0.1570448   0.04695847  0.14040068 -0.06886011 -0.06370311 -0.08521153
  0.02294955 -0.07382634  0.1289054  -0.02255656  0.29600224 -0.05444271
 -0.2410935  -0.10208686  0.00932473  0.25028735 -0.20121109 -0.09062403
 -0.03373962  0.06495231  0.10203501 -0.04769118  0.03952027  0.05112857
 -0.1217459  -0.38007504 -0.13981275 -0.06454457 -0.05478629 -0.03886782
 -0.04991926  0.08324217 -0.17750405 -0.07089695  0.07197559  0.11836378
  0.02238751 -0.12543836  0.11225595 -0.02791164 -0.28175616  0.03038539
  0.12643902  0.18917733  0.17349838  0.04337465  0.05625163 -0.09376781
  0.1129773  -0.20583284 -0.02018449  0.08050343  0.07421528  0.01324022
  0.07106092 -0.14109221  0.05480706  0.08227172 -0.21219642 -0.05665755
  0.05452213 -0.07085838 -0.0048703  -0.11039922  0.13623489  0.10162288
 -0.11493941 -0.1755309   0.15997846 -0.11332353 -0.00090995  0.10315285
 -0.1941122  -0.21399537 -0.28225669 -0.03199998  0.35480264  0.0671203
 -0.15710901  0.05481384 -0.06672924 -0.00039797  0.03114036  0.139994
  0.07184245  0.07603263 -0.12951986  0.0064141   0.22539501 -0.10053612
  0.0768977   0.24668801 -0.00559112  0.01813116 -0.0140112   0.01901097
 -0.04909135  0.05891683 -0.14117815  0.00491503 -0.02457624 -0.03143736
 -0.02033395  0.05532127 -0.21222921  0.03135114  0.0083657   0.00459114
 -0.04873119 -0.05766473 -0.0583819  -0.02830765  0.07227266 -0.26826951
  0.16869156  0.23172227 -0.01804931  0.05849595  0.02328342  0.05316199
 -0.0066151  -0.07190854 -0.17062192 -0.01245362  0.08641014 -0.07035012
  0.01871343 -0.02939067]