[-0.14702271  0.07228519  0.11750557 -0.10761743 -0.12229116 -0.05873728
 -0.03008067 -0.12241872  0.1096921  -0.14518279  0.2440553  -0.1550559
 -0.25261453 -0.08322763 -0.044815    0.28629783 -0.18219939 -0.16111009
 -0.06592145 -0.01855519  0.06536108 -0.03112275 -0.03053395  0.06441488
 -0.15048793 -0.37697729 -0.10939156 -0.11326003 -0.07099826 -0.04910857
 -0.06295461  0.06656577 -0.16328703 -0.0536464   0.0666173   0.14118339
  0.00170374 -0.10478514  0.09674814 -0.06143154 -0.29234231  0.07016944
  0.14536533  0.19618367  0.18911158  0.02109085  0.01959167 -0.10553046
  0.17625704 -0.2173727   0.03367119  0.06036065  0.05931177  0.04202321
  0.06457398 -0.16919623  0.04677154  0.17244099 -0.25290188  0.01559175
  0.11425103 -0.13535829 -0.05875048 -0.09969566  0.18260862  0.16188523
 -0.16150258 -0.18394956  0.17636833 -0.14722161  0.03465772  0.07175732
 -0.18523939 -0.16467617 -0.30801523  0.01093172  0.39744872  0.09084927
 -0.150113    0.00854174 -0.00423217  0.06122939  0.06712713  0.13837937
  0.02241432 -0.00706791 -0.09183497  0.00243398  0.19178247 -0.04475952
  0.02051776  0.22937886 -0.06139613  0.00591685  0.01110869  0.04364723
 -0.15378912 -0.04219974 -0.12388257 -0.01551049 -0.03837944 -0.08949551
 -0.05455254  0.07533381 -0.14775756  0.0871036  -0.0649708   0.04542173
 -0.07311367 -0.03210567 -0.04464247 -0.00166274  0.12253103 -0.20628536
  0.17922193  0.17799531  0.04105461  0.09767535  0.09813347  0.03029723
 -0.02108739 -0.05434816 -0.21845897 -0.03422142  0.11201691 -0.09043739
  0.1048222  -0.01672758]