[-0.17643833  0.07684426  0.07795057 -0.11652421 -0.11911985 -0.04718675
  0.046383   -0.08374661  0.11440041 -0.05823556  0.30611432 -0.1618859
 -0.24489474 -0.04434043 -0.05808691  0.24854468 -0.22936089 -0.10960247
 -0.02464456  0.01185814  0.13674361 -0.02402382 -0.04546855  0.05360984
 -0.1630553  -0.35673305 -0.09137724 -0.07691883 -0.01113061 -0.0734802
  0.00567506  0.07682008 -0.1885391  -0.04210794  0.02597535  0.09412759
  0.01127665 -0.13598506  0.13989945 -0.02116661 -0.28305605  0.02251337
  0.14627509  0.23012479  0.14717543 -0.00167104  0.01601419 -0.09234401
  0.11339094 -0.21737979 -0.00413858  0.08122665  0.05615528  0.04121261
  0.0202793  -0.15248439  0.02878794  0.15543665 -0.25775251 -0.01537686
  0.08041443 -0.05520356  0.0138338  -0.11369123  0.14701085  0.11455146
 -0.12699215 -0.13434534  0.15965497 -0.10552378  0.00080924  0.07345022
 -0.17410806 -0.22211467 -0.29053587  0.01559976  0.37676179  0.08610808
 -0.13555919  0.01201535 -0.00280269 -0.00857794  0.10839402  0.13796291
  0.04809626  0.01857015 -0.10151958  0.0487108   0.21017621 -0.07137342
  0.02083205  0.23825958 -0.03131208 -0.02876055 -0.01184189  0.07146131
 -0.11488362  0.03462989 -0.11360884 -0.00405956 -0.02241937 -0.05131627
 -0.0382951   0.1148501  -0.17066802  0.07903308  0.00348765 -0.0061478
 -0.09531496 -0.07042972 -0.00738964  0.00798325  0.09048555 -0.19938441
  0.16127639  0.19044547 -0.00505114  0.10880297  0.06247823  0.00516759
  0.00834539 -0.06222326 -0.19991201 -0.00591761  0.09632555 -0.06352016
  0.08031292 -0.03084417]