[-0.09527817  0.05288929  0.08610144 -0.06268624 -0.07399338 -0.03779925
  0.07865956 -0.13138478  0.14116956 -0.05810447  0.2082089  -0.06364336
 -0.2512314  -0.06158379  0.01273918  0.23587513 -0.2037268  -0.14731263
 -0.07458699  0.01420418  0.09739628 -0.07498389  0.01302979  0.10815542
 -0.1293381  -0.31839105 -0.10551894 -0.08412234 -0.01751947 -0.06854608
 -0.04036628  0.10778663 -0.17069606 -0.03796219  0.03793928  0.08616888
 -0.01267347 -0.14177249  0.14421056 -0.02666095 -0.28058684  0.03661729
  0.1021774   0.2081102   0.2096303   0.00684192  0.03446935 -0.05495002
  0.12564085 -0.22930887 -0.00109316  0.08111379  0.06720994  0.02188676
  0.08953246 -0.18391816  0.01537096  0.0669927  -0.20838694 -0.01274961
  0.01860403 -0.10073805  0.00539489 -0.09885656  0.11953092  0.11976569
 -0.07216842 -0.17326358  0.20598798 -0.15876159 -0.01728514  0.07933161
 -0.18846901 -0.18500145 -0.25489682 -0.05420297  0.36386418  0.12298881
 -0.16443343  0.05561601 -0.04228211  0.00267321  0.06486886  0.15549529
  0.06981454  0.05946743 -0.12000003  0.02402098  0.19222462 -0.08637445
  0.01529825  0.27364257 -0.00729548 -0.04053845  0.00323444 -0.01841146
 -0.07476939  0.04502005 -0.17669921 -0.06799201 -0.02186777  0.01060606
  0.00179493  0.10009872 -0.17216329  0.046313   -0.00925133  0.02815711
 -0.06641008 -0.02971112 -0.08445004 -0.02777539  0.08752188 -0.24098933
  0.12939648  0.21043991 -0.03598138  0.0217635   0.00317152  0.03457266
  0.03772727 -0.06420489 -0.19524059  0.00803485  0.11793726 -0.04539117
  0.01235235 -0.00705362]