[-0.15842359  0.07352716  0.09455364 -0.093407   -0.08275948 -0.0549033
  0.0077559  -0.11318805  0.11778499 -0.06145614  0.30620986 -0.16629474
 -0.26639214 -0.0473177  -0.03872734  0.2299325  -0.22695668 -0.10074823
 -0.00182712  0.04003469  0.13447098 -0.09033408 -0.01857557  0.05652379
 -0.12345608 -0.35489276 -0.12450874 -0.05972925  0.00820975 -0.05934607
 -0.04366478  0.04501179 -0.19568904 -0.05868859  0.03209961  0.11245214
  0.0241243  -0.15675244  0.11874896 -0.07068207 -0.2817708   0.06072342
  0.12607658  0.17900012  0.16402227  0.01364267  0.02347576 -0.10558841
  0.12418567 -0.20905744 -0.02439549  0.10193483  0.07376719  0.02828195
  0.00219311 -0.18100427  0.03416483  0.12635957 -0.22104028 -0.03288215
  0.08544055 -0.06173462  0.03016978 -0.09391009  0.13356888  0.12085724
 -0.12851569 -0.18230598  0.14310868 -0.12247049  0.03715029  0.09014241
 -0.19584066 -0.21874325 -0.28390098 -0.00900035  0.35960498  0.06307036
 -0.12963246  0.05801649 -0.05809528  0.02253306  0.07058191  0.14752224
  0.08214975  0.03460665 -0.12751949  0.01067435  0.2194366  -0.10535952
  0.03614623  0.22813343 -0.03191794  0.01281827 -0.0145117   0.06323051
 -0.10305015  0.01702147 -0.11741833  0.00356753 -0.06486525 -0.03433526
 -0.04770385  0.08850934 -0.19646278  0.05597625  0.00144694  0.0136025
 -0.07871434 -0.07497907  0.00346844  0.00213085  0.08014897 -0.26728168
  0.16489552  0.21902178  0.02043835  0.09312321  0.05343072  0.01253011
  0.02662471 -0.04884273 -0.18561533 -0.01173521  0.04875961 -0.05619304
  0.03346358 -0.03578763]