[-0.07812474  0.01710654  0.07441299 -0.05143985 -0.06407414 -0.04017653
  0.06632813 -0.08672655  0.1394662  -0.06437197  0.23913227 -0.0268579
 -0.23131    -0.11128493  0.02102271  0.22664022 -0.16856216 -0.11399527
 -0.08785589 -0.00848483  0.06686621 -0.02564371  0.01766371  0.11056783
 -0.14133385 -0.33122942 -0.09841669 -0.08368512 -0.05585495 -0.06836762
  0.00715788  0.17972453 -0.12922011 -0.03975266  0.06311299  0.07555401
  0.02182576 -0.06416872  0.13173506 -0.00974957 -0.2358245   0.05138341
  0.11168014  0.25226611  0.20913246  0.00723333  0.04597524 -0.03202161
  0.09480049 -0.22242105 -0.01217768  0.06245818  0.06168259  0.01001926
  0.08044067 -0.17536087  0.00826768  0.08617424 -0.24164028  0.02380288
  0.01114139 -0.1211304  -0.05340431 -0.07827995  0.13417968  0.10406639
 -0.12484574 -0.16416173  0.1930989  -0.16558973 -0.00940016  0.07495489
 -0.19602947 -0.19403772 -0.25755006 -0.01312444  0.36802641  0.11727668
 -0.20853639  0.05603243 -0.01837192  0.01838622  0.0495361   0.12903859
  0.04920476  0.01813737 -0.09566424  0.00861334  0.16000645 -0.01562911
 -0.00660268  0.26655418  0.00230823 -0.06112483  0.04306948 -0.01537422
 -0.05333804  0.00796586 -0.20602024 -0.04423072 -0.05935219 -0.06360086
 -0.01105315  0.04643003 -0.16159828  0.12250713 -0.00520382  0.01314099
 -0.06664915  0.00902166 -0.11786995  0.00142081  0.1271853  -0.24588063
  0.15194158  0.1954128   0.03739163  0.08441557  0.02268058  0.06940085
  0.00467676 -0.04232555 -0.14863755 -0.02531363  0.10008615 -0.09702726
  0.06633916 -0.01533134]