[-0.11466284  0.05967556  0.11428986 -0.06017157 -0.09438926 -0.07316539
  0.03939867 -0.08637025  0.08347689 -0.04895202  0.21292961 -0.10231125
 -0.25588283 -0.04125479 -0.05088242  0.22957206 -0.15881954 -0.11912753
 -0.08928215 -0.00742176  0.14380094 -0.03044753 -0.02917245  0.10268121
 -0.15476896 -0.34762561 -0.09693915 -0.06615723 -0.01868041 -0.09386279
 -0.01717652  0.11369281 -0.20330802 -0.0450229   0.05162049  0.11135379
  0.02836574 -0.0855872   0.12419895  0.0101908  -0.28364608  0.04607959
  0.14391302  0.2239507   0.18768264  0.05759753  0.05946653 -0.04677
  0.08451115 -0.22183104 -0.02179568  0.10251921  0.09248935  0.03773499
  0.06290521 -0.18022721  0.02662756  0.08777015 -0.23535776  0.02098786
  0.05699904 -0.12974954 -0.02879261 -0.07019576  0.15107755  0.06441598
 -0.1157582  -0.10559316  0.25680208 -0.16762324  0.02365813  0.07784253
 -0.1524141  -0.17490155 -0.2580246  -0.01513851  0.40153748  0.11984493
 -0.17265086  0.05741873 -0.05575274  0.03876155  0.05184994  0.12423187
  0.04205744  0.06357782 -0.08253593  0.05933912  0.1960665  -0.04011651
  0.06394608  0.25354329  0.01387717 -0.04501478  0.01766115  0.0021731
 -0.09263432 -0.02407661 -0.13856792 -0.02217579 -0.05079145 -0.06378575
 -0.00845476  0.07718164 -0.18811391  0.06723254 -0.0128807  -0.02696912
 -0.09135523  0.00474937 -0.07172044 -0.02549015  0.10282955 -0.24775819
  0.15588902  0.23711298 -0.03862922  0.05240231  0.03098262  0.06014867
  0.03929779 -0.09359356 -0.1639947  -0.05835846  0.104041   -0.1102001
  0.04328599 -0.03396478]