[-0.17454961  0.06647604  0.11143954 -0.09069195 -0.08310111 -0.07150244
  0.00881278 -0.09403559  0.12051771 -0.0659984   0.29665136 -0.12192327
 -0.26768661 -0.05905927 -0.01277718  0.21723925 -0.20516621 -0.08520501
  0.0023835   0.03520863  0.14143853 -0.08994237 -0.00643944  0.08609893
 -0.11390009 -0.3680757  -0.14315341 -0.06850084 -0.00464259 -0.06189558
 -0.02697301  0.03911778 -0.18578838 -0.05348825  0.01968413  0.09694362
  0.00965992 -0.16333663  0.11206543 -0.06361753 -0.28103995  0.02603118
  0.10830239  0.17230809  0.15682797  0.01219206  0.04548712 -0.07660327
  0.12250727 -0.21477135 -0.02441598  0.109757    0.06994571  0.02191819
  0.02991368 -0.17977262  0.03737064  0.1268311  -0.23391525 -0.03394127
  0.04747153 -0.05623661  0.02061775 -0.08440235  0.12724118  0.13878727
 -0.1358794  -0.1707003   0.17209071 -0.13250642  0.04544277  0.10276265
 -0.20708476 -0.23380689 -0.26382357 -0.00071377  0.36730391  0.0789056
 -0.11490126  0.04354595 -0.08176514  0.01163845  0.03324582  0.14485665
  0.07281081  0.0317181  -0.11340524  0.02144114  0.19672237 -0.08519208
  0.04234572  0.24093521 -0.01808426  0.00398149 -0.0172575   0.05918164
 -0.09737506  0.01152679 -0.11242469  0.00621462 -0.06622666 -0.05086792
 -0.04932178  0.0802815  -0.21060292  0.06214089  0.01299143 -0.00050011
 -0.08925399 -0.05583031 -0.03007527  0.00077554  0.07171134 -0.26387793
  0.1704281   0.22862747  0.02027447  0.09871123  0.03184142  0.01327206
  0.02864454 -0.09210471 -0.16662027 -0.01818191  0.05442758 -0.06366061
  0.00862442 -0.04862691]