[-0.10752471  0.06550495  0.08358111 -0.08323494 -0.09278654 -0.05753923
  0.04965961 -0.12884395  0.1258712  -0.04759028  0.2738573  -0.07668184
 -0.25135347 -0.1093195  -0.02833628  0.25492647 -0.21038082 -0.11070295
 -0.04952958 -0.00067685  0.09819766 -0.03707726  0.02811538  0.08192759
 -0.09639497 -0.36240971 -0.0725935  -0.07440197 -0.05297179 -0.04710543
 -0.02937697  0.13847457 -0.1845877  -0.05706516  0.07185649  0.13327231
 -0.03123995 -0.0834114   0.13127306 -0.02666287 -0.26405105  0.0287756
  0.12959345  0.23071471  0.19334041  0.01945785  0.03624319 -0.08542828
  0.11635824 -0.2179399   0.00056362  0.09454104  0.07806613  0.00872302
  0.05938402 -0.16457225  0.00317316  0.09082585 -0.19408725 -0.0312768
  0.05681189 -0.11947357 -0.02301491 -0.12187623  0.16106375  0.08136296
 -0.12730324 -0.13724044  0.17229645 -0.1263914  -0.02169877  0.07508812
 -0.19932683 -0.20742555 -0.29769763 -0.01559522  0.39093468  0.09136549
 -0.14371279  0.035658   -0.04037622  0.01607316  0.06663109  0.17130511
  0.07132296  0.05879065 -0.10295165  0.03486292  0.1770812  -0.10870945
  0.00579095  0.26152855 -0.02400925  0.01830414 -0.02494108 -0.01269362
 -0.05083731  0.04822707 -0.18372458 -0.02745579 -0.06014216 -0.03033888
 -0.00685582  0.0725297  -0.17467561  0.02454546  0.00727705  0.02587298
 -0.05254545 -0.04813858 -0.07679012 -0.05455412  0.0846658  -0.25334764
  0.16750765  0.23107211  0.02370957  0.07664853  0.04685098  0.02524205
  0.04324769 -0.09041021 -0.18218035  0.01269295  0.11547885 -0.04436659
  0.03202861 -0.02455447]