[-0.14262691  0.03384576  0.11007839 -0.10727318 -0.08135296 -0.08647827
 -0.00243528 -0.10824765  0.09533064 -0.04853987  0.23421887 -0.13177511
 -0.21550997 -0.07436111 -0.02204313  0.24361734 -0.22011919 -0.10970715
 -0.04764445  0.03127787  0.10252457 -0.03533264  0.00707454  0.04558644
 -0.11985862 -0.4154737  -0.09773589 -0.06728195 -0.06255608 -0.04469265
 -0.02671363  0.06914481 -0.21556687 -0.06605732  0.0534272   0.08926593
  0.00920994 -0.13767104  0.12564363 -0.02194018 -0.28891101  0.01690178
  0.12728807  0.18620442  0.21068631  0.04449916  0.01769894 -0.09129906
  0.13826717 -0.21057336 -0.04350166  0.07225945  0.03480961  0.013337
  0.02537997 -0.10781878  0.0584275   0.11084392 -0.23295188 -0.04487177
  0.07367881 -0.10356499  0.0034893  -0.10116228  0.1897745   0.08345208
 -0.11682697 -0.11721492  0.18259062 -0.10817301  0.01768568  0.0387922
 -0.16745937 -0.21535091 -0.27783939 -0.03419875  0.36155415  0.07053249
 -0.17133585  0.01759641 -0.05530909  0.02717378  0.10403758  0.14104781
  0.06261725  0.0460654  -0.08590476  0.01153792  0.24931657 -0.06866271
  0.03645944  0.25814554 -0.02759218  0.00512022  0.00988313  0.01615553
 -0.07753218  0.03909233 -0.15484755  0.00529833 -0.01597822 -0.02480844
 -0.00909096  0.11677348 -0.18136333  0.06215356 -0.00494609  0.00896191
 -0.0389684  -0.07184147 -0.02882813 -0.0564612   0.07639601 -0.20821293
  0.14648989  0.22245781  0.01735686  0.09137671  0.0228812   0.02229933
 -0.00451952 -0.05049908 -0.21557735  0.00426141  0.1156471  -0.04281364
  0.06402551 -0.0265536 ]