[-0.16265972  0.08321863  0.0941034  -0.11234156 -0.09047146 -0.04853423
 -0.02521135 -0.16241524  0.09077109 -0.09678009  0.29317954 -0.15867482
 -0.2669062  -0.09795651 -0.03726488  0.26072219 -0.18808897 -0.15511519
 -0.06633773  0.01692608  0.06123098 -0.0594499  -0.00126594  0.08167779
 -0.15842915 -0.37700579 -0.10535957 -0.10651376 -0.05604119 -0.00431628
 -0.07107965  0.04187058 -0.20521069 -0.06597952  0.06658281  0.12950161
  0.01114797 -0.11354937  0.11700324 -0.07781684 -0.28389534  0.07118469
  0.1371441   0.19639313  0.17632914  0.03455812  0.02379232 -0.10516144
  0.1231426  -0.21676822  0.04417257  0.07725693  0.05877637  0.02991321
  0.02730845 -0.18036821  0.05060629  0.16136362 -0.23056412 -0.02388989
  0.09001062 -0.10885795 -0.03805571 -0.11619826  0.19647191  0.16401832
 -0.164161   -0.16051589  0.14286919 -0.12089403  0.03660753  0.05455571
 -0.19988213 -0.17324287 -0.3390232   0.01070226  0.38377279  0.0857371
 -0.17356215  0.01923886 -0.03082536  0.06848242  0.0704371   0.1317912
  0.03767018 -0.00259181 -0.10168839  0.00130419  0.18965533 -0.06271554
  0.02733791  0.23998348 -0.05763216 -0.00597441  0.00837032  0.06685839
 -0.13058229 -0.02861701 -0.1022791   0.01770588 -0.028401   -0.03937723
 -0.03349299  0.09779803 -0.19191311  0.06351242 -0.03972466  0.03230738
 -0.02926586 -0.04858203 -0.00223186 -0.04197341  0.09252011 -0.23941794
  0.17681542  0.19651678  0.02552801  0.10401095  0.08038419  0.02197398
 -0.02043029 -0.01696873 -0.22744493 -0.03541334  0.10860707 -0.08290499
  0.09516906 -0.00660676]