[-0.0912551   0.10185777  0.11490836 -0.07995704 -0.07513355 -0.08647329
  0.07505142 -0.13406438  0.12480541 -0.0536592   0.27362537 -0.08277734
 -0.26092473 -0.07823983  0.00379864  0.21354759 -0.18519489 -0.10551864
 -0.10282256  0.03549277  0.10709713 -0.0490856   0.03070929  0.08236223
 -0.10442539 -0.32853186 -0.09700925 -0.04232134 -0.04230985 -0.06154685
 -0.05227299  0.09710579 -0.15324855 -0.05128146  0.06042752  0.11072185
 -0.01260919 -0.12604193  0.13498299 -0.03086082 -0.26470608  0.06864484
  0.08538333  0.22300461  0.23127928 -0.02949131  0.03651211 -0.05124837
  0.13338713 -0.25674817 -0.03012485  0.09792093  0.06003485  0.00926743
  0.0653438  -0.13840719 -0.00645376  0.12779753 -0.23960412 -0.03019444
  0.0756476  -0.14424972 -0.05557578 -0.11059506  0.10699248  0.1273859
 -0.15286651 -0.16743414  0.14809452 -0.14592397  0.01129153  0.08440881
 -0.20512317 -0.19472413 -0.24040125  0.01887381  0.40654674  0.1033534
 -0.15800989  0.01940409 -0.07977879  0.04084329  0.02662299  0.10541912
  0.0655551   0.04323979 -0.14795157  0.04625726  0.16795264 -0.09743218
  0.01201356  0.27883238 -0.01597016 -0.02007187 -0.01200879  0.0055686
 -0.07186379  0.01424669 -0.17644133 -0.01341509 -0.04071949 -0.07038344
 -0.02380742  0.06619351 -0.1659541   0.05863384 -0.01551872  0.02196168
 -0.05435241 -0.07330861 -0.07303713 -0.02324985  0.08063238 -0.26319277
  0.14159577  0.21193221  0.01320565  0.04959857  0.00995421  0.0160691
  0.04334822 -0.05169915 -0.13519993 -0.03282971  0.08956707 -0.01372141
  0.03441063 -0.05114722]