[-0.10839017  0.06891733  0.09501307 -0.03884989 -0.01954026  0.04717157
  0.05883539 -0.16492942  0.14874513 -0.09959991  0.29144564 -0.03937064
 -0.28097984 -0.09750169 -0.01458124  0.21465056 -0.16638391 -0.17088613
 -0.07802003 -0.02197254  0.04918951 -0.04266704 -0.00642195  0.02027665
 -0.19325054 -0.30475169 -0.0943922  -0.08073017 -0.04844287 -0.05038431
 -0.07682965  0.09780746 -0.15075147 -0.02644561  0.01606189  0.06068608
 -0.02046705 -0.08226013  0.16002467 -0.04204294 -0.23591466  0.08283578
  0.08962586  0.21777944  0.21482018 -0.01158766  0.00410347 -0.06538279
  0.10871246 -0.26067242 -0.00633366  0.08082367  0.0941093   0.05744662
 -0.01523308 -0.19669919 -0.01077861  0.1034392  -0.21044651  0.01300555
  0.03316529 -0.17234294 -0.0529645  -0.0352358   0.10879607  0.13155526
 -0.14070475 -0.16898203  0.12092882 -0.13278823  0.02147951  0.08059007
 -0.18583681 -0.22764423 -0.27942398  0.04156706  0.39712441  0.08015323
 -0.17127886  0.03978208 -0.03231791  0.05391952  0.0855028   0.09920602
  0.01223921 -0.03085328 -0.12648509  0.00107491  0.19247769 -0.04849727
 -0.03710874  0.25229806 -0.03152947  0.01579454  0.0313747   0.10144726
 -0.05045766  0.02539622 -0.118577    0.01531644 -0.02488476 -0.05569917
 -0.00530309  0.06979232 -0.15283215  0.13670625 -0.02031181  0.069772
  0.00333626 -0.06170052 -0.04600547 -0.00188494  0.10960787 -0.29101649
  0.1251436   0.21265998 -0.00933524  0.11462194  0.07157612  0.03179556
 -0.00924602  0.00597049 -0.23220964 -0.0266832   0.11125063 -0.06196974
  0.06984697  0.00110118]