[-0.12106971  0.13594668  0.10712149 -0.04006405 -0.12139809 -0.01929167
 -0.0899797  -0.11651441  0.07031    -0.06453858  0.29967228 -0.05498127
 -0.25098133 -0.08300903  0.06037848  0.20492105 -0.14633135 -0.12751141
 -0.10417149  0.0366602  -0.01945167 -0.06417044  0.04511494  0.03516966
 -0.13301818 -0.40761515 -0.09837224 -0.08889432 -0.05177932 -0.02489083
 -0.08798376  0.03482574 -0.14934993 -0.07510261  0.05732649  0.09559941
 -0.07654286 -0.10840561  0.1487513  -0.0631147  -0.25325426  0.05483526
  0.07091509  0.22583894  0.26977286  0.05714366  0.0697208  -0.05382753
  0.12329292 -0.23639786  0.05261567  0.12416563  0.06736218  0.08404001
  0.06513447 -0.13868983  0.03419966  0.13732575 -0.20814832 -0.04487008
  0.03675436 -0.07202795 -0.00379209 -0.11693656  0.23559053  0.15032934
 -0.1588016  -0.15068661  0.13613029 -0.09641521 -0.01187779  0.10525649
 -0.23702274 -0.21908727 -0.32150206  0.03768777  0.36962673  0.10606754
 -0.17068256 -0.05316333 -0.05210214 -0.01772189  0.00799243  0.10413911
  0.07296503 -0.10726899 -0.0960371  -0.00923825  0.23372613 -0.09587996
 -0.01506083  0.22466154 -0.01026237 -0.03414097 -0.02169522  0.1338443
 -0.08616388  0.0039525  -0.11426841  0.00401599 -0.00473773 -0.04516252
 -0.04491849  0.09829424 -0.18387803  0.107967   -0.01575527  0.06491975
 -0.01132062 -0.0592181  -0.05040899 -0.05687544  0.11883859 -0.28954101
  0.20104945  0.22709678  0.01962083  0.08180495  0.01491382  0.02390419
 -0.01729399 -0.03661259 -0.18841307 -0.0950373   0.05155778  0.00224561
  0.0191138   0.03380337]