[-8.56124684e-02  1.26399491e-02  6.92712441e-02 -5.85906021e-02
 -5.66847324e-02 -4.60476242e-02  5.96143678e-02 -9.08254981e-02
  1.35261700e-01 -6.16227277e-02  2.37498760e-01 -2.72789802e-02
 -2.26711437e-01 -1.11599959e-01  2.19727438e-02  2.30604962e-01
 -1.81420103e-01 -1.07881330e-01 -8.21246505e-02 -9.95039591e-04
  6.76821545e-02 -2.50263698e-02  2.36286372e-02  1.11358456e-01
 -1.35216266e-01 -3.38369220e-01 -1.08699225e-01 -9.65261087e-02
 -5.50001450e-02 -6.51509836e-02  1.24893803e-02  1.56071037e-01
 -1.21416509e-01 -2.95044165e-02  6.76700547e-02  7.84529448e-02
  1.34383542e-02 -7.26352707e-02  1.26972094e-01 -1.66819827e-03
 -2.34546885e-01  3.91613953e-02  1.02526963e-01  2.46737674e-01
  2.22511560e-01  1.44093875e-02  4.26045954e-02 -3.52408700e-02
  9.50497761e-02 -2.21680358e-01 -2.07180809e-02  5.45781553e-02
  5.33809029e-02  1.19859716e-02  8.58422443e-02 -1.67705044e-01
  2.27191504e-02  8.39648470e-02 -2.59868830e-01  1.48779722e-02
  7.40880100e-03 -1.22709312e-01 -4.27597426e-02 -7.10448548e-02
  1.34379596e-01  1.07240371e-01 -1.29056528e-01 -1.64469749e-01
  1.92413956e-01 -1.87724605e-01 -6.96863187e-03  7.11882859e-02
 -1.87028453e-01 -2.01593831e-01 -2.63354152e-01 -3.62150930e-02
  3.64799172e-01  1.32127866e-01 -1.98912770e-01  5.23886792e-02
 -1.89833976e-02  1.51692769e-02  5.80908135e-02  1.34835765e-01
  5.30206971e-02  2.09608953e-02 -9.72906575e-02 -9.27385967e-03
  1.52973130e-01 -1.85449850e-02 -3.80801030e-05  2.76542991e-01
 -1.02723371e-02 -5.24399355e-02  4.33910526e-02 -2.06319485e-02
 -5.47154024e-02  9.16150492e-03 -1.85728803e-01 -4.77112681e-02
 -7.74519145e-02 -6.43562004e-02  1.57064572e-03  4.43578251e-02
 -1.60504326e-01  1.21219777e-01 -9.56523605e-03  1.98764820e-02
 -6.98247850e-02  5.98205114e-03 -1.14934780e-01 -4.46031382e-03
  1.29026085e-01 -2.53961712e-01  1.43224835e-01  2.09634379e-01
  3.10745817e-02  8.48973915e-02  1.72505211e-02  6.83347359e-02
 -9.69204586e-03 -4.58460115e-02 -1.57480881e-01 -1.10070789e-02
  7.75071904e-02 -9.55539271e-02  6.28545210e-02 -1.75660364e-02]