[-0.1292005   0.05377859  0.10779881 -0.09560809 -0.04788928 -0.08329558
  0.00969198 -0.08028299  0.08939927 -0.03516839  0.24179602 -0.11503754
 -0.19614214 -0.0678722   0.00246936  0.18333302 -0.21229528 -0.08625686
 -0.03290112  0.03226064  0.10655145 -0.06172013 -0.02037591  0.0742723
 -0.11985953 -0.39608321 -0.10238085 -0.08466184 -0.02454089 -0.03858037
  0.00360258  0.05297859 -0.21493308 -0.03375127  0.03703785  0.09151011
 -0.01967113 -0.12526831  0.11721956 -0.02784431 -0.2528992   0.01308623
  0.08910888  0.20249334  0.21840119  0.0380003   0.01574312 -0.06030218
  0.12373984 -0.20609371 -0.05668833  0.10681428  0.07131425  0.00913678
  0.05298583 -0.11099171  0.06179088  0.07475311 -0.25490889 -0.03798363
  0.01908297 -0.10158739  0.01008141 -0.10257722  0.16747287  0.0678786
 -0.11827451 -0.10968006  0.22240809 -0.14874314  0.03410259  0.05757704
 -0.14174114 -0.2310243  -0.26256454 -0.0280223   0.35051212  0.1161041
 -0.16909897  0.05012714 -0.08989256 -0.00557422  0.06011416  0.12065879
  0.04450278  0.0413273  -0.09603855  0.00440758  0.22776978 -0.06639861
  0.05636838  0.2471559  -0.0334794  -0.02954954  0.00291082 -0.03065687
 -0.08840792  0.02333996 -0.14759727 -0.01502998 -0.05164492 -0.07262199
 -0.02131703  0.11141007 -0.23234425  0.07787183  0.02108027 -0.02287075
 -0.04463871 -0.04281849 -0.06639879 -0.05168018  0.10353732 -0.25062355
  0.14498805  0.22427873  0.0338952   0.09575818  0.01907011  0.02076774
 -0.00665354 -0.07876643 -0.19906266 -0.01679719  0.06008294 -0.04995328
  0.02070462 -0.03174271]