[-0.10676539  0.08555327  0.08493574 -0.08762095 -0.09411126 -0.06245561
 -0.00092157 -0.11423597  0.12814474 -0.08977527  0.30113205 -0.05924289
 -0.24683471 -0.11145001  0.02825185  0.23335055 -0.19730915 -0.12551296
 -0.05662208  0.03521923  0.0895802  -0.04172869  0.03304571  0.05536976
 -0.17732605 -0.3242161  -0.09470544 -0.05831537 -0.0008742  -0.06095053
 -0.0023012   0.05838339 -0.17381342 -0.04509428  0.08468594  0.13618785
 -0.01925383 -0.10695376  0.16588613 -0.08064039 -0.29691759  0.01062208
  0.13098483  0.19843578  0.22785194  0.02591681  0.01772543 -0.07416093
  0.1472733  -0.25131604  0.02650104  0.05729941  0.08681004  0.02936615
  0.05306653 -0.18875216  0.0432595   0.15329611 -0.24455357 -0.05994878
  0.07494389 -0.09149349  0.01101658 -0.05831818  0.18096213  0.11086899
 -0.16777925 -0.15045413  0.16641317 -0.15530491  0.01714996  0.11664686
 -0.1582814  -0.16325155 -0.32748631 -0.09222395  0.39099482  0.07870691
 -0.16111338 -0.01760033 -0.05737644  0.03091775  0.04125069  0.07879483
  0.03214527 -0.02275592 -0.15370123 -0.00910809  0.24091588 -0.06076503
  0.01941007  0.23811598  0.01104142  0.00385897 -0.00867373  0.04841196
 -0.10698773 -0.02408474 -0.13901536 -0.01893892 -0.08918875 -0.04205588
 -0.02187678  0.13860194 -0.20688617  0.14076142  0.01427757  0.04410392
 -0.04790959 -0.01530574 -0.06111631 -0.02567077  0.09010647 -0.25233716
  0.15950726  0.1858803   0.01905749  0.07708203  0.05253939  0.02655944
 -0.03141094 -0.06568851 -0.20242417 -0.04557196  0.02584301 -0.10219906
  0.11441191  0.00259211]