[-0.11096417  0.06027054  0.08731269 -0.05608474 -0.04969485  0.04523397
  0.06496043 -0.15016578  0.13945144 -0.1186892   0.29743165 -0.04531654
 -0.29459178 -0.07157494 -0.01077041  0.21007764 -0.17639415 -0.15335833
 -0.10087403 -0.0317296   0.04834494 -0.01229894 -0.01399153  0.02359114
 -0.19772561 -0.30799291 -0.0827642  -0.07948142 -0.05037117 -0.03355634
 -0.07768246  0.10839327 -0.14560381 -0.0377661   0.044564    0.06844489
 -0.03869658 -0.0798051   0.16049317 -0.05063841 -0.2346556   0.07544743
  0.09844419  0.23015237  0.21056186 -0.0153345  -0.00396918 -0.07230661
  0.12210669 -0.26715705 -0.01898701  0.09248975  0.0857166   0.06425292
  0.01086777 -0.1954466   0.00889241  0.11619417 -0.21411403 -0.01878677
  0.03164482 -0.17355601 -0.03134315 -0.05493699  0.12879638  0.10527575
 -0.14593664 -0.16489314  0.12263174 -0.12576523  0.01923217  0.07737715
 -0.1964542  -0.2191361  -0.28072831  0.02959653  0.38895804  0.09009475
 -0.15638925  0.05359846 -0.0371987   0.04203793  0.08417847  0.09056403
  0.01051931 -0.02579822 -0.11497518  0.02189846  0.18608658 -0.06307015
 -0.02488037  0.25442982 -0.02600812 -0.00367974  0.05104752  0.08774733
 -0.08438297  0.00889794 -0.12726586  0.02173975 -0.0212864  -0.06991673
  0.00585791  0.08293344 -0.16459645  0.14048788 -0.03941559  0.06268451
 -0.00690383 -0.08508833 -0.04756913  0.00380479  0.10964824 -0.29553553
  0.12591939  0.19659421 -0.01188074  0.12350245  0.06667959  0.00696834
 -0.03005101  0.01258634 -0.24146111 -0.03679476  0.12500761 -0.06274124
  0.08040192 -0.01063433]