[-0.1454763   0.04773114  0.1259678  -0.11136092 -0.09213237 -0.05898793
  0.00171568 -0.11928425  0.09394246 -0.04103458  0.2444742  -0.14810012
 -0.23636113 -0.0527729  -0.01166743  0.23022082 -0.19764955 -0.10871331
 -0.03700575  0.03094892  0.09909169 -0.03582972 -0.00092579  0.03761014
 -0.12024327 -0.40472579 -0.11109769 -0.05690857 -0.05029066 -0.06066949
 -0.03584494  0.05516682 -0.21859069 -0.06184623  0.04645621  0.09589238
 -0.00313044 -0.15252674  0.10295802 -0.03567423 -0.29509106  0.03424142
  0.12424512  0.17864504  0.21087556  0.05882737  0.00436765 -0.10924073
  0.11926353 -0.20045863 -0.01013832  0.07509327  0.02699836 -0.00059692
  0.02344985 -0.1344635   0.03067843  0.09794901 -0.22154775 -0.04840042
  0.0782111  -0.07234082  0.00790451 -0.11746822  0.1686254   0.09644882
 -0.11785471 -0.11912098  0.18045478 -0.10888422  0.0225393   0.04589456
 -0.1741371  -0.21806502 -0.27287412 -0.02795911  0.3648788   0.05429165
 -0.18063764  0.00885764 -0.05556467  0.03290978  0.09848952  0.13740645
  0.06475823  0.03915374 -0.09197753  0.00641368  0.25390854 -0.08135471
  0.03343699  0.26392302 -0.03146699 -0.00860405  0.01300308  0.04112974
 -0.08301511  0.02653756 -0.1678264  -0.02526659 -0.01373573 -0.02723934
 -0.03230359  0.13710813 -0.20659652  0.07787189  0.0164592   0.00626406
 -0.03424734 -0.08545987 -0.02552439 -0.04648787  0.09675308 -0.22093382
  0.13533919  0.21889006  0.01467299  0.09028142  0.0350558   0.02458516
  0.00654877 -0.05675275 -0.22161417  0.00119939  0.10718811 -0.03867326
  0.0513199  -0.01209917]