[-0.08684698  0.00350058  0.06014262 -0.04666143 -0.06080576 -0.04038214
  0.05457522 -0.09558985  0.13053986 -0.05771527  0.25451282 -0.03899949
 -0.22817276 -0.12494408  0.02278465  0.23387671 -0.19471611 -0.10399836
 -0.06738383  0.00347982  0.06315572 -0.04448637  0.02914508  0.09219262
 -0.14160612 -0.34871912 -0.09986101 -0.10173019 -0.05583836 -0.05614597
 -0.00795499  0.16193064 -0.13142581 -0.04298444  0.05796499  0.07904882
  0.04030951 -0.05691379  0.12097301 -0.00970063 -0.24350516  0.04468204
  0.10438066  0.24128723  0.2047125   0.01599129  0.03454209 -0.03535667
  0.08871176 -0.21283114 -0.01795522  0.04057785  0.05907487 -0.00772915
  0.06376456 -0.17023712  0.00826151  0.07493502 -0.23031203  0.0122858
  0.01495494 -0.11300125 -0.03716939 -0.08012444  0.14498687  0.10038351
 -0.11600655 -0.16076221  0.17420611 -0.16036057 -0.01088499  0.05777161
 -0.18904577 -0.20342922 -0.27891195 -0.0338392   0.36086315  0.11690309
 -0.21681102  0.05418292 -0.02953661  0.01513038  0.07766985  0.13602735
  0.07094844  0.04192486 -0.11184827 -0.01749684  0.16601186 -0.04016256
  0.00182258  0.27341741 -0.01508105 -0.02706931  0.04001422 -0.0254518
 -0.05362814  0.01917908 -0.20180817 -0.05384097 -0.0622792  -0.05331543
 -0.00037082  0.04505109 -0.16554682  0.09995199  0.002067    0.02541934
 -0.05062718  0.00911901 -0.10071025 -0.01944165  0.12703656 -0.24431424
  0.14040069  0.2162946   0.04281415  0.09105366  0.03605299  0.05797099
 -0.00986276 -0.03128223 -0.16835347  0.00129346  0.08601171 -0.096512
  0.06084863 -0.0081043 ]