[-1.26155466e-01  7.51698986e-02  1.16998486e-01 -9.34593603e-02
 -6.44321516e-02 -9.61856171e-02 -1.06915834e-07 -1.21432520e-01
  1.13044262e-01 -2.55990326e-02  2.88895875e-01 -1.34493500e-01
 -2.77255863e-01 -5.65492921e-02 -4.47208472e-02  2.25364596e-01
 -2.10281000e-01 -8.08723867e-02 -6.08044118e-03  2.78543439e-02
  1.05507188e-01 -6.80618584e-02 -2.14878507e-02  1.01881683e-01
 -1.04522206e-01 -3.67958009e-01 -1.41388863e-01 -6.32532984e-02
 -6.72080070e-02 -3.44126374e-02 -2.45500859e-02  6.73019215e-02
 -1.67806551e-01 -4.01370935e-02  3.05338483e-02  8.27980563e-02
  4.72753774e-03 -1.49462447e-01  1.15576923e-01 -2.91847493e-02
 -2.78978318e-01  4.23170142e-02  1.21581189e-01  2.14722857e-01
  1.90697759e-01 -4.28959588e-03  7.02100471e-02 -9.03642029e-02
  1.52233645e-01 -2.29842454e-01 -2.90871914e-02  1.27579644e-01
  6.89455494e-02  8.97908024e-03  3.27950381e-02 -1.76257759e-01
 -4.70665796e-03  1.26754150e-01 -2.11537033e-01 -1.43857645e-02
  5.58284707e-02 -7.69558474e-02 -3.81709053e-03 -1.11893274e-01
  1.34345755e-01  1.50491044e-01 -1.67575151e-01 -1.34556368e-01
  1.75235927e-01 -1.33145109e-01  2.34556403e-02  6.14303835e-02
 -2.08721831e-01 -2.42278606e-01 -2.89956301e-01  6.02534693e-03
  3.87728900e-01  5.08175008e-02 -1.45741984e-01  6.36819601e-02
 -7.37201199e-02  3.25601101e-02  4.97541837e-02  1.77249864e-01
  7.20327869e-02  6.29891381e-02 -1.14143707e-01  3.38938721e-02
  2.12052092e-01 -1.08028829e-01  5.14291115e-02  2.56193012e-01
 -4.54686470e-02  2.30571218e-02 -9.44631733e-03  7.49086738e-02
 -8.74145404e-02  2.33780853e-02 -1.31036341e-01  3.83547805e-02
 -4.45843004e-02 -5.05960844e-02 -3.05617787e-02  4.41345684e-02
 -1.95860133e-01  7.06427023e-02  4.04627919e-02  1.74968150e-02
 -7.95444623e-02 -7.99788907e-02 -1.70002561e-02  6.93101436e-03
  1.04301594e-01 -2.55778641e-01  1.80340275e-01  1.81734070e-01
 -2.10307175e-04  1.08796291e-01  2.51479149e-02  2.34526433e-02
  1.39863910e-02 -1.13535441e-01 -1.47030875e-01 -1.10318987e-02
  5.31995855e-02 -4.06400263e-02  1.85174905e-02 -4.20819521e-02]