[-0.13204065  0.06763128  0.11057371 -0.07229972 -0.10240789 -0.08753341
  0.04164756 -0.07068498  0.09074789 -0.02895472  0.20281959 -0.07985651
 -0.24273041 -0.06875722 -0.01932485  0.20941184 -0.15321977 -0.10753439
 -0.07379321 -0.00648133  0.1331623  -0.04026258 -0.00475035  0.11568946
 -0.16387865 -0.35731637 -0.0856137  -0.06967714 -0.04812089 -0.08742129
 -0.00470785  0.13167325 -0.20193879 -0.04616336  0.0511017   0.11904792
  0.00606749 -0.08105903  0.11988217 -0.00268138 -0.27730092  0.00905035
  0.13249132  0.21694861  0.20129131  0.04265516  0.06500655 -0.03688941
  0.100456   -0.2316016  -0.01426139  0.10952424  0.0560046   0.02873762
  0.08519828 -0.14602469  0.04132846  0.09689324 -0.24319454 -0.00179193
  0.04220951 -0.13372557 -0.04975874 -0.0783627   0.16448335  0.09717952
 -0.10776279 -0.10594588  0.26010343 -0.16199182  0.00931522  0.09332412
 -0.15149669 -0.18432045 -0.24740027  0.00314465  0.39578375  0.13531519
 -0.16017747  0.05388774 -0.05444983  0.03194077  0.05014573  0.12748419
  0.02319853  0.06373041 -0.07529069  0.06982346  0.18493068 -0.02480149
  0.05265304  0.25546175  0.02512318 -0.04194758  0.03144542 -0.01255033
 -0.07768363 -0.01186967 -0.15310302 -0.02610769 -0.01290979 -0.0702643
 -0.00485842  0.08542331 -0.18635668  0.06239719 -0.0136837  -0.02604127
 -0.08073762 -0.01172278 -0.06540203 -0.03005082  0.07937062 -0.2471302
  0.16304164  0.20751631 -0.03640328  0.06167284  0.01268418  0.05937928
  0.04067325 -0.10904633 -0.13916361 -0.04106774  0.12465782 -0.0939377
  0.04359385 -0.04482903]