[-1.19959928e-01  3.71797048e-02  1.14934161e-01 -5.34999073e-02
 -6.91570342e-02 -6.75865114e-02  6.01562634e-02 -9.94961932e-02
  1.17077075e-01 -4.70919497e-02  2.44923040e-01 -3.00640296e-02
 -2.11581230e-01 -1.26986668e-01  4.29046154e-02  2.36549377e-01
 -1.82636723e-01 -1.18204191e-01 -5.36177941e-02  3.15337069e-02
  8.65021795e-02 -5.81802689e-02  2.00062282e-02  8.24849829e-02
 -1.31422207e-01 -3.54784101e-01 -9.13951024e-02 -7.39252791e-02
 -4.75795977e-02 -5.81500307e-02 -3.97919379e-02  1.26223132e-01
 -1.54399499e-01 -4.06830236e-02  5.70042394e-02  1.13423049e-01
  2.53164023e-03 -9.79510248e-02  1.32124498e-01 -2.82579064e-02
 -2.74575770e-01  3.75907570e-02  1.06207326e-01  2.18520597e-01
  2.42879584e-01  1.72925442e-02  4.39215116e-02 -8.31937790e-03
  1.59535930e-01 -2.62259543e-01 -3.08226328e-02  6.83308616e-02
  8.70723054e-02  1.52378855e-02  8.48927721e-02 -1.56813368e-01
  2.37707794e-02  5.76164722e-02 -2.18024880e-01 -2.33345330e-02
  6.36027753e-03 -1.24472953e-01 -5.31138061e-03 -7.40249529e-02
  1.29775986e-01  8.24330077e-02 -1.26999423e-01 -1.23001955e-01
  1.60803407e-01 -1.46814227e-01 -1.20514633e-04  6.56975955e-02
 -2.07109198e-01 -2.12195978e-01 -2.98409075e-01 -6.66711060e-03
  3.59193653e-01  1.23272076e-01 -1.75757170e-01  4.64254022e-02
 -3.48155536e-02  4.45024259e-02  4.15178202e-02  1.43121988e-01
  7.01500326e-02  4.06051837e-02 -1.26630649e-01  6.23335177e-03
  1.81571305e-01 -8.27707872e-02  2.62603797e-02  2.74556190e-01
 -1.09265773e-02  7.11089745e-03 -2.23064963e-02  1.32876066e-02
 -3.93220559e-02  3.10397130e-02 -1.47674516e-01 -1.18075702e-02
 -1.83977690e-02 -3.15752961e-02  1.95866488e-02  8.96064267e-02
 -2.00365186e-01  6.63885400e-02 -2.23250501e-02  5.33908606e-02
 -5.09124398e-02 -1.53325619e-02 -8.30590874e-02 -2.90162805e-02
  4.94127870e-02 -2.50500828e-01  1.49806008e-01  2.49901533e-01
 -4.10639606e-02  6.00232966e-02  1.12823425e-02  2.33545359e-02
  1.97606329e-02 -5.09966090e-02 -1.37031645e-01 -2.76702344e-02
  8.95080790e-02 -4.20286022e-02  1.41968969e-02 -1.02171032e-02]