[-1.08985461e-01  5.41756824e-02  9.10739303e-02 -8.63329023e-02
 -9.49849933e-02 -9.08524022e-02  5.50769754e-02 -1.07391275e-01
  1.22806601e-01 -4.55916189e-02  2.57732630e-01 -6.50226772e-02
 -2.39793971e-01 -1.16991661e-01 -9.59405850e-04  2.38958508e-01
 -1.89063057e-01 -9.47897285e-02 -5.83325289e-02  1.01151308e-02
  8.97197723e-02 -3.88534479e-02  4.72053997e-02  9.37942788e-02
 -8.50575417e-02 -3.39848667e-01 -8.82625505e-02 -7.96455517e-02
 -5.29132299e-02 -2.84995623e-02 -2.88700499e-02  1.46732569e-01
 -1.66473493e-01 -5.14032617e-02  7.74455667e-02  1.29003569e-01
 -2.96922456e-02 -8.74807760e-02  1.31201029e-01 -2.93276999e-02
 -2.57152140e-01  1.72787381e-03  1.08208977e-01  2.02065930e-01
  2.15403542e-01  3.24091758e-03  4.84550707e-02 -6.87056333e-02
  1.31933898e-01 -2.31739193e-01 -1.74014736e-02  9.51292738e-02
  8.48999768e-02 -2.40874966e-03  9.11156237e-02 -1.58686697e-01
  1.91898476e-02  1.13221042e-01 -2.18314409e-01 -3.19241807e-02
  3.35037075e-02 -1.15298711e-01 -3.30115259e-02 -1.15506589e-01
  1.60877898e-01  1.10412829e-01 -1.39350444e-01 -1.35690138e-01
  2.02439219e-01 -1.31851196e-01  5.44180744e-04  1.08387969e-01
 -2.00667903e-01 -2.11393669e-01 -2.56846666e-01 -2.24961694e-02
  3.92691374e-01  1.00296549e-01 -1.44516692e-01  2.06340235e-02
 -5.49044199e-02  1.36876730e-02  4.47593927e-02  1.48281917e-01
  5.46945445e-02  3.46699879e-02 -1.11132137e-01  2.04149149e-02
  1.66484743e-01 -1.04122832e-01  1.77901480e-02  2.55623549e-01
 -1.94639768e-02  1.68757439e-02 -2.70840954e-02 -2.59996112e-02
 -4.02384438e-02  4.21156250e-02 -1.73145160e-01 -1.47820907e-02
 -6.60429522e-02 -6.92345873e-02 -1.73224993e-02  5.63282073e-02
 -1.58361003e-01  1.73766650e-02 -2.62166467e-03  2.02297401e-02
 -8.00753757e-02 -6.17323034e-02 -7.77590647e-02 -2.51540896e-02
  8.09211209e-02 -2.54629403e-01  1.76450282e-01  2.05991268e-01
 -5.65647148e-03  7.50276446e-02  1.58086773e-02  4.07798812e-02
  3.64407450e-02 -1.16609529e-01 -1.51369318e-01 -4.06742110e-05
  1.09681740e-01 -5.40146790e-02  2.44637281e-02 -3.97222526e-02]