[-0.12330448  0.13610898  0.08234733 -0.04063705 -0.04781262  0.0258891
 -0.05007639 -0.08082199  0.11635387 -0.11296034  0.26100668 -0.05408503
 -0.2082248  -0.04576216 -0.04341355  0.16910413 -0.19012424 -0.12784044
 -0.0685892  -0.05609573  0.04416298  0.06115554 -0.03479781  0.01482125
 -0.14335504 -0.33194479 -0.08594904 -0.09519529 -0.00731124 -0.11514626
 -0.05418438  0.08071319 -0.1236046   0.01242661  0.03051765  0.07333942
 -0.01116751 -0.02403895  0.18516612  0.09711715 -0.16117734 -0.03104159
  0.06484429  0.33421823  0.21210526  0.0296354  -0.02600136 -0.0430348
  0.0906863  -0.25062245  0.01538656  0.15416224  0.12011421  0.10970213
  0.07719806 -0.12571852  0.0008664   0.03103483 -0.12050346  0.0189659
  0.0202729  -0.11964349 -0.01640701 -0.06544434  0.23964603  0.10824811
 -0.09820816 -0.10632998  0.18394576 -0.10117234 -0.11789326  0.0294983
 -0.14040656 -0.14833455 -0.26003179  0.02222534  0.41701928  0.13291675
 -0.20590727  0.02618116 -0.0402493  -0.086612    0.08737171  0.12862071
 -0.06885298  0.01574206 -0.03944604  0.04761894  0.23270991 -0.04809861
 -0.0271655   0.18589903 -0.03248299  0.05017584  0.05490333 -0.02196966
 -0.03754988  0.00218582 -0.13443668 -0.03834217 -0.00069257 -0.09370498
 -0.01745442  0.13602903 -0.18558007  0.1298046   0.04118828 -0.03598724
 -0.01439872  0.04217556 -0.09020113 -0.01906158  0.16004527 -0.23149419
  0.17086232  0.19686835  0.01466298  0.11120185  0.07453725  0.07827046
 -0.00168844 -0.0093155  -0.15104954 -0.07866506  0.0660993  -0.00917122
  0.01312987  0.00499173]