[-1.08641364e-01  1.23070918e-01  2.95208097e-02 -3.90514359e-02
 -2.69283596e-02 -3.78892049e-02 -2.34142002e-02 -1.53845623e-01
  1.63176596e-01 -1.14787258e-01  2.11015150e-01  2.08653938e-02
 -1.59198806e-01 -1.68180019e-01 -1.19235683e-02  2.06623480e-01
 -1.99249357e-01 -1.57411963e-01 -3.92629839e-02  8.74848105e-03
  6.43777251e-02 -9.12962016e-03  2.56256796e-02  4.83727381e-02
 -8.35772082e-02 -3.49452317e-01 -9.68998075e-02 -8.00712854e-02
 -1.84192508e-02 -1.35713806e-02 -9.22479033e-02  8.11556168e-03
 -1.74127027e-01 -9.56464186e-02  3.64574380e-02  8.11455920e-02
 -4.17524055e-02 -8.20248574e-02  1.79630309e-01  3.50035424e-03
 -2.15485439e-01  6.96530640e-02  8.42422768e-02  2.58599579e-01
  2.12012991e-01  4.37953658e-02  2.55310237e-02 -1.12418726e-01
  1.78776428e-01 -1.78460822e-01  2.06589755e-02  1.07062303e-01
  7.11074695e-02  5.05220480e-02  2.01623756e-02 -1.53782710e-01
  3.05892862e-02  5.08393347e-02 -1.70780733e-01 -3.27580459e-02
  3.20284404e-02 -8.16454142e-02 -2.99057215e-02 -4.50918861e-02
  1.77586854e-01  1.17772676e-01 -7.20796511e-02 -2.05704376e-01
  1.10632755e-01 -1.63070694e-01 -6.58683255e-02  1.55589450e-02
 -1.76542923e-01 -1.92564860e-01 -3.05065721e-01  3.06002386e-02
  3.74519646e-01  1.42427459e-01 -1.38444573e-01  7.42031485e-02
 -2.15368122e-02  1.37826952e-03  1.43984929e-01  1.63324550e-01
  1.10401614e-02  3.17115337e-02 -9.25683826e-02 -1.16167264e-02
  2.15971306e-01 -5.46105690e-02 -7.47583881e-02  1.85333431e-01
 -9.33289557e-05  7.81541839e-02  2.53861193e-02 -1.22697810e-02
 -6.12325668e-02  9.11390781e-02 -1.77648351e-01 -3.31639661e-03
  1.60174314e-02  1.46417469e-02  2.28770208e-02  1.03473499e-01
 -1.41266584e-01  8.04449245e-02  6.65281946e-03  3.97067033e-02
 -3.97344260e-03  6.00916846e-03 -1.28553584e-01 -7.24829286e-02
  5.72321899e-02 -1.79752469e-01  2.25639224e-01  2.01898575e-01
  4.44585904e-02  1.23134807e-01  1.27766177e-01  4.96221371e-02
  1.86657738e-02  2.04336569e-02 -1.92492366e-01 -2.41171699e-02
  1.15587212e-01  1.46771362e-02  1.18654311e-01 -2.22093542e-03]