[-0.1269279   0.14279401  0.02382543 -0.03550265 -0.06991025 -0.04720141
 -0.04970611 -0.05402423  0.13004716 -0.08865663  0.16963306  0.00382341
 -0.1858744  -0.03716293 -0.02058998  0.14189585 -0.18222804 -0.05545455
 -0.098775    0.01136247  0.03024108  0.00934946  0.05248845  0.04655554
 -0.11561891 -0.33320811 -0.12890477 -0.08211818  0.0368686  -0.06984736
 -0.04830418  0.01689097 -0.12922667 -0.05218243  0.0383358   0.04958038
 -0.09565392 -0.08275007  0.242991    0.08102524 -0.17413938 -0.04174445
  0.03819808  0.32347426  0.24182068  0.02395548  0.01678018 -0.05916521
  0.15160918 -0.25324136  0.03542507  0.12748753  0.07630935  0.11554784
  0.11520391 -0.10324969  0.07955673  0.09427498 -0.20011702 -0.01796128
  0.00527035 -0.09668618 -0.02103781 -0.04490709  0.21439579  0.15610872
 -0.0895127  -0.11231021  0.17231111 -0.13032062 -0.04219247  0.02523972
 -0.1055303  -0.17581737 -0.28556982 -0.00531793  0.35599497  0.22623073
 -0.1255915   0.02111868 -0.06181388 -0.08812079  0.08119712  0.09197178
 -0.12501253  0.01555987 -0.0383389   0.07233495  0.18411399 -0.04924121
 -0.0519664   0.16320086  0.00741805  0.01962066  0.04901504 -0.01549221
 -0.11706966 -0.01225447 -0.17237751 -0.02884631  0.08380157 -0.09269559
  0.03377289  0.11640071 -0.19425125  0.13066839  0.04430551 -0.0609928
 -0.03171194 -0.02589194 -0.17100401  0.03330734  0.12684098 -0.20763388
  0.24544136  0.15622979 -0.00218016  0.12452314  0.11680954  0.01314775
 -0.02762749 -0.03663295 -0.09424179 -0.08246564  0.09688832  0.05087809
  0.11802717 -0.0160215 ]