[-1.20197587e-01  1.42744735e-01  3.12886424e-02 -5.29276803e-02
 -9.97744724e-02 -3.83731723e-02 -4.29583080e-02 -7.17541501e-02
  1.46676287e-01 -1.14358403e-01  1.79881006e-01  4.29615602e-02
 -1.74029171e-01  1.11875823e-02 -5.01583405e-02  1.52706921e-01
 -2.02212006e-01 -5.05495556e-02 -1.33048102e-01 -3.68176810e-02
  1.72731318e-02  6.36403114e-02  3.84246781e-02  3.60791646e-02
 -1.08566046e-01 -3.15710545e-01 -1.05299890e-01 -8.25533792e-02
  5.97064458e-02 -4.02493030e-02 -2.93195639e-02  2.21243408e-02
 -1.46057650e-01 -3.99838425e-02  3.02126464e-02  3.35264020e-02
 -1.35589153e-01 -8.91751871e-02  2.46726200e-01  1.19078360e-01
 -1.78603753e-01 -1.07753724e-02  3.25098634e-02  3.23525459e-01
  2.58491129e-01  2.09431211e-03  3.87908556e-02 -8.43287855e-02
  1.53401211e-01 -2.65588045e-01  2.65810546e-02  1.56005040e-01
  4.36722338e-02  1.11391895e-01  1.16613030e-01 -1.13046937e-01
  7.17104152e-02  8.87551308e-02 -1.74839482e-01 -4.53814891e-06
  4.46013026e-02 -9.88484994e-02 -1.91384554e-02 -2.81208698e-02
  1.89752221e-01  1.43913731e-01 -7.87905678e-02 -1.07623160e-01
  1.82223082e-01 -1.37709528e-01 -7.03366846e-02  9.02583729e-03
 -1.10927284e-01 -1.76428035e-01 -2.81385988e-01 -6.00478379e-03
  3.81239861e-01  2.25084111e-01 -9.81292054e-02  3.91817614e-02
 -6.27650395e-02 -8.42027515e-02  1.12226784e-01  1.03663422e-01
 -1.20161347e-01 -8.73240083e-03 -3.83111238e-02  9.37508717e-02
  1.98409721e-01 -4.29481231e-02 -5.21874689e-02  1.92652524e-01
  1.32297343e-02 -9.20179393e-03  5.20295762e-02  9.52598359e-03
 -1.45156369e-01 -2.30311714e-02 -1.75297007e-01 -4.17605303e-02
  8.43758509e-02 -7.97281042e-02  3.16866972e-02  1.14461139e-01
 -1.83031872e-01  1.55759588e-01  1.97104253e-02 -5.02312966e-02
 -3.75364013e-02 -5.63005470e-02 -1.60208479e-01  5.55550940e-02
  1.39552727e-01 -1.44418508e-01  2.62194127e-01  1.49227232e-01
 -8.05151090e-03  1.30828425e-01  1.52966663e-01 -6.68376824e-03
 -3.83007638e-02 -4.17180844e-02 -1.19262896e-01 -9.67034250e-02
  7.14050680e-02  4.80240583e-02  1.22041903e-01 -8.93237721e-03]