[-0.06521217  0.14245766  0.02888156 -0.03910583 -0.02329885 -0.0121893
 -0.00691452 -0.10358524  0.17362411 -0.09579805  0.22611535 -0.01428317
 -0.18652669 -0.06576022  0.00230228  0.13828753 -0.22688524 -0.06701224
 -0.05476453  0.03774036  0.00766238 -0.00269146  0.02658729  0.05205752
 -0.08394407 -0.35480827 -0.1234255  -0.06476277  0.05263258 -0.06309088
 -0.05120623  0.02228211 -0.14265461 -0.02616254  0.01307352  0.04961377
 -0.11280109 -0.07586764  0.22317921  0.05566011 -0.15879242 -0.04596637
  0.0262861   0.29465279  0.25716621  0.05148686 -0.00766597 -0.07867357
  0.13679497 -0.23513651  0.01938524  0.13010517  0.03878635  0.11303337
  0.05715949 -0.12817857  0.03893565  0.04844069 -0.18182132 -0.02598505
 -0.00661959 -0.09847766 -0.01740711  0.00729354  0.22014831  0.14582525
 -0.0763771  -0.15049338  0.17076023 -0.18211967 -0.07973756  0.00953635
 -0.10821831 -0.16463767 -0.29782403 -0.01462103  0.36190572  0.13589147
 -0.13750839  0.02217494 -0.02977571 -0.09044491  0.13948177  0.12928759
 -0.08140136 -0.0234446  -0.08603283  0.03341078  0.21512361 -0.06154337
 -0.05612199  0.16585973 -0.02601951  0.03605809  0.05192013  0.00772966
 -0.06885227  0.05581632 -0.18053792 -0.03007466  0.0966029  -0.04086531
  0.00121306  0.15305375 -0.19710849  0.15921342  0.060189   -0.0404987
  0.03624061 -0.0460058  -0.15684275 -0.00796814  0.14351764 -0.22356908
  0.24616309  0.15731776  0.00669862  0.11307204  0.06791778  0.0433278
 -0.01475799 -0.02226239 -0.15656751 -0.05551728  0.05314288  0.04026848
  0.07286939 -0.02578866]