[-7.43476152e-02  1.09170847e-01  7.50214085e-02 -3.81198786e-02
 -8.07056278e-02 -4.55198111e-03 -5.11662252e-02 -8.66857097e-02
  1.39259249e-01 -5.88444136e-02  1.59314036e-01  6.00318564e-03
 -2.12875634e-01 -5.82103916e-02  3.31461094e-02  1.61968708e-01
 -1.85123429e-01 -8.42093229e-02 -8.12561736e-02  2.48756967e-02
  5.52128535e-03  3.57179753e-02  8.56985226e-02  3.58600952e-02
 -1.43256426e-01 -3.83494377e-01 -8.86754021e-02 -6.65391609e-02
  2.26950776e-02 -6.25262931e-02 -7.03603923e-02  3.64558809e-02
 -1.87406644e-01 -3.12906057e-02  2.70716902e-02  7.06860945e-02
 -1.09594479e-01 -1.15522854e-01  2.24620968e-01  8.67486373e-02
 -2.35645220e-01 -7.31641427e-02 -2.47872638e-04  2.43538857e-01
  2.40100458e-01  4.53193709e-02  4.72345576e-02 -8.58276263e-02
  1.57594398e-01 -2.38678023e-01  4.32600789e-02  1.53593943e-01
 -1.99959110e-02  5.64064644e-02  7.66655132e-02 -1.01117864e-01
  3.74720097e-02  7.26839453e-02 -1.79928139e-01 -3.96220647e-02
  3.69720757e-02 -7.82314315e-02 -1.76401753e-02 -6.91092983e-02
  1.83143243e-01  1.27245247e-01 -5.53946607e-02 -1.19993962e-01
  1.77429542e-01 -1.36925071e-01 -6.79806471e-02  3.55436318e-02
 -1.32111490e-01 -1.76222250e-01 -3.37588161e-01 -3.91858034e-02
  3.65130663e-01  1.35091901e-01 -1.35701194e-01 -1.28775639e-02
 -2.44482234e-02 -4.71688211e-02  1.38938338e-01  1.25933707e-01
 -6.72397241e-02  3.06193121e-02 -5.67844026e-02  5.85257001e-02
  2.42124200e-01 -5.96550405e-02 -4.59405296e-02  1.68036237e-01
  4.59655840e-03  2.32047234e-02  5.96817024e-02  3.08805704e-02
 -7.22281784e-02  1.45692127e-02 -1.89723402e-01 -1.50268329e-02
  9.94171798e-02 -2.70736720e-02  2.36180220e-02  1.58319980e-01
 -1.69739351e-01  1.21767700e-01  4.67254184e-02 -6.29681349e-02
  1.82559453e-02 -5.36466837e-02 -1.77396864e-01 -5.08167222e-02
  1.30687535e-01 -1.83604360e-01  2.03956410e-01  1.72457665e-01
 -2.89957765e-02  9.04337764e-02  7.05867708e-02  6.77460432e-02
 -6.12900369e-02 -2.31645908e-02 -1.47830993e-01 -7.55261555e-02
  1.10214129e-01  5.92420585e-02  8.59332755e-02 -2.25285664e-02]