[-0.08198916  0.12863654  0.09066141 -0.04436336 -0.11079679 -0.04685897
 -0.06409557 -0.08954503  0.12407947 -0.06786095  0.14085963  0.00170122
 -0.21949692 -0.00662497  0.00698222  0.1661288  -0.19733639 -0.09714157
 -0.10169337  0.02289926  0.04077798  0.05245798  0.07094431  0.02384205
 -0.14645189 -0.36838898 -0.07743406 -0.08143388  0.02858472 -0.06476913
 -0.07255126  0.00943844 -0.18743721 -0.03562165  0.03296656  0.05715457
 -0.08076405 -0.1068757   0.22641747  0.07548902 -0.27165803 -0.04518151
  0.0335992   0.23639841  0.27261978  0.02323604  0.04680627 -0.11486373
  0.15497628 -0.22893977  0.02943814  0.13570601  0.02089696  0.0762642
  0.07123443 -0.08106337  0.04019848  0.09027244 -0.18258877 -0.02984783
  0.07547437 -0.09088533 -0.02457369 -0.04728635  0.19250064  0.08104912
 -0.06969464 -0.10381187  0.16490799 -0.16486286 -0.08966353  0.02959792
 -0.1052038  -0.16424976 -0.31675944 -0.05352509  0.35904279  0.13337357
 -0.18123752  0.00845472 -0.03664031 -0.05317781  0.14969908  0.13599287
 -0.05020861  0.04280186 -0.05577425  0.05893517  0.27256563 -0.08742516
  0.00419363  0.20435178  0.03854633  0.018206    0.06343205  0.0389278
 -0.08957452 -0.01220908 -0.19563051 -0.03240076  0.0856775  -0.01530112
  0.00551422  0.13767585 -0.17720081  0.11217868  0.04243382 -0.06866185
  0.01212345 -0.07099013 -0.1354996  -0.08420052  0.13279562 -0.15758942
  0.18628174  0.18549486 -0.04145929  0.08146738  0.07252844  0.04658899
 -0.03647056 -0.02381053 -0.1451409  -0.0662175   0.13202189  0.04274108
  0.08454654 -0.03219061]