[-0.10446662  0.13700387  0.04529062 -0.04936742 -0.0189275  -0.05754613
 -0.03201693 -0.09516985  0.18859719 -0.10102103  0.22621167 -0.00508598
 -0.227421   -0.06708685 -0.02829231  0.14848664 -0.19975631 -0.07616182
 -0.08837596  0.03883498  0.0167304  -0.00236709  0.07498731  0.04991706
 -0.06445339 -0.35500661 -0.11395749 -0.06703927  0.06204458 -0.09262146
 -0.03613159 -0.00614084 -0.19269352 -0.08104943  0.00406706  0.04574141
 -0.08065626 -0.09765578  0.22881094  0.08206304 -0.19164369 -0.07743454
 -0.00445877  0.29391822  0.22745255  0.0182386   0.02264605 -0.12171645
  0.10494112 -0.23987143  0.0070751   0.1266595   0.01494547  0.06417178
  0.10170554 -0.14362641  0.05093098  0.08290738 -0.17733917 -0.01862842
  0.02531893 -0.06236253 -0.02946182 -0.0241071   0.21008907  0.12931429
 -0.06930486 -0.15889589  0.20232132 -0.15040796 -0.02710033  0.04552947
 -0.07559597 -0.15871331 -0.29150805 -0.04376148  0.34795111  0.13230455
 -0.12222818  0.05441704 -0.0909357  -0.08537821  0.08563589  0.11758583
 -0.08523886  0.05943044 -0.06973904  0.03632684  0.16789488 -0.02677142
 -0.01658455  0.17859051 -0.03566791 -0.00681808  0.08510035  0.00049437
 -0.12574725  0.02825092 -0.18723457 -0.04459139  0.08647802 -0.077645
  0.02476133  0.12669335 -0.19303082  0.09971707  0.03546074 -0.05808138
  0.03194263 -0.04222591 -0.12519699 -0.02564214  0.13416527 -0.22908019
  0.23388414  0.15995929 -0.00428488  0.10731243  0.08975767  0.06320935
 -0.02878578 -0.00772802 -0.13346389 -0.05138663  0.02066276  0.02968469
  0.07104509 -0.03359256]