[-0.09356173  0.13887046  0.08712552 -0.02822929 -0.03890213 -0.00614348
 -0.04332338 -0.1027649   0.0923055  -0.08312099  0.24908136 -0.02987823
 -0.23159719 -0.06698135 -0.02263684  0.15597714 -0.18805234 -0.03936482
 -0.07512154  0.02807717  0.03580492  0.01651756  0.02622054  0.01679571
 -0.07086325 -0.3268052  -0.10618602 -0.09654948  0.01898302 -0.08790719
 -0.06640536 -0.03455441 -0.15676758 -0.02615401 -0.01464198  0.02917252
 -0.0410034  -0.09963233  0.20512493  0.04986882 -0.19079225 -0.04147554
  0.02221547  0.25123343  0.20659101  0.02309693 -0.00205616 -0.09490809
  0.1308105  -0.22502045  0.026905    0.10295279  0.08503576  0.05298231
  0.02943392 -0.14551334  0.05375713  0.06868303 -0.18824284 -0.02916396
  0.02462251 -0.09323972 -0.01101974 -0.00989412  0.21121942  0.12528363
 -0.07168812 -0.11240766  0.164566   -0.13534322 -0.03186817  0.01085325
 -0.1204766  -0.17762505 -0.3052443  -0.00457901  0.36807665  0.12340245
 -0.1819561   0.02323763 -0.08701401 -0.0672716   0.13938813  0.11960294
 -0.05337386  0.02350074 -0.07338766  0.03184002  0.2268097  -0.0914848
 -0.00859263  0.19239995 -0.01253823  0.02419474  0.05580031 -0.03296074
 -0.04987754  0.01289337 -0.1425176   0.00769967  0.03379942 -0.09083928
 -0.00605983  0.11173856 -0.23763092  0.09358447  0.07142445 -0.07234173
  0.02793712 -0.07985238 -0.13053112 -0.02677701  0.17567824 -0.20886517
  0.21307857  0.18132184  0.02025383  0.12322132  0.09482919  0.05974169
 -0.02101383 -0.038798   -0.17088778 -0.03627364  0.10016157 -0.0050358
  0.0713129  -0.02106037]