[-0.09805649  0.14344124  0.02490327 -0.04634713 -0.07795887 -0.05756634
 -0.04938079 -0.05725078  0.13384689 -0.08807492  0.17778222  0.00715833
 -0.18761633 -0.04093007 -0.03208762  0.14200166 -0.19533928 -0.0472371
 -0.0988298  -0.00660354  0.00176753  0.01771526  0.04693024  0.03466982
 -0.09294044 -0.33245283 -0.12679255 -0.08964358  0.04668438 -0.06958418
 -0.04595673  0.04466217 -0.14235149 -0.05377115  0.02997475  0.02664593
 -0.10383549 -0.0751753   0.22648922  0.09151427 -0.15736888 -0.04726393
  0.0339883   0.31635565  0.25668907  0.01875562  0.00864274 -0.05811207
  0.15006706 -0.24958377  0.02787241  0.13338839  0.07255217  0.11269876
  0.11870595 -0.09163135  0.07829461  0.07311801 -0.21464761 -0.01723537
  0.01098061 -0.09957339 -0.03788969 -0.04391267  0.21276651  0.15333796
 -0.07976454 -0.10279248  0.19155347 -0.14137304 -0.03990943  0.0191665
 -0.09213503 -0.17193495 -0.26794451 -0.00438808  0.34030628  0.22549717
 -0.11703547  0.03118829 -0.05610935 -0.1106375   0.08466605  0.08121838
 -0.12435734  0.01114163 -0.03164313  0.07838657  0.17879164 -0.05626578
 -0.04526857  0.17456132 -0.01373679  0.01136604  0.05425128 -0.01789818
 -0.11046121 -0.00879448 -0.1795014  -0.02619707  0.09113057 -0.11141093
  0.0145016   0.09676871 -0.1742246   0.12616758  0.0458045  -0.06163508
 -0.03828743 -0.05638675 -0.16566749  0.0382875   0.14142299 -0.19776702
  0.27058455  0.13577609 -0.01025155  0.1240613   0.10350919  0.00800895
 -0.0327936  -0.07551287 -0.08600203 -0.09707104  0.09620535  0.03836593
  0.11113486 -0.02234061]