[-7.14235231e-02  1.15155116e-01  7.54636154e-02 -9.98716243e-03
 -3.89563292e-02 -4.98685203e-02 -4.61687818e-02 -1.56795278e-01
  1.41943082e-01 -9.98034030e-02  2.40974814e-01  3.52180749e-02
 -1.88867763e-01 -1.41641453e-01 -6.21246733e-03  1.96070328e-01
 -1.95106745e-01 -1.61170691e-01 -6.59307539e-02  6.23313598e-02
  6.07748032e-02 -8.92310869e-03  6.83689788e-02  2.97935996e-02
 -9.89218280e-02 -3.52238446e-01 -1.19091593e-01 -5.47804199e-02
 -1.56301353e-02  4.65592463e-03 -1.09288625e-01  2.94006150e-02
 -1.76958621e-01 -7.61310235e-02  5.20749874e-02  5.25387600e-02
  9.17077821e-04 -8.86508748e-02  2.11157486e-01 -5.72616607e-03
 -2.58377284e-01  7.64075518e-02  5.94964623e-02  2.33321533e-01
  2.09037781e-01  2.02337988e-02  3.18088531e-02 -7.97602907e-02
  1.61478147e-01 -1.75035268e-01  4.60265689e-02  1.39274046e-01
  1.05734669e-01  2.71636378e-02  3.34510691e-02 -1.33088902e-01
  1.07156187e-02  1.02669835e-01 -1.38373524e-01 -3.67742553e-02
  4.27173488e-02 -8.23080838e-02  6.23362139e-05 -7.30888546e-02
  1.53735757e-01  1.03191637e-01 -7.42639527e-02 -2.07755357e-01
  1.29113778e-01 -1.35165140e-01 -7.21553937e-02  1.38161229e-02
 -2.13521168e-01 -1.71971008e-01 -3.27584475e-01  7.40699470e-05
  3.57428849e-01  1.14246309e-01 -1.84602648e-01  7.02524409e-02
 -3.97997387e-02  1.21425316e-02  9.20561180e-02  1.34771705e-01
  9.59214475e-03  4.62408848e-02 -1.16423361e-01 -3.17443721e-02
  2.42015705e-01 -5.80966473e-02 -5.30269258e-02  2.25720271e-01
  8.56982637e-03  5.81813939e-02  4.15954664e-02 -3.25399414e-02
 -1.56053696e-02  4.01187725e-02 -1.89558849e-01  3.64693068e-02
 -2.53672060e-02 -4.17143863e-04 -9.46077053e-03  1.19944073e-01
 -1.50241509e-01  3.18815187e-02  6.23504212e-03  5.14040105e-02
  1.18884547e-02  3.57293524e-02 -1.43526107e-01 -1.25709370e-01
  6.16600327e-02 -1.98462173e-01  2.00061992e-01  1.93722561e-01
  4.05826680e-02  7.62703568e-02  1.02097765e-01  7.19453841e-02
  3.36385448e-03  2.92229708e-02 -1.80672452e-01 -5.51706664e-02
  1.31716803e-01  2.43090838e-03  8.22355375e-02  2.13616323e-02]