[-7.17632994e-02  1.15756787e-01  7.59915411e-02 -6.83582276e-02
 -4.25167680e-02 -2.25014463e-02 -1.17385544e-01 -1.20216392e-01
  1.23050846e-01 -1.25659928e-01  2.20023751e-01  4.61774180e-03
 -1.90823570e-01 -9.31224525e-02 -3.69768739e-02  1.90823406e-01
 -1.82280093e-01 -1.27972797e-01 -2.44364049e-02  5.36049269e-02
  5.61141558e-02 -9.40751270e-05  7.65985847e-02  3.41270119e-02
 -1.24390066e-01 -3.41184616e-01 -1.20799720e-01 -6.16217963e-02
 -2.46890150e-02 -2.96081696e-02 -9.93209109e-02 -2.96497587e-02
 -1.65714353e-01 -3.46608832e-02  5.16042672e-02  1.04401611e-01
 -3.26577425e-02 -1.06703274e-01  2.11858228e-01  7.27017922e-03
 -2.23814771e-01  2.17070784e-02  4.25664447e-02  2.30678201e-01
  2.32966185e-01  3.72753069e-02  2.92461962e-02 -1.59321234e-01
  1.67484999e-01 -1.79167867e-01  7.26937279e-02  1.30018875e-01
  2.73151379e-02  7.10243359e-02  1.99983604e-02 -1.22110486e-01
  5.77775203e-02  1.31591499e-01 -1.20037936e-01 -5.06710298e-02
  4.40734811e-02 -2.64222603e-02 -5.34113403e-03 -7.47595206e-02
  2.03963563e-01  9.20323953e-02 -1.27673626e-01 -1.77215844e-01
  1.07983701e-01 -1.26740754e-01 -6.04623444e-02  3.86024825e-02
 -1.78653315e-01 -1.82553262e-01 -2.97798157e-01 -1.61954742e-02
  3.48207444e-01  1.35953471e-01 -1.84708342e-01  4.75132652e-02
 -3.72800566e-02 -2.14063860e-02  1.26776725e-01  1.51553914e-01
 -8.72136001e-03  5.24120331e-02 -7.69452229e-02  6.77216891e-03
  2.53835529e-01 -6.30228817e-02 -3.05175316e-02  2.11299807e-01
 -6.44410774e-03  9.82999876e-02  4.98885028e-02  2.94245835e-02
 -6.78571016e-02  5.16680367e-02 -1.90649703e-01 -1.61995296e-03
  3.50051001e-02  3.62021104e-03 -9.64166690e-03  1.33254036e-01
 -1.71581551e-01  1.11012690e-01  1.93171483e-02  2.51804832e-02
  3.77111994e-02 -2.15586219e-02 -1.41940862e-01 -8.30721483e-02
  1.28349364e-01 -1.89405382e-01  1.85893044e-01  1.79432020e-01
  6.96058720e-02  9.60909352e-02  1.63381442e-01  7.59197474e-02
 -1.24996919e-02 -7.45198131e-03 -2.12454185e-01 -9.08934791e-03
  1.04625463e-01  3.79811018e-03  1.24452770e-01 -6.44561648e-03]