[-0.06939411  0.11984947  0.06464273  0.00890926 -0.0266759  -0.04046873
 -0.04472974 -0.14063071  0.14600137 -0.11357903  0.20736456  0.01980035
 -0.16990285 -0.14376958 -0.01391853  0.18554811 -0.18470146 -0.14478709
 -0.05421589  0.04529788  0.09463871  0.00192957  0.06437211  0.02914422
 -0.08669967 -0.36942753 -0.10257246 -0.07374576  0.01522504 -0.01615174
 -0.10746635  0.0122834  -0.17884824 -0.08233216  0.02447071  0.05903624
 -0.02194836 -0.07861507  0.19097497  0.00396873 -0.24089721  0.07619816
  0.02533796  0.24170943  0.21030569  0.02945955  0.02732936 -0.0971619
  0.15266766 -0.17906611  0.0471338   0.13104858  0.07097822  0.05820507
  0.03756214 -0.12480464  0.0335075   0.0931932  -0.13998282 -0.02095998
  0.04882807 -0.08416399  0.01002205 -0.03548504  0.14757967  0.08527114
 -0.04974164 -0.18432544  0.12150603 -0.13255814 -0.05831577  0.00668071
 -0.17655115 -0.17749865 -0.28622898  0.01703567  0.376463    0.13555662
 -0.18072294  0.07610957 -0.04453431  0.0102666   0.15896873  0.13266988
  0.02969325  0.01768487 -0.1096032  -0.00981729  0.21254833 -0.05698358
 -0.05632886  0.20703295  0.00533847  0.06957778  0.04972592 -0.02835054
 -0.04074537  0.08370911 -0.1828374   0.01845303  0.00042141  0.00374223
 -0.0108985   0.09370424 -0.13641268  0.07717063  0.02494145  0.04957791
  0.02982441  0.01269672 -0.14203799 -0.07811957  0.06283238 -0.18949266
  0.23611756  0.1920747   0.04279582  0.11296028  0.10833788  0.06661827
  0.01879892 -0.00111598 -0.20612517 -0.03902863  0.13234161  0.01957718
  0.07243215  0.00685331]