[-6.87841997e-02  1.49269283e-01  2.12439261e-02 -4.55620661e-02
 -3.74363139e-02 -1.58985090e-02 -8.22844263e-03 -1.08859383e-01
  1.67140543e-01 -9.81067345e-02  2.27182508e-01 -1.05200745e-02
 -1.86771736e-01 -6.75397068e-02 -1.58796255e-02  1.52412161e-01
 -2.34519273e-01 -7.35763982e-02 -5.03996871e-02  3.68368290e-02
  2.09426396e-02  5.66461764e-04  3.46694551e-02  5.66102266e-02
 -8.56973231e-02 -3.48771602e-01 -1.20220125e-01 -7.83316493e-02
  5.14023863e-02 -5.12351058e-02 -5.71264215e-02  2.58856546e-02
 -1.51662022e-01 -3.11625451e-02  1.53706623e-02  4.82638888e-02
 -1.06465198e-01 -8.15647468e-02  2.19881415e-01  4.66888845e-02
 -1.71073616e-01 -4.02172208e-02  4.67476249e-02  2.95463502e-01
  2.62969911e-01  4.35067229e-02 -2.63785827e-03 -9.56044793e-02
  1.47894204e-01 -2.20858574e-01  1.55433863e-02  1.21979132e-01
  2.64711268e-02  1.15718722e-01  4.89984639e-02 -1.31754607e-01
  4.99180481e-02  5.70330396e-02 -1.76549703e-01 -3.80470864e-02
 -4.04200936e-03 -8.86536390e-02 -1.60684381e-02 -3.32020245e-05
  2.23687217e-01  1.31919697e-01 -7.62993917e-02 -1.52704120e-01
  1.66989133e-01 -1.80762812e-01 -7.93341622e-02  2.20742449e-02
 -1.22234300e-01 -1.59553185e-01 -3.02480429e-01 -2.04239637e-02
  3.65040541e-01  1.33531317e-01 -1.23070575e-01  2.87010614e-02
 -2.62207668e-02 -8.63938853e-02  1.47821829e-01  1.34162501e-01
 -7.65930265e-02 -1.72359347e-02 -9.32455063e-02  3.89417559e-02
  2.27591202e-01 -7.03549609e-02 -5.21199182e-02  1.70561016e-01
 -2.31140144e-02  3.13041434e-02  5.22271097e-02  2.39972286e-02
 -8.06998536e-02  5.71832955e-02 -1.93657801e-01 -3.49419266e-02
  9.48486328e-02 -3.83201800e-02 -9.25730169e-03  1.53382793e-01
 -1.96138009e-01  1.36549458e-01  5.56777120e-02 -3.37685905e-02
  2.37624086e-02 -6.47150576e-02 -1.53410986e-01 -5.92555944e-03
  1.37089610e-01 -2.02950239e-01  2.46625617e-01  1.53665498e-01
  1.32285133e-02  1.08913712e-01  8.32362026e-02  3.23039293e-02
 -2.67683510e-02 -3.83840166e-02 -1.66755557e-01 -4.73431423e-02
  7.78974220e-02  3.68912332e-02  8.71699229e-02 -3.54321674e-02]