[-0.06460045  0.13152717  0.07441225 -0.04837178 -0.09884285 -0.03728185
 -0.05539886 -0.08749616  0.12668978 -0.05153147  0.15022619  0.00565324
 -0.21095319 -0.0381036   0.01415806  0.15149283 -0.17903994 -0.09210106
 -0.1126641   0.04200436  0.02538455  0.06569365  0.08514873  0.02457867
 -0.12581283 -0.37851432 -0.08822934 -0.07040552  0.03410781 -0.086484
 -0.0697571   0.04186814 -0.18237065 -0.04545755  0.03989555  0.06142228
 -0.09350397 -0.09590041  0.22680695  0.10135894 -0.2540004  -0.03965209
  0.01127285  0.26897615  0.27656889  0.02551807  0.04652176 -0.10431516
  0.14075562 -0.23100427  0.05034806  0.1402456   0.03253207  0.07019465
  0.07175045 -0.07074671  0.03281836  0.07988351 -0.19338052 -0.02608629
  0.0709471  -0.09888896 -0.03768924 -0.0531242   0.18582425  0.09577379
 -0.07091505 -0.10045623  0.15996385 -0.15947931 -0.08311434  0.03206595
 -0.10977135 -0.15574817 -0.31052718 -0.04831067  0.35887641  0.13106813
 -0.18517169 -0.00120696 -0.04063284 -0.05498512  0.12845567  0.13321717
 -0.06827617  0.04597855 -0.05039183  0.066705    0.25060162 -0.07828795
 -0.0158045   0.20736365  0.03385854  0.0170225   0.07531812  0.02423428
 -0.06028837 -0.02005528 -0.19103579 -0.03215595  0.07959697 -0.03923139
  0.00300184  0.13625002 -0.17376071  0.13285375  0.05360378 -0.06132097
  0.0282953  -0.07798427 -0.13407396 -0.08200866  0.13643351 -0.17544237
  0.18438061  0.17328067 -0.03484018  0.0829011   0.0607785   0.0623794
 -0.04088968 -0.02990143 -0.13058336 -0.0661509   0.12843384  0.0597935
  0.08363957 -0.03113465]