[-0.13788198  0.11062749  0.05965772 -0.03113574 -0.02261967 -0.0545298
 -0.07417723 -0.11318354  0.17078093 -0.13376765  0.18807846 -0.03932795
 -0.17432632 -0.09184226 -0.01700096  0.21865915 -0.20838106 -0.14718723
 -0.0342143   0.02255755  0.08987995 -0.02997376  0.04739001  0.04907193
 -0.12330394 -0.37139362 -0.11960857 -0.06259611 -0.03304218 -0.02981431
 -0.08059814 -0.003046   -0.167146   -0.04986227  0.02078315  0.12603287
 -0.00559207 -0.14127074  0.18302979 -0.01422101 -0.23263668  0.01294828
  0.04629683  0.22950211  0.19363411  0.01895731  0.01198797 -0.11647945
  0.19113645 -0.17371768 -0.02673871  0.11284236 -0.00115458  0.06627548
  0.03975148 -0.11191692  0.084461    0.10535715 -0.15288186 -0.09212113
  0.02555047 -0.08812933  0.00087017 -0.08675404  0.19448607  0.11291914
 -0.06185471 -0.20958443  0.13133486 -0.11863964 -0.03193388  0.04758746
 -0.16788849 -0.18879989 -0.28406283 -0.00769426  0.37182233  0.13160042
 -0.12059052  0.09695967 -0.0311539  -0.02062637  0.12321868  0.16179097
  0.01754193  0.0698212  -0.115817    0.01030173  0.23613583 -0.05587454
 -0.02484133  0.17437394 -0.01053399  0.08679729  0.03320276 -0.02398639
 -0.09974159  0.0918323  -0.16614279 -0.00540854  0.04525528  0.02778364
  0.00359136  0.0991343  -0.13120461  0.06773324  0.00752597  0.03026439
 -0.00275519 -0.00301766 -0.11572681 -0.06053747  0.0743403  -0.20460133
  0.15643977  0.17781703  0.03771777  0.1220566   0.10800314  0.08197539
 -0.02467579  0.02425597 -0.22358547  0.00479229  0.11178849  0.03416842
  0.08880925 -0.00784995]