[-0.098437    0.17423187  0.04751102  0.0143413  -0.01138005  0.03342166
 -0.0613903  -0.09146729  0.16528533 -0.11218114  0.25431383 -0.02654506
 -0.20280598 -0.05755898 -0.06045517  0.15723138 -0.20693    -0.10068194
 -0.08577444 -0.01919153  0.05654654  0.05878055  0.01059616  0.00174777
 -0.10773008 -0.32393607 -0.08676465 -0.07509918  0.06459063 -0.09707282
 -0.06140434 -0.03068979 -0.14755702 -0.04631259  0.03758789  0.04952889
 -0.03977822 -0.0328695   0.21970926  0.06826811 -0.17025352 -0.00170549
  0.01949418  0.31985152  0.20168586  0.06610449 -0.03641562 -0.13284087
  0.11066133 -0.20096758  0.02754759  0.17130001  0.07091335  0.09606837
  0.05721939 -0.13178253  0.00243394  0.0584092  -0.13179187 -0.0118965
  0.05713691 -0.07964122 -0.01291878 -0.04776924  0.18390176  0.08822954
 -0.07612862 -0.16681114  0.13435237 -0.13093331 -0.06413809  0.04253262
 -0.09738508 -0.16406448 -0.2792187   0.002126    0.43422079  0.13187538
 -0.14822125  0.05482528 -0.02752626 -0.06845204  0.14484298  0.12246143
 -0.08453076  0.03365451 -0.0408427   0.04960625  0.18466292 -0.04070396
 -0.05337647  0.14125556 -0.04718347  0.05203336  0.07717343 -0.0084478
 -0.0741679   0.04137101 -0.14316791 -0.02901211  0.03845425 -0.05190538
  0.04088118  0.09368616 -0.14626499  0.12065627  0.04585845 -0.0161316
  0.03656528  0.02479456 -0.13249923 -0.01442267  0.16924135 -0.23864155
  0.22631848  0.15383135  0.00058696  0.12425293  0.13013914  0.10502883
 -0.02435206  0.03291588 -0.16285789 -0.06876941  0.03948029  0.01575055
  0.11302914 -0.03245154]