[-7.87751526e-02  1.54424101e-01  9.64493975e-02 -6.43341765e-02
 -1.20226696e-01 -1.95005629e-02 -8.34341124e-02 -1.15280986e-01
  1.35230973e-01 -5.66758998e-02  2.03922898e-01  4.01185043e-02
 -2.15262040e-01 -3.57277207e-02  6.93924073e-03  1.63052216e-01
 -1.80444792e-01 -1.08545773e-01 -3.00677028e-02  5.41257225e-02
  2.63838917e-02  2.72833090e-02  8.52895528e-02  3.48973610e-02
 -1.36825800e-01 -3.57630253e-01 -1.14378095e-01 -4.70601693e-02
  4.52969782e-02 -6.69288039e-02 -9.42474753e-02  2.51827966e-02
 -1.65892497e-01 -1.95944514e-02  4.12003063e-02  6.00242615e-02
 -1.11948647e-01 -1.20335855e-01  2.04838589e-01  8.78013149e-02
 -2.51617074e-01 -7.32330680e-02 -1.13410504e-04  2.48739034e-01
  2.70796299e-01  1.72851942e-02  6.75898045e-02 -1.10031344e-01
  1.31570533e-01 -2.57490575e-01  7.33679235e-02  1.40960529e-01
  4.79740612e-02  5.76242022e-02  6.09531514e-02 -1.05105363e-01
  2.77600586e-02  1.14845835e-01 -1.87029988e-01  2.89769028e-03
  6.04450107e-02 -8.61907676e-02 -5.19629708e-03 -6.04118668e-02
  2.02712819e-01  1.51224300e-01 -9.05915052e-02 -1.06525175e-01
  1.67188883e-01 -1.40356213e-01 -9.56459567e-02  4.64743488e-02
 -1.30039319e-01 -2.06384420e-01 -3.17735434e-01 -4.17707562e-02
  3.54101866e-01  1.72897577e-01 -1.75644651e-01 -2.01610010e-02
 -1.61800142e-02 -2.81864703e-02  1.19976699e-01  1.41474083e-01
 -8.73153657e-02  3.01217977e-02 -8.20376948e-02  3.62040214e-02
  2.67133057e-01 -7.66868815e-02 -3.56557332e-02  2.35873818e-01
  1.30261099e-02  6.13985844e-02  6.20906651e-02  6.15243427e-02
 -4.55869511e-02 -1.44030852e-02 -1.87085673e-01 -4.30985056e-02
  4.87815887e-02 -3.09335776e-02  7.58758921e-04  1.69882238e-01
 -1.69450119e-01  1.18190423e-01  3.72348540e-02 -3.54584828e-02
 -7.47061160e-04 -8.58620182e-02 -1.25567302e-01 -7.19798654e-02
  1.26139283e-01 -1.78486243e-01  1.93353564e-01  1.84094563e-01
 -1.43822213e-03  9.01018977e-02  8.34160298e-02  3.20925638e-02
 -2.04693563e-02 -8.76871571e-02 -1.08106829e-01 -4.09162641e-02
  1.15677774e-01  2.62554805e-03  8.34651515e-02 -2.03757770e-02]