[-0.08338448  0.10336969  0.08882805 -0.01014972 -0.05970688 -0.06325836
 -0.06321024 -0.14657257  0.12044907 -0.06913214  0.22938755  0.02738795
 -0.17102969 -0.14876007 -0.01610655  0.21326272 -0.17980427 -0.16389966
 -0.0532918   0.04662086  0.05497697 -0.01507118  0.08171534  0.0200174
 -0.11434259 -0.34494552 -0.10518845 -0.06217134 -0.03525679 -0.01353753
 -0.10835952  0.00340894 -0.18773286 -0.08967522  0.05515708  0.07825377
 -0.03608126 -0.12018242  0.20521915 -0.00449068 -0.24759988  0.05617094
  0.0694085   0.22002819  0.20800225  0.03078005  0.04896135 -0.09326343
  0.16607124 -0.1761958   0.0484286   0.12516028  0.07390331  0.04528879
  0.0160168  -0.12959975  0.03340796  0.1090328  -0.14747012 -0.0449667
  0.04217769 -0.06628948 -0.0217133  -0.08609777  0.15160395  0.11388741
 -0.06217283 -0.20702533  0.11796651 -0.12457009 -0.07280239  0.03480839
 -0.20352648 -0.18656069 -0.31942305 -0.00403927  0.34957179  0.10931959
 -0.17781952  0.02607626 -0.01955868  0.01669818  0.08106798  0.12473328
  0.01668146  0.05877988 -0.12948488 -0.02977468  0.24131499 -0.07400479
 -0.05091435  0.19815469  0.0198044   0.05341314  0.04181692  0.00402125
 -0.03972364  0.06734381 -0.18550692  0.00631187  0.01807022  0.00824873
 -0.00311444  0.11156084 -0.13559204  0.05444005 -0.00286199  0.03681907
 -0.00751159 -0.00323095 -0.12741688 -0.11185466  0.07002554 -0.16214149
  0.19700855  0.20777445  0.03774153  0.08746033  0.1019349   0.07542215
 -0.0236731   0.02408316 -0.17964078 -0.04782974  0.10946292  0.01862088
  0.09618109  0.02131256]