[-0.10128422  0.11697406  0.04963637 -0.01810623 -0.02679682 -0.06852739
 -0.02211134 -0.08305364  0.14084789 -0.09290232  0.22064328 -0.02381732
 -0.1959056  -0.08953737 -0.03660548  0.15234569 -0.20158575 -0.05893904
 -0.09140117  0.05259102  0.03415058  0.01116178  0.04898795  0.02805151
 -0.05875432 -0.34658194 -0.1454609  -0.06451531  0.04858803 -0.06771722
 -0.04724845 -0.02509825 -0.18074755 -0.09978155  0.0131902   0.03267848
 -0.0746396  -0.09486025  0.20549372  0.06818239 -0.17238469 -0.02381881
  0.03345559  0.29714447  0.20160191  0.04607817  0.00063962 -0.09457687
  0.1094437  -0.20659594  0.02413644  0.09841634  0.05831238  0.07374914
  0.11266142 -0.11605207  0.06789917  0.08089108 -0.1874278  -0.02443734
  0.00966736 -0.05124724  0.00558545 -0.01655714  0.19564858  0.11190025
 -0.04987738 -0.15810938  0.18602304 -0.1499254  -0.03486253  0.02027613
 -0.07902277 -0.14086853 -0.32376537 -0.02333328  0.3660914   0.13186741
 -0.12348008  0.04656126 -0.05943859 -0.10374937  0.10030895  0.1040825
 -0.08422542  0.05042287 -0.08405703  0.03733253  0.17264751 -0.03497208
 -0.03038793  0.16263349 -0.01762223 -0.00931354  0.08192787 -0.03521357
 -0.10745411  0.0309258  -0.17166339 -0.0171896   0.08095554 -0.07950924
  0.01066859  0.12812507 -0.17491755  0.08158584  0.04378334 -0.06791777
 -0.00265813 -0.0297567  -0.16297807 -0.00623947  0.11425778 -0.22041164
  0.22975639  0.1454774   0.00124706  0.09379702  0.08923064  0.04066966
 -0.03700044 -0.00293954 -0.13867427 -0.06754275  0.0494478   0.02562183
  0.10348403 -0.01047224]