[-1.16538599e-01  8.77023935e-02  8.02060962e-02 -2.33858827e-05
 -4.82571572e-02 -6.78967461e-02 -3.97966206e-02 -1.52969852e-01
  1.27695814e-01 -9.74653140e-02  2.29938582e-01  2.18936484e-02
 -1.73169926e-01 -1.41464591e-01 -1.71035365e-03  2.02654287e-01
 -2.01097250e-01 -1.51097879e-01 -4.07933258e-02  5.07998951e-02
  6.31750077e-02 -4.67935801e-02  8.75451788e-02  4.72944267e-02
 -8.94817039e-02 -3.62275839e-01 -1.15631931e-01 -8.97361413e-02
 -3.04198265e-02 -7.75781134e-03 -1.10488668e-01 -5.20538259e-03
 -1.76241502e-01 -7.79977739e-02  3.60577367e-02  6.45048767e-02
  2.10065558e-03 -9.30034295e-02  2.04603359e-01 -3.02302255e-03
 -2.57918924e-01  5.81746362e-02  4.28951345e-02  2.35812947e-01
  2.10252643e-01  4.07567434e-02  1.60979535e-02 -7.93810338e-02
  1.57480642e-01 -1.92686290e-01  5.96121438e-02  1.03869215e-01
  9.10631269e-02  1.93935279e-02  2.13531759e-02 -1.34530693e-01
  3.47024612e-02  7.91499838e-02 -1.46407694e-01 -5.36036268e-02
  3.66941653e-02 -7.44437948e-02  2.17199322e-05 -6.69500306e-02
  1.92548230e-01  1.33198440e-01 -7.11566433e-02 -1.85353309e-01
  1.05785243e-01 -1.36467740e-01 -5.36787622e-02  2.38461792e-02
 -2.05234081e-01 -1.79170355e-01 -3.09032708e-01  1.12875095e-02
  3.62543523e-01  1.15480386e-01 -1.89135596e-01  2.51648482e-02
 -5.89456968e-02  1.91436261e-02  1.02611542e-01  1.49260372e-01
  1.80997457e-02  5.06334081e-02 -1.13931932e-01 -4.54284586e-02
  2.15951636e-01 -7.23912641e-02 -5.42310551e-02  2.19258457e-01
  8.76010861e-03  5.59352152e-02  4.05839980e-02 -3.38683836e-02
 -2.79682260e-02  5.43128252e-02 -1.79447725e-01  1.90109690e-03
 -4.08727303e-03  1.40727554e-02 -5.61205763e-03  1.07077457e-01
 -1.84407309e-01  2.91941054e-02 -8.94024223e-03  2.12801043e-02
  1.44280139e-02  4.13243053e-03 -1.26140624e-01 -1.15790837e-01
  5.75118326e-02 -1.99339792e-01  1.96802720e-01  2.23713070e-01
  4.78087813e-02  9.78206545e-02  7.80109465e-02  5.49453907e-02
 -1.04705840e-02  3.30204926e-02 -1.78487986e-01 -1.31386369e-02
  1.38430879e-01  1.93413941e-03  7.72136673e-02  4.20637382e-03]