[-0.09112041  0.15819725  0.06025183  0.00975161 -0.01181033  0.02444133
 -0.07092711 -0.06032609  0.15187819 -0.0730449   0.26420227 -0.00768534
 -0.17537205 -0.07151444 -0.05343422  0.12879626 -0.20005155 -0.06464505
 -0.07157194  0.01053526  0.04767226  0.03495061  0.04163122 -0.00314795
 -0.10685989 -0.32280335 -0.08972028 -0.08769404  0.07124279 -0.13202874
 -0.07351556 -0.03343913 -0.16977982 -0.06599592  0.01241505  0.07281791
 -0.03965482 -0.03623241  0.19500272  0.08534639 -0.15591402 -0.00884696
  0.00232927  0.33885491  0.21866226  0.06621829 -0.03441746 -0.1019866
  0.11543075 -0.20860253  0.05662326  0.14539826  0.07452076  0.10401775
  0.07318049 -0.11514828  0.03057985  0.03801102 -0.12952362 -0.01328485
  0.06307738 -0.03218327  0.01134485 -0.05676307  0.1874685   0.08177194
 -0.06603477 -0.15828215  0.10104819 -0.11558142 -0.05834538  0.05314467
 -0.0999796  -0.16154711 -0.29009739  0.0214227   0.39349467  0.14908804
 -0.15320694  0.04086589 -0.0542862  -0.08927002  0.12358437  0.09537333
 -0.06031651  0.07677573 -0.05876523  0.04967587  0.18047315 -0.05229393
 -0.04374175  0.13810223 -0.05125548  0.03599877  0.07116524 -0.00802663
 -0.08110648  0.06886689 -0.16509068 -0.02148356  0.0425165  -0.06447034
  0.02446581  0.08193552 -0.16891666  0.12334255  0.05918959 -0.03043886
  0.02606041 -0.00445843 -0.16447718 -0.00555494  0.17213842 -0.25736496
  0.24173656  0.16254258  0.02952297  0.10929616  0.12862536  0.08891212
 -0.02961722  0.03301693 -0.1300001  -0.06318706  0.02450263  0.01907805
  0.09205835 -0.02133218]