[-0.07108474  0.18881971  0.04298596 -0.07126984 -0.06764409  0.0244297
 -0.05904322 -0.042235    0.13050994 -0.05909073  0.17465714  0.01302882
 -0.19612026 -0.02983205 -0.05268348  0.12456042 -0.22899179 -0.06367096
 -0.09756839 -0.00277602  0.01643424  0.05810538  0.00300637  0.0285132
 -0.1038139  -0.3433032  -0.11034977 -0.06523297  0.03700535 -0.1192463
 -0.01171821 -0.00840941 -0.15219529 -0.00801725  0.0200461   0.02027131
 -0.08495539 -0.08379956  0.19325012  0.10122349 -0.16038679 -0.01165384
  0.02895246  0.33247355  0.27578798  0.05754904 -0.00920292 -0.0482347
  0.14852422 -0.26539752  0.04401787  0.1756655   0.02389956  0.10184491
  0.08458275 -0.09739789  0.04141301  0.08776631 -0.18390734 -0.02366319
  0.0070069  -0.10231179 -0.00339857 -0.01357131  0.19016199  0.11811083
 -0.08781823 -0.13118021  0.15523653 -0.16095932 -0.05560261  0.00215228
 -0.09319495 -0.15670761 -0.27613872  0.03629086  0.37457988  0.18124793
 -0.12411187  0.04288786 -0.0599153  -0.0809177   0.10765574  0.09656455
 -0.10938749 -0.01676802 -0.05265831  0.07627091  0.21934663 -0.04509372
 -0.04332432  0.18255147 -0.02613077 -0.02014107  0.05619857  0.00245382
 -0.0971152   0.01696385 -0.14255767 -0.00903163  0.08296725 -0.07838944
 -0.00982439  0.13213778 -0.19895545  0.14420269  0.04763344 -0.07123947
 -0.01266369 -0.0718542  -0.16057004  0.01161875  0.17427655 -0.23022448
  0.25680825  0.16144393 -0.00573073  0.12665126  0.10494993  0.0284483
 -0.00842987 -0.05294954 -0.09755244 -0.10048431  0.07822891  0.03546305
  0.08653957 -0.04099097]