[-0.10679612  0.0906437   0.07757794 -0.03069393 -0.04034967 -0.05585436
 -0.04804226 -0.17743854  0.11802324 -0.13437748  0.21279894  0.01499656
 -0.171767   -0.14594522  0.00250827  0.18896775 -0.18314439 -0.16529779
 -0.05091348  0.02680336  0.06591512 -0.02454498  0.04954992  0.03024994
 -0.087966   -0.34426576 -0.1476296  -0.08015997 -0.02177715 -0.00380237
 -0.08744841 -0.01939129 -0.17202143 -0.07763163  0.01931562  0.0524569
 -0.00289178 -0.09554899  0.19046603 -0.0162139  -0.23348191  0.08883565
  0.0615319   0.22177429  0.19328335  0.04252445  0.03232432 -0.08504931
  0.15203209 -0.15606496  0.04564716  0.09892591  0.09720542  0.03392372
  0.03335993 -0.1386321   0.03301384  0.074945   -0.14187221 -0.00714789
  0.03781301 -0.08239824 -0.00557325 -0.05468475  0.17462467  0.10561031
 -0.0691957  -0.2011112   0.12390242 -0.14254878 -0.0734408   0.01407954
 -0.20841406 -0.17158832 -0.31029508  0.02153886  0.35644895  0.12493312
 -0.18096471  0.05656644 -0.03288962  0.01537196  0.1106831   0.14513886
  0.01546041  0.04357646 -0.09822412 -0.02235152  0.23254815 -0.05797986
 -0.06715875  0.21727526  0.00406118  0.07294743  0.03622967 -0.02956388
 -0.02580325  0.04690606 -0.16713579  0.02185193  0.01733235  0.00387434
 -0.00591941  0.10925527 -0.14943296  0.06183032 -0.00906379  0.0336488
 -0.01819151  0.02617911 -0.14548771 -0.07805883  0.07855026 -0.1854091
  0.21090317  0.22780009  0.04745815  0.08701268  0.11348297  0.0487581
  0.00579332  0.03255758 -0.1987896  -0.04221294  0.1341168  -0.00232065
  0.10552563  0.0292878 ]