[-1.41801223e-01  1.21890187e-01  8.03093910e-02 -2.31021382e-02
 -2.87905540e-02 -8.05297345e-02 -9.20049325e-02 -1.25957564e-01
  1.53061867e-01 -1.22455098e-01  2.00926378e-01 -2.28594970e-02
 -1.70180693e-01 -1.01556793e-01 -2.04861220e-02  2.17445299e-01
 -2.23628312e-01 -1.52038172e-01 -2.55832355e-02  2.67746281e-02
  6.11851774e-02 -6.97346553e-02  6.61048368e-02  3.92658599e-02
 -1.39145762e-01 -3.49258393e-01 -9.17374119e-02 -7.75059685e-02
 -4.02211212e-02 -2.27815229e-02 -8.77638832e-02  6.85065845e-03
 -1.72836795e-01 -3.65862660e-02  1.51764182e-02  1.16299942e-01
 -1.74516048e-02 -1.09131336e-01  2.05682859e-01 -3.58434841e-02
 -2.44527340e-01  6.75160764e-03  3.74723487e-02  2.20292315e-01
  2.25777730e-01  1.34534985e-02  8.82788037e-04 -1.20845392e-01
  2.01349139e-01 -1.97209448e-01 -2.80661918e-02  1.36277288e-01
  1.13437371e-02  6.68489486e-02  1.67980921e-02 -1.11231364e-01
  9.56955478e-02  7.68749341e-02 -1.62316322e-01 -9.61250514e-02
  2.84067970e-02 -9.34779868e-02  1.55602489e-03 -7.68983439e-02
  2.10382700e-01  1.20663464e-01 -7.35215694e-02 -1.79826558e-01
  1.41171739e-01 -1.24912180e-01 -2.32286435e-02  4.57594469e-02
 -1.63816139e-01 -2.09572911e-01 -2.89273709e-01 -3.27748619e-02
  3.47371995e-01  1.43816456e-01 -1.32042512e-01  9.02585983e-02
 -5.48923127e-02 -3.29607092e-02  1.04737334e-01  1.55839801e-01
  9.89378314e-04  6.99256957e-02 -1.07879639e-01  3.85025307e-03
  2.41826296e-01 -7.68573210e-02 -1.31266508e-02  1.92169935e-01
  7.45487446e-03  9.71278623e-02  2.60443278e-02 -3.11947111e-02
 -8.18552598e-02  8.20476338e-02 -1.85398400e-01  3.75025882e-03
  2.07490847e-02  2.07047574e-02  1.35007119e-02  9.25647244e-02
 -1.39189169e-01  6.62383363e-02  2.34830808e-02  4.28614840e-02
 -6.25862181e-03  3.06539616e-04 -1.06744125e-01 -9.21458602e-02
  7.47434571e-02 -1.92427695e-01  1.85653195e-01  1.89590186e-01
  5.77376746e-02  1.12713352e-01  1.15771331e-01  6.34439513e-02
 -2.51846444e-02  1.59504451e-02 -1.93107754e-01  1.65219735e-02
  1.05576746e-01  1.35289524e-02  9.03434083e-02  1.00944042e-02]