[-0.07699131  0.09660621  0.09133333 -0.00247178 -0.03585096 -0.05219121
 -0.04503783 -0.15962842  0.10496806 -0.07666922  0.22629371  0.01667931
 -0.17936629 -0.14386921 -0.01388708  0.20397978 -0.17847978 -0.15487216
 -0.05146283  0.03717316  0.06172628  0.00418254  0.07026652  0.02009599
 -0.10605778 -0.31737956 -0.10912663 -0.06549804 -0.0169684  -0.00496141
 -0.1055686   0.00421362 -0.18120205 -0.07777696  0.05243427  0.06238166
 -0.02313001 -0.11539431  0.1987419  -0.0031736  -0.24035011  0.06241569
  0.08378617  0.22280705  0.20784365  0.02819871  0.02776236 -0.09347173
  0.1575707  -0.17044745  0.0541214   0.11549031  0.09046468  0.05419464
  0.02016134 -0.13713029  0.02413293  0.10062879 -0.12415024 -0.0227938
  0.04352018 -0.06152282  0.00157713 -0.07206285  0.15206429  0.08406733
 -0.07592332 -0.19007306  0.10440798 -0.12091167 -0.07982714  0.04026688
 -0.19973095 -0.16832551 -0.31372499  0.0053234   0.35388216  0.09085762
 -0.18269083  0.03301064 -0.03000259  0.01240319  0.09988856  0.12828048
  0.0226688   0.03348946 -0.11782899 -0.04113138  0.25173289 -0.07150479
 -0.05461269  0.20909515  0.00408478  0.04652845  0.03394016  0.00766224
 -0.03135894  0.06181077 -0.16904183  0.00256597  0.01482752 -0.00922077
 -0.00937064  0.11876585 -0.15540779  0.05414994  0.01221479  0.04641582
  0.02232358  0.00489885 -0.14080034 -0.09576847  0.07469694 -0.17931393
  0.20490336  0.19983254  0.03809189  0.07270336  0.10399051  0.07889324
 -0.01543171  0.02407479 -0.1774933  -0.05258749  0.12488425  0.01110703
  0.08785783  0.02082535]