[-0.10659523  0.09732091  0.07645907 -0.02223055 -0.05042687 -0.07213206
 -0.0599292  -0.16730748  0.0989676  -0.10630876  0.21284103  0.0186801
 -0.17166717 -0.14869338  0.01064167  0.20235987 -0.19427274 -0.17915301
 -0.04720363  0.02302503  0.04526615 -0.04019797  0.06237777  0.04549558
 -0.10863989 -0.34284231 -0.12167861 -0.07873867 -0.04252676 -0.00378338
 -0.10477797 -0.00282809 -0.17425165 -0.0715192   0.02905632  0.07650804
 -0.00240491 -0.09945398  0.2015363   0.0061251  -0.23648357  0.0692398
  0.05363534  0.23711029  0.21920076  0.0351012   0.03430684 -0.05667176
  0.1510819  -0.19301587  0.04505994  0.10921594  0.0876307   0.03034684
  0.02150686 -0.13501768  0.03630119  0.08691474 -0.16517065 -0.03748036
  0.0259241  -0.09005573 -0.00058525 -0.06966227  0.18959926  0.13565324
 -0.06892619 -0.1791508   0.11250319 -0.14506255 -0.07286835  0.0163976
 -0.20200327 -0.1778634  -0.32440776  0.0154456   0.33826393  0.13199577
 -0.17737697  0.03377498 -0.02366893  0.01032732  0.10400759  0.12657346
  0.0108181   0.04711478 -0.11105844 -0.0257178   0.23463953 -0.05581627
 -0.06135407  0.21101914  0.00464111  0.05702578  0.04471981 -0.01477575
 -0.01826847  0.04717174 -0.16843319  0.02640204  0.00133763 -0.00545282
 -0.00402961  0.10196083 -0.15809678  0.03431225 -0.016952    0.01879467
 -0.03703883  0.00449925 -0.13802212 -0.09303908  0.07598149 -0.19290824
  0.19590546  0.24376547  0.02942813  0.09141476  0.08998904  0.03875943
 -0.01719157  0.0183563  -0.17470799 -0.03847028  0.13134621  0.0024743
  0.10481662  0.03006539]