[-0.07445835  0.13802125  0.03483242 -0.05709121 -0.03259929 -0.02851059
 -0.00477112 -0.10420727  0.1734605  -0.10369431  0.22600047 -0.01560761
 -0.1902034  -0.06072757  0.00477787  0.14446178 -0.22616427 -0.06046715
 -0.06656822  0.03512068 -0.0015681  -0.01041591  0.0306233   0.0598425
 -0.08521747 -0.34313008 -0.11936181 -0.07265106  0.04160605 -0.05957153
 -0.03475697  0.03298776 -0.14467128 -0.02510822 -0.0020758   0.04389545
 -0.11992331 -0.07743853  0.22668774  0.05814135 -0.15902683 -0.05441397
  0.02144198  0.27958918  0.27061382  0.0357153  -0.00258839 -0.08084933
  0.14467055 -0.24846244  0.00270439  0.12047102  0.04441364  0.11133976
  0.0713314  -0.12591863  0.04976025  0.05573932 -0.1840196  -0.03726489
 -0.02157777 -0.09575218 -0.02322804  0.00386283  0.21936427  0.14590745
 -0.07474244 -0.11906123  0.18251193 -0.17147568 -0.07396179  0.01353718
 -0.10404315 -0.16899028 -0.28725705 -0.02359469  0.33964515  0.14144409
 -0.147135    0.01647363 -0.03092686 -0.09329267  0.12650816  0.11919808
 -0.08650482 -0.0322773  -0.07691942  0.03306312  0.20490427 -0.07028034
 -0.03374707  0.17635606 -0.01680377  0.02662276  0.05041924 -0.00253289
 -0.07438385  0.04620366 -0.1856844  -0.03458474  0.09948655 -0.04268885
 -0.00486641  0.13384397 -0.20251139  0.15944521  0.06202603 -0.05256214
  0.02205792 -0.06401247 -0.14208233  0.00455259  0.14799772 -0.20305455
  0.24119058  0.15454595 -0.01663902  0.11825817  0.06530263  0.03649012
 -0.02905419 -0.03047294 -0.1419339  -0.05382551  0.06967293  0.03573978
  0.07077002 -0.03418548]