[-0.06931847  0.10498351  0.09257501  0.00133168 -0.04397751 -0.05188046
 -0.04496513 -0.16009481  0.11060943 -0.08171768  0.23414211  0.00962414
 -0.1755093  -0.15548134 -0.01912146  0.21135019 -0.1815903  -0.16441101
 -0.0632218   0.04302593  0.06431698 -0.0102793   0.07803198  0.01401075
 -0.10063167 -0.31884253 -0.10150863 -0.05933901 -0.00871985 -0.01223839
 -0.11089486  0.00779296 -0.18954113 -0.08972935  0.05263097  0.05858457
 -0.01757824 -0.11135596  0.20136543 -0.01312798 -0.24287811  0.06890031
  0.06770305  0.22506538  0.20260671  0.01721585  0.03811847 -0.10308903
  0.16005611 -0.16695826  0.06037613  0.12018094  0.09366822  0.04920154
  0.02025625 -0.14394084  0.02084109  0.10132233 -0.11621395 -0.02289648
  0.05380962 -0.05718572 -0.01057102 -0.08724768  0.14026348  0.08311718
 -0.06922205 -0.21133032  0.11268852 -0.10677315 -0.07092168  0.03607674
 -0.20489585 -0.16317479 -0.32158056 -0.00348151  0.35873926  0.09054235
 -0.20019233  0.03104731 -0.0342587   0.02173089  0.08764236  0.13368534
  0.02267319  0.05457227 -0.12420043 -0.03346943  0.22891234 -0.07856531
 -0.06290589  0.20330727  0.01189607  0.04115226  0.04130585  0.00150118
 -0.03331825  0.06362373 -0.18191329  0.00631647  0.0082972  -0.00837501
 -0.0157539   0.11568816 -0.1404634   0.06259372  0.00613772  0.05592592
  0.00670583  0.00526003 -0.13132569 -0.0951141   0.07012048 -0.17670147
  0.1974903   0.20039105  0.04453647  0.07742874  0.10459918  0.08788498
 -0.01145136  0.03528576 -0.17785227 -0.05431619  0.11188649  0.01517738
  0.08310191  0.02966209]