[-0.1278602   0.12888493  0.10013602 -0.02634033 -0.02170183 -0.04742771
 -0.01263003 -0.128094    0.09640615 -0.1123566   0.22920237 -0.03900358
 -0.24530821 -0.04686057  0.00923477  0.16985264 -0.19895549 -0.08152774
 -0.09579556  0.00295331 -0.02105771 -0.00764277  0.05617042  0.01569875
 -0.05268944 -0.3346819  -0.11655781 -0.13099967  0.03887695 -0.05532418
 -0.05233215 -0.05756658 -0.13861203 -0.02631137  0.00572805  0.06767043
 -0.07060023 -0.07914912  0.23969387  0.0206151  -0.18860379 -0.07552786
  0.00343748  0.24704278  0.23282777  0.04237306  0.01194088 -0.08802936
  0.09929942 -0.22543934  0.01931503  0.08302236  0.07258192  0.07046637
  0.02953144 -0.15079693  0.06199033  0.04952912 -0.17006832 -0.02980939
  0.05066979 -0.17157939 -0.02265068  0.02818214  0.25207624  0.08949511
 -0.09751704 -0.08679785  0.17883518 -0.16185766 -0.02032729 -0.00213953
 -0.10599482 -0.14883709 -0.2980819  -0.00577799  0.40111074  0.10626061
 -0.15825765  0.02026839 -0.0795307  -0.05694896  0.12201976  0.15859303
 -0.06614202  0.00316904 -0.09279658  0.01137881  0.19017366 -0.1140736
 -0.00427399  0.13503365 -0.04698671  0.0463083   0.06287839 -0.0136616
 -0.0735072  -0.00478127 -0.11605122 -0.00884058  0.05019758 -0.08824492
  0.00090049  0.09394252 -0.1990566   0.10176851  0.03145728 -0.07954367
  0.02242367 -0.06656986 -0.09375159 -0.05270358  0.17538501 -0.19823264
  0.20788284  0.22848442 -0.04034963  0.14434139  0.08465625  0.08354039
 -0.03470745  0.01660562 -0.1805781  -0.04959276  0.06755587  0.0358942
  0.0946878  -0.01561589]