[-0.08227354  0.15088664  0.0958501  -0.06481553 -0.1098894  -0.00899461
 -0.09367514 -0.10201553  0.14173599 -0.07528493  0.2048054   0.04888839
 -0.23417862 -0.03322341  0.01950237  0.13467605 -0.17584163 -0.11077239
 -0.03173882  0.03347452  0.0417817   0.01282103  0.08871299  0.02266432
 -0.13923262 -0.35809076 -0.12114012 -0.04694013  0.04293135 -0.07808255
 -0.07633197 -0.001754   -0.16416499 -0.01794012  0.02000133  0.07666016
 -0.10314101 -0.10915793  0.20451115  0.07594681 -0.23355758 -0.0700864
 -0.01234654  0.24320307  0.25315204  0.03562232  0.07032896 -0.10821535
  0.14694123 -0.2489357   0.09484018  0.15038688  0.0680485   0.05608546
  0.09642642 -0.10135528  0.03483912  0.12387701 -0.17624412  0.00514588
  0.05395643 -0.06606901  0.00322389 -0.05474804  0.19898672  0.14906795
 -0.07622141 -0.11754607  0.17324923 -0.12595664 -0.11430997  0.05698903
 -0.13313256 -0.20221154 -0.31285056 -0.02263891  0.348461    0.1674199
 -0.16703919 -0.0031241  -0.00721251 -0.03778186  0.11806025  0.12544039
 -0.09967711  0.040792   -0.09191586  0.05099254  0.25787887 -0.0753688
 -0.04702924  0.21061459  0.01476679  0.06971954  0.073438    0.05917619
 -0.05581107  0.00039275 -0.20161977 -0.04636219  0.07951686 -0.02382244
 -0.00918925  0.14433423 -0.16365777  0.11078675  0.0285054  -0.05022383
 -0.02048656 -0.08335941 -0.14464383 -0.04756637  0.12991618 -0.20262511
  0.20301592  0.18248472 -0.00856369  0.09170001  0.09286418  0.02589854
 -0.00405249 -0.08432144 -0.11402028 -0.05954775  0.11066709  0.02274277
  0.08239697 -0.01412068]