[-0.1369023   0.09785147  0.07005143 -0.01505368 -0.02276977 -0.0639818
 -0.07560401 -0.11329037  0.15615015 -0.1256519   0.17801379 -0.02686879
 -0.18007059 -0.08625768 -0.02812995  0.22159505 -0.18987717 -0.12325374
 -0.03546986  0.02272982  0.08161182 -0.0336316   0.0511286   0.04514358
 -0.10900763 -0.356949   -0.13199399 -0.06187889 -0.03584732 -0.023293
 -0.08333126 -0.00242525 -0.13632514 -0.04907246  0.02153001  0.11164274
 -0.01880606 -0.12749471  0.19762921 -0.02210611 -0.22544496  0.01090675
  0.0520111   0.23084238  0.20472161  0.03324773  0.01840486 -0.12754098
  0.19010086 -0.1836559  -0.02479236  0.11526132 -0.00323497  0.06463992
  0.04618892 -0.11080789  0.08243863  0.10379294 -0.14630012 -0.08170228
  0.01282077 -0.08861858 -0.01086615 -0.07887387  0.20377989  0.10667627
 -0.07583489 -0.19583111  0.14563614 -0.12340835 -0.0344017   0.03910354
 -0.16521786 -0.19172838 -0.28590199 -0.01798789  0.38390484  0.12931387
 -0.13135377  0.10884563 -0.05534879 -0.03040959  0.12699151  0.15777752
  0.01773368  0.0460806  -0.11403602 -0.00980899  0.23071229 -0.07175164
 -0.0144426   0.17239079  0.00571278  0.09271064  0.02879936 -0.01436942
 -0.10581205  0.08440475 -0.17148325 -0.02271524  0.06318898  0.02285266
  0.01780678  0.09417688 -0.14433524  0.08989329  0.02230321  0.03938864
  0.02255814 -0.00515992 -0.13074033 -0.05534245  0.09276326 -0.20318945
  0.16212559  0.17238419  0.02850007  0.11783887  0.12230664  0.09256061
 -0.02896689  0.01947289 -0.22007303  0.00607348  0.11166457  0.02757127
  0.08469998  0.00221783]