[-0.07517882  0.10850854  0.08118961 -0.0517523  -0.09962571 -0.00654819
 -0.05923532 -0.07826109  0.13446297 -0.05796319  0.16657726  0.00577196
 -0.22708574 -0.05089986  0.0405294   0.15494293 -0.19282258 -0.07355808
 -0.08415166  0.00310697  0.01281934  0.04071586  0.08240388  0.0419875
 -0.14002226 -0.38719296 -0.0943022  -0.05025449  0.04161371 -0.07606944
 -0.06795206  0.03902974 -0.17780183 -0.02569876  0.02233161  0.07016936
 -0.10887165 -0.12844573  0.21275857  0.08794411 -0.22031994 -0.08820303
  0.00666374  0.23615269  0.24452606  0.04416904  0.05444501 -0.07153239
  0.16241269 -0.26274166  0.04021186  0.15184727 -0.02053034  0.0542076
  0.09377127 -0.10590141  0.02764865  0.08700965 -0.16848291 -0.02787188
  0.02743526 -0.09204067 -0.03641872 -0.0753748   0.17805667  0.13527699
 -0.05342593 -0.1277203   0.16791174 -0.13602583 -0.08421411  0.04784011
 -0.12620841 -0.16437352 -0.33513555 -0.04093798  0.35819951  0.13721569
 -0.13670117 -0.01135053 -0.01721186 -0.04468374  0.13371061  0.11292405
 -0.08159562  0.03426258 -0.07639522  0.07448485  0.23736875 -0.06449845
 -0.03773819  0.18549539  0.01031493  0.04573315  0.06102246  0.03919999
 -0.07902654  0.00052254 -0.18800314 -0.0307802   0.13824151 -0.02129237
  0.02039995  0.14577138 -0.16945116  0.12573244  0.03882262 -0.0603497
  0.015617   -0.08221897 -0.17475228 -0.02667214  0.13950397 -0.18741392
  0.18889293  0.17810206 -0.0312115   0.09042903  0.07311081  0.04537274
 -0.05761914 -0.04647113 -0.13357686 -0.07411053  0.1085326   0.04782794
  0.06894483 -0.03154322]