[-0.05283527  0.11536247  0.10574459 -0.09845697 -0.11979043  0.00336042
 -0.0520649  -0.06948527  0.16325049 -0.10477661  0.20124066 -0.09504659
 -0.18154298 -0.02443792 -0.06282817  0.19190331 -0.18322663 -0.16522644
  0.02068071  0.02545871  0.0675595  -0.01309971 -0.07689594  0.0479071
 -0.15192863 -0.35728368 -0.06848457 -0.05001901 -0.00167179 -0.11482038
 -0.07596249  0.06728385 -0.15140449 -0.04915291  0.04247409  0.10402673
 -0.01459107 -0.07531618  0.15952168  0.06105318 -0.25966278  0.05762662
  0.04518411  0.30446056  0.18580066  0.01796841  0.00793982 -0.09639706
  0.19082978 -0.22246781 -0.01623186  0.12069815  0.10911518  0.02938286
  0.07595555 -0.09819333 -0.0140082   0.13209723 -0.2000147   0.01290949
  0.03666241 -0.06916344  0.02064913 -0.1372892   0.14755709  0.06280097
 -0.09638479 -0.10903634  0.12296429 -0.10223621 -0.06163889  0.04302818
 -0.09232229 -0.18022674 -0.26756331 -0.01842109  0.34591818  0.16016454
 -0.21129356  0.03425042  0.00713145 -0.01578349  0.12219081  0.13266349
  0.00405301  0.08256902 -0.0606381   0.02225187  0.19970459 -0.06299112
  0.0332624   0.1944356  -0.03091365  0.07247771 -0.01040822  0.02247713
 -0.1370052   0.05095118 -0.17176324 -0.06515024  0.00503772  0.02518523
  0.02564851  0.13009353 -0.2024962   0.11176863  0.00760909 -0.00586469
 -0.03674055 -0.00040905 -0.03066273 -0.02307403  0.11339028 -0.2481858
  0.09361158  0.1832733  -0.04054044  0.08801386  0.08618336 -0.04377896
  0.00696156 -0.07799681 -0.15729545 -0.03961801  0.08823179 -0.02307381
  0.06990721 -0.04645451]