[-0.11143789  0.10783193  0.0475802  -0.09678661 -0.0849181  -0.04140709
 -0.02551042 -0.10208347  0.12677853 -0.09514526  0.24990277 -0.1605749
 -0.24379539 -0.00501783 -0.09238141  0.226493   -0.19494358 -0.11792221
 -0.05021201  0.04706617  0.13162136 -0.00691629 -0.06113268  0.05346685
 -0.12402751 -0.32993564 -0.07573079 -0.05005159 -0.02839844 -0.09719528
 -0.02707465  0.00911918 -0.18671361 -0.07131746  0.05121325  0.06500348
 -0.0109654  -0.11041319  0.18324356 -0.01161828 -0.30955911  0.03864834
  0.1156528   0.252547    0.15708958  0.03677384 -0.02785848 -0.17107159
  0.12811677 -0.22332402 -0.02285758  0.10789666  0.05658589  0.04208032
 -0.0131682  -0.11129323  0.01045792  0.13938861 -0.2051564  -0.03066232
  0.10383111 -0.07585083  0.02034265 -0.12703155  0.19498102  0.06600205
 -0.14168906 -0.11165545  0.13832401 -0.1292842  -0.02101835  0.04381995
 -0.1017214  -0.21875493 -0.27978191 -0.03095542  0.39030585  0.11388557
 -0.1517732   0.05444909 -0.04878427 -0.01433376  0.1285641   0.16735066
  0.04259561  0.06611104 -0.03138591  0.05234182  0.25314167 -0.09482896
  0.04314583  0.24604487 -0.02507135  0.04227344 -0.00975443  0.022231
 -0.11240494  0.0227378  -0.13720581 -0.00699452 -0.01471192  0.02372672
  0.04464567  0.14525805 -0.17031272  0.08802164  0.02471473  0.0064526
  0.01354929 -0.01516345 -0.00763497 -0.08314684  0.10253891 -0.19742334
  0.1338571   0.15525441  0.02965516  0.0735475   0.1095873   0.01899272
  0.03189364 -0.03633461 -0.24382924  0.01809345  0.12104104 -0.02855561
  0.11725674 -0.0481493 ]