[-8.18708539e-02  9.98914614e-02  9.61193889e-02 -8.76753181e-02
 -1.27561554e-01 -1.01763289e-02 -4.82663512e-02 -5.86627685e-02
  1.59128413e-01 -6.80880994e-02  2.56311595e-01 -1.30440384e-01
 -2.62041032e-01 -5.65183647e-02 -5.14197946e-02  2.61054039e-01
 -1.93532690e-01 -9.51723531e-02 -2.51264703e-02  4.69872653e-02
  1.04686916e-01  2.52850354e-02 -3.36265266e-02  4.12598662e-02
 -1.41642243e-01 -3.91768485e-01 -5.76924160e-02 -5.12607172e-02
 -3.91973555e-02 -8.70484561e-02 -7.26054311e-02  7.94506073e-02
 -1.69685334e-01 -7.75815994e-02  8.99028555e-02  1.08388975e-01
 -4.04809229e-02 -9.13839489e-02  1.47059187e-01  1.31298378e-02
 -2.80276179e-01  8.45908001e-03  1.10554352e-01  2.47205898e-01
  1.59852907e-01  3.43622640e-02  1.69091094e-02 -1.46200165e-01
  1.28761500e-01 -2.26115346e-01 -1.61400419e-02  1.21334888e-01
  6.97075427e-02  5.15823029e-02  6.69627786e-02 -1.16920166e-01
  1.30918650e-02  1.19871996e-01 -1.81826621e-01 -3.32615152e-02
  8.51663202e-02 -8.02362412e-02  8.85298941e-03 -1.45607576e-01
  1.92981318e-01  2.67708059e-02 -1.06649019e-01 -1.29479751e-01
  1.34692281e-01 -1.05348907e-01 -4.64304462e-02  4.90962639e-02
 -1.22290909e-01 -2.02612326e-01 -3.15352529e-01 -5.21564744e-02
  3.47240180e-01  1.38618812e-01 -1.98814318e-01  5.50341606e-02
 -2.57257968e-02 -2.70521622e-02  9.43475589e-02  1.59545466e-01
  5.49084209e-02  9.98755544e-02 -5.63747585e-02  3.77852619e-02
  2.25512490e-01 -1.25335693e-01  9.26850066e-02  2.72040933e-01
  7.67201791e-03  5.55646420e-02 -7.97360297e-03 -3.42741795e-02
 -1.04202166e-01  1.69632304e-02 -1.61819920e-01 -4.88737710e-02
 -6.86332304e-03  5.79933403e-03  5.10213971e-02  1.18130304e-01
 -2.10914999e-01  8.53516981e-02  2.49968302e-02 -3.74463008e-04
  3.93622508e-03 -2.21187342e-02 -4.10589352e-02 -8.35181922e-02
  1.26978084e-01 -2.20386341e-01  1.16869092e-01  1.73718214e-01
  3.69176343e-02  7.97490180e-02  8.64098743e-02  2.97407564e-02
 -4.76435584e-04 -6.59781992e-02 -1.82218984e-01  8.25108215e-03
  1.01993673e-01 -4.67263758e-02  5.74338734e-02 -2.97904219e-02]