[-1.09173752e-01  1.29384205e-01  5.13211973e-02 -8.61563012e-02
 -7.87540004e-02 -2.79251616e-02 -3.63571085e-02 -1.21898316e-01
  1.48633167e-01 -6.43950477e-02  2.38135919e-01 -1.41474649e-01
 -2.38321826e-01 -6.31966814e-02 -8.44986886e-02  2.30304196e-01
 -1.85271904e-01 -1.33191153e-01 -4.01826836e-02  9.78296157e-03
  1.17128365e-01  1.56218745e-03 -4.15229518e-03  4.62368988e-02
 -1.49404079e-01 -3.80757272e-01 -6.24387264e-02 -4.37516533e-02
 -2.30411515e-02 -5.47925942e-02 -4.82636131e-02  3.46423574e-02
 -2.30395228e-01 -8.77440870e-02  6.72726855e-02  7.53183886e-02
  1.15358634e-02 -1.26050517e-01  1.83434099e-01 -2.14968883e-02
 -3.01536471e-01  2.98196506e-02  1.01735868e-01  2.36273631e-01
  1.59848452e-01  2.27124241e-04  1.22511825e-02 -1.58756867e-01
  1.49604976e-01 -1.63219869e-01  1.08231902e-02  1.29925057e-01
  6.08215109e-02  1.64020434e-02 -1.80121101e-02 -9.76399407e-02
 -4.01390577e-03  2.00533792e-01 -1.83643445e-01 -2.86476314e-02
  8.55846331e-02 -9.70769748e-02  2.09411164e-03 -1.34878382e-01
  1.68651447e-01  6.13826215e-02 -1.20922901e-01 -1.51613101e-01
  1.32457122e-01 -9.70510244e-02  2.61341775e-04  4.73732315e-02
 -1.36500835e-01 -2.21842200e-01 -3.14287633e-01 -6.81447331e-03
  3.62804860e-01  9.67507586e-02 -1.80188507e-01  5.84451258e-02
 -3.59719545e-02  1.55640813e-02  1.27606437e-01  1.98475718e-01
  4.74904440e-02  7.36626908e-02 -4.75110672e-02  3.41603868e-02
  2.64216036e-01 -7.24239871e-02 -8.38997494e-03  2.58072138e-01
 -4.01621424e-02  3.64972465e-02 -1.01896627e-02  2.61207968e-02
 -1.15941800e-01  2.75740679e-02 -1.24296308e-01 -6.76500378e-03
  1.79727562e-03  2.19468195e-02  9.50553641e-03  1.41370192e-01
 -1.85786203e-01  6.49799332e-02  7.46391853e-03  3.54760662e-02
  1.80363655e-02 -5.65685295e-02  1.24433478e-02 -9.68091786e-02
  9.57229733e-02 -2.03734070e-01  1.44992933e-01  1.62888631e-01
  3.15551534e-02  1.18131354e-01  1.00797653e-01  1.80069469e-02
  5.08596562e-02 -3.72832902e-02 -2.24207982e-01  9.12429485e-03
  1.40601039e-01 -3.66135836e-02  1.18942522e-01 -4.00027111e-02]