[-0.04944319  0.07273724  0.12120378 -0.06519631 -0.09092449 -0.01859436
 -0.0431478  -0.08405223  0.15013526 -0.08182372  0.23450319 -0.11383907
 -0.20638919 -0.03124295 -0.04997964  0.20482354 -0.17145412 -0.14742276
  0.02045181  0.06689113  0.10834751  0.00721047 -0.00179654  0.05773378
 -0.16682184 -0.37011412 -0.12140874 -0.06309414  0.00647392 -0.10674387
 -0.07801159  0.04408215 -0.17120457 -0.02447141  0.07020365  0.08866232
  0.01325861 -0.12145124  0.1556893   0.05845538 -0.31590056  0.05892214
  0.03419385  0.24757449  0.19873224  0.02593507  0.01399924 -0.16118024
  0.15027185 -0.17923136  0.03190422  0.13280241  0.08344461  0.03655712
  0.02396941 -0.11444055 -0.00736501  0.14129069 -0.2006456   0.00265423
  0.07868145 -0.07209975  0.07297169 -0.12244248  0.12703533  0.05042059
 -0.11649398 -0.13630031  0.15024792 -0.14223461 -0.00939575  0.07834821
 -0.1449455  -0.20672122 -0.28053796 -0.02096566  0.34490269  0.12566149
 -0.2011874   0.02371469 -0.02687734  0.02742368  0.08895843  0.20688541
  0.0545256   0.06544674 -0.06619978 -0.00167926  0.22365637 -0.09292592
  0.05801364  0.25902462 -0.04245624  0.05828663  0.00820208  0.03336161
 -0.11813428  0.03449919 -0.11652359 -0.02515473 -0.08787887  0.01338831
  0.01936822  0.1451932  -0.18727677  0.09394874 -0.00566525 -0.01745808
 -0.01614051 -0.0154523   0.00613863 -0.09769938  0.09520523 -0.25407472
  0.10643137  0.18574588  0.01361265  0.0937834   0.04012854  0.07238626
 -0.00961379 -0.06986802 -0.17595309  0.02584638  0.06915217 -0.03313034
  0.03215739 -0.0497309 ]