[-9.18205976e-02  8.83914083e-02  6.26070127e-02 -9.08832327e-02
 -6.94666132e-02 -1.49056641e-02 -3.05141578e-03 -1.09493613e-01
  1.53831288e-01 -8.40723440e-02  2.76719481e-01 -1.05925255e-01
 -2.79896706e-01 -2.56926715e-02 -8.27904567e-02  2.30555490e-01
 -1.61576360e-01 -8.49716365e-02 -1.63839348e-02  2.82729995e-02
  1.11338235e-01 -4.45611170e-03  1.44434720e-03  7.32248724e-02
 -1.02874689e-01 -3.16626042e-01 -9.05199349e-02 -2.80381795e-02
 -5.10283411e-02 -4.81953397e-02 -5.12171388e-02  4.61241528e-02
 -1.63806513e-01 -6.61243871e-02  6.17033243e-02  7.92114735e-02
 -1.36043197e-02 -1.18995167e-01  1.84752926e-01  3.25130187e-02
 -2.68737495e-01  3.77785116e-02  7.49009773e-02  2.58767128e-01
  1.48594290e-01  2.73209997e-02  4.98741865e-05 -1.97788522e-01
  1.61514476e-01 -2.13301331e-01  5.08466503e-03  1.11497715e-01
  4.31869812e-02 -3.22816009e-03 -3.74179496e-03 -1.01200692e-01
  1.39463097e-02  1.52674884e-01 -2.08153352e-01 -3.78688350e-02
  7.42644891e-02 -7.58096725e-02 -1.14386575e-02 -1.55901343e-01
  1.71488166e-01  1.03007786e-01 -1.40242457e-01 -1.33771166e-01
  1.29007325e-01 -1.10511385e-01 -3.94867212e-02  7.52448589e-02
 -1.41244277e-01 -2.15977862e-01 -2.79385298e-01 -1.85692462e-03
  4.02780145e-01  1.02136709e-01 -1.58806071e-01  6.04331382e-02
 -3.51927541e-02 -2.18587113e-03  1.33649722e-01  1.97238758e-01
  3.46707143e-02  6.96199089e-02 -5.23105264e-02  1.05767529e-02
  2.27168560e-01 -9.63325128e-02 -6.83642167e-04  2.68766493e-01
 -1.98820680e-02  5.85165694e-02  2.67865490e-02  4.36527058e-02
 -1.07129656e-01  2.14788504e-02 -1.70233130e-01 -5.85182011e-02
  6.52680499e-03  1.29613362e-03  3.61619666e-02  1.01293646e-01
 -2.02213511e-01  8.39480087e-02  2.20343447e-03  3.74290394e-03
  4.68192995e-02 -6.51695952e-02 -2.51691099e-02 -5.97772114e-02
  1.05169870e-01 -2.29009986e-01  1.13433793e-01  1.27880856e-01
  2.94247568e-02  8.94441828e-02  1.06716655e-01  5.06638475e-02
  6.41498575e-03 -4.88659143e-02 -1.94741279e-01  8.53990577e-03
  1.39936700e-01 -1.72651988e-02  1.26095697e-01 -7.07462355e-02]