[-0.07812475  0.12983817  0.04735783 -0.09571756 -0.09110145 -0.01576958
 -0.04448795 -0.12594476  0.18272273 -0.11370599  0.26432279 -0.10800641
 -0.27606994 -0.00466948 -0.11880292  0.20046924 -0.19407243 -0.14774263
 -0.01126738  0.04946034  0.12642652 -0.03821532 -0.04172798  0.05860387
 -0.13149767 -0.35210702 -0.07867127 -0.01770139 -0.02126466 -0.03656583
 -0.05656856  0.01975311 -0.21272969 -0.04041451  0.05152978  0.07959523
 -0.00693468 -0.08595996  0.17806433 -0.00224331 -0.29024076  0.05488441
  0.04937093  0.22987118  0.12089924  0.03402998  0.01480125 -0.21265678
  0.15479867 -0.21298102  0.03944876  0.16736083  0.09169497  0.00259709
  0.00072482 -0.14912941 -0.02572805  0.19347619 -0.19225489  0.00120514
  0.08354896 -0.08399861 -0.00271177 -0.18731274  0.1567698   0.11079486
 -0.1159276  -0.16954546  0.16338442 -0.12983365 -0.01095727  0.06243249
 -0.11000725 -0.23172465 -0.28663692 -0.01283732  0.36083612  0.15318556
 -0.14341457  0.06732704 -0.05561979  0.02118027  0.09224831  0.14025283
  0.00546533  0.07531779 -0.07105418  0.02713123  0.23926969 -0.09018617
  0.02816024  0.25138056 -0.04591982  0.05989825 -0.01778531 -0.00604088
 -0.14140697  0.02305725 -0.1388675  -0.0295036  -0.04336851  0.00915459
  0.03245302  0.11867522 -0.1931759   0.04725768 -0.02773039  0.00703135
  0.02239087 -0.01914828 -0.00936521 -0.10648602  0.11071769 -0.23872018
  0.15898876  0.13663493  0.04927097  0.11377034  0.10406914  0.03845144
  0.01695372 -0.06787671 -0.22358663  0.00966657  0.11290206 -0.04118709
  0.09887479 -0.04980468]