[-0.08841028  0.11158577  0.06786688 -0.07424472 -0.09960809 -0.04902241
  0.00175245 -0.12134887  0.1818497  -0.09432437  0.2667399  -0.1186612
 -0.24753466 -0.08022022 -0.06658684  0.21120416 -0.21348476 -0.14080444
 -0.01708599  0.05796019  0.1523433  -0.01588215 -0.04624606  0.06862435
 -0.15181285 -0.3797532  -0.11275041 -0.0478757  -0.01335127 -0.06508666
 -0.06653495  0.07261541 -0.19205315 -0.08227106  0.0868781   0.06637057
  0.00273918 -0.09380159  0.13335276 -0.02168052 -0.2997317   0.06642633
  0.10471671  0.24417531  0.17906658  0.04443263  0.0148837  -0.18333256
  0.12524189 -0.14758904 -0.03036003  0.14882666  0.08487241  0.03064428
  0.03337191 -0.14065574 -0.01696958  0.09242203 -0.18538994 -0.04020865
  0.10672138 -0.11500882 -0.00562949 -0.16971916  0.15042411  0.02919623
 -0.11822295 -0.1827254   0.14843999 -0.17646271 -0.02814627  0.06588629
 -0.14327076 -0.20633458 -0.2786783  -0.03578045  0.3443335   0.1443086
 -0.17589815  0.08575778 -0.03825607  0.03198607  0.09299902  0.16596714
  0.04124851  0.10626411 -0.06788072  0.02088617  0.24171196 -0.09169455
  0.05565829  0.24885722 -0.03090185  0.0229358   0.01739686 -0.0564091
 -0.10339396  0.02718819 -0.14837579 -0.00954302 -0.0478608  -0.01922764
  0.02072621  0.09548866 -0.18498044  0.07092509 -0.00177991  0.00892351
 -0.03490053 -0.04405904 -0.0583688  -0.0542467   0.10837965 -0.2541472
  0.18274532  0.15804274  0.05995508  0.0962221   0.08108137  0.04730931
 -0.01542192 -0.05607869 -0.17924154 -0.01016652  0.12620032 -0.07916038
  0.12604526 -0.08619048]