[-0.0777659   0.09275961  0.05848144 -0.07304597 -0.07279333 -0.04404905
 -0.00310021 -0.13105015  0.18274052 -0.10657611  0.26366588 -0.1158504
 -0.25409234 -0.08521859 -0.06617752  0.22616266 -0.20404582 -0.11615225
 -0.02515746  0.04026574  0.1162528  -0.01374339 -0.01719394  0.07427634
 -0.13529198 -0.37971866 -0.10617989 -0.06368949 -0.01155422 -0.04195416
 -0.06341445  0.06274541 -0.18429737 -0.06440405  0.08298928  0.06111912
  0.00422289 -0.0966508   0.13670211 -0.0241691  -0.30039001  0.06261653
  0.0904386   0.24101427  0.18791139  0.03613569  0.03323697 -0.1899806
  0.1458953  -0.13230072 -0.02244409  0.11513396  0.07907692  0.00416321
  0.03888092 -0.14718103 -0.03160439  0.1298015  -0.17865391 -0.02769325
  0.09929723 -0.09229916 -0.00766316 -0.16382399  0.16584311  0.03970092
 -0.14361647 -0.18087642  0.1703959  -0.18069735 -0.00750284  0.06410965
 -0.1514238  -0.21216331 -0.29541847 -0.03075574  0.33692408  0.14101508
 -0.16605547  0.07584259 -0.02583681  0.05284518  0.10432066  0.20128162
  0.04343149  0.09190031 -0.04930933 -0.00574032  0.23423214 -0.08100134
  0.03258713  0.24870567 -0.05291991  0.01557878 -0.00639272 -0.05396426
 -0.1183536   0.02383208 -0.14988208 -0.01105373 -0.0585968  -0.01143279
  0.03090903  0.10108951 -0.18234143  0.07379898 -0.01621361  0.0245865
 -0.01033216 -0.02621501 -0.04510097 -0.05296988  0.1085455  -0.25408652
  0.1800371   0.15471505  0.07892509  0.09884091  0.08261712  0.05275885
 -0.0033271  -0.03882206 -0.20154245 -0.00403129  0.11880044 -0.08788749
  0.13244404 -0.08144008]