[-0.0868147   0.10264822  0.09520072 -0.09032062 -0.11988012 -0.01451735
 -0.04206106 -0.05804702  0.15370961 -0.07155563  0.26249725 -0.13014291
 -0.25856671 -0.05859534 -0.05232609  0.25960419 -0.19635254 -0.09104624
 -0.02616728  0.04807377  0.11042966  0.0099637  -0.0390939   0.03895707
 -0.13984425 -0.3781158  -0.05149502 -0.04322268 -0.05238426 -0.10474803
 -0.06228532  0.06423239 -0.18218778 -0.07280458  0.07783461  0.11388016
 -0.04610102 -0.09862646  0.14766344  0.00702554 -0.26755551  0.00570151
  0.09815588  0.2359504   0.16213542  0.03934151  0.01564119 -0.15035652
  0.13276201 -0.22177258 -0.01888198  0.11742871  0.06727174  0.05049197
  0.04968711 -0.1166503   0.01049318  0.11062533 -0.1716042  -0.03956677
  0.0955409  -0.07838064  0.00581329 -0.14607446  0.19808805  0.02836394
 -0.11226251 -0.13001308  0.14454305 -0.10335848 -0.04763744  0.03638592
 -0.11768251 -0.20910011 -0.30241454 -0.04097226  0.32709795  0.13354754
 -0.19603793  0.04430591 -0.02976726 -0.01714867  0.09205029  0.16161115
  0.06129263  0.09939702 -0.05330548  0.0432157   0.23375697 -0.12598799
  0.08568618  0.26789555  0.00060841  0.05314732 -0.01457993 -0.04828158
 -0.0946805   0.0399885  -0.15446237 -0.02692685 -0.00134693  0.00604157
  0.04994608  0.12315295 -0.19387929  0.08391555  0.01531359  0.00753407
  0.00151123 -0.02732406 -0.06114056 -0.08493215  0.12370302 -0.2154353
  0.13465409  0.17423275  0.03974727  0.07160164  0.09733947  0.04194196
  0.01910403 -0.05542944 -0.19661811  0.01280673  0.10310399 -0.04256597
  0.06251355 -0.03050068]