[-0.04955074  0.1142676   0.05848157 -0.09537429 -0.09020384 -0.00826152
 -0.01934651 -0.10079914  0.17883775 -0.09376087  0.27104816 -0.1585907
 -0.28282404 -0.0434682  -0.09015455  0.22480474 -0.18093774 -0.09645411
  0.00857439  0.03945241  0.07026329 -0.00411839 -0.03782926  0.06360797
 -0.09598366 -0.34304711 -0.06545635 -0.0456286  -0.02705493 -0.08422381
 -0.0875212   0.05679767 -0.17021789 -0.07208396  0.0744856   0.07048138
 -0.04005648 -0.07489198  0.17671891  0.01375828 -0.2709198   0.007926
  0.07415894  0.25974011  0.12785625  0.03929808 -0.01102668 -0.21184269
  0.1767042  -0.19298032  0.02558209  0.12831746  0.06849879 -0.00317893
  0.00565681 -0.1411659  -0.01183441  0.17277762 -0.1900955   0.00527523
  0.09180864 -0.10311063 -0.02930709 -0.13070647  0.15590493  0.057983
 -0.09523325 -0.18003847  0.15060654 -0.1160389  -0.03579704  0.08209179
 -0.10695226 -0.21572183 -0.30826315 -0.02334758  0.37729156  0.11056628
 -0.14427382  0.06995692 -0.03416505 -0.0108874   0.13875811  0.16683002
  0.01535911  0.05524233 -0.07141352  0.01125537  0.21857063 -0.11960137
  0.02429627  0.21139805 -0.05140731  0.07294022 -0.01584211 -0.01539046
 -0.12822765  0.05206143 -0.16152446 -0.07104306  0.01583367 -0.01124093
  0.03124138  0.12733214 -0.24659483  0.07332588  0.02329798 -0.00958972
  0.05317496 -0.04351247 -0.01852151 -0.07008767  0.13331832 -0.25445586
  0.14291576  0.13847981  0.07600144  0.10174381  0.10263536  0.01670647
  0.02859901 -0.08154403 -0.22032002  0.01189086  0.12134844 -0.01618935
  0.09482007 -0.06016672]