[-5.74592762e-02  9.91108119e-02  1.04075506e-01 -7.35958219e-02
 -1.12491511e-01  1.54199973e-02 -4.98113669e-02 -1.18365251e-01
  1.48430005e-01 -8.51896703e-02  2.43530706e-01 -1.12412930e-01
 -1.85688540e-01 -3.55881788e-02 -5.50894625e-02  2.10728168e-01
 -1.81547031e-01 -1.39609680e-01  4.04341929e-02  4.87605184e-02
  8.37243646e-02  2.75766407e-03  1.46990931e-02  3.97908501e-02
 -1.86781734e-01 -3.17459434e-01 -9.63169560e-02 -6.34465218e-02
  3.16925421e-02 -9.51346681e-02 -1.17948070e-01  5.55341020e-02
 -1.65591404e-01 -2.50841957e-02  6.99279904e-02  8.90795439e-02
 -1.50400745e-02 -9.18444768e-02  1.42736554e-01  5.11333048e-02
 -2.96146184e-01  5.61687909e-02  5.71462214e-02  2.43784502e-01
  1.73251390e-01  4.69478443e-02  5.60853863e-03 -1.57096863e-01
  1.46377549e-01 -1.93368122e-01  2.52223015e-02  1.16596043e-01
  7.15213045e-02  6.52260939e-03  2.64508966e-02 -1.07522286e-01
 -1.72735751e-02  1.41645342e-01 -1.73202753e-01  3.54979411e-02
  1.01474695e-01 -2.66255978e-02  3.33641805e-02 -1.18010357e-01
  1.56240866e-01  8.47652256e-02 -1.25392437e-01 -1.40456170e-01
  1.26386136e-01 -9.53290090e-02 -6.73906803e-02  8.40289593e-02
 -1.16470709e-01 -2.05621704e-01 -2.55231112e-01 -2.73921043e-02
  3.73041779e-01  9.64954644e-02 -1.90808803e-01  1.80302318e-02
 -5.19241393e-03  3.64220148e-04  1.09381318e-01  1.73552632e-01
  1.01294769e-02  5.01549058e-02 -6.96228370e-02 -2.04849709e-02
  2.49693677e-01 -1.00555122e-01  5.21286093e-02  2.42377028e-01
 -3.97454388e-02  7.20502660e-02 -2.28675008e-02  6.00484125e-02
 -1.22314133e-01  6.69028908e-02 -1.37696952e-01 -6.27808124e-02
 -1.82321519e-02  3.74560797e-04  5.59861306e-03  1.62501574e-01
 -2.11940005e-01  1.12660959e-01  2.32396089e-03 -8.89400393e-03
  1.44948140e-02 -1.22212814e-02 -2.11208034e-02 -5.32959774e-02
  9.46002603e-02 -2.60490268e-01  1.22436903e-01  1.88543186e-01
  3.21817212e-02  5.92262745e-02  9.63356867e-02  2.25262493e-02
  3.69822644e-02 -4.04548235e-02 -1.84312209e-01 -2.24524327e-02
  9.66876969e-02 -8.35222229e-02  2.78139003e-02 -3.79105881e-02]