[-0.09342674  0.08528928  0.05391104 -0.09816288 -0.08683361 -0.02419997
 -0.00697317 -0.09418393  0.14920704 -0.09294768  0.25724635 -0.13211976
 -0.27426013 -0.00834113 -0.08812822  0.22650595 -0.15966108 -0.08661206
 -0.02659313  0.0364259   0.11212929 -0.00101354 -0.01420848  0.07556561
 -0.09735086 -0.33167905 -0.09436186 -0.02740213 -0.0413698  -0.05797027
 -0.04983269  0.05103532 -0.16845931 -0.07397985  0.06459054  0.07376092
 -0.0144971  -0.1135233   0.18242899  0.03513208 -0.27452368  0.04451294
  0.06510928  0.26327083  0.14349252  0.045462    0.00219344 -0.21286677
  0.16231784 -0.21216384  0.01081454  0.11252347  0.04631658 -0.00456024
 -0.00736084 -0.10802317  0.01628029  0.14921682 -0.2240821  -0.03934954
  0.0851979  -0.07246741 -0.01453335 -0.17094795  0.17156826  0.09181385
 -0.13602827 -0.13714103  0.14654563 -0.1189793  -0.02356597  0.06918199
 -0.12662812 -0.21752553 -0.27907705  0.00120032  0.40318355  0.12357604
 -0.15347898  0.06135207 -0.04329193 -0.00228388  0.12474499  0.18997674
  0.02278598  0.06638457 -0.04095201  0.01758906  0.21533643 -0.09839749
  0.00605547  0.25340596 -0.01330954  0.05524209  0.02279008  0.02875625
 -0.12759709  0.01881561 -0.16561028 -0.05188025 -0.00299928  0.00225107
  0.03756293  0.11173775 -0.19848707  0.1036526  -0.00693586 -0.01325229
  0.03176909 -0.0588797  -0.02210964 -0.06424152  0.10477713 -0.22930324
  0.10174574  0.12719142  0.03908262  0.10549878  0.1094385   0.05608664
  0.00651917 -0.04453059 -0.21359901  0.00617993  0.15004818 -0.01172259
  0.12613486 -0.06668047]