[-0.14992701  0.13619304  0.10495021 -0.07923484 -0.12905073  0.01167163
 -0.02662699 -0.0753335   0.17450258 -0.09733385  0.23318878 -0.04310378
 -0.2674351  -0.03916904 -0.02529493  0.27717957 -0.15120487 -0.1417564
 -0.03784766  0.0314986   0.1164596   0.05598951 -0.02100882  0.06767558
 -0.12517567 -0.38926381 -0.02624684 -0.03202205 -0.03441327 -0.07879684
 -0.08467979  0.04795119 -0.19290534 -0.05038354  0.07118525  0.10442477
 -0.06511244 -0.11498665  0.15214069  0.03401036 -0.29727045 -0.01950831
  0.09703567  0.25007111  0.18365756 -0.00557416  0.02132152 -0.17086612
  0.13280313 -0.29314825  0.00243375  0.12720303  0.03504951  0.06613471
  0.0754136  -0.152831    0.01489152  0.06685228 -0.18353982 -0.0235232
  0.06979742 -0.06248167 -0.03087431 -0.15123221  0.18215959  0.06076387
 -0.12830895 -0.09899333  0.14616702 -0.09294062 -0.03052532  0.0530384
 -0.13214791 -0.24444111 -0.29279518 -0.0069006   0.35442403  0.17265444
 -0.19674078  0.03872388 -0.01521977  0.0052879   0.08045914  0.1726125
  0.03281045  0.07159033 -0.04631845  0.09259588  0.20462413 -0.09088831
  0.06914693  0.31616479  0.0244649   0.04184839  0.00744031  0.08544967
 -0.1023651   0.00112445 -0.19016172 -0.05582422  0.04103013  0.00660141
  0.06104484  0.14735539 -0.20389266  0.108018    0.00909152  0.01104766
  0.02047125 -0.03766783 -0.05707347 -0.0731599   0.07562493 -0.15986733
  0.14936154  0.17450081 -0.00072953  0.09538946  0.08472032  0.03528039
  0.00977479 -0.09216378 -0.17099927 -0.00296586  0.11834097 -0.03134041
  0.03019796 -0.02013585]