[-0.11410353  0.1034049   0.06622244 -0.0823824  -0.08394659 -0.04558858
 -0.0175821  -0.09855168  0.12217882 -0.09851348  0.24625127 -0.16178937
 -0.24872778  0.00252659 -0.08524368  0.21962331 -0.1876698  -0.10793072
 -0.06085011  0.04769606  0.13450983 -0.01085125 -0.05433691  0.04240341
 -0.12146769 -0.32753795 -0.07101368 -0.04851843 -0.0295386  -0.08535821
 -0.03280484  0.00706593 -0.18511759 -0.07347855  0.05007561  0.0550319
 -0.02533332 -0.10196159  0.18768798 -0.01617206 -0.31027815  0.03051012
  0.10816584  0.24578927  0.15418042  0.05000409 -0.02972963 -0.16449471
  0.11719837 -0.23452966 -0.01276321  0.11287693  0.05492473  0.04264422
  0.00198292 -0.11033603  0.00717905  0.14233446 -0.19619851 -0.02292785
  0.1031582  -0.08449738  0.01671344 -0.12352271  0.19842465  0.06686594
 -0.13925709 -0.10652924  0.13760297 -0.12153007 -0.02203432  0.04660658
 -0.09945562 -0.22008614 -0.27422044 -0.02636523  0.39532301  0.11361358
 -0.15377837  0.04563359 -0.05516698 -0.01624334  0.1355674   0.16689487
  0.04418958  0.05775659 -0.02779963  0.04680105  0.24067731 -0.10521539
  0.03975905  0.24710695 -0.02271166  0.02781603 -0.01936176  0.00737158
 -0.11155564  0.02175142 -0.13963732 -0.02112803  0.00273462  0.02844951
  0.04384825  0.14433545 -0.17567782  0.07779323  0.0197491   0.00238831
  0.02632359 -0.02389571 -0.01530293 -0.08540695  0.09571198 -0.20203236
  0.133966    0.15778331  0.02293919  0.07025957  0.10717303  0.01453576
  0.04585323 -0.0288897  -0.24154918  0.0142628   0.1320187  -0.01628988
  0.10921611 -0.05078911]