[-0.09607649  0.14456081  0.09943829 -0.0887512  -0.1002399   0.02383745
 -0.03654947 -0.09843593  0.16699766 -0.11544041  0.25429702 -0.08876157
 -0.28155661 -0.04896898 -0.04673121  0.29054829 -0.17971605 -0.13056913
 -0.03547559  0.00984156  0.08200938  0.04857982 -0.00582201  0.05258924
 -0.11137446 -0.39589295 -0.03831115 -0.02884307 -0.03171824 -0.07944741
 -0.07761396  0.07201745 -0.18171361 -0.02863546  0.0768865   0.10316812
 -0.04225912 -0.11313368  0.1350901   0.02394616 -0.27883345 -0.00365311
  0.10135424  0.24885316  0.17844789  0.00348863  0.02368858 -0.16359077
  0.11359788 -0.25245166 -0.01568538  0.10704807  0.02835233  0.0458812
  0.05981621 -0.17417414 -0.01087772  0.08123373 -0.12664624 -0.04455488
  0.08779229 -0.05139554 -0.02725121 -0.13414815  0.19747972  0.04198439
 -0.15572676 -0.09865846  0.14787415 -0.0778602  -0.01035206  0.0409537
 -0.13734896 -0.21947971 -0.27163363  0.00107906  0.38115823  0.13422342
 -0.19218019  0.02827975 -0.00332239  0.02802628  0.10002499  0.1929405
  0.0247862   0.06526434 -0.05095999  0.07517194  0.19834471 -0.09257039
  0.04873569  0.28498468 -0.0142035   0.06564853 -0.00833255  0.05555943
 -0.09878766  0.02989297 -0.18961209 -0.02855415  0.01431814  0.00423989
  0.02326843  0.14630589 -0.17697886  0.09914277  0.02056835  0.01394538
  0.02804448 -0.00569753 -0.04443653 -0.06736495  0.0879487  -0.19614753
  0.12544367  0.18904109  0.01916878  0.10116998  0.10582443  0.05433652
  0.03654614 -0.07784551 -0.19710174 -0.01289684  0.10805783 -0.04595206
  0.02671692 -0.03935183]