[-0.13223889  0.10435519  0.07535236 -0.07476458 -0.09082802 -0.03828963
 -0.01929556 -0.06525431  0.12405498 -0.06209581  0.22455226 -0.14839935
 -0.23818119  0.00500044 -0.07488339  0.21001601 -0.18316653 -0.10603614
 -0.06313782  0.02168267  0.15135875 -0.00492191 -0.04820077  0.0596459
 -0.15202399 -0.35851091 -0.05611491 -0.04956947 -0.01480503 -0.07392453
 -0.04207603  0.02131776 -0.19596447 -0.08736219  0.05971301  0.08040234
 -0.00722724 -0.09630495  0.18788026 -0.02973819 -0.32273751  0.05782398
  0.12921502  0.24551415  0.1584495   0.05355506 -0.02049497 -0.11510076
  0.11463934 -0.26171061  0.01434586  0.13305317  0.05838327  0.06693898
 -0.00081077 -0.09180174  0.01254294  0.1479073  -0.21802978 -0.02304913
  0.09841663 -0.10792154  0.02033207 -0.11857706  0.17772762  0.07542627
 -0.13645066 -0.09733196  0.10881789 -0.1391716  -0.009086    0.0621449
 -0.09794382 -0.21820191 -0.2900151   0.01461659  0.40728316  0.1506592
 -0.158547    0.05263191 -0.04935159 -0.00493312  0.12378309  0.15915672
  0.0429007   0.07092562 -0.02235033  0.06672925  0.23432477 -0.0706357
  0.02852819  0.26293707  0.01538034  0.03133259 -0.00634475  0.04792259
 -0.10015493 -0.02300658 -0.13447241 -0.00833246  0.00624841  0.03746491
  0.03755335  0.12452205 -0.19873324  0.10112844  0.00474809 -0.01074156
  0.01116138 -0.01430086  0.01083773 -0.07738885  0.08591138 -0.21584813
  0.12669359  0.17841814  0.01500408  0.09878058  0.08455798 -0.00166393
  0.0476184  -0.04598035 -0.20301533 -0.01491415  0.14004147 -0.02719863
  0.12007729 -0.03949536]