[-0.13012895  0.06442506  0.06098341 -0.10309785 -0.127865   -0.02620205
 -0.00387452 -0.12065684  0.13020955 -0.11954436  0.27180523 -0.10255156
 -0.25549242 -0.01325282 -0.10899917  0.17363568 -0.18305546 -0.11527368
  0.02818387  0.00650398  0.08113258 -0.01374744  0.01187221  0.0640275
 -0.11586435 -0.32485232 -0.10396236 -0.08036685 -0.03920856  0.00594969
 -0.02512762  0.07401904 -0.17125304 -0.04088768  0.02827453  0.06426124
  0.00623897 -0.056889    0.19262968  0.00236981 -0.26722547 -0.02080747
  0.07132899  0.26519251  0.11475249  0.04222037 -0.00456344 -0.12419059
  0.13048385 -0.1957359   0.0202765   0.13432454  0.054081   -0.02456056
  0.03119826 -0.08918252  0.009238    0.12791112 -0.17407477 -0.02478
  0.04778533 -0.04964022  0.04197989 -0.17275928  0.22348499  0.09015022
 -0.1110061  -0.09444614  0.17993011 -0.12173124 -0.05690671  0.08566639
 -0.14818147 -0.20513864 -0.24574254  0.00469539  0.42403609  0.13826215
 -0.10252305  0.06151317 -0.03118734 -0.05229516  0.12300908  0.16607361
  0.00709069  0.09851895 -0.04924925  0.01062106  0.22916842 -0.0949174
 -0.01615867  0.23626935 -0.04087503  0.0453559   0.04588511  0.01583818
 -0.08908838  0.02917235 -0.16471033 -0.01589451 -0.00567596 -0.04285583
  0.01376751  0.09600007 -0.17501324  0.03564669 -0.02345389 -0.02421872
 -0.0307378  -0.02406657 -0.03337744 -0.06425326  0.11402017 -0.22108471
  0.13743904  0.11599386  0.0023298   0.12740664  0.08824066  0.03123087
 -0.00721899 -0.06883036 -0.15970771 -0.04540558  0.14998589 -0.04755341
  0.13918507 -0.04183715]