[-0.04030387  0.10279649  0.05910486 -0.1070832  -0.09260435 -0.00685034
 -0.02410137 -0.10028892  0.1773276  -0.09794111  0.25456727 -0.15477812
 -0.26724082 -0.03734816 -0.08535119  0.22088785 -0.19207333 -0.09029424
 -0.00500363  0.03538554  0.05645458  0.00606635 -0.04176703  0.0544314
 -0.09345422 -0.3511202  -0.06649176 -0.04887011 -0.04073283 -0.07518461
 -0.07839066  0.07118692 -0.1772383  -0.07962213  0.07717382  0.07565289
 -0.04291418 -0.06250071  0.1731043   0.01563385 -0.26691017  0.0177095
  0.08341205  0.26084867  0.13699202  0.03722167 -0.015315   -0.20473765
  0.1844565  -0.18941832  0.01702119  0.12262632  0.06511381  0.0091179
  0.00786448 -0.13036649  0.00103047  0.16259526 -0.18239203  0.00066104
  0.10400082 -0.10953331 -0.02282901 -0.12612545  0.16201039  0.04437661
 -0.08976059 -0.18142192  0.13779542 -0.11409088 -0.03962109  0.07082874
 -0.11200584 -0.20869945 -0.31411457 -0.01929315  0.37824017  0.11534019
 -0.14335135  0.07098638 -0.03331779 -0.01854741  0.1448247   0.16660181
  0.01519347  0.06928708 -0.05671319  0.02598579  0.22385703 -0.11495739
  0.02524059  0.21390903 -0.05044191  0.08217262 -0.01395907 -0.03133995
 -0.12334643  0.05633897 -0.17853896 -0.05668876  0.01380832 -0.00414233
  0.03957517  0.12958233 -0.23764387  0.08393897  0.01854144 -0.00789858
  0.04570586 -0.04033846 -0.02682881 -0.0706735   0.14183329 -0.24243689
  0.13725191  0.13859442  0.08082288  0.09794169  0.10860723  0.01262815
  0.0205384  -0.06741991 -0.23021248  0.02104255  0.13165216 -0.01089441
  0.10268412 -0.05612719]