[-9.02368873e-02  1.13990270e-01  6.29414991e-02 -1.14705376e-01
 -1.01513647e-01 -2.38943938e-02 -6.87076757e-03 -1.11177839e-01
  2.03109026e-01 -9.23365876e-02  2.84487009e-01 -1.23679183e-01
 -2.15116188e-01 -4.03255746e-02 -8.52140784e-02  2.20783114e-01
 -1.98499650e-01 -1.11984782e-01 -3.01573868e-03  4.33299579e-02
  1.09299205e-01 -6.86102081e-03 -3.11017670e-02  3.08042616e-02
 -9.90436450e-02 -3.42165321e-01 -9.27745327e-02 -2.54248809e-02
  1.97317377e-02 -7.92979524e-02 -4.95972149e-02  4.62641530e-02
 -1.97764471e-01 -7.47295767e-02  7.82869682e-02  7.59841129e-02
 -3.99880819e-02 -1.07324615e-01  1.58471778e-01 -1.52466018e-02
 -2.87424535e-01  2.36252528e-02  9.39581916e-02  2.42141247e-01
  1.56933829e-01  1.17295636e-02 -6.30570983e-04 -2.24085853e-01
  1.66299507e-01 -1.56704068e-01 -1.48887935e-04  1.31218269e-01
  6.00959733e-02  1.08601162e-02  1.00744544e-02 -1.14423774e-01
 -6.99465745e-04  1.63765073e-01 -1.84981123e-01 -5.41396579e-03
  1.12805128e-01 -7.62113705e-02 -3.69638428e-02 -1.55738577e-01
  1.38019666e-01  6.69407099e-02 -1.10330798e-01 -2.18026429e-01
  1.44616753e-01 -1.20186232e-01 -3.25927995e-02  8.49258825e-02
 -1.30228698e-01 -2.19156131e-01 -2.72662729e-01 -5.52838258e-02
  3.77764225e-01  7.33549148e-02 -1.38571933e-01  8.66341963e-02
 -2.96489093e-02 -1.64323021e-02  1.10343449e-01  1.96945533e-01
  3.09555717e-02  7.55423531e-02 -5.45298420e-02  2.11443044e-02
  2.44813785e-01 -1.11716367e-01  3.74179557e-02  2.31075436e-01
 -5.57966940e-02  4.68902513e-02 -2.65334994e-02  3.87504557e-03
 -1.09559551e-01  6.92285076e-02 -1.40622854e-01 -5.68072982e-02
 -7.60826236e-03 -2.09875740e-02  1.13677168e-02  1.26841575e-01
 -2.23148450e-01  1.01554990e-01  1.85286049e-02  4.78214547e-02
  3.65155749e-02 -7.47295693e-02  5.93350083e-03 -5.44025488e-02
  1.17421620e-01 -2.39783987e-01  1.63625389e-01  1.49034306e-01
  5.42498901e-02  9.08578709e-02  9.53126326e-02  3.54345106e-02
  4.12709340e-02 -5.04550524e-02 -2.28881598e-01  3.51560712e-02
  7.20300302e-02 -5.25280423e-02  7.26768002e-02 -5.82126081e-02]