[-0.11388741  0.10873667  0.06268395 -0.07836685 -0.07875986 -0.04612616
 -0.02501982 -0.11061533  0.11823978 -0.08750176  0.24104273 -0.1584432
 -0.24667047  0.00406761 -0.08846794  0.2191464  -0.18335006 -0.117874
 -0.0596948   0.04678377  0.12324506 -0.00695805 -0.05629543  0.04611883
 -0.11908128 -0.32791254 -0.07144682 -0.05216003 -0.02212228 -0.09981509
 -0.04582495  0.00328927 -0.18575715 -0.07367303  0.05929143  0.06069576
 -0.02692044 -0.10826881  0.19159286 -0.00976267 -0.30656806  0.03033949
  0.10795461  0.25409862  0.1729029   0.0445418  -0.04031943 -0.16690364
  0.12642561 -0.23710637 -0.01480374  0.11048325  0.06481271  0.05086742
 -0.00402259 -0.11821925  0.00545729  0.13591965 -0.20603156 -0.02738014
  0.09494695 -0.09096511  0.0142404  -0.11972248  0.19593455  0.06986094
 -0.13855544 -0.0960752   0.14673243 -0.12293398 -0.00970658  0.04356826
 -0.09595456 -0.22388056 -0.26725146 -0.03040737  0.38422355  0.11820926
 -0.16478606  0.04050822 -0.05199906 -0.01042616  0.12809356  0.15664461
  0.03817435  0.05729311 -0.02920623  0.04700345  0.24292396 -0.10162212
  0.0438675   0.24712212 -0.02846279  0.0348436  -0.00731623  0.02167234
 -0.11321961  0.0140256  -0.14774998 -0.02772585 -0.00066163  0.02889249
  0.05126312  0.15271536 -0.17614196  0.0833583   0.02770676  0.00230789
  0.02463647 -0.03184318 -0.00378203 -0.08580372  0.10102492 -0.20176807
  0.13937245  0.15814261  0.01717833  0.07233496  0.09413406  0.00742825
  0.03737877 -0.03988187 -0.23972218  0.01534891  0.12815677 -0.01458832
  0.10382744 -0.05007687]