[-0.05243603  0.12308216  0.11184668 -0.07597857 -0.11724108 -0.00274069
 -0.05861276 -0.10288844  0.15431103 -0.09607255  0.22131503 -0.11524787
 -0.19261007 -0.0300651  -0.07113891  0.21470633 -0.18637362 -0.15019025
  0.01052733  0.03540099  0.08615363 -0.00923596 -0.03958537  0.04921072
 -0.14036615 -0.3532781  -0.08350229 -0.05219002 -0.00249647 -0.09337314
 -0.09504735  0.03563443 -0.16842119 -0.06411831  0.06522623  0.09241641
 -0.00579526 -0.08383594  0.14794052  0.0335305  -0.27438903  0.07212107
  0.05818666  0.26742226  0.18244855  0.0413313   0.01290978 -0.13678133
  0.17429723 -0.1903239   0.01265281  0.11561342  0.09945822  0.02786317
  0.04951501 -0.11822069 -0.02770922  0.15587819 -0.16368531  0.01508528
  0.07230228 -0.04599142  0.02601008 -0.12602812  0.15963452  0.06677278
 -0.11408668 -0.14350004  0.11745844 -0.09192219 -0.05604666  0.05044612
 -0.11320975 -0.18157941 -0.26383173 -0.01672037  0.38325256  0.115388
 -0.22470318  0.01664161 -0.02058708  0.00529823  0.11754777  0.14755844
  0.02570499  0.0730809  -0.06975173 -0.00106515  0.22413345 -0.08362266
  0.03085309  0.22100973 -0.03974943  0.07144085 -0.01483539  0.02871007
 -0.13410443  0.06469024 -0.16323642 -0.07122194 -0.00345046  0.02898706
  0.01090964  0.13123089 -0.2061981   0.10614233  0.00484454  0.01707376
 -0.01560376 -0.0007662  -0.03940478 -0.03614591  0.12023353 -0.24709617
  0.12537584  0.17946528 -0.00460135  0.08052459  0.09793508 -0.00713327
  0.03182096 -0.06163757 -0.17642049 -0.02981171  0.10095415 -0.03728911
  0.07000545 -0.04061696]