[-0.04708506  0.12553157  0.11685579 -0.07470822 -0.12093524  0.01799325
 -0.04701426 -0.09382473  0.15967713 -0.10320316  0.21929751 -0.11239441
 -0.21339348 -0.02678387 -0.056097    0.21426761 -0.17981595 -0.15477641
  0.00696913  0.03857902  0.06653895 -0.00655008 -0.03201124  0.04854326
 -0.15241322 -0.35647064 -0.074802   -0.04045952 -0.00745292 -0.08578677
 -0.09801187  0.04362093 -0.16268127 -0.05339335  0.0680254   0.09793509
 -0.01383553 -0.08696413  0.14940427  0.0536518  -0.26971665  0.06527849
  0.04489862  0.27349871  0.17398454  0.0452722   0.01710344 -0.12904835
  0.16476552 -0.22363889  0.01755731  0.12378795  0.0965329   0.02086934
  0.05546563 -0.12044159 -0.04475627  0.1553361  -0.16421077  0.01464615
  0.06166772 -0.02534061  0.02051639 -0.1418073   0.1675752   0.0807934
 -0.13153593 -0.11890208  0.11826103 -0.08474905 -0.05649091  0.04455991
 -0.1103789  -0.187828   -0.25473365 -0.00325837  0.38190967  0.12494778
 -0.21898329 -0.00128362 -0.0231742   0.01124333  0.09353241  0.14379971
  0.0097203   0.06881914 -0.05266603  0.00510743  0.21584789 -0.08521821
  0.03005043  0.23101774 -0.03528183  0.06489088 -0.02111766  0.02861534
 -0.12500983  0.05412494 -0.16711226 -0.072391    0.00590508  0.01796285
  0.02018721  0.13322188 -0.2210799   0.10645663  0.00389741 -0.00168394
  0.00564512  0.00808541 -0.05010013 -0.03825618  0.12170873 -0.2633217
  0.11693268  0.18718643 -0.01248996  0.083116    0.0982756  -0.00413125
  0.03938701 -0.0578724  -0.15305184 -0.04867611  0.10414203 -0.03305403
  0.05781065 -0.04264254]