[-1.37239292e-01  1.02760546e-01  8.62884969e-02 -7.26724043e-02
 -9.81688872e-02 -6.17323816e-02 -2.22769957e-02 -8.73165652e-02
  1.26263112e-01 -6.73464462e-02  2.26677924e-01 -1.44263849e-01
 -2.26747975e-01  9.44710162e-04 -7.22212717e-02  2.09025249e-01
 -1.93564042e-01 -1.15875654e-01 -5.61177097e-02  3.54056450e-04
  1.50247857e-01 -9.56249516e-03 -5.46348467e-02  4.99202162e-02
 -1.70785606e-01 -3.48152012e-01 -6.83882236e-02 -5.08317724e-02
 -1.29540479e-02 -6.35960698e-02 -3.14261317e-02  2.27389485e-02
 -2.08828598e-01 -9.93566141e-02  6.76160678e-02  7.68974647e-02
 -4.22512321e-03 -9.07278582e-02  1.92252666e-01 -1.80418249e-02
 -3.05097222e-01  4.22982797e-02  1.30475238e-01  2.47015432e-01
  1.53102383e-01  4.62387949e-02 -1.58244111e-02 -1.16131701e-01
  1.22510575e-01 -2.49491766e-01 -3.61982523e-03  1.35697722e-01
  5.87092899e-02  6.44696429e-02  9.09001566e-03 -8.58466551e-02
  3.17535922e-02  1.54721111e-01 -2.25191027e-01 -1.08962944e-02
  1.08060077e-01 -1.29222497e-01  2.39642221e-03 -1.01572655e-01
  1.86428696e-01  7.42598474e-02 -1.25575930e-01 -1.05843522e-01
  1.12369440e-01 -1.26973674e-01 -2.04779748e-02  5.49158715e-02
 -9.54073220e-02 -2.04634219e-01 -3.03871751e-01 -3.21337814e-03
  4.15291637e-01  1.25576824e-01 -1.69995308e-01  6.01497889e-02
 -4.43201922e-02 -6.10928284e-03  1.41637072e-01  1.58221439e-01
  3.61483656e-02  7.55533800e-02 -2.90545728e-02  6.88546151e-02
  2.32339934e-01 -6.71151653e-02  3.66723575e-02  2.60341227e-01
  5.36543271e-03  3.83668542e-02  1.85976585e-03  4.12638187e-02
 -1.13562204e-01 -2.21959781e-02 -1.22482203e-01 -1.54310763e-02
  2.87671331e-02  4.13565002e-02  4.16628681e-02  1.26711369e-01
 -1.97472528e-01  9.21205208e-02 -9.24074091e-04 -7.52467522e-03
 -2.52831820e-03 -3.66436876e-02  9.25323926e-03 -7.15345740e-02
  8.45204443e-02 -2.17774987e-01  1.29381970e-01  1.79510906e-01
 -1.84517261e-02  9.08357203e-02  8.12341273e-02 -1.87412947e-02
  3.64175923e-02 -3.75900827e-02 -2.02508256e-01 -1.08418977e-02
  1.29425153e-01 -4.23453115e-02  1.17332928e-01 -5.02016433e-02]