[-0.08847839  0.12307427  0.04510259 -0.05314161 -0.09080762  0.01513349
 -0.05618626 -0.12076399  0.1325454  -0.05104894  0.25430027 -0.04927274
 -0.26272118 -0.04387071 -0.10642636  0.17249517 -0.19377527 -0.15009592
 -0.01891637  0.05506827  0.08546513 -0.0129213   0.01565792  0.05081093
 -0.13993143 -0.26932615 -0.03580546 -0.04212697 -0.03824168 -0.09254459
 -0.01959007 -0.00285059 -0.22567204 -0.02568782  0.05067619  0.0759846
 -0.02281119 -0.07146605  0.20946574 -0.06544334 -0.30637607 -0.00094501
  0.08089659  0.20891856  0.19415101  0.0120433  -0.04746078 -0.19276051
  0.1383796  -0.25170538  0.04359819  0.18298785  0.03478474  0.03101303
 -0.04303755 -0.13860138 -0.00664634  0.16029356 -0.10611768 -0.04301988
  0.09749055 -0.05886297  0.02617325 -0.14403407  0.16966622  0.04238283
 -0.13473634 -0.16968681  0.10114376 -0.14009748 -0.03939508  0.13566038
 -0.09472634 -0.24050044 -0.26906264 -0.00419981  0.43681961  0.13828753
 -0.15348698  0.06926232 -0.08921676 -0.00725549  0.08593265  0.13017333
  0.01515046  0.0671136  -0.09135486  0.01671724  0.26502815 -0.0680114
  0.01496756  0.23940225 -0.01738941  0.07219167  0.03219651  0.03739201
 -0.06524245  0.05860811 -0.15178594 -0.00879958 -0.03500012  0.00409271
  0.04924394  0.13331454 -0.14645045  0.10545076  0.01341904  0.04608034
  0.06572442 -0.00725244 -0.02312704 -0.10972386  0.12938021 -0.2479829
  0.17624405  0.09382334  0.05814068  0.10148253  0.12740438  0.12271911
 -0.01146403 -0.03026283 -0.20671992  0.01587254  0.1038143  -0.05651794
  0.13780273 -0.03160793]