[-5.43657616e-02  1.03532553e-01  7.01774657e-02 -1.04835592e-01
 -1.02671124e-01  4.43417579e-03 -2.12140959e-02 -8.05760771e-02
  1.83239520e-01 -1.03108458e-01  2.68137932e-01 -1.60413548e-01
 -2.77053565e-01 -1.90320984e-02 -8.92951414e-02  2.14292094e-01
 -1.78919688e-01 -8.39313790e-02  1.45541532e-02  4.03090529e-02
  7.17538372e-02  2.01919135e-02 -5.16739897e-02  5.16460314e-02
 -9.74142179e-02 -3.58893514e-01 -6.31597862e-02 -4.72219661e-02
 -2.95355804e-02 -7.76721314e-02 -8.23971182e-02  6.71709403e-02
 -1.73536107e-01 -7.03104138e-02  7.22465366e-02  7.04726726e-02
 -5.01010306e-02 -7.35082105e-02  1.81216151e-01  1.90516170e-02
 -2.64796644e-01  5.62210009e-03  7.34602138e-02  2.60911375e-01
  1.18267469e-01  3.68421488e-02 -1.19350078e-02 -2.07290992e-01
  1.68392226e-01 -1.98650703e-01  1.32804457e-02  1.26246035e-01
  6.98780119e-02  6.69164304e-03 -3.45232687e-03 -1.42554328e-01
 -8.72119702e-03  1.55124411e-01 -1.89773262e-01 -4.63634751e-05
  9.18724909e-02 -1.05224423e-01 -2.30418481e-02 -1.31712496e-01
  1.65961087e-01  4.76842783e-02 -9.10174251e-02 -1.77348658e-01
  1.47301391e-01 -1.12213589e-01 -3.58520150e-02  8.08630213e-02
 -1.11851133e-01 -2.11714298e-01 -3.03196520e-01 -1.58003066e-02
  3.88366073e-01  1.10309601e-01 -1.37676820e-01  6.21540956e-02
 -4.03297395e-02 -2.19589546e-02  1.35250285e-01  1.62158564e-01
  1.32303480e-02  4.93582897e-02 -5.41201234e-02  3.03536840e-02
  2.27159306e-01 -1.22426867e-01  2.30988972e-02  1.98948428e-01
 -4.00986448e-02  8.32995400e-02 -2.03472618e-02 -2.37490740e-02
 -1.23697691e-01  5.26226424e-02 -1.61683306e-01 -5.25865816e-02
  5.73968841e-03 -9.93376225e-03  3.51983830e-02  1.45895109e-01
 -2.54818976e-01  9.04744864e-02  2.30908748e-02 -3.26660797e-02
  5.30073158e-02 -3.72284614e-02 -2.39410195e-02 -6.76349923e-02
  1.38889611e-01 -2.48191118e-01  1.32587641e-01  1.38830915e-01
  8.43388587e-02  1.16293214e-01  9.91930962e-02  1.28122736e-02
  2.17488445e-02 -6.93832859e-02 -2.37142876e-01  1.12055391e-02
  1.24559440e-01 -9.73253977e-03  9.29572806e-02 -5.95393255e-02]