[-0.03709679  0.11321534  0.05486532 -0.09798705 -0.09350309 -0.01040374
 -0.02193204 -0.10855202  0.18139125 -0.09407353  0.26670727 -0.16008854
 -0.2741819  -0.03661798 -0.08903992  0.22535709 -0.18313174 -0.10128869
 -0.00304163  0.04909399  0.06979001 -0.00145363 -0.03943603  0.06203334
 -0.09384723 -0.35726151 -0.06347211 -0.04023957 -0.02453077 -0.07937059
 -0.08651423  0.06722404 -0.17654173 -0.07246715  0.07870766  0.07540161
 -0.04262307 -0.07961398  0.17938505  0.02080345 -0.28028497  0.01367224
  0.07164325  0.26436383  0.12909375  0.03117316 -0.01335683 -0.21002281
  0.18099765 -0.20525603  0.01523502  0.13461497  0.05752782  0.00102414
  0.00635058 -0.12790288  0.00257189  0.16148718 -0.20085025 -0.00693142
  0.10516512 -0.10834556 -0.03532646 -0.13727318  0.16096526  0.05958786
 -0.09452318 -0.17397343  0.13774505 -0.11441755 -0.03344292  0.06950784
 -0.1087117  -0.21164687 -0.31379363 -0.0274013   0.37808654  0.10956074
 -0.14730644  0.07672172 -0.03498445 -0.00527396  0.14452425  0.15973921
  0.01685305  0.06548908 -0.07172333  0.02340582  0.21869981 -0.12316635
  0.03339358  0.22011256 -0.05250367  0.07382395 -0.01140397 -0.01046413
 -0.12855248  0.04569861 -0.16956866 -0.06083739  0.02601022 -0.00070454
  0.03614373  0.12894996 -0.24665506  0.07740848  0.02083039 -0.00892519
  0.06549454 -0.05548762 -0.02124467 -0.07840434  0.13048184 -0.25023684
  0.1379694   0.1328409   0.07185575  0.09476124  0.10061266  0.00920958
  0.01532019 -0.07839712 -0.22649685  0.01321223  0.12582195 -0.01024798
  0.08405983 -0.06646804]