[-0.04147638  0.06470426  0.11651468 -0.07798113 -0.09219864 -0.01329417
 -0.04785815 -0.08225162  0.15016916 -0.08772616  0.24432789 -0.11418431
 -0.19938314 -0.01451969 -0.06253253  0.2072016  -0.19149517 -0.14127123
  0.03161762  0.06557108  0.10359237  0.01685186 -0.02245865  0.04710093
 -0.16427004 -0.35021967 -0.10965341 -0.06171766  0.00889559 -0.09903624
 -0.0813922   0.04781232 -0.17383538 -0.03203172  0.0775866   0.09171566
  0.01171038 -0.11797195  0.15314713  0.05121305 -0.31913126  0.07466181
  0.0452261   0.25222227  0.18285558  0.02197667 -0.00070486 -0.17471643
  0.15008439 -0.17578168  0.03993915  0.123432    0.09204645  0.0336298
  0.0125975  -0.12756051 -0.00290946  0.13642684 -0.19021979  0.00723943
  0.09181545 -0.0648809   0.0959231  -0.12005003  0.12341296  0.04062585
 -0.11395357 -0.13911431  0.13416043 -0.12949482 -0.02290846  0.07269057
 -0.13957036 -0.20519765 -0.29236147 -0.02638991  0.35363886  0.11744056
 -0.20338319  0.0290692  -0.01418362  0.01098998  0.11198564  0.2177197
  0.05608517  0.06711062 -0.06302505  0.00330135  0.23616301 -0.09254818
  0.04605208  0.2464036  -0.04629598  0.0642263   0.00673134  0.03851153
 -0.12078967  0.04324475 -0.12457414 -0.02463114 -0.08893783  0.01941417
  0.01387615  0.16862367 -0.18850853  0.09704733 -0.00085495 -0.01785735
 -0.0111461  -0.00678235  0.01561361 -0.09504967  0.0971285  -0.24086802
  0.10878848  0.18042587  0.02953981  0.0920296   0.05384165  0.05429573
 -0.00509603 -0.06179339 -0.20002821  0.02902921  0.06620225 -0.03675893
  0.05326178 -0.04005453]