[-0.08699542  0.10902762  0.10015348 -0.07997052 -0.13514332 -0.00904464
 -0.04156509 -0.05812625  0.15655242 -0.07202503  0.2501739  -0.13096116
 -0.25735268 -0.04266267 -0.05372041  0.25179368 -0.19217931 -0.09593364
 -0.02710314  0.04753177  0.11656692  0.03314705 -0.03918229  0.04308102
 -0.13412556 -0.39041921 -0.05510899 -0.03627373 -0.03389503 -0.11332684
 -0.07661388  0.06864984 -0.16627711 -0.07422801  0.08532359  0.12177815
 -0.04214203 -0.09975063  0.14731342  0.02436661 -0.27707368  0.00893593
  0.10674494  0.24323817  0.16915813  0.0418356   0.01062196 -0.15046844
  0.13611512 -0.23124619 -0.01564314  0.12391286  0.07780664  0.04650761
  0.05962965 -0.12301592 -0.00589905  0.10739427 -0.19013216 -0.03306367
  0.09778047 -0.07922652  0.00564726 -0.14727426  0.18412709  0.03936833
 -0.10815896 -0.13292177  0.14405851 -0.12141444 -0.04802211  0.04598255
 -0.10733326 -0.20383413 -0.29030138 -0.04659959  0.34078723  0.13270338
 -0.18850334  0.03984481 -0.02420243 -0.03007407  0.07990586  0.15814173
  0.04772265  0.10097899 -0.05567821  0.04488582  0.22640078 -0.11571451
  0.09326755  0.27256268  0.00654511  0.0570252  -0.000871   -0.03055529
 -0.10953436  0.02848638 -0.15927635 -0.04217186 -0.01324329 -0.00695409
  0.05299727  0.11854599 -0.19978325  0.09224641  0.00799499 -0.00423709
 -0.0018385  -0.03744124 -0.05711882 -0.07572302  0.13368221 -0.22018902
  0.11477078  0.16907021  0.03059188  0.08024931  0.08883671  0.04187934
  0.01823477 -0.06573578 -0.18731104  0.00776429  0.09502605 -0.05461531
  0.0519974  -0.03311275]