[-0.08454751  0.11831257  0.07368007 -0.12765062 -0.10670545 -0.02210326
  0.00142477 -0.09501673  0.21643586 -0.09757081  0.28573057 -0.11856921
 -0.22530274 -0.02540539 -0.0784978   0.21238767 -0.19477208 -0.10368981
 -0.00567154  0.05829236  0.11329367 -0.00055837 -0.02894377  0.0336654
 -0.10018837 -0.35403666 -0.09400948 -0.02204072 -0.00054171 -0.09225751
 -0.03887561  0.05132196 -0.19258271 -0.076633    0.06691557  0.07438149
 -0.05712519 -0.10637856  0.15726011 -0.00823241 -0.29790065  0.01112916
  0.08630478  0.25180158  0.16883437  0.02393833 -0.00278906 -0.21887283
  0.16647936 -0.17380205  0.02034987  0.12873527  0.05359324  0.01625891
  0.0263983  -0.11164315  0.0006133   0.16290213 -0.1885514  -0.01492535
  0.12210735 -0.0713555  -0.01802863 -0.15879928  0.13667497  0.06987485
 -0.10419492 -0.20490347  0.15292321 -0.12898789 -0.03890368  0.08342429
 -0.13513592 -0.22273265 -0.27229342 -0.05426048  0.37036824  0.0900187
 -0.12113944  0.0693456  -0.02635709 -0.01806952  0.10799988  0.1941254
  0.03435623  0.06800609 -0.04774624  0.0313977   0.24296427 -0.10953796
  0.03464555  0.23811494 -0.05282157  0.03277535 -0.0268326  -0.00615601
 -0.10716647  0.08287627 -0.15150145 -0.0433596  -0.01758564 -0.01602289
  0.00982673  0.13859545 -0.22713415  0.10914057  0.01647627  0.0432316
  0.03397229 -0.07616931 -0.00396363 -0.05984217  0.11880565 -0.23268977
  0.15705894  0.14350966  0.05515512  0.08727735  0.08200692  0.0385041
  0.04528795 -0.05933473 -0.24123037  0.04231485  0.07820665 -0.04292718
  0.07274901 -0.05369964]