[-0.13017739  0.11865993  0.0978839  -0.07753564 -0.08956039 -0.04471935
 -0.01137786 -0.06818678  0.12354709 -0.05207676  0.23906317 -0.13802968
 -0.22652502 -0.00355925 -0.07259188  0.21522255 -0.19806063 -0.09479988
 -0.05547386  0.01233155  0.15670834  0.00870597 -0.04913778  0.05549245
 -0.16829999 -0.34828034 -0.05675951 -0.041123   -0.01314187 -0.06304931
 -0.03374748  0.03302891 -0.1944823  -0.08338846  0.06553674  0.07493442
 -0.01512748 -0.09456193  0.18002953 -0.02000847 -0.3054361   0.05751943
  0.11924245  0.25821862  0.15915184  0.04206179 -0.01007362 -0.12002573
  0.11695426 -0.25741655 -0.00325541  0.13480155  0.04027292  0.06197708
  0.01174365 -0.08392078  0.01522408  0.14932744 -0.21155553 -0.01886064
  0.09166323 -0.12168741  0.02390135 -0.12470669  0.17270868  0.06204211
 -0.13658342 -0.09613089  0.10362368 -0.12462624 -0.0221328   0.05941099
 -0.09365366 -0.20975332 -0.30269974  0.00845374  0.42505702  0.14183536
 -0.17728145  0.05711579 -0.04641939 -0.00955023  0.14030993  0.16975205
  0.03503623  0.07856452 -0.03439478  0.06645919  0.23654835 -0.07241102
  0.03081548  0.27617803  0.01617598  0.03510705 -0.00043773  0.03483856
 -0.10734943 -0.01788112 -0.13001154 -0.01692181  0.01274615  0.02758506
  0.035298    0.1318851  -0.19919537  0.11056369  0.0115166  -0.00381655
  0.00574933 -0.02197693  0.00439148 -0.06968201  0.0867125  -0.216179
  0.11928441  0.17675833  0.00327674  0.09866746  0.08771393 -0.00312984
  0.03071823 -0.04100376 -0.18569146 -0.00932716  0.13903597 -0.03660426
  0.12456585 -0.04726378]