[-8.84790197e-02  8.49587023e-02  5.50185405e-02 -1.01961255e-01
 -8.99307355e-02 -1.45046953e-02 -1.25110913e-02 -1.00415938e-01
  1.49930820e-01 -1.01670824e-01  2.64361262e-01 -1.39094859e-01
 -2.71594286e-01 -5.57701010e-03 -9.72942039e-02  2.32280642e-01
 -1.59354016e-01 -8.89519081e-02 -3.16515826e-02  3.31901126e-02
  1.14615463e-01  4.93966369e-03 -1.30998222e-02  6.77099004e-02
 -9.66717526e-02 -3.37383777e-01 -1.00637250e-01 -2.78300233e-02
 -5.31720482e-02 -5.18567227e-02 -4.40893658e-02  4.78822850e-02
 -1.63743854e-01 -6.38860688e-02  6.72247857e-02  7.07562417e-02
 -1.09546073e-02 -1.21516757e-01  1.71258181e-01  3.05084232e-02
 -2.71755546e-01  5.00653051e-02  7.52284303e-02  2.52388299e-01
  1.40846282e-01  4.21214253e-02  7.71252392e-03 -2.13182762e-01
  1.56640843e-01 -2.03129962e-01  4.58339229e-03  1.10788822e-01
  3.87970172e-02 -5.60917426e-03  1.08071102e-03 -1.03470661e-01
  1.43032772e-02  1.49822190e-01 -1.95358425e-01 -3.90547737e-02
  8.59997794e-02 -6.62112683e-02 -1.86056085e-02 -1.69136748e-01
  1.81752861e-01  9.07137468e-02 -1.40114337e-01 -1.48483038e-01
  1.40190735e-01 -1.08186245e-01 -3.40466052e-02  6.68309033e-02
 -1.43261582e-01 -2.10054874e-01 -2.72695899e-01  1.63331104e-03
  4.16070610e-01  1.04718499e-01 -1.54028937e-01  7.00403228e-02
 -4.28308062e-02  8.01797677e-03  1.21888734e-01  1.97111815e-01
  2.87733022e-02  6.49058819e-02 -4.54874150e-02  1.74382720e-02
  2.26281524e-01 -1.06093265e-01 -5.96396640e-05  2.55891562e-01
 -2.70550996e-02  5.81527762e-02  1.98465232e-02  2.33991612e-02
 -1.23165868e-01  2.15914156e-02 -1.55081674e-01 -5.45446984e-02
  1.16686719e-02  7.89872464e-03  2.62162574e-02  1.10068478e-01
 -1.93752706e-01  9.34289619e-02 -1.64517164e-02 -3.22461681e-04
  4.08992283e-02 -5.74300662e-02 -2.37844624e-02 -5.62309287e-02
  1.09227136e-01 -2.27268323e-01  1.03512481e-01  1.21537440e-01
  4.24458422e-02  9.77623984e-02  1.20000497e-01  5.74781373e-02
  1.24601601e-02 -3.28592770e-02 -2.19405696e-01  5.76833868e-03
  1.45490572e-01 -1.21036554e-02  1.18840531e-01 -6.89502582e-02]