[-0.11307712  0.09901217  0.06455852 -0.08561986 -0.0790682  -0.02964394
 -0.0028865  -0.08978089  0.1250816  -0.09438498  0.25545046 -0.16562711
 -0.25138342  0.0068653  -0.0873613   0.2279433  -0.18944585 -0.1106884
 -0.06526145  0.05491815  0.12497979 -0.01842367 -0.0563479   0.05430056
 -0.11461426 -0.33353943 -0.07145432 -0.05616429 -0.01957946 -0.09454338
 -0.04243645  0.00691866 -0.17460549 -0.07015245  0.04902152  0.06252819
 -0.02202923 -0.1106565   0.1942921  -0.01914426 -0.30800745  0.04147237
  0.11250701  0.25435242  0.15795864  0.04743197 -0.0322127  -0.15582271
  0.12182329 -0.23952524 -0.0105334   0.10253163  0.06890918  0.05405938
  0.00365016 -0.11950659  0.00628668  0.13318704 -0.20146056 -0.03081331
  0.08814986 -0.0683553   0.03118174 -0.13114259  0.19520244  0.06694338
 -0.14019766 -0.09996783  0.1435131  -0.12594417 -0.01160774  0.04180985
 -0.10574666 -0.21947248 -0.26684812 -0.02243465  0.39279863  0.133551
 -0.15732186  0.04494897 -0.05114214 -0.02171651  0.12042759  0.16411872
  0.0419398   0.06823089 -0.0284157   0.04617468  0.23190807 -0.10130683
  0.04355828  0.24821329 -0.01917894  0.02941896 -0.01307253  0.00887998
 -0.10971735  0.02143034 -0.15010263 -0.01853679 -0.01629856  0.02908439
  0.04979831  0.13931845 -0.18101381  0.08703434  0.02056705  0.00195471
  0.01635273 -0.0067195  -0.01028368 -0.07710081  0.10154795 -0.20766918
  0.12334196  0.16255102  0.0254276   0.07042123  0.1022196   0.01557626
  0.04315285 -0.02901202 -0.24184015  0.0149908   0.12952451 -0.01966025
  0.11016931 -0.03901898]