[-0.04479572  0.08880971  0.09529331 -0.08225478 -0.11785334  0.02759408
 -0.0397476  -0.09936906  0.17088805 -0.08294781  0.23273568 -0.08724266
 -0.17448658 -0.02778118 -0.05736048  0.19367282 -0.18111469 -0.15518515
  0.03695488  0.04669894  0.08821429 -0.00901723  0.00043178  0.03724132
 -0.19068773 -0.32762805 -0.10182303 -0.06450691  0.04289373 -0.10363957
 -0.09954912  0.04987972 -0.17079307 -0.02372882  0.0656646   0.08068601
 -0.01793954 -0.09183824  0.16239952  0.05940621 -0.30056357  0.05984352
  0.04174648  0.24991298  0.18436137  0.04470783  0.00507739 -0.15466037
  0.15814026 -0.19234353  0.04249981  0.13329192  0.07753427  0.01756573
  0.04359895 -0.09853955 -0.01126657  0.13940004 -0.1779584   0.01647134
  0.07825094 -0.02167468  0.04671542 -0.12944044  0.13546826  0.06986152
 -0.09963981 -0.15611909  0.13191189 -0.1140347  -0.07280668  0.08758187
 -0.11787698 -0.2029293  -0.26564124 -0.02935998  0.37026307  0.13184926
 -0.19535241  0.0303798  -0.00397198 -0.01537591  0.11488602  0.16984873
  0.01599613  0.06255291 -0.06591213 -0.01974147  0.24414062 -0.09236473
  0.04195857  0.23201852 -0.03141167  0.07216548 -0.01765777  0.04422861
 -0.12379795  0.06969382 -0.14601807 -0.07312565 -0.03270182  0.03817683
  0.00924754  0.16790949 -0.21567009  0.12503381 -0.00248722 -0.01865996
 -0.01183894 -0.01618322 -0.01394736 -0.05266818  0.09593137 -0.26448458
  0.11018489  0.18836604  0.02110185  0.06178623  0.08558406  0.007396
  0.02610397 -0.04780984 -0.19548038 -0.01116189  0.08714839 -0.07602775
  0.03088494 -0.03828766]