[-0.11349135  0.14752577  0.09821322 -0.05919117 -0.1137472  -0.00147268
 -0.02863345 -0.06895163  0.19132458 -0.08259551  0.22988503 -0.08512574
 -0.2599327  -0.0569928  -0.00585658  0.24485879 -0.18128973 -0.15014605
 -0.00131837  0.03454128  0.1040076   0.01288081 -0.03342973  0.08334494
 -0.14928484 -0.4173111  -0.03884811 -0.0349397  -0.01474769 -0.12952708
 -0.09448196  0.04810381 -0.21465729 -0.06535964  0.08500817  0.14538667
 -0.06588773 -0.10379948  0.14995649  0.03714704 -0.28752974 -0.02399429
  0.08634643  0.26684836  0.17208843  0.00713955  0.0068726  -0.14963603
  0.14246117 -0.24747431 -0.02567129  0.16221052  0.04810241  0.06738354
  0.04932889 -0.15456454  0.0053561   0.09310186 -0.18587154 -0.01908955
  0.07063289 -0.1067872  -0.02549376 -0.12519139  0.17753401  0.04280944
 -0.12326743 -0.11859013  0.10908709 -0.11706265 -0.01286239  0.0610427
 -0.10219388 -0.23534632 -0.27890798 -0.04239833  0.34299216  0.12669066
 -0.19834943  0.05261214 -0.03093013 -0.01912432  0.07786362  0.19734149
  0.0426173   0.10987129 -0.06387705  0.08937817  0.20834816 -0.0838596
  0.10580108  0.26849535 -0.02101242  0.0745475  -0.00208203  0.03341841
 -0.13401145  0.01799008 -0.15830919 -0.06978116  0.00624543 -0.0110849
  0.03468639  0.11309011 -0.24268447  0.11419896  0.04333993  0.00313588
  0.01486538 -0.05732113 -0.0382259  -0.06354403  0.10005399 -0.24261932
  0.16338407  0.19944732 -0.01006468  0.1085422   0.06585905  0.0143271
  0.01135554 -0.10175949 -0.17349721  0.01488883  0.07260653 -0.05241172
  0.02796268 -0.07305609]