[-0.07640485  0.10591376  0.05283557 -0.0868187  -0.11171365 -0.02169098
 -0.04960997 -0.13551438  0.13057922 -0.08532362  0.26941857 -0.13342679
 -0.25797486 -0.00187677 -0.13609993  0.24253683 -0.20775092 -0.1503586
 -0.01561281  0.02969387  0.09862529 -0.00090218 -0.05269536  0.05690944
 -0.15206192 -0.30643165 -0.07267371 -0.038047   -0.06612529 -0.07577276
 -0.03378556  0.03841996 -0.18775752 -0.02284964  0.06895027  0.08142263
  0.00357515 -0.11524606  0.1745026  -0.00290049 -0.32572562  0.03110595
  0.10728113  0.25550103  0.15712915 -0.02193559 -0.02127272 -0.18827863
  0.14510143 -0.22505295 -0.01173325  0.13251932  0.06517582  0.01612789
 -0.04342809 -0.1226156  -0.00546215  0.20653446 -0.17290406 -0.02299188
  0.10230823 -0.12732244  0.03324002 -0.1571943   0.16906455  0.07843371
 -0.14599681 -0.1423146   0.10133854 -0.12908636 -0.03131214  0.08036909
 -0.11419783 -0.23549311 -0.32820547 -0.04552796  0.41401201  0.10551335
 -0.15783451  0.05062149 -0.04412561  0.01611929  0.12697619  0.17846926
  0.0421559   0.06792847 -0.09396607  0.03001074  0.28828141 -0.10618667
  0.03144852  0.24588554 -0.06111202  0.05777017 -0.01437349  0.04784464
 -0.11454391  0.02233534 -0.10956391 -0.01116686 -0.06613908  0.0056834
  0.02727892  0.12782931 -0.17480126  0.06270467  0.01078673  0.02176183
  0.01064645 -0.05166487  0.0224917  -0.08749263  0.13391648 -0.22245803
  0.12211285  0.13986094  0.03824478  0.10391288  0.10335369  0.03157156
 -0.03299574 -0.07877897 -0.22292005  0.04100646  0.10234623 -0.05399527
  0.12949814 -0.0558779 ]