[-5.63487113e-02  9.46265087e-02  8.85015503e-02 -8.83514807e-02
 -1.06389903e-01  4.26979735e-02 -3.77575420e-02 -8.96115527e-02
  1.77496418e-01 -8.24340954e-02  2.32584521e-01 -6.78096563e-02
 -1.78280130e-01 -1.17445709e-02 -4.29966934e-02  1.95974126e-01
 -1.78518280e-01 -1.40610561e-01  3.29048187e-02  4.73210849e-02
  8.48414898e-02  1.07509140e-02 -1.98797134e-04  4.96397130e-02
 -1.98431656e-01 -3.35503370e-01 -1.12408899e-01 -6.56144395e-02
  3.75885628e-02 -1.18773840e-01 -9.92089137e-02  5.17941490e-02
 -1.64536834e-01 -1.82116628e-02  6.46944419e-02  9.39928219e-02
 -2.18389835e-02 -9.61204097e-02  1.48206756e-01  8.43993574e-02
 -2.85805315e-01  5.91272488e-02  4.64325137e-02  2.66724348e-01
  1.79462582e-01  3.48419696e-02  1.63435843e-02 -1.41894281e-01
  1.45229310e-01 -2.09253907e-01  4.36003394e-02  1.15445808e-01
  7.84471929e-02  2.04368960e-02  5.57310581e-02 -1.05202034e-01
 -2.16896683e-02  1.37999043e-01 -1.77210093e-01  3.48928086e-02
  7.67432675e-02 -1.40788434e-02  4.66245301e-02 -1.21114016e-01
  1.31632581e-01  8.10596719e-02 -1.11627951e-01 -1.34734631e-01
  1.24332033e-01 -9.83629450e-02 -5.95758632e-02  8.26043263e-02
 -1.21375047e-01 -2.16188893e-01 -2.52158374e-01 -1.42954858e-02
  3.74705523e-01  1.38083547e-01 -1.83301911e-01  2.34323349e-02
 -1.06248064e-02 -2.24579405e-02  9.54324380e-02  1.63156837e-01
  1.35477632e-02  5.54315858e-02 -6.13758378e-02  1.89852640e-02
  2.42541775e-01 -8.06428269e-02  5.59988916e-02  2.39524245e-01
 -4.11220863e-02  6.98476359e-02 -2.88233813e-02  6.20404072e-02
 -1.38297945e-01  6.13348857e-02 -1.42573968e-01 -7.75024891e-02
 -3.43976319e-02  3.05457357e-02  1.42678265e-02  1.72951192e-01
 -2.20335528e-01  1.31667644e-01  5.36720781e-03 -3.31317186e-02
 -4.87402221e-03 -5.17357467e-03 -2.56206393e-02 -4.21090908e-02
  9.89391953e-02 -2.57415414e-01  1.02156930e-01  1.92610562e-01
  8.63016117e-03  6.13601692e-02  7.95367509e-02  6.46305783e-03
  2.84042656e-02 -5.39735071e-02 -1.95301384e-01 -5.45788277e-03
  8.47951770e-02 -7.17558488e-02  1.94779485e-02 -4.61982712e-02]