[-0.11509396  0.12467692  0.05950921 -0.09622735 -0.07434257 -0.0305929
 -0.0266375  -0.11911245  0.14354722 -0.07243631  0.24101393 -0.13930607
 -0.2383194  -0.05933564 -0.07807746  0.22463734 -0.20111786 -0.12937726
 -0.04001026  0.01812258  0.1269418   0.0020957  -0.00495269  0.05004907
 -0.14604728 -0.38096434 -0.07452361 -0.04523282 -0.02088934 -0.04393075
 -0.03397245  0.02867839 -0.21572566 -0.07763104  0.05368282  0.06503736
  0.02475244 -0.13560314  0.18757211 -0.02134157 -0.30816188  0.03293158
  0.11146566  0.23513849  0.16368362 -0.00407723  0.01299229 -0.1536202
  0.15143368 -0.16540849  0.00210823  0.12558633  0.05770045  0.01798059
 -0.00706677 -0.09754028  0.00391693  0.18890493 -0.18155539 -0.03554125
  0.08226278 -0.0923359   0.02074403 -0.13493805  0.16998866  0.05570082
 -0.12512147 -0.14871447  0.12901263 -0.10088598 -0.00994745  0.04853155
 -0.14422821 -0.20916466 -0.31729683 -0.00796972  0.36722249  0.09976108
 -0.17599051  0.06412312 -0.04230072  0.00709729  0.13101624  0.21004172
  0.04884592  0.07420308 -0.05252448  0.03195893  0.26051116 -0.06798591
 -0.00537527  0.26356643 -0.03133736  0.03763698 -0.0060653   0.02708088
 -0.11968013  0.02774385 -0.12499112  0.00303802 -0.00243292  0.02523913
  0.00913263  0.14197667 -0.1850915   0.06634009  0.0079962   0.02996461
  0.01128761 -0.05408636  0.01307376 -0.08631451  0.09006756 -0.20158665
  0.13030376  0.15996258  0.02891833  0.11503309  0.10307791  0.02158516
  0.03822638 -0.03222625 -0.22279818  0.01259795  0.1388272  -0.03828112
  0.12414906 -0.03871015]