[-0.03710843  0.06787591  0.11116376 -0.07484684 -0.09291433 -0.02759782
 -0.0462093  -0.07634147  0.15809004 -0.07864087  0.22920297 -0.10474443
 -0.20246282 -0.0203787  -0.04653569  0.20275764 -0.2053314  -0.13772868
  0.0187789   0.05680948  0.09402565  0.0329979  -0.01475832  0.04108489
 -0.16985802 -0.367874   -0.10246678 -0.06435666 -0.00835291 -0.08303886
 -0.07498934  0.06530853 -0.16848914 -0.03142893  0.09209123  0.08055045
  0.01286853 -0.10443695  0.1633942   0.06509642 -0.31152177  0.07342325
  0.05758414  0.2423013   0.19697829  0.02433413 -0.00150974 -0.17864715
  0.15748943 -0.17072539  0.01364363  0.13473478  0.08319553  0.04154063
  0.02469371 -0.12687588  0.00201663  0.13312736 -0.19177914 -0.02270242
  0.08732048 -0.07024819  0.08453871 -0.11249063  0.14140825  0.02685332
 -0.10453035 -0.13812217  0.12931089 -0.12442847 -0.02558874  0.08020752
 -0.13505951 -0.2004081  -0.26550707 -0.02386258  0.34903675  0.11594158
 -0.20471747  0.03294556 -0.03325552  0.00164275  0.11716375  0.19114725
  0.04780384  0.05420226 -0.06002166 -0.00336262  0.23965645 -0.08706142
  0.06154671  0.24367236 -0.02978032  0.07610776  0.01005513  0.00236998
 -0.12620123  0.05418635 -0.13515335 -0.03076797 -0.09008258  0.02404772
  0.02316643  0.15074413 -0.19324945  0.09124096  0.0075316  -0.03236113
 -0.0136516  -0.01142327  0.01651361 -0.09304452  0.09221136 -0.25403148
  0.11652621  0.16841339  0.02540718  0.10559175  0.04155716  0.05480406
 -0.02512991 -0.05932199 -0.19062266  0.0355545   0.08820499 -0.0320698
  0.05673534 -0.05642173]