[-9.67725441e-02  1.03952385e-01  4.76493612e-02 -6.88795969e-02
 -9.03334096e-02 -3.14372294e-02 -2.54085511e-02 -1.26615986e-01
  1.58101827e-01 -1.02050446e-01  2.35589653e-01 -8.93475339e-02
 -2.34539852e-01 -9.85346362e-02 -5.30654192e-02  2.45666385e-01
 -1.99443206e-01 -1.46916464e-01 -3.11934054e-02  1.25367735e-02
  1.12533510e-01  8.76793917e-03 -1.82362646e-02  7.97802582e-02
 -1.57858178e-01 -3.63746434e-01 -6.77499101e-02 -5.59152327e-02
 -3.23191732e-02 -6.96660578e-02 -1.01719700e-01  6.45630062e-02
 -1.80133626e-01 -9.98274907e-02  8.85096118e-02  1.01514220e-01
  5.23597009e-05 -9.35629830e-02  1.65143937e-01  4.27119812e-04
 -2.92615771e-01  2.28164177e-02  1.05087258e-01  2.54204571e-01
  1.78953528e-01  2.77968235e-02 -1.98938022e-03 -1.55670524e-01
  1.52726650e-01 -2.08844230e-01  3.85595746e-02  1.08273961e-01
  6.06143251e-02  3.45650688e-02  4.09693494e-02 -1.29410654e-01
 -2.71993633e-02  1.46208569e-01 -1.64746866e-01 -3.23285572e-02
  7.02563152e-02 -1.04394890e-01 -3.64637491e-03 -1.53831407e-01
  1.75113186e-01  6.90977424e-02 -1.28277555e-01 -1.24228977e-01
  1.36072233e-01 -1.27268240e-01 -5.34117110e-02  3.36953998e-02
 -1.16875030e-01 -1.99868202e-01 -3.26350093e-01 -1.72410198e-02
  3.71304423e-01  1.46657631e-01 -2.05722094e-01  3.82309929e-02
 -9.13031586e-03  2.56905588e-03  1.45623967e-01  1.96170971e-01
  5.22290356e-02  7.95734972e-02 -4.20887135e-02  2.07273215e-02
  2.24568605e-01 -5.62281571e-02  1.11710960e-02  2.64156431e-01
 -2.42425110e-02  6.64797574e-02  2.59940512e-02  2.20934562e-02
 -1.04697756e-01  1.93893444e-02 -1.61812067e-01 -2.46050302e-02
  5.73327625e-03  1.98324788e-02  2.68760528e-02  1.42592713e-01
 -1.65448114e-01  7.33590648e-02  7.56996591e-03  2.85333693e-02
  1.97455287e-02 -2.65029650e-02 -4.22728471e-02 -9.30777788e-02
  8.69610533e-02 -2.14488655e-01  1.38309255e-01  1.66942805e-01
  1.73769835e-02  1.08769201e-01  8.99917409e-02  3.21178883e-02
  2.07285769e-02 -6.52674064e-02 -2.14663312e-01  3.12158460e-04
  1.55857444e-01 -5.47352806e-02  1.09322764e-01 -4.20562886e-02]