[-0.10574704  0.09203928  0.04078678 -0.09206025 -0.09213155 -0.00831933
 -0.03453344 -0.08723519  0.16651343 -0.09722792  0.2554639  -0.11107353
 -0.27839944 -0.00700167 -0.12307695  0.21026678 -0.20065367 -0.11377615
 -0.00349306  0.01835227  0.10531968 -0.02324013 -0.02297827  0.05148746
 -0.13499704 -0.33317557 -0.0823768  -0.03741868 -0.06674661 -0.02469961
 -0.03505639  0.04457523 -0.17070493 -0.03819092  0.05504103  0.07884386
  0.0153697  -0.07574105  0.16808008  0.00792189 -0.29650262  0.05473641
  0.10132915  0.26226887  0.15165238  0.03551533 -0.01069919 -0.19025895
  0.14956649 -0.2013218   0.01449777  0.15020037  0.06211423  0.00279661
  0.00497651 -0.0953972  -0.01662963  0.19251652 -0.17252475 -0.03728624
  0.07390021 -0.05614698  0.01654334 -0.19372819  0.1684747   0.09042574
 -0.14496459 -0.15056168  0.12424786 -0.14161038 -0.04463636  0.0914103
 -0.12329926 -0.23177461 -0.28278634  0.00101255  0.41198778  0.14056885
 -0.1182211   0.07399651 -0.04319119 -0.02919165  0.10907169  0.18421943
  0.02568706  0.07396261 -0.03655856 -0.0006683   0.25563556 -0.07896995
  0.01319623  0.23501635 -0.02922369  0.04002037 -0.00936809  0.01620144
 -0.11541857  0.02893902 -0.1545822  -0.04593646 -0.06060995 -0.02242752
  0.0216669   0.07781151 -0.20978141  0.06110296  0.00203572 -0.00296939
  0.01809004 -0.01399457  0.00624662 -0.06374396  0.11954296 -0.26167107
  0.12534343  0.13963643  0.06293457  0.1209529   0.10696198  0.05036725
 -0.00103646 -0.04969278 -0.18463767 -0.0042319   0.10996611 -0.04010197
  0.1373731  -0.05587034]