[-1.13757662e-01  9.61576328e-02  5.37289679e-02 -9.41821709e-02
 -8.09690505e-02 -3.84345204e-02 -1.04623651e-02 -9.25018713e-02
  1.25738204e-01 -9.47301686e-02  2.49490619e-01 -1.63015515e-01
 -2.54485905e-01  6.83460711e-03 -7.98869953e-02  2.21401006e-01
 -1.85102046e-01 -1.02996245e-01 -6.70956150e-02  5.25489934e-02
  1.24273777e-01 -5.22514665e-03 -5.18472567e-02  5.39109074e-02
 -1.17911555e-01 -3.30132931e-01 -6.93712756e-02 -5.13067953e-02
 -2.41469797e-02 -9.58379433e-02 -3.64623144e-02  8.59212130e-03
 -1.78244129e-01 -7.31832311e-02  5.34533374e-02  5.86598925e-02
 -2.94483192e-02 -1.06498599e-01  1.94607303e-01 -7.20866350e-03
 -3.04093212e-01  2.92202923e-02  1.04692362e-01  2.48881534e-01
  1.55316487e-01  4.95334640e-02 -2.98086852e-02 -1.66880488e-01
  1.16165832e-01 -2.41526321e-01 -1.35085229e-02  1.02525130e-01
  5.92357293e-02  4.77184430e-02 -1.15156767e-03 -1.19370274e-01
  1.05759865e-02  1.31699935e-01 -2.09055424e-01 -2.68324148e-02
  9.79842618e-02 -7.09361285e-02  1.81459356e-02 -1.21471398e-01
  1.98551968e-01  6.66798800e-02 -1.44203320e-01 -1.00399055e-01
  1.40861824e-01 -1.22706234e-01 -1.16494894e-02  5.16587906e-02
 -9.50604305e-02 -2.25357771e-01 -2.59219348e-01 -2.75971275e-02
  3.94446701e-01  1.25614911e-01 -1.58273503e-01  3.51409838e-02
 -6.01230040e-02 -2.48185974e-02  1.28228769e-01  1.54541478e-01
  4.02204134e-02  5.50740920e-02 -2.70892978e-02  5.13188653e-02
  2.34147146e-01 -1.00375257e-01  4.18920740e-02  2.51009226e-01
 -1.39107229e-02  3.43410634e-02 -1.34565160e-02  1.83233377e-02
 -1.15032308e-01  2.45762765e-02 -1.39526233e-01 -1.99334901e-02
 -8.82506356e-05  2.60719936e-02  5.38439229e-02  1.44529566e-01
 -1.75806746e-01  1.00866519e-01  2.32536253e-02 -3.10298870e-03
  2.62240954e-02 -1.43266236e-02 -1.30266724e-02 -8.20251331e-02
  9.98977423e-02 -2.06214786e-01  1.25649616e-01  1.57684162e-01
  2.52412017e-02  7.30854496e-02  9.80842039e-02  1.75150055e-02
  4.12115753e-02 -2.95713078e-02 -2.45161489e-01  1.41348457e-02
  1.26618966e-01 -1.65800340e-02  1.12342529e-01 -4.62285280e-02]