[-1.10769406e-01  9.21654925e-02  4.41122986e-02 -1.01600640e-01
 -8.32630545e-02 -2.31305705e-04 -4.18736525e-02 -9.03437510e-02
  1.66314766e-01 -8.96091908e-02  2.62155652e-01 -1.07575357e-01
 -2.64942497e-01 -2.23661754e-02 -1.04677811e-01  2.02286959e-01
 -1.79896936e-01 -9.86135826e-02 -1.73703954e-02  2.03301590e-02
  1.24751031e-01 -6.89327065e-03 -1.66313630e-02  5.40654957e-02
 -1.30416900e-01 -3.36778730e-01 -7.83944800e-02 -2.84200553e-02
 -6.00787476e-02 -4.40445729e-02 -4.61215787e-02  2.66650859e-02
 -1.90643415e-01 -5.06833270e-02  5.57888262e-02  8.85960087e-02
  9.74725583e-04 -8.12500939e-02  1.53813258e-01  1.98805309e-03
 -2.85222173e-01  5.79195507e-02  8.58527422e-02  2.39724517e-01
  1.52417168e-01  4.75250483e-02 -1.02922171e-02 -2.00864598e-01
  1.46657288e-01 -1.91061914e-01  1.44221904e-02  1.42254025e-01
  5.05509488e-02 -3.88822635e-03 -4.19253344e-03 -9.22930241e-02
 -2.50747707e-02  1.96759880e-01 -1.73486099e-01 -3.44779938e-02
  7.07715079e-02 -6.94153085e-02 -9.23401769e-03 -1.89394861e-01
  1.59341946e-01  9.44956765e-02 -1.48256332e-01 -1.58739969e-01
  1.11031748e-01 -1.23637080e-01 -3.68299745e-02  9.78244022e-02
 -1.25136241e-01 -2.31986955e-01 -2.81004161e-01  8.93018115e-03
  4.16353852e-01  1.10053375e-01 -1.33649915e-01  5.88662401e-02
 -4.82893363e-02 -6.91305846e-03  1.14553072e-01  1.68164775e-01
  2.65025198e-02  6.23285882e-02 -3.56086716e-02  1.32773817e-02
  2.53246427e-01 -8.03364441e-02  1.05627580e-02  2.31675744e-01
 -3.29837315e-02  4.89255749e-02 -1.18920049e-02  3.11696529e-02
 -1.08079351e-01  3.21690738e-02 -1.44233227e-01 -4.37649898e-02
 -3.50420587e-02 -1.68589354e-02  2.27578469e-02  8.52670074e-02
 -2.06237674e-01  6.63810074e-02  7.16754375e-03 -1.92057795e-03
  4.12653796e-02 -2.79606972e-02 -1.04367333e-02 -7.17386305e-02
  1.13387242e-01 -2.64443070e-01  1.33465454e-01  1.46421358e-01
  6.21514805e-02  1.20765619e-01  1.07073747e-01  5.83593734e-02
  5.89730730e-03 -3.89915369e-02 -1.94675758e-01  6.19187995e-05
  1.22643128e-01 -2.16478892e-02  1.34211227e-01 -6.92507178e-02]