[-1.22826241e-01  1.24319963e-01  9.80783328e-02 -7.19158202e-02
 -1.34867311e-01 -1.97414570e-02 -1.51536260e-02 -5.76312430e-02
  1.96331620e-01 -1.02495603e-01  2.11755350e-01 -9.40447897e-02
 -2.61570781e-01 -5.90186119e-02 -6.52210414e-03  2.55537152e-01
 -1.93176165e-01 -1.37683958e-01  1.85570493e-02  2.27863584e-02
  9.89684612e-02  1.96847431e-02 -2.27307733e-02  8.18108544e-02
 -1.56715110e-01 -4.21766102e-01 -4.18350808e-02 -3.21873836e-02
 -2.42832135e-02 -9.70903039e-02 -9.33485478e-02  6.48753792e-02
 -2.10807607e-01 -6.48882613e-02  8.35292861e-02  1.60637617e-01
 -8.04833472e-02 -1.09194569e-01  1.31070241e-01  4.65760641e-02
 -2.73921072e-01 -4.80321161e-02  8.39655623e-02  2.51765937e-01
  1.50692567e-01  2.04718914e-02  1.80100035e-02 -1.49902135e-01
  1.39654025e-01 -2.62142390e-01 -1.85062867e-02  1.41480356e-01
  1.95339080e-02  6.03804775e-02  6.73768073e-02 -1.52866915e-01
  1.63517725e-02  8.46389309e-02 -1.83647797e-01 -2.65732761e-02
  5.81016243e-02 -9.12779793e-02 -2.61946227e-02 -1.18735947e-01
  1.92669973e-01  6.24904521e-02 -1.06567480e-01 -1.12179719e-01
  1.40948504e-01 -1.24623559e-01 -3.27092186e-02  4.84827422e-02
 -8.72940347e-02 -2.22806007e-01 -2.82551259e-01 -4.31023464e-02
  3.50327462e-01  1.33339450e-01 -1.78384095e-01  4.16167155e-02
 -1.90933328e-02 -1.71996411e-02  1.00952744e-01  2.01489523e-01
  3.74825858e-02  1.01526819e-01 -6.91092759e-02  8.02545696e-02
  2.05413297e-01 -9.96196643e-02  8.48238990e-02  2.56024212e-01
  1.58563253e-05  8.11724663e-02  9.97886434e-03  1.67348608e-02
 -1.37120053e-01  2.77850032e-02 -1.67878270e-01 -7.36452639e-02
  4.01112027e-02 -1.36613222e-02  2.13347338e-02  1.22313738e-01
 -2.28277609e-01  1.06477879e-01  3.79780419e-02 -2.97057480e-02
  8.75980314e-03 -5.07755354e-02 -5.80299795e-02 -6.42115399e-02
  8.14865157e-02 -2.29208350e-01  1.68228894e-01  1.99304551e-01
 -1.87420156e-02  1.31028295e-01  6.42522797e-02  1.67227648e-02
  1.77332517e-02 -1.05633341e-01 -1.53835401e-01 -3.15527176e-03
  8.06920677e-02 -4.09486890e-02  2.29384005e-02 -6.67967945e-02]