[-0.1194915   0.10969161  0.05420758  0.05515571 -0.13627191 -0.04666462
 -0.03257241 -0.10267569  0.05889601 -0.08887615  0.18424842 -0.042912
 -0.17184672 -0.06354294  0.03618906  0.15901911 -0.17721225 -0.11213296
 -0.17044756 -0.01185132  0.0186413  -0.0156559  -0.01460154 -0.01680866
 -0.06002299 -0.38532746 -0.07437237 -0.03290331  0.07985432 -0.06413668
 -0.03191897  0.02928648 -0.16105945 -0.05675992  0.06077951  0.07900158
 -0.09711616 -0.05148341  0.19760042 -0.07130712 -0.22972135 -0.03978491
  0.08521415  0.22732024  0.2701112   0.068123   -0.00347835 -0.07787348
  0.1257665  -0.22447295  0.0558375   0.11729898  0.02386085  0.12084322
  0.03584197 -0.11273085  0.03998923  0.09190413 -0.14597148 -0.03851056
  0.06900202 -0.21286884 -0.07558496 -0.01994989  0.1950343   0.08037147
 -0.04297054 -0.17487425  0.12719326 -0.20262562 -0.04349775  0.02163264
 -0.07605646 -0.13671905 -0.3321394  -0.02378268  0.43575916  0.10332781
 -0.14052813  0.03266442  0.00343407 -0.08059684  0.15598559  0.12070087
 -0.05659334 -0.03074006 -0.0991537   0.07376605  0.24609061 -0.06510466
 -0.00096295  0.16772805  0.01103448  0.00574132  0.06064042  0.00415567
 -0.03403248 -0.01653808 -0.13138922 -0.05650035  0.11514572 -0.05038407
  0.01153512  0.08124098 -0.15554574  0.15509707  0.01758903  0.06725676
  0.04969943 -0.12615219 -0.10175838 -0.02452497  0.15309125 -0.17340867
  0.20117247  0.16585881  0.01444341  0.12286194  0.09003791  0.04749298
 -0.00838823 -0.03574676 -0.21037319 -0.0142219   0.08030655  0.02113757
  0.07739107  0.01573718]