[-1.13637529e-01  9.08744633e-02  6.05425946e-02  3.04726604e-02
 -1.17047906e-01 -1.59116741e-02 -2.53100544e-02 -1.04682401e-01
  1.12211041e-01 -1.31487831e-01  2.52374023e-01 -1.62487738e-02
 -1.96796149e-01 -5.29197045e-02  2.24162918e-02  2.05650359e-01
 -2.09562331e-01 -7.53400400e-02 -1.20662533e-01  5.05769998e-03
  1.86753736e-04  2.65259687e-02  2.56397780e-02 -3.57639454e-02
 -8.09693262e-02 -3.72106940e-01 -9.19504538e-02 -6.62728846e-02
  4.56163585e-02 -6.80919513e-02 -6.22159019e-02  5.16315512e-02
 -1.23454623e-01 -4.51576822e-02  5.03764115e-02  6.80407509e-02
 -1.00190043e-01 -6.46330640e-02  2.21338898e-01 -4.18166183e-02
 -2.34983996e-01 -2.91504450e-02  9.04678181e-02  2.24552676e-01
  2.35564336e-01  4.47491184e-03  9.80925094e-03 -1.21767782e-01
  1.05806962e-01 -2.05434754e-01  3.16631272e-02  6.72427192e-02
  2.19695475e-02  1.19195066e-01  2.33812612e-02 -1.13325536e-01
  2.31383853e-02  1.01450257e-01 -1.19371049e-01 -2.23089661e-02
  1.15253232e-01 -1.72848925e-01 -4.41599898e-02 -4.48948098e-03
  2.12665036e-01  8.09165016e-02 -7.43541047e-02 -2.00649545e-01
  9.82504189e-02 -1.81067571e-01 -7.74658620e-02  5.47709651e-02
 -9.67610031e-02 -1.63943619e-01 -3.26656729e-01 -2.14626528e-02
  3.99059325e-01  9.64772850e-02 -1.48157358e-01  5.95330086e-04
  1.08816277e-03 -1.02697447e-01  1.76847756e-01  1.70721561e-01
 -1.75394602e-02 -2.91823149e-02 -1.04301475e-01  3.80118974e-02
  2.66603827e-01 -6.87514991e-02 -9.42314230e-03  1.97982460e-01
  1.62898581e-02  4.34453040e-02  4.67707403e-02  2.88640205e-02
 -5.42988181e-02 -2.51678820e-03 -1.55035302e-01 -4.47147489e-02
  6.55596182e-02 -4.16080058e-02 -7.64086936e-03  1.15896180e-01
 -1.24599181e-01  1.61252722e-01 -4.12960537e-03  4.66031618e-02
  5.69214188e-02 -9.95383039e-02 -9.07452479e-02 -3.02136876e-02
  1.49261519e-01 -1.62056968e-01  1.66209534e-01  1.54649213e-01
  4.61947471e-02  1.10397838e-01  1.13502815e-01  6.66906759e-02
 -3.87858860e-02 -5.27548045e-03 -2.50791103e-01  1.35892453e-02
  8.28006491e-02 -5.95276826e-04  9.29387733e-02 -4.05573193e-03]