[-0.1259066   0.13140099  0.06241326  0.05641988 -0.13068052 -0.04510905
 -0.00676526 -0.10488798  0.07189778 -0.07961866  0.22434981 -0.04697694
 -0.21387973 -0.06974184  0.01805595  0.18533793 -0.1911139  -0.11346408
 -0.15823396  0.00178484  0.03954143  0.00285481  0.01092281 -0.02356896
 -0.05363328 -0.37543735 -0.08431316 -0.03664385  0.08921128 -0.05806843
 -0.00741843  0.03867592 -0.12366866 -0.04832836  0.06764636  0.07052764
 -0.09955098 -0.04635879  0.21120372 -0.0667206  -0.22506757 -0.03458427
  0.08951703  0.24328303  0.23982143  0.05011293  0.00391688 -0.11143986
  0.08932834 -0.22943549  0.05103427  0.11230653  0.03368561  0.11182234
  0.05457736 -0.09216058  0.05123756  0.09115395 -0.14435969 -0.00647911
  0.09685726 -0.21713443 -0.07561784 -0.00999327  0.17079973  0.04396849
 -0.05514246 -0.17490445  0.11905352 -0.19162469 -0.07631622  0.04910658
 -0.07406732 -0.13434349 -0.34992334 -0.0304633   0.49153629  0.09996071
 -0.1422544   0.03425762  0.02072565 -0.09335074  0.15885916  0.14864324
 -0.07560529 -0.05697192 -0.1414306   0.07903751  0.21554279 -0.07955228
 -0.00522651  0.19532625  0.0326661   0.04602692  0.05359948  0.01975983
 -0.02582854 -0.01622972 -0.12092654 -0.07218916  0.12147152 -0.04881822
  0.01048783  0.08272734 -0.11901035  0.13538852  0.02250597  0.07027877
  0.06996907 -0.09362384 -0.0947848  -0.03669109  0.14297043 -0.16817215
  0.16056018  0.17146301  0.01597867  0.08693936  0.10784059  0.06042195
 -0.00641401 -0.0365256  -0.21046534 -0.00184279  0.06589174  0.01711122
  0.06804087  0.01580739]