[-0.1257131   0.08658902  0.0683158   0.01904027 -0.12812765 -0.02996604
 -0.02334786 -0.0835244   0.11292895 -0.12008331  0.24268126 -0.02392677
 -0.18037365 -0.03771158  0.03364736  0.20288225 -0.21854854 -0.07479566
 -0.12253796 -0.00441802 -0.0134009   0.03880671  0.02279777 -0.02407419
 -0.07310332 -0.38605422 -0.08494518 -0.07856447  0.06303664 -0.05189903
 -0.05485858  0.06479413 -0.10499289 -0.04388611  0.06187452  0.06575038
 -0.10387879 -0.07061651  0.22808884 -0.0454888  -0.23303823 -0.03040435
  0.08209817  0.24064647  0.24424933  0.0057247   0.01012403 -0.09571426
  0.1091434  -0.22442718  0.02803684  0.0756099   0.01460798  0.10036774
  0.04004514 -0.11144413  0.03208061  0.10744888 -0.14889894 -0.02863713
  0.09646665 -0.17687783 -0.03741626 -0.00042647  0.22221728  0.0909082
 -0.07630996 -0.19482763  0.10404857 -0.17552136 -0.06983235  0.04680724
 -0.10926326 -0.15847604 -0.32322484 -0.02173128  0.41424018  0.09278183
 -0.13578732  0.02189053  0.00324387 -0.1115156   0.17087072  0.17242567
 -0.02768358 -0.05610981 -0.10490586  0.03946244  0.24509735 -0.06764518
 -0.01435779  0.18570264  0.01429936  0.03626312  0.0377662   0.02160085
 -0.05974571 -0.00363425 -0.14560381 -0.04400988  0.0685527  -0.0273062
 -0.00797686  0.12529777 -0.13658488  0.15945093 -0.00520893  0.04171939
  0.04953742 -0.10361721 -0.07651001 -0.02498922  0.14441811 -0.16555007
  0.15941532  0.15781663  0.04285546  0.12164348  0.09724732  0.03078988
 -0.02503259 -0.00048726 -0.25687495  0.01594056  0.07971142 -0.00044631
  0.07998853  0.00859526]