[-1.04646780e-01  1.18304364e-01  6.95077851e-02  6.82319626e-02
 -1.29571989e-01 -3.53617258e-02 -2.60407720e-02 -1.07990794e-01
  7.09351972e-02 -1.05401829e-01  2.03572139e-01 -3.76078449e-02
 -1.78318113e-01 -5.48680238e-02  4.37782407e-02  1.74235180e-01
 -1.81988209e-01 -1.12886392e-01 -1.58912778e-01 -9.80385300e-03
  2.18295138e-02 -2.07880326e-02 -2.11304277e-02 -2.17186715e-02
 -5.74402623e-02 -3.88059318e-01 -7.50365481e-02 -3.56362574e-02
  8.67704898e-02 -6.02685325e-02 -4.35709879e-02  9.25908703e-03
 -1.52813360e-01 -6.55054748e-02  6.85791969e-02  7.67047703e-02
 -8.38832110e-02 -5.82555905e-02  1.87923029e-01 -7.31377527e-02
 -2.38567859e-01 -2.20612381e-02  8.34242254e-02  2.14273974e-01
  2.63020605e-01  7.75878504e-02  1.58356503e-04 -9.94234309e-02
  1.20747857e-01 -2.18901470e-01  2.73982584e-02  9.93328542e-02
  2.18038261e-02  1.13477431e-01  2.31096502e-02 -1.27178237e-01
  2.63283234e-02  8.28144550e-02 -1.58638790e-01 -4.18176465e-02
  7.26439133e-02 -2.11391166e-01 -6.91970363e-02 -1.27433483e-02
  1.98017538e-01  7.27612898e-02 -6.00869767e-02 -1.80567816e-01
  1.11046076e-01 -2.13195235e-01 -4.18785512e-02  2.13329736e-02
 -6.62523732e-02 -1.41596541e-01 -3.37384313e-01 -2.46065166e-02
  4.48541939e-01  9.67515558e-02 -1.48454234e-01  2.69233938e-02
 -2.29778257e-03 -6.55332729e-02  1.64091378e-01  1.34393618e-01
 -3.88664566e-02 -3.30060907e-02 -1.02675036e-01  5.03262579e-02
  2.43312240e-01 -7.20978379e-02  3.65313143e-03  1.67057142e-01
 -4.38256329e-03  1.98239218e-02  5.20246029e-02  2.98752729e-02
 -5.74839786e-02 -1.43384533e-02 -1.33622929e-01 -7.14521855e-02
  1.00080565e-01 -3.56074274e-02  2.01989766e-02  8.13214034e-02
 -1.62404403e-01  1.44836634e-01  1.18943385e-03  5.92761151e-02
  6.01626746e-02 -1.15595199e-01 -9.99644697e-02 -3.02107520e-02
  1.53065965e-01 -1.89828560e-01  1.90737084e-01  1.87099203e-01
 -4.87562269e-04  1.26290128e-01  1.04552321e-01  4.80614565e-02
 -1.13195172e-02 -3.06482203e-02 -2.15234384e-01 -2.07576007e-02
  6.69853985e-02  1.34706944e-02  8.30797106e-02 -7.22903339e-03]