[-0.11546914  0.09462968  0.07889462  0.03125782 -0.10806928 -0.05372535
 -0.03611002 -0.13329573  0.07706872 -0.09313724  0.23074257 -0.0461903
 -0.18019877 -0.06402204 -0.01676228  0.20956062 -0.19833758 -0.0788072
 -0.11115132  0.0166481   0.07057881  0.01981591  0.04035769 -0.02474841
 -0.05720729 -0.36778516 -0.08746997 -0.06523899  0.06592852 -0.04458459
 -0.05412624  0.01274616 -0.1231791  -0.04390957  0.07402629  0.06484753
 -0.07510036 -0.06187717  0.18955316 -0.0705299  -0.24844305  0.00079028
  0.08913739  0.21759871  0.23767546  0.04278937  0.01760368 -0.15931271
  0.10791323 -0.19495881  0.03678666  0.06734984  0.01785251  0.09298442
  0.03914452 -0.10115578  0.05323742  0.1101411  -0.11569555  0.00860937
  0.11487176 -0.18715088 -0.03263823 -0.00621388  0.2013973   0.04437174
 -0.07949167 -0.17889336  0.08605317 -0.17845674 -0.08072338  0.02689469
 -0.09379998 -0.1541519  -0.34172317 -0.04838781  0.45175621  0.10546096
 -0.18575042  0.05296968  0.00084596 -0.04004754  0.20656884  0.19590604
 -0.02773652 -0.00095815 -0.1296479   0.01841755  0.24099135 -0.09770515
  0.00321928  0.23022233  0.00942814  0.07388061  0.04680874  0.00948647
 -0.05894373 -0.0004811  -0.12892783 -0.08272973  0.08856572 -0.01990036
  0.0264986   0.10855494 -0.14179452  0.13796966 -0.00900231  0.08698817
  0.08588274 -0.08305663 -0.05307218 -0.04815178  0.12218931 -0.15367395
  0.17141731  0.17987372  0.05730728  0.10152205  0.12583461  0.06170069
 -0.01084528  0.00181522 -0.22989774  0.03976531  0.08027171 -0.00147514
  0.09112643  0.00667175]