[-0.13170153  0.10270651  0.05484838  0.03797644 -0.13776085 -0.05273973
  0.00936373 -0.08671384  0.06695523 -0.07455356  0.21328242 -0.05088558
 -0.19817232 -0.08049521  0.03904499  0.17719792 -0.18849713 -0.1028183
 -0.15913491 -0.01081002  0.0317464   0.00807679  0.01637723 -0.02749274
 -0.04407205 -0.391509   -0.08423727 -0.05060658  0.09929284 -0.04769727
  0.01359656  0.05366816 -0.12376732 -0.03610193  0.06962511  0.07514603
 -0.10615367 -0.04739377  0.2151583  -0.06745239 -0.21456487 -0.04661652
  0.08463528  0.23522925  0.22395428  0.05509544  0.00570337 -0.09520777
  0.09697417 -0.2319124   0.05695975  0.10823845  0.03064444  0.1024849
  0.06652109 -0.07326451  0.06472777  0.07712875 -0.16552456 -0.01020107
  0.08622413 -0.21135226 -0.08467545 -0.01791643  0.17796652  0.05078807
 -0.0462801  -0.15985417  0.12995575 -0.19776253 -0.06778577  0.0452337
 -0.0777141  -0.13542676 -0.33452961 -0.02520624  0.47953424  0.11619089
 -0.13411866  0.02961417  0.02229141 -0.09223589  0.17051722  0.14588524
 -0.07766133 -0.0579044  -0.1302918   0.08417674  0.20773458 -0.09371019
 -0.00618911  0.19832532  0.04424031  0.05501803  0.04104844 -0.01356116
 -0.0063748  -0.02191837 -0.11668853 -0.06326126  0.12573014 -0.04341125
  0.01563397  0.07725226 -0.11552204  0.12902224  0.02542623  0.05510852
  0.06517112 -0.09076373 -0.09311151 -0.05120679  0.12994023 -0.16144446
  0.15947813  0.17536472  0.01033864  0.09732784  0.09203565  0.0590446
 -0.00284246 -0.04854985 -0.20442812  0.00656781  0.07505905  0.0334862
  0.05010856  0.01528157]