[-0.13419574  0.11170059  0.04369867  0.03478153 -0.13742362 -0.0584459
  0.00225249 -0.09623026  0.06821781 -0.06419098  0.2094543  -0.055655
 -0.20773177 -0.07219937  0.03859083  0.17468189 -0.20327337 -0.10362045
 -0.15978196 -0.00536821  0.02548536 -0.00240831  0.01702701 -0.02211143
 -0.04806609 -0.38644576 -0.08630883 -0.04360702  0.09942865 -0.04445102
  0.00567292  0.06115831 -0.12454479 -0.04303874  0.07043091  0.08066819
 -0.11095603 -0.05324587  0.21524869 -0.06612355 -0.21165834 -0.05495911
  0.08484542  0.23205809  0.2415431   0.04710115  0.01337503 -0.08932649
  0.09037569 -0.23708116  0.06148804  0.10755055  0.03108682  0.10845157
  0.05803208 -0.08791426  0.04969319  0.09514334 -0.15351053 -0.00575943
  0.09224254 -0.22326791 -0.09336172 -0.01746535  0.17493704  0.06735968
 -0.05223435 -0.16762455  0.13618068 -0.1926821  -0.07594462  0.04003998
 -0.07512101 -0.1321874  -0.3415015  -0.02444936  0.47608837  0.10760149
 -0.13113944  0.02379236  0.0265874  -0.09304859  0.15710624  0.14738046
 -0.08631569 -0.06095058 -0.13426338  0.08107226  0.20751201 -0.08255339
 -0.01156946  0.19291112  0.03529508  0.05389715  0.04899496  0.00127118
 -0.00607152 -0.024471   -0.11747557 -0.06607786  0.13463055 -0.05693039
  0.0087721   0.08631514 -0.10724565  0.13063948  0.02428323  0.06571569
  0.06609409 -0.09969462 -0.08558614 -0.04369699  0.1373634  -0.16228829
  0.15843828  0.17448477  0.01130574  0.0975598   0.09264323  0.06083835
  0.00258853 -0.041573   -0.20924     0.00405412  0.06822573  0.04036589
  0.04852014  0.02384291]