[-1.31062284e-01  1.08486705e-01  5.10855503e-02  4.84054759e-02
 -1.39468417e-01 -4.91692573e-02  5.20772161e-03 -7.74948820e-02
  9.50810313e-02 -6.12233058e-02  2.18331382e-01 -5.18470779e-02
 -2.14249253e-01 -6.04918003e-02  2.14330591e-02  1.90341726e-01
 -2.16355354e-01 -9.41856131e-02 -1.39394298e-01  6.01262087e-03
  3.71856876e-02 -9.26070753e-03  2.07732972e-02 -2.91659925e-02
 -6.53342679e-02 -3.91762704e-01 -7.49572739e-02 -4.56601493e-02
  7.25610778e-02 -5.25982678e-02 -1.81039982e-03  5.37742041e-02
 -1.19328633e-01 -3.47092561e-02  6.58643469e-02  9.02137533e-02
 -1.03925668e-01 -5.11039570e-02  2.22192362e-01 -6.99390918e-02
 -2.17087537e-01 -5.23350239e-02  9.46138725e-02  2.26366907e-01
  2.31152579e-01  6.73176646e-02 -2.13448307e-03 -9.54238102e-02
  1.05341233e-01 -2.43559480e-01  5.80873080e-02  1.06739655e-01
  2.47021168e-02  1.05733171e-01  4.79501896e-02 -8.37476775e-02
  5.69358580e-02  8.99770185e-02 -1.69988677e-01 -2.72534136e-02
  9.85527188e-02 -2.10841730e-01 -9.59662572e-02 -1.98309217e-02
  1.82677492e-01  7.64140934e-02 -5.15204966e-02 -1.58923760e-01
  1.20608605e-01 -2.01774478e-01 -7.92940184e-02  2.71284282e-02
 -6.89961910e-02 -1.44733861e-01 -3.41779560e-01 -3.81291918e-02
  4.67299670e-01  1.00988708e-01 -1.29221797e-01  3.08371522e-02
  3.84194292e-02 -8.86908844e-02  1.65288374e-01  1.40497342e-01
 -8.16998929e-02 -4.74352948e-02 -1.41437456e-01  6.74307644e-02
  2.14021876e-01 -8.80081207e-02  4.79403709e-04  1.86745867e-01
  3.93543355e-02  5.13406396e-02  4.90518846e-02 -4.02607350e-03
 -5.39427763e-03 -1.11178635e-02 -1.25959083e-01 -6.15386926e-02
  1.33739948e-01 -5.16258143e-02  6.37966022e-03  6.20893426e-02
 -1.32168457e-01  1.26457557e-01  2.43575461e-02  5.51368371e-02
  7.47135058e-02 -1.03350066e-01 -1.00390829e-01 -3.92081626e-02
  1.46229431e-01 -1.74916968e-01  1.66310981e-01  1.66376472e-01
  3.51483421e-03  1.10169105e-01  9.15172473e-02  7.12414160e-02
 -1.25702024e-02 -3.22328620e-02 -2.12268382e-01 -1.12469497e-04
  7.04171881e-02  2.82630231e-02  7.11824521e-02  2.09898129e-02]