[-0.13023834  0.11001819  0.04545305  0.05269009 -0.13757001 -0.04244195
 -0.03272262 -0.10076737  0.07542624 -0.10016983  0.20309746 -0.0297322
 -0.17145471 -0.08231846  0.02819131  0.16015115 -0.17809148 -0.11531091
 -0.1584069  -0.01809028  0.01562613 -0.02223703 -0.01382775 -0.02321716
 -0.05908719 -0.39330989 -0.08022993 -0.02708877  0.07762219 -0.07844921
 -0.03236013  0.03479673 -0.15925351 -0.07496979  0.06708209  0.07951485
 -0.09355816 -0.04974615  0.19817901 -0.06594938 -0.22075711 -0.03804481
  0.09074549  0.23976548  0.27236927  0.06942039 -0.00938896 -0.08225654
  0.12807168 -0.21857595  0.05243816  0.11538573  0.03088799  0.11579844
  0.04099318 -0.10904019  0.03600357  0.08219695 -0.14650488 -0.04745468
  0.06943985 -0.21387105 -0.08141469 -0.02015651  0.19715877  0.08930311
 -0.04587793 -0.18337989  0.12427092 -0.20227857 -0.04456648  0.01846823
 -0.07547221 -0.13935299 -0.33061758 -0.01786123  0.43030244  0.11656383
 -0.13606369  0.03954995  0.00908854 -0.07628696  0.15526243  0.13158819
 -0.06119662 -0.02240815 -0.08973135  0.0685375   0.22899941 -0.04901531
 -0.02117505  0.16301192  0.00384133  0.01561127  0.07621042  0.00369926
 -0.04032899 -0.01827619 -0.13747205 -0.06284511  0.11541126 -0.04827928
  0.02205447  0.08043839 -0.14185469  0.14958209  0.00587162  0.07509481
  0.04718876 -0.12396435 -0.09543023 -0.01802811  0.13645889 -0.1854824
  0.20734482  0.1584118   0.00869508  0.13451223  0.1072402   0.04511361
 -0.00501812 -0.03118761 -0.19278763 -0.01947007  0.0690217   0.02045487
  0.10158737  0.00381487]