[-0.10783792  0.11494457  0.04142819  0.06177211 -0.12815996 -0.05076398
 -0.03217456 -0.10483699  0.07186788 -0.09270866  0.19322555 -0.03687495
 -0.17790423 -0.06964765  0.03509956  0.15813206 -0.1858605  -0.10947146
 -0.16678095 -0.01470329  0.02771454 -0.01961042 -0.00941084 -0.02640313
 -0.0578403  -0.38852596 -0.08272683 -0.02988837  0.08500817 -0.07041106
 -0.0216343   0.02959241 -0.16121645 -0.06327044  0.05904929  0.06884184
 -0.08292212 -0.04848185  0.19902599 -0.07283594 -0.22501579 -0.03731805
  0.08560293  0.22511001  0.25735447  0.06570525 -0.00103917 -0.08985577
  0.11837039 -0.2105801   0.04730828  0.12338718  0.02906226  0.11969616
  0.02885089 -0.10061151  0.03913712  0.08047861 -0.14236844 -0.04018718
  0.08254869 -0.20605674 -0.08190176 -0.01419117  0.18721592  0.06630056
 -0.04845715 -0.17692459  0.11518922 -0.20514809 -0.04877469  0.0139658
 -0.07504972 -0.14079647 -0.33864695 -0.02153707  0.43886122  0.09545171
 -0.1405416   0.03942373  0.00220662 -0.08700406  0.1539669   0.13094753
 -0.05726197 -0.02683567 -0.10082959  0.08474597  0.24164264 -0.07119433
 -0.00084787  0.16707838  0.00880626  0.01905414  0.0551577   0.01762452
 -0.03569708 -0.01209171 -0.12557054 -0.04697132  0.12443282 -0.04629628
  0.00856187  0.0795363  -0.14308856  0.15092717  0.01846611  0.06281977
  0.05788497 -0.11718382 -0.10214634 -0.03890864  0.14712149 -0.16955195
  0.19846171  0.17061444  0.00806102  0.1196759   0.09227886  0.06051376
 -0.00617562 -0.03095771 -0.20918225 -0.01863428  0.06797801  0.02508124
  0.07063242  0.00358599]