[-0.14018254  0.10017802  0.02946565  0.0426993  -0.13061896 -0.05669727
 -0.00408551 -0.09517949  0.0901238  -0.0610812   0.21124104 -0.04856329
 -0.20630722 -0.08638738  0.03388165  0.1625277  -0.19691263 -0.0968061
 -0.14204375 -0.00979763  0.02999087  0.00518003  0.02216814 -0.01839904
 -0.04751128 -0.39952716 -0.08786985 -0.04904476  0.07977328 -0.05330638
  0.01300603  0.08043438 -0.1143716  -0.0433269   0.06735333  0.08607113
 -0.10969382 -0.03916315  0.22474885 -0.06304069 -0.20580852 -0.06460444
  0.08911014  0.24686387  0.23243356  0.04707557  0.00553381 -0.0771326
  0.0963858  -0.23333395  0.06103156  0.13224129  0.03019347  0.1032418
  0.07212219 -0.07139585  0.05019957  0.08480222 -0.14950792 -0.00640127
  0.09491011 -0.21633366 -0.09931066 -0.01546478  0.17087041  0.07662686
 -0.04194514 -0.16961145  0.12620892 -0.20031409 -0.09435007  0.0378621
 -0.08974247 -0.1480114  -0.33691558 -0.02603947  0.45826402  0.11286002
 -0.12370946  0.04462011  0.04160776 -0.09771914  0.16370909  0.15098253
 -0.08191945 -0.04655863 -0.12764765  0.08330714  0.19937932 -0.06984321
 -0.01721601  0.19450329  0.03417538  0.05717785  0.05629168 -0.00979751
  0.01093973 -0.01898032 -0.12566431 -0.06083119  0.14891982 -0.0501879
  0.01718676  0.07338231 -0.11207757  0.13238691  0.02532441  0.07226373
  0.07051495 -0.09795768 -0.0896511  -0.03250026  0.13890004 -0.16435857
  0.16982655  0.15686628  0.01229816  0.10279334  0.08552285  0.06223636
  0.00136859 -0.04221945 -0.20381542  0.00068923  0.06000927  0.04388806
  0.04602611  0.02023609]