[-0.12019898  0.10616517  0.06657449  0.01866213 -0.11705724  0.03073928
 -0.03543209 -0.10563667  0.10457482 -0.13939556  0.27663955  0.00896465
 -0.21818273 -0.03776123 -0.01254939  0.17500764 -0.15245888 -0.13562083
 -0.13701978 -0.00073717  0.00757031  0.03614959 -0.0364318  -0.03354291
 -0.05180673 -0.34311962 -0.1332936  -0.02712389  0.07613605 -0.11828189
 -0.04181984  0.01199378 -0.12869638 -0.03269364  0.03153519  0.05399046
 -0.09184291 -0.08738997  0.20366882  0.00203543 -0.22625501 -0.05732047
  0.11524576  0.26297802  0.20165391  0.03141802  0.00317074 -0.07548711
  0.06839432 -0.21281628  0.05633352  0.1055332   0.12275872  0.1254442
  0.05263755 -0.14910722  0.0362568   0.09429631 -0.13414066  0.04649528
  0.09920178 -0.14540942 -0.03141025  0.00180977  0.20591104  0.10429231
 -0.0639172  -0.22471905  0.1519563  -0.19158445 -0.08946083  0.09120635
 -0.11055581 -0.17500889 -0.29784524 -0.01211614  0.41886726  0.11617686
 -0.1345847  -0.00444415  0.0347431  -0.11467027  0.12769286  0.14171071
 -0.06660675 -0.02503395 -0.11950727  0.04261027  0.28670436 -0.01734619
 -0.02817694  0.19245484  0.00224537  0.00130483  0.05826023  0.05017827
 -0.01881169 -0.00690637 -0.11918094 -0.03496385  0.04650613 -0.08021861
 -0.02178752  0.11735453 -0.10671686  0.14731419 -0.01015428  0.04728173
  0.00651202 -0.07464712 -0.12146633 -0.00948749  0.18044601 -0.18093649
  0.17099476  0.16552812  0.04007125  0.06119921  0.11616679  0.07738265
  0.00147604 -0.04858013 -0.23606138 -0.03805103  0.03213982 -0.07143262
  0.07503261  0.01599484]