[-0.10924096  0.12260471  0.06004316  0.06055528 -0.12541538 -0.0324053
 -0.01093044 -0.10103055  0.07746141 -0.09191528  0.2247877  -0.05068257
 -0.21194617 -0.03910392  0.02398215  0.18477751 -0.19151637 -0.09953696
 -0.13966806  0.01238627  0.04027331  0.01179334  0.01029265 -0.03225906
 -0.05577115 -0.37340197 -0.08217094 -0.0391586   0.06812262 -0.04685045
 -0.00939188  0.03046038 -0.11445791 -0.03301432  0.06897583  0.07659642
 -0.09701914 -0.04609287  0.21158209 -0.06579426 -0.22421722 -0.04562369
  0.0929672   0.21705687  0.21553472  0.05582446  0.00106072 -0.12410287
  0.08060708 -0.23185451  0.03686773  0.09531695  0.03437969  0.10480674
  0.04492805 -0.10589013  0.05104064  0.09594991 -0.13650362 -0.00527518
  0.09468596 -0.21037315 -0.06623346 -0.00567416  0.18353426  0.04556967
 -0.0571094  -0.16238198  0.1084279  -0.18959451 -0.08392831  0.04410525
 -0.06097562 -0.15270068 -0.34721038 -0.04375361  0.48346463  0.08974429
 -0.14916831  0.02393192  0.02550056 -0.08608073  0.17590813  0.15006135
 -0.0652392  -0.06874044 -0.14594302  0.05553884  0.23120092 -0.09172686
  0.00646077  0.18191485  0.02193801  0.06326812  0.04300341  0.02198649
 -0.0281368  -0.00730039 -0.11780088 -0.06405734  0.10283419 -0.05242038
  0.00101108  0.09163079 -0.13820194  0.12282183  0.01616432  0.04377245
  0.08643084 -0.08166398 -0.09255154 -0.0482421   0.15245621 -0.17457019
  0.14291441  0.18063541 -0.00196589  0.10604677  0.1037837   0.08178167
 -0.01541442 -0.02633024 -0.23929711  0.00146057  0.05667392  0.01766945
  0.04950787  0.00883444]