[-0.12440407  0.10410861  0.05751464  0.02460473 -0.12139409 -0.04071136
 -0.03393788 -0.12657337  0.09610263 -0.07541722  0.20460415 -0.03386145
 -0.17986383 -0.07725175 -0.01115608  0.18421231 -0.21758918 -0.07581902
 -0.11772592  0.01392162  0.05248556  0.03918948  0.0525622  -0.03643591
 -0.04687541 -0.39012197 -0.08905266 -0.07480544  0.07215997 -0.03620268
 -0.0455403   0.02151958 -0.13066176 -0.05935792  0.0636128   0.06563053
 -0.08307569 -0.0537428   0.19368373 -0.05878786 -0.24035788 -0.0210471
  0.09781234  0.22241369  0.25551254  0.04556033  0.00656318 -0.13699275
  0.10728866 -0.19312485  0.05751083  0.08345935  0.02107049  0.09420475
  0.04962393 -0.08755498  0.03273757  0.1137129  -0.11615331  0.00762063
  0.11899757 -0.18522261 -0.05222708 -0.01768722  0.20099011  0.06915612
 -0.06716277 -0.18941556  0.07840417 -0.19495912 -0.09655356  0.02895009
 -0.09021372 -0.13924544 -0.3419621  -0.04692235  0.4414303   0.11212555
 -0.16319217  0.03439635  0.0018805  -0.06079322  0.19928399  0.19663692
 -0.0432465   0.00341761 -0.11653499  0.02166047  0.22771978 -0.07902568
 -0.01317784  0.22911146  0.00641863  0.07236322  0.04736981 -0.00085124
 -0.04608513 -0.00464999 -0.13199167 -0.0870411   0.1084291  -0.02763746
  0.0278717   0.10559416 -0.12674303  0.13003361 -0.00624926  0.09405913
  0.09650607 -0.10817845 -0.0498587  -0.04455543  0.14123382 -0.14560057
  0.17579742  0.15751481  0.03536801  0.11038499  0.11956476  0.07163731
 -0.02051888 -0.00183526 -0.22669187  0.03783493  0.07862788  0.0089262
  0.09946387  0.00993861]