[-1.11083202e-01  9.92108360e-02  6.98924288e-02  4.79644649e-02
 -9.54415798e-02 -6.48840070e-02  3.52251547e-04 -1.45688444e-01
  7.47180656e-02 -8.32870826e-02  2.55774587e-01 -3.35816629e-02
 -1.99406356e-01 -7.92975798e-02  1.37616294e-02  1.79317340e-01
 -1.98293790e-01 -6.67154267e-02 -1.44291028e-01 -1.44507142e-03
  4.84293625e-02  8.19935929e-03  8.70929584e-02 -2.73292456e-02
 -4.97983359e-02 -3.74463409e-01 -8.70116949e-02 -6.79520667e-02
  9.81345698e-02 -3.81843410e-02 -4.37680408e-02  7.58963684e-03
 -1.22523822e-01 -6.19017892e-02  5.59217222e-02  5.46639226e-02
 -8.14726427e-02 -6.15142882e-02  2.18489766e-01 -4.32054102e-02
 -2.31202960e-01 -1.37059828e-02  7.58223459e-02  2.36457586e-01
  2.59244293e-01  2.65603941e-02  1.59771126e-02 -1.40249640e-01
  7.34232590e-02 -2.09408119e-01  5.28708361e-02  7.13307485e-02
  2.53533106e-02  7.75400102e-02  6.47219047e-02 -7.52757713e-02
  2.98655722e-02  1.00254320e-01 -1.36148691e-01  1.44001683e-02
  1.15392186e-01 -1.67833120e-01 -2.80411877e-02 -1.27070621e-02
  1.96982503e-01  6.81715161e-02 -6.69849589e-02 -1.56377137e-01
  8.86134133e-02 -1.96137428e-01 -8.59038383e-02  3.25365141e-02
 -9.26171318e-02 -1.49419963e-01 -3.42324823e-01 -4.82096560e-02
  4.59517241e-01  1.17460035e-01 -1.61673397e-01  2.62233708e-02
 -1.91814639e-02 -7.99364671e-02  2.06803069e-01  1.74589708e-01
 -3.26466560e-02 -1.21517992e-02 -1.20627716e-01  4.03066538e-02
  2.21727639e-01 -8.99864957e-02 -2.74955016e-02  2.40213737e-01
  5.95930219e-03  5.22587188e-02  6.00493327e-02 -1.15788099e-03
 -4.94081192e-02 -6.12630695e-03 -1.52116075e-01 -8.71785507e-02
  7.49265626e-02 -4.40675691e-02  4.41747494e-02  8.33723471e-02
 -1.34211898e-01  1.02869391e-01  6.42931834e-03  6.13864176e-02
  9.67461392e-02 -9.06462073e-02 -7.74828419e-02 -5.27416430e-02
  1.33272603e-01 -1.65968820e-01  1.76771924e-01  1.89667940e-01
  4.81386110e-02  8.62273499e-02  1.11260109e-01  5.05546108e-02
 -2.01569474e-03  4.73427353e-03 -1.90468147e-01  4.40128036e-02
  5.33534400e-02  1.05544440e-02  9.88984481e-02  8.97684600e-03]