[-0.14413467  0.09500964  0.06062273  0.02810472 -0.14092615 -0.05437549
 -0.02424262 -0.10482452  0.07898777 -0.06100498  0.20261689 -0.02755558
 -0.19042253 -0.07771533  0.02556098  0.16161506 -0.20780888 -0.07422408
 -0.15800385 -0.00174608  0.04035901  0.00963365  0.06741232 -0.0351797
 -0.05720989 -0.40208694 -0.09204873 -0.07404017  0.08951386 -0.04999808
 -0.02352769  0.0045075  -0.13666975 -0.06870343  0.05287705  0.0529239
 -0.10710738 -0.06682211  0.20495403 -0.06438124 -0.22566107 -0.03940073
  0.08200314  0.21852925  0.25172827  0.05618613  0.01469301 -0.11011288
  0.1010227  -0.21733451  0.08831757  0.08834262  0.02669925  0.10319837
  0.08178922 -0.07793665  0.06038877  0.11268102 -0.14005874  0.01477274
  0.10489594 -0.18423973 -0.04989457 -0.01850361  0.19634351  0.0896885
 -0.04456449 -0.16400218  0.08920155 -0.18880922 -0.07656296  0.02645707
 -0.08388593 -0.14408919 -0.33798411 -0.04331728  0.44172856  0.13431007
 -0.15938942  0.00562569  0.002575   -0.08380027  0.17949268  0.1656137
 -0.08158383 -0.00963022 -0.11526269  0.0592408   0.21248965 -0.07381211
 -0.01413251  0.23731522  0.03250842  0.04843733  0.06436972 -0.01579181
 -0.04394155 -0.02185438 -0.12200873 -0.07737944  0.13188905 -0.04751093
  0.03223978  0.08009721 -0.1235066   0.12882012  0.00103917  0.07437899
  0.07087363 -0.1190665  -0.06725871 -0.04052424  0.13894095 -0.14328814
  0.18322729  0.17188571  0.03409922  0.11164071  0.09694367  0.0516949
 -0.0178808  -0.00999683 -0.1938917   0.03954887  0.07614049  0.01785034
  0.09503403  0.02730502]