[-1.37946889e-01  8.66856799e-02  4.60466817e-02  2.97464672e-02
 -1.18517958e-01 -4.96732816e-02 -3.08304932e-02 -1.28359690e-01
  9.79688838e-02 -7.43699372e-02  2.16500565e-01 -2.54837424e-02
 -1.85488075e-01 -8.04691091e-02  3.97283611e-06  1.77434906e-01
 -2.27540329e-01 -8.15005004e-02 -1.28826424e-01  4.06529848e-03
  5.14029972e-02  2.30056718e-02  6.04154542e-02 -3.85279916e-02
 -5.95473163e-02 -3.99250239e-01 -9.03975666e-02 -8.60172063e-02
  7.30453655e-02 -3.97310816e-02 -3.51289064e-02  2.31174137e-02
 -1.29014298e-01 -5.94094954e-02  5.72155975e-02  5.48549294e-02
 -8.01733434e-02 -4.80878539e-02  2.09953830e-01 -4.69090939e-02
 -2.35959798e-01 -1.69783030e-02  8.90457928e-02  2.35916734e-01
  2.57897377e-01  4.09735590e-02  1.39916809e-02 -1.24605082e-01
  1.02926053e-01 -1.99196652e-01  5.98705895e-02  9.02953595e-02
  3.11222319e-02  9.26716924e-02  6.21933006e-02 -7.89022520e-02
  4.16518413e-02  9.93083268e-02 -1.24329291e-01  1.36298984e-02
  1.25239044e-01 -1.76533371e-01 -4.00287546e-02 -7.02817878e-03
  2.01078102e-01  6.80445060e-02 -5.80318384e-02 -1.72833249e-01
  8.24724212e-02 -1.83671102e-01 -9.57289860e-02  2.38179620e-02
 -1.06465518e-01 -1.54487222e-01 -3.40093821e-01 -4.81938869e-02
  4.51977164e-01  1.19378857e-01 -1.60959184e-01  3.47475819e-02
 -1.16175006e-03 -7.68782720e-02  2.02295944e-01  1.85086116e-01
 -4.48592491e-02  2.39171321e-03 -1.17097281e-01  4.50799316e-02
  2.27623388e-01 -7.27139935e-02 -2.18529236e-02  2.30025053e-01
  1.73167624e-02  6.36576936e-02  5.65808900e-02 -5.88158378e-03
 -3.79286185e-02 -8.61173309e-03 -1.37570009e-01 -8.25837404e-02
  1.00128748e-01 -2.13188175e-02  3.61129157e-02  8.83090943e-02
 -1.16656363e-01  1.29032493e-01  2.47037155e-03  8.46414268e-02
  6.94636703e-02 -1.02044605e-01 -5.34426570e-02 -3.44397202e-02
  1.30818233e-01 -1.45422474e-01  1.81279212e-01  1.67002082e-01
  4.83949892e-02  1.07237689e-01  1.01944938e-01  4.66628931e-02
 -2.22196542e-02  5.15276333e-03 -2.17179999e-01  3.91422771e-02
  6.68355525e-02  2.02045348e-02  1.08161345e-01  1.92121845e-02]