[-0.1257039   0.10364908  0.05149552  0.04538658 -0.14662395 -0.04961975
 -0.03049693 -0.10698675  0.06404044 -0.08915385  0.19351953 -0.03540152
 -0.18364947 -0.06512407  0.03216654  0.16173884 -0.18085535 -0.10578487
 -0.16390577 -0.02194625  0.01970553 -0.03662983  0.00515315 -0.001217
 -0.06589019 -0.37311292 -0.07638999 -0.03900681  0.07588977 -0.06680534
 -0.05433544  0.02629085 -0.16094398 -0.06471219  0.06035618  0.08276855
 -0.10202231 -0.06020058  0.20044497 -0.0789059  -0.22001563 -0.0453604
  0.08019572  0.21489     0.27234086  0.06827272  0.00154413 -0.08895502
  0.12777811 -0.22892447  0.0646471   0.11651134  0.01705165  0.11973663
  0.02763341 -0.11774161  0.04135885  0.09972345 -0.13988793 -0.04764433
  0.06839993 -0.21784873 -0.08381765 -0.02936482  0.20235038  0.1062258
 -0.04657401 -0.17740645  0.12169673 -0.20392214 -0.0488267   0.01734016
 -0.08097885 -0.13698007 -0.32811657 -0.02144325  0.43235436  0.11742361
 -0.1436478   0.02607275 -0.00814837 -0.07094024  0.1588525   0.12286168
 -0.0635419  -0.02455335 -0.10134707  0.06923536  0.23452799 -0.07467636
 -0.00336526  0.16823402  0.01943104  0.01895512  0.07249925  0.00644193
 -0.04198219 -0.01573293 -0.13822396 -0.05506552  0.11341041 -0.04904513
  0.01546623  0.07181369 -0.1525366   0.14222127  0.00985052  0.05797129
  0.04447803 -0.13773042 -0.10126114 -0.03205283  0.14388925 -0.18021873
  0.20306647  0.1718321   0.01844081  0.13440481  0.09657084  0.05380867
 -0.00813238 -0.03537768 -0.19505873 -0.00396579  0.09479289  0.02372252
  0.08613729  0.00798631]