[-0.12928033  0.10708179  0.05218731  0.05158257 -0.13865645 -0.05427667
 -0.042715   -0.11045158  0.05778748 -0.09314258  0.19480757 -0.04106804
 -0.17631698 -0.06726887  0.03121495  0.16204606 -0.18757537 -0.11831447
 -0.17141961 -0.00768149  0.0144018  -0.01852343 -0.017584   -0.01729272
 -0.06260148 -0.38206714 -0.07437586 -0.03204164  0.07610079 -0.06435557
 -0.0327025   0.03172802 -0.15803052 -0.05497018  0.0712695   0.09154634
 -0.09316242 -0.04834014  0.20231977 -0.07671902 -0.23396146 -0.03820864
  0.08782516  0.22782086  0.28009647  0.06181603 -0.0065264  -0.08622521
  0.13971739 -0.22700112  0.05218479  0.12082495  0.03370154  0.11754799
  0.03291584 -0.11849757  0.03247724  0.1062106  -0.14783829 -0.04547263
  0.06504579 -0.22011764 -0.08075571 -0.02001975  0.18827823  0.0836157
 -0.05705371 -0.17950015  0.12553559 -0.20389283 -0.04054029  0.02626023
 -0.07982626 -0.13928413 -0.34097609 -0.0293515   0.43834883  0.08952812
 -0.13922724  0.03158889  0.00815028 -0.08393853  0.14302944  0.12608738
 -0.06217123 -0.03306988 -0.10075992  0.07329427  0.24395895 -0.06666688
  0.00815733  0.16682503  0.00703409  0.01153993  0.05968341  0.01463543
 -0.03702907 -0.02334318 -0.12803361 -0.05672714  0.10882129 -0.05107432
  0.01494353  0.08033369 -0.15079629  0.14663623  0.01486848  0.07360579
  0.04963302 -0.13412987 -0.09035028 -0.03228797  0.15072198 -0.17843924
  0.19567452  0.16657022  0.01159888  0.12514046  0.09182649  0.04334905
 -0.01052648 -0.03203842 -0.20817308 -0.0104589   0.07312505  0.02533807
  0.07549503  0.00838404]