[-0.11847204  0.08658613  0.06927967  0.0246245  -0.12653314 -0.03046638
 -0.00777382 -0.07643913  0.12435135 -0.12239249  0.25201505 -0.01976837
 -0.18872781 -0.03997034  0.03770717  0.21148022 -0.19990551 -0.06636123
 -0.14066041 -0.00709362 -0.02441033  0.02428827  0.01577497 -0.03725321
 -0.06851399 -0.38828444 -0.08106726 -0.0668652   0.04752302 -0.07081372
 -0.04791589  0.07365598 -0.1070694  -0.05889702  0.05004793  0.06479365
 -0.1132262  -0.06557437  0.23039618 -0.04750201 -0.23515116 -0.03934399
  0.08186156  0.23303704  0.24880223  0.01013783  0.02200955 -0.10135996
  0.10329758 -0.22455564  0.0171191   0.05906115  0.00259306  0.11172654
  0.03675938 -0.11203629  0.01490062  0.10855689 -0.13356042 -0.03226789
  0.09176917 -0.18418635 -0.05002994 -0.00698559  0.21042314  0.08502775
 -0.06809395 -0.19530416  0.11210161 -0.18710998 -0.07821631  0.04301173
 -0.0921478  -0.1611001  -0.34113565 -0.02394058  0.39209437  0.08726461
 -0.13470165  0.00159807  0.0050789  -0.11358483  0.16465724  0.15786323
 -0.0209013  -0.05610896 -0.10097339  0.02794938  0.26620761 -0.06927819
 -0.00981473  0.17721951  0.0095506   0.02393055  0.03015222  0.03482855
 -0.05718925  0.00389131 -0.15445548 -0.04373965  0.08200071 -0.04588265
 -0.01035388  0.12071239 -0.15109031  0.16549155 -0.01120022  0.04335433
  0.05080722 -0.10349102 -0.08686965 -0.01789111  0.16363351 -0.15517469
  0.16540508  0.17855878  0.03047437  0.1181341   0.10621955  0.04047759
 -0.03201243 -0.00235453 -0.25771186  0.00457309  0.07108512  0.01272549
  0.07565369  0.01164425]