[-1.24627732e-01  1.13315478e-01  5.41060232e-02  4.69541065e-02
 -1.26740158e-01 -5.27534299e-02  3.05785961e-03 -9.41844210e-02
  6.76625296e-02 -6.31615445e-02  2.10249141e-01 -6.31919056e-02
 -2.06853107e-01 -6.53403550e-02  1.81530509e-02  1.80503890e-01
 -1.90436646e-01 -1.01272978e-01 -1.55539945e-01 -8.52234196e-03
  3.90954576e-02 -1.29044766e-03  3.53382411e-03 -2.58341674e-02
 -4.92957123e-02 -3.81632745e-01 -8.26956779e-02 -3.37588079e-02
  8.17139745e-02 -4.84764501e-02  3.84553161e-04  4.89586033e-02
 -1.28319770e-01 -4.30679955e-02  6.49495050e-02  7.21630529e-02
 -1.04633264e-01 -5.09204976e-02  2.01692373e-01 -6.83362484e-02
 -2.16449142e-01 -4.11108844e-02  9.72478911e-02  2.28751808e-01
  2.31468201e-01  6.27204999e-02  5.21067530e-03 -1.11362197e-01
  9.37558338e-02 -2.21040681e-01  5.57229407e-02  1.13139749e-01
  2.50563826e-02  1.10982113e-01  5.65533526e-02 -7.95433894e-02
  5.34034185e-02  8.80131647e-02 -1.35432884e-01 -4.31216229e-03
  9.86249968e-02 -2.13984489e-01 -8.71506408e-02 -2.62153056e-02
  1.66279539e-01  4.95604873e-02 -4.63373810e-02 -1.67956933e-01
  1.26809657e-01 -1.95027381e-01 -8.58895928e-02  3.55451107e-02
 -6.72541335e-02 -1.36731505e-01 -3.51011127e-01 -2.45072972e-02
  4.71731037e-01  1.05451763e-01 -1.38711438e-01  3.53150852e-02
  3.03340796e-02 -7.60701373e-02  1.81308672e-01  1.48825511e-01
 -7.98671022e-02 -5.54849505e-02 -1.37322143e-01  6.81147501e-02
  2.18957663e-01 -8.10709149e-02 -9.84316226e-03  1.87878534e-01
  2.93049123e-02  5.04192710e-02  4.90048490e-02  9.10097826e-03
 -1.54710785e-02 -1.01283258e-02 -1.17428876e-01 -6.69075772e-02
  1.44888446e-01 -5.06226495e-02  8.78619216e-03  8.26689899e-02
 -1.16517700e-01  1.25870109e-01  2.24105194e-02  7.48147592e-02
  8.16726685e-02 -8.88987705e-02 -9.27853957e-02 -4.32422608e-02
  1.36598021e-01 -1.61896333e-01  1.61065966e-01  1.68919235e-01
  5.95638482e-03  8.91919360e-02  1.06949389e-01  7.56735951e-02
 -7.36371800e-03 -3.92858423e-02 -2.14106962e-01  6.40235841e-04
  7.13877603e-02  3.63853388e-02  5.55246249e-02  1.98021960e-02]