[-0.12809718  0.10422671  0.05077217  0.04767567 -0.13767238 -0.05664225
  0.01264731 -0.0859841   0.07330152 -0.07594135  0.21517168 -0.04829366
 -0.21186045 -0.06348067  0.04886458  0.18031998 -0.19580917 -0.09861528
 -0.16819228 -0.00834159  0.02728807 -0.00915952  0.01214661 -0.01736628
 -0.05250425 -0.3870334  -0.07453155 -0.04388319  0.09172286 -0.04756038
  0.00692742  0.06110999 -0.12207323 -0.03248595  0.06588276  0.08324345
 -0.11082151 -0.04841865  0.21985225 -0.07284553 -0.21494703 -0.0625388
  0.08161535  0.21876132  0.23323993  0.05982118  0.00648525 -0.08962715
  0.10130195 -0.24962568  0.05506945  0.10111826  0.03210987  0.11396108
  0.06426372 -0.0881915   0.05408429  0.08231545 -0.15768856 -0.0183622
  0.07576807 -0.22503977 -0.0944509  -0.02441331  0.17943671  0.06300724
 -0.0471792  -0.14492731  0.1341961  -0.20479169 -0.07665562  0.03856037
 -0.06166389 -0.1394978  -0.3400633  -0.03485122  0.46111631  0.11764105
 -0.13957787  0.02186238  0.03194466 -0.08947106  0.16604137  0.13381952
 -0.08289164 -0.05774903 -0.13107406  0.07630819  0.21658523 -0.09235336
  0.0024036   0.20073377  0.03998402  0.05353449  0.04660795 -0.00919294
  0.00208938 -0.02894312 -0.12102161 -0.06468588  0.1398588  -0.05207662
  0.01057277  0.06231663 -0.12802032  0.12547855  0.02384247  0.05992711
  0.07531881 -0.09489154 -0.10564177 -0.04693089  0.1436573  -0.16817586
  0.16338284  0.17900227 -0.00671765  0.10243813  0.08801943  0.06434327
 -0.00821901 -0.05388358 -0.20422845 -0.00221709  0.08483364  0.03700538
  0.04676374  0.01645633]