[-0.1064477   0.07386792  0.0739281   0.02791499 -0.12310524 -0.01896821
 -0.03091994 -0.09045407  0.09990598 -0.13235338  0.25586781 -0.01482619
 -0.18438469 -0.04190679  0.03279923  0.20523646 -0.20488083 -0.07236888
 -0.12627235  0.00914531 -0.00889505  0.03386598  0.01237231 -0.04638747
 -0.06526661 -0.38676885 -0.10028309 -0.0646861   0.05996434 -0.06484149
 -0.06375828  0.06142648 -0.11013758 -0.04860083  0.0570593   0.05241248
 -0.09977    -0.07013054  0.21123786 -0.02893898 -0.24233928 -0.02267175
  0.08447385  0.22542118  0.24255608  0.01104367  0.01404556 -0.10313616
  0.09759633 -0.22434667  0.03927558  0.06185775  0.02783165  0.11820807
  0.03961809 -0.11534777  0.03225899  0.08630022 -0.13458483 -0.01378551
  0.10435494 -0.17437896 -0.03001127  0.0079915   0.19851838  0.08024532
 -0.06803211 -0.20135982  0.09713447 -0.17882496 -0.07238454  0.04922808
 -0.1001467  -0.16356888 -0.32974038 -0.014262    0.40778503  0.09201618
 -0.1456521   0.00969971  0.01348662 -0.12335483  0.1678935   0.17197166
 -0.01494318 -0.04664548 -0.09741018  0.03588708  0.25719836 -0.07049497
 -0.00614615  0.20337534  0.00208212  0.03412219  0.04881719  0.04928713
 -0.05086908 -0.00094749 -0.13368368 -0.04388     0.07625572 -0.05147743
 -0.01213217  0.12253461 -0.13734041  0.16921331 -0.02120355  0.04667661
  0.05838494 -0.10575354 -0.07905403 -0.02270136  0.14763443 -0.16120034
  0.15925546  0.17069001  0.03999155  0.10809851  0.10018744  0.04651744
 -0.02785635 -0.00902831 -0.2556273   0.00452144  0.06591982 -0.00204014
  0.06159475  0.00771435]