[-0.11693247  0.09881543  0.07523772  0.0441982  -0.11728009 -0.04340501
 -0.03640259 -0.13537697  0.06323957 -0.09386545  0.21976642 -0.03880692
 -0.17638826 -0.06418202 -0.00668011  0.18903695 -0.19477533 -0.08014812
 -0.12318648  0.0173828   0.05620713  0.02913367  0.04519805 -0.03416548
 -0.06737001 -0.37258622 -0.09387929 -0.06898638  0.06746487 -0.048397
 -0.04040151  0.01211917 -0.11922487 -0.04171957  0.06850953  0.05659909
 -0.06612881 -0.0501255   0.19002588 -0.06002226 -0.24340804 -0.00926328
  0.09151514  0.22893989  0.23997413  0.04164196  0.00503559 -0.13647121
  0.09233943 -0.20915893  0.03471818  0.06452119  0.00644212  0.0976687
  0.04519828 -0.09332252  0.05336806  0.10053807 -0.12518714  0.01825747
  0.10435022 -0.19662718 -0.03409422  0.00326212  0.20509501  0.05330193
 -0.07458267 -0.17264743  0.07694262 -0.18676691 -0.07684189  0.03200135
 -0.08675849 -0.14483552 -0.34670076 -0.04826999  0.46661949  0.11146945
 -0.18127795  0.03396199 -0.00373986 -0.0542818   0.20338224  0.18604507
 -0.0308638  -0.01349005 -0.12550588  0.03522194  0.23336497 -0.08884481
 -0.00260304  0.23343723  0.00732242  0.06876751  0.052035    0.02039263
 -0.06036118 -0.01266208 -0.12114783 -0.07913205  0.09768066 -0.0284111
  0.03621164  0.11517634 -0.13310353  0.1375448  -0.00727689  0.07518362
  0.0929411  -0.08307733 -0.05520998 -0.04791442  0.13130894 -0.15792613
  0.16829787  0.18011376  0.03619171  0.10101813  0.11347526  0.06065826
 -0.02383557  0.00659625 -0.21535158  0.03314634  0.06546406 -0.00446613
  0.08545119  0.00367077]