[-0.13358212  0.10679942  0.04559262  0.04305782 -0.13611388 -0.05223926
  0.00577755 -0.08578521  0.07077955 -0.06908707  0.21599792 -0.0575566
 -0.20827523 -0.06358235  0.02474794  0.18685262 -0.19709818 -0.09922674
 -0.16528209 -0.01313108  0.03477567 -0.00837806 -0.00475904 -0.02123462
 -0.04477133 -0.38259134 -0.07569423 -0.03715615  0.09125831 -0.04948102
  0.00713579  0.05571071 -0.12490653 -0.04162467  0.07082202  0.07579128
 -0.11163656 -0.05782952  0.2118527  -0.0746529  -0.21666837 -0.0502049
  0.09231857  0.22601652  0.2310268   0.05830215  0.00558431 -0.09952186
  0.10405522 -0.23810907  0.05375345  0.10753553  0.02809782  0.11489661
  0.05614353 -0.08374806  0.05570859  0.0914405  -0.15389654 -0.02121507
  0.09097265 -0.22567372 -0.09659755 -0.02984204  0.17239112  0.06655656
 -0.04907753 -0.16516855  0.13556212 -0.19890551 -0.07966418  0.02961005
 -0.06086637 -0.1369286  -0.34471536 -0.02332644  0.47077489  0.1184539
 -0.13285901  0.03721502  0.03484054 -0.08065853  0.17397431  0.14393221
 -0.08558399 -0.05298141 -0.12559371  0.06985169  0.21216765 -0.07974868
 -0.00778468  0.18925054  0.03504639  0.04595354  0.05413619 -0.00244097
 -0.00768865 -0.02429945 -0.11848765 -0.06591236  0.13999665 -0.0488218
  0.01581511  0.07078669 -0.11559955  0.13167919  0.01903119  0.07352671
  0.07354101 -0.09608177 -0.09246348 -0.0371633   0.13403241 -0.16494343
  0.16372     0.16403031  0.00822902  0.10306595  0.1077555   0.06612264
 -0.00398421 -0.04777943 -0.21240841 -0.00452808  0.08174649  0.03967857
  0.06027524  0.01733363]