[-7.76619017e-02  1.43305734e-01  7.52848238e-02 -8.91120285e-02
 -9.69999209e-02 -1.74388252e-02 -5.07141463e-02 -1.14664651e-01
  1.61918283e-01 -1.16002135e-01  2.47855902e-01 -5.26934043e-02
 -2.96767801e-01 -9.90217626e-02 -4.53350507e-02  2.64012188e-01
 -1.51738286e-01 -1.65732309e-01 -4.89487574e-02  2.18304973e-02
 -3.14108655e-03  3.64919081e-02  3.65354121e-02  3.12708132e-02
 -1.13835596e-01 -4.09029692e-01 -9.26289037e-02 -7.63047263e-02
 -4.91650142e-02 -4.56407778e-02 -2.94883642e-02  6.49164394e-02
 -1.41523391e-01 -6.04552627e-02  8.53142142e-02  7.95765147e-02
 -5.33076599e-02 -1.09099679e-01  1.45091847e-01  3.47050140e-03
 -3.16931248e-01 -6.39312789e-02  9.67034027e-02  2.83850282e-01
  2.20962480e-01  3.07808798e-02  5.14057986e-02 -1.21946000e-01
  1.14571743e-01 -2.29782924e-01  2.85441224e-02  7.87291154e-02
  4.58577760e-02 -3.99905461e-04  7.84163699e-02 -1.45354673e-01
  2.44892519e-02  1.65735915e-01 -1.95658386e-01 -7.77784288e-02
  7.72302896e-02 -6.67697266e-02 -1.31104905e-02 -6.47267029e-02
  2.52982110e-01  8.27367753e-02 -1.61241561e-01 -1.28150150e-01
  2.03665406e-01 -1.59382671e-01 -2.51573864e-02  3.82474847e-02
 -1.44732505e-01 -1.86124429e-01 -3.56055975e-01 -3.81080508e-02
  3.72443765e-01  1.10768497e-01 -1.15271166e-01  4.88683395e-02
 -5.21118892e-03  4.57867570e-02  7.98974335e-02  1.82861596e-01
 -2.60085370e-02  1.39572835e-02 -8.28147009e-02 -3.66264991e-02
  2.21596643e-01 -6.87128678e-02 -1.05787218e-02  2.19269618e-01
 -5.45252077e-02  2.13838997e-03  2.69221719e-02  4.83785123e-02
 -1.12792827e-01  1.05884988e-02 -1.59411743e-01 -1.67793855e-02
 -7.30989908e-04 -1.53108658e-02 -5.91045653e-04  1.69125512e-01
 -1.81525573e-01  7.72099197e-02 -7.16376631e-03  3.16589139e-02
  3.47292908e-02 -3.29664461e-02 -4.41824123e-02 -1.09875336e-01
  1.13248877e-01 -2.12710842e-01  1.28577039e-01  1.70818850e-01
  1.77102946e-02  1.05634883e-01  1.26904890e-01  2.88191829e-02
  5.46661532e-03 -7.34935552e-02 -2.27183565e-01 -4.33100350e-02
  9.97909606e-02 -7.46316165e-02  8.15469921e-02 -1.85067896e-02]