[-1.26687527e-01  1.18364751e-01  5.19997291e-02 -9.42920819e-02
 -1.37481481e-01 -3.92512605e-02  9.68701858e-03 -9.51560885e-02
  1.62344739e-01 -4.24854904e-02  1.93731695e-01 -2.73162574e-02
 -2.63624758e-01 -8.10843706e-02 -5.54848388e-02  2.16156766e-01
 -1.65334716e-01 -2.17962697e-01 -3.77545394e-02  2.42285077e-02
  4.60918881e-02  1.24601787e-02  1.30865723e-04  1.17629044e-01
 -1.43861189e-01 -3.51491004e-01 -1.05167903e-01 -8.70672688e-02
  1.78721864e-02 -6.31893799e-02 -4.04370427e-02  8.69143158e-02
 -1.93128794e-01 -4.22826409e-02  9.28782746e-02  1.20541409e-01
 -5.23269176e-02 -6.73412606e-02  1.61169186e-01 -4.09501884e-03
 -3.15434515e-01 -7.55916983e-02  1.40628874e-01  2.80918330e-01
  1.92724705e-01  5.55515774e-02  4.81881052e-02 -1.12191819e-01
  1.15130238e-01 -2.52591640e-01  7.57168084e-02  1.56947106e-01
  1.18168294e-01  3.48481797e-02  7.08915964e-02 -1.97725713e-01
  2.38621924e-02  1.74782485e-01 -2.39985138e-01  2.52865981e-02
  1.81412939e-02 -1.47046089e-01 -7.80854234e-03 -9.43412408e-02
  2.14740351e-01  1.01858869e-01 -1.26080051e-01 -1.42959267e-01
  2.46759281e-01 -2.13978991e-01 -3.24466117e-02  8.49891827e-02
 -1.01908557e-01 -1.77179605e-01 -3.61541361e-01 -6.48010150e-02
  3.69590372e-01  1.19514465e-01 -1.18658938e-01  7.65150413e-02
 -4.14439403e-02 -4.98089660e-03 -8.10726022e-04  1.63220555e-01
 -7.84376934e-02  2.09560730e-02 -1.36052132e-01 -1.17097879e-02
  2.36116007e-01 -7.41195679e-02  8.95956606e-02  2.01986790e-01
 -1.77311637e-02 -1.65466387e-02  1.19756442e-02  7.14413300e-02
 -1.39378488e-01 -1.24929762e-02 -1.04917541e-01 -2.54836958e-02
 -5.93512543e-02 -7.80640244e-02 -4.06381628e-03  1.40072793e-01
 -2.29645491e-01  5.87550774e-02  1.67846587e-03 -3.83639112e-02
 -5.41320704e-02 -5.30452095e-02 -2.50193775e-02 -1.22156195e-01
  1.14010692e-01 -2.46666476e-01  1.87883779e-01  1.89159498e-01
 -3.31955366e-02  1.30121186e-01  4.63356264e-02  7.41057917e-02
 -1.89772323e-02 -1.36974260e-01 -1.61702603e-01 -2.90945023e-02
  1.00248598e-01 -1.19817398e-01  2.91435570e-02  7.46123074e-03]