[-0.11249854  0.14505525  0.00399196 -0.04830492 -0.1209597  -0.06057112
 -0.0514749  -0.16254954  0.19631472 -0.14637704  0.18612564 -0.06791309
 -0.23143624 -0.05853378 -0.12848899  0.23644261 -0.16200238 -0.20576219
 -0.01562455 -0.01257398  0.09767082 -0.05522392 -0.00119298  0.13365249
 -0.16456114 -0.38378808 -0.13829796 -0.12000988  0.00310054 -0.07847255
 -0.11987686  0.04714216 -0.18636675 -0.06989416  0.05409445  0.09791156
 -0.00687021 -0.03967664  0.1406628   0.0028855  -0.26708081 -0.00898803
  0.13400297  0.28284186  0.16685449  0.0703918   0.05353722 -0.14199781
  0.11260197 -0.20186424  0.08462729  0.10646905  0.12116362  0.06664956
  0.04740563 -0.20502388  0.00259692  0.14551131 -0.19674842  0.05271285
  0.05729038 -0.06762309 -0.06078627 -0.06103007  0.28903216  0.17059979
 -0.1246864  -0.10982557  0.24565481 -0.21468775  0.02065388  0.02112401
 -0.10773993 -0.1919916  -0.26515007 -0.04163212  0.41444692  0.18647856
 -0.15652201  0.05188872 -0.07984989  0.02111468  0.05501075  0.12638311
 -0.07525773  0.07803903 -0.09136911  0.01756308  0.23036988 -0.03978096
  0.05061757  0.23708241 -0.01184877  0.03222097  0.04217616  0.01368927
 -0.18847097 -0.05312549 -0.15884815 -0.08891962 -0.05660043 -0.04990428
 -0.02595034  0.10834008 -0.20363799  0.07873877 -0.00257494 -0.01821797
 -0.04875401  0.04509107 -0.06372551 -0.12075964  0.12518398 -0.19149567
  0.17943072  0.16860107  0.04272946  0.15060535  0.08410601  0.05920551
  0.01129266 -0.11961464 -0.16738212 -0.00167138  0.13090031 -0.1413195
  0.08273889 -0.02416909]