[-0.12773821  0.10458534  0.10487176 -0.08361619 -0.10353728 -0.0165047
 -0.05498366 -0.12434963  0.17475688 -0.10916705  0.29270342 -0.00928613
 -0.20664981 -0.08872682 -0.05426837  0.22719701 -0.22789216 -0.15724747
 -0.01727438  0.02510001  0.03195826  0.01815418  0.07222512  0.04286234
 -0.15055631 -0.40545598 -0.12979846 -0.08918559  0.03484964 -0.06606269
 -0.04780701  0.03960115 -0.15367158 -0.02812056  0.05459134  0.10166781
 -0.0373172  -0.08610203  0.12374176 -0.02531973 -0.33161801 -0.04885017
  0.09163382  0.25683641  0.26126504  0.03323752  0.03063316 -0.13400538
  0.08882904 -0.2140545   0.08082753  0.09594091  0.0246057   0.03068637
  0.08340534 -0.17027566 -0.01175796  0.18960436 -0.13076793 -0.02259797
  0.02857724 -0.0629942   0.04637317 -0.03740562  0.19999321  0.12620862
 -0.14089464 -0.17482518  0.1863807  -0.16058473 -0.04313299  0.09101294
 -0.16065364 -0.19696076 -0.35896122 -0.07102612  0.40166655  0.08740237
 -0.14117433  0.03365625 -0.01535094  0.01374293  0.09819614  0.2267922
 -0.01707825  0.02477502 -0.13037066 -0.02126966  0.20405796 -0.05403616
 -0.00665156  0.23381034 -0.0660198   0.03132695  0.0411282   0.11798848
 -0.1261815   0.03635536 -0.16036592 -0.07511303 -0.00395003  0.02670858
 -0.02896268  0.1810794  -0.15608536  0.10098781  0.00636812  0.0521961
  0.01777759 -0.04686567  0.02118189 -0.08729606  0.11187022 -0.21879375
  0.16185117  0.20379595  0.00169893  0.13531741  0.09950908  0.03607238
 -0.01094974 -0.08411479 -0.21038465  0.0392262   0.02932977 -0.10180705
  0.05291811 -0.00790794]