[-0.11836969  0.16126816  0.10754869 -0.05122425 -0.13334468 -0.00863246
 -0.08185188 -0.05303454  0.15844063 -0.01567348  0.17535974 -0.01097306
 -0.18879262 -0.03737486 -0.06139484  0.17808424 -0.19179438 -0.1584276
  0.00776668  0.06214699  0.07447626  0.03440165  0.0269253   0.08443002
 -0.18066482 -0.41086397 -0.07374019 -0.05146068 -0.0030023  -0.10062214
 -0.08548307  0.0324241  -0.20376575 -0.07224374  0.07807084  0.15647316
 -0.05752037 -0.10354384  0.15823333  0.02429656 -0.31051371 -0.00247208
  0.10840545  0.31525263  0.24758597  0.05075806  0.01884292 -0.11464303
  0.2013742  -0.24690607  0.03698946  0.15472949  0.07160368  0.03640562
  0.05307096 -0.15065318  0.0197393   0.15824686 -0.21262382 -0.05154186
  0.01415389 -0.06805226  0.0569382  -0.11373828  0.20539239  0.10334903
 -0.08545802 -0.13310374  0.19144939 -0.13153289  0.00156765  0.09154803
 -0.10947676 -0.18847461 -0.28235844 -0.04881712  0.41736779  0.09848107
 -0.12359456  0.05553464 -0.07295855 -0.03067642  0.00919587  0.13227455
 -0.04754018  0.06699158 -0.10648581  0.04066567  0.27574381 -0.04624904
  0.07179935  0.1818032   0.01798003  0.02653027  0.06054848  0.05044649
 -0.18079145  0.06089536 -0.18908718 -0.04347069 -0.05397117 -0.04192256
  0.02941335  0.15902188 -0.25019342  0.1156043   0.04882762 -0.02740069
  0.00298427 -0.03978832 -0.0459736  -0.08962101  0.12237749 -0.25672194
  0.16442908  0.14310966  0.00510723  0.15034716  0.0481816   0.0504389
 -0.03380163 -0.07949139 -0.16154544 -0.00113513  0.08935119 -0.08039644
  0.06734519 -0.011801  ]