[-1.60593003e-01  1.13205366e-01 -6.32097712e-03 -7.17489496e-02
 -1.14962243e-01 -5.92355914e-02 -4.68179993e-02 -1.64553002e-01
  1.84502870e-01 -1.56808659e-01  1.61726058e-01 -9.10107940e-02
 -2.01255113e-01 -5.20372503e-02 -1.21021464e-01  2.32961968e-01
 -1.88319832e-01 -2.07930237e-01  1.11168725e-02 -1.34319505e-02
  9.15205181e-02 -6.03434443e-02 -3.89158837e-02  1.39987439e-01
 -1.77968621e-01 -3.63710850e-01 -1.61373407e-01 -1.15533911e-01
 -1.28123825e-02 -6.90153912e-02 -1.01845779e-01  4.20123711e-02
 -2.08524704e-01 -7.01300353e-02  2.50620879e-02  1.47671014e-01
 -5.14319539e-03 -5.33183329e-02  1.48601100e-01  1.75607053e-03
 -2.44068012e-01 -1.28083918e-02  1.48425385e-01  2.79868364e-01
  1.53313860e-01  5.13708480e-02  3.22727412e-02 -1.17729343e-01
  1.26129329e-01 -1.89274803e-01  5.23656495e-02  9.21789631e-02
  1.32849127e-01  8.92706364e-02  9.22801718e-03 -1.91264808e-01
  3.82107869e-02  1.33000478e-01 -2.07342580e-01  4.61956225e-02
  5.24447076e-02 -9.54049900e-02 -4.21633832e-02 -4.19804044e-02
  3.03512573e-01  1.80202171e-01 -1.02281071e-01 -1.27268776e-01
  2.50327796e-01 -2.01352939e-01  1.24414135e-02  2.83032209e-02
 -1.05627000e-01 -1.87966570e-01 -2.74987757e-01 -2.71897521e-02
  3.97651732e-01  1.66567281e-01 -1.45517811e-01  5.92001192e-02
 -7.31912702e-02  5.65070519e-03  7.96839669e-02  1.26859292e-01
 -5.61703406e-02  8.10228512e-02 -9.90919992e-02  3.43475305e-02
  2.58559227e-01 -3.33281420e-02  3.96506786e-02  1.94163129e-01
  2.38361215e-04  4.59132455e-02  5.55480421e-02  1.70850735e-02
 -1.67099357e-01 -3.29249799e-02 -1.47819385e-01 -5.38184643e-02
 -3.18781622e-02 -4.73561063e-02 -2.59004589e-02  1.13524750e-01
 -1.79849863e-01  9.82794315e-02  8.83235410e-03 -3.75453494e-02
 -8.07772055e-02  2.87908167e-02 -8.24200213e-02 -8.88127014e-02
  1.38707444e-01 -1.93177760e-01  1.87897548e-01  1.59084931e-01
  4.10424359e-03  1.61371768e-01  8.58259723e-02  7.24310130e-02
 -1.76577754e-02 -1.00045204e-01 -1.81228906e-01  2.49111443e-03
  1.40450522e-01 -1.24030195e-01  1.18604183e-01 -9.94449668e-03]