[-0.09708863  0.18354186  0.09860719 -0.08490741 -0.1105243   0.02948275
 -0.06622798 -0.12022424  0.17560814 -0.03822641  0.17091884 -0.06657483
 -0.21688263  0.01503843 -0.05154423  0.18919508 -0.18449871 -0.13312624
 -0.01615139  0.03142695  0.02830574  0.03362167  0.04001087  0.09248036
 -0.17202374 -0.37194091 -0.07542186 -0.07141078  0.0077435  -0.06041283
 -0.11919983  0.05001664 -0.21080346 -0.0751306   0.10050304  0.19122553
 -0.05529816 -0.113981    0.14658813 -0.00777965 -0.26842007  0.01872214
  0.1085338   0.27354956  0.1900342   0.04229029  0.02012646 -0.14892948
  0.16055314 -0.21729445  0.07276484  0.12894106  0.06462096  0.04822322
  0.04021688 -0.20063756  0.01448743  0.15928511 -0.17260423 -0.02480339
  0.07583652 -0.03559392  0.05059965 -0.12093263  0.22055037  0.13506049
 -0.09918621 -0.11132266  0.16699648 -0.0772733   0.03620813  0.07934546
 -0.13620321 -0.18925947 -0.21999513 -0.01650963  0.45144182  0.13155662
 -0.1316198   0.01223064 -0.09132413 -0.02453746  0.027608    0.12299528
 -0.04745126  0.05315087 -0.06484675  0.08808368  0.2679815  -0.05614246
  0.05642737  0.19616123 -0.01515765  0.04185479  0.00139646  0.02223558
 -0.1847112   0.06159167 -0.19215597 -0.05892007 -0.03998705 -0.02219275
  0.03166735  0.18536445 -0.26217124  0.10579574  0.04996431 -0.03933517
  0.03550084 -0.00381005 -0.03339062 -0.07668494  0.16464765 -0.24537857
  0.16011916  0.14482431  0.01455637  0.13634674  0.05805256  0.066567
  0.02800216 -0.06729098 -0.19726753  0.00783581  0.13187395 -0.06897228
  0.07837346 -0.00366898]