[-0.10253427  0.15496306  0.09518782 -0.07118533 -0.12042029 -0.00380459
 -0.02363486 -0.09721332  0.1571753  -0.1094373   0.22917543 -0.12146264
 -0.24975879 -0.07463939 -0.03747268  0.2445412  -0.16213037 -0.17957579
 -0.0103864   0.03227223  0.06243386 -0.03233663 -0.00924243  0.08588133
 -0.16353653 -0.39733091 -0.1166163  -0.08657712 -0.00137739 -0.08275586
 -0.04923749  0.0699239  -0.14716293 -0.05218698  0.02638521  0.1340148
 -0.02767243 -0.07850977  0.16908525 -0.0316469  -0.33308515 -0.02283845
  0.1387413   0.26492849  0.17741148  0.05504501  0.04787537 -0.09045859
  0.10936228 -0.22059476  0.07080629  0.10854878  0.11043632  0.06684019
  0.06736287 -0.15749131  0.0236413   0.12681903 -0.18572603 -0.03261581
  0.06256306 -0.08227327  0.05469249 -0.06800736  0.24912412  0.0958336
 -0.10136904 -0.12846933  0.20625246 -0.17571078 -0.03866934  0.08489972
 -0.12785701 -0.1475361  -0.35970291 -0.0324022   0.39436635  0.11428976
 -0.12791787  0.0465727  -0.02980428 -0.03208033  0.06325191  0.19223833
  0.00614173  0.01453027 -0.09336768  0.00107644  0.24860008 -0.09083206
  0.04601355  0.1855381   0.00722707  0.03568628 -0.01022413  0.0375159
 -0.12181748  0.0253484  -0.1124411  -0.00041708 -0.05292542  0.0035455
 -0.03072253  0.14059345 -0.22757487  0.10539186  0.02309974 -0.01971698
 -0.03311433  0.01405492 -0.03420615 -0.08461253  0.1337636  -0.24637698
  0.12603408  0.18580827 -0.02089253  0.09653354  0.08651279  0.06440841
  0.02236722 -0.09886885 -0.20933364 -0.01512537  0.10927608 -0.11923309
  0.04787117  0.02119616]