[-9.70756859e-02  1.04186773e-01  9.03764144e-02 -5.49970083e-02
 -1.16130069e-01  6.13533147e-02 -3.28586847e-02 -1.19707540e-01
  2.05866620e-01 -1.03042640e-01  2.19890222e-01 -4.27337848e-02
 -2.44785354e-01 -5.72934337e-02 -1.95756052e-02  2.57881790e-01
 -1.93761155e-01 -1.93119571e-01  2.96501722e-02  3.51071060e-02
 -1.34474561e-02  7.88964317e-05  1.67612303e-02  7.16906339e-02
 -1.49251312e-01 -3.97861868e-01 -1.09932505e-01 -8.72242898e-02
  4.22746921e-03 -8.33768100e-02 -1.06166653e-01  5.52432351e-02
 -1.69017270e-01 -1.99108664e-02  7.12967739e-02  1.15376197e-01
 -5.75711615e-02 -1.27781153e-01  1.45802349e-01  1.77212115e-02
 -2.89890200e-01 -7.14706481e-02  1.33683458e-01  2.38254577e-01
  1.86814323e-01  4.28280532e-02  1.45933600e-02 -1.44752383e-01
  1.22804694e-01 -2.29058608e-01  7.76823685e-02  9.53800008e-02
  6.57246634e-02  6.28015101e-02  5.13053611e-02 -2.09648371e-01
  1.61758941e-02  1.28714144e-01 -1.62436932e-01  8.16009924e-05
  3.14924456e-02 -6.42289296e-02  2.70549301e-02 -6.74821138e-02
  2.35123739e-01  1.35491133e-01 -7.07888976e-02 -1.84642166e-01
  1.80791721e-01 -1.52399614e-01 -6.56555071e-02  5.05654886e-02
 -1.30266741e-01 -2.00112030e-01 -3.24885935e-01 -5.78966811e-02
  3.81365299e-01  1.27035111e-01 -1.42810985e-01  6.25481457e-02
 -1.34361712e-02 -4.05475907e-02  7.04001412e-02  2.10123092e-01
 -5.09766815e-03  5.92338806e-03 -9.04043838e-02 -3.51189338e-02
  2.64290214e-01 -6.93930313e-02  4.90215980e-02  1.90922365e-01
 -5.04952781e-02  4.08245809e-02  8.67517944e-03  2.82376893e-02
 -1.24621131e-01  6.98024556e-02 -1.54920623e-01 -9.78545099e-02
 -5.22116907e-02  1.47133768e-02  8.81897099e-03  1.67224884e-01
 -2.64008701e-01  1.03019953e-01  3.71433049e-02 -3.12503278e-02
  4.12126295e-02 -1.45866750e-02 -3.62840928e-02 -8.18022788e-02
  1.32270575e-01 -2.64366359e-01  1.69467196e-01  1.86270818e-01
  3.13406773e-02  1.42099217e-01  6.96094260e-02  8.73009488e-02
  1.10320402e-02 -6.90888241e-02 -2.13774875e-01  2.49401312e-02
  8.70138556e-02 -1.03965096e-01  1.68517865e-02  2.09995564e-02]