[-0.12603481  0.12825428  0.05226017 -0.12030204 -0.06450626 -0.02665648
 -0.05577294 -0.11722689  0.17768133 -0.15587699  0.16978191 -0.01842059
 -0.2117836  -0.03688688 -0.0781386   0.19686501 -0.18240045 -0.21055734
 -0.01391703  0.03631113  0.04823902  0.00097268 -0.01769535  0.08792947
 -0.18100473 -0.34828088 -0.14783596 -0.03789309 -0.02614518 -0.05582076
 -0.09044322 -0.0123864  -0.22374046 -0.02124616  0.03249267  0.17549776
 -0.01633176 -0.0608951   0.13888496  0.07343524 -0.30687597  0.02030809
  0.1061757   0.3013556   0.21099655  0.02165394 -0.00264882 -0.14231297
  0.16061817 -0.22858344  0.07314339  0.1250497   0.10102785  0.07582428
  0.02368453 -0.12757547  0.04867617  0.16132061 -0.19043581 -0.01102384
  0.04485288 -0.07906084  0.01966239 -0.04306501  0.24554792  0.13780712
 -0.13149917 -0.17314757  0.18995622 -0.19548504 -0.03190708  0.07788309
 -0.09352116 -0.16592944 -0.31968042 -0.00503692  0.39304805  0.1407925
 -0.14502017  0.08246045 -0.09360458 -0.02750498  0.08012619  0.17231767
 -0.03384641  0.0937319  -0.11486383  0.02031921  0.30166453 -0.03594336
  0.02943468  0.19951649  0.00377844  0.06582259  0.04993813  0.06339858
 -0.1795367  -0.01602311 -0.17823999 -0.06968113 -0.04652203 -0.00465998
 -0.03922836  0.16271813 -0.20485814  0.15270014  0.03084155 -0.05214396
 -0.01622154  0.00403584 -0.03682977 -0.11958411  0.09461757 -0.23288117
  0.16102846  0.15877087  0.01138828  0.11312097  0.10943117  0.04917137
 -0.02608356 -0.06074663 -0.1739205  -0.00974627  0.09519804 -0.08635329
  0.11949974 -0.02174806]