[-1.33884460e-01  1.87380463e-01  6.87412769e-02 -7.25048780e-02
 -1.63655236e-01 -4.59126458e-02 -9.25712362e-02 -1.22247748e-01
  1.50134549e-01 -7.41791725e-02  1.63075492e-01 -1.00148097e-01
 -2.37291649e-01 -6.22151867e-02 -8.74845982e-02  2.26672336e-01
 -2.04763129e-01 -2.02590466e-01  3.96737717e-02  1.29338149e-02
  1.03790380e-01 -3.79363298e-02 -3.48764844e-02  9.48799402e-02
 -2.00537920e-01 -3.91084045e-01 -1.01790071e-01 -8.34778547e-02
  1.69569515e-02 -6.29376471e-02 -1.08463846e-01  4.43845382e-03
 -2.36358240e-01 -9.46284831e-02  6.40903935e-02  1.65116355e-01
 -3.06768250e-02 -6.19546436e-02  1.52751371e-01  9.15009514e-05
 -2.67959118e-01  3.13356481e-02  1.31567046e-01  2.64803201e-01
  1.69867173e-01  7.90819526e-02  6.23394437e-02 -1.20234147e-01
  1.33396178e-01 -1.98974714e-01  3.70083675e-02  1.59121126e-01
  1.17055893e-01  7.58250877e-02  2.48484849e-03 -1.88064009e-01
  1.43953180e-02  1.47633702e-01 -2.08474472e-01  5.08258864e-03
  5.92329986e-02 -6.25215098e-02 -1.46087352e-02 -5.12101725e-02
  2.93335497e-01  1.00177757e-01 -1.16492465e-01 -1.35702133e-01
  1.92760214e-01 -1.59583315e-01 -7.57442508e-03  5.90408556e-02
 -1.06383815e-01 -1.56858236e-01 -2.96834558e-01 -1.69747677e-02
  4.28587198e-01  1.21226862e-01 -1.82320118e-01  4.94905449e-02
 -9.18730423e-02 -2.24565901e-03  6.68285489e-02  1.43547952e-01
 -1.01938238e-02  7.36098811e-02 -1.05280094e-01  3.22290622e-02
  2.52467275e-01 -8.67803693e-02  6.90461323e-02  1.94359049e-01
  5.71101606e-02  9.50891376e-02  8.57056212e-03  2.40904000e-02
 -1.81685522e-01 -2.04606988e-02 -1.28458500e-01 -7.75497779e-02
 -2.57881433e-02  2.15215031e-02 -9.70193185e-03  1.46145880e-01
 -2.01442003e-01  9.54308882e-02  4.10838984e-02 -3.65851223e-02
 -6.69695213e-02  1.78339891e-02 -3.49027812e-02 -1.30182192e-01
  1.10432342e-01 -2.45552897e-01  1.80667698e-01  1.97876692e-01
 -3.09526008e-02  1.27452284e-01  9.24731568e-02  2.41241958e-02
  2.28796154e-02 -8.18154737e-02 -1.46817863e-01 -2.76434477e-02
  1.08522080e-01 -1.08329132e-01  9.39883366e-02 -2.46177856e-02]