[-0.16476524  0.17829424  0.06161177 -0.07107235 -0.13152425 -0.06749403
 -0.06268153 -0.12600128  0.1995614  -0.11994293  0.17038846 -0.11411581
 -0.27226853 -0.07701503 -0.09521078  0.23502474 -0.203444   -0.20372744
  0.02167234  0.02869665  0.09256173 -0.03209027 -0.03481072  0.06772984
 -0.16374418 -0.42774153 -0.10172737 -0.06608266 -0.01935194 -0.06173277
 -0.08782294  0.02915596 -0.22452481 -0.10097019  0.03367799  0.13529848
 -0.01773338 -0.04472344  0.15367435 -0.01809947 -0.31227937 -0.00323693
  0.11807747  0.26588961  0.17661975  0.05414819  0.03060747 -0.16519558
  0.1616842  -0.1917216   0.01974665  0.14202105  0.13025223  0.05296103
  0.00970299 -0.17176919 -0.00260762  0.15981896 -0.18280183 -0.01855919
  0.07282966 -0.08765786 -0.01641033 -0.05798191  0.28471979  0.07845199
 -0.13402931 -0.12173958  0.21222074 -0.15897827  0.00363948  0.03925382
 -0.09164736 -0.17852931 -0.33506116 -0.01244549  0.39706263  0.09177988
 -0.16837341  0.05989314 -0.08933923  0.01344854  0.06737123  0.18676184
 -0.04577106  0.06981694 -0.096545    0.00103428  0.25245422 -0.07219257
  0.05324924  0.19593354  0.02898796  0.10458302  0.01286411  0.0192268
 -0.17918727 -0.01948345 -0.14407802 -0.04785348 -0.01193922 -0.00825153
 -0.02359343  0.15525709 -0.19217829  0.09561968  0.04136026 -0.00227234
 -0.02117718  0.01023272 -0.00906852 -0.14289278  0.09150391 -0.2208546
  0.17387407  0.16682933 -0.01342424  0.15554273  0.10668824  0.04001991
  0.00861324 -0.06049303 -0.17363606 -0.00801955  0.14010452 -0.09071673
  0.09847116 -0.02505143]