[-0.09840064  0.13655899  0.03816383 -0.07708897 -0.11218729 -0.04291683
 -0.08110051 -0.0937695   0.18345331 -0.01639344  0.17181586 -0.08822944
 -0.18832351 -0.03888753 -0.07499264  0.22615615 -0.20831577 -0.17150991
 -0.02885354  0.04834834  0.06857059 -0.01280874 -0.00706957  0.08807297
 -0.14747542 -0.43050176 -0.09565169 -0.05449797  0.01549242 -0.05499149
 -0.05533303  0.0858713  -0.23555994 -0.09203137  0.09929561  0.16076756
 -0.01433189 -0.12492784  0.13067856 -0.0241472  -0.31663761  0.01422364
  0.14086455  0.25940195  0.18457894  0.05136003  0.02511065 -0.15500781
  0.15048887 -0.18246877  0.02603623  0.14383166  0.05763714  0.06512465
  0.02271524 -0.14547074  0.05982606  0.15882041 -0.22128664 -0.07490249
  0.05900121 -0.0664465   0.02300332 -0.12051556  0.24861956  0.13743465
 -0.08784958 -0.1377282   0.18572758 -0.11426479  0.01719262  0.03377306
 -0.11545038 -0.17539032 -0.30124962 -0.04042294  0.41635641  0.0895246
 -0.14707986  0.09486281 -0.06259959  0.00276296  0.06650516  0.1433349
 -0.04645028  0.06747033 -0.08049364  0.04010403  0.27637777 -0.05209012
  0.06581578  0.16973738 -0.01687499  0.0299321   0.03653826  0.03309461
 -0.15440513  0.0431436  -0.17158484 -0.03966842 -0.00829157  0.01166212
  0.01624656  0.14627069 -0.19972782  0.06327745  0.06676839 -0.00922705
  0.03185142  0.00111322 -0.0120691  -0.13466088  0.10756011 -0.23372518
  0.2014221   0.12289295  0.00238168  0.14644678  0.07010014  0.09268574
 -0.02127909 -0.08479296 -0.17640842  0.02056463  0.13683462 -0.04405441
  0.07547959 -0.01586657]