[-0.116701    0.09622204  0.07234307 -0.04956241 -0.10325017  0.04847841
 -0.06282388 -0.123052    0.18899547 -0.11033376  0.18935564 -0.05696651
 -0.22528945 -0.04641514 -0.01330616  0.25159624 -0.19782083 -0.20097016
  0.02316654 -0.00078451 -0.01167475  0.00233906 -0.01090467  0.08265809
 -0.18718834 -0.3892214  -0.08962084 -0.11119606 -0.05596606 -0.06386299
 -0.09363133  0.05672735 -0.16373561 -0.01876814  0.06936064  0.14015709
 -0.04742137 -0.10669076  0.1592299   0.01558512 -0.28732994 -0.04659097
  0.14994937  0.24262705  0.18828814  0.03172307  0.01011566 -0.13160487
  0.17087038 -0.22009702  0.07404091  0.1086496   0.08742808  0.07691917
  0.06649335 -0.176402    0.01570417  0.12440868 -0.17343105 -0.00835826
  0.03714627 -0.06299539  0.02341682 -0.09094032  0.22963937  0.15513252
 -0.07548144 -0.16456883  0.17450725 -0.14284378 -0.08861824  0.05422423
 -0.13854894 -0.2098199  -0.34785616 -0.04327546  0.35747519  0.12643884
 -0.14053965  0.04741931  0.02004458 -0.04010208  0.07988545  0.20608842
  0.00435554  0.0066665  -0.04991848 -0.00894882  0.26883894 -0.04736682
  0.02511388  0.16131201 -0.04905272  0.03754878  0.00825536  0.05527384
 -0.1275845   0.0551905  -0.15649636 -0.0681964  -0.03738102  0.03613692
  0.0174009   0.15199666 -0.2389299   0.10113726  0.0206371  -0.03166721
  0.00778272  0.00479907 -0.04202273 -0.06040059  0.12985675 -0.24929242
  0.16629717  0.15983365 -0.00291136  0.13655718  0.05305817  0.07040289
 -0.01564793 -0.05848034 -0.22624741 -0.00212333  0.10024625 -0.06836986
  0.04328544  0.0223735 ]