[-0.12204478  0.16351545  0.10311791 -0.09099375 -0.13116243  0.0288656
 -0.05645558 -0.09824761  0.1761868  -0.00978514  0.15756638 -0.05794961
 -0.20485102 -0.00453082 -0.0390807   0.19098382 -0.18207954 -0.15586168
  0.00928877  0.00927235  0.00530648  0.00888147  0.03103643  0.12274831
 -0.19615187 -0.35003003 -0.08071588 -0.0641398  -0.00642273 -0.10134275
 -0.08840163  0.07335477 -0.20203219 -0.06411568  0.0860904   0.2149425
 -0.05724096 -0.13819417  0.15615343  0.01570542 -0.27193591 -0.03153254
  0.09126905  0.31573069  0.22366272  0.01978856  0.00507449 -0.07727105
  0.18189423 -0.24162929  0.07704681  0.14489467  0.06313726  0.03160758
  0.0525685  -0.1676712   0.02621665  0.17222211 -0.19534376 -0.03882034
  0.06056746 -0.08152895  0.06641331 -0.13454258  0.21011953  0.14390163
 -0.09441742 -0.10252988  0.19289318 -0.07336041  0.02653488  0.09235892
 -0.14183699 -0.19008242 -0.25703073 -0.00926049  0.44058177  0.14013278
 -0.11791742  0.00906472 -0.07495021 -0.01531026  0.01240086  0.13621078
 -0.03163827  0.04164925 -0.08494359  0.07160679  0.24680774 -0.03611356
  0.03545153  0.17817278 -0.02174006  0.0033191   0.013341    0.04533117
 -0.16381519  0.06910168 -0.16757458 -0.04204553 -0.03759483 -0.03443458
  0.03614584  0.18327565 -0.25526977  0.1065916   0.05887024 -0.03112376
 -0.0044687  -0.02984133 -0.04834741 -0.0617261   0.16452967 -0.28630328
  0.13893968  0.14569829 -0.02402579  0.13852634  0.03017596  0.07160608
  0.0099395  -0.09658449 -0.15209684 -0.00267565  0.10525888 -0.0633199
  0.07308578  0.01930003]