[-0.14347109  0.17920512  0.06913202 -0.06685515 -0.1551377  -0.0522511
 -0.09873439 -0.12901865  0.15257716 -0.0827226   0.14985052 -0.10184687
 -0.21989964 -0.05634219 -0.09165332  0.2215209  -0.21398321 -0.20626214
  0.04142828  0.00894928  0.10549068 -0.02725338 -0.03179988  0.08880951
 -0.19582158 -0.39074263 -0.10590478 -0.08505286  0.02547709 -0.05846895
 -0.10066613  0.00775638 -0.2362716  -0.09548545  0.06437736  0.16067708
 -0.01763645 -0.05744648  0.15069568 -0.0121353  -0.27642915  0.0366604
  0.14130788  0.26459217  0.17355901  0.07849268  0.04816608 -0.13551748
  0.126963   -0.17820714  0.02517431  0.15638565  0.10722902  0.08035643
  0.00319232 -0.1831861   0.02206202  0.1284648  -0.19659497 -0.00045233
  0.06084369 -0.06684197 -0.00174544 -0.05023349  0.29025987  0.08128221
 -0.1088843  -0.15135725  0.17911866 -0.16579571 -0.01905373  0.0647664
 -0.10014937 -0.15107255 -0.30330765 -0.02663415  0.43476826  0.11594372
 -0.18341093  0.07449954 -0.08625432 -0.01679077  0.0786192   0.16227274
 -0.0082666   0.08034657 -0.09723147  0.02640109  0.25641379 -0.08019095
  0.05783699  0.17724057  0.05235959  0.09821787  0.01648155  0.02630539
 -0.18604591 -0.01033177 -0.13508047 -0.08257236 -0.02470015  0.03377146
 -0.0102662   0.14741719 -0.19367369  0.10642429  0.04500178 -0.03868271
 -0.06445502  0.02721093 -0.03025067 -0.1234863   0.1082219  -0.24773841
  0.18593544  0.19488411 -0.02355106  0.13708572  0.09887636  0.03271487
  0.01608241 -0.05749878 -0.14835389 -0.02633834  0.10949095 -0.10739547
  0.10887671 -0.02119469]