[-0.11898555  0.10264756  0.05607041 -0.04759526 -0.10794001  0.00956641
 -0.08918977 -0.11696222  0.16149925 -0.06344809  0.18295032 -0.03001024
 -0.16341762 -0.03216234 -0.07339673  0.20135935 -0.16387109 -0.19378532
 -0.03110786  0.03914027  0.00866823 -0.04160669 -0.02660068  0.0587289
 -0.10434004 -0.41479731 -0.07984834 -0.0809814  -0.00693742 -0.01779809
 -0.0262075   0.02228471 -0.20271137 -0.04593081  0.06198605  0.12479953
 -0.02007595 -0.10159315  0.16401342 -0.00235626 -0.30634588 -0.02763583
  0.1038686   0.23960362  0.21824346  0.04920783  0.02821345 -0.13113399
  0.20713882 -0.21349183  0.00937996  0.13623984  0.05977052  0.06266192
  0.02100117 -0.12660079  0.04708208  0.12864223 -0.17059085 -0.04136763
  0.03775182 -0.04034195  0.01592621 -0.11591448  0.2669777   0.13156919
 -0.10421836 -0.16219565  0.18409787 -0.14534698 -0.02070594  0.05325622
 -0.13612865 -0.18959813 -0.30098009 -0.00666778  0.43214956  0.10344022
 -0.12882319  0.04197518 -0.0627367  -0.0051871   0.07105362  0.15295808
 -0.00629891  0.02000383 -0.06057065 -0.05311264  0.31575865 -0.03476756
  0.02917666  0.16637504 -0.05174441  0.04823587  0.00894442  0.06564029
 -0.12500635  0.05669037 -0.15667981 -0.0383997  -0.0332838   0.03281888
  0.04440935  0.13115595 -0.18841735  0.08210224  0.00211154  0.04947069
  0.04913303  0.00641987 -0.04862121 -0.12213246  0.13620338 -0.19638194
  0.19507991  0.13215995  0.02888674  0.10929847  0.10546687  0.07976638
 -0.02579298 -0.0358989  -0.19700451 -0.00183057  0.07497022 -0.05907324
  0.02910578 -0.01399068]