[-0.10280254  0.10339417  0.07566106 -0.08792744 -0.10547251  0.04732884
 -0.03517937 -0.12883157  0.2044287  -0.11431494  0.21452193 -0.06235888
 -0.24135743 -0.07677608 -0.01920535  0.25455874 -0.20684095 -0.20803848
  0.03272528  0.03050927 -0.00916399 -0.01957357  0.02831383  0.07659295
 -0.16641949 -0.39212939 -0.11859238 -0.09974646 -0.03921494 -0.08817001
 -0.06987601  0.05167785 -0.18150379 -0.01554069  0.05125634  0.12636398
 -0.05184774 -0.13568032  0.14209738  0.00462373 -0.29242793 -0.08055174
  0.14182423  0.23532183  0.18734203  0.0216175  -0.00517492 -0.11860947
  0.14407407 -0.21061225  0.06082822  0.08781421  0.07169537  0.05326278
  0.05843744 -0.16439392  0.04411978  0.13391498 -0.16072319 -0.01861186
  0.02657169 -0.07653969  0.0319078  -0.06782498  0.24501367  0.13492893
 -0.07239056 -0.17147036  0.18914758 -0.13218641 -0.07300165  0.05475855
 -0.14691225 -0.19030122 -0.32841787 -0.07189073  0.37450373  0.10437148
 -0.13533348  0.06102839 -0.01201399 -0.03420267  0.05555957  0.21434692
 -0.0034016   0.0203333  -0.10028131 -0.02473636  0.27291822 -0.07263911
  0.02588887  0.18381123 -0.06279387  0.04388753  0.01681385  0.01215892
 -0.1194934   0.06673065 -0.15775256 -0.08418792 -0.04014647  0.00907296
 -0.01882227  0.16482733 -0.240344    0.08703624  0.04731891 -0.02486195
  0.0218634  -0.00414923 -0.03915041 -0.08592721  0.12337502 -0.25208932
  0.16306734  0.17316748  0.02444005  0.12443624  0.06544311  0.07729959
 -0.00415868 -0.06303996 -0.21248499  0.01823274  0.0943503  -0.08571284
  0.04162885  0.01857285]