[-0.13384907  0.0863175   0.06596058 -0.07275189 -0.13102712 -0.02503546
 -0.10236273 -0.08088498  0.18169501 -0.06542191  0.16607082 -0.06184002
 -0.19499522 -0.02097379 -0.07461869  0.2259835  -0.18863383 -0.14453392
  0.00090258  0.05281097  0.04836202 -0.00302417 -0.02794648  0.05714667
 -0.10056422 -0.42564628 -0.0992031  -0.05020999 -0.02055562 -0.05610008
 -0.06523846  0.05280551 -0.20112903 -0.09672739  0.08403257  0.16684298
 -0.02287322 -0.09867218  0.12475379 -0.01648055 -0.29797921 -0.00870049
  0.15402193  0.26895738  0.20803718  0.06783583  0.0041905  -0.15051447
  0.19811298 -0.20907331  0.01823293  0.10833923  0.0970806   0.06278463
  0.04126312 -0.15224583  0.06029836  0.14319633 -0.19871421 -0.04815308
  0.06639727 -0.04589497  0.0400976  -0.10860584  0.25602594  0.10904396
 -0.0954003  -0.14254895  0.18261705 -0.1227025  -0.00318314  0.0202601
 -0.14083102 -0.192377   -0.32493159 -0.03794735  0.40285298  0.08963182
 -0.12929736  0.06564625 -0.04512496 -0.00895335  0.06507264  0.14358406
 -0.00896829  0.02734846 -0.05954301  0.00081429  0.28865802 -0.06412955
  0.06534446  0.13984756 -0.01011446  0.0401479   0.01561341  0.04438001
 -0.14424691  0.05669239 -0.20126425 -0.02270943 -0.05534943 -0.00829632
  0.03850318  0.14499073 -0.22349229  0.0846568   0.05524857 -0.00876798
  0.02041007  0.00422332 -0.05773144 -0.10821246  0.1233471  -0.21943299
  0.20279102  0.152336    0.03587871  0.14753114  0.06699582  0.08331825
 -0.0171401  -0.04368073 -0.17660859  0.00453716  0.08956933 -0.04817879
  0.05260131  0.00693609]