[-0.08414375  0.1319503   0.05462322 -0.0633586  -0.08599722 -0.0431952
 -0.05689679 -0.16577062  0.14345919 -0.11117724  0.25378877 -0.04535313
 -0.23166052 -0.11560927 -0.08094628  0.22942357 -0.1793021  -0.17062625
 -0.00542755  0.02959195  0.04780685  0.01716256  0.04433762  0.02972428
 -0.11168718 -0.38336635 -0.13433583 -0.06697911  0.00313197 -0.03329495
 -0.03327142  0.03980267 -0.14410189 -0.03319407  0.05993924  0.08070445
 -0.02975815 -0.08038016  0.17053521  0.01205007 -0.32179719 -0.02311568
  0.08870079  0.28538603  0.21464765  0.05320554  0.02969266 -0.1386423
  0.10969897 -0.1997178   0.06167937  0.09815365  0.06410185 -0.00102955
  0.0434193  -0.12194418  0.00636381  0.16698691 -0.19687049 -0.04990526
  0.07066249 -0.08379438  0.00198004 -0.05033705  0.2456882   0.12747605
 -0.14748679 -0.1447175   0.18726003 -0.18040314 -0.06235607  0.06248245
 -0.12136354 -0.17381431 -0.35656682 -0.04493165  0.40697965  0.0916634
 -0.12402266  0.04585158 -0.00942176  0.0246331   0.13852659  0.19643633
 -0.02706291  0.01856697 -0.11398802 -0.04639142  0.23471467 -0.07121688
 -0.03501954  0.21610998 -0.04823254  0.05746969  0.02045527  0.07431588
 -0.09391546  0.03062358 -0.13642533 -0.03730466  0.01126955  0.02365636
 -0.00582032  0.16299218 -0.15832247  0.08707809  0.0083765   0.03309917
  0.03420095 -0.05167642 -0.02196652 -0.09176262  0.09615794 -0.23163538
  0.16330777  0.15586852  0.00440771  0.10897563  0.12447804  0.02566805
 -0.00256608 -0.10452308 -0.22881615 -0.01665962  0.09411075 -0.08203255
  0.10608474 -0.01906971]