[-0.12869388  0.12484633  0.07351673 -0.06778418 -0.07091019 -0.01134305
 -0.06230154 -0.14750664  0.16199856 -0.12911642  0.16606466 -0.1196081
 -0.23118162 -0.0432114  -0.05475812  0.21881592 -0.19852862 -0.1765497
 -0.02235483 -0.00148931  0.03296348  0.00530205 -0.0083722   0.08281726
 -0.22814064 -0.35852408 -0.13303189 -0.12639056 -0.00517115 -0.06741142
 -0.10187751 -0.01238622 -0.17499177 -0.04672505  0.06009762  0.11103737
 -0.01752538 -0.09312394  0.16744143 -0.0281333  -0.29969561 -0.00182528
  0.1334063   0.23371501  0.15091553  0.03445563  0.02215145 -0.15181506
  0.15116952 -0.14074732  0.04664179  0.1094436   0.07891087  0.0938997
  0.02904044 -0.13368876  0.00762168  0.17098109 -0.17662044 -0.01259395
  0.04397258 -0.06740031 -0.00102485 -0.03200341  0.22437499  0.09252134
 -0.11831889 -0.13710274  0.18646456 -0.16720013 -0.01280934  0.06542233
 -0.10148025 -0.1914489  -0.2909638  -0.02224925  0.37485895  0.10430691
 -0.1787134   0.06690408 -0.02945466 -0.03190456  0.10488752  0.20814954
 -0.0130861   0.08938136 -0.03052369  0.02145429  0.27073249 -0.07466736
  0.05394432  0.17803429  0.00620866  0.03280362  0.04415755  0.03851611
 -0.15822259 -0.02443777 -0.13392812 -0.04883423  0.01888953  0.04098408
 -0.02409106  0.12108209 -0.19457081  0.13696103  0.06284364 -0.07535525
 -0.01597969  0.00529554 -0.01066177 -0.10889335  0.13786928 -0.23901473
  0.14238128  0.16289476 -0.0171617   0.14439888  0.06952911  0.05051107
  0.00562836 -0.03108404 -0.17492154 -0.03178518  0.16531567 -0.07642612
  0.11270193 -0.05102536]