[-0.17028758  0.11908052  0.0707212  -0.01876635 -0.09264697  0.02089262
 -0.05984296 -0.08064058  0.12857707 -0.05660547  0.20950833 -0.04251043
 -0.26567039 -0.11862427  0.00074357  0.18195222 -0.15633288 -0.14910021
 -0.048951   -0.02662102  0.05274415  0.02783995  0.00592292  0.03049952
 -0.2233312  -0.37632284 -0.08653884 -0.12426094  0.00369686 -0.07827571
 -0.09819934 -0.02310753 -0.186627   -0.07819996  0.06210241  0.09145296
 -0.0171926  -0.03868387  0.14430903 -0.05850299 -0.264029   -0.01567754
  0.10644654  0.21496497  0.14662997  0.07735713  0.04289249 -0.12251693
  0.13260436 -0.14457056  0.08411183  0.12394028  0.09792073  0.05532028
  0.06676608 -0.1502232  -0.02555977  0.17646532 -0.14569579  0.01095589
  0.02065589 -0.03775585 -0.03285049 -0.06400609  0.20888035  0.04115185
 -0.1233809  -0.13957402  0.1691982  -0.12408902 -0.02692879  0.09669312
 -0.11455347 -0.21794772 -0.32041767  0.03267126  0.38604969  0.10332898
 -0.2123121   0.04723578 -0.01018335 -0.02231486  0.09919595  0.16377066
 -0.04045362  0.08056625 -0.05976335  0.02107471  0.24081099 -0.0371963
  0.03044873  0.19439496  0.02564082  0.06145569  0.05029621  0.05182504
 -0.10515092 -0.03111148 -0.11696602 -0.0425223   0.07325118 -0.00489353
 -0.01259866  0.10901632 -0.15824573  0.11943765  0.04348243 -0.00164736
 -0.01721088 -0.00525257 -0.0361189  -0.08155333  0.12498752 -0.25418302
  0.16943258  0.17137776 -0.01312062  0.1385747   0.08867443  0.04065102
  0.00887929 -0.02805187 -0.19478701 -0.05067819  0.16125971 -0.10376369
  0.1109885  -0.01855035]