[-0.11762413  0.15335813  0.10219282 -0.05588734 -0.13901995 -0.00214813
 -0.05445221 -0.03879337  0.15431975  0.00534197  0.17736641 -0.01622463
 -0.19677946 -0.03853729 -0.05536567  0.18854105 -0.18249857 -0.1611405
 -0.0151711   0.06507909  0.06483492  0.02839218  0.03799435  0.10791986
 -0.17205386 -0.40316859 -0.06544005 -0.04990668 -0.00204598 -0.12107091
 -0.07980116  0.04967803 -0.21951628 -0.07940511  0.09294543  0.15631682
 -0.05275887 -0.11925538  0.17836642  0.03377385 -0.31679919 -0.01055431
  0.10677069  0.31851     0.23954518  0.04606845  0.01877732 -0.10192984
  0.20463181 -0.26595482  0.04325226  0.1668223   0.07401701  0.02518171
  0.04337697 -0.14156072  0.03687624  0.16452414 -0.23272979 -0.05674494
  0.0233408  -0.06846385  0.0579012  -0.10954782  0.20461264  0.10400579
 -0.09035926 -0.12900053  0.19106634 -0.12574196  0.02042467  0.10209184
 -0.10815533 -0.19644809 -0.26692328 -0.04082666  0.42630336  0.10756093
 -0.12842332  0.05711643 -0.09480833 -0.03260274 -0.00797041  0.13275903
 -0.05468978  0.07960085 -0.10953368  0.04821084  0.27309901 -0.03553357
  0.07863759  0.20839703  0.02695192  0.00248896  0.06539553  0.04769447
 -0.17004095  0.04890139 -0.18281177 -0.04307504 -0.05722595 -0.04439309
  0.03221842  0.15297757 -0.26645172  0.11128843  0.03372642 -0.03264819
 -0.00449738 -0.05572034 -0.04497096 -0.09276374  0.11501318 -0.26918933
  0.14740935  0.13702841 -0.00351574  0.13859877  0.04530669  0.05676324
 -0.0191396  -0.09557499 -0.14893639 -0.0048521   0.11136618 -0.0812142
  0.0704137  -0.01833049]