[-1.14526413e-01  1.21599786e-01  6.33159205e-02 -6.47242144e-02
 -1.41050443e-01 -1.13806669e-02 -1.98815088e-03 -1.07323781e-01
  1.40917704e-01 -5.68527766e-02  2.05999449e-01 -8.47602040e-02
 -2.72599012e-01 -6.48314506e-02 -6.94264695e-02  2.46138245e-01
 -1.80428848e-01 -2.08290249e-01 -3.53805013e-02  2.06547435e-02
  2.80813314e-02  1.72653201e-03 -2.03432422e-02  7.68886432e-02
 -1.51164621e-01 -3.39989841e-01 -1.07351437e-01 -7.24951029e-02
  1.17293559e-03 -5.21156974e-02 -5.40523939e-02  9.35244709e-02
 -1.83023408e-01 -4.62770276e-02  9.37625170e-02  1.21213637e-01
 -2.73165833e-02 -7.24315494e-02  1.38621792e-01 -3.39767896e-02
 -3.09928328e-01 -2.89507210e-02  1.74050674e-01  2.83821583e-01
  1.78859428e-01  5.90792075e-02  1.98146086e-02 -1.12283424e-01
  8.83624405e-02 -2.12712482e-01  4.76577543e-02  1.40198395e-01
  1.26090795e-01  3.89803424e-02  5.35314344e-02 -1.81977734e-01
  2.90477071e-02  1.58913970e-01 -2.04003796e-01  1.08972173e-02
  5.60506769e-02 -1.28863156e-01  2.96155792e-02 -1.09841004e-01
  2.29767904e-01  6.85494542e-02 -1.20092511e-01 -1.53819486e-01
  2.05314189e-01 -1.96836755e-01 -3.86101082e-02  6.52625784e-02
 -1.18600726e-01 -1.82302162e-01 -3.67761970e-01 -6.21768609e-02
  3.75404179e-01  1.15685061e-01 -1.35536373e-01  9.53112021e-02
  2.84031034e-04 -1.94486417e-02  4.99531142e-02  1.99635223e-01
 -1.98110379e-02  1.43818036e-02 -1.20096840e-01 -2.04712804e-02
  2.64527053e-01 -9.99578163e-02  7.39303082e-02  1.85510024e-01
 -2.51833834e-02 -2.31323857e-02 -9.68323369e-03  2.63245050e-02
 -1.15054227e-01  1.41635239e-02 -1.06562011e-01 -1.13732670e-03
 -9.07074586e-02 -5.37389293e-02 -1.80880334e-02  1.22061431e-01
 -1.97203264e-01  4.58085053e-02  1.88492741e-02 -1.83363501e-02
 -5.62528037e-02 -4.05632854e-02 -2.88581010e-02 -1.04253128e-01
  1.33007273e-01 -2.68954754e-01  1.79988667e-01  1.91122010e-01
 -2.19071284e-02  1.08755492e-01  6.83201104e-02  8.28636140e-02
  8.73390120e-03 -8.10904875e-02 -1.78156838e-01 -3.10946386e-02
  1.04405239e-01 -1.51511833e-01  5.89840710e-02  1.98298451e-02]