[-9.52487215e-02  1.59425840e-01  4.70275879e-02 -7.36157969e-02
 -7.34727234e-02 -2.75141792e-03 -5.07987626e-02 -1.53758928e-01
  1.88796580e-01 -1.23656206e-01  1.38783142e-01 -8.15214589e-02
 -2.36243680e-01 -9.67399310e-03 -8.18271488e-02  2.12906033e-01
 -1.97552308e-01 -2.34307364e-01 -2.91102864e-02  3.06974091e-02
  4.27388325e-02 -3.93536352e-02 -9.17310826e-03  1.11600399e-01
 -1.82659969e-01 -3.70627582e-01 -1.40763015e-01 -6.65433928e-02
 -2.87300884e-03 -6.33712634e-02 -1.20078221e-01 -1.67030059e-02
 -2.18119934e-01 -5.65435253e-02  6.19961806e-02  1.69934809e-01
 -1.17383050e-02 -1.00605629e-01  1.59379676e-01  2.32809372e-02
 -2.76851118e-01  1.40515137e-02  1.04455665e-01  2.88250417e-01
  1.86385408e-01  7.44195059e-02  1.08111752e-02 -1.50860861e-01
  1.66830301e-01 -2.19415933e-01  8.75286832e-02  1.18322313e-01
  1.18885420e-01  7.21163005e-02  2.46735811e-02 -2.16920659e-01
  2.82908063e-02  1.68731913e-01 -1.94235563e-01 -2.51952792e-03
  2.65395250e-02 -7.52663240e-02  2.58664917e-02 -6.99943453e-02
  2.63793647e-01  1.58223212e-01 -1.13926567e-01 -1.45394802e-01
  2.15204984e-01 -1.66742876e-01  1.24804405e-02  1.92266647e-02
 -1.01292230e-01 -1.61952928e-01 -3.18643093e-01 -4.83535938e-02
  4.10478175e-01  1.30527616e-01 -1.77771926e-01  4.55388390e-02
 -7.55769983e-02  7.38070393e-03  5.64282313e-02  1.71255693e-01
 -6.28438815e-02  7.79866427e-02 -1.19429268e-01  1.48654208e-02
  2.69012898e-01 -5.11699915e-02  2.89576352e-02  1.72294170e-01
 -2.60121375e-02  5.74466474e-02  3.76973301e-02  3.72180082e-02
 -2.16011003e-01  2.18950957e-03 -1.73454717e-01 -6.89555630e-02
 -4.53084446e-02  2.85925269e-02 -2.49319356e-02  1.77379027e-01
 -2.19486743e-01  1.11114956e-01  2.23651212e-02 -5.66516593e-02
 -3.13279517e-02 -2.67157075e-03 -4.46710102e-02 -1.10618271e-01
  1.37344360e-01 -2.53099889e-01  1.43719092e-01  1.78029239e-01
 -2.35158987e-02  1.41010329e-01  7.80069679e-02  5.80003746e-02
  2.55210768e-03 -4.32719067e-02 -2.25502968e-01 -5.18993801e-03
  1.15674637e-01 -8.73651281e-02  9.37906876e-02  6.38246565e-05]