[-1.34074867e-01  1.39809340e-01  7.81315751e-03 -5.81530146e-02
 -1.18458450e-01 -5.29697500e-02 -3.99343446e-02 -1.74130961e-01
  1.91125423e-01 -1.45549610e-01  1.73991114e-01 -9.23637524e-02
 -2.28231430e-01 -1.63659956e-02 -1.18897788e-01  2.35000595e-01
 -1.81413338e-01 -2.02483878e-01 -1.07030207e-02 -1.43854355e-03
  8.21720287e-02 -5.25004342e-02 -3.23689245e-02  1.31159469e-01
 -1.56317279e-01 -3.63477945e-01 -1.58294201e-01 -1.10007264e-01
  1.65061038e-02 -7.81602934e-02 -1.22437775e-01  3.16669010e-02
 -1.98839948e-01 -7.19938278e-02  4.24917378e-02  1.20489754e-01
 -1.05643207e-02 -5.64964078e-02  1.49288520e-01  3.85936350e-03
 -2.54830241e-01  5.69046009e-03  1.32356107e-01  2.69632846e-01
  1.41441911e-01  6.33131564e-02  4.21005078e-02 -1.59165338e-01
  1.12253666e-01 -1.85825899e-01  6.44655898e-02  1.03817180e-01
  1.24531947e-01  9.39743444e-02  2.31547211e-03 -2.20506266e-01
  1.76270604e-02  1.36185318e-01 -2.02520132e-01  6.36506826e-02
  6.98095784e-02 -7.56615698e-02 -4.86950539e-02 -4.72345613e-02
  2.99979061e-01  1.76907107e-01 -1.22119747e-01 -1.40117198e-01
  2.23462865e-01 -2.04737857e-01  1.16627244e-02  2.66798083e-02
 -1.05556704e-01 -1.86616898e-01 -2.65357256e-01 -2.79051848e-02
  4.09613907e-01  1.50628731e-01 -1.67481139e-01  5.17892502e-02
 -8.63201842e-02 -3.29470640e-04  7.22342059e-02  1.47406980e-01
 -6.18635900e-02  7.64529034e-02 -9.39241573e-02  2.04921775e-02
  2.52716869e-01 -4.93929535e-02  5.04085012e-02  2.14921981e-01
 -1.02563454e-02  5.94728589e-02  3.64233628e-02  3.43542024e-02
 -1.88767478e-01 -4.39186469e-02 -1.38615698e-01 -8.04980621e-02
 -3.73764634e-02 -3.43882069e-02 -3.48249674e-02  1.22759201e-01
 -1.90120399e-01  1.07959799e-01  4.68372088e-03 -2.53046639e-02
 -5.28152175e-02  2.81546470e-02 -6.01030253e-02 -1.09056070e-01
  1.45567447e-01 -2.02617958e-01  1.94028884e-01  1.70038044e-01
  9.09741223e-03  1.41497239e-01  8.63012597e-02  7.28269145e-02
  3.04443808e-03 -8.18464831e-02 -1.91128507e-01  9.94187221e-03
  1.40319020e-01 -1.32410526e-01  8.69966149e-02 -2.29877960e-02]