[-0.14357693  0.12244748  0.08974481 -0.04929424 -0.07335795 -0.01142707
 -0.05094091 -0.14177234  0.1680721  -0.12119529  0.15696478 -0.09380891
 -0.23526613 -0.0474006  -0.05301428  0.2199115  -0.1930759  -0.19959526
 -0.02950449 -0.01673623  0.04077778 -0.00329838 -0.0095795   0.09646635
 -0.24759813 -0.36555487 -0.12069577 -0.12798187 -0.01212346 -0.07191973
 -0.09955233 -0.01355771 -0.17827718 -0.03863051  0.05096401  0.11944912
 -0.01267963 -0.08873436  0.15907592 -0.03636451 -0.31715783 -0.0140424
  0.13861071  0.22463003  0.17633851  0.03428122  0.02449768 -0.12366773
  0.14835599 -0.15493204  0.05825342  0.11268742  0.09123605  0.09979343
  0.03809399 -0.15588942 -0.01236593  0.17812364 -0.1662582  -0.02402723
  0.01053896 -0.08437674  0.00289925 -0.02034268  0.21093838  0.10433046
 -0.10874771 -0.12559396  0.21082635 -0.18052372 -0.00538319  0.06256492
 -0.10560741 -0.18423837 -0.29489222 -0.02172836  0.37894198  0.10086545
 -0.17696407  0.06434548 -0.02403414 -0.01147246  0.07522111  0.20500493
 -0.02482359  0.09124782 -0.03856224  0.02227385  0.25322911 -0.05427372
  0.0584722   0.17534219  0.00781016  0.01759257  0.06089455  0.04614622
 -0.15823834 -0.02765603 -0.12902553 -0.06008134  0.01201281  0.04451608
 -0.01710604  0.1169696  -0.19808994  0.13051371  0.05552551 -0.06473719
 -0.0221841   0.01703225  0.00560868 -0.11346469  0.13116859 -0.23036432
  0.14067824  0.17097293 -0.04436522  0.15775526  0.04870968  0.05642908
  0.0019291  -0.03841144 -0.16546699 -0.02429442  0.15978974 -0.09236061
  0.10486628 -0.038993  ]