[-0.14712869  0.14166468 -0.01073175 -0.06109663 -0.11415795 -0.05174416
 -0.04443885 -0.16716902  0.18988003 -0.1469741   0.16676851 -0.07504039
 -0.22007358 -0.04474737 -0.1198037   0.23952411 -0.18527469 -0.20376287
 -0.00473628 -0.00429821  0.08921482 -0.05210976 -0.02741376  0.13841419
 -0.16643085 -0.35519034 -0.15915735 -0.10976871 -0.00176915 -0.0860899
 -0.10859551  0.0234371  -0.19851679 -0.06827833  0.0394582   0.1375681
 -0.0068951  -0.04881793  0.1557055   0.00897295 -0.25669569 -0.00128113
  0.14419059  0.27869946  0.15853852  0.05768742  0.02941203 -0.1405232
  0.12566899 -0.18586817  0.06095009  0.10046434  0.12687914  0.08801741
  0.0026739  -0.20456706  0.02523746  0.14386564 -0.20723045  0.03606809
  0.06369706 -0.08276848 -0.05136267 -0.03787613  0.28861484  0.17987865
 -0.11132701 -0.14711098  0.23821257 -0.21472274  0.01336317  0.04014545
 -0.101456   -0.18371432 -0.26285124 -0.03771457  0.41003829  0.1603605
 -0.14976405  0.04820473 -0.08588682 -0.00224511  0.07288506  0.12805901
 -0.05421418  0.06964578 -0.10108649  0.0226845   0.2571561  -0.03579618
  0.04989285  0.20093821  0.00603747  0.05397398  0.04443618  0.02076738
 -0.17924471 -0.03420288 -0.1456863  -0.07390378 -0.0560645  -0.04091088
 -0.0288895   0.11543492 -0.18864197  0.11161914  0.01730078 -0.02900398
 -0.06703985  0.03423974 -0.07242507 -0.09774586  0.14410605 -0.19828761
  0.19271117  0.16430853  0.00517853  0.14224428  0.08683928  0.08046499
 -0.0111401  -0.09673675 -0.19312742  0.00641861  0.1319856  -0.13991585
  0.10878598 -0.02477315]