[-0.07509998  0.12084875  0.11800883 -0.07223704 -0.10799742  0.04510347
 -0.04687126 -0.13830076  0.19565345 -0.09756329  0.22607236 -0.03492644
 -0.25858057 -0.0497581  -0.03391033  0.26842523 -0.21056281 -0.19368289
 -0.01780301  0.03058726 -0.0490041   0.01205313  0.03241499  0.05357688
 -0.12808101 -0.41275355 -0.10610576 -0.09103001  0.01380711 -0.07714593
 -0.09283348  0.04277031 -0.17307985 -0.01036429  0.07293858  0.07931954
 -0.05198861 -0.13615109  0.14068799 -0.00154095 -0.30651042 -0.06466555
  0.13469505  0.2175899   0.21001244  0.04129699  0.02965529 -0.16682029
  0.13023731 -0.22693579  0.07873669  0.08571196  0.06108235  0.05679167
  0.04663143 -0.22556649  0.00392807  0.14862572 -0.16380921  0.00390444
  0.03777449 -0.06727373  0.00263757 -0.06202602  0.23188193  0.13934667
 -0.09778831 -0.19701812  0.18676454 -0.15996464 -0.04230054  0.04771517
 -0.12954284 -0.18459141 -0.33522284 -0.07031029  0.3859944   0.10061375
 -0.15818293  0.04168841 -0.03326679 -0.02041195  0.0526612   0.20766912
 -0.03110819 -0.00840357 -0.09429486 -0.04738553  0.26465234 -0.07319985
  0.04676201  0.20066689 -0.06506082  0.03318008 -0.00574614  0.04844292
 -0.14592586  0.05889605 -0.15092351 -0.09274326 -0.04579043  0.02432663
 -0.00330304  0.17214806 -0.2465196   0.11051562  0.03038259 -0.01337913
  0.06730951 -0.01595434 -0.01252239 -0.11459505  0.14820667 -0.2465506
  0.1755396   0.19485079  0.0333131   0.13520783  0.07066157  0.0934545
  0.00160617 -0.05895901 -0.22217755  0.02348036  0.0872411  -0.11353817
  0.01337319  0.015062  ]