[-0.10466871  0.11132089  0.09388335 -0.07755118 -0.0906876   0.04888477
 -0.05169432 -0.12548272  0.19618016 -0.10881863  0.20907231 -0.05780897
 -0.23350933 -0.051429   -0.02300788  0.24898501 -0.22118583 -0.19785255
  0.03132462  0.02014431 -0.01238847  0.00654886  0.02001117  0.06428123
 -0.17095202 -0.41420516 -0.11553694 -0.11152263 -0.01848344 -0.0728014
 -0.06535791  0.03733565 -0.16103233 -0.00812643  0.05640451  0.11285637
 -0.07879634 -0.13064167  0.14722404  0.02682007 -0.28533095 -0.08498
  0.14165567  0.25866476  0.19401258  0.04107287  0.01469601 -0.12571061
  0.15005311 -0.22634947  0.06554157  0.1060416   0.06589738  0.08998707
  0.07413335 -0.17136455  0.0319789   0.13505414 -0.16949831  0.00373509
  0.02713624 -0.04589299  0.04563374 -0.06770094  0.25383756  0.13931298
 -0.09306166 -0.15272029  0.20161049 -0.13206115 -0.08616553  0.04035202
 -0.14847581 -0.19837683 -0.33467421 -0.07199166  0.36643791  0.10646271
 -0.12394271  0.03637091 -0.00882948 -0.03997225  0.05748581  0.22261141
 -0.00978165  0.00448293 -0.06730507 -0.03084008  0.26551536 -0.06594547
  0.02292126  0.17734884 -0.06299882  0.0387491   0.00737667  0.04855924
 -0.14485724  0.06270795 -0.1641454  -0.08814959 -0.04889007  0.02490683
 -0.00603192  0.18051265 -0.23656011  0.12747668  0.05372743 -0.0251817
  0.02328299  0.00472898 -0.0357781  -0.0799657   0.12978718 -0.24268615
  0.17462377  0.18737794  0.02766652  0.13002093  0.05661516  0.06330884
 -0.01226994 -0.06022695 -0.22308972  0.00630228  0.07040329 -0.07653215
  0.00880886  0.01978403]