[-1.21365570e-01  1.27402246e-01  7.73784295e-02 -5.50242625e-02
 -7.81606063e-02 -1.52761461e-02 -5.50174117e-02 -1.51291981e-01
  1.61836460e-01 -1.24396719e-01  1.75948903e-01 -1.13756195e-01
 -2.26363853e-01 -4.94385399e-02 -4.94338013e-02  2.25701839e-01
 -1.95476159e-01 -1.86929688e-01 -2.37966962e-02  7.03915939e-05
  3.38735841e-02 -1.72395655e-03 -9.54510272e-03  8.60129222e-02
 -2.30010256e-01 -3.65744919e-01 -1.32072464e-01 -1.24550357e-01
 -1.09882886e-02 -6.80476651e-02 -9.83304232e-02  1.97547232e-03
 -1.79541752e-01 -5.25712334e-02  6.46167621e-02  1.09114230e-01
 -2.77141929e-02 -9.12600085e-02  1.57548383e-01 -3.50865610e-02
 -3.03070992e-01 -5.03008836e-04  1.44417152e-01  2.36146599e-01
  1.53498694e-01  4.34320085e-02  2.47612484e-02 -1.41546935e-01
  1.35514021e-01 -1.28887951e-01  4.55914214e-02  1.04945898e-01
  8.10770392e-02  1.06130444e-01  2.67677959e-02 -1.44195035e-01
  8.68706685e-03  1.72034740e-01 -1.74311295e-01 -2.18876544e-02
  3.68750915e-02 -7.66626596e-02  3.64787132e-03 -2.97132637e-02
  2.37155423e-01  9.26011577e-02 -1.10582881e-01 -1.31686926e-01
  1.89217702e-01 -1.66715845e-01 -1.64443348e-02  5.78942373e-02
 -1.11667298e-01 -1.86163440e-01 -2.92049944e-01 -2.45035794e-02
  3.64719599e-01  9.50120315e-02 -1.71873391e-01  6.51291609e-02
 -1.45802842e-02 -2.11088844e-02  9.11050662e-02  2.10600451e-01
 -1.53245842e-02  8.83573815e-02 -2.93968916e-02  2.11099684e-02
  2.64210463e-01 -7.02365264e-02  5.95647767e-02  1.81878477e-01
  2.33999264e-04  1.85205378e-02  4.69481610e-02  2.72619929e-02
 -1.49806798e-01 -1.60828549e-02 -1.32630438e-01 -5.19240275e-02
  1.02297170e-02  4.13611867e-02 -2.22869348e-02  1.21572614e-01
 -1.97878197e-01  1.24048129e-01  5.97701930e-02 -6.08292483e-02
 -1.70896482e-02  9.16991848e-03 -6.53324788e-03 -1.17094375e-01
  1.29707962e-01 -2.40646124e-01  1.50862798e-01  1.68225348e-01
 -1.62336025e-02  1.42023608e-01  5.99932373e-02  5.10859601e-02
  3.16934031e-03 -3.61766815e-02 -1.80141851e-01 -1.81057248e-02
  1.73097014e-01 -8.54266360e-02  1.08312927e-01 -4.56811935e-02]