[-0.1340649   0.10768308  0.09299397 -0.09134169 -0.12036246 -0.0042925
 -0.03715721 -0.11340702  0.18474884 -0.1224739   0.29477879 -0.03667812
 -0.21510601 -0.08999749 -0.0671254   0.22061491 -0.22810824 -0.18167384
  0.00181469  0.02733576  0.05165047 -0.01169841  0.05313946  0.04842859
 -0.18250339 -0.39890665 -0.12958935 -0.09316038  0.01388725 -0.06823694
 -0.04824385  0.03682457 -0.16279213 -0.03600528  0.04236809  0.12646759
 -0.00967799 -0.07494348  0.13424091 -0.02917666 -0.34308925 -0.0424444
  0.10770607  0.25887319  0.23445737  0.02570666  0.02702538 -0.12983045
  0.09812613 -0.20083563  0.07942426  0.10827982  0.05253885  0.03222996
  0.07195955 -0.15420048 -0.00855365  0.19620495 -0.1262331  -0.02541773
  0.03506765 -0.06467408  0.05576084 -0.0573256   0.21311526  0.12110527
 -0.13315009 -0.18549795  0.19322531 -0.16695012 -0.06430333  0.09667587
 -0.16143772 -0.18466356 -0.37156111 -0.06626102  0.40023682  0.09104678
 -0.13872753  0.04910748 -0.02003449  0.00807111  0.09085697  0.24655728
 -0.00042454  0.05804586 -0.12742822 -0.02021379  0.21982096 -0.05923543
 -0.00180665  0.21883371 -0.05672401  0.0478145   0.04393823  0.0975633
 -0.12538318  0.03824871 -0.15014288 -0.05238513 -0.02417878  0.02068095
 -0.03685579  0.17075719 -0.16715652  0.08118777 -0.00555332  0.03979595
 -0.00847845 -0.03771775  0.03466842 -0.08696526  0.11344086 -0.24224055
  0.15082465  0.20214377 -0.01047964  0.13033819  0.1084556   0.03732195
 -0.00143553 -0.07502084 -0.21517844  0.03672707  0.02949167 -0.12277327
  0.06556164 -0.00493325]