[-9.13993120e-02  1.06065892e-01  9.65638086e-02 -8.02397728e-02
 -1.04605250e-01  7.53811523e-02 -4.81754802e-02 -1.24230623e-01
  1.86021760e-01 -1.40809879e-01  2.07140908e-01 -7.55112171e-02
 -2.27491096e-01 -4.42061163e-02 -4.24003266e-02  2.62869537e-01
 -1.95286974e-01 -2.12819174e-01  2.94681895e-03  2.70171519e-02
 -3.21827494e-02  1.50932996e-02 -1.89305132e-03  5.16398251e-02
 -1.30756363e-01 -4.10914868e-01 -1.05044059e-01 -7.70781189e-02
  1.69729926e-02 -8.14396888e-02 -9.50230286e-02  5.36315441e-02
 -1.60220310e-01 -1.14910929e-02  7.23987296e-02  1.25373155e-01
 -5.96535616e-02 -1.27320811e-01  1.28182188e-01  3.22643830e-03
 -2.91019738e-01 -6.76749274e-02  1.45213112e-01  2.58489698e-01
  2.01219589e-01  3.27535272e-02 -6.32238388e-03 -1.40365914e-01
  1.31426856e-01 -2.36490533e-01  6.78211302e-02  9.32002813e-02
  6.63430691e-02  9.17062536e-02  5.35186045e-02 -1.90181673e-01
  2.76728123e-02  1.40428260e-01 -1.56239852e-01 -4.78361268e-03
  1.72122587e-02 -4.90785800e-02  3.25946212e-02 -5.48784621e-02
  2.40757465e-01  1.34381190e-01 -8.39853883e-02 -1.91259503e-01
  2.01671347e-01 -1.37350664e-01 -5.80111258e-02  3.49277966e-02
 -1.45292342e-01 -1.79849073e-01 -3.18809450e-01 -6.32991865e-02
  3.79703492e-01  1.11281417e-01 -1.44362897e-01  5.34369722e-02
 -5.57959266e-03 -2.77987998e-02  7.01999813e-02  2.04523951e-01
 -1.24786170e-02 -1.32438717e-02 -7.40423352e-02 -2.84119193e-02
  2.61224031e-01 -7.33340383e-02  1.52084325e-02  1.59857780e-01
 -5.98572381e-02  1.99762937e-02  2.04637758e-02  5.89528680e-02
 -1.36678919e-01  6.08315542e-02 -1.90291375e-01 -1.09264508e-01
 -3.87634337e-02  2.64970958e-02 -1.23719722e-02  1.98759377e-01
 -2.38737851e-01  1.39702126e-01  4.24974672e-02 -2.10267454e-02
  5.31181507e-02  1.09704211e-04 -2.05980726e-02 -8.31233412e-02
  1.39360771e-01 -2.33544350e-01  1.65413544e-01  1.93785980e-01
  4.19780761e-02  1.37458637e-01  7.91369230e-02  7.03340769e-02
  1.92406904e-02 -5.35376780e-02 -2.19400361e-01  8.72150064e-04
  7.49316067e-02 -8.04418623e-02  6.94763090e-04  2.14073416e-02]