[-9.69514325e-02  1.37177557e-01  6.40053600e-02 -7.86423236e-02
 -1.27349943e-01 -2.86192205e-02 -1.03888117e-01 -7.46303126e-02
  1.77422926e-01 -5.18264771e-02  1.59751773e-01 -6.16923571e-02
 -1.86360553e-01 -3.14318761e-02 -6.77930340e-02  2.08648682e-01
 -2.24780068e-01 -1.99109331e-01  8.78723525e-03  4.29181382e-02
  6.57697916e-02  1.63534135e-02  7.46018579e-03  5.49013801e-02
 -1.83843449e-01 -4.31696951e-01 -8.75695273e-02 -7.17572495e-02
 -1.71192400e-02 -4.52771001e-02 -4.33740318e-02  9.08078775e-02
 -2.15650201e-01 -6.39970377e-02  8.34175795e-02  1.66437596e-01
 -3.47674154e-02 -8.91521052e-02  1.42882928e-01  3.57447192e-04
 -3.24685484e-01  1.31714912e-02  1.53599218e-01  2.94513673e-01
  1.86600760e-01  4.32131849e-02  2.21458469e-02 -1.51887402e-01
  1.45971119e-01 -2.08657429e-01  3.41001302e-02  1.57791063e-01
  5.94344735e-02  6.87410533e-02  5.96426092e-02 -1.07844256e-01
  8.14012885e-02  1.45413205e-01 -2.08224371e-01 -4.30518389e-02
  8.68819878e-02 -4.76273969e-02  5.31528369e-02 -1.16944484e-01
  2.52447128e-01  1.07739322e-01 -6.89217821e-02 -1.37914687e-01
  1.56583428e-01 -1.27742603e-01 -5.00132851e-02  7.78205246e-02
 -1.11439548e-01 -1.84473395e-01 -3.08995813e-01 -5.83938733e-02
  3.96476477e-01  1.05397724e-01 -1.18617229e-01  8.77613425e-02
 -2.06604581e-02 -3.95885333e-02  8.46766084e-02  1.40715703e-01
 -5.94881773e-02  7.00204223e-02 -8.84554014e-02  5.63194863e-02
  3.16799015e-01 -4.85195182e-02  6.00776263e-02  1.61716998e-01
  8.60976335e-03  3.33027504e-02  4.12037857e-02  2.94526573e-02
 -1.41513646e-01  5.36517911e-02 -2.16259554e-01 -3.87369879e-02
 -2.48934533e-02  1.25856779e-03 -9.93629824e-03  1.43280193e-01
 -2.05484062e-01  6.92713037e-02  5.12949787e-02 -4.89332341e-02
 -5.55669283e-03 -7.44609395e-03 -4.11263704e-02 -1.02000333e-01
  1.24244452e-01 -2.18040749e-01  1.82406038e-01  1.38919890e-01
  3.82949971e-02  1.22906521e-01  8.31214339e-02  4.68704216e-02
 -4.82771955e-02 -9.24868509e-02 -1.90359473e-01  1.28939245e-02
  1.30221918e-01 -6.28186688e-02  8.77392814e-02 -1.12450281e-02]