[-0.099906    0.1545044   0.09511136 -0.096791   -0.11792779 -0.01843864
 -0.00376847 -0.09104897  0.17396621 -0.09305486  0.23697169 -0.09923368
 -0.24051104 -0.08819486 -0.01493405  0.22217086 -0.1746905  -0.1669734
 -0.01181887  0.03032385  0.0483663  -0.02135905  0.0073992   0.08815517
 -0.17005102 -0.4010523  -0.12983499 -0.09997061  0.01143563 -0.0830115
 -0.03064894  0.08201887 -0.14534627 -0.04835666  0.03641407  0.13557242
 -0.03085584 -0.07681062  0.17419972 -0.01941605 -0.3318429  -0.04771773
  0.13464774  0.27852318  0.19038986  0.03194419  0.04965232 -0.06880904
  0.11696845 -0.21773715  0.08389996  0.12037619  0.09952048  0.05892415
  0.08183917 -0.14751028  0.02877411  0.13694528 -0.1976774  -0.02659008
  0.07755687 -0.09122547  0.05144564 -0.04715843  0.23846011  0.09087178
 -0.11478293 -0.12666146  0.20067421 -0.17040247 -0.02506209  0.09195789
 -0.14952673 -0.14901403 -0.35193086 -0.02361283  0.42810521  0.11743804
 -0.11354624  0.04328513 -0.06749028 -0.04431225  0.060644    0.18512236
  0.00266797  0.01011779 -0.10885482  0.02041818  0.2396822  -0.08624868
  0.04389349  0.18963283 -0.00489686  0.03654453 -0.02295657  0.02974605
 -0.12791753  0.02476553 -0.1099046  -0.0022289  -0.05908849 -0.01533201
 -0.03412265  0.14802073 -0.23503497  0.10965097  0.05316544 -0.02240518
 -0.03520915  0.01069119 -0.0402876  -0.09381044  0.13138549 -0.24883817
  0.13440619  0.18072765 -0.01419593  0.10232802  0.07791958  0.05730074
  0.02375005 -0.11664106 -0.18431684 -0.00405678  0.08991662 -0.10170201
  0.0501478   0.01187899]