[-1.47615299e-01  9.71014053e-02  7.77951553e-02 -6.81784078e-02
 -1.38261899e-01 -3.61004286e-02 -9.95397791e-02 -7.46664032e-02
  1.79742068e-01 -6.48560971e-02  1.64034635e-01 -5.70103638e-02
 -1.90340117e-01 -1.87169388e-02 -7.60735124e-02  2.26452351e-01
 -1.80222332e-01 -1.50961950e-01 -2.92870769e-04  4.41789255e-02
  5.34915999e-02  1.21180350e-02 -2.95062102e-02  6.93882629e-02
 -1.16365008e-01 -4.22046989e-01 -9.40931588e-02 -4.47069630e-02
 -3.39723751e-02 -5.80995083e-02 -5.85426092e-02  6.17647581e-02
 -1.98783800e-01 -9.62677523e-02  8.42661262e-02  1.75404504e-01
 -1.72848292e-02 -9.40032825e-02  1.23332255e-01 -8.84887297e-03
 -3.06124717e-01 -1.34817511e-02  1.58339962e-01  2.81306714e-01
  2.10011721e-01  5.73868565e-02  3.91159952e-03 -1.31641731e-01
  1.95770845e-01 -2.15109348e-01  1.21876737e-02  1.13811016e-01
  1.03822887e-01  6.48706481e-02  4.10817750e-02 -1.41473874e-01
  6.35807961e-02  1.45137072e-01 -2.03329131e-01 -4.83789667e-02
  6.87433183e-02 -6.47067577e-02  4.72734384e-02 -1.00153379e-01
  2.54133642e-01  1.11446358e-01 -9.58351493e-02 -1.27496198e-01
  1.89078555e-01 -1.24508694e-01 -7.00713322e-03  2.47219931e-02
 -1.37263328e-01 -1.88702494e-01 -3.20820510e-01 -3.16220708e-02
  4.17548567e-01  9.34600607e-02 -1.28270358e-01  6.13228939e-02
 -4.30304706e-02 -4.75678500e-03  5.08203804e-02  1.44655406e-01
 -2.02722847e-02  2.92364936e-02 -6.29986227e-02  1.37577178e-02
  2.89411783e-01 -4.70014177e-02  6.45708516e-02  1.47185743e-01
  1.04333926e-03  3.50835286e-02  2.89704148e-02  5.01310304e-02
 -1.43280953e-01  4.94678579e-02 -1.89979389e-01 -1.37767568e-02
 -5.72265200e-02 -2.42836289e-02  4.05920409e-02  1.44196853e-01
 -2.21901491e-01  9.28844661e-02  5.12827523e-02 -8.29866622e-03
  1.19996173e-02  2.07131039e-02 -5.14395311e-02 -1.08058169e-01
  1.17805399e-01 -2.08214208e-01  1.97203323e-01  1.45935640e-01
  2.25252360e-02  1.54098615e-01  5.90822101e-02  9.02217999e-02
 -2.16547195e-02 -5.05246930e-02 -1.54738814e-01 -7.56652001e-03
  9.01475698e-02 -5.82439899e-02  6.68087229e-02  1.16416067e-02]