[ 0.00178889  0.16183686  0.08910004  0.01473578 -0.06924529 -0.04988512
  0.01644513 -0.14484569  0.07281177  0.04014794  0.3472178  -0.05135603
 -0.26268697 -0.12129211 -0.05092058  0.09601798 -0.13059087 -0.0862816
 -0.1179883   0.01464602  0.0748664   0.01522118  0.06568068 -0.01911668
 -0.07530143 -0.26898119 -0.06578529 -0.04616639  0.06086351 -0.12156554
  0.00485174  0.09285166 -0.19923891 -0.11249381  0.01739633  0.01186997
 -0.05047984 -0.07062286  0.20326792  0.01051506 -0.15892678  0.05168761
  0.0129317   0.24137937  0.25103262 -0.02070442 -0.00490026 -0.12649958
  0.05094429 -0.21266036  0.0272427   0.16991909  0.16794834  0.09432304
  0.03827108 -0.10893126 -0.0182592   0.10539533 -0.1763293  -0.02974813
  0.01016471 -0.07872532 -0.01711705 -0.13719003  0.08696498  0.06116373
 -0.05417179 -0.11863778  0.09915119 -0.11431921 -0.12540123  0.0920629
 -0.12455461 -0.13627808 -0.30756232  0.00288829  0.30052304  0.06689654
 -0.25104877  0.0069932  -0.047447   -0.0361347   0.00873082  0.00947009
 -0.04328804 -0.00099319 -0.08988609  0.01093755  0.16013955 -0.1100952
 -0.05052206  0.22289073 -0.04140779  0.01950762  0.0883022   0.01694749
  0.00821087  0.04366918 -0.1427217  -0.00872643  0.02159052 -0.12129778
 -0.01902073  0.05182219 -0.17462295  0.09036277  0.03492985  0.00886592
  0.0244284  -0.1276432  -0.0575683   0.02189433  0.19277589 -0.2768763
  0.2819739   0.15968244 -0.03947953  0.07177016  0.05416051  0.06016061
 -0.04897533 -0.04258406 -0.09391817 -0.08258219  0.07915109 -0.00516927
  0.02962901 -0.0158281 ]