[ 0.00225099  0.15139823  0.08172065  0.00373407 -0.06975452 -0.04691374
  0.01965376 -0.15180281  0.06742082  0.0325563   0.33026871 -0.04864514
 -0.2536504  -0.13658763 -0.04366034  0.09448905 -0.13708405 -0.08603946
 -0.12329499  0.00989647  0.06379514  0.01463003  0.05666265 -0.03137056
 -0.07956827 -0.25851616 -0.06693932 -0.04177526  0.04784833 -0.11479708
  0.01212149  0.08610772 -0.20033954 -0.11256862  0.01857649  0.01288924
 -0.04976861 -0.06214955  0.18103953  0.01089252 -0.1587519   0.05391572
  0.01963669  0.2332844   0.24592297 -0.01172153 -0.01021148 -0.13472277
  0.05282982 -0.21168201  0.02988367  0.15324037  0.16348039  0.08306359
  0.04581756 -0.10450083 -0.01988214  0.09355229 -0.16267465 -0.03247253
  0.01896467 -0.07924493 -0.02714687 -0.13611706  0.07879314  0.05831193
 -0.04907079 -0.12268177  0.1135513  -0.11220097 -0.13175479  0.08401417
 -0.10325199 -0.13098602 -0.3118788   0.00034669  0.29628789  0.07114189
 -0.25544274 -0.00763494 -0.05645751 -0.02431796  0.02063545  0.00799201
 -0.03581055 -0.00635756 -0.0912612   0.00599733  0.16083114 -0.11819223
 -0.04298596  0.21967681 -0.02750734  0.01646815  0.07945208  0.0097756
  0.00452726  0.05763445 -0.14698066 -0.00674743  0.03753001 -0.11038108
 -0.01028988  0.06577545 -0.16791366  0.09654143  0.04125082 -0.00086686
  0.03386703 -0.12484777 -0.05272083  0.01270533  0.18235701 -0.2739563
  0.26866743  0.16443852 -0.04080724  0.06990044  0.05481157  0.06477655
 -0.0458738  -0.04466601 -0.10372233 -0.08520608  0.07028197 -0.00384183
  0.01315282 -0.00934191]