[-0.00619197  0.0836489   0.018667    0.0051668  -0.07041235 -0.07537198
  0.01317598 -0.12045776  0.07366299 -0.00537969  0.31180528 -0.04082853
 -0.18785173 -0.17175864 -0.02069059  0.09631202 -0.13397472 -0.02522627
 -0.10758876  0.00634766  0.02312993 -0.05706006  0.09052335  0.01807752
 -0.02458003 -0.31495571 -0.0623233  -0.05409821  0.06675505 -0.10775105
 -0.01700721  0.15822995 -0.17442302 -0.10674377  0.02791532  0.10197748
 -0.07742599 -0.0155978   0.21521555  0.00201485 -0.13482587  0.05109335
  0.01788351  0.25500035  0.30542967  0.00109042 -0.01928879 -0.04858128
  0.15921073 -0.21427567 -0.00564035  0.17530335  0.12998161  0.04708432
  0.0648205  -0.04184463  0.02588837  0.11399599 -0.18719684 -0.01603848
  0.0123479  -0.10766392 -0.05322457 -0.0749853   0.10656942  0.1023493
 -0.05284271 -0.1034326   0.14737897 -0.14408077 -0.05689068  0.07013619
 -0.16344877 -0.16461588 -0.2386227   0.0232068   0.32142943  0.12063044
 -0.17432581  0.02177857 -0.01197064 -0.0495018   0.06538356  0.0313558
 -0.04272748 -0.03512704 -0.09701359  0.01705769  0.13581629 -0.06903889
 -0.03485373  0.20828071 -0.04981839  0.03967838  0.07609576 -0.0409393
 -0.01594047  0.03313115 -0.20477012 -0.05227893  0.0552619  -0.17059122
  0.01645146  0.03698213 -0.14487861  0.08006371 -0.01040741  0.06716128
  0.05462674 -0.09079348 -0.07479104  0.02160235  0.15523684 -0.20780464
  0.29243624  0.14270006 -0.01557132  0.04746542  0.07512849  0.06482085
 -0.01627676 -0.04633702 -0.07771387 -0.07279804  0.03351068  0.01991871
  0.04188484 -0.05836148]