[-4.85657044e-02  1.35160476e-01  1.08426265e-01  2.09149402e-02
  3.12325712e-02 -6.79056048e-02  4.58508320e-02 -1.28692478e-01
  9.76351053e-02 -1.09874550e-02  3.37098569e-01 -7.02137128e-02
 -2.33866334e-01 -1.64107487e-01 -2.47716508e-03  1.59950987e-01
 -1.76800102e-01 -3.83194610e-02 -8.70339498e-02  2.41996460e-02
  1.41569972e-02 -1.20560993e-02  8.49165246e-02  3.80623974e-02
 -1.11203948e-02 -3.03124398e-01 -8.14193934e-02 -1.13716818e-01
  7.71394605e-03 -3.21750827e-02 -6.60772696e-02  8.98145959e-02
 -1.38584808e-01 -7.69415349e-02  1.76062547e-02 -1.09423678e-02
 -1.25462878e-02 -3.14853862e-02  2.00697660e-01 -3.78862545e-02
 -1.29373387e-01  6.31781295e-04 -2.44391704e-04  2.48248845e-01
  2.43176445e-01  1.69428885e-02 -1.71097647e-03 -1.13029756e-01
  4.62744124e-02 -1.60424575e-01  3.01299430e-02  1.13197826e-01
  1.04446284e-01  2.39820872e-02  2.03319136e-02 -1.35248333e-01
 -3.33692878e-02  5.85470088e-02 -1.32815763e-01 -3.82446609e-02
  4.24357271e-03 -8.62604603e-02 -6.46735430e-02 -5.74194007e-02
  1.55193374e-01  9.58034918e-02 -7.18334541e-02 -1.44908205e-01
  1.43858835e-01 -1.13150157e-01 -5.19559048e-02  5.11861816e-02
 -1.81042075e-01 -1.51297018e-01 -2.75895983e-01  1.34621589e-02
  3.00698549e-01  5.54053150e-02 -2.31111690e-01  1.02853598e-02
 -8.25798213e-02 -5.94198611e-03  1.03157997e-01  6.64838478e-02
 -4.88067158e-02 -1.92161929e-02 -1.10220961e-01 -2.92491214e-03
  1.33795887e-01 -1.09844603e-01 -6.14765547e-02  1.93278059e-01
 -6.11858033e-02 -1.33984163e-02  4.45503443e-02 -6.10064454e-02
  5.06359152e-02  7.51514882e-02 -1.99328899e-01 -2.31003761e-02
  7.78131112e-02 -6.88908026e-02 -2.09582131e-02  7.66112655e-02
 -2.06434414e-01  1.21005056e-02  4.85715531e-02  1.05149606e-02
  7.50185177e-02 -7.81181380e-02 -1.19778931e-01 -2.31138896e-02
  1.83015540e-01 -2.04941854e-01  2.28877977e-01  1.56171843e-01
  2.02642456e-02  7.63493702e-02  5.51666580e-02  8.57238024e-02
 -2.07362603e-02 -4.53602485e-02 -1.50546983e-01 -4.88694990e-03
  1.43806100e-01  4.32865098e-02  6.22796901e-02 -2.68048774e-02]