[ 1.25117721e-02  8.82280245e-02  1.95897855e-02  1.33926040e-02
 -6.56957552e-02 -6.70010448e-02  1.28906015e-02 -1.16938852e-01
  8.65373388e-02 -5.81130339e-03  3.18792075e-01 -3.52912359e-02
 -1.84716150e-01 -1.64541841e-01 -1.54915974e-02  9.59405825e-02
 -1.32986456e-01 -2.04012580e-02 -1.23335652e-01  1.20473765e-02
  1.85179990e-02 -5.23507856e-02  9.35102776e-02  1.35549670e-02
 -2.58789100e-02 -3.10442746e-01 -5.32564037e-02 -6.02680445e-02
  7.82794431e-02 -1.18044913e-01 -2.66055893e-02  1.45087108e-01
 -1.74737811e-01 -1.19566180e-01  2.53299624e-02  9.26626921e-02
 -7.70106092e-02 -3.01621165e-02  2.04674110e-01  1.19837737e-02
 -1.42917231e-01  6.68391660e-02  3.24233552e-03  2.52949268e-01
  3.07631791e-01  1.60746612e-02 -1.42841935e-02 -7.89391398e-02
  1.67029068e-01 -2.06479222e-01  3.05793452e-04  1.56537443e-01
  1.34071156e-01  4.66607772e-02  6.11920245e-02 -5.92872575e-02
  2.49276217e-02  1.04400352e-01 -1.93875819e-01 -1.53093804e-02
  1.65602770e-02 -8.92812759e-02 -4.29893360e-02 -7.96547458e-02
  1.04210414e-01  1.03596903e-01 -4.82088551e-02 -1.00889228e-01
  1.43123731e-01 -1.51554450e-01 -6.06669001e-02  6.99321702e-02
 -1.49766326e-01 -1.68589652e-01 -2.43975714e-01  1.17926570e-02
  3.07558745e-01  1.21705376e-01 -1.89426139e-01  9.13704373e-03
 -7.97655527e-03 -4.12505679e-02  7.35381097e-02  4.85109054e-02
 -3.98910679e-02 -3.23103927e-02 -9.09378007e-02 -1.13188848e-03
  1.47025466e-01 -7.37905726e-02 -3.58385816e-02  2.16689155e-01
 -4.67806123e-02  3.02570108e-02  7.67381936e-02 -3.99246886e-02
 -2.71315463e-02  4.26850878e-02 -2.05538616e-01 -5.67638837e-02
  5.03102504e-02 -1.57480821e-01  1.44703733e-02  3.08100339e-02
 -1.51321948e-01  8.59090313e-02 -1.08816596e-02  6.50816485e-02
  6.70701191e-02 -1.01611637e-01 -6.70679435e-02  1.76550280e-02
  1.63205475e-01 -2.11313516e-01  2.91577458e-01  1.48262411e-01
 -3.40048596e-03  5.25218509e-02  7.74740577e-02  7.01612756e-02
 -1.51241394e-02 -3.84588018e-02 -9.04389620e-02 -6.88393041e-02
  3.13274153e-02  1.45449294e-02  4.04794887e-02 -5.72056361e-02]