[-0.04320439  0.13550401  0.09971576  0.01095283  0.02425464 -0.06627897
  0.04615949 -0.13601981  0.11107206 -0.01211426  0.3320331  -0.06709093
 -0.23076549 -0.15391305 -0.00624988  0.16548599 -0.18359679 -0.02002196
 -0.08785988  0.00576303  0.02115606 -0.01115723  0.08572711  0.04421796
 -0.00706721 -0.2939752  -0.08434598 -0.10888603  0.01284883 -0.03388945
 -0.06171979  0.08107066 -0.14380701 -0.08149705  0.01843704 -0.01177756
 -0.0158465  -0.04775739  0.19922672 -0.04023736 -0.11797645  0.01553812
  0.00836598  0.23462518  0.23993552  0.01407327 -0.00407912 -0.11693224
  0.06374846 -0.15574121  0.02617422  0.10114741  0.08809832  0.02428273
  0.02105016 -0.14129235 -0.03627021  0.06669024 -0.13806596 -0.03534211
 -0.00143553 -0.09110702 -0.07246917 -0.05334239  0.15014188  0.1150856
 -0.06780665 -0.14832217  0.14349025 -0.11551294 -0.04477316  0.0452195
 -0.1828392  -0.14743714 -0.27285764  0.01618836  0.30980641  0.05328638
 -0.22535284  0.00861739 -0.07045384  0.00096305  0.11670657  0.07811721
 -0.04001122 -0.02207319 -0.09781794  0.0079046   0.13245825 -0.11025923
 -0.06994644  0.2082572  -0.05795749 -0.00184749  0.04064504 -0.06153395
  0.0463069   0.06741329 -0.20026584 -0.02258514  0.08237064 -0.05959053
 -0.01566507  0.07325374 -0.20064907  0.00298728  0.05043448  0.00979214
  0.06993588 -0.0777985  -0.11685584 -0.01730887  0.17986862 -0.20502225
  0.24073105  0.1545613   0.01264481  0.0799913   0.04789356  0.08159727
 -0.00643169 -0.04627074 -0.14014678  0.0011894   0.14021689  0.04673884
  0.06544078 -0.03212604]