[-2.73202523e-03  1.52959973e-01  7.64924586e-02 -2.62394380e-02
 -1.40958270e-02 -2.96911392e-02  3.15721743e-02 -1.43584713e-01
  8.57687593e-02  2.41163578e-02  3.52498174e-01 -7.32992515e-02
 -2.38732696e-01 -1.69540063e-01 -2.59124823e-02  1.15156911e-01
 -1.50635675e-01 -4.94585559e-02 -1.23036504e-01  2.56903656e-02
  7.43505880e-02 -2.03761812e-02  6.11896887e-02 -1.29260784e-02
 -5.70593961e-02 -3.23913246e-01 -9.98319015e-02 -4.94390726e-02
  3.70495580e-02 -8.91406164e-02  1.56574529e-02  9.04181749e-02
 -1.63870648e-01 -9.08474848e-02 -2.26088846e-03  3.60280283e-05
 -6.27108216e-02 -7.71229193e-02  1.73871964e-01 -2.56731343e-02
 -1.64354414e-01  6.09696805e-02  8.32980685e-03  2.45765120e-01
  2.26029024e-01 -2.22310866e-03  2.61528580e-03 -9.47387516e-02
  5.85656464e-02 -1.99170902e-01  5.33555932e-02  1.43997952e-01
  1.34182230e-01  4.33802493e-02  6.92306384e-02 -8.46980289e-02
 -8.00829101e-03  1.08250342e-01 -1.87378913e-01 -4.52569090e-02
  1.54377120e-02 -6.05635531e-02 -3.47096100e-02 -1.06916152e-01
  8.05455297e-02  1.24082446e-01 -5.52552603e-02 -1.28874943e-01
  1.22413911e-01 -9.87151191e-02 -6.05539680e-02  5.57588749e-02
 -1.61593363e-01 -1.79263100e-01 -2.93433100e-01  4.01072986e-02
  3.25410575e-01  9.94698331e-02 -2.38268524e-01  2.29929853e-03
 -3.58295701e-02  1.24530792e-02  1.03280403e-01  1.48750497e-02
 -6.33992106e-02 -1.48573972e-03 -1.05924509e-01  1.68110337e-02
  1.30724356e-01 -1.04007438e-01 -9.11782756e-02  2.33597681e-01
 -3.64169627e-02 -2.69590388e-03  7.94368163e-02 -4.28914689e-02
  3.47706005e-02  6.01819530e-02 -1.88164547e-01  1.27015938e-03
  6.80563599e-02 -8.68399292e-02 -2.57919878e-02  6.54770136e-02
 -1.44951582e-01  7.51628429e-02  6.35483786e-02  2.54267938e-02
  4.78311740e-02 -9.08332020e-02 -1.00138925e-01 -1.08620748e-02
  1.73520073e-01 -2.40683660e-01  2.29097605e-01  1.47898197e-01
 -3.31900385e-03  7.16392174e-02  8.81674662e-02  6.10156618e-02
 -1.45603139e-02 -5.73041812e-02 -1.19628325e-01 -3.32590714e-02
  1.22194365e-01  3.14007513e-02  4.33670282e-02 -3.18803489e-02]