[ 0.03134271  0.10863421  0.019274   -0.01186396 -0.01152518 -0.07961404
  0.01618387 -0.14638993  0.0891597  -0.02845655  0.27429095 -0.03344529
 -0.21594234 -0.15945081 -0.01145286  0.11329452 -0.15915942 -0.07533343
 -0.10643339  0.00177999  0.06701636  0.00672296  0.09922267 -0.00199453
 -0.01672685 -0.32778415 -0.1042787  -0.04678729  0.04677696 -0.03709267
 -0.02380604  0.1070202  -0.17160921 -0.09890126  0.05291741  0.02630576
 -0.0897964  -0.06856336  0.21279585  0.00938404 -0.13782988  0.05326706
  0.00508164  0.2649084   0.27325651  0.02346358  0.01918623 -0.10596891
  0.05842079 -0.1753488   0.03697836  0.15941584  0.10367658  0.03521435
  0.06345867 -0.07149591 -0.01842513  0.11530598 -0.12273612 -0.05918152
  0.01755654 -0.06681321 -0.05471789 -0.09944661  0.11793065  0.07121011
 -0.05885027 -0.13871895  0.12808363 -0.13514468 -0.11853035  0.0326993
 -0.16699716 -0.13877144 -0.26278093 -0.00716752  0.32482907  0.08752465
 -0.18004666  0.02775311 -0.0380739  -0.00209106  0.10839392  0.01984948
 -0.07252432 -0.01976563 -0.10327466  0.01807941  0.16803181 -0.09493619
 -0.09987869  0.18071359 -0.0523      0.0171876   0.06794421 -0.05727347
  0.02537879  0.0702361  -0.2198735  -0.05227127  0.0920385  -0.09254568
 -0.02069329  0.11294315 -0.17253754  0.05325311  0.01991552  0.02211086
  0.07752699 -0.08038645 -0.13938305 -0.00614018  0.14469574 -0.20889775
  0.23017395  0.17975087  0.01426431  0.05659974  0.09147891  0.04701025
 -0.0209841  -0.05295389 -0.1885445  -0.05871301  0.11186869  0.09836709
  0.06134681 -0.04111841]