[-0.01159504  0.132636    0.08299796  0.00985814 -0.05145178 -0.01077059
 -0.00662621 -0.11884099  0.07633356  0.046919    0.34284082 -0.03297935
 -0.2507928  -0.11802638 -0.06899507  0.1018466  -0.18038943 -0.03040724
 -0.16473119  0.00816063  0.01807724  0.02018984  0.07764149 -0.0290269
 -0.0826351  -0.28427631 -0.06515557 -0.0462458   0.0457995  -0.1201895
  0.02318627  0.05512505 -0.19830771 -0.12827383  0.01806306  0.02924541
 -0.04340873 -0.0422384   0.18121859  0.0421556  -0.15478979  0.08484647
  0.04680409  0.26157516  0.29298672  0.03239752 -0.04504292 -0.07135756
  0.08139694 -0.26905283  0.0453326   0.14217883  0.16902725  0.06719331
  0.09077135 -0.08765367 -0.05169193  0.14721592 -0.14684772  0.00060323
  0.01236818 -0.05871732  0.02943928 -0.11956302  0.08357847  0.093102
 -0.0761258  -0.09200277  0.09859803 -0.1213233  -0.09227332  0.07052693
 -0.09336594 -0.14168297 -0.33150572  0.02418265  0.32161853  0.09439185
 -0.23738168 -0.04559559 -0.03495609 -0.03840422  0.0158342   0.0138463
 -0.03792587 -0.02218946 -0.0726101  -0.0292906   0.16304353 -0.0633558
 -0.04306696  0.24514852 -0.05909814 -0.01276842  0.08293924 -0.00428973
 -0.03714602  0.01139858 -0.17727374 -0.01614803 -0.01131238 -0.11444534
  0.01004733  0.03987674 -0.14220801  0.0749989   0.01647883 -0.0033822
  0.03949925 -0.08258518 -0.06757975  0.01737071  0.21841931 -0.26244307
  0.27694708  0.15924032 -0.04526911  0.06140311  0.08162906  0.07046019
 -0.04907776  0.01732381 -0.0482919  -0.10943037  0.02487842 -0.03661547
  0.05736345 -0.02395547]