[ 0.03639522  0.09779774  0.0203552  -0.00343549 -0.01529422 -0.08036559
  0.01739154 -0.12997773  0.08211131 -0.0250254   0.27659068 -0.0317193
 -0.20344625 -0.16691907 -0.00971385  0.10196135 -0.15171486 -0.06807548
 -0.10551774  0.01085956  0.06625248 -0.01487432  0.09774102 -0.00878843
 -0.02317289 -0.32484159 -0.08629525 -0.06236686  0.05911197 -0.05571033
 -0.0180407   0.10014081 -0.18002541 -0.10294825  0.03766358  0.02608159
 -0.07998598 -0.05482924  0.20760269  0.00859052 -0.13767211  0.05282677
 -0.01116408  0.26250505  0.28772569  0.02560098  0.01607904 -0.09846293
  0.06489883 -0.20169504  0.04017666  0.14568257  0.10089087  0.02905691
  0.08044561 -0.05696839 -0.01728357  0.10824311 -0.13114211 -0.04581385
  0.01364776 -0.04858854 -0.05533985 -0.10521288  0.11717621  0.06178703
 -0.05359985 -0.11923784  0.13229714 -0.14512709 -0.10963949  0.03218117
 -0.14505059 -0.14001338 -0.26583061  0.00046228  0.30380082  0.10432938
 -0.18881829  0.02750683 -0.03815797 -0.00244895  0.10654402  0.00331971
 -0.05702941 -0.02205019 -0.09454029  0.00880172  0.16009322 -0.09736655
 -0.07759926  0.1845831  -0.06173585 -0.00200988  0.06621432 -0.05905535
  0.01933237  0.06772079 -0.21961935 -0.05307458  0.09834818 -0.10301804
 -0.01442911  0.10681114 -0.18329863  0.04549285  0.00128366  0.01448906
  0.08952799 -0.08631459 -0.13555118 -0.00608143  0.14910774 -0.21015866
  0.23959184  0.18457989  0.00574176  0.04693311  0.08502241  0.0425028
 -0.01952461 -0.04536139 -0.17685978 -0.0637427   0.09354912  0.0854164
  0.03690425 -0.04664613]