[-0.04336126  0.12817115  0.09832218  0.01332341  0.02538613 -0.06210284
  0.03396254 -0.13598618  0.09610542 -0.01674921  0.34038571 -0.06043258
 -0.22540116 -0.1762204  -0.00578205  0.15746248 -0.18179233 -0.03211792
 -0.08798645  0.01854979  0.01121532 -0.00730574  0.08702663  0.0215799
 -0.01163362 -0.28933725 -0.0925986  -0.10170101  0.02059521 -0.03644327
 -0.06602156  0.09451181 -0.14578603 -0.08670381  0.01958746 -0.01006551
  0.00095762 -0.02658812  0.20012401 -0.03493966 -0.124294    0.01567357
  0.0162962   0.2402581   0.24617603  0.02449322 -0.01230832 -0.11782531
  0.05999229 -0.14467461  0.03463759  0.11028206  0.10507168  0.02503668
  0.0168299  -0.13565598 -0.03264287  0.06622978 -0.12164871 -0.03651191
  0.00491144 -0.08635546 -0.0615739  -0.05651179  0.15151106  0.08743928
 -0.06703939 -0.1524042   0.14211825 -0.106097   -0.0557616   0.05748249
 -0.18657239 -0.13655318 -0.28765866  0.01359373  0.29640773  0.05221536
 -0.2302507   0.01034967 -0.06994034 -0.0154138   0.10280415  0.07675328
 -0.04790183 -0.01722801 -0.10537618 -0.00709541  0.141853   -0.09986562
 -0.06159447  0.20083979 -0.05479943  0.00193174  0.04458607 -0.05747701
  0.04535638  0.05742624 -0.20384543 -0.03300501  0.07798025 -0.06615175
 -0.02239694  0.09061696 -0.19443668  0.01533181  0.04461521  0.01689037
  0.06837668 -0.08143223 -0.09839728 -0.01993501  0.17809473 -0.19424035
  0.22692275  0.15147281  0.0234235   0.06902177  0.06402376  0.09239706
 -0.02808781 -0.03679958 -0.14713953 -0.00900437  0.13606219  0.03143094
  0.0757261  -0.02400824]