[-6.84107793e-03  1.60089314e-01  7.88699016e-02  4.00400301e-03
 -4.91922684e-02 -5.49066328e-02  3.23922199e-04 -1.54069692e-01
  9.08597410e-02  4.65532318e-02  3.48785251e-01 -4.55968119e-02
 -2.32427523e-01 -1.61815494e-01 -4.59426343e-02  8.64845663e-02
 -1.46044239e-01 -4.33240458e-02 -1.23339735e-01  2.69450843e-02
  6.11204393e-02  1.47842569e-02  9.63777080e-02 -1.17900167e-02
 -6.44292384e-02 -2.88062423e-01 -8.15603882e-02 -5.58739305e-02
  5.29494658e-02 -1.23214103e-01  9.88778658e-03  7.44677186e-02
 -2.03537390e-01 -1.22468449e-01  9.17673856e-03  1.54904425e-02
 -5.09679019e-02 -5.03037758e-02  1.81691870e-01  9.39962175e-03
 -1.46772295e-01  6.27061129e-02  1.42720072e-02  2.29460508e-01
  2.64741629e-01 -9.88509227e-03 -1.08222459e-02 -1.11818194e-01
  6.72354475e-02 -2.13220239e-01  5.51130436e-02  1.50911450e-01
  1.65462777e-01  5.02834432e-02  7.37280473e-02 -8.31712484e-02
 -3.84023674e-02  1.19723104e-01 -1.54573843e-01 -5.27250720e-03
  2.22181845e-02 -6.29336536e-02 -4.67272438e-02 -1.00118689e-01
  8.04255158e-02  8.93660113e-02 -6.12047128e-02 -1.17266141e-01
  9.75581631e-02 -1.06354177e-01 -9.11556929e-02  9.84694734e-02
 -1.24017335e-01 -1.52380690e-01 -2.97845513e-01  2.83458717e-02
  3.27826411e-01  6.26415461e-02 -2.52808958e-01 -1.33173296e-03
 -5.52707426e-02 -2.00053137e-02  2.67045703e-02  2.43470818e-02
 -3.60497944e-02 -1.01010697e-02 -9.21803266e-02  1.58047210e-02
  1.33075237e-01 -9.94694456e-02 -5.24416342e-02  2.49803528e-01
 -4.42396961e-02  3.17273326e-02  7.19888136e-02 -2.26744264e-02
  1.85858421e-02  3.62865776e-02 -1.47311375e-01 -1.23923300e-02
  4.80708070e-02 -9.47515294e-02 -2.30520498e-02  3.97449024e-02
 -1.47503212e-01  6.72785565e-02  4.86552007e-02  1.45512018e-02
  6.29112795e-02 -1.16909504e-01 -6.14472292e-02 -3.14323301e-03
  1.82554394e-01 -2.72358805e-01  2.76212186e-01  1.33487910e-01
 -3.76823992e-02  6.60170838e-02  5.46491407e-02  7.02714100e-02
 -1.06424950e-02 -2.96335705e-02 -7.06048980e-02 -5.91140874e-02
  6.92258403e-02 -9.97941662e-03  2.15316284e-02 -3.79728861e-02]