[-0.0142211   0.15990518  0.08870856 -0.00421574 -0.04027793 -0.0399983
 -0.00195776 -0.14996617  0.08213788  0.05460441  0.34977365 -0.03574654
 -0.23235169 -0.16248836 -0.04623712  0.09241726 -0.14676017 -0.05066376
 -0.11200318  0.04441646  0.06172807  0.02161271  0.08094126 -0.0235012
 -0.06693905 -0.28899857 -0.07332576 -0.04003587  0.04775923 -0.12323108
  0.00223807  0.07878596 -0.20373519 -0.10390928  0.02259187  0.03123407
 -0.0467699  -0.06139469  0.18108512  0.00530107 -0.15917274  0.06231706
  0.02654898  0.23823956  0.26324087 -0.01261605 -0.01500507 -0.12019826
  0.06467479 -0.19362722  0.05541811  0.14963925  0.14883487  0.04344001
  0.06210214 -0.08877961 -0.04167807  0.11284208 -0.15754655 -0.00952639
  0.03193208 -0.06966227 -0.04883542 -0.12547207  0.07585939  0.08459313
 -0.06759101 -0.13938932  0.09830961 -0.10947862 -0.09465947  0.09767703
 -0.12807199 -0.14929532 -0.29661524  0.0189709   0.31614652  0.05793088
 -0.25528395  0.00161829 -0.03646743 -0.02962088  0.04230191  0.03986032
 -0.02640929  0.00048791 -0.0866657   0.00830075  0.16305679 -0.0816649
 -0.05181453  0.23966025 -0.04957291  0.01323147  0.06917485 -0.02737436
  0.02832522  0.04559238 -0.15743358 -0.01321555  0.03269316 -0.10826202
 -0.02123003  0.06346213 -0.15149024  0.06570116  0.05582654  0.02623203
  0.07632912 -0.11636975 -0.0712529  -0.01041829  0.18508081 -0.2728053
  0.27609643  0.13166641 -0.01248538  0.04989428  0.06365874  0.08296901
 -0.01031886 -0.02034782 -0.09140112 -0.05321521  0.06787349 -0.01768845
  0.04100471 -0.03483466]