[-0.01802152  0.12373193  0.0800287  -0.01050385 -0.05099402 -0.03064077
  0.02460627 -0.12590943  0.09084823  0.04139626  0.3203741  -0.05789942
 -0.23910442 -0.14634572 -0.05020085  0.10338855 -0.14919315 -0.05824968
 -0.16560249  0.00260589  0.05268271  0.00202217  0.05762868 -0.01000797
 -0.09222504 -0.29476973 -0.06411029 -0.06075434  0.02411952 -0.13083738
  0.00585528  0.06481316 -0.20346394 -0.11739665 -0.01064799  0.03617372
 -0.06444867 -0.03538206  0.16225986  0.01667304 -0.17589124  0.07301744
  0.03603848  0.23543207  0.2844401   0.02584681 -0.04900621 -0.0848493
  0.07865199 -0.26073238  0.03582465  0.1506803   0.14183016  0.05987127
  0.10298399 -0.06206435 -0.04196805  0.10451078 -0.16770492 -0.02172974
  0.021049   -0.07852283 -0.0240853  -0.14587222  0.05187432  0.08757489
 -0.056027   -0.08414402  0.10969537 -0.14054804 -0.08063868  0.08137157
 -0.08892401 -0.15965085 -0.32590607  0.02725801  0.31256747  0.10288467
 -0.23323298 -0.04371    -0.02977736 -0.01695857  0.04629418 -0.02383944
 -0.03882115 -0.0103018  -0.09915829  0.00711753  0.14222288 -0.09055005
 -0.01113435  0.23405202 -0.04555621 -0.00424791  0.06935804  0.00674737
 -0.02318178  0.03815677 -0.18184182  0.00992876  0.03535842 -0.10351963
  0.00164076  0.02817584 -0.12749808  0.06906183  0.03136069 -0.01686179
  0.0218435  -0.10547465 -0.08860726  0.0020399   0.19990486 -0.23710643
  0.24517737  0.16062294 -0.05804191  0.04856097  0.06258973  0.06437872
 -0.07060873 -0.02864935 -0.08607406 -0.07941196  0.06401145 -0.01655024
  0.0280276  -0.03178215]