[-5.42851277e-02  1.29635125e-01  1.13295235e-01  2.21009068e-02
  2.97177415e-02 -7.83604309e-02  4.24772687e-02 -1.31588504e-01
  9.36356485e-02 -9.68310423e-03  3.51163983e-01 -6.97023571e-02
 -2.32767373e-01 -1.88434005e-01  3.41376592e-03  1.57555565e-01
 -1.82934612e-01 -4.85353135e-02 -7.65250772e-02  1.84175968e-02
  1.43981501e-02 -9.47350077e-03  8.74531865e-02  3.07465438e-02
 -2.85126921e-02 -3.15508038e-01 -8.18657875e-02 -1.19551651e-01
  1.52604496e-02 -4.90535125e-02 -6.81935996e-02  9.72919911e-02
 -1.36929944e-01 -8.18217993e-02  1.98811032e-02 -5.24010370e-03
 -4.95708967e-03 -2.02318225e-02  2.07572103e-01 -4.17677015e-02
 -1.40640065e-01 -5.46556106e-03  4.81744949e-03  2.59818941e-01
  2.48948917e-01  1.47902491e-02 -2.97248899e-03 -1.01991974e-01
  4.86778803e-02 -1.63982198e-01  3.41993161e-02  1.13508694e-01
  1.18878685e-01  2.29402538e-02  1.90796033e-02 -1.28031358e-01
 -4.64086793e-02  6.51951656e-02 -1.44111022e-01 -3.06380969e-02
  9.65071190e-03 -9.95791480e-02 -6.02517910e-02 -5.40523008e-02
  1.60312817e-01  8.40744898e-02 -8.15516263e-02 -1.37876198e-01
  1.44333377e-01 -1.15215354e-01 -4.90372628e-02  6.69337958e-02
 -1.79177567e-01 -1.56300426e-01 -2.85099715e-01  1.98953506e-02
  2.96347350e-01  5.03959060e-02 -2.34077841e-01 -1.75225514e-03
 -7.88654834e-02 -9.94447526e-03  9.58759487e-02  6.65720925e-02
 -4.60199155e-02 -1.41531900e-02 -1.15655534e-01 -7.78581962e-05
  1.36453509e-01 -1.06993370e-01 -5.87524064e-02  1.95084974e-01
 -6.19848557e-02 -4.67247609e-03  4.43389453e-02 -4.51321602e-02
  4.77591380e-02  6.93291873e-02 -1.93527818e-01 -1.80785637e-02
  7.79610425e-02 -7.27569982e-02 -1.83622800e-02  8.32093880e-02
 -1.96264461e-01  2.08410621e-02  4.46002744e-02  8.21827259e-03
  6.66445270e-02 -8.28547701e-02 -1.02746144e-01 -3.21082883e-02
  1.78859234e-01 -2.12288141e-01  2.27764115e-01  1.64860234e-01
  2.25984752e-02  8.14899728e-02  4.11173217e-02  7.58118853e-02
 -2.74974909e-02 -5.39542995e-02 -1.44635499e-01 -5.68650803e-03
  1.39732704e-01  3.08388676e-02  6.91913888e-02 -3.09348684e-02]