[-3.72569561e-02  1.34895831e-01  8.84647891e-02  1.48751680e-02
  2.30486225e-02 -6.52162582e-02  4.23548333e-02 -1.24226533e-01
  1.04771160e-01 -5.61631611e-03  3.36537451e-01 -6.24246597e-02
 -2.33354092e-01 -1.49218142e-01 -9.88100842e-03  1.57859415e-01
 -1.88220426e-01 -1.78003516e-02 -8.62654001e-02  1.36503745e-02
  3.06943115e-02 -8.67455918e-03  9.04372633e-02  4.10225019e-02
 -2.01488212e-02 -2.92919755e-01 -8.01334158e-02 -1.08173184e-01
  6.50839368e-03 -4.38907668e-02 -5.65575659e-02  9.23615471e-02
 -1.34572342e-01 -7.39577413e-02  2.49748360e-02 -8.69710092e-03
 -8.53222888e-03 -4.06962745e-02  1.99680254e-01 -3.96638438e-02
 -1.13937698e-01  4.11632145e-03  7.99627136e-03  2.44884253e-01
  2.39138171e-01  1.08978720e-02 -8.17155000e-03 -1.06116414e-01
  4.08808403e-02 -1.65155858e-01  2.37654597e-02  1.04642190e-01
  8.04112628e-02  2.42592134e-02  2.86040660e-02 -1.40413865e-01
 -2.83421911e-02  6.66500181e-02 -1.43320560e-01 -4.14701402e-02
 -2.87721003e-03 -8.54689032e-02 -6.84407949e-02 -5.38878702e-02
  1.57071218e-01  1.09613433e-01 -7.74053261e-02 -1.38429001e-01
  1.38628408e-01 -1.13325946e-01 -4.97373641e-02  3.79486978e-02
 -1.80028796e-01 -1.56852603e-01 -2.73027182e-01  9.25836898e-03
  3.06637734e-01  6.21285811e-02 -2.29467019e-01  2.04026736e-02
 -6.18640147e-02 -7.40152970e-03  1.16581991e-01  6.72784299e-02
 -4.76356298e-02 -1.04668913e-02 -1.01210117e-01  1.77340508e-02
  1.24666832e-01 -1.00126758e-01 -7.13250265e-02  2.06357718e-01
 -6.36716038e-02 -9.52032395e-03  5.63653708e-02 -6.01573698e-02
  5.60329743e-02  6.71983957e-02 -2.07059965e-01 -1.11874724e-02
  8.10619220e-02 -7.81811848e-02 -2.14106236e-02  7.59713426e-02
 -1.96868047e-01 -8.78103092e-05  5.15270904e-02  2.96546053e-03
  6.21694326e-02 -7.84563944e-02 -1.29906371e-01 -9.96762700e-03
  1.85916930e-01 -2.18695268e-01  2.40224943e-01  1.56375229e-01
  1.87496450e-02  8.16219673e-02  5.02784550e-02  7.58856162e-02
 -6.21870672e-03 -4.56322208e-02 -1.43878549e-01 -1.65034831e-03
  1.32963926e-01  3.61843966e-02  6.80858120e-02 -2.97016148e-02]