[-0.0048187   0.09224366  0.02629653  0.01103686 -0.06633135 -0.07290972
  0.00704687 -0.13369815  0.07702737 -0.00385283  0.32024616 -0.03590355
 -0.18120113 -0.17887028 -0.0276852   0.09586596 -0.13174151 -0.02900787
 -0.10279303  0.00865968  0.01753237 -0.0616453   0.09872829  0.01469685
 -0.02450111 -0.31357256 -0.06168322 -0.05260352  0.07506412 -0.11419737
 -0.01349693  0.14648977 -0.17898555 -0.10856332  0.02393449  0.0997762
 -0.06969554 -0.02364356  0.21339202  0.00221928 -0.13584085  0.05565459
  0.00943785  0.26137468  0.29278174  0.00548098 -0.01775922 -0.05732222
  0.15946904 -0.20303969  0.00569365  0.16602926  0.13100858  0.04081517
  0.05552248 -0.04142236  0.02135403  0.11601641 -0.18998681 -0.01484662
  0.01460085 -0.0948445  -0.05241508 -0.08071736  0.1071433   0.11144476
 -0.05224708 -0.10428878  0.13639495 -0.14292859 -0.05618089  0.07152573
 -0.15716597 -0.15998645 -0.241814    0.02238209  0.31664053  0.11971021
 -0.17902651  0.00658941 -0.01380616 -0.04510512  0.05777175  0.03689982
 -0.04596286 -0.02354077 -0.09434022  0.00871359  0.13754642 -0.06425919
 -0.04209723  0.21515591 -0.05004736  0.03206598  0.06795751 -0.0405824
 -0.02050522  0.0356691  -0.20050657 -0.06437702  0.05755821 -0.15492046
  0.01996381  0.03962712 -0.15503621  0.08286773 -0.00900071  0.06776049
  0.06951359 -0.08775469 -0.06777439  0.01072314  0.15645561 -0.20903094
  0.28905833  0.14545155 -0.00212293  0.04811006  0.07657131  0.0643983
 -0.01545099 -0.04292873 -0.06887966 -0.07127123  0.03149281  0.01439929
  0.04761311 -0.05801351]