[-0.05093858  0.14017378  0.06352939 -0.04219675 -0.06311168 -0.02342713
  0.03267696 -0.13067567  0.10168596  0.04736547  0.28289396 -0.05894667
 -0.23341596 -0.15493666 -0.05974659  0.12050413 -0.14357436 -0.10667471
 -0.15705305 -0.03303284  0.03942801  0.0137311   0.00265481 -0.00101338
 -0.08089843 -0.30032244 -0.05827371 -0.05725992  0.03563644 -0.14877479
  0.01632829  0.06975584 -0.19917703 -0.09671257 -0.00726649  0.03948961
 -0.0600524  -0.05375781  0.14954993  0.03069224 -0.17373756  0.06036457
  0.06736068  0.25788307  0.24946748  0.03784823 -0.04740094 -0.07716373
  0.08139315 -0.21286109  0.06040428  0.15889408  0.13979846  0.05835265
  0.11048277 -0.08265544 -0.05031724  0.08090954 -0.18343084 -0.01901048
  0.04799628 -0.07086431 -0.05945907 -0.17862314  0.06835096  0.10704094
 -0.0531594  -0.11161344  0.11667857 -0.14790188 -0.09848813  0.05495811
 -0.08679768 -0.12517634 -0.31910571  0.05271364  0.29952177  0.12632416
 -0.20961659 -0.03868292 -0.01292527 -0.00697522  0.06188793 -0.02400084
 -0.07175041 -0.00738316 -0.08434302 -0.00880618  0.13043967 -0.04230927
 -0.03400035  0.19393876 -0.05303996 -0.02395429  0.04123967 -0.01302605
 -0.04186722  0.04543727 -0.15002485 -0.01132969  0.04341243 -0.09256843
  0.01495603  0.05496613 -0.11195868  0.06279612  0.0418749   0.00617706
  0.01034815 -0.0528002  -0.10621687 -0.01877685  0.17473793 -0.22840829
  0.25131917  0.1448731  -0.04780803  0.03920843  0.08735153  0.08090312
 -0.06389491 -0.02757295 -0.08419012 -0.08248186  0.08431794 -0.01118276
  0.05159518 -0.00944189]