[ 0.01644616  0.09838331  0.01220235 -0.02185552 -0.0440785  -0.09528883
  0.01508992 -0.13354675  0.07109546 -0.00088649  0.25249434 -0.02313655
 -0.21581224 -0.16650468 -0.01864742  0.08433469 -0.152649   -0.05663135
 -0.10930152 -0.01524427  0.05868272  0.01353935  0.10027599  0.01211699
 -0.03879183 -0.30936494 -0.08718067 -0.06349106  0.0536775  -0.07294511
 -0.00920197  0.11972962 -0.17146701 -0.10143375  0.04382027  0.02439268
 -0.08878862 -0.0478779   0.19612128  0.0282224  -0.14011893  0.03532712
  0.00368886  0.26533186  0.28337517  0.01486716  0.0051835  -0.07284287
  0.07079231 -0.21062224  0.04147982  0.16301383  0.12727553  0.01317993
  0.10685444 -0.06668954 -0.02911769  0.12358709 -0.14254682 -0.03601478
  0.00579149 -0.05727052 -0.05370056 -0.11090183  0.08657745  0.08456133
 -0.05238191 -0.1036851   0.14361048 -0.1477472  -0.11431042  0.04067215
 -0.12020198 -0.14056812 -0.24505885 -0.01902375  0.27917033  0.11926775
 -0.1891624   0.0051375  -0.0571082  -0.01005201  0.07513501 -0.03753468
 -0.09464949 -0.02085134 -0.09722914  0.00505479  0.14372118 -0.07933239
 -0.06327812  0.19975983 -0.04942071 -0.00502357  0.07510217 -0.06347635
 -0.01075166  0.05498183 -0.20635369 -0.05541198  0.09261899 -0.1479114
 -0.00657869  0.0973905  -0.19365273  0.0617187   0.01676744  0.00517766
  0.06140711 -0.08413523 -0.14059368  0.01663845  0.16064885 -0.21175277
  0.25412229  0.17508115 -0.01196691  0.05967216  0.0822826   0.02363427
 -0.03470476 -0.08203139 -0.13508786 -0.0861164   0.09972175  0.05116886
  0.032028   -0.04411213]