[-0.00681508  0.1357733   0.08216239 -0.01589381 -0.05790384 -0.00482176
  0.00838601 -0.12154462  0.08927606  0.05263646  0.31657317 -0.05668018
 -0.25191554 -0.12223633 -0.0657355   0.09618099 -0.13851483 -0.05555679
 -0.15832241  0.01305347  0.04206584  0.00603102  0.05132091 -0.01307107
 -0.08677856 -0.2905657  -0.06086746 -0.06585967  0.00607854 -0.13196771
  0.01602495  0.0662241  -0.20129943 -0.09534645 -0.01935146  0.01872798
 -0.06744695 -0.04589623  0.15657403  0.01973774 -0.17018084  0.06366283
  0.03116956  0.22781491  0.26682672  0.02471565 -0.0419993  -0.08456588
  0.05547458 -0.25744921  0.03973653  0.16326387  0.13184662  0.06582075
  0.08434013 -0.07415164 -0.03260319  0.1006624  -0.164396   -0.03173174
  0.02257666 -0.05777466 -0.02317461 -0.14155124  0.06952368  0.11044919
 -0.04596951 -0.09333316  0.10775005 -0.13771091 -0.09048654  0.06991456
 -0.10069337 -0.16039315 -0.31030169  0.03430487  0.30161309  0.10577487
 -0.23018597 -0.03899446 -0.04563954 -0.00827635  0.04129347 -0.045713
 -0.04904562 -0.01964203 -0.0888684  -0.00520199  0.15865491 -0.09365029
 -0.01764584  0.21936372 -0.04189842 -0.02960731  0.07353016 -0.0116988
 -0.00254481  0.04354628 -0.18224888  0.01806284  0.01616533 -0.10660639
 -0.00846493  0.03038822 -0.14827496  0.06272067  0.04487615 -0.03710822
  0.02809191 -0.09435716 -0.10418918 -0.00691244  0.22018845 -0.24057637
  0.26084706  0.15140948 -0.03214608  0.05541193  0.07131699  0.08231919
 -0.07087965 -0.02639972 -0.07762522 -0.08468746  0.07798533 -0.00947343
  0.01670725 -0.02715162]