[-3.37099209e-02  1.45928964e-01  8.90098959e-02  6.67248678e-04
  2.70463824e-02 -6.33589178e-02  4.18970920e-02 -1.38651475e-01
  1.11950994e-01 -8.76286160e-03  3.26424628e-01 -6.03073612e-02
 -2.32589528e-01 -1.56790629e-01 -9.79892723e-03  1.60351276e-01
 -1.81418642e-01 -2.41001081e-02 -9.05800462e-02  1.00784032e-02
  2.58106422e-02 -6.78638136e-03  8.90592039e-02  4.31470871e-02
 -8.44305195e-03 -2.93253720e-01 -7.51774833e-02 -9.37338471e-02
  8.82099383e-03 -3.45258377e-02 -5.86484559e-02  7.88169727e-02
 -1.47169620e-01 -8.33233669e-02  2.41595637e-02  4.62145370e-04
 -1.70214977e-02 -4.87728417e-02  1.99757382e-01 -4.11585458e-02
 -1.17486238e-01  2.22497638e-02  1.14867110e-02  2.37717852e-01
  2.42965132e-01  1.33730248e-02 -2.16030958e-03 -1.22862555e-01
  6.35271966e-02 -1.56707451e-01  3.30496505e-02  1.01612881e-01
  8.15650746e-02  2.10815370e-02  2.77362224e-02 -1.49031863e-01
 -2.90812552e-02  7.13680387e-02 -1.41631007e-01 -3.84237170e-02
 -1.07174076e-03 -8.67100731e-02 -6.34780079e-02 -5.14050610e-02
  1.53866157e-01  1.08486414e-01 -7.38398060e-02 -1.48285881e-01
  1.34171039e-01 -1.16799012e-01 -4.47038524e-02  4.17338982e-02
 -1.77024826e-01 -1.50067553e-01 -2.82728285e-01  2.11873967e-02
  3.11531305e-01  6.46025240e-02 -2.32495338e-01  1.63433794e-02
 -5.68799153e-02  7.19979813e-04  1.27901301e-01  8.48302469e-02
 -4.54288237e-02 -1.34677980e-02 -1.06077366e-01  8.31584353e-03
  1.30891919e-01 -9.57710668e-02 -8.53757635e-02  2.11475044e-01
 -5.49549647e-02  2.05818820e-03  5.05820215e-02 -5.62827885e-02
  3.72799151e-02  6.76643401e-02 -2.08634540e-01 -2.01909747e-02
  8.22801888e-02 -5.98713420e-02 -1.76729001e-02  8.49207416e-02
 -1.88765690e-01  5.44390362e-03  4.33268771e-02  1.11896908e-02
  6.28684163e-02 -7.75561929e-02 -1.15729682e-01 -2.16260646e-02
  1.72667667e-01 -2.08945349e-01  2.37672806e-01  1.50121123e-01
  1.75782740e-02  8.41311514e-02  5.88577762e-02  7.99401328e-02
  3.66844027e-03 -3.59633826e-02 -1.38003737e-01  2.71400058e-04
  1.33622080e-01  4.47248407e-02  8.61694142e-02 -2.64232941e-02]