[-1.78286806e-04  1.51570544e-01  6.45230636e-02 -2.64943987e-02
 -4.67747413e-02 -6.97670430e-02  2.03728843e-02 -1.43756464e-01
  5.92194162e-02  7.84344450e-02  3.40902060e-01 -5.73383868e-02
 -2.35388875e-01 -1.38442665e-01 -3.39898467e-02  7.59694576e-02
 -1.49242282e-01 -4.78396788e-02 -1.24609962e-01  1.45747885e-02
  7.07050860e-02 -8.76501668e-03  8.06089267e-02  4.99109086e-03
 -7.38708600e-02 -2.52434999e-01 -7.23893270e-02 -4.75014262e-02
  4.77726497e-02 -1.21691719e-01  3.41762230e-02  9.57361162e-02
 -2.09085271e-01 -9.85110924e-02  2.37195771e-02  3.78442518e-02
 -7.00054690e-02 -8.11408162e-02  1.96536437e-01 -3.39840422e-03
 -1.28479898e-01  6.25312254e-02  2.96744537e-02  2.44335130e-01
  2.72068888e-01 -4.03846204e-02 -8.34794343e-03 -9.35418010e-02
  7.12856203e-02 -2.18894869e-01  4.16574404e-02  1.59309506e-01
  1.60292730e-01  5.40109649e-02  6.80739284e-02 -7.61804879e-02
 -3.73387453e-03  1.19146742e-01 -1.74041912e-01 -1.00511899e-02
  2.07589027e-02 -7.80314729e-02 -5.96603863e-02 -1.27036065e-01
  8.14154744e-02  1.02136396e-01 -6.70334026e-02 -1.14408031e-01
  1.00484990e-01 -1.00535206e-01 -1.04907446e-01  9.39525515e-02
 -1.42632931e-01 -1.48101553e-01 -2.80716628e-01  2.12924276e-02
  3.23721200e-01  6.22196868e-02 -2.59676129e-01  1.81288738e-02
 -3.13817263e-02 -1.88778508e-02  4.02200930e-02  1.52045339e-02
 -5.40000573e-02 -2.34865816e-03 -1.02060013e-01  4.32979278e-02
  1.54703051e-01 -1.03213489e-01 -6.57957718e-02  2.27365762e-01
 -4.22071926e-02  1.18290745e-02  8.78681093e-02 -3.76002900e-02
  3.72732691e-02  3.16472501e-02 -1.69171691e-01 -9.79715399e-03
  5.38618341e-02 -1.26951799e-01 -3.56271565e-02  4.88732271e-02
 -1.48155421e-01  6.19694181e-02  6.12429976e-02  9.24120564e-03
  3.76931056e-02 -1.28738001e-01 -7.89211914e-02  1.71971601e-02
  1.83221310e-01 -2.70990044e-01  2.81800032e-01  1.31235167e-01
 -3.27486470e-02  3.87282781e-02  5.30379303e-02  5.83693087e-02
 -8.63798894e-03 -2.69108955e-02 -7.19287619e-02 -5.44860736e-02
  7.61923417e-02  1.34355994e-02  3.85861956e-02 -4.13087085e-02]