[-0.00522487  0.13817482  0.07892346 -0.03891879 -0.02324867 -0.03269901
  0.03729612 -0.14913408  0.06750935  0.03298258  0.35267538 -0.06619807
 -0.25551221 -0.17577316 -0.01976356  0.10993496 -0.13255039 -0.04934048
 -0.12224092  0.0246511   0.06399079 -0.01711452  0.06147345 -0.00174423
 -0.06279614 -0.32023403 -0.09042325 -0.05132877  0.02484417 -0.09512748
  0.01487028  0.11002075 -0.14973874 -0.08227178  0.00187024  0.0145288
 -0.06795218 -0.08334778  0.18465745 -0.01998856 -0.16242705  0.0479799
  0.01840306  0.24039893  0.22572236 -0.01944513  0.01561543 -0.07739846
  0.06420376 -0.21783201  0.05973042  0.13823424  0.14824609  0.04517398
  0.08470935 -0.08891537 -0.01394883  0.10865686 -0.19852005 -0.03579427
  0.00415325 -0.06154476 -0.04586562 -0.11538257  0.08096579  0.12885037
 -0.07177719 -0.11150523  0.12816331 -0.09910015 -0.07371113  0.06077653
 -0.16127959 -0.17979422 -0.28818789  0.05548301  0.30733261  0.11588138
 -0.24950726 -0.0074573  -0.02949555  0.00334438  0.08133679  0.01038397
 -0.06115216  0.00173509 -0.10031074  0.01455447  0.11823895 -0.09437126
 -0.0860467   0.25081596 -0.02932539  0.00308421  0.08157909 -0.02594106
  0.03172724  0.04945747 -0.18289784  0.00073247  0.08459689 -0.09924861
 -0.01169427  0.0697187  -0.14472227  0.08356973  0.04901791  0.0244968
  0.05214306 -0.09188213 -0.09674168 -0.0101783   0.16876107 -0.24691664
  0.22117114  0.14332354 -0.01109269  0.06403399  0.08353183  0.05348373
 -0.00563405 -0.06623275 -0.10658486 -0.04683368  0.12719865  0.02616903
  0.03303198 -0.02612947]