[ 0.00861529  0.09289013  0.0284817   0.01345824 -0.05765809 -0.05202641
  0.00934575 -0.11915036  0.08863106 -0.01439207  0.33067456 -0.04732884
 -0.19264168 -0.16276026 -0.02380586  0.11077296 -0.1594954  -0.01814435
 -0.11741848  0.00648901  0.00651718 -0.03925553  0.08135206 -0.01431268
 -0.03160072 -0.29723275 -0.04856591 -0.05764377  0.07044922 -0.11513219
 -0.02849144  0.15299647 -0.18013698 -0.11283982  0.02950249  0.08278873
 -0.07987741 -0.00897675  0.21506195  0.01070317 -0.13509248  0.07126611
  0.01505032  0.2527878   0.28745455  0.00250507 -0.02799425 -0.0737938
  0.14469139 -0.21071744 -0.00138103  0.17141947  0.13109456  0.05565256
  0.05774496 -0.04994109  0.00974183  0.10669491 -0.15857252 -0.00747778
  0.05970719 -0.0927153  -0.04331483 -0.07485665  0.09340148  0.07652366
 -0.05339826 -0.10366678  0.12994789 -0.12505947 -0.06861813  0.06759273
 -0.14091903 -0.16966057 -0.25263295  0.02227954  0.29309464  0.11509078
 -0.18942262 -0.00235514 -0.00618608 -0.04966265  0.07867488  0.0358023
 -0.03791409 -0.03044078 -0.08879445  0.00831287  0.14826655 -0.06770699
 -0.02557676  0.21308342 -0.04410723  0.02199185  0.06260765 -0.03947833
 -0.01068847  0.02536301 -0.21920863 -0.04247669  0.04190611 -0.15760441
 -0.00140877  0.04671461 -0.14407071  0.08844922 -0.0081119   0.04991714
  0.04970202 -0.09625981 -0.06654947  0.03183933  0.1656718  -0.20226903
  0.27862284  0.14795738  0.00688309  0.04077343  0.08782905  0.06290565
 -0.02655449 -0.03566694 -0.10023226 -0.08856776  0.02833283  0.01872571
  0.04044771 -0.05388553]