[ 0.04508894  0.11808106  0.04455292  0.00199572 -0.00993718 -0.09040384
  0.02027885 -0.13905579  0.09069769 -0.0438925   0.29892278 -0.04048277
 -0.20187436 -0.15705609  0.00093771  0.11250564 -0.15202561 -0.06249962
 -0.10366161  0.00551443  0.05529146  0.000879    0.09154618  0.00545184
 -0.00125707 -0.34394774 -0.0937371  -0.05840695  0.05411322 -0.05276146
 -0.01146311  0.10248798 -0.16241695 -0.09758585  0.03499919  0.01912255
 -0.09243643 -0.06512734  0.21375297  0.00495431 -0.12750849  0.04631744
 -0.01906705  0.27008113  0.28391299  0.01359773  0.0261408  -0.10679989
  0.05864096 -0.19443329  0.02255497  0.14022028  0.07695602  0.03497096
  0.06916516 -0.05016631 -0.03106114  0.11343952 -0.13996296 -0.04293483
  0.01381052 -0.07386348 -0.07207637 -0.09467004  0.12811418  0.0764496
 -0.05858624 -0.13063191  0.13408904 -0.15212071 -0.12658253  0.02706236
 -0.15039533 -0.13528259 -0.26483935  0.00593365  0.32809287  0.0863028
 -0.18066411  0.02842541 -0.03409985 -0.00855605  0.11424883  0.02190121
 -0.05140339 -0.03993817 -0.09174556  0.02873983  0.15946467 -0.09444702
 -0.08893899  0.18667673 -0.07433451  0.01326972  0.06201285 -0.05544527
  0.02906057  0.07861305 -0.22423363 -0.051718    0.10781608 -0.08619414
 -0.01572832  0.10403869 -0.18102799  0.05577136  0.00976437  0.01841731
  0.10764796 -0.08314641 -0.14517535 -0.00212232  0.16187382 -0.20855497
  0.24106602  0.17802988  0.01507732  0.05315411  0.08202364  0.03907873
 -0.010096   -0.06402731 -0.19239599 -0.05181951  0.09818132  0.10098498
  0.04033619 -0.05315852]