[ 0.00430438  0.14656743  0.0824162  -0.0078873  -0.06603973 -0.06720354
  0.00311908 -0.14271335  0.07460947  0.07278905  0.33284751 -0.03734453
 -0.22312434 -0.14592767 -0.03524604  0.07073592 -0.12597455 -0.03784799
 -0.10688479  0.02786715  0.0512579   0.00596525  0.10052557  0.00548902
 -0.06149521 -0.26807266 -0.08756801 -0.06256371  0.0589394  -0.13227898
  0.02022013  0.08101282 -0.2130882  -0.11917701  0.00920699  0.01749856
 -0.0790499  -0.0794461   0.18488905  0.00084703 -0.13939892  0.05179362
  0.01693511  0.22068147  0.26038539 -0.02642424 -0.00271083 -0.09665327
  0.06735732 -0.20213218  0.0621872   0.14900266  0.17233387  0.04863284
  0.07664724 -0.08313041 -0.01344235  0.12407704 -0.17564671 -0.00574243
  0.00765611 -0.04558241 -0.04945872 -0.11069816  0.07669937  0.10488708
 -0.04560891 -0.11742747  0.10878678 -0.1129026  -0.09160198  0.11086386
 -0.13055685 -0.15217327 -0.27470919  0.0197422   0.30296549  0.06598661
 -0.25234866  0.00176575 -0.04500065 -0.02539057  0.01154454  0.00924121
 -0.0444795  -0.00982678 -0.08966761  0.01381796  0.13568938 -0.09930735
 -0.05102951  0.23255788 -0.03605521  0.01137239  0.08290805 -0.03650258
  0.02501234  0.03674808 -0.15247859 -0.01510346  0.04154192 -0.1148045
 -0.03748283  0.04584856 -0.16110969  0.06979354  0.05890104 -0.00094645
  0.0490102  -0.120635   -0.07359978 -0.00056616  0.18812208 -0.2720201
  0.28729582  0.12327095 -0.04368667  0.05486294  0.03704668  0.07150202
 -0.01648902 -0.04336043 -0.06455829 -0.05709605  0.07658607 -0.01711928
  0.01530649 -0.03738169]