[-0.01249539  0.06821098 -0.00245368 -0.00159411 -0.02085794 -0.07877872
  0.00049129 -0.13441712  0.07286154 -0.00915833  0.24577916 -0.04834202
 -0.15621534 -0.16163953 -0.02413898  0.10743042 -0.1694368  -0.07343365
 -0.09755116  0.01313327  0.02278823 -0.04035254  0.05054665  0.01598872
 -0.01364852 -0.30701578 -0.08130962 -0.06016129  0.0478961  -0.04235942
 -0.00287803  0.14518927 -0.21153715 -0.08080059  0.03775859  0.08048429
 -0.04327385 -0.02358571  0.18326937  0.01684671 -0.14366026  0.04644252
  0.02627482  0.24961916  0.28330636  0.00205995 -0.00516944 -0.09271769
  0.14708994 -0.15517284  0.00156099  0.16118503  0.12058508  0.04742157
  0.03301671 -0.0588536   0.02936175  0.09650077 -0.15227304 -0.02831618
  0.01198534 -0.09031591 -0.06664975 -0.08028927  0.09586532  0.0823256
 -0.04126524 -0.15722571  0.14226259 -0.14569494 -0.0727423   0.0646525
 -0.1448584  -0.1383726  -0.27474576 -0.00760398  0.32572776  0.0632481
 -0.17555046  0.04684805 -0.02127675 -0.04815802  0.09539651  0.06665307
 -0.04897658 -0.009245   -0.09479388  0.00517871  0.17929183 -0.05882275
 -0.04130589  0.15744661 -0.06418236  0.00854089  0.05900915 -0.02968265
  0.00346105  0.05585901 -0.18776971 -0.06298297  0.05126022 -0.1182863
 -0.02029721  0.06115639 -0.15797374  0.07358976  0.01600259  0.05595503
  0.05384994 -0.09540533 -0.07048308  0.00850369  0.13802005 -0.19864368
  0.24213028  0.13384388 -0.01043551  0.05512937  0.06155552  0.08454907
 -0.04842804 -0.04296259 -0.14603357 -0.05346486  0.0553482   0.06275328
  0.03051234 -0.05130511]