[-0.01128546  0.15991555  0.08155986 -0.00344263 -0.03511354 -0.05934555
  0.01520366 -0.14480384  0.08474982  0.06505839  0.35202798 -0.04831326
 -0.23284927 -0.14985268 -0.04143779  0.08615104 -0.14640872 -0.03823239
 -0.11650535  0.01936772  0.06001768  0.00564245  0.09170382 -0.00440925
 -0.06623277 -0.27861893 -0.07516658 -0.06937965  0.04388093 -0.11866033
  0.01929971  0.08452947 -0.20145254 -0.11103787  0.00988583  0.01460065
 -0.05164678 -0.06100744  0.18303417  0.00582094 -0.13544987  0.06040948
  0.01876613  0.23236142  0.26755413 -0.02917408 -0.00629735 -0.11011507
  0.05861271 -0.20201874  0.04252752  0.14784609  0.15680675  0.04777853
  0.07634123 -0.07622634 -0.02620331  0.10579993 -0.16298319 -0.00933908
  0.02650663 -0.05678018 -0.04994664 -0.11169276  0.08042883  0.09450936
 -0.05728685 -0.11920436  0.10103311 -0.10622168 -0.09410433  0.10013898
 -0.13393207 -0.15165405 -0.28719342  0.02738076  0.31771129  0.06703337
 -0.24649711  0.01156706 -0.05773484 -0.01992397  0.03434415  0.0130722
 -0.04200065 -0.00781525 -0.08826514  0.0184349   0.14054559 -0.08942839
 -0.05996189  0.234929   -0.05543212  0.01275993  0.07726248 -0.03765416
  0.02782248  0.03864648 -0.15654117 -0.0155905   0.03674641 -0.113117
 -0.02501892  0.0419203  -0.15887158  0.04854258  0.05094453  0.01237197
  0.05720714 -0.10680538 -0.0748096   0.0079891   0.18808271 -0.27116853
  0.27915716  0.12859417 -0.0319392   0.0482326   0.05424064  0.06919339
 -0.02072927 -0.02778094 -0.07204919 -0.04867277  0.07258854 -0.00143173
  0.03042036 -0.0405807 ]