[-3.47598153e-03  1.19520955e-01  9.08006728e-02 -1.17535854e-03
 -5.90101480e-02 -2.37229522e-02  1.97939817e-02 -1.31437197e-01
  7.60614201e-02  5.45807593e-02  3.21216077e-01 -3.48567739e-02
 -2.31645212e-01 -1.39566854e-01 -4.69386540e-02  9.68708321e-02
 -1.31504714e-01 -6.66671246e-02 -1.52990982e-01  2.49696001e-02
  4.21044119e-02  1.85328536e-05  4.91556488e-02 -1.82726271e-02
 -9.34429690e-02 -2.81507969e-01 -5.89849018e-02 -5.42612672e-02
  2.31297743e-02 -1.27377331e-01  8.81219003e-03  7.72612318e-02
 -2.16208503e-01 -1.11914091e-01 -5.67225832e-03  2.71864720e-02
 -6.57811388e-02 -4.47449796e-02  1.63308650e-01  1.21875769e-02
 -1.74905643e-01  7.76991695e-02  4.27053496e-02  2.31498599e-01
  2.70011634e-01  1.75317954e-02 -3.86306830e-02 -6.92191347e-02
  6.83915690e-02 -2.68048495e-01  4.70383540e-02  1.44633815e-01
  1.43122420e-01  7.03326985e-02  9.55645666e-02 -8.87563527e-02
 -3.72972079e-02  1.00534558e-01 -1.71431229e-01 -8.01789016e-03
  6.78560464e-03 -6.26793951e-02 -2.03780811e-02 -1.51134476e-01
  5.89252524e-02  9.19952393e-02 -4.44945768e-02 -8.43998194e-02
  1.10013567e-01 -1.30063221e-01 -8.22147951e-02  7.39898533e-02
 -1.02658741e-01 -1.64099023e-01 -3.19092244e-01  3.79430614e-02
  2.84988642e-01  1.10571854e-01 -2.45255858e-01 -3.14956643e-02
 -1.98165756e-02 -7.67750759e-03  3.01917288e-02 -3.97342108e-02
 -2.14355085e-02 -7.20850239e-03 -8.79189521e-02 -3.84915061e-03
  1.55692399e-01 -8.68321657e-02 -1.20402221e-02  2.37177163e-01
 -4.62835245e-02 -3.06001306e-02  7.19956383e-02 -3.04328022e-03
  2.84570473e-04  3.38421874e-02 -1.90762624e-01  1.24098770e-02
  2.37014387e-02 -1.08416513e-01  7.58200913e-05  4.19838242e-02
 -1.45245284e-01  6.47343025e-02  3.32294330e-02 -1.73886325e-02
  2.54827328e-02 -9.49047953e-02 -9.52245966e-02 -4.16157488e-03
  1.97841242e-01 -2.42614821e-01  2.78426856e-01  1.58023074e-01
 -5.25892638e-02  4.71428297e-02  5.27761541e-02  6.76296130e-02
 -6.34643734e-02 -2.18114443e-02 -7.19010010e-02 -9.21630487e-02
  7.21603408e-02 -2.23652907e-02  1.50547372e-02 -1.68288145e-02]