[-0.01069662  0.16592148  0.06957546 -0.02548055 -0.06504978 -0.06974518
  0.02670938 -0.1474003   0.0555324   0.06935281  0.32897809 -0.06040355
 -0.24327879 -0.13666981 -0.02139754  0.0845392  -0.14389601 -0.06510077
 -0.11641389 -0.00179117  0.0694444   0.0083227   0.06311431  0.00973854
 -0.07318141 -0.2748158  -0.07333849 -0.03904297  0.03913717 -0.10837433
  0.02756707  0.11257871 -0.20383203 -0.09874946  0.03423252  0.0464754
 -0.09480286 -0.08322612  0.20494555 -0.01700228 -0.1204037   0.04534702
  0.03841553  0.24913727  0.26907009 -0.05070446  0.00716926 -0.10549425
  0.06426876 -0.19867365  0.03966484  0.17240746  0.1581413   0.07113699
  0.06037858 -0.08997369 -0.0037458   0.1119225  -0.18234001 -0.01749803
  0.01135306 -0.10979567 -0.06215382 -0.12882458  0.09086514  0.08736866
 -0.0542971  -0.1226965   0.12339696 -0.09836383 -0.10461998  0.09633782
 -0.15108351 -0.15400504 -0.27857217  0.01835146  0.32758409  0.06515608
 -0.25372139  0.01751843 -0.02365205 -0.04036192  0.04013023  0.02365599
 -0.05974807 -0.011973   -0.1090403   0.07997473  0.16155069 -0.10421727
 -0.07339501  0.21841004 -0.02925987  0.01729206  0.09591438 -0.02725448
  0.03048232  0.0392129  -0.17124429 -0.01636503  0.06660973 -0.13164514
 -0.03390332  0.06447701 -0.14210692  0.08393833  0.062031    0.01121128
  0.01135138 -0.15286648 -0.07940865  0.02946645  0.19307952 -0.25383648
  0.27746758  0.12253614 -0.03601317  0.06164723  0.04054724  0.0515133
 -0.01681197 -0.06477375 -0.09807934 -0.04132082  0.09186929  0.02078573
  0.05961826 -0.02657056]