[-0.00268485  0.09104268  0.00532308  0.00688005 -0.0410773  -0.05832128
  0.00156547 -0.13703345  0.08977089 -0.0136821   0.25287768 -0.04517111
 -0.15213017 -0.17196569 -0.03474092  0.11430061 -0.16873983 -0.07099348
 -0.10542168  0.01273502  0.02848712 -0.01996392  0.05322976  0.00965465
 -0.02036094 -0.31544405 -0.06443014 -0.05916503  0.0622964  -0.06137956
 -0.01273722  0.15548649 -0.20349483 -0.09324814  0.03718178  0.08671886
 -0.05188744 -0.01898299  0.17972545  0.02434441 -0.14591341  0.06765512
  0.02121713  0.26997688  0.29821476 -0.00294627  0.00052104 -0.11210275
  0.16273667 -0.16257973 -0.00725356  0.16021979  0.11325337  0.04992477
  0.04404674 -0.06164913  0.01474204  0.10262331 -0.15815075 -0.01575532
  0.01631525 -0.09486276 -0.05508679 -0.08254572  0.08901261  0.07519712
 -0.03259495 -0.16024044  0.13785194 -0.15079974 -0.07603033  0.0713287
 -0.14170675 -0.13358763 -0.28689766 -0.017122    0.33366069  0.07166871
 -0.17635754  0.03589145 -0.01739355 -0.04525923  0.1029438   0.07559051
 -0.04135945 -0.02009941 -0.09544136  0.01316326  0.18198632 -0.06318054
 -0.03907725  0.17559958 -0.0509118   0.00823122  0.05194297 -0.03124742
 -0.01436176  0.06119775 -0.19490324 -0.0695338   0.03547176 -0.11321986
 -0.0038127   0.06184703 -0.15567839  0.07963607  0.0115224   0.06621819
  0.05388713 -0.11147118 -0.06454899  0.02123697  0.14877206 -0.20019816
  0.24464107  0.13458763 -0.00209805  0.05723588  0.06631286  0.07418086
 -0.04595256 -0.04764845 -0.13638966 -0.04408419  0.04654375  0.05192083
  0.02923374 -0.05228002]