[-0.06358834  0.1286767   0.09821286  0.00840557  0.01039413 -0.0515818
  0.02191135 -0.11865988  0.09860256 -0.02552922  0.33221677 -0.06987008
 -0.24172702 -0.15411328 -0.03026457  0.16201071 -0.19844618 -0.06253784
 -0.09789046  0.02311861  0.01527092 -0.01369666  0.0648864   0.00199352
 -0.01428877 -0.31405818 -0.07761353 -0.11129134  0.01396641 -0.04652346
 -0.06568519  0.07892009 -0.14211966 -0.09006457  0.02116881  0.00613683
  0.01069026 -0.01104099  0.1882572  -0.03387007 -0.14810382  0.00564115
  0.0194577   0.2578913   0.24661131  0.0389899  -0.02013378 -0.12056019
  0.04997061 -0.16756813  0.01210881  0.11122981  0.10865378  0.03218479
  0.01558927 -0.14086176 -0.03035405  0.07354378 -0.12222202 -0.03747728
  0.02063887 -0.10573924 -0.0527682  -0.06536446  0.17286147  0.07858671
 -0.08189207 -0.14089991  0.1359269  -0.10941105 -0.05033221  0.04759567
 -0.15943357 -0.13215305 -0.28915372 -0.01288571  0.30207697  0.04512138
 -0.23133902 -0.00218385 -0.08377275 -0.00317137  0.10767503  0.06671502
 -0.05511514 -0.00192387 -0.11895126 -0.02262912  0.14849429 -0.1010974
 -0.03763829  0.17736204 -0.06333707  0.00053351  0.05460268 -0.0350195
  0.02009374  0.04916809 -0.20644712 -0.03158025  0.05412355 -0.07762785
 -0.02338515  0.07284934 -0.18448006  0.00547914  0.03692732  0.01736792
  0.05549911 -0.09262546 -0.07660868 -0.02301379  0.19088952 -0.20201325
  0.21513739  0.17573597  0.0141501   0.08520137  0.07632742  0.07660993
 -0.05458989 -0.03767158 -0.1612253  -0.01283562  0.11481988  0.02833056
  0.07464081 -0.03142828]