[ 0.00788186  0.12160456  0.09134553  0.00084399 -0.07264979 -0.02861535
  0.00683796 -0.10120632  0.07685079  0.04568189  0.33015352 -0.0358334
 -0.2425344  -0.11289383 -0.05946574  0.07806187 -0.15185907 -0.02427159
 -0.14801082  0.0259921   0.02846437  0.03440866  0.07523698 -0.03373266
 -0.07916435 -0.28631926 -0.07062433 -0.03134244  0.04677972 -0.14511041
  0.02624971  0.0915573  -0.19709377 -0.13592818  0.00891765  0.03981501
 -0.08739877 -0.0594479   0.19082877  0.03355172 -0.16383296  0.07549502
  0.04750253  0.28181764  0.30047429  0.00201813 -0.06832799 -0.03584706
  0.08899033 -0.27424866  0.05785691  0.14434074  0.19884811  0.0812954
  0.09344122 -0.07269538 -0.02745886  0.14394325 -0.17267157 -0.01256124
  0.0016579  -0.07096157  0.02017606 -0.11168676  0.07829996  0.08074638
 -0.06611679 -0.06706454  0.10380106 -0.11355331 -0.07750958  0.08296349
 -0.11527896 -0.14973837 -0.2971144   0.03105826  0.30308571  0.08799664
 -0.23894067 -0.03586228 -0.01947125 -0.03876543  0.00459797  0.004681
 -0.03220729 -0.02468829 -0.07143808 -0.00369042  0.14279237 -0.08208396
 -0.06019497  0.2470167  -0.03682392 -0.02145864  0.10111891 -0.02368679
 -0.00776266  0.00946646 -0.19202153 -0.009466    0.01700771 -0.14591916
 -0.01907236  0.05097265 -0.14940666  0.10546938  0.05109556  0.00505071
  0.06033385 -0.10492768 -0.07905512  0.00961797  0.213462   -0.26857689
  0.27952728  0.13574491 -0.05488181  0.0682839   0.05383881  0.05988855
 -0.03833246 -0.00517904 -0.04625883 -0.10488887  0.05018861 -0.0206685
  0.04921623 -0.02181258]