[ 0.00259361  0.08984061  0.02240889  0.00969864 -0.06961373 -0.08141517
  0.00360457 -0.11727854  0.07352597 -0.00058266  0.3059473  -0.04315365
 -0.18165387 -0.17148472 -0.02784473  0.09506448 -0.12677841 -0.01723039
 -0.10542623  0.014762    0.01604998 -0.04588622  0.0885455   0.02267819
 -0.02538666 -0.30346927 -0.05625398 -0.06021352  0.07229621 -0.11511207
 -0.03959484  0.15992793 -0.17465073 -0.11690237  0.0279113   0.09791233
 -0.07438615 -0.01298441  0.209005    0.00934532 -0.1350479   0.05406071
  0.00951949  0.25705549  0.30314538 -0.0039127  -0.0150639  -0.05991322
  0.16067539 -0.20966987  0.00376282  0.16734153  0.13437563  0.05038659
  0.05928981 -0.048818    0.01784827  0.11923094 -0.18628937 -0.00230665
  0.01852591 -0.10233861 -0.06063583 -0.07753358  0.10369357  0.10187755
 -0.05127539 -0.10455503  0.14909533 -0.14100921 -0.05792179  0.07518681
 -0.1517437  -0.16168456 -0.23965032  0.02573049  0.29832491  0.12718354
 -0.18520816  0.0170743  -0.01615601 -0.04771869  0.06078162  0.03011793
 -0.04038823 -0.02787593 -0.08966237  0.01655358  0.13469152 -0.06731404
 -0.02887696  0.20824738 -0.04852826  0.03801304  0.07093877 -0.03940525
 -0.02100146  0.03105067 -0.20585883 -0.05322377  0.06518554 -0.16823201
  0.01365839  0.04273406 -0.14934762  0.08642557 -0.0083392   0.06261548
  0.06193825 -0.09836457 -0.06846549  0.02619802  0.16284068 -0.20172083
  0.30033681  0.13324605 -0.00204915  0.04524317  0.07384595  0.05909152
 -0.01442913 -0.0559713  -0.079656   -0.0741213   0.04451353  0.01058492
  0.04188485 -0.05689731]