[-0.01199428  0.05647546  0.01164543  0.00955594 -0.03303962 -0.05835254
  0.0171709  -0.1432388   0.07605115 -0.00718236  0.27362269 -0.06915354
 -0.19592732 -0.17083471 -0.02302094  0.10661799 -0.17198735 -0.04117335
 -0.10808586 -0.00135957  0.01341781 -0.03460468  0.06495129 -0.00121406
 -0.02810066 -0.3113358  -0.07504128 -0.06078402  0.04389711 -0.04501181
 -0.00659188  0.13970415 -0.19524305 -0.07054706  0.03172475  0.09164175
 -0.07486621 -0.00061117  0.19672477  0.02826237 -0.15057196  0.0747667
  0.01491445  0.24851315  0.28322816  0.01991337 -0.02153238 -0.07703954
  0.14999513 -0.1796279  -0.00203071  0.17988443  0.12361373  0.04900017
  0.0427027  -0.03156754  0.00162857  0.1100444  -0.15935548 -0.02424533
  0.02890747 -0.11410582 -0.03550752 -0.07538027  0.09524871  0.09508655
 -0.04491071 -0.14697652  0.12888265 -0.17678244 -0.09123532  0.07711173
 -0.12862642 -0.13424151 -0.28502801 -0.00588836  0.33057043  0.07384279
 -0.16717404  0.00905597 -0.03019448 -0.05882999  0.10036083  0.06287224
 -0.03728896 -0.01102689 -0.09699888 -0.0215964   0.18594666 -0.0785194
 -0.03077447  0.200804   -0.04024236  0.02365796  0.05034508 -0.05857271
 -0.00139902  0.02631103 -0.17615148 -0.07278749  0.01904148 -0.12818044
  0.00946776  0.033454   -0.16517767  0.09818853  0.00553916  0.05117952
  0.04948064 -0.09447124 -0.05432517  0.0229803   0.15086351 -0.23042941
  0.24801686  0.13915689  0.00287633  0.04670622  0.05679754  0.06968504
 -0.06418655 -0.03487797 -0.11309712 -0.07042625  0.03395014  0.05419886
  0.0436454  -0.04873542]