[ 0.0044461   0.09384972  0.024633    0.01100939 -0.06671136 -0.07952235
  0.00860611 -0.12152169  0.07774536  0.00125501  0.30287164 -0.04797367
 -0.19286911 -0.16311528 -0.0260501   0.09327988 -0.13822024 -0.01509412
 -0.10173726  0.00595342  0.0243266  -0.04550683  0.08805379  0.02660287
 -0.02694095 -0.31367141 -0.06347048 -0.05462661  0.07747176 -0.10611802
 -0.03420713  0.15851329 -0.17016526 -0.11773688  0.03009901  0.09503467
 -0.07572336 -0.01951264  0.1923406   0.01276512 -0.13021867  0.06200093
  0.01015933  0.25975564  0.30824992  0.01414573 -0.01617166 -0.07739706
  0.15856938 -0.20278695  0.00252581  0.16798694  0.12132957  0.053928
  0.05916366 -0.05341298  0.01471409  0.11477504 -0.19612394 -0.01026093
  0.01920534 -0.09719118 -0.04914138 -0.0856356   0.09683838  0.10610516
 -0.04854937 -0.10654499  0.15518913 -0.15506671 -0.06035345  0.06762306
 -0.14693421 -0.15717541 -0.23646405  0.02136699  0.30699167  0.12638561
 -0.17072114  0.01380144 -0.01630323 -0.04748263  0.06685961  0.03220202
 -0.04537044 -0.03951703 -0.08375952  0.01247132  0.13472004 -0.0646434
 -0.02794282  0.215009   -0.04749081  0.03599939  0.07888883 -0.03793069
 -0.03362117  0.04531462 -0.20959277 -0.05785269  0.04970783 -0.16982663
  0.02192609  0.03809034 -0.15168187  0.09003428 -0.00201157  0.06230168
  0.06698104 -0.0965298  -0.0739205   0.02384297  0.16524218 -0.21399115
  0.29617658  0.1396209   0.00776012  0.05202115  0.06850381  0.06678791
 -0.01648099 -0.06018054 -0.08177711 -0.06504396  0.04253071  0.00960355
  0.03393216 -0.0573368 ]