[-0.06863824  0.10626385  0.0505667  -0.00227127 -0.03081453 -0.07260094
 -0.02797296 -0.17306763  0.14239186 -0.0501981   0.2289422  -0.00247649
 -0.22134757 -0.13877988  0.02199666  0.15968019 -0.15058313 -0.11181416
 -0.0153494  -0.02589891  0.06890102  0.02564891  0.06300675 -0.00737511
 -0.09847508 -0.34540743 -0.09184318 -0.11345626 -0.00984099 -0.01817979
 -0.02393258  0.05123524 -0.15654281 -0.07522869  0.06101174  0.00855189
 -0.04363889 -0.01216238  0.18511811  0.03544545 -0.18044035  0.03116342
  0.03063667  0.25861228  0.18049091  0.06746484  0.06208098 -0.17181988
  0.11718338 -0.16558354  0.03866439  0.12312912  0.06121543 -0.00059839
  0.05499821 -0.1197386  -0.01087989  0.05582287 -0.17483199  0.06743031
  0.10786448 -0.04764024 -0.11836845 -0.05294619  0.2111228   0.07738346
 -0.11774305 -0.13165429  0.11199696 -0.12951936 -0.11070154  0.03677625
 -0.16343994 -0.19493003 -0.30807701  0.00173553  0.32981864  0.04847443
 -0.22781126  0.01866932 -0.03728858  0.07185828  0.17495465  0.12543748
 -0.02047135 -0.00910425 -0.07998886 -0.04584673  0.19878328 -0.08807829
 -0.05872682  0.23251966 -0.01454268  0.07105137  0.01689681  0.02821069
 -0.04462966 -0.00182022 -0.18008898 -0.08236485  0.0929217  -0.00746297
  0.00745168  0.12126876 -0.1759004   0.0863774   0.01312285  0.03302827
  0.06590068 -0.02680345 -0.11013698 -0.08752726  0.09883823 -0.19383404
  0.225595    0.18857895  0.01132321  0.07339383  0.07902564  0.04660055
 -0.02729927  0.00561683 -0.1779502  -0.03399612  0.09510391  0.02959177
  0.02742274 -0.04596409]