[-0.11084672  0.03827817  0.07860916 -0.05712277 -0.09927841  0.01367554
 -0.0576041  -0.11213466  0.09726301 -0.07501866  0.25189385 -0.07560053
 -0.23675065 -0.09074309 -0.06817728  0.18534222 -0.13018002 -0.08179506
 -0.0422661   0.00560553  0.1005505   0.03880142  0.04794914 -0.02878706
 -0.10744575 -0.34459487 -0.09093567 -0.05092453 -0.015097   -0.04917121
 -0.03174801  0.08964129 -0.18901174 -0.08560913  0.05688512  0.09501883
 -0.06432959 -0.0153913   0.15310585  0.04627063 -0.18234774  0.01654565
  0.03911688  0.25155994  0.14325982  0.08858395  0.04189038 -0.17121559
  0.09270459 -0.19222593  0.04499966  0.13577834  0.08549889  0.06394853
  0.02060817 -0.08448825  0.04844419  0.09927257 -0.10188905  0.03029657
  0.1058081  -0.02379576 -0.07013288 -0.09420413  0.17337774  0.03171586
 -0.1156005  -0.14979015  0.10950633 -0.04343847 -0.1089188   0.0735166
 -0.17603108 -0.16929956 -0.29407045 -0.0054211   0.38404736  0.02688781
 -0.21244238 -0.01880931 -0.03460882  0.02169545  0.11728244  0.11241255
 -0.01456298  0.01763646 -0.04404323  0.01006451  0.1913289  -0.11634117
 -0.02521922  0.21488114  0.03061568  0.07728375  0.03152893  0.06890513
 -0.02584055  0.04821252 -0.1498404  -0.04794993  0.09985673 -0.03277458
  0.00438856  0.10742223 -0.17295648  0.16996774  0.00360923  0.04175405
  0.07389196 -0.05600337 -0.10631851 -0.03697632  0.1302637  -0.21198462
  0.16076715  0.21686409  0.02964918  0.06142874  0.13191693  0.07491329
 -0.0124113   0.02092727 -0.2096983  -0.05601054  0.10518994  0.00473114
 -0.00402036 -0.02626459]