[-0.05221575  0.06786277  0.0603704  -0.03064521 -0.06935942 -0.07682382
 -0.01389048 -0.16150352  0.07496911 -0.03501105  0.1985371  -0.05157199
 -0.21000671 -0.11294269  0.01292409  0.14432041 -0.12669925 -0.08049481
 -0.03847656 -0.01073544  0.06140448  0.02383803  0.05022632 -0.0410304
 -0.0727284  -0.3217895  -0.11186209 -0.08009607 -0.00954287 -0.02795282
 -0.03673673  0.05512955 -0.18357415 -0.10851675  0.0671668   0.01527617
 -0.082669   -0.03517821  0.15989138  0.03137847 -0.17312385  0.02672837
  0.04019471  0.24884419  0.18977477  0.07370804  0.04638975 -0.18798107
  0.1239576  -0.15182732  0.05556819  0.10851462  0.0631059   0.05524705
  0.0089288  -0.09357431  0.06061146  0.05811148 -0.18191738  0.03162689
  0.13693991 -0.03066638 -0.09505635 -0.03931402  0.1874883   0.04654458
 -0.09608195 -0.1342483   0.12062667 -0.11082858 -0.09191886  0.03353465
 -0.17212145 -0.18980964 -0.30367756  0.00262715  0.33691761  0.05109049
 -0.21824057 -0.0231139  -0.05556723  0.0648656   0.20064346  0.10434705
 -0.00906445 -0.00424756 -0.06012912 -0.00749898  0.20917736 -0.12782621
 -0.06896957  0.21459432  0.03255066  0.06236994  0.03785076  0.05249789
 -0.00940363  0.03106177 -0.18965681 -0.03987344  0.1021959  -0.0328206
 -0.00164831  0.14877138 -0.17679513  0.15085547  0.04386284  0.03130147
  0.04254379 -0.0937238  -0.1008016  -0.06968446  0.09496295 -0.19509131
  0.20656855  0.20796655  0.02150147  0.06086452  0.0603232   0.03743777
 -0.01941775 -0.02341742 -0.20233814 -0.02655518  0.11129645  0.06340706
  0.01088568 -0.02323185]