[-7.55012110e-02  9.33076069e-02  8.03839415e-02  5.18742963e-05
 -9.68787447e-02 -3.10026836e-02 -8.28642398e-02 -1.25459120e-01
  7.65957683e-02 -7.55400881e-02  2.46157438e-01 -7.95978904e-02
 -2.43765101e-01 -9.39891264e-02 -2.27514673e-02  1.76194608e-01
 -1.23419963e-01 -1.01607218e-01  8.93757492e-03 -4.35164943e-02
  7.02270493e-02  5.30150421e-02  4.28422317e-02 -6.28399774e-02
 -9.14069936e-02 -3.87034476e-01 -1.15029849e-01 -8.57521147e-02
 -2.36954521e-02 -6.86860755e-02 -3.89199853e-02  4.02465425e-02
 -1.67512581e-01 -9.25906524e-02  6.15866594e-02  2.62388866e-02
 -6.21310771e-02 -3.99733186e-02  1.67028740e-01  4.14426699e-02
 -1.18254520e-01  7.79057248e-03  6.04285300e-02  2.66870022e-01
  1.49296701e-01  1.04106598e-01  6.60233498e-02 -1.94205999e-01
  1.00131206e-01 -1.48201898e-01  5.40030263e-02  1.17769562e-01
  1.06020927e-01  7.02072158e-02 -4.60688025e-05 -1.01897947e-01
  5.73217273e-02  5.27515970e-02 -1.73704430e-01  2.61366647e-02
  1.43329337e-01  1.01186510e-03 -9.57523286e-02 -4.26278710e-02
  2.70371884e-01  2.83877980e-02 -1.14338100e-01 -1.40634701e-01
  1.20315053e-01 -8.01114067e-02 -1.13097921e-01  1.16960518e-02
 -1.62773013e-01 -1.81928828e-01 -2.97251910e-01  3.24491002e-02
  3.35124344e-01  3.79051529e-02 -2.26148605e-01  2.20454833e-03
 -3.99570130e-02  2.19801813e-02  1.18530653e-01  1.15192413e-01
 -3.62440050e-02 -1.15016541e-02 -7.65557960e-02 -7.06843380e-03
  1.99069366e-01 -1.15503848e-01 -4.33579609e-02  1.95681438e-01
  2.74912659e-02  9.09651741e-02  5.42338379e-02  7.55231455e-02
 -8.45851228e-02  2.93412544e-02 -1.52033731e-01 -6.02034517e-02
  9.00302902e-02 -2.27044970e-02 -1.82491485e-02  1.45614997e-01
 -1.77326009e-01  1.97185501e-01 -1.75772142e-02  7.03974103e-04
  2.56066974e-02 -8.38793218e-02 -8.85387883e-02 -5.53621165e-02
  1.11107685e-01 -2.08851337e-01  1.54012010e-01  1.83316424e-01
  4.85614911e-02  1.20798640e-01  9.83194783e-02  7.21860677e-02
 -2.77566146e-02  8.00168794e-03 -2.46830702e-01 -5.94507456e-02
  8.31248090e-02  1.74861886e-02  7.29179522e-03  4.62732482e-04]