[-0.06688852  0.10875578  0.05737055  0.00492592 -0.02727841 -0.08840133
 -0.02115361 -0.18813106  0.14972532 -0.05524461  0.24118863 -0.00168406
 -0.21099468 -0.14663444  0.02405644  0.16468963 -0.14116417 -0.10538962
 -0.0275167  -0.02095994  0.06475423  0.02717426  0.08697919 -0.00578838
 -0.0928027  -0.33467621 -0.10704569 -0.11166077 -0.00915798 -0.04534698
 -0.04960048  0.06166261 -0.16381992 -0.08048157  0.0544062   0.00297138
 -0.04985787 -0.02005925  0.18858787  0.04937888 -0.17486469  0.02618459
  0.01580299  0.25115463  0.19258069  0.05124946  0.05536455 -0.17105469
  0.11749347 -0.14953391  0.03554254  0.12055131  0.07101351  0.01435555
  0.03491294 -0.11302709 -0.01144939  0.05386279 -0.16976638  0.060567
  0.11381283 -0.07031143 -0.14394666 -0.04247038  0.20272429  0.08068866
 -0.11607517 -0.14447272  0.11562016 -0.12463584 -0.10756569  0.04336553
 -0.17709191 -0.20000671 -0.29938999  0.00620458  0.30755946  0.0444389
 -0.23756628  0.01318572 -0.05635938  0.0802124   0.15033072  0.13569041
 -0.00780691  0.00228356 -0.08321503 -0.05032843  0.18274561 -0.10282095
 -0.06015942  0.25154102 -0.01132234  0.08079269  0.01359007  0.01906351
 -0.02902887 -0.00365597 -0.173329   -0.07955566  0.08686893 -0.00824849
 -0.00963454  0.11610886 -0.16957121  0.09451356  0.01891591  0.04189344
  0.06681444 -0.0435655  -0.10550275 -0.10515525  0.08560318 -0.20670119
  0.22086941  0.19952063  0.01419833  0.07279866  0.06670508  0.06346211
 -0.02005312  0.00952655 -0.17387021 -0.02505746  0.1072675   0.04072432
  0.00060371 -0.04653146]