[-0.05648072  0.07250803  0.05969425 -0.03711092 -0.07340834 -0.08240681
 -0.02259094 -0.1619948   0.07472035 -0.04882509  0.19618867 -0.05098582
 -0.20529734 -0.10699006  0.0105221   0.14227891 -0.14788236 -0.07723324
 -0.03753589 -0.01207787  0.07742641  0.00906202  0.03743512 -0.04033365
 -0.07596569 -0.32019612 -0.11340763 -0.07640646  0.00173278 -0.03398354
 -0.03023744  0.04047489 -0.18978086 -0.10337054  0.05966364  0.02312718
 -0.08087131 -0.04022682  0.14407018  0.02818265 -0.16861947  0.02583965
  0.03974181  0.23617263  0.19850308  0.07812501  0.04086142 -0.1913327
  0.13443117 -0.17037927  0.04474572  0.11122979  0.05801921  0.06333659
  0.0136597  -0.08399667  0.07530399  0.06245345 -0.18835889  0.02372251
  0.14832059 -0.03063351 -0.09096383 -0.02519398  0.19422753  0.05477994
 -0.09680928 -0.1223945   0.11980911 -0.11456595 -0.09082103  0.01900379
 -0.15594561 -0.19053446 -0.29130352  0.00205055  0.34216952  0.06873336
 -0.21132727 -0.01389145 -0.06843694  0.06919093  0.21451473  0.09157466
 -0.01386431 -0.00669842 -0.06264701  0.00459473  0.20913291 -0.126838
 -0.04867912  0.22109976  0.03558487  0.0663515   0.03921043  0.04076913
 -0.02088699  0.02808942 -0.19202979 -0.04686099  0.10375582 -0.0204319
  0.00242372  0.14086159 -0.1710102   0.14904328  0.04394129  0.02653096
  0.04240122 -0.10608337 -0.10301331 -0.06366918  0.08621224 -0.19319811
  0.21075638  0.20518962  0.01932342  0.06362929  0.07172656  0.02958164
 -0.01443331 -0.03925058 -0.19449684 -0.02079798  0.11392188  0.06027409
  0.00989685 -0.04081353]