[-6.76782355e-02  7.63760358e-02  7.73975104e-02 -1.32486783e-03
 -6.10250495e-02 -1.04490593e-01 -1.81347262e-02 -1.61042973e-01
  7.95184374e-02 -1.23524880e-02  2.26507902e-01 -1.07147461e-02
 -2.26795182e-01 -1.17312290e-01  4.27134372e-02  1.40352651e-01
 -1.49648651e-01 -7.44229704e-02 -4.23838608e-02 -5.95484627e-03
  6.57884106e-02  2.67419852e-02  6.79649562e-02 -2.20583435e-02
 -6.49056584e-02 -3.66253316e-01 -1.25378624e-01 -6.73970059e-02
 -2.96151079e-03 -3.78548875e-02 -3.00382953e-02  6.55858144e-02
 -1.69884548e-01 -1.00673608e-01  6.61273822e-02  1.84354074e-02
 -6.42540827e-02 -3.74957174e-02  1.77776903e-01  4.30705287e-02
 -1.68418959e-01  3.40634659e-02  3.32947411e-02  2.54237622e-01
  2.14771390e-01  7.99280703e-02  5.70911765e-02 -1.61313370e-01
  9.34225842e-02 -1.79698661e-01  5.08922748e-02  1.30429298e-01
  4.91739325e-02  5.16917966e-02  1.46306399e-02 -1.05763309e-01
  4.03831825e-02  2.91867759e-02 -2.01433852e-01  7.39086512e-03
  1.24279670e-01 -5.81078827e-02 -8.24187845e-02 -2.22225860e-02
  1.86562210e-01  7.15362877e-02 -8.20036009e-02 -1.34415373e-01
  1.00271963e-01 -1.51387691e-01 -1.01005532e-01  1.52367949e-02
 -1.85965180e-01 -1.91757873e-01 -3.21013778e-01  2.00555176e-02
  3.25061172e-01  6.53930455e-02 -2.17464596e-01 -1.51032393e-04
 -4.86339927e-02  5.05352430e-02  1.88635424e-01  1.00726604e-01
 -1.30188903e-02 -2.79534212e-03 -8.14955160e-02  8.55279248e-03
  1.96456820e-01 -1.06810905e-01 -5.68149462e-02  2.41313264e-01
  4.17847522e-02  7.69182295e-02  6.49748221e-02  3.71996127e-02
  8.98409449e-03  1.19728362e-02 -1.99811220e-01 -3.08745205e-02
  8.22794437e-02 -3.81041178e-03  1.85490455e-02  1.32820323e-01
 -1.66432083e-01  1.22025326e-01  3.23711261e-02  6.58576144e-03
  3.12259626e-02 -8.96049663e-02 -1.14458226e-01 -9.55693200e-02
  8.85730907e-02 -1.97843298e-01  2.15958759e-01  2.24836990e-01
  1.21519901e-02  7.09808096e-02  4.09407578e-02  4.52781841e-02
 -3.09100803e-02 -1.57644060e-02 -1.65092170e-01 -4.11529234e-03
  1.06648564e-01  6.39811009e-02  8.77752807e-03 -3.09177339e-02]