[-0.11830088  0.05046098  0.13964115 -0.04625624 -0.07395673  0.00112151
 -0.0728979  -0.12418722  0.07369801 -0.08065733  0.28391808 -0.09272464
 -0.26520315 -0.0848425  -0.04529892  0.17795078 -0.10148054 -0.08325016
  0.01918179 -0.01714733  0.08286192  0.03179473  0.04357115 -0.04051801
 -0.13378446 -0.34306136 -0.09872219 -0.03338575 -0.05971348 -0.07115106
 -0.04321405  0.06736565 -0.16847746 -0.03156684  0.03945155  0.07541048
 -0.04886447 -0.05007632  0.16538565  0.07839588 -0.1668705   0.02449119
  0.02627289  0.26924607  0.10234722  0.0701124   0.04062285 -0.22689632
  0.09525035 -0.21483956  0.09653983  0.12300503  0.09807958  0.02417179
  0.01219474 -0.10472523  0.04324196  0.08355909 -0.18165338  0.03458995
  0.1134538  -0.00076648 -0.08264113 -0.09699474  0.18947211  0.13609071
 -0.12711045 -0.12190109  0.10640331 -0.03838887 -0.10376801  0.06404427
 -0.14714865 -0.20164017 -0.32098955  0.02431331  0.3399829   0.04938294
 -0.25803807 -0.05322725 -0.0303849   0.03573781  0.14476004  0.14074032
 -0.06612726  0.01922719 -0.04865974  0.02332236  0.171948   -0.09789202
 -0.0478948   0.23213835  0.06122681  0.08262328  0.03837248  0.09131933
 -0.0569154   0.01724008 -0.17485894 -0.07103357  0.0856673   0.00409117
  0.01004114  0.15036607 -0.21917334  0.18159114  0.01523813 -0.05127478
  0.06306724 -0.08716171 -0.04922928 -0.03563286  0.08249823 -0.2447037
  0.10193284  0.18371445  0.05654799  0.10725158  0.11129202  0.05530711
 -0.01929878 -0.02356952 -0.19084886 -0.01698126  0.10125762  0.02317981
  0.00971635 -0.01548933]