[-0.12626603  0.02640027  0.06137525 -0.05310833 -0.05677041 -0.01625366
 -0.04766497 -0.13194138  0.12229492 -0.07532251  0.22845459  0.00820991
 -0.19518013 -0.07790478 -0.03968671  0.16716033 -0.16749778 -0.10756004
 -0.0413298  -0.00817518  0.0883705   0.05010296  0.05483195 -0.04190762
 -0.1007392  -0.34647301 -0.10127982 -0.06079833  0.02141542 -0.05494896
 -0.04173746  0.05510873 -0.19495575 -0.0694631   0.0597574   0.05516319
 -0.05375273 -0.01047391  0.14712571  0.06329223 -0.17722739  0.02336244
  0.0320837   0.26517975  0.18015252  0.10553173  0.02150693 -0.22572874
  0.07854358 -0.20999424  0.05288824  0.1215796   0.04525133  0.05916604
  0.02492554 -0.10469747  0.04576887  0.02548754 -0.131896    0.03301714
  0.10701668  0.00316589 -0.0763871  -0.08312634  0.19533598  0.05226279
 -0.10753971 -0.14496413  0.12759694 -0.06806584 -0.09714913  0.05974608
 -0.14961676 -0.1915537  -0.26257345 -0.01274325  0.37182602  0.04797514
 -0.21277927 -0.01180858 -0.07052135  0.01352142  0.13827001  0.08092997
 -0.04812841  0.00902818 -0.05508954  0.0225079   0.21529105 -0.08845016
 -0.02180182  0.20833972  0.03054415  0.0595511   0.05227281  0.11022341
 -0.0557222   0.05292267 -0.2029002  -0.09647173  0.11570662 -0.0043669
  0.02724277  0.16504    -0.16715163  0.190724    0.00881056 -0.0020907
  0.08725587 -0.05252137 -0.09127655 -0.06654619  0.10184314 -0.1784783
  0.19228454  0.22356465  0.04967893  0.07029366  0.07758775  0.07597849
 -0.06075229  0.02655946 -0.22329414 -0.01986411  0.08566951  0.01440043
 -0.0021488  -0.02464472]