[-0.13722205  0.09069741  0.09776405 -0.04977792 -0.03381106 -0.0622325
 -0.04383977 -0.13273512  0.11188371 -0.04107773  0.28187528 -0.0355177
 -0.18917505 -0.17900813  0.04429067  0.20222738 -0.18910259 -0.11432586
 -0.05237982 -0.05935851  0.02073194  0.03070404  0.05736728 -0.0178028
 -0.11022412 -0.38158914 -0.09518486 -0.08746082 -0.00830094 -0.02809346
 -0.0337692   0.08674857 -0.16241436 -0.07585377  0.05734059  0.07625704
 -0.02852728  0.01566002  0.18437056  0.03853608 -0.19907917  0.00586328
  0.05449334  0.28286037  0.25995356  0.06990823  0.02652124 -0.10855545
  0.07663494 -0.17513804  0.04022772  0.11645645  0.08277597  0.02704963
  0.02003025 -0.11384871  0.00975589  0.05405088 -0.18031733 -0.03113931
  0.07463146 -0.14036493 -0.08861076 -0.01142028  0.21677271  0.09294032
 -0.10519782 -0.14837883  0.14126435 -0.09981414 -0.07918087  0.05873722
 -0.18208839 -0.15226834 -0.39412928  0.00246708  0.36498508  0.01473497
 -0.21659319 -0.00265265 -0.01908004  0.03156992  0.14801832  0.15082672
 -0.06204866  0.00056832 -0.08569907  0.00474322  0.15409483 -0.07070793
 -0.05300595  0.20100573  0.01132587  0.08428033  0.0475527   0.06973772
  0.00896584  0.00775629 -0.16278237 -0.04762467  0.07945925 -0.00494042
  0.02739187  0.1424558  -0.18311059  0.11823416  0.02979826  0.02499062
  0.01326496 -0.05072724 -0.01584296 -0.08335411  0.10272638 -0.21283861
  0.13734508  0.25267756 -0.0147812   0.10793791  0.06867199  0.04832402
 -0.05885253 -0.00627824 -0.1895097   0.01569265  0.05743198  0.02532326
  0.05662964  0.02445447]