[-0.12075925  0.04994616  0.07698791 -0.05770499 -0.11337461  0.02236347
 -0.04847924 -0.09842353  0.09644514 -0.07438954  0.2506344  -0.07201247
 -0.24720846 -0.0825624  -0.05894009  0.18655257 -0.11631109 -0.08839413
 -0.05106431 -0.01042785  0.10443623  0.04602992  0.04653789 -0.03112299
 -0.11914759 -0.33906379 -0.08622607 -0.04932603 -0.01645995 -0.05685858
 -0.01983603  0.09128456 -0.19343139 -0.0844072   0.05592691  0.08607813
 -0.07244968 -0.01253418  0.15494102  0.0596437  -0.17381984  0.01785565
  0.03115218  0.26431346  0.14004876  0.08585867  0.04738823 -0.17176527
  0.08427322 -0.19835685  0.04125759  0.14059666  0.08775463  0.06306594
  0.02938927 -0.08736747  0.05714139  0.08978812 -0.11205288  0.0266164
  0.10278153 -0.01569436 -0.07288741 -0.10200665  0.17274748  0.02330069
 -0.11164291 -0.14302257  0.11088365 -0.03693121 -0.10185196  0.08610588
 -0.18145068 -0.17516322 -0.29504749  0.00349598  0.38667366  0.03931802
 -0.21173744 -0.0260797  -0.02531996  0.02499459  0.10989396  0.10529094
 -0.02995374  0.01220465 -0.04179681  0.02762677  0.18229969 -0.11818542
 -0.03260998  0.21476117  0.04520364  0.06789463  0.03390634  0.06952449
 -0.02948723  0.03560879 -0.14731281 -0.04973788  0.09211945 -0.03836502
  0.00247141  0.11031159 -0.17000262  0.17401366 -0.00322405  0.02684659
  0.0409602  -0.05714871 -0.10822327 -0.02686772  0.12464572 -0.20967472
  0.14924589  0.2240213   0.0168398   0.05970566  0.12803277  0.06763483
 -0.02129932  0.02613461 -0.20113085 -0.06069713  0.10734502  0.00313565
 -0.00175157 -0.02880092]