[-0.06912254  0.13293688  0.06076982 -0.04103508 -0.02204783 -0.07053119
 -0.05267298 -0.15433674  0.09589388 -0.02350782  0.24523047 -0.04503661
 -0.22291385 -0.12946025 -0.01741404  0.16834365 -0.1608579  -0.08660051
 -0.06856684 -0.0074133   0.0617221   0.04697514  0.07472352 -0.0360845
 -0.0670205  -0.34852082 -0.13323404 -0.05771833 -0.02384228 -0.03362297
 -0.04613466  0.01904555 -0.20665999 -0.11017313  0.08349436  0.04024708
 -0.05930722 -0.01598134  0.18430732  0.07709881 -0.16994333  0.05496311
  0.05133752  0.27488872  0.20048092  0.10190524  0.0135812  -0.17071943
  0.07845423 -0.1422971   0.07336666  0.14665778  0.05405572  0.07291763
  0.0237018  -0.10933174  0.06916464  0.06781371 -0.15222105 -0.01859147
  0.12658076 -0.07879046 -0.06355838 -0.01219397  0.18861669  0.03905999
 -0.10034408 -0.12693571  0.09817686 -0.07561177 -0.05692479  0.0570829
 -0.1629287  -0.16575806 -0.33464071  0.02884209  0.40826616  0.04166162
 -0.21643125 -0.0266183  -0.05325064  0.02477461  0.18387914  0.10209998
 -0.04783162  0.00643702 -0.09373261  0.0132736   0.1891468  -0.0783949
 -0.07060849  0.20744948  0.01060617  0.0854486   0.06076152  0.06495347
 -0.01557902  0.00453275 -0.17093746 -0.0301546   0.07278223 -0.05018872
 -0.03848339  0.13261102 -0.17658593  0.10251971  0.06253966 -0.01473961
 -0.00108104 -0.05931712 -0.07750279 -0.06654947  0.09346299 -0.22921899
  0.20634656  0.22418657  0.00231158  0.08344241  0.0747814   0.06032751
 -0.05590939 -0.02908592 -0.17339541 -0.05388972  0.08001953  0.08175486
  0.07792714 -0.02241812]