[-1.27724215e-01  1.35634750e-01  1.07302204e-01 -2.86672153e-02
 -5.13710789e-02 -1.70353949e-02 -1.67105943e-02 -1.12898886e-01
  1.52943641e-01 -4.38010506e-02  2.94469804e-01 -4.53808671e-03
 -2.07517967e-01 -1.36595726e-01  3.36292349e-02  1.80237100e-01
 -1.74235746e-01 -9.38454792e-02 -9.36089531e-02 -5.06317802e-02
  2.11217850e-02  4.39103618e-02  8.12103152e-02 -6.11474514e-02
 -1.07812755e-01 -3.90182763e-01 -1.05309561e-01 -6.02863431e-02
  5.22452891e-02 -8.45490322e-02 -4.33196835e-02  3.27038318e-02
 -1.82238370e-01 -9.58860442e-02  6.36210442e-02  8.76678750e-02
 -6.13621585e-02 -8.92326608e-03  1.82044983e-01  3.40067409e-02
 -1.82896301e-01  5.47720725e-03  4.52075377e-02  2.87951082e-01
  2.52606571e-01  7.75166899e-02  1.49022890e-02 -1.07184745e-01
  5.90224154e-02 -2.28580222e-01  7.58028179e-02  1.19236112e-01
  8.14083591e-02  7.01410472e-02  2.58742757e-02 -1.20400630e-01
  1.66445207e-02  7.65436217e-02 -1.70561284e-01 -1.69107765e-02
  1.10789292e-01 -1.26436591e-01 -9.45781618e-02  3.72756124e-02
  2.36988500e-01  1.00288235e-01 -1.35368228e-01 -1.47707745e-01
  1.25778034e-01 -8.42700899e-02 -4.29608338e-02  4.51035909e-02
 -1.59208551e-01 -1.52670458e-01 -3.61750335e-01  5.41802756e-02
  4.40956116e-01  1.87175069e-02 -2.13584334e-01 -2.42227521e-02
 -7.83655941e-02  3.56087722e-02  1.06968716e-01  1.33173585e-01
 -7.92121142e-02 -2.56620180e-02 -1.06478073e-01  3.69170569e-02
  1.53793365e-01 -7.89979696e-02 -6.03224598e-02  2.01941326e-01
  1.75535064e-02  8.12113285e-02  3.86569314e-02  1.05855286e-01
 -2.88617257e-02 -8.49946029e-03 -1.50434464e-01 -4.93397377e-02
  1.02161460e-01 -2.60825902e-02 -2.28137453e-03  1.68762445e-01
 -1.94765717e-01  1.70919001e-01  3.33623737e-02 -2.27850673e-04
  5.61331473e-02 -7.28389770e-02 -2.23736893e-02 -7.41716921e-02
  1.04091816e-01 -2.59405941e-01  1.84616759e-01  2.59995580e-01
 -2.32264698e-02  1.28317580e-01  7.31772110e-02  5.93824089e-02
 -1.32316130e-03  1.86749455e-02 -1.72606975e-01 -2.79582236e-02
  1.70409381e-02  1.93260666e-02  2.38712709e-02  1.64935328e-02]