[-0.07148837  0.09220596  0.05417591 -0.01282227 -0.08224386 -0.02363238
 -0.04409306 -0.157582    0.10713875 -0.04971122  0.23063688 -0.05829174
 -0.21674685 -0.07627377 -0.05471703  0.16751175 -0.15303746 -0.12650846
 -0.03983414 -0.04261854  0.04920077  0.06494926  0.03116125 -0.03085472
 -0.05816361 -0.34363714 -0.09069413 -0.06009242  0.03861149 -0.05930462
 -0.04982734  0.06062886 -0.18033697 -0.07798216  0.09485256  0.07357692
 -0.07665683 -0.05264191  0.17411345  0.04593837 -0.12092712  0.01829188
  0.06737056  0.28176105  0.16069064  0.09025826  0.01972861 -0.20219067
  0.08917511 -0.17100953  0.06007659  0.14374113  0.0676844   0.07730988
  0.03464649 -0.12688316  0.03493652  0.03403785 -0.15263456  0.0332282
  0.11194407 -0.04759115 -0.09762471 -0.07455873  0.25477129  0.06829824
 -0.10099494 -0.15046386  0.12146421 -0.08728945 -0.12062363  0.02559623
 -0.13485508 -0.1335669  -0.29215914  0.00849423  0.38756356  0.03241897
 -0.21372151  0.02715289 -0.03843402  0.0215939   0.14404768  0.10320818
 -0.06876049  0.00575938 -0.09045745  0.00365893  0.19440407 -0.0928208
 -0.07114899  0.17296915 -0.00752481  0.0666088   0.07676275  0.07146293
 -0.06309247  0.00688697 -0.17445433 -0.10593779  0.12739109 -0.02946994
  0.00481652  0.14467447 -0.15340872  0.1257126   0.01004889  0.00454699
  0.06980989 -0.06884142 -0.10502253 -0.0561242   0.12009563 -0.24062951
  0.22049303  0.15232863  0.01875674  0.09871602  0.09158169  0.08429857
 -0.04054655  0.00285886 -0.17165731 -0.06350935  0.07197871  0.06313831
  0.03299922 -0.00302837]