[-1.07090987e-01  4.68531400e-02  7.17634037e-02 -4.99503128e-02
 -1.04536653e-01  1.95440557e-02 -5.84073663e-02 -1.19880252e-01
  9.39292461e-02 -7.42165223e-02  2.64331192e-01 -8.50105509e-02
 -2.40472600e-01 -8.84968862e-02 -7.31640682e-02  1.88405648e-01
 -1.22572422e-01 -7.49485195e-02 -4.62642275e-02 -2.44514644e-03
  1.04667000e-01  5.29124849e-02  4.73187454e-02 -3.51128727e-02
 -9.69543606e-02 -3.56509060e-01 -8.88640806e-02 -4.91969697e-02
 -1.51726650e-02 -5.72425686e-02 -3.08031868e-02  9.23318490e-02
 -1.83198571e-01 -8.13445374e-02  6.56640530e-02  8.87232348e-02
 -6.56760558e-02 -6.23275200e-03  1.44484743e-01  4.98002470e-02
 -1.73663005e-01  1.49306282e-02  4.44242209e-02  2.64009655e-01
  1.40102521e-01  9.44944397e-02  3.97074260e-02 -1.76778421e-01
  8.68989825e-02 -1.82778403e-01  4.90452722e-02  1.27428159e-01
  9.47105661e-02  5.22459522e-02  3.09448000e-02 -8.22520554e-02
  4.25113179e-02  9.76312980e-02 -1.11391269e-01  2.79981345e-02
  1.14388362e-01 -2.46118531e-02 -8.27593505e-02 -9.21876803e-02
  1.71164051e-01  2.75857449e-02 -1.14333861e-01 -1.46021888e-01
  1.02881983e-01 -3.92634533e-02 -1.03805959e-01  6.95314258e-02
 -1.79654524e-01 -1.76747262e-01 -3.00933629e-01  1.71869997e-05
  4.00267899e-01  2.20131632e-02 -2.10311040e-01 -2.21566446e-02
 -1.37288691e-02  2.63518579e-02  1.29981503e-01  1.05562784e-01
 -2.20159739e-02  5.89869544e-03 -4.93808091e-02  2.34544016e-02
  1.77868709e-01 -1.24879219e-01 -3.31937186e-02  2.04143912e-01
  1.95376072e-02  6.84571713e-02  2.72143539e-02  7.36653507e-02
 -2.88525056e-02  5.01909815e-02 -1.49044946e-01 -5.30785806e-02
  9.65618044e-02 -3.09512969e-02  3.01280315e-03  1.04368381e-01
 -1.71827391e-01  1.61603674e-01  4.06301208e-03  3.14008854e-02
  6.95258230e-02 -6.49586618e-02 -1.08360827e-01 -3.48636098e-02
  1.25364885e-01 -2.17869505e-01  1.51883438e-01  2.13578328e-01
  2.88730916e-02  6.90696910e-02  1.21451072e-01  6.81110248e-02
 -6.79214764e-03  1.95287634e-02 -2.11128578e-01 -5.89992702e-02
  1.04740694e-01  1.15618529e-02 -6.07695384e-03 -3.55793349e-02]