[-0.1293499   0.10426354  0.12112566 -0.00963965 -0.10797182 -0.02442936
 -0.08499943 -0.14966768  0.08547579 -0.07742669  0.2576308  -0.05394668
 -0.23132639 -0.10663433 -0.03139224  0.18081312 -0.16822569 -0.11013252
 -0.02937297 -0.0363325   0.0452685   0.0289883   0.07097768 -0.06300583
 -0.13076371 -0.36269569 -0.07042924 -0.11309399 -0.02355155 -0.03501705
 -0.06824038  0.04234887 -0.17174704 -0.08681319  0.07371067  0.05284126
 -0.07762802 -0.02104111  0.20113917  0.03068336 -0.14513491  0.02631652
  0.04230687  0.27604613  0.17864887  0.09494814  0.04304184 -0.1987112
  0.15861368 -0.18493311  0.07257632  0.13895971  0.09572115  0.06088753
  0.02800526 -0.10670336  0.06626986  0.08178523 -0.18043442  0.01565786
  0.12736851 -0.06480288 -0.10906193 -0.06681352  0.26910576  0.07989373
 -0.11313885 -0.1460986   0.09266527 -0.03965604 -0.1037884   0.04144431
 -0.18580997 -0.1596121  -0.31840321  0.02220258  0.35540256  0.03668139
 -0.21964233 -0.00897429 -0.04688024  0.02319451  0.11602248  0.13412236
 -0.06501196 -0.0082937  -0.05146999 -0.00711678  0.17084616 -0.125053
 -0.04515296  0.1968599   0.02795182  0.0630961   0.03955115  0.0282276
 -0.09591076  0.00743951 -0.15588257 -0.09328768  0.1105625  -0.00321871
  0.01682142  0.11793078 -0.20528369  0.13905743 -0.02827942  0.00890975
  0.05381081 -0.1309561  -0.06749649 -0.05328498  0.1016978  -0.23324545
  0.19068728  0.18354902  0.04799136  0.11435363  0.10958328  0.02528962
 -0.04288702  0.05775673 -0.19664298 -0.03984807  0.13341564  0.0322486
  0.0498228  -0.01960925]