[-0.11620825  0.02536413  0.05631241 -0.06874579 -0.08603342  0.00153843
 -0.04761327 -0.12975428  0.12261347 -0.09134744  0.24344628 -0.01518965
 -0.19521593 -0.08001371 -0.03778758  0.16653885 -0.15467587 -0.08945137
 -0.02620762  0.00713583  0.09517099  0.06048937  0.06148119 -0.02600917
 -0.10271525 -0.37351918 -0.11533455 -0.07191784  0.00071738 -0.07213379
 -0.03518572  0.05524713 -0.1860394  -0.05617496  0.04336825  0.0552965
 -0.05984442 -0.03614424  0.14348218  0.05792863 -0.16848145  0.0279511
  0.03449001  0.26144791  0.15725017  0.09433112  0.03371477 -0.20935304
  0.08333464 -0.19393454  0.05461928  0.10051604  0.03144635  0.04641838
  0.03861685 -0.09408581  0.05857188  0.02411882 -0.1365685   0.03174477
  0.10392616  0.00359451 -0.07260861 -0.07348861  0.2116113   0.06094487
 -0.0969251  -0.14283791  0.11866128 -0.07222024 -0.09855136  0.05290125
 -0.1695047  -0.18542351 -0.27302408 -0.00488465  0.36836663  0.05734596
 -0.21911107 -0.01470987 -0.05734601  0.03352506  0.15480942  0.09276036
 -0.0305752   0.00146131 -0.07888316  0.03065834  0.20910434 -0.09929454
 -0.03173601  0.22172935  0.03908291  0.0550211   0.06026828  0.09644902
 -0.0631364   0.03844842 -0.18550953 -0.07773618  0.12430598 -0.00090799
  0.0081445   0.17171736 -0.1702956   0.18100588 -0.00278602 -0.01781934
  0.08043344 -0.05303949 -0.10172307 -0.06774448  0.09348445 -0.18477356
  0.17224719  0.20138822  0.04523191  0.08497401  0.07184391  0.08229415
 -0.06959429  0.02473701 -0.21797068 -0.02460033  0.08759572  0.03128028
  0.00203282 -0.02857732]