[-4.53828536e-02  8.54735896e-02  7.19034821e-02  3.49193433e-04
 -4.53519188e-02 -5.93261123e-02 -1.09237460e-02 -1.68055043e-01
  1.06419221e-01 -2.54461318e-02  2.31223941e-01 -3.47742140e-02
 -2.26451352e-01 -9.89827961e-02  1.71143026e-03  1.51515409e-01
 -1.51936695e-01 -1.02803901e-01 -4.08774056e-02  6.10328373e-03
  5.51889949e-02  3.13049555e-02  4.02561352e-02 -2.25908365e-02
 -6.75562918e-02 -3.29596013e-01 -1.27689749e-01 -5.68931587e-02
  1.04582496e-02 -5.55760339e-02 -5.07631563e-02  7.20110536e-02
 -1.74183890e-01 -1.00308932e-01  8.44089910e-02  3.48696001e-02
 -6.76338002e-02 -3.36128958e-02  1.71516851e-01  3.93332168e-02
 -1.62983641e-01  4.27513681e-02  5.60736842e-02  2.75657952e-01
  2.05830574e-01  8.40021819e-02  3.20006646e-02 -1.69545546e-01
  8.18911418e-02 -1.65673167e-01  4.58069034e-02  1.53285131e-01
  7.40130395e-02  7.48684332e-02 -4.46539745e-03 -1.15813516e-01
  2.94915084e-02  5.03095649e-02 -1.54759452e-01  3.55380327e-02
  1.50441632e-01 -5.82131259e-02 -7.46222809e-02 -2.05733329e-02
  1.87461287e-01  3.35725658e-02 -1.07991390e-01 -1.52588516e-01
  9.85788256e-02 -1.28809392e-01 -1.08680390e-01  1.49637014e-02
 -1.91478476e-01 -1.85992807e-01 -3.05377245e-01  2.28065085e-02
  3.56853783e-01  4.21214774e-02 -2.13472322e-01  1.91869196e-02
 -4.76428382e-02  5.12634329e-02  1.63564116e-01  1.19471446e-01
 -1.12057580e-02 -1.35810999e-02 -8.34357217e-02 -1.16222433e-03
  2.06882358e-01 -1.01107597e-01 -4.61184867e-02  2.09259614e-01
  9.80791356e-03  6.20946102e-02  4.13038619e-02  4.54493873e-02
  3.97678232e-03  3.13907340e-02 -1.91595718e-01 -3.58588248e-02
  6.08964153e-02 -8.03934876e-03  2.38659908e-03  1.50920451e-01
 -1.63427517e-01  1.34692490e-01  4.10413109e-02  2.36661974e-02
  5.30178063e-02 -6.94490001e-02 -1.14861168e-01 -8.67049024e-02
  1.06465615e-01 -2.24113226e-01  2.11777881e-01  2.16420218e-01
  3.00365873e-02  5.00830822e-02  6.42296448e-02  7.36499652e-02
 -2.94121518e-03  1.00332377e-02 -1.89610705e-01 -2.53556073e-02
  9.11678672e-02  4.49690856e-02  4.02287859e-03 -2.96521038e-02]