[-0.10584176  0.06902856  0.11546495 -0.02885976 -0.07170708 -0.00057184
 -0.06480353 -0.14158334  0.09095796 -0.07962035  0.30075833 -0.07917446
 -0.26577869 -0.10965263 -0.03735906  0.17155327 -0.0944716  -0.09233861
  0.02783309 -0.03142269  0.08806182  0.02989817  0.05260659 -0.04173044
 -0.13807844 -0.35097763 -0.11925655 -0.04827316 -0.05592405 -0.08991079
 -0.03414101  0.06015257 -0.15863976 -0.0519433   0.04467992  0.08976318
 -0.05317977 -0.052841    0.15463646  0.07664176 -0.1460011   0.0144359
  0.04172215  0.28976032  0.11949541  0.08700579  0.03010435 -0.22843714
  0.12109336 -0.19280069  0.08727024  0.1066041   0.11506479  0.03319804
  0.02367645 -0.10842559  0.07014039  0.07496209 -0.22158654  0.01159165
  0.09928014 -0.00802251 -0.0849696  -0.07376651  0.20593968  0.13388878
 -0.1198708  -0.10212231  0.11684556 -0.06012778 -0.09844097  0.06224373
 -0.15433578 -0.20402269 -0.33569714  0.00961497  0.35157356  0.04817408
 -0.24966364 -0.04794073 -0.00331298  0.04706015  0.14595224  0.14073016
 -0.07881819  0.01777809 -0.08013079  0.01136283  0.16313219 -0.09648578
 -0.05617211  0.22520404  0.05155407  0.09322052  0.07106506  0.10483197
 -0.0776239   0.00741813 -0.18159205 -0.08950451  0.07751544 -0.0084426
  0.0010658   0.13828759 -0.21446668  0.18460535  0.02044735 -0.04623673
  0.03904292 -0.11356274 -0.04189947 -0.02728585  0.0856549  -0.25750718
  0.09866887  0.17521666  0.03002396  0.12987453  0.09402516  0.05813424
 -0.05092602 -0.04080471 -0.19128752 -0.02227145  0.07861792  0.01515405
  0.02518265 -0.02572619]