[-0.05221229  0.08393329  0.08134507 -0.00433007 -0.06933868 -0.06584749
 -0.02860687 -0.18839131  0.09314194 -0.05511219  0.21090189 -0.03969319
 -0.22956955 -0.09178068  0.00434047  0.15702586 -0.14207676 -0.13077061
 -0.03923654 -0.01606517  0.03208738  0.03011243  0.05886641 -0.04852574
 -0.0901382  -0.34259674 -0.12328772 -0.09452496 -0.02568248 -0.03624393
 -0.051257    0.03843763 -0.17739497 -0.07412349  0.06981736  0.00471073
 -0.0561964  -0.04659313  0.17678106  0.0308884  -0.18077539  0.02379709
  0.03647767  0.24196668  0.17741793  0.06234686  0.06918097 -0.16847955
  0.10786428 -0.11371636  0.05383738  0.1018966   0.08050185  0.03325484
  0.00793775 -0.13209562  0.00776761  0.08768722 -0.14885142  0.05488168
  0.13815227 -0.06385053 -0.09615677 -0.03193669  0.22104715  0.0562968
 -0.10688324 -0.16909201  0.12638102 -0.11109467 -0.10570846  0.01768456
 -0.18827699 -0.16840892 -0.32075337 -0.0050773   0.32826883  0.00770094
 -0.22003804 -0.01446191 -0.04257388  0.08185692  0.15411951  0.13558689
 -0.02847707  0.01744181 -0.0903848  -0.03161606  0.22389744 -0.1011182
 -0.07944488  0.19855767 -0.01931866  0.06271218  0.03155857  0.03481075
 -0.02891978  0.01178037 -0.15756021 -0.0414147   0.07114828 -0.01816351
 -0.01995912  0.16017327 -0.1577649   0.10104018 -0.00108591  0.0409589
  0.02076272 -0.06789443 -0.09513332 -0.08628692  0.10097726 -0.22065881
  0.19363986  0.20810468  0.01850283  0.06402994  0.0601202   0.03882603
 -0.0225075   0.02268815 -0.23026974 -0.02809071  0.10444524  0.04712924
  0.02727836 -0.00670178]