[-0.09366743  0.12929167  0.05775909 -0.03874773 -0.0405049  -0.02816116
 -0.01200941 -0.07383817  0.12163037 -0.00962384  0.26966631 -0.07202107
 -0.20309201 -0.1702601   0.04193432  0.17702663 -0.17098932 -0.09787662
 -0.08763932 -0.0378241   0.03887637  0.05162749  0.04775037  0.01293442
 -0.096733   -0.40489563 -0.07063778 -0.11041148 -0.00316954 -0.09656163
 -0.0443877   0.07859304 -0.15797931 -0.11180597  0.06491495  0.06657617
 -0.02774172  0.01612228  0.16692811  0.06141498 -0.17049322  0.03631835
  0.04319805  0.33331987  0.23981309  0.09661075  0.0311892  -0.07729711
  0.06686497 -0.17711377  0.05825431  0.1056016   0.09489427  0.00665581
  0.07041294 -0.10147256 -0.02577238  0.0735011  -0.17083487  0.00765244
  0.07995252 -0.10231218 -0.08030423 -0.04575644  0.20512538  0.05272496
 -0.08176482 -0.12096777  0.14059749 -0.08769205 -0.06847214  0.06401677
 -0.16571249 -0.14573656 -0.33272958  0.02846684  0.3886973   0.04546038
 -0.21921439 -0.02528361 -0.02446902  0.03003901  0.13853829  0.09927236
 -0.04816455 -0.01598605 -0.09253638  0.0350684   0.1577974  -0.0574563
 -0.05415286  0.17356339 -0.00561491  0.02987103  0.03917989  0.00074388
 -0.00696159  0.01625084 -0.16930862 -0.05348898  0.06304523 -0.04291546
 -0.00851139  0.12243259 -0.19523656  0.08046088  0.03427738 -0.0139503
  0.00410909 -0.02371757 -0.0589291  -0.04890689  0.13220592 -0.23693264
  0.14380859  0.24081989  0.00146688  0.08954679  0.03405905  0.03718323
 -0.02297115 -0.01523051 -0.19035204 -0.02758409  0.07714299  0.04228492
  0.05916145 -0.00823005]