[-0.07349461  0.06556884  0.05496419 -0.0183298  -0.06648987 -0.10542931
 -0.01999159 -0.160156    0.07476854 -0.03184278  0.19951819 -0.01100917
 -0.22155105 -0.10533636  0.0337922   0.13231538 -0.16418828 -0.08169279
 -0.03923538 -0.01456335  0.05324694  0.02852297  0.0466423  -0.02717265
 -0.08399669 -0.33639085 -0.11419903 -0.06763199 -0.03729224 -0.0093613
 -0.02797152  0.0920656  -0.18187863 -0.0966533   0.07640301  0.03493536
 -0.06373594 -0.02580586  0.17330307  0.03788292 -0.17011592  0.03097917
  0.05731924  0.25287065  0.22278063  0.04643207  0.03201661 -0.15541387
  0.11933976 -0.16492385  0.03100908  0.12929483  0.04718965  0.06606786
  0.01629484 -0.10053182  0.06774085  0.03863518 -0.18568125 -0.01581687
  0.11585909 -0.0788959  -0.07043719 -0.01907989  0.17583123  0.05807178
 -0.0653567  -0.14666842  0.10060575 -0.14651245 -0.10817196  0.02687561
 -0.1812332  -0.18363409 -0.31960544  0.00225342  0.31439313  0.07471199
 -0.19891022  0.02311593 -0.0409151   0.02941965  0.20704304  0.09587912
 -0.00943869  0.00859744 -0.07303548  0.01524619  0.22069152 -0.09290835
 -0.06539737  0.2239828   0.04049318  0.06806421  0.08081502  0.01682365
  0.00847442  0.01059499 -0.21571691 -0.03151014  0.07260736 -0.02710937
  0.00819523  0.13577276 -0.17098172  0.11222817  0.03789504  0.01709263
  0.00978985 -0.09686816 -0.10783513 -0.06880416  0.08265668 -0.19798064
  0.21561585  0.19854228  0.00980436  0.07370021  0.04804627  0.02034586
 -0.04815101 -0.0216157  -0.17184174 -0.01136438  0.11878675  0.07505351
  0.04014556 -0.02991786]