[-0.11854287  0.13269491  0.10681225 -0.00604382 -0.10737839 -0.02742341
 -0.0808798  -0.15994702  0.09935888 -0.07959994  0.26717684 -0.0484114
 -0.2236754  -0.11300852 -0.03008287  0.17472965 -0.14333691 -0.1066736
 -0.0182892  -0.04939958  0.06161411  0.02465296  0.09467905 -0.06418596
 -0.13469645 -0.35530683 -0.07434522 -0.1141604  -0.02730087 -0.03025295
 -0.06137359  0.02892503 -0.16756535 -0.09104241  0.05653921  0.04874654
 -0.07950418 -0.02257971  0.19502743  0.02781722 -0.13465205  0.0149574
  0.03773925  0.27860957  0.17329232  0.10252678  0.05960618 -0.18367605
  0.16136391 -0.16536994  0.05761236  0.11870962  0.11200937  0.03252633
  0.03599538 -0.09540388  0.06013232  0.08159636 -0.17470698  0.01712359
  0.11693975 -0.04921387 -0.10781293 -0.07180982  0.28541222  0.08310621
 -0.11200261 -0.12662958  0.10384438 -0.04813926 -0.11383035  0.03285402
 -0.18366961 -0.16254802 -0.31793818  0.00831772  0.36018792  0.0296665
 -0.20896199 -0.01133785 -0.03283837  0.03403258  0.10550028  0.13845903
 -0.07276533 -0.00193352 -0.07250782 -0.02843234  0.18840115 -0.14156371
 -0.05399473  0.20308791  0.02173463  0.0767926   0.02646863  0.02256628
 -0.10427486  0.02246542 -0.13948135 -0.0807895   0.0992271  -0.02282295
  0.00534807  0.1156255  -0.20938134  0.12497251 -0.03657764  0.02364202
  0.04435452 -0.11044004 -0.07418524 -0.06765485  0.09747764 -0.22204347
  0.169159    0.19175409  0.03088918  0.11526298  0.11296228  0.0329488
 -0.02595726  0.07022817 -0.20102    -0.05350088  0.11411984  0.01330942
  0.03969745 -0.00657223]