[-1.26357600e-01  1.32078707e-01  4.64119278e-02 -1.85346063e-02
 -4.15061601e-02 -3.83758619e-02 -4.20218147e-03 -1.44810244e-01
  1.19877994e-01 -3.05359494e-02  2.26083860e-01 -5.85883558e-02
 -2.55888313e-01 -1.20717220e-01 -1.60825308e-02  1.58070832e-01
 -1.81361854e-01 -9.40042958e-02 -4.27086167e-02 -2.26635765e-02
  5.62498756e-02  5.61022833e-02  3.75898257e-02 -2.25281622e-02
 -9.42833349e-02 -3.66195828e-01 -8.98796469e-02 -7.80993551e-02
 -6.39182851e-02 -3.38477432e-03 -1.35382330e-02  9.90227759e-02
 -1.70694292e-01 -7.75827542e-02  7.31741115e-02  5.32912798e-02
 -3.41447778e-02  5.06041525e-03  1.71126679e-01  4.12547551e-02
 -1.51265815e-01  1.59874819e-02  6.94969371e-02  2.95102537e-01
  1.96313053e-01  5.09598851e-02  1.55194849e-02 -1.55398473e-01
  9.69008505e-02 -1.21569298e-01 -9.14465636e-04  1.45193830e-01
  4.85548712e-02  3.13780122e-02  5.02519123e-02 -1.28321350e-01
  2.76749860e-02  5.57165109e-02 -1.45236284e-01  9.39860661e-03
  9.35416743e-02 -1.07357755e-01 -7.42336661e-02 -4.81893308e-02
  2.01580986e-01  4.80261929e-02 -9.34916511e-02 -1.65560350e-01
  1.33546621e-01 -1.07830040e-01 -9.66113135e-02  4.21239324e-02
 -1.77635774e-01 -1.62142798e-01 -3.45781147e-01 -1.00852950e-02
  3.46560061e-01  3.63862999e-02 -2.12347627e-01  1.34973079e-02
 -1.84671339e-02  2.99823228e-02  1.94471151e-01  1.53768256e-01
 -4.68235351e-02  8.48620781e-04 -9.79676545e-02 -1.47515358e-02
  2.01644570e-01 -4.16379832e-02 -9.65065286e-02  2.02425003e-01
 -8.81284662e-03  5.28659783e-02  6.80223331e-02 -4.54435882e-04
 -3.12556997e-02  2.05799934e-05 -1.91799149e-01 -4.52682562e-02
  5.67752123e-02 -7.24354684e-02 -2.25411132e-02  1.44128233e-01
 -1.56126738e-01  6.54560849e-02  2.69315671e-02  4.27283123e-02
 -6.43458590e-03 -6.68816194e-02 -9.75324735e-02 -2.17848253e-02
  1.18296169e-01 -2.22471505e-01  2.02507719e-01  1.69388041e-01
 -2.39740661e-03  8.62589926e-02  8.66264030e-02  4.62746583e-02
 -5.56865931e-02  1.76369678e-02 -1.88285023e-01 -3.54548693e-02
  8.48371163e-02  3.77270728e-02  7.96881020e-02 -2.50017196e-02]