[-0.1194305   0.05019933  0.06511782 -0.05672907 -0.11214837  0.01326658
 -0.05413135 -0.1272811   0.10452855 -0.06408401  0.27154526 -0.07704718
 -0.23689616 -0.09716303 -0.06928543  0.18902878 -0.1461077  -0.08602996
 -0.03836819  0.01977902  0.0982855   0.0305625   0.06073344 -0.02242838
 -0.10726167 -0.36678785 -0.09294814 -0.05388569 -0.00306961 -0.05170644
 -0.03566033  0.10352343 -0.19000743 -0.0918933   0.05916542  0.10643959
 -0.06502267 -0.01252189  0.1549442   0.02658926 -0.1889842   0.01485579
  0.05775009  0.2644932   0.15504599  0.08847319  0.04522215 -0.15896864
  0.08944387 -0.17946881  0.03230587  0.12586556  0.08923893  0.05739697
  0.02213083 -0.07584136  0.05197562  0.08937736 -0.11344676  0.01769602
  0.11193786 -0.04653231 -0.07239861 -0.0898846   0.17652979  0.02092447
 -0.1001858  -0.15565333  0.10728625 -0.0452776  -0.11051477  0.08358853
 -0.19090198 -0.17088591 -0.3165457  -0.01377921  0.39467642  0.03233891
 -0.19157061 -0.00252471 -0.0143805   0.02555762  0.11589535  0.10347184
 -0.0140327   0.02061141 -0.07682652  0.02844263  0.19007683 -0.12633848
 -0.03261956  0.19723149  0.02893263  0.0710919   0.03423883  0.08171534
 -0.02528601  0.04809242 -0.16343509 -0.05450602  0.11214536 -0.01651912
  0.01080456  0.10525256 -0.16440997  0.1495422   0.00308528  0.03976335
  0.06471722 -0.06238416 -0.10238703 -0.03881424  0.12131145 -0.21923426
  0.15965414  0.21665525  0.02539128  0.06050351  0.11926204  0.06007159
 -0.02496935  0.02170811 -0.19932453 -0.06480314  0.10576407  0.01671287
  0.02245939 -0.0267044 ]