[-1.12476245e-01  4.24634330e-02  7.00657070e-02 -5.92723973e-02
 -9.71080139e-02  1.67705584e-02 -5.81391156e-02 -1.25717938e-01
  1.01570681e-01 -7.04757795e-02  2.61670679e-01 -7.96128139e-02
 -2.29787856e-01 -1.08601265e-01 -7.81218335e-02  1.90502152e-01
 -1.37461141e-01 -9.03195366e-02 -4.31780405e-02  1.49315018e-02
  1.00514114e-01  3.36676352e-02  5.89188933e-02 -2.93914508e-02
 -9.50173214e-02 -3.59307289e-01 -9.91943702e-02 -4.61701117e-02
  2.52624799e-04 -5.22656441e-02 -2.73767803e-02  9.76412818e-02
 -1.92073971e-01 -8.74978229e-02  5.85245788e-02  9.87496749e-02
 -5.30774482e-02 -1.42666698e-02  1.49528295e-01  3.33863981e-02
 -1.81050733e-01  1.35442717e-02  5.37403785e-02  2.65039891e-01
  1.55005082e-01  8.67997631e-02  4.23585139e-02 -1.61738187e-01
  9.46521685e-02 -1.78642139e-01  3.56658511e-02  1.27069727e-01
  8.89425799e-02  5.75598851e-02  2.69906763e-02 -6.96880594e-02
  5.59316352e-02  9.89926383e-02 -9.97320935e-02  2.72527691e-02
  1.06318608e-01 -3.29521634e-02 -7.79432878e-02 -8.53446871e-02
  1.67577237e-01  1.87760126e-02 -1.04563549e-01 -1.70312211e-01
  1.01329267e-01 -4.22169752e-02 -1.08505718e-01  8.09043944e-02
 -1.89975545e-01 -1.59437701e-01 -3.10894758e-01 -1.38879642e-02
  4.01703030e-01  2.02386491e-02 -2.01865301e-01  1.34714902e-03
 -1.78310946e-02  2.73258127e-02  1.21453501e-01  1.05602957e-01
 -1.87157243e-02  2.08991393e-02 -7.03757107e-02  1.83281656e-02
  1.89214587e-01 -1.20024957e-01 -3.70432884e-02  1.97468817e-01
  2.04929747e-02  7.11597130e-02  3.16228829e-02  7.68320560e-02
 -1.91968028e-02  5.71889989e-02 -1.56890512e-01 -5.66877536e-02
  1.16046391e-01 -1.86067764e-02  5.90186566e-03  1.01710133e-01
 -1.64327025e-01  1.57324940e-01  4.33519110e-03  5.25148213e-02
  7.53969178e-02 -5.94641827e-02 -1.09077118e-01 -3.18348594e-02
  1.23742260e-01 -2.16779619e-01  1.56861052e-01  2.16181710e-01
  2.84200851e-02  5.29452637e-02  1.30421415e-01  7.08537251e-02
 -1.47825209e-02  2.86377128e-02 -1.96096107e-01 -6.30937815e-02
  1.00236610e-01  1.40485559e-02  9.78616066e-03 -3.02863698e-02]