[-0.12705378  0.12997398  0.11379867 -0.02259685 -0.03672048 -0.04646406
 -0.03411146 -0.13117687  0.12021829 -0.03146153  0.2892085  -0.01163362
 -0.18715015 -0.1938574   0.04657991  0.18597822 -0.16631709 -0.12171469
 -0.06596362 -0.02109439  0.023835    0.04564179  0.06387436 -0.02549013
 -0.09978177 -0.39225662 -0.09322228 -0.08480879  0.01640801 -0.07096311
 -0.06064818  0.06248331 -0.16997787 -0.10008513  0.05472468  0.06834358
 -0.03974162  0.02850417  0.1773604   0.05652751 -0.20702937  0.02172967
  0.04137342  0.30500302  0.26888967  0.07636911  0.0340981  -0.10714865
  0.07441913 -0.18510531  0.05863422  0.12381265  0.10900941  0.03346175
  0.03184028 -0.12590815 -0.00770969  0.06770549 -0.18085998  0.01480227
  0.08778816 -0.12581895 -0.08285375  0.01792015  0.22169791  0.08081836
 -0.11654705 -0.15011598  0.13264374 -0.09972972 -0.07284867  0.06763568
 -0.17845856 -0.15522783 -0.38769624  0.02282985  0.37406465  0.01467045
 -0.24396865 -0.02664132 -0.04005792  0.03620186  0.12084267  0.15754436
 -0.06690955 -0.00227836 -0.10590847 -0.00491069  0.15156987 -0.05092358
 -0.04725149  0.21632119  0.01415669  0.07341467  0.04322038  0.07676225
 -0.01241934 -0.01095739 -0.16418794 -0.07053422  0.06383743 -0.01801642
  0.00709115  0.16668826 -0.18548204  0.13761859  0.02127939  0.03174853
  0.01855689 -0.05899149 -0.00964698 -0.08432259  0.09792823 -0.21499804
  0.15806182  0.25270483 -0.00806838  0.08946888  0.06492259  0.04311424
 -0.03912738  0.00333121 -0.17715651  0.00130483  0.04497454 -0.00076934
  0.04529174  0.01166235]