[-1.26340047e-01  9.72719118e-02  1.28936157e-01 -2.22667065e-02
 -1.51470140e-01 -8.74986965e-03 -8.76691774e-04 -1.30879194e-01
  9.45213214e-02 -9.84285101e-02  1.92490354e-01 -8.95211995e-02
 -1.97728768e-01 -4.36648726e-02  1.47280190e-02  2.19279990e-01
 -1.75063550e-01 -2.19982550e-01 -7.56109832e-03 -4.58089188e-02
  2.28088535e-02  2.73099393e-02 -1.59128755e-03  5.89802526e-02
 -1.58012554e-01 -3.48023146e-01 -8.04567114e-02 -8.59167203e-02
  5.23722870e-03 -6.56137615e-02 -4.30630967e-02  9.67884809e-02
 -1.26548126e-01 -1.91911459e-02  7.24915192e-02  1.63264900e-01
 -2.34381761e-02 -9.23789889e-02  1.51986808e-01  1.58335678e-02
 -2.85986036e-01  5.49536124e-02  1.17968738e-01  2.81040460e-01
  2.33671144e-01  2.57212557e-02 -2.34367209e-03 -4.41182032e-02
  1.36297137e-01 -2.29833364e-01  3.12152151e-02  1.15977280e-01
  6.88565075e-02  4.29375842e-02  8.71490687e-02 -1.71016723e-01
 -9.52654984e-03  6.93472400e-02 -1.51867926e-01 -2.97583397e-02
  5.44491410e-02 -7.11299181e-02  4.48393635e-02 -7.51006007e-02
  1.63962156e-01  8.80769864e-02 -7.44155794e-02 -7.49082938e-02
  2.00528339e-01 -1.26992822e-01 -7.83583745e-02  5.97927272e-02
 -1.68903396e-01 -1.49014384e-01 -2.42235452e-01 -1.26977256e-02
  4.19767946e-01  1.01771228e-01 -1.81585059e-01  2.29092408e-02
  4.58471887e-02  4.76503670e-02  1.04811125e-01  1.74259320e-01
  2.87844148e-02 -5.64219605e-04 -9.95691046e-02 -2.36340356e-03
  1.85502514e-01 -4.89367656e-02 -8.18719994e-03  1.98568344e-01
  1.85099151e-02  3.44401821e-02  8.65321308e-02  5.64128868e-02
 -6.39784560e-02  2.25279178e-03 -2.03138337e-01 -7.74211809e-02
 -4.21685763e-02 -7.52008799e-03 -2.15458497e-02  1.20097756e-01
 -1.66065052e-01  1.19661860e-01  2.73499433e-02  1.22099882e-02
 -7.58333132e-02  2.24773381e-02 -1.13672321e-03  6.70077978e-03
  9.73492563e-02 -2.34755874e-01  1.22444466e-01  2.04572544e-01
 -9.26749632e-02  1.28049299e-01  4.73490059e-02  4.04902771e-02
  2.96611339e-04 -7.21901879e-02 -1.53157562e-01 -7.33963773e-02
  5.84160984e-02 -3.01082730e-02  2.20458116e-02  3.93340401e-02]