[-0.11189927  0.09539828  0.06031522 -0.01489493 -0.08903006 -0.04447254
 -0.07131573 -0.12225491  0.08579405 -0.05114834  0.24511731 -0.08005264
 -0.24077871 -0.10523032 -0.0283796   0.17819692 -0.14941385 -0.10317139
  0.02357331 -0.04399739  0.0653403   0.04545496  0.04848238 -0.05361845
 -0.12206151 -0.38518447 -0.10620836 -0.09755375 -0.05169052 -0.05545094
 -0.02341142  0.05819542 -0.16884582 -0.08445169  0.07238957  0.05577149
 -0.05976776 -0.02708965  0.17501198  0.04292192 -0.12072337 -0.01014072
  0.07910806  0.2855345   0.16401996  0.10483929  0.04649755 -0.18047233
  0.12051868 -0.14236285  0.04398451  0.11737746  0.08614099  0.06593546
  0.01090887 -0.08558161  0.07738077  0.03154519 -0.17853354 -0.00322788
  0.13891648 -0.02625607 -0.08633839 -0.0501955   0.26698574  0.0217233
 -0.10260924 -0.13415781  0.12846547 -0.0838019  -0.118683    0.02476841
 -0.16538484 -0.18025453 -0.32450527  0.02011456  0.32940623  0.04668235
 -0.19560623  0.00925422 -0.01822636  0.01529311  0.13008283  0.11773869
 -0.03858024 -0.00408325 -0.09210483 -0.00570995  0.21275528 -0.11016437
 -0.05638362  0.17694204  0.02134384  0.09263639  0.05836616  0.0659567
 -0.08369701  0.03417632 -0.1564267  -0.05357787  0.09727491 -0.02090992
 -0.01047436  0.1502014  -0.17209415  0.16641563 -0.01036608 -0.00176733
  0.00098499 -0.08272305 -0.09148275 -0.05208044  0.09761056 -0.20794404
  0.16363502  0.17482953  0.03975485  0.1146756   0.09173127  0.05475622
 -0.05292537  0.01612116 -0.23064347 -0.06091631  0.08007683  0.03102274
  0.04094066  0.00105921]