[-0.08518683  0.14199492  0.06288151 -0.0184903  -0.06419548 -0.07037043
 -0.0197331  -0.13852023  0.1254646  -0.00089909  0.26681519 -0.04582847
 -0.22145699 -0.10900451 -0.00596448  0.16345529 -0.15645349 -0.08732957
 -0.09206352 -0.01138624  0.0926117   0.02414693  0.04513508 -0.02591441
 -0.09623372 -0.3476325  -0.10999395 -0.05056675  0.0244897  -0.05020236
 -0.03095215  0.02085703 -0.18400644 -0.11247616  0.06218527  0.01947475
 -0.04632111 -0.00921631  0.16024511  0.06792108 -0.19884531  0.04599124
  0.06630428  0.2816202   0.20656632  0.10213812  0.02503378 -0.15890476
  0.07789208 -0.17158103  0.05189539  0.13851385  0.0828125   0.03921315
  0.08825883 -0.10608902  0.03998893  0.07373851 -0.18283799  0.00656519
  0.11080809 -0.0455918  -0.06158382 -0.04411963  0.17994128  0.07605945
 -0.06900884 -0.11801481  0.11410227 -0.10892928 -0.08313809  0.04837021
 -0.14411059 -0.1619892  -0.36042538 -0.01846486  0.4219335   0.05820652
 -0.22930188 -0.00495397 -0.02115215  0.02585166  0.18952493  0.0866451
 -0.07336623  0.01605999 -0.11041103  0.00302551  0.18315849 -0.07972742
 -0.02990257  0.21913187  0.03033654  0.04616688  0.05816742  0.03454386
 -0.04292218 -0.01466062 -0.1690128  -0.0776087   0.06320076 -0.03375911
  0.00205985  0.11781938 -0.18557084  0.08115212  0.06133813  0.00108257
 -0.00381742 -0.03390412 -0.05268995 -0.0684141   0.0915933  -0.21214405
  0.17981088  0.20797244 -0.03615608  0.0526031   0.05142576  0.04505376
 -0.05482623  0.00142419 -0.12863575 -0.03123268  0.04464527  0.01592229
  0.053539   -0.0185926 ]