[-0.1154956   0.04689094  0.0722378  -0.05569029 -0.0973835   0.01871187
 -0.06325958 -0.12566589  0.10350212 -0.06817961  0.26777557 -0.07854322
 -0.23482659 -0.10274559 -0.07519303  0.19397296 -0.1338924  -0.0933357
 -0.03721834  0.02280571  0.10535254  0.03361282  0.0504585  -0.02914853
 -0.10596271 -0.36041662 -0.10198127 -0.04399846 -0.00817908 -0.05465891
 -0.03669972  0.0943594  -0.18972062 -0.08572252  0.06437203  0.10271841
 -0.06208805 -0.01597134  0.15284382  0.03342731 -0.18322219  0.01748273
  0.05678192  0.26281884  0.15190677  0.08601992  0.04675036 -0.16538541
  0.09246354 -0.17742956  0.03859495  0.12847547  0.09615155  0.06364936
  0.0261189  -0.07811593  0.05681727  0.09966629 -0.10692079  0.02650442
  0.11077964 -0.04221549 -0.0772192  -0.08263432  0.16770621  0.01877966
 -0.10467495 -0.16898151  0.10573538 -0.0350198  -0.10492178  0.08403923
 -0.19394058 -0.1705458  -0.31573644 -0.00784925  0.40512308  0.02326343
 -0.20260373  0.00251797 -0.00933821  0.02831136  0.11786988  0.10239177
 -0.01879982  0.01702256 -0.07500671  0.0256223   0.19195393 -0.11830956
 -0.03423119  0.18908036  0.02393964  0.07368994  0.03418205  0.08072107
 -0.01973136  0.05087186 -0.15564428 -0.05422063  0.10763452 -0.01717889
  0.00551213  0.10683995 -0.16109243  0.15880069  0.00676477  0.04333365
  0.06264703 -0.05823838 -0.10868015 -0.02960317  0.11878712 -0.22139454
  0.15673403  0.21100596  0.0318004   0.05553952  0.12475578  0.06840692
 -0.0193503   0.02692194 -0.20247881 -0.06354143  0.10190459  0.01683915
  0.01996053 -0.02799483]