[-0.07407504  0.10739107  0.03748352 -0.00974132 -0.0406113  -0.06444278
 -0.02747681 -0.18431859  0.14211999 -0.04194496  0.21634899  0.01242703
 -0.21143444 -0.15103744  0.01574856  0.15945165 -0.15119426 -0.11511683
 -0.02542757 -0.03481298  0.06116074  0.04488569  0.06894781 -0.0075827
 -0.08928329 -0.3328594  -0.09736655 -0.10538407 -0.02705235 -0.02643658
 -0.02485394  0.07301861 -0.17729114 -0.07233088  0.06407832  0.00576208
 -0.03880475 -0.00990567  0.17586806  0.04436759 -0.16748136  0.02083936
  0.03889247  0.25759658  0.20759165  0.05030477  0.04254068 -0.1462754
  0.12966493 -0.1435961   0.02647691  0.13248384  0.07475837  0.0034157
  0.03178345 -0.11663926 -0.0108815   0.05298487 -0.15517733  0.04807756
  0.10045208 -0.0777325  -0.14036456 -0.05168451  0.19224381  0.07250413
 -0.10345291 -0.15561529  0.1192992  -0.1254524  -0.11339851  0.03285025
 -0.19950584 -0.18897374 -0.30916607 -0.00358617  0.31439504  0.04503141
 -0.22345845  0.0225556  -0.03441985  0.09487755  0.15489176  0.12537722
 -0.0151135  -0.0034526  -0.0772645  -0.03752483  0.19714306 -0.08850794
 -0.07900919  0.23364483 -0.01836433  0.07351045  0.01926484  0.00543499
 -0.00395714 -0.00200362 -0.17967047 -0.0655367   0.0734083  -0.0131704
  0.00123327  0.12623616 -0.1632669   0.08222369  0.02191556  0.05949058
  0.04791206 -0.03799811 -0.11376599 -0.08819544  0.09549964 -0.18687122
  0.23369186  0.19099985  0.00358299  0.07230756  0.06573282  0.06148106
 -0.03115076  0.01129609 -0.17467713 -0.03624139  0.10606879  0.03497869
  0.02220537 -0.0408342 ]