[-0.05087892  0.14078465  0.08278741 -0.01991407 -0.00299452 -0.04948736
 -0.04197187 -0.1450703   0.10740888 -0.03003902  0.26242554 -0.02773311
 -0.22596872 -0.10758251 -0.01746261  0.1684705  -0.16427863 -0.09218308
 -0.05681974  0.01785739  0.06615423  0.03726582  0.07258282 -0.03589708
 -0.06036661 -0.34133473 -0.13101675 -0.04430107  0.00357479 -0.05086009
 -0.06265741 -0.00142666 -0.20244305 -0.1019922   0.08352644  0.03449977
 -0.05975157 -0.03025208  0.17943859  0.07349191 -0.16955958  0.06917366
  0.05185654  0.28075212  0.18974744  0.10782798  0.01817727 -0.18661037
  0.06942751 -0.15211515  0.07319391  0.1406616   0.06650474  0.08653636
  0.01152989 -0.13385727  0.03879077  0.0716461  -0.12847501  0.01908391
  0.13042383 -0.0530564  -0.05394982 -0.03231297  0.19354442  0.03216482
 -0.1278982  -0.13221928  0.08349464 -0.06604831 -0.06614255  0.04945933
 -0.16268745 -0.17137118 -0.31303394  0.0342811   0.40142179  0.0339335
 -0.21806224 -0.02420314 -0.0686547   0.03867191  0.15466826  0.1113229
 -0.04068995  0.00419237 -0.08444355  0.00370683  0.19956826 -0.07778704
 -0.06475508  0.19653384 -0.0120453   0.08846762  0.03652436  0.070147
 -0.02169358  0.02230245 -0.18403634 -0.03606735  0.04540463 -0.05261214
 -0.03601618  0.13348292 -0.1893878   0.10659998  0.07179611 -0.00557617
  0.0404272  -0.0255187  -0.10414044 -0.06464251  0.09623321 -0.25689906
  0.23835647  0.23978975  0.03114814  0.07155909  0.09059183  0.07680147
 -0.03155483 -0.00951073 -0.17310168 -0.05369649  0.072621    0.06904245
  0.06254426 -0.02794367]