[-0.11200931  0.02156662  0.06621552 -0.0757239  -0.07860889 -0.00169106
 -0.04177691 -0.13266098  0.11690021 -0.0837585   0.24732561 -0.01149723
 -0.20706859 -0.0849652  -0.03274891  0.16744362 -0.1534054  -0.09548977
 -0.04040043  0.00557098  0.08900671  0.05209967  0.06336893 -0.03162105
 -0.09962256 -0.36484662 -0.11795118 -0.06499084  0.00489653 -0.06841198
 -0.04471396  0.06179119 -0.18504606 -0.06149026  0.04782913  0.05975395
 -0.0595696  -0.02965338  0.14318766  0.05815091 -0.1786381   0.03817018
  0.04325724  0.2572948   0.17698614  0.10438289  0.02813597 -0.20787692
  0.07353524 -0.19589132  0.05417892  0.10843662  0.038764    0.05691333
  0.0241173  -0.09397506  0.05455969  0.02715493 -0.14194934  0.03512931
  0.10681304 -0.01860543 -0.07316492 -0.06583924  0.21692684  0.06892582
 -0.10793664 -0.1464633   0.12491877 -0.07632066 -0.11195306  0.05115305
 -0.17887421 -0.17565118 -0.27996182 -0.00595355  0.36501533  0.05439914
 -0.2222005  -0.01314256 -0.06631968  0.03978268  0.1491936   0.097333
 -0.03737544  0.00466238 -0.07560309  0.02379962  0.21482395 -0.09939484
 -0.03758773  0.2271318   0.04138477  0.06677856  0.06178768  0.1011067
 -0.04982689  0.02666929 -0.20424052 -0.09030833  0.12142124  0.00219895
  0.01702349  0.17279546 -0.16361995  0.17909427  0.00299468 -0.00831813
  0.08161157 -0.05262184 -0.09256802 -0.07156686  0.09427996 -0.18581481
  0.18639074  0.21643181  0.05793815  0.06657082  0.0882984   0.07532205
 -0.06124911  0.02061049 -0.21068239 -0.02173937  0.09479355  0.03331648
  0.01929556 -0.0197196 ]