[-1.17505014e-01  1.22169890e-01  1.20583296e-01 -4.21609351e-04
 -9.25925747e-02 -2.51155701e-02 -8.56135115e-02 -1.57147378e-01
  1.00080930e-01 -7.25899264e-02  2.62800306e-01 -2.97015198e-02
 -2.32061058e-01 -1.00816846e-01 -3.40565629e-02  1.68525741e-01
 -1.51481017e-01 -1.15211979e-01 -2.21114811e-02 -5.20673469e-02
  4.12769355e-02  3.59810628e-02  8.82298350e-02 -7.97644258e-02
 -1.33971840e-01 -3.65752727e-01 -6.77286610e-02 -1.13272920e-01
 -2.26424318e-02 -2.27467641e-02 -5.67607582e-02  3.23236138e-02
 -1.66931018e-01 -8.73570442e-02  6.96857721e-02  4.52885367e-02
 -8.38282332e-02 -2.18405444e-02  2.07757831e-01  2.98779011e-02
 -1.35609582e-01  1.46856457e-02  4.63676825e-02  2.82377928e-01
  1.70411333e-01  9.88567695e-02  5.50713018e-02 -1.95102155e-01
  1.56699538e-01 -1.76362798e-01  5.52413128e-02  1.33504555e-01
  1.11992441e-01  4.70239110e-02  3.52500789e-02 -1.00767903e-01
  6.51703253e-02  6.58287182e-02 -1.79755852e-01  1.16446046e-02
  1.27638206e-01 -3.86439078e-02 -1.06766008e-01 -6.77590519e-02
  2.80989498e-01  6.99045584e-02 -1.19637780e-01 -1.29141018e-01
  9.55506116e-02 -5.00885807e-02 -1.09131835e-01  3.76022570e-02
 -1.79442197e-01 -1.67921707e-01 -3.18730503e-01  1.38619943e-02
  3.54080439e-01  3.59366201e-02 -2.04384923e-01 -1.10313324e-02
 -4.08588648e-02  2.78019812e-02  1.05134904e-01  1.25127569e-01
 -8.43581185e-02 -1.52513757e-03 -6.29051030e-02 -2.41629146e-02
  1.87539443e-01 -1.22826271e-01 -5.74199148e-02  1.90288827e-01
  2.78533902e-02  8.01499411e-02  2.93499362e-02  3.74284945e-02
 -1.05881952e-01  1.77524984e-02 -1.60829395e-01 -7.72049651e-02
  9.63780507e-02 -1.11675261e-04  1.95440594e-02  1.26450881e-01
 -2.01314136e-01  1.33589104e-01 -3.22198384e-02  1.09340670e-02
  5.56711517e-02 -1.05043903e-01 -7.83684775e-02 -7.57593736e-02
  9.72435549e-02 -2.26082191e-01  1.69628307e-01  1.90425798e-01
  4.31309305e-02  1.09640457e-01  1.15944162e-01  2.08155438e-02
 -4.06622402e-02  7.28726313e-02 -2.07222804e-01 -5.50047420e-02
  1.10501602e-01  1.51675856e-02  4.03363667e-02 -1.23513555e-02]