[-0.06144669  0.15662369  0.11233524 -0.01917372 -0.01580238 -0.01355721
 -0.01570898 -0.14815557  0.13422754 -0.07231016  0.32546669 -0.0020099
 -0.20556371 -0.13996957  0.03491754  0.18307626 -0.1942693  -0.10368527
 -0.08702785 -0.02069177  0.00093221  0.04135304  0.05360679 -0.02598997
 -0.07376622 -0.35565206 -0.06332024 -0.1004883   0.03131602 -0.09205194
 -0.0641581   0.06653249 -0.13374673 -0.05971351  0.03918132  0.03545202
 -0.01634448  0.01890289  0.18369053  0.06403071 -0.19174479  0.02990566
  0.02256173  0.2846911   0.29258093  0.02738485  0.01502018 -0.11683457
  0.05392141 -0.22520261  0.02060657  0.09471376  0.11073016  0.05118459
  0.01572223 -0.14663935 -0.04998691  0.03614881 -0.16774137 -0.00108901
  0.08274689 -0.12873998 -0.0511478   0.03185057  0.24103287  0.10393124
 -0.11540715 -0.13344613  0.14237066 -0.11400827 -0.08075396  0.04306429
 -0.14777021 -0.1277163  -0.31053755  0.02076609  0.3898432   0.03928029
 -0.24226189 -0.02943353 -0.11045946 -0.00203699  0.08942237  0.11563351
 -0.05147896 -0.02965697 -0.08790425 -0.00856121  0.17414138 -0.06890525
 -0.02875715  0.2264407  -0.01839402  0.05227144  0.0495843   0.0422188
 -0.03053467 -0.00173558 -0.1825875  -0.09882271 -0.00968326 -0.04686597
  0.02467154  0.16568746 -0.20936237  0.13289584  0.01317095 -0.00408032
  0.0655157  -0.01448237  0.00412075 -0.08864629  0.13681243 -0.21396926
  0.16507925  0.23132072  0.02495465  0.09406833  0.04929757  0.07218447
 -0.03120339  0.00385543 -0.15621464 -0.00148916  0.02474333  0.01148884
  0.02474592 -0.00121289]