[-0.10937927  0.05635396  0.12693895 -0.03647384 -0.06392685  0.00098704
 -0.06994022 -0.13022237  0.07251465 -0.08098485  0.2870965  -0.08147084
 -0.26161578 -0.08581551 -0.03383159  0.1712137  -0.10835829 -0.08602905
  0.0191459  -0.01997917  0.08172552  0.02842684  0.04210555 -0.04564796
 -0.13937865 -0.33171129 -0.10730368 -0.03586005 -0.05817818 -0.06312566
 -0.04411041  0.05273411 -0.17331801 -0.03602148  0.0478477   0.08166741
 -0.05418491 -0.05101003  0.15901755  0.08052324 -0.1567748   0.03763914
  0.03207099  0.27235022  0.11757668  0.08357686  0.03127385 -0.22083688
  0.1106022  -0.19908145  0.07251122  0.11575947  0.0936878   0.03062632
  0.01356937 -0.11925494  0.05759756  0.0741462  -0.18234059  0.018063
  0.0891028  -0.01369653 -0.07181948 -0.07885922  0.19693197  0.1163569
 -0.125434   -0.11441045  0.10930514 -0.03524623 -0.09789365  0.06578734
 -0.15204449 -0.19851576 -0.31965831  0.02137974  0.35947227  0.02967652
 -0.24867406 -0.03295306 -0.01489047  0.03201705  0.14428441  0.147709
 -0.06454373  0.02022575 -0.06496898  0.01860793  0.17995661 -0.10332044
 -0.0458391   0.21937814  0.04525857  0.09137763  0.05395976  0.09704947
 -0.06952067  0.01873204 -0.17318979 -0.08158579  0.09030123 -0.01083935
  0.00310711  0.14431843 -0.21981882  0.17609474  0.02052352 -0.04777024
  0.04751287 -0.09504811 -0.04370875 -0.01799943  0.07656358 -0.26252943
  0.11617656  0.1867687   0.03657728  0.1134117   0.10594125  0.04686196
 -0.03328489 -0.01184114 -0.19545047 -0.03251344  0.08513975  0.02991393
  0.02402238 -0.0208071 ]