[-0.073828    0.06849907  0.06295793 -0.01339107 -0.06526551 -0.09857734
 -0.02588617 -0.16010034  0.08002104 -0.03698543  0.22162746 -0.01489568
 -0.21932271 -0.11633722  0.02289092  0.14686714 -0.16618496 -0.08084351
 -0.03085733  0.00297008  0.06009495  0.02595996  0.05461996 -0.03092156
 -0.0694553  -0.35289893 -0.1199106  -0.07408296 -0.03307515 -0.0255515
 -0.02918378  0.07386585 -0.1711666  -0.09186916  0.06902117  0.03380845
 -0.0649513  -0.01689978  0.17304979  0.04235744 -0.17513597  0.02740891
  0.04839818  0.25165614  0.21715787  0.07031353  0.03738112 -0.16359644
  0.11841245 -0.16322233  0.02905986  0.12042054  0.0604431   0.0577825
  0.01308376 -0.10045075  0.05624396  0.04574563 -0.18498816 -0.00717098
  0.1165214  -0.06982193 -0.06942123 -0.01427473  0.19466233  0.05398906
 -0.07573482 -0.14273144  0.11403053 -0.13785015 -0.1105863   0.02686072
 -0.18010336 -0.19050834 -0.3113896   0.0012564   0.32600513  0.0604417
 -0.20338361  0.00828062 -0.04342002  0.03247994  0.19181643  0.10306914
 -0.00855037  0.00521186 -0.08399146 -0.00412632  0.21432853 -0.10525278
 -0.05088442  0.2232447   0.03342512  0.08525957  0.0672942   0.01477124
  0.00270339  0.02661631 -0.21098439 -0.04226492  0.0638824  -0.01698457
  0.00933783  0.12982628 -0.16368286  0.11851247  0.03290324  0.01772106
  0.0153556  -0.08840785 -0.10373972 -0.07615016  0.08733546 -0.19631727
  0.21579516  0.20692377  0.02084037  0.0741511   0.05412082  0.0327988
 -0.04327701 -0.02057849 -0.18682878 -0.00579249  0.11404069  0.06027705
  0.03143656 -0.03323687]