[-0.09101989  0.13645315  0.05177397 -0.02547653 -0.04996229 -0.06170811
 -0.02496355 -0.13806681  0.1200883  -0.01413046  0.24766551 -0.01259899
 -0.22274692 -0.12845522  0.00511345  0.16972852 -0.1430289  -0.10715606
 -0.1008186  -0.01034546  0.08205019  0.0359985   0.05132027 -0.02841055
 -0.09042121 -0.34456989 -0.11381557 -0.04457567  0.0014108  -0.04340307
 -0.02554778  0.03992715 -0.19121668 -0.10805696  0.07632735  0.03751299
 -0.04461122  0.0131597   0.17250009  0.06465412 -0.20069198  0.04995043
  0.08976292  0.28013185  0.21134363  0.09413659  0.02280407 -0.15482163
  0.0720153  -0.15228999  0.0480419   0.13952616  0.09362061  0.05184092
  0.07297845 -0.09881613  0.05378084  0.06074341 -0.17814498  0.00183149
  0.10537904 -0.08019102 -0.07631259 -0.01980609  0.17269616  0.06019725
 -0.07098486 -0.13334028  0.11038947 -0.12074395 -0.08437952  0.05878712
 -0.14719479 -0.15530637 -0.35651353 -0.02997134  0.40917417  0.06163788
 -0.23360728  0.00893564 -0.01269602  0.01156635  0.18407939  0.10465556
 -0.07217117  0.02455703 -0.10733151  0.01558043  0.19295445 -0.06301728
 -0.03152002  0.22019415  0.05014819  0.06118157  0.06655097  0.03935112
 -0.02467895 -0.0319079  -0.1859984  -0.08171393  0.04419481 -0.02633471
  0.00145384  0.11332371 -0.16507146  0.09033986  0.06212581  0.01025479
 -0.01289504 -0.02189847 -0.04949879 -0.08335979  0.07726694 -0.19338177
  0.16807352  0.20732668 -0.04398717  0.04606491  0.06675668  0.06062535
 -0.05771774 -0.00643029 -0.13763328 -0.03288465  0.05506752  0.02390748
  0.08232993 -0.01784631]