[-0.06396529  0.08589375  0.06994707 -0.00302302 -0.05795379 -0.0982703
 -0.01444314 -0.15962107  0.09798148 -0.02180928  0.22102232 -0.01486578
 -0.22598715 -0.1022753   0.02780261  0.14371157 -0.1569486  -0.0766636
 -0.03467781  0.00763279  0.05911943  0.0324969   0.05206351 -0.02124109
 -0.06854802 -0.35306877 -0.13513935 -0.06132634 -0.01762441 -0.0400006
 -0.02798057  0.08870523 -0.16466407 -0.10159991  0.0761499   0.01067591
 -0.07042136 -0.03139962  0.18727799  0.04701757 -0.16439067  0.03499366
  0.04466912  0.27051795  0.21498144  0.07042465  0.05073031 -0.17274509
  0.10792682 -0.16456465  0.03760777  0.14107478  0.06100712  0.06279644
  0.01525208 -0.11676756  0.04731197  0.03514692 -0.19091567  0.01531979
  0.12858878 -0.06875834 -0.07238673 -0.02113371  0.18142425  0.04562692
 -0.08494433 -0.14538398  0.10987047 -0.13929836 -0.09473485  0.02527644
 -0.1924547  -0.20244339 -0.31697285  0.01345998  0.32591525  0.06457737
 -0.20986211  0.01289581 -0.0491383   0.03544144  0.17542844  0.11291089
 -0.01458718 -0.01622318 -0.07935114  0.00333849  0.20708536 -0.09914271
 -0.05614699  0.23013346  0.03469511  0.06536134  0.05624571  0.02727739
 -0.00283644  0.0176576  -0.19768147 -0.02889536  0.06054954 -0.02242471
  0.0055998   0.14489172 -0.17233239  0.13258107  0.03610269  0.01421838
  0.01744397 -0.08658461 -0.11836465 -0.0799377   0.09511803 -0.2084866
  0.21438555  0.20611297  0.01473557  0.07291537  0.04012219  0.05638422
 -0.03668181 -0.01004899 -0.17263797 -0.01025724  0.10777346  0.06276651
  0.01747632 -0.03310722]