[-0.08351221  0.10227628  0.06976443  0.01465374 -0.01300906 -0.08424451
  0.03726616 -0.12795106  0.09688868 -0.04137618  0.29227871 -0.06528345
 -0.19789003 -0.19013807  0.01739156  0.1565457  -0.20293383 -0.05989095
 -0.10584761 -0.00798034  0.01445356 -0.00525271  0.05788754 -0.00769247
 -0.01880441 -0.38732812 -0.07910177 -0.08895303  0.08065135 -0.0319946
 -0.0394918   0.11553593 -0.22393565 -0.1327807   0.01043746  0.07708063
 -0.00814272  0.01696515  0.17935711 -0.01501048 -0.15195887 -0.00599731
  0.02264908  0.23733477  0.22144023  0.04864827 -0.00487501 -0.07910871
  0.0773109  -0.16233352 -0.00619529  0.12052254  0.11612328  0.03115842
  0.03759332 -0.06940552 -0.00549293  0.03974048 -0.1543328  -0.02814463
  0.04288477 -0.13409804 -0.04341695 -0.06466706  0.17012691  0.01124176
 -0.04264587 -0.10461246  0.15191014 -0.14698981 -0.03137904  0.04090486
 -0.11638729 -0.12406383 -0.36036813  0.01357988  0.33581242  0.07124355
 -0.17452781  0.02735076 -0.0658147  -0.04954084  0.12411026  0.08938482
 -0.02704649  0.02184367 -0.09694299  0.01741727  0.15596405 -0.07903095
 -0.01706982  0.18464096 -0.05376329  0.05864006  0.03416985 -0.05237101
  0.00519629  0.00686146 -0.15731473 -0.00457239  0.04962973 -0.08490627
 -0.00605915  0.08233738 -0.14436817  0.01627042  0.01343536  0.0190139
  0.05962522 -0.05243502 -0.08899202 -0.09409132  0.14012577 -0.19647044
  0.20323125  0.20607093 -0.06495741  0.08097108  0.05658478  0.09457599
 -0.06039473 -0.02368705 -0.15504976 -0.040075    0.10198206  0.01316885
  0.04506926 -0.03415477]