[-0.08598017  0.09094983  0.05272689  0.00266534 -0.01860525 -0.10314703
  0.02709614 -0.11104735  0.09363273 -0.06143901  0.2511147  -0.08457527
 -0.19756599 -0.16373049  0.00595697  0.16698395 -0.19376734 -0.0515249
 -0.11720755 -0.02135952  0.01068103 -0.01027207  0.04111375 -0.02551185
 -0.03560741 -0.40278983 -0.08583823 -0.0932574   0.07018971 -0.02276293
 -0.04781526  0.10591996 -0.22300684 -0.13919826  0.00788505  0.07818078
 -0.04562959 -0.0318282   0.19551893 -0.0073992  -0.15260831  0.00289544
  0.04933074  0.2267613   0.23150074  0.03791991  0.02477537 -0.08861279
  0.10275632 -0.12035876 -0.00936775  0.10403543  0.10089087  0.08497631
  0.03104844 -0.06124464  0.03764896  0.04672062 -0.16481058 -0.02746234
  0.07358931 -0.15556733 -0.05224845 -0.0506867   0.18516831  0.01588325
 -0.03520283 -0.10962184  0.1698437  -0.1695448  -0.02447833  0.01316931
 -0.10299934 -0.12263719 -0.3295339   0.01612242  0.3084161   0.11558124
 -0.16659477  0.04047079 -0.03867525 -0.06353062  0.17082299  0.13969253
 -0.00235811  0.02084714 -0.07240456  0.00489555  0.18328585 -0.06174732
 -0.0293169   0.16950703 -0.03457302  0.04695029  0.05024477 -0.0702014
 -0.04407008  0.00221555 -0.13316105 -0.00594859  0.06078269 -0.09890778
 -0.01570013  0.06734735 -0.1054102   0.0652586   0.00309647  0.0421223
  0.04646389 -0.06564148 -0.05924146 -0.07401588  0.12036302 -0.16455629
  0.21627453  0.17662211 -0.0618303   0.10503282  0.07709718  0.11446079
 -0.05589324 -0.00534796 -0.18384576 -0.05240556  0.09382694  0.03954171
  0.10337352 -0.02575688]