[-6.96289763e-02  1.03057936e-01  6.85593933e-02  1.47273513e-02
 -8.34853388e-03 -8.91347602e-02  3.10120936e-02 -1.19716406e-01
  8.57229978e-02 -3.18607651e-02  3.05483580e-01 -5.02691381e-02
 -1.88720211e-01 -1.97252393e-01  2.95233428e-02  1.53556213e-01
 -1.82464510e-01 -5.01285158e-02 -1.25192806e-01  7.25940568e-03
  1.05071114e-02 -6.20797882e-03  7.98192844e-02 -6.67294255e-03
 -1.83413085e-02 -3.92099857e-01 -8.51605237e-02 -8.16960111e-02
  9.59191248e-02 -3.83846313e-02 -4.17775176e-02  1.04653955e-01
 -2.15740710e-01 -1.35742664e-01  1.64814517e-02  7.14556053e-02
 -7.92350341e-03  2.10435572e-03  1.93954304e-01 -8.02822411e-03
 -1.63066372e-01  1.03783617e-02  8.77907313e-03  2.39977822e-01
  2.36891508e-01  4.63171564e-02 -3.25505447e-04 -7.48052746e-02
  7.41638392e-02 -1.73118576e-01  6.54608896e-03  1.11114278e-01
  1.11889958e-01  3.15704867e-02  3.96985561e-02 -5.92665635e-02
  3.45193967e-03  4.14626934e-02 -1.61839947e-01 -3.50652151e-02
  3.09707019e-02 -1.33649811e-01 -3.82113270e-02 -6.94096461e-02
  1.61755010e-01  1.81222912e-02 -4.66673188e-02 -9.69941542e-02
  1.46520972e-01 -1.48031518e-01 -2.03086864e-02  4.49136645e-02
 -1.21768892e-01 -1.23099618e-01 -3.61634135e-01  1.84230153e-02
  3.27296525e-01  8.38553309e-02 -1.92649081e-01  1.40293865e-02
 -5.81820384e-02 -4.62319925e-02  1.18814901e-01  8.85301381e-02
 -2.11466309e-02  6.62648259e-03 -9.53083038e-02  1.59694999e-02
  1.61041230e-01 -8.30207467e-02 -2.06872374e-02  2.00013980e-01
 -4.79035750e-02  6.44958317e-02  3.84208485e-02 -4.04350534e-02
  9.40132421e-03  4.58762042e-05 -1.53541476e-01  9.16341785e-03
  5.75033389e-02 -8.37255344e-02 -3.96701274e-03  8.70455280e-02
 -1.45488545e-01  2.55089235e-02  1.11425985e-02  1.72080528e-02
  7.63514340e-02 -5.14997132e-02 -8.29286575e-02 -1.01519287e-01
  1.39072284e-01 -1.86391145e-01  2.13871792e-01  2.17512444e-01
 -5.90977669e-02  6.96368217e-02  5.65049537e-02  9.25043821e-02
 -5.91747724e-02 -1.90361179e-02 -1.50519133e-01 -4.15094048e-02
  9.42742750e-02  7.57571170e-03  4.27299701e-02 -3.41931991e-02]