[-0.01261552  0.11807022  0.06322201  0.00504375 -0.05982617 -0.06993302
 -0.03543112 -0.10909326  0.04576687  0.00288216  0.26011983 -0.05887008
 -0.20768061 -0.12281688  0.00847728  0.1411635  -0.18129109 -0.07345372
 -0.13649523  0.03221266 -0.02261032 -0.01753376  0.07258254 -0.03155447
 -0.04691169 -0.38882458 -0.11801424 -0.05494054  0.10087798 -0.05425974
 -0.03540305  0.05782798 -0.19653444 -0.13011906  0.05393353  0.04608006
 -0.04726764 -0.07099166  0.2282151   0.04207178 -0.18020698  0.03021239
  0.00473695  0.2405068   0.21473478  0.04738882  0.05043773 -0.07835372
  0.08131641 -0.14323543  0.04666158  0.13766882  0.16666135  0.04843287
  0.02291227 -0.06722685  0.04641111  0.11892631 -0.18839048 -0.02263646
  0.05222763 -0.1185675  -0.02742141 -0.05152603  0.15641384  0.07265783
 -0.02691579 -0.1454037   0.1646661  -0.13539982 -0.05102664  0.0086842
 -0.09940672 -0.10661294 -0.33114177 -0.02582068  0.31124425  0.06135601
 -0.2420992   0.00216201 -0.0342623  -0.06070912  0.09764265  0.10249835
 -0.06858362  0.00576396 -0.08771705 -0.03929945  0.20101114 -0.08348492
 -0.01833289  0.16549852 -0.01191503  0.03333602  0.10183312 -0.05069901
 -0.0278606  -0.00357062 -0.11054337 -0.00234431  0.04274673 -0.11987878
 -0.03075925  0.08509215 -0.16345255  0.08469669  0.01571201 -0.00265995
  0.0659575  -0.05965191 -0.05579535 -0.11203527  0.1790352  -0.21339242
  0.20351143  0.21593681 -0.06957816  0.06917236  0.07118015  0.11081157
 -0.05009435  0.01420989 -0.16111974 -0.07921658  0.05940603 -0.004326
  0.03340492 -0.01458334]