[-2.53441371e-02  9.32615325e-02  1.90236475e-02  4.52958932e-03
 -5.58425896e-02 -6.88738450e-02  1.07475417e-02 -9.93122905e-02
  4.89889011e-02 -1.43879456e-02  2.65396804e-01 -6.74974546e-02
 -2.09550247e-01 -1.73538089e-01  1.89250391e-02  1.57474473e-01
 -1.43274292e-01 -8.38117972e-02 -1.41972765e-01  2.19897535e-02
  5.36359511e-02  2.01786552e-02  6.52918220e-02 -1.60402004e-02
 -8.77547786e-02 -3.87301624e-01 -1.05989270e-01 -8.99524540e-02
  5.96168637e-02 -7.99064785e-02 -2.20788699e-02  6.84981942e-02
 -1.94240525e-01 -1.30415604e-01  5.93163036e-02  2.44588163e-02
 -4.89746071e-02 -5.34523241e-02  2.24884510e-01  1.98320094e-02
 -2.28164673e-01  3.32696810e-02  2.89756749e-02  2.55176634e-01
  2.01770827e-01  3.32579352e-02  6.49330094e-02 -1.17451690e-01
  7.40719959e-02 -1.22008361e-01  5.86916208e-02  1.18061565e-01
  1.16377287e-01  3.99502032e-02  3.89235280e-02 -6.18250333e-02
  1.71752200e-02  1.15476012e-01 -1.81214973e-01 -2.19209846e-02
  5.34872413e-02 -8.41490850e-02 -3.10651753e-02 -7.48952776e-02
  1.37735441e-01  6.16623973e-03 -3.42642181e-02 -1.49205968e-01
  1.82145625e-01 -1.53864235e-01 -5.26324920e-02  5.67838214e-02
 -1.31288648e-01 -1.59600452e-01 -3.38213682e-01 -6.71899924e-03
  3.55593562e-01  7.62779340e-02 -2.16634229e-01  2.16421951e-02
 -2.36343350e-02 -5.16853221e-02  1.39133364e-01  1.17557965e-01
 -1.47252548e-02  2.47950163e-02 -6.51185885e-02  1.46045461e-02
  2.24583313e-01 -9.42128524e-02 -3.39225493e-02  1.87762380e-01
  2.51455611e-04  1.27419978e-02  9.27412659e-02 -4.79888134e-02
 -7.21527031e-03  1.83706060e-02 -1.19895674e-01  9.06598475e-03
  4.19928171e-02 -1.14183359e-01 -1.92947201e-02  1.07339635e-01
 -1.44049510e-01  9.08651575e-02  2.31154989e-02  2.43208115e-03
  3.55572216e-02 -4.12429832e-02 -7.78302029e-02 -1.06048279e-01
  1.48706898e-01 -1.94620594e-01  1.94428787e-01  2.07331613e-01
 -2.23649051e-02  6.51886463e-02  6.52981624e-02  1.03822403e-01
 -3.34615223e-02 -9.57273599e-03 -2.21660763e-01 -3.77908237e-02
  1.12826280e-01  1.02583561e-02  6.05686978e-02 -2.80357245e-02]