[-4.62393723e-02  1.04399286e-01  2.98099164e-02  1.07991342e-02
 -3.91996391e-02 -6.88807145e-02 -3.14596156e-03 -9.72688720e-02
  7.20361471e-02 -3.73240486e-02  2.40449473e-01 -8.28826576e-02
 -1.88147113e-01 -1.42705292e-01  7.14967353e-03  1.75813675e-01
 -1.97550163e-01 -6.27571866e-02 -1.22694008e-01  3.91246080e-02
  7.22668394e-02  2.48420220e-02  4.70361747e-02 -1.78102236e-02
 -7.19814226e-02 -4.08735573e-01 -1.22587226e-01 -8.95038620e-02
  5.61847202e-02 -6.17604330e-02 -5.03997393e-02  4.74888086e-02
 -1.81616321e-01 -1.21803634e-01  4.18551005e-02  1.16137546e-02
 -4.33337092e-02 -5.59148975e-02  2.11765289e-01  4.46945392e-02
 -2.05404446e-01  4.18064445e-02  2.84549240e-02  2.50019252e-01
  2.15820298e-01  5.32486215e-02  4.95997109e-02 -1.23262644e-01
  8.40076283e-02 -1.41710207e-01  4.41507064e-02  1.09866038e-01
  9.44405571e-02  6.09190725e-02  4.98502105e-02 -7.55724907e-02
  2.35817786e-02  9.20643136e-02 -1.84622362e-01 -7.58413831e-03
  4.82487716e-02 -8.61749649e-02 -1.82620864e-02 -3.65790427e-02
  1.55997619e-01  3.77668999e-02 -2.61641089e-02 -1.62006140e-01
  1.76207811e-01 -1.55509353e-01 -5.41649461e-02  2.11313814e-02
 -1.18639946e-01 -1.60123199e-01 -3.45690131e-01 -1.69569291e-02
  3.64227802e-01  7.63177946e-02 -2.20610380e-01  3.06399744e-02
 -3.19049619e-02 -6.92349598e-02  1.86618939e-01  1.41030043e-01
 -3.52560100e-03  6.57720258e-03 -6.82215765e-02 -8.79831641e-05
  2.18102053e-01 -8.94192383e-02 -3.90397683e-02  1.96158990e-01
 -1.72587601e-03  2.53614541e-02  8.76342580e-02 -5.41720949e-02
 -1.82613339e-02  2.36511584e-02 -1.22137323e-01 -2.42617517e-03
  4.17638682e-02 -8.92230198e-02 -3.62892114e-02  1.13312058e-01
 -1.43563733e-01  8.62876624e-02  2.79112197e-02 -2.89001851e-03
  2.84435302e-02 -4.92102131e-02 -9.67905447e-02 -8.54446888e-02
  1.40869230e-01 -1.99318767e-01  1.94237977e-01  2.07847670e-01
 -3.53702046e-02  8.23889822e-02  5.72645627e-02  9.94190499e-02
 -2.67475303e-02  6.04271842e-03 -2.25599483e-01 -2.33987998e-02
  1.04288176e-01  2.96918955e-02  4.36620675e-02 -2.29455680e-02]