[-0.04313625  0.10026691  0.02620717  0.00111685 -0.03740236 -0.08422496
 -0.0006308  -0.10684972  0.07126295 -0.02242086  0.25469267 -0.07305014
 -0.18218917 -0.14894436  0.00116848  0.18349515 -0.20417868 -0.06441025
 -0.1340037   0.03379939  0.05360208 -0.0006408   0.06438415 -0.01249356
 -0.07070344 -0.41372395 -0.11548495 -0.08989414  0.05476804 -0.07374302
 -0.03593275  0.04603225 -0.19176255 -0.13071835  0.04102125  0.01775576
 -0.05016232 -0.05639865  0.23102224  0.03270724 -0.21296847  0.05148241
  0.03884412  0.25077784  0.21276982  0.05102831  0.06245938 -0.12463703
  0.08864789 -0.1443051   0.04394917  0.10355537  0.08122295  0.05140174
  0.03983691 -0.06764743  0.02045701  0.10712171 -0.17694919 -0.00311753
  0.06228137 -0.09327555 -0.02591972 -0.04446757  0.15226674  0.03984277
 -0.0339355  -0.15258591  0.16283253 -0.1542089  -0.05259312  0.01080923
 -0.10857441 -0.15893593 -0.36336809 -0.02254069  0.36062244  0.06496013
 -0.21723323  0.01960117 -0.04078358 -0.06249073  0.17748603  0.13097221
 -0.01192324  0.01081758 -0.07900294 -0.00534256  0.22609353 -0.08149125
 -0.03029181  0.18806885 -0.00498372  0.0273245   0.07973962 -0.0355066
 -0.03641422  0.02234168 -0.13266712  0.00648352  0.03680787 -0.09047545
 -0.03277064  0.1048974  -0.15098338  0.0835227   0.02624636 -0.0034888
  0.03369162 -0.0354319  -0.09311833 -0.10167744  0.13987826 -0.19022097
  0.20024298  0.22854336 -0.02843375  0.07883879  0.07389828  0.09505471
 -0.03917645  0.01584508 -0.22084753 -0.02174144  0.09289309  0.0334804
  0.05312148 -0.02107066]