[-0.06710666  0.10045671  0.07680014  0.0219984  -0.01302261 -0.08806398
  0.04414807 -0.1215409   0.07744871 -0.03980164  0.29903528 -0.06837709
 -0.18522261 -0.19428162  0.02842513  0.15522814 -0.17403053 -0.05884635
 -0.11753342  0.00158187  0.01993564 -0.00665487  0.0590292  -0.00753227
 -0.01376069 -0.39057907 -0.07645842 -0.09215933  0.08651663 -0.04244813
 -0.04850306  0.11293793 -0.21703017 -0.13140202  0.01395589  0.07506893
 -0.00699957  0.01001866  0.17989196 -0.02183788 -0.16607152  0.00552737
  0.01111915  0.23213096  0.22570162  0.04524726  0.00173879 -0.07344414
  0.07135211 -0.16658083  0.00586193  0.10675251  0.11210699  0.0374976
  0.03495079 -0.0682802  -0.00322067  0.03282651 -0.14928392 -0.0301825
  0.039316   -0.14152458 -0.03928612 -0.0622123   0.17369148  0.00806345
 -0.04140384 -0.09606807  0.15260832 -0.14758217 -0.02339696  0.03859807
 -0.12126184 -0.12012602 -0.34998766  0.03178164  0.33111855  0.07998754
 -0.19466132  0.024683   -0.06674903 -0.02864524  0.13172273  0.09030229
 -0.01096205  0.01902134 -0.09801308  0.01497007  0.16018322 -0.09206665
 -0.01787123  0.19349842 -0.05710838  0.06268586  0.04010278 -0.05378219
  0.01589279  0.00562835 -0.14998868  0.00397073  0.06080106 -0.08560027
 -0.00872064  0.09049437 -0.14628564  0.01852744  0.00255027  0.02658026
  0.07401752 -0.04907892 -0.08064629 -0.10331974  0.13430887 -0.18768491
  0.21239834  0.21065079 -0.06365021  0.07547393  0.05776569  0.09709026
 -0.04828006 -0.02942306 -0.1621071  -0.03420671  0.1130101   0.0189399
  0.0317934  -0.03355023]