[-0.01757281  0.07132694  0.05896165  0.00549665 -0.05844337 -0.09308897
  0.05061214 -0.14337929  0.04755975 -0.03900455  0.27759215 -0.06366487
 -0.22034021 -0.1432272   0.02658604  0.14851201 -0.14235435 -0.08526056
 -0.14320432 -0.01431572 -0.03202293 -0.01165273  0.07696562 -0.02768584
 -0.05567249 -0.38484803 -0.12619595 -0.07504796  0.08588687 -0.03186107
 -0.03821548  0.07613181 -0.18810849 -0.11779477  0.05996648  0.0197152
 -0.03715418 -0.06493359  0.2180004   0.04907014 -0.17780316 -0.0012304
  0.02188127  0.23978472  0.19949107  0.00837731  0.05450957 -0.07143127
  0.04814026 -0.16085127  0.05143162  0.07750266  0.14590161  0.03633977
  0.01825413 -0.0498991  -0.00199756  0.10135551 -0.16911346 -0.0071164
  0.03910081 -0.1479945  -0.05936179 -0.04619227  0.16341539  0.06564977
 -0.03726708 -0.10607245  0.17136423 -0.16468349 -0.04264555 -0.00290137
 -0.09504708 -0.09695933 -0.30835181 -0.00769948  0.36537191  0.07469882
 -0.22155488 -0.01384139 -0.08656562 -0.05415097  0.09875844  0.09571966
 -0.03310918  0.00925708 -0.0857206  -0.01231667  0.21634452 -0.11372449
 -0.02008986  0.19957444 -0.03073779  0.03591402  0.08289658 -0.06021776
 -0.0279638  -0.0276526  -0.09476895 -0.04016351  0.03752454 -0.12830453
 -0.00856814  0.08953994 -0.19437173  0.08340913  0.01662423 -0.02403585
  0.0941345  -0.04971747 -0.02560136 -0.12981164  0.14460437 -0.18824832
  0.17164178  0.2251946  -0.05635415  0.09024561  0.03065629  0.0810361
 -0.03995096 -0.01333115 -0.14253817 -0.05631962  0.066282    0.01499657
  0.02801485 -0.02337155]