[-0.07013106  0.11551937  0.07782312  0.02282342 -0.00424195 -0.07244163
  0.03949087 -0.13207532  0.09230636 -0.04073478  0.30021983 -0.06011207
 -0.19494335 -0.19852754  0.02033512  0.15641093 -0.1913859  -0.07570695
 -0.09797447  0.00681019  0.0251377  -0.0041012   0.05395396 -0.0076401
 -0.01614936 -0.37719262 -0.07974886 -0.08245212  0.09244814 -0.03326911
 -0.06234771  0.10406464 -0.2197624  -0.13809134  0.02425029  0.0752929
 -0.009159    0.0035209   0.18446207 -0.02157096 -0.16039698  0.02130284
  0.01622431  0.24583457  0.22311011  0.04285584 -0.00336441 -0.09007043
  0.07042246 -0.15471289  0.01120518  0.12871346  0.11745717  0.03777749
  0.02277008 -0.07987716 -0.01315214  0.03690963 -0.13917027 -0.02218284
  0.0480241  -0.13857095 -0.03625793 -0.06499473  0.15517391  0.00069428
 -0.0429669  -0.12867653  0.14678739 -0.14044917 -0.03935595  0.04279964
 -0.13285151 -0.12028506 -0.35261366  0.03090371  0.33944881  0.07227173
 -0.18895282  0.03624618 -0.06440849 -0.03716585  0.12595542  0.10740378
 -0.00727265  0.01316288 -0.10046866  0.01551594  0.16181971 -0.08535003
 -0.02866186  0.18683116 -0.05189352  0.06138067  0.03601111 -0.04666113
  0.01659818  0.02054474 -0.16014808 -0.00412372  0.05134011 -0.0743921
 -0.00851675  0.10545939 -0.14778259  0.01782714  0.01301943  0.03033637
  0.07628058 -0.04894936 -0.0854419  -0.09920972  0.13112056 -0.19975178
  0.21319424  0.21346192 -0.04131767  0.06827928  0.06680646  0.09380933
 -0.03301962 -0.02088001 -0.17179257 -0.038274    0.10376984  0.02093166
  0.0379626  -0.02853945]