[-6.50652200e-02  9.71327424e-02  4.68573533e-02  9.30853467e-03
 -2.91640554e-02 -9.12233219e-02  2.65783668e-02 -1.06146894e-01
  8.81413072e-02 -5.67026623e-02  2.52039373e-01 -8.33819136e-02
 -1.95562303e-01 -1.55826494e-01  3.00120749e-03  1.70709908e-01
 -1.94579244e-01 -4.67433780e-02 -1.24183252e-01  1.10088475e-03
  3.07647642e-02 -1.03349891e-03  3.80426496e-02 -2.99914479e-02
 -3.18815187e-02 -4.02633756e-01 -7.93273374e-02 -9.06411558e-02
  7.15574250e-02 -3.79745662e-02 -5.47320656e-02  1.04602039e-01
 -2.13732243e-01 -1.44677863e-01  1.81379151e-02  7.21496269e-02
 -4.70646359e-02 -3.35644633e-02  1.95853859e-01 -3.94268194e-03
 -1.60904884e-01  2.23764982e-02  4.52028103e-02  2.28832006e-01
  2.25905806e-01  4.98860292e-02  3.74768302e-02 -1.13782719e-01
  1.15762509e-01 -1.13363318e-01  2.01846662e-04  1.02369502e-01
  9.57729667e-02  9.53435600e-02  3.14094126e-02 -6.12871423e-02
  3.89887504e-02  4.76923548e-02 -1.64987981e-01 -2.35272199e-02
  8.95136297e-02 -1.39523074e-01 -4.36220951e-02 -6.11656979e-02
  1.77801043e-01  5.80717809e-04 -3.34057994e-02 -1.18780889e-01
  1.65201232e-01 -1.65188521e-01 -4.75964099e-02  3.89123871e-03
 -1.02497689e-01 -1.23610318e-01 -3.23505789e-01  7.20489351e-03
  3.06511372e-01  1.15029804e-01 -1.83031037e-01  4.29420620e-02
 -2.96183713e-02 -6.85796738e-02  1.83908939e-01  1.55173972e-01
  2.01418977e-02  2.53554471e-02 -6.52513653e-02  4.49103396e-03
  1.92493200e-01 -7.23318383e-02 -2.13714819e-02  1.79070950e-01
 -2.36100983e-02  4.76658233e-02  5.27005158e-02 -6.61034361e-02
 -4.47925888e-02  2.18443349e-02 -1.36238292e-01 -7.65685749e-04
  5.48832528e-02 -8.61826912e-02 -1.75248887e-02  6.56626970e-02
 -1.00020789e-01  8.56865644e-02 -8.18626955e-04  5.62914014e-02
  4.75643836e-02 -7.77651593e-02 -6.01284578e-02 -6.67161271e-02
  1.18418790e-01 -1.68648392e-01  2.23173141e-01  1.71402961e-01
 -5.38823418e-02  9.48134512e-02  7.66746625e-02  1.19810238e-01
 -3.97949032e-02 -4.64603631e-03 -2.11338162e-01 -5.39572798e-02
  1.03285588e-01  3.99505273e-02  9.18831751e-02 -2.51083132e-02]