[ 0.01336171  0.12845768  0.03526147  0.00801669 -0.05670721 -0.05512885
 -0.029828   -0.09958719  0.0545283   0.01245504  0.25762436 -0.04331658
 -0.1986676  -0.11486188  0.01347368  0.12592916 -0.19074635 -0.05471325
 -0.15752958  0.03825352 -0.02841072  0.01043152  0.07680017 -0.0412943
 -0.07076814 -0.3846297  -0.12234179 -0.0589488   0.1111951  -0.0638936
 -0.02629185  0.06854137 -0.19772546 -0.1263812   0.06369238  0.02311017
 -0.0556786  -0.06451859  0.21622108  0.08170185 -0.1887372   0.04550801
  0.01063988  0.25232908  0.22080612  0.03888578  0.03467358 -0.08475018
  0.07354012 -0.15335795  0.05977485  0.13820218  0.15995117  0.06530935
  0.03975375 -0.05983374  0.05405333  0.12504978 -0.20800138 -0.00869263
  0.04777642 -0.11682393 -0.02007589 -0.04010119  0.13475338  0.08222019
 -0.01874377 -0.1419654   0.15099905 -0.14353272 -0.04974331  0.02509236
 -0.07720087 -0.11858898 -0.32951045 -0.0276323   0.31672734  0.08218551
 -0.23905234  0.00124343 -0.03422726 -0.08685654  0.10221203  0.10506874
 -0.07462952 -0.0080088  -0.06952605 -0.03009077  0.20451851 -0.07301369
 -0.01601787  0.19426718 -0.01990414  0.01632528  0.10622885 -0.05219958
 -0.04338453 -0.01772612 -0.09538954 -0.02291379  0.03727631 -0.1458796
 -0.03752943  0.08850314 -0.17767797  0.10211177  0.02795372 -0.01721671
  0.08648248 -0.06406898 -0.03384826 -0.10322148  0.18279667 -0.22898448
  0.21950682  0.20404831 -0.0718899   0.07203628  0.05683702  0.10864139
 -0.06235037  0.0051453  -0.1513803  -0.0785481   0.04893978 -0.01441603
  0.02369278 -0.02979366]