[-0.08544398  0.08182994  0.03019301 -0.00179441 -0.01388238 -0.09381831
  0.02763336 -0.10700234  0.09723594 -0.04255714  0.24897984 -0.07633243
 -0.18078254 -0.16199137  0.00378025  0.17018224 -0.21185291 -0.046166
 -0.10783788 -0.01845405  0.02359608 -0.00685789  0.02921363 -0.02146557
 -0.04127703 -0.38867792 -0.08425562 -0.10441726  0.06829713 -0.02246333
 -0.0289939   0.11658134 -0.23188587 -0.13744377  0.00733669  0.06866416
 -0.03651398 -0.0196379   0.18939984 -0.00408719 -0.1537493   0.00535806
  0.06319904  0.22752014  0.23337989  0.03985628  0.02368012 -0.0894558
  0.11469042 -0.10596321 -0.01967028  0.09252563  0.09948665  0.09263932
  0.0240184  -0.06587195  0.04476328  0.03901454 -0.17332949 -0.02471297
  0.06322315 -0.15214033 -0.0414122  -0.04159892  0.18000698 -0.00184169
 -0.02320012 -0.12235164  0.17253943 -0.15704165 -0.03186897  0.02533563
 -0.10832419 -0.13037626 -0.34384853  0.01827909  0.31139418  0.0991312
 -0.15208161  0.06271002 -0.02380337 -0.07674407  0.17062703  0.14098023
  0.00399128  0.02969708 -0.06859898  0.01497669  0.19067469 -0.06470343
 -0.02567927  0.16691139 -0.04388824  0.04200495  0.04791637 -0.05200646
 -0.03753301  0.02337887 -0.13312343 -0.00844538  0.06628388 -0.08937889
 -0.00381487  0.06730571 -0.10231729  0.06227968  0.00610364  0.04687225
  0.02650093 -0.06494415 -0.06015891 -0.06310409  0.11854746 -0.16559196
  0.22529478  0.16752303 -0.0618793   0.09998472  0.06944447  0.11139709
 -0.06184603 -0.00576116 -0.19225357 -0.04091613  0.10232413  0.04540562
  0.1035702  -0.02012256]