[-7.63588548e-02  1.07901849e-01  6.65734410e-02  2.04705056e-02
 -6.59706770e-03 -9.19975564e-02  3.55455577e-02 -1.23280957e-01
  8.93641934e-02 -3.45504396e-02  2.89375514e-01 -5.66882677e-02
 -1.87742025e-01 -1.96967408e-01  2.76321229e-02  1.53684884e-01
 -1.84842497e-01 -5.90829514e-02 -1.20081522e-01 -4.49809013e-03
  1.37838116e-02 -5.39767696e-03  6.56246170e-02 -5.15473657e-04
 -1.76369641e-02 -3.91936451e-01 -8.08826908e-02 -8.45541880e-02
  9.36346278e-02 -4.21592928e-02 -3.86893488e-02  1.15113094e-01
 -2.19874531e-01 -1.25283822e-01  1.02574462e-02  7.79769719e-02
 -4.20553191e-03  1.98249612e-02  1.85269281e-01 -7.41937757e-03
 -1.57920435e-01 -1.64537656e-03  1.03558796e-02  2.40587264e-01
  2.32024580e-01  4.58889902e-02 -1.63176877e-03 -7.04056472e-02
  7.26874098e-02 -1.67471334e-01  2.48847972e-03  1.16094008e-01
  1.19464315e-01  3.15773599e-02  3.84453908e-02 -6.72320873e-02
 -5.09099383e-03  3.66244055e-02 -1.56812891e-01 -2.71664988e-02
  2.84039471e-02 -1.46593809e-01 -4.66586724e-02 -5.51646426e-02
  1.64756089e-01  1.21576767e-02 -3.84845920e-02 -9.37775299e-02
  1.56424180e-01 -1.50597751e-01 -1.68390106e-02  4.23949212e-02
 -1.13436520e-01 -1.21135354e-01 -3.58806401e-01  2.16861423e-02
  3.33489478e-01  7.72362649e-02 -1.87177211e-01  2.38830112e-02
 -6.51027262e-02 -4.57430594e-02  1.18610263e-01  8.27855095e-02
 -3.48489657e-02  1.17712980e-02 -1.02320038e-01  2.53872871e-02
  1.56762198e-01 -8.19822475e-02 -1.23974662e-02  1.91266716e-01
 -5.06792925e-02  6.50887266e-02  3.38043161e-02 -5.27065769e-02
  9.09871608e-03 -3.50333750e-04 -1.50054052e-01 -4.60464088e-03
  5.86080849e-02 -8.73888433e-02 -4.57903231e-03  8.34984258e-02
 -1.48039818e-01  1.87221058e-02  1.80221330e-02  1.46001121e-02
  6.96616098e-02 -4.24114615e-02 -8.76466706e-02 -1.07042365e-01
  1.40381947e-01 -1.84040800e-01  2.08705097e-01  2.14847475e-01
 -6.65763617e-02  7.74563923e-02  5.35073057e-02  9.81061682e-02
 -5.65240569e-02 -2.99090836e-02 -1.44030407e-01 -3.26429009e-02
  1.03727482e-01  1.32915927e-02  3.41980718e-02 -3.38412002e-02]