[-8.53656679e-02  8.40121508e-02  3.62769179e-02  2.94248131e-03
 -1.54252201e-02 -9.24859270e-02  2.10975353e-02 -1.21503174e-01
  9.82476994e-02 -5.70668578e-02  2.56407052e-01 -8.97782147e-02
 -1.99199095e-01 -1.66773960e-01 -7.18910387e-03  1.73639446e-01
 -2.13689089e-01 -5.47473691e-02 -9.99053419e-02 -2.08070949e-02
  1.86621305e-02 -1.07516805e-02  3.04948725e-02 -2.75734905e-02
 -4.21868078e-02 -3.87592018e-01 -7.81970322e-02 -1.00731783e-01
  7.67760798e-02 -2.21011359e-02 -3.76727097e-02  1.08476579e-01
 -2.25887775e-01 -1.35310382e-01  1.85516588e-02  8.04094002e-02
 -3.87537889e-02 -1.61094274e-02  2.02313781e-01 -8.05194397e-03
 -1.53484032e-01  5.98335359e-03  5.34286760e-02  2.30891496e-01
  2.27185845e-01  4.95515279e-02  1.49169927e-02 -1.00000694e-01
  1.11079060e-01 -1.17620602e-01 -1.36433858e-02  1.04081988e-01
  9.20556188e-02  7.57506862e-02  2.64299065e-02 -6.89781383e-02
  3.03436499e-02  4.66036163e-02 -1.71127424e-01 -2.46872902e-02
  7.68302009e-02 -1.53925806e-01 -4.83492203e-02 -4.53854017e-02
  1.77430823e-01  1.06015545e-03 -2.96236873e-02 -1.19295053e-01
  1.82961032e-01 -1.66472673e-01 -3.21529917e-02  1.95461866e-02
 -9.75493565e-02 -1.22213535e-01 -3.45271349e-01  7.57113192e-03
  3.22294444e-01  9.84663144e-02 -1.50307581e-01  5.40028811e-02
 -1.92476343e-02 -6.91314191e-02  1.79628611e-01  1.34354040e-01
 -2.50302255e-04  1.89862791e-02 -6.77989051e-02  2.58789747e-03
  1.85938582e-01 -6.22182786e-02 -2.50139125e-02  1.60418436e-01
 -4.39145118e-02  4.36482877e-02  5.14991470e-02 -6.12716787e-02
 -3.85681391e-02  9.67542361e-03 -1.39145106e-01 -1.40488120e-02
  6.06500171e-02 -9.14535522e-02  2.10525538e-03  7.72156417e-02
 -1.06953099e-01  5.30881956e-02  2.79277354e-03  3.70450430e-02
  4.11256514e-02 -5.74431419e-02 -6.25251755e-02 -6.93055987e-02
  1.24358408e-01 -1.74998298e-01  2.21297055e-01  1.74598858e-01
 -5.42795062e-02  9.61179510e-02  7.78628811e-02  1.07039727e-01
 -5.57683781e-02 -1.13039091e-03 -1.94675788e-01 -5.70013039e-02
  8.62654150e-02  4.22228388e-02  1.05275892e-01 -2.47250479e-02]