[-0.06626391  0.11342658  0.06214848  0.01264412 -0.02961938 -0.07064407
  0.02392199 -0.12856163  0.08476772 -0.04265546  0.29487902 -0.05465503
 -0.19004908 -0.19293934  0.01690315  0.15978475 -0.18889017 -0.06662025
 -0.11661744  0.00222925  0.02458294 -0.00897011  0.06084607 -0.01270281
 -0.02091604 -0.39158031 -0.08161513 -0.07001683  0.09179704 -0.04656636
 -0.05256051  0.10118864 -0.22179198 -0.13572082  0.02159826  0.07393337
 -0.01802969 -0.00377113  0.18558179 -0.02927793 -0.16226251  0.02414329
  0.03319478  0.23276651  0.23073709  0.04393663  0.00505479 -0.09066062
  0.08384705 -0.14884061  0.00618978  0.12078812  0.11743434  0.04308975
  0.03479458 -0.0736038   0.00533597  0.04604061 -0.14812322 -0.03506922
  0.04265102 -0.13032418 -0.03722313 -0.06744968  0.15902127  0.00356456
 -0.0374746  -0.11899956  0.14696383 -0.14356792 -0.02435654  0.04004113
 -0.13124268 -0.12993149 -0.35664555  0.01443696  0.33380386  0.08910227
 -0.18803822  0.03200297 -0.04509928 -0.03965484  0.13325678  0.09803187
 -0.01820697  0.01504023 -0.09705926  0.03192639  0.16637616 -0.08173733
 -0.02672059  0.19029157 -0.03341247  0.06495625  0.04356354 -0.04386063
  0.00866157  0.00985381 -0.15994166  0.00979689  0.04632929 -0.07773292
 -0.00661845  0.09045626 -0.13209313  0.02724501  0.01298742  0.03477683
  0.05446951 -0.05335969 -0.08352476 -0.09447539  0.1291748  -0.19613719
  0.21130012  0.21181285 -0.05204263  0.07494475  0.06585545  0.09220853
 -0.0434835  -0.02497352 -0.16335307 -0.03560565  0.09975206  0.00748552
  0.05531666 -0.02691692]