[-8.03576037e-02  1.02630220e-01  5.33768497e-02  1.28243556e-02
 -1.98563114e-02 -9.22559127e-02  2.56520789e-02 -1.25060797e-01
  8.55272338e-02 -3.11538875e-02  2.84995586e-01 -6.08176887e-02
 -2.03879163e-01 -1.84101492e-01  1.53618483e-02  1.61235973e-01
 -1.95124626e-01 -5.37372418e-02 -1.03969730e-01  4.64360556e-03
  2.62918118e-02 -1.68769397e-02  6.68045059e-02 -6.37112511e-03
 -1.68898981e-02 -3.91201824e-01 -7.61537626e-02 -7.68206492e-02
  8.18632618e-02 -3.29243839e-02 -4.15779613e-02  1.20094299e-01
 -2.21951321e-01 -1.34620965e-01  2.25329008e-02  7.26152286e-02
 -2.23686919e-02  9.86886676e-03  1.87436596e-01 -2.32781209e-02
 -1.60135463e-01  2.64957105e-03  2.70494819e-02  2.30652526e-01
  2.25838423e-01  5.53945005e-02  9.81898606e-03 -9.07356590e-02
  8.10097978e-02 -1.65570855e-01 -7.65619427e-03  1.16507404e-01
  1.07538395e-01  3.55578251e-02  3.83947939e-02 -6.74700364e-02
  2.78294063e-03  4.89016846e-02 -1.61621600e-01 -2.88271457e-02
  3.39111499e-02 -1.34976014e-01 -4.14714664e-02 -7.21708760e-02
  1.63883716e-01  7.93916453e-03 -4.24195342e-02 -1.06822632e-01
  1.51107684e-01 -1.44206211e-01 -3.26845720e-02  4.74160612e-02
 -1.15039960e-01 -1.39896527e-01 -3.59779447e-01  1.11038862e-02
  3.25439036e-01  8.34861994e-02 -1.65955216e-01  3.33076231e-02
 -4.38801087e-02 -5.55224381e-02  1.24879710e-01  8.86590183e-02
 -2.50596050e-02  9.07032285e-03 -9.01654884e-02  2.30628327e-02
  1.68423429e-01 -8.77487659e-02 -2.24686880e-02  1.81167960e-01
 -4.81599830e-02  6.45878613e-02  2.65223570e-02 -3.71187590e-02
  1.45484728e-03  1.39940800e-02 -1.60826787e-01 -6.39884546e-03
  6.08163849e-02 -8.02831724e-02  3.17055732e-04  8.57278481e-02
 -1.38780400e-01  1.49953440e-02  5.81201399e-03  2.03682464e-02
  5.56869395e-02 -5.50668314e-02 -8.90365243e-02 -8.75685140e-02
  1.23387687e-01 -1.95398927e-01  2.23692641e-01  2.14671686e-01
 -5.39612956e-02  7.18693435e-02  5.79434708e-02  7.73025081e-02
 -4.44837175e-02 -2.70704273e-02 -1.56072184e-01 -4.55809347e-02
  1.14681832e-01  2.20598374e-02  5.09463809e-02 -3.87342013e-02]