[-0.09598114  0.13127731  0.09779554  0.02204718  0.01082595 -0.07307936
  0.0561671  -0.12332352  0.10259416 -0.02306313  0.29957241 -0.06170027
 -0.20398402 -0.18656838  0.00252968  0.15678217 -0.2070736  -0.07499825
 -0.08697104  0.00541571  0.04394382  0.0038526   0.02608472 -0.00301607
 -0.01857202 -0.3546555  -0.06570586 -0.09218213  0.07586589 -0.03960435
 -0.04587296  0.08473518 -0.22107349 -0.13309596  0.01398017  0.05494097
 -0.0060768   0.00725233  0.15767415 -0.00812955 -0.14459382  0.0130403
  0.01899536  0.26214001  0.21394968  0.04316052 -0.0202709  -0.08419559
  0.04567406 -0.17353685 -0.00908502  0.12144127  0.12857041  0.02637828
  0.02922627 -0.10251033 -0.033139    0.02554831 -0.14471057  0.00800474
  0.04103356 -0.13404055 -0.05224379 -0.07287122  0.16888832  0.01075493
 -0.06944533 -0.11385585  0.14278494 -0.1271075  -0.03910454  0.0342699
 -0.10883965 -0.12101851 -0.32337564  0.02377006  0.33979902  0.0462531
 -0.21233295  0.02983904 -0.09390428 -0.03148681  0.10301199  0.09886863
 -0.01567987  0.0218989  -0.09893703 -0.00203341  0.14863808 -0.0745303
 -0.01595371  0.19825706 -0.07037639  0.02993485  0.02779891 -0.06524081
  0.00602804  0.01973423 -0.15122701 -0.0316787   0.04489543 -0.10162189
 -0.01729024  0.09419986 -0.16769326  0.01703091  0.03277766  0.03032894
  0.08146377 -0.05094257 -0.09842575 -0.07718379  0.15048294 -0.20769791
  0.22857046  0.20651901 -0.03825936  0.06943055  0.06499269  0.08362044
 -0.03267895 -0.01161302 -0.1569709  -0.03538823  0.09562512 -0.00888531
  0.03564847 -0.03559294]