[ 0.00646124  0.11376154  0.05770545  0.01023597 -0.05981673 -0.04092135
 -0.0359621  -0.11016661  0.05082066 -0.0094045   0.25869632 -0.04492907
 -0.21113734 -0.12575261  0.00920937  0.145025   -0.18619443 -0.07264499
 -0.14019702  0.02935378 -0.02587918  0.01160772  0.07352818 -0.04762271
 -0.06460347 -0.38980737 -0.11896826 -0.04973097  0.09620456 -0.05222247
 -0.04419028  0.06291249 -0.19813538 -0.12274553  0.06142474  0.04106561
 -0.05289644 -0.07073865  0.20907031  0.05801831 -0.17996569  0.02492792
  0.01586072  0.23879583  0.21303451  0.03489287  0.04798853 -0.092484
  0.07249113 -0.14716947  0.05360643  0.13195829  0.14581296  0.06951545
  0.02289886 -0.05620468  0.03727626  0.13319825 -0.17803746 -0.02186481
  0.04827522 -0.11192808 -0.03168846 -0.05030102  0.14418365  0.0666789
 -0.02571618 -0.16322124  0.15367098 -0.14251737 -0.07128756  0.01433109
 -0.08910828 -0.10579713 -0.34301412 -0.02914146  0.32260457  0.06099421
 -0.23733199  0.00204159 -0.03129417 -0.08009144  0.1028785   0.11277106
 -0.053787    0.00914366 -0.07567125 -0.03088196  0.21423905 -0.08113082
 -0.0146198   0.1793565  -0.01001075  0.02770658  0.10828283 -0.03252451
 -0.02796759 -0.00356763 -0.11310396 -0.01673438  0.03688359 -0.12057021
 -0.03584444  0.09464053 -0.16569185  0.10955008  0.02243144 -0.00864992
  0.08834328 -0.07134338 -0.04700982 -0.11275262  0.1806754  -0.22332783
  0.18685007  0.21247457 -0.0577698   0.07478818  0.06199967  0.1185223
 -0.05869931  0.00837289 -0.17448933 -0.0784791   0.05432227 -0.00855891
  0.0159087  -0.01922836]