[-0.07823561  0.09886239  0.05334128  0.00415758 -0.0147756  -0.09146655
  0.02612527 -0.1213263   0.10103966 -0.06291097  0.26699367 -0.09286511
 -0.20363641 -0.16620958 -0.00351058  0.17272249 -0.19808006 -0.04514671
 -0.11818942  0.00627857  0.02289717 -0.00504387  0.04712965 -0.02463533
 -0.02179753 -0.40125322 -0.08586519 -0.09317715  0.08243521 -0.02760681
 -0.06472261  0.09494501 -0.21121852 -0.14443274  0.00648495  0.06598511
 -0.04215536 -0.02578241  0.19195405 -0.00210482 -0.16660248  0.01489123
  0.03339877  0.23090075  0.24014162  0.05083693  0.02377747 -0.12172765
  0.10482784 -0.12942784 -0.00546516  0.09907502  0.10083642  0.07340804
  0.02847776 -0.06267171  0.0198257   0.04995617 -0.16877356 -0.02699904
  0.07524107 -0.13446979 -0.04756417 -0.0541216   0.17973867  0.01732364
 -0.04100545 -0.12319186  0.16948912 -0.16918641 -0.03681635  0.01966267
 -0.10086308 -0.12340925 -0.33597711  0.00299864  0.3197827   0.09522829
 -0.17187475  0.03946571 -0.04874767 -0.06842551  0.1738514   0.14340626
  0.00759767  0.01093038 -0.07020409 -0.00666259  0.1844859  -0.08432546
 -0.02087518  0.17837738 -0.03414341  0.04869134  0.04252652 -0.05466927
 -0.04137796  0.02270405 -0.13845269 -0.01255802  0.05891152 -0.07984908
 -0.00939752  0.0701063  -0.11747243  0.07136313  0.00818296  0.04371058
  0.06962057 -0.08281817 -0.05697369 -0.07274988  0.12682001 -0.17823942
  0.21465595  0.17777398 -0.04682155  0.09207789  0.07615169  0.10789549
 -0.04182141 -0.00213124 -0.20019348 -0.04407544  0.09992272  0.03439729
  0.0835611  -0.02994997]