[-0.06683077  0.08269433  0.05322003  0.01269952 -0.02323224 -0.08744404
  0.02623316 -0.10955419  0.09290552 -0.06207187  0.25498199 -0.09036174
 -0.20606592 -0.16283083  0.00778329  0.17467718 -0.19038391 -0.04684393
 -0.11483641  0.00062994  0.02471615 -0.00435461  0.03727048 -0.03356314
 -0.02910205 -0.40743813 -0.08495388 -0.08768038  0.07218849 -0.03045045
 -0.05686216  0.10807192 -0.20827995 -0.14368038  0.01011769  0.07548007
 -0.03926462 -0.03998357  0.19035122 -0.00586159 -0.16522232  0.01532465
  0.04132074  0.22576241  0.22634661  0.04548497  0.0315969  -0.10877924
  0.10594627 -0.1185713  -0.00569685  0.09732094  0.09484953  0.0848585
  0.02874562 -0.06141963  0.03460554  0.05031457 -0.17513801 -0.02795934
  0.08131384 -0.1418144  -0.03162242 -0.05506796  0.1778246   0.00882891
 -0.03202991 -0.1202819   0.16578744 -0.17011161 -0.04020121  0.00490738
 -0.10453997 -0.1199218  -0.34128579  0.00448846  0.30684844  0.10242783
 -0.17689297  0.0384491  -0.0335451  -0.07126981  0.18145101  0.14894897
  0.02151739  0.01303347 -0.07480103 -0.00770186  0.19347815 -0.07229211
 -0.02115478  0.17459276 -0.02839978  0.03705413  0.05231694 -0.05258367
 -0.04793766  0.01769224 -0.13478397 -0.00768604  0.05302338 -0.09198033
 -0.01153372  0.07455263 -0.10957342  0.07906039 -0.00067053  0.0462259
  0.0572978  -0.07903536 -0.05866821 -0.0701104   0.12425673 -0.16910239
  0.20862292  0.17369367 -0.04978315  0.09742215  0.06984732  0.1224096
 -0.05493412 -0.00452103 -0.20472999 -0.05203403  0.09063099  0.04265014
  0.08950806 -0.01863129]