[-7.89437965e-02  1.00126341e-01  4.91388366e-02  8.49419099e-04
 -2.25311331e-02 -9.34011862e-02  2.25992501e-02 -1.11846641e-01
  9.03893113e-02 -5.77338636e-02  2.68472046e-01 -9.33644399e-02
 -2.12294534e-01 -1.61715493e-01 -3.51652945e-03  1.69031158e-01
 -1.96593210e-01 -4.40635644e-02 -1.21795192e-01  5.15905954e-03
  1.17916139e-02 -8.01163074e-03  4.41323482e-02 -2.41384041e-02
 -2.58714240e-02 -3.96552712e-01 -8.30186233e-02 -9.89307985e-02
  7.20246807e-02 -2.73565501e-02 -6.05255067e-02  9.09145102e-02
 -2.01376915e-01 -1.45038679e-01  1.46142039e-02  6.38547242e-02
 -4.17998880e-02 -2.79736463e-02  1.95003644e-01 -7.41267437e-03
 -1.72061875e-01  1.25221983e-02  4.35912013e-02  2.31891677e-01
  2.36230448e-01  5.08996025e-02  1.68691706e-02 -1.11284994e-01
  1.01140164e-01 -1.30097941e-01 -1.96672161e-03  1.00973003e-01
  1.04916811e-01  7.34519288e-02  3.31253894e-02 -5.85929863e-02
  3.45452242e-02  4.94300090e-02 -1.70833260e-01 -4.28869799e-02
  7.70627782e-02 -1.35333613e-01 -4.49920706e-02 -4.92142923e-02
  1.76617250e-01  1.99641157e-02 -3.92026417e-02 -1.19729400e-01
  1.61036476e-01 -1.75623879e-01 -3.91713269e-02  2.40664501e-02
 -9.73094404e-02 -1.18831418e-01 -3.34632993e-01 -1.63839009e-04
  3.11529368e-01  1.03238694e-01 -1.72941595e-01  3.27084064e-02
 -4.20393199e-02 -6.96285591e-02  1.76837489e-01  1.32681519e-01
  7.95460888e-04  4.25306614e-03 -7.41185024e-02 -1.44442562e-02
  1.85622901e-01 -8.15482065e-02 -2.10573655e-02  1.67390987e-01
 -2.74963826e-02  3.65105420e-02  5.33785224e-02 -5.26996814e-02
 -4.17364426e-02  1.23955579e-02 -1.34285569e-01 -8.30406509e-03
  6.47395626e-02 -8.86140019e-02 -1.72942914e-02  6.74397424e-02
 -1.27163112e-01  6.46171495e-02  7.51162646e-03  3.33016478e-02
  6.64764047e-02 -8.08530673e-02 -5.14795147e-02 -7.19234720e-02
  1.29750133e-01 -1.75711900e-01  2.13710815e-01  1.77125916e-01
 -5.19004837e-02  8.80465135e-02  7.62873366e-02  9.88766253e-02
 -5.37414439e-02 -6.21219957e-03 -1.92442149e-01 -6.07762747e-02
  9.57836136e-02  3.18198092e-02  9.29005742e-02 -3.58158164e-02]