[-0.0286992   0.09705202  0.02583619  0.01543534 -0.02421821 -0.07548439
  0.00438459 -0.08525141  0.0647672  -0.02233694  0.25541481 -0.08393081
 -0.17835994 -0.12810045 -0.0082844   0.1781653  -0.20974255 -0.03927279
 -0.13938716  0.0354899   0.06024176  0.00205348  0.04980693 -0.01465923
 -0.06844062 -0.39965516 -0.13011825 -0.10401314  0.06965682 -0.08594098
 -0.04623155  0.03357023 -0.19412266 -0.12695847  0.02981396 -0.01838849
 -0.04373696 -0.06689981  0.22359481  0.05766794 -0.20423202  0.05964961
  0.0389473   0.25120172  0.22032379  0.05475069  0.04741443 -0.10667451
  0.08009429 -0.14498864  0.04553569  0.10184062  0.09940869  0.07221993
  0.04734847 -0.06802279  0.03356039  0.08945652 -0.19012427  0.00156979
  0.05049315 -0.07769712  0.00172192 -0.0168143   0.14316534  0.03624422
 -0.01518842 -0.15731505  0.17460954 -0.16367064 -0.03413094  0.02052683
 -0.10672809 -0.16358007 -0.34923372 -0.00277356  0.36306047  0.08200512
 -0.20420432  0.02503894 -0.04719157 -0.09537039  0.17348011  0.12438091
 -0.00668439 -0.00216767 -0.06431132 -0.00041738  0.22692135 -0.08530116
 -0.02907581  0.18936346 -0.01633583 -0.01031584  0.07919467 -0.04842507
 -0.04041063  0.02385863 -0.11071028  0.00520405  0.02605259 -0.10842025
 -0.04582684  0.10786873 -0.16548982  0.0744662   0.02036448 -0.03603648
  0.01658042 -0.03578685 -0.10122984 -0.0827721   0.14424817 -0.19942966
  0.20751338  0.22423171 -0.02660445  0.06820522  0.05116237  0.09567215
 -0.03144248  0.01206683 -0.21057151 -0.03490287  0.09020715  0.0297871
  0.04035864 -0.03064848]