[-3.83138880e-02  8.58749598e-02  2.49280911e-02  1.01038034e-03
 -4.76437733e-02 -7.71841034e-02 -2.41601700e-03 -1.09201007e-01
  6.58031777e-02 -2.94506252e-02  2.49527171e-01 -5.74767552e-02
 -1.88409686e-01 -1.38883680e-01 -2.60230759e-03  1.77304238e-01
 -1.92748532e-01 -6.40781149e-02 -1.22824930e-01  3.39113511e-02
  5.42460084e-02  1.05104437e-02  6.05968125e-02 -2.14265380e-02
 -7.15352818e-02 -4.03957605e-01 -1.17958881e-01 -8.48952010e-02
  5.30969314e-02 -7.23748729e-02 -2.71387529e-02  4.74458449e-02
 -1.93099722e-01 -1.20653130e-01  4.90663126e-02  1.54044526e-02
 -5.34149669e-02 -7.13771358e-02  2.36771584e-01  4.52207588e-02
 -2.13651806e-01  4.55557667e-02  4.13204916e-02  2.44571954e-01
  2.09409907e-01  4.46147583e-02  6.24998696e-02 -1.20208360e-01
  1.00399114e-01 -1.41360000e-01  4.43068258e-02  1.01145260e-01
  8.60897973e-02  5.04305437e-02  4.20097858e-02 -6.26505315e-02
  2.33108532e-02  1.08969323e-01 -1.72644898e-01 -3.84872267e-03
  5.63569553e-02 -9.43139568e-02 -1.88635401e-02 -4.84467410e-02
  1.44627973e-01  3.32122259e-02 -2.76549663e-02 -1.50432855e-01
  1.60733089e-01 -1.60460621e-01 -6.53813034e-02  1.45208333e-02
 -1.12207070e-01 -1.54155359e-01 -3.49231362e-01 -2.66345832e-02
  3.53807360e-01  7.36389831e-02 -2.10834533e-01  2.23911274e-02
 -2.48086527e-02 -6.92892820e-02  1.73854098e-01  1.39969751e-01
 -2.71227589e-04  1.22795058e-02 -6.75849542e-02 -1.29217729e-02
  2.44203910e-01 -7.94902518e-02 -3.39138024e-02  1.92328051e-01
 -1.04410378e-02  2.47413218e-02  8.19281116e-02 -4.62047085e-02
 -3.60618643e-02  1.14733456e-02 -1.20911472e-01 -1.03984429e-02
  3.32245491e-02 -9.06738937e-02 -2.82248706e-02  1.12246051e-01
 -1.55679137e-01  8.68668556e-02  1.21382009e-02 -2.85409344e-03
  3.81887443e-02 -4.27435823e-02 -8.56492743e-02 -9.24340263e-02
  1.34356365e-01 -1.80317998e-01  2.04797491e-01  2.15873912e-01
 -3.51224616e-02  7.31435791e-02  6.94174021e-02  9.24622938e-02
 -4.12613414e-02  1.70907807e-02 -2.16968343e-01 -3.77234891e-02
  9.14323032e-02  3.22456025e-02  6.32902309e-02 -3.30478325e-02]