[-0.07398141  0.11573789  0.07312299  0.00293406 -0.01012072 -0.06943959
  0.02030456 -0.12429577  0.10089796 -0.07079833  0.28505856 -0.09405389
 -0.1977414  -0.16546881 -0.00552451  0.17923653 -0.20383017 -0.0549778
 -0.11322802  0.00724493  0.02180878 -0.00093019  0.03559152 -0.0366466
 -0.02047238 -0.39356095 -0.08349831 -0.09856509  0.08500405 -0.02871127
 -0.07469566  0.08153581 -0.20174105 -0.13561863  0.01161182  0.06411191
 -0.04248347 -0.02639933  0.18302111 -0.01195472 -0.16746825  0.02209409
  0.0373596   0.23222195  0.23243447  0.04675904  0.01503928 -0.11766788
  0.08111114 -0.12522724 -0.00461016  0.10230192  0.10388499  0.08323921
  0.02511609 -0.07333918  0.02454559  0.03890893 -0.16697668 -0.02598477
  0.07988577 -0.14174497 -0.03978452 -0.03409525  0.18055218  0.02093809
 -0.04698316 -0.14008479  0.15590414 -0.1641988  -0.04093995  0.01814275
 -0.10216941 -0.12012219 -0.3334302   0.00074318  0.33045608  0.08392911
 -0.18760599  0.03926075 -0.04833131 -0.07526187  0.17993188  0.15179189
  0.01415499  0.00736198 -0.07667337 -0.01462122  0.18225601 -0.08937626
 -0.02117001  0.17684087 -0.03787452  0.03691033  0.04298415 -0.04366803
 -0.03013218  0.02933993 -0.13283627 -0.00934037  0.04313793 -0.08374736
 -0.02716248  0.07316075 -0.12860858  0.07218758  0.01594969  0.04011006
  0.06415362 -0.08248524 -0.05356283 -0.07182522  0.13523225 -0.19296244
  0.21175976  0.1936489  -0.03629768  0.09354267  0.08273011  0.10165625
 -0.02830334 -0.00513305 -0.20478046 -0.04928346  0.08005204  0.02582585
  0.07136772 -0.02146542]