[ 0.0048321   0.078269    0.05233053  0.01140891 -0.06403653 -0.09721122
  0.04253499 -0.13441817  0.04640904 -0.03047194  0.26238176 -0.06324351
 -0.22307144 -0.13098642  0.01198406  0.14275417 -0.15443896 -0.07863881
 -0.1570199  -0.00122277 -0.03409744 -0.01364715  0.07738744 -0.02945372
 -0.05214322 -0.39495555 -0.1217765  -0.0642364   0.07905238 -0.04100056
 -0.03478955  0.08428954 -0.18192622 -0.11743033  0.06851446  0.03031052
 -0.05065753 -0.07422837  0.2297554   0.05464241 -0.17338333  0.01903872
  0.0262708   0.24555723  0.21605237  0.00445561  0.0536575  -0.09071578
  0.0747962  -0.16569011  0.04767169  0.09216249  0.14479673  0.04990167
  0.03592985 -0.03325518  0.01125472  0.11442857 -0.19018513 -0.01087424
  0.04420001 -0.14894958 -0.05699128 -0.05400097  0.14080021  0.07204022
 -0.03176467 -0.10611973  0.17322993 -0.18039876 -0.04669163 -0.00845395
 -0.0760306  -0.10465252 -0.30629435 -0.01826428  0.35480028  0.09553256
 -0.22258513 -0.01575774 -0.06686246 -0.0697019   0.11242644  0.09440219
 -0.04281877  0.00071221 -0.0852151  -0.00048868  0.21718791 -0.10316122
 -0.01592361  0.19925277 -0.01995269  0.03194945  0.09339663 -0.06239069
 -0.04024718 -0.0188554  -0.11720292 -0.02999136  0.03493578 -0.13236566
 -0.00687973  0.07260904 -0.17538673  0.07874452  0.01502459 -0.03033899
  0.08998229 -0.06995732 -0.03711331 -0.11564244  0.15064929 -0.19860049
  0.179518    0.20739925 -0.06291723  0.08593918  0.0320393   0.08096766
 -0.04166776 -0.03139386 -0.13939686 -0.06081466  0.06216957  0.03018249
  0.03398462 -0.03456033]