[-4.26148344e-03  7.20507428e-02  4.90782112e-02  8.27753637e-03
 -6.24196343e-02 -9.91402119e-02  4.30171452e-02 -1.42021433e-01
  5.03147840e-02 -4.02208604e-02  2.68038183e-01 -6.52527958e-02
 -2.21719295e-01 -1.35971859e-01  1.89670529e-02  1.51609957e-01
 -1.54177800e-01 -8.86040702e-02 -1.51214525e-01  3.27691925e-03
 -3.15099396e-02 -1.68895405e-02  7.57027939e-02 -2.71566994e-02
 -5.57161085e-02 -3.93063128e-01 -1.22707844e-01 -7.02810362e-02
  7.88275227e-02 -4.24648933e-02 -3.84140275e-02  7.81567097e-02
 -1.86310977e-01 -1.19250707e-01  6.10149018e-02  2.73406338e-02
 -4.49370220e-02 -7.92501569e-02  2.24603876e-01  5.57419360e-02
 -1.85278609e-01 -2.07280376e-04  2.87709925e-02  2.41562799e-01
  1.99732125e-01  7.64194119e-04  5.18278293e-02 -7.96151608e-02
  6.63573146e-02 -1.68648049e-01  5.04196957e-02  7.69293532e-02
  1.52209297e-01  4.67723757e-02  3.37386541e-02 -4.41066548e-02
  1.40214711e-02  1.14485860e-01 -1.83185190e-01 -6.80625439e-03
  4.51460406e-02 -1.42216250e-01 -5.48330247e-02 -4.87720631e-02
  1.59225032e-01  7.71374032e-02 -3.12411319e-02 -1.03802338e-01
  1.69131428e-01 -1.63707852e-01 -5.10903373e-02 -1.01848077e-02
 -8.21506754e-02 -1.02709107e-01 -3.11265886e-01 -2.29910947e-02
  3.49870443e-01  8.08574855e-02 -2.25628763e-01 -2.06725206e-02
 -7.13330880e-02 -6.37240708e-02  1.07855104e-01  9.20818076e-02
 -3.85734588e-02  6.86757127e-03 -9.12187472e-02 -8.59998446e-03
  2.20051572e-01 -1.06633209e-01 -1.58788431e-02  1.96022272e-01
 -3.01659051e-02  2.91583221e-02  8.72125849e-02 -5.96760288e-02
 -4.19426970e-02 -1.76675972e-02 -1.07789397e-01 -3.71931419e-02
  4.71049026e-02 -1.27411053e-01 -1.25062410e-02  8.48099813e-02
 -1.83573380e-01  7.51386136e-02  1.72561854e-02 -2.75972933e-02
  9.75738391e-02 -6.11521117e-02 -3.70721631e-02 -1.23035230e-01
  1.43391401e-01 -1.88154131e-01  1.80713162e-01  2.12037519e-01
 -6.07757233e-02  8.25003758e-02  3.07118893e-02  7.56434128e-02
 -4.41580229e-02 -2.23998073e-02 -1.48783848e-01 -5.74941114e-02
  7.00222924e-02  2.22848114e-02  2.84387451e-02 -2.99596544e-02]