[-0.00370901  0.11440243  0.05464901  0.009447   -0.06160159 -0.05983604
 -0.02661622 -0.0994205   0.03501743  0.01419869  0.26430586 -0.05298024
 -0.21305895 -0.12043218 -0.00174239  0.13912131 -0.18305942 -0.06689872
 -0.13804246  0.03979766 -0.02634178  0.00231441  0.0731251  -0.0372196
 -0.05624649 -0.39124379 -0.11421031 -0.06034309  0.10271603 -0.06542431
 -0.04057882  0.05833698 -0.19566025 -0.12283528  0.06267776  0.03475543
 -0.05909389 -0.07654919  0.22425039  0.06213898 -0.17954044  0.03089473
  0.01369826  0.24092717  0.21300085  0.03769946  0.04481681 -0.08343476
  0.07469524 -0.16006902  0.05576221  0.13328747  0.15246822  0.06186221
  0.0273667  -0.06028661  0.03927196  0.12363409 -0.19266145 -0.01229733
  0.04043364 -0.11599882 -0.02879221 -0.05322884  0.14293237  0.07054684
 -0.02953778 -0.14375487  0.15466546 -0.1440928  -0.05637343  0.01492518
 -0.07755599 -0.10964866 -0.32684222 -0.01963294  0.30900085  0.06915682
 -0.23580749  0.00449345 -0.03513749 -0.08250828  0.09184065  0.10313542
 -0.06312199  0.0037234  -0.08248484 -0.03726187  0.20258681 -0.08018305
 -0.01102135  0.18109366 -0.02385019  0.03338841  0.10999528 -0.03691116
 -0.04151388 -0.01154865 -0.09582348 -0.01537428  0.04571288 -0.13546632
 -0.03378959  0.0885139  -0.16395582  0.09206236  0.0116902  -0.00971805
  0.08488112 -0.07302683 -0.0431965  -0.10690065  0.17449756 -0.2211002
  0.21196775  0.20421405 -0.06873396  0.06959677  0.06805166  0.10180324
 -0.05699422  0.00491001 -0.16156238 -0.08079033  0.05667802 -0.00859276
  0.02222063 -0.02576244]