[-8.28483887e-03  6.24425374e-02  4.15967815e-02  2.90391757e-03
 -5.87218478e-02 -9.38425884e-02  5.27427681e-02 -1.39107361e-01
  6.10177703e-02 -4.10543196e-02  2.60452569e-01 -6.32044896e-02
 -2.28092536e-01 -1.34720549e-01  1.92479473e-02  1.42267033e-01
 -1.52974918e-01 -7.89493918e-02 -1.53377399e-01 -1.91809726e-03
 -2.58257147e-02 -1.75604280e-02  7.53875002e-02 -3.39185819e-02
 -6.11239672e-02 -3.89347374e-01 -1.22666776e-01 -7.29888529e-02
  7.78540894e-02 -3.78011726e-02 -3.24846767e-02  8.63464996e-02
 -1.82961568e-01 -1.18340306e-01  6.60001636e-02  3.64044011e-02
 -4.99008857e-02 -7.21869618e-02  2.25281984e-01  5.13253808e-02
 -1.81729496e-01  3.24072852e-03  3.01317871e-02  2.40017459e-01
  2.02614546e-01  6.16892520e-03  4.94295023e-02 -9.22452658e-02
  7.01109245e-02 -1.60420612e-01  4.94378284e-02  8.59955773e-02
  1.40675172e-01  4.28937897e-02  4.25967015e-02 -4.04231660e-02
  2.21917387e-02  1.07423283e-01 -1.78262308e-01 -1.08240543e-04
  6.37838542e-02 -1.43796101e-01 -6.08791076e-02 -4.82293256e-02
  1.53074786e-01  6.16534315e-02 -4.14263681e-02 -1.06222227e-01
  1.66878521e-01 -1.70859709e-01 -4.67089452e-02  1.76541886e-04
 -8.81890655e-02 -1.08721450e-01 -3.07831138e-01 -2.04698946e-02
  3.64800215e-01  9.11352411e-02 -2.14177832e-01 -1.59175880e-02
 -7.23973513e-02 -6.54479414e-02  1.23095132e-01  1.04152583e-01
 -3.98706309e-02  3.82043165e-03 -8.74783248e-02 -3.31988069e-03
  2.19293579e-01 -9.66655910e-02 -1.85349528e-02  2.00615317e-01
 -2.81564593e-02  3.41565311e-02  7.74111673e-02 -6.71071187e-02
 -4.39497195e-02 -2.05416139e-02 -1.06008828e-01 -4.11161482e-02
  5.46284989e-02 -1.33363396e-01 -5.37624210e-03  9.04913694e-02
 -1.77783772e-01  7.71548003e-02  1.19136218e-02 -1.56307556e-02
  1.05315082e-01 -6.42726645e-02 -4.16756831e-02 -1.15650095e-01
  1.45338580e-01 -1.91512212e-01  1.75177678e-01  2.08232149e-01
 -5.08153252e-02  6.86923265e-02  4.11536060e-02  7.81736895e-02
 -3.96369956e-02 -1.52808158e-02 -1.62608802e-01 -4.99979034e-02
  6.00539744e-02  2.07302086e-02  3.76529172e-02 -3.59098427e-02]