[-0.08317879  0.12766691  0.08400296  0.02155022  0.01483344 -0.08359072
  0.05476054 -0.12212791  0.09970435 -0.0310513   0.29971799 -0.06617884
 -0.18902397 -0.20018212  0.04259451  0.15298395 -0.18876849 -0.06283204
 -0.12017204 -0.00565707  0.01172273 -0.00219064  0.05910586  0.00437502
 -0.02082662 -0.39026326 -0.07960133 -0.09259626  0.09722101 -0.04376466
 -0.05174336  0.09558326 -0.22555916 -0.1378545   0.00639683  0.06733242
 -0.00283314  0.00102774  0.18150547 -0.00820514 -0.15293433  0.00436497
  0.01372985  0.25256008  0.23124023  0.03374602 -0.01003953 -0.06598771
  0.06407504 -0.16669831  0.00351342  0.11378306  0.1199009   0.02960673
  0.04377377 -0.07858944 -0.01299902  0.02946149 -0.15123178 -0.02105991
  0.03559523 -0.13107499 -0.05217087 -0.06018803  0.16448048  0.01712499
 -0.04287749 -0.10304361  0.14609565 -0.13768111 -0.01197798  0.04579368
 -0.12276804 -0.11960856 -0.3498736   0.0305324   0.33663997  0.07228033
 -0.201159    0.02324361 -0.08295312 -0.03395519  0.12447783  0.08497828
 -0.02574463  0.01336746 -0.10096969  0.02290042  0.15171252 -0.06878173
 -0.02596309  0.18959419 -0.06122844  0.04806249  0.03255852 -0.06352369
  0.01043637  0.00163465 -0.15635985 -0.00945719  0.06132443 -0.08875208
 -0.01850238  0.09503101 -0.17015207  0.01756462  0.03354124  0.01790531
  0.08227715 -0.04032434 -0.09371015 -0.09089396  0.14481437 -0.19895406
  0.2090808   0.2152103  -0.06667325  0.07064795  0.05259364  0.09069432
 -0.0499826  -0.01754389 -0.15435907 -0.03198297  0.10309559  0.01003699
  0.0379324  -0.03623223]