[-0.07158817  0.09193644  0.05120347 -0.00385897 -0.02980432 -0.09095685
  0.02597202 -0.11341631  0.08713757 -0.05378264  0.25833657 -0.08712137
 -0.20038418 -0.1645577   0.00956632  0.1779857  -0.19145153 -0.04734897
 -0.12302721  0.00188744  0.02447735 -0.00203008  0.04267457 -0.02399362
 -0.02382639 -0.39965498 -0.08688433 -0.09069361  0.07623424 -0.03131185
 -0.06038251  0.094642   -0.20901053 -0.14363401  0.01141462  0.07072261
 -0.05309504 -0.05091443  0.18776464 -0.01356758 -0.17016697  0.01597373
  0.0482819   0.22065547  0.22904031  0.04412551  0.03991386 -0.10915806
  0.10584857 -0.1174136   0.00376589  0.09394564  0.10309284  0.08141595
  0.02752592 -0.06318416  0.03647324  0.05262373 -0.16589527 -0.02863341
  0.08564936 -0.13389468 -0.04195796 -0.05711534  0.1805288   0.01222823
 -0.03987718 -0.12082376  0.15783077 -0.16454436 -0.04147456  0.01500497
 -0.11100799 -0.12520353 -0.32890847  0.00579938  0.31593084  0.10260897
 -0.18214297  0.03377033 -0.03818765 -0.06354011  0.18012051  0.15034823
  0.01659056  0.01495425 -0.08238626 -0.00398155  0.19662029 -0.08501704
 -0.02277645  0.17885759 -0.01840716  0.04110265  0.04537959 -0.05190271
 -0.03993592  0.01965672 -0.12727271 -0.00664627  0.06297499 -0.08382326
 -0.02208906  0.06963919 -0.10546614  0.0836817   0.00837476  0.05311725
  0.05655332 -0.08376899 -0.05735843 -0.07660837  0.12110716 -0.1618194
  0.20635295  0.17572515 -0.04884573  0.09288438  0.07481229  0.1195147
 -0.045676   -0.00910842 -0.20470014 -0.0471736   0.104484    0.0390013
  0.09391854 -0.0209771 ]