[-0.08445217  0.08859285  0.0440078  -0.00058023 -0.02339412 -0.09288531
  0.03029764 -0.11204624  0.09737249 -0.06105265  0.26260629 -0.09589332
 -0.20505205 -0.16625164  0.00695816  0.17568974 -0.1993358  -0.04415418
 -0.12106249  0.00530122  0.02674093 -0.00571001  0.03327519 -0.02575343
 -0.02614742 -0.40055999 -0.07945689 -0.09760036  0.07158442 -0.0196918
 -0.05832848  0.10357302 -0.20132147 -0.14600216  0.00573934  0.07243606
 -0.03414031 -0.03264066  0.18959175 -0.00613248 -0.17622419  0.00711719
  0.03852202  0.22754125  0.23865722  0.04268415  0.02815051 -0.11101017
  0.11251018 -0.12822521 -0.00719247  0.09521639  0.10413816  0.07497279
  0.02924577 -0.05559568  0.03015341  0.0515094  -0.17735659 -0.04338428
  0.07868103 -0.13079362 -0.04012888 -0.05436127  0.18080904  0.02334942
 -0.03573759 -0.11892545  0.16693184 -0.17198995 -0.04613957  0.01443313
 -0.10806521 -0.11969229 -0.34060881 -0.00082043  0.31605998  0.09569674
 -0.17345679  0.03628068 -0.04280538 -0.06991185  0.18761699  0.14192568
  0.01532675  0.01058738 -0.0709286  -0.01272354  0.19475704 -0.08287682
 -0.02043051  0.17372623 -0.02339545  0.03250014  0.05049182 -0.05170807
 -0.03281854  0.01830254 -0.12980525 -0.01121654  0.06511106 -0.08652097
 -0.00985697  0.06997397 -0.12131703  0.07239594  0.00622968  0.05158916
  0.06669475 -0.08626035 -0.04814896 -0.07213252  0.12674712 -0.16256498
  0.20254432  0.170223   -0.05870694  0.09231659  0.06659638  0.11235007
 -0.05486472 -0.00422996 -0.20150402 -0.04797391  0.10091195  0.0445959
  0.08891685 -0.02598263]