[-0.07284834  0.0942338   0.05012228  0.01222995 -0.01207761 -0.09010061
  0.02192174 -0.11079139  0.10446378 -0.06013999  0.2529704  -0.0902923
 -0.19608861 -0.15699628  0.00200447  0.17002577 -0.19676282 -0.04971585
 -0.11465662 -0.0100404   0.02030691 -0.00922553  0.03950809 -0.02868739
 -0.03826331 -0.41129151 -0.08838884 -0.08854451  0.08253815 -0.02394679
 -0.05592423  0.11718342 -0.22839995 -0.13707554  0.01344594  0.07547958
 -0.04402213 -0.02416823  0.19972341 -0.00141204 -0.15366347  0.01403686
  0.04275016  0.22884595  0.23478797  0.04494036  0.02549685 -0.10077343
  0.10253903 -0.11735886 -0.01196069  0.11258727  0.09482139  0.09103536
  0.03097477 -0.06132355  0.02714951  0.04938225 -0.17458931 -0.02053216
  0.07009752 -0.15444526 -0.0490752  -0.05615468  0.17877702  0.01647357
 -0.03145685 -0.12120035  0.17996472 -0.16673791 -0.02246821  0.01484296
 -0.10277822 -0.12627223 -0.33373523  0.00906767  0.31288719  0.10970046
 -0.16530982  0.05061768 -0.0291316  -0.07730862  0.17088632  0.14263445
  0.00334818  0.01970149 -0.06114891  0.01425682  0.18883078 -0.06199433
 -0.02463255  0.16982943 -0.04381083  0.04762198  0.0446348  -0.06487548
 -0.04386299  0.0068248  -0.14455602 -0.01063532  0.04832056 -0.08856798
 -0.01206353  0.07039913 -0.10358002  0.06883861  0.004819    0.03938914
  0.0423868  -0.06875159 -0.06181879 -0.06239987  0.12423014 -0.17707987
  0.22526181  0.17021824 -0.05630879  0.09881508  0.07095479  0.11279304
 -0.04817544 -0.00875425 -0.19638455 -0.05251327  0.09406122  0.04022129
  0.09718154 -0.02730517]