[-7.47941732e-02  9.87118408e-02  7.05843046e-02  2.12088414e-02
 -1.12551721e-02 -8.81747529e-02  4.55645211e-02 -1.30801618e-01
  8.35982114e-02 -4.02501374e-02  2.94488877e-01 -6.33534566e-02
 -1.97317824e-01 -1.94592997e-01  1.97065305e-02  1.55578479e-01
 -1.92304417e-01 -6.58511147e-02 -1.10345982e-01 -5.75556187e-03
  1.36012333e-02 -1.02356849e-02  6.31398633e-02 -5.43929404e-03
 -1.57016274e-02 -3.86222452e-01 -8.11815560e-02 -8.77219290e-02
  9.21493918e-02 -4.04746048e-02 -3.31315883e-02  1.17981188e-01
 -2.23802477e-01 -1.21264331e-01  1.24806855e-02  7.08184466e-02
 -2.39274628e-03  1.56796072e-02  1.90412715e-01 -1.53160188e-02
 -1.57883972e-01 -4.37027821e-03  1.54262548e-02  2.30527639e-01
  2.19751596e-01  4.49284352e-02 -7.01767346e-03 -7.19924420e-02
  6.97918162e-02 -1.66331276e-01 -2.78891413e-03  1.20151304e-01
  1.17431752e-01  3.13822106e-02  2.89108846e-02 -7.27197453e-02
 -1.05810761e-02  3.11028454e-02 -1.57301471e-01 -2.83230133e-02
  3.41979936e-02 -1.43948421e-01 -4.76405695e-02 -6.52460977e-02
  1.59481838e-01  8.18237755e-03 -4.54362854e-02 -1.00354925e-01
  1.60163641e-01 -1.52466401e-01 -2.06617415e-02  4.27320935e-02
 -1.12205401e-01 -1.18607976e-01 -3.51602912e-01  1.50507884e-02
  3.30666661e-01  7.45460093e-02 -1.79238304e-01  2.13039257e-02
 -7.23430663e-02 -4.52870354e-02  1.08199894e-01  8.11920166e-02
 -2.62561496e-02  1.68249216e-02 -9.76846442e-02  1.89672448e-02
  1.49527743e-01 -8.12997222e-02 -1.56217245e-02  1.90403089e-01
 -5.93164526e-02  6.57752976e-02  3.19039002e-02 -4.84319367e-02
  9.13617667e-03  1.92360883e-03 -1.48061812e-01 -2.94265890e-04
  4.74271290e-02 -9.00489241e-02 -3.53423296e-03  8.54887962e-02
 -1.44831195e-01  2.15997454e-02  9.79842711e-03  1.83525719e-02
  6.44894764e-02 -4.24507447e-02 -8.83392021e-02 -9.73690674e-02
  1.38180539e-01 -1.95194542e-01  2.12270886e-01  2.13118792e-01
 -6.84129372e-02  7.59550855e-02  5.56830056e-02  9.71953645e-02
 -5.94345294e-02 -3.42381410e-02 -1.55741140e-01 -4.45225239e-02
  9.98699218e-02  8.64609983e-03  3.45884375e-02 -3.38648520e-02]