[-2.78609153e-02  1.12792902e-01  1.49898147e-02  2.50837058e-02
 -4.28055301e-02 -7.23872334e-02  5.75459981e-03 -8.46218690e-02
  7.21767917e-02 -2.43446883e-02  2.36863360e-01 -7.88540170e-02
 -1.78440422e-01 -1.30316645e-01 -5.58141619e-06  1.76649198e-01
 -2.15090916e-01 -4.96056043e-02 -1.59544647e-01  2.50439346e-02
  6.22851253e-02  1.79059710e-02  4.88868207e-02 -2.10860521e-02
 -8.94711241e-02 -4.00260359e-01 -1.19223692e-01 -8.91202763e-02
  6.82385489e-02 -9.58797261e-02 -2.73726378e-02  4.53853905e-02
 -1.88888937e-01 -1.39820904e-01  4.89138588e-02 -3.25878710e-03
 -6.46569058e-02 -6.45966753e-02  2.23587632e-01  6.22217022e-02
 -2.00766474e-01  5.88945039e-02  3.90884168e-02  2.65413135e-01
  2.18622208e-01  5.30337207e-02  4.52496000e-02 -1.26098886e-01
  8.34491402e-02 -1.60229638e-01  3.76882628e-02  1.14187837e-01
  8.37665945e-02  8.23253170e-02  5.86193167e-02 -6.65412247e-02
  3.35927866e-02  9.81244072e-02 -1.98190674e-01  1.08182279e-03
  5.70531785e-02 -9.01134983e-02 -1.76969469e-02 -3.37168202e-02
  1.40808448e-01  4.29869406e-02 -2.09057312e-02 -1.52628496e-01
  1.83494255e-01 -1.57195121e-01 -4.78428788e-02  1.75400507e-02
 -8.60280842e-02 -1.62408277e-01 -3.50450188e-01 -2.35743225e-02
  3.85836095e-01  8.78880471e-02 -2.09512189e-01  1.47367688e-02
 -4.65448275e-02 -8.84847566e-02  1.64891496e-01  1.27655610e-01
 -2.66470816e-02 -3.33999773e-03 -5.12744784e-02  1.90753359e-02
  2.15032741e-01 -7.13185221e-02 -3.61036770e-02  1.91908434e-01
  3.29263625e-03 -1.92638102e-03  9.63009223e-02 -5.44620641e-02
 -4.93359417e-02  1.32270632e-02 -1.22181676e-01 -8.98382626e-03
  3.86051647e-02 -1.20254114e-01 -2.94783246e-02  1.12590365e-01
 -1.48005411e-01  1.06736355e-01  3.32186334e-02 -2.60525327e-02
  2.79156324e-02 -3.27060856e-02 -1.02716267e-01 -7.06270710e-02
  1.52417600e-01 -2.08254248e-01  2.10722357e-01  2.17282176e-01
 -3.54676880e-02  7.85569996e-02  5.86348735e-02  1.04229502e-01
 -4.15132008e-02  1.19414199e-02 -2.12505609e-01 -3.79923098e-02
  7.89930001e-02  3.07424553e-02  4.54792194e-02 -2.86251158e-02]