[-8.45025256e-02  1.19699515e-01  8.02521780e-02  1.44673130e-02
 -1.37327090e-02 -1.05106428e-01  3.98226343e-02 -1.16722479e-01
  8.58842656e-02 -3.21728513e-02  2.97319591e-01 -7.15398714e-02
 -1.87508255e-01 -1.92327052e-01  2.70385724e-02  1.47468805e-01
 -1.84203178e-01 -5.84182553e-02 -1.18982509e-01  1.50636013e-03
  2.52648424e-02 -1.35327056e-02  6.47407696e-02 -7.30885949e-04
 -6.93032518e-03 -3.91003609e-01 -8.95721167e-02 -8.45022723e-02
  9.50979516e-02 -2.95470897e-02 -3.94046493e-02  8.42961818e-02
 -2.20064834e-01 -1.44072279e-01  2.27544014e-03  6.08230792e-02
 -2.66654207e-03  2.60633719e-03  1.79108024e-01 -1.86267775e-02
 -1.56039953e-01  1.76110794e-03  9.82016139e-03  2.37902924e-01
  2.46028408e-01  5.20910285e-02 -6.70131703e-04 -6.88452050e-02
  7.30568096e-02 -1.79589644e-01 -5.19980956e-03  1.12915091e-01
  1.20057002e-01  2.56486870e-02  4.33323346e-02 -5.73807620e-02
 -2.71512172e-03  4.63878363e-02 -1.57684192e-01 -3.26702185e-02
  2.47731395e-02 -1.30144820e-01 -4.15203683e-02 -6.42001554e-02
  1.73982367e-01  2.51826532e-02 -3.53726558e-02 -9.54207405e-02
  1.61209106e-01 -1.52478740e-01 -1.99137777e-02  4.62444574e-02
 -1.21717863e-01 -1.15541115e-01 -3.48997980e-01  2.07530297e-02
  3.45827609e-01  7.80482441e-02 -1.85258374e-01  1.79036502e-02
 -7.37934411e-02 -2.88458969e-02  1.19612552e-01  7.26968944e-02
 -3.08949351e-02  3.65524669e-03 -1.09070539e-01  1.86819024e-02
  1.62893280e-01 -9.23649594e-02 -2.00707372e-02  1.88119397e-01
 -4.76093329e-02  6.16397560e-02  3.95983420e-02 -5.83643280e-02
  1.60876419e-02  1.74365938e-03 -1.52178094e-01  1.91619256e-04
  6.49998933e-02 -8.28696340e-02 -1.06687192e-02  8.43915939e-02
 -1.49847344e-01  6.57402445e-03  1.22458292e-02  1.54542727e-02
  6.10585399e-02 -5.54661416e-02 -7.54089952e-02 -9.17375013e-02
  1.40804991e-01 -1.76020429e-01  2.10696623e-01  2.13471323e-01
 -7.63475969e-02  7.24420473e-02  4.38745767e-02  8.58702362e-02
 -5.51313646e-02 -2.81820353e-02 -1.39451548e-01 -3.72804143e-02
  9.78302881e-02  1.27767865e-02  4.32190970e-02 -3.76191214e-02]