[-0.09036893  0.18302122  0.04234775 -0.07619333 -0.01495556 -0.06191381
  0.01338433 -0.07611248  0.13405626 -0.03174454  0.27394643 -0.08102866
 -0.16995408 -0.16797037 -0.01823707  0.15695448 -0.17056651 -0.07107412
 -0.07354192 -0.03070503  0.09154624  0.03079628  0.04185178  0.05105332
 -0.05464733 -0.33301896 -0.05271684 -0.07544928  0.04749536 -0.08379372
 -0.0423473   0.11851575 -0.18410067 -0.1136768   0.03734466  0.05709371
  0.01129463 -0.00551258  0.19493942  0.01508297 -0.15820999  0.05444434
  0.03594145  0.31304538  0.21047631  0.0583952   0.00973358 -0.09620155
  0.10217007 -0.13318177  0.02922372  0.14558218  0.10001176  0.02787599
  0.00171303 -0.12468288  0.01877496  0.03631169 -0.16287509 -0.06426877
  0.05525649 -0.08822637 -0.04285361 -0.0332559   0.19898771  0.03743106
 -0.08465095 -0.1290794   0.1101616  -0.08157853 -0.02193378  0.05617447
 -0.1603712  -0.11454674 -0.25049263  0.07145321  0.36385849  0.08731776
 -0.18992178  0.06620773 -0.10006958 -0.01058125  0.11226033  0.10318977
 -0.08945257  0.03825261 -0.08166706  0.04753273  0.13998072 -0.06042742
 -0.06319459  0.20170572  0.01081027  0.04555115  0.02920689 -0.04604689
 -0.04180897  0.05604721 -0.14362997 -0.03130425  0.07561654 -0.05920004
 -0.01061336  0.12354894 -0.22213762  0.08648895  0.02917357  0.02226499
  0.01345671 -0.00650468 -0.05725009 -0.06442823  0.08596673 -0.2036823
  0.16969463  0.17376508  0.02683628  0.1229377   0.12341607  0.06838539
  0.03588823 -0.02068079 -0.12627617 -0.02378161  0.15803818  0.05021838
  0.11386422 -0.02034674]