[-1.64740533e-01  1.32107034e-01  6.06711023e-02 -2.29674727e-02
  9.76119936e-03 -6.87567070e-02 -2.76505943e-05 -6.27829432e-02
  1.37506649e-01 -2.70276312e-02  2.94296920e-01 -2.93235611e-02
 -2.35998437e-01 -1.68705240e-01 -4.92357686e-02  1.49902210e-01
 -1.95564941e-01 -8.58270451e-02 -7.99650922e-02 -4.33931537e-02
  1.12945698e-01  4.16455530e-02 -1.88370869e-02  9.69626289e-03
 -1.07296363e-01 -3.08141232e-01 -6.49022087e-02 -7.98209906e-02
  3.56557104e-03 -7.95411393e-02 -7.93145876e-03  3.40972319e-02
 -1.95819825e-01 -1.21823363e-01  1.29296929e-02  4.87591103e-02
  2.21263599e-02 -4.28332994e-03  1.43824816e-01  2.52581593e-02
 -1.72572002e-01  2.21662577e-02  3.02550327e-02  2.99790233e-01
  1.77064374e-01  5.79679310e-02 -4.78955880e-02 -8.42227191e-02
  1.05267301e-01 -2.19675109e-01  1.00049379e-04  1.58476099e-01
  1.00706413e-01  3.85538526e-02  8.08653384e-02 -1.26201496e-01
 -2.65727583e-02  9.13508087e-02 -1.45855263e-01 -1.10021774e-02
 -6.39281794e-03 -6.60018399e-02 -2.16275044e-02 -1.18872367e-01
  1.29303560e-01  6.61492571e-02 -1.06862068e-01 -1.29150912e-01
  1.26359582e-01 -1.09254517e-01 -6.91206828e-02  7.43960962e-02
 -1.06551580e-01 -1.62873775e-01 -3.31536025e-01  4.42920327e-02
  3.40898275e-01  8.87176991e-02 -2.04006419e-01  2.23558471e-02
 -5.59082516e-02 -1.36939557e-02  1.03176586e-01  6.91976398e-02
 -5.21319024e-02  5.38344383e-02 -8.04227963e-02 -1.28280492e-02
  1.61133498e-01 -1.33325933e-02 -5.02397902e-02  2.09195957e-01
 -4.86384816e-02  5.28351627e-02  4.59101647e-02 -4.63949610e-03
 -5.07466681e-02  1.55159635e-02 -1.33764341e-01 -1.17948074e-02
  7.62927756e-02 -8.96155760e-02 -8.79996922e-03  1.01352893e-01
 -1.38391376e-01  5.33363484e-02  3.52798849e-02  4.18985449e-02
 -2.31723813e-03  1.00133633e-02 -9.32308435e-02 -1.46835959e-02
  1.23613633e-01 -2.07908303e-01  2.54486591e-01  1.86249062e-01
 -3.04062963e-02  8.93579572e-02  1.07145205e-01  3.63109112e-02
 -5.52704819e-02 -6.91653416e-03 -1.35074228e-01 -7.96072483e-02
  8.45621154e-02 -2.42107809e-02  7.81693980e-02 -4.27755900e-02]