[-0.11881091  0.15461501  0.06033786 -0.02633587 -0.00246965 -0.0539283
 -0.01457237 -0.06820662  0.12203057  0.00370594  0.32951945 -0.02967566
 -0.22062583 -0.14590566 -0.02728373  0.142864   -0.18534414 -0.06101041
 -0.07837939 -0.02531527  0.14719878  0.0455865   0.03276843  0.00283011
 -0.13526303 -0.30944166 -0.08097748 -0.09810588  0.06443923 -0.1134166
 -0.03895506 -0.01784878 -0.20166969 -0.12616466  0.0410712   0.05257142
  0.02817263 -0.0320906   0.14542101  0.02071029 -0.16677411  0.08091881
  0.02523248  0.28471622  0.18959752  0.07855474  0.00562266 -0.12943846
  0.10247938 -0.1814425   0.0606497   0.11099473  0.0993342   0.02446246
  0.08491702 -0.16211914 -0.03780959  0.12568043 -0.1491046   0.02274895
  0.02860882 -0.03235808 -0.01109607 -0.11649346  0.1451174   0.05849627
 -0.12254997 -0.14407228  0.09695245 -0.09521564 -0.05756645  0.06729948
 -0.12891828 -0.1397271  -0.34951252  0.03553239  0.34724155  0.05758141
 -0.23601301  0.03633879 -0.04911379  0.02152874  0.10918824  0.09791233
 -0.03047699  0.05024722 -0.09603558 -0.00912825  0.1674912  -0.04716504
 -0.03294058  0.21644185 -0.06726222  0.07497516  0.03758697  0.01255285
 -0.09994882  0.00645256 -0.09946084 -0.01459762  0.03279175 -0.07382068
 -0.02247111  0.12138573 -0.16588841  0.05185465  0.01230916  0.03956135
 -0.00094349 -0.01136309 -0.06188072 -0.02218208  0.11398851 -0.25461799
  0.25669739  0.20797716 -0.02527951  0.08276639  0.10615733  0.04087722
 -0.0207083   0.041605   -0.1792579  -0.04089918  0.05646569 -0.04401939
  0.06501113 -0.03441903]