[-4.61580530e-02  1.89523622e-01 -1.12316200e-04 -2.75602229e-02
 -2.05739401e-02 -6.61808178e-02 -2.51053032e-02 -7.38472566e-02
  1.47498518e-01  2.73614880e-02  1.91611111e-01 -6.48687631e-02
 -1.87243134e-01 -1.06094435e-01 -2.27163844e-02  1.48316249e-01
 -1.92221105e-01 -6.95708022e-02 -1.31012961e-01 -7.15749860e-02
  6.10447414e-02  3.13068889e-02  4.75070961e-02  5.61884902e-02
 -1.15097694e-01 -3.03631216e-01 -7.50550926e-02 -9.51875076e-02
  9.19497535e-02 -1.09235756e-01 -5.29128686e-02  4.97992747e-02
 -1.83792576e-01 -1.48492098e-01  5.57524450e-02  5.40871732e-02
 -1.92786064e-02 -2.23253127e-02  1.86264619e-01  9.27618966e-02
 -1.67449340e-01  9.09645706e-02  1.17641948e-02  3.25531662e-01
  2.40951136e-01  9.69284922e-02  1.95787884e-02 -1.45552546e-01
  8.30663815e-02 -1.54345825e-01  8.02880675e-02  1.76999480e-01
  6.72364682e-02  5.56600094e-02  3.53704696e-03 -1.09961085e-01
 -2.34975270e-03  6.38521165e-02 -1.69517294e-01 -4.03730683e-02
  1.13342158e-01 -5.52891679e-02 -5.10026030e-02 -4.01753187e-02
  1.47752568e-01  7.25411326e-02 -7.77041242e-02 -1.03422120e-01
  1.49193555e-01 -1.21114649e-01 -5.00768088e-02  1.11090448e-02
 -9.54194888e-02 -8.75824690e-02 -3.15494388e-01  4.32622544e-02
  4.66006130e-01  6.24420308e-02 -1.76841736e-01  7.32131815e-03
 -1.29840732e-01 -2.99802367e-02  1.04994334e-01  7.45473579e-02
 -1.28109097e-01 -3.24596353e-02 -4.25183512e-02  5.58202155e-02
  1.64571732e-01 -4.08917330e-02 -3.17752250e-02  1.32439017e-01
  3.70119810e-02  3.20279524e-02  5.19761927e-02  2.45080926e-02
 -9.45661739e-02  2.95660030e-02 -1.27083123e-01 -2.82457527e-02
  4.41127643e-02 -8.68425071e-02  8.27714044e-04  1.32179737e-01
 -2.14612707e-01  1.29143625e-01  1.08289175e-01 -5.89644015e-02
  4.51763384e-02  5.21988273e-02 -8.72468874e-02 -9.13545415e-02
  1.48534089e-01 -2.09170148e-01  1.86663896e-01  2.19826624e-01
  2.33676136e-02  9.34623703e-02  9.38342214e-02  1.18836857e-01
 -1.26037691e-02  6.70261076e-03 -1.41342983e-01 -5.51465042e-02
  7.43250400e-02  5.48067577e-02  5.45347817e-02  3.05042788e-03]