[-5.09543195e-02  1.45560279e-01  6.45293742e-02 -5.73336743e-02
 -6.79239929e-02 -7.25491196e-02 -3.74804735e-02 -7.24383146e-02
  1.30348280e-01 -3.10783237e-02  2.72344589e-01 -6.68268576e-02
 -1.62149087e-01 -6.31561652e-02 -6.98374510e-02  1.63465664e-01
 -1.74682364e-01 -8.58066604e-02 -8.16296712e-02 -2.48755105e-02
  7.42871463e-02 -7.84648757e-04 -1.63826009e-03  5.06841578e-03
 -1.03324071e-01 -3.26895922e-01 -9.29516479e-02 -8.81686509e-02
  9.16703120e-02 -8.63042474e-02 -4.79422659e-02  3.00444942e-02
 -1.76892623e-01 -9.90989432e-02  3.16567458e-02 -5.61694149e-03
 -9.03437361e-02 -2.55295336e-02  1.79797396e-01  8.48807842e-02
 -2.20877454e-01  6.46306649e-02  8.93951487e-03  3.15401286e-01
  1.75208673e-01  8.02245587e-02  4.35260050e-02 -1.71259344e-01
  9.14553925e-02 -1.89672947e-01  5.89580201e-02  1.60885140e-01
  9.75744948e-02  8.99971649e-02  3.89282964e-02 -1.21406235e-01
  5.09869643e-02  8.67241174e-02 -1.74736410e-01  3.89326327e-02
  1.15550913e-01 -4.94709127e-02 -3.63007392e-04 -7.05886111e-02
  2.21154690e-01  8.76632705e-02 -7.30529949e-02 -1.29783899e-01
  1.84543893e-01 -7.26560578e-02 -5.89595139e-02  5.93921356e-02
 -1.11475460e-01 -1.51552722e-01 -3.02993029e-01  4.44249883e-02
  4.25737202e-01  1.04283273e-01 -1.64320394e-01 -1.25276595e-02
 -1.15301453e-01 -3.05533479e-03  1.25531361e-01  6.40513822e-02
 -1.28429398e-01 -1.17562879e-02 -6.34720474e-02  1.63712502e-02
  2.00892240e-01 -9.18673575e-02 -2.63284203e-02  1.54629752e-01
  7.65973423e-03  5.45435324e-02  1.90242846e-02  9.82957985e-03
 -1.20057575e-01  5.55337034e-02 -1.32032618e-01 -3.06292474e-02
  3.82302850e-02 -8.51508155e-02  1.32650128e-02  1.59559831e-01
 -1.90253645e-01  1.29379451e-01  5.06483801e-02 -2.99542490e-02
  7.04602757e-03  5.27622662e-02 -6.67801723e-02 -7.76123926e-02
  1.14472248e-01 -1.97113872e-01  2.53852993e-01  2.10399583e-01
  9.66722518e-02  7.01364502e-02  1.16865337e-01  4.00689207e-02
 -4.19009291e-02 -3.48640755e-02 -1.61549717e-01 -9.59666073e-03
  7.99152628e-02  5.50044188e-03  3.16331573e-02 -1.05930492e-03]