[-0.11258543  0.17520335  0.04789619 -0.05805775 -0.06627649 -0.09575348
 -0.00259069 -0.14304273  0.11881883 -0.03883606  0.27427548 -0.0463843
 -0.1735207  -0.16566366 -0.0592693   0.17184918 -0.17995968 -0.11441272
 -0.05152271 -0.02292225  0.09923983  0.01056544  0.0381875   0.03163078
 -0.09606717 -0.32406947 -0.09926445 -0.09188424  0.04137161 -0.05041158
 -0.013211    0.02964573 -0.15193035 -0.10074208  0.03051072  0.04661421
 -0.0632843  -0.0216685   0.19205151  0.01034194 -0.21077795  0.06345021
  0.03831349  0.34042025  0.22614828  0.05534383  0.08806773 -0.17919444
  0.11268677 -0.11342968  0.06735206  0.13950451  0.08303203  0.02655884
  0.03828822 -0.09617151  0.01660235  0.12819307 -0.16531093 -0.00144213
  0.11428607 -0.06949977 -0.00982113 -0.0347774   0.21707876  0.06498583
 -0.09286181 -0.15929414  0.16991477 -0.13165751 -0.10270733  0.04822326
 -0.15600757 -0.1374094  -0.33469364  0.02477289  0.43521848  0.08233367
 -0.15830664  0.04514454 -0.08187445  0.02242902  0.18659025  0.15372805
 -0.06611761 -0.01229686 -0.11871304  0.00588965  0.19502266 -0.08159162
 -0.07026612  0.16932061  0.03620808  0.02902024  0.03103253 -0.0039252
 -0.08634575  0.08829691 -0.11901464 -0.03259864  0.0357214  -0.02596327
  0.02135824  0.13813581 -0.15037759  0.10897692  0.03947006  0.05396957
 -0.00894201 -0.01994792 -0.05084492 -0.07366446  0.07827753 -0.20102198
  0.21219598  0.17171626  0.03677846  0.09813196  0.12932035  0.05683874
  0.00502004 -0.02729443 -0.16941674  0.01732276  0.09621417  0.02375947
  0.1330146   0.00690013]