[-0.08244997  0.18123291  0.0299013  -0.03642668 -0.07413781 -0.05906986
 -0.04107172 -0.11779971  0.12230021  0.01372488  0.23211871 -0.05084583
 -0.18054287 -0.18682598 -0.05365288  0.16687863 -0.16896559 -0.11558916
 -0.04217486 -0.00158689  0.0848189   0.00652659  0.05409465  0.00509422
 -0.07851608 -0.33535433 -0.07284246 -0.10563327  0.04910265 -0.06930205
 -0.03869485  0.04443171 -0.1712274  -0.11451429  0.03438031  0.03136667
 -0.05930824  0.01091706  0.16151366  0.0241885  -0.20896755  0.02750683
  0.03781551  0.28304139  0.21215601  0.08500346  0.07487049 -0.1736225
  0.09966192 -0.07527399  0.05355765  0.15063989  0.11405375  0.02359194
  0.02592506 -0.10015359  0.02380558  0.08858108 -0.16717993  0.0146033
  0.11950944 -0.04272953 -0.03100043 -0.03376539  0.21399863  0.03012093
 -0.05623851 -0.1804812   0.17691492 -0.11619595 -0.08372836  0.0895276
 -0.12880336 -0.13678239 -0.30872941 -0.00648827  0.40615469  0.057943
 -0.15533112  0.01919136 -0.08540279 -0.01380502  0.12670814  0.10647198
 -0.10477553  0.01989827 -0.11132326 -0.02873994  0.20125282 -0.0729992
 -0.04123308  0.16401049  0.03585084  0.05053927  0.03106222 -0.02543931
 -0.0575128   0.08890543 -0.11679456 -0.06433389  0.02341098 -0.08359515
  0.01871461  0.11641182 -0.1464321   0.08262154  0.04707655  0.0641942
 -0.00644069  0.00925996 -0.0735225  -0.10148596  0.11821544 -0.19306581
  0.1997181   0.1709154   0.07964471  0.05702055  0.12140536  0.08877917
 -0.01551087 -0.03637728 -0.15688252  0.01440011  0.09319166 -0.01495219
  0.09507299  0.01994313]