[-0.08822574  0.14514004  0.07891321 -0.05657321 -0.06160934 -0.07758542
 -0.01456614 -0.06029416  0.11327217  0.01690392  0.32693118 -0.0383511
 -0.23816209 -0.16017552 -0.0285325   0.14177749 -0.17511418 -0.0277318
 -0.08070321 -0.02248622  0.14080858  0.04022419  0.07232103  0.01562654
 -0.11080287 -0.3517997  -0.09272482 -0.06925105  0.01644401 -0.10564119
 -0.00817187  0.02651753 -0.20079994 -0.14383762  0.02597326  0.03228287
  0.00890777 -0.0390274   0.14370809  0.02561721 -0.17077929  0.08300757
  0.00147172  0.26969159  0.2199868   0.03995421  0.01619578 -0.09420829
  0.07269824 -0.20652647  0.03738503  0.13579224  0.08608798  0.00280487
  0.06843456 -0.08647578 -0.02273437  0.14047454 -0.18344353 -0.01667972
  0.04315662 -0.06749094 -0.01188145 -0.09337121  0.13181011  0.06979892
 -0.12271118 -0.11697459  0.08857001 -0.09471281 -0.03347426  0.063236
 -0.15650605 -0.16548745 -0.33631656  0.06710462  0.36531761  0.09479963
 -0.25213614 -0.00753672 -0.08221934  0.04999258  0.11758637  0.07868547
 -0.00376419  0.02106638 -0.11163342  0.03487141  0.11650646 -0.07710526
 -0.06092779  0.26901147 -0.01143642  0.08477552  0.05463911  0.01568942
 -0.06197095  0.0053606  -0.13167334  0.02833251  0.03221925 -0.05262078
 -0.01573056  0.09785163 -0.11185568  0.04918254  0.01653011  0.00953824
 -0.02609507 -0.04665709 -0.06365889 -0.05651671  0.10285508 -0.23594709
  0.22441204  0.20387618 -0.03972065  0.10150583  0.08314081  0.03217637
 -0.01760403 -0.02446822 -0.10272098 -0.02853376  0.07416215 -0.01154495
  0.0788104  -0.05814622]