[-0.11269321  0.18221448  0.04249766 -0.06330917 -0.07165556 -0.09081068
 -0.02296895 -0.14667383  0.11033844 -0.0178735   0.26289961 -0.04932774
 -0.18303235 -0.17636085 -0.06730589  0.17790303 -0.18756224 -0.12573887
 -0.04283593 -0.03225092  0.10300373  0.01624484  0.03972286  0.02290439
 -0.08736259 -0.32488975 -0.09825499 -0.08611147  0.04816489 -0.06008343
 -0.01812464  0.0315635  -0.15602274 -0.09840139  0.03485227  0.056839
 -0.05628008 -0.03321965  0.17759483  0.0194156  -0.20296386  0.05012942
  0.04121358  0.33891806  0.23944724  0.05552738  0.08592871 -0.17440687
  0.11138982 -0.10230184  0.0707541   0.14940171  0.09299907  0.02780611
  0.03997529 -0.08855558  0.01952983  0.13324927 -0.16531883 -0.00103576
  0.12596083 -0.06557625 -0.00507043 -0.04413408  0.2197275   0.06255393
 -0.09049469 -0.15828602  0.17251225 -0.12534802 -0.11095297  0.04336941
 -0.15516077 -0.13107121 -0.32971114  0.02143957  0.43429261  0.07994622
 -0.16127735  0.04240914 -0.06664973  0.01759695  0.18532328  0.15157212
 -0.08112017 -0.00119353 -0.12333043 -0.00076327  0.20024383 -0.0725746
 -0.06953125  0.1754414   0.02907905  0.03270931  0.04419783  0.00055731
 -0.07184073  0.09119674 -0.11016883 -0.0394341   0.03453495 -0.05137734
  0.02153497  0.13540332 -0.12966278  0.09441315  0.0411065   0.0727442
 -0.01663997 -0.02567893 -0.04931555 -0.07828481  0.08632146 -0.20044987
  0.20689335  0.17120865  0.03670978  0.0901674   0.12675796  0.07655066
  0.00297194 -0.04061765 -0.15516244  0.01714494  0.09164555  0.02266825
  0.13126001  0.01793301]