[-0.10157807  0.16039734 -0.01729878 -0.06301302 -0.02977862 -0.09159825
 -0.01765676 -0.09172586  0.13360715  0.0358583   0.19616796 -0.06729183
 -0.16333453 -0.13444094 -0.03468495  0.15795963 -0.19551787 -0.07417408
 -0.11415754 -0.07836594  0.04465039  0.0070132   0.04319381  0.06567042
 -0.10083058 -0.30755877 -0.08459296 -0.10656917  0.0715391  -0.08543954
 -0.03768194  0.07235967 -0.19992068 -0.15188676  0.06688637  0.05836483
 -0.01268721 -0.00614514  0.18982729  0.07587165 -0.15457816  0.09736202
  0.04847904  0.31899315  0.24914244  0.09981707  0.02063445 -0.13184766
  0.0990358  -0.14295249  0.08139879  0.15877204  0.05716603  0.04865471
  0.00415383 -0.1146477   0.02061552  0.04670702 -0.1793038  -0.04202096
  0.10423138 -0.06991284 -0.06593212 -0.02451064  0.15692113  0.08795889
 -0.0689524  -0.12546016  0.1548733  -0.12254088 -0.02720935  0.02164303
 -0.10990963 -0.09164962 -0.30648494  0.06074813  0.44620943  0.07892033
 -0.15903547  0.02898535 -0.12498844 -0.02890933  0.1139332   0.0670626
 -0.11497343 -0.0327337  -0.04692905  0.04029309  0.16282348 -0.0283164
 -0.03986681  0.14106672  0.0361395   0.02982498  0.05099439  0.01837153
 -0.08975582  0.02683124 -0.12444063 -0.03339643  0.04544066 -0.07449825
  0.01118064  0.12048139 -0.210132    0.11380738  0.08394009 -0.0392526
 -0.00205754  0.03803829 -0.06236457 -0.07545546  0.11153153 -0.20183682
  0.21253304  0.20854898  0.02618588  0.10355385  0.09880193  0.08870658
 -0.00594554  0.00552422 -0.11510422 -0.04709854  0.08093271  0.05896493
  0.08181029  0.01262846]