[-7.78617039e-02  1.86464459e-01  7.62066841e-02 -4.33000326e-02
 -2.73014251e-02 -5.11823259e-02  2.27752309e-02 -8.98543224e-02
  1.28845960e-01 -1.88504700e-02  3.05797189e-01 -1.05140261e-01
 -1.86558276e-01 -1.67169541e-01 -2.66668387e-02  1.76343262e-01
 -1.73727676e-01 -8.16828385e-02 -6.64795712e-02 -1.51965125e-02
  6.58002868e-02  3.46690677e-02  3.25166434e-02  3.36730778e-02
 -3.02490592e-02 -3.39936018e-01 -4.92009893e-02 -1.07593417e-01
  8.97476748e-02 -1.14239447e-01 -6.30806386e-02  5.96737526e-02
 -1.77968293e-01 -1.27085969e-01  3.19801681e-02  1.87224206e-02
 -8.36093724e-03 -1.78892259e-02  1.97471291e-01  3.75042334e-02
 -1.64829716e-01  5.59114516e-02  1.31008925e-03  3.20953548e-01
  2.16484934e-01  7.87704885e-02 -8.86254665e-03 -1.04034662e-01
  7.21635669e-02 -1.31574199e-01  1.34957731e-02  1.38498411e-01
  1.23283677e-01  1.99499782e-02 -8.10937025e-03 -1.32189721e-01
 -1.91350176e-03  2.27700304e-02 -1.89081073e-01 -5.77170365e-02
  6.96673170e-02 -6.96754977e-02 -2.81928163e-02 -2.89665591e-02
  2.19220713e-01  1.61115620e-02 -8.72621760e-02 -1.06419496e-01
  1.35131463e-01 -8.97485465e-02 -2.50097122e-02  2.65947580e-02
 -1.41504392e-01 -1.01973198e-01 -2.55633742e-01  4.95637767e-02
  3.67810547e-01  6.00198917e-02 -2.22776800e-01  3.23953032e-02
 -1.09912872e-01  1.26675892e-04  1.00248136e-01  9.87571478e-02
 -7.19396099e-02  1.52965812e-02 -7.94031247e-02 -1.36815328e-02
  1.11990035e-01 -7.98587874e-02 -3.40936929e-02  1.88119575e-01
 -9.66939423e-03  2.78169699e-02  3.81884724e-02 -5.08827753e-02
 -4.65715043e-02  5.20489626e-02 -1.20432451e-01 -4.36876230e-02
  3.10396198e-02 -6.76740035e-02 -8.39419663e-05  1.31478876e-01
 -2.35549331e-01  9.93607193e-02  4.45596054e-02  5.77674201e-03
  2.53441390e-02 -2.59990548e-03 -3.80097330e-02 -7.35270455e-02
  1.12978317e-01 -2.23826885e-01  1.88769057e-01  2.01554298e-01
  2.10942756e-02  1.09210111e-01  9.38968882e-02  6.56511486e-02
  7.12290406e-03  8.55259597e-04 -1.43702105e-01 -4.17199284e-02
  1.12078920e-01  1.30144851e-02  8.61405954e-02 -1.18354121e-02]