[-0.10661568  0.17222233  0.04253991 -0.06963402 -0.06195229 -0.10126518
 -0.01669038 -0.1442641   0.10963233 -0.03271453  0.26937419 -0.06292369
 -0.17513146 -0.18612175 -0.05301718  0.18462428 -0.18527713 -0.10844483
 -0.04347395 -0.02823289  0.10911366 -0.00166076  0.04031337  0.0339997
 -0.09275822 -0.32164079 -0.11351436 -0.08303714  0.04368569 -0.06399532
 -0.02639144  0.03428135 -0.16066995 -0.10344143  0.02534924  0.04833243
 -0.06066438 -0.03455008  0.17948021  0.01755284 -0.19711961  0.05449504
  0.03903933  0.32308513  0.22319162  0.05270752  0.08485528 -0.16760044
  0.12289929 -0.09689695  0.06557664  0.13866249  0.10021677  0.0346479
  0.03568928 -0.08358466  0.02286124  0.1365076  -0.16613434  0.00254939
  0.11460605 -0.07336124 -0.02024619 -0.04407088  0.21460919  0.06559017
 -0.09376265 -0.16319738  0.17672692 -0.10963733 -0.09691401  0.0474631
 -0.15958183 -0.1375747  -0.3296752   0.03176857  0.4171277   0.07839227
 -0.16562034  0.04004955 -0.07895456  0.02028524  0.17899273  0.14978221
 -0.06652039 -0.00127828 -0.1143397   0.0038594   0.18751085 -0.08847363
 -0.06459109  0.18290606  0.03132796  0.05062446  0.02685107 -0.01251682
 -0.07317898  0.09331077 -0.10551041 -0.02569201  0.04440179 -0.04864067
  0.01472169  0.12850498 -0.13226847  0.09923212  0.05119708  0.07057006
 -0.01394425 -0.01292376 -0.06785544 -0.08516055  0.07290404 -0.2118002
  0.207992    0.17822568  0.03682037  0.08435894  0.12877896  0.07637371
  0.0114636  -0.04194396 -0.15783434  0.02253571  0.11260082  0.02739493
  0.11478261  0.00988622]