[-0.07383495  0.12390804  0.08978305 -0.04696111 -0.07157958 -0.06990313
 -0.02457208 -0.1090761   0.12655565 -0.01264912  0.27512226 -0.03060954
 -0.19883275 -0.16670938  0.01041596  0.13688491 -0.21902648 -0.07107937
 -0.03123981 -0.00642414  0.15896499  0.02987692  0.06439114  0.01026466
 -0.1570857  -0.37629178 -0.10608988 -0.09984111  0.07669001 -0.06052145
 -0.04198381  0.06522366 -0.15598677 -0.12895115  0.03501092  0.03522197
  0.03083641 -0.02356267  0.13859622  0.02553043 -0.2155187   0.10470649
  0.03061127  0.24805918  0.25713095  0.04754753  0.04623604 -0.10337307
  0.09781013 -0.16408184  0.0345064   0.12819156  0.07452842  0.02590733
  0.07309186 -0.10971906 -0.02146931  0.09984956 -0.21924143  0.03614543
  0.08554148 -0.06596281  0.02725693 -0.05066506  0.10031655  0.05132537
 -0.08395574 -0.15911339  0.11153535 -0.14200057 -0.07647672  0.05096324
 -0.1792998  -0.13750242 -0.33803189  0.00926856  0.36209342  0.09610532
 -0.20624946  0.01214414 -0.04155098 -0.00103553  0.12633081  0.09250987
 -0.00750248  0.00957742 -0.08675348  0.02415112  0.15738934 -0.03699182
 -0.02776875  0.28111383 -0.00171506  0.09031727  0.0562063   0.02919003
 -0.07819309  0.03614787 -0.15081671 -0.00376385 -0.00425019 -0.06200806
  0.02655552  0.12520854 -0.14415959  0.0945169   0.00042761  0.0395034
 -0.04133212 -0.0218746  -0.0772021  -0.02280297  0.12127239 -0.19747047
  0.21326326  0.2361286   0.0450254   0.06432524  0.07972684 -0.00423267
 -0.0085344  -0.01925993 -0.14432037 -0.00136277  0.05625603 -0.06860746
  0.0650986  -0.00987777]