[-0.083124    0.20694749  0.0543304  -0.04837821 -0.0909782  -0.06382301
 -0.06120046 -0.13157339  0.08564663 -0.00653029  0.25806022 -0.06541279
 -0.157846   -0.17197536 -0.07292742  0.17820778 -0.19206725 -0.10733356
 -0.03007514 -0.01601525  0.08174231 -0.00574071  0.06152704 -0.00649128
 -0.06852686 -0.297521   -0.08321793 -0.09362102  0.06125529 -0.07061443
 -0.03472908  0.04658023 -0.17544346 -0.10007425  0.02296201  0.04660318
 -0.06775706 -0.01198812  0.17295705 -0.00086023 -0.17821501  0.04063733
  0.03266706  0.28082013  0.21254459  0.07205232  0.04775458 -0.16811305
  0.1033505  -0.07661456  0.06758916  0.15381154  0.11520644  0.05361172
  0.00440542 -0.09890867  0.06071197  0.10476018 -0.15067974 -0.01640629
  0.12044647 -0.05063982 -0.00253907 -0.04906691  0.22528724  0.04320014
 -0.05802954 -0.15563162  0.16678815 -0.07531621 -0.08909899  0.06916686
 -0.14015807 -0.12302011 -0.30502132  0.00441563  0.39397985  0.07640575
 -0.15550826  0.01185174 -0.07538306 -0.01715598  0.12729326  0.10495094
 -0.12010155  0.00478776 -0.10472468 -0.01385304  0.18492053 -0.08583544
 -0.05623642  0.17416772  0.03271908  0.06948687  0.0296432  -0.03711905
 -0.03440851  0.09889408 -0.1146083  -0.03176653  0.01489015 -0.09972163
 -0.00935787  0.12630853 -0.14821075  0.07910097  0.0538059   0.07831143
 -0.02328429 -0.00629954 -0.07747095 -0.0780319   0.12355793 -0.20120549
  0.21192971  0.18236515  0.0739429   0.07225229  0.15591426  0.09070709
 -0.01113482 -0.06129111 -0.16404743  0.01830216  0.11950077 -0.00925288
  0.09883187  0.04805404]