[-0.08273627  0.18606937  0.07004475 -0.04221117 -0.02434717 -0.04044571
  0.0230998  -0.08854852  0.13204511 -0.0251894   0.28722951 -0.09737945
 -0.16149561 -0.17032142 -0.02177342  0.17539421 -0.17721997 -0.08745755
 -0.07752931 -0.00805197  0.06410124  0.0160254   0.02981303  0.03134299
 -0.03638327 -0.34931186 -0.06118974 -0.11032913  0.08666503 -0.08948814
 -0.05547109  0.0755592  -0.18402418 -0.12597471  0.02789013  0.02168163
  0.00100863 -0.02632774  0.18463404  0.01107174 -0.15459554  0.06584964
  0.01113905  0.31044149  0.20324521  0.0690346   0.01013422 -0.10054797
  0.07032233 -0.11638878  0.01789379  0.1303349   0.10922661  0.03258193
 -0.00464616 -0.13094789  0.00853298  0.02860149 -0.17362456 -0.05038363
  0.05829139 -0.05808214 -0.04655899 -0.04003625  0.22317009  0.0407677
 -0.08073913 -0.13086927  0.13635254 -0.08038884 -0.01622632  0.02160923
 -0.15828526 -0.09806355 -0.24825977  0.05418655  0.36914426  0.06741391
 -0.22695962  0.03825206 -0.11682291  0.00885341  0.10539198  0.101087
 -0.06946512  0.01397515 -0.07260594 -0.00657832  0.12553129 -0.06948505
 -0.04699009  0.18120709 -0.0026933   0.01028962  0.02951246 -0.06799515
 -0.03338252  0.05318896 -0.1314988  -0.04063044  0.0420151  -0.05851092
 -0.0189502   0.12933995 -0.22518979  0.09051633  0.04831428  0.02242875
  0.0344195   0.00610625 -0.05654959 -0.07232355  0.11577711 -0.21610223
  0.19187059  0.19419554  0.02470659  0.10937007  0.10423819  0.0820802
  0.01307625  0.00694411 -0.15048519 -0.03254309  0.1313635   0.02050899
  0.07658233 -0.01005383]