[-0.09194957  0.17241217 -0.0138099  -0.06696642 -0.03756464 -0.09984634
 -0.00878056 -0.07425364  0.13958187  0.01867011  0.19152379 -0.05793963
 -0.1693687  -0.1252041  -0.0406956   0.15582807 -0.18265924 -0.06223807
 -0.1343303  -0.07915819  0.03013661  0.01877558  0.04442074  0.06926926
 -0.12233384 -0.28876463 -0.08254378 -0.09991971  0.06559436 -0.09046794
 -0.03255861  0.0596719  -0.19796455 -0.15904263  0.06591552  0.05155474
 -0.04498572 -0.00419943  0.19997333  0.11089833 -0.15695171  0.07648659
  0.03675434  0.34231055  0.27995351  0.08296022  0.01536938 -0.11586934
  0.11535975 -0.19359024  0.07822376  0.15581058  0.062955    0.05870334
  0.03071527 -0.08080312  0.01138108  0.07255407 -0.18740775 -0.04930916
  0.09398351 -0.06902205 -0.08234581 -0.02654864  0.13852483  0.10072122
 -0.07460371 -0.09574585  0.18287471 -0.14270572 -0.02253623  0.02705844
 -0.08419728 -0.09092761 -0.30878794  0.05609135  0.43586883  0.10803071
 -0.13212581  0.00433022 -0.12008562 -0.01910831  0.09395818  0.04332227
 -0.12789397 -0.04082187 -0.01715196  0.06135036  0.15131317 -0.03779474
 -0.02916089  0.14918731  0.04020476  0.00826932  0.05589893  0.01561245
 -0.09138322  0.00668746 -0.12655298 -0.02060149  0.05954659 -0.09363959
  0.03100509  0.12165873 -0.21819268  0.11874469  0.0808695  -0.05764697
  0.01129733  0.03337553 -0.0718099  -0.07139436  0.11688719 -0.19119811
  0.20798306  0.20266747 -0.01759626  0.08840017  0.09013681  0.07308914
 -0.01331056 -0.0102343  -0.08512496 -0.07217332  0.0696737   0.06088684
  0.07525922 -0.01208899]