[-0.09650292  0.17141412 -0.01944616 -0.0586887  -0.03727672 -0.08765007
 -0.02172657 -0.08121913  0.13595292  0.03749815  0.19703436 -0.05852935
 -0.15833324 -0.14053689 -0.04331832  0.1645637  -0.20217581 -0.07412758
 -0.11698631 -0.07563197  0.03687985  0.02495029  0.03597376  0.07142836
 -0.10654733 -0.30520245 -0.08132935 -0.10544497  0.06223214 -0.07874703
 -0.02433416  0.08944119 -0.18481725 -0.15045063  0.07917979  0.05940021
 -0.02638959  0.01150019  0.20110694  0.08754154 -0.15281631  0.09662873
  0.05540775  0.34625816  0.26261249  0.08856665  0.02062465 -0.11683114
  0.09960245 -0.14867297  0.0674715   0.17470181  0.05480831  0.05388327
  0.01507579 -0.09699591  0.01477318  0.06638163 -0.18256515 -0.04148651
  0.09829447 -0.08470158 -0.0699463  -0.01976126  0.14659742  0.07872533
 -0.07225703 -0.1220259   0.16930108 -0.12831263 -0.04071453  0.02261005
 -0.11033118 -0.08935209 -0.32119069  0.04887008  0.44518328  0.08182054
 -0.14890622  0.0302616  -0.10564965 -0.03202968  0.10733199  0.06246521
 -0.12468465 -0.04108476 -0.04062006  0.04750765  0.15783814 -0.01438498
 -0.03575573  0.1421992   0.04420219  0.01457947  0.06016582  0.01552348
 -0.07342132  0.01159011 -0.1415782  -0.02829208  0.035433   -0.08772568
  0.01628989  0.11776141 -0.20925191  0.11376271  0.09202223 -0.03719893
 -0.01434896  0.04297946 -0.07640895 -0.06137187  0.12833153 -0.19448952
  0.2103046   0.20235102  0.02429105  0.09554888  0.10538886  0.07613193
 -0.02114811 -0.01367577 -0.10473493 -0.05964452  0.0725313   0.05583607
  0.09022674  0.01040947]