[-0.10434783  0.16306973 -0.01277767 -0.07639986 -0.04939164 -0.09864305
 -0.01325237 -0.08047491  0.12855205  0.02156837  0.18653181 -0.05505113
 -0.1689045  -0.13542406 -0.03725647  0.15287255 -0.17912714 -0.06224534
 -0.12214303 -0.07140881  0.02818075  0.00945908  0.04828956  0.06903192
 -0.11218361 -0.30020142 -0.08027927 -0.09664344  0.06127858 -0.09830429
 -0.02683308  0.06372607 -0.19554518 -0.15326254  0.05809538  0.05962541
 -0.04844267 -0.01564613  0.20108259  0.0946574  -0.15384383  0.0729852
  0.0425523   0.33501583  0.25602457  0.08042042  0.01675367 -0.11414512
  0.12322181 -0.20178163  0.08457937  0.14822088  0.06386478  0.04455686
  0.03665297 -0.0840224   0.02405618  0.06574763 -0.20138596 -0.03826432
  0.09301548 -0.06821336 -0.08743577 -0.0387773   0.15278949  0.11834651
 -0.07218196 -0.0935476   0.18083149 -0.13042215 -0.02165757  0.01998201
 -0.08041988 -0.09761684 -0.3013421   0.06104016  0.42020947  0.11751314
 -0.14807518 -0.00043454 -0.12402993 -0.01715506  0.09628041  0.03865316
 -0.12978601 -0.0433634  -0.03041439  0.05134937  0.14872618 -0.0368213
 -0.03194017  0.15240519  0.05446177  0.01219633  0.05679205  0.01009267
 -0.10231558  0.00600252 -0.13716227 -0.0228026   0.07109536 -0.09610768
  0.03025159  0.12571338 -0.21326213  0.12216663  0.08000996 -0.06404298
  0.01759843  0.03054106 -0.07941521 -0.07849845  0.10799108 -0.19074863
  0.21514109  0.1946177  -0.00458492  0.09961282  0.09554857  0.07755038
 -0.01274383 -0.0104931  -0.0779618  -0.07138448  0.08239995  0.05914858
  0.07163559 -0.00427699]