[-0.09282538  0.17494184  0.04934198 -0.06314687 -0.00834012 -0.05350347
  0.01595625 -0.08354302  0.13006888 -0.02259992  0.26933938 -0.08179112
 -0.15262932 -0.17915232 -0.00579859  0.16760118 -0.15764554 -0.0755278
 -0.08179362 -0.01927521  0.06504395  0.02296623  0.04687603  0.04079854
 -0.04568766 -0.33824569 -0.05852902 -0.0971496   0.05705414 -0.1010659
 -0.04553036  0.09394105 -0.17439359 -0.11078688  0.02755111  0.04660473
 -0.00749407 -0.00190207  0.19076706  0.03348191 -0.15917559  0.05916227
  0.01604106  0.31914374  0.22093485  0.07192687  0.0087054  -0.08683687
  0.08437587 -0.12618785  0.03249981  0.12603515  0.09530901  0.02543999
  0.01256551 -0.12111355  0.01437286  0.01944183 -0.17367291 -0.05577021
  0.05834413 -0.07631756 -0.05545643 -0.02951298  0.20937864  0.04284269
 -0.07895292 -0.12185995  0.12809503 -0.07762217 -0.01393995  0.04001315
 -0.15415299 -0.11310554 -0.24092498  0.0712725   0.36497369  0.08401694
 -0.20387323  0.05476808 -0.10440469 -0.00334046  0.10698962  0.0950863
 -0.07607555  0.02785246 -0.07203293  0.01075006  0.11438366 -0.06364753
 -0.04986133  0.18691735  0.0010931   0.02375386  0.03085827 -0.06078075
 -0.03923761  0.06173361 -0.13583778 -0.05225127  0.06298494 -0.06800808
  0.00159467  0.11556309 -0.22244899  0.10693546  0.04546281  0.02333867
  0.02704217  0.0182405  -0.05762686 -0.07288796  0.09542308 -0.21367906
  0.1775277   0.18811898  0.02130466  0.11525112  0.11271111  0.09086344
  0.02116167  0.00995212 -0.13026941 -0.02345798  0.13402425  0.05183117
  0.09258699 -0.00105982]