[-0.15408857  0.13698931  0.07485291 -0.01339114  0.00557331 -0.05848247
  0.0067434  -0.06392366  0.12124627 -0.0026462   0.33207777 -0.02735638
 -0.20822059 -0.18242244 -0.01280841  0.14653163 -0.19264522 -0.06706969
 -0.08739536 -0.04856006  0.13618986  0.04122451  0.03650855  0.01523806
 -0.15262643 -0.31857291 -0.06767126 -0.10093286  0.07004981 -0.10686403
 -0.04583792  0.01437976 -0.20409012 -0.11100803  0.02248534  0.05393911
  0.05066631 -0.01599576  0.14806671  0.02236743 -0.16916616  0.07556928
  0.02308192  0.28995386  0.19716339  0.05494624  0.00377347 -0.08907956
  0.09153416 -0.1818822   0.02637331  0.13347976  0.10016773  0.01994422
  0.0618974  -0.14687856 -0.05892515  0.11571466 -0.12477507  0.0260832
  0.00756925 -0.05856715 -0.0180261  -0.10074544  0.13973637  0.05220863
 -0.12540112 -0.13120054  0.10334939 -0.0921879  -0.04547418  0.0739994
 -0.14156109 -0.13336663 -0.33467066  0.03892892  0.34567612  0.0470543
 -0.24251018  0.02486113 -0.09425487  0.02202586  0.08706643  0.09520268
 -0.03587808  0.04726788 -0.10290539 -0.00318893  0.17292105 -0.0290206
 -0.01892731  0.23280323 -0.03933509  0.05931691  0.02675588  0.00129228
 -0.08247498 -0.01220266 -0.08843331 -0.02241173  0.03169548 -0.09399433
 -0.01815243  0.11254864 -0.18750601  0.06206012  0.02788313  0.04789571
  0.01157759  0.00990707 -0.04839237 -0.02597405  0.10593303 -0.2397043
  0.24156368  0.23255634 -0.01236297  0.09198821  0.09552036  0.04531424
 -0.03781369  0.03834487 -0.13878761 -0.0419849   0.05446994 -0.05126417
  0.0554118  -0.03185769]