[-0.10711086  0.13585256  0.04033315 -0.09093178 -0.02926004 -0.02186133
 -0.029693   -0.0147431   0.14635929  0.03466101  0.27562112 -0.01814345
 -0.28304815 -0.09966486  0.00802903  0.11843444 -0.22011428 -0.01148061
 -0.12698589 -0.10395893  0.15569614  0.05058162  0.00799856  0.03771308
 -0.18907297 -0.27770168 -0.09001487 -0.09368344  0.0559086  -0.13067828
 -0.01330707 -0.03365048 -0.18742482 -0.10606635  0.01858741  0.01260038
  0.01052961 -0.06711838  0.13879041  0.02009702 -0.1365774   0.07577594
  0.02946042  0.24945736  0.21264496  0.05485967  0.00775647 -0.08621779
  0.10691705 -0.24953158  0.02805707  0.17706804  0.07798485  0.04252578
  0.11883595 -0.18334727 -0.04197916  0.16064772 -0.16863139  0.02006796
 -0.03102353 -0.03223768 -0.0210172  -0.12563446  0.10489439  0.0691724
 -0.15276739 -0.13173644  0.09787667 -0.08895806 -0.03408683  0.07904818
 -0.15339366 -0.18080941 -0.36375901  0.04679427  0.34534478  0.08954252
 -0.24710703  0.02300588 -0.08546492 -0.00521265  0.06590515  0.05168136
 -0.05931615  0.02357079 -0.07530327  0.07507314  0.14455687 -0.06338795
 -0.00108086  0.2530176  -0.00517508  0.06403358  0.01159668  0.05661756
 -0.11869388 -0.04001484 -0.09784961  0.02659974  0.07164221 -0.08326101
 -0.01492123  0.10979282 -0.18244307  0.09366012  0.05738039 -0.03988534
 -0.0825391  -0.04314485 -0.08548713  0.02692461  0.17401634 -0.27637079
  0.23181129  0.25645036 -0.02723013  0.09467269  0.06104554 -0.00304077
 -0.03534552  0.00534954 -0.13698398 -0.04878724  0.03944714 -0.05506299
  0.02418764 -0.03560946]