[-7.25982115e-02  2.00189620e-01  3.22854072e-02 -5.56690358e-02
 -9.92857963e-02 -5.95323555e-02 -6.46539181e-02 -1.26724228e-01
  9.83437821e-02  5.50196681e-04  2.26261839e-01 -5.82000874e-02
 -1.76643178e-01 -1.69966221e-01 -6.92607388e-02  1.68733165e-01
 -1.88166529e-01 -1.17012098e-01 -3.17850299e-02 -1.79544240e-02
  7.42345229e-02 -1.95286225e-03  5.37475348e-02 -1.06491782e-02
 -6.44154996e-02 -3.10882449e-01 -7.83487186e-02 -9.56492051e-02
  6.96699545e-02 -5.66152111e-02 -3.30077112e-02  5.83770983e-02
 -1.72652259e-01 -1.13758169e-01  4.28495519e-02  4.67772260e-02
 -6.43320903e-02 -5.83774922e-03  1.73818022e-01  4.66595229e-04
 -1.89031154e-01  4.16146703e-02  4.06132117e-02  2.83967137e-01
  2.21541569e-01  8.43695924e-02  5.92979863e-02 -1.75684661e-01
  1.08810119e-01 -7.60898590e-02  7.32336044e-02  1.59412086e-01
  1.13119103e-01  3.65558118e-02  1.84873156e-02 -1.03440128e-01
  5.78319840e-02  1.02448240e-01 -1.70296535e-01 -1.12983603e-02
  1.31720215e-01 -5.34251221e-02 -2.28657741e-02 -4.74880114e-02
  2.23248675e-01  3.84746753e-02 -5.46962433e-02 -1.70094773e-01
  1.80749670e-01 -1.02097057e-01 -8.78081322e-02  7.22073913e-02
 -1.28042027e-01 -1.15124464e-01 -3.03939641e-01 -5.00291679e-03
  3.93512696e-01  8.63384083e-02 -1.53090999e-01  2.91063096e-02
 -6.31623194e-02 -1.52220344e-02  1.39367625e-01  1.08377911e-01
 -1.24792531e-01  5.36874915e-03 -1.00717418e-01 -2.63463445e-02
  1.87620923e-01 -7.42022246e-02 -5.52647375e-02  1.67705357e-01
  4.14517894e-02  5.56741469e-02  4.28679548e-02 -3.06629278e-02
 -4.82653193e-02  7.90165663e-02 -1.27375558e-01 -5.53386919e-02
  3.20983417e-02 -9.66283679e-02  7.90518534e-04  1.31734177e-01
 -1.47591099e-01  8.00240859e-02  3.69469225e-02  7.47483000e-02
 -1.67625248e-02 -1.82061773e-02 -6.15701936e-02 -8.19683895e-02
  1.28085017e-01 -1.99998870e-01  2.01885328e-01  1.69292346e-01
  6.68134987e-02  6.97781518e-02  1.50786206e-01  8.66623819e-02
 -8.44516326e-03 -6.30659983e-02 -1.69765756e-01  1.40870368e-04
  1.09808922e-01 -1.03555275e-02  1.09369986e-01  4.00497615e-02]