[-0.07805108  0.18380769  0.03704388 -0.06390406 -0.10265459 -0.04240596
 -0.03835405 -0.13163979  0.11157836 -0.01701822  0.21827152 -0.05634084
 -0.17523549 -0.1375335  -0.07143819  0.16712527 -0.18645376 -0.12190042
 -0.03688136 -0.03302339  0.06222204  0.01014623  0.03898802 -0.00424614
 -0.07670521 -0.28615165 -0.06517252 -0.08063097  0.05833372 -0.04752501
 -0.02630938  0.05674192 -0.18458097 -0.10493246  0.04066664  0.03798914
 -0.06005924  0.00394397  0.17801647  0.02787432 -0.20752786  0.02147391
  0.03325581  0.29061362  0.21448544  0.06562381  0.03659895 -0.17505355
  0.10976581 -0.09049686  0.05723414  0.15363505  0.10797539  0.03054157
  0.01135285 -0.11222124  0.05768018  0.11129344 -0.15306519 -0.00237457
  0.13289578 -0.08938323 -0.00061639 -0.04541983  0.20707054  0.03452496
 -0.0444453  -0.17486326  0.17015621 -0.08455466 -0.09819617  0.07581999
 -0.11412103 -0.11138967 -0.32495773 -0.01643438  0.41517773  0.07981794
 -0.1536402   0.01575381 -0.07269756 -0.00197549  0.16501091  0.10718483
 -0.12344427 -0.00430572 -0.09961238 -0.02730239  0.1918083  -0.0671606
 -0.0722349   0.14355735  0.01797505  0.04923449  0.04064919 -0.01053158
 -0.06651383  0.09694679 -0.11894598 -0.05317984  0.025281   -0.10038593
  0.02127628  0.14678173 -0.17310847  0.09244226  0.03525493  0.06064837
 -0.01604032 -0.01119199 -0.05495685 -0.05567889  0.1255302  -0.20790684
  0.20863567  0.17520009  0.04037392  0.08199557  0.14585054  0.07635426
 -0.02885429 -0.04710798 -0.16590808 -0.00681066  0.10042765 -0.00861911
  0.1279891   0.03880076]