[-0.14730476  0.18554124  0.05081524 -0.05679965 -0.06353828 -0.09218206
 -0.01374382 -0.14412604  0.08435964  0.03370661  0.27339646 -0.08434362
 -0.21132734 -0.16353543 -0.05382342  0.18764354 -0.20330341 -0.10509101
 -0.04651836 -0.0232922   0.10591965  0.00544922  0.0516491   0.03802329
 -0.09962032 -0.30385858 -0.0981701  -0.08126973  0.03107164 -0.04977934
 -0.0391707   0.05396444 -0.19088434 -0.12024309  0.0723674   0.06642238
 -0.05607724 -0.05098042  0.19519129  0.00800223 -0.18025838  0.06479248
  0.08513411  0.32978985  0.20630942  0.05308955  0.04403747 -0.15797286
  0.10622644 -0.07954808  0.08910616  0.15120222  0.11494764  0.03018401
  0.0389314  -0.12229963  0.03493205  0.10170633 -0.1669272  -0.03329033
  0.12858628 -0.06505529 -0.04108433 -0.08422661  0.17979465  0.06137958
 -0.09349377 -0.15657429  0.14003603 -0.06727191 -0.07265813  0.06064051
 -0.17674416 -0.12917067 -0.33849826  0.02779802  0.40026376  0.05448433
 -0.18463953  0.03376816 -0.0306584   0.00819884  0.15377693  0.14627314
 -0.09705841  0.03983667 -0.10581794  0.0292234   0.15120064 -0.06531945
 -0.07210056  0.18583722  0.03702385  0.02586441  0.05721584 -0.01222515
 -0.04676496  0.04908375 -0.14393671 -0.02828325  0.04497948 -0.05603484
 -0.00470651  0.12389167 -0.14792718  0.04296325  0.07579426  0.05304267
 -0.04853382 -0.04537225 -0.08486286 -0.05932207  0.06835958 -0.23479612
  0.18674402  0.15823169  0.02437319  0.06645231  0.13095018  0.05161017
  0.00297465 -0.02226829 -0.14672793  0.00580254  0.14399795  0.03515972
  0.13938825  0.01335503]