[-0.13727479  0.14090741  0.07491412 -0.01862772 -0.04383856 -0.04933868
  0.00969585 -0.02561604  0.10949401 -0.01419693  0.2933701  -0.02145364
 -0.24516907 -0.13942216  0.00066352  0.12088703 -0.15172206 -0.06875407
 -0.12612061 -0.07852932  0.11367213  0.02944533  0.0328141   0.00994607
 -0.15023434 -0.29843411 -0.0461195  -0.07540878  0.08868485 -0.13063811
 -0.04413617  0.01574412 -0.20420134 -0.13464059  0.02381855  0.04055523
  0.03467994 -0.02043164  0.14613406  0.01147634 -0.1645371   0.07151016
  0.01226872  0.27936146  0.21390603  0.06186588 -0.01078893 -0.08062267
  0.08474749 -0.24471369  0.02705123  0.14859873  0.09354254  0.02783256
  0.08030251 -0.15884243 -0.04510426  0.11752232 -0.12081341  0.02725506
  0.00286347 -0.06819227 -0.0256792  -0.1279846   0.14983164  0.04068868
 -0.12749057 -0.10883661  0.11626233 -0.09054106 -0.02698768  0.07570478
 -0.11973164 -0.1281185  -0.3051511   0.06890281  0.34843168  0.11456043
 -0.23985326  0.02851376 -0.11366395  0.03554528  0.05119758  0.064877
 -0.05767351  0.01761378 -0.07971946  0.01621861  0.14057635 -0.0324062
 -0.01987386  0.23220563 -0.01880589  0.06932979  0.03816589 -0.00080801
 -0.1163834  -0.0388725  -0.10121816 -0.02348296  0.05661992 -0.11808846
  0.00573894  0.12438098 -0.17569296  0.08155113 -0.0008677   0.03516304
  0.01883026  0.01835832 -0.03476674 -0.02032444  0.10917097 -0.24622892
  0.25028121  0.24005716 -0.02476471  0.0948574   0.10980471  0.04370604
 -0.01531625  0.04656375 -0.1148544  -0.06922327  0.05339434 -0.06707656
  0.0453276  -0.02408309]