[-0.11449849  0.11557086  0.03679786 -0.02519134 -0.07682168 -0.03723652
 -0.00374396 -0.0780855   0.17450134 -0.01985486  0.23244743 -0.03583778
 -0.25608459 -0.02205802 -0.07687084  0.12173045 -0.18243873 -0.0759896
 -0.1406869  -0.13760109  0.05081088  0.03498555 -0.00223305  0.04178023
 -0.1219626  -0.27343509 -0.02398818 -0.0591825   0.07762203 -0.1242336
  0.04118694  0.01657048 -0.24247216 -0.07373102  0.0051101   0.02202491
 -0.04382282 -0.08342226  0.16263221 -0.00867075 -0.18780966  0.01279158
  0.02277648  0.26637715  0.18859027  0.02161793 -0.02674735 -0.11076301
  0.11651521 -0.27744517 -0.00169061  0.21384643  0.02991041  0.07003912
  0.07593435 -0.16111715 -0.01877801  0.13919862 -0.11259947  0.00945337
  0.04595522 -0.02425805 -0.01820867 -0.14937547  0.15259832  0.06558667
 -0.11774429 -0.13177016  0.11438171 -0.15061729 -0.02896788  0.11236608
 -0.08546608 -0.207793   -0.29473263  0.08004775  0.39424801  0.17447892
 -0.15576032  0.02716647 -0.0954253   0.03435645  0.06710046  0.06786408
 -0.07389071  0.0303092  -0.05991012  0.03573467  0.15630251 -0.01594704
 -0.04790516  0.2336766  -0.02334791 -0.00631758  0.00246044  0.04054363
 -0.13615297 -0.00802771 -0.10089443 -0.02493278  0.09571894 -0.04481847
  0.0416555   0.11888814 -0.14528088  0.13602075 -0.01337942  0.01836707
  0.01985919  0.01823836 -0.03244124 -0.02009514  0.14406753 -0.26324469
  0.25407079  0.17610918 -0.01463204  0.12698714  0.06252132  0.07755234
 -0.04293624  0.02085235 -0.09758305 -0.08291557  0.02593952 -0.03455575
  0.03144121 -0.03654557]