[-9.54107344e-02  1.92525476e-01  5.28157242e-02 -5.00831194e-02
 -6.71270117e-02 -7.26163611e-02  4.92732460e-03 -1.38494805e-01
  1.12043619e-01 -1.17277047e-02  2.59233296e-01 -6.37099147e-02
 -1.89476117e-01 -1.76640257e-01 -6.55985400e-02  1.58405662e-01
 -1.75479159e-01 -1.15405731e-01 -5.17502129e-02 -3.91743891e-02
  1.36761457e-01  2.89399475e-02  1.97662972e-02  2.97021903e-02
 -1.03516042e-01 -3.20991725e-01 -9.69249457e-02 -8.68513361e-02
  3.44492607e-02 -9.05625969e-02 -7.95943706e-05  2.18383875e-02
 -1.45174280e-01 -1.09183513e-01  1.72187872e-02  5.58538139e-02
 -5.97390309e-02 -3.68572474e-02  1.58994377e-01  4.33390103e-02
 -1.92009166e-01  7.31464028e-02  3.44308577e-02  3.41670573e-01
  2.16865808e-01  5.73698878e-02  6.21365868e-02 -1.57973453e-01
  1.16362572e-01 -1.26342341e-01  4.92974482e-02  1.58227369e-01
  9.59207788e-02  3.97017375e-02  4.82971072e-02 -8.86315033e-02
  1.45748127e-02  1.10741869e-01 -1.73306987e-01  8.63725599e-03
  1.07795171e-01 -7.46367425e-02 -3.66065465e-03 -5.09628318e-02
  1.93239152e-01  4.85767350e-02 -8.53641182e-02 -1.30026981e-01
  1.62110776e-01 -1.13110714e-01 -1.09016888e-01  5.02016544e-02
 -1.44935131e-01 -1.31387934e-01 -2.98925906e-01  4.09140736e-02
  4.63296980e-01  8.16144198e-02 -1.79488108e-01  2.62882002e-02
 -9.94085893e-02  2.62547079e-02  1.62226111e-01  1.28482789e-01
 -6.47620484e-02  5.69700124e-03 -1.26647145e-01  6.61814352e-03
  1.75250873e-01 -7.43002072e-02 -6.55205473e-02  1.99979246e-01
  3.50623541e-02  5.24691045e-02  5.81591316e-02 -1.82070974e-02
 -9.05416459e-02  8.54987502e-02 -1.04925178e-01 -5.53662181e-02
  4.17476073e-02 -7.47212619e-02  1.88031662e-02  1.12390675e-01
 -1.39284715e-01  1.27354965e-01  6.06501587e-02  6.09525852e-02
 -7.78106460e-03 -1.62041672e-02 -6.64709434e-02 -5.11377268e-02
  1.11691773e-01 -2.12325737e-01  2.02962682e-01  1.71495155e-01
  2.91377157e-02  9.62762982e-02  1.26032278e-01  7.66001865e-02
 -1.18781598e-02 -4.70105112e-02 -1.42829463e-01  6.33230805e-03
  8.89969468e-02  1.52139617e-02  1.09333433e-01 -2.55286704e-05]