[-0.13590835  0.13752066  0.05926666 -0.00870894 -0.05341799 -0.01666488
  0.02728586 -0.01959633  0.15915702 -0.02335797  0.27802119 -0.02160558
 -0.25936207 -0.10568911 -0.00943939  0.13633274 -0.18298487 -0.07383876
 -0.12621365 -0.09160816  0.10321829  0.02173534 -0.01086512  0.04437616
 -0.15652338 -0.30075136 -0.0566005  -0.09464666  0.08999174 -0.10422283
 -0.04859106  0.00110896 -0.21191929 -0.1257343   0.01977783 -0.01360064
  0.01973514  0.00118188  0.1477437  -0.00203148 -0.19590543  0.02908292
  0.01611569  0.2860252   0.17817783  0.06565376 -0.02270578 -0.10709963
  0.08408123 -0.2316443   0.00506491  0.18722247  0.09068844  0.06358696
  0.0542799  -0.17512931 -0.02461054  0.10587309 -0.13908096  0.00466031
  0.00530994 -0.05712016 -0.01536523 -0.11204394  0.16861567  0.02504224
 -0.12662943 -0.13829784  0.11527588 -0.11915641  0.00452922  0.10779808
 -0.10637774 -0.17977662 -0.31356102  0.06224311  0.39474377  0.14186752
 -0.23661113  0.02551432 -0.14175241  0.00957299  0.09317257  0.07599547
 -0.07189064  0.05275727 -0.07460303  0.0359145   0.1383211  -0.04776216
  0.00688457  0.23831511  0.01372232  0.0492219   0.03193158  0.02785916
 -0.12199721 -0.02076525 -0.10796338 -0.01220617  0.0523802  -0.06656545
  0.02616769  0.1031441  -0.18265191  0.12354594  0.03411914  0.00956486
 -0.01936418  0.01141912 -0.0438648  -0.03744806  0.13195769 -0.26499075
  0.22139716  0.21829407 -0.02265783  0.12111547  0.07633137  0.04628857
 -0.05886726 -0.00662551 -0.12449012 -0.03835262  0.0877235  -0.09824374
  0.0553463  -0.0542297 ]