[-0.09035413  0.1626244   0.00884455 -0.04624048 -0.09243175 -0.06232325
 -0.03602684 -0.15711269  0.11729219 -0.03028898  0.25763494 -0.06182493
 -0.19293036 -0.13274755 -0.06482022  0.13638645 -0.20007518 -0.1020714
 -0.05455355 -0.01165146  0.08717778  0.01500232  0.05540452  0.01919073
 -0.11843232 -0.29943013 -0.10181822 -0.108832    0.04465053 -0.0586561
 -0.04739667  0.06816071 -0.17330252 -0.12534876  0.03815921  0.03735283
 -0.0594381   0.00322491  0.16142921  0.01887274 -0.20660453  0.04181976
  0.06757294  0.30889058  0.21897379  0.07687084  0.02409885 -0.16723092
  0.10483932 -0.13574907  0.07982166  0.15236668  0.10074003  0.04274106
  0.06705306 -0.09299751  0.02671593  0.09223141 -0.13140224 -0.00053068
  0.10910922 -0.00994579  0.00219757 -0.04806446  0.19608091  0.06897724
 -0.05092724 -0.14898202  0.15589577 -0.11489713 -0.13158642  0.0944766
 -0.14292167 -0.13790277 -0.32333204 -0.02649439  0.42174998  0.0698449
 -0.14345644  0.02493307 -0.07768456 -0.03403103  0.15674213  0.07054731
 -0.08997089  0.0025624  -0.0988143   0.00940544  0.23559704 -0.08815895
 -0.06256403  0.184874    0.03022663  0.02546473  0.06391809  0.00852021
 -0.0526257   0.05685018 -0.16611028 -0.05950138  0.06041478 -0.06677067
 -0.02060583  0.13846774 -0.18195754  0.07416465  0.06557658  0.03064739
  0.00070792 -0.0211929  -0.09899934 -0.05273085  0.12548868 -0.21818264
  0.21782742  0.1597061   0.04799081  0.04780173  0.11011652  0.0235052
 -0.01950905 -0.04599538 -0.15350664 -0.03411993  0.11949127  0.00303871
  0.07804605  0.00370045]