[-7.48312995e-02  2.03883365e-01  4.20720987e-02 -5.30971549e-02
 -7.08830133e-02 -8.86718333e-02 -2.06555761e-02 -1.34755015e-01
  1.30355626e-01 -1.20579852e-02  2.71960050e-01 -5.46657518e-02
 -1.85014114e-01 -1.34475112e-01 -7.54907355e-02  1.81690842e-01
 -1.91472128e-01 -1.09681047e-01 -5.85426688e-02 -2.21126750e-02
  1.00897267e-01  2.36788094e-02  2.77650710e-02  2.75863893e-03
 -8.91920999e-02 -3.36483419e-01 -1.05962075e-01 -1.02979422e-01
  4.57495525e-02 -4.90072072e-02 -2.37618573e-02  1.54773323e-02
 -1.54737964e-01 -1.04291730e-01  5.33252247e-02  4.13160622e-02
 -6.12358041e-02 -3.18313092e-02  1.64382353e-01  2.84656435e-02
 -2.08312348e-01  7.16129839e-02  4.59749922e-02  3.26477051e-01
  2.17849299e-01  7.16169924e-02  9.02228579e-02 -1.88214287e-01
  9.42059159e-02 -1.01819769e-01  6.33456483e-02  1.45178944e-01
  1.09390788e-01  4.58499193e-02  2.69495137e-02 -9.54309702e-02
  2.97755580e-02  1.09717123e-01 -1.80724412e-01 -6.95727393e-03
  1.59109995e-01 -5.82369268e-02 -3.07148434e-02 -3.19342501e-02
  2.37606570e-01  6.75061867e-02 -1.22459613e-01 -1.44984841e-01
  1.49451539e-01 -1.36885270e-01 -1.02090470e-01  1.51275760e-02
 -1.43530682e-01 -1.39474362e-01 -3.29194516e-01  3.12270131e-02
  4.56113905e-01  7.72613734e-02 -1.80108652e-01  3.68370079e-02
 -7.38176629e-02  3.12554389e-02  1.76657885e-01  1.71950117e-01
 -8.44560117e-02  1.03130210e-02 -1.16159156e-01 -2.53222883e-04
  1.89985633e-01 -9.94152576e-02 -5.10722362e-02  1.79005295e-01
  1.45494854e-02  5.80539964e-02  2.09031329e-02  9.52048227e-03
 -8.85585397e-02  7.56008923e-02 -9.12914872e-02 -2.11446714e-02
  3.22125852e-02 -3.49002145e-02  2.22988427e-04  1.31807640e-01
 -1.32204846e-01  1.04696251e-01  3.61391678e-02  5.38373962e-02
 -3.20750405e-03 -2.27549970e-02 -3.26277986e-02 -9.73302349e-02
  9.16343555e-02 -2.03278452e-01  2.05889851e-01  1.74833775e-01
  1.96624883e-02  9.25334468e-02  1.32729098e-01  7.54842162e-02
  1.00350073e-02 -2.87077259e-02 -1.88481301e-01  3.39664007e-03
  7.67691657e-02  7.14562787e-03  1.08277120e-01 -3.89648159e-03]