[-7.39169940e-02  1.81942299e-01  3.17389555e-02 -6.10651970e-02
 -8.50221068e-02 -4.90595140e-02 -5.21592200e-02 -1.40327260e-01
  9.20928046e-02  7.21043907e-04  2.29287624e-01 -5.98477125e-02
 -1.86756045e-01 -1.71546742e-01 -6.26305491e-02  1.59054443e-01
 -1.89528942e-01 -1.21938244e-01 -3.03147733e-02 -1.18550528e-02
  6.84766918e-02  1.01611009e-02  4.57841493e-02 -2.70844990e-04
 -6.88966587e-02 -3.05401057e-01 -6.78993762e-02 -8.61263797e-02
  5.31113222e-02 -4.22904864e-02 -2.66480651e-02  6.24999367e-02
 -1.82468161e-01 -9.87415910e-02  4.25364524e-02  5.12126796e-02
 -5.21269143e-02 -6.08044851e-04  1.68649718e-01  9.40064341e-03
 -1.90020472e-01  2.30426155e-02  3.91933732e-02  2.74316519e-01
  2.04388097e-01  7.14895055e-02  5.20782135e-02 -1.70255736e-01
  1.07188068e-01 -7.61508271e-02  6.33848310e-02  1.53222069e-01
  1.21757947e-01  2.60237437e-02  1.72078144e-02 -1.23770453e-01
  5.76644056e-02  1.03110150e-01 -1.48350030e-01 -1.30839681e-03
  1.18652724e-01 -6.48995712e-02 -3.84503021e-03 -4.25307266e-02
  2.18311653e-01  2.42325589e-02 -4.67058606e-02 -1.70797378e-01
  1.75097331e-01 -8.92071053e-02 -9.64125916e-02  7.84552395e-02
 -1.26546428e-01 -1.12386726e-01 -3.17099184e-01 -1.52946115e-02
  3.92377675e-01  7.28796199e-02 -1.71902239e-01  2.29781624e-02
 -6.55051023e-02 -2.07979302e-03  1.54948741e-01  1.02166072e-01
 -1.25053093e-01  1.20826364e-02 -1.19005881e-01 -3.74469571e-02
  1.99352786e-01 -5.87401688e-02 -6.44469187e-02  1.64575785e-01
  3.08232214e-02  6.20528348e-02  5.55948988e-02 -3.92606668e-02
 -4.11207452e-02  8.30488726e-02 -1.21886373e-01 -4.99778576e-02
  2.59314124e-02 -1.01707794e-01  5.24708955e-03  1.41130716e-01
 -1.55250192e-01  7.66672641e-02  4.02086265e-02  7.46045038e-02
 -9.40120313e-03 -5.80802420e-03 -6.42704144e-02 -7.84923360e-02
  1.27352178e-01 -2.06719264e-01  1.98360726e-01  1.64162263e-01
  6.52898028e-02  7.31597692e-02  1.40721753e-01  8.91135260e-02
 -2.76907925e-02 -5.01261540e-02 -1.69601843e-01  7.54710287e-04
  1.09787598e-01 -1.66988354e-02  1.15522660e-01  4.06726971e-02]