[-0.06153147  0.1786387   0.03293915 -0.05053745 -0.08197755 -0.05583013
 -0.05153272 -0.12026588  0.10762466 -0.00615315  0.22479554 -0.06392074
 -0.18216467 -0.16881189 -0.06753501  0.15560611 -0.16689883 -0.10840177
 -0.04096825 -0.00954113  0.09334364  0.01081232  0.04211385 -0.01393755
 -0.07414095 -0.31211182 -0.0804095  -0.08626824  0.05818484 -0.07196339
 -0.02659025  0.0394772  -0.16761936 -0.10550266  0.03456288  0.03141659
 -0.05746221 -0.00403577  0.15731561  0.02442181 -0.20715244  0.03885179
  0.03422083  0.27312097  0.20823503  0.08690613  0.05645931 -0.17680873
  0.12112778 -0.07724278  0.05380145  0.1538295   0.11620984  0.03138767
  0.02787818 -0.10166552  0.03844015  0.10370461 -0.16304027  0.00570429
  0.11502188 -0.04331956 -0.01053381 -0.04101473  0.19963983  0.0255632
 -0.05717134 -0.17245826  0.17965113 -0.11021478 -0.08540469  0.08626413
 -0.12508811 -0.12251282 -0.30200675 -0.01022002  0.40479121  0.06537649
 -0.1508029   0.01420656 -0.07363369 -0.00986273  0.13005708  0.10597467
 -0.11171227  0.01512757 -0.10016086 -0.03502265  0.2036951  -0.07665414
 -0.05206329  0.16571121  0.03082657  0.06235093  0.03329067 -0.03028984
 -0.06564292  0.07979993 -0.1096174  -0.06185674  0.02252062 -0.10019451
  0.00893984  0.13157485 -0.14832766  0.09655067  0.04131478  0.06749149
 -0.01136713  0.00536728 -0.05972452 -0.08008133  0.12054846 -0.1949387
  0.19998766  0.16973513  0.07707518  0.05842153  0.13176022  0.08417543
 -0.01467636 -0.04294656 -0.15834434 -0.00519774  0.08586576 -0.01280095
  0.09586443  0.01917373]