[-0.09240651  0.17324741  0.05015202 -0.06302121 -0.014652   -0.06424998
  0.01767017 -0.082023    0.13697302 -0.02306581  0.28169417 -0.08442061
 -0.16702744 -0.18087757 -0.02253079  0.16177301 -0.17499235 -0.06990781
 -0.07326585 -0.01523258  0.0759714   0.02541278  0.03682362  0.04121795
 -0.04785306 -0.34315991 -0.0605083  -0.10266025  0.07225041 -0.09865398
 -0.05133086  0.094004   -0.17641453 -0.11533999  0.03059888  0.0362736
 -0.00245531 -0.00125734  0.19701199  0.02865611 -0.17210774  0.06375744
  0.02417742  0.31340587  0.22132523  0.06684811  0.01396034 -0.0960406
  0.10301071 -0.11545556  0.01786641  0.14529696  0.11651502  0.02036453
  0.01229637 -0.12139323  0.00337664  0.03759658 -0.17595521 -0.04539741
  0.06392309 -0.0766521  -0.04551012 -0.02334043  0.19096062  0.02540343
 -0.0861861  -0.12613176  0.13187531 -0.09394442 -0.01811999  0.04838742
 -0.15382563 -0.11745532 -0.24762912  0.05756157  0.3603498   0.07519433
 -0.19257393  0.06078791 -0.10615597 -0.01274806  0.10492998  0.0990188
 -0.08420821  0.02848966 -0.07493088  0.01113752  0.13021897 -0.06033615
 -0.03607571  0.18672936 -0.00297737  0.02985135  0.02167929 -0.05789731
 -0.04965372  0.05409616 -0.12534724 -0.04119956  0.05392686 -0.07874435
 -0.00318627  0.10991099 -0.22995067  0.0962659   0.04234452  0.02496221
  0.01612123  0.00360012 -0.05206389 -0.05538184  0.09820109 -0.21382177
  0.19589566  0.18563047  0.02732412  0.10947847  0.11558392  0.06438941
  0.01937995 -0.00934567 -0.12935221 -0.03611561  0.13143952  0.03096615
  0.10414263 -0.02213605]