[-0.09696199  0.18072346 -0.02127721 -0.06259669 -0.04261015 -0.09533701
 -0.01965166 -0.09241758  0.1285072   0.04166335  0.19392748 -0.07678097
 -0.18160759 -0.12446499 -0.04211916  0.14892404 -0.19722767 -0.07021409
 -0.11899941 -0.08304822  0.05151434  0.02108163  0.04011069  0.07433835
 -0.10994957 -0.29203141 -0.08623607 -0.10734626  0.07696491 -0.09325192
 -0.03406867  0.07118531 -0.18907188 -0.1471891   0.07284516  0.05024795
 -0.03073523 -0.00973068  0.19676068  0.07099044 -0.15403326  0.09005249
  0.05151566  0.32220459  0.25072679  0.09057701  0.01596347 -0.13885413
  0.09631971 -0.14576462  0.086949    0.17864166  0.06200036  0.05637958
  0.01296584 -0.10823029  0.01704176  0.06101219 -0.18271691 -0.04139182
  0.1110202  -0.07631054 -0.07367889 -0.03135121  0.14059784  0.08720136
 -0.06882545 -0.12119863  0.16300073 -0.13764234 -0.04045876  0.03215639
 -0.09767798 -0.09295257 -0.2998485   0.05048339  0.44759694  0.09190337
 -0.15590335  0.02884642 -0.11571249 -0.0369046   0.11012282  0.0587332
 -0.13659008 -0.0372432  -0.04347019  0.05418037  0.16018127 -0.03072227
 -0.03398691  0.14932354  0.04870072  0.02602521  0.06435411  0.01059772
 -0.08495409  0.0109193  -0.12088358 -0.03041055  0.05052034 -0.09325384
  0.00582929  0.11602239 -0.20766757  0.12032647  0.09559103 -0.04551099
 -0.00651244  0.02995688 -0.06753977 -0.06618953  0.12857437 -0.20331688
  0.21165629  0.19321084  0.02482433  0.09992794  0.09882643  0.08747333
 -0.00872333 -0.01715108 -0.10874986 -0.0559435   0.09040481  0.05200958
  0.08591538  0.00507078]