[-0.10177683  0.183063    0.05798994 -0.04742258 -0.06295667 -0.05873461
 -0.03043485 -0.07130083  0.09378745  0.01989387  0.25662163 -0.08966001
 -0.22324577 -0.09795254 -0.0562839   0.17665718 -0.18971236 -0.08075927
 -0.1135422  -0.0258092   0.07170976  0.04531651  0.0371253   0.02209686
 -0.12466184 -0.33765867 -0.05143799 -0.09508415  0.05811592 -0.08493682
 -0.08762097  0.05794415 -0.1614614  -0.11043296  0.0565286   0.05246521
 -0.03208443 -0.05105662  0.16570243  0.07965884 -0.19874257  0.07217313
  0.04354596  0.33917624  0.20528118  0.07215732  0.04115809 -0.13711183
  0.10165001 -0.16097581  0.07321601  0.15085016  0.1079497   0.03396567
  0.07082977 -0.14146022  0.01309723  0.06181126 -0.14391552  0.00245837
  0.10610628 -0.01672753 -0.014547   -0.09579507  0.1995541   0.06373134
 -0.1027436  -0.09844712  0.15996587 -0.06059046 -0.06483129  0.02702467
 -0.13338089 -0.11398359 -0.31072149  0.02164289  0.38179892  0.06976932
 -0.23139517 -0.00568969 -0.08686716 -0.00871475  0.11705539  0.10117313
 -0.12155896  0.02738133 -0.10330545  0.00205502  0.19702204 -0.06637781
 -0.03663244  0.19805594  0.03091823  0.01050457  0.06406452  0.0073735
 -0.12673111  0.00726713 -0.14777707 -0.04860815  0.07512876 -0.11445525
 -0.03301029  0.14775334 -0.18879278  0.0815806   0.060522    0.01081252
  0.01276569  0.01052054 -0.09011983 -0.0724565   0.12445126 -0.1870466
  0.18701443  0.1878159   0.05283985  0.05952479  0.14043193  0.04663846
 -0.01779321  0.0136038  -0.13755302 -0.0606441   0.1030641   0.00662467
  0.05821142  0.0202802 ]