[-0.16479398  0.1751186   0.06135371 -0.05534068 -0.08661985 -0.07695124
 -0.02002443 -0.11461949  0.08829852  0.00981332  0.27371219 -0.0833409
 -0.20307119 -0.12517494 -0.07291366  0.17290786 -0.19216129 -0.12956034
 -0.01959988 -0.01580598  0.10408222  0.02736533  0.01432239  0.0614225
 -0.13149747 -0.28748536 -0.07731754 -0.0911013   0.04251124 -0.06591789
 -0.0456947   0.05674086 -0.17143117 -0.11308046  0.08753329  0.0914644
 -0.04294853 -0.02747245  0.19536012  0.0201424  -0.21901126  0.07327711
  0.0929678   0.37457493  0.20131372  0.07003152  0.02586049 -0.15195262
  0.11822601 -0.12807547  0.10919823  0.14924695  0.1227802   0.02971387
  0.06037914 -0.14312305  0.018072    0.10116751 -0.16369177 -0.01478822
  0.11421653 -0.03660234  0.01993587 -0.07932116  0.18517235  0.06078676
 -0.10044084 -0.12717827  0.13946943 -0.08421712 -0.08598551  0.09730455
 -0.15060888 -0.12218904 -0.3242023   0.02636999  0.43258786  0.06617384
 -0.17389336  0.02669086 -0.01090311 -0.00757235  0.15742619  0.13854182
 -0.10110704  0.02842801 -0.09506362  0.02956344  0.18690455 -0.04269313
 -0.06613072  0.1577591   0.03998136  0.00906289  0.07108489  0.02531863
 -0.07201675  0.03572661 -0.15322174 -0.04541316  0.02489508 -0.04461911
 -0.00442588  0.1426156  -0.17803489  0.06292756  0.06805327  0.01839584
 -0.06518331 -0.01466272 -0.06764138 -0.02402314  0.07168938 -0.23859511
  0.19986384  0.14126934  0.0258097   0.07377999  0.12569736  0.00610796
  0.00590407 -0.03896115 -0.12100843 -0.03194333  0.13459039  0.00636228
  0.16544452  0.00195347]