[-0.10742556  0.16977607  0.02468967 -0.08190734 -0.04191444 -0.07342517
  0.00812001 -0.07622782  0.10361665 -0.01093334  0.24351437 -0.08681408
 -0.17186821 -0.1685729  -0.0203897   0.15995702 -0.16292524 -0.08774861
 -0.084085   -0.05137814  0.05645898  0.01386856  0.03004169  0.04889577
 -0.0572163  -0.31799582 -0.04114519 -0.08758095  0.03118208 -0.08144708
 -0.02144694  0.11428573 -0.18024127 -0.1047711   0.04102395  0.06979867
 -0.00935856  0.0054798   0.20794383  0.01973011 -0.14817983  0.04581069
  0.03662675  0.31745979  0.22959439  0.05081065  0.00386067 -0.07286975
  0.11075183 -0.12682568  0.0148123   0.14724724  0.08868535  0.03183846
  0.01498074 -0.106356    0.03680519  0.04961782 -0.18127212 -0.07959401
  0.04792891 -0.11308198 -0.05541993 -0.05383998  0.19973597  0.03538119
 -0.06789239 -0.11250859  0.14049214 -0.09120058 -0.02012403  0.04817335
 -0.14335443 -0.10199286 -0.25167999  0.06121163  0.34958965  0.1064195
 -0.18071346  0.05882841 -0.0704607  -0.0149842   0.11665286  0.07634272
 -0.0923055   0.02847807 -0.07401714  0.02923862  0.12563841 -0.04868245
 -0.0482519   0.17067273  0.01668935  0.03053292  0.0517734  -0.06139521
 -0.0371016   0.04186862 -0.13726047 -0.02555802  0.05331144 -0.09553059
  0.0090115   0.09836494 -0.19809468  0.08186945  0.03305236  0.02475381
 -0.03029595 -0.00162995 -0.04177841 -0.0537804   0.09645211 -0.20438381
  0.17796272  0.17431287 -0.00197181  0.11901637  0.10578781  0.06814638
 -0.00575116 -0.0182774  -0.1136645  -0.03616623  0.13489591  0.05463263
  0.12648772  0.00054188]