[-1.74341634e-01  1.63976535e-01  7.76990429e-02 -9.72485915e-03
  4.45953896e-03 -4.64069694e-02 -1.71459280e-02 -2.71266699e-02
  1.18699364e-01  2.80637424e-02  3.11553776e-01 -3.74490768e-02
 -2.31648639e-01 -1.35257259e-01 -2.51725148e-02  1.40539989e-01
 -1.89579815e-01 -5.23798726e-02 -8.54171440e-02 -6.04626350e-02
  1.12869933e-01  3.09186131e-02  1.66920852e-02  3.74702848e-02
 -1.34928882e-01 -2.92861342e-01 -5.69549613e-02 -1.05752349e-01
  6.27103075e-02 -1.17928699e-01 -4.56641205e-02 -2.53048074e-02
 -2.10659742e-01 -1.32775187e-01  1.38091957e-02  4.60693873e-02
  5.89368343e-02  3.42774391e-03  1.34302974e-01  1.77174155e-03
 -1.48752749e-01  5.62733412e-02  1.55684296e-02  3.03461045e-01
  1.88596174e-01  8.28080401e-02 -2.76488811e-02 -8.36508498e-02
  7.07397908e-02 -2.18839124e-01  5.58927655e-02  1.32678717e-01
  1.01316743e-01  2.16981862e-02  4.89162393e-02 -1.57306761e-01
 -6.44043759e-02  1.11499690e-01 -1.27666146e-01  3.36978547e-02
  2.48530023e-02 -3.48748825e-02 -1.39916269e-02 -1.25884399e-01
  1.61788732e-01  8.05793554e-02 -1.30287215e-01 -1.38151988e-01
  9.57765654e-02 -9.26012024e-02 -3.17839645e-02  7.32978731e-02
 -1.12321138e-01 -1.33654624e-01 -3.47093672e-01  7.15638772e-02
  3.58256936e-01  7.95958489e-02 -2.38813877e-01  5.98912220e-03
 -1.11071050e-01  2.19593924e-02  7.57913888e-02  5.44826984e-02
 -6.08744733e-02  3.85516398e-02 -9.07514989e-02  8.19744915e-03
  1.54056087e-01 -2.03652084e-02 -3.32572125e-02  1.99461147e-01
 -4.53939624e-02  6.24833778e-02  2.60409005e-02  1.84253361e-02
 -8.93565789e-02 -1.20566906e-02 -1.11588299e-01 -4.41634050e-03
  3.21191959e-02 -7.50086978e-02 -2.80170148e-04  1.21134475e-01
 -1.67532504e-01  5.62674068e-02  3.48422788e-02  2.62547471e-02
  3.95153230e-03  5.11644743e-02 -8.28641281e-02 -3.83142941e-02
  1.42236724e-01 -2.33037814e-01  2.51693368e-01  2.12793499e-01
 -6.66420860e-03  8.50908458e-02  1.06645636e-01  6.01007715e-02
 -3.40189002e-02  4.64525968e-02 -1.28439784e-01 -4.34265547e-02
  6.62586838e-02 -6.15043826e-02  7.45760426e-02 -1.51554374e-02]