[-0.07467353  0.1973061   0.04302993 -0.04974372 -0.08570503 -0.06000289
 -0.05513848 -0.12890486  0.09180328  0.00204078  0.2399125  -0.05850607
 -0.17159127 -0.18243946 -0.05522802  0.16636853 -0.18067053 -0.10592067
 -0.03562007 -0.00941105  0.07341852 -0.00484336  0.06032547 -0.00194978
 -0.06642343 -0.3166877  -0.08011708 -0.09872995  0.06542137 -0.05828948
 -0.03750065  0.04576974 -0.16902077 -0.10196461  0.02988009  0.03951683
 -0.06532533 -0.00439474  0.1673838   0.00461    -0.18770263  0.04011055
  0.03254479  0.27852815  0.21435177  0.08361069  0.06480506 -0.16843885
  0.11505502 -0.06747171  0.06563232  0.14713214  0.11682091  0.03339811
  0.01748307 -0.11012647  0.0588813   0.0944159  -0.16876031 -0.00603319
  0.11191597 -0.0476782  -0.01579913 -0.03138295  0.22536878  0.03659105
 -0.05051963 -0.16188912  0.18251668 -0.09802912 -0.07042368  0.07935123
 -0.13653511 -0.12213647 -0.29629549 -0.0025066   0.39311036  0.07516247
 -0.16121423  0.01652248 -0.07135671 -0.0131095   0.13682453  0.10914343
 -0.12582739  0.01241156 -0.11284118 -0.02662938  0.18968478 -0.0793828
 -0.04658619  0.18147194  0.04828901  0.05887327  0.04274932 -0.04385
 -0.04783474  0.08203062 -0.11918312 -0.05490695  0.02834294 -0.10160464
  0.00166077  0.12228401 -0.15606169  0.08420386  0.04805161  0.07526273
 -0.01484633 -0.00787223 -0.06344915 -0.09097289  0.12338819 -0.19594291
  0.19523516  0.17349279  0.07752119  0.06883752  0.13632677  0.08777624
 -0.01480922 -0.05742529 -0.15796338  0.0167362   0.110516   -0.0174873
  0.10088956  0.03666399]