[-0.10075753  0.21175806  0.00457858 -0.05227599 -0.09310892 -0.08965266
 -0.02247957 -0.15953679  0.12466935  0.00633998  0.26512465 -0.04049774
 -0.1782098  -0.16214395 -0.08124433  0.1751803  -0.22501948 -0.11334206
 -0.05027741 -0.00137423  0.10861061  0.01959628  0.06579825  0.02314193
 -0.06593421 -0.30310887 -0.09297075 -0.08494817  0.05636149 -0.05106635
 -0.00321781  0.08107318 -0.17747377 -0.12942897  0.0520122   0.05478479
 -0.05614595 -0.00710888  0.1813782   0.03338011 -0.1843631   0.03971683
  0.06669118  0.33771259  0.23545472  0.0529728   0.05588281 -0.18395348
  0.09670037 -0.10846782  0.045921    0.1538773   0.10629105  0.04095074
  0.02750387 -0.10104098  0.04527849  0.09897597 -0.15778498 -0.0379648
  0.12342731 -0.05563535 -0.03576375 -0.05726744  0.20164083  0.03844886
 -0.06499141 -0.15632872  0.12419683 -0.10019156 -0.12396411  0.07444258
 -0.15529715 -0.11479533 -0.34201431 -0.02893706  0.4320204   0.04792795
 -0.13249958  0.04819691 -0.0732125  -0.01678979  0.12925252  0.10404756
 -0.10994799  0.01544772 -0.11873037  0.02225805  0.18071578 -0.09195407
 -0.05744541  0.17369734  0.02971017  0.03747399  0.04214938 -0.00689706
 -0.03583201  0.07817208 -0.13898167 -0.06236133  0.03375511 -0.07049487
 -0.00277857  0.10752177 -0.17880493  0.0568212   0.06700628  0.05804901
 -0.012603   -0.06064117 -0.08252122 -0.0536827   0.11581143 -0.21125118
  0.20534037  0.17673142  0.02608072  0.07246002  0.1294224   0.05551603
 -0.03651    -0.04752935 -0.14045028  0.01087767  0.1161705   0.02173499
  0.10810228 -0.00310436]