[-0.08410736  0.18959001  0.03989962 -0.09136452 -0.04263125 -0.05836299
  0.0105817  -0.08800772  0.12745522 -0.03087599  0.27585518 -0.08270366
 -0.17874506 -0.16513242 -0.01693872  0.16810888 -0.1557457  -0.07894382
 -0.08983224 -0.01790824  0.07177599  0.02769294  0.04226386  0.03836523
 -0.04570581 -0.34498426 -0.05375994 -0.07399561  0.04879523 -0.09053945
 -0.02952713  0.10744982 -0.1829531  -0.11587479  0.04222863  0.05163374
 -0.01904383 -0.00289745  0.20922029  0.02743934 -0.17174779  0.06819823
  0.03711695  0.30893871  0.22238497  0.07000642  0.01820772 -0.10448276
  0.10549317 -0.12638277  0.02643693  0.14282514  0.10380917  0.02343619
  0.02986182 -0.11681535  0.03506468  0.03723631 -0.18816316 -0.07086085
  0.06750456 -0.08026528 -0.03538003 -0.03611024  0.19615355  0.02765731
 -0.07312088 -0.11556377  0.12888356 -0.09144406 -0.023081    0.04585931
 -0.1514879  -0.11367816 -0.26051158  0.05220512  0.36015743  0.10424837
 -0.1905195   0.05641875 -0.07139084 -0.01726799  0.11945388  0.08923787
 -0.09273494  0.01845156 -0.07366969  0.02733433  0.13599174 -0.05977057
 -0.04653053  0.20100825  0.01808569  0.03632966  0.03435976 -0.0534869
 -0.05074501  0.04890842 -0.13951591 -0.02796263  0.04635341 -0.07244935
  0.00265701  0.11924062 -0.21990716  0.09216497  0.02390484  0.02128986
 -0.01195662  0.00453821 -0.0502476  -0.06435952  0.08583938 -0.20448606
  0.17822163  0.18151438  0.00220964  0.10467803  0.12470094  0.06331038
  0.02237643 -0.01280261 -0.12640782 -0.04251603  0.13808034  0.04195539
  0.12287499 -0.00703104]