[-0.03754364  0.22425254  0.05857779 -0.03160054 -0.08937784 -0.05205856
 -0.05637186 -0.11477564  0.09294612  0.0053092   0.25337699 -0.05972688
 -0.17636809 -0.14621168 -0.07543835  0.17807965 -0.17043415 -0.10948726
 -0.04148185 -0.0191049   0.07793203  0.00187339  0.04902051 -0.00785901
 -0.04960296 -0.29948065 -0.07482242 -0.0809876   0.09012145 -0.06773578
 -0.05489461  0.03231276 -0.17521194 -0.11747765  0.057847    0.042564
 -0.07053117 -0.02251067  0.16229759  0.01264547 -0.16977613  0.06840729
  0.03593987  0.28689095  0.20804904  0.09558026  0.05719995 -0.18987413
  0.07924809 -0.0853904   0.06466179  0.16011845  0.13104676  0.04952743
  0.00169203 -0.12220021  0.05026076  0.08157569 -0.1689447  -0.00562909
  0.13123932 -0.03650293 -0.02896412 -0.0585399   0.23833905  0.03977086
 -0.0839962  -0.15729485  0.16152848 -0.09964124 -0.0811685   0.05277198
 -0.115142   -0.11588103 -0.2782492   0.00960122  0.41074285  0.08950601
 -0.19341019  0.02325508 -0.07615756 -0.00590065  0.12055548  0.12309356
 -0.12073059  0.01252014 -0.10098927 -0.02668783  0.1714298  -0.09131294
 -0.04622352  0.17623147  0.03223134  0.07523475  0.03380352 -0.0309895
 -0.06496485  0.08017178 -0.12893371 -0.06123273  0.00921653 -0.08777722
 -0.00833293  0.12400522 -0.14889178  0.09285127  0.04034619  0.05972108
 -0.0011065  -0.00579023 -0.06721732 -0.08785934  0.13109355 -0.21424122
  0.20839308  0.18104751  0.06819501  0.06912567  0.16856377  0.09929147
  0.01690602 -0.05644888 -0.16824524 -0.0061582   0.093341   -0.03782846
  0.0954678   0.02593412]