[-0.09162246  0.17579249 -0.01957249 -0.05094947 -0.03447986 -0.0851559
 -0.02232483 -0.08462017  0.141361    0.04266524  0.19119857 -0.06104832
 -0.16905908 -0.12406894 -0.0332944   0.1543678  -0.19465865 -0.07371517
 -0.12387704 -0.08390193  0.04527832  0.01843773  0.05255987  0.06669297
 -0.1256237  -0.30239388 -0.08119716 -0.11413334  0.07689963 -0.08870094
 -0.02937554  0.07176787 -0.19555458 -0.14743367  0.07138047  0.06133367
 -0.02463803  0.00254594  0.20366457  0.08562018 -0.15414894  0.08941039
  0.04200299  0.32929659  0.25912365  0.0937352   0.02386217 -0.12674958
  0.0966049  -0.15770191  0.08013403  0.17466523  0.05006665  0.05330219
  0.01241789 -0.09780199  0.02016842  0.05816929 -0.18646474 -0.04018248
  0.11868799 -0.07557511 -0.07711048 -0.02048183  0.14634167  0.08362871
 -0.07222631 -0.11181208  0.15279607 -0.13429256 -0.03018042  0.02403649
 -0.10369569 -0.09296864 -0.32169852  0.05371046  0.45585489  0.08397748
 -0.15100247  0.02500498 -0.11068024 -0.02395321  0.11201882  0.05493006
 -0.13457091 -0.03777754 -0.04710491  0.05816436  0.15790801 -0.0269863
 -0.0293097   0.13944186  0.04105509  0.02524209  0.05807901  0.02736023
 -0.08979499  0.00602632 -0.12816362 -0.0240307   0.04516287 -0.07882095
  0.01538545  0.11526841 -0.20459931  0.11477528  0.08521845 -0.05323593
 -0.00523838  0.03612829 -0.0786435  -0.07616033  0.1287245  -0.19361591
  0.19956665  0.20535202  0.00948607  0.09549402  0.10357328  0.09121989
 -0.02320176  0.00608837 -0.11036295 -0.0557076   0.07393909  0.05684524
  0.08136539  0.00153321]