[-8.25250223e-02  1.98335171e-01  6.28397092e-02 -2.98381932e-02
 -1.97330397e-02 -9.66378227e-02 -1.51681844e-02 -1.44000813e-01
  1.03371099e-01 -6.83398545e-03  2.88418114e-01 -3.85977440e-02
 -1.42403007e-01 -1.72075555e-01 -5.20153418e-02  1.83294684e-01
 -1.93905458e-01 -7.56420046e-02 -9.66735557e-02 -4.14331742e-02
  1.38374707e-02  2.20738873e-02  9.27309915e-02  3.53274420e-02
 -6.78838417e-02 -3.35031778e-01 -8.44762251e-02 -8.74529704e-02
  3.42665538e-02 -3.01594641e-02 -4.61659720e-03  2.47232616e-02
 -1.86647996e-01 -1.17764689e-01  3.81513052e-02  2.12301351e-02
 -5.56292906e-02 -3.80361788e-02  2.06712291e-01  4.37165946e-02
 -1.28923595e-01  7.28746057e-02  3.36866155e-02  3.22028220e-01
  2.32636571e-01  1.70451757e-02  5.66526242e-02 -1.28372893e-01
  1.01104937e-01 -1.26831010e-01  1.68409180e-02  1.10319458e-01
  4.91347797e-02  4.16125841e-02  3.17090861e-02 -8.80930945e-02
  2.28693299e-02  1.09347142e-01 -1.64626107e-01 -6.58953795e-03
  6.00182302e-02 -8.63415226e-02 -4.71002087e-02 -3.03236693e-02
  2.12646946e-01  1.08418286e-01 -9.16509703e-02 -1.67778388e-01
  1.26020148e-01 -1.08672105e-01 -4.98672612e-02  3.91215645e-02
 -1.23598419e-01 -9.34655294e-02 -3.54563147e-01  1.73433218e-02
  3.70556682e-01  5.57944439e-02 -1.92218840e-01 -9.47241206e-03
 -9.68961865e-02  2.65211016e-02  1.35824636e-01  1.10387206e-01
 -7.83211514e-02 -1.88037436e-02 -1.17979422e-01 -1.98777355e-02
  1.51794687e-01 -3.34696732e-02 -1.05471335e-01  1.92218184e-01
 -8.10649991e-03  3.51587608e-02  5.26821576e-02  5.81932999e-03
 -1.01267360e-01  3.59294191e-02 -1.34678990e-01 -1.43030426e-02
  2.79730707e-02 -4.98748980e-02  3.09734419e-03  1.15020588e-01
 -1.41416550e-01  7.81413838e-02  2.50097811e-02  4.74964045e-02
  9.93054081e-03 -3.51581730e-05 -7.93146417e-02 -6.69846907e-02
  1.01811886e-01 -2.01624274e-01  2.27667138e-01  1.67408079e-01
  1.73492474e-03  9.27116126e-02  1.22907124e-01  5.62388897e-02
 -6.41104504e-02  1.64344870e-02 -1.07988954e-01 -1.67412367e-02
  4.22466248e-02  2.50520892e-02  1.15758024e-01 -1.91068277e-03]