[-0.14792097  0.18371817  0.04494789 -0.05903242 -0.08425446 -0.08711884
 -0.02048667 -0.14038029  0.06700002  0.01843408  0.2601504  -0.08512168
 -0.21447527 -0.14868277 -0.0712985   0.17771213 -0.2244709  -0.11855941
 -0.02744467 -0.04251601  0.09940556  0.02575359  0.02411466  0.03337245
 -0.11511175 -0.30143622 -0.07139777 -0.08387567  0.00611422 -0.02112989
 -0.02038042  0.0868405  -0.18531941 -0.10451495  0.08645929  0.07887288
 -0.04707719 -0.02626126  0.19499859  0.00694692 -0.16372423  0.04272838
  0.10319372  0.34278223  0.20757571  0.04316263  0.03167735 -0.14388545
  0.11175611 -0.10931625  0.05926605  0.15706924  0.1109236   0.04254037
  0.04059948 -0.12445408  0.05513529  0.09921239 -0.17925456 -0.04063136
  0.11367439 -0.09763151 -0.03122534 -0.07862735  0.21030974  0.05320087
 -0.09135043 -0.14491253  0.13834386 -0.0762025  -0.09734365  0.05893092
 -0.15888548 -0.12412139 -0.34006229  0.02516327  0.40985018  0.07624951
 -0.17636566  0.05354923 -0.00303383 -0.00092811  0.1846582   0.14685957
 -0.1002691   0.0325181  -0.0976215   0.0413028   0.15438068 -0.05295591
 -0.08633532  0.17107151  0.03122081  0.03931975  0.07838201 -0.01858552
 -0.04071972  0.05520106 -0.14577232 -0.01001123  0.04235281 -0.0567511
  0.00600763  0.12269868 -0.13185218  0.03763348  0.05226719  0.04406063
 -0.06690229 -0.06565262 -0.07221165 -0.03199269  0.07027935 -0.25073841
  0.19529429  0.14012626  0.0036227   0.09596071  0.12466814  0.02562325
 -0.00444159 -0.03540079 -0.14863162 -0.00949834  0.15204555  0.01673076
  0.16157074  0.00259474]