[-0.14936754  0.19244866  0.05218446 -0.03807483 -0.07296519 -0.09422522
 -0.01827874 -0.14608191  0.08264675  0.02266969  0.25744021 -0.08797306
 -0.20439978 -0.16020259 -0.06085394  0.18167268 -0.20113261 -0.1073428
 -0.04559231 -0.0210745   0.11549043  0.01765703  0.04561184  0.03155707
 -0.10040481 -0.30113563 -0.09379526 -0.08841925  0.03247417 -0.0416332
 -0.05168868  0.05249128 -0.18837748 -0.12605178  0.07522499  0.06119318
 -0.05363332 -0.04748654  0.19074444 -0.00937487 -0.19146602  0.05629192
  0.10081638  0.31439093  0.20939331  0.05269984  0.04640231 -0.16351227
  0.11526519 -0.08264044  0.08235716  0.15266098  0.11806263  0.0380901
  0.03771637 -0.1297701   0.03193504  0.10115608 -0.15433317 -0.02891866
  0.13770358 -0.06911939 -0.03290866 -0.06497078  0.18685989  0.0534042
 -0.08979338 -0.16345064  0.13551298 -0.08118063 -0.06965957  0.07277083
 -0.16616409 -0.12928626 -0.33022484  0.02664274  0.41612464  0.05440485
 -0.16618647  0.04046192 -0.04066179  0.00283719  0.15428297  0.15097313
 -0.09912437  0.03692281 -0.10940757  0.03289212  0.16749267 -0.06765922
 -0.06347226  0.18400769  0.03887387  0.0296647   0.05124965 -0.01038785
 -0.05628011  0.05221416 -0.12790945 -0.02370883  0.05011481 -0.05527623
 -0.00148128  0.12895977 -0.14293569  0.03709568  0.05738375  0.06110254
 -0.04585309 -0.05871199 -0.0770358  -0.05245616  0.06368276 -0.22393291
  0.18287073  0.13767272  0.02156053  0.07440493  0.13430013  0.05304167
  0.0115278  -0.02966658 -0.15444532  0.00588688  0.15244876  0.02680792
  0.14084816  0.00747211]