[-3.95518951e-02  1.24768138e-01  8.80991071e-02 -3.97143029e-02
 -5.77876940e-02 -5.03504872e-02 -2.39240862e-02 -1.15844749e-01
  1.15335383e-01 -2.12853048e-02  2.98191845e-01 -1.55038061e-02
 -2.06897140e-01 -1.61570832e-01  9.44803655e-03  1.31569073e-01
 -2.00040683e-01 -5.84126376e-02 -5.33794574e-02 -7.84682482e-03
  1.44999549e-01  3.47135179e-02  8.14322457e-02  6.29889546e-03
 -1.43976063e-01 -3.54403645e-01 -1.07574157e-01 -1.06689744e-01
  8.63091126e-02 -9.26132947e-02 -4.20221612e-02  5.84560893e-02
 -1.53923392e-01 -1.27823099e-01  3.42653170e-02  1.68316104e-02
  9.45098419e-03 -2.75449790e-02  1.46918088e-01  3.35777141e-02
 -2.04536080e-01  1.25621676e-01  3.11969947e-02  2.51182139e-01
  2.50846595e-01  4.76406068e-02  3.75079550e-02 -1.02479592e-01
  9.10098478e-02 -1.81698054e-01  3.80031057e-02  1.11044742e-01
  1.03598230e-01  2.35313103e-02  8.67834613e-02 -1.27325341e-01
 -2.99129337e-02  8.51728618e-02 -2.10976511e-01  4.92169149e-02
  6.67615160e-02 -5.97638972e-02  2.74197608e-02 -5.20689674e-02
  1.02184854e-01  5.37105910e-02 -8.39321762e-02 -1.45999596e-01
  1.09210387e-01 -1.28224954e-01 -6.44131824e-02  7.09167421e-02
 -1.75199330e-01 -1.39229983e-01 -3.10937881e-01  5.14959311e-03
  3.53856325e-01  9.92631540e-02 -2.09692761e-01  1.21154068e-02
 -5.66848777e-02 -7.42700358e-04  9.07265767e-02  7.19118044e-02
 -1.17125185e-02  9.07755084e-03 -7.88535997e-02  2.64780317e-02
  1.48549020e-01 -5.72828241e-02 -3.12015098e-02  2.86135346e-01
 -1.49104940e-02  8.84191915e-02  5.68195358e-02  9.87071451e-03
 -8.94112214e-02  1.99859235e-02 -1.61135525e-01 -2.51376014e-02
 -1.88375842e-02 -7.19382390e-02  2.84698941e-02  1.13915227e-01
 -1.52681902e-01  9.54215005e-02 -1.78234652e-04  2.39263978e-02
 -2.33438965e-02 -6.93478156e-03 -8.53312835e-02 -1.58753283e-02
  1.31351694e-01 -2.15771839e-01  2.27510840e-01  2.33419940e-01
  4.78463210e-02  5.20023406e-02  8.72964710e-02 -4.23670840e-03
 -1.00691654e-02 -1.51891205e-02 -1.39799401e-01 -1.27570648e-02
  5.92160821e-02 -7.10018054e-02  5.94118796e-02 -2.17126105e-02]