[-0.077859    0.17289668  0.07361227 -0.03965832 -0.08260355 -0.11469124
 -0.02903408 -0.10549678  0.15682474 -0.04036025  0.25977427 -0.0612755
 -0.15940422 -0.07465672 -0.05027911  0.16171484 -0.19834799 -0.09050693
 -0.06652047 -0.03973493  0.07390611  0.01421167  0.00768797  0.02108245
 -0.11929148 -0.33890438 -0.10254402 -0.12035125  0.10282762 -0.08505171
 -0.05790428  0.03021899 -0.15643944 -0.12343476  0.01704651  0.0046064
 -0.11373369 -0.04162734  0.15571249  0.07968662 -0.20102511  0.04493854
 -0.01117103  0.3346239   0.22853215  0.0744422   0.06170783 -0.15093802
  0.11034991 -0.20561576  0.0624993   0.14683397  0.10869575  0.09193067
  0.09719706 -0.12228376  0.03575349  0.08962616 -0.19607686  0.0451622
  0.11619157 -0.01741506  0.0247166  -0.04207079  0.22910528  0.10055283
 -0.06978848 -0.07810128  0.20724826 -0.10534352 -0.07833522  0.02449898
 -0.10777821 -0.17444091 -0.28887078  0.03186052  0.4189066   0.1400886
 -0.16948073 -0.01051415 -0.09375074 -0.0072686   0.1376792   0.07129076
 -0.11725318 -0.02263504 -0.07906874  0.0074965   0.18577613 -0.08459207
 -0.02743674  0.19399025  0.00668179  0.03188116  0.0353348  -0.00565231
 -0.13298707  0.06123396 -0.128424   -0.05021245  0.05291668 -0.07624652
  0.00169235  0.15096568 -0.16935396  0.14984359  0.05108836  0.00156961
 -0.02600989  0.01741694 -0.07206233 -0.04754176  0.1186408  -0.18312345
  0.25992802  0.1973208   0.04540829  0.09799936  0.07903554  0.01107137
 -0.02038985 -0.05401403 -0.14311105 -0.02257684  0.07732161 -0.00512485
  0.02990231  0.01438186]