[-0.03388846  0.13497464  0.0811928  -0.0402379  -0.064909   -0.05359969
 -0.02323153 -0.08603752  0.12265956  0.00282384  0.26828924 -0.02315621
 -0.21821575 -0.16637641  0.02007537  0.13739108 -0.17880525 -0.06264035
 -0.06925068 -0.00696941  0.15238811  0.02911124  0.0858527   0.01479491
 -0.14157316 -0.34811839 -0.08071045 -0.10309285  0.07519685 -0.10978728
 -0.05559472  0.05264432 -0.1526587  -0.13560103  0.03751017  0.02923309
  0.00775249 -0.04555219  0.13142453  0.03217411 -0.19968864  0.11822536
  0.03517859  0.2406709   0.25362939  0.04119852  0.03491231 -0.10875938
  0.09166887 -0.2040395   0.05576354  0.10793942  0.08871798  0.03085101
  0.10853566 -0.12543519 -0.0232358   0.0946072  -0.22172618  0.04633451
  0.07003949 -0.02400334  0.00218357 -0.07994292  0.1036821   0.07631051
 -0.08683454 -0.13923095  0.08034078 -0.12986872 -0.05745636  0.07138093
 -0.15940148 -0.13331096 -0.29312477  0.01359896  0.33296815  0.10400855
 -0.2184305  -0.00415111 -0.05020745 -0.00103627  0.0798289   0.04214682
 -0.03096858  0.01200701 -0.07196671  0.03229827  0.14303653 -0.05008817
 -0.01449934  0.29112023 -0.00682129  0.0682118   0.05354176  0.00611085
 -0.08568832  0.0224155  -0.16486469 -0.03053254  0.00421549 -0.10192491
  0.02291483  0.09397169 -0.16544622  0.07137757  0.00288076  0.02067008
 -0.00935797 -0.01522353 -0.10655661 -0.01489749  0.13889371 -0.20929363
  0.23070176  0.22463249  0.05917536  0.03685822  0.08158597  0.00524566
 -0.00252603 -0.01925137 -0.11232298  0.00126557  0.07151341 -0.06678224
  0.04410454 -0.02084966]