[-0.13246651  0.10879953  0.03828276 -0.02444758 -0.08471393 -0.03523954
  0.00515723 -0.06882759  0.16582872 -0.01419028  0.22904804 -0.02818454
 -0.25692126 -0.01802007 -0.05614119  0.11754393 -0.19212236 -0.0833394
 -0.14581011 -0.14304166  0.05232976  0.0425658  -0.01242665  0.04390505
 -0.12312474 -0.26778895 -0.01625369 -0.06003746  0.09362583 -0.12158483
  0.04072015  0.00676289 -0.24048667 -0.07154297  0.01171735  0.02993049
 -0.04709592 -0.08691023  0.16455805 -0.02145951 -0.19466315 -0.00511451
  0.03344677  0.27288055  0.18282302  0.02382311 -0.03473464 -0.08439004
  0.11839594 -0.28328425  0.0087486   0.20938741  0.050994    0.07497737
  0.07221443 -0.17137168 -0.02057931  0.14526199 -0.11810441  0.0209095
  0.05318917 -0.04041536 -0.01946662 -0.15337987  0.16908342  0.06390947
 -0.13309596 -0.13387641  0.10691214 -0.1479371  -0.03838656  0.11043102
 -0.08351927 -0.2046424  -0.29127446  0.08142494  0.39328423  0.16832896
 -0.16893339  0.02152063 -0.09040189  0.03524308  0.06868688  0.07771008
 -0.07215604  0.03705161 -0.06876478  0.02720586  0.15804592 -0.01432562
 -0.04963835  0.23407479 -0.01745658 -0.01035866  0.0031247   0.04331516
 -0.13041142 -0.01550607 -0.09495207 -0.02329748  0.09909752 -0.05073966
  0.03826941  0.11616921 -0.13847838  0.15137069 -0.00597936  0.03454637
  0.01926603  0.01386741 -0.03921909 -0.02508866  0.14208482 -0.27043316
  0.25735661  0.17762439 -0.01436597  0.1342151   0.0595422   0.07661583
 -0.03476337  0.02743872 -0.10455277 -0.08839443  0.03294058 -0.0456395
  0.0374654  -0.02473168]