[-0.0862537   0.17892122  0.08009167 -0.05092049 -0.03510331 -0.04555491
  0.01413589 -0.07045119  0.15530863 -0.03391205  0.27594826 -0.09665799
 -0.16442244 -0.16092849 -0.00866081  0.16727629 -0.17787203 -0.07407134
 -0.06069252 -0.03365232  0.06360725  0.01388819  0.04223356  0.0447545
 -0.0466198  -0.33871338 -0.06166035 -0.11349425  0.11370706 -0.11953639
 -0.0687808   0.06410108 -0.17884564 -0.12015172  0.01451197  0.02647624
 -0.00744534 -0.02650811  0.17620699  0.01785012 -0.16215493  0.05232108
 -0.00418507  0.30999812  0.21537702  0.07695927  0.01017289 -0.09228774
  0.08160784 -0.12303715  0.04043404  0.13613155  0.12013661  0.01435775
  0.00047629 -0.13417582 -0.013466    0.03010875 -0.17310046 -0.0343627
  0.08994423 -0.05990404 -0.05664752 -0.03765462  0.20720528  0.04907734
 -0.08469773 -0.13448428  0.14049281 -0.08976557 -0.00748116  0.03083934
 -0.14655393 -0.10044306 -0.22673559  0.06076637  0.36571646  0.07878293
 -0.20180082  0.04073988 -0.13109954  0.01345865  0.0804893   0.10085223
 -0.08123689  0.01786059 -0.07076901  0.00603267  0.09728335 -0.07972699
 -0.02735421  0.17435674 -0.00100802  0.01212367  0.01142033 -0.06680711
 -0.06463601  0.06343025 -0.11894295 -0.05286701  0.04702682 -0.0650259
 -0.00157358  0.11437193 -0.23734589  0.11940434  0.04968972  0.01219356
  0.03878577  0.01515681 -0.05522416 -0.07028035  0.11481335 -0.22378698
  0.18292443  0.19607754  0.03866696  0.12447256  0.1039954   0.09615175
  0.03201337  0.00118706 -0.13270897 -0.03051892  0.11170743  0.01485589
  0.0715313  -0.00339119]