[-0.04255095  0.12526827  0.09310383 -0.04966235 -0.05582146 -0.04715466
 -0.01243264 -0.10815441  0.12078466 -0.01082901  0.2903105  -0.00846396
 -0.20874563 -0.16204309  0.00483416  0.13470958 -0.20228277 -0.06588534
 -0.04131848 -0.00781991  0.13857453  0.03901755  0.06882079  0.00706098
 -0.13985138 -0.354518   -0.1083829  -0.10861587  0.07814986 -0.08520386
 -0.05108337  0.07354616 -0.14976461 -0.12417121  0.04406306  0.02818754
  0.00702983 -0.01889945  0.14880303  0.03578271 -0.19153607  0.12731569
  0.04188232  0.25919431  0.25014278  0.03823509  0.03992713 -0.09497136
  0.09873484 -0.18401828  0.04268367  0.11521373  0.10035     0.03526952
  0.08062535 -0.13592516 -0.03563816  0.08113708 -0.22570565  0.06730181
  0.06473279 -0.06848361  0.00841731 -0.04742787  0.09931572  0.0655347
 -0.09269562 -0.16958533  0.11143976 -0.13658662 -0.06391211  0.06653226
 -0.18261829 -0.13497265 -0.30506003  0.02142057  0.34250578  0.09338138
 -0.20678449  0.01773193 -0.04871152 -0.00940936  0.08320218  0.07298838
 -0.0170709   0.02202885 -0.08211245  0.03164791  0.14723723 -0.05043578
 -0.03322622  0.29154661 -0.02028508  0.09781606  0.05913925  0.02217332
 -0.08438855  0.02057526 -0.17631049 -0.02271794 -0.01321866 -0.08476779
  0.02607389  0.11592155 -0.14479475  0.09550034 -0.00847875  0.03264025
 -0.04015768 -0.01535606 -0.09876352 -0.01100083  0.13864696 -0.20981193
  0.23877521  0.22684775  0.05352049  0.04487541  0.09314957 -0.01518059
  0.00100911 -0.02288613 -0.13708147 -0.00684615  0.06205595 -0.0702218
  0.05614547 -0.01641373]