[-0.12816989  0.21294037  0.04372895 -0.0632588  -0.10852148 -0.10406389
 -0.02906206 -0.13489322  0.07529411  0.03494211  0.25869915 -0.08237591
 -0.21092033 -0.17339264 -0.06385883  0.18581086 -0.20144625 -0.12113482
 -0.02281992 -0.02152256  0.09677706  0.01997158  0.04610392  0.02527658
 -0.07678688 -0.31798241 -0.07542658 -0.0789974   0.02575049 -0.03875282
 -0.02570802  0.09936477 -0.16558936 -0.1206128   0.07806858  0.09284464
 -0.05065925 -0.03417777  0.19488801  0.00301938 -0.17099369  0.02028614
  0.09076341  0.33468366  0.2136052   0.04586859  0.05812759 -0.14450723
  0.10511925 -0.09944286  0.0581046   0.16621868  0.11113071  0.04185918
  0.03725255 -0.12525451  0.0636462   0.07687547 -0.177623   -0.05798655
  0.11899443 -0.0624382  -0.03485289 -0.07182577  0.22966154  0.04323305
 -0.08826151 -0.13794158  0.14472875 -0.08703222 -0.10045452  0.05676404
 -0.16680954 -0.11147621 -0.32845196  0.01228393  0.39614424  0.06066945
 -0.18926048  0.03408867 -0.0237302  -0.01549936  0.15306473  0.13360703
 -0.10780543  0.03903735 -0.13285907  0.00973845  0.16865441 -0.08215928
 -0.06595256  0.18193071  0.05781097  0.05220077  0.07636236 -0.00367658
 -0.03236267  0.05880996 -0.14953487 -0.02010542  0.05717098 -0.09242831
 -0.02316953  0.12558508 -0.14249963  0.04442284  0.06113828  0.05748221
 -0.06906042 -0.06720595 -0.08085553 -0.06691527  0.09692722 -0.20805804
  0.18720965  0.15704338  0.00777863  0.08584976  0.13478389  0.05692363
 -0.006171   -0.05952761 -0.12077647 -0.01456629  0.1297629   0.01711301
  0.1183181   0.02064826]