[-0.1356397   0.13965149  0.04451581 -0.02591569 -0.06003029 -0.05533187
 -0.01867743 -0.12869965  0.13064225 -0.04538836  0.32400513  0.04663721
 -0.14851858 -0.19598641 -0.00362984  0.16087583 -0.23693804 -0.10233446
 -0.00531832  0.01559499  0.10676237  0.00427632  0.07056271  0.0435934
 -0.07582296 -0.37850282 -0.09404733 -0.08616981  0.12613432 -0.05791951
 -0.08425667  0.01195443 -0.2152936  -0.11735152  0.04761324  0.0908848
 -0.00863816 -0.00489344  0.18155888 -0.01845806 -0.19618797  0.05300192
  0.02645115  0.26881763  0.20698006  0.08170401  0.04944884 -0.11437444
  0.092144   -0.13440272  0.09648336  0.11319883  0.15327971  0.01374995
 -0.03230188 -0.15574022 -0.05439497  0.09845745 -0.14855732  0.04136805
  0.08051808 -0.08933275 -0.02297137 -0.03045471  0.2353162   0.07806427
 -0.12556128 -0.18797225  0.15068257 -0.11741986 -0.06118125  0.05229258
 -0.14536256 -0.15252225 -0.28297958  0.03925004  0.37378925  0.0574201
 -0.213993    0.01100137 -0.12975115  0.02460383  0.11661849  0.13022679
 -0.00779059  0.00514735 -0.13183182 -0.01960662  0.20536382 -0.05472323
 -0.05509431  0.22894232  0.00069434  0.10794767  0.03047589  0.02460847
 -0.04015477  0.06351539 -0.12735076 -0.02144697  0.00824233 -0.04384704
 -0.0014578   0.13235921 -0.1539105   0.09182162  0.02062478  0.08769713
  0.06725232  0.00654522 -0.11214385 -0.13284656  0.08653235 -0.24497353
  0.29589543  0.22093931  0.04671378  0.13030185  0.11985767  0.08146665
  0.04102399 -0.04221128 -0.18564294 -0.00160568  0.09764908 -0.05953991
  0.0886455   0.00132772]