[-0.17260352  0.15164833  0.06469356 -0.00204524 -0.05049181 -0.10077274
 -0.02559116 -0.13980977  0.12905012 -0.04274526  0.34953651  0.04150758
 -0.18285857 -0.21768203  0.01279298  0.15543725 -0.21907143 -0.09480325
  0.009145   -0.00447814  0.12117188  0.0117184   0.06703839  0.05470569
 -0.07318199 -0.39589301 -0.1293866  -0.12708086  0.11112398 -0.06796326
 -0.07189816 -0.01094185 -0.18004002 -0.12096113  0.03723942  0.02949648
  0.0082801   0.00495578  0.18875456 -0.02810207 -0.18427297  0.03293557
  0.00566909  0.28257629  0.15656583  0.05261254  0.07357603 -0.10798943
  0.05369679 -0.13047273  0.07781824  0.11736317  0.18929063 -0.00150052
  0.00113038 -0.15803011 -0.07763649  0.08106886 -0.18065238  0.04156797
  0.06426372 -0.07792935 -0.06515871 -0.04879369  0.25404513  0.08636363
 -0.14820105 -0.18466721  0.13284864 -0.11710747 -0.04635363  0.08520804
 -0.15403543 -0.168221   -0.28963766  0.04640477  0.35223362  0.05801008
 -0.23199026  0.00919589 -0.18114166  0.02323533  0.05739493  0.0930453
 -0.02693375  0.0431525  -0.1223944  -0.00144971  0.14914344 -0.06952592
 -0.04271414  0.23962498  0.00584433  0.11581683  0.01614661  0.01258251
 -0.03901956  0.00841729 -0.08804116 -0.02178942  0.02330616 -0.04120197
  0.00569777  0.10523511 -0.18279476  0.09393802  0.02981736  0.05286986
  0.03332031  0.0105918  -0.1117677  -0.11366635  0.09722681 -0.27759692
  0.28344879  0.2210149   0.04339614  0.14003019  0.07266973  0.03582901
 -0.01166946 -0.07071023 -0.15918331  0.00330986  0.11422481 -0.07835076
  0.0740358  -0.02469495]