[-0.14908838  0.12552893  0.02370737 -0.01373853 -0.05062928 -0.0528595
 -0.03646737 -0.16349652  0.14994867 -0.0596942   0.32389274  0.06593457
 -0.15931325 -0.21048155  0.02287387  0.13384989 -0.22822313 -0.12985003
  0.00869989 -0.03162634  0.07222473 -0.01155985  0.06064312  0.02863388
 -0.08490536 -0.3757529  -0.128475   -0.12999523  0.14498259 -0.07013978
 -0.08110188 -0.02078279 -0.19122766 -0.10847397  0.03640934  0.07636447
 -0.00735053 -0.00208677  0.18851377 -0.02554833 -0.17271022  0.02783173
  0.01341991  0.26432416  0.18599427  0.05167732  0.04145167 -0.09018996
  0.05961284 -0.13690606  0.09988469  0.11414498  0.18216835  0.02753707
 -0.02442351 -0.16131808 -0.07464611  0.0737257  -0.18044777  0.0471083
  0.06731518 -0.08997369 -0.0875098  -0.01524412  0.24510777  0.13072401
 -0.14726776 -0.19077882  0.12487105 -0.14119108 -0.04853107  0.07186491
 -0.13380228 -0.16442552 -0.26780602  0.04708963  0.37871721  0.06145018
 -0.22608435 -0.00453378 -0.14532048  0.01037419  0.08954397  0.10391145
 -0.02237075  0.02758829 -0.12137131 -0.0101176   0.15288179 -0.05381637
 -0.05770264  0.21515964 -0.01098709  0.13389818  0.03512402  0.0741178
 -0.02949188  0.01419584 -0.09469584 -0.04316331  0.04089366 -0.0386203
  0.00704629  0.10107797 -0.1435508   0.12222876  0.04110189  0.0654867
  0.06184426  0.00180478 -0.07794573 -0.12460326  0.10992713 -0.28526744
  0.28000292  0.22732668  0.01115646  0.15808283  0.07731651  0.0602111
  0.00124722 -0.0641797  -0.17184506 -0.00956907  0.04519547 -0.05622847
  0.06434954 -0.00764566]