[-0.14907847  0.10765584  0.02837325 -0.03376026 -0.05499195 -0.06186328
 -0.04227099 -0.15347964  0.17195243 -0.06810814  0.32247737  0.05531598
 -0.14984423 -0.22814257  0.02221609  0.15207772 -0.2124449  -0.15143882
  0.01848343 -0.08774754  0.07559332 -0.00082672  0.02641713  0.05889687
 -0.11985429 -0.33974582 -0.09000841 -0.1648114   0.11332684 -0.05433834
 -0.05382833  0.01697286 -0.19862403 -0.09271141  0.04381711  0.07550129
 -0.00307696  0.01727543  0.17820327 -0.0239857  -0.15179239 -0.00584981
  0.03705914  0.24806301  0.17133604  0.03986305  0.04899332 -0.09289222
  0.09492114 -0.1586493   0.08833397  0.12037861  0.17150691  0.033771
  0.03471402 -0.19947359 -0.06974487  0.07929131 -0.1782691   0.06943844
  0.00582141 -0.07211754 -0.07766199 -0.04556009  0.2639136   0.12020942
 -0.14209408 -0.16819906  0.12524338 -0.13221653 -0.07512809  0.08435287
 -0.14116652 -0.15757535 -0.31732184  0.0322816   0.3815833   0.05119435
 -0.22419038  0.02528576 -0.10847163 -0.01785814  0.07356402  0.09507675
 -0.03549804  0.02234302 -0.08871312 -0.01872521  0.16802339 -0.04571483
 -0.04332518  0.19995587 -0.04586123  0.13185059  0.00666869  0.04344062
 -0.04445567  0.00527499 -0.08042594 -0.04835917  0.00132893 -0.04370528
  0.00144368  0.07803667 -0.17780499  0.08965296  0.04136254  0.04202595
 -0.01174934  0.022254   -0.09873442 -0.08373892  0.11899585 -0.27479446
  0.30969062  0.21511571  0.03210218  0.17308743  0.07420714  0.0257481
 -0.01010715 -0.06750163 -0.134583   -0.00739705  0.0563741  -0.08595308
  0.05678495  0.00225151]