[-0.11511234  0.12969841  0.06492297 -0.02203865 -0.03673534 -0.06679274
 -0.02910564 -0.16194651  0.15196149 -0.0761896   0.32930717  0.04869386
 -0.18018208 -0.20662084  0.03943821  0.12139004 -0.18357919 -0.11316629
 -0.00985664 -0.05184008  0.08892298  0.0120094   0.07793021  0.00307053
 -0.09095471 -0.39217076 -0.1434636  -0.13278168  0.1526302  -0.04713482
 -0.06981714  0.00127823 -0.16948889 -0.1082018   0.04243038  0.0436861
  0.006551    0.01399154  0.17134163 -0.01159303 -0.16460824  0.02105661
 -0.00334874  0.24740274  0.17564783  0.07346752  0.05953522 -0.08330148
  0.05914424 -0.14525694  0.08904153  0.09528599  0.19010898  0.02152922
  0.02543592 -0.16119345 -0.07292517  0.07417975 -0.20461264  0.04006352
  0.03792445 -0.080177   -0.09861051 -0.01439493  0.2530992   0.1190292
 -0.15802833 -0.15132235  0.14325818 -0.13036156 -0.02799474  0.08115229
 -0.1481857  -0.13748708 -0.25851861  0.04869859  0.37888315  0.0498106
 -0.23766498 -0.02080685 -0.13133441  0.02619353  0.06848335  0.08567046
 -0.04514746  0.02868963 -0.0973635  -0.01833376  0.13104722 -0.07453343
 -0.05523062  0.23217355 -0.01641798  0.1572016   0.02286375  0.05304063
 -0.0447753  -0.02334335 -0.099798   -0.05013455  0.03493873 -0.02596403
 -0.01292785  0.09982476 -0.15612076  0.13046448  0.02631998  0.03370258
  0.03593718 -0.0074272  -0.05592036 -0.1103754   0.10377478 -0.27754995
  0.24872957  0.23705016  0.00198757  0.15193029  0.04999747  0.02009857
  0.00705184 -0.06595735 -0.16146167 -0.03247781  0.06918288 -0.08388544
  0.0308052  -0.03591754]