[-1.35921583e-01  1.48876250e-01  5.74456342e-02 -1.32389339e-02
 -6.92660883e-02 -7.91045800e-02 -2.15782374e-02 -1.64196491e-01
  1.38907835e-01 -6.04255088e-02  3.52386177e-01  5.98666556e-02
 -1.84708536e-01 -2.05098182e-01 -2.26480421e-04  1.55772090e-01
 -2.17979416e-01 -1.10560708e-01  1.49207851e-02 -1.32831102e-02
  1.12298958e-01  1.27869220e-02  6.91752732e-02  4.19576690e-02
 -7.35673383e-02 -3.80783707e-01 -1.15753412e-01 -1.14269577e-01
  1.08919613e-01 -5.45979924e-02 -7.94585720e-02  7.87351932e-03
 -1.92737579e-01 -1.08062051e-01  5.27355932e-02  5.20812385e-02
 -2.32952693e-03  1.23607076e-03  1.85228661e-01 -1.93935931e-02
 -1.73663780e-01  4.47564535e-02  4.45933634e-04  2.70578891e-01
  1.46933571e-01  5.02549969e-02  8.08564946e-02 -1.32275611e-01
  5.97619675e-02 -1.19455539e-01  8.84253904e-02  1.25516042e-01
  1.76566243e-01  4.55144065e-04 -1.64998621e-02 -1.71694681e-01
 -7.68816099e-02  7.26133138e-02 -1.70902774e-01  4.61216010e-02
  8.26316923e-02 -8.83557349e-02 -6.86411783e-02 -6.50606230e-02
  2.49728352e-01  8.98286328e-02 -1.44667789e-01 -1.90109432e-01
  1.23936169e-01 -1.26104400e-01 -6.61332756e-02  6.26878068e-02
 -1.61059603e-01 -1.61350921e-01 -2.82708496e-01  4.28776890e-02
  3.62028211e-01  7.04501346e-02 -2.29523972e-01  9.69273504e-03
 -1.61580071e-01  3.09302658e-02  7.11150691e-02  1.11268222e-01
 -1.90075282e-02  5.27812354e-02 -1.20951496e-01 -3.18218581e-03
  1.61976784e-01 -7.84519166e-02 -5.37099726e-02  2.43874222e-01
 -6.17023418e-03  1.25529021e-01  2.00109072e-02  7.56147364e-03
 -4.10033539e-02  1.65954735e-02 -9.51119661e-02 -2.75161751e-02
 -1.72534399e-03 -4.99395691e-02  7.22058816e-03  1.06205642e-01
 -1.71747699e-01  8.84403214e-02  9.13027674e-03  5.79500496e-02
  3.77755426e-02  7.11541483e-03 -1.10787526e-01 -1.31838709e-01
  9.68488231e-02 -2.71923721e-01  2.92758793e-01  2.22984299e-01
  5.09711914e-02  1.48463771e-01  8.66558775e-02  5.80918901e-02
 -3.41091468e-03 -6.37332574e-02 -1.60113603e-01 -3.86601919e-03
  1.00591838e-01 -6.84389398e-02  8.09805915e-02 -2.22899746e-02]