[-0.14471006  0.12919132  0.04762576 -0.03496215 -0.06873585 -0.03561586
 -0.03565183 -0.13779096  0.1290461  -0.05463522  0.29680422  0.03886395
 -0.14669611 -0.1763888  -0.01370807  0.15807013 -0.23746748 -0.10883917
 -0.00852257  0.00943409  0.10717189  0.01182397  0.05668239  0.02735548
 -0.08431233 -0.36091003 -0.09191781 -0.08259456  0.12523766 -0.04473019
 -0.10176585 -0.01133105 -0.20893076 -0.10459297  0.05330679  0.10270325
 -0.01861327 -0.00926078  0.16936229 -0.02990532 -0.21060346  0.04637856
  0.05610812  0.25874278  0.20916747  0.08267093  0.03367598 -0.12320049
  0.09998853 -0.12932515  0.10314125  0.12544845  0.15407243  0.03687614
 -0.01731463 -0.14666404 -0.03886458  0.09731435 -0.13433066  0.04388928
  0.10142586 -0.08153778 -0.01258005 -0.03293524  0.2383641   0.07224289
 -0.13123254 -0.20684576  0.12676269 -0.11693247 -0.07809257  0.0575694
 -0.14443262 -0.15224333 -0.28623372  0.03352084  0.38153437  0.06288885
 -0.20519339  0.01888042 -0.12235808  0.00226181  0.12794176  0.13847648
 -0.00278328  0.01615818 -0.12555274 -0.01755564  0.21894877 -0.06707514
 -0.04302164  0.21766201  0.00448749  0.09623799  0.01604973  0.04776083
 -0.05783095  0.07327846 -0.12268597 -0.03302545  0.02764964 -0.03361024
  0.01186392  0.13441633 -0.15537576  0.10749114  0.02259049  0.0891118
  0.06881849 -0.00859009 -0.10912175 -0.12213875  0.08883747 -0.24641223
  0.29063392  0.211181    0.05988812  0.11903404  0.12741487  0.07629863
  0.04559622 -0.02809    -0.18434261 -0.00690887  0.08702699 -0.06051871
  0.09306943  0.01415134]