[-0.1496574   0.12625341  0.03988194 -0.00413222 -0.037106   -0.06249465
 -0.05734724 -0.16001636  0.14379892 -0.06069006  0.30603787  0.03557972
 -0.16912532 -0.18099917  0.01214189  0.11728728 -0.21166638 -0.11092571
 -0.01181052 -0.02088166  0.0801206   0.01369227  0.09572484  0.02437409
 -0.0823886  -0.38905847 -0.15092137 -0.12724824  0.13260661 -0.05004096
 -0.07849573 -0.02198503 -0.18616782 -0.11154334  0.04096395  0.0330179
  0.01070143  0.00579105  0.17854552 -0.03574888 -0.18905976  0.03785521
  0.02661199  0.24983621  0.20037797  0.09915265  0.02168128 -0.09282278
  0.06392594 -0.12673733  0.08628737  0.124632    0.17792736  0.00716759
  0.01486037 -0.15365814 -0.05571303  0.07955149 -0.1680427   0.01942346
  0.06586362 -0.04229141 -0.04629664 -0.02002728  0.23475368  0.11343213
 -0.13866976 -0.17920761  0.12805545 -0.13817672 -0.02668532  0.0904843
 -0.14938591 -0.17188781 -0.24255908  0.02712938  0.38246974  0.0595023
 -0.20556609  0.00557973 -0.12212367  0.00840756  0.08103644  0.08126556
 -0.05002537  0.00827163 -0.10752266 -0.02594051  0.16171135 -0.04236169
 -0.0541123   0.2065939  -0.01738617  0.12360936  0.03567376  0.04905849
 -0.04620358  0.02525944 -0.11060758 -0.01455345  0.01175041 -0.01618752
 -0.01096091  0.09687061 -0.14188538  0.121984    0.02971742  0.04799643
  0.02917595  0.00695173 -0.07727022 -0.08713975  0.10182627 -0.28062329
  0.26798159  0.20471771  0.01672071  0.14716642  0.06495049  0.05018308
  0.00157088 -0.0308045  -0.18835007 -0.03907624  0.07845712 -0.09649648
  0.07575218 -0.02045729]