[-0.14650914  0.14884053  0.0525144  -0.01222456 -0.04901195 -0.09287818
 -0.03072672 -0.15631543  0.12592955 -0.04802586  0.34106627  0.03975792
 -0.18995675 -0.20263162 -0.00096194  0.15430787 -0.21618359 -0.10543928
 -0.00133436  0.00068726  0.11523204  0.02056239  0.07394775  0.02733948
 -0.05638805 -0.38322017 -0.12173889 -0.12155937  0.10110462 -0.04263069
 -0.06439377 -0.00761801 -0.17527537 -0.11401915  0.05359052  0.03994469
 -0.00246127  0.01451633  0.19200045 -0.03011355 -0.19284856  0.05321537
  0.02279487  0.28008121  0.15929645  0.05852378  0.06774822 -0.12924625
  0.04531197 -0.11228931  0.07757118  0.12344453  0.17459629  0.0014617
  0.00152679 -0.15080297 -0.06703421  0.07267564 -0.16681646  0.03214411
  0.08527099 -0.07108463 -0.07052991 -0.05181701  0.25476396  0.06969903
 -0.14815047 -0.19483089  0.12175329 -0.12260164 -0.07040391  0.08321156
 -0.16508391 -0.1538197  -0.28338799  0.03077324  0.36861235  0.03975102
 -0.2227429   0.02545809 -0.15711579  0.01740684  0.07649318  0.10522368
 -0.01635289  0.04826435 -0.11950929 -0.01406998  0.16079694 -0.08514742
 -0.05262461  0.22581477  0.00460682  0.11341379  0.0230754   0.01434042
 -0.02888654  0.00979998 -0.1131733  -0.03943212  0.01767298 -0.04071295
 -0.00170038  0.10138257 -0.16974282  0.08628935  0.03054234  0.05935252
  0.04493282  0.0147153  -0.09887931 -0.1249413   0.10015225 -0.26839221
  0.28153929  0.21813631  0.05271202  0.12066187  0.08567146  0.0441652
 -0.00930652 -0.04457001 -0.17424498 -0.0080368   0.09669836 -0.05427108
  0.08286505 -0.01950388]