[-1.59055591e-01  1.10734001e-01  5.83789460e-02 -2.46795099e-02
 -4.77994159e-02 -7.60885030e-02 -1.34168146e-02 -1.44191623e-01
  1.57887205e-01 -7.86942840e-02  3.37590277e-01  5.81976883e-02
 -1.74897358e-01 -2.26607844e-01  4.51004766e-02  1.16314642e-01
 -1.79521978e-01 -1.12765826e-01 -2.15459242e-02 -6.65287971e-02
  8.39961022e-02  3.72034917e-03  6.92198500e-02  2.04790421e-02
 -9.81239453e-02 -3.99312705e-01 -1.31811276e-01 -1.50996774e-01
  1.50183856e-01 -7.03729913e-02 -5.97411059e-02  3.99859855e-03
 -1.73394680e-01 -1.12071231e-01  2.04057191e-02  5.20899296e-02
  1.92886516e-02  2.45332923e-02  1.79488584e-01 -2.04655621e-02
 -1.72517106e-01  1.78111177e-02 -1.05145900e-02  2.53109336e-01
  1.74011588e-01  5.81985116e-02  4.99990284e-02 -4.11494710e-02
  6.62684664e-02 -1.68479010e-01  9.56342891e-02  8.42752084e-02
  2.11608127e-01 -2.45688861e-04  4.13241051e-02 -1.67019024e-01
 -9.52683538e-02  7.65862390e-02 -2.06163332e-01  4.57415991e-02
  1.95118040e-02 -9.10921618e-02 -1.05785273e-01 -2.58721709e-02
  2.43607923e-01  1.30535930e-01 -1.58064410e-01 -1.37895554e-01
  1.57967910e-01 -1.32636845e-01 -5.47978235e-03  8.88208374e-02
 -1.36285380e-01 -1.42990693e-01 -2.50451773e-01  7.01581538e-02
  3.70661587e-01  6.47920296e-02 -2.36045823e-01 -2.83872932e-02
 -1.50448680e-01  1.99276395e-02  3.24784815e-02  6.25418127e-02
 -4.58242297e-02  3.13107073e-02 -9.89515707e-02 -1.28679592e-02
  1.12135366e-01 -5.12062982e-02 -4.10742722e-02  2.44439468e-01
 -1.52707277e-02  1.46653742e-01  1.56158078e-02  3.77649404e-02
 -4.86278497e-02 -3.22229378e-02 -7.71386400e-02 -3.36825140e-02
  3.87424603e-02 -5.23064397e-02 -4.00493247e-03  8.48042890e-02
 -1.67885020e-01  1.30406305e-01  1.54415546e-02  3.92043516e-02
  2.78641339e-02  9.41896904e-03 -5.35869375e-02 -9.85938609e-02
  1.05579041e-01 -2.79543102e-01  2.55056113e-01  2.38593727e-01
 -3.98907438e-03  1.69198006e-01  4.39209826e-02  7.26479292e-03
  7.28011876e-03 -6.93823472e-02 -1.57953724e-01 -3.50722335e-02
  6.70578182e-02 -1.05321065e-01  2.73250379e-02 -1.87290758e-02]