[-0.15788507  0.11680607  0.06580385 -0.02539645 -0.04752826 -0.07850733
 -0.0132184  -0.13905023  0.1568822  -0.08213302  0.34163934  0.06052694
 -0.17855683 -0.22529021  0.04809314  0.11690564 -0.18186781 -0.10578325
 -0.01890535 -0.07048932  0.07936124  0.01189982  0.06748744  0.01681261
 -0.09175722 -0.39450589 -0.13087989 -0.15408801  0.15543456 -0.06808646
 -0.05353199  0.00608013 -0.1661022  -0.11340936  0.01918958  0.04893535
  0.01419207  0.02808264  0.17962258 -0.01592113 -0.16620803  0.01037554
 -0.00936556  0.25920352  0.17273839  0.06050954  0.0525397  -0.03859233
  0.06251399 -0.17204876  0.08858176  0.08279132  0.21161757  0.00553348
  0.04298689 -0.17398009 -0.08825846  0.07037645 -0.213026    0.04692676
  0.02362478 -0.08802479 -0.10786774 -0.01630656  0.25450796  0.12201941
 -0.16404948 -0.13098873  0.16307645 -0.13301231 -0.00722371  0.0930995
 -0.13517638 -0.14076869 -0.24839437  0.07267507  0.36995482  0.06508037
 -0.22950399 -0.02844031 -0.15049256  0.01712193  0.03021326  0.06432007
 -0.05044476  0.02953976 -0.09348919 -0.01537189  0.10366477 -0.05008559
 -0.04001093  0.24604893 -0.00951234  0.14576755  0.01622529  0.03739247
 -0.04453656 -0.03671195 -0.07988829 -0.03222016  0.03842854 -0.06214019
 -0.00602438  0.08270326 -0.17202263  0.13716568  0.01892417  0.03558924
  0.02420374  0.00863119 -0.05677854 -0.09212895  0.11194632 -0.28334785
  0.25514874  0.24317209 -0.00117921  0.17124626  0.04703906  0.0060664
  0.00645821 -0.07534645 -0.15487933 -0.04133067  0.06340645 -0.11179125
  0.02525187 -0.01834594]