[-0.16657008  0.14701402  0.06083    -0.01447029 -0.06239379 -0.10199522
 -0.03037991 -0.15224901  0.14071383 -0.05283954  0.34514514  0.05980111
 -0.17943273 -0.22399102  0.00549569  0.16978863 -0.22531743 -0.12726067
  0.01538266 -0.02105383  0.10356658  0.01083564  0.05692167  0.05300321
 -0.07424155 -0.38548404 -0.12376323 -0.14310168  0.10426233 -0.05319008
 -0.05923606 -0.00258134 -0.176074   -0.11570577  0.04159733  0.04099306
  0.00398245  0.0116462   0.187705   -0.02465417 -0.17879105  0.03467076
  0.01436467  0.28378579  0.16900322  0.05106448  0.08801279 -0.10975637
  0.05181022 -0.12793793  0.07100936  0.11385404  0.190604   -0.00349427
  0.00315294 -0.16522889 -0.06746223  0.0734669  -0.18231381  0.04737099
  0.07051999 -0.08090045 -0.07792243 -0.03546122  0.27009249  0.08112217
 -0.1495056  -0.18548611  0.14301614 -0.13663647 -0.07400969  0.07553716
 -0.15954314 -0.15433781 -0.30350104  0.0343931   0.37250236  0.05880018
 -0.23004715  0.02409136 -0.15803306  0.02774701  0.06066195  0.10441112
 -0.03460534  0.03929648 -0.13093852 -0.01803097  0.15376751 -0.05842035
 -0.04368942  0.2304554   0.00825072  0.12155718  0.02206212  0.01165112
 -0.02840155  0.00238012 -0.08936745 -0.03484383  0.00962539 -0.03375691
  0.00429105  0.10335646 -0.16943635  0.09143441  0.01786285  0.06102196
  0.01601345  0.02451406 -0.10314158 -0.11927985  0.10378212 -0.26071569
  0.27434048  0.229984    0.04267593  0.13395374  0.08315537  0.03582438
 -0.02048734 -0.06456926 -0.16898398 -0.0005016   0.09247621 -0.09043369
  0.08610546 -0.00884868]