[-0.12882276  0.13685881  0.06200356 -0.02483751 -0.04568896 -0.06312773
 -0.02250749 -0.16600764  0.15378793 -0.08216971  0.3334755   0.04668438
 -0.18609513 -0.20913287  0.0335467   0.12047851 -0.19033448 -0.12517464
 -0.00185587 -0.04481224  0.08484473  0.0013996   0.06294879  0.01447385
 -0.08367296 -0.38602874 -0.13659415 -0.1413959   0.14773315 -0.05351098
 -0.06289212  0.00136878 -0.16800968 -0.10925131  0.02933084  0.04053248
  0.01085596  0.02671922  0.18072177 -0.01992189 -0.17606999  0.02385032
 -0.00050658  0.25703856  0.16837522  0.06848995  0.05513051 -0.07361301
  0.06161679 -0.15201913  0.08456498  0.1016942   0.21167444  0.01371173
  0.01216785 -0.16939588 -0.08073135  0.06697621 -0.20136128  0.05525606
  0.04964967 -0.08837511 -0.09541463 -0.0129391   0.25448725  0.11242689
 -0.16059943 -0.14732422  0.15067223 -0.1323725  -0.03304836  0.0841172
 -0.14943956 -0.14292185 -0.25818828  0.05275707  0.37605423  0.05405992
 -0.2305883  -0.02369731 -0.14193922  0.03053768  0.05300924  0.08503878
 -0.04615662  0.0243913  -0.09809549 -0.01694424  0.13143109 -0.07009174
 -0.05108592  0.23394637 -0.01121612  0.15630311  0.01272883  0.05054084
 -0.03260952 -0.02303808 -0.09735719 -0.03406675  0.02516853 -0.03523258
 -0.0082166   0.09816229 -0.16564198  0.12750208  0.02619718  0.04025362
  0.03079674  0.00747766 -0.05817828 -0.10693423  0.11205914 -0.27532557
  0.25699547  0.2430387   0.0111434   0.14709751  0.05714814  0.01231639
  0.01251093 -0.07490258 -0.16530995 -0.03768352  0.07223839 -0.09585723
  0.03363937 -0.02637651]