[-1.42624423e-01  1.54768974e-01  5.26388884e-02 -7.56587693e-03
 -5.71402200e-02 -8.53731558e-02 -2.45476570e-02 -1.59628883e-01
  1.23687625e-01 -5.85516766e-02  3.45557958e-01  4.06945907e-02
 -1.87296554e-01 -2.13100418e-01 -5.12562692e-04  1.68333158e-01
 -2.22387552e-01 -1.13859691e-01  5.75115113e-03 -8.28705821e-03
  1.04431055e-01  1.19941542e-02  6.19029701e-02  4.25881892e-02
 -6.32055625e-02 -3.83608371e-01 -1.20424263e-01 -1.17406011e-01
  1.16109565e-01 -4.70174178e-02 -8.36783871e-02 -5.61380852e-03
 -1.86877385e-01 -1.13641895e-01  5.34896441e-02  3.20544206e-02
 -2.00924836e-03 -6.67460263e-04  1.96803197e-01 -2.42685955e-02
 -1.83013335e-01  4.38004248e-02  1.31925540e-02  2.84479201e-01
  1.55189618e-01  5.07645980e-02  7.72375092e-02 -1.26870349e-01
  6.10947907e-02 -1.15615308e-01  7.61240721e-02  1.27536759e-01
  1.81461349e-01  7.18371896e-03 -1.81491785e-02 -1.60763994e-01
 -7.08587691e-02  7.64522925e-02 -1.67050093e-01  3.79200988e-02
  7.99348354e-02 -8.51825401e-02 -6.47875592e-02 -5.54586016e-02
  2.60044128e-01  6.94978759e-02 -1.46348700e-01 -1.94517910e-01
  1.32641792e-01 -1.19856469e-01 -5.74350953e-02  6.88285232e-02
 -1.61868125e-01 -1.58714190e-01 -2.89084762e-01  4.09254655e-02
  3.56999069e-01  6.60897717e-02 -2.23187685e-01  2.07190551e-02
 -1.66659027e-01  2.58443337e-02  7.78557062e-02  1.13768294e-01
 -1.57781746e-02  4.44915853e-02 -1.20665766e-01 -3.51190357e-03
  1.64501905e-01 -8.65170509e-02 -4.96525280e-02  2.34348491e-01
  2.45303672e-04  1.16770506e-01  1.31072495e-02  1.21660065e-02
 -4.07203920e-02  1.62092317e-02 -9.35279652e-02 -2.51608174e-02
  1.62925217e-02 -3.50947380e-02  1.28889773e-02  1.12172060e-01
 -1.69868276e-01  8.87960419e-02  2.06011366e-02  6.55505955e-02
  4.01447080e-02  7.13127619e-03 -1.03034757e-01 -1.28378078e-01
  9.10653993e-02 -2.67146319e-01  2.86767453e-01  2.19858199e-01
  4.91337590e-02  1.32385090e-01  8.85403305e-02  4.52265106e-02
 -6.42569689e-03 -6.64061755e-02 -1.71075970e-01 -6.20045094e-03
  1.09922528e-01 -6.36105090e-02  8.60120878e-02 -2.13835370e-02]