[-0.1705371   0.04381618  0.05421136 -0.045501   -0.07318639 -0.10775968
 -0.04453084 -0.12791531  0.13695461 -0.10023616  0.26658148  0.02535096
 -0.17822872 -0.15053244 -0.03850254  0.15749416 -0.14547512 -0.14072715
 -0.02309391 -0.06652148  0.07933871  0.04481559  0.05178922  0.04304412
 -0.11234286 -0.36751789 -0.11734831 -0.1376785   0.03514908 -0.07528596
 -0.04080619  0.02502428 -0.17015885 -0.08294512  0.02871455  0.07675488
  0.01137787  0.01864425  0.18909305  0.02858761 -0.22834957  0.0097561
  0.06071004  0.25851044  0.13050112  0.06269017  0.03792211 -0.10135291
  0.07452072 -0.19472805  0.07773022  0.10181343  0.12439747  0.00467227
  0.05116545 -0.13649355 -0.03003207  0.07195499 -0.19188561  0.05856288
  0.02832345 -0.07317633 -0.07986038 -0.04187638  0.25185716  0.12498047
 -0.11908775 -0.13477729  0.16525711 -0.17046231 -0.0737261   0.10345848
 -0.11646413 -0.16081214 -0.29054996  0.01361849  0.38842693  0.08258319
 -0.19354261  0.03951194 -0.10707748 -0.00977484  0.07239328  0.10214388
 -0.04046476  0.09095099 -0.08456203 -0.01259969  0.179456   -0.03283511
 -0.03617205  0.22009741  0.01554103  0.1336098   0.06079328  0.04373826
 -0.07400051 -0.0602554  -0.1258176  -0.0706457   0.03526514 -0.0237605
  0.0019381   0.08591592 -0.15636636  0.11746847 -0.00237683 -0.02199946
 -0.00828806  0.05293233 -0.04368539 -0.10818128  0.09790672 -0.20930393
  0.22703221  0.20635612  0.02322946  0.14586286  0.07761302  0.02367373
 -0.04197078 -0.04709423 -0.14908886 -0.02942646  0.07894682 -0.08210483
  0.08500184 -0.00332976]