[-0.14242963  0.14746062  0.06225922 -0.01527737 -0.06847816 -0.08300587
 -0.02795885 -0.15014718  0.13665798 -0.05536222  0.34927005  0.05734031
 -0.18693045 -0.20941117  0.00506155  0.1540675  -0.21023969 -0.1114275
  0.01077633 -0.00168041  0.10973416  0.00833785  0.07959839  0.03852896
 -0.07662097 -0.38846338 -0.12348413 -0.11775792  0.1142283  -0.05049026
 -0.0784859  -0.00791139 -0.18286231 -0.11608654  0.0457378   0.04539004
 -0.00426453  0.00671067  0.18872695 -0.02432287 -0.19012916  0.03815882
  0.01186432  0.27373672  0.15319054  0.06087875  0.08317678 -0.12196221
  0.04959191 -0.12712991  0.09448637  0.11646231  0.18650173  0.00260085
 -0.00649122 -0.16016673 -0.07067803  0.0867853  -0.17994994  0.04652803
  0.07222222 -0.07332897 -0.06925476 -0.05535537  0.26237312  0.0930457
 -0.14917938 -0.19131728  0.12449986 -0.13053939 -0.06923952  0.07996893
 -0.15730692 -0.1573848  -0.29224619  0.03464786  0.36053869  0.06324896
 -0.2291327   0.00625791 -0.15762751  0.02086425  0.06102153  0.1082397
 -0.0271595   0.05255972 -0.12312479 -0.01333804  0.16157424 -0.08062585
 -0.04954541  0.23652156  0.00962974  0.12407533  0.01863926  0.02117212
 -0.04124904  0.00992381 -0.10196554 -0.03557278  0.01130487 -0.03905785
  0.00215999  0.10296925 -0.17807566  0.09923645  0.01704237  0.04969001
  0.03895148  0.00746661 -0.09961497 -0.13035922  0.10003443 -0.27046233
  0.28202474  0.22859745  0.0535365   0.13786142  0.08607363  0.04243528
 -0.00455832 -0.05967339 -0.16063087 -0.00516381  0.09871852 -0.08572262
  0.08626433 -0.01692908]