[-0.16418885  0.10546887  0.06914601 -0.03926009 -0.04061574 -0.10903063
 -0.0107572  -0.13768445  0.1565332  -0.07475673  0.30770883  0.03427297
 -0.18840376 -0.16860084 -0.01392172  0.14263885 -0.16617885 -0.08763715
 -0.04793663 -0.03179628  0.10483612  0.03836378  0.06766614  0.0013821
 -0.07028359 -0.39072272 -0.12452669 -0.09470984  0.069594   -0.06777938
 -0.04534043 -0.03610804 -0.17810673 -0.11204206  0.00748235  0.06760651
 -0.03643768 -0.0129848   0.17292388  0.0217535  -0.21728304  0.0337861
  0.03129103  0.27228209  0.13749848  0.06358473  0.04521101 -0.10305784
  0.03451617 -0.15155552  0.11566178  0.08905584  0.12281951  0.02499896
  0.05510966 -0.1510471  -0.06158682  0.07738888 -0.1727394   0.02767901
  0.09517971 -0.05904055 -0.0660958  -0.04724697  0.25340542  0.12562212
 -0.14996336 -0.14717555  0.1177443  -0.11970923 -0.04324425  0.0674319
 -0.11922788 -0.14559101 -0.27258119  0.07545805  0.39190635  0.05730139
 -0.18333583 -0.02063121 -0.16438909 -0.00415728  0.07865144  0.08843937
 -0.02214169  0.07772921 -0.10884716 -0.00198114  0.13141771 -0.0437591
 -0.06254148  0.22229622 -0.00285016  0.09324541  0.01934171  0.039369
 -0.10559323  0.00627911 -0.10813496 -0.0573932   0.06398622 -0.05341874
  0.00339142  0.09570648 -0.1485142   0.13440269  0.03876923  0.02159737
  0.04506214  0.02536534 -0.08401748 -0.10578059  0.07952702 -0.23701552
  0.27155504  0.19125775  0.04937417  0.15121143  0.09651732  0.04249034
 -0.01485366 -0.02657254 -0.15541139 -0.01218179  0.05506575 -0.02465851
  0.10657715  0.01262133]