[-0.13735728  0.14414766  0.04658207 -0.02206586 -0.05113273 -0.05980656
 -0.02940541 -0.13555649  0.12690063 -0.04286304  0.31486088  0.03955988
 -0.14930044 -0.20298564 -0.01383315  0.16113047 -0.23598567 -0.10194858
 -0.00809846  0.01647434  0.10976093  0.0081497   0.067693    0.0366234
 -0.07852583 -0.37245354 -0.09995633 -0.09041668  0.11636837 -0.05254546
 -0.08516908 -0.00379494 -0.21038286 -0.121704    0.04840789  0.08659482
 -0.00859705 -0.00534963  0.17061345 -0.03508974 -0.19729865  0.04732005
  0.0385599   0.26464173  0.2180959   0.08698327  0.03954713 -0.12524609
  0.09101614 -0.12432652  0.09726232  0.11149486  0.15022098  0.02914662
 -0.02623177 -0.14659448 -0.04632082  0.0993435  -0.14829849  0.02966872
  0.0763115  -0.08747152 -0.02190437 -0.02778284  0.23674898  0.07197005
 -0.12829047 -0.1938502   0.14582989 -0.12887464 -0.0666034   0.05161097
 -0.13984238 -0.15320738 -0.29737583  0.03264958  0.37119997  0.06355991
 -0.2189461   0.02012487 -0.12458596  0.02205818  0.1256396   0.13411757
 -0.00309279  0.01105748 -0.12888591 -0.02683241  0.20418544 -0.06122028
 -0.05840003  0.22414581 -0.00089589  0.10352242  0.03519369  0.0295801
 -0.04088503  0.06762498 -0.12683755 -0.02322196  0.02222476 -0.03076473
  0.00133412  0.12942095 -0.14296623  0.09737994  0.02940508  0.09322
  0.0692219  -0.0029808  -0.11036038 -0.1327586   0.09240399 -0.2453188
  0.29821047  0.21028809  0.04503459  0.13213643  0.12191925  0.08570518
  0.03517988 -0.04062675 -0.18391791 -0.00149262  0.09983011 -0.05862333
  0.10266175  0.00372144]