[-0.1654402   0.13511361  0.04882332 -0.01415098 -0.06291921 -0.09463423
 -0.02879363 -0.14600939  0.1292482  -0.04747002  0.33894503  0.06033232
 -0.17855279 -0.23682223 -0.00410039  0.1613069  -0.21352947 -0.11460837
  0.01934833 -0.02738854  0.11443042  0.02522047  0.06792894  0.04067435
 -0.07232141 -0.39780271 -0.12098677 -0.13997456  0.09585734 -0.06013165
 -0.0560299   0.00550542 -0.1716886  -0.11044679  0.04698874  0.05275697
  0.00277763  0.00679986  0.18612102 -0.02326326 -0.16973364  0.02624536
  0.02033191  0.2766974   0.16850618  0.05137373  0.0756091  -0.10792934
  0.06464121 -0.13227116  0.07922634  0.10774773  0.17554349 -0.00688069
  0.01716932 -0.15241669 -0.07333153  0.07979147 -0.1870148   0.03085562
  0.04003295 -0.08302615 -0.07397766 -0.04323065  0.25289035  0.09092136
 -0.13844034 -0.16752757  0.15435801 -0.13479154 -0.06695153  0.06676742
 -0.15119767 -0.15782422 -0.29306206  0.0360087   0.37005711  0.06748176
 -0.2203224   0.02277173 -0.14331709  0.01892426  0.07038938  0.0987874
 -0.03230228  0.04138752 -0.12536678 -0.00927761  0.15022539 -0.0602465
 -0.05304174  0.23060457  0.00097914  0.13472456  0.03826722  0.01146372
 -0.03126468  0.00397671 -0.09995912 -0.0379115   0.01546707 -0.0439149
  0.0085384   0.10307993 -0.15690757  0.07993015  0.02093421  0.05146183
  0.01654593  0.00761819 -0.09527047 -0.10988964  0.09384083 -0.25394326
  0.27936742  0.21435948  0.0312422   0.15685424  0.08090939  0.03300126
 -0.01593212 -0.08654757 -0.16373084 -0.00276519  0.09612451 -0.06956124
  0.08426376 -0.01373883]