[-1.50140420e-01  1.45529121e-01  3.62719744e-02 -2.02407781e-02
 -4.84732203e-02 -1.00515090e-01 -3.27735953e-02 -1.49451301e-01
  1.37122899e-01 -5.18765934e-02  3.40296596e-01  4.32092063e-02
 -1.82398111e-01 -2.22120926e-01  2.92188744e-03  1.59435287e-01
 -2.14439020e-01 -1.07049465e-01  9.37781390e-03 -1.59365404e-02
  1.11488156e-01  1.23555800e-02  6.67795762e-02  4.34043519e-02
 -6.46961555e-02 -3.88654083e-01 -1.22370355e-01 -1.31086677e-01
  9.88852531e-02 -4.43393476e-02 -6.47753179e-02  7.09358929e-03
 -1.77568942e-01 -1.17779933e-01  4.86493669e-02  4.32229899e-02
  1.14689290e-03  1.54399797e-02  1.87270805e-01 -2.35148855e-02
 -1.72184810e-01  4.88374457e-02  8.61925259e-03  2.81722546e-01
  1.59141079e-01  5.37255295e-02  7.60768950e-02 -1.23616673e-01
  5.25824726e-02 -1.24848858e-01  7.58691058e-02  1.16889134e-01
  1.76616818e-01 -1.18624745e-02  1.06073515e-02 -1.50549158e-01
 -5.88913150e-02  7.25220367e-02 -1.79894581e-01  3.20601463e-02
  6.40198663e-02 -7.29489550e-02 -8.21033046e-02 -4.61583249e-02
  2.62612700e-01  8.19357336e-02 -1.41632587e-01 -1.79711297e-01
  1.42737702e-01 -1.21957779e-01 -6.45840839e-02  7.30425343e-02
 -1.52927622e-01 -1.59162551e-01 -2.91409731e-01  3.65549438e-02
  3.70461553e-01  5.93012758e-02 -2.32859969e-01  3.68108563e-02
 -1.60864770e-01  2.08443440e-02  8.02332386e-02  9.13177878e-02
 -3.27577256e-02  3.67958955e-02 -1.27883896e-01 -1.49755478e-02
  1.56862795e-01 -7.09135681e-02 -5.35346828e-02  2.28557229e-01
  8.51916708e-03  1.24047749e-01  3.06646209e-02  4.48931940e-03
 -3.10404599e-02  3.03652894e-04 -1.07041396e-01 -4.14507464e-02
  2.71575097e-02 -4.79944721e-02 -8.61452054e-03  1.04855873e-01
 -1.79427773e-01  8.81280154e-02  2.84039509e-02  4.99217026e-02
  3.55230868e-02  1.95270833e-02 -9.99506786e-02 -1.16460800e-01
  9.70453620e-02 -2.68047422e-01  2.75961488e-01  2.16470554e-01
  5.06793074e-02  1.39798924e-01  8.45718533e-02  3.45965289e-02
 -1.49888443e-02 -6.57573938e-02 -1.74305543e-01 -1.02844452e-02
  1.00047208e-01 -6.15831576e-02  7.99624100e-02 -1.37309795e-02]