[-0.14297664  0.14652352  0.07678053 -0.00648286 -0.01587586 -0.09320271
  0.03045451 -0.10137921  0.15314469 -0.04003819  0.30747023  0.01226476
 -0.15121421 -0.17133293 -0.00069965  0.13788138 -0.22125244 -0.10283736
 -0.02257207 -0.03676383  0.09373283  0.01976929  0.00915364  0.03704051
 -0.05646121 -0.34654084 -0.08179997 -0.14067619  0.14043672 -0.08635811
 -0.05796819 -0.04081088 -0.21663336 -0.13057888 -0.0126121   0.04512991
 -0.00696536 -0.00942639  0.15937288 -0.00474014 -0.18416457  0.02274553
  0.00497109  0.2767401   0.18114431  0.07876345  0.00951689 -0.07842185
  0.0495051  -0.1556437   0.08985206  0.09125745  0.12592454  0.05524061
 -0.0278881  -0.17259113 -0.06798563  0.05011553 -0.18259944  0.05730339
  0.08734305 -0.09401878 -0.05321815 -0.02041474  0.26746446  0.08117558
 -0.11867601 -0.15998475  0.147081   -0.16104993 -0.04338924  0.06558335
 -0.08180612 -0.12434906 -0.24641059  0.097247    0.36780193  0.07087075
 -0.19938116  0.01263102 -0.17424396  0.01369449  0.10910741  0.1091994
  0.00432038  0.05516517 -0.11427152 -0.0355287   0.14890814 -0.03247914
 -0.04756967  0.22770348 -0.03750654  0.07567527  0.02995391  0.00294136
 -0.06001114  0.03768307 -0.0855888  -0.05533663  0.05943462 -0.05227637
 -0.00990372  0.10577869 -0.15268521  0.1213066   0.02720502  0.06774943
  0.06916547  0.01191361 -0.07053014 -0.11533739  0.12167295 -0.23702355
  0.30054274  0.19237541  0.02859372  0.14717093  0.08242106  0.07996485
  0.00597522 -0.04849739 -0.18881232  0.00363565  0.07936949 -0.05806902
  0.09048768  0.00603628]