[-0.15136877  0.11774748  0.04635069 -0.00540092 -0.05432855 -0.06099678
 -0.02391588 -0.15020095  0.13533945 -0.06729158  0.32982957  0.06214551
 -0.16920373 -0.22092795  0.02392736  0.14089365 -0.21369164 -0.13337044
  0.01883405 -0.0341454   0.07755368  0.00120809  0.06069029  0.0183103
 -0.06990222 -0.37180284 -0.13194631 -0.13648938  0.13773076 -0.05047303
 -0.08052582 -0.00902203 -0.17646596 -0.10790455  0.03194284  0.06405564
 -0.00560795  0.01033115  0.18555506 -0.02706039 -0.17039254  0.01366239
  0.02259995  0.2613185   0.17608227  0.05362921  0.03463436 -0.07553395
  0.04277561 -0.14009564  0.08170423  0.10682483  0.18733215  0.03322346
 -0.02555136 -0.16493234 -0.06848471  0.05975762 -0.18336785  0.03573299
  0.04809276 -0.09567084 -0.08854448 -0.0186431   0.25465891  0.11365297
 -0.14252512 -0.19400291  0.14047685 -0.14948419 -0.06500535  0.07451198
 -0.14034586 -0.14646234 -0.27202249  0.04398595  0.36130449  0.05770858
 -0.21706133  0.00195747 -0.13701132  0.00169938  0.06847519  0.10500508
 -0.02099228  0.0370485  -0.12349612 -0.02797892  0.13828115 -0.06633715
 -0.04908494  0.21885979 -0.00110971  0.15450537  0.03732204  0.05572397
 -0.01419559  0.01357211 -0.11049068 -0.0354255   0.0207917  -0.04288544
  0.00196337  0.10063582 -0.14144732  0.11863066  0.03655158  0.0596262
  0.03778427  0.00088833 -0.07842083 -0.11728229  0.10714891 -0.2686955
  0.26633424  0.2362825   0.02851458  0.15209031  0.08599345  0.04529258
 -0.00447116 -0.07248268 -0.18969789 -0.00795605  0.05626057 -0.08241051
  0.04572817  0.00554832]