[-0.12770218  0.14104548  0.07645955 -0.02146648 -0.0667342  -0.08892601
 -0.04528521 -0.14597894  0.17038898 -0.05000694  0.34496608  0.0660462
 -0.17748784 -0.22041595  0.02446982  0.12915944 -0.21219154 -0.11975489
  0.01598329 -0.03861104  0.07639074 -0.0040235   0.06683253  0.04709939
 -0.07545955 -0.37920678 -0.11482644 -0.13797931  0.12701012 -0.05917801
 -0.07287023  0.0041259  -0.1945291  -0.12476875  0.03135141  0.04627189
 -0.00785864  0.02614111  0.17767452 -0.02941901 -0.16734496  0.01241065
 -0.00206928  0.27450377  0.18412267  0.05102633  0.06901168 -0.07815876
  0.06760498 -0.13267061  0.10641032  0.13256259  0.19368766  0.00440192
  0.01687472 -0.16997981 -0.09862395  0.0940386  -0.18393496  0.08402722
  0.06521642 -0.08016326 -0.10563853 -0.04897971  0.25371444  0.11761151
 -0.14606373 -0.20560835  0.12575831 -0.13702613 -0.0606355   0.10304647
 -0.16904989 -0.15122138 -0.28019512  0.03801895  0.36017498  0.04652192
 -0.23373596 -0.00447253 -0.14928189  0.01947157  0.05968027  0.08269721
 -0.01538986  0.04493095 -0.11590647 -0.01113225  0.13753211 -0.06492149
 -0.06276239  0.22772203 -0.0218604   0.11799636  0.00866963  0.02100006
 -0.02140759  0.00859122 -0.11807089 -0.04630221  0.02126566 -0.03690963
 -0.00882498  0.06371638 -0.15817957  0.09071032  0.04277819  0.07588293
  0.02631935  0.00626562 -0.11916646 -0.12071975  0.13576232 -0.28468108
  0.30915737  0.21441329  0.04489611  0.136439    0.05905958  0.02899056
  0.0067314  -0.08266683 -0.12526301 -0.00813382  0.0647504  -0.08222334
  0.07196922 -0.01658598]