[-1.39383584e-01  1.49456054e-01  5.18681221e-02 -2.57849824e-02
 -5.34350872e-02 -5.40745147e-02 -2.52079368e-02 -1.37203127e-01
  1.28988132e-01 -5.08850217e-02  3.23814511e-01  3.33724581e-02
 -1.56606704e-01 -2.12322235e-01 -8.01464915e-03  1.55226752e-01
 -2.36092970e-01 -1.03963435e-01 -1.72019878e-03 -3.93826136e-04
  1.10711016e-01  1.17473695e-02  7.20356628e-02  3.20445113e-02
 -7.52142295e-02 -3.76525521e-01 -8.93428549e-02 -9.45451260e-02
  1.21520333e-01 -4.55101468e-02 -9.60966647e-02  9.70134162e-04
 -2.08478361e-01 -1.24687612e-01  4.77586091e-02  8.95823315e-02
 -9.74952336e-03  1.78358707e-04  1.71668693e-01 -3.62465158e-02
 -1.82544738e-01  5.34722693e-02  3.96888964e-02  2.63511747e-01
  2.11984903e-01  8.34965780e-02  3.64175253e-02 -1.25371680e-01
  9.34009925e-02 -1.28181592e-01  8.47687498e-02  1.21278703e-01
  1.56458363e-01  2.16370821e-02 -1.49510382e-02 -1.50772780e-01
 -4.55074571e-02  8.09274018e-02 -1.52075827e-01  3.04335244e-02
  6.92148730e-02 -8.59532952e-02 -2.51654088e-02 -2.95374990e-02
  2.37229735e-01  7.05256537e-02 -1.19407497e-01 -1.92329064e-01
  1.45633191e-01 -1.21714853e-01 -6.59409091e-02  6.25628456e-02
 -1.44853890e-01 -1.49247617e-01 -2.84538597e-01  3.28496583e-02
  3.76867980e-01  6.28183559e-02 -2.14656517e-01  2.17134915e-02
 -1.27719000e-01  1.55207114e-02  1.24231718e-01  1.23713218e-01
 -1.12103475e-02  8.61946493e-03 -1.32682234e-01 -1.75209008e-02
  1.93541512e-01 -6.69294298e-02 -6.27361909e-02  2.21968457e-01
  6.51048822e-03  1.15012608e-01  3.94580178e-02  2.57618334e-02
 -4.41713892e-02  6.61755204e-02 -1.33722588e-01 -2.67515779e-02
  2.28558462e-02 -4.51419018e-02  2.08622962e-03  1.22139052e-01
 -1.51296467e-01  8.57672021e-02  2.50441134e-02  8.16735998e-02
  6.04706816e-02 -4.52280603e-03 -1.03884831e-01 -1.19759098e-01
  8.79966617e-02 -2.54490733e-01  2.95663595e-01  2.16389015e-01
  4.55476083e-02  1.38537213e-01  1.15355901e-01  7.18906000e-02
  3.51966582e-02 -4.43516895e-02 -1.72382310e-01 -1.18847666e-02
  9.03455839e-02 -5.62661178e-02  9.73346159e-02  2.80257105e-03]