[-0.12337005  0.13319787  0.06614281 -0.0314973  -0.03830332 -0.08297682
 -0.01905671 -0.155211    0.16856998 -0.07702778  0.32129869  0.04897552
 -0.18019997 -0.23464394  0.03428533  0.14998175 -0.17258485 -0.14112739
 -0.01658783 -0.05649862  0.04482104 -0.02554157  0.05886188  0.04372856
 -0.07303835 -0.32895142 -0.12741168 -0.15435748  0.13693218 -0.03527387
 -0.09332731 -0.00140238 -0.17527619 -0.12021615 -0.00145993  0.03139921
 -0.01928888 -0.00097933  0.19884343 -0.03774207 -0.18531369 -0.0059918
 -0.00120035  0.25943515  0.17301285  0.01553088  0.05896495 -0.06739538
  0.07419278 -0.16074896  0.09482     0.10419212  0.20295882  0.03722531
 -0.00921794 -0.18133409 -0.06082258  0.09207685 -0.17493607  0.05814558
  0.03775723 -0.10441806 -0.10867029 -0.03316994  0.27870247  0.13176116
 -0.14486389 -0.16897693  0.1330822  -0.13030683 -0.0320312   0.0963661
 -0.15740667 -0.13541971 -0.29753456  0.0666086   0.35701934  0.06882609
 -0.2232641   0.00104973 -0.16930081  0.03138918  0.04531361  0.07447726
 -0.07426591  0.05850651 -0.12117348 -0.03638354  0.14460532 -0.08971228
 -0.04666053  0.22549979 -0.00268709  0.13572283  0.01306679  0.02644036
 -0.01823706 -0.02733652 -0.10696423 -0.03674006  0.0578387  -0.07044994
 -0.0019946   0.07361988 -0.18069096  0.10471138  0.05314114  0.06040301
  0.03776311  0.01510977 -0.08970925 -0.13000387  0.13903171 -0.23390989
  0.26004896  0.21850733  0.05292659  0.14754505  0.10244756  0.04470667
 -0.03472288 -0.08022835 -0.12373906  0.00604971  0.11344682 -0.06549559
  0.0707092   0.0139569 ]