[-0.12281809  0.14089791  0.06685352 -0.03420981 -0.04268556 -0.07608223
 -0.02560867 -0.17681713  0.16192201 -0.08572245  0.32514724  0.02871075
 -0.17769925 -0.21875797  0.01468983  0.16251765 -0.19555925 -0.14219508
 -0.00536323 -0.02085975  0.06833255 -0.03419455  0.07009739  0.03206908
 -0.0696618  -0.33823898 -0.12917852 -0.13178615  0.12430861 -0.03062944
 -0.10123789 -0.0154306  -0.18116771 -0.1165662   0.012907    0.05733873
 -0.02821137 -0.02476624  0.1991962  -0.05352106 -0.19535978  0.00327973
  0.02119998  0.25060239  0.18253088  0.02431202  0.06106238 -0.10451565
  0.09106468 -0.13706043  0.09182041  0.10700385  0.19133046  0.04201671
 -0.01435766 -0.16915753 -0.04165851  0.10980289 -0.1602757   0.04748956
  0.06780063 -0.09099978 -0.07434716 -0.03031491  0.26765186  0.10693107
 -0.1504676  -0.16966935  0.1165727  -0.12207878 -0.03503777  0.08708404
 -0.17089193 -0.15559678 -0.29797181  0.03924362  0.36835787  0.05586268
 -0.20854977 -0.00155643 -0.14076953  0.02174924  0.07382494  0.11662924
 -0.0470906   0.0525027  -0.13287602 -0.02656102  0.17021774 -0.09950853
 -0.041822    0.22610871 -0.00653121  0.12495337  0.00215097  0.04118529
 -0.02644432  0.00549746 -0.10916656 -0.03028002  0.0382865  -0.05391209
 -0.0125295   0.08410892 -0.16959411  0.08781736  0.04519312  0.07649687
  0.03731222 -0.02177746 -0.08262108 -0.13016474  0.12017089 -0.2344899
  0.24241674  0.220816    0.05177781  0.13697085  0.1032476   0.05104017
 -0.0093706  -0.07040014 -0.14977972  0.01827379  0.1005274  -0.05017834
  0.08340541  0.00451335]