[-0.17569716  0.03210017  0.03237436 -0.04482688 -0.07580171 -0.07691672
 -0.04507569 -0.12984571  0.13188849 -0.09925621  0.2748878   0.02586214
 -0.19946301 -0.13748267 -0.0311988   0.14747696 -0.14818496 -0.14729071
 -0.02984598 -0.08209416  0.05959873  0.05211134  0.03284606  0.01665484
 -0.11878201 -0.36879951 -0.11485622 -0.13281594  0.04571604 -0.08966897
 -0.042751    0.03040839 -0.1551414  -0.0764081   0.05957111  0.11168113
 -0.00900614  0.00110185  0.21239291  0.05108098 -0.20000806 -0.00586647
  0.06000552  0.27267978  0.12691441  0.05861364  0.00574857 -0.06756449
  0.07708612 -0.21643415  0.09513208  0.11571576  0.12921876  0.03407698
  0.06214979 -0.13542522 -0.00625963  0.0637774  -0.21467428  0.04222469
  0.04512168 -0.08021995 -0.0810268  -0.01776452  0.23968451  0.14454396
 -0.12076388 -0.1244952   0.14052281 -0.16433376 -0.06798224  0.09114283
 -0.10902181 -0.16955079 -0.24334474  0.02371394  0.40645811  0.09803874
 -0.2050852   0.01793562 -0.0711923  -0.04479178  0.12035284  0.07812881
 -0.03056996  0.07152494 -0.08406251 -0.01288494  0.1762585  -0.01281439
 -0.05613974  0.21933781  0.00725549  0.13506518  0.0954228   0.05564563
 -0.0576772  -0.06582022 -0.11733752 -0.07632501  0.04641868 -0.04104111
 -0.00543303  0.06706494 -0.13115816  0.13722514  0.00960066 -0.0110688
 -0.01092927  0.02058717 -0.05808648 -0.08136465  0.10896807 -0.23577033
  0.23181958  0.19467337 -0.00716817  0.15403406  0.07877856  0.00667773
 -0.02513458 -0.05453439 -0.15059656 -0.0625776   0.05286182 -0.05967746
  0.08806329 -0.01420121]