[-1.39379308e-01  1.44382939e-01  6.05247691e-02 -1.98002905e-02
 -4.72184010e-02 -5.95235340e-02 -1.86517369e-02 -1.29105553e-01
  1.29336506e-01 -5.35620153e-02  3.20295453e-01  3.21149193e-02
 -1.55864879e-01 -2.04119086e-01 -7.29716057e-03  1.58057675e-01
 -2.39404321e-01 -1.00539818e-01  1.00045966e-03  1.46662807e-02
  1.01076938e-01  1.35400174e-02  6.71011135e-02  3.53437960e-02
 -6.86699748e-02 -3.73891354e-01 -9.76669341e-02 -9.86965522e-02
  1.16957605e-01 -4.61009108e-02 -9.72063467e-02  4.67786187e-04
 -2.05211669e-01 -1.20828785e-01  4.10708860e-02  8.17432776e-02
 -3.82742891e-03  4.30704001e-03  1.72040954e-01 -3.52811515e-02
 -1.95597365e-01  4.96056378e-02  3.86911593e-02  2.72378892e-01
  2.08324581e-01  8.14468488e-02  3.49018686e-02 -1.16680600e-01
  8.85716900e-02 -1.23398922e-01  9.13238823e-02  1.12903908e-01
  1.54751584e-01  2.59728339e-02 -2.75792461e-02 -1.47679970e-01
 -5.53287230e-02  9.22978669e-02 -1.48481175e-01  3.94280553e-02
  8.21187124e-02 -8.69212300e-02 -2.04966925e-02 -2.65864078e-02
  2.44456038e-01  6.92651868e-02 -1.26916274e-01 -2.01658562e-01
  1.44704074e-01 -1.29556969e-01 -6.70258328e-02  6.55412152e-02
 -1.46112666e-01 -1.45436630e-01 -2.86555976e-01  4.25800718e-02
  3.63981605e-01  6.08503334e-02 -2.04299480e-01  1.77113544e-02
 -1.35368481e-01  1.45921232e-02  1.15656391e-01  1.33622199e-01
 -4.20720130e-03  1.92848537e-02 -1.29837185e-01 -2.15048268e-02
  1.98613629e-01 -6.11363053e-02 -5.73484600e-02  2.24035263e-01
 -7.03416415e-04  1.03032731e-01  2.68873721e-02  2.05004252e-02
 -3.92972231e-02  6.48486540e-02 -1.36093006e-01 -2.55765077e-02
  2.00096648e-02 -3.98326032e-02  3.64959240e-04  1.30651265e-01
 -1.53042361e-01  8.99481177e-02  2.22917926e-02  8.60274285e-02
  6.65248558e-02  2.00053467e-03 -1.05824113e-01 -1.24528587e-01
  9.27270874e-02 -2.47983694e-01  2.93967277e-01  2.08647892e-01
  5.95230125e-02  1.26203626e-01  1.13858558e-01  7.50095993e-02
  3.25135067e-02 -4.54034656e-02 -1.83204159e-01 -2.72563030e-03
  1.03217378e-01 -5.85513227e-02  1.04189135e-01  3.94791737e-03]