[-1.40414760e-01  1.54521182e-01  6.10435717e-02 -8.95953830e-03
 -5.91310635e-02 -9.74195376e-02 -2.84635518e-02 -1.49970278e-01
  1.44640461e-01 -5.47013767e-02  3.44877690e-01  5.99852279e-02
 -1.92035377e-01 -2.10264042e-01  7.48704374e-03  1.56997710e-01
 -2.01385736e-01 -1.07032955e-01  1.17932949e-02 -1.29141137e-02
  1.09951198e-01  1.74122658e-02  7.66882524e-02  3.67913954e-02
 -6.30597696e-02 -3.83720696e-01 -1.28757641e-01 -1.19847834e-01
  1.04645126e-01 -5.63953407e-02 -7.40141124e-02  2.42796537e-04
 -1.71867371e-01 -1.15420878e-01  4.95709740e-02  3.39786708e-02
 -1.50810210e-02  9.84250288e-03  1.91037998e-01 -1.46489395e-02
 -1.80207118e-01  2.36212015e-02  7.50596216e-03  2.84708351e-01
  1.60032406e-01  5.05190678e-02  8.88424069e-02 -1.34557649e-01
  4.19602655e-02 -1.19563639e-01  8.26692879e-02  1.22874357e-01
  1.88401818e-01  1.03564067e-02 -2.48749927e-03 -1.57894298e-01
 -6.85941875e-02  7.74116293e-02 -1.73468217e-01  4.21790928e-02
  8.00506249e-02 -8.05484578e-02 -8.78520980e-02 -4.03487124e-02
  2.74087787e-01  8.06993246e-02 -1.56137466e-01 -1.87078580e-01
  1.21611096e-01 -1.22575812e-01 -6.96772784e-02  8.85687992e-02
 -1.61416277e-01 -1.67042524e-01 -2.82307863e-01  4.37451079e-02
  3.63933533e-01  5.66117577e-02 -2.28164539e-01  1.53790144e-02
 -1.71749130e-01  2.64369287e-02  6.72578663e-02  1.07338801e-01
 -3.55208591e-02  4.96265106e-02 -1.22313760e-01 -4.05696174e-03
  1.53171301e-01 -9.15267989e-02 -5.34060262e-02  2.30746076e-01
  8.35414510e-03  1.25639781e-01  1.46788629e-02  2.01708581e-02
 -3.09233665e-02  1.24081522e-02 -1.01774491e-01 -4.86516319e-02
  3.34775522e-02 -4.06987630e-02  4.45860252e-03  9.65831056e-02
 -1.78418383e-01  9.52860042e-02  3.06290146e-02  4.97976318e-02
  4.35741320e-02 -1.61348365e-03 -1.08514741e-01 -1.27747223e-01
  1.00645781e-01 -2.75245816e-01  2.83195943e-01  2.21492767e-01
  4.99177985e-02  1.39654323e-01  8.57251883e-02  4.61619347e-02
 -7.62221916e-03 -7.75324702e-02 -1.49171591e-01  6.59893220e-03
  1.07613124e-01 -5.80524467e-02  8.27299580e-02 -2.99675446e-02]