[-1.35328814e-01  1.19430795e-01  5.20851724e-02 -2.39288602e-02
 -5.11256419e-02 -7.08865598e-02 -2.69562192e-02 -1.65507272e-01
  1.58625662e-01 -7.86932334e-02  3.27167362e-01  5.00680394e-02
 -1.89568713e-01 -2.08632454e-01  2.65114848e-02  1.29922301e-01
 -1.91824168e-01 -1.25854835e-01  2.94504698e-05 -4.56040651e-02
  9.48629752e-02  6.30225462e-04  6.72335923e-02  1.63616706e-02
 -8.40581283e-02 -3.91669959e-01 -1.42131567e-01 -1.33458555e-01
  1.36750892e-01 -5.41317724e-02 -7.03502223e-02  8.65380466e-03
 -1.66881412e-01 -1.14135377e-01  3.71325649e-02  5.06858118e-02
  1.21765882e-02  2.45353244e-02  1.82896897e-01 -2.33424846e-02
 -1.81055412e-01  2.51467507e-02  1.40942428e-02  2.55780816e-01
  1.75343648e-01  6.95578903e-02  5.29111326e-02 -8.43692198e-02
  6.30457476e-02 -1.46174163e-01  8.48647803e-02  1.05884276e-01
  2.02379897e-01  1.48762530e-02  1.68976914e-02 -1.57077625e-01
 -7.86900446e-02  7.75454566e-02 -2.01693803e-01  4.61994857e-02
  5.02729900e-02 -9.01825950e-02 -9.53540727e-02 -2.46776491e-02
  2.45619774e-01  1.10204302e-01 -1.57502085e-01 -1.56660631e-01
  1.41823947e-01 -1.39614373e-01 -4.43126373e-02  7.95167014e-02
 -1.52883604e-01 -1.50211453e-01 -2.69915342e-01  4.40064855e-02
  3.75772208e-01  5.34968674e-02 -2.26276562e-01 -8.28337111e-03
 -1.26730904e-01  1.48364771e-02  5.92921153e-02  8.73883069e-02
 -4.03139070e-02  3.18716280e-02 -1.01250611e-01 -1.31456079e-02
  1.38101026e-01 -6.80734962e-02 -4.33800295e-02  2.30509996e-01
 -1.01209339e-02  1.55956388e-01  1.86081231e-02  6.25963435e-02
 -3.64776850e-02 -1.67322438e-02 -1.08088456e-01 -4.04239036e-02
  2.82206591e-02 -3.25474814e-02 -2.70509208e-03  9.11857262e-02
 -1.61250666e-01  1.23460546e-01  2.34358963e-02  3.99633683e-02
  2.43030246e-02 -3.30675277e-03 -6.19457066e-02 -1.04079030e-01
  1.08667552e-01 -2.71789372e-01  2.54816115e-01  2.41292953e-01
  1.36389881e-02  1.46674395e-01  5.60533591e-02  1.47936558e-02
  5.55224158e-03 -7.29134232e-02 -1.68926269e-01 -2.99499817e-02
  7.49907419e-02 -9.04736668e-02  4.54623066e-02 -2.37490200e-02]