[-1.24211624e-01  1.39317021e-01  7.60005489e-02 -2.24513710e-02
 -6.53784126e-02 -8.24538022e-02 -3.56446616e-02 -1.61984891e-01
  1.62329212e-01 -6.07855730e-02  3.37025136e-01  5.03651984e-02
 -1.78464577e-01 -2.03120351e-01  8.19931552e-03  1.43044427e-01
 -2.07437187e-01 -1.18928611e-01  1.56841893e-02 -3.33085321e-02
  8.52536410e-02 -3.03518656e-03  6.59867749e-02  4.45991717e-02
 -7.21801296e-02 -3.68640393e-01 -1.16570130e-01 -1.24599688e-01
  1.10662244e-01 -4.70989421e-02 -8.25226977e-02  8.54547974e-03
 -1.86711833e-01 -1.20170474e-01  3.59485224e-02  5.05385995e-02
 -1.35103390e-02  1.78484656e-02  1.82347178e-01 -4.11459133e-02
 -1.79253787e-01  2.52814684e-02  2.14055926e-02  2.73465723e-01
  1.76829264e-01  5.87180555e-02  5.94715066e-02 -9.39864963e-02
  6.65610358e-02 -1.22071698e-01  9.85295996e-02  1.24549128e-01
  1.86403975e-01  6.52100006e-03  3.33695876e-04 -1.70767888e-01
 -8.98598582e-02  8.95045623e-02 -1.70217022e-01  7.50982016e-02
  7.42937401e-02 -8.68539214e-02 -8.96245837e-02 -4.83453386e-02
  2.57148594e-01  1.14122771e-01 -1.46840841e-01 -1.97964355e-01
  1.28477395e-01 -1.33888513e-01 -7.08838031e-02  8.22127238e-02
 -1.77037463e-01 -1.53333634e-01 -2.85538405e-01  3.03054042e-02
  3.73188406e-01  4.64086942e-02 -2.26798698e-01 -1.95383863e-03
 -1.35852352e-01  2.79812422e-02  7.99197555e-02  1.02666132e-01
 -1.89699270e-02  4.16549817e-02 -1.15223363e-01 -1.10610723e-02
  1.54806003e-01 -7.38662034e-02 -7.21822307e-02  2.24358305e-01
 -1.44857233e-02  1.22676067e-01  5.52170770e-03  2.33768523e-02
 -2.26927698e-02  2.12592185e-02 -1.34431943e-01 -4.01560739e-02
  2.04193033e-02 -2.99478769e-02 -1.36587175e-03  8.86151940e-02
 -1.59483775e-01  8.73870477e-02  4.33303677e-02  7.73571953e-02
  3.48921828e-02  1.94582492e-02 -1.21696852e-01 -1.25761062e-01
  1.25010595e-01 -2.66489267e-01  2.96304852e-01  2.17887044e-01
  5.42353280e-02  1.29229769e-01  7.97777101e-02  3.56351249e-02
  1.92611758e-02 -6.89349994e-02 -1.47426710e-01 -3.76932393e-03
  8.37752074e-02 -7.38413483e-02  8.83547291e-02 -4.74669505e-03]