[-0.12115457  0.14035676  0.07531003 -0.02264535 -0.03681352 -0.0709533
 -0.01808224 -0.16951829  0.16058441 -0.0755256   0.32206026  0.01245593
 -0.18171875 -0.19469462  0.00180667  0.16686711 -0.20617072 -0.13119984
 -0.0133956  -0.03821449  0.06982294 -0.02874091  0.04403132  0.04597541
 -0.0580612  -0.3245686  -0.12379227 -0.13792698  0.13533469 -0.02500478
 -0.09460766 -0.01180866 -0.17692332 -0.11173     0.00954384  0.02387078
 -0.00886408 -0.01144808  0.19723731 -0.05522732 -0.19843158  0.01891905
  0.02170028  0.25897595  0.15993285  0.04917915  0.05078541 -0.0985397
  0.08287823 -0.13022673  0.07617018  0.1136021   0.18913934  0.0339845
 -0.02969145 -0.18561882 -0.06140463  0.09895128 -0.15520234  0.05879858
  0.06793199 -0.10421302 -0.07638817 -0.04924393  0.26902053  0.11387342
 -0.14636098 -0.18726058  0.11117237 -0.1333646  -0.04688681  0.08505377
 -0.157355   -0.13260233 -0.29595029  0.02888425  0.37433574  0.04502608
 -0.22192478  0.00245401 -0.15238449  0.03041272  0.08955337  0.1137944
 -0.04870043  0.05319041 -0.12256426 -0.05375822  0.17322032 -0.09691893
 -0.04155712  0.21527822 -0.01002562  0.11392298 -0.00942507  0.02191787
 -0.03169565  0.00184308 -0.10143991 -0.03577847  0.02518343 -0.03818585
 -0.00849918  0.0704012  -0.18434265  0.09727264  0.05016931  0.07833442
  0.03875375  0.00623148 -0.08668523 -0.1172929   0.13822117 -0.24273995
  0.25239751  0.21826148  0.05342564  0.13344157  0.10474598  0.05839211
 -0.02337773 -0.05803934 -0.15469614  0.00354209  0.11774814 -0.06923841
  0.09014209 -0.00136733]