[-1.19841769e-01  1.42976210e-01  7.76493326e-02 -2.29495075e-02
 -6.01422153e-02 -7.46008158e-02 -4.46202084e-02 -1.57546744e-01
  1.65244743e-01 -5.95523827e-02  3.31152916e-01  4.05278765e-02
 -1.80743620e-01 -1.88967943e-01  5.21231955e-03  1.46411836e-01
 -2.17964530e-01 -1.17941737e-01  1.11392736e-02 -4.02960293e-02
  8.40721652e-02 -2.36340798e-04  5.83820008e-02  3.97233181e-02
 -7.60952979e-02 -3.63965839e-01 -1.19414486e-01 -1.35615706e-01
  1.15974717e-01 -3.13838758e-02 -8.92423913e-02  6.07055437e-04
 -1.82296604e-01 -1.20772600e-01  4.44947332e-02  3.95888016e-02
 -1.49043417e-02  1.75978430e-02  1.75395057e-01 -3.42305228e-02
 -1.69762447e-01  3.44078057e-02  2.50693504e-02  2.72143960e-01
  1.72905102e-01  6.68145344e-02  5.37771285e-02 -9.27205607e-02
  6.75328970e-02 -1.22960806e-01  8.65587965e-02  1.35682151e-01
  1.84684038e-01  1.96693745e-02  7.12345773e-03 -1.67554483e-01
 -7.95969293e-02  8.29368755e-02 -1.76615015e-01  7.69779086e-02
  7.32597038e-02 -8.71976838e-02 -9.47542116e-02 -5.53056076e-02
  2.60889143e-01  1.19428955e-01 -1.47949859e-01 -2.08318993e-01
  1.16803944e-01 -1.32730454e-01 -7.21627697e-02  7.98036680e-02
 -1.77696943e-01 -1.44874021e-01 -2.73786396e-01  2.45610755e-02
  3.71614426e-01  4.29681055e-02 -2.30783328e-01  9.60567780e-03
 -1.30953029e-01  1.73563045e-02  7.85006955e-02  1.05993591e-01
 -1.45511273e-02  4.36080284e-02 -1.04293726e-01 -2.38642823e-02
  1.50706783e-01 -8.59750733e-02 -5.97130470e-02  2.21451864e-01
 -2.19890140e-02  1.19195476e-01  6.65245950e-03  1.70095097e-02
 -3.67571190e-02  1.24201505e-02 -1.27173945e-01 -5.00758551e-02
  1.52447959e-02 -2.73404550e-02 -6.73955074e-03  6.98387846e-02
 -1.57795668e-01  9.13033113e-02  4.08309065e-02  7.29219243e-02
  2.88324039e-02  1.37128029e-02 -1.13820195e-01 -1.18736975e-01
  1.33352295e-01 -2.68733025e-01  2.99507886e-01  2.15302095e-01
  4.99030314e-02  1.24867298e-01  7.56655261e-02  3.36851180e-02
  9.20393877e-03 -5.01593649e-02 -1.44289061e-01 -1.58958938e-02
  7.83972591e-02 -8.07246193e-02  7.84291327e-02 -1.61291268e-02]