[-1.35532960e-01  1.47371262e-01  5.04295230e-02 -1.25471121e-02
 -4.55526449e-02 -8.77479836e-02 -3.01335137e-02 -1.50520608e-01
  1.33625418e-01 -5.23181371e-02  3.45475882e-01  5.36625162e-02
 -1.82785898e-01 -2.13080719e-01  7.38796138e-04  1.51381344e-01
 -2.16889426e-01 -1.03884809e-01  5.21210488e-03  1.02660777e-02
  1.10141985e-01  1.13346577e-02  7.86701813e-02  3.86543646e-02
 -7.35011026e-02 -3.81711572e-01 -1.24827303e-01 -1.15280800e-01
  1.09714054e-01 -5.59154935e-02 -7.99192339e-02 -9.93929710e-03
 -1.80390313e-01 -1.14224374e-01  5.03977947e-02  4.08028550e-02
 -4.04514233e-03  8.94241221e-03  1.91103160e-01 -2.03144290e-02
 -1.91006452e-01  4.11032736e-02  1.38404714e-02  2.80404449e-01
  1.65088639e-01  5.77250682e-02  7.39893317e-02 -1.31647319e-01
  5.37005477e-02 -1.27834126e-01  9.24063548e-02  1.14097394e-01
  1.83437020e-01  4.43032244e-03 -2.03029063e-04 -1.51846066e-01
 -6.88552037e-02  7.76589140e-02 -1.71422139e-01  4.17685024e-02
  7.36084655e-02 -6.68892637e-02 -6.31414801e-02 -4.23436351e-02
  2.51301736e-01  8.25952962e-02 -1.44205019e-01 -1.94145799e-01
  1.29171774e-01 -1.28858358e-01 -6.44975230e-02  8.88445303e-02
 -1.46812558e-01 -1.63575768e-01 -2.85222024e-01  2.75609884e-02
  3.65461171e-01  6.27070218e-02 -2.26500794e-01  1.61483176e-02
 -1.67329431e-01  1.26814125e-02  7.68928975e-02  9.70738158e-02
 -2.41509899e-02  4.98432554e-02 -1.25679746e-01 -5.70416823e-03
  1.73179924e-01 -8.09388384e-02 -5.40887825e-02  2.30452701e-01
  7.72319455e-03  1.16822638e-01  2.50288490e-02  1.82820614e-02
 -3.47810052e-02  2.09166016e-02 -1.11008786e-01 -3.87235172e-02
  2.37030536e-02 -3.69472802e-02  5.07059786e-03  1.06088199e-01
 -1.75160125e-01  9.73251984e-02  3.21554504e-02  4.96982858e-02
  5.32434843e-02  1.23569928e-02 -1.10499062e-01 -1.25895560e-01
  9.81567726e-02 -2.75802881e-01  2.84727424e-01  2.14013562e-01
  5.65862842e-02  1.26827583e-01  8.43499824e-02  4.38393168e-02
 -3.05477600e-03 -6.55826181e-02 -1.60608932e-01 -4.66821436e-03
  9.89212319e-02 -6.53192997e-02  9.23451856e-02 -2.32403837e-02]