[-0.13672988  0.13260858  0.04492973 -0.02120623 -0.05083041 -0.07165629
 -0.02570917 -0.17125636  0.15861718 -0.07302841  0.33769587  0.04936972
 -0.17911808 -0.21979347  0.03286274  0.12963472 -0.20440197 -0.12427097
  0.00513552 -0.05765698  0.09018365 -0.0012922   0.06417634  0.02922851
 -0.08569277 -0.38977146 -0.13556503 -0.1363529   0.1542262  -0.06265472
 -0.07021444  0.00771688 -0.18837421 -0.11577775  0.03446195  0.05254234
  0.01608796  0.01775775  0.1830745  -0.01913678 -0.16386417  0.02897409
 -0.0078208   0.25651082  0.16835967  0.05623855  0.05855154 -0.07107445
  0.0703171  -0.14387965  0.08991432  0.10720885  0.20842329  0.0044246
  0.0069396  -0.16876066 -0.09589853  0.07643061 -0.19082056  0.05259933
  0.04668619 -0.09345698 -0.09651347 -0.02586923  0.23808768  0.11211765
 -0.14725208 -0.1588638   0.14946635 -0.1256014  -0.02857117  0.07923307
 -0.14799319 -0.14911021 -0.25912461  0.05878244  0.37469873  0.05430948
 -0.23382108 -0.01350484 -0.14184037  0.02310017  0.05259052  0.08141411
 -0.03174296  0.03201356 -0.10923888 -0.00151672  0.1344894  -0.06725051
 -0.04779434  0.24143405 -0.01898289  0.15905522  0.01406311  0.04708278
 -0.03661243 -0.01410603 -0.08765639 -0.03650412  0.03047415 -0.0330788
 -0.00630852  0.09426262 -0.15966609  0.11881351  0.0226347   0.04875162
  0.02297811  0.00287407 -0.06211484 -0.10733322  0.10643633 -0.27675268
  0.26473895  0.23878825  0.00287675  0.15785749  0.04783194  0.01725173
  0.01479448 -0.08246735 -0.16381636 -0.03198012  0.0725804  -0.08619194
  0.03282614 -0.02420315]