[-0.15409109  0.12491267  0.04786259 -0.01100285 -0.06797075 -0.0826515
 -0.01550344 -0.15439187  0.15398131 -0.07301138  0.32862467  0.04329051
 -0.1801713  -0.21474122  0.04777765  0.13355623 -0.19196023 -0.11578909
 -0.00224334 -0.08316888  0.07843164  0.01052773  0.04920805  0.04198766
 -0.08270733 -0.3909432  -0.12138554 -0.15543966  0.14552699 -0.06441351
 -0.06504912  0.02814256 -0.17035168 -0.12043887  0.03387032  0.03923119
  0.01352775  0.03332813  0.183369   -0.01179321 -0.17007206  0.01218829
  0.00157079  0.26175517  0.17251903  0.05680268  0.04932038 -0.04741255
  0.05385668 -0.16386735  0.07211012  0.10523074  0.19814821  0.00666071
  0.01267206 -0.18594064 -0.10141152  0.05951906 -0.20270057  0.04115242
  0.02879157 -0.1083159  -0.10807816 -0.02206984  0.27219376  0.12653653
 -0.15572503 -0.13669197  0.1429377  -0.13996434 -0.02800608  0.08174309
 -0.14401872 -0.13749278 -0.26237813  0.06709149  0.38688132  0.05556295
 -0.23247898 -0.01421647 -0.15133005  0.01934919  0.04542018  0.08560163
 -0.04512314  0.02659363 -0.08279931 -0.01663944  0.10790455 -0.0533408
 -0.04461997  0.2374974  -0.01657859  0.15514155  0.02213776  0.03580452
 -0.03833621 -0.0493907  -0.0734392  -0.05338439  0.02427866 -0.05503116
  0.00347493  0.09317904 -0.18164213  0.12507614  0.01981747  0.04069015
  0.01984914  0.01919325 -0.04496826 -0.10049482  0.10993264 -0.27695796
  0.26172507  0.23847213 -0.00918475  0.17567042  0.04036     0.01487132
 -0.00862287 -0.0742437  -0.14516047 -0.02758034  0.07897455 -0.09961583
  0.034862   -0.02735776]