[-0.13634278  0.14284961  0.06958917 -0.03410273 -0.07881624 -0.09811062
 -0.04718245 -0.13963756  0.16645424 -0.05200238  0.34204289  0.05487124
 -0.16965324 -0.22117463  0.02111741  0.12770729 -0.19730918 -0.10698905
  0.00738691 -0.04404849  0.07858162 -0.00351787  0.07163553  0.04600618
 -0.07662284 -0.39778623 -0.11884087 -0.14167432  0.13230561 -0.06947809
 -0.07804918 -0.00156993 -0.194966   -0.13209495  0.02506298  0.05436732
 -0.01219024  0.02408967  0.16543259 -0.02878377 -0.16456054  0.01939452
 -0.002493    0.26218301  0.18257783  0.06291296  0.07351273 -0.06711104
  0.07325567 -0.13873623  0.10462083  0.11256259  0.193638   -0.00183469
  0.02861609 -0.15621959 -0.09307708  0.09393656 -0.19848405  0.0744978
  0.06309148 -0.06869065 -0.11927368 -0.04280892  0.25901198  0.12948065
 -0.14662829 -0.18567103  0.13193165 -0.1456486  -0.03939306  0.10218669
 -0.15303998 -0.14881824 -0.26821443  0.05634243  0.35459813  0.05749453
 -0.22817671 -0.02388821 -0.14400965  0.03082126  0.05374442  0.05647595
 -0.03567545  0.04200263 -0.11987295 -0.01345646  0.13221306 -0.06235073
 -0.05456031  0.23445049 -0.01361976  0.12587835  0.01106998  0.0280627
 -0.03932252 -0.00854042 -0.10682839 -0.04134675  0.0438724  -0.04903555
 -0.01836984  0.06621893 -0.15702224  0.09192073  0.02090575  0.06253152
  0.02231644  0.00825049 -0.11323067 -0.12573878  0.12730519 -0.27252123
  0.29480657  0.21971026  0.03192716  0.14021529  0.06023178  0.01779968
  0.00531054 -0.08334116 -0.1179172  -0.02276601  0.07276326 -0.09004962
  0.06365877 -0.02667648]