[-0.12140918  0.13602757  0.06164697 -0.03133159 -0.03428937 -0.08155582
 -0.01348988 -0.17237179  0.15627822 -0.06788593  0.32254416  0.03386123
 -0.17951457 -0.22179203  0.01798462  0.15668993 -0.17720477 -0.1464289
 -0.02043113 -0.03380371  0.0583076  -0.04074357  0.05911891  0.04761413
 -0.0706455  -0.32186776 -0.12529038 -0.13626015  0.1314562  -0.03613146
 -0.10357129 -0.00622441 -0.18707888 -0.11903137  0.00920004  0.05107019
 -0.02435536 -0.02085687  0.20211001 -0.04557498 -0.1978343   0.00867679
  0.01000608  0.26239645  0.18203798  0.01278822  0.06461565 -0.0850293
  0.08752277 -0.15669051  0.09747103  0.10845879  0.20405875  0.03741966
 -0.0165313  -0.17679171 -0.05073992  0.10732545 -0.15989116  0.05485418
  0.05842331 -0.10174751 -0.08458266 -0.03792695  0.26379824  0.11894753
 -0.14934158 -0.16396402  0.11913333 -0.12361734 -0.02571268  0.09506972
 -0.16694219 -0.14910476 -0.30511937  0.05851924  0.36924836  0.06343295
 -0.21771061  0.00093525 -0.15748189  0.0409148   0.06654719  0.09521883
 -0.05973393  0.05828553 -0.13572203 -0.02660897  0.16699918 -0.09585387
 -0.046136    0.22172382 -0.00700721  0.12083979  0.00371378  0.04109366
 -0.01825585 -0.01373828 -0.1026388  -0.02586916  0.04424877 -0.05879585
 -0.00692935  0.08229805 -0.17717846  0.08558977  0.04671292  0.07354652
  0.03694198 -0.01031597 -0.0814698  -0.12960605  0.1206695  -0.23956092
  0.24645968  0.22031689  0.04385199  0.13047603  0.09977732  0.04496152
 -0.01910733 -0.07582236 -0.13443871  0.014225    0.11374994 -0.04903201
  0.07750861  0.0046434 ]