[-0.12709093  0.14004409  0.07029585 -0.0244359  -0.06562904 -0.08459752
 -0.03345522 -0.16169548  0.17650162 -0.06506252  0.33828282  0.04541376
 -0.17965236 -0.21082751 -0.0038674   0.13842954 -0.21236351 -0.11956958
  0.017745   -0.04980407  0.08190061  0.00540291  0.06000812  0.04321921
 -0.06778474 -0.37102991 -0.11482344 -0.13746695  0.11287997 -0.05616722
 -0.07023793  0.01317136 -0.18819939 -0.12167771  0.03319424  0.05108854
 -0.00845497  0.02742362  0.1786354  -0.04047155 -0.16187669  0.01650435
  0.01169228  0.27486897  0.17246585  0.05459803  0.0474573  -0.08827605
  0.07037025 -0.12775126  0.09418567  0.12262534  0.19446325 -0.00257268
  0.00178806 -0.16811894 -0.09721293  0.09169073 -0.18529736  0.08063442
  0.06910662 -0.10164794 -0.11266433 -0.03772742  0.25170997  0.1176075
 -0.14370394 -0.19742897  0.14272644 -0.14188723 -0.05661708  0.08587285
 -0.16067533 -0.15246935 -0.27116853  0.03507059  0.37853241  0.04131354
 -0.22606583 -0.00354664 -0.14150374  0.0297349   0.07191827  0.08727811
 -0.02552162  0.03476058 -0.12024746 -0.01132163  0.13840277 -0.07242897
 -0.07037949  0.22908373 -0.02177783  0.12448993  0.00991308  0.01342872
 -0.02276168  0.01618492 -0.12579481 -0.04216158  0.02622727 -0.03956018
 -0.00796762  0.07428902 -0.15324007  0.08381315  0.04030152  0.0698881
  0.03558283  0.00965022 -0.11859279 -0.12691379  0.13966233 -0.27230451
  0.29324993  0.21025756  0.0468168   0.14832321  0.06978904  0.03438977
  0.02053153 -0.08333369 -0.1452689  -0.00819133  0.07762916 -0.07789048
  0.0754297  -0.01343464]