[-1.58073008e-01  1.52584746e-01  6.69298097e-02 -1.03449151e-02
 -5.68205826e-02 -1.21574245e-01 -2.17957776e-02 -1.52050599e-01
  1.34342298e-01 -5.63085936e-02  3.52648109e-01  6.22422993e-02
 -1.71044424e-01 -2.25962669e-01  1.16165038e-02  1.52148604e-01
 -2.01504931e-01 -1.07471325e-01 -5.82312816e-04 -1.40520604e-02
  1.00808457e-01  1.08565232e-02  7.59568140e-02  4.40012924e-02
 -7.07692951e-02 -3.87837708e-01 -1.22145794e-01 -1.32726952e-01
  1.15323596e-01 -5.68053424e-02 -6.13327883e-02 -1.91540865e-03
 -1.77423492e-01 -1.20140128e-01  3.79683338e-02  3.59505638e-02
  1.83063370e-04  1.45880822e-02  1.94185987e-01 -2.02809554e-02
 -1.86159760e-01  2.15061009e-02 -5.20195020e-03  2.78678626e-01
  1.72871917e-01  4.30496372e-02  9.32332948e-02 -1.20091297e-01
  5.40564731e-02 -1.30424693e-01  8.18222091e-02  1.06771827e-01
  1.81825995e-01  6.24946132e-03  1.03144534e-02 -1.61363170e-01
 -7.16098323e-02  8.05740878e-02 -1.83101490e-01  3.91490869e-02
  6.28671274e-02 -7.22073689e-02 -8.07737038e-02 -3.86586748e-02
  2.67511100e-01  9.26424265e-02 -1.46976039e-01 -1.78978249e-01
  1.52962998e-01 -1.33532509e-01 -5.63307777e-02  8.99104178e-02
 -1.50045559e-01 -1.57773316e-01 -2.84786761e-01  4.57791351e-02
  3.51099223e-01  6.93187043e-02 -2.28660107e-01  2.59037293e-03
 -1.76213965e-01  2.89386697e-02  6.11723959e-02  9.08229947e-02
 -3.09905447e-02  4.22974266e-02 -1.16339482e-01 -1.11640338e-02
  1.49027348e-01 -6.92451075e-02 -4.98838350e-02  2.36981422e-01
  4.57672076e-03  1.20601155e-01  1.87644567e-02  1.25396131e-02
 -3.59358601e-02  1.45808710e-02 -9.16113332e-02 -2.91445758e-02
  3.13688442e-02 -4.22483049e-02  1.03916535e-02  1.05658092e-01
 -1.72957107e-01  9.73903760e-02  1.65392756e-02  5.92248216e-02
  3.46608050e-02  1.17212236e-02 -9.41493139e-02 -1.22872688e-01
  9.77699310e-02 -2.60742962e-01  2.99613953e-01  2.23848253e-01
  3.46056297e-02  1.39498040e-01  7.55942762e-02  3.58542129e-02
 -8.80288333e-03 -7.76259527e-02 -1.52443677e-01  4.12030378e-03
  9.76459906e-02 -8.02897960e-02  7.33830258e-02 -2.12974455e-02]