[-0.1402031   0.1289023   0.06176468 -0.03152945 -0.04069924 -0.07290348
 -0.01663452 -0.17063022  0.16487813 -0.07512582  0.32577363  0.03949702
 -0.18012889 -0.23513997  0.02560341  0.16138579 -0.20793699 -0.15231326
  0.00420571 -0.06703895  0.05989256 -0.02076401  0.05441947  0.04537518
 -0.08537205 -0.3334977  -0.13467208 -0.15609232  0.12782015 -0.03197572
 -0.08951009  0.01158202 -0.17691106 -0.10337007  0.01132865  0.04463815
 -0.00652464 -0.01234574  0.19729708 -0.0388603  -0.17393064  0.00068171
  0.02102364  0.25955719  0.16522048  0.01137595  0.05764915 -0.0740853
  0.08511821 -0.13353592  0.07944579  0.11672322  0.19877043  0.02696562
 -0.0158965  -0.18739976 -0.06695038  0.0921016  -0.16680294  0.0608089
  0.04137302 -0.11806238 -0.09615382 -0.03741204  0.26544908  0.12377276
 -0.1472071  -0.17544433  0.13968389 -0.11984688 -0.03660843  0.0903058
 -0.17272244 -0.13714358 -0.29740256  0.04588858  0.37395212  0.0394232
 -0.21538083  0.00543571 -0.15767355  0.02095504  0.04934572  0.10516643
 -0.0685949   0.05622879 -0.13566183 -0.02958704  0.1582723  -0.07978235
 -0.04155678  0.22566651 -0.00890971  0.135653    0.01562448  0.03197491
 -0.02429393 -0.02522022 -0.09698769 -0.0365293   0.02380911 -0.08002421
 -0.01525352  0.0780341  -0.17061715  0.08610201  0.0553415   0.06569827
  0.01043832  0.00438738 -0.08258653 -0.12006464  0.12993878 -0.24272075
  0.24059586  0.21990566  0.04790322  0.15512653  0.09136219  0.05389608
 -0.04180351 -0.08334028 -0.13827059  0.01125138  0.09845897 -0.06351395
  0.06752893  0.01260255]