[-0.15594758  0.11541779  0.05936317 -0.02443812 -0.0497508  -0.06310835
 -0.0196785  -0.1527587   0.15595125 -0.07376341  0.33652538  0.04934352
 -0.17474069 -0.2163208   0.03608445  0.11739586 -0.18444738 -0.11952323
 -0.01198311 -0.05068129  0.08101048  0.00216938  0.06698736  0.02216366
 -0.10123514 -0.39491448 -0.14392586 -0.14795184  0.1579176  -0.05867688
 -0.07690135 -0.00248867 -0.17314981 -0.12043004  0.03421452  0.05015479
  0.01376736  0.02725928  0.18039595 -0.02585083 -0.17265053  0.0275835
  0.00807937  0.25753066  0.16750804  0.07541706  0.05565443 -0.05822424
  0.06264665 -0.15499634  0.09373513  0.09512838  0.20573854  0.01039426
  0.03047526 -0.16883799 -0.09060374  0.07849554 -0.20102806  0.05229851
  0.03404846 -0.07501648 -0.09503385 -0.02342434  0.24664083  0.12886368
 -0.15312089 -0.16042517  0.15176056 -0.13788325 -0.01286689  0.09435029
 -0.14444141 -0.1372937  -0.25157788  0.05621108  0.36878988  0.05456557
 -0.22311822 -0.02591357 -0.14224736  0.01653305  0.03827734  0.06128265
 -0.05046235  0.03294797 -0.09914647 -0.01502028  0.13161992 -0.05481393
 -0.0300177   0.22997384 -0.0078471   0.14104663  0.01960504  0.05220949
 -0.05334738 -0.02748552 -0.08914936 -0.03154806  0.02860509 -0.03721466
  0.00162292  0.09374137 -0.16907687  0.12979043  0.01284442  0.03376387
  0.01861395  0.00539861 -0.05574246 -0.09742816  0.10939678 -0.27774844
  0.25241554  0.23590159  0.00419506  0.14982383  0.04728477  0.00602985
  0.00117628 -0.0591492  -0.161788   -0.03674412  0.06818779 -0.11433844
  0.03395009 -0.02503162]