[-1.40367776e-01  1.55439183e-01  5.34772240e-02 -1.96471345e-02
 -5.61523624e-02 -5.52805476e-02 -2.28576940e-02 -1.32237539e-01
  1.22594357e-01 -4.70962189e-02  3.29022616e-01  4.46929000e-02
 -1.52371928e-01 -2.11014464e-01 -5.20576444e-03  1.59740672e-01
 -2.29765728e-01 -1.08639359e-01 -4.87044407e-03  1.85932610e-02
  1.04205206e-01  9.84329171e-03  7.29143023e-02  3.83715145e-02
 -7.26166517e-02 -3.84021223e-01 -9.82875526e-02 -9.23174694e-02
  1.17900446e-01 -6.12806864e-02 -8.42984840e-02 -2.25099176e-03
 -2.11799890e-01 -1.17844656e-01  4.57741544e-02  8.86940435e-02
 -5.68862911e-03 -6.97784126e-04  1.75608054e-01 -2.79996730e-02
 -1.90038323e-01  5.04542291e-02  2.92463750e-02  2.69852847e-01
  2.13249281e-01  7.88868144e-02  4.47217785e-02 -1.15521006e-01
  8.32936093e-02 -1.29035980e-01  9.01213512e-02  1.08905636e-01
  1.58343628e-01  1.83535796e-02 -3.15240435e-02 -1.49136260e-01
 -5.39442487e-02  8.60424265e-02 -1.52238235e-01  3.53683606e-02
  7.14264438e-02 -9.39151868e-02 -3.06517817e-02 -2.41104905e-02
  2.43734509e-01  7.39991590e-02 -1.27267569e-01 -1.94999233e-01
  1.49944857e-01 -1.27554953e-01 -6.16719387e-02  5.75761087e-02
 -1.44009084e-01 -1.49227247e-01 -2.86391646e-01  4.12467048e-02
  3.74522716e-01  6.33974150e-02 -2.20477700e-01  1.55074252e-02
 -1.32505447e-01  2.51299981e-02  1.07290581e-01  1.31085619e-01
 -9.16983467e-03  1.36342123e-02 -1.36216253e-01 -1.50540723e-02
  1.98925033e-01 -5.98690398e-02 -6.21314831e-02  2.30032086e-01
 -9.74389201e-04  1.18902817e-01  3.82499769e-02  1.87309645e-02
 -3.34791802e-02  5.94314821e-02 -1.27226561e-01 -2.24895757e-02
  1.35105224e-02 -3.92866842e-02  5.56687999e-04  1.29528865e-01
 -1.42447531e-01  8.99718329e-02  2.05724221e-02  8.86155143e-02
  6.51549026e-02  5.90177951e-03 -1.12465419e-01 -1.34006783e-01
  9.15138870e-02 -2.46986732e-01  2.97718704e-01  2.16391608e-01
  4.50384207e-02  1.30118132e-01  1.24602318e-01  8.01534280e-02
  3.86393964e-02 -4.38818298e-02 -1.79375097e-01 -1.05808675e-03
  9.71964225e-02 -6.38225898e-02  1.00498654e-01  3.85887943e-05]