[-1.52967125e-01  1.53151810e-01  7.01372847e-02 -5.08751022e-03
 -6.35326728e-02 -1.04116298e-01 -2.52187531e-02 -1.49279162e-01
  1.35104656e-01 -6.16608970e-02  3.53092223e-01  6.12211004e-02
 -1.80010542e-01 -2.22198963e-01  1.76509023e-02  1.52870938e-01
 -1.91292450e-01 -1.09412253e-01 -9.33056697e-04 -2.19437364e-03
  1.01154141e-01  7.41405506e-03  8.51628855e-02  3.38408016e-02
 -7.25151971e-02 -3.99070561e-01 -1.27017215e-01 -1.26317501e-01
  1.26602545e-01 -6.36654198e-02 -6.94421753e-02 -1.22638345e-02
 -1.74609199e-01 -1.13952301e-01  3.78206782e-02  3.76439430e-02
 -2.61747278e-03  1.42528145e-02  1.92672193e-01 -1.59285925e-02
 -1.90287083e-01  2.64459699e-02 -1.59578379e-02  2.74936229e-01
  1.66106701e-01  5.05624115e-02  1.02911428e-01 -1.26013801e-01
  5.61286211e-02 -1.32084236e-01  8.96052942e-02  1.03250317e-01
  1.85263962e-01  2.67664203e-03  1.42115382e-02 -1.56612605e-01
 -7.35116079e-02  8.17209259e-02 -1.83505192e-01  4.57795784e-02
  6.81917071e-02 -6.72237203e-02 -8.16424862e-02 -4.32825498e-02
  2.67191589e-01  8.77086148e-02 -1.48556143e-01 -1.81048647e-01
  1.50205359e-01 -1.30705759e-01 -5.14211543e-02  9.03313383e-02
 -1.47865310e-01 -1.54185280e-01 -2.87613958e-01  4.40645553e-02
  3.54217023e-01  6.61779270e-02 -2.31227309e-01  8.11250866e-05
 -1.72475740e-01  2.98857540e-02  4.78771776e-02  9.45186988e-02
 -3.47586088e-02  4.67937514e-02 -1.20641112e-01 -1.36726769e-02
  1.50434852e-01 -7.88868740e-02 -4.08338904e-02  2.36132175e-01
  8.59425217e-03  1.25065252e-01  1.92440152e-02  1.97563060e-02
 -4.53839749e-02  1.36823207e-03 -8.61008167e-02 -3.75622027e-02
  2.61705704e-02 -4.64913994e-02  8.57492443e-03  1.02138199e-01
 -1.78024754e-01  1.12196624e-01  8.22298881e-03  5.39077222e-02
  3.84633839e-02  9.76755004e-03 -8.90941247e-02 -1.22418284e-01
  9.60923359e-02 -2.68519640e-01  2.88415998e-01  2.27266431e-01
  3.77841294e-02  1.37128741e-01  7.32963011e-02  4.13976982e-02
 -1.27608273e-02 -6.51472211e-02 -1.50234431e-01 -5.19312639e-03
  8.91914964e-02 -8.31461474e-02  6.58118427e-02 -2.06689332e-02]