[-0.14230844  0.12668502  0.02583176 -0.01011956 -0.05309138 -0.0583751
 -0.02487044 -0.16393887  0.14980769 -0.06282726  0.32376251  0.05886844
 -0.17215113 -0.21101569  0.01385709  0.14042731 -0.21716884 -0.12716998
  0.01863778 -0.03455841  0.076869   -0.0034703   0.06244824  0.02209533
 -0.06427081 -0.36492038 -0.11566728 -0.12737627  0.13456048 -0.06208759
 -0.08361167 -0.00270609 -0.188639   -0.11442262  0.0390716   0.08368232
 -0.01849878  0.00419021  0.19083302 -0.02168951 -0.1646571   0.01430833
  0.01737993  0.26527697  0.18421149  0.04191045  0.04081434 -0.09785988
  0.04917273 -0.13825113  0.08058109  0.11501493  0.1767267   0.03136666
 -0.02633741 -0.16627857 -0.07389464  0.05863867 -0.17155066  0.04147392
  0.07251348 -0.09042481 -0.09324739 -0.01808531  0.24769954  0.11083867
 -0.14506869 -0.19253685  0.12943278 -0.14581905 -0.06657249  0.06882679
 -0.13471974 -0.16189592 -0.27078611  0.04653074  0.36827686  0.06050619
 -0.21071036  0.00689637 -0.13754515  0.00655176  0.08765333  0.11138346
 -0.01541074  0.03937322 -0.1178176  -0.01224397  0.14085884 -0.06713564
 -0.05951961  0.21540116 -0.01391645  0.14670013  0.03300055  0.06732346
 -0.01704827  0.02862644 -0.11225506 -0.03932677  0.03812101 -0.05039981
  0.01478927  0.10418564 -0.1409319   0.10421226  0.03337166  0.06805477
  0.05690019 -0.00333349 -0.08806361 -0.12057874  0.10783286 -0.27973852
  0.27782676  0.23260252  0.01729363  0.15013497  0.09342386  0.056706
  0.015679   -0.0675774  -0.17893444 -0.00693735  0.04309383 -0.04775979
  0.04919684 -0.00205607]