[-0.13136239  0.13548045  0.07027055 -0.03126128 -0.03888233 -0.07147443
 -0.02236913 -0.17289703  0.16391699 -0.0780485   0.32126969  0.02705587
 -0.1767671  -0.21626571  0.01270667  0.16304339 -0.19905125 -0.14534596
 -0.00427461 -0.0287179   0.06381317 -0.03332194  0.05579758  0.03931428
 -0.07417104 -0.3302924  -0.13267329 -0.14349888  0.13736598 -0.01910768
 -0.10281269 -0.01716524 -0.17498176 -0.10742956  0.01204822  0.04284992
 -0.01999377 -0.01550859  0.1974887  -0.05740155 -0.19594839 -0.00549461
  0.02299957  0.24666432  0.18471579  0.03574208  0.05459682 -0.0880835
  0.08327847 -0.14399983  0.08926245  0.10731994  0.20146731  0.04302701
 -0.01561673 -0.18090774 -0.05522728  0.10722178 -0.15985267  0.04763514
  0.04343354 -0.09529674 -0.07412484 -0.02811299  0.27503896  0.11548189
 -0.15112841 -0.1734169   0.12377793 -0.13425864 -0.0371547   0.0867808
 -0.16170961 -0.14269316 -0.29892367  0.03343498  0.36896348  0.04886049
 -0.21639149  0.00298991 -0.14618151  0.01588728  0.065589    0.10378424
 -0.05894965  0.0482994  -0.13161115 -0.04971875  0.1763784  -0.10222334
 -0.0304545   0.22037335 -0.01068389  0.12117946 -0.00161196  0.03568144
 -0.02336445 -0.00199861 -0.095989   -0.03830669  0.03571604 -0.04834917
 -0.01115776  0.0806682  -0.18530224  0.09453707  0.05040167  0.0716227
  0.03276449 -0.01458492 -0.08209977 -0.12433308  0.13458878 -0.23547433
  0.2459693   0.22021072  0.04709509  0.1407481   0.09929556  0.04583005
 -0.01780349 -0.06831332 -0.14472044  0.01173892  0.10874292 -0.07273549
  0.07804614  0.00842302]