[-1.37585729e-01  1.48399159e-01  4.74811606e-02 -2.16910858e-02
 -5.69833182e-02 -6.04830459e-02 -2.10861582e-02 -1.30935371e-01
  1.32025465e-01 -4.70002145e-02  3.21938246e-01  5.21627329e-02
 -1.49640590e-01 -2.08663389e-01 -9.93601140e-03  1.60157859e-01
 -2.36388683e-01 -1.06970489e-01 -5.96534507e-03  9.99207608e-03
  1.04591899e-01  5.21587534e-03  7.36684725e-02  3.75901125e-02
 -7.30195269e-02 -3.84153157e-01 -9.10753906e-02 -9.62419286e-02
  1.19480565e-01 -5.47857583e-02 -7.92571306e-02  5.00735221e-03
 -2.11409926e-01 -1.21296696e-01  4.46463749e-02  9.32723954e-02
 -9.73213930e-03 -1.35405583e-03  1.79678082e-01 -1.87167693e-02
 -1.88130081e-01  4.87292223e-02  2.41054986e-02  2.69785792e-01
  2.13440537e-01  7.79955015e-02  4.83518951e-02 -1.16880372e-01
  9.04074237e-02 -1.34412169e-01  9.61731002e-02  1.12919606e-01
  1.59202814e-01  1.78447664e-02 -2.30889693e-02 -1.48829207e-01
 -5.21431677e-02  8.91551450e-02 -1.52873322e-01  3.37607972e-02
  7.21915215e-02 -8.87415409e-02 -3.07488926e-02 -2.76898388e-02
  2.38662839e-01  7.78887644e-02 -1.21950150e-01 -1.80862024e-01
  1.58202857e-01 -1.22953057e-01 -6.39006868e-02  4.53789309e-02
 -1.43032059e-01 -1.51167437e-01 -2.83404022e-01  4.37834971e-02
  3.74770284e-01  6.65424019e-02 -2.13035688e-01  1.41613754e-02
 -1.29920378e-01  2.25978978e-02  1.11220896e-01  1.29566222e-01
 -1.12979030e-02  7.75898108e-03 -1.24695614e-01 -1.61368474e-02
  1.92334995e-01 -5.79803474e-02 -6.12594895e-02  2.26056620e-01
 -1.44236570e-03  1.13915838e-01  3.69039550e-02  1.21778529e-02
 -3.44961621e-02  6.73252717e-02 -1.29985347e-01 -2.14339104e-02
  1.47666605e-02 -4.43948880e-02  3.65895405e-03  1.22554712e-01
 -1.45763904e-01  8.03153068e-02  2.28182860e-02  8.35626051e-02
  7.01181293e-02  6.76923385e-03 -1.16042607e-01 -1.37066767e-01
  9.23804194e-02 -2.40669489e-01  3.05142850e-01  2.21419677e-01
  4.28156555e-02  1.36023775e-01  1.23462938e-01  8.01927969e-02
  4.36218157e-02 -4.62107733e-02 -1.77629530e-01 -4.71986823e-05
  9.64592472e-02 -5.70395105e-02  8.96446556e-02  1.47384335e-03]