[-0.13173759  0.13715576  0.06722025 -0.03534979 -0.0662336  -0.09120393
 -0.04754334 -0.13927175  0.16365378 -0.05174125  0.34167489  0.05203102
 -0.17519371 -0.22664905  0.01649212  0.12938268 -0.20944004 -0.10666726
  0.0084192  -0.03360431  0.09684797 -0.00543231  0.07521092  0.04646101
 -0.07459733 -0.40005308 -0.12262733 -0.12904704  0.12444196 -0.07121382
 -0.07161027 -0.0038341  -0.19397248 -0.12802498  0.03319262  0.06071017
 -0.00912366  0.01984225  0.1616126  -0.03184785 -0.16125032  0.02240816
  0.00769085  0.26588807  0.18617974  0.07183596  0.06754326 -0.08389562
  0.07569943 -0.13948855  0.10655639  0.12033302  0.19212444  0.00166877
  0.03144548 -0.15128921 -0.08297922  0.09631916 -0.19191268  0.06949475
  0.05991381 -0.06488025 -0.10866135 -0.03837027  0.2443534   0.12058403
 -0.14851515 -0.18624653  0.12430751 -0.13688652 -0.04399746  0.09897027
 -0.16005383 -0.15235953 -0.27122733  0.03649545  0.37450138  0.04848344
 -0.22698513 -0.01622991 -0.14633249  0.02986642  0.06674009  0.06317205
 -0.03398732  0.03491314 -0.12292761  0.00448069  0.13139033 -0.06576332
 -0.05785211  0.22881155 -0.01073081  0.12608211  0.01261607  0.03170396
 -0.03138433  0.00924374 -0.11290471 -0.0446705   0.04264733 -0.0390327
 -0.01269692  0.06320499 -0.15968256  0.08851353  0.03876827  0.06540708
  0.0361954   0.00441578 -0.12056076 -0.11882942  0.11900486 -0.28609902
  0.29074955  0.22257297  0.03179348  0.13774084  0.05809643  0.02561504
  0.01095031 -0.09106088 -0.12155413 -0.0134359   0.06751362 -0.07137551
  0.06787948 -0.03228835]