[-1.15205884e-01  1.30234316e-01  7.09736422e-02 -2.04955377e-02
 -6.81654587e-02 -7.14411065e-02 -4.98458110e-02 -1.65718824e-01
  1.62925228e-01 -6.02365024e-02  3.32974106e-01  4.32916507e-02
 -1.73145145e-01 -1.96255907e-01 -1.20614311e-02  1.45600304e-01
 -2.20990419e-01 -1.28001750e-01  1.76967643e-02 -3.39625329e-02
  8.11298043e-02  7.20955450e-06  6.38381168e-02  2.73940805e-02
 -7.68959895e-02 -3.63155693e-01 -1.05341651e-01 -1.31765082e-01
  1.02640070e-01 -4.03279178e-02 -8.61468911e-02  1.25478655e-02
 -1.95769757e-01 -1.20780721e-01  4.71952967e-02  5.92784658e-02
 -6.84728194e-03  1.68093927e-02  1.69450656e-01 -5.44974767e-02
 -1.76216587e-01  3.99626233e-02  3.54779735e-02  2.62009442e-01
  1.73399419e-01  5.93624078e-02  4.63145375e-02 -1.08505979e-01
  7.40135983e-02 -1.07792296e-01  9.12636444e-02  1.22313142e-01
  1.76514581e-01  2.83082062e-03  7.74704432e-03 -1.58505484e-01
 -8.00178573e-02  9.12484601e-02 -1.65336296e-01  6.69787824e-02
  8.35009143e-02 -7.82619193e-02 -8.63858461e-02 -5.94612956e-02
  2.45409012e-01  1.04181938e-01 -1.30923703e-01 -2.16687635e-01
  1.19667485e-01 -1.35734990e-01 -8.03619027e-02  8.30678195e-02
 -1.65799290e-01 -1.45577997e-01 -2.85165876e-01  1.33884195e-02
  3.65794897e-01  3.49870510e-02 -2.21860796e-01  1.64485332e-02
 -1.13146417e-01  1.82380062e-02  8.83248672e-02  9.64206681e-02
 -1.22608384e-02  4.97120470e-02 -1.19478144e-01 -2.37079076e-02
  1.67717412e-01 -7.13215247e-02 -6.36859536e-02  2.13057622e-01
 -2.52825115e-02  1.06217705e-01  1.74983144e-02  2.03717519e-02
 -3.05196699e-02  2.96877977e-02 -1.44968480e-01 -4.62115481e-02
  1.47783076e-02 -2.63843127e-02 -1.06061129e-02  8.06594864e-02
 -1.49694562e-01  6.56113923e-02  2.73703393e-02  7.73908794e-02
  3.53000350e-02  7.77019281e-03 -1.15040146e-01 -1.23621285e-01
  1.28394514e-01 -2.71085769e-01  2.87388533e-01  2.02930495e-01
  6.02349229e-02  1.22903407e-01  8.15444142e-02  3.43650654e-02
  9.34838783e-03 -5.36373965e-02 -1.62572145e-01 -1.32983504e-02
  7.77900144e-02 -7.56299123e-02  8.78783762e-02 -5.37717855e-03]