[-7.54123554e-02  9.17950645e-02  6.35695159e-02 -5.74036911e-02
 -7.02282339e-02 -3.99365462e-02 -3.83757837e-02 -1.64828345e-01
  1.78548113e-01 -1.24679588e-01  2.53282309e-01 -4.44398336e-02
 -2.29754925e-01 -1.08891621e-01 -4.07147035e-02  2.58147448e-01
 -2.74079293e-01 -2.05439195e-01 -2.07679961e-02  2.47369241e-02
  6.54077232e-02 -1.75901956e-03 -5.15145669e-03  3.19549218e-02
 -1.68921947e-01 -3.92514676e-01 -1.07133903e-01 -3.25220414e-02
 -2.22206395e-02 -4.63408418e-02 -7.92435780e-02  1.00581728e-01
 -2.01103836e-01 -3.26513462e-02  7.79497772e-02  1.36072159e-01
 -3.66742548e-04 -1.41866714e-01  1.55585155e-01  8.54888465e-03
 -2.95069605e-01  1.03157042e-02  9.45372805e-02  2.30974585e-01
  2.09366664e-01 -5.34224771e-02  2.23185867e-02 -1.27121016e-01
  1.14436105e-01 -1.54906824e-01 -1.90492533e-02  1.71142623e-01
  4.52231169e-02  8.13038349e-02  8.57022591e-03 -1.39289662e-01
 -9.72092338e-03  1.20151103e-01 -1.18982531e-01 -8.12258869e-02
  7.09581673e-02 -1.14145868e-01  2.13088784e-02 -1.10602058e-01
  1.44719988e-01  4.75255810e-02 -1.07559077e-01 -1.80659324e-01
  1.54511377e-01 -1.31873593e-01 -7.06705675e-02  4.67369333e-03
 -1.88251376e-01 -2.07056388e-01 -3.25398564e-01 -5.61432913e-02
  3.45321029e-01  8.99114534e-02 -1.62088856e-01  1.08649373e-01
 -2.25403123e-02 -1.36442035e-02  9.99821573e-02  2.03464702e-01
  7.45927319e-02  1.08769655e-01 -8.27301294e-02  3.91998477e-02
  2.68177837e-01 -6.11262582e-02  7.48781580e-03  2.26829961e-01
 -5.84569685e-02  4.36044633e-02  5.25065847e-02  6.21684687e-03
 -2.69049406e-02  5.29499725e-02 -1.56749740e-01  1.12660816e-02
 -4.10087965e-02 -3.01217567e-02 -2.34824810e-02  1.12724364e-01
 -1.37597784e-01  6.32720739e-02  6.17500432e-02  5.74206486e-02
  4.60885843e-04 -1.88175309e-02 -7.31512457e-02 -9.77451950e-02
  1.10289983e-01 -2.45407462e-01  2.01405957e-01  2.14041427e-01
  1.95204113e-02  1.18527234e-01  7.89435133e-02  7.79586509e-02
 -2.22731661e-02 -6.23258539e-02 -1.92953616e-01 -7.90237077e-03
  7.16401935e-02 -1.56177972e-02  6.80372417e-02 -9.53491312e-03]