[-0.06714279  0.10370121  0.07015596 -0.08417688 -0.11601158 -0.04118421
 -0.06173671 -0.14819735  0.15491281 -0.06526452  0.2495513  -0.03149535
 -0.21718597 -0.11261957 -0.06084846  0.25500035 -0.24898162 -0.17977364
 -0.00259174  0.01845348  0.11490118  0.03254696  0.03388003 -0.00102012
 -0.137982   -0.36320904 -0.09087528 -0.01140313  0.00872576 -0.04396354
 -0.05958458  0.10154977 -0.21212338 -0.04065604  0.10700506  0.13196594
 -0.02363456 -0.1259177   0.13709633 -0.02243916 -0.30145398  0.03632767
  0.12905569  0.22769909  0.2082742  -0.04363587  0.04571981 -0.16249831
  0.1103511  -0.15968965 -0.00153141  0.15077066  0.03933649  0.05415415
  0.00168485 -0.11945923  0.00497133  0.14398615 -0.13180807 -0.03806696
  0.12526448 -0.1358819   0.0011023  -0.12836052  0.15074264  0.0410128
 -0.11715014 -0.24174936  0.0736956  -0.13243298 -0.08942679  0.06975408
 -0.17840187 -0.17832945 -0.34565681 -0.05675817  0.3530933   0.04698826
 -0.15760829  0.10450695  0.00921921  0.01008452  0.10929908  0.20391169
  0.05151411  0.10912731 -0.12852809  0.03362868  0.29348519 -0.11728168
  0.00263302  0.23033886 -0.03091558  0.06846248  0.02149146  0.04687866
 -0.04514998  0.04899962 -0.16179363 -0.00851078 -0.04241068 -0.02300745
 -0.0244962   0.11022242 -0.11353518  0.06052545  0.01677083  0.05741662
 -0.02622825 -0.08690064 -0.05180217 -0.09121979  0.09016382 -0.22055633
  0.20619841  0.20015755  0.06771666  0.09374251  0.10644133  0.05900685
 -0.01616347 -0.05008515 -0.16114604  0.01931398  0.07981189 -0.03587125
  0.08680792 -0.02617103]