[-0.05571174  0.06695833  0.02158074 -0.0846942  -0.07610548 -0.0302675
 -0.04301768 -0.14201848  0.15592201 -0.04791123  0.2088728  -0.05141106
 -0.21181992 -0.12471596 -0.05029294  0.23902857 -0.19604936 -0.20566331
 -0.01436988  0.03834831  0.0927211  -0.00973498 -0.00961285  0.06379662
 -0.14267074 -0.35367382 -0.10745706 -0.04005199  0.0155759  -0.06671964
 -0.08557262  0.10588993 -0.20696555 -0.05037121  0.1091036   0.14582101
  0.00360666 -0.12415806  0.16633892  0.01795329 -0.2859509   0.04957789
  0.07447495  0.24543642  0.18307263 -0.03030298  0.04678438 -0.14586017
  0.11545136 -0.14264722  0.01106949  0.17335492  0.05625195  0.06609413
 -0.01571229 -0.12917563  0.02422808  0.11673246 -0.15305331 -0.03449148
  0.0767731  -0.11211909 -0.01504103 -0.13206682  0.15233026  0.04006005
 -0.10203504 -0.21678925  0.12491311 -0.12619698 -0.05961333  0.04481227
 -0.18572049 -0.17892852 -0.2942102  -0.03100028  0.35892043  0.09278937
 -0.20254984  0.13968973 -0.0357585   0.00478989  0.10403706  0.17292207
  0.05744225  0.12808341 -0.08593663  0.02950548  0.27011406 -0.08175009
  0.02316097  0.21857443 -0.03286112  0.08155105  0.04704167  0.00642134
 -0.01910487  0.05004398 -0.1306587  -0.01635665 -0.00886121 -0.02218748
  0.01612893  0.10422712 -0.15020403  0.08981514  0.04863044  0.06304273
  0.00708499 -0.01773548 -0.06583714 -0.09988102  0.1169012  -0.2507973
  0.21523185  0.19703683  0.05171847  0.07200994  0.09408108  0.08230589
 -0.00862081 -0.05609356 -0.18253581  0.02039366  0.10838111 -0.02552697
  0.07253867 -0.01449788]