[-9.26673934e-02  6.56813830e-02  2.59693097e-02 -8.78477916e-02
 -9.29366276e-02 -3.22716683e-02 -5.71954139e-02 -1.48852721e-01
  1.51230857e-01 -4.07007299e-02  2.25124151e-01 -5.08305430e-02
 -2.11043954e-01 -1.09656788e-01 -6.22359030e-02  2.28851035e-01
 -2.02117130e-01 -1.87346250e-01  1.09197637e-02  1.89690571e-02
  1.00779019e-01  2.38847639e-03 -9.56849940e-03  4.96631153e-02
 -1.38225183e-01 -3.44292074e-01 -1.03265785e-01 -5.81557266e-02
  1.72838662e-02 -6.59021512e-02 -6.97974041e-02  8.40672106e-02
 -2.09798008e-01 -5.85308447e-02  1.25054538e-01  1.60312206e-01
  2.06623529e-03 -1.17880441e-01  1.57654688e-01  4.20994824e-03
 -2.65054524e-01  4.48455289e-02  1.00000583e-01  2.47687057e-01
  1.76254839e-01 -2.39509027e-02  4.22746949e-02 -1.72572732e-01
  1.17980890e-01 -1.29007161e-01  1.37812113e-02  1.64126471e-01
  7.17753693e-02  6.23259842e-02 -1.09845418e-02 -1.24452628e-01
  3.14307325e-02  1.29650950e-01 -1.58100292e-01 -2.56942268e-02
  1.06086209e-01 -9.57479998e-02 -1.47273978e-02 -1.26965106e-01
  1.70995653e-01  3.48145552e-02 -1.16424702e-01 -1.99658975e-01
  1.19160511e-01 -1.13163613e-01 -6.91340938e-02  4.73020077e-02
 -1.86766729e-01 -1.91876516e-01 -2.85881251e-01 -1.77338719e-02
  3.90497923e-01  8.65182206e-02 -1.94700345e-01  1.33660704e-01
 -3.26594561e-02  2.75600888e-03  1.11726202e-01  1.83217168e-01
  6.00738898e-02  1.06046557e-01 -6.73176721e-02  3.05713899e-02
  2.70072848e-01 -8.20187107e-02  3.07645928e-02  1.98774979e-01
 -2.84719020e-02  8.09606612e-02  4.05630171e-02  1.35849537e-02
 -2.67376062e-02  4.67728786e-02 -1.30670220e-01 -2.46293005e-02
 -4.14529815e-02 -2.60868724e-02  2.31694560e-02  1.02281787e-01
 -1.59178540e-01  7.81715512e-02  5.74666634e-02  3.76161635e-02
 -1.98875743e-04 -2.58578006e-02 -4.12048288e-02 -9.36239287e-02
  1.08161919e-01 -2.66584128e-01  2.27092028e-01  1.97097406e-01
  6.19809814e-02  9.69709903e-02  8.56695622e-02  8.24370310e-02
  6.83011999e-03 -4.72425930e-02 -1.71113640e-01  1.80694107e-02
  8.88163969e-02 -2.57659499e-02  7.53147528e-02 -2.38748286e-02]