[-0.07813825  0.05274889  0.03584464 -0.04724106 -0.04688454 -0.07393709
 -0.03285141 -0.1676918   0.14299451 -0.05140409  0.24350107 -0.0589357
 -0.19771092 -0.12918481 -0.0252386   0.2250706  -0.20392357 -0.17738533
 -0.02466049  0.02103001  0.0896919   0.00225853  0.02483592  0.03438553
 -0.13102861 -0.35894966 -0.09515549 -0.06680928  0.0217316  -0.03495958
 -0.07317792  0.07416761 -0.22019987 -0.07762203  0.10118832  0.11538935
 -0.01098244 -0.09322815  0.18633954 -0.01313212 -0.26965579  0.03556555
  0.1080904   0.23958902  0.16612919 -0.0033449   0.04182264 -0.14499836
  0.09500096 -0.14177862  0.03148675  0.12823024  0.07560763  0.06412261
 -0.00962649 -0.13046934  0.01158809  0.11710955 -0.14924525  0.00816602
  0.11145375 -0.09405809 -0.0389344  -0.09136554  0.17996682  0.03043829
 -0.1184288  -0.16562016  0.08320598 -0.1165261  -0.05705062  0.04530447
 -0.16968299 -0.20490126 -0.30896321 -0.02108305  0.3589929   0.0518276
 -0.21117087  0.09982866 -0.00761371  0.01546193  0.14577402  0.17086452
  0.05354897  0.11394902 -0.09111563  0.0253235   0.25367984 -0.0846149
  0.00828556  0.22224569 -0.03507505  0.06694061  0.03399582  0.0361358
 -0.01425657  0.03250346 -0.15083142 -0.01858297  0.02553045 -0.00146985
  0.00304894  0.08344549 -0.14530247  0.07598076  0.05155623  0.04914316
  0.02783045 -0.02917405 -0.05763732 -0.11282875  0.09087189 -0.22732508
  0.21248293  0.20104949  0.03956718  0.09831404  0.07676371  0.06359693
 -0.00311693 -0.02082942 -0.18964462  0.0134197   0.1078459  -0.00163024
  0.09265556 -0.0176782 ]