[-1.46340551e-02  2.97438689e-02 -1.10148415e-02 -5.36604188e-02
 -7.44235739e-02 -1.53731918e-02 -1.03555468e-03 -1.30363271e-01
  1.83764249e-01 -1.26041636e-01  1.68163538e-01 -4.14660834e-02
 -2.46641144e-01 -6.01768754e-02 -2.34570224e-02  2.20399529e-01
 -2.19503552e-01 -1.53613254e-01 -5.83729744e-02  4.12775688e-02
  4.67313714e-02  3.43475267e-02  1.89753529e-02  3.65027450e-02
 -1.31295055e-01 -3.31267416e-01 -1.05041817e-01 -6.47998452e-02
  2.28049103e-02 -7.51982927e-02 -9.57976952e-02  6.94504604e-02
 -1.63255274e-01 -4.86895815e-02  6.93829730e-02  7.87411705e-02
 -4.71445099e-02 -1.39703423e-01  1.66043386e-01  8.86001363e-02
 -2.89915293e-01 -2.02594115e-03  4.89095338e-02  2.60508209e-01
  1.97577551e-01 -2.24987175e-02  1.25402184e-02 -1.55975163e-01
  1.49546206e-01 -2.19952151e-01  8.87273718e-03  1.12856440e-01
  2.67870408e-02  9.69007388e-02  2.13216972e-02 -1.16837099e-01
  3.11756134e-02  1.15119614e-01 -1.72071129e-01 -8.96064192e-03
  8.32834914e-02 -4.92224507e-02  1.40269594e-02 -6.82557002e-02
  1.88031420e-01  7.60299042e-02 -1.00979619e-01 -1.67441562e-01
  1.38064504e-01 -1.82031021e-01 -9.13826749e-02  2.36957427e-02
 -1.26146570e-01 -1.88290924e-01 -2.60551929e-01 -7.06490800e-02
  3.58802289e-01  1.02375112e-01 -1.67939231e-01  7.48838931e-02
 -4.12746109e-02 -3.94674689e-02  1.62678167e-01  2.04062700e-01
  6.53178692e-02  8.73933956e-02 -5.04991189e-02 -5.37704863e-03
  2.81301677e-01 -1.01983860e-01  6.19571749e-03  2.48023823e-01
 -1.28519088e-02  3.28648053e-02  7.78317377e-02  2.27489322e-02
 -6.38090149e-02  3.82570066e-02 -1.53615922e-01 -4.59562242e-02
  1.32191284e-02 -4.78542708e-02  5.35675278e-03  1.06937967e-01
 -1.41989872e-01  1.58630550e-01  5.30742817e-02  2.61898488e-02
  6.84206486e-02 -4.55429032e-02 -6.73270822e-02 -8.52006227e-02
  1.15034156e-01 -2.36559302e-01  2.02231273e-01  1.69516847e-01
  3.04006878e-02  8.40302035e-02  3.16554867e-02  8.78561884e-02
 -2.19330639e-02 -2.16180664e-02 -1.91383451e-01 -1.45749971e-02
  8.55797976e-02 -2.69727403e-04  3.34635787e-02 -3.81569713e-02]