[-9.48863328e-02  5.69291823e-02  3.81818344e-03 -6.00413568e-02
 -6.56647906e-02 -3.40185650e-02 -6.70321882e-02 -1.57930836e-01
  1.47564963e-01 -7.14965686e-02  2.40360245e-01 -6.44999892e-02
 -2.25389346e-01 -9.32342634e-02 -7.32683986e-02  2.49993727e-01
 -2.26424456e-01 -1.97802693e-01  7.87718501e-03  7.58737931e-03
  9.30624828e-02 -2.14465335e-03 -2.12388020e-02  4.38740663e-02
 -1.45449147e-01 -3.24778706e-01 -9.70200822e-02 -6.37577027e-02
  1.77477568e-03 -4.67233136e-02 -7.86147490e-02  4.33401056e-02
 -2.06533715e-01 -3.71416770e-02  9.11388472e-02  1.29157022e-01
 -4.77316184e-03 -1.16593733e-01  1.80985078e-01  9.20465868e-03
 -2.73544282e-01  2.70157456e-02  1.28695354e-01  2.58854508e-01
  1.59396693e-01 -1.36199566e-02  2.75672763e-03 -1.30277112e-01
  1.16969049e-01 -1.68795124e-01  2.09666844e-02  1.47600442e-01
  6.97683096e-02  7.56551996e-02 -9.94151086e-03 -1.16796851e-01
  1.76119469e-02  1.52392730e-01 -1.37248874e-01 -8.97559244e-03
  9.49957892e-02 -8.31394941e-02 -8.26383475e-03 -1.02452457e-01
  1.92831099e-01  6.55204281e-02 -1.27295241e-01 -1.59980252e-01
  9.56211239e-02 -1.07888043e-01 -9.43443775e-02  2.69741323e-02
 -1.61287695e-01 -2.03325346e-01 -3.08288902e-01 -2.22942606e-02
  3.83115888e-01  4.37822007e-02 -1.89943463e-01  1.10639684e-01
  2.71750148e-02 -1.72006302e-02  1.70709342e-01  1.74716800e-01
  7.10561872e-02  7.24313557e-02 -9.33642685e-02  1.37704853e-02
  3.00068080e-01 -8.73806328e-02  2.12230776e-02  1.86253056e-01
 -4.87891361e-02  6.07206896e-02  3.36883180e-02  7.49677941e-02
 -2.45113652e-02  4.21425067e-02 -1.40178099e-01 -6.41597202e-03
 -3.17613798e-04 -5.52828750e-03 -2.18830593e-02  8.18066970e-02
 -1.34442940e-01  5.78389354e-02  8.24319646e-02  2.76743770e-02
  4.59441263e-03 -2.51476448e-02 -6.10312335e-02 -8.17348883e-02
  9.45257097e-02 -2.34844074e-01  2.40932345e-01  1.81770086e-01
  3.47175077e-02  9.25050899e-02  8.20229277e-02  5.04242554e-02
 -3.63630662e-03 -4.23378907e-02 -1.93477750e-01 -2.56928634e-02
  9.09506530e-02 -1.29793705e-02  8.40988904e-02 -2.02244781e-02]