[-0.06680023  0.05086881  0.04814783 -0.04177333 -0.07173797 -0.03413412
 -0.03232795 -0.15376972  0.15421245 -0.09255382  0.24375808 -0.05433644
 -0.21273127 -0.11009412 -0.02707645  0.2572915  -0.22301817 -0.18748794
 -0.0151722   0.04397072  0.07639159 -0.01675392  0.00739037  0.04237611
 -0.15450047 -0.35385826 -0.08809303 -0.04046311 -0.02599975 -0.05398709
 -0.11689939  0.10909965 -0.20641039 -0.04194959  0.1089492   0.15385719
 -0.0051002  -0.10652256  0.15131995  0.0274295  -0.28712961  0.03076475
  0.11015325  0.25207371  0.21231787 -0.04091233  0.01139411 -0.12943999
  0.14176558 -0.18111908  0.00515493  0.1415419   0.08509453  0.07011607
 -0.00118085 -0.14659272  0.01435813  0.1263904  -0.13921212 -0.02669643
  0.07728829 -0.11366421 -0.00507485 -0.10608845  0.16392151  0.05050618
 -0.1153819  -0.18309222  0.09464198 -0.11181109 -0.0534104   0.02262617
 -0.21079372 -0.21784993 -0.32414582 -0.04410883  0.34638771  0.05962818
 -0.1850642   0.12378315 -0.00827464  0.00057298  0.09885533  0.20442854
  0.08286818  0.11296709 -0.07907167  0.0285809   0.2637212  -0.10696071
  0.03458115  0.22944765 -0.06484449  0.04686693  0.0305016  -0.00312244
 -0.02142292  0.0442218  -0.16259241 -0.02663007 -0.05993649 -0.04881032
 -0.0010581   0.08316562 -0.19344229  0.05008981  0.0506779   0.05739808
  0.01929541 -0.04883086 -0.07259741 -0.09747519  0.09209544 -0.26512501
  0.20667239  0.22010505  0.05364464  0.09409514  0.06839509  0.0613117
  0.00593167 -0.0155916  -0.16806667  0.03449263  0.09028199 -0.01785174
  0.04033472 -0.02102019]