[-0.09900896  0.07288929  0.05830821 -0.05151583 -0.0800958  -0.02570899
 -0.04200473 -0.16427223  0.16141042 -0.09541541  0.22265933 -0.04378311
 -0.21823953 -0.11383615 -0.02814813  0.24875008 -0.2303845  -0.17806804
 -0.01822526  0.02905771  0.07170471  0.01572259  0.03467453  0.04035985
 -0.13095875 -0.39654684 -0.07691376 -0.03768861 -0.03830623 -0.04138342
 -0.0898304   0.09047521 -0.21317255 -0.03958588  0.0845567   0.13180929
 -0.01067739 -0.10297946  0.15392235  0.00490476 -0.29023942  0.02689971
  0.09079266  0.24361317  0.19598223 -0.04976837  0.01576204 -0.1175607
  0.11973088 -0.17050295 -0.02131222  0.14624561  0.03898592  0.02814598
 -0.00695926 -0.1469688  -0.0108852   0.11742218 -0.09916528 -0.03483588
  0.06922666 -0.12332945 -0.03325685 -0.10103146  0.16569871  0.03155176
 -0.11286783 -0.18869877  0.08948915 -0.09165557 -0.03250127  0.02921669
 -0.21335979 -0.22220519 -0.29882708 -0.02482121  0.36141667  0.03381644
 -0.18572144  0.11777145 -0.03065845  0.03234405  0.09973399  0.20084916
  0.07247496  0.11576791 -0.08686537  0.03919847  0.24177031 -0.09699515
  0.00982921  0.24562733 -0.04821759  0.05925827  0.04053487 -0.00410165
 -0.01280487  0.0465041  -0.17058137 -0.01332523 -0.00155168 -0.04693925
 -0.00446593  0.08941203 -0.18470116  0.05268347  0.0528928   0.06419876
  0.05149589 -0.03125219 -0.08286081 -0.11430516  0.10581944 -0.24876057
  0.19909202  0.23205054  0.0487965   0.12289435  0.08045411  0.06179369
  0.00182428  0.00584373 -0.17300022  0.03187452  0.10713965 -0.00980185
  0.03821319 -0.02415576]