[-3.70511562e-02  5.51253818e-02  3.11591811e-02 -6.70986176e-02
 -6.98654875e-02 -4.28356277e-03 -2.69207004e-02 -1.42310306e-01
  2.11425781e-01 -1.06904745e-01  1.82504311e-01 -1.40916556e-04
 -2.29152873e-01 -3.45594361e-02 -3.63495685e-02  1.92587048e-01
 -2.36263976e-01 -1.70275733e-01 -3.04764807e-02  4.23786081e-02
  5.28969727e-02  3.83423059e-03  3.84511575e-02  2.23735627e-02
 -1.75626710e-01 -3.43271822e-01 -1.03657953e-01 -6.80515319e-02
  4.15095799e-02 -8.17856118e-02 -5.99896573e-02  5.63847423e-02
 -1.79720327e-01  8.15026648e-03  4.70076315e-02  4.65154760e-02
 -3.56474891e-02 -1.30715832e-01  1.85871616e-01  1.03932314e-01
 -3.01103801e-01 -3.31251994e-02  2.86904220e-02  2.57187307e-01
  2.27161244e-01 -4.58652452e-02  2.03390960e-02 -1.31058693e-01
  1.60456762e-01 -2.46867731e-01 -1.88816339e-02  1.47842973e-01
  2.93995347e-02  8.18134174e-02  3.51341181e-02 -1.14428952e-01
  2.91185807e-02  1.20611265e-01 -1.88293979e-01  8.45555973e-04
  5.05005717e-02 -5.64832464e-02  7.27167865e-03 -4.35147695e-02
  1.90830916e-01  1.08538903e-01 -1.09070495e-01 -1.69397742e-01
  1.39019445e-01 -1.56357959e-01 -7.85280764e-02  2.41087340e-02
 -1.40287653e-01 -1.99192986e-01 -2.68336743e-01 -8.97558257e-02
  3.28761667e-01  8.19288120e-02 -1.65057942e-01  9.75342914e-02
 -6.43909946e-02 -2.83910464e-02  1.01935603e-01  1.80269122e-01
  8.03091377e-03  1.07183777e-01 -5.47157824e-02 -1.99667178e-04
  2.76176304e-01 -9.80839133e-02  2.80523747e-02  2.61178106e-01
 -4.33172435e-02  2.46726125e-02  5.53458333e-02  4.25491519e-02
 -9.19128433e-02  2.74854209e-02 -1.55771956e-01 -7.20885321e-02
  1.53670749e-02 -1.77016817e-02  2.74416655e-02  1.22366406e-01
 -1.98374987e-01  1.48790658e-01  4.46097665e-02  9.51567292e-03
  5.14412038e-02 -6.41129538e-02 -4.96599562e-02 -7.72070587e-02
  1.09541252e-01 -2.47893378e-01  2.16823176e-01  1.84689909e-01
  2.49653906e-02  7.93501139e-02  3.68798636e-02  2.47973930e-02
 -2.61513628e-02 -4.97771520e-03 -1.39359340e-01  5.12890510e-05
  5.61661683e-02 -2.55038980e-02 -2.88195512e-03 -5.11534810e-02]