[-9.00869966e-02  5.74819557e-02  6.33599842e-03 -5.82459234e-02
 -6.02804683e-02 -4.18846086e-02 -4.22922112e-02 -1.75662979e-01
  1.50475055e-01 -7.29196891e-02  2.25697637e-01 -7.87516013e-02
 -2.05237076e-01 -1.06923677e-01 -7.11117089e-02  2.43086651e-01
 -2.25382283e-01 -2.02448368e-01 -5.30231511e-03  4.34716372e-03
  1.14573024e-01 -3.80904670e-03 -1.83446668e-02  5.45299314e-02
 -1.62139818e-01 -3.27156544e-01 -1.02192163e-01 -6.31695166e-02
  3.79559584e-04 -5.87872379e-02 -6.71820194e-02  5.46812713e-02
 -2.29923278e-01 -3.45022827e-02  8.35890844e-02  1.21525705e-01
  4.72672610e-03 -1.07682660e-01  1.79225728e-01  8.02306086e-03
 -2.61219680e-01  4.11867872e-02  1.12715937e-01  2.51414746e-01
  1.57430753e-01 -2.78961044e-02  1.76935159e-02 -1.27235040e-01
  1.26451343e-01 -1.56944379e-01 -2.76137888e-03  1.50997296e-01
  6.61839843e-02  7.80943856e-02 -2.64285095e-02 -1.06828690e-01
  1.44672021e-02  1.43691644e-01 -1.37382939e-01  1.09087480e-02
  9.79438946e-02 -1.07237794e-01 -3.64538841e-02 -9.12006423e-02
  1.62904844e-01  4.27139774e-02 -1.17222898e-01 -1.86171398e-01
  8.28288123e-02 -1.24837041e-01 -7.90934488e-02  3.38715352e-02
 -1.67517349e-01 -2.05824643e-01 -3.11736137e-01 -2.23848224e-02
  3.69952410e-01  5.15058599e-02 -1.99321508e-01  1.18098818e-01
  9.90294106e-03  1.72303375e-02  1.58439711e-01  1.74050316e-01
  7.24852011e-02  1.08211219e-01 -1.01870552e-01  4.24828306e-02
  2.82551825e-01 -9.27977115e-02  2.19677668e-02  2.20442966e-01
 -4.48541306e-02  6.87441751e-02  2.08324920e-02  5.06423302e-02
 -2.04058718e-02  3.96892130e-02 -1.17539905e-01  1.74549219e-04
  1.66297648e-02  1.43417241e-02 -7.37471087e-03  7.99332261e-02
 -1.32734463e-01  7.47699142e-02  5.15102260e-02  4.59380560e-02
 -7.28367642e-03 -3.33890058e-02 -6.53045774e-02 -8.40877816e-02
  8.85357112e-02 -2.36237481e-01  2.13956639e-01  1.97801992e-01
  1.89178046e-02  8.40243921e-02  7.39290863e-02  4.90664057e-02
 -2.69924337e-03 -2.50033382e-02 -1.92362070e-01 -5.01526380e-03
  1.02100335e-01 -9.34878271e-03  7.09969252e-02 -3.67381424e-02]