[-7.60767907e-02  9.45382640e-02  6.94127381e-02 -7.50290304e-02
 -6.75024390e-02 -4.16838564e-02 -3.75882313e-02 -1.53069690e-01
  1.72865018e-01 -7.16209486e-02  2.55068839e-01 -2.51173265e-02
 -2.29120210e-01 -1.13005213e-01 -4.92839813e-02  2.61082321e-01
 -2.46470124e-01 -1.89705044e-01 -4.04581428e-04  4.05233987e-02
  5.47667406e-02 -8.99669423e-04  3.86481062e-02  3.01071592e-02
 -1.39997572e-01 -3.84036541e-01 -1.18130259e-01 -3.56467143e-02
 -3.37127931e-02 -4.55484614e-02 -5.79292364e-02  1.05425157e-01
 -2.13695839e-01 -2.68663261e-02  7.86830559e-02  1.11173712e-01
 -3.32355499e-03 -1.44865409e-01  1.59145921e-01  4.85344268e-02
 -2.95808762e-01  1.02679972e-02  8.88614431e-02  2.40659580e-01
  1.95138022e-01 -7.06694946e-02  4.32664566e-02 -1.28908500e-01
  1.00578144e-01 -1.42780051e-01  3.70568043e-04  1.54161453e-01
  2.02264115e-02  5.38203008e-02 -1.46641582e-03 -1.31850272e-01
  2.11842362e-05  1.22644059e-01 -1.26077026e-01 -5.01835719e-02
  7.36270472e-02 -8.37542191e-02 -1.61184948e-02 -1.10856630e-01
  1.43600866e-01  8.14973041e-02 -1.10733248e-01 -2.16127276e-01
  1.41919553e-01 -1.13920622e-01 -6.92219362e-02  4.31996994e-02
 -2.04385877e-01 -1.97044939e-01 -3.13445807e-01 -4.47097532e-02
  3.36053133e-01  4.13116701e-02 -1.75771371e-01  8.91342163e-02
 -2.02040728e-02 -1.04504917e-02  8.56400430e-02  2.19927818e-01
  6.61887079e-02  1.29137918e-01 -8.70490521e-02  8.51603504e-03
  2.74091691e-01 -5.96045367e-02 -1.61306150e-02  2.46580526e-01
 -5.70404939e-02  4.32894938e-02  5.74456453e-02  2.62032300e-02
 -6.58845901e-03  4.15178239e-02 -1.80720061e-01 -1.62960086e-02
 -4.21135649e-02 -4.95038070e-02 -5.96029870e-02  1.08288646e-01
 -1.49332672e-01  5.22927903e-02  6.68686926e-02  5.03158569e-02
 -9.33958124e-03 -3.14274989e-02 -7.14581236e-02 -9.60900262e-02
  1.09777622e-01 -2.32365474e-01  2.14489266e-01  2.09939763e-01
  4.64461967e-02  8.27674940e-02  8.53877813e-02  7.08259493e-02
 -1.85051002e-02 -5.70906289e-02 -1.61626920e-01  7.67808873e-03
  7.03433752e-02 -2.18557995e-02  4.59981672e-02 -2.13066824e-02]