[-8.89281109e-02  4.73667234e-02  1.59712955e-02 -8.71395692e-02
 -7.51308426e-02 -2.27181092e-02 -3.72022726e-02 -1.59449607e-01
  1.89116880e-01 -1.17709808e-01  1.93433344e-01 -7.07660466e-02
 -2.04803824e-01 -5.79639263e-02 -3.20333205e-02  2.39193752e-01
 -2.36574441e-01 -1.63947538e-01 -4.17306982e-02  1.74777961e-04
  6.63572773e-02  3.67153212e-02  1.16222221e-02  3.90526690e-02
 -1.27953008e-01 -3.51706684e-01 -1.03193320e-01 -6.40955344e-02
  4.42733355e-02 -4.39583473e-02 -9.17964280e-02  4.17153761e-02
 -1.85200080e-01 -5.65815158e-02  6.42622039e-02  1.15865685e-01
 -2.24590376e-02 -1.46271989e-01  1.62575141e-01  5.56671917e-02
 -2.56947160e-01  1.82853583e-02  5.81084788e-02  2.51739472e-01
  1.95388347e-01 -2.76426356e-02  1.79758947e-02 -1.40548989e-01
  1.37316629e-01 -2.04956368e-01 -4.09856848e-02  1.20779417e-01
  2.21029408e-02  8.21461901e-02 -4.45251400e-03 -9.58669111e-02
  3.65914740e-02  1.40860662e-01 -1.49989679e-01 -1.60050485e-02
  1.05813645e-01 -7.57859573e-02 -9.69244260e-03 -7.48810917e-02
  2.14633420e-01  7.89432973e-02 -1.21546842e-01 -1.77317977e-01
  7.64093548e-02 -1.15170434e-01 -9.85227749e-02 -5.46786934e-04
 -1.63094550e-01 -1.69460282e-01 -2.87983835e-01 -4.11573164e-02
  3.80713791e-01  6.13163598e-02 -1.69172451e-01  9.70777199e-02
 -4.73851636e-02  8.76143295e-03  1.60152957e-01  1.80232733e-01
  4.97068837e-02  6.95167780e-02 -7.02891797e-02  1.59974378e-02
  2.59828418e-01 -9.64390710e-02  1.71121042e-02  2.24849492e-01
 -3.82503867e-02  8.47897604e-02  2.49738526e-02  5.79370148e-02
 -7.22870305e-02  5.28930388e-02 -1.15986042e-01 -3.00919414e-02
  5.52748218e-02  1.49933426e-02  3.46892737e-02  1.17662035e-01
 -1.57887161e-01  1.37141585e-01  3.25718895e-02  5.13741672e-02
  7.09302053e-02 -4.78134714e-02 -4.30857949e-02 -6.52182475e-02
  1.02892831e-01 -2.27814674e-01  1.86932236e-01  2.12635070e-01
  1.61292460e-02  9.38934311e-02  7.50332400e-02  4.47375290e-02
 -2.12675594e-02  2.99311932e-02 -2.11161181e-01  3.77640431e-03
  8.41033980e-02  5.92510775e-03  3.82770784e-02 -2.35252064e-02]