[-8.22134614e-02  7.04642013e-02  5.38668893e-02 -7.49585032e-02
 -9.58169326e-02 -7.87043758e-03 -7.21398741e-02 -1.18143223e-01
  1.34548873e-01 -3.74155454e-02  2.55477011e-01  3.82370315e-03
 -1.84301674e-01 -8.84539187e-02 -5.17756455e-02  2.14174539e-01
 -1.89080283e-01 -1.66035667e-01 -5.75998891e-03  4.74926792e-02
  6.88593313e-02  3.99331376e-02  3.51127959e-03  1.94475148e-02
 -1.27877325e-01 -3.35130423e-01 -9.81608033e-02 -3.61564904e-02
  3.17339860e-02 -6.30263761e-02 -1.11674570e-01  6.89794794e-02
 -1.86379224e-01 -6.10678904e-02  1.09299563e-01  1.42942473e-01
 -9.17720143e-03 -1.15316056e-01  1.62677556e-01  2.21840423e-02
 -2.84099907e-01  7.76929557e-02  9.38261524e-02  2.61308074e-01
  2.00599417e-01 -1.78086795e-02  3.72113101e-02 -1.39119595e-01
  1.04860358e-01 -1.65999502e-01  3.64686027e-02  1.42550051e-01
  6.17886782e-02  6.38838932e-02 -3.76980789e-02 -1.11184023e-01
  3.91871063e-03  1.31600723e-01 -1.52061105e-01 -1.07366894e-03
  1.03163622e-01 -9.63452384e-02  7.56879477e-03 -1.09028630e-01
  1.68506354e-01  7.95841143e-02 -1.30759194e-01 -2.04064086e-01
  8.01455006e-02 -1.16965190e-01 -1.05031006e-01  4.83857952e-02
 -1.75788656e-01 -1.73711821e-01 -3.05268973e-01 -8.14975332e-03
  3.91230911e-01  6.41983300e-02 -1.98226929e-01  9.94310975e-02
 -2.50852108e-02 -1.49792824e-02  1.09563842e-01  1.69245899e-01
  4.12576422e-02  8.79148394e-02 -8.87183920e-02  8.64374172e-03
  3.18161756e-01 -5.48481755e-02 -2.45905202e-03  2.04800993e-01
 -1.86655968e-02  7.92785287e-02  6.09903000e-02  9.85850468e-02
 -1.01508442e-02  2.00989880e-02 -1.49017841e-01 -1.82247069e-02
 -2.35306304e-02 -5.37923537e-02  1.47600469e-04  1.28447771e-01
 -1.63468271e-01  1.17581367e-01  4.40404788e-02  5.47377579e-02
  3.44724394e-02 -2.24290788e-02 -4.38751653e-02 -7.56247267e-02
  1.16250515e-01 -2.34267429e-01  2.34809205e-01  1.92024887e-01
  7.97108412e-02  8.44072178e-02  1.12269662e-01  6.15476072e-02
 -1.65545624e-02 -3.24236229e-02 -1.67851642e-01 -2.63739228e-02
  7.04113096e-02 -2.37721037e-02  1.13449097e-01  1.29265655e-02]