[ 6.39165891e-03  4.70959209e-02  1.04694469e-02 -3.59126963e-02
 -4.83528338e-02  1.37144094e-02 -1.30753191e-02 -1.25353351e-01
  1.91535696e-01 -1.15309469e-01  2.07285076e-01 -1.31443860e-02
 -2.23777011e-01 -6.67973384e-02 -1.62329059e-02  2.08926916e-01
 -2.02825353e-01 -1.45230994e-01 -7.34070167e-02  3.43854837e-02
 -1.37690722e-03  1.48115754e-02  3.03816684e-02  6.60444656e-03
 -1.29523322e-01 -3.43258351e-01 -9.38832387e-02 -6.82313368e-02
  2.06743944e-02 -7.61772618e-02 -1.10430799e-01  1.15048669e-01
 -1.53667375e-01 -3.02222464e-02  6.98526949e-02  8.67806897e-02
 -5.46652861e-02 -1.00393847e-01  1.76531091e-01  9.13355276e-02
 -2.62314290e-01 -3.40837352e-02  3.82041633e-02  2.41325617e-01
  2.21015126e-01 -1.96747221e-02  1.96928880e-03 -1.37007236e-01
  1.41315147e-01 -2.31902912e-01  1.14271063e-02  1.13224052e-01
  4.25618589e-02  1.15817778e-01  3.50577906e-02 -9.93494168e-02
  1.86160300e-02  1.02435686e-01 -1.49609014e-01 -2.03174856e-02
  3.49211097e-02 -1.07576564e-01 -1.87782776e-02 -6.50914386e-02
  1.67183340e-01  1.05191402e-01 -7.37667307e-02 -1.49308980e-01
  1.60806984e-01 -1.65953442e-01 -1.01091757e-01  2.37331167e-02
 -1.09300904e-01 -1.84830531e-01 -2.83088416e-01 -6.34603649e-02
  3.46386403e-01  1.07036427e-01 -1.83852479e-01  4.78476845e-02
 -4.70575830e-03 -6.54861704e-02  1.46850064e-01  1.91636220e-01
  2.72711944e-02  5.60011342e-02 -4.56721745e-02 -1.81279033e-02
  2.77087539e-01 -1.01959422e-01  1.27162812e-02  2.17599079e-01
 -4.27972265e-02  5.55142537e-02  7.23212585e-02  3.42914574e-02
 -3.29422243e-02  3.52156721e-02 -1.75573602e-01 -5.24817705e-02
  1.37707880e-02 -5.09352349e-02 -1.13725560e-02  1.08262680e-01
 -1.49697721e-01  1.20855406e-01  4.94021364e-02  7.18973606e-05
  9.13087353e-02 -4.77055386e-02 -4.00287472e-02 -1.05645381e-01
  1.26423940e-01 -2.30529740e-01  1.83332369e-01  1.87643752e-01
  5.19282767e-04  9.17590261e-02  2.46001091e-02  1.02540612e-01
 -2.66428087e-02 -3.90644968e-02 -1.83014289e-01 -2.82326341e-02
  7.44068548e-02  2.04426032e-02 -2.52853576e-02 -4.42409292e-02]