[-0.0584809   0.05345201  0.04359868 -0.06926351 -0.0602289  -0.03058576
 -0.03637212 -0.18453908  0.16413143 -0.10201118  0.25568488 -0.04932223
 -0.23107091 -0.1225874  -0.05712083  0.27750826 -0.24786167 -0.19422953
 -0.02162021  0.03355203  0.06596639 -0.0135956   0.02319831  0.04011074
 -0.13912608 -0.34280804 -0.08606762 -0.04425595 -0.03549622 -0.04798295
 -0.08617388  0.08024319 -0.19223356 -0.0236236   0.10066985  0.10682344
 -0.00371028 -0.12634183  0.17006867  0.01426787 -0.28714386  0.03348298
  0.11076802  0.23950756  0.17699876 -0.06529551  0.01977753 -0.16428654
  0.14290665 -0.17347826 -0.018341    0.13102962  0.05773338  0.04393451
 -0.00507267 -0.13551842  0.00196979  0.13760902 -0.12261655 -0.01934878
  0.08660691 -0.10898872 -0.03757184 -0.12147947  0.14965291  0.0598609
 -0.12854347 -0.20085502  0.08329628 -0.09875465 -0.06807575  0.0130018
 -0.19342752 -0.21750017 -0.30715078 -0.06294015  0.34676751  0.0510254
 -0.20088044  0.12014943 -0.00777744  0.01736641  0.11764373  0.210241
  0.07091033  0.12762584 -0.08423081  0.0235981   0.25186029 -0.11663536
  0.02729042  0.24046509 -0.0599788   0.06630792  0.02952232 -0.00103591
 -0.03063924  0.06096161 -0.17565601 -0.01687954 -0.03126168 -0.01184159
  0.0165498   0.06150277 -0.15101643  0.05305741  0.06121793  0.05530623
  0.03556652 -0.03558753 -0.06574558 -0.10353436  0.09252767 -0.23932903
  0.20521235  0.20654504  0.0709829   0.09193661  0.09620809  0.05877869
 -0.00359732 -0.0072655  -0.16841127  0.03847639  0.09695563 -0.01840212
  0.06220499 -0.03875137]