[-5.74292317e-02  8.95948410e-02  8.48139450e-02 -8.40070173e-02
 -5.33365980e-02 -2.20767241e-02 -7.11429641e-02 -1.30361617e-01
  1.37009680e-01 -4.15204316e-02  2.57468939e-01 -1.03916777e-02
 -1.89897493e-01 -8.51463601e-02 -6.41736314e-02  2.10471660e-01
 -1.89812705e-01 -1.66490898e-01 -1.09856622e-02  3.59534435e-02
  1.07192419e-01  4.77772020e-02 -8.29085615e-03  2.25287280e-03
 -1.38347670e-01 -3.07387203e-01 -1.06425740e-01 -4.90100821e-03
  4.77676727e-02 -5.17316833e-02 -8.94058272e-02  6.25563040e-02
 -1.95106536e-01 -2.60129627e-02  9.15757716e-02  1.34879261e-01
 -1.22262081e-02 -1.28926799e-01  1.74082294e-01  3.57358642e-02
 -2.82608807e-01  7.98728690e-02  6.46113083e-02  2.51345366e-01
  2.17244461e-01 -3.26731876e-02  4.32920642e-02 -1.58974454e-01
  1.16826452e-01 -1.53219283e-01  1.96608137e-02  1.83639556e-01
  5.70179038e-02  8.78781974e-02 -3.75425443e-02 -1.00491978e-01
  1.36602493e-02  1.14993848e-01 -1.59359440e-01 -1.95236448e-02
  9.32876095e-02 -1.08721308e-01  1.34594394e-02 -1.02068864e-01
  1.34086400e-01  4.97128591e-02 -1.28026932e-01 -2.19147608e-01
  9.89269540e-02 -1.18210435e-01 -9.99261066e-02  6.78589121e-02
 -1.77990183e-01 -1.67594358e-01 -3.02355617e-01 -8.60710721e-03
  3.92320842e-01  4.15403321e-02 -1.94784105e-01  1.39423728e-01
 -2.88332645e-02 -2.73026228e-02  1.16356961e-01  1.72215775e-01
  4.23972644e-02  1.11134350e-01 -8.88121724e-02  2.71928664e-02
  3.21996093e-01 -8.57722983e-02 -5.39426086e-03  2.19455317e-01
 -2.18716096e-02  7.62680396e-02  6.03552945e-02  1.00119546e-01
  1.48424285e-03  4.35482822e-02 -1.23279415e-01 -1.18129291e-02
  5.44360606e-03 -5.38737439e-02 -1.81093819e-05  1.11544006e-01
 -1.56350836e-01  1.42188266e-01  5.80650680e-02  6.63270876e-02
  2.76017971e-02 -4.43797857e-02 -5.58539741e-02 -6.86668456e-02
  1.25271767e-01 -2.47384414e-01  2.36625224e-01  1.82140678e-01
  5.62223904e-02  7.11973459e-02  1.13325991e-01  8.40437338e-02
 -1.23783266e-02 -4.15371470e-02 -1.49892494e-01 -2.90128291e-02
  6.22311309e-02  2.73569743e-03  1.07417516e-01  1.09449299e-02]