[-0.09450701  0.08248224  0.05307521 -0.06259196 -0.08619604 -0.04835166
 -0.05944248 -0.14982876  0.16033334 -0.10430977  0.21242812 -0.05007043
 -0.21752837 -0.11400238 -0.0308667   0.24398179 -0.23660477 -0.19521545
 -0.01068833  0.02880057  0.07729079  0.01112404  0.0340409   0.03184303
 -0.14343123 -0.3858566  -0.08679105 -0.0275033  -0.03292422 -0.04786826
 -0.07778243  0.09180125 -0.21430628 -0.04554382  0.08779347  0.14567105
 -0.00429219 -0.11740887  0.1579933  -0.00060972 -0.28245422  0.01458046
  0.08461433  0.25411054  0.20461014 -0.05060567  0.0209412  -0.11845429
  0.12258144 -0.17171304 -0.02508369  0.15181217  0.0423266   0.04298268
 -0.0058392  -0.14063425  0.00636065  0.11570714 -0.09937616 -0.05809851
  0.0724008  -0.1105822  -0.01963076 -0.11330547  0.19356726  0.02773334
 -0.11880779 -0.19366236  0.10479472 -0.09255325 -0.04481227  0.02844296
 -0.21020217 -0.19972658 -0.29881784 -0.03371691  0.34272614  0.03478327
 -0.17795703  0.12502383 -0.03056834  0.02703599  0.07530827  0.19416517
  0.05748603  0.12864868 -0.09014684  0.04636198  0.26031089 -0.10403705
  0.00078525  0.2218564  -0.04273099  0.06500418  0.0517617  -0.01055789
 -0.01725862  0.0505066  -0.17095278  0.00405993  0.00962864 -0.05088991
 -0.01509135  0.10658611 -0.16154996  0.06156694  0.04662541  0.05889894
  0.02493366 -0.03283511 -0.09118301 -0.10937773  0.1073732  -0.2441607
  0.20954339  0.22167003  0.05148838  0.11878903  0.08680739  0.06722287
 -0.00384681  0.00968755 -0.16715901  0.01697741  0.10052034 -0.00722763
  0.05457507 -0.01546987]