[-0.04877654  0.06136331  0.02210983 -0.05703225 -0.05452491 -0.02206241
 -0.02074431 -0.16402529  0.20341198 -0.10003085  0.202582    0.0020999
 -0.24132858 -0.06111736 -0.01226492  0.18777858 -0.2471118  -0.16427493
 -0.04663157  0.04794294  0.05713357  0.00097024  0.04350739  0.01009078
 -0.15559503 -0.33883962 -0.12323072 -0.07638475  0.04986197 -0.07273375
 -0.07020765  0.02519319 -0.17316043 -0.01513252  0.04811856  0.03093025
 -0.04475149 -0.11920305  0.1852463   0.0806962  -0.28523707 -0.02354445
  0.0210638   0.25076243  0.24018458 -0.03021379  0.02720015 -0.13913245
  0.1430333  -0.25036523 -0.00958644  0.14356278  0.04020557  0.08396985
  0.03624298 -0.1198766   0.01362592  0.14509337 -0.2034703   0.02126834
  0.05999714 -0.06644719  0.00903091 -0.02234465  0.19418155  0.11067962
 -0.12265064 -0.17814426  0.12078265 -0.16780894 -0.07794502  0.02234753
 -0.13960978 -0.2191429  -0.28798845 -0.07529029  0.33525258  0.0800939
 -0.16588573  0.08768488 -0.07420447 -0.03184327  0.10726734  0.16364706
  0.00101988  0.09183351 -0.08022629 -0.00629637  0.26770267 -0.10639544
  0.03258194  0.27991936 -0.050798    0.02270111  0.04992292  0.05915054
 -0.08330358  0.01974332 -0.13982148 -0.07461142  0.02705998 -0.03090919
  0.03728505  0.11997151 -0.1833827   0.13970141  0.03012548  0.02259846
  0.04034665 -0.08848924 -0.04421284 -0.07879823  0.11130303 -0.25388053
  0.22039917  0.19963823  0.02050083  0.08311493  0.02730003  0.02243242
 -0.03087007 -0.00328489 -0.14575063  0.0096786   0.05206827 -0.00190837
  0.00995548 -0.0422385 ]