[-7.10478649e-02  5.20678237e-02  2.73683500e-02 -6.48686886e-02
 -1.01101600e-01 -4.11471911e-02 -3.25762294e-02 -1.49043724e-01
  1.36467144e-01 -9.60803255e-02  2.26375103e-01 -5.90330847e-02
 -2.19429925e-01 -9.04340446e-02 -3.82736959e-02  2.54379839e-01
 -2.37558469e-01 -2.02713639e-01 -2.22063996e-02  1.51322829e-02
  6.27725571e-02 -1.62720699e-02  6.43872842e-03  4.58721742e-02
 -1.65048644e-01 -3.45910400e-01 -8.04375112e-02 -3.63576636e-02
 -4.79652770e-02 -6.39985055e-02 -9.86314118e-02  1.41563356e-01
 -2.04560876e-01 -3.73090766e-02  1.01836398e-01  1.66016176e-01
 -2.86397728e-04 -9.70053598e-02  1.62146345e-01  1.44260423e-02
 -2.78672963e-01  3.10377982e-02  1.25349686e-01  2.67356128e-01
  2.02781826e-01 -6.17482923e-02  6.32729521e-03 -1.01033740e-01
  1.33376345e-01 -1.84293255e-01 -4.40475298e-03  1.43904373e-01
  7.65858740e-02  7.59846419e-02 -1.47324493e-02 -1.32810697e-01
  3.48558985e-02  1.31795853e-01 -1.37596413e-01 -4.04369645e-02
  9.90717784e-02 -1.45623192e-01  3.78313591e-03 -1.19443119e-01
  1.78021133e-01  4.92277890e-02 -1.05079830e-01 -1.78207561e-01
  8.93744603e-02 -1.07002161e-01 -6.99392855e-02  1.23952609e-02
 -2.15347528e-01 -1.98636159e-01 -3.37170631e-01 -3.38462517e-02
  3.35475177e-01  7.64658377e-02 -1.58237502e-01  1.21915333e-01
  7.16974307e-03  3.89987114e-03  9.33946520e-02  1.76215038e-01
  4.85282354e-02  1.18259393e-01 -8.99871811e-02  6.29817098e-02
  2.66211003e-01 -8.87285993e-02  9.06577148e-03  1.99114278e-01
 -5.39022088e-02  5.25275134e-02  5.23188114e-02  1.82285241e-03
 -1.95165854e-02  3.46092246e-02 -1.75785914e-01  1.79461073e-02
 -6.60619736e-02 -7.62332603e-02 -9.31846816e-03  9.46038067e-02
 -1.62439972e-01  4.63153236e-02  2.97940075e-02  4.27239724e-02
 -2.99576968e-02 -3.20625454e-02 -7.91777298e-02 -8.90655071e-02
  9.44121405e-02 -2.50564873e-01  2.01687455e-01  2.24933311e-01
  5.93097992e-02  9.69535187e-02  7.25940093e-02  5.09575084e-02
 -2.31966674e-02 -9.62504186e-03 -1.68995857e-01  2.28245351e-02
  1.11783922e-01 -1.37191117e-02  7.65217766e-02 -1.24765409e-03]