[-0.03941162  0.05733601  0.03098429 -0.07973851 -0.04529014 -0.02061224
 -0.04874996 -0.13434739  0.1734605  -0.0489023   0.2583361   0.00780671
 -0.18425336 -0.10306264 -0.04854391  0.21283348 -0.21215904 -0.14696173
 -0.02885237  0.0120146   0.07423987  0.02148207  0.00581024  0.0142355
 -0.11994503 -0.33533287 -0.11409296 -0.03937023  0.02372973 -0.03053425
 -0.09124165  0.07258496 -0.20711534 -0.06508059  0.10233054  0.11889949
 -0.01727661 -0.12180523  0.17065445  0.02823178 -0.21728361  0.07304638
  0.08840445  0.24642363  0.19460709 -0.0117101   0.05135077 -0.16387574
  0.13684443 -0.14251027  0.01845488  0.14954489  0.0531342   0.08284756
 -0.01547886 -0.10426958  0.03462061  0.1236604  -0.15754937 -0.00675909
  0.09439357 -0.08786368 -0.0420732  -0.10411558  0.17215781  0.06515986
 -0.12693407 -0.21459074  0.08161739 -0.11589084 -0.09460546  0.02980586
 -0.18901356 -0.17991814 -0.31775036 -0.00523738  0.38578904  0.06272892
 -0.19655882  0.12285576 -0.02416642 -0.0089362   0.14689873  0.17136119
  0.0368881   0.09484714 -0.09025179  0.02677177  0.28737965 -0.06189139
 -0.01373114  0.21593773 -0.03369042  0.08544163  0.04245155  0.07140205
 -0.01752391  0.04206041 -0.14889021 -0.00889319  0.02327305 -0.01878685
 -0.00106278  0.10067423 -0.14829598  0.10276176  0.03530947  0.06260656
  0.04014315 -0.05700956 -0.07252156 -0.07415241  0.10813966 -0.25426412
  0.21809159  0.17956977  0.05302947  0.08438402  0.09375506  0.0754405
 -0.02582282 -0.025677   -0.19864379 -0.00785424  0.06994291  0.00774726
  0.09756353 -0.01315185]