[-0.08826225  0.05109435  0.0096349  -0.06004911 -0.05761153 -0.04878563
 -0.03029755 -0.18437897  0.15537751 -0.07701539  0.23536956 -0.08629622
 -0.21194731 -0.10213175 -0.06827805  0.24617301 -0.23613027 -0.19463687
 -0.01308469  0.0021552   0.10552961 -0.00669172 -0.01291499  0.0529178
 -0.15351216 -0.3330217  -0.09969307 -0.06674878  0.00630481 -0.05377067
 -0.07486209  0.05381932 -0.22692633 -0.04230577  0.0823672   0.12388966
  0.00146632 -0.11579645  0.17726874  0.0047962  -0.26616082  0.04262268
  0.11063428  0.24839509  0.15219404 -0.01530495  0.00958492 -0.12996614
  0.12215742 -0.16588795  0.00480609  0.14079891  0.0600149   0.07114843
 -0.02685713 -0.12104594  0.00733637  0.14199443 -0.14427833  0.00348161
  0.09594528 -0.09764651 -0.03167184 -0.08914087  0.17191862  0.05527094
 -0.12483539 -0.16621475  0.08071702 -0.12731998 -0.0685532   0.0287731
 -0.16552156 -0.21005633 -0.30847523 -0.02529151  0.37183419  0.04221254
 -0.19868456  0.09880366  0.00484884  0.01928279  0.17109375  0.17811783
  0.07737652  0.10524936 -0.10128792  0.03241254  0.27807075 -0.09864409
  0.01674525  0.23160911 -0.04667912  0.06260647  0.01673391  0.05429149
 -0.02062219  0.0354544  -0.12368883 -0.00429061  0.02367049  0.01907071
 -0.01735914  0.07977895 -0.14098434  0.06406935  0.05805128  0.04048929
  0.00635358 -0.04507296 -0.05936081 -0.09456259  0.09156076 -0.24250996
  0.21174026  0.21029668  0.01622438  0.09165482  0.06461896  0.03766234
  0.00300117 -0.03021695 -0.19697827 -0.00171764  0.10591822 -0.00675586
  0.06566298 -0.03907276]