[-0.07295458  0.03469837  0.02917681 -0.054054   -0.09539916 -0.03451645
 -0.06802131 -0.1286882   0.13448545 -0.08202086  0.22305265 -0.04068268
 -0.18747275 -0.09240899 -0.05497138  0.24266601 -0.25205585 -0.19679515
 -0.0091608  -0.00114147  0.07190765  0.0351257  -0.01856487  0.02675519
 -0.17929421 -0.34289432 -0.0665391  -0.05247561 -0.01018023 -0.04051079
 -0.08803802  0.10532247 -0.20947528 -0.03228094  0.10962615  0.15339699
 -0.00678161 -0.10239017  0.16089375  0.00712143 -0.26086828  0.05135203
  0.12249412  0.25157362  0.20910263 -0.03881484  0.0106226  -0.11206595
  0.12584728 -0.1837994  -0.02081744  0.1485341   0.0384249   0.09920543
 -0.02102823 -0.11569337  0.01725071  0.12465159 -0.13302259 -0.02580816
  0.07658077 -0.13548613  0.00569794 -0.09970089  0.18044573  0.04207867
 -0.1003449  -0.1885059   0.08707096 -0.13549611 -0.10269799  0.02461196
 -0.16920334 -0.18162656 -0.3231231  -0.04100467  0.33916384  0.07780501
 -0.18470557  0.13181949  0.03089029  0.00414565  0.14609388  0.17249928
  0.07006403  0.1073363  -0.09642422  0.0459393   0.29590434 -0.07548993
  0.00975521  0.20172806 -0.0328966   0.06678891  0.07379618  0.04097139
 -0.02102732  0.02338133 -0.16106084 -0.00550199 -0.00831346 -0.01021782
  0.00978951  0.09863825 -0.10722046  0.08327185  0.02376689  0.04903344
 -0.01226655 -0.0332899  -0.04567933 -0.07376768  0.09642672 -0.22012489
  0.22635272  0.18489078  0.03876797  0.11406434  0.07560908  0.04818985
 -0.05214488 -0.01809342 -0.17416434 -0.0110706   0.07603171 -0.00449775
  0.11021735 -0.00683621]