[-0.06050322  0.08721953  0.06359514 -0.07585752 -0.11936726 -0.01400771
 -0.06113176 -0.1257787   0.16444984 -0.07781928  0.23278432 -0.01351037
 -0.21392982 -0.08985613 -0.06212128  0.23424268 -0.25106186 -0.17950262
  0.01300151  0.02090503  0.10405507  0.04164058  0.01942638 -0.00579905
 -0.14034854 -0.34952849 -0.07963671 -0.01675826  0.02247256 -0.0551617
 -0.07716355  0.11037495 -0.21608298 -0.03775532  0.10090651  0.14524396
 -0.02260541 -0.10768067  0.15171809  0.01368228 -0.2821818   0.04969076
  0.10474324  0.24846482  0.20022503 -0.05228093  0.03203888 -0.15071152
  0.11766142 -0.16313978 -0.00202248  0.16838859  0.04437314  0.06612577
 -0.00366184 -0.12354403  0.01323108  0.11766901 -0.12432704 -0.01956152
  0.11555844 -0.12118927  0.01161733 -0.11413443  0.1510946   0.02947766
 -0.09023591 -0.24886785  0.08031027 -0.12997273 -0.10699593  0.06688984
 -0.18204235 -0.16340525 -0.32106978 -0.0549671   0.35570315  0.05358858
 -0.1583456   0.13321446  0.0048173  -0.02146321  0.11041935  0.20142968
  0.04901902  0.13379088 -0.10556743  0.04444416  0.29669958 -0.09751534
 -0.00358458  0.21944623 -0.02046056  0.07457896  0.05568844  0.02133108
 -0.02712537  0.03662893 -0.17800491 -0.03002275 -0.04426282 -0.05296714
 -0.02010156  0.11369008 -0.13749918  0.07856899  0.02006635  0.050517
 -0.01877988 -0.06011913 -0.06401283 -0.07083891  0.10848837 -0.23353994
  0.22313352  0.1975254   0.07376032  0.08474904  0.10367294  0.05613575
 -0.01977973 -0.02735844 -0.15554357  0.00465034  0.06458765 -0.02985518
  0.08726608 -0.01512976]