[-0.05524268  0.04514582  0.05553033 -0.06363036 -0.06088611 -0.02731547
 -0.03507273 -0.17709199  0.15714513 -0.10997667  0.25691807 -0.04274497
 -0.2338181  -0.11506092 -0.04825356  0.27550298 -0.23554197 -0.19284885
 -0.02860392  0.03468841  0.06150408 -0.02145399  0.02205181  0.0336228
 -0.12989317 -0.33830804 -0.09043779 -0.03706509 -0.02740115 -0.04434264
 -0.09260236  0.07804505 -0.19729012 -0.02262152  0.09325497  0.10977405
 -0.00428654 -0.12633616  0.16446272  0.02029801 -0.28123769  0.02679924
  0.0996228   0.23045133  0.17840454 -0.05328373  0.02208608 -0.15945078
  0.13787591 -0.18093114 -0.01794877  0.13650176  0.0629057   0.05222917
 -0.00976996 -0.13887505  0.00999046  0.12641655 -0.12414861 -0.01948276
  0.08304086 -0.09849278 -0.02918887 -0.12280434  0.15941003  0.05995476
 -0.12853269 -0.19935957  0.08624992 -0.09736695 -0.06569891  0.01073533
 -0.201846   -0.2156539  -0.3021827  -0.05934481  0.3432754   0.0560797
 -0.19046019  0.12011459 -0.02177063  0.00763769  0.10086007  0.19965102
  0.06999777  0.13060896 -0.08039273  0.02773506  0.25493243 -0.12309071
  0.03276149  0.24134651 -0.06530835  0.06679874  0.02098917 -0.00149361
 -0.02775344  0.0637851  -0.17318498 -0.02092775 -0.03213174 -0.01626269
  0.02298835  0.05782016 -0.15557791  0.05672316  0.05290489  0.05980347
  0.03453657 -0.03836114 -0.08133743 -0.09956007  0.09825491 -0.23517632
  0.212341    0.21401906  0.07312038  0.08043801  0.10338306  0.06318569
 -0.00207228 -0.00949428 -0.16798687  0.03612572  0.09590241 -0.02142232
  0.05700975 -0.03009946]