[-0.02660681  0.04555634 -0.0054678  -0.05657    -0.07009967 -0.01968798
 -0.00860981 -0.1389681   0.18868858 -0.13161211  0.18234408 -0.03663964
 -0.23708765 -0.0671287  -0.03108639  0.21111818 -0.22180603 -0.1631052
 -0.05416224  0.05527936  0.05809384  0.02506509  0.01912403  0.04078055
 -0.13746549 -0.33130917 -0.11081552 -0.07556231  0.02611543 -0.0722862
 -0.09506563  0.0588596  -0.16255414 -0.04557481  0.0573091   0.07340863
 -0.03214348 -0.13742891  0.16981737  0.08082665 -0.2978321  -0.0095544
  0.04028011  0.2553367   0.18398902 -0.02507846  0.02009595 -0.15231523
  0.14885919 -0.20512953  0.00303566  0.12524575  0.04154577  0.09904619
  0.01165689 -0.11660816  0.03797186  0.10419631 -0.17039745 -0.01652515
  0.08828335 -0.03930368  0.02199079 -0.06748717  0.20241766  0.07505026
 -0.11151604 -0.16368662  0.13750613 -0.17755114 -0.08852287  0.0242244
 -0.13441138 -0.18920149 -0.2480578  -0.06923786  0.36421129  0.1011714
 -0.17165244  0.07797489 -0.06660955 -0.04607316  0.14540114  0.20372279
  0.06261941  0.10389649 -0.05125552 -0.01459817  0.28887758 -0.1001116
  0.01399373  0.24915068 -0.00935828  0.03885825  0.07487556  0.01413712
 -0.05976568  0.04216126 -0.13525969 -0.0219665  -0.00724037 -0.04902191
 -0.00524355  0.09634212 -0.14059225  0.16026536  0.06086943  0.03134358
  0.05902834 -0.03389366 -0.0729652  -0.10084325  0.11480802 -0.23658375
  0.20536564  0.16607682  0.04299406  0.08798604  0.04030245  0.09481698
 -0.02054104 -0.01685642 -0.18584362 -0.0191305   0.09207948 -0.01942263
  0.03405102 -0.03920319]