[-0.03861401  0.06168387  0.05849938 -0.04688092 -0.05349794 -0.04241107
 -0.01806988 -0.14253943  0.1670028  -0.12489542  0.20687197 -0.04022976
 -0.23654027 -0.03938621 -0.03724267  0.22279392 -0.21482168 -0.17144522
 -0.03346751  0.07391462  0.05371354  0.01707153  0.0058382   0.04886774
 -0.12257389 -0.33137003 -0.11538315 -0.04684825  0.0169825  -0.06490218
 -0.10433614  0.04759604 -0.18177485 -0.04268223  0.07613453  0.07173448
 -0.02631712 -0.13723533  0.18124448  0.08279293 -0.30133823  0.00878174
  0.04589713  0.25259465  0.19149028 -0.01509232  0.00178461 -0.17082228
  0.14867468 -0.21607418 -0.01802077  0.13688646  0.04592717  0.09025615
  0.00455713 -0.12570466  0.03587598  0.09791382 -0.1880164  -0.02770082
  0.06890582 -0.05311025  0.0401804  -0.08846356  0.19242075  0.0558015
 -0.12830709 -0.13975874  0.14146881 -0.16442539 -0.06332721  0.03156719
 -0.12314965 -0.19033627 -0.2713103  -0.07599151  0.37051073  0.0879024
 -0.17104504  0.08634309 -0.07272222 -0.05314682  0.10170744  0.19510326
  0.04039275  0.10966446 -0.03862227 -0.01288228  0.28367811 -0.07341592
  0.03885424  0.25473088 -0.03059409  0.05219084  0.07096055  0.03143708
 -0.06350172  0.01248989 -0.14950803 -0.02698699 -0.05667756 -0.05309547
  0.00310432  0.11874566 -0.1894826   0.13492502  0.05618246  0.01473235
  0.04805749 -0.01696173 -0.06753556 -0.10008892  0.10144148 -0.26350018
  0.18788789  0.18001622  0.03282168  0.07364194  0.03763238  0.0718539
 -0.04148572 -0.0318086  -0.17483215 -0.02043128  0.09084126 -0.03012194
  0.04654547 -0.03961317]