[-9.66986641e-02  7.87114128e-02  5.30415364e-02 -5.77916466e-02
 -7.56640062e-02 -3.06017678e-02 -4.90008667e-02 -1.57943889e-01
  1.54525265e-01 -8.65171477e-02  2.23098561e-01 -4.80907150e-02
 -2.19767019e-01 -1.20369494e-01 -3.46478298e-02  2.50977337e-01
 -2.34055832e-01 -1.87236369e-01 -1.21170990e-02  3.75561826e-02
  7.80908763e-02  1.62367187e-02  3.00359912e-02  3.68264616e-02
 -1.34955928e-01 -3.88836205e-01 -8.20396692e-02 -4.08222377e-02
 -3.40157449e-02 -4.64625917e-02 -8.04337189e-02  8.27177167e-02
 -2.09693715e-01 -4.89777438e-02  9.32338163e-02  1.24279372e-01
 -5.80111239e-03 -1.16644695e-01  1.64174214e-01  1.12062795e-02
 -2.92928755e-01  1.99278593e-02  9.58598480e-02  2.54218906e-01
  1.98616162e-01 -5.08461669e-02  1.82069652e-02 -1.25320047e-01
  1.20846905e-01 -1.72666401e-01 -2.23833304e-02  1.45995796e-01
  4.07722890e-02  3.76310199e-02 -7.56987510e-03 -1.38895944e-01
  1.56797105e-04  1.19787052e-01 -1.13323443e-01 -4.54992056e-02
  7.22281262e-02 -1.14987008e-01 -2.33545732e-02 -1.08177736e-01
  1.71781704e-01  2.61821728e-02 -1.15306474e-01 -1.94529817e-01
  9.23805982e-02 -8.62893686e-02 -4.20003012e-02  3.64273749e-02
 -2.09453061e-01 -2.13869810e-01 -3.04136276e-01 -2.92992946e-02
  3.57933670e-01  3.80031504e-02 -1.78468034e-01  1.20481707e-01
 -3.13733406e-02  2.30422076e-02  9.39200148e-02  1.98040664e-01
  7.31991306e-02  1.16810404e-01 -7.91950524e-02  3.98142077e-02
  2.47888163e-01 -9.80402753e-02  4.88437666e-03  2.30586648e-01
 -5.10848127e-02  5.79660423e-02  4.31664698e-02  3.62740899e-03
 -1.65761150e-02  5.46303578e-02 -1.66681647e-01 -9.78338160e-03
  1.00748264e-03 -3.54445390e-02  4.95934254e-03  1.00232065e-01
 -1.75584510e-01  5.27227595e-02  5.39004393e-02  5.62306531e-02
  4.11423929e-02 -3.98462899e-02 -7.93699399e-02 -1.04789875e-01
  1.03128098e-01 -2.48730764e-01  2.04127103e-01  2.22627312e-01
  5.18390909e-02  1.12482026e-01  8.51406753e-02  5.46163097e-02
 -3.20912525e-03 -4.24085563e-04 -1.75840050e-01  2.73801535e-02
  1.08648434e-01 -5.79073280e-03  5.40138297e-02 -2.85707358e-02]