[-9.38645452e-02  7.18013272e-02  5.79631627e-02 -4.69507016e-02
 -6.89451322e-02 -5.75276390e-02 -5.44784330e-02 -1.48640454e-01
  1.53010651e-01 -9.26782712e-02  2.16541439e-01 -4.78136651e-02
 -2.02907786e-01 -1.13364555e-01 -1.89942606e-02  2.42057472e-01
 -2.28538230e-01 -1.83524802e-01 -1.56678427e-02  4.15560193e-02
  7.96663985e-02  1.22524258e-02  2.52096597e-02  2.84496248e-02
 -1.37566298e-01 -3.81691903e-01 -8.93122181e-02 -2.87365075e-02
 -1.79593507e-02 -4.63962071e-02 -8.73255804e-02  7.71066993e-02
 -2.16578051e-01 -4.95788343e-02  9.57104340e-02  1.45900413e-01
 -7.63259828e-03 -1.16292693e-01  1.60940930e-01  2.03038636e-03
 -2.91511416e-01  2.34948546e-02  8.52079168e-02  2.49259710e-01
  2.05234170e-01 -4.16338556e-02  1.73351727e-02 -1.20825529e-01
  1.27825499e-01 -1.74078390e-01 -1.42088747e-02  1.43610701e-01
  4.32592444e-02  5.17417379e-02 -6.77803485e-03 -1.44319594e-01
  6.03492744e-03  1.18354000e-01 -1.20395444e-01 -4.66408506e-02
  6.93740174e-02 -1.14024997e-01 -1.00416560e-02 -9.70664173e-02
  1.78279281e-01  2.74351295e-02 -1.14829063e-01 -1.90433711e-01
  9.78823528e-02 -1.00419439e-01 -3.14838402e-02  3.22655849e-02
 -1.99858651e-01 -2.13274762e-01 -3.08785409e-01 -2.94420421e-02
  3.46763641e-01  3.84466164e-02 -1.77989736e-01  1.28183737e-01
 -2.89998855e-02  1.76659562e-02  9.02652666e-02  1.92193374e-01
  7.19400197e-02  1.28508314e-01 -8.95458087e-02  4.29062210e-02
  2.63930649e-01 -1.03330962e-01  1.05198147e-02  2.25513011e-01
 -4.93373759e-02  5.98407201e-02  4.27708142e-02 -1.88578662e-04
 -1.71484444e-02  4.37087007e-02 -1.65458590e-01 -9.11539514e-03
  6.37682294e-03 -4.19903696e-02 -3.58046452e-03  1.04395412e-01
 -1.73054293e-01  6.42618835e-02  5.43047264e-02  5.73168509e-02
  2.93389857e-02 -3.67117040e-02 -8.35195109e-02 -1.08682148e-01
  9.88534242e-02 -2.46766001e-01  2.18653560e-01  2.22100884e-01
  4.84821610e-02  1.18759170e-01  7.76211694e-02  5.91212176e-02
 -6.60773367e-04  1.18858588e-03 -1.66414976e-01  2.24596616e-02
  9.38156247e-02  7.05967937e-03  5.77499643e-02 -1.39817065e-02]