[-0.10983729  0.12000699  0.06660972 -0.00854819  0.00918266 -0.01440188
 -0.03805509 -0.10577537  0.19491202 -0.05457282  0.32183826  0.03136428
 -0.22419269 -0.07530191 -0.00176323  0.12940848 -0.22818322  0.01039184
 -0.1281468  -0.03929619  0.02253223  0.00268291  0.05280359  0.00895992
 -0.1086119  -0.30806553 -0.05449963 -0.08974739  0.07380824 -0.13771784
 -0.07439137 -0.02250576 -0.19316414 -0.11263566 -0.03435155  0.07443462
 -0.07334723 -0.05461819  0.17758183  0.02108848 -0.12899666  0.01114474
 -0.03226869  0.22419111  0.24914506 -0.00930697 -0.02048518 -0.11814775
  0.09989073 -0.25203431  0.00674288  0.11541753  0.0841208   0.09041705
  0.04891233 -0.14336263 -0.02173554  0.07312685 -0.13338347  0.01166537
  0.05881585 -0.08013623 -0.02416162 -0.00438838  0.14287369  0.13211119
 -0.09280761 -0.10300989  0.10076375 -0.08840666 -0.02040846  0.02834778
 -0.08852052 -0.21008049 -0.29749936  0.02722471  0.37121424  0.09162175
 -0.21075173 -0.00868058 -0.13882847 -0.05090064  0.12042309  0.02993692
 -0.04184407 -0.00650879 -0.07392031  0.06884394  0.1597462  -0.04115248
 -0.03020167  0.19478881 -0.03521164  0.05545289  0.07161076  0.05299604
 -0.07958491  0.02756782 -0.16093038 -0.00446018  0.07761919 -0.09555158
  0.03502787  0.05545884 -0.1488847   0.13299608  0.0902548  -0.00095947
  0.09977555 -0.01944882 -0.14085869 -0.02168433  0.19604225 -0.24005328
  0.29379129  0.19084683 -0.00926678  0.13454929  0.08826876  0.07965869
 -0.04477956  0.03028314 -0.1097543  -0.03130236  0.00283407  0.02854473
  0.06758036 -0.01963523]