[-0.0792699   0.17319417  0.07145882 -0.02647474 -0.00691921  0.00221048
  0.00312702 -0.12442134  0.16607417 -0.03262882  0.35716724  0.00996444
 -0.24636152 -0.14498605  0.0418087   0.1005649  -0.2188233  -0.03480123
 -0.15741701 -0.01291777  0.0027917   0.01293155  0.0861915   0.00334638
 -0.07749545 -0.30285659 -0.06709266 -0.10805064  0.1442509  -0.149462
 -0.03402303 -0.01383473 -0.20342031 -0.12037033 -0.03714075  0.01379848
 -0.05480498 -0.0946347   0.2108451  -0.02468747 -0.15947416  0.0042594
 -0.04728704  0.19782811  0.23497255 -0.02348278 -0.01007612 -0.10732006
  0.0882668  -0.20223489  0.03530821  0.14686096  0.11259037  0.05311214
  0.00693739 -0.15094756 -0.02365819  0.11774842 -0.15623404 -0.00729759
  0.0748864  -0.10179269 -0.04064961 -0.01043191  0.13912779  0.11822082
 -0.09745301 -0.14366344  0.10842116 -0.08343605 -0.01101347  0.08060955
 -0.11448774 -0.14971516 -0.25127524  0.0243582   0.34865624  0.04973445
 -0.21820958 -0.01835357 -0.16765116 -0.04099612  0.05661188  0.06802743
 -0.06143631 -0.04222196 -0.10023776  0.03498691  0.13982458 -0.03660598
 -0.02372728  0.22469214 -0.03420668  0.03731206  0.05889989  0.01548131
 -0.06382637  0.01346645 -0.08689822  0.00434361  0.06553384 -0.09557729
 -0.01364814  0.080358   -0.14415234  0.14970841  0.07059377  0.04466989
  0.12156196 -0.09268442 -0.03698707 -0.03300227  0.19151576 -0.23904304
  0.27109364  0.15137528 -0.01244993  0.11480156  0.08289265  0.10757329
 -0.03607502  0.00413595 -0.17407981 -0.03298309  0.04154352 -0.02734488
  0.06435432 -0.03293916]