[-0.1023912   0.12407698  0.05980349 -0.03416387 -0.03650635  0.00576145
 -0.00156944 -0.13686518  0.16173887 -0.02263528  0.30850777  0.03704746
 -0.28950989 -0.11044312  0.07371069  0.11779278 -0.23204878 -0.0392568
 -0.10688646 -0.01002073  0.00763531  0.00432126  0.08953253 -0.01506083
 -0.08152919 -0.34717008 -0.10425019 -0.09121988  0.12296869 -0.12600252
 -0.0500504   0.00974744 -0.16842364 -0.1024185  -0.00356632  0.05128789
 -0.08717489 -0.0972678   0.21165228 -0.00089262 -0.14985536 -0.05939719
 -0.02376672  0.21822484  0.19567809  0.00193732  0.05242571 -0.10956299
  0.08973054 -0.28427419  0.04353822  0.12429962  0.06148447  0.05769422
  0.05883731 -0.18815452  0.00154035  0.13004021 -0.17467511  0.06014231
  0.06217183 -0.10473558 -0.03874034  0.0005789   0.1725421   0.12911271
 -0.10394809 -0.13651873  0.10264722 -0.07846497 -0.04861917  0.06323458
 -0.12266295 -0.21014078 -0.3194145   0.00474098  0.39392051  0.05934412
 -0.18893507 -0.01053573 -0.11417899 -0.07402784  0.10817949  0.09754139
 -0.06582604 -0.01730237 -0.12711114  0.06674572  0.17680387 -0.0666035
 -0.01247625  0.23121102 -0.02402028  0.09841014  0.03831251  0.09303311
 -0.05460888  0.01454308 -0.11733039 -0.00797459  0.11787033 -0.09106423
  0.00759154  0.11340194 -0.1666456   0.14246158  0.06033712  0.0043403
  0.07233923 -0.14271663 -0.06708337 -0.00211562  0.18102376 -0.28020218
  0.24589165  0.23846422 -0.02787339  0.12016189  0.04515695  0.03682695
 -0.01070604 -0.02824564 -0.19577852 -0.01171125  0.03079951 -0.00227996
 -0.01020562 -0.01456072]