[-5.52364364e-02  1.48850411e-01  5.07702604e-02  1.88048091e-02
 -2.39135567e-02  2.79150289e-02  3.33729424e-02 -1.29279211e-01
  1.90781072e-01 -2.13546455e-02  3.27558666e-01  1.64236855e-02
 -2.47384593e-01 -1.27610028e-01 -1.10929704e-03  1.01807289e-01
 -1.94650158e-01 -3.53121571e-02 -1.41655147e-01 -2.20673792e-02
 -5.37799112e-03  3.07002733e-03  6.06946833e-02  8.62646289e-03
 -7.88111910e-02 -3.62636656e-01 -8.28895271e-02 -8.99081454e-02
  1.07447125e-01 -1.39196143e-01 -5.00476249e-02  4.19479385e-02
 -1.44690558e-01 -1.18939199e-01 -1.58474725e-02  1.92765240e-02
 -7.67529979e-02 -7.99697638e-02  2.08535507e-01  1.40956556e-02
 -1.48293674e-01  1.57485905e-04 -1.54935243e-02  2.54724711e-01
  2.36093357e-01  9.17982962e-03  1.19016794e-02 -1.09418027e-01
  1.21237628e-01 -2.56032437e-01  1.04640499e-02  1.29545197e-01
  5.50197363e-02  6.60038516e-02  5.67495935e-02 -1.69532284e-01
 -5.14944308e-02  1.04046993e-01 -1.73751697e-01  8.59586336e-03
  1.87160950e-02 -9.66854021e-02 -3.06152143e-02 -1.73967388e-02
  1.38431296e-01  1.66229561e-01 -8.37945864e-02 -1.28214583e-01
  1.15029767e-01 -1.47089317e-01  4.83727036e-03  7.46337771e-02
 -8.41330290e-02 -1.72146127e-01 -2.71979421e-01  1.84799973e-02
  4.05878276e-01  6.89417720e-02 -1.68249145e-01 -5.50893545e-02
 -1.19182721e-01 -5.27344830e-02  1.15002692e-01  5.70083372e-02
 -8.70237648e-02 -4.15532291e-02 -1.11480951e-01  2.49365624e-02
  1.67083427e-01 -1.19834160e-02 -3.24319378e-02  2.32339218e-01
 -3.77268307e-02  5.36806770e-02  7.66323656e-02  7.21551701e-02
 -9.07177851e-02  3.58732156e-02 -1.22979157e-01  5.82271023e-03
  7.09708780e-02 -1.04503989e-01  3.14740799e-02  6.98787943e-02
 -1.48044661e-01  1.26143649e-01  4.27031927e-02  3.98168005e-02
  1.00321509e-01 -1.15967192e-01 -7.09395409e-02  7.58506358e-03
  2.03077942e-01 -2.72799075e-01  2.29837522e-01  1.47102490e-01
 -3.63439545e-02  1.30569682e-01  5.48208952e-02  6.11491017e-02
 -5.70686162e-02 -4.71991673e-02 -1.49941072e-01 -1.22804884e-02
  1.71927661e-02 -2.44570579e-02  2.06433535e-02 -5.79559989e-02]