[-8.25997740e-02  1.26949415e-01  6.95595741e-02 -2.62927562e-02
 -1.19363507e-02  1.23268478e-02  1.48995062e-02 -1.16599932e-01
  1.65614516e-01 -2.11839732e-02  3.38187218e-01  3.21879610e-02
 -2.63766587e-01 -1.61830813e-01  5.48990145e-02  1.05672002e-01
 -2.16086254e-01 -3.18361893e-02 -1.49127588e-01 -2.93612909e-02
 -1.91168522e-03  8.09049234e-03  8.53311047e-02 -2.97260266e-02
 -1.01898327e-01 -3.83766383e-01 -6.17143512e-02 -1.24040782e-01
  1.39664531e-01 -1.65481567e-01 -4.67191450e-02  3.72934043e-02
 -1.69372588e-01 -1.06926575e-01 -2.54766345e-02  5.06806746e-02
 -7.24662617e-02 -8.99353325e-02  2.20168397e-01  1.51223224e-03
 -1.51748464e-01 -2.12354222e-04 -1.68042711e-03  2.10054114e-01
  2.47603774e-01 -2.12232303e-02  2.40551438e-02 -6.82910457e-02
  1.09527491e-01 -2.69730717e-01  1.78766903e-02  1.18407302e-01
  6.93467185e-02  5.22208922e-02  1.22194089e-01 -1.81664452e-01
 -4.54681590e-02  8.22403356e-02 -1.96269065e-01  3.18128765e-02
  1.54209128e-02 -6.29485324e-02 -6.19686432e-02 -3.20292711e-02
  1.29518077e-01  1.22361295e-01 -1.03281848e-01 -1.24444716e-01
  1.18738674e-01 -1.13485038e-01 -1.00938296e-02  8.02621320e-02
 -1.13335565e-01 -1.81174412e-01 -2.94775635e-01  1.71010774e-02
  3.36458981e-01  8.16124976e-02 -1.95823580e-01 -8.15289281e-03
 -9.83985960e-02 -9.67167765e-02  7.08489791e-02  4.46748547e-02
 -5.69047295e-02 -3.48322396e-03 -8.79905075e-02  4.33096699e-02
  1.38745531e-01 -2.11312482e-03 -2.59725731e-02  2.36769795e-01
 -5.83128333e-02  6.72631785e-02  5.06331921e-02  4.88988422e-02
 -8.84728059e-02 -1.27944099e-02 -1.46815762e-01 -1.64193567e-02
  9.37074572e-02 -1.26308635e-01 -2.12449650e-03  8.33383948e-02
 -1.55120477e-01  1.28707722e-01  4.15154211e-02  2.21578833e-02
  6.78436235e-02 -1.06980994e-01 -8.97355080e-02  4.07443047e-02
  2.01525047e-01 -2.80723065e-01  2.74200171e-01  2.08965093e-01
 -2.24439260e-02  9.39225182e-02  8.14951509e-02  7.17025250e-04
 -2.57638935e-02 -4.29006387e-03 -1.77915901e-01 -4.91027907e-02
  3.02804261e-03 -4.76308204e-02  1.35340784e-02 -2.90018562e-02]