[-0.08944982  0.13312916  0.07263934 -0.01588842 -0.09145278 -0.00948906
 -0.01776705 -0.13782771  0.13008739 -0.01131731  0.34702927  0.03940648
 -0.27316606 -0.102692    0.02875335  0.12597121 -0.20977028 -0.02380648
 -0.13410614 -0.00541833 -0.01638589  0.03185126  0.10565112 -0.00189769
 -0.06748026 -0.33682963 -0.06583031 -0.08491203  0.17966025 -0.12722234
 -0.07864705  0.0247205  -0.15789621 -0.12366082  0.01352028  0.0314087
 -0.12267091 -0.08479477  0.24492145  0.01481764 -0.16291109 -0.01314217
 -0.02507977  0.24004002  0.20612071 -0.00245329  0.04487197 -0.109046
  0.09846292 -0.30640212  0.05064056  0.12127671  0.1005315   0.0514643
  0.07258755 -0.20736268 -0.01268073  0.13669567 -0.19618915  0.08128994
  0.05277358 -0.08583982 -0.03213571 -0.02153878  0.18345335  0.13891155
 -0.10571382 -0.11244233  0.12690452 -0.07258398 -0.02968976  0.09117298
 -0.09708954 -0.18787645 -0.29905915  0.00104424  0.37105665  0.06781766
 -0.21028955 -0.05037458 -0.09539458 -0.06948773  0.07883212  0.04769883
 -0.10420481 -0.04447049 -0.11947127  0.03484925  0.15317188 -0.05566591
 -0.01386272  0.26735163  0.00952502  0.08893488  0.07235368  0.09935667
 -0.08136504 -0.02118224 -0.13324857 -0.0056507   0.10757438 -0.13518654
  0.02659544  0.1015917  -0.15718365  0.14846046  0.03855612  0.02194452
  0.0825358  -0.12017172 -0.07630488 -0.00061819  0.19433133 -0.26786467
  0.29102248  0.20857564  0.00058162  0.10455268  0.0707642   0.00089835
 -0.02851892 -0.03155044 -0.14760344 -0.04257825  0.03584821 -0.06950139
  0.00332983  0.00141929]