[-0.06845512  0.1498376   0.0662045  -0.02250963 -0.05158516 -0.00491613
 -0.0058687  -0.13492034  0.15726016 -0.01464709  0.32881233  0.05712117
 -0.2745243  -0.13564     0.03297838  0.11930549 -0.18628255 -0.02350506
 -0.145089    0.00965637 -0.0062809   0.01656074  0.13025635 -0.01352358
 -0.08023024 -0.32620618 -0.06478032 -0.0798715   0.16780846 -0.14009304
 -0.07462081  0.01262605 -0.18802257 -0.12474143 -0.01484627  0.04508408
 -0.12282487 -0.08889153  0.22570072  0.00839712 -0.15869619 -0.01072387
 -0.02791127  0.20588739  0.21810184 -0.02212055  0.04603763 -0.13594632
  0.1051746  -0.28119683  0.05807145  0.10656502  0.10510923  0.06724658
  0.07624627 -0.17056996 -0.00172162  0.12675227 -0.19011025  0.06215806
  0.0470643  -0.0696528  -0.04510726 -0.02051006  0.15874408  0.10843053
 -0.09794733 -0.09863656  0.1241642  -0.0878472  -0.00842884  0.0945854
 -0.07580607 -0.19197708 -0.29544568  0.0156858   0.34930444  0.08617761
 -0.19882242 -0.02080136 -0.11107264 -0.08416647  0.05547731  0.05565316
 -0.09341326 -0.01942522 -0.10309565  0.04984876  0.1591194  -0.06440369
  0.00482664  0.27677479  0.01482772  0.09443185  0.05896477  0.06842403
 -0.07471906 -0.00799528 -0.1298182   0.00345687  0.09129736 -0.1399577
  0.017248    0.0722878  -0.14753389  0.1390245   0.06280514  0.0147823
  0.11189946 -0.11279147 -0.08287992 -0.0412397   0.17880946 -0.26858172
  0.28109628  0.19587067  0.00175858  0.09848779  0.07778518  0.04765392
 -0.01072375 -0.02449766 -0.12763974 -0.02317382  0.05083586 -0.06047828
  0.00377072 -0.00350484]