[-0.10428172  0.11585772  0.08229051  0.00873042 -0.01246506 -0.0110615
  0.00215122 -0.11176773  0.17597747 -0.04003439  0.3390469   0.0310733
 -0.21178508 -0.16230293 -0.00908517  0.12578304 -0.19170491 -0.0312833
 -0.09793447 -0.02773083  0.04497826  0.02419495  0.07048432 -0.00069592
 -0.0866283  -0.35377461 -0.07997867 -0.10106261  0.09516817 -0.15614899
 -0.05707508  0.04515703 -0.13328807 -0.0702536  -0.04294932  0.03318643
 -0.03306015 -0.07464373  0.19388162  0.0194879  -0.13829544  0.00827463
 -0.03214468  0.24995089  0.23014736 -0.01727478  0.02109511 -0.07709912
  0.10002732 -0.24787326  0.02497308  0.10147967  0.06531686  0.0221002
  0.09434648 -0.17953362 -0.08712089  0.09612935 -0.14313093  0.06627325
 -0.0033451  -0.07034785 -0.0434882  -0.03909587  0.1600567   0.16358344
 -0.11600947 -0.121517    0.12790762 -0.10752822 -0.01616625  0.06889587
 -0.1275648  -0.17722856 -0.28831518  0.0319603   0.359216    0.06493825
 -0.20838939 -0.03482673 -0.10164439 -0.02760327  0.0960102   0.07401542
 -0.07378087 -0.00576708 -0.12038483  0.02149033  0.14856461  0.00591618
 -0.06455963  0.25962973 -0.05684149  0.07463982  0.04046476  0.03307874
 -0.05370156  0.00508793 -0.12239839 -0.0131058   0.0875911  -0.1158144
  0.00471198  0.10155561 -0.12315669  0.08534317  0.02972031  0.06579511
  0.07294165 -0.05768916 -0.11395096  0.02183644  0.18037771 -0.24235757
  0.25229225  0.16739652  0.01392641  0.10953841  0.08407947  0.04243213
 -0.0316561  -0.02534877 -0.13824265  0.00868135  0.01612127 -0.0368764
  0.02684395 -0.01205047]