[-9.91814137e-02  1.17526770e-01  5.78032248e-02 -3.75362299e-02
 -4.35696132e-02  9.88187455e-03 -6.07614452e-03 -1.35172963e-01
  1.57244638e-01 -2.39433628e-02  3.12603384e-01  4.36234288e-02
 -2.97365516e-01 -1.08995929e-01  7.81851336e-02  1.11323252e-01
 -2.27127463e-01 -3.67813334e-02 -1.10194623e-01 -1.35904504e-02
 -2.86464323e-03  8.99943430e-03  8.80136415e-02 -1.52938813e-02
 -8.16739723e-02 -3.40703905e-01 -1.01556718e-01 -8.66941661e-02
  1.30107790e-01 -1.25714809e-01 -5.09261005e-02  1.53130786e-02
 -1.65309623e-01 -9.62008759e-02 -2.69681223e-05  5.94978519e-02
 -9.38683301e-02 -9.99022946e-02  2.14490771e-01 -2.79698684e-03
 -1.50227949e-01 -6.01091161e-02 -2.76602153e-02  2.17133552e-01
  1.99375466e-01  9.67105501e-04  5.57718053e-02 -1.05828404e-01
  9.53130201e-02 -2.88590044e-01  4.97211479e-02  1.32400736e-01
  6.50458857e-02  5.83461411e-02  5.56007400e-02 -1.98351815e-01
 -6.34916534e-04  1.38331443e-01 -1.69134647e-01  5.68535514e-02
  6.39190823e-02 -1.02971449e-01 -4.01526392e-02 -3.77809932e-03
  1.73981056e-01  1.27194613e-01 -1.12854086e-01 -1.36450455e-01
  1.03388824e-01 -8.18963572e-02 -5.06414138e-02  6.86247423e-02
 -1.27482504e-01 -2.09274575e-01 -3.14190596e-01  1.03704110e-02
  3.88596624e-01  6.08681142e-02 -1.88577130e-01 -1.09291766e-02
 -1.12146191e-01 -7.22953901e-02  1.00942574e-01  9.65902433e-02
 -6.81468919e-02 -2.23402325e-02 -1.27078995e-01  6.04186915e-02
  1.79754093e-01 -6.44230619e-02 -8.61901324e-03  2.32722551e-01
 -1.85138267e-02  9.78069529e-02  4.00663875e-02  9.51485857e-02
 -5.28671630e-02  7.07855541e-03 -1.12429760e-01 -4.69231978e-03
  1.17421761e-01 -1.01178661e-01  5.64059475e-03  1.12358265e-01
 -1.69813365e-01  1.58934668e-01  5.81003316e-02  1.13870827e-02
  7.76470825e-02 -1.49418995e-01 -6.25186563e-02  1.87567552e-03
  1.87304854e-01 -2.86698520e-01  2.48945475e-01  2.35761926e-01
 -2.03350540e-02  1.24832407e-01  4.86480258e-02  4.19462249e-02
 -1.25830593e-02 -2.83508990e-02 -1.98151797e-01 -2.09620390e-02
  2.67745294e-02 -9.63605661e-03 -1.23965358e-02 -1.18948678e-02]