[-0.06955212  0.12222971  0.08195227 -0.02650963 -0.02257076 -0.00861013
 -0.02813539 -0.13643114  0.14449148 -0.05807964  0.33156511 -0.01482607
 -0.25970221 -0.11804199  0.02189874  0.13391604 -0.21374457 -0.01036665
 -0.15393111 -0.01864352  0.02296482  0.00611218  0.0901879  -0.01289916
 -0.0771263  -0.34622905 -0.0801422  -0.09004297  0.10912039 -0.12075835
 -0.07004722 -0.00872269 -0.17686802 -0.10071629 -0.02100934  0.04959853
 -0.05753353 -0.09652324  0.1802844  -0.03110027 -0.17701042 -0.00801949
 -0.01472792  0.16505252  0.25997686  0.01516754  0.00170481 -0.1241668
  0.11485243 -0.23436749  0.02372248  0.09476504  0.08233624  0.04760148
  0.04563816 -0.15148537 -0.02228522  0.13726722 -0.15404396 -0.012234
  0.04344147 -0.09683913 -0.02856722 -0.00331938  0.15927009  0.13947129
 -0.11798179 -0.13325456  0.09800022 -0.12210561 -0.02280249  0.05680501
 -0.10602903 -0.15630479 -0.32555401 -0.01972736  0.38198137  0.03291454
 -0.21231137 -0.03538455 -0.10978279 -0.04573332  0.12049787  0.08451205
 -0.06515246 -0.03404872 -0.11008926  0.02012007  0.18039952 -0.06106105
 -0.02575197  0.23238619 -0.04946377  0.09051739  0.04555091  0.06075883
 -0.08241588  0.0077299  -0.11177426 -0.00494335  0.08540992 -0.07081529
 -0.00896062  0.09246612 -0.14375715  0.12089797  0.03884701  0.04381654
  0.11430535 -0.11682396 -0.07151566 -0.02341064  0.18841824 -0.23984538
  0.22566748  0.18993841 -0.01462801  0.10185345  0.09632518  0.0536304
 -0.02455336 -0.00070642 -0.20073597 -0.01170752  0.04570901 -0.03214228
  0.04826395 -0.0368703 ]