[-0.05033309  0.13016318  0.0315836  -0.01632644 -0.02365064 -0.04144697
  0.00900269 -0.10011557  0.15236709 -0.02889712  0.25488842  0.01244581
 -0.26159808 -0.12246903  0.06386592  0.08094162 -0.17448759 -0.00567739
 -0.18322015 -0.0297697   0.0044167   0.05830589  0.09989861 -0.00879099
 -0.06479265 -0.28139874 -0.05169233 -0.07636544  0.10510089 -0.09589579
 -0.03262693 -0.00063178 -0.24228172 -0.17177987 -0.00353298  0.04500145
 -0.07716344 -0.07950359  0.16299531 -0.00744984 -0.16705057 -0.00842691
 -0.02375915  0.20360859  0.21777196 -0.00815616 -0.01011344 -0.12800466
  0.12936847 -0.2443838   0.04418733  0.11264426  0.09254828  0.06151888
  0.05113192 -0.13254951  0.01006494  0.12402473 -0.13098432  0.00053741
  0.09359067 -0.05037146 -0.04034699 -0.04657076  0.16452572  0.08309516
 -0.0893387  -0.12966397  0.12849545 -0.09506963 -0.04440477  0.07928953
 -0.07324268 -0.14150988 -0.2837252   0.02867489  0.36300999  0.06785252
 -0.2010427  -0.01143416 -0.17310381 -0.01926468  0.07241493  0.06435113
 -0.04303496 -0.00097407 -0.07736819  0.04375706  0.18034287 -0.06236127
 -0.03397044  0.23596416  0.00812503  0.06441255  0.06409547  0.0066953
 -0.07691     0.01254985 -0.14744794  0.01564429  0.11666916 -0.11199886
  0.00490598  0.11161226 -0.14105032  0.16975735  0.06924714  0.03655836
  0.14658551 -0.07118602 -0.06627334 -0.04141828  0.15461418 -0.23763433
  0.28121653  0.13195013 -0.0093533   0.10172506  0.06113004  0.10788005
 -0.01813807  0.01372039 -0.18467747 -0.06882352  0.06215698 -0.00153892
  0.0220619  -0.00767889]