[-9.84584764e-02  1.27024040e-01  5.50718606e-02 -3.72041650e-02
 -1.72560643e-02  7.05107674e-03  1.81767922e-02 -1.53424159e-01
  1.69914648e-01 -2.21440960e-02  3.07674974e-01  4.81221788e-02
 -2.64367431e-01 -1.30388021e-01  4.12983596e-02  1.25241980e-01
 -2.11386472e-01 -6.08191304e-02 -9.39553007e-02  2.83328141e-03
  2.46595498e-02  2.54078843e-02  8.70621800e-02  8.37017875e-03
 -8.69080946e-02 -3.17265421e-01 -8.27717185e-02 -7.15707541e-02
  1.33735090e-01 -1.40783966e-01 -5.36743775e-02  6.79174671e-03
 -2.04112440e-01 -8.93212557e-02 -5.12490375e-03  7.05884695e-02
 -8.89437199e-02 -1.02502279e-01  1.92394987e-01  1.23138819e-03
 -1.66478872e-01 -4.26954888e-02 -1.05908383e-02  2.19013020e-01
  1.97644457e-01 -2.70837540e-04  3.12729329e-02 -1.32976189e-01
  1.00755684e-01 -2.47843787e-01  4.81582545e-02  1.06078766e-01
  6.89184889e-02  4.19770665e-02  3.92256528e-02 -1.91061854e-01
 -8.76485463e-03  1.13023929e-01 -1.69624731e-01  5.32532148e-02
  4.91318218e-02 -7.97096714e-02 -3.05245463e-02  9.44928452e-03
  1.50195688e-01  9.68943760e-02 -1.06033169e-01 -1.33885249e-01
  9.78960097e-02 -1.01970196e-01 -3.69813144e-02  8.44682306e-02
 -9.91574600e-02 -2.09464416e-01 -3.05539846e-01 -2.61121313e-03
  3.86152983e-01  5.04926927e-02 -1.92395926e-01  1.19984252e-02
 -9.49246064e-02 -5.50241284e-02  1.27489313e-01  1.12066366e-01
 -5.59239984e-02  6.84410194e-03 -1.43407509e-01  5.41078746e-02
  1.91633463e-01 -5.06115444e-02 -2.83655263e-02  2.41971001e-01
 -2.30200626e-02  8.92103687e-02  3.99729609e-02  8.99677053e-02
 -5.77679276e-02  3.30998860e-02 -1.20341420e-01 -2.78119203e-02
  1.00223146e-01 -5.66196851e-02 -5.30799502e-04  1.14795186e-01
 -1.44242004e-01  1.42278671e-01  7.86778107e-02  2.87843328e-02
  8.98279324e-02 -1.25144854e-01 -8.39854926e-02 -3.27147394e-02
  1.44862160e-01 -2.73876280e-01  2.46238619e-01  2.01953888e-01
 -2.34827586e-02  1.09563924e-01  6.98548108e-02  4.60019931e-02
  1.02306698e-02 -2.85850354e-02 -1.79660782e-01 -3.77889583e-03
  5.42032495e-02 -2.59646904e-02  3.37972790e-02 -2.59496178e-02]