[-9.38378945e-02  1.31840691e-01  7.28271231e-02 -2.36134976e-02
 -3.66453044e-02  8.73136614e-03 -2.40386091e-03 -1.35814041e-01
  1.57245070e-01 -4.87505160e-02  3.25078309e-01  3.26313898e-02
 -2.70026296e-01 -1.22474171e-01  5.19344471e-02  1.17193699e-01
 -2.29754448e-01  8.81991931e-04 -1.55019283e-01 -4.24710698e-02
  9.48732253e-03  4.72331122e-02  1.22586899e-01 -1.98483113e-02
 -1.03787832e-01 -3.37897599e-01 -7.21891746e-02 -8.35401863e-02
  1.52603582e-01 -1.23160973e-01 -7.04096258e-02 -1.01093175e-02
 -1.88882977e-01 -1.21055402e-01 -2.14948840e-02  5.83650582e-02
 -1.04557596e-01 -1.19448759e-01  2.08915234e-01 -2.49831509e-02
 -1.56912789e-01  1.52262142e-02 -3.61586362e-03  1.91982448e-01
  2.41827369e-01 -3.04212999e-02  1.18434727e-02 -1.21402286e-01
  1.34455785e-01 -2.74411827e-01  6.93653151e-02  8.58187005e-02
  9.49633121e-02  4.54006605e-02  8.97657499e-02 -1.59467489e-01
 -2.40198951e-02  1.61956266e-01 -1.56439826e-01  3.93611006e-02
  4.52957414e-02 -8.34331214e-02 -1.77896451e-02  3.94411851e-03
  1.43664390e-01  1.42020389e-01 -9.16809216e-02 -1.23213887e-01
  1.26111075e-01 -8.36496130e-02 -3.00915688e-02  7.60485306e-02
 -9.61461440e-02 -1.73517346e-01 -3.19735169e-01  2.08797343e-02
  3.99015695e-01  5.36119454e-02 -2.00682625e-01 -1.96965765e-02
 -9.49280187e-02 -6.96224272e-02  1.15311623e-01  9.96939838e-02
 -7.95585215e-02 -5.86166792e-02 -1.07727885e-01  7.12963417e-02
  1.78391412e-01 -3.97385173e-02 -5.17598055e-02  2.62632251e-01
  6.96457503e-03  9.57712457e-02  7.22096190e-02  5.76676913e-02
 -9.06563029e-02 -8.73973686e-03 -1.38382390e-01  3.11732288e-06
  1.13870479e-01 -9.59724411e-02 -7.51040829e-03  1.20495193e-01
 -1.35159478e-01  1.47115871e-01  5.70425689e-02  2.01605763e-02
  1.27754614e-01 -1.19900979e-01 -6.46911785e-02  1.36040733e-03
  1.64900079e-01 -2.61666983e-01  2.54865468e-01  1.74361810e-01
 -1.36112589e-02  1.21503070e-01  7.49842152e-02  3.27314697e-02
  1.09565351e-02  8.04042723e-03 -1.95860103e-01 -1.96689609e-02
  5.56101389e-02 -4.24566939e-02  3.69049758e-02 -3.53465992e-04]