[-0.08575942  0.15090433  0.07312331 -0.00418494 -0.01371033 -0.00546514
  0.00632733 -0.10436971  0.17058709 -0.00213682  0.34924924  0.04123854
 -0.24032898 -0.15052786  0.00818391  0.10856252 -0.19522952  0.00558293
 -0.13253398 -0.00311426  0.01759945  0.021647    0.10809976  0.00500871
 -0.05764341 -0.35042894 -0.06915624 -0.10851536  0.12697755 -0.16399813
 -0.04300388  0.03819237 -0.13179968 -0.10511468 -0.0220443   0.02730974
 -0.05362121 -0.08300854  0.22608574 -0.00241494 -0.14182463  0.00363264
 -0.01877051  0.23970465  0.24038504 -0.0149414   0.02520229 -0.08722828
  0.12026969 -0.25609502  0.01849436  0.09883437  0.08339568  0.02534484
  0.11430401 -0.19024444 -0.05066568  0.10485857 -0.17175578  0.03230732
 -0.00608863 -0.0647425  -0.0307437  -0.02888     0.14735065  0.15271972
 -0.10037012 -0.12350132  0.11462004 -0.10617547  0.00088572  0.09668075
 -0.11084076 -0.16675234 -0.27479583  0.00492994  0.34033796  0.06891947
 -0.20892756 -0.02917556 -0.10952025 -0.06076816  0.07806275  0.05075299
 -0.08535822 -0.02274587 -0.11623087  0.00848833  0.14388688 -0.01228338
 -0.04478309  0.23958519 -0.04042786  0.06477956  0.0544991   0.02633063
 -0.07997585  0.00360641 -0.14219905 -0.00653274  0.07113153 -0.12412238
  0.00260261  0.07340193 -0.15783565  0.09145281  0.04060134  0.03528104
  0.07303833 -0.09338605 -0.09779971  0.03961168  0.20145035 -0.26494399
  0.28010163  0.16127676 -0.01374611  0.10689434  0.07878584  0.03339888
 -0.03190608 -0.01962963 -0.12159178 -0.02182453  0.02615653 -0.05028678
  0.03431091 -0.04044014]