[-0.10287576  0.11673313  0.06532786 -0.02831702 -0.01734975  0.0027294
  0.0166403  -0.15016793  0.17572607 -0.03438921  0.306732    0.03889884
 -0.25135052 -0.12987192  0.0540751   0.13126419 -0.20796518 -0.0409266
 -0.09923161  0.01483713  0.02205472  0.02471491  0.08958203  0.00175573
 -0.08395683 -0.32201964 -0.09656691 -0.08602472  0.12541735 -0.12458694
 -0.07264067 -0.00688335 -0.19772686 -0.09766009 -0.00347123  0.06198442
 -0.08677576 -0.10650814  0.1865211   0.00279103 -0.17121927 -0.03785081
 -0.02481031  0.20123868  0.20035513  0.00377192  0.02955727 -0.1348701
  0.11470538 -0.24482146  0.04305717  0.10207909  0.04716885  0.04493656
  0.04540781 -0.19650732  0.00445648  0.10702505 -0.17655896  0.03027372
  0.05890672 -0.06174956 -0.03124367  0.01617808  0.14934278  0.11383915
 -0.10249185 -0.15011294  0.09616657 -0.10139457 -0.01596456  0.0800138
 -0.1153147  -0.21102257 -0.30097368 -0.00383795  0.39116225  0.05399024
 -0.19037914  0.00574584 -0.11542817 -0.04855154  0.13628834  0.10283323
 -0.03565582  0.00830372 -0.13681883  0.03821957  0.17959228 -0.05607753
 -0.01837384  0.241311   -0.02440092  0.0841359   0.03908993  0.07602956
 -0.06384701  0.03220988 -0.11793318 -0.02021838  0.09112543 -0.05408039
 -0.00061659  0.11214866 -0.15705708  0.15491563  0.07397164  0.03135982
  0.07903876 -0.13531816 -0.08745562 -0.01258914  0.144391   -0.272111
  0.24714439  0.19225626 -0.02459409  0.11503626  0.06483658  0.0480442
 -0.00779095 -0.0172735  -0.19439156 -0.00357758  0.04769656 -0.02246288
  0.02661945 -0.02824316]