[-0.11814059  0.12645707  0.07863241 -0.03420734 -0.12365709  0.00491439
 -0.03327826 -0.1385307   0.1398026  -0.04025646  0.33240548  0.07867842
 -0.24029951 -0.07944437 -0.00465547  0.15032713 -0.19723675 -0.08235227
 -0.09885021 -0.04035797 -0.01271072  0.04620459  0.05083832 -0.00307777
 -0.08891276 -0.32015511 -0.07266688 -0.02466985  0.16981666 -0.11817856
 -0.05455545  0.02816251 -0.18866156 -0.07752664  0.03533082  0.08209405
 -0.13809437 -0.10059535  0.23040013  0.01580201 -0.15125172  0.01990644
 -0.00703138  0.25862783  0.21403466 -0.0094373   0.04323154 -0.11795346
  0.08880619 -0.31176195  0.05259546  0.15670033  0.06415566  0.05102824
  0.04406854 -0.18725315 -0.03667563  0.14379865 -0.1824232   0.08665147
  0.05434805 -0.08904222 -0.05815413 -0.06525797  0.19804083  0.15564983
 -0.13731726 -0.13522995  0.15783374 -0.10115534 -0.05481655  0.06926259
 -0.10421056 -0.19486387 -0.29731998  0.03211793  0.407083    0.09141667
 -0.19489625 -0.01202415 -0.0562594  -0.03565447  0.07527154  0.07562964
 -0.10066178 -0.04705554 -0.10431486  0.05718259  0.19608399 -0.01220621
 -0.04060286  0.27072906  0.01822558  0.09051426  0.07166441  0.11538982
 -0.05084028 -0.05011592 -0.14226317 -0.01886074  0.08537357 -0.11225139
  0.03149069  0.14812726 -0.11254454  0.17186418  0.02052063  0.04890252
  0.07135602 -0.07515808 -0.09290534 -0.01941737  0.17307441 -0.26183993
  0.29957548  0.19783379  0.00321662  0.10517609  0.10508656  0.02889668
 -0.01223688 -0.0326406  -0.14119971 -0.05156656  0.0083136  -0.08125594
  0.0394696   0.02327288]