[-0.05714187  0.1322168   0.06988157 -0.01032232 -0.02621972  0.01332882
 -0.01028073 -0.09061744  0.15705822 -0.03285044  0.32548845 -0.00045206
 -0.29616407 -0.13235699  0.04074157  0.10911267 -0.18897735  0.02151326
 -0.17864046 -0.06934568  0.01837928  0.03658584  0.09916166 -0.02938946
 -0.1044639  -0.34636217 -0.05806107 -0.07825685  0.10404251 -0.16015868
 -0.0363673   0.0438382  -0.17649445 -0.12036788 -0.02759621  0.02435162
 -0.0439563  -0.07893541  0.20336775  0.00341979 -0.14458667  0.00064735
 -0.01913069  0.20820093  0.23276508 -0.00696056 -0.01674999 -0.10624111
  0.11785714 -0.27979606  0.02386516  0.12334778  0.07081705  0.02558555
  0.08647815 -0.14865856 -0.0356168   0.10985354 -0.18827136  0.00913746
  0.04333909 -0.10811096 -0.06803482 -0.05522458  0.11588355  0.12514012
 -0.10187194 -0.09442334  0.12888972 -0.08240967  0.0213208   0.07784867
 -0.09866331 -0.18298924 -0.32092378  0.03679283  0.37131944  0.07983234
 -0.20170534 -0.03956313 -0.10348532 -0.05260507  0.08700258  0.05120605
 -0.08512156 -0.04255023 -0.07089742  0.09983938  0.12307969 -0.04016538
 -0.03220833  0.25940749 -0.02319931  0.08120912  0.05320517  0.05391774
 -0.08930822 -0.01905166 -0.14834042  0.03657545  0.1156857  -0.12950712
  0.02490092  0.08370201 -0.13224073  0.11386751  0.05232984 -0.01021315
  0.10421318 -0.11038063 -0.08581599  0.00424792  0.20295429 -0.25782555
  0.22886299  0.175741   -0.02124945  0.11828269  0.07695484  0.06562907
 -0.02951223 -0.02274821 -0.16443437 -0.0375402   0.03963421 -0.03164617
  0.02159631 -0.03461621]