[-0.0971632   0.13818888  0.07160897 -0.00351909 -0.02291603  0.00271205
 -0.00273375 -0.10011196  0.15820244  0.01290429  0.35815302  0.04387443
 -0.23522499 -0.14544018  0.0074748   0.12074909 -0.20390761 -0.00203716
 -0.13771515 -0.01245529 -0.00093435  0.02678003  0.08350848  0.00068807
 -0.06489426 -0.33080518 -0.05229419 -0.13081485  0.12655388 -0.17090741
 -0.04819387  0.02305449 -0.12821339 -0.11572253 -0.00844121  0.02129244
 -0.06826816 -0.0858043   0.23781161  0.00593838 -0.13617074  0.01497246
 -0.01062028  0.25190505  0.23977463  0.00629624  0.02417785 -0.09737324
  0.13204505 -0.27309898  0.0260627   0.10452082  0.05992753  0.03959558
  0.10187085 -0.20745993 -0.0489853   0.10303374 -0.1846424   0.05015321
  0.01345935 -0.05691382 -0.03788733 -0.05049404  0.15476525  0.15796657
 -0.10160173 -0.1372038   0.1116231  -0.10829033 -0.02418547  0.0903879
 -0.11065128 -0.16797486 -0.28893989  0.00716143  0.33537665  0.07671174
 -0.20264056 -0.03520748 -0.10284276 -0.06421208  0.08011948  0.04095788
 -0.07281815 -0.03408746 -0.09919724 -0.01615849  0.15452091 -0.00053562
 -0.03251029  0.23305152 -0.04284338  0.04715578  0.054196    0.03942734
 -0.08745869  0.00110574 -0.13712326 -0.01424039  0.06554884 -0.12574176
  0.02728832  0.08158936 -0.16685961  0.11059874  0.02796309  0.04556391
  0.06854281 -0.09082731 -0.09373418  0.0495762   0.21728611 -0.25852397
  0.29965243  0.17113155  0.01195006  0.09722915  0.08905324  0.03190632
 -0.05470818  0.0033159  -0.14916506 -0.03069247  0.00880388 -0.04915512
  0.0370411  -0.01915972]