[-0.07888764  0.1356921   0.08291155  0.00175945 -0.01776567  0.00905746
  0.00550991 -0.08990506  0.16687614  0.0020002   0.34378713  0.04437442
 -0.23593386 -0.14767678  0.01067044  0.09984194 -0.17800741  0.00071843
 -0.13381992 -0.00079756  0.01706827  0.03219835  0.10320469  0.00141907
 -0.06596003 -0.34491539 -0.04858228 -0.11636009  0.12429596 -0.17819284
 -0.06390952  0.03517978 -0.12852173 -0.09744491 -0.02582638  0.03694649
 -0.06378721 -0.09074545  0.23117398 -0.00839575 -0.14723639  0.00547701
 -0.00889242  0.23338588  0.25064445 -0.01775684  0.01886528 -0.07749735
  0.13851194 -0.270006    0.04206419  0.09877757  0.10001087  0.03271073
  0.11816715 -0.18931298 -0.05727598  0.10261004 -0.16075666  0.04281674
  0.00369295 -0.06257566 -0.03607843 -0.0430196   0.1372631   0.15050803
 -0.09642185 -0.12252709  0.09202214 -0.11740967 -0.01345726  0.09658889
 -0.1122648  -0.16107881 -0.27377594  0.00916309  0.31926712  0.07391135
 -0.21293247 -0.02643439 -0.09665518 -0.05219883  0.07665678  0.04325759
 -0.07922759 -0.02604862 -0.11569066 -0.00244323  0.15195118 -0.01205319
 -0.03792483  0.23029058 -0.04040137  0.05811074  0.05258902  0.0230304
 -0.07486809  0.00411028 -0.13225077  0.00169007  0.06906427 -0.12994473
  0.0034901   0.06666745 -0.17116795  0.09833033  0.0297139   0.04666284
  0.09786456 -0.09875484 -0.10304463  0.03885482  0.20263043 -0.2632089
  0.27571911  0.14923158 -0.00671644  0.1047456   0.07961693  0.0446184
 -0.03395448 -0.00208089 -0.13234389 -0.02505594  0.02893856 -0.04829289
  0.02940249 -0.02901307]