[-6.75860196e-02  1.25742599e-01  5.29795773e-02 -1.20366132e-02
 -1.44401984e-02 -1.62508767e-02 -1.16288252e-02 -8.50978494e-02
  1.53263450e-01 -9.48663335e-03  2.92329192e-01 -1.39299175e-02
 -2.53984451e-01 -1.11923747e-01  2.75164079e-02  1.02020480e-01
 -1.74057648e-01 -5.59548987e-03 -1.66526720e-01 -1.93022490e-02
  3.95817943e-02  2.37728280e-04  6.79042861e-02 -1.59171072e-03
 -1.10648572e-01 -2.98119217e-01 -4.53954637e-02 -1.07609093e-01
  1.03208892e-01 -1.34125158e-01 -6.61246106e-02 -9.99936182e-03
 -1.93949446e-01 -1.21933281e-01 -2.67214775e-02  6.11511953e-02
 -4.92665470e-02 -6.96277544e-02  1.44274265e-01 -3.39504294e-02
 -1.75822496e-01 -2.67291063e-04 -5.04293628e-02  1.99982405e-01
  2.36699224e-01  2.80201137e-02  1.24367485e-02 -1.32845461e-01
  1.32598281e-01 -2.30724484e-01  4.38337438e-02  1.07047729e-01
  7.39344358e-02  4.69613597e-02  6.57456294e-02 -1.42087683e-01
  4.43876116e-03  1.30779073e-01 -1.56006917e-01 -6.90685306e-03
  6.94279671e-02 -4.83351126e-02 -2.96357460e-02 -6.05356209e-02
  1.55586347e-01  1.02919392e-01 -9.88297090e-02 -1.30088106e-01
  8.89406726e-02 -1.13441147e-01 -2.54165065e-02  7.18788430e-02
 -9.21014026e-02 -1.65074736e-01 -3.21654767e-01  1.25273857e-02
  3.60417604e-01  7.84559175e-02 -2.14854792e-01  7.33949710e-03
 -1.26704231e-01 -1.60866771e-02  1.23221986e-01  4.43844348e-02
 -6.07255287e-02  1.26204789e-02 -1.12406366e-01  2.27332488e-02
  1.78389594e-01 -6.84007630e-02 -1.32730370e-02  1.92358389e-01
 -4.02488559e-02  4.56046760e-02  4.11266871e-02  2.43498869e-02
 -1.03341125e-01  2.89966296e-02 -1.07557081e-01 -5.48230344e-03
  1.14119291e-01 -8.06012824e-02  3.01787257e-03  7.21960664e-02
 -1.51771292e-01  1.44144580e-01  4.34003659e-02  5.20023666e-02
  1.05594337e-01 -1.02381550e-01 -8.34195539e-02 -8.70186370e-03
  1.89988136e-01 -2.49112368e-01  2.53016353e-01  1.53488934e-01
 -2.46662716e-03  9.18280110e-02  8.93051475e-02  7.26235583e-02
 -4.32906635e-02  2.89284084e-02 -1.92891896e-01 -2.54814215e-02
  6.89272135e-02 -2.82593966e-02  5.87256029e-02 -2.85409931e-02]