[-0.07503196  0.11846145  0.07614817 -0.02356944 -0.01994303 -0.02473099
 -0.00617276 -0.14744447  0.16066726 -0.06812477  0.32537502 -0.00999207
 -0.25447294 -0.12756236  0.04456018  0.12615542 -0.22690634 -0.03273556
 -0.1478035   0.00157459  0.02532963  0.01957928  0.09088051 -0.00808671
 -0.06603929 -0.35693461 -0.10195456 -0.08454325  0.13472639 -0.12736915
 -0.06080557 -0.01424443 -0.16720496 -0.11008306 -0.01562114  0.03741499
 -0.03957048 -0.10337587  0.17642538 -0.03392142 -0.18547896 -0.00963641
 -0.02275172  0.17535651  0.24177907  0.01205003  0.00465167 -0.12352746
  0.09785298 -0.22555785  0.02917493  0.085692    0.09416282  0.04132212
  0.0488721  -0.14484482 -0.03580493  0.1374204  -0.16000931  0.00781478
  0.05468019 -0.09635194 -0.0176125   0.00206012  0.15071319  0.12474751
 -0.11386992 -0.13313575  0.08841114 -0.13457917 -0.03079754  0.05012005
 -0.09819952 -0.15685114 -0.30385628 -0.02918497  0.38487557  0.03999355
 -0.21898364 -0.02336866 -0.11348604 -0.04179506  0.11892661  0.09875803
 -0.05365976 -0.02342753 -0.11620484  0.02215159  0.17433603 -0.05512182
 -0.02348243  0.24358062 -0.04649396  0.09272852  0.05095107  0.04540303
 -0.06309246  0.0068288  -0.09270538 -0.00770456  0.08222928 -0.0594998
 -0.00581758  0.08874776 -0.13003327  0.1343907   0.04923388  0.05122886
  0.12579061 -0.09877363 -0.05138338 -0.03862829  0.17423877 -0.24823415
  0.22277609  0.1924468  -0.03138282  0.11323897  0.06043857  0.06805809
 -0.01802506  0.00070316 -0.18720627 -0.0092007   0.04363411 -0.02984413
  0.05288453 -0.03687794]