[-0.02229806  0.07981009  0.03139427 -0.03247991 -0.02313388  0.00358507
  0.00649004 -0.1410308   0.12771659 -0.02280162  0.30766326 -0.01877134
 -0.26472172 -0.13205241  0.06608101  0.15251307 -0.18301105 -0.04446961
 -0.12621604 -0.00522321 -0.0163738  -0.00150328  0.06664833 -0.00079499
 -0.06901088 -0.35109958 -0.09741301 -0.07368843  0.11500805 -0.13248345
 -0.07788654  0.05414123 -0.20877229 -0.10268178  0.0064955   0.06857873
 -0.08767287 -0.1020957   0.2045569   0.04352171 -0.18267281 -0.02917952
 -0.00730771  0.21747613  0.22103225  0.00807241  0.04236556 -0.11904949
  0.07796969 -0.20286809  0.04488419  0.10069739  0.11519779  0.06135181
 -0.02447168 -0.15970732  0.01523134  0.08168975 -0.20101762  0.00594797
  0.08579694 -0.1048691  -0.03895363  0.02985931  0.17157966  0.08786384
 -0.09831952 -0.1095879   0.12487882 -0.11313263 -0.01501964  0.04235003
 -0.12790014 -0.199751   -0.35225442  0.01754111  0.37518805  0.03547835
 -0.21643107 -0.03591564 -0.07351395 -0.05722058  0.14422384  0.12762401
 -0.05441719 -0.00684837 -0.11434817  0.06713849  0.19814101 -0.08736055
 -0.01750104  0.21255584 -0.01473514  0.07053623  0.05016742  0.10543966
 -0.03105799  0.01756953 -0.12703791  0.00286634  0.08646578 -0.07615545
  0.00344915  0.1303705  -0.15183239  0.14830786  0.07552639 -0.0224603
  0.08156931 -0.12594594 -0.06964092 -0.08513869  0.16100608 -0.23585525
  0.18114267  0.22909771 -0.00932859  0.09348892  0.05700824  0.08415278
 -0.01805018 -0.0428718  -0.21214645 -0.0012082   0.05371429  0.02127423
  0.02516343 -0.02134412]