[-9.41554010e-02  1.85484514e-01  8.13854113e-02  3.58241959e-03
 -7.44578987e-02 -4.61674444e-02 -7.56686851e-02 -9.48964655e-02
  2.47907694e-02  4.98225540e-02  2.14050174e-01 -4.93450835e-02
 -2.37940595e-01 -8.94358158e-02 -6.46523833e-02  1.30731642e-01
 -1.76705822e-01 -1.43872097e-01 -5.24805076e-02 -2.77061500e-02
  7.89935812e-02  6.12251163e-02  2.50511654e-02  4.67000194e-02
 -1.05880521e-01 -3.17425698e-01 -5.46392463e-02 -1.29262611e-01
 -1.00794211e-02 -9.64262038e-02 -8.57963860e-02 -1.01331575e-02
 -1.55374378e-01 -4.53299098e-02  6.26069531e-02  5.22710197e-02
 -1.68438051e-02 -8.75508562e-02  1.48522034e-01  1.92009266e-02
 -1.51866361e-01  4.75257486e-02  9.90520120e-02  2.83998340e-01
  2.14702234e-01  2.42836531e-02  2.70938035e-02 -1.06466107e-01
  8.18851739e-02 -1.74519256e-01  4.43611257e-02  1.82804167e-01
  1.38679296e-01  9.03957710e-02  3.33511941e-02 -1.58035606e-01
  1.89699996e-02  4.21159677e-02 -1.34617746e-01  5.13473339e-02
  4.93290089e-02 -6.83022067e-02 -1.14513161e-02 -8.31051469e-02
  1.85421810e-01  5.89266419e-02 -1.15588762e-01 -1.32234156e-01
  2.21064612e-02 -1.44253731e-01 -9.59883332e-02  7.23645538e-02
 -1.53613314e-01 -1.54198095e-01 -2.85560101e-01  3.83125953e-02
  3.68170470e-01  9.00564119e-02 -2.25621060e-01  1.37430970e-02
 -5.54725192e-02 -9.51336790e-03  7.79514536e-02  9.64002088e-02
 -8.98193941e-02  2.10163724e-02 -1.40020892e-01  3.93787958e-02
  2.19675258e-01 -8.00089762e-02 -4.30364832e-02  1.75669894e-01
 -2.60026157e-02  6.51146919e-02  5.88399060e-02  5.19442931e-02
 -5.74749187e-02  2.40464266e-02 -6.90989271e-02  1.00722862e-02
  2.87559275e-02 -1.22895062e-01 -3.12089529e-02  6.71048537e-02
 -1.45162821e-01  5.57606516e-04  2.92058196e-02 -2.79768923e-04
 -2.12206505e-02 -2.78469417e-02 -1.24134399e-01 -6.03108294e-02
  1.52759299e-01 -2.29769990e-01  2.44003132e-01  1.98391125e-01
  2.61947047e-02  8.38366002e-02  8.50830898e-02  6.04109168e-02
 -4.19623666e-02 -2.58672033e-02 -7.59948269e-02 -4.14310396e-02
  8.42520222e-02  1.17608178e-02  6.16911240e-02 -1.90532040e-02]