[-7.87248090e-02  1.34172544e-01  8.01141635e-02 -4.59373407e-02
 -5.80966771e-02 -6.33673891e-02 -9.23719034e-02 -7.79211074e-02
  8.57089162e-02  1.06936498e-02  2.62370765e-01 -7.28868544e-02
 -1.94877774e-01 -1.07530348e-01 -7.31656402e-02  1.29176617e-01
 -2.21249923e-01 -1.25950143e-01 -2.43329778e-02 -4.94847782e-02
  6.07226565e-02  3.02574132e-02  5.70234247e-02  3.23570855e-02
 -1.00634597e-01 -3.38137776e-01 -8.90908614e-02 -1.29530713e-01
  4.71462570e-02 -5.56306355e-02 -6.09151796e-02  6.83492003e-03
 -1.32453457e-01 -4.23977226e-02  4.45593297e-02  2.68709790e-02
 -3.91813777e-02 -1.04214840e-01  1.70962274e-01  3.72259915e-02
 -1.21666193e-01  3.08310235e-04  5.97679876e-02  2.76970983e-01
  2.26174116e-01  5.83948158e-02  4.93639484e-02 -1.12992421e-01
  9.32697952e-02 -1.58966154e-01  2.86006723e-02  2.14860544e-01
  9.13930088e-02  6.01889566e-02  5.79878651e-02 -1.46837637e-01
  3.07067819e-02  1.03758387e-01 -1.21641688e-01  5.50211780e-02
  2.95296740e-02 -2.55085975e-02  2.82926057e-02 -5.75101152e-02
  2.28929073e-01  7.47802630e-02 -1.13571458e-01 -1.12965040e-01
  8.53005797e-02 -1.03744917e-01 -7.82295465e-02  5.15600257e-02
 -1.73334241e-01 -1.62494645e-01 -2.57247418e-01  5.34730358e-03
  3.64469618e-01  6.68208674e-02 -1.85789749e-01  1.99509617e-02
 -6.75252378e-02 -1.95922237e-02  9.20352042e-02  9.14629027e-02
 -1.53642684e-01  4.39819368e-03 -1.69963941e-01 -2.82981154e-02
  2.07685262e-01 -6.61643967e-02 -3.26391011e-02  1.76496536e-01
 -4.49715257e-02  4.21136804e-02  7.95743614e-02  3.07694674e-02
 -1.08321361e-01  3.09814401e-02 -9.87732708e-02 -4.84317653e-02
  4.84034084e-02 -1.36403665e-01 -3.85391898e-02  7.45823160e-02
 -1.44721717e-01  4.33863327e-03  1.78120192e-02 -3.17387027e-03
 -4.08495329e-02 -4.10384126e-02 -9.50737968e-02 -5.66392057e-02
  1.62931368e-01 -1.82890400e-01  1.96994886e-01  1.83960661e-01
  8.02482516e-02  1.36907041e-01  1.26058176e-01  7.25940019e-02
 -7.68972263e-02 -2.95130666e-02 -5.25090769e-02 -1.71219390e-02
  2.33845990e-02  3.81865129e-02  7.42670521e-02 -9.40681901e-03]