[-8.92838463e-02  1.48565635e-01  7.37879574e-02 -5.45342080e-02
 -5.98886013e-02 -4.90727089e-02 -8.09925422e-02 -6.56936541e-02
  8.02034736e-02 -7.18717463e-04  2.62427598e-01 -5.07016443e-02
 -1.96769580e-01 -8.43468830e-02 -1.10330544e-01  1.16482012e-01
 -2.04416201e-01 -1.12916067e-01 -6.45882189e-02 -4.33327220e-02
  7.37649128e-02  5.77695370e-02  4.53434661e-02  2.53785234e-02
 -7.48541579e-02 -3.25986445e-01 -6.75050169e-02 -1.13381185e-01
  6.96016774e-02 -1.02156818e-01 -5.66388965e-02  1.39609305e-02
 -1.14581540e-01 -4.77938354e-02  4.34786491e-02  3.43352072e-02
 -3.83334458e-02 -9.50595587e-02  1.92102283e-01  4.67603616e-02
 -1.28747314e-01  2.37508677e-02  7.84007311e-02  3.06424111e-01
  2.39056781e-01  5.87270930e-02  3.08780614e-02 -1.10824861e-01
  8.85736421e-02 -1.95605382e-01  2.18213368e-02  2.22124368e-01
  8.88860226e-02  8.12126845e-02  7.11624026e-02 -1.64682686e-01
  2.29039583e-02  8.85506347e-02 -1.00295208e-01  7.76708722e-02
  3.66608463e-02 -4.12686206e-02  5.26364036e-02 -5.69071583e-02
  2.02479914e-01  6.03275783e-02 -1.15590729e-01 -1.05340853e-01
  7.24735856e-02 -1.21409737e-01 -7.05514103e-02  5.32625094e-02
 -1.62028894e-01 -1.46096870e-01 -2.21977398e-01  8.87241494e-03
  3.71619076e-01  9.78703871e-02 -1.60351023e-01  1.15836076e-02
 -8.37159753e-02 -4.31925841e-02  8.60571861e-02  7.72561058e-02
 -1.48559481e-01 -3.29939239e-02 -1.47525981e-01 -1.16624730e-02
  2.13445261e-01 -4.62892056e-02 -2.49894932e-02  1.78690374e-01
 -4.38800752e-02  3.34621593e-02  6.18416853e-02  3.55151743e-02
 -1.32431746e-01  4.18576412e-02 -8.18340331e-02 -2.55040526e-02
  2.25376356e-02 -1.72798574e-01 -1.15589453e-02  8.93020406e-02
 -1.44586250e-01  4.93543083e-03 -2.56676605e-04  1.16464281e-02
 -1.18261315e-02 -1.18498681e-02 -9.43652615e-02 -4.94647175e-02
  1.67600140e-01 -1.65382907e-01  2.31680319e-01  2.04784781e-01
  7.78919384e-02  1.17269076e-01  1.47586510e-01  8.41185376e-02
 -4.68325689e-02 -8.33881553e-03 -4.59842756e-02 -2.95268651e-02
 -1.91379339e-03  3.06338668e-02  6.22396544e-02 -1.50162578e-02]