[-0.07178513  0.14056036  0.09100356 -0.02025091 -0.01230801 -0.09321161
 -0.05866054 -0.07190587  0.0658643  -0.01060789  0.25656912 -0.06757194
 -0.20879407 -0.09647658 -0.09213188  0.14154658 -0.16079482 -0.06604634
 -0.09915264 -0.03696641  0.07378535  0.03391401  0.04718302  0.02171552
 -0.07872906 -0.30102792 -0.08253691 -0.10899477 -0.02598249 -0.062117
 -0.05881641  0.02307196 -0.14379035 -0.0691262   0.01728942  0.02277195
 -0.04006052 -0.06703185  0.19569111  0.02862362 -0.13886611  0.0547101
  0.05539654  0.28509635  0.22932044  0.04906229  0.02358536 -0.07914224
  0.08874934 -0.17889951  0.04525874  0.17444043  0.11489335  0.09255904
  0.0656857  -0.12319092  0.03673049  0.06568908 -0.09477311 -0.01237244
  0.05153975 -0.0616348   0.01506903 -0.0588858   0.19647323  0.06097519
 -0.11168071 -0.08300467  0.07353386 -0.10569924 -0.04609499  0.04419159
 -0.15953188 -0.14690316 -0.25896284  0.07454961  0.36885619  0.11190604
 -0.1976977   0.01949002 -0.08865412 -0.01296696  0.11168744  0.05816817
 -0.08777129  0.00968069 -0.12329865 -0.00345989  0.1841162  -0.07945146
 -0.0606392   0.1640241  -0.02254067  0.02083374  0.05947319 -0.01760032
 -0.07321807  0.03734069 -0.10205841  0.02955063  0.04811511 -0.12364482
 -0.04321047  0.04679197 -0.13385247  0.03341811  0.02355974 -0.00289823
 -0.02278448  0.00119248 -0.13511956 -0.04571068  0.13648632 -0.18301639
  0.22510944  0.15356593  0.02365422  0.11367287  0.12972806  0.10258496
 -0.05576835  0.00403326 -0.07265892 -0.07019435  0.09601678  0.07593006
  0.11698826 -0.01041851]