[-0.07706559  0.1430465   0.08820577 -0.0169107  -0.01499277 -0.09136382
 -0.07102684 -0.0644708   0.0674799  -0.00858951  0.26936445 -0.04449318
 -0.1947464  -0.10685462 -0.08698967  0.12811874 -0.15984888 -0.06627127
 -0.09593531 -0.0365717   0.06702466  0.03362962  0.05110303  0.03289038
 -0.08680484 -0.30613148 -0.09555814 -0.10812036 -0.01994376 -0.0766563
 -0.05402373  0.01266229 -0.1514858  -0.05612472  0.01411988  0.01728642
 -0.02866548 -0.05565559  0.19503637  0.0346412  -0.13850187  0.04816426
  0.03469222  0.29260597  0.23341273  0.04506982  0.01466198 -0.08460104
  0.08655247 -0.15413129  0.03222466  0.18571669  0.10289321  0.08078169
  0.05299673 -0.09906017  0.04317197  0.07088764 -0.10316086 -0.01599352
  0.03108708 -0.07663547  0.00502479 -0.04698561  0.19547686  0.05968186
 -0.1069537  -0.10245392  0.08116899 -0.11648738 -0.04341324  0.06874646
 -0.15250312 -0.15784918 -0.2533786   0.07052513  0.37879059  0.11072357
 -0.21945854  0.02061043 -0.09203529 -0.02814215  0.12744902  0.06561496
 -0.09309075  0.01417965 -0.13956523  0.00759187  0.19798635 -0.06960414
 -0.05438012  0.17387183 -0.01381518  0.03198708  0.07381591 -0.01207233
 -0.06692836  0.03881321 -0.10711508  0.02264244  0.05806793 -0.11049124
 -0.04953358  0.04181403 -0.12110509  0.03722127  0.03918736 -0.01114052
 -0.02589009 -0.00725734 -0.13629007 -0.06039754  0.14347368 -0.19089723
  0.22525778  0.14950828  0.02905619  0.11215617  0.12574591  0.10069946
 -0.06808805 -0.01921162 -0.06678215 -0.05571207  0.09440159  0.05730284
  0.12557213 -0.03334684]