[-0.0864413   0.15026659  0.07307431 -0.03946542 -0.04404395 -0.04976458
 -0.0878692  -0.09116109  0.09127935  0.01398599  0.25310504 -0.05993169
 -0.18550083 -0.11273219 -0.08856012  0.14032926 -0.21482496 -0.12453373
 -0.03348544 -0.0336794   0.07343493  0.03456857  0.0641931   0.0226043
 -0.07253422 -0.34356648 -0.09008378 -0.13678961  0.0734482  -0.04184946
 -0.0537486  -0.00049116 -0.13003267 -0.05423955  0.05160436  0.03293003
 -0.03942036 -0.07561725  0.18956625  0.02182879 -0.12711711  0.04164861
  0.07428167  0.27809581  0.22602253  0.07490309  0.04576526 -0.12283611
  0.08688674 -0.16754743  0.03031367  0.21690126  0.09204902  0.07975796
  0.06908391 -0.14216316  0.02853828  0.07703912 -0.11697683  0.06047788
  0.0439146  -0.01595045  0.04582202 -0.06535029  0.22145596  0.05617511
 -0.12133993 -0.1128967   0.05782212 -0.12068917 -0.0687641   0.04658989
 -0.17184159 -0.13933453 -0.27361119  0.01299165  0.36831567  0.07471761
 -0.16141917  0.02353415 -0.06709886 -0.02914478  0.07758069  0.07986205
 -0.14925025 -0.01389856 -0.14242792 -0.03471531  0.20188324 -0.06686394
 -0.02004208  0.17477447 -0.05071802  0.06125181  0.04788484  0.04379718
 -0.10829883  0.02329072 -0.09042045 -0.02365961  0.01274276 -0.13147539
 -0.01237048  0.07673269 -0.14781705 -0.00209607 -0.00200841  0.00820443
 -0.03323067 -0.00323729 -0.10981067 -0.05634899  0.16289553 -0.17042723
  0.22986475  0.20002924  0.06999924  0.10577557  0.14504367  0.07858314
 -0.07964285 -0.00037299 -0.05321222 -0.02603583  0.0204945   0.02819093
  0.06532005 -0.00450137]