[-0.09613722  0.14473739  0.06982923 -0.01195005 -0.01408943 -0.08350077
 -0.04843942 -0.08192219  0.08710693 -0.01415092  0.27751237 -0.05899972
 -0.20389293 -0.11270155 -0.08866619  0.15186836 -0.1608976  -0.07951229
 -0.10060512 -0.03539416  0.05288985  0.02358235  0.04411992  0.03699433
 -0.08140691 -0.32260549 -0.07759128 -0.1022495  -0.04610964 -0.0556195
 -0.05021758  0.04609856 -0.15548865 -0.06299     0.02368602  0.02508908
 -0.01865234 -0.03263008  0.21355808  0.02424704 -0.1426384   0.0309406
  0.06959799  0.28411961  0.20003095  0.04393899  0.01542517 -0.08059121
  0.0830968  -0.1388482   0.01931444  0.18525715  0.10791842  0.07691741
  0.04604467 -0.11898506  0.03734772  0.06779498 -0.10188591 -0.03809519
  0.02602294 -0.0770575  -0.01738055 -0.04805814  0.21748602  0.07067803
 -0.09708601 -0.10687512  0.08376592 -0.09449933 -0.04413224  0.05002291
 -0.16716781 -0.15182607 -0.26802346  0.06514724  0.37228298  0.07887325
 -0.1932123   0.04297641 -0.07866076 -0.03573248  0.10545335  0.06129533
 -0.11048006  0.03028705 -0.11747861  0.01118174  0.18554549 -0.05139102
 -0.05403424  0.15042999 -0.02781945  0.02389657  0.06903499 -0.02616429
 -0.05541582  0.03994086 -0.10955542  0.02185027  0.06073923 -0.11361729
 -0.0334043   0.03647624 -0.15432672  0.01407711  0.03201777 -0.00352064
 -0.02129487  0.01295557 -0.1292336  -0.05547922  0.13548259 -0.19357042
  0.23244944  0.13815361  0.01619728  0.11795689  0.12657087  0.09788802
 -0.06635612  0.00867226 -0.07564829 -0.0553378   0.11592078  0.05176396
  0.13903242 -0.02054267]