[-0.08976557  0.13544385  0.08321124 -0.06041148 -0.06144849 -0.04980575
 -0.08492233 -0.07352309  0.09210408  0.01429937  0.24049731 -0.05879144
 -0.1798605  -0.10420946 -0.07488789  0.12022056 -0.21502686 -0.12953444
 -0.03565967 -0.05409585  0.05372589  0.0330494   0.05823382  0.02629443
 -0.09583473 -0.34945869 -0.09220703 -0.13116609  0.06313501 -0.03574084
 -0.04123233  0.01454276 -0.13515072 -0.05031831  0.04435359  0.04397574
 -0.04353161 -0.08868204  0.1858974   0.03677636 -0.12563328  0.01702176
  0.06978017  0.27548596  0.22596459  0.06892773  0.0557527  -0.09466411
  0.08272457 -0.16372624  0.02245025  0.2284383   0.08636712  0.06997949
  0.07400911 -0.14723182  0.0362472   0.08456322 -0.11585189  0.05974234
  0.02645755 -0.0280973   0.05722371 -0.05480548  0.23053972  0.06674373
 -0.10867085 -0.10573967  0.08834369 -0.10971993 -0.06302362  0.0522688
 -0.17483175 -0.14092648 -0.25647762  0.01579133  0.37181276  0.07509115
 -0.15058641  0.0169269  -0.07742262 -0.03535213  0.06958693  0.08013228
 -0.1693456  -0.00272909 -0.14666151 -0.01942964  0.21037005 -0.05027499
 -0.02254442  0.17536663 -0.04432161  0.05116916  0.06352057  0.03100526
 -0.11138933  0.03233718 -0.08630445 -0.01978198  0.0360407  -0.15236878
 -0.00904067  0.08321649 -0.15113221 -0.00911778 -0.001956   -0.0046277
 -0.05113712 -0.00969694 -0.10582485 -0.05470849  0.17532855 -0.17246644
  0.21279486  0.20320733  0.0624481   0.12100887  0.14493188  0.07167142
 -0.07575067 -0.01874765 -0.04159224 -0.02005664  0.00997362  0.0268235
  0.07007319  0.00795627]