[-0.09886345  0.14514895  0.09255274 -0.01657924 -0.03642725 -0.10615649
 -0.03806167 -0.08273896  0.06153019  0.00423143  0.27324182 -0.05175621
 -0.20831116 -0.13494766 -0.08351206  0.14700057 -0.14122966 -0.08576234
 -0.10069326 -0.02388633  0.07851388  0.01721993  0.06162981  0.01662258
 -0.05160189 -0.31388089 -0.06881676 -0.10444947  0.01915573 -0.09864884
 -0.04495257 -0.00433823 -0.14318159 -0.09429598  0.01445164  0.04436453
 -0.05054324 -0.08738402  0.21195661 -0.00166259 -0.1458485   0.05590821
  0.07084777  0.27185854  0.23256545  0.03815848  0.05426888 -0.10014057
  0.06842711 -0.16806503  0.04355208  0.16136906  0.11805951  0.09331758
  0.06828221 -0.13141602  0.02118888  0.07067464 -0.09691026  0.01226449
  0.06080001 -0.04683122  0.0091311  -0.07219618  0.20981927  0.03466348
 -0.11560692 -0.09251401  0.08135948 -0.12731056 -0.05747868  0.05249896
 -0.15002404 -0.13346937 -0.25690344  0.0634513   0.34080932  0.11193968
 -0.19655283  0.01387628 -0.10265162 -0.01798188  0.06483921  0.07128303
 -0.06661379  0.00743262 -0.12800807 -0.0221476   0.18076439 -0.06428399
 -0.03865754  0.17362168 -0.00335032  0.01941299  0.04816116 -0.01136239
 -0.08211785  0.03053994 -0.08202267  0.0076659   0.03622092 -0.14182192
 -0.01706396  0.0528115  -0.13709715  0.03924087  0.00301325  0.02458008
 -0.00796201  0.00153669 -0.10316455 -0.05237908  0.13625543 -0.17814349
  0.25166413  0.18438081  0.04069185  0.09756038  0.13301662  0.1135444
 -0.04121555  0.01672563 -0.0644075  -0.05119265  0.0458254   0.04219736
  0.11082317  0.01352986]