[-0.06819496  0.13639228  0.07946164 -0.01641609 -0.01078326 -0.09805221
 -0.06183522 -0.07418747  0.06708249 -0.01305234  0.2521854  -0.05399265
 -0.2035505  -0.10059513 -0.09845153  0.14333163 -0.1555436  -0.07491978
 -0.10764358 -0.03744563  0.06858303  0.03940344  0.05537763  0.01604548
 -0.08130415 -0.2939367  -0.08014649 -0.09916136 -0.03209903 -0.0603891
 -0.05207473  0.03910862 -0.15051167 -0.07187269  0.02884279  0.03182576
 -0.03989065 -0.05414726  0.20382558  0.03493546 -0.13990875  0.06038108
  0.05993323  0.29593363  0.22970887  0.0434974   0.02232163 -0.08719191
  0.0852161  -0.16669306  0.0386689   0.18147269  0.11129307  0.09889301
  0.06391004 -0.11079023  0.04883639  0.06464783 -0.08538755 -0.02225161
  0.05073595 -0.05904173  0.01321121 -0.05626259  0.19311248  0.04447098
 -0.10658211 -0.08883377  0.07151142 -0.1064142  -0.05780877  0.04933087
 -0.16078053 -0.14514071 -0.26246428  0.06287263  0.36686113  0.10848673
 -0.19771221  0.03497801 -0.07771368 -0.02334055  0.11315092  0.06197288
 -0.08949389  0.02321624 -0.11727539  0.00284531  0.19496441 -0.07273587
 -0.06589653  0.16035266 -0.01201305  0.02226893  0.06955554 -0.02160259
 -0.05903336  0.03728235 -0.11736614  0.02782213  0.04460576 -0.1204515
 -0.04482663  0.04292987 -0.12771259  0.03663124  0.02915846  0.00126799
 -0.02689334  0.00841037 -0.13750854 -0.04844914  0.1317687  -0.18283311
  0.22992225  0.15545402  0.02671577  0.10351578  0.13620077  0.10073169
 -0.05730671  0.01124544 -0.07027337 -0.07416239  0.09644642  0.07618039
  0.12619813 -0.00956801]