[-0.07386329  0.13530751  0.08424441 -0.02150012 -0.02505521 -0.09314457
 -0.07072908 -0.07522425  0.05575978  0.0005105   0.25686142 -0.0653617
 -0.20011535 -0.10581007 -0.0937572   0.14091258 -0.15408133 -0.07594418
 -0.09195962 -0.03777378  0.06834646  0.02705093  0.05242238  0.01900098
 -0.08017919 -0.30688563 -0.08485412 -0.10023999 -0.02086363 -0.05850578
 -0.05474279  0.03880256 -0.14528917 -0.06263541  0.03449131  0.040066
 -0.04135487 -0.06516852  0.19225784  0.02745574 -0.132512    0.05965671
  0.06575993  0.27642712  0.23236923  0.05368551  0.03191833 -0.08427905
  0.08577668 -0.16732234  0.04000685  0.18576699  0.10947428  0.09358794
  0.06916051 -0.12764178  0.04556852  0.05967968 -0.08878007 -0.01571457
  0.03830992 -0.04971767  0.02055637 -0.05758407  0.19635761  0.0562009
 -0.10971387 -0.08895084  0.07444742 -0.10432426 -0.04566457  0.05451202
 -0.1675231  -0.14500372 -0.26053891  0.06822877  0.37233177  0.1029525
 -0.18992947  0.02154946 -0.0775085  -0.02334093  0.09448671  0.0515905
 -0.10532212  0.00624282 -0.12850344 -0.00361549  0.19653076 -0.07215319
 -0.05691905  0.16198121 -0.02060381  0.03250637  0.06180065 -0.00886171
 -0.06817986  0.03479045 -0.09950938  0.02072139  0.04391748 -0.13676175
 -0.04208377  0.05122592 -0.1364954   0.02185553  0.01814424  0.00128356
 -0.0373853   0.00737265 -0.13640933 -0.04186751  0.13484107 -0.18604907
  0.23039739  0.16295043  0.03601528  0.10464735  0.13855679  0.09617957
 -0.05696168 -0.00119932 -0.05467298 -0.06849384  0.07833731  0.06979991
  0.1072512  -0.00414972]