[-0.08216369  0.1361319   0.07374246 -0.02474743 -0.01784203 -0.08763092
 -0.06852476 -0.07665407  0.04540774  0.00714044  0.25013033 -0.07168472
 -0.19950388 -0.094198   -0.10416856  0.14763887 -0.1585902  -0.0890844
 -0.11100147 -0.03113263  0.07027429  0.03734184  0.0457303   0.0184925
 -0.06791081 -0.30775863 -0.08072753 -0.09518495 -0.01005433 -0.07712899
 -0.04770102  0.03093683 -0.13779931 -0.05648384  0.0356757   0.03021105
 -0.03501121 -0.08484002  0.20093338  0.02499906 -0.14010476  0.06734848
  0.0917824   0.28532857  0.22805564  0.04918277  0.03107663 -0.09311532
  0.08455987 -0.16368358  0.04461846  0.18828276  0.10570788  0.0997563
  0.05892608 -0.1234887   0.04717627  0.06938951 -0.09328984 -0.00316768
  0.05590153 -0.05260211  0.00925214 -0.06793048  0.18492226  0.05148122
 -0.11192407 -0.10406903  0.06190532 -0.10810114 -0.05299711  0.04362603
 -0.16498393 -0.13781554 -0.25556114  0.05330683  0.34966049  0.09106845
 -0.182827    0.042887   -0.08007844 -0.02552086  0.08980698  0.06006564
 -0.09444588 -0.00706398 -0.12686788 -0.01203499  0.20095758 -0.06143182
 -0.04662778  0.1567875  -0.02027267  0.00318356  0.0581664   0.00631647
 -0.08055124  0.0308319  -0.08361297  0.018538    0.03220676 -0.13404234
 -0.04613921  0.0458854  -0.14041205  0.03287704  0.01924719  0.01774678
 -0.013151   -0.00170628 -0.11861106 -0.04919497  0.13083453 -0.18477216
  0.2212911   0.16241966  0.04261825  0.09960981  0.13939185  0.11239363
 -0.05625977  0.018138   -0.07668909 -0.06505801  0.07258452  0.07294943
  0.09562613  0.00417255]