[-7.06028566e-02  1.86295435e-01  9.66048390e-02  2.79651377e-02
 -6.56441525e-02 -1.95438992e-02 -6.79853559e-02 -3.99443544e-02
  5.16180284e-02  3.20254378e-02  2.48416454e-01 -4.23430018e-02
 -2.27101490e-01 -7.10756704e-02 -8.33964273e-02  1.38416752e-01
 -1.63933024e-01 -1.12657942e-01 -5.48798032e-02 -3.32253352e-02
  7.66822994e-02  6.80617690e-02  1.09827706e-04  2.53664907e-02
 -9.97992903e-02 -3.15414846e-01 -5.06822877e-02 -1.21327557e-01
 -6.90694293e-03 -1.04758456e-01 -5.95406480e-02 -9.42656863e-03
 -1.35832772e-01 -3.37876379e-02  4.50302362e-02  2.69693080e-02
  7.07331765e-03 -5.30830137e-02  1.54626593e-01  1.14346715e-02
 -1.48554727e-01  4.62578908e-02  7.85678402e-02  3.13509852e-01
  1.89354867e-01  5.27258627e-02  1.77485235e-02 -1.01610437e-01
  6.85547888e-02 -1.69393137e-01  4.55737263e-02  1.73954174e-01
  1.14285372e-01  8.44687894e-02  1.13888178e-02 -1.51095182e-01
  4.23126249e-03  4.83866446e-02 -1.31644472e-01  2.58549210e-02
  5.83166480e-02 -5.16950078e-02 -1.71227604e-02 -9.34871659e-02
  1.94073781e-01  4.73934822e-02 -1.08863734e-01 -1.47243679e-01
  3.00920103e-02 -1.59081802e-01 -7.44816437e-02  7.27044940e-02
 -1.38123915e-01 -1.47776991e-01 -2.70621806e-01  5.09358943e-02
  3.87062043e-01  1.10384695e-01 -2.19289050e-01  1.57682598e-02
 -6.04927428e-02 -1.19748302e-02  9.92972925e-02  8.20514783e-02
 -7.71972463e-02  3.06192134e-02 -1.40525430e-01  3.33186388e-02
  2.09462270e-01 -7.60580376e-02 -2.95153558e-02  1.62888154e-01
 -1.56555213e-02  4.11273912e-02  4.36808802e-02  2.34322827e-02
 -6.33240119e-02  4.29820120e-02 -8.38746056e-02  7.32721621e-03
  1.29507901e-02 -9.05601978e-02 -2.03490015e-02  5.72477840e-02
 -1.50389254e-01  4.50456254e-02  2.70160567e-02  2.68951431e-03
 -7.11617386e-03 -1.93364918e-04 -1.16680920e-01 -6.10440075e-02
  1.82174623e-01 -2.12580398e-01  2.04960153e-01  1.66601762e-01
  3.93126905e-02  1.03926860e-01  9.92392823e-02  1.00354806e-01
 -6.10480681e-02 -2.72880681e-02 -1.13313355e-01 -3.36196050e-02
  6.84387237e-02 -1.19243218e-02  8.68152007e-02 -2.26651430e-02]