[-0.06233158  0.12383355  0.08278923 -0.03294565 -0.03903989 -0.09399065
 -0.0391722  -0.04535813  0.06405237 -0.03126978  0.22689541 -0.07275701
 -0.21792959 -0.04257696 -0.12267917  0.13817611 -0.1385477  -0.07387751
 -0.13593256 -0.07428861  0.04342102  0.04460679  0.02911044  0.00264405
 -0.08228038 -0.28580576 -0.07528426 -0.0832916   0.01705476 -0.06709827
 -0.03033679  0.05610701 -0.13150071 -0.04598799  0.04518259  0.03872848
 -0.04955686 -0.06225548  0.22174685  0.0535565  -0.13609669  0.05923643
  0.06990482  0.29253939  0.23145346  0.04030254 -0.00767619 -0.06292599
  0.10850882 -0.22705297  0.04197039  0.19311212  0.11298759  0.12178972
  0.11190633 -0.11599542  0.05537621  0.07490443 -0.09004221 -0.02139835
  0.0409545  -0.06647363  0.01678912 -0.08721491  0.15650336  0.05067137
 -0.10502706 -0.04370054  0.10294836 -0.12331777 -0.01852306  0.03966798
 -0.13026161 -0.11036734 -0.23322545  0.07538096  0.36848521  0.16265129
 -0.1575686   0.01017052 -0.05035916 -0.02093136  0.08466431  0.01361374
 -0.14074802 -0.02489921 -0.08497658  0.00761274  0.16670004 -0.05684351
 -0.04329068  0.14279078 -0.02902095  0.02916745  0.05901561 -0.02625179
 -0.10406081 -0.01130074 -0.0960025   0.03483965  0.03390288 -0.17092898
 -0.02916617  0.05718217 -0.13692659  0.04182487 -0.00240369 -0.02323158
 -0.03012743  0.04441462 -0.11225686 -0.01584568  0.13818312 -0.16364267
  0.23794952  0.15992728 -0.01890518  0.09741791  0.13351898  0.09185863
 -0.07248286  0.00681822 -0.03834268 -0.11818927  0.06265648  0.05699008
  0.08920932 -0.01977087]