[-0.08240745  0.14511538  0.08018402 -0.04002279 -0.0179969  -0.09028873
 -0.06857084 -0.06705767  0.06030026  0.00682419  0.24626568 -0.064776
 -0.20772319 -0.09110428 -0.10784478  0.14690243 -0.17008637 -0.07620363
 -0.08983328 -0.03803771  0.08337515  0.03901632  0.05173678  0.01610267
 -0.0649529  -0.31286141 -0.0873618  -0.10231878 -0.0099878  -0.06636586
 -0.03766289  0.0288224  -0.13012831 -0.0514795   0.04043632  0.03805089
 -0.02960806 -0.07473323  0.20446745  0.01840092 -0.13535397  0.05041384
  0.0806336   0.28216824  0.22370766  0.06424786  0.0345492  -0.09018906
  0.09010908 -0.16934942  0.0551526   0.18519197  0.09577312  0.1038573
  0.06857454 -0.13206145  0.05252033  0.05555786 -0.08475561 -0.0227576
  0.05968949 -0.05775514  0.02063343 -0.06052868  0.19696398  0.04390138
 -0.12281714 -0.09238352  0.0593215  -0.10614454 -0.05117551  0.03776995
 -0.16839787 -0.12643157 -0.26378822  0.07261395  0.37636814  0.10190934
 -0.17351912  0.03554068 -0.07590733 -0.01857392  0.10299177  0.06520748
 -0.10771187  0.00114958 -0.12529975 -0.00295592  0.18937555 -0.07533927
 -0.05977765  0.14340827 -0.02657852  0.04180273  0.0503629   0.00683092
 -0.07477111  0.04186152 -0.08240492  0.04192897  0.04484264 -0.12300476
 -0.04374071  0.05506518 -0.13433678  0.0252921   0.01717257  0.00085469
 -0.03297485  0.00914617 -0.13381341 -0.04596015  0.12781143 -0.18513434
  0.23416708  0.168083    0.03134431  0.11266337  0.14551567  0.11045589
 -0.04800358  0.0078553  -0.06639264 -0.07092359  0.08321934  0.08421488
  0.10644982 -0.00393516]