[-0.07449453  0.19200604  0.08245835 -0.0007219  -0.05729241 -0.03994387
 -0.06405007 -0.08451907  0.03079586  0.03180191  0.21947856 -0.05934134
 -0.23284188 -0.10688251 -0.0847431   0.12670083 -0.17778309 -0.14757265
 -0.05546098 -0.02452784  0.07273141  0.06881562  0.02140205  0.02994535
 -0.09631436 -0.30884838 -0.04045263 -0.12708199 -0.01385989 -0.0872862
 -0.07735525 -0.00383246 -0.1362897  -0.04858791  0.06716414  0.06132134
 -0.02410506 -0.07292411  0.15527794  0.01328758 -0.14124469  0.05089943
  0.09515864  0.30244997  0.2151649   0.03983568  0.01516187 -0.11392733
  0.08236056 -0.16549112  0.03179194  0.19314021  0.1245314   0.09265981
  0.04312247 -0.13846748  0.02554688  0.04885863 -0.13312344  0.03007958
  0.05079997 -0.05292989  0.0068941  -0.08021786  0.20243652  0.04151243
 -0.1163068  -0.12715299  0.04296637 -0.15355313 -0.10624792  0.0695367
 -0.13873614 -0.13937621 -0.25209367  0.02942293  0.36918336  0.10522026
 -0.21656469  0.01769655 -0.05514695 -0.01841152  0.10451628  0.09403433
 -0.08763016  0.02104462 -0.13880663  0.01085182  0.21956424 -0.06786077
 -0.05429489  0.15979098 -0.01678512  0.0499462   0.07247095  0.01153897
 -0.0592697   0.0439236  -0.09625388  0.00145418  0.0135004  -0.12120696
 -0.03271879  0.06694994 -0.12320908  0.00909201  0.02748613  0.00608325
 -0.01863492 -0.02079902 -0.11804559 -0.05541753  0.15696481 -0.22714415
  0.23616992  0.17470239  0.04085329  0.08417132  0.10424753  0.0691882
 -0.0373968  -0.02637672 -0.08494875 -0.0559844   0.07727605  0.01179146
  0.09467404 -0.02428013]