[-0.08396146  0.15422106  0.08085799 -0.03331416 -0.03048246 -0.10138798
 -0.06797715 -0.084479    0.04653895  0.00993911  0.2429349  -0.07134204
 -0.19269484 -0.11340681 -0.10843297  0.1548651  -0.17302644 -0.09075838
 -0.09848849 -0.04959194  0.07065334  0.02432014  0.05629115  0.0189016
 -0.06619899 -0.28893006 -0.08496256 -0.10915804  0.00345735 -0.0669333
 -0.03905671  0.02728389 -0.14407693 -0.06458049  0.03556733  0.03422157
 -0.04360294 -0.07761789  0.21058671  0.00322371 -0.12712637  0.06564479
  0.09022131  0.27518457  0.24433668  0.03709551  0.03116911 -0.082348
  0.1031759  -0.16918071  0.03295496  0.19371425  0.11011668  0.09840026
  0.06756525 -0.12281952  0.05206325  0.07078921 -0.0982684  -0.01063917
  0.05373623 -0.05010837  0.01719299 -0.05459617  0.18901807  0.0473217
 -0.11481787 -0.08997275  0.08466075 -0.10742801 -0.0262281   0.05069806
 -0.16555277 -0.12976441 -0.24861307  0.05289845  0.36897361  0.09118835
 -0.16722834  0.03331617 -0.08675435 -0.02507829  0.07680898  0.04162886
 -0.11541849 -0.00571034 -0.12969063  0.00097941  0.19250722 -0.07318711
 -0.04070991  0.16346578 -0.01198557  0.02427851  0.05770529 -0.00333866
 -0.07008375  0.02514972 -0.0911245   0.04179916  0.01797392 -0.15571432
 -0.04327161  0.04209896 -0.12358191  0.01353324  0.02187431  0.01903976
 -0.06046153  0.00091165 -0.13288072 -0.03929915  0.13925309 -0.1738285
  0.23209643  0.16278915  0.02419124  0.09517987  0.14317073  0.10117789
 -0.05543075 -0.00936592 -0.04852311 -0.06363993  0.0718354   0.06109435
  0.10087649  0.00734736]