[-0.06908748  0.19844149  0.09552268 -0.00566479 -0.08638258 -0.01843708
 -0.04155815 -0.06119643  0.0319158   0.03519804  0.22846125 -0.04593806
 -0.23505776 -0.08693496 -0.0963042   0.10549753 -0.14317632 -0.14444685
 -0.06164104 -0.03604101  0.04798809  0.06334805  0.00609633  0.04436382
 -0.07734727 -0.30220941 -0.02811252 -0.13135314  0.0224975  -0.14072464
 -0.05826244  0.00095425 -0.10582113 -0.03227516  0.03232076  0.04206122
 -0.01567512 -0.07998339  0.17069404  0.04087648 -0.13424374  0.03949251
  0.07078147  0.32338208  0.22039901  0.0534216   0.02465332 -0.07850988
  0.0859803  -0.21599503  0.04608656  0.19480072  0.13539171  0.07522833
  0.04950134 -0.15506433  0.00612504  0.02506256 -0.13710809  0.05464903
  0.04331901 -0.0484108   0.00423626 -0.09623734  0.19875935  0.05134573
 -0.10918482 -0.0912515   0.06166732 -0.18390411 -0.11188889  0.05165324
 -0.11765339 -0.11807179 -0.22473383  0.05321195  0.35902736  0.15417251
 -0.21254607  0.00646197 -0.07563855 -0.01298141  0.06174225  0.07351974
 -0.1062097  -0.00856224 -0.13701835 -0.02079645  0.1990834  -0.05324202
 -0.03259751  0.16793719 -0.01414405  0.03338171  0.06302233  0.00773375
 -0.08231511  0.03455254 -0.05764767  0.0004999   0.00511946 -0.15071319
 -0.01621573  0.06514726 -0.16919635  0.04575684 -0.00393427 -0.00278563
  0.00122835 -0.00398145 -0.09874722 -0.04495339  0.18438427 -0.21881528
  0.2243661   0.1885846   0.03014027  0.09661403  0.1098906   0.09198027
 -0.03146961 -0.02567139 -0.05899299 -0.08624477  0.04442033 -0.0239339
  0.0543318  -0.00719079]