[-0.07788902  0.16111526  0.0650244   0.00455791 -0.03671062 -0.04661675
 -0.08670254 -0.04604597  0.09847636  0.03454649  0.22910665 -0.02479308
 -0.19068576 -0.09614491 -0.06645488  0.10419941 -0.17623529 -0.08311941
 -0.0739387  -0.01232684  0.06539007  0.04442466  0.0316558   0.0621509
 -0.09002229 -0.34844133 -0.07750549 -0.12441909  0.00537408 -0.09895395
 -0.08525145  0.02243213 -0.13458677 -0.07223679  0.03163506  0.05403871
 -0.01444298 -0.05319966  0.16526325  0.06622691 -0.14601509  0.02662525
  0.05212028  0.3153567   0.23204498  0.08172145  0.01883809 -0.06007889
  0.08771984 -0.1867023   0.06814538  0.1983566   0.08811616  0.09968951
  0.10177898 -0.16898744  0.00349326  0.04541395 -0.08272237 -0.00375789
 -0.00350432 -0.03002027  0.03476407 -0.07844886  0.20271407  0.08575428
 -0.08415519 -0.09490332  0.05338142 -0.11702893 -0.08558103  0.04341272
 -0.14716214 -0.13538258 -0.27570054  0.06284811  0.39154071  0.12275998
 -0.21658127  0.01694383 -0.08042689 -0.06129715  0.09636227  0.0648877
 -0.09936778  0.03584149 -0.12389012 -0.00071935  0.18966086 -0.03392619
 -0.03272714  0.14262256 -0.03897109  0.04005982  0.07435264  0.00347014
 -0.09129133  0.04802229 -0.12346581 -0.01906957  0.05302955 -0.10258456
 -0.03490126  0.05900906 -0.177724    0.02484021  0.06249176 -0.03187482
 -0.023178    0.01283808 -0.14652948 -0.02710718  0.16686286 -0.21884084
  0.25134671  0.16164432  0.03344287  0.13309467  0.10591426  0.085237
 -0.06255629 -0.02140442 -0.04847598 -0.06439491  0.07166666  0.05281516
  0.0703017  -0.01520271]