[-1.14825562e-01  1.49326324e-01  6.64211586e-02 -4.73606847e-02
 -6.78770095e-02 -3.90629433e-02 -8.30012634e-02 -7.92497471e-02
  8.14433694e-02 -6.41995016e-03  2.35392243e-01 -4.57748510e-02
 -1.86938226e-01 -9.80463699e-02 -9.37641487e-02  1.18989192e-01
 -2.05384240e-01 -1.29296824e-01 -5.97311668e-02 -6.23216294e-02
  4.39727493e-02  6.56188875e-02  5.18307686e-02  8.37229937e-03
 -7.06639662e-02 -3.31496686e-01 -7.07563609e-02 -1.25745460e-01
  7.53964484e-02 -5.09381071e-02 -4.14182208e-02  1.75740626e-02
 -1.18913747e-01 -5.17647378e-02  5.51541112e-02  5.97432330e-02
 -5.58416434e-02 -7.61430860e-02  1.97619841e-01  2.04012133e-02
 -1.28548607e-01  1.82792526e-02  9.02471542e-02  2.96536297e-01
  2.34593421e-01  5.23082614e-02  2.21873578e-02 -9.59779918e-02
  1.02192156e-01 -1.91363379e-01  2.91963406e-02  2.26794109e-01
  1.10092297e-01  7.42720515e-02  1.01984300e-01 -1.52711034e-01
  2.94707119e-02  8.61808583e-02 -1.02809705e-01  5.51611781e-02
  2.75919568e-02 -2.42801458e-02  5.43411635e-02 -6.09983094e-02
  2.10582539e-01  7.01084435e-02 -1.04077876e-01 -1.02137208e-01
  9.13673565e-02 -1.14730835e-01 -5.84449880e-02  6.97944313e-02
 -1.60880983e-01 -1.39011726e-01 -2.29587942e-01  7.66239082e-03
  3.73842537e-01  9.30844694e-02 -1.36816010e-01  1.15888119e-02
 -6.07420206e-02 -4.66438942e-02  7.24481866e-02  6.22369759e-02
 -1.75382242e-01 -3.18879299e-02 -1.38444409e-01 -1.63490810e-02
  2.04320908e-01 -4.26923521e-02 -3.64488326e-02  1.59800246e-01
 -3.89538407e-02  3.60242389e-02  6.97820708e-02  3.27174999e-02
 -1.17653213e-01  1.69200078e-02 -9.64509845e-02 -3.33296768e-02
  3.58440354e-02 -1.76074907e-01 -7.16670835e-03  9.02929008e-02
 -1.37094960e-01 -3.67636618e-04 -8.47207196e-03  1.71232428e-02
 -2.87199859e-02 -7.26483762e-03 -9.25732180e-02 -3.05580851e-02
  1.75374612e-01 -1.56724125e-01  2.31612876e-01  1.78524330e-01
  3.31083313e-02  1.20963909e-01  1.46277353e-01  7.44992569e-02
 -7.28793964e-02 -1.45686185e-02 -4.47835103e-02 -5.09084165e-02
  4.74815210e-03  2.67686136e-02  7.15510994e-02  1.92997535e-03]