[-0.08065671  0.13339205  0.08860745 -0.01619458  0.01080146 -0.10469953
 -0.04788119 -0.06471726  0.08897924 -0.01964381  0.26411715 -0.05471196
 -0.19415233 -0.09035689 -0.09438404  0.13529749 -0.15473413 -0.05694931
 -0.10139177 -0.05298337  0.05495051  0.03722748  0.04226742  0.03578858
 -0.07146072 -0.28819284 -0.08575139 -0.12542211 -0.01236268 -0.0701975
 -0.04479394  0.03847851 -0.14631449 -0.07187887  0.01587576  0.00676614
 -0.00827315 -0.03373208  0.20626692  0.04050035 -0.12943536  0.06066514
  0.02834357  0.3079477   0.20441186  0.04326909 -0.00124262 -0.06757253
  0.07998984 -0.18439053  0.03942787  0.17397521  0.09562021  0.09551423
  0.0494046  -0.11490339  0.04239638  0.04675302 -0.1077738  -0.01600466
  0.04664213 -0.07516448 -0.01358463 -0.05481369  0.1887565   0.07058467
 -0.10452827 -0.09211005  0.05978525 -0.12203603 -0.03418579  0.04836561
 -0.15033908 -0.13280793 -0.24788764  0.08336224  0.35619423  0.13312508
 -0.20736817  0.04251027 -0.10810824 -0.00704858  0.11638089  0.05076925
 -0.07800696  0.03040525 -0.09255478 -0.00724982  0.15130861 -0.06107464
 -0.06242668  0.17176686 -0.02633251  0.03254474  0.0607431  -0.04055326
 -0.05761361  0.01022881 -0.1045635   0.02721797  0.03989976 -0.09420294
 -0.03777788  0.03138162 -0.15472451  0.05668117  0.03069417 -0.00876796
 -0.00894675  0.03359918 -0.11409786 -0.05106077  0.13814442 -0.19391774
  0.23692453  0.15788157  0.01919382  0.12066736  0.11685517  0.09518121
 -0.0683796   0.01373167 -0.06274667 -0.0711678   0.10217448  0.06203962
  0.10859042 -0.02907535]