[-1.07671976e-01  1.44149154e-01  7.56949857e-02 -1.47307143e-02
 -5.34363762e-02 -3.65420319e-02 -7.66003951e-02 -4.84796651e-02
  9.96600986e-02 -2.96280533e-02  2.47570425e-01 -3.50479670e-02
 -1.98054507e-01 -5.74858561e-02 -1.05614141e-01  9.92874131e-02
 -1.85413226e-01 -8.56965110e-02 -8.00619125e-02 -6.84032440e-02
  5.39101362e-02  5.20937853e-02  3.68410982e-02  3.67671810e-02
 -6.55805692e-02 -3.24631304e-01 -7.19773695e-02 -1.20113812e-01
  1.11202918e-01 -1.07299857e-01 -8.29186141e-02 -2.26392001e-02
 -1.29386663e-01 -6.67538792e-02  2.66019311e-02  2.76662260e-02
 -2.79996134e-02 -9.24342498e-02  1.86001390e-01  6.51092902e-02
 -1.04721881e-01 -6.11510128e-03  6.65286109e-02  3.03121597e-01
  2.18564913e-01  6.38626367e-02  1.83474016e-03 -7.73371607e-02
  8.37063938e-02 -2.17170596e-01  1.32175311e-02  2.06772923e-01
  1.21211313e-01  7.69694671e-02  8.66703466e-02 -1.56711429e-01
  3.01632266e-02  6.11355007e-02 -1.25677601e-01  7.32541904e-02
  3.03943213e-02 -3.20535265e-02  2.85624564e-02 -4.94113080e-02
  1.90421253e-01  7.91473389e-02 -9.40690488e-02 -1.01277724e-01
  8.74281675e-02 -1.62209064e-01 -2.03675646e-02  6.56837896e-02
 -1.16467409e-01 -1.45588785e-01 -1.98537409e-01  1.67497396e-02
  4.05294329e-01  1.57863304e-01 -1.31897718e-01  2.74397084e-03
 -9.84267741e-02 -8.71439949e-02  7.11414665e-02  6.11383505e-02
 -1.45405635e-01 -2.87447032e-02 -1.14364006e-01  6.37450395e-03
  1.78417385e-01 -1.64601486e-02 -4.19301866e-03  1.65319398e-01
 -3.36903706e-02  2.91970018e-02  4.96101528e-02  3.66203720e-03
 -1.52551949e-01  1.86064057e-02 -6.09910749e-02 -2.04782244e-02
 -1.06447376e-02 -1.66432217e-01  8.66103731e-03  6.71103522e-02
 -1.55770808e-01  1.31131653e-02 -9.85095860e-04 -3.21253017e-02
  4.97533707e-03  1.22246752e-02 -1.03860937e-01 -5.22096939e-02
  1.68665424e-01 -1.83349892e-01  1.94922462e-01  2.03378111e-01
  5.70152514e-02  1.18982613e-01  1.09505467e-01  8.69368538e-02
 -3.40774953e-02 -3.61357641e-04 -4.87613790e-02 -5.61416037e-02
 -3.31546851e-02 -3.17555964e-02  4.03311811e-02 -3.72422338e-02]