[-8.39267224e-02  1.84695676e-01  9.31310728e-02  1.60174072e-02
 -6.32852688e-02 -2.92955134e-02 -6.75946102e-02 -6.94516823e-02
  4.11244519e-02  3.73527147e-02  2.27363855e-01 -4.46785651e-02
 -2.25788072e-01 -1.00700773e-01 -7.12763369e-02  1.49396464e-01
 -1.70445010e-01 -1.30855426e-01 -5.81183434e-02 -1.88300349e-02
  7.79128894e-02  6.52377605e-02  1.25243962e-02  2.67239269e-02
 -9.52562913e-02 -3.18463683e-01 -4.82684374e-02 -1.16862915e-01
 -2.01352779e-02 -8.15729797e-02 -6.34364411e-02 -2.26105545e-02
 -1.43729746e-01 -4.82383110e-02  5.86646311e-02  5.25951572e-02
 -1.21103972e-02 -7.22049773e-02  1.55974120e-01 -6.72610477e-05
 -1.67378649e-01  4.91541736e-02  1.03046313e-01  2.90012360e-01
  1.89739868e-01  5.20470217e-02  1.86089613e-02 -1.13990001e-01
  8.58944878e-02 -1.57668814e-01  5.16016297e-02  1.78852707e-01
  1.18590556e-01  9.26701203e-02  1.99519191e-02 -1.43081173e-01
  2.31363680e-02  5.69947138e-02 -1.24945700e-01  4.77547431e-03
  5.92355318e-02 -4.35015373e-02 -1.16902795e-02 -8.50776359e-02
  1.94000870e-01  4.59279642e-02 -1.10381447e-01 -1.47583753e-01
  2.31023952e-02 -1.50868192e-01 -9.71112549e-02  6.66325018e-02
 -1.42786786e-01 -1.43419385e-01 -2.82777637e-01  4.17188555e-02
  3.71095389e-01  9.43980440e-02 -2.32503682e-01  9.68363415e-03
 -5.31528369e-02 -4.51656850e-03  1.08885385e-01  1.06322877e-01
 -6.53794631e-02  3.29868160e-02 -1.42270997e-01  4.70319204e-03
  2.13841751e-01 -7.99662396e-02 -3.04992385e-02  1.68154910e-01
  7.01706717e-03  4.60792817e-02  5.03169298e-02  2.69411691e-02
 -5.95547073e-02  4.47690152e-02 -9.31194052e-02 -3.33051826e-03
  3.04792020e-02 -6.92997798e-02 -2.56712325e-02  6.60127327e-02
 -1.46795720e-01  3.82617414e-02  3.69596854e-02  1.15080019e-02
  3.47924978e-03 -1.35994852e-02 -1.08716324e-01 -8.10947716e-02
  1.55024216e-01 -2.04437658e-01  2.07752019e-01  1.71995297e-01
  2.74584685e-02  9.36972573e-02  1.08941555e-01  9.87249836e-02
 -5.36766723e-02 -1.86577532e-02 -1.11739628e-01 -3.75362001e-02
  8.66538286e-02  4.15142952e-03  8.23248997e-02 -2.03054883e-02]