[-1.01394437e-01  1.41031072e-01  1.10844374e-01 -8.95097386e-03
 -4.44037318e-02 -7.23293051e-02 -8.33315030e-02 -7.97634125e-02
  6.23089038e-02 -4.60763229e-03  2.82895565e-01 -3.89650725e-02
 -1.83453545e-01 -8.57793316e-02 -7.33510107e-02  1.27703294e-01
 -1.20666064e-01 -9.47939754e-02 -1.01563625e-01 -2.11897232e-02
  5.03525101e-02  1.89226996e-02  3.21126953e-02  2.37610750e-02
 -7.99472854e-02 -3.32566470e-01 -9.55201015e-02 -8.61081406e-02
  6.94403937e-03 -6.72208592e-02 -8.10313001e-02  1.69557016e-02
 -1.61500126e-01 -8.16076472e-02  3.38904969e-02  5.26376665e-02
 -1.62599124e-02 -6.74544796e-02  1.65009826e-01  4.11925651e-02
 -1.69262946e-01  6.13966696e-02  5.62922247e-02  2.74713844e-01
  2.16843471e-01  5.44878542e-02  2.87497286e-02 -7.67375678e-02
  6.01236224e-02 -1.76099285e-01  3.91967669e-02  1.80173814e-01
  9.95293558e-02  9.05753523e-02  6.30849153e-02 -1.37517825e-01
  1.56394560e-02  6.65474162e-02 -8.63532126e-02  2.56746565e-03
  3.04810312e-02 -6.23803921e-02  1.69938561e-02 -9.36746225e-02
  1.95671245e-01  1.04240946e-01 -1.13345735e-01 -8.78034458e-02
  8.46915916e-02 -9.84908342e-02 -4.54856344e-02  4.90320548e-02
 -1.66503891e-01 -1.44550234e-01 -2.73430765e-01  8.36510509e-02
  3.91290426e-01  1.13420904e-01 -2.18048841e-01 -1.16864499e-02
 -6.99247420e-02 -1.53321940e-02  7.68222585e-02  8.32064077e-02
 -7.99310505e-02  1.72790047e-02 -1.03499286e-01 -4.30257851e-03
  2.03154430e-01 -3.66169810e-02 -3.24097574e-02  1.63514122e-01
 -3.50687131e-02  5.14881425e-02  6.19558394e-02  3.50588225e-02
 -7.59658292e-02  1.55138972e-04 -1.15972675e-01  2.10471600e-02
  5.84210595e-03 -1.08614936e-01 -3.67053449e-02  7.46301264e-02
 -1.27804562e-01  2.03133021e-02  2.45874748e-02 -1.18885320e-02
 -3.12289633e-02  2.34994777e-02 -7.98512176e-02 -5.88861071e-02
  1.24555424e-01 -1.76671430e-01  2.38245592e-01  1.86549500e-01
  3.16124298e-02  1.03624202e-01  1.25559479e-01  8.72394294e-02
 -5.06136529e-02 -1.87975320e-03 -5.72707318e-02 -7.33946562e-02
  4.73344289e-02  2.41066683e-02  7.21464083e-02 -1.25839412e-02]