[-0.07259526  0.17007759  0.06399952  0.00675388 -0.0288179  -0.01899247
 -0.06995096 -0.02322708  0.12315601 -0.01836339  0.23629461 -0.03601708
 -0.20086102 -0.06703078 -0.07973494  0.14125663 -0.16576068 -0.07688803
 -0.08288204 -0.03577799  0.05689549  0.06572618  0.00769956  0.06648468
 -0.11199571 -0.34978658 -0.06585709 -0.11421662 -0.00719343 -0.09813985
 -0.0508348   0.04052841 -0.12251314 -0.04630864  0.03610612  0.03577866
 -0.02579481 -0.00968263  0.19557217  0.10357814 -0.12644039  0.00822611
  0.04136102  0.33224791  0.20834641  0.08606139  0.0026508  -0.07408469
  0.07758787 -0.24503623  0.03754657  0.19213107  0.06747182  0.10934194
  0.10639049 -0.13054828 -0.00781714  0.0383856  -0.10865879 -0.00419259
 -0.01916259 -0.02468228 -0.02278332 -0.09253605  0.22060147  0.08111663
 -0.10961676 -0.06812965  0.08791813 -0.13626263 -0.07553966  0.05474277
 -0.1011972  -0.14296049 -0.26670715  0.06216874  0.39994085  0.14651211
 -0.1977303   0.01084507 -0.04937557 -0.08025995  0.08312427  0.06845164
 -0.11672733  0.02581812 -0.04631193  0.03723904  0.162027   -0.02099002
 -0.01013018  0.18382049 -0.03268987  0.06457996  0.05532018 -0.00544951
 -0.07515932  0.01428377 -0.12017292 -0.01651861  0.06281256 -0.07454947
 -0.00421567  0.06431108 -0.18413882  0.06693579  0.03208838 -0.05146471
  0.00873744  0.04498364 -0.15161833 -0.02597167  0.18695399 -0.21647942
  0.20015211  0.15671915 -0.00227028  0.10614838  0.10506979  0.07726087
 -0.05959162 -0.02530258 -0.08784302 -0.06218481  0.08388955 -0.00547642
  0.04569774 -0.05070633]