[-0.08644671  0.13448283  0.07921098 -0.02313337 -0.01602418 -0.0948276
 -0.05072256 -0.07008372  0.06429542 -0.00457088  0.24804223 -0.06235467
 -0.2079532  -0.10327373 -0.09656377  0.1425245  -0.1475099  -0.08159456
 -0.10184786 -0.03650958  0.06517386  0.03181086  0.05082675  0.01430557
 -0.08278514 -0.31619295 -0.07747927 -0.08991601 -0.02985329 -0.0601743
 -0.03381068  0.04199798 -0.14304872 -0.05527401  0.03623711  0.04227484
 -0.03461153 -0.06753262  0.21584561  0.02416123 -0.14436986  0.03886134
  0.08495229  0.2823351   0.21183746  0.03937598  0.0283202  -0.07850438
  0.09058138 -0.16206817  0.03611481  0.18496354  0.10422327  0.0983068
  0.06938093 -0.12140355  0.0564291   0.0744807  -0.10267406 -0.03427263
  0.03449846 -0.06196459  0.01026085 -0.05003362  0.19953959  0.05602685
 -0.10487244 -0.09229439  0.07671284 -0.10434967 -0.03637989  0.04733175
 -0.16303699 -0.13593295 -0.2585693   0.06940022  0.35811403  0.09206081
 -0.16896783  0.03780218 -0.07390608 -0.03153422  0.08804494  0.05314279
 -0.11508026  0.01262218 -0.11504822  0.00418334  0.19260739 -0.05623238
 -0.05404561  0.14210005 -0.02019117  0.01110909  0.06346839 -0.01686536
 -0.07711621  0.0360634  -0.09164313  0.0283655   0.05319495 -0.14255314
 -0.03157009  0.05235912 -0.1567764   0.02228307  0.01764793 -0.0095211
 -0.02138537  0.00837202 -0.12436786 -0.04675328  0.1240006  -0.18730216
  0.23484872  0.15175813  0.02212831  0.11358066  0.13086307  0.10079873
 -0.05749238  0.01559923 -0.05533293 -0.06831547  0.08744761  0.07088473
  0.11959215 -0.01003492]