[-7.20716417e-02  1.47673979e-01  7.45807961e-02 -2.52097975e-02
 -1.01508191e-02 -8.70185271e-02 -5.67027703e-02 -8.28668699e-02
  5.39756231e-02 -4.64500254e-03  2.44976670e-01 -6.39410019e-02
 -2.05626369e-01 -1.16256014e-01 -1.02551423e-01  1.53259143e-01
 -1.46357685e-01 -8.55988264e-02 -1.08012915e-01 -3.90537903e-02
  6.54489398e-02  3.39261740e-02  5.87775707e-02  1.17260767e-02
 -6.07589073e-02 -2.96376288e-01 -7.22058192e-02 -1.02654926e-01
 -2.24770494e-02 -6.21493571e-02 -4.38182056e-02  2.64340043e-02
 -1.38633847e-01 -5.98977096e-02  3.56567092e-02  3.49303298e-02
 -3.78403664e-02 -7.48132467e-02  2.12639496e-01  1.55703621e-02
 -1.33140445e-01  5.74565232e-02  8.88114125e-02  2.69765347e-01
  2.26141140e-01  4.77698259e-02  2.73649339e-02 -8.19506198e-02
  9.90142077e-02 -1.70290917e-01  3.57175395e-02  1.79439709e-01
  1.02342680e-01  1.09738939e-01  6.34902045e-02 -1.25492811e-01
  5.68815731e-02  6.12667389e-02 -8.89755040e-02 -1.88224651e-02
  4.12339307e-02 -6.44376054e-02  9.59013868e-03 -5.16911335e-02
  2.01865479e-01  4.68918458e-02 -1.14409581e-01 -9.84514579e-02
  6.08772822e-02 -1.14293471e-01 -4.91686575e-02  4.90438007e-02
 -1.65150568e-01 -1.23329155e-01 -2.61134267e-01  6.47366196e-02
  3.47451627e-01  1.04089178e-01 -1.72711879e-01  3.42043452e-02
 -8.03817585e-02 -1.52349100e-02  8.60954598e-02  6.25277683e-02
 -9.13246647e-02 -1.87738391e-03 -1.21186867e-01 -2.22174320e-02
  1.93086505e-01 -7.20305294e-02 -6.34662136e-02  1.60204723e-01
 -2.51292344e-02  3.06891929e-02  4.48789932e-02 -8.34464561e-03
 -7.25646093e-02  2.93233395e-02 -7.77392089e-02  2.90183816e-02
  4.29365970e-02 -1.32049665e-01 -3.61971706e-02  4.95282188e-02
 -1.40770629e-01  1.98213104e-02  4.24638769e-04  2.10065693e-02
 -1.91467609e-02  7.97971897e-03 -1.19707368e-01 -4.46346477e-02
  1.22915089e-01 -1.80967838e-01  2.41987780e-01  1.63797721e-01
  2.54397672e-02  9.63263661e-02  1.44581437e-01  1.06946662e-01
 -5.08537255e-02  1.73000824e-02 -6.28412887e-02 -7.95048326e-02
  7.79545382e-02  7.51881674e-02  1.08375803e-01  6.56478151e-05]