[-0.07260209  0.16191988  0.06280231  0.01637757 -0.02869504 -0.04748103
 -0.07472499 -0.04259051  0.11465613  0.02700635  0.24060392 -0.0367499
 -0.19747451 -0.09130562 -0.07356059  0.11414213 -0.17811583 -0.09734482
 -0.06762923 -0.01894738  0.06199281  0.03783043  0.01716016  0.07105412
 -0.0996897  -0.33775052 -0.0761577  -0.13386591 -0.00717557 -0.09864277
 -0.06565246  0.02348066 -0.13668899 -0.06963789  0.02419327  0.04270719
  0.01299948 -0.05249729  0.16814955  0.0567308  -0.14430995  0.02239172
  0.05923833  0.32812485  0.21023361  0.06988121  0.01282767 -0.06669726
  0.07353229 -0.17233664  0.055585    0.19602805  0.09256413  0.10304657
  0.06740121 -0.1542694   0.00832593  0.0522057  -0.08816995 -0.00933415
  0.01414166 -0.02566158  0.01845669 -0.08072414  0.2105023   0.07755358
 -0.08628599 -0.10404959  0.03956849 -0.12865524 -0.09881847  0.03801841
 -0.14846553 -0.13214371 -0.27853021  0.06342696  0.39766052  0.1189143
 -0.22334228  0.0284862  -0.08796453 -0.0550401   0.09503886  0.06752367
 -0.08806407  0.03519468 -0.12605539  0.00168279  0.19640984 -0.03145204
 -0.02563562  0.1309645  -0.03657865  0.02395318  0.06342367 -0.00525208
 -0.08445997  0.05715678 -0.11960153 -0.01826457  0.04363307 -0.0776521
 -0.03730942  0.04809811 -0.19026853  0.03592438  0.07308676 -0.03995993
 -0.00692067  0.02889716 -0.13826299 -0.03770493  0.17815351 -0.21282735
  0.23518935  0.15371144  0.04616321  0.13539626  0.10161441  0.10341878
 -0.07351822 -0.01284041 -0.064342   -0.05911689  0.07525612  0.04086256
  0.08397406 -0.0217344 ]