[-0.068554    0.11396977  0.0210567  -0.03327168 -0.07467841 -0.02985466
  0.02562964 -0.1891908   0.13625911 -0.06623446  0.2891455  -0.08713967
 -0.22571886 -0.15256692 -0.0106503   0.19221102 -0.19253227 -0.17673604
 -0.02511132 -0.05817262  0.09409966 -0.02850407  0.01320028  0.04365366
 -0.10253165 -0.33042693 -0.07095357 -0.08110901  0.04578608 -0.00365065
 -0.05524669  0.09121723 -0.22759643 -0.08165088  0.06103845  0.0680538
  0.01294396 -0.06306278  0.1859259  -0.05048375 -0.18167377  0.00163478
  0.07277704  0.22924078  0.13558635  0.00572023  0.04242422 -0.09441524
  0.1029677  -0.11914109  0.04944642  0.12089509  0.0926485  -0.00067333
  0.02721804 -0.17268547 -0.01261032  0.0775238  -0.15234224 -0.00124666
  0.08222155 -0.10419159 -0.07886698 -0.11785654  0.14470094  0.03958778
 -0.0522968  -0.19999431  0.13134511 -0.1070056  -0.06478965  0.04685727
 -0.17493761 -0.16117948 -0.33630896  0.01056504  0.3881951   0.06693657
 -0.18444401  0.08323031  0.03980232  0.01115204  0.16406702  0.1086731
  0.00867215  0.078362   -0.14207219  0.04476684  0.18300904 -0.07925349
 -0.06983215  0.19664676 -0.06780112  0.04416001  0.04000297  0.01978192
 -0.00968183  0.06601235 -0.14759617  0.0127994   0.0551634  -0.03128193
 -0.03171366  0.07482325 -0.15100341  0.01433317 -0.00768799  0.04825623
 -0.06692813 -0.06981806 -0.11590542 -0.02498956  0.10655558 -0.24243365
  0.17341048  0.17888489  0.00101812  0.11373758  0.07795051  0.01833296
  0.0312046  -0.0540711  -0.22397211 -0.05214393  0.11455335 -0.01713445
  0.08047795  0.01314066]