[-0.08445021  0.12129071  0.00421473 -0.05087435 -0.07404049 -0.02748284
 -0.05891169 -0.16855791  0.18418688 -0.09268593  0.28294984 -0.05753453
 -0.18391657 -0.15326303 -0.03866724  0.23470333 -0.25084984 -0.19687985
  0.04720702 -0.02974038  0.11831937 -0.02167168 -0.00479355  0.06179438
 -0.10208907 -0.32043481 -0.10050535 -0.05168466  0.06194671 -0.05873248
 -0.0536126   0.0450878  -0.21541588 -0.0844779   0.08024598  0.08923104
  0.00878152 -0.10422259  0.17084797 -0.03388173 -0.19891097 -0.01527177
  0.10874857  0.24133401  0.17600583  0.02900731  0.0043249  -0.13467084
  0.08607494 -0.10718675 -0.01282052  0.1325991   0.07277273  0.03576529
 -0.01643844 -0.17972706  0.00819306  0.08348934 -0.16411851 -0.03295323
  0.04956105 -0.11859337 -0.01684507 -0.0786532   0.18955921  0.04804061
 -0.05187034 -0.25710538  0.13376369 -0.13001007 -0.09090468  0.0681572
 -0.14979444 -0.16752635 -0.32499853 -0.07315701  0.37442291  0.04698026
 -0.15218295  0.12320863  0.02248578 -0.02973625  0.1342517   0.1451692
  0.03963737  0.05105823 -0.1322515   0.00352074  0.23676138 -0.07633384
 -0.03864786  0.16166186 -0.0627823   0.05073963  0.04649648  0.0338589
 -0.03078515  0.10549086 -0.13658917 -0.04213407 -0.00843984 -0.0064173
 -0.00206835  0.09948544 -0.15903459  0.03006665  0.03680891  0.03084994
 -0.05766628 -0.03273199 -0.10561398 -0.05040833  0.11654297 -0.26640749
  0.2144938   0.20474739  0.0455913   0.13422115  0.08373379  0.06502686
  0.00696068 -0.06404699 -0.18941446 -0.01516598  0.03873372 -0.0369448
  0.11088222  0.00493787]