[-5.67327030e-02  1.48020253e-01 -6.71555242e-03 -1.76065750e-02
 -4.90108132e-02 -6.60052244e-03 -1.14054680e-02 -1.82486981e-01
  1.60862729e-01 -8.73482451e-02  2.82897294e-01 -7.76821896e-02
 -2.27279618e-01 -1.28596887e-01 -5.71937226e-02  1.86104938e-01
 -2.17278346e-01 -1.85207859e-01 -7.87282921e-03 -1.74964964e-02
  9.49403197e-02  3.56647652e-04  1.98386684e-02  5.94327934e-02
 -1.08257107e-01 -3.24947327e-01 -7.49633238e-02 -7.58904517e-02
  5.50952628e-02 -3.23670320e-02 -6.01127259e-02  5.26276045e-02
 -2.08322957e-01 -5.73402643e-02  5.20112887e-02  3.82720567e-02
  3.38212843e-03 -7.94322342e-02  2.10591346e-01 -3.18587981e-02
 -2.05621123e-01 -3.94297624e-03  6.78945407e-02  2.60856479e-01
  1.80387899e-01 -3.41486349e-03  5.08175464e-03 -1.19611323e-01
  7.65890181e-02 -1.41310856e-01  1.41425198e-02  1.49351344e-01
  2.83803288e-02  2.68579125e-02  9.28020757e-03 -1.76590011e-01
 -1.71325505e-02  8.45205486e-02 -1.35897741e-01 -1.71965193e-02
  6.50504306e-02 -9.16193053e-02 -1.39239943e-02 -8.26491937e-02
  1.78306699e-01  4.83329594e-02 -5.65271489e-02 -2.34586269e-01
  1.41394049e-01 -1.62282094e-01 -8.42204615e-02  5.71161322e-02
 -1.41730979e-01 -1.68531641e-01 -3.25533599e-01 -2.70702932e-02
  3.74688834e-01  9.16081890e-02 -1.59943491e-01  1.24286771e-01
  2.67825257e-02 -1.53561626e-02  1.88035160e-01  1.27402410e-01
  1.77277979e-02  5.92210479e-02 -1.41046673e-01  7.43506197e-03
  2.34824345e-01 -4.32880186e-02 -8.66517723e-02  1.92577049e-01
 -7.58605599e-02  3.34983617e-02  8.73160064e-02  2.04435848e-02
 -2.61223316e-02  7.24132210e-02 -1.73504278e-01  1.82474311e-02
  1.37027656e-03 -1.92515142e-02 -2.99890339e-02  1.10768735e-01
 -1.25705749e-01  3.75148728e-02  8.95341672e-03  3.79841290e-02
 -5.63200116e-02 -4.79792468e-02 -1.23666421e-01 -1.45744476e-02
  1.27575800e-01 -2.52066910e-01  2.20815971e-01  1.41759023e-01
  5.90089560e-02  1.16315499e-01  1.07596315e-01  2.88446490e-02
  1.50244152e-02 -3.64544839e-02 -2.27557942e-01 -4.73584346e-02
  7.79889077e-02 -4.31077778e-02  1.19235419e-01  3.72857973e-03]