[-0.05993322  0.08891457 -0.03889126 -0.04936725 -0.07933708 -0.02491367
  0.00816481 -0.12322564  0.13878557 -0.02428973  0.3001506  -0.06045654
 -0.20863044 -0.18128656  0.0075459   0.19119532 -0.21220303 -0.16600485
  0.00577587 -0.06010827  0.0761179   0.00808052 -0.00843766  0.07469904
 -0.1448577  -0.34027323 -0.0621953  -0.09374386 -0.00236172 -0.06028134
 -0.02058065  0.16688539 -0.17700173 -0.06901938  0.08221518  0.10641646
  0.02364207 -0.01111468  0.18416877  0.01653479 -0.16175954  0.0109124
  0.09097385  0.29850197  0.19632451  0.01457477  0.01286909 -0.07183916
  0.05059041 -0.16106616  0.04205247  0.12803055  0.05859521  0.03736578
  0.01649864 -0.16986367 -0.03506253  0.07144307 -0.18769304 -0.04171328
  0.02310949 -0.08792741 -0.06118116 -0.11610883  0.20789425  0.07829551
 -0.08049362 -0.16738556  0.13547023 -0.13250545 -0.13606499  0.04263825
 -0.16222747 -0.15258823 -0.34283704  0.00323017  0.35970411  0.07943901
 -0.22949398  0.08209948  0.03210575 -0.02032912  0.16664338  0.08697983
  0.02398454  0.04073934 -0.1091785   0.01648017  0.18297498 -0.0247685
 -0.07493997  0.18420146 -0.04295417  0.06053512  0.10013079  0.03034904
  0.02413289  0.05051696 -0.18989441 -0.02556064  0.00121018 -0.05099368
 -0.02372249  0.09354063 -0.16017459  0.08431859  0.04983472  0.01903006
 -0.07419833 -0.02149528 -0.09346252 -0.00163837  0.14077511 -0.28856274
  0.21150985  0.17160276  0.01441988  0.14892809  0.06051695  0.04104821
 -0.03425775 -0.08008116 -0.19849585 -0.02792997  0.08014562 -0.02340801
  0.10130759  0.02629843]