[-4.10399027e-02  1.01430170e-01 -4.80739912e-03 -2.24878900e-02
 -9.77175459e-02 -3.87136415e-02 -5.03596850e-02 -1.37005076e-01
  1.47624418e-01 -7.05261454e-02  2.74949938e-01 -3.82483341e-02
 -2.02716187e-01 -1.62148401e-01 -2.05935966e-02  1.99135885e-01
 -2.28139549e-01 -1.30586177e-01  1.81636997e-02 -3.11082546e-02
  8.66160616e-02  8.17625492e-04  4.79213166e-04  2.21222639e-02
 -7.94903338e-02 -3.27708185e-01 -8.97698328e-02 -7.39648640e-02
  3.47602069e-02 -4.54897285e-02 -5.90710640e-02  9.68754888e-02
 -1.77643090e-01 -1.02572314e-01  7.36258253e-02  7.58617148e-02
 -2.22545844e-02 -4.76323143e-02  1.78410023e-01 -3.57487313e-02
 -1.60618261e-01 -2.74836775e-02  9.13167596e-02  2.64325917e-01
  1.49843067e-01  3.15363705e-02  1.62727199e-02 -1.05657771e-01
  7.44366571e-02 -1.46263435e-01  3.97586823e-02  1.19737327e-01
  7.60078579e-02  5.81369586e-02  5.57649881e-04 -1.78006425e-01
 -1.21719393e-04  8.28365609e-02 -1.70424446e-01 -3.78314741e-02
  5.37577569e-02 -9.41333100e-02 -4.74983528e-02 -8.44200626e-02
  2.30718717e-01  7.27427378e-02 -5.15916646e-02 -1.99749663e-01
  1.28279582e-01 -1.25595078e-01 -9.79123265e-02  3.16177197e-02
 -1.52037308e-01 -1.55564055e-01 -3.33152354e-01 -3.22602801e-02
  3.61451268e-01  6.11098111e-02 -1.70704499e-01  6.78533837e-02
  7.11845059e-04 -4.67842706e-02  1.57131955e-01  8.29394013e-02
  1.45070348e-02  5.40369041e-02 -1.10040642e-01  2.62475163e-02
  2.14360312e-01 -1.01597406e-01 -4.75615114e-02  1.56570449e-01
 -1.57674681e-02  5.09476662e-02  6.61291704e-02 -2.76822597e-03
  1.40215075e-02  6.72482252e-02 -1.91341862e-01 -7.58730201e-03
  1.71394777e-02 -5.96178770e-02 -1.70273073e-02  9.18686911e-02
 -1.59312204e-01  4.97411303e-02  6.94303811e-02  1.60267387e-04
 -4.37200777e-02 -5.37828691e-02 -1.47132605e-01 -5.57182394e-02
  1.54703498e-01 -2.44805261e-01  2.31260642e-01  1.76272839e-01
  6.72351867e-02  1.54763639e-01  6.37513772e-02  5.80032170e-02
 -2.36854274e-02 -9.50311869e-02 -1.85343951e-01 -1.80224907e-02
  8.85578021e-02 -4.79655107e-03  8.46388042e-02  1.61948297e-02]