[-0.04125413  0.10735529 -0.02160421 -0.02248994 -0.08749145 -0.04095187
 -0.0376075  -0.14477457  0.16058463 -0.058901    0.28428659 -0.01859896
 -0.191249   -0.18089511 -0.01124802  0.19115447 -0.23460057 -0.13728872
  0.02480637 -0.02641286  0.08811923 -0.00204612  0.00710331  0.03804586
 -0.0877665  -0.33337665 -0.08956622 -0.0816779   0.03944143 -0.05251864
 -0.05822178  0.11427396 -0.17760535 -0.09748255  0.08049043  0.08022006
 -0.02477478 -0.03614979  0.19561493 -0.01611744 -0.15304726 -0.03408043
  0.0899479   0.26548392  0.16669655  0.02588494  0.01182535 -0.09332917
  0.08510562 -0.15167487  0.02362818  0.13101916  0.08061736  0.06328148
  0.01093293 -0.17718627 -0.00193411  0.0648643  -0.183237   -0.04173411
  0.03122958 -0.11042028 -0.05278259 -0.07696187  0.21819563  0.07013161
 -0.04906176 -0.18984748  0.13512485 -0.12786648 -0.10093317  0.04393484
 -0.15007874 -0.16493268 -0.32321629 -0.03523702  0.36770186  0.07160366
 -0.16753121  0.07255009  0.00230914 -0.06291654  0.15001769  0.07362456
  0.01531579  0.0450764  -0.11311702  0.02911271  0.20619856 -0.08802138
 -0.04429037  0.16055594 -0.02703837  0.07746879  0.06566341  0.00078091
  0.02125563  0.07717059 -0.18546505 -0.0048624   0.00637176 -0.06221045
 -0.00871594  0.08354199 -0.15779595  0.04453193  0.07609678  0.00072114
 -0.05485035 -0.04959202 -0.15023427 -0.04467155  0.14220165 -0.26465055
  0.2484335   0.17804414  0.04562302  0.15390849  0.0494187   0.04773483
 -0.02608567 -0.11150509 -0.17653202 -0.0232173   0.08100024 -0.00685426
  0.07643195  0.00425487]