[-0.0789787   0.11382752  0.01825164 -0.03762893 -0.04194557 -0.00408432
  0.00985965 -0.1589074   0.1412106  -0.04068771  0.2819804  -0.09195521
 -0.23817237 -0.14440209  0.00153821  0.17881659 -0.18989129 -0.15183993
 -0.02775923 -0.06167839  0.08201533 -0.03299841 -0.00619303  0.04503152
 -0.10194267 -0.32208091 -0.07094952 -0.10815652  0.04969007 -0.02704543
 -0.05839064  0.05752103 -0.21771698 -0.08171246  0.05363133  0.05864168
 -0.01530789 -0.06709823  0.16184375 -0.04684893 -0.14710143 -0.02213002
  0.06977542  0.22916742  0.14178683  0.02647745  0.02553876 -0.07751047
  0.09264072 -0.1736881   0.07922146  0.11885174  0.09741505  0.01396071
  0.070727   -0.17451362 -0.02195923  0.089327   -0.15403497  0.03651476
  0.0587549  -0.06589626 -0.08614632 -0.11130512  0.17413841  0.08105664
 -0.07639503 -0.18030261  0.12760296 -0.08624488 -0.06062032  0.04620229
 -0.16198152 -0.17004244 -0.33370718  0.03810559  0.38950405  0.05843738
 -0.18290225  0.06907346  0.02348992 -0.00603625  0.1427155   0.07829356
 -0.0191245   0.03924245 -0.11624465  0.03967125  0.17621855 -0.0703772
 -0.06442543  0.18047592 -0.10306131  0.02344019  0.02203005  0.02662463
 -0.0160631   0.0436262  -0.13627107 -0.01830243  0.09115489 -0.0442959
 -0.03820073  0.09401327 -0.16937385  0.00743192  0.0078553   0.02869961
 -0.0302261  -0.06536245 -0.14059804 -0.00756659  0.13193302 -0.25648054
  0.20015886  0.16611195  0.01224271  0.09025221  0.06886338  0.00547318
  0.04232505 -0.0460779  -0.2165042  -0.05218414  0.10969251 -0.01026225
  0.04169375  0.00522402]