[-2.85413060e-02  1.28393814e-01 -1.07276328e-02 -2.88706608e-02
 -8.43199641e-02 -1.69527289e-02 -4.17573154e-02 -1.42337903e-01
  1.73346758e-01 -6.84182197e-02  2.94145316e-01 -3.97092989e-03
 -2.03666523e-01 -1.96363568e-01 -3.84912305e-02  2.02772424e-01
 -2.37695023e-01 -1.65577024e-01  4.45726477e-02 -2.92689111e-02
  9.76182446e-02 -7.01207062e-03  1.67713165e-02  2.55517717e-02
 -1.09979562e-01 -3.53605777e-01 -7.69774541e-02 -5.10412455e-02
  3.10449731e-02 -6.33124411e-02 -3.79728191e-02  1.41331047e-01
 -1.98550373e-01 -7.27795288e-02  8.98046717e-02  6.75794482e-02
 -8.73534568e-03 -2.28468962e-02  1.87277421e-01 -1.12715652e-02
 -1.70718342e-01  5.64406672e-03  7.83762410e-02  2.66677469e-01
  1.77371219e-01  1.15396213e-02  3.41158584e-02 -1.28502890e-01
  7.54468590e-02 -1.09366551e-01  3.44531126e-02  1.60074875e-01
  6.46066815e-02  3.32153216e-02  1.43087283e-02 -1.63137302e-01
 -2.83620041e-02  8.34217295e-02 -1.71693310e-01 -1.64471492e-02
  4.49277535e-02 -9.13806334e-02 -2.69637108e-02 -7.35255629e-02
  1.64542452e-01  4.06290255e-02 -4.74579595e-02 -2.46865705e-01
  1.34767756e-01 -1.42691404e-01 -8.17416087e-02  8.49515796e-02
 -1.52076453e-01 -1.81286603e-01 -3.15020472e-01 -2.64789462e-02
  3.70400459e-01  8.26581866e-02 -1.44909412e-01  8.85721520e-02
  1.76940467e-02 -6.78908452e-02  1.50714368e-01  9.46446955e-02
  3.82713764e-03  4.25281599e-02 -1.09637395e-01  3.64272259e-02
  2.20850512e-01 -4.01742533e-02 -8.02114829e-02  1.93245739e-01
 -4.54105437e-02  5.16122542e-02  6.03750460e-02  2.19904628e-04
  9.30920802e-03  9.98496637e-02 -1.72216743e-01 -3.14509757e-02
 -2.97754835e-02 -7.42123351e-02 -6.28354633e-03  1.00935362e-01
 -1.35690674e-01  2.08837148e-02  2.64731590e-02  4.51623984e-02
 -5.90811968e-02 -7.63604511e-03 -1.52988374e-01 -6.15113378e-02
  1.24189392e-01 -2.79968590e-01  2.38098577e-01  1.74663708e-01
  6.81332424e-02  1.21309295e-01  8.02009255e-02  5.57270534e-02
  4.90202988e-03 -1.15261093e-01 -1.54610619e-01 -6.64745411e-03
  6.45854250e-02 -2.09716503e-02  1.11816801e-01 -8.69438890e-03]