[-0.10400178  0.13059016  0.00326838 -0.02172473 -0.04618951 -0.04727663
  0.01371444 -0.17902881  0.14874765 -0.01088454  0.31633207 -0.07618931
 -0.20493343 -0.19276249  0.00323813  0.1718213  -0.18389967 -0.15846062
 -0.01800068 -0.04447898  0.09668353 -0.02931212  0.03915817  0.07236926
 -0.12984705 -0.32884091 -0.11366542 -0.1308782   0.046301   -0.04647184
 -0.04011619  0.08981085 -0.18931013 -0.11842587  0.05931263  0.06868327
  0.00453715 -0.03245501  0.17918788 -0.01261731 -0.15879396  0.03600252
  0.06932981  0.29535386  0.18431698  0.04632835  0.05905734 -0.1070733
  0.06069508 -0.11667867  0.05688006  0.11553109  0.08653448  0.03140857
  0.07136526 -0.19820489 -0.02855746  0.07307258 -0.16686001 -0.0014558
  0.03149305 -0.03917717 -0.04595156 -0.08946953  0.20417738  0.11102706
 -0.06556994 -0.17290673  0.14973782 -0.10291479 -0.08255195  0.07656025
 -0.18856598 -0.14701794 -0.32058269  0.00081102  0.38363865  0.03380008
 -0.22327979  0.05898979  0.00462458  0.01502429  0.15526508  0.09375324
 -0.00575963  0.04655232 -0.12079511 -0.00137944  0.1689492  -0.05890352
 -0.06734149  0.17463227 -0.04698397  0.02554097  0.08850135  0.03043106
 -0.01606574  0.05745838 -0.16502385 -0.03007055  0.02414835 -0.03301565
 -0.02890288  0.06323176 -0.15970771  0.03624242  0.05160755  0.02512849
 -0.10080892 -0.0468331  -0.08733387  0.02104915  0.1241308  -0.29527572
  0.24206769  0.1723959  -0.02787144  0.1223767   0.05054522  0.03482348
 -0.01502269 -0.04378178 -0.15881838 -0.02940229  0.08645677 -0.01220786
  0.07852278  0.00355803]