[-5.40676117e-02  1.54072970e-01 -1.25325648e-02 -3.62155735e-02
 -5.74849248e-02 -2.07413733e-02  1.01832522e-03 -1.72055691e-01
  1.34333715e-01 -7.30247647e-02  2.65801042e-01 -4.81047481e-02
 -2.06956103e-01 -1.50476053e-01 -3.07463445e-02  1.69740200e-01
 -2.23854467e-01 -1.80724099e-01 -2.21383590e-02 -3.12923528e-02
  7.72139803e-02  2.09797975e-02  4.42532357e-03  4.17657457e-02
 -8.48845989e-02 -3.00695986e-01 -7.96741173e-02 -6.29912093e-02
  7.16859475e-02 -1.67176537e-02 -5.34267202e-02  6.79015070e-02
 -2.11757541e-01 -6.26332983e-02  7.39085749e-02  4.79042791e-02
 -1.50636062e-02 -6.70518503e-02  2.29114369e-01 -2.93296725e-02
 -1.75365880e-01 -1.01203436e-03  6.51995614e-02  2.85150737e-01
  1.95556030e-01 -8.14100355e-03  8.31074081e-03 -1.02365039e-01
  1.05380669e-01 -1.34661883e-01  4.78858911e-02  1.61250398e-01
  3.44377123e-02  4.31332029e-02  2.57584522e-03 -1.79286554e-01
 -4.38648229e-03  7.67818019e-02 -1.41953841e-01 -3.10373958e-02
  6.71054646e-02 -1.25680998e-01 -4.48295772e-02 -8.15718547e-02
  1.66378543e-01  2.48655062e-02 -5.83412014e-02 -2.45461926e-01
  1.45341232e-01 -1.43606693e-01 -8.90023336e-02  5.67016304e-02
 -1.59787759e-01 -1.38252631e-01 -3.42050284e-01  2.31327867e-04
  3.85864973e-01  9.79536772e-02 -1.52552441e-01  1.21693388e-01
  2.11351123e-02 -2.73133367e-02  1.84899196e-01  1.22787036e-01
  8.85885791e-04  5.79528585e-02 -1.46818995e-01  4.83543575e-02
  2.15239242e-01 -4.83156927e-02 -1.10236980e-01  1.76824734e-01
 -5.35150170e-02  4.36794125e-02  7.77456462e-02  2.44480949e-02
 -6.93181937e-04  5.78226335e-02 -1.75641373e-01  1.90317426e-02
  4.35190909e-02 -2.80769709e-02 -3.22413631e-02  1.39746815e-01
 -1.25629768e-01  6.75675273e-02  2.12161429e-02  5.12790494e-02
 -7.72205517e-02 -8.48278180e-02 -1.24419570e-01  3.43512418e-03
  1.14642777e-01 -2.44605064e-01  2.23178253e-01  1.35568723e-01
  4.81166504e-02  1.18555978e-01  1.02507070e-01  1.26133664e-02
  8.88383761e-03 -6.63362145e-02 -2.37169191e-01 -6.08584881e-02
  8.73986408e-02  7.93102477e-03  1.37664676e-01  2.52807830e-02]