[-7.46313334e-02  1.03154443e-01  1.42996758e-02 -3.35354172e-02
 -8.12891722e-02 -2.47003026e-02 -4.80156951e-02 -1.62713200e-01
  1.85072735e-01 -7.69014731e-02  2.77346998e-01 -3.48035470e-02
 -1.71596631e-01 -1.52001366e-01 -5.21213897e-02  2.21929103e-01
 -2.46550918e-01 -1.75758362e-01  3.62940878e-02 -3.31605077e-02
  1.14515640e-01 -7.69565254e-03 -2.67853145e-03  3.47097926e-02
 -8.64337236e-02 -3.33910972e-01 -9.86334234e-02 -5.98221198e-02
  6.12528324e-02 -4.64155264e-02 -5.30813038e-02  6.32001385e-02
 -2.16498017e-01 -1.04055524e-01  8.97993371e-02  9.08303484e-02
  7.44076073e-03 -7.41523430e-02  1.59639210e-01 -2.69325711e-02
 -1.83154598e-01  2.28747334e-02  1.09017603e-01  2.56747395e-01
  1.75056353e-01  4.70681861e-02  1.44616580e-02 -1.29817396e-01
  9.70415995e-02 -1.02514379e-01  1.54782829e-04  1.24139644e-01
  8.31131414e-02  2.90182233e-02  6.23549381e-03 -1.72712818e-01
 -8.42948817e-03  6.38814718e-02 -1.42828003e-01 -2.05429252e-02
  6.18494153e-02 -9.35420543e-02 -3.37866992e-02 -8.51526856e-02
  1.78890571e-01  3.17670479e-02 -5.51703982e-02 -2.48547181e-01
  1.11758962e-01 -1.27144411e-01 -9.29730162e-02  5.35855182e-02
 -1.57877043e-01 -1.54426858e-01 -3.16637009e-01 -4.91048209e-02
  3.92664611e-01  3.46566066e-02 -1.64363846e-01  1.19062506e-01
  2.90899873e-02 -2.39180196e-02  1.38223246e-01  1.42291307e-01
  3.92992273e-02  7.58997574e-02 -1.22310571e-01  5.54758450e-03
  2.22152159e-01 -7.74891227e-02 -4.05949540e-02  1.66352868e-01
 -6.12680502e-02  5.51016591e-02  4.52030525e-02  2.37596016e-02
 -2.65109930e-02  1.01888753e-01 -1.57417163e-01 -5.02972491e-02
  1.18773459e-02 -1.26884587e-03 -1.55002181e-03  8.30451399e-02
 -1.54253885e-01  3.43732759e-02  2.14168057e-02  4.53279279e-02
 -4.75238562e-02 -3.95256877e-02 -1.17675655e-01 -3.66749875e-02
  1.20685391e-01 -2.59865642e-01  2.19753936e-01  1.96847215e-01
  3.23612504e-02  1.24718897e-01  8.90987217e-02  5.14479354e-02
  9.69484821e-03 -4.14500497e-02 -1.86683461e-01 -2.82029640e-02
  4.33167629e-02 -3.39690559e-02  1.02339678e-01 -4.89537651e-03]