[-0.07570937  0.08502214 -0.0022738  -0.04280667 -0.05069415 -0.0375339
 -0.03200371 -0.16000049  0.19165681 -0.1097677   0.28290471 -0.04740662
 -0.18733631 -0.17076047 -0.04160943  0.21246691 -0.24567293 -0.17120433
  0.00683479 -0.03098852  0.07988604 -0.02631857  0.01832373  0.02015744
 -0.05857735 -0.36572075 -0.10824323 -0.08066651  0.04001971 -0.04077671
 -0.07172598  0.07740717 -0.20700352 -0.08636596  0.04318291  0.09046417
  0.0032454  -0.04070891  0.16139743 -0.00900165 -0.16731006 -0.00758029
  0.05975374  0.25545546  0.15972447  0.05046115  0.00655314 -0.12805191
  0.08202003 -0.11505997  0.02472815  0.11966345  0.07863116  0.03745472
  0.00872071 -0.15966383 -0.00574688  0.05565615 -0.14645959 -0.0060102
  0.05584047 -0.11670407 -0.0667439  -0.09105192  0.20222418  0.07447254
 -0.05602949 -0.21017399  0.14231494 -0.13313225 -0.07966999  0.01858029
 -0.14237887 -0.16916771 -0.3137832  -0.03470359  0.34757861  0.05067457
 -0.17412834  0.0902164   0.01471252 -0.02617932  0.16244647  0.14062455
  0.01179443  0.08797076 -0.1265889  -0.00385967  0.19348609 -0.08778744
 -0.04214109  0.17631832 -0.07510697  0.07097104  0.06332041  0.01105074
 -0.000781    0.08893842 -0.17145012 -0.01610803  0.02972758 -0.05883603
 -0.03730578  0.04305624 -0.12672608  0.02237822  0.03054633  0.03519179
 -0.03280311 -0.04965394 -0.11450122 -0.06891443  0.13227324 -0.24999996
  0.22545639  0.21054316  0.03156909  0.16084372  0.08010221  0.08651456
 -0.01511447 -0.06196713 -0.19935744 -0.01621143  0.05808877  0.00951171
  0.0683855   0.01193581]