[-6.83081746e-02  1.35568768e-01  3.83263417e-02 -5.28027825e-02
 -8.74324813e-02  1.44582391e-02  1.05563551e-04 -1.59508273e-01
  1.58266827e-01 -1.02161340e-01  2.50392020e-01 -7.41112009e-02
 -1.99891403e-01 -1.28797784e-01 -4.17977385e-02  1.61577269e-01
 -1.71053261e-01 -1.84199840e-01  3.64383566e-03 -6.17024489e-02
  8.32299814e-02 -2.75301468e-02 -3.19008599e-03  2.16816552e-02
 -6.92274272e-02 -3.00738811e-01 -5.46447933e-02 -7.63202235e-02
  2.19764151e-02 -5.90012334e-02 -3.99558693e-02  5.41559532e-02
 -2.22201541e-01 -5.91716655e-02  1.72385555e-02  9.53996032e-02
  1.90044311e-03 -4.89206873e-02  1.90331504e-01 -3.61369364e-02
 -1.64612681e-01  2.32600924e-02  3.34480591e-02  2.67638505e-01
  1.66407481e-01 -5.53859118e-03 -6.74067298e-03 -1.05988048e-01
  1.53553054e-01 -1.37988433e-01  2.87929419e-02  1.26749381e-01
  9.84358937e-02 -1.83040276e-03  3.12564746e-02 -1.57485768e-01
  1.63747352e-02  2.86576580e-02 -1.30501613e-01 -1.01997731e-02
  6.57088384e-02 -1.04883589e-01 -3.56230885e-02 -1.17275767e-01
  1.65728435e-01  2.73140799e-02 -3.10542267e-02 -2.04736829e-01
  1.14394866e-01 -1.19358383e-01 -7.04443604e-02  6.93455115e-02
 -1.56563431e-01 -1.41765580e-01 -3.15689325e-01  4.36634570e-03
  3.92521441e-01  8.13008025e-02 -1.95148587e-01  7.76745528e-02
  2.01501995e-02 -6.83818758e-03  1.63771138e-01  1.17489003e-01
  5.70331526e-04  8.80959556e-02 -1.45849094e-01  3.04895993e-02
  2.18245223e-01 -9.11197886e-02 -9.98351276e-02  1.57360986e-01
 -4.92198691e-02  6.58817440e-02  5.05979918e-02 -1.16211316e-02
 -1.27378078e-02  7.33146966e-02 -1.82773337e-01  6.06427668e-03
  7.51061365e-03 -5.58378361e-02 -5.39527908e-02  7.41088614e-02
 -1.75233796e-01  5.21031022e-02 -2.82465271e-03  2.01486573e-02
 -1.08385257e-01 -7.57702366e-02 -1.27143174e-01  2.32705623e-02
  1.47128254e-01 -2.49216542e-01  1.84044644e-01  1.71737537e-01
  2.83505153e-02  1.27681240e-01  9.46437493e-02  1.49130970e-02
  1.08720195e-02 -3.72039266e-02 -1.87901318e-01 -5.82798310e-02
  7.20745474e-02 -2.73363455e-03  1.04650795e-01  2.23120395e-02]