[-0.0702183   0.16283552 -0.00369771 -0.03059775 -0.04419863 -0.02484973
  0.00403261 -0.18873161  0.1360632  -0.07418553  0.27648312 -0.04794797
 -0.21647666 -0.15242222 -0.04134603  0.1744691  -0.21934476 -0.18524061
 -0.01982905 -0.0262118   0.09613293  0.0022409   0.02141586  0.0558759
 -0.09852172 -0.30852038 -0.07849848 -0.06810588  0.04923882 -0.02430832
 -0.04838822  0.05251578 -0.21099921 -0.05750353  0.05905203  0.04667185
 -0.00107967 -0.07120183  0.22911823 -0.04498906 -0.18334404  0.00077447
  0.07638585  0.27208632  0.19494361 -0.00353613  0.02145066 -0.1100935
  0.10320012 -0.14032142  0.05070089  0.14708912  0.03834214  0.03601553
  0.00232263 -0.1842763  -0.0221344   0.07775014 -0.12487278 -0.01647096
  0.0646885  -0.11155572 -0.04466652 -0.07853847  0.16787052  0.03942939
 -0.07277243 -0.23104893  0.14325945 -0.14809148 -0.09160302  0.04891924
 -0.16118783 -0.15634412 -0.33702463  0.00848596  0.38834807  0.0986423
 -0.16545087  0.11235696  0.0183519  -0.00676947  0.17798458  0.13060038
  0.00090384  0.06215035 -0.15163241  0.04175746  0.22584538 -0.04453665
 -0.11423057  0.19253479 -0.05600641  0.04902025  0.07622796  0.03362618
 -0.00787049  0.0666922  -0.18212979  0.02415813  0.04250213 -0.01443799
 -0.03242329  0.12943697 -0.1192997   0.05376234  0.01286873  0.05293667
 -0.06988531 -0.06204672 -0.1357538  -0.01062459  0.10805998 -0.23250225
  0.22547947  0.14375673  0.04969244  0.12030589  0.11845257  0.02497167
  0.03304419 -0.04932461 -0.22457361 -0.05587116  0.09989421  0.00126812
  0.14060764  0.01950721]