[-5.74287772e-02  1.42664626e-01  3.40263061e-02 -3.19582745e-02
 -8.02695006e-02  1.43536776e-02  1.73566584e-02 -1.67940944e-01
  1.53027847e-01 -8.13723728e-02  2.61311501e-01 -8.00710246e-02
 -2.08648562e-01 -1.61967129e-01 -1.39634702e-02  1.45336419e-01
 -1.93113640e-01 -1.71877876e-01 -2.16465984e-02 -5.01924418e-02
  7.89651498e-02 -4.99228351e-02  1.92142576e-02  4.01457995e-02
 -4.68353257e-02 -3.15099776e-01 -4.44700867e-02 -9.92985740e-02
  4.75264303e-02 -7.83350170e-02 -5.36506288e-02  4.21759076e-02
 -2.10774213e-01 -6.07840605e-02 -2.40735523e-02  5.84637485e-02
 -1.70559069e-04 -4.42008786e-02  1.96687371e-01 -3.05771586e-02
 -1.67105466e-01  2.40253024e-02 -4.54277557e-04  2.64166892e-01
  1.95050031e-01  1.34857995e-02  5.53382142e-03 -8.44296440e-02
  1.56279787e-01 -1.66515812e-01  5.42440228e-02  1.30151913e-01
  1.16974130e-01 -2.05220412e-02  4.40027229e-02 -1.68488637e-01
 -1.77995209e-02  7.87146762e-03 -1.33001357e-01  3.99798912e-04
  6.20523281e-02 -9.94465575e-02 -3.05624306e-02 -1.16814569e-01
  1.83019131e-01  3.53337340e-02 -2.84199361e-02 -1.68353602e-01
  1.21676698e-01 -1.20852172e-01 -6.33968189e-02  6.55908957e-02
 -1.48301646e-01 -1.44648850e-01 -3.05297166e-01  2.12135222e-02
  4.17609543e-01  7.36167654e-02 -2.00007364e-01  7.44911358e-02
 -2.17323285e-02 -1.78176407e-02  1.56694219e-01  1.14751212e-01
  3.87162785e-03  7.64405057e-02 -1.48352295e-01  1.87054332e-02
  1.92528754e-01 -1.05578803e-01 -9.00459066e-02  1.78479671e-01
 -4.15750779e-02  5.17670698e-02  5.45541048e-02 -3.66274901e-02
  1.80021208e-02  8.49482790e-02 -1.53641269e-01  2.56801005e-02
 -4.43805562e-04 -7.97873437e-02 -5.41242547e-02  1.83855295e-02
 -1.84028104e-01  5.11409231e-02  2.10958086e-02  2.59193163e-02
 -8.76859352e-02 -9.21761990e-02 -1.31752387e-01  2.03975718e-02
  1.54961616e-01 -2.99000591e-01  1.91272527e-01  1.71930894e-01
  3.35930064e-02  1.46107182e-01  5.44913411e-02  3.90959606e-02
  2.19209101e-02 -4.24814597e-02 -1.67415917e-01 -5.10498770e-02
  8.64372775e-02  2.52119987e-03  7.83587545e-02  4.25433666e-02]