[-0.06909012  0.12390534  0.05313652 -0.02210947 -0.11048309  0.00596733
 -0.00409868 -0.1688972   0.15378965 -0.09014268  0.25132623 -0.06778479
 -0.19033091 -0.15853284 -0.03970225  0.17615595 -0.17306837 -0.18667156
  0.00699625 -0.04036944  0.08720555 -0.04029278  0.01906062  0.02078048
 -0.05869168 -0.3188394  -0.06272813 -0.10049985  0.04490056 -0.07251862
 -0.04773032  0.03822467 -0.19962993 -0.07594059  0.01019215  0.07160962
  0.00317969 -0.05178862  0.18522562 -0.04822458 -0.19060144  0.03302711
  0.03406578  0.25161842  0.15868427  0.02729651  0.01226862 -0.11879048
  0.13849156 -0.13560393  0.04983389  0.11577578  0.09373514 -0.01206261
  0.03905116 -0.16956054 -0.00530433  0.02292418 -0.12737645 -0.00125863
  0.06895775 -0.06064963 -0.03185728 -0.11778788  0.17372707  0.03834743
 -0.02440756 -0.20130084  0.11494706 -0.13236749 -0.0782141   0.06187685
 -0.15401146 -0.13533533 -0.3033435  -0.00771732  0.40600762  0.06584829
 -0.20538957  0.05652618  0.00377898 -0.00831193  0.14868338  0.11850049
  0.0103447   0.07805588 -0.13935721 -0.01081862  0.20469594 -0.10447168
 -0.0681778   0.16687828 -0.0272655   0.05687062  0.04658923 -0.02269754
 -0.01293707  0.09052565 -0.17275059 -0.0125695   0.00254569 -0.04537981
 -0.04047562  0.056457   -0.18073533  0.05378127  0.00693333  0.02334008
 -0.08118121 -0.05529447 -0.12969938 -0.00157672  0.15394586 -0.24062935
  0.19605243  0.18741541  0.04343519  0.1243212   0.09189261  0.04167206
  0.01129375 -0.02925177 -0.17825437 -0.0420092   0.07595912 -0.03118218
  0.07234912  0.03049633]