[-0.05465324  0.13332058  0.01164827 -0.00233867 -0.08587741  0.00708541
 -0.02075239 -0.16392981  0.13400836 -0.03082369  0.28766933 -0.05478853
 -0.25187519 -0.15883754 -0.00089808  0.19832189 -0.19420643 -0.19510402
  0.01233077 -0.06334337  0.07647124  0.00311102  0.04272956  0.03156753
 -0.11939335 -0.34308517 -0.06692412 -0.09339496  0.02949023 -0.03182075
 -0.09198562  0.09070821 -0.19734535 -0.08979314  0.10362438  0.09605958
 -0.03278244 -0.05001549  0.17799957  0.00182131 -0.14467144  0.00418231
  0.08559077  0.29593259  0.17307174  0.00292194  0.05061158 -0.13230352
  0.06190493 -0.1390541   0.08393739  0.15230525  0.09621491  0.05909738
  0.02628077 -0.18464847 -0.0277433   0.09207491 -0.15492681  0.02943137
  0.07387482 -0.08427968 -0.05924324 -0.11896229  0.21790968  0.08679516
 -0.07352128 -0.2223724   0.08332112 -0.09493462 -0.1246319   0.04970513
 -0.19825366 -0.15583439 -0.34656608 -0.00794084  0.37410721  0.04324364
 -0.21051259  0.07416468  0.02160023 -0.00514072  0.1512029   0.13346101
  0.00872936  0.05831238 -0.12817369  0.03380634  0.1866058  -0.09833721
 -0.09724518  0.16723871 -0.06563845  0.05966553  0.08677514  0.05194472
 -0.02342856  0.05142076 -0.18530105 -0.06468474 -0.00479738 -0.05318696
 -0.01819129  0.06976154 -0.14277919  0.02837182  0.02954339  0.03979526
 -0.05674622 -0.0806553  -0.11386799 -0.02544915  0.12813936 -0.2926136
  0.23465924  0.17605539  0.03199181  0.13333814  0.07339384  0.04110843
 -0.00568948 -0.04798715 -0.16660754 -0.00912117  0.07332302  0.02158049
  0.08196016  0.01785013]