[-0.07591606  0.10924428  0.01188758 -0.04558143 -0.07636885 -0.02926585
 -0.05129622 -0.16454421  0.18525682 -0.08339162  0.28927392 -0.04173734
 -0.17330676 -0.16370921 -0.05545044  0.21016315 -0.23989443 -0.17754279
  0.04733888 -0.02449412  0.12333485 -0.02079586 -0.01235668  0.05064908
 -0.08613802 -0.32602629 -0.09671381 -0.06157796  0.06780079 -0.05978344
 -0.05379372  0.05883154 -0.21777454 -0.10295367  0.07440796  0.1009168
 -0.00909027 -0.07447536  0.16662069 -0.03257324 -0.17094672  0.00994242
  0.09108094  0.26059636  0.18931091  0.04130373  0.02421204 -0.13482448
  0.10185575 -0.11222978 -0.00374825  0.12793911  0.09222839  0.03868608
  0.0033742  -0.17501307 -0.00350824  0.06793306 -0.14854045 -0.01491556
  0.05473457 -0.0958357  -0.02815615 -0.07246351  0.18528953  0.03228213
 -0.05704097 -0.24533473  0.12192887 -0.13700341 -0.0951651   0.07024989
 -0.15363394 -0.15622692 -0.32011861 -0.05147664  0.39115724  0.04100884
 -0.16061787  0.11103394  0.02063248 -0.02169456  0.14818785  0.12376888
  0.0331858   0.05756982 -0.13300817  0.01158934  0.22846596 -0.07724222
 -0.04702032  0.15202861 -0.05578383  0.05880808  0.04674093  0.02951871
 -0.0178417   0.11090666 -0.14923069 -0.03668937  0.00986665 -0.00565688
 -0.00207412  0.08510382 -0.1509705   0.03974161  0.02617243  0.04488776
 -0.05548662 -0.04859214 -0.13306072 -0.02659288  0.12480707 -0.27039766
  0.22718072  0.19429573  0.03791839  0.12279669  0.08867555  0.04507371
  0.00923649 -0.0612738  -0.18176819 -0.02551658  0.03911179 -0.02459507
  0.11035796 -0.01129958]