[-0.07098123  0.08088119  0.0129553  -0.01447159 -0.03619761 -0.04106033
 -0.01837193 -0.1687341   0.18272111 -0.11511206  0.28998065 -0.04690665
 -0.179915   -0.17804269 -0.05967361  0.22352043 -0.243359   -0.17428218
 -0.00758293 -0.01691134  0.09843869 -0.03377317  0.02861705  0.01392072
 -0.04175034 -0.35400498 -0.11793105 -0.07916191  0.04626465 -0.03826812
 -0.06678089  0.05264775 -0.20526865 -0.08286189  0.03675242  0.05990442
  0.00528021 -0.05197067  0.14844456 -0.02180593 -0.17186226  0.00143253
  0.06421776  0.255539    0.16785504  0.0432411   0.00233611 -0.13843063
  0.07660459 -0.11344572  0.01619901  0.10303111  0.07763222  0.04371996
  0.02140671 -0.1487177  -0.01059425  0.07673138 -0.12545833  0.0023726
  0.04184624 -0.10630852 -0.05625861 -0.09867962  0.18875293  0.05635728
 -0.05834587 -0.21791835  0.12533402 -0.13449484 -0.07160058  0.02364334
 -0.14340788 -0.16889763 -0.31480873 -0.04049402  0.35905191  0.0414056
 -0.16634114  0.0997127   0.00997059 -0.01674239  0.15043776  0.14017907
  0.01595473  0.09368058 -0.13294029 -0.01591107  0.18927553 -0.09841957
 -0.03551557  0.18576914 -0.09426826  0.04275813  0.05639067 -0.00330325
  0.00166019  0.09727104 -0.1685022  -0.0309826   0.01481979 -0.0624008
 -0.03653615  0.02128064 -0.12716171  0.00177128  0.02767303  0.05251818
 -0.02023304 -0.05561924 -0.12702926 -0.0584555   0.12742993 -0.25202739
  0.22496502  0.21028435  0.04660163  0.14761968  0.08234631  0.08952802
 -0.02249255 -0.05121263 -0.18670057  0.00215762  0.06559169  0.00739934
  0.06333674  0.00114733]