[-0.07064869  0.08037786  0.0023017  -0.0397062  -0.04974038 -0.03451714
 -0.03333155 -0.16113037  0.17855716 -0.11744981  0.28701082 -0.04409807
 -0.19074728 -0.17253958 -0.05887421  0.21905696 -0.24261475 -0.17434049
 -0.00469336 -0.01561991  0.09846839 -0.0255916   0.02542544  0.01226095
 -0.05335266 -0.3578904  -0.10591888 -0.06387495  0.04101378 -0.03500151
 -0.07407196  0.07289262 -0.21820644 -0.08326689  0.04210877  0.08218741
  0.00525163 -0.05069079  0.15280679 -0.0231498  -0.1788442   0.00539866
  0.07459628  0.25204495  0.1720704   0.044555    0.00704827 -0.14279164
  0.07906119 -0.11382013  0.02546415  0.11191763  0.08341252  0.03742502
  0.01820911 -0.1555281  -0.00179831  0.07439447 -0.12215358 -0.01075902
  0.0559695  -0.10273679 -0.04957541 -0.10210349  0.19345699  0.04675551
 -0.06422091 -0.21212958  0.12723862 -0.12410929 -0.07492508  0.02891776
 -0.14665547 -0.16932794 -0.32264563 -0.03633786  0.35046643  0.04993621
 -0.17073609  0.09923444  0.02015488 -0.02094372  0.16407092  0.13943082
  0.01378106  0.08415486 -0.13767134  0.00045894  0.20389085 -0.09077525
 -0.04038607  0.17838822 -0.07526643  0.04915671  0.05548549  0.0167953
 -0.00569136  0.09661125 -0.17824538 -0.01432791  0.02181248 -0.05554572
 -0.04459598  0.04559176 -0.11900385  0.00616651  0.02333538  0.04463021
 -0.02732592 -0.06282914 -0.12209531 -0.06273903  0.11417776 -0.24805842
  0.21753886  0.20311649  0.04548777  0.14757609  0.09462114  0.08566655
 -0.01417983 -0.0569758  -0.20184989 -0.01326574  0.0723804   0.00707876
  0.08224129  0.00698273]