[-0.06300712  0.08406685 -0.01229024 -0.03955412 -0.0720648  -0.0120106
 -0.01967877 -0.17337365  0.17164958 -0.08256438  0.27579743 -0.04059274
 -0.19334948 -0.16393767 -0.04956821  0.2175241  -0.21436422 -0.19155882
  0.02158286 -0.02892468  0.10362493 -0.00769174  0.01168765  0.06070906
 -0.06656438 -0.34242174 -0.07863311 -0.07015684  0.06481069 -0.0449045
 -0.04389782  0.08028089 -0.21877435 -0.07608767  0.06248819  0.08400223
  0.00793851 -0.06850052  0.19015259 -0.03095234 -0.20965803  0.00108153
  0.10662867  0.26192656  0.17614688  0.04059718  0.0087304  -0.11129121
  0.09109881 -0.12756251  0.04551585  0.10819258  0.0839623   0.02266971
 -0.00508539 -0.17755726 -0.00869974  0.0600448  -0.15673402  0.00392056
  0.05956682 -0.10410687 -0.02323955 -0.07457995  0.18813276  0.03840677
 -0.05161083 -0.22229183  0.13504563 -0.15226676 -0.10102949  0.05650739
 -0.1625043  -0.15860407 -0.35132304 -0.03417655  0.38827953  0.06560858
 -0.15982735  0.10088211  0.04513414 -0.00583234  0.17607412  0.13487144
  0.03737912  0.04250801 -0.14081939  0.00521286  0.23587649 -0.06199556
 -0.09143894  0.17519659 -0.05891863  0.05011385  0.04551696  0.05258311
  0.00431836  0.09002287 -0.18052308 -0.02548425  0.00997991  0.00798266
 -0.00791393  0.09861725 -0.14432247  0.03250683  0.02351829  0.04163475
 -0.03976157 -0.02316604 -0.13855636 -0.04544992  0.11214478 -0.23719282
  0.23441444  0.1880064   0.06733281  0.12144071  0.09343529  0.0436255
  0.02260845 -0.07556839 -0.20713805 -0.03524371  0.07516908 -0.01859663
  0.1231899   0.02889088]