[-0.06992274  0.10956359 -0.01505878 -0.02286662 -0.10379846 -0.05861529
 -0.03418513 -0.13343926  0.15018234 -0.06663972  0.26791909 -0.01616521
 -0.19007741 -0.19052678  0.00322622  0.19679418 -0.22553246 -0.13531677
  0.01448624 -0.01660349  0.09865366 -0.012989    0.03653189  0.0385734
 -0.08709472 -0.34042785 -0.08968837 -0.06741192  0.05157144 -0.0646001
 -0.06090999  0.08950903 -0.18331325 -0.11626191  0.06946126  0.09605523
 -0.0305651  -0.04765862  0.20268524 -0.03036876 -0.16907883 -0.05588339
  0.0910278   0.26849112  0.16900085  0.03305027  0.02450431 -0.08708598
  0.08549297 -0.15613389  0.04427723  0.10259753  0.08101624  0.05416121
  0.01641655 -0.17076124  0.01603723  0.07674577 -0.1867656  -0.0516211
  0.04702537 -0.10246475 -0.05003862 -0.0650354   0.23146813  0.07438096
 -0.03979568 -0.18746215  0.14638853 -0.13013831 -0.08567506  0.04807252
 -0.13889281 -0.15265667 -0.33194074 -0.04758925  0.37124205  0.07969414
 -0.1583585   0.05405756 -0.00254979 -0.05095312  0.15354228  0.07338163
  0.00081585  0.05904222 -0.1271091   0.03618313  0.20132625 -0.0854564
 -0.05225154  0.15178454  0.01401929  0.06398832  0.08071195 -0.00343093
  0.01589112  0.07242252 -0.19295785 -0.00323728  0.01945477 -0.06817766
 -0.00369831  0.09258708 -0.15458734  0.05071159  0.07477983 -0.00114064
 -0.05637294 -0.04436137 -0.15926816 -0.06211919  0.12094533 -0.2512432
  0.22533953  0.18934496  0.03920442  0.15518886  0.05261183  0.06093946
 -0.01859004 -0.09785964 -0.16539046 -0.01719906  0.08559567 -0.0041116
  0.10102288  0.02054389]