[-2.03551147e-02  8.10470507e-02 -9.19416081e-03 -4.39014435e-02
 -9.96881947e-02 -6.02768920e-02 -3.24142054e-02 -1.61772057e-01
  1.60475090e-01 -9.75216627e-02  2.84902155e-01 -6.62869513e-02
 -2.05196813e-01 -1.33343861e-01 -4.77168411e-02  2.28129148e-01
 -2.44278774e-01 -1.62784249e-01 -2.49304972e-03 -2.85350420e-02
  8.17885399e-02 -1.84814930e-02  1.58305615e-02  3.65633443e-02
 -7.90328011e-02 -3.31378162e-01 -8.74185637e-02 -5.64592853e-02
  1.99559797e-02 -5.37452511e-02 -3.16615216e-02  1.36779651e-01
 -1.92583174e-01 -8.39643702e-02  8.67046937e-02  8.34837556e-02
 -3.27049580e-04 -6.31897673e-02  1.91091761e-01 -2.26632766e-02
 -1.95501477e-01 -1.10365301e-02  1.13344885e-01  2.54607677e-01
  1.58827946e-01  1.42773604e-02  1.50296120e-02 -1.43720016e-01
  9.40129980e-02 -1.53357461e-01  7.17475498e-03  1.15222387e-01
  6.21302240e-02  5.35624437e-02 -7.87326228e-03 -1.81903049e-01
  1.56278890e-02  7.85308480e-02 -1.55611977e-01 -3.46145295e-02
  6.48138076e-02 -1.10970341e-01 -3.77160385e-02 -8.37716088e-02
  2.28696346e-01  5.10643609e-02 -6.77646175e-02 -1.81541845e-01
  1.29246026e-01 -1.26516238e-01 -8.10488611e-02  4.45639417e-02
 -1.60592362e-01 -1.64710149e-01 -3.32583606e-01 -5.83823100e-02
  3.73432964e-01  3.24331149e-02 -1.67160258e-01  8.64874870e-02
  1.30390553e-02 -1.70878097e-02  1.58700407e-01  1.30908653e-01
  2.13150457e-02  6.30001351e-02 -1.12889282e-01  2.72983070e-02
  2.32428536e-01 -1.13101855e-01 -4.69181538e-02  1.83549404e-01
 -3.57479714e-02  6.30386621e-02  7.04089627e-02  1.26318634e-02
  8.36820155e-03  5.74602298e-02 -2.00292096e-01 -1.00055116e-03
 -1.03354705e-02 -4.63234782e-02 -3.36464308e-02  6.90731928e-02
 -1.41069636e-01  1.14181042e-02  4.86125275e-02  4.94621089e-03
 -4.82144319e-02 -4.96131964e-02 -1.17090002e-01 -8.23277980e-02
  1.31928161e-01 -2.54931927e-01  2.16760308e-01  1.91710278e-01
  5.10613918e-02  1.47376820e-01  6.79267496e-02  6.96885288e-02
 -1.59231089e-02 -8.51929784e-02 -1.60745725e-01  2.95659318e-03
  8.64180624e-02  5.50565077e-03  7.42730200e-02 -1.06433630e-02]