[-0.0219928   0.08240425 -0.00455059 -0.05250688 -0.11703014 -0.06141257
 -0.03970211 -0.15061511  0.15407732 -0.08894291  0.28457326 -0.07600385
 -0.21918464 -0.12492587 -0.04781461  0.22074147 -0.250388   -0.15714134
 -0.00798117 -0.01949389  0.08324076 -0.00822796  0.00564244  0.03854724
 -0.08537575 -0.33540383 -0.0699389  -0.04673601  0.01766001 -0.06104457
 -0.02303919  0.14149483 -0.20038657 -0.07820863  0.08613198  0.07700954
  0.00623748 -0.06390705  0.19994894 -0.03380338 -0.21837893 -0.01292367
  0.12138623  0.25096628  0.1628197   0.01072785  0.00228441 -0.13404587
  0.10574269 -0.17221576  0.01814726  0.12816462  0.05243025  0.03952555
 -0.01031601 -0.18132721  0.01112788  0.08638141 -0.16816066 -0.03694132
  0.07890723 -0.11788042 -0.0358572  -0.09035101  0.21284178  0.04675502
 -0.06471922 -0.19151621  0.12253065 -0.1347066  -0.08149085  0.05668337
 -0.16027151 -0.16323879 -0.35063246 -0.05747046  0.38389611  0.03674472
 -0.16526552  0.08519986  0.01924325 -0.02609511  0.16370235  0.12010787
  0.026591    0.05030623 -0.11827347  0.04032146  0.24380033 -0.10379107
 -0.05190734  0.18368725 -0.02534506  0.05011835  0.0653254   0.01471335
  0.00654897  0.04484996 -0.20445783  0.00823528 -0.00810791 -0.03764288
 -0.03667478  0.084681   -0.14386992  0.0203108   0.05070816 -0.00286868
 -0.04869189 -0.05257333 -0.11613295 -0.08174711  0.13213019 -0.24659291
  0.21844678  0.17368172  0.06881807  0.14159606  0.06207411  0.05692761
 -0.01391678 -0.08281466 -0.16154774 -0.0119074   0.08974562  0.00066689
  0.09480917 -0.0090984 ]