[-0.02871386  0.12842529 -0.01575936 -0.03125522 -0.09941965 -0.03338395
 -0.0487262  -0.14410803  0.18457337 -0.08201223  0.29975453 -0.00921171
 -0.20446873 -0.16055779 -0.05466338  0.20359731 -0.2481406  -0.17324299
  0.04673818 -0.02991878  0.10744939  0.00066584  0.0075763   0.02488559
 -0.12793905 -0.35511467 -0.07730448 -0.05645419  0.02128546 -0.05622039
 -0.02625813  0.150047   -0.20136438 -0.06650387  0.09504413  0.06310749
 -0.00762341 -0.02936035  0.19418679 -0.00812074 -0.19187666  0.00148464
  0.08905265  0.2731553   0.16530427 -0.00364559  0.02803829 -0.12840778
  0.0835896  -0.11740159  0.02946969  0.1615486   0.06809288  0.04209268
  0.01206079 -0.15928106 -0.01806502  0.08195101 -0.17742375 -0.0262601
  0.05398956 -0.097704   -0.02469278 -0.07342618  0.17657438  0.05232909
 -0.04186459 -0.24591807  0.13950796 -0.14348951 -0.09157109  0.085464
 -0.15869538 -0.18045986 -0.31283554 -0.04085945  0.37002102  0.07179137
 -0.130886    0.10388756  0.02295335 -0.06758498  0.14503472  0.10100249
  0.01102074  0.05357759 -0.10496626  0.05395011  0.23823228 -0.05676176
 -0.08084676  0.19842134 -0.04856269  0.05215397  0.06429078 -0.00176013
  0.00098543  0.09024732 -0.17152007 -0.02626985 -0.02463424 -0.05242649
 -0.01418531  0.10476382 -0.13478774  0.01348137  0.02382333  0.04165743
 -0.06024583 -0.00968073 -0.13976426 -0.07181218  0.11677004 -0.26867223
  0.24624439  0.15568714  0.06536033  0.12097438  0.07015096  0.03145737
  0.00451077 -0.11590588 -0.16654199 -0.00510223  0.07142762 -0.02105242
  0.10558515 -0.0160119 ]