[-0.04987438  0.14702706 -0.00103119 -0.05347263 -0.06980347  0.00430537
 -0.03689108 -0.19298816  0.1608851  -0.08317719  0.27313563 -0.0435777
 -0.20247141 -0.15323146 -0.050849    0.186459   -0.22266714 -0.18864273
  0.02390755 -0.03974019  0.10784191 -0.00307921 -0.00883469  0.03637339
 -0.08198372 -0.28147489 -0.09697647 -0.04293624  0.05699147 -0.04982103
 -0.04496907  0.06131567 -0.20619743 -0.04341203  0.06273323  0.06865645
 -0.00834706 -0.06400376  0.18252261 -0.02999844 -0.16447166  0.00593588
  0.07457573  0.26245254  0.17613414  0.01337124 -0.00132044 -0.12817074
  0.10386788 -0.10485629  0.02209635  0.16045688  0.08592515  0.0441324
 -0.0161226  -0.18720604  0.00951237  0.08133143 -0.13333689 -0.00732339
  0.0636277  -0.12782183 -0.03064339 -0.0764902   0.16595905  0.03846278
 -0.05305004 -0.25711426  0.11049725 -0.1294281  -0.1021594   0.0778537
 -0.16902335 -0.15029563 -0.31559798 -0.04141958  0.38304019  0.06746846
 -0.17968404  0.08346318  0.0274224  -0.02056364  0.16331473  0.12039617
 -0.0080204   0.04699653 -0.16410594  0.02219433  0.23760824 -0.07414558
 -0.07871724  0.17998381 -0.0467817   0.06595618  0.03869436  0.0212254
 -0.00555389  0.08812573 -0.14842121 -0.03183765  0.00388342 -0.02949649
 -0.03173023  0.11545806 -0.14793015  0.07601578  0.03232659  0.05533157
 -0.08281236 -0.07012778 -0.11113572 -0.0024604   0.13765138 -0.24503103
  0.21164063  0.17444648  0.06695708  0.11257064  0.08865463  0.04527033
 -0.00607856 -0.07843205 -0.20206849 -0.02810833  0.0588419  -0.02870076
  0.11812603  0.00874832]