[-0.07076311  0.08673573  0.00088513 -0.03677745 -0.03595818 -0.04006762
 -0.02914786 -0.15807092  0.19129327 -0.10993846  0.2830008  -0.03368696
 -0.19141586 -0.17319611 -0.0344423   0.20721824 -0.24493253 -0.17581961
  0.00062852 -0.02640652  0.08646484 -0.02800882  0.01678693  0.01903987
 -0.05217635 -0.35898304 -0.11204038 -0.07828643  0.03798093 -0.03058355
 -0.06504953  0.06034837 -0.20829573 -0.08630228  0.04191495  0.06889968
  0.00780654 -0.04678737  0.1688125  -0.00570935 -0.16736685 -0.01267207
  0.05225296  0.25241619  0.16108219  0.04296095  0.00873634 -0.12888913
  0.07848367 -0.11903888  0.02185469  0.12480336  0.07412778  0.04205482
  0.01004483 -0.16637598 -0.00815007  0.06366511 -0.14577627 -0.00367265
  0.03858425 -0.11534899 -0.06627884 -0.08892196  0.19599304  0.07413533
 -0.05578951 -0.22534576  0.13945027 -0.13036385 -0.08273405  0.02159291
 -0.14745055 -0.17089206 -0.31706992 -0.03364424  0.3428925   0.04559816
 -0.17547393  0.09521617  0.00477768 -0.02915137  0.15634772  0.13480341
  0.01248793  0.09065959 -0.1249931  -0.00427899  0.19374622 -0.08527663
 -0.0483468   0.18022609 -0.08438326  0.06343576  0.0646162   0.01343402
  0.0047362   0.09307396 -0.17490186 -0.01936123  0.0378524  -0.05733928
 -0.03293969  0.04375488 -0.13387507  0.01324723  0.03044134  0.03553533
 -0.03311924 -0.05464354 -0.12534319 -0.06195706  0.13471261 -0.24870534
  0.23639809  0.21281679  0.03590583  0.15577696  0.08111303  0.07775467
 -0.01673738 -0.06405082 -0.2002676  -0.01206304  0.05850651  0.01941383
  0.06758873  0.00906995]