[-0.09053482  0.1381046   0.02309715 -0.02731092 -0.07577547 -0.04083592
  0.01334441 -0.18923084  0.12692744 -0.04876503  0.28501129 -0.08412457
 -0.21348689 -0.16876327 -0.00718847  0.18599331 -0.20702957 -0.16712278
 -0.01870481 -0.04590523  0.11930638 -0.01188193  0.02210646  0.05005506
 -0.10808621 -0.33023426 -0.07529201 -0.08963067  0.05941289 -0.01660624
 -0.05764688  0.07603123 -0.22950654 -0.09040119  0.05719041  0.05460399
  0.01460044 -0.05849002  0.1822844  -0.04801605 -0.1744388  -0.00245047
  0.0657887   0.2271962   0.15642898  0.01576418  0.04196384 -0.09293037
  0.10620812 -0.11835919  0.04966697  0.11947125  0.0932968  -0.00682372
  0.03961735 -0.18096915 -0.01837886  0.0685736  -0.1520247   0.0025854
  0.07517656 -0.09953965 -0.07297894 -0.10438503  0.14251685  0.0365538
 -0.04980478 -0.19571379  0.13419124 -0.09755713 -0.05980919  0.06004834
 -0.17105311 -0.15358616 -0.33407435  0.00332095  0.40625659  0.05365713
 -0.19869266  0.06942126  0.03741103  0.0068975   0.16652472  0.1005459
 -0.0047512   0.06179984 -0.15356545  0.0459878   0.1774736  -0.07056299
 -0.07484063  0.19235596 -0.06200416  0.05123422  0.05227439  0.02038874
 -0.01456434  0.06214066 -0.13299817  0.00982742  0.05923886 -0.03662977
 -0.04336979  0.08849429 -0.13115041  0.01845073  0.00088071  0.04962952
 -0.08523788 -0.07472424 -0.12605421 -0.01006683  0.10093796 -0.23028122
  0.18517798  0.16551055 -0.01680249  0.11342581  0.06821124  0.02299997
  0.02043981 -0.04638311 -0.21251713 -0.05649634  0.12088814 -0.02581316
  0.0930654   0.00296593]