[-5.98730817e-02  8.21204111e-02  1.10890595e-02 -2.14882754e-02
 -6.91356584e-02 -2.58477572e-02 -2.86846254e-02 -1.50991917e-01
  1.66938528e-01 -1.00793660e-01  2.73736715e-01 -6.19536154e-02
 -2.22952008e-01 -1.53105557e-01 -4.77789454e-02  2.30352595e-01
 -2.31439859e-01 -1.90278992e-01  4.83791251e-03 -1.14447055e-02
  9.36962143e-02 -1.38088679e-02  2.00486127e-02  3.36238630e-02
 -6.84724972e-02 -3.59700143e-01 -7.62054548e-02 -6.80329502e-02
  3.39170806e-02 -4.11385596e-02 -5.27580641e-02  9.05143395e-02
 -2.09282264e-01 -7.94626027e-02  5.99294119e-02  7.95488507e-02
  3.83846159e-03 -6.75592646e-02  1.91130728e-01 -2.77212746e-02
 -2.11104184e-01 -1.69107150e-02  8.87294561e-02  2.56918013e-01
  1.40651390e-01  2.78449543e-02  1.13938851e-02 -1.28259137e-01
  8.53998289e-02 -1.40940830e-01  2.67471727e-02  1.16929822e-01
  7.80254081e-02  3.19467448e-02  2.69085722e-04 -1.82243869e-01
 -6.01405697e-03  8.54196697e-02 -1.41542807e-01  4.01323661e-03
  4.97728996e-02 -1.11409843e-01 -2.52128635e-02 -9.49990973e-02
  2.02590108e-01  3.81171629e-02 -5.49141876e-02 -2.01045349e-01
  1.30330309e-01 -1.20726191e-01 -7.59334490e-02  4.78413440e-02
 -1.54721648e-01 -1.71229884e-01 -3.34464878e-01 -4.75160703e-02
  3.69114280e-01  3.35784405e-02 -1.70749068e-01  8.90195146e-02
  3.46051417e-02 -2.14961432e-02  1.60700679e-01  1.48407176e-01
  2.23637130e-02  7.18382075e-02 -1.29949257e-01  5.16919373e-03
  2.31708989e-01 -8.89792740e-02 -5.96094690e-02  1.73651442e-01
 -5.88248856e-02  4.88661379e-02  6.37818128e-02  1.03545217e-02
  3.51404189e-03  7.29176402e-02 -1.91932335e-01 -1.65591538e-02
  7.95544300e-04 -4.25762199e-02 -3.57458591e-02  5.98563552e-02
 -1.30055368e-01 -2.10593315e-03  3.87984328e-02  2.32963469e-02
 -3.19824480e-02 -3.48026715e-02 -1.36742994e-01 -7.40902051e-02
  1.29929438e-01 -2.34508902e-01  2.22902298e-01  1.95158601e-01
  6.39327988e-02  1.42560348e-01  8.88981372e-02  6.94162473e-02
 -3.95742757e-03 -6.17243722e-02 -1.90100923e-01 -1.43077346e-02
  9.75126624e-02  2.43009697e-03  9.61828455e-02  5.81570109e-03]