[-0.04134354  0.11032426 -0.01309877 -0.01247569 -0.08084806 -0.04792375
 -0.03587481 -0.13996488  0.15328097 -0.06286884  0.28007939 -0.0130839
 -0.1982805  -0.17302978 -0.00749248  0.19622065 -0.22457416 -0.13737027
  0.00791153 -0.02817577  0.09736216  0.00117119  0.01034636  0.02473961
 -0.08956038 -0.32802406 -0.08243909 -0.06041892  0.04724852 -0.04596299
 -0.05553203  0.10982429 -0.18427382 -0.10481422  0.09269518  0.08598009
 -0.02090279 -0.04598332  0.19576894 -0.02581351 -0.15999542 -0.02341646
  0.08491804  0.262871    0.15809041  0.029109    0.01953815 -0.10736924
  0.07809026 -0.15200323  0.0407063   0.11990686  0.0782297   0.05845701
  0.01461416 -0.18468873  0.00307595  0.06578903 -0.17944132 -0.04938836
  0.04602051 -0.10987937 -0.04328292 -0.08422747  0.20742464  0.05768293
 -0.04860298 -0.19563948  0.12904932 -0.12851281 -0.08973533  0.04060234
 -0.14159837 -0.15710565 -0.34077227 -0.02978448  0.3711116   0.07541554
 -0.16483472  0.0755946   0.01297757 -0.05527244  0.15530744  0.08030018
  0.00935996  0.04765706 -0.10899377  0.0347882   0.2106878  -0.08181287
 -0.05942667  0.15814407 -0.02021142  0.0666241   0.06649112 -0.00555339
  0.01789391  0.07132825 -0.18105337  0.00384461  0.00424877 -0.05851069
 -0.00662354  0.09771913 -0.15163314  0.03769479  0.06056806  0.00293777
 -0.04696031 -0.04189108 -0.16023548 -0.05761508  0.12789653 -0.26232693
  0.23737012  0.18325506  0.05141795  0.14787464  0.0611193   0.0535346
 -0.01130952 -0.08973276 -0.1836143  -0.02370217  0.08721296 -0.00483565
  0.08872066  0.0114371 ]