[-7.65130892e-02  9.02662799e-02 -2.37075873e-02 -5.29358275e-02
 -8.71292278e-02 -2.37778258e-02 -2.31342744e-02 -1.88856617e-01
  1.80679321e-01 -8.02945644e-02  2.78902620e-01 -3.28024067e-02
 -1.91035613e-01 -1.57175675e-01 -6.22354150e-02  2.15628579e-01
 -2.18160823e-01 -1.89888522e-01  1.69292670e-02 -4.31848280e-02
  9.85103548e-02 -7.78784603e-03  1.82433110e-02  6.39760196e-02
 -5.43393902e-02 -3.46275777e-01 -7.14221448e-02 -6.55725226e-02
  6.10908978e-02 -3.85311730e-02 -2.75753643e-02  9.11201835e-02
 -2.32179865e-01 -8.33237097e-02  7.01537728e-02  9.49786827e-02
  8.63754284e-03 -5.74258752e-02  1.97392046e-01 -3.58768292e-02
 -1.99710026e-01 -4.39757860e-04  1.04608886e-01  2.67621696e-01
  1.70172289e-01  3.53694744e-02  8.23669136e-03 -1.11564077e-01
  8.99286643e-02 -1.23248652e-01  3.50611173e-02  1.16875194e-01
  8.41660500e-02  1.19308122e-02 -1.33301942e-02 -1.75290555e-01
  1.56425318e-04  6.28328919e-02 -1.60848320e-01 -2.69607618e-03
  7.45310709e-02 -1.20969772e-01 -3.94952185e-02 -7.87496939e-02
  1.98665008e-01  4.11955379e-02 -5.41256331e-02 -2.21764088e-01
  1.31479427e-01 -1.46164179e-01 -9.78059024e-02  4.68644612e-02
 -1.66029468e-01 -1.61398917e-01 -3.47132862e-01 -3.17677520e-02
  3.86305571e-01  7.28068873e-02 -1.60003096e-01  1.01317637e-01
  3.83468494e-02  3.70577141e-03  1.66906565e-01  1.26842126e-01
  2.85032280e-02  4.97983098e-02 -1.44340664e-01  1.40678231e-02
  2.25338772e-01 -5.78732379e-02 -9.40628499e-02  1.83811113e-01
 -5.76751195e-02  5.43366857e-02  4.15617190e-02  4.78216372e-02
 -2.32889061e-03  8.46978649e-02 -1.86690271e-01 -2.40181088e-02
  1.32678291e-02  1.12501737e-02  9.06130706e-04  9.71170887e-02
 -1.45591438e-01  3.04681044e-02  9.78203304e-03  4.43296842e-02
 -4.85563837e-02 -2.98764501e-02 -1.29559979e-01 -5.20849898e-02
  1.13166928e-01 -2.28685573e-01  2.43995383e-01  1.92051157e-01
  6.88309744e-02  1.33001089e-01  9.76712629e-02  3.39947753e-02
  2.39486769e-02 -7.17198104e-02 -2.02130273e-01 -3.76089625e-02
  7.22354427e-02 -2.13950183e-02  1.30729780e-01  2.84881536e-02]