[-0.06761759  0.15565179 -0.02407905 -0.04010391 -0.07031091 -0.01699693
  0.00289118 -0.16765426  0.14143698 -0.06851209  0.2640529  -0.03221122
 -0.21134463 -0.14698124 -0.02207427  0.17049178 -0.21338847 -0.19839656
 -0.00409777 -0.06095818  0.07614737  0.00323     0.00699328  0.07447419
 -0.12832282 -0.29799998 -0.05206838 -0.08294237  0.02023398 -0.02246526
 -0.02000571  0.09947859 -0.22824609 -0.05500285  0.06667671  0.07328674
  0.00647703 -0.04377091  0.23900433 -0.03970369 -0.17016201  0.00512112
  0.06830615  0.28621778  0.17623125 -0.03462433  0.01905194 -0.08987309
  0.10972132 -0.13330455  0.01596907  0.16587265  0.04793053  0.02098117
 -0.01685382 -0.16842978  0.00508268  0.06334279 -0.16267626 -0.037505
  0.05856309 -0.13779728 -0.04294252 -0.08967324  0.1776329   0.03159524
 -0.0544495  -0.23332261  0.13542478 -0.14935087 -0.0910809   0.06529369
 -0.16731502 -0.1541909  -0.34966013  0.00371644  0.36085302  0.10777998
 -0.15723343  0.12765278  0.01936544 -0.01534619  0.15915015  0.11654172
  0.00193578  0.06517368 -0.14476524  0.07265342  0.22304335 -0.03725847
 -0.10600785  0.17897683 -0.04243931  0.05390829  0.07365807  0.01968168
 -0.01329332  0.05792489 -0.17784548  0.04199895  0.00647005 -0.01207543
 -0.01294824  0.12964664 -0.12940539  0.04770298 -0.00670613  0.03272175
 -0.10929243 -0.05092552 -0.12844993 -0.01912312  0.11272077 -0.23722008
  0.21191287  0.14016955  0.03008188  0.12016495  0.10131808  0.00762823
 -0.00420442 -0.0567895  -0.22953327 -0.04722697  0.10046488 -0.01650329
  0.14893974  0.01653635]