[-0.07793427  0.15094765  0.0293815  -0.05197107 -0.07390746 -0.00254594
 -0.02237452 -0.18151109  0.1520981  -0.071189    0.29251215 -0.00551772
 -0.19529863 -0.20445728 -0.03071539  0.18208201 -0.22731157 -0.17885138
  0.03703868 -0.02864248  0.1092004  -0.02715781  0.00649566  0.04517217
 -0.06644937 -0.29574388 -0.08237606 -0.04884003  0.05901269 -0.06302878
 -0.03653911  0.05479118 -0.20833683 -0.05929482  0.03684929  0.06615426
 -0.01893768 -0.05239591  0.18121426 -0.03819384 -0.15152828 -0.00669156
  0.06179325  0.25768468  0.18022726  0.01809629  0.01465382 -0.11148617
  0.13109742 -0.14188389  0.02239021  0.14163435  0.09981629  0.02230872
  0.01988086 -0.1964463   0.01087605  0.07086249 -0.15986951  0.01734202
  0.02829922 -0.13016231 -0.02015393 -0.0705303   0.15887956  0.05094408
 -0.0420534  -0.23810194  0.11763778 -0.11922512 -0.08714756  0.09288061
 -0.15273283 -0.16352756 -0.32728592 -0.03053898  0.37448218  0.08724188
 -0.17619106  0.06366099  0.01896614 -0.02414214  0.15273935  0.10428568
 -0.02486158  0.04495714 -0.17843266  0.02058835  0.20491441 -0.05995845
 -0.07824653  0.19627205 -0.0359933   0.07747209  0.03947577  0.01515745
 -0.0049755   0.10244657 -0.15668257 -0.02324425  0.00368594 -0.04802014
 -0.00868065  0.09096179 -0.14536193  0.04836063  0.02147379  0.05887719
 -0.10194601 -0.07760403 -0.13632809  0.01148575  0.11740619 -0.2552616
  0.23288111  0.18570945  0.0504252   0.12114296  0.08990221  0.02518669
 -0.00461845 -0.10725075 -0.15363045 -0.01843781  0.06545918 -0.03972567
  0.12016342  0.00930451]