[-3.63199674e-02  8.54684338e-02 -1.20095909e-04 -4.34761532e-02
 -1.02442220e-01 -5.14625683e-02 -3.82549241e-02 -1.63138971e-01
  1.46910235e-01 -8.80743787e-02  2.92710394e-01 -7.74378702e-02
 -2.00370535e-01 -1.42951339e-01 -4.74034511e-02  2.29339465e-01
 -2.38878414e-01 -1.67027235e-01  2.28218851e-03 -1.74016636e-02
  8.34886804e-02 -2.16596480e-02  2.27948856e-02  3.28938924e-02
 -7.56086409e-02 -3.42532396e-01 -8.29910114e-02 -6.37545958e-02
  3.28759030e-02 -5.39960451e-02 -3.80836092e-02  1.22263469e-01
 -1.93356439e-01 -9.07341614e-02  7.77338594e-02  7.45129287e-02
 -1.09545337e-02 -6.30780980e-02  1.98717713e-01 -4.31589298e-02
 -2.04612359e-01 -9.54954361e-04  1.14999712e-01  2.54865378e-01
  1.53994024e-01  1.85888465e-02  2.17912178e-02 -1.54616758e-01
  8.99525806e-02 -1.43037677e-01  1.32701043e-02  1.16014816e-01
  6.37827367e-02  4.47979756e-02 -1.04065388e-02 -1.74807891e-01
  1.56185124e-02  8.40205476e-02 -1.59687564e-01 -2.58579906e-02
  6.86277375e-02 -9.14561972e-02 -3.37962210e-02 -8.81487057e-02
  2.17276677e-01  3.92125286e-02 -6.78991005e-02 -1.78779766e-01
  1.18273810e-01 -1.10991396e-01 -7.05486238e-02  5.76224625e-02
 -1.64182335e-01 -1.78657636e-01 -3.36427361e-01 -5.50160520e-02
  3.83350343e-01  2.46554222e-02 -1.67078137e-01  8.14965442e-02
  2.23353636e-02 -2.14667041e-02  1.67715594e-01  1.26379400e-01
  1.32122310e-02  5.14601767e-02 -1.16724491e-01  3.23018171e-02
  2.24065378e-01 -1.13440208e-01 -4.61699367e-02  1.72111824e-01
 -2.63051931e-02  5.93622103e-02  6.62849098e-02  3.97875570e-02
  7.67681142e-03  6.81729466e-02 -2.00267032e-01  4.15042927e-03
 -2.76626088e-03 -4.16883230e-02 -3.16476971e-02  6.80278167e-02
 -1.36907101e-01  1.58761833e-02  5.68205491e-02  1.00659886e-02
 -4.57896218e-02 -5.01510762e-02 -1.12156749e-01 -8.07944313e-02
  1.26906574e-01 -2.50454724e-01  2.05881387e-01  1.95177257e-01
  5.36826551e-02  1.45792291e-01  7.73887783e-02  6.21393435e-02
 -1.79522764e-02 -8.10371041e-02 -1.71294495e-01  6.35479717e-03
  9.44527537e-02  9.13124438e-03  8.43179896e-02 -4.02500853e-03]