[-0.10001575  0.12413917  0.00096154 -0.04165402 -0.06315254 -0.00913293
  0.00589702 -0.17659131  0.156137   -0.04592358  0.31128356 -0.08683097
 -0.22818191 -0.15898673 -0.03409621  0.20785542 -0.21342292 -0.18268304
 -0.01934253 -0.05163866  0.0893948  -0.01413313  0.00980645  0.05532558
 -0.12751918 -0.33315402 -0.10066841 -0.11405853  0.02983739 -0.02725051
 -0.04337509  0.08772209 -0.20150791 -0.09818262  0.07392445  0.06840113
  0.02453541 -0.0491061   0.15985751 -0.01952789 -0.16009931  0.03585305
  0.10449675  0.29089126  0.15869799  0.02759709  0.0354636  -0.10304445
  0.04534406 -0.12253727  0.03693188  0.10880119  0.0785396   0.03837103
  0.03867431 -0.20215762 -0.02090141  0.09012794 -0.14012684  0.00218224
  0.04126547 -0.05829735 -0.05129779 -0.08794466  0.21731476  0.09620591
 -0.0762999  -0.20274873  0.13125409 -0.09861284 -0.09112295  0.0382617
 -0.19743399 -0.13181688 -0.33059248 -0.01106391  0.3884545   0.02882902
 -0.2254356   0.07674058  0.02004639  0.02143923  0.1562455   0.12151764
  0.00520574  0.05510711 -0.12498675  0.00437007  0.19134861 -0.05997419
 -0.06807937  0.18801126 -0.05793494  0.02071873  0.08091845  0.0240687
 -0.02103477  0.03951399 -0.17106989 -0.03762612  0.01188675 -0.01615228
 -0.04297444  0.08872775 -0.15453424  0.02198598  0.03465521  0.03244628
 -0.08311564 -0.03695226 -0.07613121 -0.00267839  0.12759735 -0.26618251
  0.21613725  0.18529995  0.00613068  0.11772878  0.07585051  0.02244128
 -0.00197403 -0.01703832 -0.18806635 -0.02967931  0.08290185 -0.03362947
  0.08115958  0.0063328 ]