[-0.06324463  0.1042129   0.01231469 -0.04006635 -0.08256403 -0.01783296
 -0.05081194 -0.1621331   0.18535142 -0.08894546  0.27649805 -0.03157141
 -0.1690747  -0.14392228 -0.05779905  0.2104899  -0.23411873 -0.18001713
  0.04159604 -0.03382063  0.11208632 -0.0119467  -0.02049132  0.04218271
 -0.08139502 -0.32711038 -0.09712603 -0.05602423  0.06775623 -0.05908943
 -0.04900955  0.06256231 -0.21483608 -0.09254357  0.07344545  0.09749162
 -0.00536217 -0.07462829  0.16049877 -0.03177495 -0.17834082  0.02428891
  0.09416565  0.26556873  0.19234852  0.03797851  0.01316485 -0.1255049
  0.10183032 -0.11143377 -0.00668192  0.12675817  0.0828672   0.03880041
  0.00500736 -0.16356272 -0.00187903  0.06769881 -0.14403942 -0.01338568
  0.05536945 -0.10644052 -0.0203496  -0.07420404  0.18435021  0.02278522
 -0.05236666 -0.2438169   0.11511602 -0.14297637 -0.09792948  0.06129186
 -0.1542128  -0.15453218 -0.32152614 -0.04115666  0.39032838  0.05007833
 -0.15805502  0.12576041  0.03192246 -0.01866322  0.15525839  0.129408
  0.04045639  0.05485602 -0.13268417  0.0118296   0.23620735 -0.07436556
 -0.04873227  0.15871482 -0.06501713  0.05307475  0.04499491  0.03445258
 -0.02144184  0.10377943 -0.15372112 -0.04370705  0.0166065  -0.00147871
 -0.00133537  0.09128781 -0.15142292  0.04202722  0.01615     0.05095993
 -0.04515528 -0.04307685 -0.12789632 -0.0282737   0.13018127 -0.26554859
  0.22709106  0.19283278  0.033228    0.1180341   0.0898388   0.04242506
  0.00490684 -0.05918877 -0.18736552 -0.02912101  0.03994341 -0.0266747
  0.10956381 -0.00584309]