[-0.03676394  0.12813513 -0.01513075 -0.0358521  -0.09786803 -0.0134768
 -0.04210799 -0.15280917  0.1703573  -0.06921969  0.29434752 -0.00845662
 -0.20479095 -0.18064426 -0.04911011  0.20579946 -0.24314451 -0.17897446
  0.04106951 -0.0257632   0.09465539 -0.00999589  0.01105065  0.03350447
 -0.11506356 -0.35809377 -0.07441884 -0.05439764  0.0291778  -0.06136167
 -0.03889851  0.1405295  -0.20633917 -0.07229412  0.09461259  0.06907634
 -0.00508919 -0.027158    0.18828265 -0.01628932 -0.18830518  0.00492918
  0.09800943  0.26881954  0.17396873  0.00882306  0.0276184  -0.11582247
  0.07632289 -0.11967319  0.03645439  0.1558426   0.06939466  0.03465844
  0.01061505 -0.17060882 -0.02686147  0.08151742 -0.16631338 -0.01913555
  0.04377134 -0.09857897 -0.02290093 -0.07354583  0.17009357  0.04732297
 -0.04315895 -0.249125    0.13312745 -0.13885568 -0.08655433  0.07878876
 -0.15831968 -0.1762632  -0.31818756 -0.03074118  0.37945175  0.07960567
 -0.13833939  0.09765989  0.02024604 -0.06779997  0.13868862  0.09586695
  0.00859587  0.04899266 -0.11012951  0.0460395   0.22916897 -0.04551592
 -0.0781517   0.19172035 -0.05328296  0.05100663  0.05936921  0.00709028
  0.00147716  0.09902784 -0.17286161 -0.03078686 -0.02634345 -0.05608373
 -0.00379087  0.10821088 -0.14434254  0.01580017  0.02314402  0.04351273
 -0.06007289 -0.00594089 -0.14181183 -0.06261962  0.118468   -0.27518728
  0.24559073  0.17565097  0.06818788  0.11849693  0.08052745  0.03232063
  0.01584768 -0.10861426 -0.1625229  -0.01139676  0.07238903 -0.03048588
  0.1101317  -0.00457934]