[-0.05075052  0.08170813  0.01697147 -0.03088083 -0.06666242 -0.03154528
 -0.03576039 -0.15335971  0.17021589 -0.09327941  0.28128988 -0.04533895
 -0.21123599 -0.161796   -0.04545711  0.22770683 -0.22522846 -0.19295499
  0.01071433 -0.00808745  0.10427636 -0.02354292  0.02978612  0.04301872
 -0.07752055 -0.35157523 -0.08429869 -0.07013931  0.03729996 -0.05510744
 -0.07074324  0.07862135 -0.21401916 -0.08557082  0.05911848  0.08498085
  0.00184952 -0.08212592  0.19015485 -0.03725846 -0.2212746  -0.00410306
  0.08577687  0.24499121  0.1427125   0.03319963  0.01907319 -0.13440175
  0.08395278 -0.12608217  0.03821181  0.11649225  0.07141342  0.03088394
 -0.00797531 -0.18267505 -0.01014923  0.09038621 -0.14399667 -0.00658254
  0.05208309 -0.11338468 -0.02846486 -0.10095085  0.19485784  0.05841852
 -0.05753384 -0.20297311  0.13140392 -0.12164658 -0.07750874  0.04652308
 -0.15648864 -0.16823702 -0.32449308 -0.04490056  0.35970163  0.03278266
 -0.17839268  0.08196991  0.03569663 -0.00890003  0.15829764  0.14847682
  0.0198613   0.08497751 -0.13385567  0.00897286  0.22986364 -0.0869598
 -0.04873528  0.16979854 -0.05473729  0.05283692  0.07010484  0.02954193
 -0.00219428  0.08358605 -0.19567846 -0.00655054  0.00778452 -0.03305414
 -0.03473023  0.06606634 -0.1226768  -0.00560008  0.03823965  0.01624088
 -0.0341238  -0.03571261 -0.12778515 -0.08702071  0.11763113 -0.22992487
  0.2270118   0.1970346   0.06115613  0.14079802  0.08941636  0.08020158
 -0.00533553 -0.07453727 -0.19576389 -0.00982395  0.10329324  0.00405246
  0.10528194  0.00200865]