[-0.05590154  0.10326854 -0.01606855 -0.02161564 -0.08659036 -0.0652689
 -0.02859864 -0.14862204  0.15100154 -0.05844245  0.28348818 -0.01643216
 -0.17891046 -0.19840978  0.00728868  0.19274275 -0.22595382 -0.13861196
  0.01465565 -0.01782968  0.09267885 -0.02261031  0.0357982   0.04415579
 -0.0806183  -0.34058008 -0.10278212 -0.07986199  0.06185369 -0.05378147
 -0.06539191  0.09009659 -0.18870337 -0.11183161  0.07641076  0.09166198
 -0.02216574 -0.05047521  0.19942932 -0.02141496 -0.16532969 -0.04883459
  0.08529188  0.25552061  0.16575417  0.03363013  0.02907245 -0.08575778
  0.07891721 -0.1462464   0.04270245  0.10824808  0.08596288  0.05195996
  0.0165717  -0.17657815  0.00257307  0.06909726 -0.19035824 -0.04858999
  0.04061875 -0.09805717 -0.05974752 -0.07388686  0.22786951  0.09059649
 -0.0470301  -0.19067304  0.15184882 -0.13557862 -0.08338677  0.04397366
 -0.14384982 -0.15362364 -0.32545784 -0.04189551  0.36024842  0.07258195
 -0.16236597  0.05636087 -0.00914549 -0.04480688  0.14465256  0.07379825
  0.00845712  0.06919472 -0.11961661  0.02351935  0.19479176 -0.08830316
 -0.04184628  0.15998851 -0.01546142  0.07330205  0.0715986  -0.00554283
  0.02408619  0.07327521 -0.18516651  0.00334056  0.00842056 -0.06261885
 -0.00464297  0.08270168 -0.15587983  0.02922972  0.07087993 -0.00265725
 -0.05780103 -0.0465846  -0.15565127 -0.06619586  0.12209558 -0.26519275
  0.2382745   0.19461229  0.03263197  0.14862192  0.0494147   0.05919572
 -0.01497634 -0.11003873 -0.16976066 -0.01347767  0.07973883 -0.00914075
  0.07376369  0.01053704]