[-6.28985390e-02  1.30709425e-01  3.59320194e-02 -3.74733172e-02
 -7.60871023e-02  9.66669526e-03  9.17352387e-04 -1.58062562e-01
  1.66424900e-01 -1.05695508e-01  2.82109857e-01 -7.87698254e-02
 -1.94655374e-01 -1.59800515e-01 -3.79148349e-02  1.58178791e-01
 -1.93153664e-01 -1.71781182e-01 -3.93563835e-03 -6.39220700e-02
  1.02263942e-01 -3.02788503e-02  1.56407338e-02  3.28985117e-02
 -7.95572996e-02 -3.10491711e-01 -5.86469956e-02 -9.59994644e-02
  5.62323220e-02 -7.29656443e-02 -5.14020436e-02  3.97647321e-02
 -2.16677666e-01 -7.31076226e-02 -7.76031846e-03  6.59642145e-02
  2.40223743e-02 -4.81366180e-02  1.89991891e-01 -3.16275507e-02
 -1.74720764e-01  3.07217874e-02  1.22821741e-02  2.69197285e-01
  1.78420961e-01  2.06827614e-02 -3.65922344e-03 -1.01272009e-01
  1.53274804e-01 -1.44758731e-01  4.96498644e-02  1.23059832e-01
  9.95972231e-02 -1.79688372e-02  3.46552469e-02 -1.63955137e-01
 -7.06178416e-03  3.15110385e-02 -1.30326271e-01 -1.73543375e-02
  5.63279465e-02 -8.08106661e-02 -1.73143223e-02 -1.04422227e-01
  1.69670150e-01  3.26436721e-02 -2.83264108e-02 -1.77848980e-01
  1.24785237e-01 -1.22724272e-01 -5.68811707e-02  7.28349760e-02
 -1.50142074e-01 -1.36561349e-01 -3.08925182e-01  2.58254266e-04
  4.26375300e-01  6.61564246e-02 -2.01594219e-01  8.02237019e-02
 -3.83951818e-03 -6.46265736e-03  1.82765767e-01  1.17021874e-01
  9.29390173e-03  8.20742995e-02 -1.47178411e-01  1.38937300e-02
  2.04120025e-01 -8.98200199e-02 -9.28496346e-02  1.74094617e-01
 -3.87581699e-02  5.50388210e-02  7.37683550e-02 -1.51303085e-02
 -6.66036410e-03  7.66951516e-02 -1.57451957e-01  1.44203519e-02
 -1.39106554e-03 -5.58219329e-02 -6.26348779e-02  4.17848378e-02
 -1.78431019e-01  5.95721304e-02  1.87778361e-02  2.45468076e-02
 -8.93651024e-02 -7.31486082e-02 -1.11251667e-01  1.52543252e-02
  1.44541234e-01 -2.73790807e-01  1.76413104e-01  1.68465987e-01
  2.30713319e-02  1.56564847e-01  7.34038055e-02  3.83151881e-02
  5.51028363e-03 -4.22396474e-02 -1.81161091e-01 -5.76109886e-02
  7.21347108e-02 -1.66641828e-02  1.04605734e-01  2.26632487e-02]