[-3.30929793e-02  1.42726645e-01  8.89487192e-03 -7.49029517e-02
 -6.52935281e-02  1.48438904e-02 -2.68306267e-02 -1.89162001e-01
  1.61053941e-01 -8.41884539e-02  2.71911055e-01 -2.37029362e-02
 -2.03232571e-01 -1.56363636e-01 -3.62640806e-02  1.79177999e-01
 -2.34186366e-01 -1.98070511e-01  3.28264721e-02 -5.52385822e-02
  8.98272172e-02 -1.31089715e-02 -5.32694114e-03  3.32499817e-02
 -8.64211097e-02 -2.74770707e-01 -9.74786878e-02 -4.84898798e-02
  5.84042370e-02 -3.42984684e-02 -2.26716399e-02  7.38497972e-02
 -2.10532472e-01 -3.55051719e-02  6.33537397e-02  6.82606027e-02
  3.33035411e-03 -6.98418319e-02  1.99588344e-01 -1.43665764e-02
 -1.50718570e-01  1.54964924e-02  6.38337955e-02  2.65453905e-01
  1.69534191e-01 -7.90160906e-04  6.61032507e-03 -1.03447355e-01
  1.24146059e-01 -1.12689152e-01  1.70752089e-02  1.62178859e-01
  1.04876451e-01  3.38780396e-02 -1.38840051e-02 -1.87471494e-01
  2.05217954e-02  7.37223625e-02 -1.53918654e-01 -5.11940522e-03
  4.44959514e-02 -1.48170456e-01 -2.08520219e-02 -8.26185644e-02
  1.58147290e-01  3.62065732e-02 -5.06439693e-02 -2.46436000e-01
  1.10979371e-01 -1.17475681e-01 -9.31114405e-02  8.04224834e-02
 -1.82381570e-01 -1.39402926e-01 -3.15586179e-01 -3.21003459e-02
  3.66715431e-01  7.57106543e-02 -1.76952273e-01  8.25130269e-02
  3.35910693e-02 -1.97516978e-02  1.46461889e-01  1.32919371e-01
 -6.57853996e-03  5.18421791e-02 -1.52625725e-01  2.68360116e-02
  2.27237061e-01 -7.78143331e-02 -9.01961401e-02  1.83519498e-01
 -5.31655662e-02  7.68292174e-02  3.10566556e-02  1.01178875e-02
 -1.43550342e-05  7.92874247e-02 -1.44558087e-01 -1.46428794e-02
 -1.70877427e-02 -2.81648673e-02 -2.97040977e-02  1.05776660e-01
 -1.54388636e-01  5.91166392e-02  1.73394233e-02  3.57855149e-02
 -1.09620072e-01 -7.70050809e-02 -1.00033537e-01  1.56678539e-03
  1.36074483e-01 -2.57797003e-01  2.06710264e-01  1.92527264e-01
  4.32129838e-02  1.15672350e-01  7.67096728e-02  2.78906077e-02
 -8.59110337e-03 -8.51195604e-02 -1.83831468e-01 -3.86668034e-02
  5.65410964e-02 -2.77048629e-02  1.18149653e-01  2.41875509e-03]