[-0.06986918  0.10348675 -0.02971865 -0.03701177 -0.0590248  -0.02010028
  0.00177082 -0.14766234  0.15835653 -0.04133209  0.34076712 -0.04518452
 -0.20143937 -0.19074894 -0.02156118  0.19212307 -0.21398859 -0.15527785
  0.00338257 -0.03031817  0.09943625 -0.0007028   0.02428966  0.05988384
 -0.12187836 -0.34131497 -0.08437388 -0.09655565  0.02806241 -0.04039849
 -0.04060342  0.13335441 -0.18940876 -0.08902045  0.06939006  0.0888442
  0.02220554 -0.00296175  0.16547231 -0.00447943 -0.16811183  0.02807609
  0.08780695  0.29650167  0.18350142  0.03663471  0.01855685 -0.10560854
  0.02990816 -0.1504602   0.04898806  0.11470088  0.07380617  0.0289411
  0.01922284 -0.1786381  -0.03924688  0.06765408 -0.15327619 -0.02681685
  0.02892782 -0.05448973 -0.05186548 -0.11065614  0.22330235  0.08005422
 -0.09399839 -0.17627682  0.12415653 -0.12422609 -0.12046     0.05301265
 -0.16843477 -0.15435891 -0.34361708 -0.0089025   0.3761704   0.05397366
 -0.22560723  0.08481263  0.00587156 -0.00972537  0.150047    0.09798708
  0.01390282  0.05763856 -0.12843488 -0.00490049  0.18816867 -0.0491761
 -0.06615687  0.20346747 -0.04763988  0.05836448  0.09108775  0.04001477
  0.01087026  0.04827886 -0.19765857 -0.03620153 -0.00484263 -0.04263851
 -0.04114784  0.08812851 -0.16324456  0.06635638  0.0453327   0.03267224
 -0.04487024 -0.02598763 -0.09317371 -0.02043723  0.13255358 -0.27997318
  0.21712089  0.17489426  0.04079769  0.14213704  0.08549787  0.04738356
 -0.03057547 -0.05760067 -0.1999529  -0.02116774  0.07594299 -0.04713524
  0.08978505  0.01652142]