[-0.07208651  0.16101779 -0.01060907 -0.0353721  -0.06358148 -0.01167702
 -0.00571137 -0.18779872  0.14845403 -0.07815903  0.264727   -0.04608707
 -0.21912971 -0.14702511 -0.05031741  0.17747387 -0.21665917 -0.19083089
 -0.01157462 -0.03147986  0.09919177  0.01280797  0.02256636  0.05274836
 -0.09465037 -0.30980957 -0.08264227 -0.06649548  0.04431347 -0.02962929
 -0.04822941  0.05618384 -0.22242606 -0.05709973  0.06566533  0.05028987
  0.00376705 -0.06913088  0.22155385 -0.04265462 -0.18141556  0.001366
  0.08019356  0.26822063  0.1903297  -0.01271292  0.01421164 -0.11154991
  0.09779501 -0.11711551  0.03642325  0.15703681  0.03745206  0.023863
  0.00110171 -0.17507114 -0.0204292   0.0849955  -0.11998325 -0.01692984
  0.07040195 -0.11709534 -0.0499941  -0.07860768  0.16310278  0.02906495
 -0.06330924 -0.2558026   0.13746171 -0.14806895 -0.09134863  0.05592613
 -0.1685023  -0.15148489 -0.33118173 -0.00730314  0.3913255   0.08778557
 -0.16108303  0.12564555  0.01579878 -0.01085331  0.17194174  0.12953547
  0.00708351  0.06741043 -0.15495631  0.0455126   0.23005573 -0.0448953
 -0.10739974  0.19168349 -0.05902467  0.04644805  0.07363444  0.02360254
 -0.00846117  0.06414527 -0.17862032  0.01411253  0.02658439 -0.02017739
 -0.03464639  0.12751938 -0.12212976  0.03863894  0.0104785   0.05493276
 -0.0800399  -0.06347623 -0.13988318 -0.01106596  0.11424019 -0.23938949
  0.22050683  0.14122854  0.04779594  0.11465438  0.11830499  0.02647807
  0.02950178 -0.04927984 -0.22407363 -0.05375025  0.09179004 -0.00471969
  0.14051233  0.01574843]