[-0.07702507  0.10226069  0.02505166 -0.03949108 -0.07946908 -0.01286998
 -0.04091169 -0.15902862  0.1747347  -0.08530463  0.29541156 -0.04916352
 -0.19084369 -0.1402714  -0.05326197  0.22333474 -0.24103606 -0.175346
  0.03514244 -0.02977298  0.11420921 -0.00974276 -0.01626075  0.03547257
 -0.06901501 -0.31912071 -0.09265064 -0.05213318  0.06109653 -0.0615258
 -0.06477679  0.05094605 -0.21256252 -0.09010955  0.07706179  0.08376082
  0.00112991 -0.07677581  0.15876704 -0.03921283 -0.18178461  0.01758975
  0.10151391  0.24913922  0.17649215  0.04443054  0.00422017 -0.13419805
  0.07468082 -0.11627245  0.00207394  0.13073452  0.08425826  0.03593272
 -0.0103724  -0.18460019 -0.01629975  0.05852577 -0.12808512 -0.01392842
  0.06166217 -0.09615853 -0.01800298 -0.07970764  0.18100731  0.02351928
 -0.06170495 -0.25675628  0.09515242 -0.13193147 -0.09788927  0.06559825
 -0.16109085 -0.15954311 -0.31795835 -0.04482656  0.3913368   0.03064469
 -0.16567202  0.11275089  0.01382886 -0.03121372  0.14054364  0.13101175
  0.04203502  0.06229728 -0.13638082  0.00747497  0.23282106 -0.0897664
 -0.0463645   0.16380392 -0.06654232  0.04799656  0.03771633  0.03914203
 -0.011228    0.10236962 -0.14556699 -0.05055299  0.00799234 -0.01287499
 -0.01122451  0.09080204 -0.16558032  0.03732264  0.01843064  0.04492759
 -0.04751234 -0.04441604 -0.12271352 -0.03015218  0.13240385 -0.26533464
  0.22029178  0.20898485  0.04816     0.11697378  0.09016862  0.05058096
  0.01053563 -0.04609535 -0.18664224 -0.02447619  0.03968295 -0.02412152
  0.10615217  0.00227243]