[-0.03504832  0.19165227  0.08436266 -0.04383975 -0.03241205  0.00261061
 -0.08384953 -0.12669846  0.14315833 -0.07686821  0.31002629  0.03826479
 -0.2101928  -0.17966314 -0.02843132  0.11803333 -0.20467804 -0.10550566
 -0.07511878 -0.03439062  0.04971093  0.03379825  0.06065689 -0.01727331
 -0.15524064 -0.3697159  -0.09075977 -0.11580648 -0.01808115 -0.10897433
 -0.08645361  0.0603203  -0.15120795 -0.04813498  0.01077218  0.05396222
 -0.03175054 -0.00265201  0.16458648  0.05656731 -0.14841364  0.05999533
  0.0164387   0.274221    0.28398302  0.0065234   0.02966532 -0.12351102
  0.13261856 -0.14227447  0.08516774  0.16386206  0.17464457  0.07275931
  0.0796481  -0.15849097 -0.0323063   0.07839154 -0.14004366 -0.04434741
  0.0200642  -0.06423584 -0.0283948  -0.03458101  0.19001013  0.11687209
 -0.10523039 -0.11702526  0.1274924  -0.09241771 -0.04556035  0.0589052
 -0.17415278 -0.14870226 -0.26758352  0.00927103  0.35131299  0.08583985
 -0.24883835 -0.02180373 -0.12352084 -0.04115425  0.07668793  0.05040647
 -0.10895947  0.02625995 -0.08843556  0.03595452  0.18700497 -0.03647077
 -0.05957369  0.20680645 -0.01160004  0.06825372  0.09416064 -0.03728328
 -0.06648671  0.01710126 -0.16921523 -0.02968313 -0.05149446 -0.12457955
 -0.06428821  0.06257024 -0.18092148  0.10852627  0.07677611  0.01162914
 -0.02114721 -0.05579965 -0.11001452 -0.03154273  0.17832689 -0.26508054
  0.2155609   0.15099435  0.04569437  0.15733361  0.10109204  0.05428919
 -0.0731504  -0.07991728 -0.12550503 -0.01112767  0.09087584 -0.01367905
  0.10642149 -0.02470603]