[-0.04223525  0.1996794   0.0992326  -0.02154081  0.0231689   0.01170659
 -0.00831197 -0.07193513  0.15722132 -0.06662004  0.27377668  0.04639155
 -0.18595742 -0.09921291 -0.04351537  0.11116866 -0.19584453 -0.07236852
 -0.11260436 -0.03190654  0.02221723  0.02986545  0.00980581  0.00953843
 -0.12471254 -0.29745761 -0.04965229 -0.10822368  0.05800505 -0.09575388
 -0.08537625  0.0420812  -0.12810786 -0.06589957 -0.00134202  0.02453792
 -0.06210165 -0.02085289  0.18665656  0.06532171 -0.12965946  0.07231501
  0.01430659  0.32821253  0.29207632  0.04190665 -0.01097088 -0.07910014
  0.17136499 -0.24290495  0.05680699  0.12833764  0.14671515  0.13971475
  0.09347107 -0.18649104 -0.03079988  0.06242397 -0.15641998  0.01165008
 -0.02500838 -0.06074848  0.02065325 -0.07449514  0.17693135  0.11872046
 -0.11387211 -0.08211058  0.15099941 -0.12609486 -0.04014335  0.04844885
 -0.11289506 -0.11988981 -0.25289452  0.03492806  0.3270261   0.18643034
 -0.18030398 -0.03768036 -0.11363337 -0.05035451  0.04403308  0.04209299
 -0.12112206 -0.01035278 -0.0323163  -0.00441299  0.17909022  0.01256568
 -0.07416692  0.20214932 -0.03328961  0.032812    0.03255662 -0.03211672
 -0.11662985  0.01471559 -0.17484567 -0.04061743 -0.04212395 -0.12150415
  0.00236754  0.11522473 -0.21149556  0.15940812  0.04107322  0.0429584
  0.02169889  0.02279359 -0.10953641  0.03240154  0.17265971 -0.23624574
  0.25706202  0.1620429   0.05362052  0.10931658  0.09937048  0.02233124
 -0.05401151 -0.03188551 -0.1269833  -0.06713688  0.07342351 -0.02789455
  0.10071649  0.00326839]