[-1.92437656e-02  1.49595678e-01  1.03844039e-01 -3.84255052e-02
 -5.50901592e-02 -7.63846515e-03 -4.84144986e-02 -9.54299644e-02
  9.02112573e-02 -8.40487480e-02  2.47490644e-01  1.63199343e-02
 -2.39094853e-01 -1.26750514e-01  5.76363085e-03  1.06680669e-01
 -1.55976579e-01 -1.20941065e-01 -8.76904652e-02 -6.86710402e-02
  7.86790531e-03 -3.38636315e-03  3.91976573e-02 -1.12964343e-02
 -1.53392538e-01 -2.72309989e-01 -8.98290873e-02 -9.47483703e-02
 -3.61245386e-02 -8.82658735e-02 -8.59581456e-02  7.39177093e-02
 -1.27284840e-01 -7.61606395e-02  5.40950373e-02  9.47799534e-03
 -1.59141403e-02 -1.02835044e-03  1.52222425e-01  1.20406505e-02
 -1.55263022e-01  6.26553372e-02  7.58153126e-02  2.58827299e-01
  2.75933743e-01  2.77067553e-02  4.10402101e-03 -7.20059499e-02
  1.72145233e-01 -1.86285481e-01  6.73010498e-02  1.40149355e-01
  1.75958082e-01  9.31263492e-02  1.03998952e-01 -1.38586029e-01
 -8.35850555e-03  1.09318972e-01 -1.10108875e-01 -2.15199031e-02
  1.60114393e-02 -8.02995488e-02  3.35248746e-03 -6.48543760e-02
  1.45693511e-01  6.60004988e-02 -9.71208587e-02 -1.10317647e-01
  1.10526346e-01 -9.41008255e-02 -7.59374574e-02  6.99362308e-02
 -1.72787458e-01 -1.27466545e-01 -2.73832142e-01  3.28249484e-02
  3.16937923e-01  1.58972368e-01 -1.72404125e-01  1.16952956e-02
 -7.27776214e-02 -7.76025513e-03  1.63626801e-02  2.65127625e-02
 -1.31704554e-01  3.55762914e-02 -3.40407602e-02  3.46988551e-02
  1.82150230e-01 -3.48234884e-02 -5.77421188e-02  1.85899839e-01
 -2.15840284e-02  6.39840364e-02  7.13973045e-02 -3.33311856e-02
 -5.44917844e-02 -1.54326111e-02 -1.93345800e-01 -2.04748958e-02
 -3.85081135e-02 -1.26865104e-01 -5.69697563e-03  7.53390193e-02
 -2.14114621e-01  8.12576637e-02  1.39276562e-02  1.84942018e-02
 -6.99173212e-02 -1.61179909e-04 -8.63708705e-02  2.96572130e-02
  1.28294945e-01 -2.71408111e-01  1.90440372e-01  1.81158885e-01
  4.41022329e-02  9.23221782e-02  1.00025766e-01 -1.28521090e-02
 -3.69726084e-02 -6.65259585e-02 -7.27148652e-02 -7.98642263e-02
  1.31331444e-01 -4.34223888e-03  1.15927987e-01 -4.98398161e-03]