[-1.14991285e-01  6.76928461e-02  8.57741013e-02 -6.21782839e-02
 -1.44134969e-01 -4.01022807e-02 -6.38750894e-03 -1.29621565e-01
  7.27810711e-02 -7.83519298e-02  2.27507934e-01 -1.03390515e-01
 -1.92112178e-01 -6.86039552e-02 -4.23120521e-02  2.22518876e-01
 -1.37270555e-01 -1.17727235e-01 -8.12960193e-02 -1.37230009e-02
  8.21838602e-02  1.81595515e-02  1.15449065e-02 -1.57313689e-03
 -1.18061356e-01 -2.99884856e-01 -5.18443584e-02 -3.68916579e-02
  2.48320047e-02 -3.05081587e-02 -5.11073060e-02  4.39059548e-02
 -1.73226357e-01 -5.59527837e-02  8.38322118e-02  7.83616006e-02
 -1.13207465e-02 -1.07050352e-01  1.49632379e-01 -1.34252952e-02
 -2.95564175e-01  4.38017398e-03  1.18195370e-01  2.39763126e-01
  1.90643415e-01  3.48137580e-02  6.04440738e-03 -1.42112657e-01
  1.65416494e-01 -2.13467583e-01 -2.89660338e-02  6.48063719e-02
  2.62739565e-02 -7.27316737e-03  3.68934460e-02 -1.24603033e-01
  5.67471460e-02  1.13781571e-01 -1.59063965e-01 -5.12930043e-02
  8.80535692e-02 -7.95233846e-02 -5.10909446e-02 -1.25451088e-01
  1.95831046e-01  5.18410765e-02 -1.20918393e-01 -1.32416338e-01
  1.24474935e-01 -9.84424278e-02 -5.45339659e-02  5.50316572e-02
 -1.49827316e-01 -1.51157856e-01 -3.51244301e-01 -3.88343446e-02
  4.64652061e-01  9.21276584e-02 -1.82004437e-01  3.36598568e-02
 -2.91672093e-03  7.93288797e-02  1.78605571e-01  1.67544514e-01
 -1.46249775e-02  5.07036261e-02 -9.45742279e-02 -5.26626408e-03
  2.12495476e-01 -1.19785272e-01 -1.27348257e-02  1.93571255e-01
  1.73072852e-02  5.47723435e-02  1.00947917e-04  4.60387878e-02
 -9.56103429e-02  1.34080974e-02 -1.53480247e-01 -4.61087041e-02
  6.79483339e-02  5.34317270e-03  5.68157136e-02  1.70087948e-01
 -1.84893176e-01  8.94282088e-02  6.39972789e-03  3.56957391e-02
  3.13259959e-02 -4.56070267e-02 -9.13112797e-03 -5.12966774e-02
  4.09848392e-02 -1.97913215e-01  9.82886404e-02  1.99353203e-01
  6.06317830e-04  8.06409642e-02  1.28087446e-01  2.10555047e-02
 -4.77098441e-03  2.85015497e-02 -1.84730694e-01 -3.24917696e-02
  9.44569036e-02 -3.09871826e-02  7.61979744e-02 -1.87327024e-02]