[-1.32288992e-01  4.86903824e-02  4.83674668e-02 -3.78871970e-02
 -7.33328387e-02 -6.21439703e-02  2.80477051e-02 -1.42728299e-01
  1.17763281e-01 -6.87344596e-02  2.59159982e-01 -1.14049368e-01
 -2.14774758e-01 -1.21921301e-01 -2.73754485e-02  2.28040501e-01
 -1.64485872e-01 -7.63790831e-02 -6.81747124e-02 -3.04790232e-02
  6.47953972e-02  1.09433038e-02  2.01270729e-02  5.25349192e-02
 -1.11183085e-01 -3.60984176e-01 -1.10392861e-01 -6.54810816e-02
 -4.49131690e-02  7.51569076e-03 -4.09146845e-02  8.37398246e-02
 -1.42312929e-01 -6.80803284e-02  7.84366205e-02  6.61851019e-02
  1.04570230e-02 -9.58458111e-02  1.60460800e-01  1.26770663e-03
 -2.30140314e-01 -1.40845777e-05  1.23239897e-01  2.32466966e-01
  1.83242589e-01  3.15219574e-02  3.39737162e-02 -1.20184124e-01
  1.26079381e-01 -1.41893134e-01 -1.45235807e-02  8.57551023e-02
  3.67236137e-02  1.15414849e-02  3.85300629e-02 -1.05196618e-01
  1.48887811e-02  9.28019807e-02 -1.19014554e-01 -8.08122009e-02
  5.57066016e-02 -6.83022588e-02 -6.46891072e-02 -8.24025869e-02
  1.86497450e-01  8.74462649e-02 -1.15448833e-01 -1.42586872e-01
  1.31010994e-01 -1.33050591e-01 -5.72225712e-02  4.87409495e-02
 -1.80944875e-01 -1.56167358e-01 -3.14005286e-01 -2.49731224e-02
  4.53564167e-01  5.32321222e-02 -2.06713229e-01  1.62986517e-02
 -4.88965437e-02  3.73297445e-02  2.00846151e-01  1.68322027e-01
  3.71733345e-02  9.38768033e-03 -9.17126983e-02 -3.57470177e-02
  2.28210926e-01 -7.52491876e-02 -4.59377356e-02  1.95862591e-01
  1.46437259e-02  3.07715144e-02  3.44568193e-02  1.08085480e-02
 -4.06439565e-02  1.79547984e-02 -1.13605216e-01 -3.48778926e-02
  5.64855412e-02 -8.48063547e-03 -8.31901189e-03  9.20380279e-02
 -2.01859459e-01  9.94549692e-02  4.83772419e-02  3.76308151e-02
  4.04467471e-02 -3.19480039e-02 -4.97979894e-02 -2.79400777e-02
  8.46517012e-02 -2.21762329e-01  1.20469265e-01  1.61059633e-01
 -3.04010715e-02  1.18866205e-01  5.96748963e-02  8.10467526e-02
 -3.81253213e-02 -5.27489884e-03 -1.62206396e-01 -4.25957292e-02
  9.20005143e-02 -6.91162003e-03  9.18895528e-02 -4.90067266e-02]