[-0.13309583  0.04363767  0.09074127  0.01136241 -0.06341773 -0.0836257
  0.03201517 -0.14706686  0.12976733 -0.07257831  0.25294864 -0.07020298
 -0.20504983 -0.10659428 -0.00560324  0.24066353 -0.12391979 -0.10777742
 -0.09891116 -0.02000423  0.00274422  0.02538829  0.0606004   0.06601615
 -0.08817037 -0.36014366 -0.09054923 -0.09405228 -0.05855114  0.00463799
 -0.06674053  0.08201116 -0.15453099 -0.08783359  0.07231287  0.04044504
 -0.01378978 -0.04367435  0.17901535  0.01870767 -0.23987412 -0.04219592
  0.1079699   0.22950931  0.19246484  0.00849718  0.03355164 -0.13779169
  0.07168999 -0.15809555 -0.0152716   0.06618844  0.06723553  0.02976605
  0.014505   -0.10810901 -0.00874583  0.05776339 -0.10047926 -0.0513639
  0.04897572 -0.08073654 -0.09997938 -0.06366085  0.22455512  0.08800099
 -0.10181647 -0.12364074  0.14127414 -0.13670376 -0.06684376  0.03724631
 -0.16444622 -0.14460514 -0.32773653 -0.05240788  0.42823425  0.00671526
 -0.22919893  0.00398794 -0.09370171  0.0347439   0.11972933  0.14349285
 -0.00172498  0.02552368 -0.06451278 -0.03729581  0.21411131 -0.08553818
 -0.01551675  0.17580383  0.01459803  0.03448131  0.06499223  0.01054352
 -0.01331367 -0.00700175 -0.16399038 -0.04721477  0.01128916 -0.01713311
  0.0128555   0.0704246  -0.21899104  0.09086975  0.06955465  0.00482345
  0.07979658  0.02386345 -0.07848696 -0.10604488  0.10991269 -0.17697248
  0.13399415  0.17576237 -0.01823737  0.11226624  0.04627429  0.11231978
 -0.07761043  0.03057336 -0.13531773 -0.00396914  0.11359378 -0.01384654
  0.05944612 -0.02328439]