[-0.04568592  0.19121401  0.08824145 -0.03711925 -0.00976888 -0.00093034
 -0.02083594 -0.10942998  0.14315501 -0.06348365  0.31677446  0.03929732
 -0.18539523 -0.16503087 -0.02011662  0.13053511 -0.1898071  -0.08063019
 -0.07340323 -0.02669333  0.02196043  0.05110304  0.04742269  0.00263379
 -0.12204111 -0.32949957 -0.07401055 -0.12398155  0.01320323 -0.11381044
 -0.08415017  0.08416545 -0.14388967 -0.07125253  0.0205096   0.02421379
 -0.05700852  0.00587155  0.18729906  0.05999127 -0.13639353  0.05066066
  0.05191877  0.30325288  0.29485103  0.03928772  0.0036051  -0.07985491
  0.13670875 -0.1707969   0.05579321  0.12400966  0.12496247  0.09625734
  0.08605017 -0.16874994 -0.04287962  0.03905082 -0.148385   -0.02579687
 -0.00370439 -0.06217114 -0.01785278 -0.04352723  0.19250475  0.08814218
 -0.09795305 -0.11770324  0.14102873 -0.12192632 -0.06754687  0.08191773
 -0.16001596 -0.12594698 -0.25986418  0.01358011  0.33648831  0.12763247
 -0.18229839 -0.00874693 -0.08947854 -0.07416447  0.06046109  0.05938785
 -0.07259447  0.01455835 -0.05044664  0.00732056  0.18381628 -0.00348529
 -0.07697986  0.20534503 -0.03864121  0.05404982  0.05160245 -0.04125556
 -0.06569424  0.0191684  -0.18370138 -0.05605981 -0.05608911 -0.09806375
 -0.03350924  0.10983212 -0.19813079  0.13567504  0.04980577  0.0391063
 -0.02843017 -0.01518386 -0.10241645  0.02224184  0.15119228 -0.24902017
  0.24071477  0.14944495  0.04509076  0.1037789   0.0901896   0.01593768
 -0.05066965 -0.05396561 -0.14531823 -0.05311845  0.09048468 -0.0331487
  0.12773447 -0.01295399]