[-0.10226095  0.06915583  0.0703756  -0.03429314 -0.10863777 -0.03923234
  0.02790404 -0.13342935  0.12906121 -0.16293986  0.23675607 -0.09371573
 -0.2201387  -0.06400931 -0.00710382  0.22217678 -0.17273058 -0.11643883
 -0.06655314 -0.0441806   0.01547495  0.0284748  -0.00736814  0.04783633
 -0.12707204 -0.36449328 -0.09936135 -0.05422086 -0.01930786 -0.01213004
 -0.04804519  0.112877   -0.10008889 -0.03816133  0.04731651  0.07774599
 -0.01686898 -0.08192476  0.13893108  0.0159583  -0.26242742  0.00983258
  0.11021961  0.25794455  0.17596395  0.00070234  0.00554988 -0.1020408
  0.13739491 -0.18621743 -0.02451736  0.06389774  0.06713023  0.0346667
  0.08905967 -0.0849387   0.00687582  0.09315182 -0.12519996 -0.03812872
  0.03757524 -0.06874145  0.00414935 -0.09156366  0.17672187  0.08948503
 -0.09450853 -0.09680352  0.14787851 -0.17284234 -0.10902581  0.03990628
 -0.12640272 -0.15700117 -0.30250424 -0.04049518  0.43955883  0.12328967
 -0.17348449  0.01225614  0.01889941 -0.02193566  0.19609891  0.19185488
 -0.00182325 -0.00810587 -0.05327802 -0.01524365  0.24583201 -0.04994027
 -0.04761906  0.21563891  0.01206756  0.06524862  0.04116669 -0.00542749
 -0.05609034  0.01173007 -0.1435733  -0.03314335  0.01383675 -0.04232491
 -0.01860792  0.1013329  -0.17765954  0.12110751  0.04178569  0.03701623
  0.04965286  0.05316198 -0.05926265 -0.02986607  0.09608423 -0.21608149
  0.10702419  0.18334426 -0.03214177  0.10415968  0.07015026  0.03922223
 -0.0157986  -0.03318494 -0.15950947 -0.0587697   0.1076476  -0.05759897
  0.06887955 -0.02723639]