[-2.07889415e-02  1.49473622e-01  8.81608799e-02 -3.24844830e-02
 -6.74335063e-02 -2.43271701e-04 -5.47535680e-02 -1.01373829e-01
  1.05492376e-01 -1.09306730e-01  2.76405305e-01  2.57320087e-02
 -2.12094232e-01 -1.59547642e-01  1.48655372e-02  1.02603011e-01
 -1.90393567e-01 -9.45052952e-02 -8.16057250e-02 -4.97683585e-02
  2.41117608e-02 -4.57317987e-03  7.53281936e-02 -1.68523323e-02
 -1.50773689e-01 -3.32001358e-01 -9.86313894e-02 -1.28536642e-01
  1.96885429e-02 -9.14183110e-02 -9.48308557e-02  8.42367783e-02
 -1.25516638e-01 -9.65952128e-02  3.02802473e-02  1.26953572e-02
 -6.10869029e-04  1.19471606e-02  1.41105041e-01  6.64754072e-03
 -1.56904280e-01  9.78926122e-02  5.19783162e-02  2.75190324e-01
  2.79761612e-01  4.08481471e-02  2.17640214e-02 -6.05521798e-02
  1.58237457e-01 -1.76351860e-01  6.13662787e-02  1.34537399e-01
  1.60008535e-01  6.03924654e-02  1.21248938e-01 -1.35650009e-01
 -1.59079134e-02  8.46917033e-02 -1.16779648e-01 -1.37376813e-02
  4.10322137e-02 -4.10229787e-02 -5.27379510e-04 -5.99445105e-02
  1.58457085e-01  5.98325320e-02 -1.02197766e-01 -9.33529362e-02
  1.19833790e-01 -9.01628286e-02 -4.63380627e-02  5.04257679e-02
 -2.01721534e-01 -1.31412655e-01 -2.55459517e-01  3.17066424e-02
  3.21009725e-01  1.75191581e-01 -1.70953065e-01  1.71621889e-02
 -9.03752968e-02  6.28824392e-03  2.86860168e-02  3.92042212e-02
 -1.00012876e-01  2.87907552e-02 -3.85124087e-02  4.51405905e-02
  1.32843614e-01 -3.29984948e-02 -4.09609042e-02  2.12904364e-01
 -1.58130415e-02  5.76072000e-02  6.82030395e-02 -4.41684276e-02
 -8.06479678e-02 -1.97484251e-02 -2.04907373e-01 -1.65540893e-02
 -3.56627926e-02 -1.24344282e-01 -1.05466144e-02  7.88091049e-02
 -1.99138433e-01  8.97346064e-02  3.45304492e-03  3.38244103e-02
 -3.81201170e-02  6.03376701e-03 -7.99928457e-02  2.08084043e-02
  1.24743156e-01 -2.61817873e-01  1.93113044e-01  1.99032396e-01
  4.72010784e-02  1.03045098e-01  1.06539071e-01 -5.53127984e-03
 -3.95588353e-02 -4.96025048e-02 -1.06143475e-01 -8.01635906e-02
  1.02126971e-01 -3.33419107e-02  8.87158886e-02 -1.68079492e-02]