[-0.04771095  0.20644693  0.09752985 -0.03653017  0.01895377  0.02056039
 -0.029002   -0.08837394  0.15729783 -0.07129546  0.27671534  0.05674038
 -0.16483523 -0.1182702  -0.04747863  0.1206786  -0.18590418 -0.10218519
 -0.11019466 -0.04046667  0.00667787  0.03105021 -0.00709548 -0.0021569
 -0.1321982  -0.2821779  -0.04856238 -0.11343723  0.07496729 -0.11816565
 -0.08692446  0.0329073  -0.13450605 -0.05306014  0.00519495  0.0326306
 -0.05462046 -0.00577448  0.19556652  0.08273358 -0.14705758  0.08008227
  0.00798907  0.32209429  0.29535717  0.03209726 -0.01166264 -0.0901488
  0.17789353 -0.22105184  0.05483764  0.14679441  0.13767068  0.13774185
  0.07654983 -0.19397029 -0.03042218  0.04813469 -0.16397834  0.00976536
 -0.01225952 -0.07072093  0.00627908 -0.05273903  0.15969066  0.11012461
 -0.11179012 -0.10381269  0.15147738 -0.1225902  -0.03020174  0.05563178
 -0.11625357 -0.11686978 -0.25611278  0.04043701  0.33402389  0.16790652
 -0.17852676 -0.02063533 -0.10458102 -0.06280956  0.04487186  0.04554465
 -0.12000308 -0.00366574 -0.02082827 -0.00183047  0.18084733  0.01536693
 -0.05665643  0.18361378 -0.04535369  0.04920376  0.02890673 -0.01079694
 -0.11445703  0.01559427 -0.15477474 -0.0384677  -0.05617502 -0.11743718
  0.01027981  0.11272337 -0.20214115  0.16964225  0.05019061  0.04236762
 -0.00595633  0.02605798 -0.09262032  0.02586153  0.17446759 -0.22715436
  0.27543637  0.17463495  0.05385001  0.1001931   0.12434305  0.01648033
 -0.05027193 -0.02877591 -0.12066244 -0.06417902  0.05184342 -0.03946437
  0.09979633  0.00359239]