[-2.20285337e-02  1.30364418e-01  7.49668106e-02 -2.78254729e-02
 -2.18883697e-02 -3.63761373e-02 -1.80191584e-02 -1.34551004e-01
  1.48214087e-01 -9.45004448e-02  2.91887909e-01 -2.20470138e-05
 -2.12378815e-01 -1.70895025e-01  5.38357650e-04  1.22492932e-01
 -2.10600376e-01 -1.27339348e-01 -2.99359690e-02 -4.50873785e-02
  4.86047380e-02 -1.07926745e-02  3.63253839e-02 -1.48403610e-03
 -1.29469857e-01 -3.17566663e-01 -1.32446319e-01 -1.26479015e-01
  5.91696389e-02 -8.42123553e-02 -9.26091075e-02  8.95296857e-02
 -1.44710258e-01 -1.00539051e-01  3.17087397e-02 -5.00770146e-03
  3.55747193e-02 -6.84567553e-04  1.69553325e-01  1.55344966e-03
 -1.56521425e-01  8.90571401e-02  3.34423445e-02  2.67700076e-01
  1.77879125e-01  2.96056923e-02  1.70851164e-02 -8.17237645e-02
  1.22603655e-01 -1.24904089e-01  5.59161082e-02  1.37901172e-01
  1.67175040e-01  3.09042372e-02  8.54561180e-02 -1.57442808e-01
 -5.61896451e-02  6.66283071e-02 -1.36367008e-01  2.08025314e-02
  3.87834013e-02 -4.61981185e-02 -1.31153585e-02 -7.25122318e-02
  1.42081007e-01  5.80577925e-02 -9.35473889e-02 -1.29292324e-01
  1.36240065e-01 -8.94284770e-02 -5.08540981e-02  4.52109985e-02
 -1.74399540e-01 -1.22296490e-01 -2.68958539e-01  1.89309902e-02
  3.17770332e-01  9.99123752e-02 -1.96559832e-01  3.69451158e-02
 -8.57266411e-02 -1.96386427e-02  5.27673438e-02  5.05265258e-02
 -8.74159262e-02  6.82591423e-02 -6.83305636e-02  2.63844635e-02
  1.48423538e-01 -3.28899436e-02 -4.20799367e-02  1.96812317e-01
 -4.74796519e-02  8.97340402e-02  4.70110290e-02 -2.98912954e-02
 -5.93599938e-02 -6.71869516e-03 -1.79186821e-01 -6.58204639e-03
 -1.32728284e-02 -9.06284004e-02 -3.55798043e-02  1.02761142e-01
 -1.76486999e-01  5.72103150e-02  3.45805995e-02  1.41002685e-02
 -5.12191728e-02  3.69304158e-02 -9.71096382e-02 -1.26431454e-02
  1.21872008e-01 -2.63004899e-01  2.04940796e-01  1.88506320e-01
  2.92276833e-02  8.55805278e-02  7.94964880e-02 -4.76116734e-03
 -3.77133451e-02 -6.74766004e-02 -1.40092820e-01 -7.03176185e-02
  1.14202432e-01 -3.72439250e-02  7.53806457e-02 -1.71201583e-02]