[-1.20173238e-01  2.86899637e-02  7.62990564e-02 -2.63475664e-02
 -1.20506145e-01 -5.62622212e-02 -3.04420087e-02 -1.71136484e-01
  9.01482329e-02 -1.09460853e-01  1.84475183e-01 -1.03065468e-01
 -1.81711629e-01 -8.35779309e-02 -5.46494536e-02  2.43381664e-01
 -1.26329198e-01 -1.52527690e-01 -8.49269032e-02 -4.15772907e-02
  3.62997912e-02  1.52965086e-02  3.38423997e-04  2.30550971e-02
 -1.67453542e-01 -3.03276449e-01 -9.64505225e-02 -3.66470478e-02
 -6.05013780e-02 -2.65236329e-02 -7.39168301e-02  7.23161846e-02
 -1.75655201e-01 -3.75763848e-02  9.78376865e-02  1.24444656e-01
  2.01753732e-02 -8.85529146e-02  1.20798185e-01  1.08369971e-02
 -2.76163369e-01  2.40601115e-02  1.29730925e-01  2.39623383e-01
  1.80452242e-01  4.85443808e-02  5.33226365e-03 -1.34838030e-01
  1.83071941e-01 -1.82933450e-01 -5.37570799e-03  6.83639944e-02
  3.94333601e-02  1.16779236e-02  4.26435024e-02 -1.00521736e-01
  3.16188708e-02  1.35206491e-01 -1.26009554e-01 -5.37292063e-02
  7.01871291e-02 -7.80202225e-02 -7.75480270e-02 -1.25787228e-01
  1.93541229e-01  1.18572406e-01 -1.25721708e-01 -1.30450144e-01
  1.30415425e-01 -1.27345636e-01 -7.89533779e-02  3.82446088e-02
 -1.53904706e-01 -1.44081518e-01 -3.60708803e-01 -5.70826940e-02
  4.70643342e-01  7.20260739e-02 -2.09912181e-01  8.14342033e-03
  1.42117385e-02  8.96110982e-02  1.76746354e-01  1.75243318e-01
  1.48181210e-03  5.52099906e-02 -7.18816444e-02 -9.57696047e-03
  2.58627802e-01 -7.50508830e-02 -2.70221531e-02  1.60326883e-01
  7.16563687e-03  5.44011965e-02  3.86817381e-04  3.30762118e-02
 -6.76854774e-02 -8.94739013e-03 -1.32895276e-01 -4.70737070e-02
  5.17748967e-02  4.22243252e-02  1.86479259e-02  1.31331071e-01
 -1.69631049e-01  1.16442554e-01  2.59621441e-02  3.15497704e-02
  2.04600375e-02 -1.27718598e-02 -2.22745147e-02 -2.83587556e-02
  5.25798462e-02 -2.24137112e-01  1.15590289e-01  1.77588046e-01
 -4.30400781e-02  8.59106481e-02  6.90095127e-02  5.45753203e-02
 -4.01223190e-02  2.25269478e-02 -1.72088012e-01 -6.94638640e-02
  1.06891952e-01 -4.04887386e-02  9.82032642e-02 -2.73689777e-02]