[-0.11730815  0.05567063  0.08435138 -0.05464246 -0.13318133 -0.04434072
  0.01086937 -0.12780242  0.10550769 -0.09601872  0.21761154 -0.09801232
 -0.21324471 -0.06097504 -0.0449749   0.2242043  -0.13440634 -0.1239993
 -0.07220053 -0.00546623  0.09966861  0.01177643  0.00630203  0.00467984
 -0.12153476 -0.29411852 -0.05098962 -0.04975313  0.01549203 -0.00541605
 -0.05373836  0.05147549 -0.16911256 -0.07446759  0.08452164  0.07806792
 -0.00780437 -0.09858651  0.17219244  0.00175288 -0.29634386 -0.01494765
  0.11110821  0.23197412  0.16843276  0.02844847  0.01007783 -0.15166032
  0.1650842  -0.22147134 -0.03853187  0.07674606  0.04787805  0.00352179
  0.05097483 -0.13128649  0.0704195   0.09778624 -0.16181186 -0.05250124
  0.09068215 -0.05348971 -0.04320138 -0.10751168  0.19893301  0.04658989
 -0.11968222 -0.11989033  0.12923601 -0.10186392 -0.06084626  0.05521391
 -0.15219462 -0.1485908  -0.34319335 -0.05935738  0.46134168  0.08514511
 -0.18776059  0.02584165 -0.01344476  0.06349085  0.18787228  0.16695248
 -0.01074533  0.05735572 -0.07884225 -0.01361663  0.20789953 -0.11461669
 -0.00653858  0.19690558  0.03265832  0.06119584  0.00403574  0.03986102
 -0.08895254  0.01066101 -0.16101453 -0.04144685  0.06325855  0.01795446
  0.05851702  0.16447291 -0.19372477  0.07373071  0.00547827  0.02527701
  0.02642407 -0.04121242 -0.03241143 -0.04938174  0.04210822 -0.18442504
  0.09063851  0.1922975  -0.02304121  0.06169933  0.12325287  0.00990853
 -0.00365641  0.02614621 -0.19050263 -0.03571358  0.09994601 -0.0388402
  0.06578404 -0.03515271]