[-0.04905665  0.17351808  0.0885902  -0.1024279  -0.03760606 -0.03231758
 -0.09093866 -0.11543506  0.10900021 -0.09335505  0.28584108 -0.0121273
 -0.17605454 -0.11018439 -0.03538353  0.11587932 -0.18660094 -0.09651451
 -0.08867647 -0.06734267 -0.00061948  0.06980171  0.05898907  0.04950332
 -0.15966852 -0.29295427 -0.08697323 -0.12641443 -0.03382897 -0.11682277
 -0.0313368   0.0568627  -0.13747118 -0.00525832  0.0034845   0.05597146
 -0.04186937 -0.05025048  0.19236757  0.07823551 -0.13668482  0.02685794
  0.02345254  0.29136512  0.31236359 -0.01638597  0.01066949 -0.06270915
  0.15809645 -0.19490048  0.06540947  0.13195054  0.14461717  0.06209368
  0.10364369 -0.12754405 -0.00215658  0.10714111 -0.15887837 -0.07313649
 -0.00220654 -0.03481772  0.01684006 -0.03051234  0.21245019  0.12990664
 -0.11364726 -0.05257644  0.16391391 -0.09596875 -0.05373663  0.07980963
 -0.15524672 -0.13252373 -0.23686783  0.01639934  0.34920371  0.12466214
 -0.18210356 -0.00921166 -0.09370156 -0.05219432  0.03134784  0.02017175
 -0.13686319  0.00765911 -0.05593505  0.06025547  0.19094561 -0.00778375
 -0.06249727  0.20333731 -0.02134955  0.02104098  0.09043459 -0.04070027
 -0.06702655  0.00184008 -0.15030955 -0.00070714 -0.05180277 -0.09980773
 -0.04872028  0.0860187  -0.20042697  0.13152294  0.05203906 -0.04010412
 -0.07892021 -0.02812119 -0.09345339  0.02351679  0.17394477 -0.25089884
  0.16104278  0.11151872  0.03142523  0.15156676  0.07997177  0.01859119
 -0.06307814 -0.08456501 -0.10082769 -0.05312202  0.10394811 -0.00260047
  0.14226611  0.00412385]