[-1.20010547e-01  6.56071082e-02  7.72580653e-02 -5.49559370e-02
 -1.25891775e-01 -3.92908156e-02  6.06567319e-03 -1.33288950e-01
  1.22259699e-01 -9.08280909e-02  2.14557171e-01 -9.62178931e-02
 -2.15107277e-01 -6.30703494e-02 -3.24952193e-02  2.27954701e-01
 -1.39266536e-01 -1.22456565e-01 -7.03068525e-02 -1.91001259e-02
  9.60037485e-02  1.74193531e-02  1.03637693e-03  1.96206421e-02
 -1.37721583e-01 -3.09157938e-01 -6.47057891e-02 -6.41391873e-02
  1.96606424e-02 -1.83481108e-02 -5.06583229e-02  6.46871701e-02
 -1.54295325e-01 -7.52659738e-02  7.35518858e-02  7.69825354e-02
  3.46504530e-04 -9.79101062e-02  1.57950923e-01 -2.69814394e-03
 -2.92708397e-01 -1.51791878e-03  1.16291896e-01  2.43789390e-01
  1.70705408e-01  1.25410203e-02  2.56362110e-02 -1.48599401e-01
  1.52728140e-01 -2.05647632e-01 -6.19423985e-02  7.29323402e-02
  3.03365719e-02  7.02048978e-03  5.10149114e-02 -1.28007427e-01
  6.56694546e-02  1.02322690e-01 -1.72283158e-01 -2.80009750e-02
  9.67158079e-02 -7.42306784e-02 -3.91607843e-02 -8.83553699e-02
  1.87468365e-01  4.41825651e-02 -1.18311979e-01 -1.17374204e-01
  1.17517985e-01 -1.13280497e-01 -5.03320657e-02  5.34143262e-02
 -1.55491188e-01 -1.59171224e-01 -3.49903584e-01 -6.05058037e-02
  4.65192884e-01  8.15280452e-02 -1.85670838e-01  3.93996947e-02
 -1.16816135e-02  6.01127036e-02  2.02774510e-01  1.70104608e-01
 -4.03177319e-03  3.77003215e-02 -8.92404169e-02  3.12627037e-03
  2.18400866e-01 -1.02631383e-01  1.32958507e-02  2.03780085e-01
  3.16744447e-02  6.08738177e-02  1.27351133e-03  6.29078150e-02
 -1.01720922e-01  7.51946727e-03 -1.49309307e-01 -2.87987329e-02
  5.03225997e-02  8.74008145e-03  5.82801886e-02  1.47514060e-01
 -1.85973242e-01  7.93806538e-02  2.50023305e-02  2.78495084e-02
  1.96530279e-02 -3.09451204e-02 -2.98434235e-02 -4.80772816e-02
  6.03496246e-02 -1.84378058e-01  8.56169462e-02  2.05198199e-01
 -2.45256294e-02  6.84626698e-02  1.13509826e-01  1.37646738e-02
 -1.75744798e-02  1.59279928e-02 -1.84589550e-01 -1.89287271e-02
  8.97190869e-02 -4.69325259e-02  5.88331111e-02 -3.74784730e-02]