[-0.11731113  0.07913251  0.09807711 -0.05143508 -0.13502452 -0.05266235
 -0.00323331 -0.15203173  0.07193931 -0.07566561  0.23082553 -0.11064298
 -0.19758931 -0.05055472 -0.05431468  0.22289518 -0.13106231 -0.10779545
 -0.10836547 -0.01611071  0.07555041 -0.00317313  0.0171716   0.00541452
 -0.13403814 -0.28809988 -0.05790846 -0.06015106 -0.0013444  -0.01863783
 -0.05406726  0.02771275 -0.16621169 -0.06932931  0.07737494  0.07242974
 -0.01308614 -0.09764294  0.16246146 -0.01980858 -0.29236737  0.02111549
  0.12580131  0.24168594  0.21249865  0.03165608  0.02160963 -0.13590981
  0.17344616 -0.21590476 -0.03478999  0.05806224  0.04649508 -0.00757569
  0.04302203 -0.12075479  0.04115994  0.12927073 -0.15099876 -0.04536248
  0.09943532 -0.06180822 -0.06225476 -0.11529829  0.20369649  0.06825435
 -0.13680317 -0.12151875  0.12856334 -0.10526203 -0.04039227  0.05332892
 -0.16669463 -0.15061454 -0.34298012 -0.04755702  0.47914925  0.07454269
 -0.18679558  0.00890904 -0.03815778  0.08502614  0.16229415  0.14361449
 -0.00287527  0.03957485 -0.08768544 -0.01209654  0.22667979 -0.12827139
 -0.00075341  0.1978303   0.01940694  0.02892089 -0.01700486  0.03655418
 -0.11036315  0.00439869 -0.15570517 -0.04446555  0.04741567  0.01290486
  0.05663303  0.15283948 -0.2016332   0.08155143  0.00450365  0.0436515
  0.03066909 -0.04365058 -0.02624282 -0.05369055  0.06980605 -0.18921654
  0.08533406  0.20039344 -0.01487447  0.05232239  0.12460021  0.00960981
 -0.00167974  0.05339871 -0.18981823 -0.03043878  0.09356587 -0.04116347
  0.07286613 -0.02800126]