[-0.03840252  0.19068874  0.08187354 -0.0328544  -0.01177971  0.00303685
 -0.03280014 -0.11445063  0.15057434 -0.06643384  0.30859336  0.0489515
 -0.16617535 -0.17417401 -0.01841415  0.1259321  -0.18126895 -0.09307235
 -0.07833746 -0.02920875  0.01605277  0.03901628  0.04634272  0.00524383
 -0.14354356 -0.32041749 -0.06896528 -0.13174053  0.02639363 -0.13212292
 -0.08853132  0.08200768 -0.15100662 -0.07293397  0.01634263  0.02881286
 -0.03654191  0.01659463  0.19093218  0.05776235 -0.14856212  0.05445839
  0.04020977  0.29871821  0.29393387  0.03268882  0.00808774 -0.08638608
  0.1483316  -0.1585853   0.06774143  0.11898478  0.12920044  0.09056144
  0.08125787 -0.15948889 -0.04994672  0.04726966 -0.15232971 -0.01559309
  0.00209001 -0.06260005 -0.0284727  -0.04840699  0.18538499  0.08164714
 -0.09626182 -0.11608001  0.14327334 -0.11950109 -0.06000106  0.08730664
 -0.14458044 -0.12624896 -0.26357231  0.01667575  0.33524102  0.13603319
 -0.19752409 -0.00640457 -0.09045869 -0.0832528   0.0487899   0.05965231
 -0.07438727  0.03277706 -0.04097686  0.01670385  0.18787606  0.00859308
 -0.0596916   0.20731652 -0.03982932  0.05386622  0.04551364 -0.03251297
 -0.0775919   0.01510482 -0.17830823 -0.06333826 -0.0467429  -0.08713366
 -0.02520647  0.10718232 -0.19943486  0.15043035  0.04597744  0.03705151
 -0.02543463 -0.01195499 -0.08941662  0.01475933  0.16024981 -0.24368063
  0.23146699  0.14433973  0.05157593  0.10177252  0.0928499   0.01771713
 -0.04847134 -0.05570223 -0.14733176 -0.0488622   0.09375509 -0.05298904
  0.13484098 -0.01029139]