[-1.43242225e-01  3.77825461e-02  5.69742322e-02 -3.81358936e-02
 -1.31070003e-01 -7.59177431e-02 -4.00222018e-02 -1.91164479e-01
  8.18043724e-02 -1.06010452e-01  2.04196841e-01 -1.18323483e-01
 -1.82604387e-01 -5.62621728e-02 -5.45762591e-02  2.26084232e-01
 -1.67930022e-01 -1.29619241e-01 -6.25220984e-02 -3.78805399e-02
  4.41023968e-02 -5.69679216e-03  1.65488962e-02  1.43949930e-02
 -1.60499454e-01 -3.19227159e-01 -8.54562297e-02 -7.54076689e-02
 -3.81306782e-02  1.00751119e-02 -6.58374280e-02  7.19375908e-02
 -1.65028259e-01 -5.03823273e-02  9.43048075e-02  7.15463683e-02
  3.44396345e-02 -9.47551355e-02  1.59493029e-01  1.88335485e-03
 -2.79364318e-01  1.33596826e-02  1.43269718e-01  2.18866974e-01
  1.90598622e-01  1.51122836e-02  2.22246908e-02 -1.52888969e-01
  1.73486546e-01 -1.72590271e-01 -1.50332479e-02  5.16962707e-02
  4.81059924e-02  9.14635416e-03  3.46631184e-02 -1.20122030e-01
  3.81937474e-02  1.19260065e-01 -1.39387950e-01 -4.47785966e-02
  1.04644753e-01 -6.48830906e-02 -6.33794144e-02 -1.07422344e-01
  2.19211414e-01  1.16686776e-01 -1.21842004e-01 -1.27460882e-01
  1.26842678e-01 -9.99880135e-02 -6.39427528e-02  4.44907509e-02
 -1.59814775e-01 -1.61233172e-01 -3.32462102e-01 -4.37997095e-02
  4.54835147e-01  8.00728872e-02 -1.94621623e-01  4.66103246e-03
 -1.46937072e-02  5.82136214e-02  1.87536150e-01  1.69112876e-01
  4.65105800e-03  2.56397072e-02 -4.77209128e-02 -1.62361264e-02
  2.52164245e-01 -7.48808309e-02 -3.41076031e-02  1.75713629e-01
  1.23142076e-04  4.68226783e-02  5.88096818e-03  4.59490716e-02
 -9.40467864e-02 -5.47818854e-05 -1.32765576e-01 -4.23796773e-02
  4.48746309e-02  2.46685483e-02  3.39136980e-02  1.39056861e-01
 -1.86678305e-01  8.30493495e-02  3.07688583e-03  1.85831022e-02
  1.60368644e-02 -3.39107588e-02  5.58697805e-03 -2.20194776e-02
  4.70160358e-02 -2.13424131e-01  1.22137561e-01  1.68637618e-01
 -7.56463036e-03  1.07234418e-01  7.26486668e-02  1.78486314e-02
 -2.40654889e-02  3.41795571e-02 -1.76816151e-01 -4.38202657e-02
  1.10150158e-01 -3.28269675e-02  9.64580774e-02 -2.90304627e-02]