[-1.49511442e-01  4.23931293e-02  8.32208022e-02 -1.96925248e-03
 -7.33339638e-02 -4.08437699e-02  4.37255837e-02 -1.33147746e-01
  1.54265448e-01 -1.16590790e-01  2.54610717e-01 -8.61385018e-02
 -2.28103518e-01 -1.09459914e-01 -1.60944629e-02  2.46864274e-01
 -1.41400173e-01 -1.34847581e-01 -7.26455152e-02 -6.27908632e-02
  1.43909231e-02  1.45615516e-02  3.97340907e-03  6.20739460e-02
 -1.26830608e-01 -3.58966082e-01 -8.22918639e-02 -9.11941752e-02
 -6.42379448e-02  1.40463738e-02 -4.73708622e-02  1.24959111e-01
 -1.54506430e-01 -6.71548173e-02  5.75446486e-02  5.49973845e-02
  2.73877173e-03 -2.84440275e-02  1.41225457e-01 -5.44403540e-03
 -2.24382073e-01 -3.92603613e-02  1.19993649e-01  2.42815539e-01
  1.52046800e-01  1.20937740e-02  2.46314239e-02 -1.05225287e-01
  7.12448582e-02 -1.60046846e-01 -3.22217941e-02  7.74513409e-02
  7.23501220e-02  2.07414757e-02  4.50697951e-02 -1.33471727e-01
 -3.64447013e-04  5.57426289e-02 -9.24511030e-02 -3.27012688e-02
  2.55321860e-02 -8.71125534e-02 -8.02001581e-02 -5.88208921e-02
  2.15931818e-01  6.33183867e-02 -1.08925775e-01 -1.00895934e-01
  1.49471030e-01 -1.31974638e-01 -4.95625250e-02  4.09368426e-02
 -1.59100175e-01 -1.61091521e-01 -3.28971893e-01 -4.87277471e-02
  4.56941217e-01  3.21739465e-02 -2.25345179e-01  3.39692719e-02
 -4.45644781e-02  3.07093691e-02  1.61511019e-01  1.73286602e-01
 -3.71409999e-03  2.19327435e-02 -7.41167292e-02 -2.61359941e-02
  2.03254491e-01 -5.20286746e-02 -2.84028258e-02  1.86646327e-01
  1.40398117e-02  2.47461032e-02  5.68773150e-02  5.34504000e-03
 -1.59464777e-02 -2.34902762e-02 -1.40500173e-01 -4.21643034e-02
  3.20423138e-03 -2.62444969e-02 -2.73575969e-02  5.82684651e-02
 -1.99933827e-01  8.90793800e-02  6.89181015e-02  3.06190085e-02
  3.37248109e-02  3.70316021e-02 -6.70061707e-02 -6.54912516e-02
  9.95904207e-02 -2.11528212e-01  9.44285616e-02  1.77554488e-01
 -4.60672006e-02  1.40059665e-01  5.40726595e-02  8.50109234e-02
 -5.78787625e-02  1.39942771e-04 -1.43810719e-01 -3.39434966e-02
  1.05842330e-01 -5.46792112e-02  6.83039203e-02 -2.25096177e-02]