[-0.03648559  0.17286466  0.08038004 -0.0761323  -0.02663124 -0.07032801
 -0.10853826 -0.10559664  0.10351398  0.00320165  0.32690603  0.04425973
 -0.16935353 -0.21957114  0.01881831  0.11173005 -0.21444583 -0.09794279
 -0.04865417 -0.03184712  0.04235175  0.03416089  0.0511322   0.00037179
 -0.15095684 -0.35833111 -0.11355574 -0.13647346  0.00878628 -0.10384011
 -0.0752919   0.04191688 -0.18839109 -0.10171672  0.03978569  0.0459949
 -0.02723261 -0.00970304  0.15755388  0.03907074 -0.145495    0.07382569
  0.04691279  0.26314113  0.24783726  0.03729046  0.02406605 -0.06783026
  0.11849824 -0.1476073   0.11660285  0.13888514  0.16917448  0.06549164
  0.09042948 -0.15396315 -0.01608048  0.08707745 -0.19001107 -0.03274158
 -0.01027921 -0.0734302  -0.03511859 -0.04486332  0.19082975  0.12709068
 -0.08395635 -0.10716122  0.11890133 -0.06537291 -0.05004475  0.07066537
 -0.1543237  -0.13215011 -0.30012032  0.03592498  0.31329834  0.07364815
 -0.25941294  0.00262406 -0.09240931 -0.04981735  0.05648563  0.01159138
 -0.09288962  0.05749528 -0.10132658  0.04195372  0.16846214 -0.04285828
 -0.02353909  0.21465765 -0.02441307  0.10446834  0.09227961 -0.01473107
 -0.05077577 -0.00404836 -0.15739697 -0.01983337  0.01652688 -0.09162567
 -0.0586196   0.08406274 -0.177166    0.06840084  0.09662347 -0.0134059
 -0.05044164 -0.03164194 -0.06689399 -0.0680095   0.13914394 -0.25676256
  0.25741318  0.16147323  0.01263938  0.13851172  0.06446596  0.00464041
 -0.08474886 -0.11903107 -0.11668916 -0.02121514  0.10136721 -0.00396524
  0.0985349  -0.00124675]