[-0.10257722  0.05298272  0.04981106 -0.03769951 -0.08632762 -0.04817069
  0.04363908 -0.14306882  0.16110773 -0.12394708  0.23657046 -0.08133075
 -0.22522195 -0.09014831 -0.02537868  0.23748405 -0.15841308 -0.09373929
 -0.07220653 -0.03049412  0.02775493  0.01235804  0.00821513  0.06528149
 -0.12684478 -0.35406643 -0.1078636  -0.06480912 -0.06844057 -0.02254057
 -0.04294657  0.10971915 -0.11525995 -0.04863834  0.05577548  0.06806812
 -0.02826259 -0.06680842  0.14572552  0.01464023 -0.26010484  0.00572012
  0.12477329  0.24824052  0.18571512  0.00251187  0.01905525 -0.13779013
  0.15379362 -0.16984434 -0.02131836  0.0529071   0.05535147  0.02792428
  0.06887294 -0.08085657 -0.00382202  0.13462995 -0.12956439 -0.03852234
  0.04696985 -0.08828556 -0.0603703  -0.08055883  0.17942961  0.11289084
 -0.1103524  -0.11244001  0.15745451 -0.16721    -0.09218459  0.04118419
 -0.13323991 -0.17405713 -0.31048664 -0.04631202  0.42870232  0.08952365
 -0.18359326  0.01323295 -0.01113051  0.02256051  0.18868549  0.18874867
  0.00157382  0.00723507 -0.05614373 -0.01899312  0.23915215 -0.05483278
 -0.01849396  0.22244628  0.01497736  0.05552477  0.0272975  -0.00901536
 -0.05259065  0.01329904 -0.1592346  -0.04919444  0.0232221  -0.01777828
  0.00395432  0.08178934 -0.1980086   0.12062112  0.05651105  0.04080467
  0.06421579  0.01195016 -0.04384821 -0.0292866   0.09333252 -0.21908203
  0.11910144  0.1532077  -0.02274497  0.10240702  0.05727247  0.0553904
 -0.0314327  -0.0439601  -0.17443733 -0.01137694  0.12755132 -0.04620667
  0.08125801 -0.05001938]