[-0.03133113  0.1561497   0.08225849 -0.0355939  -0.07790785 -0.00121273
 -0.04708    -0.09892423  0.10163758 -0.1032867   0.27130467  0.02276639
 -0.21887301 -0.15587617  0.00690382  0.10268798 -0.17884238 -0.08597314
 -0.08410571 -0.05146108  0.02646318  0.00495704  0.06918848 -0.00910054
 -0.14808778 -0.32466555 -0.08952207 -0.12854268  0.00760263 -0.08666876
 -0.09394931  0.10147206 -0.11897843 -0.09316022  0.02995083  0.02677184
 -0.00892846  0.01972284  0.14074208  0.00696282 -0.1564413   0.09282642
  0.05613182  0.27909407  0.27907392  0.03018985  0.02229478 -0.06040196
  0.16652289 -0.18018155  0.0449152   0.1448472   0.14924121  0.06968002
  0.11918136 -0.12968025 -0.00084533  0.08020999 -0.11945921 -0.03160816
  0.03189383 -0.04526755 -0.00314326 -0.05324987  0.15328383  0.05823414
 -0.09510408 -0.09146668  0.11375631 -0.10117526 -0.05339014  0.06233185
 -0.20416665 -0.12725653 -0.25561684  0.02815194  0.32241514  0.17560269
 -0.16368929  0.02179269 -0.09190488 -0.00196608  0.03590838  0.0302336
 -0.10210875  0.02804361 -0.04615462  0.04729265  0.14096995 -0.0394545
 -0.03522074  0.21202031  0.00260455  0.05621803  0.07389554 -0.03719588
 -0.07807123 -0.02704773 -0.20328155 -0.02057202 -0.02830446 -0.13516752
 -0.01534303  0.07269111 -0.21333349  0.09696358  0.00627442  0.03481251
 -0.04509522 -0.00790138 -0.07633048  0.03269078  0.12868227 -0.25211003
  0.19216418  0.19245122  0.03578546  0.10098646  0.10536001 -0.01323825
 -0.05432798 -0.0602457  -0.0933071  -0.08804033  0.10991385 -0.02830484
  0.08539378 -0.02553816]