[-4.31138389e-02  1.91538736e-01  1.09828748e-01 -7.72996247e-02
 -3.58417816e-02 -2.21524313e-02 -9.59685221e-02 -1.07242942e-01
  9.40173119e-02 -7.01399669e-02  3.13657135e-01 -1.60161965e-03
 -1.68618798e-01 -1.08269565e-01 -3.89359891e-02  1.16442859e-01
 -1.84016496e-01 -5.94748929e-02 -1.11970536e-01 -3.91784944e-02
  3.79784331e-02  4.82454859e-02  7.70014748e-02  8.81039258e-03
 -1.54298335e-01 -2.99758524e-01 -9.92455408e-02 -1.25472918e-01
 -3.09064999e-05 -1.36767596e-01 -5.26690148e-02  1.68590253e-04
 -1.30342945e-01 -2.71352567e-02  7.14587455e-04  1.52488155e-02
 -4.32895310e-02 -4.73422408e-02  1.77666649e-01  5.75866364e-02
 -1.52011186e-01  8.68502185e-02  3.83583717e-02  2.65184611e-01
  3.16778839e-01  2.61898618e-02  2.54713725e-02 -1.04086064e-01
  1.47156119e-01 -1.75937966e-01  9.29713771e-02  1.15979210e-01
  1.52431756e-01  6.85992986e-02  1.16783857e-01 -1.34411007e-01
 -2.23969072e-02  1.09505929e-01 -1.41290948e-01 -4.50477749e-02
  1.34834321e-02 -4.40777233e-03  1.71115827e-02 -3.46087702e-02
  1.86685085e-01  1.33523688e-01 -1.19264320e-01 -7.33295977e-02
  1.34289965e-01 -8.30565616e-02 -5.17166853e-02  6.76054209e-02
 -1.56981811e-01 -1.31869122e-01 -2.48391390e-01  1.83320288e-02
  3.50136667e-01  1.13377772e-01 -2.09082246e-01 -2.50269417e-02
 -1.05563894e-01 -4.69382592e-02  2.69136112e-02  2.94167604e-02
 -1.33135065e-01 -2.15604319e-03 -5.41478358e-02  4.42300141e-02
  1.82671428e-01 -3.70113440e-02 -4.28171270e-02  2.08503351e-01
 -1.87925752e-02  2.02139877e-02  6.39788061e-02 -2.35455614e-02
 -1.10137299e-01  2.68754968e-03 -1.48635685e-01 -3.35974209e-02
 -4.56110872e-02 -8.84160101e-02 -4.48116958e-02  8.87059793e-02
 -2.08982021e-01  1.31833509e-01  4.50557582e-02 -2.99241152e-02
 -5.51969670e-02 -2.50393879e-02 -7.68320188e-02  2.51454469e-02
  1.60569310e-01 -2.36083493e-01  1.89905703e-01  1.35818601e-01
  4.34010550e-02  1.23945706e-01  1.11037277e-01  2.34422069e-02
 -4.57531363e-02 -4.21711318e-02 -1.04828499e-01 -4.21271585e-02
  8.60450938e-02 -8.81995447e-03  1.30740747e-01 -1.61044521e-03]