[-3.35994475e-02  1.63665101e-01  8.71631280e-02 -4.38103192e-02
 -2.27018651e-02 -3.36534604e-02 -7.16186464e-02 -8.29077885e-02
  1.34581700e-01 -1.25064060e-01  2.84859896e-01  5.24478741e-02
 -1.59717947e-01 -1.73830703e-01 -1.32115008e-02  1.13050774e-01
 -2.07067162e-01 -8.35584104e-02 -5.36886342e-02 -4.15982865e-02
  2.51281951e-02  1.21490508e-02  5.90037778e-02 -8.22010078e-03
 -1.33241519e-01 -3.14722031e-01 -8.99496824e-02 -1.37885675e-01
  5.00170551e-02 -8.55613649e-02 -7.65647739e-02  5.42088337e-02
 -1.37052640e-01 -7.80855790e-02  1.07827233e-02  3.19475718e-02
 -7.14853127e-03  4.15613614e-02  1.66852728e-01  6.44379407e-02
 -1.34140238e-01  8.84463117e-02  9.36126243e-03  2.94997305e-01
  2.86094278e-01  4.75147367e-02  1.87029056e-02 -6.96119815e-02
  1.63895473e-01 -1.93990603e-01  6.14358485e-02  1.14086054e-01
  1.43806860e-01  8.15197900e-02  1.29072562e-01 -1.57477751e-01
 -6.31361036e-03  3.26536335e-02 -1.42286718e-01 -5.25547843e-03
  1.06296630e-03 -2.53050774e-02  1.37492018e-02 -2.36512423e-02
  1.83287308e-01  5.68130128e-02 -9.78706256e-02 -9.21981260e-02
  1.39246583e-01 -1.15596510e-01 -2.70633288e-02  8.50055441e-02
 -1.36655539e-01 -1.15350068e-01 -2.42876247e-01  3.70079502e-02
  3.55055481e-01  1.91828445e-01 -1.60161003e-01  2.54390836e-02
 -9.68707502e-02 -7.64801279e-02  3.59524190e-02  4.68639545e-02
 -9.58773717e-02  5.44344559e-02 -3.36520448e-02  3.89131755e-02
  1.27420008e-01 -1.15298005e-02 -4.16349843e-02  2.17192635e-01
 -2.71827225e-02  9.96149778e-02  5.50727248e-02 -5.77898212e-02
 -9.71069261e-02  4.82969312e-03 -1.71888858e-01 -4.51656692e-02
 -3.50967906e-02 -1.14516236e-01  2.85497314e-04  6.77834675e-02
 -1.85656428e-01  1.27418682e-01  8.42805114e-03  2.06052493e-02
 -5.77060841e-02  4.42199223e-02 -8.58018920e-02  3.36301401e-02
  1.31383911e-01 -2.47130707e-01  2.27078825e-01  1.76370516e-01
  4.73501831e-02  1.16814636e-01  1.14374794e-01 -5.50543470e-03
 -4.39853333e-02 -5.95505014e-02 -8.92585218e-02 -6.99308887e-02
  4.85155843e-02 -4.51047197e-02  1.25456691e-01 -6.60814578e-03]