[-0.14208062  0.02787668  0.07649443 -0.03005238 -0.0720242  -0.10080965
  0.01204059 -0.17020349  0.10861492 -0.08134417  0.25624481 -0.08443866
 -0.22363344 -0.120842   -0.01315031  0.2378767  -0.14776783 -0.11406559
 -0.07654357 -0.01769183  0.00976398  0.00760725  0.05809509  0.04767179
 -0.07428053 -0.36294624 -0.10365655 -0.07893422 -0.05206969  0.0214851
 -0.06497805  0.07402617 -0.16415648 -0.09753271  0.08784855  0.0600885
 -0.01825125 -0.06928685  0.17970628 -0.00232867 -0.24161629 -0.04275839
  0.12780686  0.21131611  0.200398    0.0059207   0.03315965 -0.15525256
  0.10760601 -0.15282129 -0.00957835  0.07217897  0.05971966  0.0192199
  0.02763586 -0.09376059  0.0129784   0.0879051  -0.12003227 -0.05902221
  0.06915819 -0.08852539 -0.09274103 -0.08041095  0.21074767  0.08531559
 -0.10575777 -0.13957916  0.14391516 -0.13171896 -0.07240203  0.03300413
 -0.16849031 -0.15089782 -0.33177906 -0.0555593   0.40888396  0.01501928
 -0.20199274  0.03080671 -0.05982616  0.02277082  0.14655037  0.15439045
  0.01221116  0.03079589 -0.06603247 -0.03875173  0.21845038 -0.08999536
 -0.01841715  0.17390537 -0.00478868  0.04816968  0.07730604  0.02788595
 -0.02916569 -0.00277317 -0.1715198  -0.04124964  0.0282734  -0.0234051
  0.01560585  0.0697904  -0.18882009  0.07081883  0.04799435  0.01924069
  0.05956239 -0.03174908 -0.05535781 -0.08866087  0.08631969 -0.18431166
  0.14782998  0.16587479 -0.01872719  0.11269041  0.0613497   0.08530354
 -0.06237042  0.01422808 -0.14389561 -0.01531767  0.11109626  0.00282911
  0.08578338 -0.03217377]