[-0.12842579  0.08403214  0.02814692 -0.03353779 -0.08505651 -0.03728117
  0.00823408 -0.14460798  0.14518355 -0.13362592  0.26097474 -0.09330418
 -0.21122031 -0.07441258 -0.02291275  0.25304624 -0.14399385 -0.14078715
 -0.07922675 -0.05828024 -0.00864471  0.00555883  0.02422374  0.0944953
 -0.14472133 -0.35080335 -0.08796836 -0.08746668 -0.07251895 -0.03765387
 -0.04954595  0.10754943 -0.16205575 -0.0477021   0.06410848  0.06200222
 -0.01760442 -0.0370945   0.18772054  0.03569099 -0.22707827 -0.02389604
  0.12359419  0.28503016  0.15644413 -0.02328653  0.01285629 -0.09900075
  0.10141019 -0.17827561 -0.0205206   0.07576387  0.07228289  0.02828426
  0.05313253 -0.09884891  0.0185397   0.07657084 -0.1280476  -0.0319734
  0.04363386 -0.06997789 -0.07801804 -0.09513582  0.24309202  0.11594539
 -0.10688609 -0.13259763  0.13360584 -0.13372472 -0.06602812  0.04957935
 -0.14553933 -0.17009284 -0.32248855 -0.04427625  0.4130438   0.06302112
 -0.19706056  0.03954516 -0.01657099 -0.02549335  0.12126155  0.14778925
 -0.02521562  0.03731776 -0.04469176  0.01061082  0.23677599 -0.04791572
 -0.03382358  0.18444356 -0.0220206   0.02618076  0.06019869  0.00673171
 -0.06362738 -0.01866972 -0.15195437 -0.02071521 -0.02122703 -0.05706856
 -0.02865497  0.06992332 -0.21691863  0.10994082  0.03512267 -0.00395964
 -0.00160518  0.05671937 -0.09978616 -0.05082688  0.11465319 -0.22296722
  0.13467018  0.16292968 -0.01502152  0.10450064  0.06829234  0.0539952
 -0.05273845  0.02764869 -0.15015735 -0.0426932   0.11471137 -0.07509116
  0.08434697 -0.02945157]