[-0.14528978  0.03171376  0.06084407 -0.00296683 -0.05649859 -0.06917401
  0.03548044 -0.14868669  0.13190095 -0.09775888  0.25294173 -0.08546644
 -0.23525546 -0.12599306 -0.01814948  0.23589659 -0.15145834 -0.12771414
 -0.07268663 -0.05626303  0.02208532  0.01125654  0.01096326  0.04866596
 -0.13814186 -0.35201499 -0.09725114 -0.06161639 -0.07372925  0.00120931
 -0.03803847  0.13261116 -0.15190852 -0.06295123  0.08447868  0.06559315
  0.00393222 -0.0248064   0.1553468  -0.00417065 -0.23530054 -0.01770623
  0.1416337   0.25265941  0.17042321  0.026231    0.02216408 -0.12128823
  0.10694756 -0.14179665 -0.0321875   0.09166966  0.06766482  0.01535593
  0.04646149 -0.12164321 -0.0008135   0.05812152 -0.09563308 -0.05645895
  0.03730781 -0.10619061 -0.0788252  -0.06323729  0.18062894  0.04400221
 -0.10668589 -0.13448134  0.14787202 -0.14385612 -0.05872866  0.06105582
 -0.164258   -0.16563128 -0.34907246 -0.04343669  0.44726816  0.02857976
 -0.20001391  0.05578216 -0.01997299  0.02522205  0.1632995   0.17865072
 -0.0009988   0.03141236 -0.08791257 -0.02286122  0.21740873 -0.05926572
 -0.04010996  0.16015966  0.01501781  0.03553074  0.06016154  0.01203945
 -0.03839412 -0.01329329 -0.14586662 -0.04781405  0.01917285 -0.01254687
 -0.00773874  0.07460172 -0.17480579  0.10111226  0.05822861  0.0280333
  0.01966799  0.02862577 -0.05253133 -0.06499332  0.06403201 -0.22678407
  0.10472119  0.16766122 -0.04151645  0.12314339  0.05033448  0.08697394
 -0.06384814  0.02635468 -0.13647921 -0.04948701  0.09644738 -0.02374542
  0.09555852 -0.04138535]