[-7.73104429e-02  1.98720843e-01  7.99312368e-02 -7.59787438e-03
  1.82605144e-02 -1.65635888e-02 -2.54006237e-02 -9.78552699e-02
  1.50694802e-01 -3.76681983e-02  2.92781472e-01  4.22345735e-02
 -1.91075310e-01 -1.50084168e-01 -3.05725243e-02  1.22592114e-01
 -1.69299513e-01 -6.78745434e-02 -1.21554971e-01 -1.66408010e-02
 -4.77688713e-03  2.68849824e-02  8.73442814e-02  1.31245079e-02
 -1.29158959e-01 -3.13055962e-01 -4.37355042e-02 -1.08698726e-01
  2.15438996e-02 -9.54046473e-02 -8.94037336e-02  4.97782826e-02
 -1.70957386e-01 -9.67008844e-02  3.80990170e-02  1.44429626e-02
 -3.79944071e-02 -4.39988589e-03  2.26511240e-01  4.26867753e-02
 -1.51888743e-01  5.51145487e-02  3.35264951e-02  2.81195074e-01
  2.87125677e-01  3.21389511e-02 -1.93842876e-04 -1.10029869e-01
  1.60506830e-01 -1.71782538e-01  7.45206848e-02  1.29872248e-01
  9.62335244e-02  8.56551751e-02  1.04333237e-01 -1.72739759e-01
 -2.70702522e-02  5.43724559e-02 -1.19852416e-01 -2.89238095e-02
 -9.91123915e-03 -7.80402273e-02  5.35113388e-04 -5.18855117e-02
  1.39382854e-01  6.30610511e-02 -7.80284032e-02 -1.16454817e-01
  1.20865121e-01 -8.61801133e-02  2.58843601e-03  1.03914931e-01
 -1.30239740e-01 -1.47350058e-01 -2.79226869e-01  4.81785536e-02
  3.50659937e-01  1.64477110e-01 -1.62627324e-01  1.19952848e-02
 -9.15073603e-02 -7.70720392e-02  5.44831641e-02  6.64992258e-02
 -8.49492699e-02  5.26640005e-03 -3.84997018e-02  2.92566661e-02
  1.58989847e-01  1.32155642e-02 -9.16172862e-02  1.80574119e-01
 -5.28088212e-02  4.10664640e-02  4.22227420e-02 -2.87274309e-02
 -1.09614663e-01  2.81478222e-02 -1.59192249e-01 -3.16922478e-02
 -1.04522901e-02 -7.54747316e-02  1.54986177e-02  8.54327902e-02
 -1.81081548e-01  7.62417242e-02  3.30935381e-02  2.55459100e-02
 -4.01711697e-03  5.85821271e-03 -8.78001004e-02  1.13523901e-02
  1.12041257e-01 -2.52095550e-01  2.70498186e-01  1.26260474e-01
  2.65843626e-02  1.19248204e-01  1.05550133e-01  2.79027354e-02
 -2.70455610e-02  5.08283090e-04 -8.46366286e-02 -6.57799169e-02
  9.37505290e-02  1.33975437e-02  1.71953544e-01 -1.33523969e-02]