[-1.45144343e-01  3.34597863e-02  9.21310037e-02 -6.49276096e-03
 -7.88295195e-02 -8.15012902e-02  2.05645654e-02 -1.44656211e-01
  1.19916655e-01 -8.14676434e-02  2.55573869e-01 -9.04271826e-02
 -2.29980156e-01 -9.61988792e-02 -1.21643590e-02  2.56607682e-01
 -1.33855686e-01 -1.10666573e-01 -7.01601952e-02 -7.69106811e-03
  2.06405036e-02  1.35544045e-02  4.81972694e-02  7.07600638e-02
 -8.72274265e-02 -3.55979741e-01 -9.53366384e-02 -7.86027908e-02
 -6.11268096e-02  4.94573287e-05 -6.94174767e-02  7.41578490e-02
 -1.60089642e-01 -8.74417573e-02  7.31221437e-02  4.34172116e-02
 -1.72809921e-02 -7.14297816e-02  1.76717088e-01 -1.86923984e-03
 -2.55730599e-01 -4.21664454e-02  1.21855609e-01  2.19236001e-01
  1.60720170e-01  9.48047917e-03  3.77784707e-02 -1.51690781e-01
  7.72945210e-02 -1.51025668e-01 -1.31219206e-02  6.37278631e-02
  5.71224950e-02  2.49681473e-02  4.14694054e-03 -1.26643449e-01
 -2.45880346e-05  7.52575919e-02 -1.01918809e-01 -4.17799689e-02
  6.84800297e-02 -7.20655173e-02 -8.33014175e-02 -9.00181159e-02
  2.32337147e-01  7.80832544e-02 -1.18930511e-01 -1.41537845e-01
  1.38620779e-01 -1.27240345e-01 -6.92578852e-02  3.79301310e-02
 -1.65891871e-01 -1.56385511e-01 -3.33566338e-01 -5.57419136e-02
  3.96803230e-01  2.01617178e-04 -2.21874863e-01  1.84490122e-02
 -7.09362924e-02  3.26921567e-02  1.25145927e-01  1.77421421e-01
  2.18322501e-02  4.05237973e-02 -5.80471829e-02 -4.63560373e-02
  2.23501429e-01 -8.67886692e-02 -7.97874667e-03  1.88519582e-01
  1.61452685e-02  4.04323041e-02  5.93686365e-02  2.00439952e-02
 -2.23376341e-02 -1.36667490e-03 -1.59765705e-01 -2.03919485e-02
  4.48114617e-04 -1.88931320e-02  2.46058567e-03  7.60320127e-02
 -2.07052857e-01  9.18052495e-02  6.30747825e-02  1.90328695e-02
  6.07780777e-02  9.90508497e-03 -8.40403885e-02 -9.90566760e-02
  9.82512459e-02 -1.94944173e-01  1.39798209e-01  1.76130503e-01
  1.01358620e-02  1.06454492e-01  6.48459345e-02  1.02990948e-01
 -5.62058985e-02  2.86879390e-02 -1.62629768e-01  1.64852967e-03
  1.26806140e-01 -4.03309129e-02  6.33285716e-02 -1.56865977e-02]