[-0.04504352  0.196823    0.09179097 -0.05797144 -0.01840502 -0.01666461
 -0.02532951 -0.08627682  0.14325611 -0.06284434  0.29683349  0.05271989
 -0.20488702 -0.15959211 -0.02065457  0.10769778 -0.16361232 -0.0661227
 -0.10234201 -0.05055771  0.00706953  0.0355265   0.06210851  0.02057851
 -0.12011141 -0.29837266 -0.06518372 -0.13810229  0.01573568 -0.13572161
 -0.08593848  0.06189582 -0.15980299 -0.08694636 -0.00594402 -0.00089011
 -0.05252897  0.00595096  0.19602513  0.06231768 -0.11735731  0.01721899
  0.02792304  0.28570163  0.30140081  0.01491496  0.00663075 -0.0575821
  0.15122256 -0.18795037  0.06276978  0.11682862  0.15930663  0.09587996
  0.09166117 -0.16162369 -0.03562377  0.04865013 -0.16371404 -0.01832778
 -0.01519148 -0.07861768 -0.0542337  -0.0534592   0.19334672  0.09577964
 -0.09462614 -0.1036823   0.17353985 -0.12038992 -0.03289232  0.0925771
 -0.13474084 -0.11131501 -0.2323232   0.02572883  0.305215    0.16388634
 -0.18890035 -0.0203673  -0.14066817 -0.0775204  -0.0033484   0.01664518
 -0.09919765  0.0366391  -0.0332882   0.02466566  0.1510376  -0.00823917
 -0.05826892  0.21479435 -0.02078773  0.04489442  0.0615618  -0.06021298
 -0.08684038 -0.00835991 -0.17448993 -0.03854422 -0.04967495 -0.13746469
 -0.02283305  0.07824642 -0.20347071  0.14010236  0.04290281  0.01340143
 -0.04250013 -0.01655936 -0.10232439  0.00846266  0.16646443 -0.24161935
  0.23460208  0.13794769  0.04175823  0.1135775   0.07514152  0.0262021
 -0.05271834 -0.06805582 -0.10362538 -0.06829486  0.1012931  -0.04559695
  0.12729339 -0.00848217]