[-0.12827167  0.02872187  0.07126718 -0.03291605 -0.11917176 -0.06982274
 -0.0418391  -0.1877849   0.07978062 -0.10842504  0.19099362 -0.08545624
 -0.1774607  -0.08400713 -0.04609982  0.23221417 -0.13909662 -0.15549882
 -0.08328831 -0.05132799  0.03926494  0.01503683  0.01568413  0.00721775
 -0.16796736 -0.2827234  -0.10176796 -0.03730974 -0.04127164 -0.01141923
 -0.07885464  0.06191785 -0.17433789 -0.02619287  0.10255933  0.10115071
  0.02733094 -0.08789659  0.13636626  0.00491667 -0.27427465  0.00549797
  0.13016151  0.21269666  0.20216504  0.03715814 -0.00470704 -0.13432245
  0.18268774 -0.17656913 -0.00306295  0.07109222  0.03754967  0.0047666
  0.04612959 -0.10194033  0.03412389  0.13394918 -0.12421836 -0.0681415
  0.06617638 -0.09001014 -0.0793618  -0.10650178  0.17886774  0.12104906
 -0.11736327 -0.13921659  0.13157801 -0.11680656 -0.08003829  0.04785222
 -0.15529974 -0.13745168 -0.36010835 -0.07073271  0.47222349  0.05791431
 -0.20346239  0.01085683  0.01592226  0.07393667  0.18837652  0.1474981
 -0.01640089  0.03628409 -0.08763184 -0.01245416  0.26198131 -0.07840583
 -0.03480092  0.14976327  0.00083028  0.06143204  0.01237222  0.05804247
 -0.06246272 -0.01305044 -0.13122652 -0.04962937  0.05816802  0.03688064
  0.01336044  0.14071135 -0.15975392  0.0955325   0.0289924   0.02678629
  0.00189836 -0.03089095 -0.01810343 -0.02548341  0.03660637 -0.21297553
  0.11819655  0.17316972 -0.05262331  0.08492911  0.0651735   0.03799816
 -0.04896862  0.01783617 -0.16375856 -0.0748488   0.10129159 -0.02719362
  0.10381518 -0.02396038]