[-0.15774444  0.02908979  0.0819173  -0.03044861 -0.07533789 -0.09215044
  0.02567582 -0.16338548  0.11754064 -0.06342269  0.26444417 -0.07274859
 -0.21426181 -0.11635724  0.00271488  0.23313129 -0.14868772 -0.11536049
 -0.07318322 -0.01685681 -0.00122037 -0.00444708  0.06311526  0.08376405
 -0.09103385 -0.37871963 -0.10689636 -0.09635027 -0.05121429  0.02394676
 -0.05762963  0.0850959  -0.16128086 -0.07745939  0.08278923  0.05324416
 -0.00441733 -0.06767707  0.18704389  0.00242522 -0.24514078 -0.04944103
  0.12093677  0.22183433  0.20108823 -0.00070956  0.0393732  -0.12062647
  0.09916454 -0.16530275  0.00812551  0.07670607  0.05443124  0.014362
  0.02474209 -0.10352665  0.00395618  0.07438602 -0.1158803  -0.06519721
  0.04811189 -0.08737934 -0.10349172 -0.08188892  0.21890457  0.10383274
 -0.11010966 -0.12803315  0.14071304 -0.1282631  -0.0532006   0.03852877
 -0.18980812 -0.15035455 -0.31765479 -0.03251472  0.42682743  0.0213249
 -0.21443872  0.02937685 -0.08481332  0.03031408  0.12460362  0.14984009
  0.01493239  0.02625874 -0.06590783 -0.03359644  0.20704626 -0.08271407
 -0.00887589  0.1910519   0.00091525  0.03607506  0.07423043  0.02186034
 -0.01568356 -0.01335105 -0.15769891 -0.04162943  0.02437406 -0.01144496
  0.01179263  0.06085272 -0.22671215  0.07665431  0.06373142  0.01208685
  0.0716119  -0.01138903 -0.05655484 -0.1044656   0.09072342 -0.1988977
  0.14023332  0.16797781 -0.02118538  0.12455031  0.03754483  0.09023377
 -0.06529119  0.01211002 -0.1221564  -0.00301288  0.12219018 -0.00833629
  0.06147987 -0.03276501]