[-0.0625459   0.19936648  0.08805039 -0.03309619  0.01482434  0.00240507
 -0.00959148 -0.09467363  0.16262913 -0.08089233  0.28131807  0.07014517
 -0.16443875 -0.13651054 -0.02602479  0.10452335 -0.18153943 -0.09561332
 -0.10524981 -0.03636336 -0.00334299  0.02943987  0.00384029  0.02422802
 -0.1336737  -0.29201058 -0.05920827 -0.12165587  0.06133684 -0.1148036
 -0.07160605  0.0586054  -0.14154051 -0.06629162  0.00303403  0.02575728
 -0.04911191  0.00672594  0.21262856  0.08701853 -0.14258961  0.06201462
 -0.00140571  0.3205868   0.28668231  0.02293544 -0.00271852 -0.0829633
  0.18724047 -0.21103409  0.05015391  0.13350515  0.13944267  0.12266858
  0.08371191 -0.20694256 -0.0358203   0.04105551 -0.17538729  0.00823426
 -0.04014241 -0.09454658 -0.0012197  -0.04707839  0.15278815  0.10296053
 -0.09293356 -0.10439471  0.18291603 -0.12789755 -0.01449716  0.09027436
 -0.11071832 -0.12887709 -0.2444021   0.04576923  0.32562625  0.18373083
 -0.1698027  -0.02410719 -0.11263845 -0.08030167  0.02812031  0.05235117
 -0.10750439  0.00108722 -0.01606799  0.01162875  0.16935597  0.03292806
 -0.06070793  0.20303893 -0.03721918  0.05493906  0.03891487 -0.03320043
 -0.11109746  0.01494935 -0.15665779 -0.03376399 -0.05434812 -0.11647425
  0.01427847  0.10390245 -0.20496462  0.16505359  0.04172244  0.02869387
 -0.02729791  0.0140372  -0.08984756  0.03596301  0.16794057 -0.242725
  0.27282438  0.1604083   0.04137449  0.12103261  0.09767194  0.00686415
 -0.04982736 -0.05842375 -0.12084611 -0.06037886  0.07272964 -0.04717267
  0.10818219 -0.00848645]