[-0.03893087  0.10294155  0.05239117 -0.02660047 -0.06763011 -0.05252097
 -0.02391208 -0.11798733  0.11755305 -0.07903109  0.2423801   0.00332308
 -0.180582   -0.16514187 -0.02179321  0.12612234 -0.1845939  -0.13096718
 -0.03636493 -0.06908693  0.06677221 -0.00765672  0.04543692 -0.00509762
 -0.149033   -0.30958641 -0.13957828 -0.16086075  0.06270804 -0.08446565
 -0.07772618  0.0889831  -0.12154963 -0.09976902  0.05387345  0.02779654
  0.01548291 -0.00276077  0.16650607  0.00368863 -0.15838464  0.09608418
  0.06389827  0.26953962  0.23455513  0.03441862  0.01786775 -0.04237875
  0.13136248 -0.15244018  0.05507587  0.12834987  0.13850932  0.0645295
  0.11189141 -0.11928039 -0.01896695  0.06688546 -0.15678129  0.01856305
  0.02616525 -0.05409662 -0.0245821  -0.05067922  0.14802359  0.07190526
 -0.08892863 -0.12667257  0.1427789  -0.14702964 -0.06692561  0.0334478
 -0.17633064 -0.10459801 -0.24883223  0.01672277  0.3345131   0.13434476
 -0.17761765  0.06464199 -0.05410946 -0.01707807  0.05529294  0.03795626
 -0.07383605  0.06096145 -0.05802269  0.00381864  0.15287682 -0.04631727
 -0.03428611  0.2054472  -0.0434445   0.08696056  0.08244022 -0.02604766
 -0.06291907 -0.02776368 -0.16524827 -0.03152574  0.00473206 -0.12377423
 -0.02161226  0.07930063 -0.16428481  0.0712673  -0.00398566  0.0339894
 -0.07646779  0.02497563 -0.1041865   0.01482012  0.13748272 -0.23313968
  0.2344579   0.20049201  0.003075    0.07701458  0.1047017  -0.01713184
 -0.03210299 -0.05501481 -0.11401323 -0.08259125  0.09128726 -0.04607723
  0.0665374  -0.00956766]