[-0.05043422  0.18162176  0.09710079 -0.0830615  -0.06022362 -0.02028393
 -0.12667149 -0.07819092  0.08499439 -0.03426123  0.32540274  0.04003113
 -0.16656394 -0.14308862 -0.04644217  0.13901626 -0.16077451 -0.0836037
 -0.09266385 -0.04199414  0.01655115  0.04255977  0.0488443   0.00727197
 -0.12752692 -0.32509461 -0.081477   -0.12254991  0.00686371 -0.11473624
 -0.09088337  0.02848723 -0.16117115 -0.05739866  0.03764835  0.0364466
 -0.0323232  -0.02202134  0.17219622  0.06854773 -0.13765483  0.11278286
  0.03508402  0.27244791  0.29819009  0.04640772  0.0508352  -0.09348899
  0.13379516 -0.17569917  0.12651166  0.14380206  0.14398944  0.06295431
  0.10146438 -0.14648147 -0.02811862  0.08855926 -0.15988357 -0.02604147
  0.02419507 -0.01727081 -0.02363344 -0.0941805   0.19217175  0.14255354
 -0.10798806 -0.11077294  0.13705803 -0.0899347  -0.0476584   0.05813109
 -0.1648     -0.12708624 -0.26212403  0.05885698  0.328134    0.16861573
 -0.22196941  0.0040428  -0.08696973 -0.04220937  0.03020919  0.01035748
 -0.10307777  0.02230435 -0.04645677  0.02517796  0.17749903 -0.01010052
 -0.03894752  0.21071827 -0.02382628  0.04370786  0.07261716 -0.02137505
 -0.08422323 -0.0251861  -0.15345447 -0.03086358 -0.06525522 -0.09740057
 -0.02632033  0.07492246 -0.17833851  0.09975918  0.01112333  0.00412994
 -0.07334474  0.00137903 -0.07466745 -0.00960953  0.14953779 -0.22487013
  0.23743211  0.13659205  0.05778704  0.11983436  0.13168058  0.0367812
 -0.05668578 -0.0678188  -0.09701212 -0.0636811   0.07935742 -0.01751733
  0.1468067   0.02145743]