[-0.14922443  0.04977405  0.05667636 -0.03284017 -0.07243685 -0.1088861
  0.03029647 -0.1582953   0.12901445 -0.06949719  0.25038296 -0.06726673
 -0.22101258 -0.13383578  0.01731432  0.23241423 -0.14490406 -0.095131
 -0.09384464 -0.02393571  0.00066562  0.00662623  0.07697911  0.07411742
 -0.08850171 -0.36017999 -0.10364377 -0.0849994  -0.06861707  0.00471507
 -0.05482526  0.08822371 -0.15119348 -0.09436878  0.08850777  0.05515859
 -0.03418521 -0.05232924  0.19220047  0.00691145 -0.23840375 -0.06026418
  0.13026708  0.22827999  0.2067443  -0.00804922  0.03374454 -0.12593494
  0.10576522 -0.17464903 -0.00449168  0.07381789  0.06124412  0.01018853
  0.06238151 -0.08891522  0.0119826   0.09106655 -0.13536291 -0.06481543
  0.05683022 -0.08258776 -0.1177178  -0.05941433  0.21286964  0.12157167
 -0.10865233 -0.13301532  0.13655376 -0.13792844 -0.06200533  0.05750716
 -0.16733861 -0.16842499 -0.32658374 -0.053848    0.41080934  0.03040349
 -0.19678707  0.01298892 -0.06692859  0.0169269   0.14169733  0.13170008
 -0.01783411  0.02581118 -0.06534731 -0.01099978  0.20105891 -0.08065809
 -0.02508097  0.18547837  0.01405695  0.0345034   0.06516389  0.00999384
 -0.01259418 -0.0132471  -0.17679925 -0.03963291  0.0472238  -0.03522534
  0.01372326  0.06341765 -0.21311478  0.06401708  0.06632344  0.00191467
  0.0473754  -0.02016366 -0.08222845 -0.07853771  0.08520239 -0.20124154
  0.15017341  0.16392313 -0.04109179  0.10243545  0.04056672  0.06755143
 -0.05501157 -0.00385559 -0.10913134 -0.00835214  0.12207335  0.00144143
  0.08216434 -0.04782135]