[-0.0256663   0.09969123  0.0388425  -0.03102468 -0.05981645 -0.04109828
 -0.01007415 -0.10617337  0.10949995 -0.07014997  0.22274013  0.00212075
 -0.19173591 -0.15271702 -0.02913547  0.12269893 -0.17683797 -0.12528825
 -0.05353317 -0.08262678  0.07522804 -0.00535787  0.0487835  -0.00852091
 -0.14769025 -0.28617153 -0.12183211 -0.16042238  0.05709109 -0.09190074
 -0.07652848  0.0867901  -0.13716726 -0.08651205  0.04651196  0.02883742
 -0.00118275 -0.00345821  0.18131851  0.0206432  -0.14295344  0.11169758
  0.06053027  0.2682527   0.23544426  0.01933055  0.00904977 -0.03952871
  0.13064826 -0.16565409  0.05663326  0.14052579  0.14207764  0.07098349
  0.10719593 -0.12571557 -0.0181901   0.06166275 -0.16203794  0.0302984
  0.02114067 -0.05993984 -0.03092755 -0.06117594  0.13427387  0.06699561
 -0.09099386 -0.12203926  0.13681726 -0.14613803 -0.05360217  0.03143642
 -0.17381476 -0.10796738 -0.24580143  0.02532928  0.32132766  0.14297347
 -0.17375672  0.06527018 -0.06420907 -0.02282476  0.04603482  0.02885098
 -0.07676681  0.06410413 -0.05411892  0.01848227  0.14166383 -0.05623284
 -0.04065646  0.20788203 -0.04204486  0.08089329  0.07310107 -0.03586996
 -0.07130378 -0.03919913 -0.16929522 -0.02857174 -0.01825506 -0.15115194
 -0.02249087  0.07292827 -0.16138083  0.06328385 -0.00569781  0.01841918
 -0.09326658  0.02341936 -0.12083065  0.01795229  0.13775063 -0.23309767
  0.23841353  0.20605011  0.00659734  0.07145899  0.11329985 -0.01318801
 -0.03121019 -0.04305517 -0.11234226 -0.07964546  0.08724781 -0.02396399
  0.06271425 -0.0025707 ]