[-0.03670874  0.19611254  0.09061527 -0.03165589 -0.00743948  0.02005361
 -0.03495755 -0.11374421  0.14321679 -0.06732389  0.32584488  0.05861782
 -0.17851838 -0.16839926 -0.0052999   0.12896624 -0.20344721 -0.08275256
 -0.08207778 -0.0262954   0.01135298  0.04123126  0.04450231 -0.00821896
 -0.14223838 -0.33323225 -0.07023355 -0.1253147   0.00616217 -0.11567038
 -0.07779527  0.06347457 -0.14588368 -0.06300896  0.03064786  0.03486938
 -0.0543034  -0.00104336  0.19046071  0.05877895 -0.13619922  0.06464485
  0.04122175  0.29832646  0.29517049  0.03911699  0.01795057 -0.09789771
  0.15277545 -0.15784469  0.06911708  0.12792659  0.11750557  0.09616259
  0.08401801 -0.17463104 -0.04779739  0.04473651 -0.13631231 -0.03651301
  0.00451795 -0.06004663 -0.01045051 -0.04550471  0.19001174  0.09340193
 -0.09589388 -0.12848113  0.14876218 -0.1044839  -0.07379302  0.06203046
 -0.17015341 -0.12622978 -0.27411756  0.01894189  0.34307209  0.120005
 -0.1899939  -0.01718001 -0.09326734 -0.07090893  0.05650013  0.07208059
 -0.06857955  0.01049281 -0.03872147  0.02265207  0.19989483 -0.00248208
 -0.072619    0.19071949 -0.04112305  0.04445596  0.0522177  -0.04741963
 -0.07339627  0.03060382 -0.18804041 -0.04935121 -0.06140565 -0.08503034
 -0.02007086  0.12032614 -0.20625821  0.13778941  0.05178941  0.02712796
 -0.02279981 -0.01458534 -0.10645985  0.01993858  0.15889187 -0.25276992
  0.25389156  0.1541598   0.06120577  0.10866898  0.09717464  0.02459708
 -0.04856549 -0.04068547 -0.15953945 -0.04868874  0.07594865 -0.02098366
  0.12791947 -0.01004701]