[-1.31241187e-01  7.35472515e-02  7.58982897e-02 -5.31438701e-02
 -1.33540377e-01 -5.76680079e-02 -2.60272878e-03 -1.38143733e-01
  7.37790391e-02 -7.06767887e-02  2.38243327e-01 -9.98841375e-02
 -1.97088495e-01 -8.16622600e-02 -3.60068791e-02  2.33204290e-01
 -1.52777910e-01 -1.18394271e-01 -8.32507759e-02 -1.70368683e-02
  8.16495493e-02  9.90089308e-03  1.30398637e-02  1.77529082e-03
 -1.17693543e-01 -2.98964977e-01 -4.81328405e-02 -3.74231040e-02
  1.95407607e-02 -2.75146123e-02 -3.66861336e-02  5.14771044e-02
 -1.63854659e-01 -6.01251796e-02  9.77443084e-02  7.63122216e-02
 -8.40415712e-03 -1.07153356e-01  1.62768394e-01 -2.48901229e-02
 -2.94065922e-01 -2.47135991e-03  1.42889440e-01  2.41312340e-01
  2.14712933e-01  2.48606429e-02 -2.59203068e-03 -1.48604497e-01
  1.77731082e-01 -2.23829895e-01 -5.69548868e-02  6.19344525e-02
  2.08873209e-02  1.12729518e-04  4.05998304e-02 -1.26696423e-01
  5.63257821e-02  1.18760742e-01 -1.78255990e-01 -7.23765641e-02
  7.70278648e-02 -8.56334418e-02 -5.56643717e-02 -1.21601954e-01
  1.90177217e-01  5.89777604e-02 -1.29364133e-01 -1.33375868e-01
  1.24138296e-01 -1.10432029e-01 -5.27451634e-02  6.44189641e-02
 -1.47197053e-01 -1.60209864e-01 -3.60816330e-01 -5.49295358e-02
  4.58891213e-01  9.03570950e-02 -1.74455389e-01  2.86209472e-02
  8.68971553e-03  6.83107302e-02  1.74591646e-01  1.61061436e-01
 -1.59070231e-02  3.15069854e-02 -9.55938846e-02 -1.25061944e-02
  2.16218993e-01 -1.07566096e-01 -1.00590130e-02  1.87324330e-01
  1.92709714e-02  5.17736673e-02  7.60299736e-04  5.82913756e-02
 -1.01067342e-01  5.04964916e-03 -1.74693659e-01 -5.54715283e-02
  4.54683416e-02  1.20397964e-02  6.46604821e-02  1.66783959e-01
 -1.79512814e-01  8.59127715e-02  1.25863226e-02  3.30226496e-02
  1.06472624e-02 -5.71914576e-02  1.92966161e-03 -3.23347636e-02
  3.21447365e-02 -1.92183822e-01  1.04101911e-01  1.96571574e-01
  3.29479197e-04  8.17949548e-02  1.18642323e-01  6.55251229e-03
 -2.00392827e-02  2.49837637e-02 -1.74140498e-01 -3.15727405e-02
  8.32458586e-02 -3.20996754e-02  8.72878805e-02 -3.49845514e-02]