[-3.03793494e-02  1.76582500e-01  1.15536533e-01 -9.23596602e-03
 -3.94273251e-02 -3.33366892e-03 -3.88328731e-02 -1.14585988e-01
  9.02797803e-02 -7.79243112e-02  2.83766657e-01  5.93441911e-03
 -2.32897788e-01 -1.54221013e-01  2.19642371e-03  1.22783244e-01
 -1.96526036e-01 -1.16494000e-01 -7.58291557e-02 -3.00808530e-02
  4.66002189e-02  2.97780451e-03  5.16408794e-02 -2.77504772e-02
 -1.34347573e-01 -3.15972328e-01 -9.04464349e-02 -1.21601418e-01
  3.88666540e-02 -6.68871403e-02 -9.80951563e-02  3.33775952e-02
 -1.32805988e-01 -8.17657933e-02  2.58908812e-02  4.40461939e-04
  3.67700234e-02  8.57308973e-03  1.53254300e-01  9.84601025e-03
 -1.78027228e-01  1.16255179e-01  6.08679913e-02  2.49614641e-01
  2.70928532e-01  5.20153604e-02  1.62237491e-02 -7.67675564e-02
  1.42715573e-01 -1.72779828e-01  4.89927605e-02  1.46677122e-01
  1.63856730e-01  6.43366948e-02  7.76393935e-02 -1.56654015e-01
 -5.17872944e-02  7.75374100e-02 -1.16516054e-01  1.99805363e-03
  3.40474471e-02 -3.30478959e-02  7.16539333e-03 -5.73869832e-02
  1.45857304e-01  5.44768162e-02 -1.12359427e-01 -1.09933190e-01
  9.93634388e-02 -1.19217038e-01 -5.96498959e-02  4.72548530e-02
 -1.88846350e-01 -1.07328825e-01 -2.66218990e-01  2.76328363e-02
  3.30575913e-01  1.20499454e-01 -2.05027491e-01  1.27551351e-02
 -8.33011717e-02 -1.65339559e-04  4.18564565e-02  6.26674742e-02
 -7.42602423e-02  3.12982127e-02 -5.57213426e-02 -2.26702983e-03
  1.68708652e-01 -4.75685336e-02 -2.11405009e-02  2.19688654e-01
 -2.67399084e-02  7.91041777e-02  5.30801192e-02 -1.95783507e-02
 -6.71615899e-02 -2.68551707e-02 -1.73046574e-01 -2.69918833e-02
 -5.66699915e-02 -1.05813526e-01 -1.98230725e-02  7.33502954e-02
 -1.94810554e-01  7.43534490e-02  9.00403876e-03  4.37751897e-02
 -3.22921053e-02  1.51283862e-02 -5.19013293e-02  2.04628496e-03
  1.38492927e-01 -2.28941604e-01  2.11576328e-01  2.10132793e-01
  1.15032149e-02  7.44046196e-02  1.08597673e-01  1.81231238e-02
 -3.88057269e-02 -1.80318840e-02 -1.02857105e-01 -8.40151012e-02
  8.55009556e-02 -5.46716750e-02  8.64671990e-02 -2.14795209e-02]