[-0.01995714  0.14568222  0.08211663 -0.0379112  -0.08054063 -0.00210778
 -0.05472095 -0.09738906  0.10808249 -0.09905895  0.26771417  0.02506494
 -0.21496625 -0.16077708  0.00988938  0.10280146 -0.17673489 -0.10081055
 -0.07892877 -0.05120388  0.02403589 -0.00102315  0.07066602 -0.00758291
 -0.14663585 -0.32686156 -0.09609026 -0.12539873  0.00904787 -0.10319316
 -0.09944149  0.08867759 -0.12035004 -0.09950482  0.03192913  0.00963301
 -0.00230295  0.00667429  0.13636664  0.00631549 -0.16130005  0.09337904
  0.06210681  0.27437761  0.28376442  0.04014669  0.02125593 -0.06547831
  0.16523032 -0.17334868  0.06550881  0.13746531  0.15973717  0.05598694
  0.12377354 -0.12698923 -0.01595554  0.08511174 -0.12083787 -0.01615535
  0.04694119 -0.03693468 -0.01117689 -0.06755314  0.15485306  0.068505
 -0.09349204 -0.10201252  0.12306792 -0.1002332  -0.06052059  0.05205526
 -0.19788601 -0.12854765 -0.24931549  0.02547394  0.31080127  0.17664523
 -0.17191124  0.02457582 -0.08875133  0.01472071  0.0326126   0.02723125
 -0.10145666  0.02836744 -0.04346469  0.03692577  0.13908438 -0.03143214
 -0.03815721  0.20999756 -0.00550092  0.05071373  0.07986542 -0.03889632
 -0.07551301 -0.01474318 -0.20755096 -0.01755147 -0.02983567 -0.12602049
 -0.00665309  0.07153141 -0.19991148  0.08912718  0.00574566  0.04023246
 -0.03731705  0.00281325 -0.08145297  0.01901031  0.12287271 -0.26189861
  0.19285233  0.18212332  0.04600097  0.09921701  0.10221439  0.00245755
 -0.04253526 -0.06151458 -0.09648088 -0.08136787  0.10765149 -0.0313881
  0.0897401  -0.01148519]