[-0.11729206  0.08689985  0.09687389 -0.04951329 -0.14024369 -0.0636116
 -0.00686468 -0.14744487  0.07058488 -0.07587412  0.22424589 -0.11305139
 -0.19015281 -0.06429191 -0.04410366  0.21459143 -0.12843385 -0.12196604
 -0.09412886 -0.02221847  0.08601935  0.00642808  0.01235168  0.00626703
 -0.14476781 -0.28696898 -0.05166005 -0.05233431  0.01420411 -0.02157287
 -0.05719461  0.04059673 -0.1723661  -0.07408608  0.08309041  0.08156335
 -0.01362643 -0.09069055  0.16067885 -0.0076454  -0.29607889  0.01690769
  0.11765989  0.25464106  0.21163571  0.02674164  0.01908266 -0.1334236
  0.17348973 -0.20520747 -0.03868594  0.07269512  0.03788869 -0.00333123
  0.04260264 -0.11798829  0.05206538  0.12496027 -0.16059136 -0.04889343
  0.09873023 -0.07146678 -0.05931688 -0.10934561  0.20455873  0.05426132
 -0.12467939 -0.13405366  0.11894756 -0.10573192 -0.05508488  0.06855034
 -0.16745488 -0.13748531 -0.35217336 -0.04642889  0.48428676  0.07087208
 -0.1812146   0.02773306 -0.02243985  0.077625    0.17729454  0.15240419
 -0.00989942  0.05106824 -0.08793235 -0.0035566   0.22068937 -0.11828973
 -0.01573086  0.18635456  0.02184382  0.04440243 -0.00456859  0.03058222
 -0.10731893  0.00537388 -0.15115182 -0.05553386  0.05754113  0.01275026
  0.05512109  0.1611257  -0.19569628  0.08586054  0.00944016  0.04852127
  0.02022492 -0.04417352 -0.02323531 -0.04809701  0.05379771 -0.19866896
  0.09231498  0.19927491 -0.01020165  0.04980287  0.12744322 -0.00656417
 -0.00186317  0.05338958 -0.1799482  -0.02836907  0.09787736 -0.04124568
  0.08594804 -0.0327319 ]