[-0.12197888  0.03287842  0.05980656 -0.03776791 -0.13166343 -0.06972953
 -0.04377922 -0.18611546  0.07400482 -0.10486119  0.1963301  -0.10724586
 -0.17788018 -0.0619875  -0.06027147  0.23162694 -0.16845922 -0.13801442
 -0.06628825 -0.04346512  0.04616344  0.00800923  0.00715804  0.01378464
 -0.16628698 -0.29755458 -0.08007149 -0.0607384  -0.03866247 -0.00116369
 -0.07622922  0.06814699 -0.17993081 -0.04894114  0.10851719  0.08265289
  0.03302478 -0.10307069  0.14553335  0.00449967 -0.26992652  0.01259073
  0.15335976  0.21740174  0.1993138   0.01877601  0.01009013 -0.1446739
  0.18026409 -0.18106616 -0.01347933  0.05477124  0.04259701  0.01460953
  0.03308361 -0.12402755  0.03842376  0.12671739 -0.13615704 -0.04720176
  0.09920663 -0.0709508  -0.06379259 -0.10896281  0.20719126  0.11307472
 -0.11740138 -0.14573649  0.12601823 -0.11376809 -0.07123698  0.03938647
 -0.15318815 -0.14661993 -0.34163606 -0.05732029  0.44700286  0.0831705
 -0.19782899  0.00863584 -0.00392935  0.0685935   0.18912911  0.15881363
  0.01111833  0.03434281 -0.06113253 -0.0154083   0.25881943 -0.07187908
 -0.03185021  0.1726238  -0.00412576  0.0371752   0.01265675  0.04360191
 -0.09681197 -0.0006498  -0.13753496 -0.0450298   0.03796573  0.0293113
  0.03457138  0.15512107 -0.17413555  0.08089626 -0.00544173  0.02224733
  0.01044942 -0.03744417 -0.00739297 -0.02811903  0.04244339 -0.21056452
  0.11982143  0.1652443  -0.01590753  0.09519919  0.07147446  0.0279249
 -0.02890325  0.03190496 -0.17799585 -0.05428221  0.09890325 -0.03838744
  0.09964567 -0.03071338]