[-0.13399349  0.04270131  0.05648918  0.00707971 -0.05698627 -0.06588496
  0.05171147 -0.14520937  0.12551804 -0.0952461   0.24755906 -0.07287229
 -0.24065951 -0.12636946 -0.00354131  0.2160987  -0.138051   -0.10799754
 -0.08049443 -0.07217451  0.02656677  0.02281078  0.02053869  0.03613828
 -0.12705952 -0.34618053 -0.08663853 -0.05858701 -0.07672673  0.01157084
 -0.03477823  0.12394347 -0.15909204 -0.08042537  0.08814391  0.05862595
 -0.01182551 -0.01974714  0.14946459  0.00466308 -0.20456915 -0.0167824
  0.13544437  0.25025439  0.16583388  0.03109262  0.02214834 -0.1227863
  0.105907   -0.15880327 -0.01915694  0.08563331  0.05664644  0.0237328
  0.06859878 -0.11219066  0.00148564  0.06308617 -0.10101505 -0.04297245
  0.03167823 -0.10368224 -0.07875199 -0.06243354  0.1798266   0.05893351
 -0.09350085 -0.11796024  0.13068408 -0.14637227 -0.07261769  0.04815044
 -0.14312302 -0.165713   -0.33311483 -0.03037642  0.44523039  0.05466107
 -0.20433848  0.04817778 -0.01542144  0.01993744  0.1916291   0.17345415
  0.00415459  0.02736036 -0.07476398 -0.01510986  0.20810845 -0.05744549
 -0.05637016  0.17861584  0.01085547  0.03770791  0.07179797 -0.00046223
 -0.04107035 -0.01481292 -0.15254353 -0.0600162   0.03077354 -0.02500363
 -0.00263541  0.06184046 -0.17602408  0.09514483  0.04554909  0.02496006
  0.02373618  0.0053087  -0.04893916 -0.04157314  0.05458018 -0.22977284
  0.12771432  0.15712045 -0.06864411  0.1378753   0.0438344   0.07751245
 -0.0473867   0.01480813 -0.12082743 -0.06092963  0.09851857 -0.00482969
  0.10041104 -0.04988166]