[-0.0179995   0.13692728  0.08237039 -0.00971685 -0.03989872 -0.02882293
 -0.03984801 -0.13485056  0.12788354 -0.09021423  0.30005592 -0.00172514
 -0.1887769  -0.21461359  0.01635749  0.14435233 -0.19998147 -0.11089262
 -0.01765563 -0.03282561  0.0708757  -0.01679519  0.07096162  0.0016524
 -0.12509894 -0.33543816 -0.10771149 -0.14016391  0.03738279 -0.07775985
 -0.09678311  0.09334868 -0.15165697 -0.10486119  0.03050172  0.00377097
 -0.01044294  0.00446201  0.14483915 -0.03684003 -0.14175606  0.0820875
  0.03918929  0.23623531  0.21961927  0.05052977  0.0167054  -0.09017152
  0.12005842 -0.12670235  0.05004049  0.11834587  0.14805503  0.0496228
  0.08256813 -0.15151946 -0.0184597   0.05452099 -0.13649344 -0.00279391
  0.01625507 -0.06108627 -0.02234779 -0.055328    0.15831782  0.03560159
 -0.07085899 -0.1222617   0.12007399 -0.07494449 -0.04001006  0.06810709
 -0.19776283 -0.15175013 -0.25831792  0.01849619  0.31671426  0.11398583
 -0.18912683  0.0366802  -0.05285465 -0.00337889  0.05863422  0.05003649
 -0.05877792  0.02431571 -0.07412247  0.04182025  0.12126758 -0.07330031
 -0.03812861  0.21558876 -0.03945392  0.09491274  0.03798225 -0.05419553
 -0.033538    0.04351833 -0.17900036 -0.02343177  0.00851378 -0.07049472
 -0.02058335  0.07695396 -0.16760461  0.05111055  0.02596056  0.04253224
 -0.02980755 -0.00243857 -0.10935745 -0.00950676  0.11355139 -0.25045764
  0.22172788  0.19448592  0.05245287  0.09964771  0.07870083  0.00401092
 -0.02775471 -0.08238091 -0.15625905 -0.02573195  0.14212681 -0.03638246
  0.07349187 -0.01817778]