[-1.47157893e-01  4.92028818e-02  5.05246818e-02 -2.51993928e-02
 -7.88784623e-02 -5.41492216e-02  2.04979219e-02 -1.49211675e-01
  1.11108139e-01 -6.18264042e-02  2.42564917e-01 -9.80929956e-02
 -2.08004236e-01 -1.21022753e-01 -2.89043374e-02  2.32418582e-01
 -1.70208514e-01 -1.05594173e-01 -6.83839321e-02 -3.67401801e-02
  4.65466455e-02  2.20491253e-02  1.40506076e-02  5.56977168e-02
 -1.33222699e-01 -3.61994833e-01 -1.10104375e-01 -7.29719624e-02
 -5.30920140e-02  2.06873268e-02 -3.43014784e-02  8.77217874e-02
 -1.43420666e-01 -7.01334849e-02  1.03601806e-01  8.11043009e-02
  2.09468361e-02 -9.12818685e-02  1.59548730e-01  6.10593520e-03
 -2.27101833e-01  2.81774998e-03  1.39425844e-01  2.49456391e-01
  1.84682891e-01  3.06210518e-02  3.19114141e-02 -1.09345950e-01
  1.32807478e-01 -1.47529691e-01 -2.37468481e-02  9.13829878e-02
  2.59284228e-02  1.94169115e-02  5.19477203e-02 -1.06271744e-01
  2.37548649e-02  9.57022458e-02 -1.25612661e-01 -7.96582550e-02
  4.21097986e-02 -7.26725385e-02 -5.03567569e-02 -8.79967436e-02
  1.86287239e-01  8.01765397e-02 -1.11240424e-01 -1.40328541e-01
  1.29651114e-01 -1.33542165e-01 -5.86195290e-02  4.81010266e-02
 -1.82387426e-01 -1.51652560e-01 -3.23543698e-01 -3.30858156e-02
  4.69091088e-01  5.68923950e-02 -2.01693609e-01  2.70344522e-02
 -2.98347156e-02  3.12396344e-02  1.92842528e-01  1.63928762e-01
  3.77945602e-02  1.04003167e-02 -8.43441188e-02 -3.55179273e-02
  2.41752222e-01 -5.11295907e-02 -4.37351167e-02  1.82761893e-01
  6.83169672e-03  2.16660686e-02  5.27044535e-02  1.73528604e-02
 -4.28764857e-02  6.12231344e-03 -1.17735080e-01 -3.26781981e-02
  3.34492587e-02 -6.91392971e-03  4.11774963e-04  8.56155083e-02
 -1.95498869e-01  9.13385376e-02  4.66084555e-02  3.30866389e-02
  1.54828010e-02 -2.44392324e-02 -5.54563478e-02 -1.45496223e-02
  9.11455974e-02 -2.31078431e-01  1.31670147e-01  1.62456200e-01
 -4.69646305e-02  1.21983998e-01  5.09856716e-02  6.95033222e-02
 -5.79911172e-02  3.54503770e-03 -1.45928234e-01 -6.07755147e-02
  8.82694870e-02 -2.26784553e-02  1.04533903e-01 -4.81130369e-02]