[-0.13841552  0.0359393   0.06380867 -0.02844893 -0.06730127 -0.06145905
  0.0288352  -0.15605424  0.11503982 -0.0728907   0.25122598 -0.11387395
 -0.20498358 -0.12117513 -0.03076762  0.23955713 -0.16657381 -0.10093504
 -0.0707349  -0.03758114  0.05195946  0.01961469  0.01136198  0.0524748
 -0.11873998 -0.35960612 -0.11185879 -0.0768705  -0.0496739   0.01793397
 -0.04321928  0.08574628 -0.14578879 -0.0642992   0.08322839  0.06587555
  0.00725565 -0.09941386  0.15550093 -0.00320952 -0.23632739  0.00193103
  0.13717511  0.23045467  0.18860503  0.02756113  0.02553065 -0.11055125
  0.1202758  -0.14653198 -0.02481997  0.08101028  0.03262466  0.02313774
  0.03947357 -0.1090621   0.01116706  0.08927798 -0.11606502 -0.07444113
  0.04154176 -0.08705898 -0.06195956 -0.08079141  0.18387996  0.08603057
 -0.11086785 -0.13907227  0.13641815 -0.13965106 -0.06230096  0.03892665
 -0.18022387 -0.15146454 -0.32400808 -0.03532596  0.45502457  0.04318604
 -0.2076764   0.02984716 -0.03369886  0.04420683  0.19506982  0.17617399
  0.04443391  0.01100265 -0.08535153 -0.04636275  0.23041658 -0.07003362
 -0.03949928  0.19218895  0.00106598  0.02486316  0.04357353  0.01350732
 -0.03265513  0.01056101 -0.11409099 -0.03438311  0.04251726  0.00164713
 -0.00560331  0.0874437  -0.19446021  0.09553124  0.0506408   0.04057082
  0.03716386 -0.02519514 -0.04262236 -0.02936798  0.08525112 -0.2199513
  0.12203709  0.16709636 -0.04117232  0.12421244  0.05315539  0.07877143
 -0.0504324   0.00321765 -0.1669312  -0.04444847  0.09386806 -0.01179967
  0.08650668 -0.03828942]