[-0.13593505  0.03219011  0.08215318 -0.03501675 -0.12036154 -0.06987269
 -0.04359697 -0.1842059   0.08068334 -0.12068694  0.18709628 -0.0885992
 -0.17432593 -0.07069521 -0.05235509  0.22486715 -0.13234626 -0.14518449
 -0.08832016 -0.04985533  0.03874163  0.02972276  0.00678286  0.00140303
 -0.15806086 -0.2938557  -0.10537322 -0.03403687 -0.0398913  -0.01228659
 -0.06928701  0.05896417 -0.16946663 -0.03986667  0.10455456  0.10987484
  0.01992813 -0.08260792  0.12540472 -0.00699074 -0.27447268  0.01960984
  0.14274572  0.22032598  0.19352363  0.04692841 -0.00623848 -0.14060135
  0.19003303 -0.18187676 -0.00725195  0.06209572  0.03524988  0.01188925
  0.05005428 -0.10644885  0.03649947  0.13406613 -0.12993574 -0.05772002
  0.07122927 -0.09196745 -0.07007132 -0.09820135  0.17504545  0.11057831
 -0.11647772 -0.13760409  0.12874603 -0.11993171 -0.0613524   0.05669848
 -0.15229394 -0.14059137 -0.34677956 -0.05759181  0.49014899  0.05867506
 -0.17902397  0.01316436  0.00642953  0.07198594  0.17802434  0.13600017
 -0.01430052  0.02490533 -0.07912733 -0.00216896  0.26822987 -0.07743445
 -0.0333922   0.14261729  0.00288951  0.05763796  0.00972715  0.05807008
 -0.08057507 -0.01452381 -0.13703597 -0.04977809  0.05237346  0.02607329
  0.01753654  0.13478993 -0.1658977   0.10875592  0.02833635  0.02078818
  0.01029078 -0.02067146 -0.02338715 -0.02135113  0.04693386 -0.21083419
  0.12740855  0.17341506 -0.04044739  0.09882349  0.07024186  0.03589611
 -0.04430542  0.02180339 -0.15649922 -0.08197282  0.10202463 -0.02301638
  0.10968905 -0.02938505]