[-1.40007183e-01  4.98265959e-02  5.19794300e-02 -2.38719136e-02
 -7.42122680e-02 -5.57998791e-02  2.60311365e-02 -1.37143686e-01
  1.18809558e-01 -7.24160597e-02  2.44279429e-01 -1.01624846e-01
 -2.02848315e-01 -1.22324526e-01 -1.52400164e-02  2.23410845e-01
 -1.59871280e-01 -9.08661261e-02 -7.75582939e-02 -3.38642336e-02
  6.63611740e-02  2.25870945e-02  1.99838281e-02  4.79709841e-02
 -1.29651487e-01 -3.69301647e-01 -1.11931764e-01 -7.61383995e-02
 -4.08403091e-02  6.71731774e-03 -3.45950685e-02  8.25366899e-02
 -1.38750777e-01 -7.39075765e-02  9.05543566e-02  7.54346400e-02
  1.45856664e-02 -9.10227224e-02  1.53377339e-01  8.68991110e-03
 -2.34463334e-01  3.08694923e-03  1.22115508e-01  2.44959310e-01
  1.85926422e-01  2.92164180e-02  3.85527983e-02 -1.08210616e-01
  1.33599669e-01 -1.47916198e-01 -1.23339482e-02  8.12186003e-02
  3.13276760e-02  1.75508913e-02  6.43013492e-02 -9.88544151e-02
  2.08157841e-02  9.57774222e-02 -1.25052914e-01 -7.44705498e-02
  5.50910011e-02 -6.77770227e-02 -5.58620691e-02 -7.93152079e-02
  1.71601564e-01  8.00901726e-02 -1.02945380e-01 -1.41703874e-01
  1.34016797e-01 -1.34783953e-01 -5.73459752e-02  4.70730402e-02
 -1.78155109e-01 -1.56243667e-01 -3.10646027e-01 -3.07511538e-02
  4.68903989e-01  6.76191598e-02 -2.06811666e-01  2.62725502e-02
 -3.62087637e-02  3.44534069e-02  2.02291965e-01  1.67060360e-01
  4.52448167e-02  1.68498121e-02 -8.45102891e-02 -3.07789277e-02
  2.29564697e-01 -5.98604642e-02 -4.36719060e-02  1.91874295e-01
  1.44613581e-02  2.37559658e-02  5.00584058e-02 -3.49192705e-04
 -4.62982655e-02  9.94294044e-03 -1.22989811e-01 -4.10546549e-02
  3.56037952e-02 -2.68071145e-03 -7.71939615e-03  8.01750869e-02
 -1.93756685e-01  1.09634034e-01  4.93262969e-02  3.65581699e-02
  2.02491637e-02 -2.67986059e-02 -5.36369197e-02 -1.10349283e-02
  8.38045925e-02 -2.22542286e-01  1.16886809e-01  1.62876055e-01
 -3.77752967e-02  1.25597745e-01  5.65175004e-02  6.93744794e-02
 -3.66738848e-02  1.85534358e-04 -1.61891133e-01 -5.27498312e-02
  8.82666484e-02 -1.24224797e-02  8.88390914e-02 -4.98427562e-02]