[-0.13464354  0.03910458  0.08023802 -0.01453657 -0.07103095 -0.07660251
  0.02639436 -0.14987549  0.12228351 -0.08098575  0.26079488 -0.09629369
 -0.23934615 -0.1077987  -0.01592306  0.25418746 -0.14986008 -0.10693788
 -0.07666817 -0.01818756  0.01437537  0.01038299  0.04123946  0.06905884
 -0.0851713  -0.35494778 -0.08728395 -0.08014251 -0.06558689 -0.00233355
 -0.05376476  0.08547075 -0.15470496 -0.08289681  0.07216289  0.03306519
 -0.01909479 -0.0595094   0.18170862  0.00937175 -0.24487935 -0.05381389
  0.11380545  0.22766304  0.15852995  0.01100948  0.03120004 -0.13837759
  0.0760371  -0.16279301 -0.0234401   0.07308764  0.06522575  0.01707369
  0.00394132 -0.11819109 -0.00764027  0.07121012 -0.10561937 -0.04177637
  0.06799772 -0.0853629  -0.0951855  -0.08128207  0.23202181  0.07836779
 -0.12207522 -0.1324248   0.14382255 -0.12629168 -0.07047128  0.03634527
 -0.1559314  -0.16046794 -0.32478261 -0.05368685  0.40021434  0.0062726
 -0.22542797  0.00328892 -0.07652312  0.03259188  0.13323601  0.16837536
  0.01158006  0.03830712 -0.05824842 -0.04756266  0.21372412 -0.0902017
 -0.01604737  0.19777557  0.01510876  0.03723354  0.05700717  0.00453634
 -0.01387071 -0.00300831 -0.1594222  -0.0272191   0.01410389 -0.02010738
  0.00724991  0.07227291 -0.19959018  0.0885612   0.06483297  0.01480902
  0.06624094  0.01017353 -0.08671566 -0.10818016  0.10670525 -0.19409561
  0.12822104  0.1789601   0.0065529   0.10443103  0.0643454   0.0984412
 -0.05323911  0.01881733 -0.15124425 -0.00671885  0.12723885 -0.03239584
  0.06001025 -0.03272051]