[-9.59255621e-02  1.32850274e-01  9.86319929e-02  1.00000473e-02
 -8.34022183e-03 -5.20050786e-02 -2.06230171e-02 -1.22758232e-01
  9.57653746e-02 -5.71668660e-03  2.50393748e-01  2.66920365e-02
 -2.19221830e-01 -1.09373145e-01 -3.47676426e-02  7.05282092e-02
 -2.09286079e-01 -7.45634660e-02 -6.16163090e-02 -1.83074065e-02
  2.29061153e-02  8.59532412e-03  6.70407414e-02 -2.58831475e-02
 -1.08661465e-01 -2.99600035e-01 -5.25110662e-02 -1.22782044e-01
  5.61310723e-02 -9.36447755e-02 -7.31726214e-02  4.77742553e-02
 -2.00718328e-01 -9.99442413e-02  1.54520022e-02  5.04090777e-03
 -1.53234173e-02  1.60583649e-02  1.57956108e-01  4.95402887e-03
 -1.65948927e-01  5.69642186e-02 -4.24515782e-03  2.64083594e-01
  2.55611986e-01  6.69790134e-02 -3.71054374e-02 -1.13297902e-01
  9.95813832e-02 -1.99814647e-01  6.99094236e-02  1.42898589e-01
  1.13431215e-01  3.57504152e-02  3.83260846e-02 -1.55318066e-01
 -7.49678537e-03  3.21448110e-02 -1.49567485e-01  3.46410051e-02
  9.50808749e-02 -8.03775489e-02  1.56714376e-02 -4.42993902e-02
  1.66257918e-01  5.08055948e-02 -8.82364735e-02 -1.05240941e-01
  1.23805977e-01 -1.04603924e-01 -3.20718661e-02  6.17245510e-02
 -1.03095233e-01 -1.67635232e-01 -2.41289482e-01  5.72010651e-02
  3.39970857e-01  1.28561884e-01 -1.85738131e-01  2.02001017e-02
 -1.40073061e-01 -1.97867900e-02  9.63010713e-02  3.47376429e-02
 -8.43077153e-02 -1.04104436e-03 -6.77485913e-02 -6.63607568e-03
  1.74997821e-01 -4.10397118e-03 -7.67728388e-02  1.82583362e-01
 -5.52604571e-02  4.40934524e-02  6.89571276e-02 -2.85352748e-02
 -7.52099678e-02  4.30703424e-02 -1.75418630e-01 -1.53101059e-02
 -2.68331554e-04 -1.07874550e-01 -4.72769134e-05  1.16744854e-01
 -1.52277991e-01  9.81550515e-02  2.51300037e-02  2.17436440e-02
  3.84980887e-02 -3.17501165e-02 -9.82493088e-02 -1.65610779e-02
  1.30049273e-01 -2.65593618e-01  3.17601830e-01  1.65242374e-01
  7.39235207e-02  1.01381920e-01  8.83760378e-02  2.00685337e-02
 -1.83233488e-02  9.05357953e-03 -1.43613651e-01 -5.79058193e-02
  1.19648352e-01 -4.94017862e-02  1.12078980e-01 -8.79803952e-03]