[-0.15362453  0.04059519  0.05955897 -0.03335118 -0.07572691 -0.0933594
  0.02209562 -0.15960279  0.11486059 -0.07563937  0.2496237  -0.08481558
 -0.21418834 -0.11962654 -0.00669774  0.24770486 -0.14226051 -0.11935961
 -0.08909851 -0.00480384  0.00475026  0.01322579  0.06914615  0.06709099
 -0.08415843 -0.36359733 -0.10764547 -0.07572656 -0.0540151   0.00362476
 -0.05964187  0.08237054 -0.16813238 -0.08987297  0.09333422  0.06294043
 -0.02631943 -0.07126391  0.18669337  0.00377562 -0.25449863 -0.04497054
  0.13972019  0.22825828  0.19702278 -0.0024913   0.03520155 -0.14747512
  0.11127343 -0.15423135 -0.00299865  0.068179    0.04811009  0.0252442
  0.03176002 -0.10098132  0.02083584  0.08614546 -0.11297183 -0.06911051
  0.07040912 -0.07748707 -0.09762315 -0.07954086  0.21082477  0.0917031
 -0.10375422 -0.15443869  0.14227793 -0.12557404 -0.05978044  0.04854306
 -0.17375693 -0.15125452 -0.32883951 -0.05311785  0.40873694  0.01504248
 -0.19143917  0.03533641 -0.0577348   0.02650735  0.12887511  0.15310904
 -0.00122897  0.03852029 -0.07213086 -0.02535437  0.22067557 -0.08464943
 -0.01838886  0.16674712  0.00512866  0.03517276  0.07953054  0.02670522
 -0.03485195 -0.00467104 -0.17685428 -0.03621854  0.02359993 -0.02361721
  0.00562568  0.07440153 -0.19346768  0.08747378  0.056875    0.01561075
  0.04337521 -0.01688506 -0.06648373 -0.08086481  0.07401764 -0.18530588
  0.14964378  0.15350823 -0.01638089  0.10920924  0.06644332  0.09356798
 -0.06599285  0.0260501  -0.13730769 -0.01404422  0.12470733  0.00228621
  0.0867475  -0.03264331]