[-0.04100878  0.17305331  0.04749937 -0.08131495 -0.03183663 -0.05026227
 -0.07906282 -0.09969612  0.09738682 -0.05849264  0.29185876 -0.01727949
 -0.19229235 -0.1164974  -0.06947466  0.14359662 -0.16377504 -0.07747557
 -0.13271338 -0.08521443  0.01410395  0.00812939  0.05035943  0.03917181
 -0.13203603 -0.29348531 -0.10651218 -0.14095299 -0.05070834 -0.12926255
 -0.04625552  0.00696984 -0.14799993 -0.07647357  0.00261799  0.00074223
 -0.0389681  -0.03518153  0.18026468  0.05545688 -0.12010656  0.12964632
  0.04608897  0.30098829  0.27159652  0.03545024  0.02519467 -0.08517408
  0.15536921 -0.16749762  0.07344933  0.10902651  0.14600673  0.07084823
  0.10174995 -0.11589587 -0.00807195  0.09620746 -0.14446546 -0.04075014
  0.01518463 -0.02673695 -0.02208282 -0.06837996  0.18884648  0.14320929
 -0.11153813 -0.06700516  0.14432071 -0.09090232 -0.0226037   0.03118311
 -0.14811723 -0.13794112 -0.2458334   0.06810156  0.34407967  0.14756827
 -0.20251618 -0.00938057 -0.09544428 -0.00189232  0.05300242  0.00754297
 -0.11253128  0.01183639 -0.05620775  0.04609568  0.15758355 -0.04654894
 -0.05778361  0.19529699 -0.01973714  0.03696335  0.07993185 -0.01818289
 -0.11639392  0.00413127 -0.15174015  0.02485203 -0.02267445 -0.0918515
 -0.02658901  0.03605411 -0.14004144  0.08527577  0.0348945  -0.01431212
 -0.08858624  0.03726095 -0.09021064 -0.01343825  0.13661788 -0.22731562
  0.2143154   0.13723442  0.00258143  0.12115499  0.11252566  0.03496309
 -0.06120626 -0.04131591 -0.09445632 -0.06866907  0.1020167   0.03729804
  0.1387022  -0.00086069]