[-1.25270888e-01  7.33599216e-02  8.14432874e-02 -4.13046218e-02
 -1.34382293e-01 -4.97717038e-02 -3.94364400e-03 -1.34180427e-01
  6.38641641e-02 -6.88880831e-02  2.24898055e-01 -1.12367526e-01
 -1.92385465e-01 -9.08021331e-02 -3.53198722e-02  2.33923107e-01
 -1.27318889e-01 -1.28616840e-01 -7.54559860e-02 -3.49072926e-03
  8.86813775e-02  6.34105818e-04  1.43935904e-02  1.71377510e-02
 -1.23053662e-01 -3.00598711e-01 -4.91388589e-02 -4.42632250e-02
  1.28343822e-02 -3.06919403e-02 -5.52787744e-02  4.28443961e-02
 -1.71441808e-01 -6.28843233e-02  9.33437869e-02  8.39662626e-02
 -3.34699464e-04 -9.87117216e-02  1.61193967e-01 -1.17682172e-02
 -2.99934685e-01 -1.18534248e-02  1.28459245e-01  2.39129409e-01
  2.01122627e-01  4.22205813e-02  7.30176410e-03 -1.35055900e-01
  1.69939294e-01 -2.26419955e-01 -3.34336162e-02  6.00216649e-02
  2.49909889e-02 -6.33527339e-03  4.16636169e-02 -1.30299285e-01
  5.51254340e-02  1.09208189e-01 -1.68867037e-01 -5.83663397e-02
  7.42450580e-02 -7.41806775e-02 -5.85507117e-02 -1.20155863e-01
  1.95131510e-01  6.02955632e-02 -1.20455682e-01 -1.34834304e-01
  1.31609634e-01 -1.13663569e-01 -5.53033836e-02  6.68458119e-02
 -1.44432157e-01 -1.52335122e-01 -3.69925499e-01 -4.92507033e-02
  4.65761811e-01  9.71762165e-02 -1.87236771e-01  1.95913557e-02
  9.78329778e-03  7.63200819e-02  1.74469113e-01  1.63961604e-01
 -1.04661873e-02  5.05174771e-02 -9.76428017e-02 -1.73188094e-02
  2.11288735e-01 -1.06676318e-01 -1.07843345e-02  1.87428489e-01
  1.72063317e-02  5.76709621e-02  2.48974568e-04  5.28625511e-02
 -9.10331309e-02  8.08935892e-03 -1.64028510e-01 -5.41062132e-02
  5.77119254e-02  2.12973896e-02  6.18952215e-02  1.73294231e-01
 -1.89632684e-01  7.93895423e-02 -4.66374302e-04  2.87788492e-02
  8.36779457e-03 -4.43956740e-02 -1.74402297e-02 -3.74917164e-02
  3.42060886e-02 -1.91155806e-01  9.06693563e-02  2.01545358e-01
 -6.52502337e-03  6.56274557e-02  1.24438643e-01  1.13483546e-02
 -4.76939371e-03  2.17388105e-02 -1.83445916e-01 -3.70022617e-02
  9.28596482e-02 -4.24064808e-02  7.64781386e-02 -2.83429325e-02]