[-1.09679058e-01  8.09956342e-02  9.02027115e-02 -6.05831742e-02
 -1.42017961e-01 -4.89968061e-02  1.87085604e-03 -1.41660735e-01
  7.84175619e-02 -7.13447258e-02  2.34683707e-01 -1.08093075e-01
 -2.00748637e-01 -5.30671440e-02 -5.05021475e-02  2.25972041e-01
 -1.38437718e-01 -1.17610358e-01 -1.04786776e-01 -2.31507160e-02
  8.41059759e-02  9.52016213e-04  9.79982596e-03  1.38663920e-02
 -1.38828024e-01 -2.85697371e-01 -4.90184538e-02 -5.52144721e-02
  1.60661060e-02 -2.27259845e-02 -5.64211383e-02  3.23750190e-02
 -1.75661832e-01 -7.69922361e-02  8.81832242e-02  7.56192133e-02
 -1.55398948e-02 -1.06773436e-01  1.68331429e-01 -1.71233192e-02
 -2.93268800e-01  2.31794268e-02  1.22813046e-01  2.46425107e-01
  2.07151175e-01  2.61741038e-02  1.81523301e-02 -1.36165187e-01
  1.74891382e-01 -2.20010161e-01 -2.71926355e-02  6.91694394e-02
  4.22534943e-02 -2.85402103e-03  4.17827740e-02 -1.24502540e-01
  4.62238118e-02  1.33284986e-01 -1.57124117e-01 -4.67555113e-02
  1.00921109e-01 -7.12937489e-02 -5.58467917e-02 -1.22168712e-01
  2.04259083e-01  6.16712831e-02 -1.35305524e-01 -1.30625039e-01
  1.26394317e-01 -9.69256684e-02 -4.73242886e-02  5.56922965e-02
 -1.66932657e-01 -1.38742074e-01 -3.50165099e-01 -4.27011140e-02
  4.80263680e-01  7.35462606e-02 -1.92355976e-01  1.54624162e-02
 -3.26838866e-02  8.58163610e-02  1.71033740e-01  1.47272840e-01
  5.56129788e-04  3.39187458e-02 -9.20711085e-02 -5.79550769e-03
  2.23894745e-01 -1.24074362e-01 -1.01589216e-02  1.94864318e-01
  1.89273711e-02  3.39094549e-02 -9.03717801e-03  4.59048636e-02
 -1.16334639e-01  3.05936183e-03 -1.53539345e-01 -4.25312631e-02
  5.33225499e-02  1.82195213e-02  5.27415946e-02  1.65896043e-01
 -1.94189563e-01  7.98992142e-02  2.44269217e-03  4.34155352e-02
  2.61361934e-02 -4.69329841e-02 -2.61460282e-02 -5.45450263e-02
  5.96852675e-02 -1.94516852e-01  9.91025791e-02  1.96505010e-01
 -1.36762364e-02  4.96020019e-02  1.24296479e-01  9.30252310e-04
 -2.65868759e-04  4.61072139e-02 -1.93066940e-01 -3.38838771e-02
  9.65473279e-02 -4.11688946e-02  7.82447606e-02 -2.97791939e-02]