[-0.09811413  0.05678185  0.06315472 -0.03206393 -0.10066169 -0.048615
  0.04218363 -0.14636366  0.14800534 -0.12397411  0.23408155 -0.08126884
 -0.23618574 -0.08304194 -0.03012646  0.23707223 -0.15401807 -0.10473909
 -0.07849374 -0.02866421  0.02546988  0.03205262  0.01265399  0.04801241
 -0.13505681 -0.3515735  -0.09935459 -0.0489514  -0.06190499 -0.00927792
 -0.04634696  0.12509464 -0.11238744 -0.05199954  0.07581933  0.07926837
 -0.02420638 -0.08003112  0.14680257  0.01038607 -0.26779091  0.01118697
  0.13269554  0.25105995  0.18581322 -0.00235809  0.02296549 -0.14004864
  0.15358499 -0.17118864 -0.03765244  0.06225478  0.05133671  0.03153005
  0.07467934 -0.09049853  0.00257628  0.13699636 -0.12589334 -0.05255895
  0.04027214 -0.08028457 -0.04147684 -0.09181429  0.1690952   0.09008852
 -0.11323585 -0.1082873   0.14916474 -0.16843462 -0.09213998  0.05529636
 -0.14271063 -0.16625921 -0.313876   -0.06031303  0.43136093  0.08593874
 -0.18514255  0.00368459  0.00768295  0.02606257  0.18766972  0.19074641
  0.00311894  0.00480811 -0.06116042 -0.02566138  0.25166675 -0.05593145
 -0.02751376  0.21913086  0.02719805  0.04733786  0.03392731  0.00503961
 -0.05361003  0.00309347 -0.15851741 -0.04326228  0.0172017  -0.02700856
 -0.00353222  0.096147   -0.19121641  0.11299673  0.046421    0.04247217
  0.05636231  0.00486414 -0.03331571 -0.02793138  0.08944333 -0.22226511
  0.10878313  0.16532257 -0.04124554  0.09937032  0.04994883  0.05154438
 -0.04160088 -0.03348116 -0.15970038 -0.03900767  0.11849642 -0.04975377
  0.08265229 -0.05626935]