[-0.05823801  0.19608591  0.04206141 -0.06845544 -0.05309178 -0.06530096
 -0.1199586  -0.12746499  0.08600758 -0.04013973  0.29827043 -0.00425558
 -0.16614138 -0.16217494 -0.02101746  0.11630955 -0.20575567 -0.08913138
 -0.09466749 -0.03647395  0.04162175  0.01362568  0.07805919  0.00389521
 -0.15306172 -0.33916685 -0.11959531 -0.13316095  0.00376645 -0.09231444
 -0.08966352  0.04672019 -0.17421018 -0.10886098  0.05726171  0.06416705
 -0.06456061  0.0136547   0.21083653  0.02189392 -0.14524686  0.11214487
  0.05769692  0.29846495  0.26495504  0.03120296  0.04361371 -0.09122074
  0.14066349 -0.12029679  0.11847053  0.15781492  0.17660291  0.09769747
  0.09888839 -0.12893072  0.007027    0.08690231 -0.12829874 -0.03346252
  0.05651837 -0.07948853 -0.00539624 -0.05030148  0.21380357  0.09025206
 -0.09224448 -0.11106534  0.13829692 -0.0497033  -0.03568788  0.07277914
 -0.1717702  -0.13687451 -0.27120098  0.03687226  0.36814827  0.11325349
 -0.22380665  0.01792327 -0.10206504 -0.07854795  0.05825647  0.0460714
 -0.09052192  0.05860424 -0.07454392  0.07619943  0.19115834 -0.0680492
 -0.04802358  0.19085853  0.013356    0.0963816   0.09790792 -0.04152684
 -0.08241149 -0.01404845 -0.17328843  0.00843425 -0.03411605 -0.10849605
 -0.05773503  0.06252164 -0.13874149  0.10475959  0.07631376  0.00452667
 -0.10894382 -0.00790814 -0.08390997 -0.03754091  0.1328321  -0.25918031
  0.24379762  0.14134395  0.04350756  0.13205619  0.10669105  0.01616134
 -0.04220249 -0.05847267 -0.12075477 -0.0479414   0.1088892   0.03218611
  0.14189385  0.02084804]