[-3.29299569e-02  1.66112542e-01  1.17852867e-01 -1.24076139e-02
 -1.90709457e-02  1.45263076e-02 -2.85054129e-02 -1.22315943e-01
  1.48204431e-01 -7.70723000e-02  3.00598830e-01  2.55987775e-02
 -1.85447991e-01 -1.73820361e-01 -2.28388403e-02  1.12728789e-01
 -2.03448609e-01 -1.03857040e-01 -3.84006836e-02 -6.97223237e-03
  3.52697037e-02 -9.13439691e-03  6.56243116e-02 -2.40689311e-02
 -1.41788766e-01 -3.33741635e-01 -8.17682520e-02 -1.11935429e-01
  4.47669588e-02 -6.86930940e-02 -1.18758976e-01  8.99122879e-02
 -1.60419509e-01 -8.60319659e-02  1.35967144e-04  3.54215577e-02
 -3.55327651e-02  5.06989239e-03  1.46728590e-01  1.40264202e-02
 -1.47107601e-01  6.98325261e-02  4.55569243e-03  2.55757511e-01
  2.72290349e-01  4.03177105e-02 -1.10459703e-04 -1.12899475e-01
  1.37142763e-01 -2.10547000e-01  5.71243055e-02  1.49142593e-01
  1.24472596e-01  9.04146358e-02  8.16562101e-02 -1.60854042e-01
 -3.22364829e-02  4.34995294e-02 -1.12429097e-01 -8.31479765e-03
 -6.42319350e-03 -4.49681431e-02  2.53864918e-02 -7.08537176e-02
  1.57480747e-01  8.78980905e-02 -7.69958422e-02 -1.05453148e-01
  1.31794319e-01 -8.46178755e-02 -4.98516634e-02  6.55898601e-02
 -1.55387297e-01 -1.46766767e-01 -2.80265123e-01  2.35856194e-02
  3.17698002e-01  1.47522137e-01 -1.84487164e-01 -1.56265579e-03
 -1.17068127e-01 -1.80107001e-02  5.40805124e-02  3.57575230e-02
 -9.35770944e-02  2.28456501e-02 -7.43002892e-02  1.08659929e-02
  1.63730860e-01 -4.84680124e-02 -5.58096655e-02  2.19127089e-01
 -4.08343635e-02  9.81200263e-02  5.20374738e-02 -1.63055267e-02
 -6.19205236e-02  4.54235710e-02 -2.08096310e-01 -2.97920592e-02
 -9.36782639e-03 -8.70181695e-02 -1.01017868e-02  1.12977028e-01
 -1.90182909e-01  8.94853100e-02  2.88645923e-02  4.15203981e-02
  9.29548778e-03 -3.20991687e-02 -9.94563624e-02  1.26478020e-02
  1.42557606e-01 -2.56766796e-01  2.40438148e-01  1.79205850e-01
  4.58635651e-02  1.14224218e-01  1.16461828e-01  7.97059573e-03
 -5.58785610e-02 -7.35995099e-02 -1.22494474e-01 -3.25611047e-02
  1.05622411e-01 -2.70654447e-02  5.73424473e-02 -3.94118571e-04]