[-0.08602905  0.18821006  0.07381471 -0.0562097  -0.03684983 -0.05954402
 -0.09979378 -0.10576838  0.0766313  -0.03446303  0.30593336  0.02810287
 -0.16755994 -0.1932058  -0.01614877  0.13381688 -0.18309604 -0.10801166
 -0.07800067 -0.01286381  0.05581182  0.02750279  0.07848264 -0.01070103
 -0.1435423  -0.36069411 -0.11809861 -0.13407297 -0.0320739  -0.09166756
 -0.07717784  0.02618213 -0.16926061 -0.08797102  0.03376351  0.0576387
 -0.04665415  0.00317836  0.17753398  0.02929685 -0.1618297   0.06656871
  0.05725011  0.28415158  0.26075763  0.03050643  0.032127   -0.08204841
  0.08974018 -0.1360881   0.09287486  0.13086276  0.14305608  0.08539348
  0.09912567 -0.121293    0.02094036  0.06919033 -0.13377272 -0.0717117
  0.01057067 -0.07060789 -0.0136064  -0.04247747  0.21493928  0.08959466
 -0.08458719 -0.10806759  0.11978021 -0.06484752 -0.04929283  0.07280972
 -0.16149831 -0.13676837 -0.29766342  0.02435821  0.33997089  0.10955059
 -0.22644556  0.01490507 -0.11014574 -0.05035916  0.06376552  0.02041074
 -0.09711313  0.07062175 -0.11051328  0.04362309  0.17855158 -0.05331773
 -0.04118754  0.18904118 -0.00136569  0.0826024   0.10678207 -0.02414678
 -0.05735665 -0.0009813  -0.17076559 -0.01608241 -0.00544441 -0.10364133
 -0.05805543  0.08228008 -0.16580749  0.06885333  0.07034474 -0.00160402
 -0.0773447  -0.01761144 -0.09684606 -0.04743967  0.12369939 -0.23743391
  0.21832323  0.16711786  0.01624645  0.12878208  0.12330928  0.01710652
 -0.09567954 -0.07848464 -0.13220309 -0.02389928  0.11548757  0.02440035
  0.13317542  0.01283463]