[-0.05414042  0.17702308  0.06046078 -0.08506832 -0.04390459 -0.02339353
 -0.08286268 -0.09635673  0.06390525 -0.05871218  0.30373254 -0.02959236
 -0.18333688 -0.10865872 -0.05332454  0.12467716 -0.16537891 -0.0885787
 -0.09660181 -0.08874772  0.01542152  0.02526653  0.03434572  0.00383607
 -0.15127428 -0.28434217 -0.10363927 -0.13899301 -0.02199645 -0.11694868
 -0.02743145  0.02089049 -0.14099804 -0.02993332  0.0317828   0.04033088
 -0.05943494 -0.00928916  0.18221465  0.07663117 -0.09405301  0.06350888
  0.02464029  0.32138106  0.28355744  0.02392271 -0.00108794 -0.05783568
  0.10998309 -0.19271676  0.08589824  0.1169516   0.15109885  0.08355378
  0.11361642 -0.10409137  0.02201156  0.0845848  -0.16710591 -0.0515695
  0.0132177  -0.05603069 -0.01731335 -0.04360214  0.21077013  0.13133211
 -0.1045331  -0.05142167  0.17461838 -0.0806567  -0.02928205  0.04064647
 -0.13824485 -0.13885294 -0.23240535  0.05880009  0.38726148  0.15990138
 -0.21114755 -0.01092339 -0.05294792 -0.03563571  0.09724201  0.01120912
 -0.1137099  -0.00370027 -0.04780757  0.06464305  0.14627388 -0.06034277
 -0.06342577  0.17822106 -0.02999086  0.0494223   0.10466065 -0.0485938
 -0.05410869  0.00391404 -0.14656404  0.01473025 -0.05572355 -0.11092555
 -0.03360568  0.06350388 -0.13260768  0.09485539  0.06071363 -0.04134781
 -0.10980512 -0.00088866 -0.08293118 -0.00235676  0.1496637  -0.26344061
  0.19324782  0.14927655 -0.01197009  0.1299926   0.09313655  0.01704531
 -0.03213371 -0.06588216 -0.10887905 -0.05475531  0.07031953  0.01836128
  0.10521787 -0.00125986]