[-0.13977878  0.07424349  0.08126638 -0.03940398 -0.13314836 -0.0647957
  0.00632869 -0.13379465  0.09234565 -0.08481405  0.22547038 -0.08324157
 -0.21504846 -0.08753733 -0.02775864  0.23115933 -0.13868131 -0.12278962
 -0.07106577 -0.01071773  0.09629896 -0.00437344  0.01918555  0.00469457
 -0.12849218 -0.2928983  -0.05537675 -0.04223999  0.00127577 -0.01064478
 -0.04710063  0.04832527 -0.15958975 -0.07892487  0.08766306  0.08130046
 -0.00633439 -0.0848424   0.16281377 -0.00741945 -0.29304323 -0.02792772
  0.12463438  0.23369622  0.20046626  0.03474855  0.01260187 -0.14830993
  0.17014359 -0.22465439 -0.05603892  0.06743481  0.04339379 -0.00298686
  0.05950746 -0.13361226  0.06076936  0.10141517 -0.1718697  -0.07337674
  0.07255229 -0.06147948 -0.04849315 -0.10775878  0.19334239  0.06089069
 -0.12342485 -0.1212361   0.13624659 -0.11545243 -0.06020004  0.06280123
 -0.14671929 -0.158796   -0.36476454 -0.07130676  0.46142402  0.0898372
 -0.1780691   0.01274159 -0.00224539  0.05928471  0.17452952  0.15940061
 -0.02022033  0.04647238 -0.09307396 -0.02231063  0.20413232 -0.11021906
 -0.00633418  0.18150257  0.03490721  0.06467827  0.00685499  0.05094065
 -0.09908738  0.01057862 -0.17339098 -0.05242994  0.04016092  0.00771322
  0.06609388  0.15896901 -0.1787526   0.07065869  0.01081616  0.02735414
 -0.0071654  -0.0415665  -0.02832215 -0.0399818   0.02914656 -0.18133664
  0.09261747  0.20312431 -0.03812625  0.06809177  0.11831994  0.01231572
 -0.02026388  0.02550563 -0.1643734  -0.03695352  0.08159013 -0.04481391
  0.07929435 -0.03992289]