[-1.43062934e-01  4.64027114e-02  5.61893657e-02 -3.48376408e-02
 -7.80282021e-02 -9.61116329e-02  1.80281624e-02 -1.66343749e-01
  1.05225697e-01 -7.16086850e-02  2.46001348e-01 -8.27202275e-02
 -2.20987350e-01 -1.31005421e-01 -2.82955216e-03  2.46839195e-01
 -1.43322065e-01 -1.06592253e-01 -8.49952772e-02 -1.45876920e-02
  4.83270362e-03  1.07507929e-02  7.12450072e-02  6.47837818e-02
 -8.35452899e-02 -3.54259253e-01 -1.03838086e-01 -7.52909780e-02
 -6.44181296e-02  4.14978620e-03 -5.87238483e-02  8.03547874e-02
 -1.65859967e-01 -8.97613168e-02  9.48755071e-02  5.94334416e-02
 -3.20001990e-02 -7.44246021e-02  1.86387494e-01 -3.66996421e-04
 -2.45241433e-01 -4.72197868e-02  1.47256643e-01  2.19711229e-01
  1.95411950e-01  2.84310803e-03  3.48957703e-02 -1.46699905e-01
  1.12793662e-01 -1.61382705e-01  2.18300009e-03  7.07373321e-02
  4.29449044e-02  1.79838967e-02  4.20375615e-02 -9.87324938e-02
  1.82626750e-02  8.88893157e-02 -1.26180753e-01 -6.84456602e-02
  7.30602518e-02 -6.96747676e-02 -1.06516801e-01 -8.59140679e-02
  2.09796458e-01  1.10123813e-01 -1.08524695e-01 -1.50445744e-01
  1.31932095e-01 -1.39648795e-01 -6.37177452e-02  5.20028882e-02
 -1.62808254e-01 -1.59062043e-01 -3.27752739e-01 -5.55867255e-02
  3.96239251e-01  3.16526778e-02 -1.94080666e-01  1.73803456e-02
 -5.08958958e-02  2.25271266e-02  1.48236394e-01  1.46492183e-01
  3.48616461e-03  3.17856818e-02 -6.61989674e-02 -2.99596842e-02
  2.18469143e-01 -8.46860111e-02 -2.23321561e-02  1.78047702e-01
  7.72987027e-03  2.70933844e-02  6.84782937e-02  2.44792681e-02
 -3.40654925e-02 -5.54618239e-03 -1.74736083e-01 -3.57816219e-02
  3.07294708e-02 -2.87994444e-02  7.33183464e-03  7.30116293e-02
 -1.93606243e-01  7.65727460e-02  5.08694351e-02  1.02162017e-02
  4.23366390e-02 -2.93800328e-02 -7.57446513e-02 -7.78746232e-02
  7.69694224e-02 -1.90251216e-01  1.52690887e-01  1.51946783e-01
 -3.06439139e-02  1.04048923e-01  6.32857829e-02  9.45421904e-02
 -6.27742037e-02  7.79487658e-03 -1.29111946e-01 -2.19279956e-02
  1.24564864e-01 -1.50033308e-03  9.22146365e-02 -4.41275500e-02]