[-0.01911617  0.17974964  0.07092723 -0.0871756  -0.04368945 -0.05499697
 -0.10274369 -0.09126615  0.12438052 -0.01623972  0.33184028  0.0336224
 -0.18344019 -0.20688558  0.00942085  0.10666899 -0.22497216 -0.06841758
 -0.06309143 -0.05204168  0.04620006  0.05139764  0.04830649 -0.00259995
 -0.13625154 -0.3758412  -0.11473073 -0.13678068  0.01662176 -0.11903955
 -0.06942336  0.05257933 -0.1601945  -0.10178665  0.03863759  0.03540158
 -0.04110723 -0.01747493  0.14039332  0.04026421 -0.12929156  0.06399002
  0.05466953  0.26465744  0.25680575  0.03794535  0.01164207 -0.06470846
  0.12761734 -0.16024292  0.09232525  0.14979963  0.15597259  0.07293969
  0.1124123  -0.13669251 -0.01934019  0.08809374 -0.20027271 -0.0413798
 -0.00835853 -0.07288691 -0.05103624 -0.04713232  0.17897841  0.13290314
 -0.09340748 -0.10320703  0.13026069 -0.08783504 -0.05569049  0.05610316
 -0.15305515 -0.13338891 -0.28318053  0.02743647  0.32405332  0.09569051
 -0.23471312 -0.00459406 -0.09339204 -0.05855314  0.04607758  0.00989647
 -0.1043795   0.04142968 -0.08775768  0.0537146   0.1442237  -0.04425105
 -0.01840817  0.2323709  -0.02248058  0.10313715  0.09197718 -0.01646009
 -0.06729544 -0.01288365 -0.16548882 -0.02059795  0.01908822 -0.11757153
 -0.05843511  0.07867525 -0.17911586  0.08490139  0.09332534 -0.0157333
 -0.03973965 -0.0380052  -0.06851377 -0.05162499  0.15611123 -0.25689843
  0.24068952  0.16383457  0.02694681  0.14768286  0.06096505  0.00178275
 -0.07872105 -0.13845591 -0.11521421 -0.0376271   0.07477478 -0.00763087
  0.06895667 -0.01681883]