[-0.0550185   0.10488775  0.0845682  -0.01752877 -0.05155115 -0.0620239
 -0.02402725 -0.12324312  0.12377069 -0.06320172  0.2530416  -0.0168277
 -0.18559407 -0.17865027  0.01055522  0.14670727 -0.20630601 -0.1006269
 -0.02520207 -0.07131105  0.07739227 -0.01091419  0.04392646  0.01716421
 -0.14424108 -0.31613326 -0.11248441 -0.16352957  0.02902734 -0.08698194
 -0.06344401  0.08630529 -0.16138649 -0.10079248  0.01696415 -0.00601514
  0.01464396  0.00900944  0.14898615 -0.02118192 -0.14656712  0.08066447
  0.07921978  0.24270526  0.23426385  0.04290253  0.01184676 -0.051626
  0.1063237  -0.12252946  0.04647014  0.10339915  0.15032268  0.04394127
  0.08162385 -0.14702757 -0.04379785  0.03383682 -0.14774933  0.01960859
  0.04202467 -0.05171338 -0.05214471 -0.04643037  0.17352408  0.05233264
 -0.0824248  -0.11925059  0.12643245 -0.11395673 -0.03880943  0.04992518
 -0.18781297 -0.11845312 -0.25181571  0.01255122  0.31676927  0.08053486
 -0.20680049  0.03831017 -0.08086335 -0.00420448  0.06369898  0.03902712
 -0.03675029  0.03794644 -0.05179921  0.03017509  0.13332161 -0.0611156
 -0.02152376  0.21003938 -0.02349243  0.05051989  0.03919411 -0.06239973
 -0.04504919  0.00310166 -0.16936402 -0.03550954 -0.00668137 -0.07508425
 -0.01920766  0.06246062 -0.17467897  0.06513475  0.04676219  0.02706623
 -0.05386743  0.02704949 -0.12947021 -0.01828329  0.13463679 -0.22948959
  0.22198556  0.18333355  0.01677051  0.0837989   0.06117968  0.02135347
 -0.03684666 -0.04065361 -0.1225121  -0.02560143  0.12611596 -0.05068984
  0.08213209 -0.01040784]