[-0.1113264   0.02698599  0.04872477 -0.0640065  -0.10602987 -0.06322295
  0.05591241 -0.12224541  0.13733393 -0.12892824  0.21618168 -0.09437214
 -0.21389799 -0.09163264 -0.0403534   0.22133671 -0.15416574 -0.11437821
 -0.07762682 -0.0751351   0.04617009  0.05141566 -0.00292294  0.04618851
 -0.1393006  -0.34374529 -0.11110514 -0.0608098  -0.03526334 -0.02960039
 -0.03065353  0.09783249 -0.11577745 -0.03433491  0.05619141  0.08231868
 -0.02997556 -0.10289331  0.12960398  0.03730376 -0.24806146 -0.01511455
  0.14256455  0.26904938  0.16935502  0.00555038  0.01254289 -0.10008071
  0.15496321 -0.1859535   0.00786208  0.05931107  0.06243157  0.03246814
  0.09364503 -0.0661206   0.01301776  0.12380297 -0.13594352 -0.03156647
  0.05775921 -0.061041   -0.06078056 -0.09331569  0.17713597  0.10955378
 -0.11607659 -0.11068529  0.13981855 -0.18526675 -0.09935173  0.05105977
 -0.13275056 -0.1386316  -0.2930623  -0.03621452  0.44154462  0.09146689
 -0.14937234  0.00155476 -0.00118484  0.02342283  0.19541053  0.17475639
 -0.01440316  0.0199879  -0.07630844 -0.00379558  0.2321509  -0.06111975
 -0.04244924  0.21362709  0.01676757  0.04225903  0.02332282  0.00398901
 -0.0705952   0.0126035  -0.10193508 -0.04244787  0.06699114 -0.03555827
 -0.01016694  0.09342339 -0.17085455  0.12591542  0.03684352  0.04331035
  0.05658691 -0.00305267 -0.05019107 -0.03265865  0.07149266 -0.20777069
  0.09330805  0.15447794 -0.0419373   0.09721424  0.05161886  0.04732892
 -0.03129029 -0.04248575 -0.16187096 -0.03370094  0.10071284 -0.04265004
  0.0700757  -0.04509209]