[-0.02739341  0.16289362  0.08749527 -0.03767126 -0.01508846 -0.02945471
 -0.06181529 -0.08354797  0.13495809 -0.11664303  0.2928966   0.04584161
 -0.17073362 -0.17914842 -0.00436312  0.11184001 -0.20039146 -0.07990862
 -0.05307112 -0.0469018   0.0218683   0.01030124  0.06528097 -0.00268391
 -0.14763263 -0.32386884 -0.07799319 -0.1527846   0.02972338 -0.08816196
 -0.06872877  0.06699355 -0.12967554 -0.06693194 -0.00442588  0.03950761
 -0.00739665  0.04548874  0.17100321  0.05378383 -0.13483144  0.09240244
  0.00162823  0.29321668  0.28489175  0.04127788  0.02751235 -0.06034663
  0.1634544  -0.20423491  0.06533321  0.10997849  0.13410328  0.0646834
  0.13002597 -0.15532468 -0.02183753  0.01968758 -0.14301455 -0.01099308
  0.00094423 -0.0181662   0.00623827 -0.0272368   0.18559083  0.06043381
 -0.09555072 -0.07278164  0.14292045 -0.11648736 -0.02435239  0.08414268
 -0.14813785 -0.12366173 -0.24908011  0.05246675  0.3544378   0.18134503
 -0.15485996  0.03016399 -0.09743039 -0.05779693  0.03837933  0.02819746
 -0.09359108  0.05097697 -0.04276019  0.0495983   0.1296014  -0.01998671
 -0.04996124  0.21428692 -0.02997843  0.09510969  0.06007288 -0.05954823
 -0.08375534  0.00435139 -0.17954931 -0.03171965 -0.01855547 -0.1158878
 -0.00090937  0.05966369 -0.1878657   0.11646302  0.00916507  0.01543134
 -0.04472293  0.05271162 -0.10606279  0.02778701  0.14561363 -0.24604078
  0.22345471  0.167716    0.04256524  0.11840141  0.11367074 -0.00062666
 -0.05197959 -0.05625325 -0.09386592 -0.06729355  0.06377079 -0.03054875
  0.12472733 -0.00217596]