[-0.06742705  0.15832548  0.10948124 -0.09492956 -0.06268593 -0.03456479
 -0.11682196 -0.08991089  0.06586333 -0.05669021  0.29009771  0.01051595
 -0.16407843 -0.12496369 -0.04195797  0.13108845 -0.17368029 -0.11652781
 -0.07176574 -0.04688726 -0.00716247  0.04456402  0.03084481  0.02373721
 -0.15105888 -0.3042298  -0.06966379 -0.1078344  -0.0277757  -0.08022724
 -0.07277202  0.0809888  -0.15946792 -0.03472449  0.0365767   0.06306459
 -0.02459219 -0.02920969  0.19083588  0.07184019 -0.16022024  0.06406224
  0.04033448  0.27064815  0.28726062  0.02203706  0.02224922 -0.06557881
  0.16784646 -0.19650874  0.1046916   0.16513452  0.14650278  0.08095334
  0.07087646 -0.12868603  0.00700939  0.09362923 -0.16637872 -0.05458534
  0.00257385 -0.05195143  0.01843033 -0.08476491  0.19370042  0.14216943
 -0.09861954 -0.08967644  0.14511622 -0.08244159 -0.07240936  0.07971727
 -0.16342933 -0.12593943 -0.26041195  0.04665646  0.32328972  0.16307738
 -0.20010021 -0.00396261 -0.07385486 -0.06631082  0.03672166  0.03500998
 -0.10535496  0.02063443 -0.03642282  0.02214785  0.20814221  0.00138459
 -0.0653611   0.2000585  -0.01236697  0.05480111  0.08185835 -0.01541055
 -0.05867338 -0.01293259 -0.14919239 -0.0137678  -0.05825458 -0.08001658
 -0.03644806  0.09239857 -0.17717586  0.11880004  0.01576982  0.00117006
 -0.08560017 -0.01406845 -0.05486329 -0.00469821  0.13575464 -0.21920149
  0.20790891  0.12136581  0.04017099  0.13123049  0.11177289  0.01727223
 -0.06175281 -0.08911455 -0.0916919  -0.07783765  0.12304773 -0.00725448
  0.15698998  0.02318724]