[-1.38945326e-01  3.97583023e-02  8.24761167e-02 -7.61650084e-03
 -6.82009384e-02 -4.77206819e-02  5.10758646e-02 -1.51534617e-01
  1.51179150e-01 -9.71840695e-02  2.63302773e-01 -9.68388095e-02
 -2.31769159e-01 -9.99487862e-02 -3.68237533e-02  2.34071210e-01
 -1.34904191e-01 -1.35889560e-01 -6.66917562e-02 -6.36724830e-02
  6.37885416e-03  1.63009148e-02 -1.60396134e-03  4.72914316e-02
 -1.27652511e-01 -3.53702396e-01 -9.77590308e-02 -7.52762333e-02
 -5.06803170e-02 -7.56137088e-05 -3.94274294e-02  1.40357211e-01
 -1.50429383e-01 -6.33710623e-02  6.15272187e-02  7.19485730e-02
  3.04850575e-04 -3.46645750e-02  1.42657503e-01 -1.40432594e-02
 -2.24355340e-01 -3.68011557e-02  1.17328286e-01  2.51063168e-01
  1.58731401e-01  2.37444732e-02  8.55810195e-03 -1.19369231e-01
  6.22836351e-02 -1.32330328e-01 -4.01614122e-02  8.58626291e-02
  6.66504130e-02  2.27787849e-02  1.98545139e-02 -1.27459854e-01
 -1.01189157e-02  4.21346314e-02 -9.74158570e-02 -7.21140653e-02
  2.26823483e-02 -9.74298418e-02 -7.52763748e-02 -7.97293708e-02
  2.05383703e-01  5.06725609e-02 -1.06253736e-01 -1.02658682e-01
  1.54586196e-01 -1.51026949e-01 -4.97595593e-02  3.56713198e-02
 -1.61045000e-01 -1.51682779e-01 -3.31603676e-01 -4.41621281e-02
  4.37960625e-01  2.32195761e-02 -2.12055132e-01  4.31932658e-02
 -2.98166908e-02  3.03825140e-02  1.52958691e-01  1.70186877e-01
 -1.05280075e-02  3.79564129e-02 -7.98230097e-02 -3.33914571e-02
  2.05887780e-01 -7.10658059e-02 -2.79659666e-02  1.65354893e-01
 -9.19550308e-04  3.57649401e-02  6.24814443e-02  1.03189899e-02
 -2.38271579e-02 -7.79548008e-03 -1.40849173e-01 -4.19681892e-02
  1.55066764e-02 -1.05752908e-02 -1.38490424e-02  8.06845576e-02
 -1.81089550e-01  9.87423435e-02  7.08472654e-02  2.68800445e-02
  4.27521914e-02  2.23455373e-02 -5.03929257e-02 -9.21549425e-02
  1.13178506e-01 -2.10981011e-01  8.75090584e-02  1.74054310e-01
 -5.68724237e-02  1.35582283e-01  5.80674894e-02  9.96014699e-02
 -7.33318105e-02  1.63301472e-02 -1.51665911e-01 -2.52902508e-02
  1.06991164e-01 -5.11135757e-02  7.35037252e-02 -2.91972794e-02]