[-0.13352962  0.06973969  0.07011306 -0.04771281 -0.13832724 -0.04907969
  0.00220453 -0.12490781  0.06706171 -0.07398456  0.21952903 -0.10863197
 -0.1911193  -0.07165952 -0.04100349  0.23011671 -0.13976721 -0.12123282
 -0.08025353 -0.01132796  0.08197837  0.00874129  0.00296226  0.01196471
 -0.11991153 -0.29991814 -0.04150558 -0.04385671  0.00859758 -0.0298758
 -0.04443394  0.04108886 -0.1636077  -0.06072358  0.09189701  0.08179908
 -0.00850615 -0.10217146  0.1649671  -0.0029887  -0.29839849 -0.00850255
  0.13302548  0.24899469  0.20470701  0.03728849 -0.00202604 -0.13375525
  0.177117   -0.22911003 -0.04777167  0.05822228  0.02223659 -0.00415015
  0.03900048 -0.12214413  0.06234387  0.10233296 -0.17375894 -0.0670765
  0.08290339 -0.07850011 -0.0575789  -0.11739442  0.20480847  0.05775731
 -0.12694766 -0.13130367  0.12762706 -0.11498339 -0.0621983   0.05934763
 -0.13737307 -0.15334976 -0.36068627 -0.04205458  0.46666214  0.09764579
 -0.17175652  0.0280651   0.00732709  0.07116499  0.18281518  0.16883942
 -0.01336612  0.0432841  -0.08777769 -0.0190502   0.21263488 -0.09910815
 -0.02098641  0.17895648  0.01635839  0.05372908  0.00567944  0.05247969
 -0.09828669  0.01064085 -0.15943916 -0.05000861  0.06458534  0.01137946
  0.06631428  0.17174916 -0.18738288  0.0879463  -0.00327493  0.03221377
  0.018151   -0.0454394  -0.01844669 -0.02975727  0.03326489 -0.19688761
  0.09749414  0.19439268 -0.00611946  0.0706757   0.13154426  0.00326771
 -0.00808442  0.03638244 -0.18933888 -0.04171446  0.08966639 -0.03711527
  0.08823936 -0.03039468]