[-0.1497101   0.03093894  0.06297208 -0.02847947 -0.07944579 -0.08579709
  0.01336675 -0.15568936  0.11616405 -0.07305486  0.24722879 -0.07815379
 -0.22278328 -0.12465032 -0.0012323   0.24518692 -0.14715733 -0.12243365
 -0.07762673 -0.00615102 -0.00158968  0.00629196  0.05918991  0.07593294
 -0.0974296  -0.36520147 -0.1074637  -0.07919019 -0.06736197  0.00223262
 -0.0674153   0.09204682 -0.1628568  -0.08810716  0.09418472  0.06406821
 -0.01633309 -0.06707563  0.18389677  0.00325716 -0.25554809 -0.0343065
  0.14518838  0.23191281  0.19677161  0.00461068  0.03954714 -0.13687323
  0.10855013 -0.14761423  0.00902599  0.08266815  0.05170739  0.02164249
  0.02851447 -0.11194038  0.01172906  0.08676597 -0.10871982 -0.06019523
  0.07405028 -0.07519453 -0.09481483 -0.07830293  0.21685152  0.09521861
 -0.11027938 -0.16336051  0.13584071 -0.13083079 -0.06680606  0.05115291
 -0.19015799 -0.14913909 -0.33415037 -0.04728223  0.40480375  0.01491342
 -0.20050862  0.03533649 -0.06277148  0.02708304  0.12871866  0.16305377
  0.01272181  0.03113361 -0.06950762 -0.03399856  0.22129007 -0.06805366
 -0.01995615  0.16730098  0.01232055  0.02169518  0.0765925   0.02421771
 -0.03324814 -0.0120173  -0.17077322 -0.04145625  0.01641449 -0.01869098
  0.00367177  0.07844237 -0.20124589  0.08855092  0.05591767  0.02129838
  0.0480858  -0.00599582 -0.06878967 -0.08649596  0.07845103 -0.20047767
  0.14823641  0.15177006 -0.00616062  0.10334106  0.05796366  0.10123765
 -0.06902941  0.02897577 -0.13578485 -0.01573171  0.11909504 -0.00804205
  0.09323066 -0.02955184]