[-0.12707028  0.03344754  0.04187225 -0.03973822 -0.09622809 -0.05311585
 -0.00452235 -0.1471839   0.12795328 -0.09803464  0.23876028 -0.08058454
 -0.20359981 -0.11262108 -0.01463395  0.23219979 -0.15824042 -0.12120866
 -0.05741711 -0.03663399  0.04134045  0.01617333  0.0147526   0.03585352
 -0.1359631  -0.3356199  -0.12159947 -0.05681572 -0.04353521  0.01163198
 -0.06708353  0.09565781 -0.15265076 -0.07208937  0.1084754   0.08432935
  0.00953491 -0.08506524  0.14440732  0.01074664 -0.2448107  -0.00556011
  0.13819091  0.23294477  0.20645495  0.00756996  0.01671256 -0.13136148
  0.13608444 -0.11955934 -0.01156158  0.09659469  0.05263326  0.03555866
  0.04795807 -0.09789485  0.04004126  0.10842534 -0.10758603 -0.08605158
  0.06792387 -0.0721989  -0.05109438 -0.08251383  0.1918918   0.08620059
 -0.10234816 -0.17411985  0.12616239 -0.12396225 -0.08266189  0.0462476
 -0.19788215 -0.14014928 -0.32129806 -0.05458916  0.44783035  0.05042711
 -0.20129137  0.05392962 -0.02091428  0.02392185  0.18940313  0.17387457
  0.02345818  0.02262351 -0.06995263 -0.03378825  0.24381161 -0.06118133
 -0.03651324  0.16626079 -0.00092174  0.03735101  0.06879497  0.01541194
 -0.04265016  0.00831694 -0.12933479 -0.05591168  0.02111228 -0.02633241
  0.00117004  0.10304936 -0.18826678  0.10210552  0.04904276  0.05947054
  0.02574406 -0.01423578 -0.03807276 -0.03002046  0.07066401 -0.22462539
  0.13696562  0.14661415 -0.03427823  0.10555305  0.06439534  0.08874656
 -0.0609814   0.01373811 -0.15198256 -0.03889217  0.08225942 -0.01947819
  0.10959796 -0.03585483]