[-6.05070265e-03  1.44058883e-01  8.54174122e-02  3.52188386e-03
 -5.29021025e-02 -1.27019286e-02 -3.76254842e-02 -1.49714395e-01
  1.27130374e-01 -8.79148841e-02  2.97414452e-01  1.29991022e-04
 -1.92952275e-01 -1.92805037e-01  1.88515824e-03  1.51491582e-01
 -2.06208855e-01 -1.11031294e-01 -1.38471937e-02 -3.31508256e-02
  6.75437376e-02 -1.82354879e-02  7.01803565e-02 -4.93874354e-03
 -1.25466436e-01 -3.29481095e-01 -1.08167224e-01 -1.34240866e-01
  3.40420902e-02 -7.92719051e-02 -1.00010075e-01  8.59283060e-02
 -1.46276742e-01 -1.01442777e-01  3.66123691e-02  2.82862643e-03
 -2.45767813e-02 -1.90298893e-02  1.51770651e-01 -4.03307453e-02
 -1.43959522e-01  9.86052528e-02  4.07611579e-02  2.37891629e-01
  2.13713154e-01  4.44357395e-02  1.49603309e-02 -1.07228711e-01
  1.28993377e-01 -1.14750378e-01  5.74514084e-02  1.21506691e-01
  1.31755576e-01  5.99393807e-02  6.58008978e-02 -1.54540300e-01
 -2.13348325e-02  5.59176616e-02 -1.30698532e-01 -1.05369603e-02
  2.96808667e-02 -5.23952134e-02 -1.68306623e-02 -6.29146174e-02
  1.48372337e-01  4.63348590e-02 -6.55747280e-02 -1.39192447e-01
  1.12900160e-01 -7.76487216e-02 -5.20287529e-02  5.54856248e-02
 -2.05249310e-01 -1.55715749e-01 -2.49557450e-01  1.99061465e-02
  3.26406807e-01  1.13946520e-01 -1.92084670e-01  2.74427291e-02
 -4.35284041e-02 -2.79890629e-03  7.57791102e-02  6.95032850e-02
 -4.10354175e-02  2.28201579e-02 -7.04080835e-02  3.78416143e-02
  1.31011918e-01 -8.06732997e-02 -5.61400950e-02  2.20339254e-01
 -3.36844884e-02  9.07398388e-02  4.45474200e-02 -4.92203124e-02
 -3.83956730e-02  5.93260899e-02 -1.91782311e-01 -2.98341159e-02
  6.90580532e-03 -5.26975989e-02 -2.05237418e-02  8.28940645e-02
 -1.56789213e-01  6.19549453e-02  2.91731954e-02  5.32914177e-02
 -2.13608257e-02 -1.12123983e-02 -1.18521146e-01 -9.77098662e-03
  1.21460222e-01 -2.49957830e-01  2.26919770e-01  1.86518595e-01
  5.85450791e-02  9.72571895e-02  8.83563831e-02  8.85788072e-03
 -1.75013151e-02 -7.56884143e-02 -1.69550613e-01 -2.14220639e-02
  1.45627245e-01 -2.80261170e-02  7.43706152e-02 -1.80222820e-02]