[-0.04567772  0.17248385  0.0599523  -0.10202125 -0.05631709 -0.03714209
 -0.09010661 -0.09334429  0.07258122 -0.08040148  0.29250529 -0.02812332
 -0.17783281 -0.10243092 -0.05333495  0.1287968  -0.17376544 -0.07687169
 -0.10335741 -0.08402655  0.01330347  0.01861956  0.05123107  0.00623812
 -0.14384018 -0.28229743 -0.112489   -0.12255808 -0.02771038 -0.11096174
 -0.03548459  0.03329029 -0.14640364 -0.04291772  0.04041971  0.04347808
 -0.06900381 -0.01267006  0.18145931  0.08095434 -0.10159367  0.07180081
  0.02616908  0.3098987   0.27173218  0.03140357  0.00917855 -0.07169279
  0.13717818 -0.18339054  0.0888664   0.11683922  0.15649167  0.07832616
  0.11899513 -0.11146698  0.03613726  0.09281909 -0.15248057 -0.0464604
  0.03034652 -0.07174521 -0.01963127 -0.05306698  0.19642504  0.12660049
 -0.10166905 -0.06404333  0.17751059 -0.0613931  -0.01904503  0.05527636
 -0.13737632 -0.13969956 -0.22000027  0.0472386   0.37701783  0.16981249
 -0.19918174 -0.02279888 -0.0646662  -0.03277104  0.07654795  0.02303712
 -0.11993008  0.00658558 -0.05264837  0.06744114  0.14162074 -0.06889124
 -0.06122321  0.18240435 -0.01856949  0.05844216  0.09076964 -0.05953733
 -0.08601356  0.00516937 -0.15432766  0.00815144 -0.04983778 -0.11951067
 -0.04319891  0.05657879 -0.13502981  0.10398453  0.04411977 -0.04240274
 -0.12167136 -0.00607332 -0.07997736  0.00567489  0.1352284  -0.25648686
  0.18724702  0.15106185  0.000897    0.13742737  0.10428846  0.02064206
 -0.03213682 -0.07450312 -0.1050741  -0.06612998  0.07673705  0.02758968
  0.11496224 -0.00713664]