[-0.05393614  0.20046473  0.09681595 -0.04106042 -0.00345792  0.00131655
 -0.01733355 -0.0845997   0.15977195 -0.08198611  0.26966554  0.07304703
 -0.18934719 -0.1275688  -0.0375418   0.11238655 -0.16265692 -0.09128069
 -0.12371369 -0.04806028 -0.00257899  0.02195845  0.00875709  0.01775584
 -0.13387161 -0.28604671 -0.05115803 -0.10176881  0.05359739 -0.10614485
 -0.08235341  0.05102186 -0.13832676 -0.07422258 -0.00580415  0.01378991
 -0.07779037 -0.00814804  0.21764699  0.07420345 -0.15291603  0.06854248
  0.00890966  0.30767891  0.29742721  0.01451546  0.00511095 -0.08480092
  0.19801787 -0.22889228  0.04981289  0.1483651   0.14428794  0.13292904
  0.09165525 -0.1949856  -0.03125622  0.07391175 -0.17173475  0.00740288
 -0.04248526 -0.09689131 -0.00077493 -0.06368505  0.15558276  0.11455268
 -0.10382851 -0.0960196   0.1782728  -0.1273986  -0.01487016  0.08141924
 -0.11349747 -0.12678836 -0.25820616  0.04548023  0.31462961  0.19503038
 -0.16115181 -0.02624955 -0.11339481 -0.06909793  0.01756058  0.04486229
 -0.12997614 -0.00626208 -0.00990977  0.01030924  0.16716185  0.02613335
 -0.06163574  0.21168242 -0.01771225  0.05630809  0.03752731 -0.0209578
 -0.12797695 -0.00288243 -0.15827647 -0.02530229 -0.04529739 -0.13334976
  0.02700338  0.09916081 -0.19760668  0.16627239  0.03386747  0.04761693
 -0.01999609  0.01389491 -0.08807418  0.03143174  0.16154292 -0.2275759
  0.27378032  0.15440129  0.04250816  0.11185294  0.11728138  0.00315954
 -0.05726805 -0.05695349 -0.10296321 -0.062765    0.0815172  -0.0472171
  0.12334818  0.00358114]