[-1.95826627e-02  1.64393380e-01  1.02975838e-01 -3.70665379e-02
 -1.11285839e-02  2.76660168e-04 -5.19951284e-02 -9.71576124e-02
  1.43915802e-01 -7.59983584e-02  2.98279792e-01  2.26387214e-02
 -1.75951287e-01 -1.33343950e-01 -5.30006364e-02  1.09864317e-01
 -1.94071487e-01 -5.74803837e-02 -7.60657415e-02 -3.55375558e-02
  3.03754415e-02  4.82065193e-02  5.86004741e-02 -1.79360546e-02
 -1.21203564e-01 -2.98797995e-01 -6.98086768e-02 -9.59402621e-02
  3.34254541e-02 -8.97101983e-02 -5.15955649e-02  9.40880775e-02
 -1.53682396e-01 -7.14834332e-02  1.42356297e-02  2.75919028e-02
 -2.22554468e-02 -7.79530872e-03  1.81137979e-01  5.17309979e-02
 -1.57917708e-01  8.16014335e-02  3.81526239e-02  2.74166226e-01
  2.75737822e-01  2.14940943e-02 -2.49920636e-02 -9.70300287e-02
  1.65597454e-01 -1.75189808e-01  4.84975874e-02  1.44368783e-01
  1.27739891e-01  7.93915987e-02  9.33793560e-02 -1.33574039e-01
 -1.53271845e-02  7.61650950e-02 -1.41592205e-01 -2.68767178e-02
  1.31405620e-02 -5.65959774e-02  2.73712520e-02 -5.11552654e-02
  1.23950996e-01  9.26853269e-02 -7.00256005e-02 -1.21368222e-01
  1.44313499e-01 -9.35561284e-02 -5.95125370e-02  9.22453031e-02
 -1.43249914e-01 -1.25169322e-01 -2.55641669e-01  2.02047303e-02
  3.48438710e-01  1.56788826e-01 -1.65319279e-01  1.06214266e-02
 -7.44263083e-02 -6.38654530e-02  6.56428486e-02  6.02752045e-02
 -8.88851359e-02  1.80584323e-02 -3.59656774e-02  2.29114871e-02
  1.63537964e-01  3.31063243e-03 -8.36914182e-02  2.09147319e-01
 -3.36932801e-02  6.57414421e-02  5.53034246e-02 -4.68343012e-02
 -8.50767642e-02  3.17381136e-02 -2.12116316e-01 -4.99456041e-02
 -3.97686735e-02 -7.43541941e-02 -1.77867862e-03  1.02629744e-01
 -1.68847606e-01  1.17906310e-01  3.72212864e-02  2.34034881e-02
 -1.01271197e-02  7.16295838e-03 -6.94131106e-02  4.01141904e-02
  1.43007979e-01 -2.26069972e-01  2.31354833e-01  1.17530458e-01
  5.61993197e-02  1.05317548e-01  1.27262324e-01  2.47167107e-02
 -3.61029357e-02 -6.09817617e-02 -1.15958013e-01 -6.81814551e-02
  7.87761807e-02 -1.82964709e-02  1.34598359e-01 -1.27244415e-02]