[-3.28158885e-02  1.42756432e-01  8.72421861e-02 -6.87368214e-02
 -4.83534671e-02  1.27334045e-02 -7.28491172e-02 -7.15357363e-02
  1.29291400e-01 -1.25967890e-01  2.77266979e-01  3.04100756e-02
 -1.69717073e-01 -1.24323331e-01 -3.25400420e-02  1.00320719e-01
 -1.80164739e-01 -8.56461003e-02 -4.38422300e-02 -6.92625046e-02
  1.58733409e-02  2.00746413e-02  2.90315952e-02  2.38237791e-02
 -1.57122537e-01 -2.99000323e-01 -6.01243041e-02 -1.38418600e-01
  4.11657505e-02 -1.03918947e-01 -5.97209930e-02  7.14281127e-02
 -1.13873594e-01 -2.49509066e-02 -9.73516726e-04  7.21217841e-02
 -1.17787942e-02  4.27699983e-02  1.50894865e-01  7.70338178e-02
 -1.42700806e-01  1.05988935e-01  2.24843007e-02  3.14691693e-01
  2.81966597e-01  3.91197354e-02  1.78781487e-02 -6.23729117e-02
  1.83418393e-01 -2.29834557e-01  8.59516859e-02  1.10060863e-01
  1.67357832e-01  4.48339880e-02  1.41599998e-01 -1.54943660e-01
 -2.99825706e-02  4.95552234e-02 -1.50015607e-01  3.05173937e-02
  6.64284313e-03  9.98991448e-03  1.47236427e-02 -4.29689474e-02
  1.77603602e-01  1.01760268e-01 -1.08393751e-01 -7.18783289e-02
  1.45540103e-01 -1.32011339e-01 -4.84065674e-02  9.57311019e-02
 -1.32704720e-01 -1.15594603e-01 -2.21649915e-01  4.30167429e-02
  3.86044830e-01  1.85176477e-01 -1.53339908e-01  1.96232386e-02
 -7.17456713e-02 -6.78936243e-02  4.06668000e-02  3.35715525e-02
 -1.20747738e-01  2.38063764e-02 -2.26956513e-02  5.04157022e-02
  1.55762896e-01  2.05005892e-03 -3.91826443e-02  2.06607863e-01
 -1.72720607e-02  7.83758983e-02  4.77684699e-02 -5.04413731e-02
 -1.05563417e-01  3.37567937e-04 -1.78839728e-01 -6.21333010e-02
 -6.28945678e-02 -1.20179035e-01  4.41943342e-03  5.65397553e-02
 -2.22244382e-01  1.51367277e-01  1.08954972e-02  1.42394530e-03
 -3.59151624e-02  6.81373775e-02 -9.38344002e-02  5.77118509e-02
  1.65406451e-01 -2.56743014e-01  1.96863353e-01  1.55066356e-01
  7.70794377e-02  1.06229857e-01  1.23762503e-01 -1.93361845e-02
 -1.41995866e-02 -6.10460527e-02 -8.59749466e-02 -6.73182234e-02
  4.30109575e-02 -8.04992318e-02  1.10837363e-01  1.57010552e-04]