[-0.01075794  0.15153898  0.09564494 -0.01066258 -0.05848979  0.00572811
 -0.04674886 -0.12274934  0.10265054 -0.09587085  0.29433897  0.00573565
 -0.21320401 -0.15691784  0.00300956  0.10747836 -0.20488198 -0.09979282
 -0.06328474 -0.02042304  0.03298323 -0.00676284  0.07102829 -0.02048605
 -0.13422734 -0.33650553 -0.08815745 -0.13248272  0.02944793 -0.06646492
 -0.09795203  0.07714268 -0.13178422 -0.09421965  0.02593675  0.01595737
  0.00229346  0.00512838  0.13999397  0.00479086 -0.15991049  0.11357172
  0.02722922  0.2759738   0.2725428   0.04470121  0.02406499 -0.08534738
  0.15255029 -0.17132559  0.05590935  0.14421979  0.15593512  0.05942437
  0.09338869 -0.14944763 -0.01916153  0.08426024 -0.10347646 -0.01456898
  0.04070083 -0.01333829  0.02871611 -0.06148486  0.16741097  0.05520297
 -0.09550875 -0.10014786  0.10334355 -0.09044556 -0.07118096  0.03333148
 -0.21604834 -0.12490124 -0.27073893  0.01730558  0.31490046  0.13379084
 -0.2002482   0.01218701 -0.08977892  0.0216603   0.05608962  0.05755097
 -0.07419594  0.01767345 -0.05861316  0.00304112  0.152685   -0.0529076
 -0.04476721  0.21424825 -0.02504287  0.05284382  0.0705903  -0.04577566
 -0.06691208  0.00059676 -0.20343915 -0.02519912 -0.04540972 -0.10233308
 -0.02641434  0.09080867 -0.21501522  0.08805446  0.00446444  0.05102934
 -0.01141536 -0.01443686 -0.07143541  0.01782453  0.13882843 -0.25501978
  0.21118204  0.20221713  0.05212371  0.09702664  0.10184165 -0.00201295
 -0.05040246 -0.02448264 -0.13108285 -0.06931751  0.09665754 -0.03285262
  0.0629971  -0.01799203]