[-1.30971387e-01  6.58767447e-02  7.25834966e-02 -5.00731431e-02
 -1.33477926e-01 -5.56175709e-02  6.97841868e-03 -1.29109040e-01
  9.86929908e-02 -8.18434283e-02  2.27850899e-01 -1.00589789e-01
 -2.09405288e-01 -7.72803575e-02 -3.95194106e-02  2.29276732e-01
 -1.47416443e-01 -1.15229942e-01 -7.35402852e-02 -5.48352581e-03
  1.02304578e-01 -3.13823955e-04  9.24263429e-03  7.00040301e-03
 -1.30815774e-01 -3.04864168e-01 -5.35387360e-02 -5.07924221e-02
  3.90015543e-03 -9.96586308e-03 -3.65416370e-02  5.91608658e-02
 -1.61938235e-01 -8.01397562e-02  8.28054696e-02  7.67549351e-02
 -5.20955864e-03 -9.64294299e-02  1.69602737e-01 -1.22225434e-02
 -2.88489282e-01 -1.78287104e-02  1.25403047e-01  2.36849591e-01
  1.81618586e-01  2.61021759e-02  2.13957112e-02 -1.43794015e-01
  1.69220895e-01 -2.19654754e-01 -5.69136217e-02  6.88759834e-02
  4.31652442e-02  3.64961848e-03  5.04174717e-02 -1.27651304e-01
  6.48365915e-02  1.07117109e-01 -1.72378585e-01 -5.52866347e-02
  8.43187496e-02 -6.40123412e-02 -4.82022129e-02 -1.12824976e-01
  1.88809127e-01  5.23955487e-02 -1.18079543e-01 -1.23765491e-01
  1.35779098e-01 -1.05206065e-01 -5.68185411e-02  5.63873053e-02
 -1.53253406e-01 -1.65015370e-01 -3.56041640e-01 -6.53527081e-02
  4.55613852e-01  9.64493379e-02 -1.81232318e-01  1.70728732e-02
 -8.27464461e-03  6.25995547e-02  1.77512020e-01  1.56668350e-01
 -5.29614231e-03  4.55500595e-02 -9.23977420e-02 -1.22041628e-02
  2.10522324e-01 -1.11733280e-01 -5.61460573e-03  1.91947684e-01
  3.62671614e-02  5.25709167e-02 -4.11047804e-04  4.41693291e-02
 -9.91495401e-02  1.47337494e-02 -1.65943667e-01 -4.04638201e-02
  5.17837368e-02  1.11271767e-02  6.45063221e-02  1.57036915e-01
 -1.80037379e-01  7.88144171e-02  8.46232474e-03  3.06130797e-02
  4.27475525e-03 -3.95954549e-02 -2.79297773e-02 -4.06998470e-02
  4.36979942e-02 -1.74394310e-01  8.92581269e-02  1.97703242e-01
 -2.12538224e-02  7.37782493e-02  1.18048027e-01  1.50646782e-02
 -1.70463286e-02  2.51975115e-02 -1.81611359e-01 -3.69989164e-02
  8.37400481e-02 -3.33664678e-02  7.37063885e-02 -3.45387235e-02]