[-1.02885127e-01  5.27650379e-02  5.53901382e-02 -1.63490307e-02
 -1.01650394e-01 -6.49716035e-02  5.52491024e-02 -1.41149119e-01
  1.54681951e-01 -1.25638172e-01  2.27643833e-01 -7.48918578e-02
 -2.27981091e-01 -9.29575711e-02 -1.33032203e-02  2.29559377e-01
 -1.45555004e-01 -9.96565744e-02 -8.39696154e-02 -2.64349934e-02
  1.96127631e-02  1.37029085e-02  2.96183378e-02  5.36389351e-02
 -1.20009243e-01 -3.53435397e-01 -1.03711128e-01 -5.58841228e-02
 -6.99746832e-02 -6.13484625e-03 -4.32015918e-02  1.12455167e-01
 -1.11183822e-01 -6.25795200e-02  6.12476282e-02  6.61501437e-02
 -2.56805103e-02 -7.33816698e-02  1.53356954e-01  3.70473275e-03
 -2.65992761e-01 -4.12936462e-03  1.13533549e-01  2.51626134e-01
  1.83310926e-01 -1.19058006e-02  3.06657702e-02 -1.42450854e-01
  1.62540272e-01 -1.63336098e-01 -2.02908609e-02  5.00258617e-02
  7.61045963e-02  2.04623882e-02  7.53929019e-02 -7.71295503e-02
 -7.28915771e-03  1.43002883e-01 -1.22237720e-01 -5.44784144e-02
  3.88048291e-02 -6.96000904e-02 -5.71414828e-02 -1.03667676e-01
  1.77601203e-01  1.08961694e-01 -1.07996069e-01 -1.14268877e-01
  1.46380350e-01 -1.66597530e-01 -9.00461078e-02  5.36170974e-02
 -1.41508058e-01 -1.68432131e-01 -3.13109845e-01 -5.81559427e-02
  4.13322657e-01  7.54420459e-02 -1.85547456e-01 -9.22996551e-03
 -1.53869139e-02  3.15843746e-02  1.68699250e-01  1.85184896e-01
 -6.06162101e-03  1.44256921e-02 -5.96730374e-02 -2.56836023e-02
  2.39919290e-01 -7.29555115e-02 -3.44383307e-02  2.09406883e-01
  2.60918979e-02  3.98945920e-02  2.91921441e-02 -9.79365595e-03
 -4.66559120e-02  1.59167852e-02 -1.56105354e-01 -4.06648889e-02
  3.14764120e-02 -3.55124362e-02  3.85000574e-04  7.42866769e-02
 -2.03332111e-01  1.08987808e-01  4.57817204e-02  4.79549356e-02
  6.86190128e-02 -2.30091368e-03 -4.80214283e-02 -3.36793400e-02
  9.23925489e-02 -2.19802245e-01  1.14726007e-01  1.52783602e-01
 -4.74382900e-02  1.07272305e-01  3.72373350e-02  6.21184297e-02
 -4.75231558e-02 -3.17200199e-02 -1.52974248e-01 -1.99525580e-02
  1.31564021e-01 -3.47149037e-02  7.82404840e-02 -5.20618930e-02]