[-2.73647588e-02  1.59789369e-01  9.75270197e-02 -4.63466160e-02
 -5.26215211e-02 -3.27589586e-02 -4.67891172e-02 -1.04397766e-01
  8.23705420e-02 -7.45968595e-02  2.69585222e-01  2.37892307e-02
 -2.27959022e-01 -1.54019073e-01  1.41967777e-02  1.03090279e-01
 -1.71344221e-01 -1.06672324e-01 -8.96487385e-02 -5.64514883e-02
  3.49868536e-02  1.57658290e-02  6.66657165e-02 -1.26703558e-02
 -1.46211505e-01 -2.93819845e-01 -9.25510004e-02 -1.12016059e-01
  7.57023552e-03 -9.61093828e-02 -7.54555687e-02  9.51474532e-02
 -1.22372322e-01 -8.12197477e-02  4.53424789e-02  1.77539326e-02
  1.18412827e-04  1.08905006e-02  1.59689754e-01  8.05865973e-03
 -1.67302236e-01  8.23262408e-02  7.78353214e-02  2.58892924e-01
  2.82223433e-01  3.96785401e-02  2.35719066e-02 -5.75072765e-02
  1.50289282e-01 -1.84007272e-01  6.77757487e-02  1.41712055e-01
  1.63099155e-01  7.14684352e-02  1.18772142e-01 -1.53694093e-01
 -2.05324888e-02  8.74241665e-02 -1.16514735e-01 -1.04872892e-02
  3.61556634e-02 -6.16349876e-02 -3.16416519e-03 -5.95359206e-02
  1.41934812e-01  5.46091273e-02 -1.05875842e-01 -9.23328921e-02
  1.09998822e-01 -1.07538097e-01 -7.32951686e-02  7.71496519e-02
 -1.89709291e-01 -1.17682435e-01 -2.64321297e-01  2.57101711e-02
  3.03773195e-01  1.54345542e-01 -1.72830537e-01  1.99873149e-02
 -6.54340163e-02  1.33559376e-03  2.59206332e-02  2.36350559e-02
 -1.21155143e-01  3.49473022e-02 -4.65214588e-02  2.89200936e-02
  1.64350078e-01 -2.55213808e-02 -4.84560616e-02  2.07635924e-01
 -1.73546858e-02  7.21097291e-02  6.86550215e-02 -3.46101746e-02
 -4.97366600e-02 -3.62889245e-02 -1.90929800e-01 -1.23817986e-02
 -3.78227495e-02 -1.37685046e-01 -2.58991569e-02  7.79378936e-02
 -1.97042614e-01  7.66410679e-02  5.91953611e-03  3.29156704e-02
 -7.03953430e-02  8.70884210e-03 -8.21000859e-02  2.72007827e-02
  1.26549557e-01 -2.48295292e-01  2.08082154e-01  2.00850129e-01
  2.87435334e-02  8.10846537e-02  1.12508334e-01 -4.54060081e-03
 -3.74163464e-02 -5.89994080e-02 -8.29014257e-02 -9.00399908e-02
  1.23202719e-01 -2.87953299e-02  1.07626930e-01 -1.27952909e-02]