[-0.01687203  0.13909684  0.07853933 -0.01280552 -0.05023203 -0.03307694
 -0.03445622 -0.12680982  0.11755752 -0.09040797  0.2906895   0.02720333
 -0.18589155 -0.20526464  0.04030357  0.12855217 -0.17800508 -0.09531831
 -0.03442503 -0.04879716  0.07050228 -0.02275985  0.07733943  0.0194046
 -0.12195181 -0.31929928 -0.10700529 -0.14643785  0.04416857 -0.08964494
 -0.07848889  0.07868197 -0.13902648 -0.10102965  0.02358256  0.00114434
 -0.02541815 -0.00405287  0.13953613 -0.02256373 -0.13294612  0.07752355
  0.01846253  0.23319057  0.21907179  0.03618818  0.03871796 -0.07039689
  0.12496903 -0.142992    0.05085626  0.10854733  0.15032114  0.05257436
  0.09947336 -0.16167085 -0.00780235  0.05053321 -0.15379281 -0.00080501
  0.00903925 -0.05348194 -0.03345884 -0.04678523  0.15520281  0.05529978
 -0.0705188  -0.11551478  0.12712315 -0.07550562 -0.02454583  0.08145354
 -0.20258127 -0.15566759 -0.22623733  0.04277308  0.31357524  0.14189023
 -0.17332745  0.02389383 -0.07201227  0.01060791  0.03000327  0.02632363
 -0.06735434  0.02613184 -0.0611225   0.05954155  0.09024771 -0.07179108
 -0.03705023  0.22673582 -0.02764576  0.08476474  0.04322559 -0.06007446
 -0.04320044  0.03604933 -0.16870244 -0.028649    0.01519173 -0.09050073
  0.00209809  0.0601995  -0.17352884  0.06285622  0.01303686  0.0356308
 -0.03841878  0.00830939 -0.12359978 -0.00115976  0.11473624 -0.25174114
  0.22800803  0.20294003  0.04848125  0.09721743  0.07219932  0.00046745
 -0.02375479 -0.09258133 -0.12895226 -0.02279014  0.13651618 -0.03493715
  0.05352716 -0.02709695]