[-0.13051741  0.07628864  0.07148547 -0.04940842 -0.13941406 -0.04560592
 -0.00406741 -0.12947641  0.06736274 -0.0700511   0.22345801 -0.1038805
 -0.19244264 -0.08178733 -0.04164405  0.22919026 -0.1378608  -0.12558657
 -0.07248016 -0.00781188  0.08501296  0.01359162  0.00840447  0.01299063
 -0.12769593 -0.30110627 -0.04542126 -0.04824724  0.00888643 -0.03346102
 -0.04727868  0.04311994 -0.16870768 -0.05835666  0.09143452  0.08156224
 -0.00258882 -0.10207482  0.1599213  -0.0057292  -0.2984207  -0.00723078
  0.13024893  0.25224239  0.20224877  0.03273794  0.00089041 -0.13784416
  0.17663668 -0.22526097 -0.03867166  0.06216032  0.01994433 -0.00493996
  0.03548848 -0.1227929   0.06335322  0.10233911 -0.17402226 -0.06409638
  0.08031589 -0.07407916 -0.05654338 -0.11800013  0.19807671  0.05541843
 -0.12294263 -0.13325191  0.1211227  -0.11594941 -0.05968997  0.06215614
 -0.14533877 -0.15665045 -0.36417979 -0.04398597  0.46400103  0.10102647
 -0.18009374  0.03184342  0.00674554  0.07256062  0.18318635  0.16945982
 -0.00891726  0.04825781 -0.09470326 -0.0111022   0.21687579 -0.10664114
 -0.01691085  0.18944171  0.0184896   0.05541467  0.00625932  0.05515191
 -0.0963122   0.00989382 -0.15800063 -0.04972151  0.06348097  0.01642368
  0.06138863  0.17329805 -0.18908186  0.08858296  0.00344965  0.03249466
  0.01742146 -0.0504715  -0.01479545 -0.0386073   0.03507259 -0.19209053
  0.09799351  0.19385725 -0.00506871  0.07410138  0.12799615  0.00655132
 -0.01125551  0.02763729 -0.18453382 -0.03668425  0.09372909 -0.03922573
  0.08485039 -0.03192436]