[-0.14109996  0.04907227  0.05191914 -0.04278324 -0.13300198 -0.0634326
 -0.03388224 -0.18733341  0.07786708 -0.11342907  0.20371416 -0.12487399
 -0.1780183  -0.06134657 -0.0641823   0.2347759  -0.1673076  -0.12863627
 -0.07391264 -0.05102124  0.04803987  0.00546817  0.00072033  0.01522637
 -0.16041993 -0.31224379 -0.08077018 -0.06909108 -0.04471853  0.00063459
 -0.06963817  0.0718226  -0.16559257 -0.0577088   0.0909669   0.09320289
  0.03100875 -0.09868065  0.14111018  0.00337944 -0.24240685  0.02706065
  0.14793958  0.23000745  0.19077156  0.02406221  0.02696845 -0.14693539
  0.18155399 -0.19818155 -0.01899669  0.03894178  0.03906691  0.01038711
  0.04692068 -0.11386917  0.03879196  0.1152872  -0.14154266 -0.04244275
  0.10178875 -0.06730064 -0.0769719  -0.11642475  0.22595349  0.12707184
 -0.12009817 -0.12250441  0.12817399 -0.10502022 -0.07258409  0.02267777
 -0.14352238 -0.14102159 -0.33881578 -0.03544652  0.471982    0.08444648
 -0.19285101  0.01350585 -0.00990831  0.06464916  0.19074008  0.15156426
  0.00329538  0.01655572 -0.06165946 -0.0074781   0.25350422 -0.07311711
 -0.0327456   0.16662131  0.0009201   0.03932136  0.01545484  0.04558429
 -0.10469228 -0.00420072 -0.12339796 -0.03499395  0.05277669  0.01164456
  0.02561946  0.13548486 -0.17831066  0.09158868 -0.01534673  0.0161704
  0.01399105 -0.04348344 -0.00817307 -0.00363178  0.05180195 -0.21658547
  0.11032201  0.16055642 -0.03190778  0.11446574  0.0751274   0.03244101
 -0.02843339  0.04497097 -0.18031685 -0.06870461  0.10284112 -0.02930541
  0.09547602 -0.02367468]