[-0.04727544  0.16095169  0.07823258 -0.03030801 -0.0011324  -0.03779524
 -0.04274445 -0.11676778  0.12561825 -0.08324788  0.29937339  0.04941414
 -0.15103911 -0.17862865 -0.00783562  0.10849082 -0.21408324 -0.09646545
 -0.08190704 -0.03799966  0.04295069  0.00155104  0.04904938 -0.01245693
 -0.16320258 -0.30092227 -0.10905186 -0.13276631  0.02835472 -0.07294553
 -0.06303894  0.04623574 -0.15412889 -0.08556592  0.02184946  0.02561295
 -0.0097315   0.01699739  0.17672996  0.04246504 -0.14874642  0.11908177
  0.04545529  0.2811926   0.27834347  0.05577745  0.02000128 -0.08350772
  0.16581666 -0.15754899  0.06779807  0.11923077  0.14905825  0.09292273
  0.09991158 -0.15915631 -0.01355436  0.05827741 -0.13675345 -0.03678709
 -0.0034147  -0.0336742   0.00879374 -0.02282347  0.16156128  0.08028457
 -0.08704702 -0.11297943  0.13433492 -0.09898969 -0.05119286  0.08151366
 -0.16003177 -0.12023474 -0.26371381  0.03822186  0.36158693  0.13535891
 -0.17307563  0.01883042 -0.09993369 -0.05387823  0.04760324  0.03778952
 -0.09477973  0.04429398 -0.05263086  0.03110071  0.17476593 -0.01226981
 -0.05286741  0.1963547  -0.01568855  0.07194182  0.05530324 -0.04721388
 -0.08136661  0.01998227 -0.17563286 -0.04382669 -0.02218825 -0.06839152
 -0.01562663  0.07958218 -0.19638351  0.12174451  0.03795058  0.01757443
 -0.06308445  0.01090562 -0.07803916  0.03965089  0.11780832 -0.25340256
  0.23644593  0.16981348  0.03741726  0.10864333  0.10916322 -0.01337656
 -0.0538722  -0.0426929  -0.12749748 -0.06140318  0.09024183 -0.02013744
  0.13716467 -0.00918691]