[-6.65033683e-02  1.68787792e-01  8.84990618e-02 -2.44943406e-02
 -2.14372110e-02 -2.85865255e-02 -4.36285026e-02 -1.07041456e-01
  1.38027117e-01 -6.12983182e-02  2.73229718e-01  4.61658910e-02
 -1.92874700e-01 -1.92687139e-01 -1.78066758e-03  1.09967567e-01
 -1.89535141e-01 -1.17993735e-01 -5.25002591e-02 -4.85087326e-03
  4.99594398e-02  1.18492870e-02  5.88039458e-02  9.40628722e-03
 -1.58417791e-01 -3.40638369e-01 -9.32115838e-02 -1.25218078e-01
 -1.23116747e-03 -7.57708997e-02 -1.15762770e-01  5.72920926e-02
 -1.72836170e-01 -9.47483554e-02  1.64059456e-02  3.03534605e-02
 -3.02351173e-02  1.66035742e-02  1.66612312e-01  2.26366017e-02
 -1.57711595e-01  6.31459579e-02  2.76151337e-02  2.52535194e-01
  2.69871026e-01  4.22578827e-02  2.09012721e-02 -1.13909058e-01
  1.27927229e-01 -1.56165153e-01  6.90108761e-02  1.50289088e-01
  1.25091627e-01  8.75019059e-02  9.11479071e-02 -1.84130833e-01
 -2.44958438e-02  4.93756346e-02 -1.20637976e-01 -3.57448235e-02
 -3.69916670e-02 -5.25945425e-02  5.17938519e-03 -3.74725722e-02
  1.65558174e-01  6.08172230e-02 -6.43303916e-02 -1.29050881e-01
  1.36522204e-01 -9.97216776e-02 -4.81830202e-02  7.98546821e-02
 -1.59878716e-01 -1.50844216e-01 -2.92474955e-01  2.73682009e-02
  3.18880707e-01  1.38856634e-01 -1.96816429e-01  3.70908193e-02
 -1.16933778e-01 -4.87662815e-02  5.32005094e-02  3.32777463e-02
 -1.00025117e-01  5.61486073e-02 -8.25509354e-02  3.72420065e-02
  1.67630702e-01 -2.80183498e-02 -4.36912030e-02  1.99535087e-01
 -1.22696310e-02  9.70415398e-02  7.99955651e-02 -3.86033319e-02
 -6.66343048e-02  3.61917354e-02 -1.90265134e-01 -3.17710713e-02
  3.62305506e-03 -7.97031969e-02 -1.27573786e-02  1.02182589e-01
 -1.93505332e-01  7.27763250e-02  5.29455654e-02  1.16909267e-02
 -5.01687415e-02 -1.22377891e-02 -1.13258176e-01 -1.02752270e-02
  1.21848226e-01 -2.53977358e-01  2.46931270e-01  1.69736624e-01
  3.65424380e-02  1.28837094e-01  1.09971635e-01  1.47167593e-04
 -6.24061339e-02 -6.83824047e-02 -1.23452365e-01 -1.68900471e-02
  1.33326977e-01 -7.28150550e-03  1.17280029e-01  3.83538310e-03]