[-0.12832275  0.09097118  0.09258121 -0.05516464 -0.14755724 -0.02016559
  0.00660054 -0.14634356  0.09566299 -0.0519433   0.22223453 -0.10326617
 -0.22286658 -0.06666189 -0.02954951  0.25835642 -0.16135339 -0.11671387
 -0.06785076 -0.0152955   0.05570682  0.0277391   0.02777125  0.00654938
 -0.08174009 -0.34019643 -0.05833115 -0.03622356  0.02254825  0.00816797
 -0.06249695  0.05744312 -0.16691549 -0.06492101  0.09323627  0.06586006
 -0.02344816 -0.13041659  0.14946929 -0.02995654 -0.29558566 -0.00674797
  0.12058695  0.22404337  0.18967915  0.02708171  0.00913422 -0.14819805
  0.1324859  -0.20694549 -0.05312305  0.07561717 -0.00951051  0.0006343
  0.0125673  -0.12033099  0.03302064  0.08740143 -0.16384768 -0.08723544
  0.08397795 -0.09665172 -0.05355546 -0.15648864  0.19761121  0.0624527
 -0.11395063 -0.1571999   0.10766089 -0.11315509 -0.0563676   0.04409523
 -0.14674853 -0.16508976 -0.33329025 -0.03123194  0.44827506  0.09911253
 -0.18693964  0.03311996 -0.00414275  0.05360149  0.17449619  0.19032998
  0.02118825  0.05352132 -0.0926707  -0.02894575  0.21457234 -0.14436026
 -0.005731    0.22473128  0.01723832  0.06137076  0.00220252  0.062862
 -0.08087704  0.03282438 -0.17098606 -0.05141128  0.06536465  0.02797758
  0.06247738  0.14324018 -0.17241655  0.09434878  0.01242603  0.03729213
  0.03549854 -0.07499501 -0.0052971  -0.06381149  0.06762947 -0.19165188
  0.10214211  0.20064984 -0.01320982  0.10649104  0.11346115  0.04538703
 -0.01546256  0.01062722 -0.17637713 -0.02905121  0.12186726 -0.02861154
  0.06586115 -0.01865048]