[-0.06845514  0.16832042  0.07527178 -0.04438975 -0.04113821 -0.01874812
 -0.03351678 -0.089318    0.14162268 -0.06607474  0.27717867  0.04793138
 -0.20102115 -0.18544801  0.00404926  0.10505962 -0.16907212 -0.09239968
 -0.06896862 -0.00455572  0.02338352  0.00298618  0.06647001  0.02062285
 -0.12699261 -0.34542856 -0.08800445 -0.12677358  0.00127582 -0.08730195
 -0.10605752  0.06786131 -0.15566997 -0.11006341  0.00820831  0.02734176
 -0.05047553  0.02167996  0.17091449  0.02563165 -0.14847708  0.04146327
  0.02447566  0.26327431  0.27428088  0.02222115  0.01878349 -0.09073049
  0.14829418 -0.20709002  0.05522968  0.12648372  0.14934723  0.08713078
  0.11747203 -0.16499099 -0.00947609  0.05846123 -0.14039536 -0.03203572
 -0.03411031 -0.03474227 -0.00922117 -0.05128568  0.17241104  0.09047698
 -0.07095535 -0.11950456  0.13725992 -0.10552496 -0.02752726  0.10622706
 -0.1449195  -0.1550349  -0.27128154  0.03695724  0.30297124  0.17286798
 -0.18106697 -0.0118247  -0.12293929 -0.04643454  0.02790429 -0.01161285
 -0.1250689   0.03861482 -0.07123076  0.03392993  0.15015592 -0.02512588
 -0.03782001  0.21234193  0.00104162  0.09812966  0.07568567 -0.02809014
 -0.06788336  0.02473032 -0.20379519 -0.01067785  0.00189458 -0.11737318
  0.00172533  0.09248929 -0.20349088  0.08576155  0.0264535   0.01004087
 -0.04613098 -0.01189399 -0.119301    0.00760929  0.13686959 -0.25075242
  0.22990465  0.16690457  0.02936511  0.11223816  0.09634342 -0.01394295
 -0.07400204 -0.08563804 -0.10233988 -0.02780166  0.12886868 -0.02769133
  0.08487032 -0.0135516 ]