[-0.1528192   0.03562245  0.07362903 -0.02493076 -0.07344925 -0.10157277
  0.00291954 -0.16561653  0.10558718 -0.08130114  0.25351182 -0.09283011
 -0.21780598 -0.11756729 -0.00094046  0.24361134 -0.16035126 -0.11257161
 -0.07023083 -0.0183902   0.00865522  0.00193678  0.05138227  0.06441606
 -0.08534516 -0.36550298 -0.1058118  -0.08858766 -0.05486113  0.01417516
 -0.06707844  0.06902077 -0.1585549  -0.09246951  0.08589639  0.0585187
 -0.01180362 -0.06554466  0.1814255  -0.00353016 -0.24151187 -0.04147812
  0.12829988  0.21588035  0.2007771   0.01414539  0.02888034 -0.13751356
  0.10447746 -0.15211274 -0.0170511   0.07663621  0.05477621  0.02055654
  0.02610727 -0.10397333  0.01618526  0.07854319 -0.1261481  -0.06843333
  0.0676584  -0.08110956 -0.08551463 -0.07137766  0.23034334  0.09130136
 -0.11053618 -0.13625757  0.14267623 -0.13154916 -0.0638819   0.03305633
 -0.17105152 -0.15318777 -0.32515311 -0.05688215  0.405687    0.0158436
 -0.2082843   0.03201239 -0.06464686  0.0193251   0.14614585  0.15205978
  0.01537122  0.03016881 -0.06382886 -0.04230142  0.213309   -0.08011168
 -0.00964815  0.17515789  0.00101563  0.0418092   0.08032985  0.02073924
 -0.0310659  -0.01018903 -0.16388057 -0.0381487   0.01939441 -0.02032485
  0.01120119  0.06951591 -0.19691972  0.08043618  0.05377643  0.01804725
  0.0429198  -0.01616742 -0.06221673 -0.08438605  0.09031066 -0.19615977
  0.14583175  0.16678751 -0.02333086  0.11425656  0.05383248  0.08587764
 -0.06998073  0.01922364 -0.1441891  -0.01585769  0.11216736 -0.01214274
  0.0881514  -0.03089419]