[-0.13979374  0.03914544  0.0460726  -0.02540531 -0.10735148 -0.04185952
 -0.0167641  -0.13460545  0.13070534 -0.08865791  0.24354859 -0.08724438
 -0.19071744 -0.10973536 -0.02900557  0.23574953 -0.14036982 -0.13063951
 -0.05999464 -0.01651037  0.06245513  0.00734935  0.01002009  0.05220895
 -0.13479966 -0.33948001 -0.12357171 -0.05606206 -0.01793873 -0.01247866
 -0.08200267  0.0810478  -0.15352766 -0.0959414   0.09801301  0.09232604
  0.0208016  -0.08081094  0.14257172 -0.0041841  -0.26569092  0.00661364
  0.13673525  0.2401638   0.19023596  0.03709286  0.02203546 -0.13391891
  0.12222844 -0.12666366  0.0046162   0.09602762  0.06395005  0.03532084
  0.0357762  -0.10778222  0.03529408  0.10723618 -0.09751158 -0.07352218
  0.07010493 -0.06107265 -0.03859257 -0.09305014  0.19328102  0.07039127
 -0.09918274 -0.17416136  0.12053814 -0.12426056 -0.08287746  0.05103588
 -0.18904455 -0.1439421  -0.3423337  -0.04690786  0.45063028  0.05666399
 -0.21463744  0.06223787 -0.0185279   0.02978159  0.16995102  0.17983568
  0.02522608  0.03881547 -0.0813994  -0.04261373  0.2425236  -0.06302647
 -0.01648413  0.1682682   0.01854004  0.04446504  0.06573471  0.03698752
 -0.04806034  0.00615264 -0.13040407 -0.04841685  0.02385572  0.00508486
 -0.00045799  0.1016282  -0.19095577  0.11206504  0.04393988  0.05644711
  0.02153479 -0.00675292 -0.0409445  -0.04325223  0.08003006 -0.21672218
  0.11794328  0.16304673 -0.01483301  0.1047457   0.09145422  0.09175193
 -0.04658841  0.02116346 -0.1653149  -0.03598712  0.09525322 -0.04981706
  0.09772485 -0.019403  ]