[-0.13345705  0.04238705  0.04970785 -0.03533023 -0.11417293 -0.05329398
  0.00351743 -0.12607478  0.1195434  -0.10407227  0.24777131 -0.08658075
 -0.216783   -0.09245685 -0.0086626   0.22735453 -0.14030986 -0.08641662
 -0.05700361 -0.02049854  0.05281998  0.01651735  0.02841802  0.05188799
 -0.12472415 -0.35314909 -0.11809017 -0.04938364 -0.03978173 -0.00544672
 -0.07031833  0.08611321 -0.13996588 -0.08122935  0.09425608  0.08588213
 -0.00390564 -0.09019636  0.14761691  0.01971374 -0.24267435  0.00424053
  0.11972     0.23896427  0.192545    0.02126236  0.0306826  -0.133836
  0.12927021 -0.16261874 -0.00440383  0.07702275  0.05294036  0.02537984
  0.06067821 -0.08939322  0.03875335  0.10614864 -0.12366917 -0.07375564
  0.06220018 -0.05156819 -0.03598538 -0.08902245  0.20271759  0.09671237
 -0.11221345 -0.13018894  0.12131963 -0.13755932 -0.07790116  0.04580015
 -0.16717872 -0.1584712  -0.30812582 -0.03615294  0.45315719  0.08197894
 -0.21589266  0.02751268 -0.02387313  0.01210465  0.18806647  0.1791734
  0.02406995  0.01082079 -0.0627303  -0.03367202  0.24368854 -0.06631252
 -0.02684481  0.19766806  0.03076849  0.04236894  0.07353182  0.02016223
 -0.05369168 -0.01072609 -0.13173078 -0.04734232  0.01468882 -0.04415873
 -0.01059982  0.09339819 -0.2107702   0.12334364  0.03567239  0.02252322
  0.03193207 -0.01577767 -0.04303003 -0.02388829  0.07150526 -0.23101819
  0.1247605   0.15996823 -0.0358056   0.12213271  0.05883509  0.08438866
 -0.04178318  0.00606915 -0.13201968 -0.05598793  0.09218273 -0.03443255
  0.09737577 -0.04699852]