[-0.12318008  0.06111753  0.05722412 -0.03084884 -0.07208543 -0.05238457
  0.03999089 -0.12569664  0.12895732 -0.07182118  0.2339242  -0.10043999
 -0.21533601 -0.11400542 -0.01093234  0.21545933 -0.15387322 -0.07653334
 -0.08201009 -0.04737536  0.05810475  0.03748013  0.02937303  0.06057326
 -0.13880582 -0.37570399 -0.10133544 -0.06651818 -0.06108518  0.00504444
 -0.02595088  0.1006676  -0.14657053 -0.06953939  0.0909282   0.07911619
 -0.01132378 -0.09463008  0.15634181  0.01753568 -0.22069588 -0.00715425
  0.11416689  0.2606371   0.17424248  0.02234636  0.04158571 -0.09742023
  0.1258871  -0.16489324 -0.01526093  0.09646931  0.0124658   0.0154667
  0.06645598 -0.09675103  0.01782337  0.10547861 -0.13301206 -0.08119999
  0.04526395 -0.07232475 -0.0690657  -0.08077953  0.16877609  0.09920185
 -0.11349898 -0.12371133  0.12944393 -0.14085905 -0.04987162  0.03429738
 -0.16905017 -0.15995629 -0.30215272 -0.02209551  0.46756124  0.06218708
 -0.20147739  0.01026714 -0.03659594  0.03758083  0.1965497   0.16418079
  0.02105047  0.01252341 -0.07233266 -0.00798602  0.218482   -0.05521479
 -0.04685826  0.19157873  0.01776292  0.00179994  0.05262897 -0.00164496
 -0.0535233   0.01400554 -0.12846689 -0.01998763  0.04501427 -0.03246649
 -0.01727441  0.08565062 -0.2172011   0.11961611  0.05540295  0.00623999
  0.03327072 -0.02802478 -0.07264446 -0.01609964  0.08852595 -0.23164809
  0.11745305  0.16586809 -0.05216618  0.14425516  0.04476966  0.07726871
 -0.0344482  -0.00404001 -0.14928849 -0.06787058  0.09477803 -0.00107387
  0.07937577 -0.06638282]