[-1.28026247e-01  3.56110670e-02  7.80640468e-02 -3.29733565e-02
 -1.17206097e-01 -5.32042943e-02 -3.96639779e-02 -1.79988533e-01
  8.94113779e-02 -1.11540273e-01  1.89297393e-01 -8.59952047e-02
 -1.72359392e-01 -8.20648596e-02 -6.35088682e-02  2.29069188e-01
 -1.21557392e-01 -1.49095014e-01 -8.79451260e-02 -4.16343585e-02
  4.06526215e-02  2.88728364e-02  5.34756854e-03  5.12175960e-03
 -1.62385345e-01 -2.93775231e-01 -1.03138976e-01 -3.42176519e-02
 -4.11300473e-02 -2.51658615e-02 -7.78414756e-02  5.61372600e-02
 -1.73869759e-01 -3.69561501e-02  9.64593217e-02  1.05852209e-01
  1.87860448e-02 -8.87205824e-02  1.24878205e-01  5.63226594e-03
 -2.78756112e-01  1.70733277e-02  1.29270643e-01  2.32766971e-01
  1.94505855e-01  4.79003079e-02  3.60688241e-03 -1.33397952e-01
  1.81980088e-01 -1.67529732e-01 -2.12552768e-04  6.86324164e-02
  4.06880863e-02  1.12366024e-02  4.78135720e-02 -1.02593116e-01
  3.39739397e-02  1.33542076e-01 -1.12320542e-01 -5.72722554e-02
  6.86931908e-02 -8.72080773e-02 -6.38733953e-02 -1.02591455e-01
  1.82568267e-01  1.02283254e-01 -1.10236131e-01 -1.45940527e-01
  1.31309912e-01 -1.22286141e-01 -7.42766708e-02  4.97364849e-02
 -1.60215065e-01 -1.38629630e-01 -3.57014149e-01 -5.75382002e-02
  4.71420020e-01  6.84692189e-02 -1.96955428e-01  1.97777897e-02
  9.46885999e-03  8.51396844e-02  1.84973091e-01  1.55949354e-01
 -3.84251331e-03  4.38397117e-02 -8.32383260e-02 -1.89918522e-02
  2.73994625e-01 -7.81111568e-02 -4.13724817e-02  1.45680130e-01
  1.63236260e-03  4.21652086e-02  8.53663683e-03  4.13310155e-02
 -7.09049925e-02 -7.11620739e-03 -1.22957148e-01 -5.10985069e-02
  5.85908554e-02  3.78728397e-02  1.49122700e-02  1.42421752e-01
 -1.70603961e-01  1.12710737e-01  2.33062990e-02  3.34563293e-02
  1.34783657e-02 -2.36213021e-02 -2.23500729e-02 -2.48512421e-02
  5.02597466e-02 -2.13586792e-01  1.27858788e-01  1.73909143e-01
 -3.87780294e-02  8.93956870e-02  7.46773854e-02  4.56039384e-02
 -4.10962291e-02  3.13735567e-02 -1.60235003e-01 -8.18413049e-02
  1.03322737e-01 -3.22577097e-02  1.13510810e-01 -2.47029662e-02]