[-0.03429362  0.12541829  0.06891383 -0.04668904 -0.03716412 -0.05983023
 -0.02050674 -0.14696799  0.13364632 -0.10526768  0.28973317  0.00486026
 -0.21026142 -0.17741005  0.00318168  0.12366711 -0.19880722 -0.11728585
 -0.03426265 -0.05060735  0.05149622 -0.01256136  0.03937096  0.01829887
 -0.12489568 -0.30984822 -0.13772096 -0.12943928  0.03714443 -0.0802707
 -0.09259161  0.08626252 -0.14087896 -0.10306402  0.02919894 -0.00885449
  0.02861162 -0.00032842  0.16176923  0.00204553 -0.16202897  0.07419775
  0.03752304  0.25772569  0.19068106  0.02630962  0.02971871 -0.07193746
  0.13452773 -0.11619987  0.03011278  0.12549718  0.16469486  0.02526609
  0.07775819 -0.14345138 -0.04659921  0.08035055 -0.14129062  0.01088982
  0.04153451 -0.07141732 -0.02851745 -0.06551472  0.15205422  0.06312227
 -0.09643119 -0.12386954  0.15203317 -0.1021114  -0.05822742  0.05024721
 -0.18204682 -0.12547424 -0.25983578  0.01215724  0.30069932  0.11644987
 -0.18201874  0.0269997  -0.09438157  0.00887081  0.05337488  0.03805024
 -0.08404005  0.07045305 -0.06634917  0.02181672  0.15491574 -0.03529967
 -0.03610176  0.20595185 -0.03731846  0.08985431  0.04982541 -0.03760508
 -0.05401133 -0.01497274 -0.17436683  0.00224172 -0.0122824  -0.10041802
 -0.02208108  0.09487032 -0.17868116  0.05422073  0.02216908  0.02157347
 -0.06552747  0.03122549 -0.0963086  -0.01331629  0.11240081 -0.24883521
  0.20617497  0.19775811  0.03121495  0.08225077  0.07660013 -0.01539051
 -0.04818986 -0.08655526 -0.13043547 -0.07465516  0.13178353 -0.04002052
  0.09113033 -0.03120281]