[-1.22175746e-01  3.67348120e-02  7.02874586e-02 -3.38068902e-02
 -1.26789540e-01 -6.66250736e-02 -2.76654661e-02 -1.76050052e-01
  8.05274397e-02 -1.11888461e-01  2.01918796e-01 -1.17751442e-01
 -1.85603261e-01 -4.90882657e-02 -5.69759421e-02  2.28861675e-01
 -1.53383404e-01 -1.23189569e-01 -7.14114085e-02 -4.11732234e-02
  5.01474030e-02  1.14671374e-02  7.54074333e-03  8.08602944e-03
 -1.64535418e-01 -2.94822127e-01 -8.09220970e-02 -6.47789165e-02
 -2.78118011e-02  2.42029884e-04 -8.43316242e-02  6.22432604e-02
 -1.67488843e-01 -4.86554168e-02  9.81841683e-02  7.15070590e-02
  2.86613461e-02 -1.02789916e-01  1.55435726e-01  9.00722947e-03
 -2.68802226e-01  1.95952486e-02  1.26987383e-01  2.16069251e-01
  1.77063584e-01  2.28509381e-02  1.85454264e-02 -1.57485232e-01
  1.75003126e-01 -1.84499994e-01 -1.29536986e-02  5.81530631e-02
  3.96266989e-02  1.15492642e-02  2.42685415e-02 -1.23448394e-01
  3.31894606e-02  1.21364728e-01 -1.38074577e-01 -4.19185162e-02
  1.03050582e-01 -5.92037030e-02 -6.65463060e-02 -1.05966769e-01
  2.26109385e-01  1.19056545e-01 -1.32774740e-01 -1.24743521e-01
  1.33953854e-01 -1.03406690e-01 -6.06399886e-02  2.70358212e-02
 -1.50330439e-01 -1.43161938e-01 -3.20661694e-01 -4.02310900e-02
  4.56260413e-01  6.52226135e-02 -2.09098101e-01  5.57507668e-03
 -2.88394820e-02  7.17422739e-02  1.90569431e-01  1.69260308e-01
  1.10298139e-03  2.94526219e-02 -4.76849265e-02 -2.23278590e-02
  2.55796224e-01 -8.64813626e-02 -2.37468462e-02  1.79602876e-01
  6.91404333e-03  4.38381508e-02  1.28964083e-02  4.11150046e-02
 -1.00043647e-01 -1.01734791e-02 -1.20694093e-01 -3.51820402e-02
  5.03705852e-02  1.22210449e-02  2.90309135e-02  1.56749114e-01
 -1.85832262e-01  9.62150097e-02 -1.95945427e-03  1.63860302e-02
  3.51289622e-02 -3.13763060e-02 -2.62269680e-03 -3.86282541e-02
  4.54588272e-02 -2.11716965e-01  1.20286837e-01  1.61061451e-01
 -2.26724092e-02  1.00465752e-01  7.54538327e-02  4.27751429e-02
 -2.07547601e-02  4.75436859e-02 -1.80050865e-01 -5.51516972e-02
  1.11636631e-01 -3.70469168e-02  8.36102888e-02 -3.29325572e-02]