[-1.20555654e-01  1.29222557e-01  6.56244680e-02 -8.37725699e-02
 -1.76923126e-01 -1.13849705e-02 -6.90606833e-02 -1.28052354e-01
  1.55274257e-01 -1.25077903e-01  2.31122017e-01 -2.40600575e-02
 -1.96871072e-01 -1.19402252e-01  2.41223359e-04  1.65482894e-01
 -1.58436164e-01 -1.37906447e-01  9.26948059e-03 -5.01232361e-03
  4.94321249e-02  6.47657318e-03  1.19843530e-02  6.66326061e-02
 -8.40494931e-02 -4.00959939e-01 -7.50521347e-02 -1.05379082e-01
  1.23362979e-02 -7.89332464e-02 -8.01721811e-02  8.69260728e-02
 -1.17081784e-01 -1.07878760e-01  3.16143371e-02  1.36290312e-01
 -4.36926968e-02 -4.18604864e-03  1.43415555e-01  3.37203071e-02
 -2.18583301e-01  8.62322375e-02  6.37143925e-02  2.99073458e-01
  2.28970334e-01  3.21890600e-02  6.59727827e-02 -1.01097681e-01
  1.40398785e-01 -2.33721599e-01  4.86871302e-02  1.25743613e-01
  1.19616285e-01  1.55374557e-02  9.57669020e-02 -1.70284420e-01
 -1.15715642e-03  4.38333564e-02 -1.76310971e-01  2.84135025e-02
  9.27440673e-02 -6.47884933e-03 -6.91082189e-03 -2.89702453e-02
  2.54189402e-01  1.29002929e-01 -9.09527466e-02 -1.24039434e-01
  1.70031220e-01 -1.06484555e-01 -8.94320458e-02  4.64450307e-02
 -1.91890404e-01 -1.34360760e-01 -2.32586384e-01  2.07393449e-02
  4.37108606e-01  1.15861692e-01 -1.76925525e-01  1.82690248e-02
 -1.03649415e-01 -2.42133047e-02  5.00909686e-02  9.22619924e-02
 -1.98300164e-02 -2.32269410e-02 -6.95601180e-02  4.07059751e-02
  1.69982895e-01 -3.66025530e-02  1.24050793e-03  2.20000908e-01
  6.98168352e-02  9.04404446e-02  5.73757999e-02  2.45264638e-02
 -1.03477620e-01  1.81324854e-02 -2.06471130e-01 -8.28378722e-02
 -1.77342501e-02 -7.06334934e-02  2.90981866e-02  1.28319845e-01
 -2.38619909e-01  1.68357864e-01  9.84850246e-03  1.67718958e-02
 -1.87685583e-02  3.39172781e-02 -5.55452816e-02  7.27124838e-03
  1.29150763e-01 -2.13162661e-01  2.03625157e-01  1.86277464e-01
  7.88923502e-02  1.12239532e-01  8.81196409e-02 -1.51638733e-02
  2.91782767e-02 -6.38274774e-02 -1.39712632e-01 -3.74094434e-02
  3.29474024e-02 -6.19791150e-02  3.19243595e-02  4.42694128e-02]