[-7.85788074e-02  1.26062691e-01  7.32167363e-02 -2.03544293e-02
 -1.23906925e-01  7.01930327e-03 -2.48307176e-02 -1.24598049e-01
  1.81372032e-01 -1.05053805e-01  2.20282182e-01 -2.28284206e-02
 -2.41554901e-01 -1.43348217e-01  4.96167317e-02  1.70161217e-01
 -1.56119198e-01 -1.19125783e-01 -6.48450200e-03 -1.64872985e-02
  4.96777967e-02 -2.30630524e-02  2.79016625e-02  9.12004113e-02
 -9.63645130e-02 -4.33360964e-01 -9.34304446e-02 -9.64472070e-02
 -1.63263164e-03 -9.19514298e-02 -1.25952229e-01  5.37404083e-02
 -1.45925552e-01 -9.03936327e-02  5.34258857e-02  1.13160782e-01
 -4.99168895e-02 -5.47730438e-02  1.18008338e-01  3.23192291e-02
 -2.07945898e-01  4.35252627e-03  3.38343196e-02  2.31013998e-01
  2.18424752e-01  5.65649271e-02  6.41081110e-02 -9.76952538e-02
  1.96139529e-01 -2.24678323e-01  4.03363071e-02  1.42749116e-01
  8.23956430e-02  1.19202752e-02  8.93612057e-02 -1.95765048e-01
 -2.98039019e-02  8.64298046e-02 -1.89926058e-01 -8.54392350e-03
  1.56685133e-02 -6.64482936e-02 -6.25809357e-02 -2.21040994e-02
  1.98101074e-01  1.43659949e-01 -7.81872422e-02 -1.65671647e-01
  1.75578043e-01 -1.49717659e-01 -1.40070533e-02  6.09565973e-02
 -1.72931001e-01 -1.84000969e-01 -2.36494333e-01  2.00767722e-02
  4.36077803e-01  1.07151233e-01 -1.57468185e-01  2.65334379e-02
 -1.16914086e-01  2.65441136e-03  4.87327836e-02  1.28535241e-01
 -5.15078660e-03  2.18950268e-02 -9.45052356e-02  2.40456518e-02
  1.44443795e-01 -6.31625727e-02  3.24494094e-02  2.46286258e-01
  2.88979872e-03  9.06795859e-02  4.74841669e-02 -2.96771526e-04
 -1.24151610e-01  2.65949965e-02 -1.49063230e-01 -1.13169052e-01
  1.61140207e-02 -6.10853918e-02  3.07970196e-02  8.56809393e-02
 -2.70475060e-01  1.17669724e-01 -5.70949749e-04  2.17878353e-02
  2.53527854e-02 -4.35076952e-02 -6.26331791e-02 -3.73038054e-02
  1.11332752e-01 -2.95369774e-01  1.60625845e-01  1.91771358e-01
  6.91179698e-03  1.53126076e-01  1.96014885e-02  3.45075428e-02
  2.99428646e-02 -1.07830696e-01 -1.45785421e-01 -1.00347819e-02
  5.64178415e-02 -3.17486189e-02 -3.65874581e-02 -4.28331792e-02]