[-0.04812631  0.10491367  0.06214474 -0.0776857  -0.09503616  0.03073891
  0.00265465 -0.11867299  0.19652501 -0.08389893  0.22423227 -0.03736082
 -0.19811526 -0.07432713 -0.00161225  0.16252628 -0.15512471 -0.08842686
 -0.0290318   0.02181286  0.06381702  0.02688867  0.01120608  0.06644782
 -0.08560842 -0.38405797 -0.08867216 -0.09464391  0.07310536 -0.09830699
 -0.09012739  0.10545544 -0.13547    -0.09482243  0.05568619  0.11223672
 -0.05384315 -0.06017302  0.13983385  0.05368073 -0.18921666  0.06919989
  0.01768207  0.27648908  0.20905741  0.07498331  0.08455808 -0.17202036
  0.14470087 -0.24815618  0.02042623  0.09966828 -0.00168718  0.04982844
  0.07127433 -0.18989806  0.00541715  0.03921624 -0.19894485  0.03900799
  0.05651974 -0.04070947 -0.0262626  -0.03772679  0.19998692  0.09544962
 -0.06935737 -0.14886412  0.18872435 -0.14032781 -0.05700183  0.05824392
 -0.14359884 -0.15125351 -0.22521238  0.00534898  0.4518598   0.12753037
 -0.17960742  0.05379311 -0.10347778 -0.01146587  0.12708379  0.12150075
  0.02590313 -0.0104503  -0.07038739  0.02435441  0.21172535 -0.06878271
  0.02330486  0.22986682  0.03562873  0.0683958   0.04338954  0.03674927
 -0.11199766  0.04670852 -0.1985449  -0.10171247  0.02005169 -0.00981541
  0.03119307  0.14293967 -0.25006804  0.19911128  0.01229468 -0.02568824
  0.03835372 -0.04539874 -0.04217979  0.00903179  0.14483006 -0.26593682
  0.18212977  0.20042029  0.05360614  0.12103905  0.0396519   0.03920921
  0.03496323 -0.05970394 -0.19222729 -0.02989583  0.0542002  -0.01322211
 -0.02526302 -0.02093726]