[-0.05347369  0.11765339  0.08130594 -0.03330844 -0.13932183  0.00090703
 -0.04351427 -0.1252231   0.14664765 -0.10980611  0.22911988 -0.03036022
 -0.25493652 -0.09090511 -0.00878662  0.18690969 -0.16587375 -0.17336117
  0.02980378 -0.01431793  0.09311371  0.00503819 -0.01877885  0.07343337
 -0.1554234  -0.37883085 -0.10312477 -0.07513169 -0.08126857 -0.10158147
 -0.08325834  0.08853044 -0.11513569 -0.0480468   0.09104394  0.12467732
 -0.01775653 -0.07860302  0.12729792  0.04867619 -0.23201595  0.05801136
  0.10989757  0.28278932  0.20449929  0.03086321  0.06065431 -0.09930894
  0.18523626 -0.23277466  0.03310799  0.12664928  0.13038684  0.02976915
  0.08346324 -0.18238419 -0.00870657  0.11455381 -0.17867769 -0.00339011
  0.0450609  -0.09346072 -0.00223277 -0.0571126   0.20486939  0.11698567
 -0.09643536 -0.14631975  0.14802116 -0.14649419 -0.11469584  0.05328492
 -0.17878009 -0.16856685 -0.26654717 -0.00790345  0.4662118   0.12291992
 -0.17208874  0.06605756 -0.05705488  0.01415023  0.04483353  0.15085165
 -0.00668651  0.04221199 -0.10335419  0.02111417  0.22747198 -0.04326818
  0.00576777  0.22738419  0.01142526  0.09199506  0.06422763 -0.01964688
 -0.09977569  0.01122132 -0.15135422 -0.10375503 -0.07308454 -0.05933456
  0.01050794  0.11124352 -0.27454588  0.11836221 -0.00886391  0.00328644
 -0.03211984  0.0018641  -0.03781477  0.00596875  0.09556311 -0.31911173
  0.12384283  0.18171711  0.04084339  0.13882405  0.03675249  0.01481805
  0.01256097 -0.10133014 -0.16462584 -0.03607124  0.06709094 -0.04001256
  0.04307196 -0.01590016]