[-0.10301615  0.14925419  0.06997303 -0.07411154 -0.1544003   0.01562703
 -0.05998382 -0.15429425  0.13290456 -0.07967926  0.25954777 -0.11755269
 -0.22920001 -0.09750144 -0.03287337  0.2438823  -0.17341946 -0.11599799
 -0.00478164  0.00368095  0.07470381  0.0242747   0.01410197  0.06969661
 -0.0998415  -0.40871301 -0.06841812 -0.06713438 -0.01319158 -0.10158008
 -0.10096109  0.10069158 -0.15277019 -0.05604533  0.05016227  0.09999134
 -0.04560264 -0.07579964  0.11850102  0.01007942 -0.27183124  0.0292796
  0.09684738  0.24570525  0.18963026  0.04101534  0.03740829 -0.15066901
  0.10087236 -0.17077331  0.02932871  0.1254591   0.02941009  0.00850616
  0.01143122 -0.1745223  -0.01879263  0.070906   -0.17453884 -0.06110782
  0.09716643 -0.06041303 -0.04459438 -0.08638047  0.22789636  0.13032731
 -0.08589493 -0.16802111  0.13640672 -0.10200559 -0.05165878  0.04905982
 -0.17481227 -0.17103565 -0.26256195 -0.01542158  0.41476002  0.06379398
 -0.17229503  0.05163342 -0.06298383 -0.00480489  0.10589762  0.15770397
  0.0147581   0.03557144 -0.07101606  0.02650031  0.18256575 -0.09703626
  0.02314097  0.23868509  0.01187077  0.04475553  0.04102304  0.02528403
 -0.10045078  0.0483619  -0.15116155 -0.09561662 -0.00207816 -0.02414193
  0.01044448  0.12157845 -0.23668738  0.1419286   0.04117865  0.03100823
  0.03172183 -0.04212157 -0.01922351 -0.06085184  0.12007358 -0.23979728
  0.13958178  0.16227236  0.06000669  0.13701393  0.09162644  0.06635114
  0.01431643 -0.06527048 -0.19215778  0.02270227  0.12028451 -0.05063965
  0.0367048  -0.00211328]