[-0.07629197  0.15070634  0.06437225 -0.06956919 -0.12550728 -0.00479397
 -0.05614903 -0.14052933  0.16352725 -0.07784263  0.26107702 -0.07776912
 -0.22257927 -0.10663978 -0.04740083  0.24107085 -0.20933886 -0.10061711
  0.02793058  0.0304077   0.08658876  0.02410579  0.02736177  0.08312082
 -0.10040981 -0.42611107 -0.07817479 -0.08179563 -0.02790758 -0.10556095
 -0.11147223  0.09201173 -0.15485214 -0.05434588  0.06698736  0.11309642
 -0.05822063 -0.0717325   0.14040755  0.03363663 -0.23888044  0.01598307
  0.09632918  0.24451168  0.19782399  0.02727627  0.04754142 -0.14685638
  0.13617539 -0.21616678  0.00524821  0.13198213  0.03745281  0.04700906
  0.002018   -0.18109606 -0.01230398  0.06269786 -0.17593525 -0.03466803
  0.06894339 -0.08575362 -0.04817451 -0.04689127  0.22628836  0.11534126
 -0.10666328 -0.16561504  0.13225842 -0.13731496 -0.05503606  0.03203389
 -0.15530801 -0.18189161 -0.27973357 -0.0310492   0.39708716  0.08413414
 -0.166247    0.05427692 -0.10978458 -0.01150229  0.05140016  0.15589701
  0.00791976  0.06465834 -0.09708066  0.0253141   0.19230779 -0.09979622
  0.0484259   0.273451    0.00295038  0.10767148  0.03527491  0.02722375
 -0.11628995  0.02888963 -0.15205213 -0.08934894 -0.01523657 -0.04887516
  0.01559003  0.13480859 -0.27466664  0.14666693  0.01994272  0.01638942
  0.03925352 -0.03000331 -0.04181436 -0.07267781  0.12126219 -0.2429651
  0.15620442  0.18959516  0.07268792  0.1499439   0.0829508   0.05372673
 -0.00623129 -0.08903758 -0.17893533  0.0217703   0.07577959 -0.03558476
  0.00084499 -0.01985041]