[-8.77026320e-02  1.20286383e-01  5.22290170e-02 -7.17776269e-02
 -1.00683920e-01  5.24305701e-02 -7.67550711e-03 -1.51544660e-01
  1.94110259e-01 -1.31898373e-01  2.64835745e-01 -2.97047142e-02
 -1.97359920e-01 -9.65910479e-02 -1.49769429e-02  1.73185930e-01
 -1.60248101e-01 -1.15534090e-01  4.02715150e-03  8.76896270e-03
  6.03415780e-02 -1.44874826e-02 -1.62411984e-02  6.04534149e-02
 -1.06979728e-01 -4.04336274e-01 -1.08867340e-01 -9.37253237e-02
  4.93105948e-02 -9.94884968e-02 -1.15245499e-01  8.09348524e-02
 -1.17628716e-01 -6.97486326e-02  3.16797458e-02  1.06777065e-01
 -6.91103414e-02 -4.21615019e-02  1.30972147e-01  4.70379740e-02
 -1.99994937e-01  7.64779076e-02  1.07757747e-02  2.89241493e-01
  2.04524040e-01  4.94716875e-02  6.85224161e-02 -1.48322865e-01
  1.54093668e-01 -2.18486100e-01  2.47290116e-02  1.04634225e-01
  7.00770840e-02  4.40372229e-02  3.22341509e-02 -1.74747854e-01
 -1.50723802e-02  5.28823510e-02 -1.96172044e-01  6.89633191e-03
  5.85149042e-02 -5.43465130e-02 -4.32566367e-02 -2.12476514e-02
  2.00715780e-01  1.35038361e-01 -9.43872482e-02 -1.52485967e-01
  1.81276903e-01 -1.24501765e-01 -3.18505727e-02  3.63440327e-02
 -1.73593104e-01 -1.77342132e-01 -2.21363783e-01  4.57326323e-02
  4.57312107e-01  1.20962754e-01 -1.36193380e-01  3.48676294e-02
 -1.05748914e-01  4.37541911e-03  8.59637633e-02  1.14016533e-01
 -3.03805806e-02 -1.17016444e-02 -5.84745072e-02  4.40571830e-02
  1.72043398e-01 -5.78028224e-02  1.32073760e-02  2.24191219e-01
  1.25465533e-02  9.18215886e-02  3.69096957e-02  4.76484112e-02
 -1.10917941e-01  5.59229366e-02 -1.47150084e-01 -8.88294801e-02
  1.34777352e-02 -4.23016697e-02  5.46437800e-02  1.52251869e-01
 -2.63543695e-01  2.06119642e-01  3.91596550e-04  2.52445471e-02
  6.24000691e-02 -1.47478124e-02 -3.64416912e-02 -1.28014451e-02
  1.19247697e-01 -2.73543060e-01  1.49874941e-01  2.08028629e-01
  6.86589554e-02  1.28149495e-01  6.73342422e-02  8.28468334e-03
  2.64238063e-02 -5.99809177e-02 -2.18268871e-01  4.87280590e-03
  6.74710497e-02 -3.42955254e-02 -1.79823469e-02 -2.25975439e-02]