[-1.03415184e-01  1.04908161e-01  6.80604726e-02 -6.51547611e-02
 -1.53981000e-01 -2.71880310e-02 -6.23953305e-02 -1.34361327e-01
  1.59130648e-01 -9.58985165e-02  2.47548461e-01 -3.12057734e-02
 -1.71985075e-01 -1.18877649e-01  2.73011072e-04  1.99192554e-01
 -2.02477440e-01 -1.09262228e-01  1.65544394e-02 -2.60782405e-03
  5.85934594e-02 -1.07368687e-02  1.93720050e-02  8.03690329e-02
 -8.21853355e-02 -3.98122907e-01 -9.10213813e-02 -1.21203087e-01
  2.56504454e-02 -7.94686601e-02 -8.45897943e-02  8.64405632e-02
 -1.21107936e-01 -8.43537971e-02  5.63449375e-02  1.10723577e-01
 -2.84191757e-03 -1.31483497e-02  1.20369375e-01  2.62342002e-02
 -2.17966944e-01  7.93044344e-02  5.97307943e-02  2.54612833e-01
  2.26378992e-01  5.26550300e-02  6.63595796e-02 -1.31045386e-01
  1.51144966e-01 -1.93593696e-01  2.84002218e-02  1.15465820e-01
  8.54456648e-02  9.94854979e-03  4.56160270e-02 -2.00214103e-01
 -1.15525769e-02  3.92901488e-02 -1.76730528e-01  1.16981128e-02
  7.26767108e-02 -1.32638244e-02 -3.47975604e-02 -2.85353102e-02
  2.40908340e-01  1.28569081e-01 -1.18573688e-01 -1.57652661e-01
  1.47875339e-01 -1.15318991e-01 -7.31097236e-02  2.40727719e-02
 -2.09375963e-01 -1.42856434e-01 -2.58895487e-01 -1.21216541e-02
  4.60373610e-01  7.01200888e-02 -2.12480143e-01  3.54702175e-02
 -1.23844579e-01 -9.06218123e-03  5.78360260e-02  1.44650027e-01
  8.25772434e-03 -2.46261409e-03 -7.08617643e-02  2.11511715e-03
  1.56391203e-01 -6.20436259e-02  1.58082228e-02  2.16756150e-01
  2.80015450e-02  1.19544640e-01  2.92374436e-02  2.16550659e-02
 -1.06917620e-01  2.43869890e-02 -1.75745830e-01 -1.06262088e-01
 -5.16206212e-02 -3.16830687e-02  1.21170655e-02  1.13550715e-01
 -2.49148756e-01  1.79726407e-01  3.29453275e-02  3.20314430e-02
 -1.07735200e-02  3.10424566e-02 -4.32168320e-02 -1.36989979e-02
  1.27934933e-01 -2.32035786e-01  2.10143685e-01  2.12561235e-01
  8.32173601e-02  1.32073164e-01  7.51588941e-02  2.19117776e-02
  1.58132929e-02 -3.96631733e-02 -1.54080063e-01  2.14420632e-03
  2.69006249e-02 -7.93328509e-02  6.72666728e-03  1.21952957e-02]