[-0.08388505  0.17577901  0.07453888 -0.05269779 -0.13769269 -0.00087545
 -0.05587362 -0.13770367  0.16413474 -0.08066866  0.2636939  -0.09327137
 -0.22070339 -0.08174648 -0.06614651  0.20164858 -0.18142818 -0.1152605
  0.03455017  0.02864615  0.11722674  0.03021434 -0.00263717  0.0510156
 -0.09063924 -0.39145809 -0.08072833 -0.06185815  0.01787815 -0.10676801
 -0.08459433  0.08704825 -0.14244366 -0.07243212  0.07601459  0.08239451
 -0.04649486 -0.07875291  0.13394409  0.01740516 -0.24057655  0.03903535
  0.05584353  0.26023838  0.16857427  0.04378828  0.03162816 -0.17533343
  0.12877165 -0.18590212 -0.01002413  0.1515343   0.0036276   0.03742444
  0.03232411 -0.1866101  -0.00751416  0.05472505 -0.18775034 -0.05467943
  0.05435489 -0.0724186  -0.02776319 -0.08248251  0.17640771  0.10380439
 -0.06527248 -0.20618153  0.13345051 -0.12269821 -0.05121235  0.09322543
 -0.14972727 -0.15993045 -0.23501764 -0.03012271  0.42185831  0.07973062
 -0.1370015   0.0671116  -0.06337392 -0.02053303  0.085909    0.1418602
  0.01881445  0.04451289 -0.07724483  0.02755988  0.17405471 -0.09824773
  0.00659326  0.22400694 -0.00941132  0.08382016  0.04265725  0.02643048
 -0.11657297  0.06115823 -0.13390504 -0.10092214  0.01104235 -0.01904185
  0.01546821  0.13673447 -0.23379223  0.12622271  0.0113952   0.02440439
  0.00928931 -0.05524447 -0.01223207 -0.0120191   0.10940265 -0.27222255
  0.18236214  0.15936981  0.04270771  0.13147146  0.06415429  0.0166378
  0.00858772 -0.0874249  -0.17473803 -0.01125634  0.06830273 -0.02594343
  0.01054942 -0.05425991]