[-1.12493537e-01  1.66613966e-01  9.72583070e-02 -5.80795668e-02
 -1.29066572e-01 -3.58612612e-02 -5.95673323e-02 -1.34572119e-01
  1.59078479e-01 -9.37099457e-02  2.20178634e-01 -8.10821205e-02
 -2.15655074e-01 -9.54871476e-02 -4.07636054e-02  2.17524678e-01
 -2.13531598e-01 -1.12926103e-01 -1.35044158e-02 -8.00620951e-03
  1.05101325e-01  4.84456979e-02  2.31399443e-02  7.76932910e-02
 -9.08251405e-02 -4.29172993e-01 -7.36890286e-02 -7.74106234e-02
  8.70306802e-04 -8.32509622e-02 -9.40502807e-02  7.82281458e-02
 -1.34508088e-01 -5.80912903e-02  5.06488569e-02  1.19633809e-01
 -5.09493016e-02 -7.08677620e-02  1.26054183e-01 -5.69291413e-03
 -2.49678329e-01  7.74293765e-03  7.48549625e-02  2.41712451e-01
  2.33327344e-01  3.01730521e-02  2.05514561e-02 -1.30364537e-01
  1.22431256e-01 -2.47327670e-01 -3.68315587e-03  1.51690871e-01
  1.27959987e-02  6.66637048e-02  5.82027845e-02 -1.79741144e-01
 -6.77698432e-03  4.60334085e-02 -1.91124156e-01 -7.48654827e-02
  2.44537368e-04 -1.06205814e-01 -3.57091203e-02 -3.82202193e-02
  1.79988012e-01  1.30094990e-01 -7.46387467e-02 -1.53900191e-01
  1.58405229e-01 -1.80275664e-01 -4.61679213e-02  5.22494987e-02
 -1.39558598e-01 -1.73622653e-01 -2.78534949e-01 -4.53213751e-02
  4.24827158e-01  1.10238396e-01 -1.75369576e-01  5.69280945e-02
 -6.14615679e-02 -2.80397180e-02  8.68958384e-02  1.70964226e-01
  1.45856745e-03  5.76295033e-02 -8.73038992e-02  6.00611530e-02
  1.41364381e-01 -1.08303092e-01  2.22819000e-02  2.72972077e-01
  4.08734046e-02  1.00189246e-01  6.76356331e-02  4.28977683e-02
 -8.75207409e-02  2.56347898e-02 -1.66237906e-01 -7.71033689e-02
  3.48364078e-02 -6.42484892e-03  4.91759134e-03  1.15932517e-01
 -2.20356733e-01  1.39781401e-01  3.44567038e-02 -1.05066586e-03
  1.11139228e-03 -5.70902824e-02 -5.02050389e-03 -5.81010878e-02
  1.24881640e-01 -2.29545519e-01  1.42685756e-01  2.14730650e-01
 -5.12161246e-03  1.82750151e-01  3.25333960e-02  3.07542682e-02
  1.39954332e-02 -1.13271810e-01 -1.50400817e-01  9.84526798e-03
  6.66936710e-02 -2.07102541e-02 -2.44863331e-02 -1.73967592e-02]