[-0.03184026  0.12669851  0.04547537 -0.04253401 -0.07951509  0.05698828
  0.00843265 -0.12897924  0.19068511 -0.07719105  0.22086559 -0.01235854
 -0.22190927 -0.09290024  0.00428874  0.17506547 -0.14329527 -0.12043431
 -0.05650637  0.02703435  0.05774254  0.00549647  0.00366211  0.09523401
 -0.0824113  -0.39976844 -0.0759357  -0.09260447  0.06381556 -0.13421029
 -0.09582882  0.07419849 -0.14622685 -0.06639202  0.03341192  0.0916354
 -0.06766259 -0.05891315  0.16203351  0.07504024 -0.21642475  0.04500229
  0.02859265  0.28899965  0.2564131   0.05819409  0.08322984 -0.11654214
  0.16570674 -0.28115663  0.03236846  0.09990593  0.03003788  0.04096746
  0.08108371 -0.22364156 -0.03922918  0.04528234 -0.18626314  0.04194782
  0.03051621 -0.05161101 -0.04908023 -0.01754877  0.17981187  0.10143012
 -0.0731518  -0.14971668  0.18936583 -0.16540806 -0.01807611  0.06440532
 -0.15024774 -0.16353177 -0.24500428  0.00814332  0.47158915  0.1184684
 -0.1512419   0.04962881 -0.08296844 -0.00630359  0.10044422  0.11189294
  0.0135655  -0.00344261 -0.08652919  0.05554385  0.18893814 -0.04805258
  0.03092703  0.23834884 -0.00299489  0.06232331  0.03118659  0.04659582
 -0.1074817   0.05042682 -0.17948096 -0.09221285  0.00349474 -0.00496335
  0.05663322  0.12374721 -0.24260972  0.17398031  0.01130782  0.01690526
  0.04039431 -0.03842672 -0.07753813  0.00668303  0.14244859 -0.26858968
  0.16144389  0.19188981  0.02304936  0.08815017  0.03814993  0.02566669
  0.04535381 -0.0719643  -0.21605714 -0.00176052  0.04623991 -0.03279614
 -0.03436805 -0.02863749]