[-0.08493948  0.16481414  0.09371679 -0.0564523  -0.13915771 -0.00390188
 -0.06174237 -0.13939703  0.14673559 -0.08205928  0.22009917 -0.07926917
 -0.21634047 -0.08515283 -0.03252986  0.21043885 -0.20066845 -0.11059356
  0.00047721 -0.00500496  0.09176755  0.04693027  0.02306646  0.05910369
 -0.09867243 -0.40907764 -0.05034005 -0.06547065  0.00055425 -0.07842644
 -0.10241586  0.0740375  -0.14565742 -0.04795112  0.06811624  0.12837349
 -0.05436195 -0.0700772   0.10963007  0.01548846 -0.24954677  0.02737475
  0.06290116  0.25189725  0.23171781  0.03293458  0.01997218 -0.13137437
  0.13447793 -0.23694117  0.0122117   0.14619677  0.00384734  0.04584602
  0.05298517 -0.18636158 -0.02244603  0.06671967 -0.16789423 -0.05489596
  0.02150948 -0.07359895 -0.02524821 -0.05622037  0.1786384   0.11656308
 -0.08013076 -0.16055961  0.13444869 -0.14399897 -0.05180398  0.05598288
 -0.15664266 -0.17872119 -0.2531583  -0.02598985  0.42340407  0.09295931
 -0.18086489  0.03914247 -0.04966351 -0.0105108   0.10788994  0.16850404
  0.03742236  0.04357012 -0.08063665  0.04435231  0.16577123 -0.1211133
  0.01228843  0.27055955  0.01412616  0.08147136  0.04140334  0.03752063
 -0.0924846   0.05636501 -0.17387554 -0.10243452  0.02958648 -0.01187085
  0.00692757  0.1257697  -0.2390945   0.13219766  0.03525647  0.01864274
  0.02425902 -0.06380329 -0.01247209 -0.04763084  0.12638249 -0.24769019
  0.16714756  0.21747477  0.01763791  0.15827468  0.04027622  0.01346858
  0.04617685 -0.0932826  -0.1525576   0.00386865  0.05829423 -0.0188496
 -0.03600261 -0.02367712]