[-1.04874745e-01  1.29310682e-01  5.43825105e-02 -7.67322779e-02
 -1.58517957e-01 -2.39587259e-02 -5.61651066e-02 -1.15687214e-01
  1.74315214e-01 -9.14891213e-02  2.30848894e-01 -2.69205756e-02
 -1.62898228e-01 -1.23740099e-01  2.23539560e-03  1.87043905e-01
 -1.93740591e-01 -1.34553269e-01  1.56338289e-02  1.12640485e-03
  6.55585304e-02 -2.43646968e-02  5.78104693e-04  1.01343766e-01
 -1.02808833e-01 -3.83733213e-01 -8.25886130e-02 -1.20067336e-01
  8.29818845e-03 -9.43852589e-02 -7.24080577e-02  8.73607770e-02
 -1.25376433e-01 -9.46145877e-02  3.82515788e-02  1.35034755e-01
 -1.01064453e-02 -2.06906013e-02  1.18937865e-01  2.32619327e-02
 -2.20867321e-01  1.06148340e-01  7.67937675e-02  2.75021315e-01
  2.43431911e-01  3.94493006e-02  6.65273666e-02 -1.05533235e-01
  1.75659448e-01 -2.07523704e-01  2.63655875e-02  1.12863198e-01
  1.03738382e-01  1.42676998e-02  6.87914044e-02 -1.75446197e-01
  2.64122221e-03  4.05923240e-02 -1.88554987e-01 -2.50557816e-04
  6.80136904e-02 -1.40813487e-02 -2.78621502e-02 -3.21509987e-02
  2.43485257e-01  1.29982695e-01 -9.99066532e-02 -1.45849138e-01
  1.45577431e-01 -1.25634313e-01 -8.57122093e-02  4.40649651e-02
 -1.92360356e-01 -1.26142576e-01 -2.56946474e-01  4.33222577e-03
  4.63252395e-01  9.06296298e-02 -1.87259078e-01  6.89565390e-02
 -1.19080067e-01 -6.36373600e-03  3.52158397e-02  1.16052568e-01
 -1.17610162e-02  8.61627888e-03 -8.56862813e-02  1.50311468e-02
  1.72254071e-01 -3.78977545e-02  1.74646676e-02  2.07794532e-01
  4.95708399e-02  9.87917855e-02  4.77752872e-02  6.58109644e-03
 -1.04528703e-01  1.32486811e-02 -1.78447366e-01 -1.08474530e-01
 -4.25339602e-02 -4.59686071e-02  7.82495271e-03  9.39280316e-02
 -2.64340311e-01  1.68020010e-01  2.88394298e-02  3.26727219e-02
 -2.38428749e-02  4.55914028e-02 -5.11647575e-02  5.68717299e-03
  1.22578375e-01 -2.50316232e-01  1.92272618e-01  1.80685595e-01
  6.95372969e-02  1.21887103e-01  8.13582167e-02  1.29730469e-02
  4.49680770e-03 -4.87942658e-02 -1.26802325e-01 -1.45833781e-02
  4.04466502e-02 -6.58276305e-02  4.28400747e-02  2.51152646e-02]