[-0.04734806  0.13442032  0.08310014 -0.00398016 -0.16951829  0.01674079
 -0.04740809 -0.14367424  0.142022   -0.10705971  0.23185198 -0.02512649
 -0.2593779  -0.1319384   0.01336218  0.16741398 -0.13076393 -0.15446447
  0.00496817 -0.0081137   0.08734966 -0.00974486  0.0193222   0.07778178
 -0.12011414 -0.4013539  -0.10891982 -0.06368565 -0.04968399 -0.12661369
 -0.11112616  0.04447294 -0.13365307 -0.08369269  0.06268795  0.12877317
 -0.03911683 -0.07277524  0.1141661   0.02787467 -0.21631567  0.04026334
  0.08019021  0.26062834  0.18289556  0.04427096  0.08054441 -0.10352083
  0.17342755 -0.21580158  0.07553246  0.12880294  0.12641659  0.01414678
  0.09096535 -0.18078867 -0.03149299  0.12694336 -0.15739232  0.01638695
  0.05175344 -0.06509594 -0.03248508 -0.04728996  0.19064878  0.13528755
 -0.06867801 -0.16658892  0.13424449 -0.14975864 -0.09347147  0.05786252
 -0.16972215 -0.16916178 -0.26066789  0.00273265  0.48129731  0.11005148
 -0.19107567  0.01953134 -0.07702865  0.00496222  0.05116487  0.1313486
  0.00158246  0.05097041 -0.13102286  0.04507801  0.20034789 -0.06544177
  0.01825762  0.23989813  0.03985589  0.09028538  0.0695281  -0.01019522
 -0.10068472  0.02796159 -0.156296   -0.10293116 -0.03282915 -0.0627179
  0.00678185  0.07407615 -0.26070413  0.12157837  0.00840302  0.00338508
 -0.01424292 -0.03253635 -0.0729773  -0.01566744  0.11649622 -0.3101463
  0.12788931  0.18363966  0.03545374  0.14406234  0.03302278  0.03916962
  0.03785596 -0.1192891  -0.14149871 -0.02747297  0.0574832  -0.04316449
  0.0101666  -0.01608875]