[-0.03427335  0.14885581  0.08068776 -0.02735451 -0.16067487 -0.01784538
 -0.04877264 -0.15842752  0.14097397 -0.12493571  0.21097405 -0.04999135
 -0.244693   -0.09547422 -0.00616013  0.17806816 -0.16054846 -0.16034184
  0.00076977 -0.01548552  0.0810501   0.01457278  0.0085978   0.0636389
 -0.14687385 -0.38147482 -0.11387421 -0.05716164 -0.04210945 -0.09923927
 -0.10934098  0.08253904 -0.11941592 -0.06955516  0.07998615  0.11687429
 -0.04090156 -0.07896342  0.09366452  0.04338836 -0.24125803  0.04919909
  0.1102308   0.28490865  0.21697402  0.03680409  0.06823014 -0.10805225
  0.16575085 -0.20862131  0.05860073  0.11419541  0.10937356  0.02845407
  0.10044966 -0.1900178  -0.03228796  0.11567209 -0.15009944  0.01006857
  0.07125497 -0.06654479 -0.01970418 -0.05926381  0.2015599   0.11612649
 -0.0965357  -0.14785671  0.14432584 -0.15649152 -0.10241302  0.05238849
 -0.17618936 -0.15926529 -0.27325115 -0.01447857  0.46761733  0.12115625
 -0.16304418  0.0337012  -0.04659605  0.01297946  0.0573778   0.16366671
 -0.00929708  0.05393288 -0.10660005  0.03945049  0.21419835 -0.06568671
 -0.01043731  0.23742639  0.01382838  0.076114    0.05097602 -0.01538
 -0.12263389  0.00944392 -0.17063259 -0.11572194 -0.0362241  -0.06090382
 -0.01674696  0.12119321 -0.24116984  0.12922047  0.01293519  0.0138315
 -0.02544371 -0.02019428 -0.05613288 -0.00983844  0.10466967 -0.2882888
  0.12125202  0.18570912  0.05630148  0.12745081  0.04803985  0.00714338
  0.0411276  -0.09680735 -0.14718679 -0.0345549   0.06690421 -0.05350021
  0.03340109 -0.01576674]