[-0.08246453  0.17274413  0.09484433 -0.05482574 -0.14758901 -0.00428394
 -0.07063234 -0.13911687  0.15114598 -0.09145503  0.21374016 -0.07889812
 -0.21177328 -0.08010792 -0.03018177  0.20716031 -0.20096855 -0.10460927
 -0.01107024 -0.00378945  0.09084781  0.05293715  0.0211393   0.06279033
 -0.08649974 -0.42945361 -0.04554905 -0.06551164  0.01490038 -0.0764644
 -0.1063076   0.07251024 -0.14411482 -0.06353365  0.07003404  0.12730293
 -0.05436138 -0.07495733  0.10977763  0.00889701 -0.25498384  0.03371514
  0.06408826  0.24647199  0.23058391  0.03990938  0.02936384 -0.12988037
  0.14580886 -0.24427573  0.00970124  0.14275676  0.00742112  0.04493886
  0.06274779 -0.19497648 -0.02403277  0.0635851  -0.17841709 -0.05445424
  0.022085   -0.07546058 -0.02304696 -0.05385235  0.18124849  0.11602854
 -0.0764529  -0.16018631  0.14079781 -0.14991914 -0.03957166  0.05705908
 -0.1518458  -0.17592874 -0.25675455 -0.02019855  0.43536669  0.11013059
 -0.16990785  0.03754757 -0.05494547 -0.01058863  0.09677625  0.16986538
  0.0348472   0.03962084 -0.07145502  0.04973916  0.15557121 -0.11138709
  0.01016499  0.27443248  0.02163257  0.08437128  0.0374106   0.03805952
 -0.10876223  0.0451467  -0.17159517 -0.09994998  0.03094444 -0.00348167
  0.01769476  0.13249613 -0.23994167  0.13374691  0.01857557  0.01620213
  0.02992847 -0.05436949 -0.00572083 -0.05306255  0.12234    -0.24743743
  0.1579757   0.21837723  0.02037839  0.16811845  0.03671518  0.00922605
  0.05435799 -0.09389123 -0.15461074 -0.00715167  0.0568164  -0.01893009
 -0.03885341 -0.02337159]