[-0.05032124  0.12066159  0.08677199 -0.00485748 -0.17031386 -0.00680014
 -0.03843462 -0.12162655  0.13603851 -0.10531089  0.21885176 -0.02849348
 -0.26352203 -0.11740426  0.0204764   0.15509641 -0.12056997 -0.13294914
 -0.00398441 -0.01039462  0.08419409 -0.00356941  0.01916456  0.09598485
 -0.12179413 -0.38223803 -0.11671042 -0.07044155 -0.0556945  -0.11336377
 -0.09613926  0.05010204 -0.11169642 -0.08336281  0.0771599   0.13494891
 -0.04553082 -0.07826338  0.10951586  0.03443456 -0.20987587  0.02531458
  0.07902506  0.25762424  0.19565539  0.05866697  0.08978334 -0.08087634
  0.18984804 -0.23729531  0.07271057  0.12569699  0.14143318  0.01284712
  0.11754526 -0.19098404 -0.02690251  0.14303605 -0.16799016  0.01910555
  0.04155727 -0.0569768  -0.03099702 -0.03965291  0.20121145  0.1398436
 -0.09924808 -0.13732405  0.16313878 -0.16410479 -0.07992631  0.06973388
 -0.16829307 -0.17024617 -0.23923545  0.01248303  0.47176868  0.11513815
 -0.17439531  0.00584592 -0.07667124  0.02489202  0.0172878   0.13029714
 -0.01597627  0.03673549 -0.1180732   0.02419755  0.18593054 -0.05721694
  0.027404    0.2498076   0.03997153  0.07047161  0.06975695 -0.01938514
 -0.10277327  0.00358253 -0.13781779 -0.09153441 -0.02667309 -0.09486844
  0.0033547   0.06551314 -0.26942903  0.11839291 -0.01474159 -0.00059538
 -0.02357107 -0.03717809 -0.08273585  0.00283893  0.12248373 -0.32198134
  0.12435611  0.17514794  0.01911046  0.14563908  0.02159237  0.04319524
  0.04509228 -0.12829587 -0.11918435 -0.05260859  0.05448213 -0.05535982
 -0.00267549 -0.02853961]