[-4.95264828e-02  1.32528886e-01  8.87336805e-02 -5.29661886e-02
 -1.60114616e-01 -2.90720221e-02 -2.73223110e-02 -1.37106940e-01
  1.63358048e-01 -1.08395092e-01  2.35734463e-01 -5.72204255e-02
 -2.19574884e-01 -1.21807076e-01  4.83625941e-02  1.72946557e-01
 -1.67370185e-01 -1.27264827e-01 -1.04262838e-02 -4.05510236e-03
  7.41104409e-02 -2.99830921e-02  1.99547447e-02  8.08407515e-02
 -1.02545537e-01 -3.93198699e-01 -1.08367741e-01 -8.46901685e-02
  2.93375850e-02 -7.98683539e-02 -1.02205001e-01  8.55530649e-02
 -8.01561996e-02 -9.92644951e-02  5.44467084e-02  9.43949074e-02
 -4.09980714e-02 -8.45309496e-02  1.33523270e-01 -3.67422210e-04
 -2.27150723e-01  7.30007216e-02  6.48897290e-02  2.43786931e-01
  1.88404083e-01  6.71268329e-02  7.58131817e-02 -1.00389980e-01
  1.77945852e-01 -2.48496130e-01  7.70885572e-02  1.07425071e-01
  9.04733241e-02  3.61638702e-02  9.50038657e-02 -1.95611358e-01
  8.52121785e-03  6.32773936e-02 -2.28311449e-01 -2.31370772e-03
  6.88835382e-02 -7.08155856e-02 -3.01065948e-02 -4.45851833e-02
  2.16076300e-01  1.80318460e-01 -8.57504383e-02 -1.38188004e-01
  1.51635334e-01 -1.33194461e-01 -8.42060372e-02  3.28185931e-02
 -1.75500661e-01 -1.20762825e-01 -2.62978256e-01  1.63706020e-02
  4.88931865e-01  1.29670009e-01 -1.77691698e-01  1.51367253e-02
 -9.01390836e-02  4.15328005e-03  5.84076308e-02  1.28910840e-01
 -2.57380046e-02 -2.04164218e-02 -9.91096571e-02  1.61906146e-02
  1.39907986e-01 -7.53731802e-02 -5.65531058e-03  2.34947130e-01
  7.44547099e-02  1.14141963e-01  4.43017520e-02  1.07360482e-02
 -1.11036733e-01  1.48815010e-02 -1.50831714e-01 -7.74090961e-02
  3.53609631e-03 -3.50629799e-02  1.72225814e-02  1.08361579e-01
 -2.49803349e-01  1.71828568e-01  2.35551484e-02  2.84818350e-03
  4.29698965e-03  1.33223860e-02 -3.22990678e-02 -1.87244769e-02
  7.99821764e-02 -2.87287056e-01  1.45419389e-01  1.87500492e-01
  6.64368346e-02  1.48803726e-01  2.71012671e-02  2.33886633e-02
  4.14377935e-02 -8.94394815e-02 -1.33605450e-01 -3.97199057e-02
  6.48436174e-02 -2.27932781e-02 -2.48389202e-03  3.20342183e-02]