[-0.09622061  0.16713737  0.07139601 -0.05340689 -0.13899907 -0.00373651
 -0.05323908 -0.14506967  0.14790224 -0.06803207  0.25933993 -0.10759375
 -0.23647921 -0.07693531 -0.07770713  0.21473609 -0.18635187 -0.13198259
  0.03436956  0.01281055  0.10837495  0.04237637 -0.00477962  0.0399734
 -0.0839369  -0.39843246 -0.06722643 -0.07664915 -0.00789746 -0.09979626
 -0.07213939  0.10245599 -0.14476338 -0.06466589  0.0796501   0.08292406
 -0.03266482 -0.07685053  0.15464386  0.01166678 -0.23761444  0.03168696
  0.0712374   0.26203844  0.15470052  0.02363241  0.01598335 -0.17439507
  0.10498273 -0.18265268 -0.01418631  0.14673154  0.00191273  0.042581
  0.00376298 -0.18900387  0.00702779  0.04511277 -0.1941859  -0.0563046
  0.05864543 -0.117699   -0.02733673 -0.07374992  0.18884023  0.09146628
 -0.05394803 -0.19444947  0.12821396 -0.11291903 -0.05320704  0.07676403
 -0.15273222 -0.15724038 -0.25457364 -0.02437261  0.41810057  0.06923418
 -0.1546621   0.06586862 -0.05582628 -0.02266057  0.10105819  0.14917047
  0.01965213  0.03539542 -0.09007861  0.03162295  0.1785588  -0.10242236
 -0.00374743  0.222157   -0.0080288   0.09238148  0.05695233  0.03226155
 -0.10127058  0.05051351 -0.13717847 -0.08839897  0.00421178 -0.02301395
  0.01209322  0.1453211  -0.22316127  0.09945313  0.01267103  0.00414766
 -0.00067041 -0.06050403  0.00906646 -0.03552513  0.11495326 -0.250058
  0.17473237  0.16993397  0.04840016  0.15043782  0.0598598   0.0185132
 -0.00753643 -0.08517896 -0.18938123  0.00604223  0.08110032 -0.00398218
  0.01701433 -0.03383618]