[-0.10505819  0.13568412  0.04064393 -0.08224069 -0.15023361 -0.00916706
 -0.05784066 -0.16380312  0.14728244 -0.06351999  0.25468639 -0.10250085
 -0.22187607 -0.09972595 -0.05701413  0.23535633 -0.21003549 -0.13663827
  0.00911737 -0.0051649   0.0651135   0.03978916 -0.02568468  0.06097377
 -0.07999104 -0.39071211 -0.0549035  -0.0963087  -0.04615217 -0.08552442
 -0.07954222  0.11712386 -0.15119177 -0.06923985  0.07529982  0.10240994
 -0.04909782 -0.05079315  0.1288323  -0.01421323 -0.22935842  0.00274003
  0.12311553  0.24351595  0.20254751  0.00531509  0.01780575 -0.16726115
  0.10632368 -0.15714744 -0.02316242  0.12485632  0.06634402  0.04579495
 -0.0167909  -0.1739385  -0.01748954  0.06484886 -0.16061883 -0.05596842
  0.08145409 -0.11208202 -0.07082143 -0.07647547  0.24959528  0.1058072
 -0.08301529 -0.19122849  0.12962745 -0.11750289 -0.10427734  0.02752448
 -0.16363744 -0.15576296 -0.27197379 -0.05368101  0.37574571  0.0261283
 -0.19644231  0.06692272 -0.07617874 -0.00568221  0.09851176  0.1300641
  0.00887269  0.03324096 -0.08274164  0.00819334  0.21374825 -0.10973924
  0.02730552  0.20586936 -0.00877517  0.07781613  0.05926396  0.01023778
 -0.06583843  0.05776472 -0.15875992 -0.0847059  -0.00353625 -0.03867018
  0.0179816   0.11883568 -0.22484474  0.11744729  0.04682418  0.04836262
  0.03082475 -0.05639009 -0.02422103 -0.06750499  0.15668418 -0.22363113
  0.18340801  0.15290807  0.05633438  0.14718266  0.07821214  0.05391787
 -0.02885532 -0.06570441 -0.20734663  0.04151747  0.11234915 -0.02847137
  0.03418011 -0.00594964]