[-0.0528239   0.08234994  0.029978   -0.0908094  -0.10871226  0.04949162
  0.02032414 -0.14033207  0.20684381 -0.1177217   0.21522437 -0.02884912
 -0.21154566 -0.05461562  0.01459122  0.13742529 -0.15173607 -0.08916853
  0.00583093  0.01944806  0.05640318  0.02335395 -0.02368823  0.06696667
 -0.07862678 -0.36530924 -0.11728521 -0.07872661  0.06156942 -0.10780834
 -0.06258257  0.08236137 -0.11545565 -0.05815633  0.03355332  0.08460612
 -0.0819901  -0.04669303  0.14941303  0.07677101 -0.17877312  0.06850385
  0.00053105  0.28380615  0.16925487  0.07956611  0.06444631 -0.16736673
  0.15541023 -0.22947884  0.03027822  0.09904861  0.01439638  0.0384744
  0.04629926 -0.18879227 -0.0017741   0.02225788 -0.22004782  0.05891825
  0.07305961 -0.03645291 -0.03863802 -0.02206597  0.17362575  0.10745049
 -0.05602852 -0.17023155  0.17313297 -0.17004158 -0.06978617  0.05860058
 -0.14140153 -0.17542814 -0.18959086  0.01935223  0.44142875  0.13405591
 -0.1405894   0.03418282 -0.07481453 -0.03201853  0.13695182  0.10890766
  0.01004922 -0.02080591 -0.06006429  0.03954555  0.2055041  -0.06767699
  0.0176156   0.23950557  0.04234717  0.0807224   0.03324365  0.02576268
 -0.09848943  0.06614359 -0.16762343 -0.10209898  0.02939689 -0.02219903
  0.05809529  0.14122094 -0.25810465  0.25222349  0.01394463 -0.02437529
  0.03595607 -0.02813597 -0.06437408  0.01692523  0.14804597 -0.26429087
  0.1721576   0.19113511  0.06959462  0.11378475  0.02226503  0.02744742
  0.03066486 -0.0545844  -0.21041477 -0.01670229  0.04627527 -0.01509878
 -0.01813358 -0.02395745]