[-7.87925199e-02  9.91445109e-02  3.47066112e-02 -9.96889398e-02
 -1.22984521e-01  4.56548147e-02  3.12471576e-02 -1.33311138e-01
  2.07622439e-01 -8.65044668e-02  2.25074157e-01 -5.08250259e-02
 -2.29888961e-01 -8.00617337e-02 -3.04789282e-03  1.58591613e-01
 -1.68540642e-01 -1.18251018e-01  2.65335198e-02  5.45212720e-03
  5.99011742e-02  6.99936366e-03 -4.18007337e-02  1.04516983e-01
 -8.61176252e-02 -3.77404153e-01 -1.13727525e-01 -8.89078826e-02
  4.19061594e-02 -1.29304737e-01 -4.50107940e-02  1.14421882e-01
 -1.16407290e-01 -5.36752604e-02  3.53318490e-02  9.26426128e-02
 -6.21699207e-02 -6.47938699e-02  1.60846159e-01  6.79660290e-02
 -1.84771001e-01  6.18457682e-02  1.84274893e-02  2.98019767e-01
  1.99820310e-01  5.09981774e-02  5.54632619e-02 -1.50545940e-01
  1.90819293e-01 -2.26047948e-01 -1.66237351e-05  1.28424808e-01
  2.34573856e-02  3.37865837e-02  4.71789353e-02 -1.86532632e-01
 -2.14726548e-03  1.67089887e-02 -2.21595764e-01  2.09842473e-02
  5.44224940e-02 -8.84174332e-02 -3.32300179e-02 -5.21761067e-02
  1.65693611e-01  9.20361429e-02 -5.03417738e-02 -1.67860374e-01
  2.15613961e-01 -1.58437595e-01 -6.95102364e-02  5.71450666e-02
 -1.57945886e-01 -1.55443937e-01 -2.12611392e-01  2.57487055e-02
  4.29003805e-01  1.30911887e-01 -1.36491403e-01  7.25748241e-02
 -7.76221901e-02 -8.78459495e-03  9.33052748e-02  1.21010996e-01
  2.54668412e-03 -1.94987189e-02 -7.60170743e-02  3.70574258e-02
  1.89627558e-01 -5.53562231e-02  3.18721719e-02  2.33836249e-01
  3.01398132e-02  9.07300711e-02  6.02452233e-02  2.02637818e-02
 -1.00132585e-01  6.07674830e-02 -1.59923792e-01 -7.85184130e-02
  1.07165566e-02 -3.61429453e-02  6.68781921e-02  1.33212224e-01
 -2.60153532e-01  2.24980146e-01  1.33965733e-02 -7.71295140e-03
 -5.39833261e-03 -3.99190821e-02 -4.37947810e-02  4.32746075e-02
  1.44203886e-01 -2.84754634e-01  1.79059654e-01  1.66838810e-01
  5.09716980e-02  1.23341680e-01  2.21499782e-02  3.16491313e-02
  5.61602428e-05 -8.94921347e-02 -1.91497743e-01 -1.67017635e-02
  5.88042550e-02 -2.00651437e-02 -1.59264635e-02 -1.59834698e-02]