[-0.10213383  0.15724526  0.0701246  -0.08052482 -0.15336324  0.01804713
 -0.0610689  -0.14563929  0.15101857 -0.0827211   0.26740089 -0.100416
 -0.22292729 -0.09108317 -0.02534942  0.23446754 -0.17060149 -0.11133935
 -0.00424571 -0.00468544  0.08036865  0.01551278  0.00202406  0.07621877
 -0.10879672 -0.39922264 -0.07386664 -0.07440353 -0.01610979 -0.10538495
 -0.10041779  0.0934392  -0.15320012 -0.06514443  0.04994166  0.09854003
 -0.04599801 -0.07855256  0.10940748  0.01198738 -0.26188913  0.02706329
  0.0994394   0.24456428  0.19205527  0.03342754  0.03446522 -0.13714403
  0.11151668 -0.17468803  0.01704888  0.13249581  0.03356678  0.01881121
  0.02170145 -0.17569537 -0.01651341  0.07296688 -0.18366627 -0.06751805
  0.08358075 -0.06127189 -0.0588713  -0.08914667  0.22860025  0.14568739
 -0.08898254 -0.17534795  0.13725626 -0.09430351 -0.04908874  0.05025162
 -0.18651721 -0.17120555 -0.24757926 -0.00970951  0.40665203  0.06476334
 -0.16301997  0.06440004 -0.08109403 -0.0062385   0.07767033  0.14141284
  0.02298293  0.04064881 -0.05962854  0.03478415  0.17313671 -0.09887069
  0.03745238  0.23882662 -0.0007338   0.03896257  0.03513983  0.0250238
 -0.11344651  0.04638749 -0.15115111 -0.10216615  0.00135448 -0.02756979
  0.01383351  0.11157935 -0.25665298  0.13784485  0.04369202  0.03176229
  0.02823271 -0.04689993 -0.02320816 -0.05030816  0.12520008 -0.24952464
  0.15457799  0.15942518  0.05256089  0.13530074  0.08730493  0.05212867
  0.0151797  -0.07282252 -0.18479012  0.01875311  0.1107257  -0.05442212
  0.02020756 -0.01373901]