[-5.34132980e-02  1.39817595e-01  1.19565010e-01 -4.48939353e-02
 -1.38936728e-01  1.71677750e-02 -5.54331243e-02 -1.38222620e-01
  1.70191407e-01 -1.27301529e-01  2.35966876e-01 -5.55893779e-02
 -2.16538072e-01 -7.65989944e-02 -9.89830960e-03  1.99696943e-01
 -1.64644897e-01 -1.13966815e-01  9.79069155e-03  2.43175411e-04
  5.99691384e-02  5.88609604e-03  1.31516056e-02  5.31521700e-02
 -9.56478864e-02 -3.98429632e-01 -1.03280954e-01 -5.20736836e-02
  1.56188195e-04 -9.71613526e-02 -9.23865214e-02  6.85432106e-02
 -1.16982065e-01 -6.00489490e-02  3.87317576e-02  1.01449087e-01
 -2.26111170e-02 -6.96778595e-02  1.08311497e-01  1.85713209e-02
 -2.37035856e-01  3.59928198e-02  5.18035777e-02  2.48509198e-01
  1.75308898e-01  3.84965092e-02  5.00708595e-02 -1.27599537e-01
  1.47230849e-01 -2.15718940e-01  4.81034815e-02  1.06208816e-01
  4.67577539e-02  2.78850943e-02  6.72553778e-02 -1.76260099e-01
 -2.84083579e-02  9.37771872e-02 -1.33592367e-01  4.33963491e-03
  5.40060885e-02 -5.22335842e-02 -1.08019244e-02 -6.78906366e-02
  1.81080312e-01  1.18144587e-01 -7.94845298e-02 -1.64646029e-01
  1.34314939e-01 -1.21330857e-01 -7.58343711e-02  4.70116958e-02
 -1.73638731e-01 -1.51650771e-01 -2.95474142e-01 -5.75434556e-03
  4.64483589e-01  1.11468710e-01 -1.81811363e-01  8.00689496e-03
 -6.97063133e-02 -1.24021398e-03  8.03436935e-02  1.68371066e-01
  1.86685380e-02  2.60472037e-02 -8.16866830e-02  2.45369077e-02
  1.82182893e-01 -7.56371245e-02 -8.69695935e-03  2.33752772e-01
  1.67583823e-02  1.12924419e-01  9.16303508e-03  1.68638323e-02
 -9.98529121e-02  3.09304781e-02 -1.73294574e-01 -9.64000002e-02
 -2.02264246e-02 -1.27566233e-03 -3.03087453e-03  1.47605464e-01
 -2.49574453e-01  1.56318605e-01  3.18057798e-02  1.12163145e-02
  2.86449026e-02  2.53599435e-02 -4.15022559e-02 -4.16039489e-02
  1.29866958e-01 -2.50151366e-01  1.17686905e-01  2.17479929e-01
  6.08647130e-02  1.25581965e-01  5.32132685e-02  3.72337028e-02
  3.24792489e-02 -7.26297721e-02 -1.61610439e-01 -5.72899496e-03
  4.78851721e-02 -4.65737060e-02 -2.11244226e-02  2.41503130e-05]