[-1.00805223e-01  1.20132171e-01  4.72476147e-02 -7.37489536e-02
 -1.65448561e-01 -2.43020579e-02 -5.85157461e-02 -1.25028878e-01
  1.71788827e-01 -9.73193645e-02  2.35937461e-01 -2.81960219e-02
 -1.79302648e-01 -1.34462059e-01  9.97851137e-03  1.81892484e-01
 -1.87952802e-01 -1.29241049e-01  2.81930566e-02 -4.86097438e-03
  6.26697913e-02 -1.19178509e-02  6.17390871e-03  1.04295276e-01
 -9.21011716e-02 -3.87758821e-01 -7.88346604e-02 -1.15051262e-01
  1.05321351e-02 -9.84742045e-02 -8.21807235e-02  9.61703435e-02
 -1.24039583e-01 -9.48009565e-02  4.77528237e-02  1.35611668e-01
 -1.89670976e-02 -9.74219572e-03  1.22055128e-01  2.44031232e-02
 -2.08960295e-01  9.20607001e-02  7.13558495e-02  2.69671768e-01
  2.35596061e-01  5.04190512e-02  6.24237321e-02 -1.17856406e-01
  1.63934916e-01 -2.15121299e-01  3.37500647e-02  1.27814606e-01
  1.03996292e-01  1.75230508e-03  6.05228506e-02 -1.88960671e-01
 -2.60397536e-03  2.92319544e-02 -1.96966410e-01  8.12513940e-03
  7.52119198e-02 -1.10172322e-02 -3.33571844e-02 -1.74077041e-02
  2.40371943e-01  1.31095991e-01 -1.00148536e-01 -1.50347725e-01
  1.44430220e-01 -1.40579626e-01 -9.03317854e-02  4.08877954e-02
 -1.87811241e-01 -1.39925599e-01 -2.50421226e-01 -1.03628857e-03
  4.60141093e-01  9.03944820e-02 -1.91949785e-01  6.08433075e-02
 -1.16861358e-01 -1.93237253e-02  4.29033190e-02  1.10691726e-01
 -1.60442144e-02 -8.94459896e-03 -9.28495526e-02  1.84066258e-02
  1.66427836e-01 -4.14767973e-02  2.14530230e-02  2.16139033e-01
  5.58589809e-02  1.07572459e-01  5.16058579e-02  1.48358718e-02
 -1.05449155e-01  2.05450710e-02 -1.79044798e-01 -1.09779574e-01
 -4.04578857e-02 -5.34159243e-02  1.41728744e-02  1.04475789e-01
 -2.68102020e-01  1.82272807e-01  2.31050551e-02  1.94110218e-02
 -1.97087955e-02  3.42436843e-02 -5.72474599e-02 -3.17538914e-04
  1.23903096e-01 -2.45784879e-01  1.96113139e-01  1.84177160e-01
  8.18083510e-02  1.31699905e-01  7.52331242e-02  1.65474340e-02
  1.56920739e-02 -5.87399863e-02 -1.33874565e-01 -1.80052351e-02
  2.92921569e-02 -7.41059110e-02  3.19250822e-02  2.36513242e-02]