[-0.10193163  0.14183919  0.08648916 -0.06489386 -0.13540454 -0.03219393
 -0.04982224 -0.14532289  0.15568408 -0.07313901  0.25542113 -0.08646085
 -0.20980437 -0.10365587 -0.0360533   0.21594134 -0.186287   -0.07975994
  0.01030611  0.02832633  0.08308511  0.00521279  0.03687113  0.0914318
 -0.07867719 -0.41658694 -0.09247911 -0.09676828 -0.02582139 -0.09973555
 -0.11005753  0.06734222 -0.159538   -0.07489612  0.04290841  0.11298349
 -0.0706053  -0.06431507  0.11139883  0.00360004 -0.21938227 -0.01648342
  0.06711768  0.22133887  0.22008677  0.0355331   0.05810028 -0.14600562
  0.13000789 -0.20794785  0.00664434  0.1178664   0.03611689  0.03873102
  0.01761942 -0.16532293 -0.01846291  0.07345697 -0.15941481 -0.04322319
  0.06262529 -0.07207307 -0.07143654 -0.04049072  0.23755991  0.13626562
 -0.09898105 -0.15357532  0.14988296 -0.13904889 -0.03353524  0.03614262
 -0.15613103 -0.17645481 -0.24200116 -0.03101579  0.39977056  0.0573122
 -0.17348397  0.0362797  -0.14136688  0.00776293  0.05562998  0.12775157
  0.01464887  0.05984188 -0.1017337   0.0257366   0.1737916  -0.12917672
  0.07120206  0.25831109  0.00369643  0.08197336  0.04710186  0.01456252
 -0.10435084  0.04227873 -0.14938249 -0.08878358  0.01271625 -0.04417711
  0.00839997  0.0954458  -0.25853953  0.13609904  0.03052144  0.02428948
  0.04317111 -0.0776767  -0.048429   -0.07601096  0.13966064 -0.2310998
  0.15715657  0.17050363  0.02996585  0.15686764  0.05635859  0.07029729
 -0.00380819 -0.09497244 -0.1586546   0.04213908  0.08677653 -0.02618742
 -0.02398744 -0.03791276]