[-0.03270895  0.12686211  0.0913032  -0.06408034 -0.14735116 -0.02134712
 -0.02242403 -0.13259012  0.17519572 -0.11272547  0.23683397 -0.03644292
 -0.2157533  -0.12590854  0.04457169  0.17159827 -0.16143608 -0.11260988
 -0.03514767 -0.01188967  0.06719857 -0.04941405  0.0155522   0.07689063
 -0.09985157 -0.37616274 -0.09314886 -0.07985344  0.02017341 -0.07454956
 -0.09727134  0.0720477  -0.09255024 -0.10166164  0.04242603  0.09840186
 -0.04223008 -0.07361528  0.12422629 -0.00315938 -0.22005264  0.08482557
  0.05102494  0.21877892  0.21085735  0.08449995  0.09464536 -0.12682368
  0.21017225 -0.2356333   0.06652891  0.09929714  0.09194303  0.02125624
  0.10023407 -0.2010982  -0.01038792  0.08238707 -0.22182284 -0.01335872
  0.06183388 -0.05010203 -0.05278784 -0.05939537  0.21986471  0.18533032
 -0.09767181 -0.14611948  0.1689472  -0.13196088 -0.06568759  0.04534636
 -0.16814975 -0.11816939 -0.24163167  0.01949538  0.47259459  0.11469679
 -0.17142041  0.00874298 -0.11071765  0.02630612  0.06174903  0.11125886
 -0.02061095 -0.02010268 -0.08366188  0.00105174  0.14112335 -0.07767247
  0.01037844  0.22503181  0.06417073  0.09635916  0.02473729  0.00126308
 -0.12870368  0.04277066 -0.15138534 -0.08355603  0.01274417 -0.02661061
  0.03856228  0.07883327 -0.24523821  0.1610823   0.00378773  0.02599432
  0.02420719 -0.00342741 -0.04046608 -0.01852591  0.09309728 -0.29901144
  0.15431264  0.17205396  0.03901066  0.13590914  0.03953525  0.04665368
  0.04016196 -0.0832839  -0.14138308 -0.02933837  0.06983045 -0.02822245
  0.00966392  0.00950983]