[-0.05842024  0.16772233  0.10001607 -0.04170042 -0.12348431  0.00303136
 -0.05421866 -0.14004377  0.15441293 -0.08034115  0.24801834 -0.09121946
 -0.22944771 -0.06378727 -0.04877713  0.21518509 -0.16890335 -0.09290513
  0.01505559  0.01670103  0.08907566  0.05336436  0.01783093  0.04503626
 -0.06819788 -0.40377077 -0.07202797 -0.06157143  0.03152588 -0.08537399
 -0.09409539  0.07181636 -0.14688064 -0.0649681   0.07480085  0.06630429
 -0.05071157 -0.07562935  0.13080189  0.02633815 -0.24256466  0.02286022
  0.04918724  0.24366455  0.16659477  0.06498013  0.04297563 -0.17773212
  0.10967138 -0.19737665  0.00365242  0.13759001 -0.00837642  0.03272489
  0.02292383 -0.19488446 -0.01530782  0.05217467 -0.19024287 -0.03448364
  0.05864649 -0.05342349 -0.02601373 -0.06212166  0.19826059  0.09094968
 -0.08159445 -0.18406595  0.13006602 -0.13238823 -0.03987774  0.07084417
 -0.14236915 -0.1671637  -0.24634857 -0.02639104  0.42662254  0.07529098
 -0.15119863  0.05257173 -0.06945689 -0.02835724  0.09656121  0.16403823
  0.02736424  0.03972951 -0.06258711  0.0239442   0.17435837 -0.11111448
  0.01385027  0.24852569 -0.01417402  0.08536182  0.01480001  0.04114218
 -0.12290924  0.05910423 -0.13800724 -0.10749751  0.01779356  0.00549713
  0.02188287  0.14610587 -0.24823104  0.15012549  0.00996908  0.01074066
  0.03932501 -0.05357425 -0.01503193 -0.03949711  0.12479182 -0.2499415
  0.17176248  0.18302289  0.04587048  0.13085732  0.05848409  0.02430166
  0.03280526 -0.08041359 -0.19261146 -0.0066835   0.07226294 -0.04566574
 -0.00602371 -0.04152508]