[-0.04344603  0.11333013  0.04408722 -0.07514928 -0.11235509  0.05219282
  0.00731557 -0.12178202  0.18488447 -0.06028799  0.25061226 -0.00378566
 -0.20648201 -0.10038916  0.03143037  0.14541845 -0.15544592 -0.0949308
 -0.05544713  0.01309818  0.03609872  0.02797945  0.02705556  0.06173912
 -0.11720707 -0.37615725 -0.07966279 -0.09145276  0.08514791 -0.16786751
 -0.09232217  0.10359204 -0.127683   -0.08155325  0.0488567   0.10017154
 -0.08979958 -0.04985057  0.17359956  0.07098771 -0.18595453  0.05747589
  0.01639045  0.30907625  0.24597242  0.04483273  0.06728961 -0.13070481
  0.1500579  -0.25743204  0.04855131  0.10335731  0.05521385  0.02466169
  0.08999691 -0.18580304 -0.03197443  0.03831906 -0.21139584  0.03651066
  0.04513063 -0.04891901 -0.04955254 -0.04237684  0.17081897  0.0991698
 -0.06087493 -0.1390924   0.18788585 -0.12590317 -0.04950331  0.06010237
 -0.14972463 -0.16451912 -0.22487746 -0.00900584  0.42413503  0.11068647
 -0.18626204  0.03628825 -0.08111008 -0.05184343  0.07252871  0.08688318
 -0.0171671  -0.00551779 -0.0766523   0.07707467  0.18605061 -0.07334205
  0.03869328  0.23537314  0.0378808   0.04998018  0.05643217  0.02645767
 -0.11045623  0.04571554 -0.19689889 -0.10297193  0.02389653 -0.04371383
  0.05582438  0.14319414 -0.25339004  0.22100544  0.03707209 -0.02359259
  0.03315279 -0.06411057 -0.05995258  0.0035018   0.16080777 -0.27241582
  0.16242987  0.19535986  0.04569835  0.09890416  0.0232955   0.01334746
  0.03062295 -0.04488564 -0.19216089 -0.00587581  0.04265139 -0.03600287
 -0.02503674 -0.00500841]