[-2.30384115e-02  1.32437274e-01  9.61692557e-02 -1.38529241e-02
 -1.43484876e-01  2.01048106e-02 -3.75710949e-02 -1.42215684e-01
  1.52095243e-01 -1.25305027e-01  2.35624239e-01 -3.20950225e-02
 -2.66082525e-01 -8.47537741e-02  2.25695013e-03  1.71810001e-01
 -1.49858072e-01 -1.61157578e-01  2.94016232e-03  6.56559924e-03
  7.40952194e-02 -2.67558469e-04  1.85742136e-03  6.89436197e-02
 -1.20833360e-01 -3.89049500e-01 -1.20390438e-01 -4.61275168e-02
 -3.23724113e-02 -1.14082314e-01 -1.04862489e-01  6.50960431e-02
 -1.05417386e-01 -4.75392342e-02  8.16567913e-02  1.23070039e-01
 -2.59010438e-02 -8.81872624e-02  1.17732860e-01  3.85117792e-02
 -2.30716377e-01  5.84616736e-02  8.21748748e-02  2.76290923e-01
  2.01397896e-01  4.83780168e-02  6.90138713e-02 -1.03329755e-01
  1.83122918e-01 -2.31585771e-01  6.86292052e-02  1.25658482e-01
  1.29004002e-01  1.86772924e-02  9.58234221e-02 -2.14696288e-01
 -3.98646407e-02  1.18093528e-01 -1.50764167e-01  1.21942600e-02
  4.09997813e-02 -6.48745522e-02 -7.12912111e-03 -4.75241691e-02
  1.84412345e-01  1.27208039e-01 -9.53355283e-02 -1.60565242e-01
  1.56090811e-01 -1.56216070e-01 -8.74076560e-02  4.68252562e-02
 -1.85834825e-01 -1.55707538e-01 -2.59025812e-01 -1.25115653e-02
  4.74047750e-01  1.02034211e-01 -1.81180969e-01  3.98047492e-02
 -5.67050576e-02  2.08062418e-02  3.36490087e-02  1.57104447e-01
 -1.07164709e-02  3.89255174e-02 -1.23725675e-01  2.28656847e-02
  2.11551711e-01 -6.19395338e-02  4.05573146e-03  2.36052319e-01
  1.24338241e-02  8.23889896e-02  6.19169734e-02 -1.03860367e-02
 -1.04496360e-01  6.95901224e-03 -1.62979126e-01 -1.09014921e-01
 -5.38882017e-02 -5.80635555e-02 -1.02798231e-02  1.11467481e-01
 -2.75238127e-01  1.34437099e-01  8.64808098e-04  1.09254085e-02
 -4.87780198e-03 -1.19164065e-02 -5.56426458e-02 -1.74591958e-03
  1.19162038e-01 -3.22172016e-01  1.19436637e-01  1.88550904e-01
  4.08416353e-02  1.31881982e-01  3.05135045e-02  3.03750727e-02
  4.48420532e-02 -9.63974372e-02 -1.55189618e-01 -4.48295437e-02
  3.93218249e-02 -4.75559235e-02  3.66571563e-04 -1.32039292e-02]