[-0.10296465  0.14214531  0.03570168 -0.06328632 -0.15107594 -0.02180672
 -0.07054175 -0.16315703  0.14144844 -0.07321879  0.25891826 -0.09681901
 -0.21988069 -0.12012025 -0.06077622  0.22640219 -0.19903353 -0.10414851
  0.00910849  0.02541098  0.09100659  0.04254283  0.00576174  0.05831744
 -0.06349585 -0.40466759 -0.06633487 -0.08084097 -0.02777603 -0.0935865
 -0.08918472  0.10073256 -0.14299886 -0.08359296  0.06719337  0.09186801
 -0.05521069 -0.03407888  0.13175617  0.00304277 -0.24344926  0.00518297
  0.10517197  0.2467315   0.18168281  0.04786706  0.04197897 -0.17969818
  0.10678585 -0.15937476  0.01170346  0.12461729  0.05623813  0.02243937
  0.0072444  -0.1801194  -0.02665445  0.07723971 -0.14598212 -0.03721862
  0.09943411 -0.07515407 -0.06364212 -0.06400733  0.25202939  0.09534558
 -0.09123137 -0.18260396  0.13240142 -0.11430545 -0.09809958  0.04254134
 -0.15318972 -0.16856019 -0.27561393 -0.03398089  0.40818453  0.04011325
 -0.18242782  0.05189827 -0.07800313 -0.01591089  0.10961532  0.15430485
  0.00709218  0.03923541 -0.08458012 -0.00239941  0.19100504 -0.10233941
  0.02460948  0.22149932  0.01413987  0.0874544   0.04533482  0.00212538
 -0.08359236  0.05853426 -0.15236884 -0.09285291  0.00921807 -0.03387938
  0.013549    0.12595534 -0.21439695  0.12714416  0.03779989  0.04262112
  0.042843   -0.04420789 -0.03318961 -0.07772066  0.12645879 -0.22636275
  0.17251392  0.15226759  0.07935958  0.14538693  0.09392031  0.068208
  0.00357155 -0.05793342 -0.20512934  0.03071294  0.11314044 -0.03640305
  0.03031578 -0.01643878]