[-0.05681295  0.11282145  0.04887148 -0.05990458 -0.10353305  0.06092269
 -0.00441796 -0.13294506  0.17626648 -0.06738109  0.26826933  0.02695063
 -0.2075032  -0.11056743  0.02548231  0.13329357 -0.16103047 -0.10496676
 -0.04710656  0.00843095  0.03654357  0.02085476  0.01480698  0.04679495
 -0.12011119 -0.35744449 -0.0742979  -0.09532257  0.09212436 -0.15473649
 -0.08376075  0.08350009 -0.13472769 -0.07430112  0.04472956  0.10055874
 -0.07812863 -0.03294315  0.17787401  0.0680925  -0.18263219  0.06514132
  0.01954611  0.2989834   0.25363281  0.05345834  0.05615963 -0.13928619
  0.16953795 -0.25066048  0.05134159  0.11119075  0.07664754  0.0306803
  0.09591996 -0.19960299 -0.02086289  0.03199713 -0.1991152   0.02596486
  0.03309058 -0.04045183 -0.02816509 -0.02384841  0.17540994  0.08243542
 -0.05907733 -0.1302802   0.18906175 -0.11631619 -0.0596403   0.06990605
 -0.14796664 -0.15791292 -0.23405142  0.00231181  0.4471027   0.11045136
 -0.1892655   0.05058201 -0.07837059 -0.0625388   0.08052985  0.08486448
 -0.02818579 -0.01296784 -0.08063907  0.05912089  0.18922602 -0.05107312
  0.03667457  0.22393881  0.03746966  0.06364679  0.07083804  0.03122498
 -0.11329424  0.03961731 -0.19341223 -0.119419    0.01273235 -0.03561089
  0.06262609  0.14047937 -0.2507247   0.21701227  0.03641646 -0.01328686
  0.02880004 -0.05685921 -0.04723575  0.0183077   0.14625736 -0.28097391
  0.17935017  0.17798097  0.03909313  0.10196229  0.03972296  0.01034214
  0.01523435 -0.03981028 -0.18772373 -0.01976855  0.03489968 -0.04698395
 -0.0004712  -0.00403578]