[-0.10735166  0.10913419  0.0645382  -0.07710565 -0.15756455 -0.01532924
 -0.0647526  -0.1258608   0.16910011 -0.09942129  0.24158266 -0.02151982
 -0.16896558 -0.11893342 -0.00944498  0.19615081 -0.19953905 -0.13846375
  0.01427027 -0.01541824  0.04868327 -0.00627748 -0.00473463  0.08307612
 -0.10630929 -0.38388628 -0.06861901 -0.11905529 -0.0062555  -0.08539504
 -0.06745992  0.09211278 -0.11254296 -0.06688755  0.04930539  0.13573682
 -0.01296108 -0.0229413   0.1293842   0.02443149 -0.22298475  0.09944047
  0.08203551  0.27372399  0.25671172  0.03349261  0.05226805 -0.11072061
  0.20084324 -0.21885169  0.01298703  0.12177378  0.11438437  0.00668248
  0.07305337 -0.17738041  0.00062324  0.04225693 -0.19186866 -0.0081344
  0.05653435 -0.03217115 -0.02541238 -0.04401018  0.24079406  0.13165756
 -0.10671011 -0.14245388  0.1568948  -0.12781529 -0.09303271  0.03698232
 -0.20239866 -0.13694401 -0.26731661 -0.01345215  0.44940719  0.08593712
 -0.19985023  0.06591226 -0.09547057  0.00467095  0.04364103  0.12837917
 -0.00590835 -0.0098334  -0.08553741 -0.01086037  0.17965375 -0.04671581
  0.01132593  0.20203395  0.04068744  0.09716316  0.04963998  0.00879095
 -0.10877325  0.00810705 -0.17722395 -0.10682044 -0.05994955 -0.04098928
  0.01758321  0.09795983 -0.25726137  0.17705315  0.01671645  0.03668863
 -0.02058207  0.03263618 -0.02824993  0.00542997  0.12486484 -0.24721897
  0.19459692  0.17813706  0.06179581  0.1368892   0.06798665  0.01754606
 -0.0167371  -0.03199905 -0.13416596 -0.02556941  0.02045245 -0.07130273
  0.03978557  0.02552001]