[-6.15910068e-02  9.30242389e-02  2.98851468e-02 -9.61749777e-02
 -1.09635271e-01  5.68465702e-02  3.00156679e-02 -1.33151993e-01
  2.14100510e-01 -1.08410321e-01  2.14101836e-01 -3.24082002e-02
 -2.23929197e-01 -5.94677217e-02  1.15721114e-02  1.40688881e-01
 -1.46197185e-01 -8.35860446e-02  6.80045784e-03  1.51519002e-02
  4.74585705e-02  1.58196669e-02 -8.57711304e-03  8.17697644e-02
 -7.94070512e-02 -3.73818636e-01 -1.14877164e-01 -8.63423198e-02
  4.94899303e-02 -1.11405529e-01 -5.89500554e-02  8.85181949e-02
 -1.17997684e-01 -5.82758151e-02  2.52104998e-02  8.70242789e-02
 -8.09254125e-02 -5.64983860e-02  1.46701142e-01  7.28745386e-02
 -1.71130806e-01  6.53826669e-02 -1.77557027e-04  2.90435553e-01
  1.74721077e-01  7.24533349e-02  7.22795799e-02 -1.64318755e-01
  1.61977693e-01 -2.35214069e-01  2.60514319e-02  9.52309296e-02
  3.25098936e-03  2.42996346e-02  5.26817255e-02 -1.94231287e-01
 -1.14480674e-03  1.99719332e-02 -2.19385415e-01  5.25587797e-02
  6.01902269e-02 -2.88770851e-02 -3.94759551e-02 -2.54904721e-02
  1.83875307e-01  1.17306843e-01 -6.51277304e-02 -1.59897074e-01
  1.79692984e-01 -1.66332766e-01 -5.15999794e-02  5.51155582e-02
 -1.50504678e-01 -1.77893937e-01 -1.95879266e-01  3.03497203e-02
  4.46876854e-01  1.34214267e-01 -1.33720741e-01  4.03104015e-02
 -8.53066891e-02 -2.04973463e-02  1.26857981e-01  1.20787755e-01
  2.34187325e-03 -2.49687862e-02 -6.29703924e-02  4.42495868e-02
  1.98276117e-01 -6.73517138e-02  8.93825293e-03  2.39797786e-01
  3.97707187e-02  7.89472386e-02  3.23898271e-02  2.53148507e-02
 -1.06606238e-01  6.56984225e-02 -1.70803815e-01 -8.63585100e-02
  2.37743054e-02 -2.88350824e-02  5.26716784e-02  1.36733562e-01
 -2.62362540e-01  2.35400155e-01  1.70472004e-02 -2.95642372e-02
  2.94818040e-02 -3.21416855e-02 -7.16906860e-02  2.23632585e-02
  1.45192862e-01 -2.76869267e-01  1.73862800e-01  1.86408564e-01
  6.53172955e-02  1.23625100e-01  2.87226420e-02  2.80253179e-02
  3.88686806e-02 -5.31821623e-02 -1.95228010e-01 -1.35593461e-02
  5.26034199e-02 -1.53462244e-02 -1.91687495e-02 -2.42960807e-02]