[-0.04599522  0.13445319  0.08389309 -0.05887109 -0.15339209 -0.02972216
 -0.03445176 -0.14478426  0.17028366 -0.11349404  0.23822796 -0.06114161
 -0.22484255 -0.11444809  0.03112078  0.1858318  -0.1847802  -0.13574736
 -0.00665835  0.00177668  0.0727609  -0.03455028  0.00920634  0.07045996
 -0.09027558 -0.39711091 -0.11244676 -0.07988261  0.02296605 -0.07398358
 -0.10081773  0.07201533 -0.09101804 -0.09561168  0.04285418  0.09132568
 -0.03386855 -0.08474353  0.13431755 -0.0009444  -0.23490286  0.07245182
  0.06343688  0.23327139  0.19123869  0.06128558  0.06902251 -0.12059958
  0.18996882 -0.22898228  0.06013754  0.11289439  0.09288379  0.02823237
  0.07948463 -0.17880391  0.0086555   0.07406903 -0.22799574 -0.02082074
  0.08044236 -0.06339135 -0.0364925  -0.05314032  0.21139641  0.16992474
 -0.0842032  -0.14894071  0.15368728 -0.13361518 -0.08433872  0.02963584
 -0.17158362 -0.12271371 -0.26835129 -0.00054091  0.48359513  0.10795418
 -0.17482138  0.02594677 -0.08749334 -0.0004929   0.07634683  0.12986162
 -0.01752693 -0.01075688 -0.10892474  0.00946494  0.14833228 -0.07860191
  0.00484077  0.22288318  0.06320309  0.1232423   0.04373957  0.02119909
 -0.11341132  0.02503355 -0.15423624 -0.07564666 -0.00099145 -0.01814379
  0.00813184  0.10016703 -0.2295485   0.1664771   0.02688084  0.01828514
  0.00672596 -0.00231757 -0.02256155 -0.02791564  0.08641835 -0.2764332
  0.13140213  0.17302047  0.04416594  0.13773367  0.03007559  0.0306755
  0.01781237 -0.09186665 -0.16631369 -0.02967073  0.0658559  -0.02611892
  0.0081253   0.02122837]