[-0.05956727  0.10473675  0.03449059 -0.07913085 -0.12579308  0.05304227
  0.00078612 -0.13016763  0.22297485 -0.11424678  0.20834427 -0.02634149
 -0.2079988  -0.06051537 -0.00512593  0.1608917  -0.14261252 -0.08887894
  0.00775621  0.01438847  0.0722314   0.02543497 -0.00424074  0.06234739
 -0.07700725 -0.36467463 -0.10719454 -0.07962117  0.06073197 -0.11857559
 -0.07842126  0.09008335 -0.11259755 -0.06943211  0.030228    0.09615078
 -0.07168486 -0.06121364  0.14566691  0.05160055 -0.18552811  0.06531409
  0.01395848  0.27832904  0.17113809  0.05912991  0.07169287 -0.18105288
  0.14877288 -0.21717229  0.01747271  0.09390792 -0.00556901  0.04199634
  0.0567767  -0.18305515 -0.00116186  0.04468812 -0.19572972  0.0473912
  0.072618   -0.03698781 -0.05171229 -0.04031796  0.18863682  0.11042416
 -0.05695594 -0.17220619  0.16988719 -0.15164532 -0.07423526  0.0632228
 -0.14245032 -0.16937174 -0.19950899  0.01087109  0.44123346  0.13504779
 -0.15839384  0.04421766 -0.06678211 -0.01857673  0.14418289  0.1285921
  0.01709851 -0.01219263 -0.06774618  0.03613353  0.20537262 -0.070302
  0.01942322  0.23303644  0.05782535  0.08358128  0.02996081  0.03525914
 -0.09914444  0.05970325 -0.18934512 -0.10555782  0.03669443 -0.0161224
  0.03956262  0.13649753 -0.24208283  0.22200187  0.02358044 -0.01809453
  0.03313684 -0.03537323 -0.05441488  0.02257242  0.14679727 -0.25790089
  0.17087103  0.18459919  0.06580797  0.12283655  0.0403268   0.04465066
  0.03276279 -0.06554326 -0.20010881 -0.01214728  0.05652012 -0.01672633
 -0.01696351 -0.02055946]