[-8.39729011e-02  1.78816810e-01  9.92355123e-02 -4.49391864e-02
 -1.44915655e-01  1.43636903e-02 -4.43479829e-02 -1.22233212e-01
  1.61001727e-01 -7.51380026e-02  2.46875927e-01 -8.96243453e-02
 -2.35894442e-01 -7.35417977e-02 -4.72300015e-02  2.07364202e-01
 -1.66288093e-01 -1.11762062e-01  2.70413700e-02  2.33267080e-02
  1.14805691e-01  4.36475538e-02  5.81914093e-03  4.39073108e-02
 -8.66904929e-02 -4.01893526e-01 -6.65980726e-02 -6.57438785e-02
  2.04810444e-02 -1.13740422e-01 -8.65957662e-02  7.06100687e-02
 -1.40592739e-01 -6.82409629e-02  6.45608529e-02  7.81593323e-02
 -5.23937047e-02 -8.89929458e-02  1.32390395e-01  1.92241352e-02
 -2.46217206e-01  2.99988389e-02  4.51080985e-02  2.47870401e-01
  1.73277602e-01  4.86025587e-02  3.74915637e-02 -1.69085264e-01
  1.32272646e-01 -2.00969741e-01 -1.08757066e-02  1.48142859e-01
 -8.67833663e-03  3.19571234e-02  4.03935127e-02 -1.84320927e-01
 -7.36262789e-03  4.58509512e-02 -2.01063976e-01 -4.89864126e-02
  5.79625629e-02 -5.92927895e-02 -1.64425801e-02 -7.87539110e-02
  1.75323173e-01  8.72728750e-02 -6.60447106e-02 -1.83950678e-01
  1.37896404e-01 -1.25416711e-01 -4.16257791e-02  8.48384276e-02
 -1.48203865e-01 -1.67031124e-01 -2.30886012e-01 -2.16178503e-02
  4.26396579e-01  8.46503004e-02 -1.41364321e-01  5.29286079e-02
 -5.96205778e-02 -2.31216345e-02  8.44055116e-02  1.45552650e-01
  2.26691347e-02  3.90824713e-02 -7.67393932e-02  3.18682939e-02
  1.74297556e-01 -9.95778218e-02  1.47751868e-02  2.35805422e-01
 -1.09838322e-04  7.85127431e-02  3.95780578e-02  3.82547751e-02
 -1.21713243e-01  5.86277619e-02 -1.38469070e-01 -9.68842506e-02
  9.02888924e-03 -2.40735747e-02  1.77127719e-02  1.37150675e-01
 -2.34018564e-01  1.39507577e-01  5.81341935e-03  1.42348651e-02
  1.72397864e-04 -6.27635643e-02 -2.11205538e-02 -7.19347317e-03
  1.16956688e-01 -2.53616482e-01  1.73534319e-01  1.68974981e-01
  3.43545489e-02  1.29790217e-01  5.63751832e-02  1.98419876e-02
  1.44624216e-02 -8.65723118e-02 -1.75870955e-01 -1.91102717e-02
  7.02387318e-02 -3.41651700e-02  5.63556422e-03 -4.41345163e-02]