[-9.63426307e-02  1.52708828e-01  6.71108589e-02 -6.44736215e-02
 -1.38412073e-01 -9.80840158e-03 -5.98308630e-02 -1.40378878e-01
  1.56047374e-01 -7.65098631e-02  2.50183553e-01 -7.49943629e-02
 -2.29838058e-01 -1.30414814e-01 -3.27908061e-02  2.05866382e-01
 -1.75076470e-01 -8.64600539e-02  1.97869409e-02  4.10509817e-02
  9.04390439e-02  2.62357034e-02  3.70850377e-02  8.11350346e-02
 -7.80973062e-02 -4.19270903e-01 -8.38294476e-02 -8.20698291e-02
 -3.40942368e-02 -1.05976224e-01 -1.15424290e-01  6.68338165e-02
 -1.46730199e-01 -8.33157599e-02  7.04555139e-02  1.09151639e-01
 -8.27767774e-02 -6.09686673e-02  1.26509026e-01  2.89519061e-03
 -2.08881974e-01 -9.69759841e-03  8.22135806e-02  2.29986623e-01
  1.95287585e-01  4.32314835e-02  5.37124276e-02 -1.51759461e-01
  1.35472849e-01 -2.34990627e-01  2.83585284e-02  1.29465327e-01
  3.75132859e-02  4.66306694e-02  3.68713662e-02 -1.76088408e-01
 -1.02012074e-02  6.28784597e-02 -1.72188908e-01 -2.82244217e-02
  5.95387630e-02 -7.13927969e-02 -6.79901019e-02 -3.55592258e-02
  2.18548581e-01  1.26942709e-01 -9.19362828e-02 -1.70065135e-01
  1.24967530e-01 -1.42742515e-01 -4.09964360e-02  5.39778881e-02
 -1.39731705e-01 -1.91655159e-01 -2.38167807e-01 -1.77130755e-02
  4.13869768e-01  1.02420941e-01 -1.63449436e-01  4.29371186e-02
 -1.22510850e-01 -1.72228832e-02  4.92881499e-02  1.13223292e-01
  3.82964325e-04  5.91414757e-02 -9.85184684e-02  4.03443724e-02
  1.72452614e-01 -1.14773147e-01  5.15475348e-02  2.72526562e-01
  2.51147840e-02  9.81017500e-02  5.69291189e-02  1.19729852e-02
 -9.68456268e-02  3.71137001e-02 -1.48179367e-01 -8.97229686e-02
  2.58784574e-02 -6.08172715e-02  2.99401339e-02  1.01689294e-01
 -2.63642043e-01  1.48950726e-01  1.94255468e-02  1.17213903e-02
  4.04915176e-02 -6.44195899e-02 -5.86139522e-02 -5.72350100e-02
  1.24589108e-01 -2.49936938e-01  1.64907932e-01  1.60399124e-01
  6.24128953e-02  1.68989226e-01  6.36392608e-02  5.70930243e-02
  1.50629347e-02 -1.04097664e-01 -1.36926755e-01  1.09749781e-02
  8.23817775e-02 -1.20973522e-02 -4.45924707e-05 -3.05365957e-02]