[-7.83953890e-02  1.22266702e-01  6.01972602e-02 -7.94833228e-02
 -1.67743325e-01 -1.69443656e-02 -5.03844880e-02 -1.08771622e-01
  1.67808577e-01 -8.44755769e-02  2.42637083e-01 -2.97191143e-02
 -1.79977879e-01 -1.18901074e-01  1.47458361e-02  1.67022631e-01
 -1.73977956e-01 -1.24648951e-01  2.62909718e-02 -2.83842906e-04
  6.83438107e-02 -2.78473902e-03  1.07462546e-02  9.81635526e-02
 -1.08984843e-01 -3.85129988e-01 -7.57315904e-02 -1.09247625e-01
  5.60819171e-03 -1.05521940e-01 -7.02047274e-02  1.00123502e-01
 -1.09213069e-01 -8.17814246e-02  5.14724553e-02  1.28000259e-01
 -2.43887343e-02 -2.28920504e-02  1.31644249e-01  3.41282003e-02
 -2.20848486e-01  1.01347625e-01  7.39083812e-02  2.79990882e-01
  2.40369305e-01  4.38225046e-02  7.15753064e-02 -1.11602031e-01
  1.66726694e-01 -2.22581536e-01  4.31664549e-02  1.28384307e-01
  9.98779982e-02  4.57765628e-03  7.17770532e-02 -1.78604558e-01
 -8.31227191e-03  3.35326158e-02 -2.01825291e-01  1.26175573e-02
  7.76707083e-02 -3.63068702e-03 -1.42169539e-02 -2.84247398e-02
  2.41522238e-01  1.33553624e-01 -1.02660678e-01 -1.49054155e-01
  1.37868896e-01 -1.38691232e-01 -1.02645174e-01  5.69994114e-02
 -1.96138829e-01 -1.33740231e-01 -2.43505105e-01  7.98178464e-03
  4.62812632e-01  9.05394331e-02 -1.85713604e-01  5.47002926e-02
 -1.17095172e-01 -1.56241879e-02  3.52436006e-02  1.04121566e-01
 -1.95664242e-02 -6.84861979e-03 -9.05245766e-02  2.16086786e-02
  1.87080130e-01 -4.54926416e-02  5.97863132e-03  2.18066439e-01
  5.60437925e-02  9.60042104e-02  5.40114827e-02  1.48058180e-02
 -1.07182480e-01  2.17748135e-02 -1.81831136e-01 -1.10181741e-01
 -4.11769524e-02 -6.16657846e-02  1.86341163e-02  1.11944377e-01
 -2.80049086e-01  1.86568514e-01  1.74195338e-02  1.09498957e-02
 -1.86228566e-02  4.05389145e-02 -6.06930926e-02  8.56053829e-03
  1.28001556e-01 -2.56089181e-01  1.95679232e-01  1.71639323e-01
  9.63469669e-02  1.20373383e-01  7.31274635e-02  1.06134387e-02
  1.64370425e-02 -5.61177209e-02 -1.15550362e-01 -2.06524171e-02
  2.75711864e-02 -6.10104762e-02  4.31684926e-02  2.50716042e-02]