[-0.05613352  0.10090106  0.05585307 -0.07979767 -0.10364723  0.00156328
  0.00770144 -0.12389294  0.18014769 -0.07496205  0.22349201 -0.05261518
 -0.21902172 -0.08478726  0.00468629  0.15251581 -0.14908347 -0.06280372
 -0.03861145  0.01470322  0.06716739  0.01871192  0.020986    0.08131232
 -0.05664346 -0.37842911 -0.09737152 -0.10256381  0.05938828 -0.08033326
 -0.09154518  0.07119193 -0.13759981 -0.11209797  0.04058078  0.10081222
 -0.06731254 -0.05611166  0.12107468  0.04645944 -0.18660234  0.06476302
  0.01899293  0.25405666  0.20756681  0.09600624  0.08158922 -0.1754946
  0.14978428 -0.23538001  0.03460839  0.09576554  0.01778498  0.03462284
  0.07275857 -0.19279072  0.0038043   0.06098683 -0.21317481  0.02994016
  0.05740702 -0.02275951 -0.04624994 -0.033598    0.19668882  0.11053631
 -0.08050176 -0.13632618  0.17701547 -0.1536082  -0.04117308  0.0692218
 -0.14219055 -0.16179267 -0.21647742  0.02795565  0.44449434  0.10808432
 -0.16056736  0.02540626 -0.10287511 -0.00694387  0.11986182  0.11010816
  0.00877028 -0.0150762  -0.07398208  0.02287131  0.17468624 -0.08642241
  0.04024273  0.24285893  0.03548802  0.06390601  0.0366632   0.04446575
 -0.11686271  0.05558353 -0.17897864 -0.09287211  0.05143446 -0.03411959
  0.02870265  0.10280178 -0.25414246  0.17537001  0.00903724 -0.02945679
  0.038366   -0.08031375 -0.04477904  0.00521849  0.14839922 -0.26135057
  0.18415016  0.1971315   0.04269303  0.12493329  0.03075078  0.03542702
  0.03431477 -0.07971802 -0.18579079 -0.01869028  0.07147751 -0.01629116
 -0.02701316 -0.03616698]