[-0.04926681  0.099374    0.06336696 -0.06857038 -0.09352107  0.04535345
  0.01826876 -0.12989931  0.19977911 -0.11748613  0.24409318 -0.03502055
 -0.19995257 -0.0577549   0.00393901  0.16585696 -0.15939131 -0.09567693
  0.02063967  0.0039161   0.05624099  0.00956508 -0.01264998  0.07765226
 -0.12273606 -0.37735406 -0.11789656 -0.09768521  0.0570555  -0.09120173
 -0.0923555   0.08556622 -0.11146563 -0.03439533  0.04528181  0.09626806
 -0.08556031 -0.06393418  0.1330626   0.08255871 -0.18387857  0.05361907
  0.00284906  0.28920767  0.18493962  0.05476319  0.07281923 -0.13621891
  0.1464293  -0.22756779  0.01807071  0.10491809  0.03860823  0.04874677
  0.0366344  -0.18905795 -0.01884104  0.05724452 -0.21305719  0.03730803
  0.04229713 -0.03420025 -0.04392537 -0.02602138  0.19534716  0.12832396
 -0.10826059 -0.13548093  0.17837673 -0.15161429 -0.03630433  0.04456966
 -0.16498369 -0.18804927 -0.19176398  0.02698141  0.44894892  0.1186166
 -0.13879889  0.02756152 -0.09109693  0.00109532  0.09613954  0.12859677
 -0.00981303 -0.00667838 -0.05200286  0.03054697  0.18141612 -0.07329848
  0.02516862  0.24186373  0.00151293  0.08063962  0.01887407  0.02508652
 -0.10819204  0.05063785 -0.14306869 -0.10266731 -0.00512754 -0.04806902
  0.03771017  0.13710926 -0.27932218  0.22153106  0.02475993 -0.00658302
  0.05272986 -0.01200803 -0.06754856 -0.00538478  0.14092413 -0.2883999
  0.15298182  0.21191792  0.05753107  0.12834404  0.04008314  0.0206027
  0.02774345 -0.06983736 -0.20004094  0.00105984  0.0523601  -0.04032332
 -0.0409179  -0.04409669]