[-0.09891599  0.14015083  0.04001464 -0.0740305  -0.15553251 -0.01515695
 -0.08593302 -0.16292343  0.12801996 -0.08153902  0.2424418  -0.10856803
 -0.22322682 -0.09996554 -0.05896627  0.23169196 -0.21502316 -0.12225097
  0.01526498  0.01682252  0.07154125  0.04121109 -0.01291168  0.04884965
 -0.07724049 -0.40150353 -0.05601126 -0.08368874 -0.04124542 -0.07551706
 -0.09239468  0.10369267 -0.13883841 -0.07450018  0.08411676  0.10696708
 -0.05951489 -0.04924735  0.13087943 -0.01315376 -0.2424382   0.02777546
  0.11660174  0.24184501  0.18876231  0.02972935  0.02602077 -0.18351711
  0.11860528 -0.16764422 -0.00806112  0.12470628  0.06435769  0.04191167
  0.00075079 -0.18091048 -0.00216653  0.06959788 -0.15535091 -0.0535568
  0.09540991 -0.09373096 -0.04298553 -0.0710554   0.2565771   0.09998834
 -0.09097638 -0.18329936  0.12157337 -0.11075437 -0.09872504  0.03308717
 -0.14770512 -0.16403286 -0.2669141  -0.03927314  0.39369279  0.04891906
 -0.19629703  0.05652547 -0.06051167 -0.0169383   0.11652309  0.15571137
  0.00758318  0.02194756 -0.07662571 -0.00414948  0.20795159 -0.1091524
  0.02223084  0.20391348  0.01405087  0.09694017  0.05874816  0.00242343
 -0.09217562  0.06024424 -0.15606146 -0.07814883 -0.0031009  -0.03733771
  0.01407974  0.13062875 -0.20641701  0.13335571  0.03258843  0.03505744
  0.03634845 -0.04219865 -0.01469684 -0.06843001  0.1297594  -0.23143438
  0.18361777  0.15223232  0.07434311  0.15475784  0.09088723  0.05635529
 -0.01077018 -0.04715866 -0.21033505  0.02143278  0.11281859 -0.0327281
  0.04083323 -0.01288107]