[-0.10985301  0.15463638  0.09189694 -0.033193   -0.03258882 -0.09950411
 -0.06326523 -0.17366947  0.12919064 -0.07546812  0.27158761 -0.03004291
 -0.21548493 -0.11378177 -0.03177778  0.19258022 -0.2411872  -0.12970945
  0.00803512  0.03722443  0.07786725 -0.03030554  0.07512833  0.01439891
 -0.03227016 -0.34234107 -0.15835844 -0.11737557  0.05817613 -0.0199956
 -0.08577522 -0.00792226 -0.16307342 -0.08897844  0.01040623  0.02975661
 -0.01872838 -0.03641865  0.18115334 -0.00535612 -0.17119589  0.04901395
 -0.00090154  0.25435141  0.1983072   0.07956684  0.09850567 -0.17232029
  0.06029211 -0.136941    0.0340479   0.13060081  0.10839983  0.06196891
 -0.02258277 -0.1802851   0.01247181  0.03453397 -0.13078658  0.0425701
  0.12730974 -0.03678654 -0.00830448 -0.02091659  0.25366101  0.06185914
 -0.12818934 -0.1430441   0.13881949 -0.11868148 -0.06586402  0.0182821
 -0.19627301 -0.16167313 -0.30269289 -0.01133295  0.39128551  0.0510909
 -0.17561392  0.03229797 -0.12337898  0.031268    0.1017286   0.13648771
 -0.05063266  0.03871001 -0.11974382 -0.01085122  0.19056061 -0.11930323
 -0.03713872  0.18507829  0.00176589  0.11820801  0.02988424  0.04028587
  0.00319695  0.03383854 -0.13349319  0.02161732 -0.02509452 -0.0582894
 -0.02979572  0.0912319  -0.13732815  0.06819736  0.04333763  0.03891557
 -0.0355926   0.0239156  -0.10945596 -0.09478778  0.12021969 -0.22213387
  0.23429342  0.26444215  0.03480319  0.10487314  0.0876462   0.10658064
 -0.03349664 -0.01515953 -0.15535422 -0.01267709  0.07079007  0.03777645
  0.06526203  0.02889925]