[-0.12855759  0.15870288  0.12217172 -0.01791961 -0.0220249  -0.14094266
 -0.02525915 -0.20306563  0.13025889 -0.04805982  0.28734469 -0.03652197
 -0.20035164 -0.10271343 -0.024629    0.19146429 -0.2035145  -0.10447087
  0.00715965 -0.01920283  0.07393818 -0.0266185   0.07914897  0.01990122
 -0.10246141 -0.29997441 -0.15155816 -0.10291983  0.04057592  0.03768894
 -0.0575639   0.02957028 -0.18490772 -0.10207268  0.04458973  0.06593809
 -0.00857486 -0.04089567  0.20091128  0.00960083 -0.14842014  0.01888684
 -0.01721106  0.27302888  0.17565244  0.03538446  0.08651289 -0.136362
  0.04192006 -0.15969943  0.02783691  0.11601973  0.08298013  0.05051043
 -0.01808913 -0.1857125   0.05414991  0.06011403 -0.16496903 -0.0048236
  0.12950513 -0.09441943  0.00410069 -0.00228683  0.25329337  0.08300533
 -0.12522733 -0.07344928  0.14351387 -0.07364186 -0.01889889 -0.01374083
 -0.19095606 -0.15659718 -0.36142918  0.02270901  0.43574706  0.07821195
 -0.19464217  0.0110256  -0.13172834  0.07811371  0.13314325  0.09511038
 -0.07571026  0.03559515 -0.13233756  0.01146979  0.16081376 -0.09492207
 -0.05905438  0.19393013 -0.0058458   0.10649488  0.03606227  0.02601512
 -0.02063901  0.00448011 -0.12893108  0.04174986 -0.01484292 -0.05475108
  0.00607713  0.1422717  -0.18718529  0.05182192  0.05199862 -0.00819596
 -0.06195049  0.01211199 -0.1076525  -0.08001473  0.10215964 -0.21780443
  0.21075444  0.2571927  -0.01007113  0.14543721  0.09159877  0.06164866
 -0.05208329 -0.01802384 -0.11891772 -0.01137347  0.07713047  0.03261534
  0.09672095  0.03873506]