[-0.11078393  0.12919404  0.09833299 -0.03034257 -0.066289   -0.09857542
  0.01120796 -0.20379658  0.10482649 -0.05069848  0.26485151 -0.10752322
 -0.2218128  -0.1004158  -0.01509708  0.17200889 -0.09883177 -0.11908174
 -0.10568907 -0.01999343  0.12580179 -0.01019224  0.0198289   0.03511479
 -0.11625475 -0.29486558 -0.12224124 -0.04549009  0.06023908 -0.04524451
 -0.07312782  0.08351    -0.17875008 -0.15908651  0.04148258  0.05452996
 -0.00078724 -0.02973776  0.14249098 -0.01975895 -0.22994263  0.04093903
  0.06652442  0.25290322  0.18239532  0.05360743  0.07712929 -0.13335425
  0.05649395 -0.13635094  0.04422781  0.08037243  0.14169234  0.06978928
  0.01783578 -0.15327576  0.0012356   0.08088653 -0.15276812  0.04651228
  0.11806514 -0.11482217 -0.06209305 -0.05162154  0.16745453  0.0581428
 -0.09870269 -0.13776779  0.13359949 -0.09539265 -0.08250286  0.05590637
 -0.17916027 -0.12332002 -0.36043972 -0.00645147  0.42359599  0.05391423
 -0.25028211  0.01701149 -0.05403532  0.06105801  0.12113198  0.11895008
 -0.02495998  0.06596567 -0.08977871  0.03153841  0.17935115 -0.09345765
 -0.06735101  0.2175453   0.02730549  0.06563888  0.03821735  0.07351382
 -0.04307404 -0.01529337 -0.13699281 -0.04864047  0.07887069  0.00530471
  0.00486878  0.11728294 -0.15612014  0.15201941  0.03774544  0.07232426
 -0.01931564 -0.02158554 -0.04955547 -0.04297616  0.10000467 -0.19264366
  0.15076968  0.22206667 -0.00760732  0.05531248  0.08814585  0.02640956
  0.03564363  0.01036992 -0.14632067 -0.04415664  0.13547753 -0.02284405
  0.08985012  0.02165096]