[-1.19316734e-01  1.36007518e-01  1.19545951e-01 -3.12117971e-02
 -3.34701650e-02 -1.47581562e-01 -4.09486555e-02 -1.79914385e-01
  1.02089584e-01 -6.30580410e-02  3.02798003e-01 -3.69498916e-02
 -1.73284814e-01 -1.40058607e-01  1.61849335e-02  1.88014790e-01
 -2.11934552e-01 -9.87247601e-02 -2.01097336e-02 -5.73183922e-03
  7.52763674e-02 -5.25193624e-02  9.60043892e-02 -3.55632976e-04
 -1.10548690e-01 -3.17632914e-01 -1.58253044e-01 -1.24370478e-01
  3.96854542e-02  3.56838256e-02 -3.95839028e-02  8.25949013e-04
 -1.97104976e-01 -1.11628346e-01  2.95829661e-02  2.98625361e-02
  4.04253649e-03 -2.40953565e-02  2.09339693e-01  5.99070452e-04
 -1.69920012e-01  3.64108495e-02 -4.96795541e-03  2.34415963e-01
  1.61682039e-01  4.95497845e-02  9.46757421e-02 -1.26319438e-01
  7.48473331e-02 -1.27416283e-01  4.06668484e-02  1.04377009e-01
  1.06727831e-01  3.71505432e-02 -7.64890248e-03 -1.17752075e-01
  6.32069409e-02  6.87637851e-02 -1.65092543e-01 -2.46384628e-02
  1.30204558e-01 -7.06208944e-02 -3.82511467e-02 -7.63121201e-03
  2.31400058e-01  6.19977117e-02 -1.01225331e-01 -9.89091471e-02
  1.40318185e-01 -4.76007722e-02 -2.41751354e-02  1.51554113e-02
 -1.90346524e-01 -1.34260818e-01 -3.38608593e-01  1.10469246e-02
  4.01891232e-01  3.76135707e-02 -1.95212528e-01  9.82901920e-03
 -1.56157821e-01  5.04613519e-02  1.05646648e-01  6.96922615e-02
 -4.09812890e-02  3.63805294e-02 -1.16946988e-01  1.33403940e-02
  1.57019556e-01 -1.36343956e-01 -3.07740085e-03  2.00182438e-01
  2.40669344e-02  9.20636207e-02  1.81690827e-02  1.14155216e-02
 -2.39294618e-02  1.40579194e-02 -1.12510942e-01  3.07951998e-02
  2.10539997e-02 -2.82036904e-02 -3.04548442e-03  9.36208963e-02
 -2.07610995e-01  5.11832051e-02  5.54092228e-02 -6.53932709e-03
 -2.93942001e-02  1.07253958e-02 -9.00683254e-02 -1.20972827e-01
  7.79389367e-02 -2.09530503e-01  1.78858444e-01  2.56515861e-01
 -2.51026340e-02  1.09996319e-01  8.19639042e-02  6.14734404e-02
 -6.24327362e-02 -1.55628789e-02 -1.41907617e-01 -1.78260673e-02
  9.27140415e-02  4.78298478e-02  5.47595210e-02  2.19280329e-02]