[-1.07750513e-01  1.55017659e-01  8.89387429e-02 -3.13928314e-02
 -3.66635509e-02 -9.83898044e-02 -6.04401901e-02 -1.76970348e-01
  1.31586775e-01 -6.89698085e-02  2.67751783e-01 -2.61558834e-02
 -2.23995522e-01 -1.01066425e-01 -4.45685573e-02  1.96773931e-01
 -2.41413981e-01 -1.23059392e-01  8.46845191e-03  3.40056345e-02
  7.92207941e-02 -1.16526587e-02  7.43206218e-02  2.42392309e-02
 -3.16582099e-02 -3.37074757e-01 -1.56664312e-01 -1.15763322e-01
  6.42887428e-02 -2.89418157e-02 -9.85690877e-02  1.41717494e-04
 -1.70827091e-01 -9.92108881e-02  2.73936577e-02  4.48710322e-02
 -2.88475398e-02 -3.58115397e-02  1.73633114e-01 -5.34908893e-03
 -1.61688671e-01  5.51066883e-02  5.61628351e-03  2.65655965e-01
  1.99424967e-01  8.51009488e-02  9.54461619e-02 -1.78018212e-01
  5.11353090e-02 -1.27930269e-01  4.23753820e-02  1.27232805e-01
  1.16958179e-01  7.22656623e-02 -2.89213862e-02 -1.85792491e-01
  1.44654959e-02  4.78173010e-02 -1.33706972e-01  4.54104468e-02
  1.38072401e-01 -3.98364328e-02 -3.87776061e-03 -8.51169322e-03
  2.53330648e-01  5.69386669e-02 -1.28027484e-01 -1.43376917e-01
  1.38822302e-01 -1.23234145e-01 -7.07455352e-02  1.49413645e-02
 -1.95342660e-01 -1.56252220e-01 -2.94190973e-01 -1.64358113e-02
  3.92894715e-01  5.26054688e-02 -1.79552689e-01  2.88917627e-02
 -1.16659082e-01  3.40022556e-02  1.07723676e-01  1.30987287e-01
 -5.17092124e-02  3.17842290e-02 -1.20044127e-01  5.18450921e-04
  1.93911225e-01 -1.09773032e-01 -4.06014211e-02  1.78558499e-01
  4.69670491e-03  1.07135534e-01  3.53937335e-02  4.13700491e-02
 -2.13728263e-03  3.35566141e-02 -1.39195517e-01  9.66043398e-03
 -2.97363680e-02 -5.22289053e-02 -3.31321545e-02  1.02814578e-01
 -1.39056161e-01  8.03156048e-02  4.46295589e-02  3.56798992e-02
 -3.32888030e-02  1.81642547e-02 -1.12601481e-01 -8.60366151e-02
  1.23966478e-01 -2.24225074e-01  2.49561504e-01  2.61273831e-01
  3.56188044e-02  1.01489305e-01  7.66878799e-02  1.00860551e-01
 -2.73908582e-02 -2.20223051e-02 -1.64982542e-01 -2.02619415e-02
  8.36374387e-02  2.81257220e-02  8.35405961e-02  2.20165085e-02]