[-0.1120911   0.15445894  0.09257624 -0.03478729 -0.03305907 -0.10665172
 -0.06445146 -0.17966413  0.13297205 -0.0698716   0.27393237 -0.0274721
 -0.21640134 -0.11223265 -0.02824468  0.1933981  -0.24645518 -0.13467988
  0.01686828  0.03430013  0.07871582 -0.0311687   0.07812973  0.02088482
 -0.0413698  -0.34498939 -0.16622131 -0.12158872  0.06357776 -0.0210895
 -0.0884988  -0.00142188 -0.16321099 -0.08646187  0.01694207  0.02958108
 -0.02069132 -0.03902381  0.18124257 -0.00398607 -0.1693705   0.04075521
  0.00173649  0.25401172  0.20202856  0.07745429  0.09941962 -0.17093284
  0.05217272 -0.13013966  0.03195265  0.13231249  0.10866325  0.06593964
 -0.02104012 -0.18454525  0.01433044  0.03396144 -0.14215387  0.041853
  0.12495536 -0.04354335 -0.01230641 -0.01758105  0.25697729  0.0675695
 -0.12891613 -0.14621459  0.14294915 -0.12083876 -0.06568874  0.02231865
 -0.20097148 -0.16356309 -0.30225658 -0.01734827  0.3848995   0.05002002
 -0.17465967  0.03573759 -0.11628165  0.03087849  0.09972731  0.13551633
 -0.05541975  0.03990671 -0.12046865 -0.00691009  0.18457815 -0.11639142
 -0.03606777  0.18461363 -0.00470421  0.12150668  0.03346507  0.04398355
  0.00303332  0.03308472 -0.13245554  0.01802676 -0.02570446 -0.05311295
 -0.02844753  0.09479579 -0.13274132  0.06313705  0.04579286  0.03578923
 -0.04453197  0.02023413 -0.10990874 -0.09655914  0.11822176 -0.23026824
  0.23896663  0.26618618  0.03015882  0.10256518  0.07802229  0.09989945
 -0.03695728 -0.02208832 -0.15451553 -0.00464112  0.07347038  0.03020091
  0.06540119  0.02434367]