[-0.12033822  0.14840506  0.12967196 -0.030116   -0.17591985 -0.03708209
  0.03868345 -0.15690348  0.13318226 -0.08767207  0.24989681 -0.08037236
 -0.23143564 -0.0184802  -0.03619475  0.20537734 -0.12298433 -0.17162941
 -0.14375712 -0.09660308 -0.00800619  0.02314922 -0.02537005  0.06948494
 -0.11535392 -0.320142   -0.04651985 -0.02291819  0.10334766 -0.10614834
 -0.05663599  0.11264481 -0.16474785 -0.10350692  0.06616687  0.12365688
 -0.08196133 -0.04849271  0.20242126  0.03111219 -0.26980093  0.02704362
  0.07251702  0.34167206  0.24730873  0.04042354  0.03416001 -0.08794955
  0.11802971 -0.26255211  0.00429637  0.15667079  0.13711591  0.07387868
  0.03933075 -0.16819465 -0.04663318  0.11125562 -0.19603044  0.00770746
  0.08977041 -0.13524757 -0.02636942 -0.11658645  0.22272885  0.10510446
 -0.12327438 -0.1004457   0.21480003 -0.16206542 -0.07716038  0.07692567
 -0.12861159 -0.12308493 -0.31253275 -0.00427909  0.49195224  0.13151251
 -0.16400295 -0.01872802 -0.0584351   0.01976001  0.03769924  0.1315628
 -0.07264181  0.0150783  -0.03267664  0.04232622  0.18537116 -0.045997
 -0.03681223  0.19729938  0.03793192  0.02546174  0.0190645   0.05587631
 -0.09748839 -0.02983617 -0.14754501 -0.07237577 -0.01966113 -0.03799918
  0.08121566  0.13134757 -0.20168328  0.21252277  0.00630925  0.04610373
 -0.01942467  0.02122794 -0.00997529 -0.01941369  0.15286542 -0.26973608
  0.17521234  0.23518145 -0.05052385  0.08969787  0.06664663  0.02449309
  0.02183223 -0.029228   -0.11034974 -0.0897738   0.06682112 -0.09007359
  0.08619858  0.03393206]