[-9.41981822e-02  1.50207967e-01  1.24108411e-01 -6.57156035e-02
 -1.08693615e-01 -5.81926517e-02 -1.55613525e-02 -1.66330680e-01
  1.22883022e-01 -8.40417370e-02  2.97836453e-01 -3.27984653e-02
 -2.13176832e-01 -6.17318824e-02 -8.37320685e-02  1.66613266e-01
 -1.34435117e-01 -1.68047830e-01 -7.14828968e-02 -4.64533782e-03
  1.01367392e-01  5.42723900e-03 -3.73043877e-04  3.09806596e-02
 -9.00529623e-02 -3.00298423e-01 -8.68347585e-02  1.44049479e-02
  8.13887194e-02 -8.21854696e-02 -5.79400845e-02  8.32125247e-02
 -1.81781217e-01 -9.44117680e-02  2.92198546e-02  1.19178645e-01
 -2.83519235e-02 -2.94198748e-02  1.60039052e-01  2.07095146e-02
 -2.76185215e-01  3.38570438e-02  5.03050648e-02  3.07497323e-01
  2.47625262e-01  2.65746713e-02  2.96905637e-02 -1.30086422e-01
  6.23146296e-02 -2.19557926e-01  4.34588902e-02  1.48162678e-01
  1.68323874e-01  7.29875192e-02  4.47962055e-04 -1.53485939e-01
 -2.65214741e-02  9.18762013e-02 -1.24819614e-01 -9.43665393e-03
  9.22365338e-02 -1.03849404e-01  1.38618471e-02 -1.13418855e-01
  2.05541968e-01  8.53657499e-02 -1.28047734e-01 -1.22924685e-01
  1.47749111e-01 -1.41276985e-01 -1.13585047e-01  6.14449643e-02
 -1.53835669e-01 -1.04443848e-01 -3.30777138e-01 -1.39651094e-02
  4.40432072e-01  8.39991495e-02 -2.00640544e-01  2.56786142e-02
 -6.30597025e-02  3.12716886e-02  5.24581783e-02  1.28583714e-01
 -8.38574395e-02  9.56911594e-02 -7.44062886e-02  2.05380525e-02
  2.07476497e-01 -6.28791079e-02 -5.21944836e-02  2.10142478e-01
  8.71042442e-03  8.79752263e-02  7.52151310e-02  6.20943606e-02
 -2.91911960e-02  3.55250249e-03 -1.61027268e-01 -4.09660451e-02
 -2.87345983e-02 -6.43837079e-02  2.85967626e-02  1.44800335e-01
 -1.71658620e-01  1.63496777e-01  1.55814188e-02  8.09472725e-02
  1.85394436e-02  1.75675098e-02 -2.93402728e-02 -7.79945031e-02
  1.34909675e-01 -2.13977218e-01  1.78099468e-01  2.20458105e-01
  9.11911298e-03  6.97663724e-02  1.27539873e-01  6.85382411e-02
  9.46416694e-04 -1.38586340e-02 -1.11551344e-01 -2.22272165e-02
  7.47755617e-02 -8.25947374e-02  1.04859889e-01  2.67124958e-02]