[-1.38088450e-01  1.47792742e-01  7.76313767e-02  2.13765781e-02
 -7.97811970e-02 -8.75896364e-02  2.88693886e-02 -2.27596804e-01
  1.04360424e-01 -6.92494884e-02  2.08538845e-01 -4.05048430e-02
 -2.35716566e-01 -1.14545010e-01 -1.13636078e-02  1.73529431e-01
 -1.18149221e-01 -1.78411692e-01 -9.74719673e-02 -4.66795415e-02
  1.04269877e-01 -2.31703687e-02  3.43304835e-02  3.90033610e-02
 -1.17915511e-01 -2.91887730e-01 -1.01074390e-01 -2.86156368e-02
  3.95894423e-02 -3.44746672e-02 -7.26201385e-02  6.69335946e-02
 -1.89600006e-01 -1.28051445e-01  4.30806614e-02  7.00342432e-02
 -3.42991315e-02 -2.75537111e-02  1.97113499e-01 -3.09885740e-02
 -2.29409561e-01  2.32777148e-02  9.96237919e-02  2.59768695e-01
  1.87209800e-01  2.32412256e-02  4.95239012e-02 -8.19105729e-02
  7.50855953e-02 -1.62783653e-01  1.22774383e-02  1.12610936e-01
  1.39207169e-01  7.95445219e-02  2.06143167e-02 -1.63366541e-01
 -8.09809286e-03  7.88164958e-02 -1.39682055e-01  3.82759236e-02
  9.43320245e-02 -1.87748805e-01 -6.04773425e-02 -5.08395024e-02
  1.49962649e-01  6.40169308e-02 -7.14143142e-02 -1.57081842e-01
  1.15886748e-01 -1.36129797e-01 -9.79325250e-02  4.21311855e-02
 -1.51061773e-01 -1.37031898e-01 -3.60970914e-01 -1.38673028e-02
  4.08903986e-01  9.57984850e-02 -1.76566288e-01  3.95585932e-02
 -2.44304854e-02  4.36292142e-02  1.09481357e-01  1.01087287e-01
 -4.83516827e-02  6.34516031e-02 -1.04358353e-01  5.06440066e-02
  1.87478602e-01 -6.06320761e-02 -8.67291093e-02  1.84990466e-01
  2.05901694e-02  8.80666897e-02  3.37421037e-02  4.21393141e-02
 -2.89048254e-02  9.69436020e-03 -1.51078656e-01 -4.73921606e-03
  3.78526859e-02 -2.51465924e-02  4.60231565e-02  8.19122046e-02
 -1.37568608e-01  9.69833359e-02  2.98527237e-02  7.32242987e-02
 -5.67011610e-02 -2.35889154e-03 -1.24777697e-01 -1.52238682e-02
  7.49642774e-02 -2.22409829e-01  2.14219362e-01  2.42357999e-01
 -3.00458726e-02  7.17618689e-02  1.10557593e-01 -2.79749947e-04
  3.52481976e-02  3.61740286e-03 -1.28903121e-01 -6.34283349e-02
  1.44278467e-01 -2.39653178e-02  1.25484332e-01  3.63818295e-02]