[-0.11912163  0.10540345  0.08644649 -0.01487992 -0.06434875 -0.08209213
  0.0483811  -0.19800051  0.13850608 -0.08403371  0.28311715 -0.03350219
 -0.231787   -0.10622865 -0.01551222  0.17811917 -0.12519407 -0.15514596
 -0.09470277 -0.03318715  0.09667045 -0.05586516  0.01168906  0.0241805
 -0.10238142 -0.29185101 -0.12051592 -0.02938025  0.08362996 -0.04716111
 -0.064927    0.09592512 -0.18616359 -0.13399565  0.03170706  0.07912683
  0.00928139  0.01138402  0.15649264  0.01244481 -0.23649982  0.04429667
  0.04829374  0.25858054  0.20230229  0.07159118  0.05072999 -0.13682859
  0.06529717 -0.17064421  0.03153059  0.09166975  0.16608317  0.0613707
  0.02189131 -0.17299762 -0.00477784  0.04656456 -0.16386114  0.01825475
  0.07378655 -0.12365045 -0.03694103 -0.05609941  0.16541432  0.06374519
 -0.09002801 -0.13332511  0.15325712 -0.13718024 -0.09161303  0.05949528
 -0.14501296 -0.12037201 -0.36916628 -0.02079347  0.44947568  0.07701159
 -0.21030176  0.04377854 -0.06518837  0.01420153  0.09688352  0.10618646
 -0.05843568  0.0757544  -0.09043645  0.00090757  0.18421219 -0.06585022
 -0.05916361  0.19437622  0.00699143  0.0962027   0.04661196  0.06177905
 -0.0347615  -0.00904881 -0.14991874 -0.08220328  0.0090486  -0.03189108
  0.0239567   0.08460719 -0.18949127  0.14371233  0.02505695  0.06248207
 -0.03356535  0.00927379 -0.05791312 -0.02281741  0.097911   -0.24636605
  0.18759204  0.2607913  -0.0308273   0.06383897  0.09929132  0.02258433
  0.00413642 -0.00353564 -0.12615153 -0.05160136  0.10070067 -0.059779
  0.10499548  0.02667695]