[-0.11986917  0.12189656  0.09018994 -0.01090708 -0.04083205 -0.02968949
 -0.03057706 -0.15236913  0.10037134 -0.05719086  0.24607058 -0.00426326
 -0.15900539 -0.18053502  0.0277809   0.18296348 -0.20606306 -0.17204759
 -0.06767742 -0.0554157   0.08309304  0.04118197  0.01003264 -0.01659046
 -0.14695887 -0.32440016 -0.09979709 -0.10387651  0.15213528 -0.09839493
 -0.09830885 -0.00492835 -0.14741056 -0.10381711  0.08497763  0.08725294
 -0.03068106 -0.05269529  0.20840585 -0.02864635 -0.21368733  0.06538399
  0.08032407  0.26871282  0.21943258  0.01039937  0.04815223 -0.07565491
  0.12693714 -0.16535202  0.06974849  0.11546417  0.11274374  0.10025904
  0.05186052 -0.12860863 -0.03607588  0.08654062 -0.18637757  0.06637174
  0.09476804 -0.15905763 -0.04835237 -0.01848244  0.11458663  0.04747951
 -0.09832536 -0.23048507  0.11687239 -0.14428894 -0.09441792  0.03640607
 -0.10187712 -0.09797677 -0.32929826 -0.01361953  0.3892639   0.05607297
 -0.21393926  0.08731891 -0.02319034 -0.06259113  0.09183081  0.13144948
 -0.0159214   0.07983198 -0.09304782  0.02383267  0.19106703 -0.0385238
 -0.00623971  0.19565046 -0.00649453  0.085081    0.07958465  0.09702501
 -0.08007894 -0.00660746 -0.09736113 -0.04457366  0.0514668  -0.06170338
  0.03504184  0.10318106 -0.14111562  0.21702218  0.01558743  0.08529048
 -0.02363213 -0.02654031 -0.05447717 -0.00189897  0.11864626 -0.23448496
  0.21103132  0.22596227  0.00654283  0.09330446  0.10681428  0.01019705
  0.01089906  0.00453061 -0.19263962 -0.07299342  0.02283923 -0.03932268
  0.08096391  0.05832193]