[-0.10613765  0.13826944  0.05020702  0.01034921 -0.12608999 -0.06295644
  0.00584022 -0.16992952  0.09381495 -0.06296587  0.21779418 -0.08387686
 -0.24716401 -0.03645549 -0.02637118  0.148414   -0.11842611 -0.17928538
 -0.15337761 -0.05810203  0.0430389  -0.04021528  0.01425621  0.03978848
 -0.11171632 -0.30899262 -0.07242658 -0.02156405  0.12465936 -0.11135765
 -0.07411655  0.04337847 -0.20827408 -0.15025519  0.04238467  0.07551314
 -0.02965277 -0.03163014  0.20770653 -0.01014373 -0.24709426  0.02332245
  0.02809696  0.29127392  0.2292079   0.07003119  0.04195858 -0.10773084
  0.05242123 -0.22492175  0.06861111  0.12562095  0.14446191  0.08106195
  0.02847602 -0.17036174 -0.01310739  0.09370483 -0.11711424  0.01361813
  0.10434674 -0.104785    0.00953349 -0.08059981  0.22048119  0.04639367
 -0.08138734 -0.10474014  0.15926932 -0.14343058 -0.07653385  0.03910298
 -0.07799128 -0.10643166 -0.35469896  0.0024383   0.47502169  0.12139096
 -0.21743619  0.01792618 -0.06611505  0.00608814  0.08555897  0.08461099
 -0.10714569  0.05362934 -0.0776822   0.03517998  0.20059788 -0.03373316
 -0.06774363  0.16302012  0.01849596  0.05260935  0.09687018  0.08018326
 -0.07896999 -0.02269002 -0.11109116 -0.03512175  0.05867297 -0.06170551
  0.04415229  0.14401773 -0.17004828  0.17919056 -0.0153722   0.04971342
 -0.00980666  0.03106386 -0.03419378 -0.03849142  0.12834802 -0.2685245
  0.17859031  0.23974304 -0.05273074  0.08557136  0.08136417  0.0467611
  0.01682554  0.04181974 -0.14463031 -0.09291083  0.08278855 -0.04740164
  0.11068093  0.06676806]