[-8.92806575e-02  1.23472430e-01  1.45746157e-01 -3.52556296e-02
 -4.76654842e-02  6.13340689e-03 -4.11176048e-02 -1.02128379e-01
  1.23349123e-01 -3.59566696e-02  2.60776937e-01  5.10713644e-02
 -2.00868130e-01 -1.43772036e-01  2.42496878e-02  1.41461313e-01
 -1.83368370e-01 -1.20017409e-01 -6.63113371e-02 -8.25871155e-02
  7.24518523e-02  8.10448527e-02  3.62132005e-02 -3.34540568e-02
 -1.77853987e-01 -3.10860127e-01 -7.72440955e-02 -1.05260752e-01
  1.43408686e-01 -1.02572896e-01 -1.11431614e-01 -2.29446008e-03
 -1.58115193e-01 -1.04355715e-01  5.40824533e-02  9.90944430e-02
 -8.69753398e-03 -5.62121086e-02  2.01459512e-01 -1.80457961e-02
 -1.76635191e-01  9.22959372e-02  6.88830093e-02  2.39116475e-01
  2.18270302e-01  3.40534752e-04  5.63682020e-02 -5.62135838e-02
  1.25794277e-01 -1.94509566e-01  8.78646597e-02  1.21431172e-01
  1.17480598e-01  6.68444857e-02  8.20377320e-02 -1.61773369e-01
 -7.89689943e-02  1.11095287e-01 -1.96626171e-01  1.04934528e-01
  6.53688237e-02 -1.16616525e-01 -7.10353702e-02 -6.75983652e-02
  1.17211185e-01  7.09737539e-02 -1.32287621e-01 -2.05660701e-01
  1.24287143e-01 -1.27498180e-01 -8.59115273e-02  5.20087369e-02
 -1.27549291e-01 -8.31529796e-02 -3.28471661e-01  2.33607199e-02
  3.60238522e-01  5.86512387e-02 -2.32246280e-01  7.82785788e-02
 -3.90459783e-02 -4.81220447e-02  3.79938222e-02  1.07991613e-01
 -2.48122662e-02  8.67318437e-02 -6.28625229e-02  3.95449214e-02
  1.60383254e-01 -3.02496570e-04 -1.78953260e-02  2.23280817e-01
 -1.02459537e-02  1.07076488e-01  7.01791197e-02  1.05762579e-01
 -9.73903537e-02 -4.96790409e-02 -1.22499608e-01 -1.44122960e-02
  5.06736338e-02 -1.02017663e-01  2.46349704e-02  1.12575881e-01
 -1.52844757e-01  1.88696116e-01 -7.14331213e-03  6.05028756e-02
  1.99379283e-03 -1.48753887e-02 -7.19476268e-02  1.01885227e-02
  1.69482633e-01 -2.69032329e-01  2.25525424e-01  2.18586355e-01
 -1.52186304e-02  8.84692520e-02  1.10581569e-01  1.95450764e-02
  1.27680469e-02  2.56603193e-02 -1.84947133e-01 -9.62647125e-02
  7.79915601e-03 -9.94765460e-02  8.47013369e-02  7.11455122e-02]