[-0.13652185  0.13725698  0.06495288 -0.01341277 -0.13853899 -0.08266025
  0.02020048 -0.1479256   0.10160843 -0.03455083  0.28152359 -0.02938988
 -0.31254137 -0.02684611 -0.07414924  0.17338002 -0.12485743 -0.14043105
 -0.1469404  -0.07266151  0.04701101  0.0440102   0.0193412   0.03634001
 -0.0602723  -0.351576   -0.06163499 -0.01401224  0.06268422 -0.07317507
 -0.01313135  0.09460554 -0.16010176 -0.1107673   0.07647347  0.06019655
 -0.0445864  -0.03689106  0.19257739  0.05941471 -0.23088239 -0.00916091
  0.07725164  0.33249322  0.22862795  0.06171651  0.04994589 -0.09815589
  0.0493612  -0.24615335  0.02798213  0.13463515  0.15824822  0.03711116
  0.08788464 -0.20047422 -0.01577108  0.11576241 -0.15776195  0.00809749
  0.09528917 -0.0988133  -0.0394673  -0.1134012   0.19605528  0.07295065
 -0.13997157 -0.09185496  0.14085808 -0.16330911 -0.10070904  0.0591571
 -0.12086184 -0.13789646 -0.33945629 -0.00928983  0.44945845  0.11671593
 -0.20586517 -0.0302668   0.00733578  0.02714812  0.10119791  0.10113575
 -0.11163801 -0.00469337 -0.10595589 -0.0206539   0.15503415  0.00253067
 -0.08804953  0.19221061 -0.00715759  0.03952926  0.07106064  0.08759391
 -0.09860934 -0.03180796 -0.1272835  -0.04378023 -0.00220117 -0.08245862
  0.00883248  0.10183694 -0.14051042  0.13126729 -0.03234971  0.05802864
 -0.03576287 -0.02415443 -0.04181342  0.00264105  0.11810922 -0.24175858
  0.19334269  0.22827351 -0.06434586  0.09283766  0.08586503  0.01149665
 -0.01578348  0.00389203 -0.14054005 -0.11608078  0.05213113 -0.10137983
  0.10128049 -0.011029  ]