[-1.04889967e-01  1.01971619e-01  9.85150114e-02 -4.26793173e-02
 -5.29512465e-02 -1.01272725e-01 -5.94445243e-02 -1.27330735e-01
  9.65069085e-02 -2.15292145e-02  2.64069229e-01 -5.23697920e-02
 -1.82029203e-01 -1.01667523e-01 -1.05480971e-02  1.77600056e-01
 -1.80918917e-01 -9.44673046e-02 -1.77083369e-02  2.15358417e-02
  9.76037085e-02 -5.92588447e-03  5.58056533e-02  1.43456729e-02
 -1.09035067e-01 -3.39675039e-01 -1.34256765e-01 -1.03258394e-01
  3.49309705e-02 -2.41519306e-02 -8.19286332e-02  1.37057854e-02
 -1.88422799e-01 -1.09020211e-01  5.12652993e-02  8.34844261e-02
  9.71219037e-03 -4.48090695e-02  1.55700639e-01  2.37165075e-02
 -1.82675362e-01  7.76868984e-02  8.83844029e-03  2.51252383e-01
  1.88750744e-01  7.76633769e-02  9.64783058e-02 -1.33728966e-01
  6.54503331e-02 -1.25593126e-01  5.06778136e-02  9.88445505e-02
  1.11420825e-01  3.81312929e-02 -3.19736861e-02 -1.25966474e-01
  2.15950906e-02  7.89042264e-02 -1.67405322e-01  1.48940105e-02
  1.25517964e-01 -5.44675589e-02 -1.42352972e-02 -3.64582203e-02
  2.20681950e-01  6.17151372e-02 -1.08984984e-01 -1.26502216e-01
  1.41704783e-01 -7.99796432e-02 -5.52673005e-02 -2.53511826e-03
 -1.96760684e-01 -1.35746285e-01 -3.06144595e-01  3.06411982e-02
  4.12539631e-01  1.35337217e-02 -2.14627311e-01  1.89443436e-02
 -1.12016134e-01  3.90716605e-02  9.83072892e-02  9.29866955e-02
 -7.95728434e-03  1.48841683e-02 -9.76132378e-02  1.11270854e-02
  2.26225927e-01 -1.21638112e-01 -6.46395638e-05  1.60370305e-01
  1.37639865e-02  7.64911249e-02  3.22927348e-02  2.97990330e-02
 -2.40236428e-02  4.90826555e-02 -1.09010749e-01  2.99302340e-02
 -1.23287821e-02 -5.79972677e-02 -8.28794669e-03  1.12247720e-01
 -1.87001333e-01  8.22412968e-02  4.96388786e-02 -1.75464191e-02
 -4.50749462e-03  2.17527542e-02 -9.65405032e-02 -1.17201343e-01
  1.10729001e-01 -2.14475036e-01  2.13752627e-01  2.61263102e-01
  3.70238386e-02  1.00521497e-01  6.17396235e-02  9.42896679e-02
 -6.97766105e-03  3.00749578e-02 -1.61603212e-01 -2.54204459e-02
  8.33534151e-02  2.88364831e-02  4.90749441e-02  2.67623756e-02]