[-4.25429903e-02  1.65135637e-01  9.19190347e-02 -3.82502079e-02
 -2.67002881e-02 -1.04760364e-01 -5.01005240e-02 -1.57773674e-01
  7.65950829e-02 -6.21028990e-03  2.20481083e-01 -5.49558774e-02
 -2.10724041e-01 -1.11344181e-01 -2.35402286e-02  1.53475717e-01
 -1.52256250e-01 -1.04800306e-01 -7.35919401e-02 -3.71335410e-02
  3.74050140e-02  1.54353054e-02  5.91417067e-02  3.03369313e-02
 -1.42967626e-01 -2.66072094e-01 -9.08687934e-02 -1.14657678e-01
  1.42087163e-02 -8.52211937e-02 -1.02987401e-01  3.71044390e-02
 -1.76275849e-01 -1.41583607e-01  3.20913047e-02  2.22672578e-02
 -8.54767510e-04 -3.85813527e-02  1.62702277e-01  6.69432655e-02
 -1.79086477e-01  8.44443366e-02  1.24753425e-02  2.99680799e-01
  2.39439592e-01  2.28295866e-02  6.03727773e-02 -1.04576997e-01
  1.22733906e-01 -2.05011889e-01  6.27629384e-02  9.29423496e-02
  1.31461367e-01  4.59475778e-02  8.12403858e-03 -1.30913287e-01
 -1.00496951e-02  8.92069787e-02 -1.84412837e-01  7.14956820e-02
  1.05062008e-01 -6.07098639e-02 -1.55899273e-02 -4.02393490e-02
  1.43649623e-01  9.09399986e-02 -1.06099211e-01 -7.54930675e-02
  1.21238373e-01 -1.16773546e-01 -5.59944510e-02  1.60219669e-02
 -1.30482897e-01 -1.34298190e-01 -3.44335169e-01  1.21902125e-02
  3.39753151e-01  7.97289163e-02 -2.38323912e-01 -4.43686992e-02
 -9.59498286e-02  3.61050591e-02  7.83906654e-02  5.45069836e-02
 -7.02684298e-02  2.93272790e-02 -7.52601400e-02  1.04559595e-02
  2.19723865e-01 -7.31231198e-02 -4.92070094e-02  2.20196441e-01
 -3.57615208e-04  5.39466329e-02  5.38073666e-02  7.68749118e-02
 -7.60910287e-02 -1.78687721e-02 -1.42507479e-01  2.47764941e-02
  2.53222504e-04 -1.10805012e-01 -1.91306006e-02  1.35191903e-01
 -1.96249172e-01  1.16962090e-01  3.56171429e-02 -7.24835927e-03
 -3.59953046e-02  7.18078995e-03 -7.75691494e-02 -6.82751536e-02
  1.45165369e-01 -1.72259971e-01  1.86451897e-01  2.52200693e-01
  1.44764278e-02  6.16719089e-02  5.97655363e-02  1.20936530e-02
 -2.55175214e-02 -6.17348915e-03 -1.01805106e-01 -7.88858756e-02
  8.95220637e-02 -2.72981833e-05  5.55520020e-02  2.39416007e-02]