[-0.11022917  0.09696998  0.08823188 -0.0376845  -0.04186472 -0.07749574
  0.02156425 -0.23182666  0.13813698 -0.11422791  0.24105477 -0.07233855
 -0.202105   -0.13934298  0.00768673  0.18318282 -0.11474605 -0.18082845
 -0.05174807 -0.04812011  0.10714932 -0.07085961  0.01427773  0.04854305
 -0.15034889 -0.29219353 -0.14842741 -0.02658654  0.06395064 -0.03261814
 -0.0688621   0.08327206 -0.19349305 -0.11846626  0.02040414  0.08441303
 -0.0115583  -0.05346729  0.150769   -0.01666104 -0.23766617  0.03279356
  0.06674291  0.25350562  0.1674169   0.01393236  0.05391927 -0.10128983
  0.09195924 -0.16170426  0.04245978  0.09552692  0.13952486  0.07381269
  0.01100455 -0.1240715   0.01276862  0.0840574  -0.16909353  0.04781675
  0.09677577 -0.12335364 -0.04916742 -0.04825997  0.14915763  0.11199617
 -0.09744205 -0.15506516  0.12367684 -0.11655926 -0.0791228   0.04284094
 -0.17703564 -0.1413672  -0.37302738 -0.00317691  0.41362664  0.08567566
 -0.19020383  0.03927972 -0.05056211  0.06466784  0.12349718  0.11115165
 -0.04214161  0.07661389 -0.07935257  0.04092266  0.19500645 -0.06593946
 -0.09371325  0.20728718  0.00474296  0.09131765  0.02569068  0.0729469
 -0.02843347 -0.00153394 -0.15381555 -0.03793247  0.05254059  0.00255765
  0.02760413  0.10943637 -0.16854843  0.14967301  0.05390216  0.07358601
 -0.01633766  0.02483504 -0.11319491 -0.03948847  0.0684449  -0.2257576
  0.16731112  0.24334295  0.00944615  0.05631458  0.11910029  0.00268336
  0.03177842 -0.02227004 -0.11455131 -0.03292549  0.13291289 -0.01983237
  0.09757566  0.0251585 ]