[-0.05545349  0.18006939  0.07302192 -0.04446866  0.02594059 -0.07719715
 -0.01243845 -0.15304692  0.12741928 -0.03729913  0.20398612 -0.06121748
 -0.2249167  -0.09807047  0.00498701  0.15053891 -0.21817541 -0.12475456
 -0.04524449 -0.02081618  0.06575714 -0.01750208  0.04182122  0.02617711
 -0.16023912 -0.27773112 -0.13324942 -0.10056322  0.01661265 -0.06089498
 -0.06284573  0.0132426  -0.19741006 -0.12161096  0.02639712  0.0326019
 -0.01291905 -0.06049177  0.15646026  0.03321221 -0.16446702  0.08213574
  0.01399449  0.27373239  0.20314308  0.02912286  0.03937999 -0.09898758
  0.06707587 -0.17134705  0.06537176  0.1088106   0.10568223  0.07820572
  0.02282808 -0.16575174  0.02038023  0.0740191  -0.1648367   0.03257909
  0.12768666 -0.0749201   0.02923056 -0.01212992  0.13093637  0.08012775
 -0.07676974 -0.11935318  0.14870606 -0.09960568 -0.04162546 -0.00594741
 -0.12249815 -0.13773948 -0.32712948  0.01712152  0.33057809  0.10211307
 -0.19722012 -0.00278397 -0.10780497  0.0476675   0.09213515  0.03379531
 -0.08140181  0.02363003 -0.09675152  0.02129651  0.19998413 -0.03161529
 -0.0768161   0.16366953 -0.0241584   0.01906651  0.07747385  0.0174324
 -0.07129505  0.01306145 -0.16267912  0.0364904  -0.02104202 -0.11827991
 -0.05117     0.15722829 -0.19524974  0.11518314  0.05618564 -0.04375017
 -0.07623354  0.04732048 -0.13341367 -0.01480003  0.13689958 -0.22464886
  0.2215292   0.2473623   0.01557887  0.09283372  0.07353041  0.04519894
 -0.03819935 -0.00301973 -0.14670689 -0.08750286  0.08550131  0.03184428
  0.09739052  0.03764533]