[-1.03499092e-01  9.79997963e-02  1.16634570e-01 -2.82886084e-02
 -5.42735420e-02 -8.57045203e-02 -6.88561872e-02 -1.28525823e-01
  1.05640672e-01 -2.83587482e-02  2.67507344e-01 -2.47152280e-02
 -1.81255400e-01 -8.56676251e-02 -6.18707296e-03  1.73492819e-01
 -1.73186198e-01 -8.93319845e-02 -2.01277379e-02  2.95127686e-02
  9.03585702e-02  3.86612723e-03  5.72123490e-02  3.91305937e-03
 -1.05557159e-01 -3.54934931e-01 -1.30826756e-01 -8.93550143e-02
  4.81793545e-02 -2.27774326e-02 -9.30471793e-02  1.22730033e-02
 -1.87096357e-01 -9.43716019e-02  4.98838611e-02  8.52189884e-02
  1.33306831e-02 -3.70247141e-02  1.52973771e-01  2.66446602e-02
 -1.94423318e-01  8.89116153e-02 -9.45591461e-03  2.45720789e-01
  1.97004452e-01  7.08197951e-02  1.03129804e-01 -1.43300712e-01
  6.54919744e-02 -1.28414199e-01  5.13182543e-02  1.05825759e-01
  1.11616671e-01  3.43334749e-02 -3.21060047e-02 -1.30457267e-01
  6.19192654e-03  8.42654333e-02 -1.69197723e-01  2.97841970e-02
  1.26355305e-01 -6.08949773e-02 -1.25326738e-02 -3.87271903e-02
  2.12865457e-01  7.25385100e-02 -1.09567516e-01 -1.41747400e-01
  1.44368410e-01 -8.49813446e-02 -5.19522429e-02 -3.24404961e-03
 -2.03629419e-01 -1.44957945e-01 -3.07378113e-01  3.13057676e-02
  4.10536259e-01  1.76255088e-02 -2.24220425e-01  2.60881670e-02
 -1.09608091e-01  4.52406295e-02  1.00110784e-01  1.01994932e-01
  4.02843201e-04  1.03612198e-02 -8.76702070e-02  1.24813011e-02
  2.30895191e-01 -1.10920243e-01 -2.19762333e-05  1.63751870e-01
  9.41129588e-03  7.98932388e-02  3.06142010e-02  3.68080512e-02
 -2.08032690e-02  4.37333994e-02 -1.14374332e-01  2.67192479e-02
 -2.89992932e-02 -5.22223115e-02  5.44080883e-03  1.13793291e-01
 -1.86221644e-01  9.86274406e-02  4.19541858e-02 -6.61679078e-03
  1.62998419e-02  2.70579495e-02 -8.87896791e-02 -1.16279937e-01
  1.17002584e-01 -2.22711995e-01  2.35642076e-01  2.61923552e-01
  3.88402343e-02  1.01681076e-01  5.20460010e-02  1.02219060e-01
 -6.34181965e-03  4.03503999e-02 -1.63011417e-01 -2.15292703e-02
  6.96662366e-02  1.21354926e-02  4.44727652e-02  2.81854626e-02]