[-0.10548475  0.10853424  0.12946847 -0.02709623 -0.05483983 -0.08783584
 -0.06430181 -0.1316835   0.09982822 -0.0319579   0.26832044 -0.04386256
 -0.18860704 -0.08518779 -0.01718984  0.18425743 -0.18152058 -0.09265142
 -0.02033132  0.0161756   0.09641058  0.00419775  0.05378236  0.00480969
 -0.09380395 -0.34127685 -0.11929055 -0.09445318  0.0519341  -0.01298687
 -0.08979466  0.00443609 -0.19086714 -0.09454425  0.04493062  0.07652973
  0.00473347 -0.04424671  0.15343654  0.00557568 -0.18975611  0.08054098
  0.00449923  0.23935437  0.18586561  0.07448547  0.09434978 -0.14643131
  0.06423887 -0.12591021  0.04731598  0.11239721  0.10769558  0.04178764
 -0.03291168 -0.13599287  0.01553994  0.08392426 -0.15872584  0.02643455
  0.13008197 -0.0582637  -0.01220437 -0.03933644  0.22058986  0.05836836
 -0.1115066  -0.13265732  0.14184497 -0.08092459 -0.05353125 -0.0024695
 -0.19810796 -0.1387984  -0.30157602  0.02675642  0.41771802  0.01427952
 -0.22557281  0.02711607 -0.10459677  0.04314575  0.10972881  0.11469503
 -0.00245719  0.01352205 -0.09375635  0.00742364  0.21979976 -0.11883245
  0.00344705  0.16981772  0.01862246  0.07281279  0.02665367  0.03089925
 -0.02310736  0.0431968  -0.11752609  0.02132738 -0.02409163 -0.04462696
 -0.00777353  0.10685878 -0.18098442  0.09292921  0.04807573 -0.00167061
  0.00995314  0.01965525 -0.08202999 -0.11616891  0.11376198 -0.21120416
  0.2222334   0.25611377  0.04055224  0.1050728   0.06019151  0.10471471
 -0.00135229  0.03166122 -0.16674332 -0.02410708  0.07939684  0.01000151
  0.04716837  0.03041963]