[-0.15637432  0.1379295   0.10786992 -0.02744531 -0.05876759 -0.11238413
 -0.06818007 -0.15096389  0.10308816 -0.04067548  0.25303137 -0.04850579
 -0.21221319 -0.11089107 -0.04183599  0.17803805 -0.18514462 -0.09263774
  0.00551016 -0.00043437  0.09997194 -0.00201705  0.07274596  0.00152391
 -0.09115224 -0.36857325 -0.11357218 -0.09964377  0.00078927  0.0133248
 -0.06903563  0.03817705 -0.17980652 -0.10458004  0.01674328  0.08366555
 -0.01960936 -0.01159622  0.14717069  0.0135632  -0.1837645   0.04208211
  0.00218446  0.26890117  0.18207346  0.09554492  0.08683117 -0.13966586
  0.06311566 -0.1621847   0.02998093  0.11671998  0.07490007  0.02677301
 -0.01137239 -0.14563765  0.03471246  0.04590397 -0.16811322  0.00132294
  0.11654558 -0.07416549 -0.01571962 -0.0331369   0.22471523  0.06695
 -0.10865314 -0.07434161  0.14924563 -0.08198865 -0.03998416  0.01340405
 -0.17191546 -0.17712452 -0.33242163  0.03358311  0.42777205  0.05339471
 -0.16287076  0.00092201 -0.10462799  0.05165654  0.12521981  0.08228614
 -0.05505934  0.01086515 -0.12213521  0.00798423  0.18982267 -0.10720952
 -0.04031035  0.17628779  0.02856824  0.09184489  0.03604483  0.06784801
 -0.03215283  0.0416041  -0.14069103  0.02974953  0.02054032 -0.08474846
 -0.01228004  0.09605949 -0.17797802  0.06710898  0.05181039 -0.00746158
 -0.02468945  0.00304277 -0.11003659 -0.08868148  0.09969304 -0.20469557
  0.20940831  0.26755485  0.03213272  0.15483081  0.0936229   0.06179782
 -0.03700804 -0.02489287 -0.13769838 -0.05099576  0.09371179  0.04995757
  0.06492405  0.03886002]