[-1.36344448e-01  1.45792589e-01  8.80599990e-02 -3.17641087e-02
 -5.57487309e-02 -5.75128905e-02 -8.17001089e-02 -1.60090849e-01
  1.18843399e-01 -9.07971188e-02  2.69040674e-01 -1.34386765e-02
 -1.91952541e-01 -4.74524684e-02 -7.90837184e-02  1.99802220e-01
 -2.13465482e-01 -1.47595823e-01  8.50470387e-04  3.30509916e-02
  7.58889541e-02  2.93738004e-02  3.45255546e-02  1.37711465e-02
 -7.09294826e-02 -3.12972426e-01 -1.27661020e-01 -7.77001232e-02
  5.87693043e-02 -1.72813991e-04 -1.03885509e-01  2.05639228e-02
 -1.69088945e-01 -7.17896968e-02  4.70933057e-02  1.07084826e-01
 -1.69738866e-02 -1.71591993e-02  1.54268131e-01  1.24257104e-02
 -1.93687707e-01  4.56393287e-02  4.38855551e-02  2.78146833e-01
  1.77777916e-01  7.45530725e-02  5.33841923e-02 -1.61744103e-01
  3.35730091e-02 -1.94699511e-01  6.40887842e-02  1.42035201e-01
  9.31134447e-02  1.18406966e-01 -4.45897691e-03 -1.60775572e-01
  3.31683420e-02  7.74225071e-02 -9.56918970e-02  4.32509519e-02
  9.84544829e-02 -1.02394102e-02  4.87021208e-02 -3.73247378e-02
  2.58053750e-01  9.82108638e-02 -1.11750029e-01 -1.46612972e-01
  1.16345145e-01 -1.14082471e-01 -1.41654357e-01  3.09495516e-02
 -1.73295453e-01 -1.43245339e-01 -3.09780508e-01 -1.32785467e-02
  4.19741124e-01  7.27168992e-02 -1.79824963e-01  4.22744937e-02
 -6.33950755e-02 -2.01762673e-02  1.24864995e-01  1.15191303e-01
 -4.14333455e-02  2.11996939e-02 -9.74719152e-02 -8.19570106e-03
  2.71101207e-01 -7.63600692e-02 -4.68779169e-02  1.65293798e-01
 -5.01501886e-03  1.00442670e-01  5.03409877e-02  8.93662348e-02
  2.11187615e-03  2.67501418e-02 -1.50787488e-01 -2.22305246e-02
 -1.70501694e-02 -4.16359007e-02 -4.95524667e-02  1.41593322e-01
 -1.62129328e-01  1.07762218e-01  3.10556777e-02  3.14988494e-02
 -3.35616176e-03  5.10726236e-02 -8.86671767e-02 -5.65626025e-02
  1.35132626e-01 -1.90485090e-01  2.82116532e-01  2.44780108e-01
  2.95381732e-02  8.39347169e-02  1.00679331e-01  7.70540014e-02
 -2.22910475e-02 -4.72189952e-03 -1.58918485e-01 -6.22138754e-02
  7.65203759e-02 -1.94297060e-02  6.82718530e-02  4.19753492e-02]