[-0.1175076   0.11800593  0.08812865 -0.02383946 -0.05646112 -0.02960831
 -0.02136513 -0.13162571  0.09894224 -0.0416289   0.23890522 -0.01188579
 -0.14569379 -0.20253792  0.04112358  0.19071527 -0.20151317 -0.17857273
 -0.06551173 -0.05883284  0.07312407  0.04023676 -0.00085669 -0.0077268
 -0.16313682 -0.33397642 -0.08765616 -0.11058404  0.11735536 -0.0985927
 -0.09665775  0.00621952 -0.15014146 -0.11430436  0.07741531  0.09885949
 -0.04646075 -0.06367198  0.20475955 -0.03297039 -0.21365391  0.05718546
  0.0806693   0.27168927  0.21778977  0.00976083  0.0531005  -0.06090094
  0.12661885 -0.16357824  0.06974725  0.11711811  0.09770742  0.09282269
  0.03573408 -0.11607265 -0.01750065  0.07770099 -0.21245794  0.04139685
  0.09149233 -0.17591825 -0.0528974  -0.03054673  0.12125307  0.05761678
 -0.08260287 -0.22680353  0.1168898  -0.14984766 -0.10270455  0.01860978
 -0.10902829 -0.10373562 -0.35863838 -0.01379117  0.38775408  0.07098963
 -0.21235834  0.08565354 -0.0162358  -0.05378148  0.106347    0.13546994
 -0.01130796  0.08116842 -0.10245881  0.03372741  0.18537943 -0.0388826
 -0.01941577  0.17673527  0.00767154  0.08083099  0.08474088  0.08215066
 -0.06766441  0.01125709 -0.09024386 -0.0171123   0.05637209 -0.0559337
  0.03991381  0.10873758 -0.13462415  0.22119606  0.02173438  0.07946538
 -0.03910089 -0.03599871 -0.05922655 -0.01237627  0.11830197 -0.2221128
  0.19386886  0.22362271  0.00274369  0.11104234  0.10706466  0.01573948
 -0.00826071 -0.00151276 -0.21166073 -0.05880904  0.03171043 -0.02951728
  0.11050715  0.07921912]