[-6.30533770e-02  1.58678398e-01  9.76171717e-02 -3.80664989e-02
 -3.05782259e-02 -1.14996091e-01 -3.61691937e-02 -1.54992625e-01
  6.93414062e-02 -5.54091297e-03  2.42608458e-01 -5.40168993e-02
 -1.93602249e-01 -1.32469952e-01 -1.21640973e-02  1.52064264e-01
 -1.50548652e-01 -1.11754194e-01 -6.42773286e-02 -3.11278533e-02
  3.61511409e-02 -1.09427972e-02  6.58118650e-02  4.70709987e-02
 -1.32596150e-01 -2.84090996e-01 -9.19150561e-02 -1.35349244e-01
  2.91074757e-02 -8.75352845e-02 -1.00342430e-01  2.77558267e-02
 -1.76659763e-01 -1.22723296e-01 -1.97330187e-03  1.57328434e-02
  1.38165420e-02 -3.74923758e-02  1.71622962e-01  5.13311028e-02
 -1.69556841e-01  7.85987303e-02 -1.68006327e-02  2.88354307e-01
  2.30693147e-01  1.10431891e-02  7.77994022e-02 -6.68601021e-02
  1.10772096e-01 -2.08227918e-01  5.90331443e-02  8.36139023e-02
  1.41713768e-01  2.65314169e-02 -4.31636255e-03 -1.19466841e-01
 -1.80548560e-02  8.82273838e-02 -2.00371891e-01  6.96577132e-02
  8.57810602e-02 -4.90162931e-02 -3.60043123e-02 -3.16655748e-02
  1.70294210e-01  1.13611296e-01 -1.04119495e-01 -7.03564808e-02
  1.33196190e-01 -1.15592659e-01 -4.51687984e-02  1.31063759e-02
 -1.41947567e-01 -1.36220396e-01 -3.22617739e-01  3.21681164e-02
  3.21360797e-01  9.03993994e-02 -2.53121912e-01 -4.14457880e-02
 -1.22493587e-01  5.86724393e-02  7.15292841e-02  2.70963553e-02
 -6.64293021e-02  3.81007418e-02 -1.04057506e-01  5.08008292e-03
  1.95401132e-01 -7.36729577e-02 -4.98618856e-02  2.28444412e-01
  9.43390653e-03  5.73237054e-02  4.89055775e-02  5.92177883e-02
 -5.17616048e-02 -2.41939984e-02 -1.33529112e-01  2.60360781e-02
  1.22623602e-02 -8.59724283e-02 -2.61204727e-02  1.18562996e-01
 -1.90717101e-01  1.11594401e-01  2.63029579e-02 -2.79762986e-04
 -4.37298343e-02  1.20311445e-02 -7.54087493e-02 -7.54724741e-02
  1.34849802e-01 -1.72245219e-01  1.80980027e-01  2.52269328e-01
  6.41792268e-03  6.91705421e-02  5.19838147e-02 -1.09736626e-04
 -2.73376498e-02 -1.88941266e-02 -9.97014940e-02 -6.75467625e-02
  1.05668761e-01 -5.56226587e-03  5.05221598e-02  3.01555935e-02]