[-0.10650114  0.10887598  0.10659754 -0.03107736 -0.0457946  -0.08917022
 -0.0559704  -0.1321281   0.10088587 -0.0195486   0.26174164 -0.0405315
 -0.18066587 -0.10329826 -0.01831364  0.18067743 -0.18905728 -0.08443543
 -0.02305142  0.01488702  0.09718056  0.00316928  0.06053932  0.00659477
 -0.10411043 -0.3488228  -0.12964886 -0.10383343  0.04187202 -0.02594253
 -0.07967228  0.00579525 -0.19472781 -0.10312374  0.04538432  0.07919566
  0.00241547 -0.04193292  0.14869171  0.02705073 -0.17986743  0.09071996
  0.00135576  0.25099131  0.20026998  0.08410038  0.09490301 -0.1442039
  0.07085796 -0.12629174  0.04455275  0.10321253  0.10105085  0.0406356
 -0.03278726 -0.12768625  0.02152737  0.06492759 -0.16687509  0.01734396
  0.12641318 -0.05796272 -0.01173331 -0.02212648  0.20863882  0.05626414
 -0.10783317 -0.12402572  0.14423032 -0.08886056 -0.04376231 -0.00320107
 -0.19189562 -0.14308386 -0.30900764  0.03397096  0.42696711  0.01647551
 -0.21438675  0.01439462 -0.11316718  0.04730913  0.11070762  0.10355619
 -0.01097549  0.00745402 -0.09771886  0.01380338  0.22259556 -0.11594389
 -0.00712599  0.16855101  0.01605356  0.07352799  0.03432523  0.03864225
 -0.02666781  0.04915088 -0.10811144  0.02682787 -0.01187626 -0.05871781
 -0.00563842  0.10985082 -0.18378954  0.0955399   0.04812075 -0.01358804
  0.00273575  0.01677098 -0.0957698  -0.1075274   0.11331315 -0.21565734
  0.22606607  0.26724273  0.03050223  0.10712206  0.05930153  0.10184598
 -0.01400777  0.02982337 -0.15875322 -0.03040192  0.07279974  0.02678506
  0.05026396  0.02097206]