[-5.24088629e-02  1.90631166e-01  6.47811219e-02 -3.46004330e-02
  1.54366046e-02 -7.31468424e-02 -2.11360063e-02 -1.66149318e-01
  1.43099517e-01 -4.70602401e-02  1.93854332e-01 -4.55296822e-02
 -2.16209278e-01 -1.08486690e-01  1.04714399e-02  1.44168720e-01
 -2.23100767e-01 -1.28196463e-01 -4.83555458e-02 -3.12370807e-02
  8.20765048e-02  2.79079017e-04  3.46286781e-02  2.97671799e-02
 -1.58348337e-01 -2.82478184e-01 -1.44093364e-01 -9.59233791e-02
  3.02724894e-02 -5.80430441e-02 -8.42626914e-02  1.91236418e-02
 -1.84644148e-01 -1.16971508e-01  2.94929836e-02  2.06576921e-02
 -7.50552351e-03 -4.50750105e-02  1.50409415e-01  3.40095982e-02
 -1.63663149e-01  1.01503491e-01  7.49176019e-04  2.67003566e-01
  2.16793641e-01  2.93427296e-02  2.42468324e-02 -1.02532521e-01
  6.44649938e-02 -1.60983309e-01  6.78248629e-02  1.34720311e-01
  1.16544560e-01  8.36112425e-02  2.17101183e-02 -1.65628716e-01
  3.20773618e-03  7.54364058e-02 -1.73251495e-01  2.56538875e-02
  1.14381149e-01 -9.99236256e-02  2.23641228e-02  2.36920500e-03
  1.23433091e-01  9.47734192e-02 -7.58156404e-02 -1.32939368e-01
  1.32221252e-01 -1.14617519e-01 -4.64796796e-02 -1.43513326e-02
 -1.27638727e-01 -1.40895367e-01 -3.23028803e-01  2.38045882e-02
  3.36164147e-01  1.11156978e-01 -2.15334296e-01  1.20769115e-02
 -1.13996446e-01  4.96103391e-02  1.11921243e-01  3.41567062e-02
 -8.79095122e-02  1.04744202e-02 -9.33904350e-02  2.34441459e-02
  1.82221010e-01 -3.55285481e-02 -7.81618878e-02  1.89642429e-01
 -1.41088637e-02  4.36695702e-02  7.93915018e-02  9.66230966e-03
 -5.38502634e-02  7.92151876e-03 -1.47360608e-01  3.56907025e-02
 -2.08893940e-02 -1.06464639e-01 -4.37675826e-02  1.47088587e-01
 -1.86385065e-01  1.14072286e-01  6.70600012e-02 -2.75821574e-02
 -7.12587684e-02  4.14080843e-02 -1.37185052e-01 -2.75658369e-02
  1.34083971e-01 -2.42627859e-01  2.31731519e-01  2.44469166e-01
  5.04417298e-03  1.09699033e-01  6.98406473e-02  4.51743156e-02
 -3.17344181e-02 -2.06013899e-02 -1.33712530e-01 -6.98801726e-02
  1.06820501e-01  3.05348765e-02  8.86196941e-02  3.50683704e-02]