[-9.26225111e-02  1.47718936e-01  1.23938419e-01 -2.07306873e-02
 -1.72322720e-01 -3.24591696e-02  3.88543457e-02 -1.27727330e-01
  1.43072769e-01 -7.52357617e-02  2.45732978e-01 -7.57389292e-02
 -2.24779561e-01 -9.66484845e-03 -4.14774418e-02  1.90252885e-01
 -1.03527941e-01 -1.80929765e-01 -1.41468391e-01 -9.06198099e-02
  2.65233382e-03  2.64238808e-02 -5.11294119e-02  5.92550896e-02
 -8.99221301e-02 -3.25094551e-01 -5.42755984e-02 -2.13401578e-02
  1.15264319e-01 -1.03687443e-01 -6.81952313e-02  1.01088837e-01
 -1.60158053e-01 -1.09096192e-01  7.32974038e-02  1.00304954e-01
 -9.45662931e-02 -3.82480994e-02  1.79667726e-01  3.49617377e-02
 -2.72118062e-01  3.02103665e-02  5.62411137e-02  3.26511711e-01
  2.56564826e-01  6.79306313e-02  2.23496892e-02 -1.02848090e-01
  1.07166640e-01 -2.47724846e-01  2.35415585e-02  1.63275942e-01
  1.43809348e-01  8.59511420e-02  5.18651269e-02 -1.79918334e-01
 -5.19368313e-02  1.01003468e-01 -1.84856012e-01 -3.30942887e-04
  7.77824819e-02 -1.30318895e-01 -2.79066209e-02 -1.24427699e-01
  2.06662461e-01  9.59660038e-02 -1.08213916e-01 -1.22994974e-01
  2.12773368e-01 -1.71773553e-01 -7.98500702e-02  8.99954587e-02
 -1.16052091e-01 -1.20542049e-01 -2.97345847e-01  1.64952520e-02
  4.94720846e-01  1.35089099e-01 -1.70742124e-01 -1.69503000e-02
 -3.05318423e-02  2.53748279e-02  5.91568463e-02  1.17488168e-01
 -8.72871131e-02  5.60041098e-03 -4.67979424e-02  2.07270514e-02
  1.71032697e-01 -4.73871045e-02 -4.75164168e-02  1.68555647e-01
  8.83198436e-03  4.87685017e-02  3.09309904e-02  6.06877506e-02
 -9.54009816e-02 -5.12149790e-03 -1.48862287e-01 -8.51076841e-02
 -2.63184379e-03 -2.35619824e-02  6.28082976e-02  1.28492653e-01
 -1.67030811e-01  2.03052565e-01 -4.97281319e-03  5.48644923e-02
 -3.05013265e-02  1.05065852e-02 -1.09823346e-02 -8.38512089e-03
  1.52240604e-01 -2.60905296e-01  1.88114643e-01  2.09995136e-01
 -5.33227101e-02  8.62621740e-02  7.46669173e-02  2.08722688e-02
  1.66611280e-02 -5.19273244e-02 -1.37793735e-01 -8.02274048e-02
  7.48877749e-02 -8.65385532e-02  8.28739032e-02  1.91083662e-02]