[-0.0594898   0.20151889  0.08154986 -0.01439171  0.01542916 -0.04465054
 -0.02796306 -0.13216603  0.13146397 -0.01919056  0.17444247 -0.06157768
 -0.24638604 -0.04125765 -0.01606905  0.1519199  -0.22631574 -0.10960584
 -0.0611721  -0.04085758  0.08749953  0.02023809  0.03807484  0.01774516
 -0.1495838  -0.26820686 -0.11622924 -0.10351297  0.04374637 -0.06703737
 -0.0807307  -0.0043588  -0.19152127 -0.10174829  0.03726789  0.01555807
 -0.01324268 -0.07075569  0.16087966  0.03612408 -0.14913443  0.06485134
  0.00365491  0.2783587   0.19517285  0.04748344  0.02300509 -0.10680034
  0.04885171 -0.19528709  0.07489187  0.14637224  0.09835415  0.10458089
  0.01970529 -0.18062086  0.0152801   0.08793795 -0.16248277  0.03838807
  0.13756733 -0.05751525  0.03449919 -0.0191483   0.15092747  0.0914558
 -0.10073198 -0.11751389  0.10279506 -0.09996817 -0.03835596 -0.01357121
 -0.11494392 -0.14321958 -0.30520609  0.02395035  0.35470247  0.10298308
 -0.21010116 -0.01441828 -0.11489115  0.03426829  0.11648013  0.03876151
 -0.09855112  0.00521383 -0.07886183  0.0275908   0.1933784  -0.04277552
 -0.07076102  0.17238079 -0.02538413  0.0051996   0.05170959  0.03526197
 -0.07282601  0.01398037 -0.13190345  0.03722608 -0.01929223 -0.1048074
 -0.05153556  0.15428576 -0.19491227  0.10781201  0.05656081 -0.04603415
 -0.05844402  0.02140692 -0.1539322  -0.01626752  0.15701656 -0.24604583
  0.22526956  0.24548748 -0.0069712   0.10036273  0.06522946  0.06613653
 -0.02006689  0.00312388 -0.14903323 -0.08546118  0.10840875  0.03112789
  0.06669474  0.02142118]