[-0.11642132  0.13693511  0.0899129  -0.04477936 -0.06610455 -0.09708402
  0.02329696 -0.19914389  0.11343413 -0.03115271  0.28299561 -0.10157023
 -0.22121938 -0.12806448  0.00791373  0.16034165 -0.08767914 -0.11729278
 -0.09730326 -0.03130995  0.11906165 -0.03260121  0.03030515  0.05735532
 -0.12002833 -0.2909041  -0.11742534 -0.06688473  0.05068215 -0.07495873
 -0.08157106  0.08465865 -0.17281604 -0.16173427  0.0307138   0.05090242
 -0.0149517  -0.01137168  0.14267178 -0.00843695 -0.2222642   0.0301147
  0.05346403  0.26193771  0.21475764  0.04656784  0.07637325 -0.12169005
  0.05557449 -0.13502912  0.06593207  0.07916155  0.16748524  0.05214107
  0.02944147 -0.14686041 -0.01577108  0.0615422  -0.16305773  0.04729813
  0.10907643 -0.12618028 -0.0838313  -0.05031106  0.16719405  0.07192732
 -0.09283697 -0.13950759  0.12715918 -0.09279585 -0.08095077  0.08174676
 -0.18782981 -0.13659956 -0.34520853  0.01269182  0.4223108   0.06382849
 -0.25603858  0.01797072 -0.06794938  0.04905319  0.10449326  0.11171718
 -0.0298016   0.07142169 -0.09392     0.0422294   0.1490563  -0.10847855
 -0.07241236  0.21846111  0.0152774   0.06930999  0.03977915  0.06022137
 -0.03959262 -0.00165192 -0.13214134 -0.08043761  0.08605922 -0.00087919
  0.01541502  0.09235286 -0.16882873  0.14796779  0.04206051  0.06994175
 -0.02983283 -0.0370426  -0.04530532 -0.04196707  0.10282566 -0.20960048
  0.14718296  0.21571398 -0.0067      0.05538902  0.07929027  0.01608682
  0.04638178 -0.00271941 -0.11996377 -0.01298449  0.14056407 -0.01436253
  0.10067085  0.01560802]