[-0.05742998  0.19488497  0.07062726 -0.03534677  0.02664817 -0.07293674
 -0.01527372 -0.15396565  0.14035235 -0.0379784   0.20733039 -0.05517955
 -0.2289478  -0.10307838  0.00047515  0.14285231 -0.21420427 -0.11244939
 -0.0518288  -0.0181869   0.07132833 -0.00244905  0.03932524  0.03625266
 -0.15484698 -0.28382996 -0.13425298 -0.10264567  0.01752119 -0.05945231
 -0.07342565  0.03129066 -0.18899786 -0.11664803  0.0210231   0.01637048
 -0.00131295 -0.03986954  0.16222923  0.02460675 -0.16343406  0.08814212
 -0.00808309  0.26897112  0.2128502   0.02936712  0.03798677 -0.10267543
  0.05408802 -0.158986    0.05890367  0.13126393  0.11015595  0.07213476
  0.01190711 -0.17779826 -0.00511781  0.07856875 -0.17350343  0.01683639
  0.10628437 -0.08728173  0.02165866 -0.0020598   0.12825267  0.08813838
 -0.08606773 -0.1236858   0.15264069 -0.11144358 -0.02953507 -0.00678563
 -0.12836699 -0.14885853 -0.32483053  0.02549396  0.3248539   0.10611283
 -0.21289742  0.00749636 -0.12311244  0.048883    0.09765074  0.03217905
 -0.08710051  0.01011849 -0.08669429  0.02237226  0.18050139 -0.02836961
 -0.08032513  0.17444085 -0.01858913  0.0205611   0.07302177  0.01279652
 -0.05325862  0.01087699 -0.1526707   0.05469595 -0.02872515 -0.10918039
 -0.05117747  0.1513394  -0.19377327  0.11354941  0.0637859  -0.04006002
 -0.07738813  0.03930251 -0.13582286 -0.01869979  0.14575492 -0.24411865
  0.23002689  0.23715439  0.00221897  0.11655711  0.07103299  0.05232567
 -0.030191   -0.01820439 -0.14434692 -0.08321624  0.11194011  0.02769959
  0.10001602  0.03103661]