[-0.10222416  0.08661222  0.05714506 -0.02642607 -0.11472255 -0.0308254
  0.03302254 -0.20211375  0.09060486 -0.08667608  0.21658957 -0.08615838
 -0.26524809 -0.07248206  0.06457209  0.1438963  -0.07875904 -0.20059882
 -0.15397333 -0.07017281  0.01750201 -0.05313473  0.02469029  0.04974749
 -0.13788992 -0.2708627  -0.12305244 -0.00072886  0.04187514 -0.05683645
 -0.05119218  0.08488732 -0.15996523 -0.08575013  0.06052322  0.08664685
 -0.04900175 -0.05395473  0.17490678 -0.03438376 -0.22570686  0.03188061
  0.06922179  0.26707914  0.15978169  0.02625516  0.05897553 -0.08763742
  0.08626065 -0.18066795  0.09256493  0.1273299   0.16588746  0.05148364
  0.02763247 -0.14737983  0.01452226  0.12836611 -0.1743537   0.07692208
  0.13482176 -0.15711382 -0.07495938 -0.08786953  0.14957318  0.16632201
 -0.08879547 -0.2056727   0.12404499 -0.13322575 -0.11278416  0.05283044
 -0.1758505  -0.13178611 -0.35579172 -0.03346945  0.40510541  0.08284463
 -0.2168368  -0.00276134 -0.01512992  0.07036899  0.09692285  0.0992462
 -0.09492819  0.01838505 -0.11723715  0.04600701  0.20660047 -0.06250998
 -0.10923373  0.1669776   0.04906386  0.02786067  0.06201402  0.06422897
 -0.02785864 -0.03790348 -0.14807884 -0.01990118  0.01955139 -0.04505892
  0.01705099  0.07393169 -0.14476356  0.19403307  0.0265825   0.06757894
 -0.05282813 -0.00623687 -0.08778336 -0.00945472  0.10371973 -0.27020058
  0.15303935  0.21475068  0.00968875  0.06088908  0.07425242  0.04161057
  0.02488612  0.02327538 -0.13117087 -0.07532897  0.09223627 -0.01011728
  0.09912893  0.07638331]