[-1.15677595e-01  1.65005192e-01  1.33546934e-01 -4.34607733e-03
 -1.88890453e-02 -1.20370619e-01 -1.44363856e-02 -1.87469885e-01
  1.20069616e-01 -3.92258689e-02  2.97386289e-01 -3.14796194e-02
 -2.09962413e-01 -9.75411758e-02 -2.82649994e-02  1.89216569e-01
 -1.97227925e-01 -1.03531197e-01 -3.61698354e-03 -2.83747353e-03
  8.55120718e-02 -2.48327293e-02  8.47715065e-02  7.18010357e-03
 -9.00195464e-02 -3.01239878e-01 -1.47326887e-01 -1.08026005e-01
  5.76545969e-02  3.81493941e-02 -5.36882095e-02  1.43605415e-02
 -1.79378971e-01 -1.01928465e-01  4.00238149e-02  3.38594019e-02
 -8.18753242e-03 -2.41744276e-02  1.96907312e-01  2.06206422e-02
 -1.58605605e-01  1.85523331e-02 -1.30677046e-02  2.67031819e-01
  1.74641162e-01  7.29721412e-02  8.44801441e-02 -1.49382636e-01
  2.95893904e-02 -1.69010639e-01  2.74295565e-02  1.19780563e-01
  8.44335184e-02  5.25557660e-02 -2.86890995e-02 -1.80633068e-01
  4.12585698e-02  4.67231870e-02 -1.56185538e-01 -3.28290323e-03
  1.16641439e-01 -6.22856691e-02 -5.52864466e-03 -1.97319314e-03
  2.47887522e-01  6.02430589e-02 -1.29110381e-01 -7.64101222e-02
  1.37989685e-01 -7.85308406e-02 -2.89915036e-02  3.78078385e-03
 -1.83399633e-01 -1.45944402e-01 -3.37964118e-01  1.57778375e-02
  4.49123234e-01  4.37488370e-02 -1.87363937e-01  1.99683686e-03
 -1.50402293e-01  5.91844209e-02  1.13862276e-01  8.40568095e-02
 -7.35173747e-02  1.98349655e-02 -1.25239015e-01 -1.04798172e-02
  1.69181421e-01 -1.22450761e-01 -3.08024883e-02  2.00617909e-01
 -6.54948119e-04  1.02276228e-01  2.24891137e-02  4.19299193e-02
 -2.06091143e-02  2.28019264e-02 -1.28001139e-01  1.68360285e-02
 -1.34774698e-02 -4.64801528e-02  4.20385593e-04  1.26764819e-01
 -2.10054904e-01  5.54118529e-02  5.81748001e-02 -9.44068842e-03
 -2.55595949e-02  8.20180215e-03 -1.14474379e-01 -9.85620841e-02
  1.12755023e-01 -2.11803585e-01  1.99984416e-01  2.73763597e-01
 -6.52725762e-03  1.17627881e-01  1.02167241e-01  6.63886517e-02
 -4.33341861e-02 -1.29859000e-02 -1.32896990e-01 -1.46782640e-02
  8.55246410e-02  1.57332849e-02  5.21204062e-02  1.94112565e-02]