[-0.132359    0.13613628  0.09366543 -0.04579002 -0.08092952 -0.1119112
  0.02171503 -0.18874282  0.10394372 -0.0334343   0.28717265 -0.08940196
 -0.2149934  -0.13752863  0.01028568  0.16443369 -0.09081801 -0.11518317
 -0.09698006 -0.02760553  0.12816869 -0.0416678   0.04745347  0.05189348
 -0.1166925  -0.30841643 -0.12649839 -0.07080912  0.0613142  -0.08461466
 -0.0680738   0.07732497 -0.16006021 -0.15480141  0.02040017  0.04232748
 -0.01089173 -0.01763417  0.14260995 -0.01417818 -0.22447605  0.0108011
  0.05318434  0.25066993  0.22061162  0.0440187   0.0940356  -0.10900817
  0.04602392 -0.15607123  0.06849878  0.06196476  0.16818997  0.05490098
  0.03645258 -0.14793298 -0.00628824  0.0609295  -0.16957103  0.04437984
  0.10937352 -0.11882254 -0.09483878 -0.04114848  0.17642955  0.09070691
 -0.09438198 -0.13544044  0.1415727  -0.10317384 -0.07468721  0.07726878
 -0.1818939  -0.13684873 -0.33598477  0.00678367  0.41449687  0.08519784
 -0.25396165  0.0056416  -0.07622506  0.06464063  0.09208852  0.09963145
 -0.04330826  0.07130481 -0.10280949  0.03768815  0.13386105 -0.10562532
 -0.06927702  0.2270932   0.0328319   0.08180431  0.04822477  0.05697531
 -0.03204911 -0.00747875 -0.12539379 -0.06820324  0.08144166 -0.00863988
  0.01457725  0.08714998 -0.15733519  0.15847763  0.03095699  0.07313634
 -0.04030075 -0.03338889 -0.03925387 -0.03959284  0.09406948 -0.1980477
  0.14469917  0.23060194 -0.00935758  0.06742447  0.08071765  0.0215681
  0.04424784 -0.01375107 -0.11477058 -0.00462852  0.1297503  -0.03372183
  0.08469818  0.02119997]