[-0.08829763  0.10006781  0.14348328 -0.03757695 -0.09451065 -0.08127502
  0.00178152 -0.18028943  0.09286366 -0.09747417  0.30576798 -0.07839249
 -0.19029832 -0.08796921 -0.02786174  0.19070478 -0.13083011 -0.15132928
 -0.05753109 -0.03690396  0.02392928 -0.00486742  0.00208713  0.0311626
 -0.09520178 -0.27642876 -0.07111052 -0.04322172  0.0708169  -0.03018718
 -0.05762101  0.09644693 -0.19877398 -0.07105818  0.04480276  0.12424561
 -0.02185922 -0.03453503  0.14929377  0.01749868 -0.27165982  0.00701106
  0.03350549  0.27078673  0.22519599  0.01047425 -0.00580751 -0.09808318
  0.07428625 -0.21851602  0.00710258  0.11317029  0.15744635  0.03816524
 -0.02421189 -0.1488907  -0.0114684   0.08984925 -0.18538207 -0.02658018
  0.05349907 -0.13343698  0.01492918 -0.08865654  0.26066938  0.12092479
 -0.12153657 -0.09636526  0.19339828 -0.13404298 -0.06045234  0.08294756
 -0.1477755  -0.1046129  -0.32143077 -0.01746287  0.45190483  0.06107745
 -0.1897227   0.00570717 -0.10139994  0.02509878  0.04228652  0.14696383
 -0.03376568  0.05979579 -0.05959019 -0.01958609  0.20303659 -0.09929428
 -0.0276947   0.21415196 -0.02568327  0.06414621  0.03231622 -0.00120477
 -0.03457325 -0.02468928 -0.12583984 -0.08812951 -0.06058716 -0.06356384
  0.0483618   0.15709396 -0.20813592  0.12749976  0.022296    0.04420372
  0.04563234  0.02665075  0.03467659 -0.11015989  0.12033633 -0.23229592
  0.17463784  0.20553036  0.00117267  0.08732124  0.06094275  0.0696743
 -0.0247991  -0.03060717 -0.11318543 -0.01226     0.06056109 -0.07895837
  0.07700293  0.02494188]