[-1.06016994e-01  1.40907988e-01  7.41501898e-02 -5.48145548e-02
 -1.17486171e-01 -9.57093574e-03  3.85075398e-02 -1.31915927e-01
  1.22183837e-01 -9.25840363e-02  2.36474037e-01 -3.35319340e-02
 -2.23411903e-01 -6.02507107e-02 -5.33825122e-02  1.61116287e-01
 -1.33900195e-01 -1.86898425e-01 -9.95250568e-02 -6.78502247e-02
  7.05520585e-02 -1.17936553e-02 -5.51299453e-02  2.07317695e-02
 -1.00914024e-01 -3.04188728e-01 -5.39032780e-02 -1.82096343e-02
  1.33873805e-01 -1.00325264e-01 -3.78081165e-02  6.55541420e-02
 -1.79962441e-01 -8.07254687e-02  3.62475589e-02  9.57324654e-02
 -5.60771897e-02 -2.63151955e-02  1.48426846e-01  1.53336776e-02
 -2.40246281e-01  1.91922504e-02  5.99578694e-02  3.36095214e-01
  2.10376933e-01  4.54306118e-02  2.09805127e-02 -8.44807774e-02
  5.32749295e-02 -2.20473289e-01  3.71164568e-02  1.19547181e-01
  1.51889130e-01  9.94826779e-02  3.59042957e-02 -1.67020664e-01
  1.70809811e-03  5.76643422e-02 -1.58339486e-01  1.40065774e-02
  6.55457824e-02 -1.10971585e-01 -2.91854586e-03 -7.88375959e-02
  2.05207184e-01  5.87967634e-02 -9.14367735e-02 -1.26168117e-01
  1.57215849e-01 -1.67418405e-01 -8.60159099e-02  4.79012839e-02
 -8.98908377e-02 -9.43671688e-02 -2.77903587e-01 -1.57739874e-02
  4.70664710e-01  1.57224402e-01 -1.86399147e-01  2.95612514e-02
 -5.71638457e-02 -1.36617739e-02  1.14044800e-01  1.03011362e-01
 -8.17323774e-02  6.42704964e-02 -6.52709603e-02  3.98672484e-02
  1.95789143e-01 -4.35279459e-02 -6.12606965e-02  1.70275107e-01
  2.52090283e-02  3.67827117e-02  4.86064330e-02  2.33942289e-02
 -7.24792257e-02  1.51159121e-02 -1.27533391e-01 -9.93065611e-02
 -3.13839014e-03 -6.00185059e-02  4.74989600e-02  1.28154218e-01
 -1.85575828e-01  2.12148026e-01  3.98545004e-02  7.01467320e-02
 -1.31557661e-03  4.01751809e-02 -2.98400652e-02 -2.33207159e-02
  1.18721440e-01 -2.45431542e-01  1.91359162e-01  2.43039995e-01
  6.56310513e-05  8.36019740e-02  1.01920322e-01  7.58219976e-03
  3.34384441e-02 -3.13870907e-02 -1.28643662e-01 -5.98758832e-02
  5.42331710e-02 -8.48054960e-02  1.10609196e-01  2.92680804e-02]