[-0.10225707  0.12724179  0.11932173 -0.03363065 -0.02909134 -0.12822461
 -0.040098   -0.17541572  0.11497056 -0.07410245  0.2961807  -0.0360241
 -0.18633501 -0.12725757 -0.00500163  0.1936367  -0.21304047 -0.116267
 -0.01829505  0.00080342  0.07835975 -0.04239447  0.0912338  -0.01777092
 -0.10745473 -0.3154684  -0.15351009 -0.11129483  0.02693721  0.03824527
 -0.04336175  0.01420034 -0.20041578 -0.11298618  0.04214523  0.0309626
  0.00789193 -0.01962299  0.21221338 -0.00503804 -0.17608127  0.03919129
  0.00695491  0.24335444  0.16012596  0.05534405  0.08266099 -0.14481939
  0.06292798 -0.13221607  0.03504996  0.1144879   0.09100015  0.04223879
 -0.02083757 -0.12169661  0.0597606   0.06668255 -0.14898449 -0.0197145
  0.13307431 -0.06984123 -0.03083836 -0.01917868  0.23681414  0.03967527
 -0.1140249  -0.11332905  0.12515925 -0.05773162 -0.03377943  0.01072028
 -0.19684006 -0.13474624 -0.34744292 -0.00413507  0.41413236  0.02071143
 -0.1926211   0.02609128 -0.1424465   0.04168269  0.11390686  0.09339574
 -0.03397205  0.04736722 -0.10661364  0.01085099  0.1793928  -0.13712744
 -0.01510917  0.19617423  0.01312864  0.09505942  0.02110945  0.02083769
 -0.01031856  0.01938438 -0.12985118  0.04012155  0.00406262 -0.02807381
 -0.01186906  0.10514205 -0.19783638  0.04616041  0.04935497  0.00047614
 -0.02180433  0.00765196 -0.09753347 -0.13074355  0.08848616 -0.21450923
  0.17252238  0.26343116 -0.01012549  0.10303374  0.09340029  0.06827352
 -0.05322444  0.00544222 -0.16178983 -0.01412823  0.09045832  0.04329716
  0.06298239  0.02104851]