[-0.11445602  0.14751373  0.08757523 -0.03990909 -0.04787898 -0.12549005
 -0.06629009 -0.17256129  0.12686099 -0.06021222  0.28410625 -0.02253743
 -0.22574928 -0.11370831 -0.03307678  0.20204432 -0.23655739 -0.12260386
  0.01005785  0.03175951  0.08391119 -0.01935681  0.09128443  0.03218386
 -0.04011559 -0.34307227 -0.15901606 -0.11925987  0.06194123 -0.03326572
 -0.09439772 -0.01155103 -0.18192618 -0.11009727  0.01894684  0.03753152
 -0.03334437 -0.0555985   0.18814228 -0.00323756 -0.1717947   0.05233418
  0.00228902  0.2576859   0.19108431  0.08444814  0.10413297 -0.18367945
  0.06296803 -0.12745357  0.05579345  0.12331464  0.11150941  0.06069712
 -0.02443377 -0.17900705  0.02564559  0.05722725 -0.15155368  0.03603121
  0.1290345  -0.02423269 -0.00486248 -0.02347683  0.25914738  0.06503227
 -0.12004323 -0.12645164  0.14320984 -0.11523479 -0.06553221  0.02765212
 -0.19659416 -0.16658346 -0.29932749 -0.01793448  0.37365109  0.04995201
 -0.18783657  0.02106107 -0.11322154  0.03273867  0.10866012  0.12437873
 -0.04753774  0.03902435 -0.13171093 -0.00258139  0.19922161 -0.11750191
 -0.03375338  0.19918518  0.02126068  0.10786865  0.04696746  0.05061231
 -0.01059363  0.02373565 -0.1382769   0.00896479 -0.00932347 -0.04986712
 -0.04090048  0.09304604 -0.13930734  0.06902903  0.04836655  0.02861041
 -0.04202366  0.00748108 -0.1040533  -0.10609436  0.11158402 -0.21060632
  0.25093821  0.2568188   0.02840973  0.10606802  0.06829263  0.09697409
 -0.04700695 -0.03691491 -0.15597366 -0.01340653  0.09328064  0.03339789
  0.09162439  0.02491491]