[-0.11202572  0.12973757  0.08605804 -0.03374509 -0.07144707 -0.09084901
  0.01947915 -0.19361576  0.11747036 -0.02431757  0.27587423 -0.08034569
 -0.22758055 -0.12321258  0.01545385  0.15498489 -0.07920473 -0.11624688
 -0.09730355 -0.02252151  0.12606914 -0.03430733  0.04236126  0.04897529
 -0.13160786 -0.30089164 -0.12971224 -0.05437813  0.06294411 -0.08297814
 -0.05864317  0.08639538 -0.15717812 -0.15373717  0.03648045  0.04402783
 -0.01474337 -0.0185079   0.1572517  -0.00457228 -0.23095106  0.0273219
  0.03350623  0.2727142   0.20987129  0.04046362  0.09252258 -0.12658341
  0.05365898 -0.16057639  0.08126616  0.08693997  0.16023135  0.0519563
  0.03925868 -0.13774011 -0.0071481   0.07367999 -0.18353227  0.04932296
  0.11984717 -0.10940357 -0.07518517 -0.05264708  0.15969819  0.09088381
 -0.09426441 -0.13520621  0.13428243 -0.09740008 -0.07459239  0.07299764
 -0.19272923 -0.15245926 -0.35117945  0.01035771  0.42551169  0.08537376
 -0.25837561  0.0161873  -0.06303304  0.07063454  0.11379086  0.10082374
 -0.04076895  0.06450365 -0.0813963   0.0502873   0.14766291 -0.10145893
 -0.08423831  0.22223668  0.0349307   0.06817871  0.05674958  0.06411631
 -0.01960305 -0.01205333 -0.13968584 -0.05834265  0.07447602  0.00333451
  0.03557787  0.09573338 -0.15861708  0.17045037  0.04718364  0.06573003
 -0.02750118 -0.02786076 -0.05801167 -0.04036541  0.1051742  -0.21862872
  0.15811715  0.21620373 -0.00981522  0.05828061  0.07098182  0.02706515
  0.04182023 -0.00416717 -0.10607429 -0.00832714  0.13442259 -0.01836104
  0.09238007  0.01597699]