[-0.10566755  0.13470064  0.10242939 -0.00749372 -0.0642271  -0.01192026
 -0.04932472 -0.12730037  0.09095448 -0.03638132  0.25240284  0.01632138
 -0.13849343 -0.18595253  0.03453868  0.18533215 -0.18695328 -0.16288315
 -0.08165707 -0.05333672  0.05277208  0.04552022 -0.00096647 -0.02215202
 -0.16555591 -0.33663461 -0.07680959 -0.10683824  0.145      -0.11410874
 -0.10305396 -0.00167884 -0.14244603 -0.10606835  0.09266155  0.08331291
 -0.0530882  -0.04921362  0.20446756 -0.02745509 -0.22462066  0.0893532
  0.08646797  0.27043858  0.24318051  0.00968501  0.05874756 -0.06492719
  0.14121424 -0.16841114  0.06492718  0.11780373  0.11349595  0.10058498
  0.0598469  -0.12117233 -0.0433917   0.080847   -0.19484024  0.04879477
  0.08554125 -0.14582038 -0.06191748 -0.03052873  0.11274303  0.04889581
 -0.10572512 -0.22418229  0.11068851 -0.13440944 -0.08102447  0.04643235
 -0.10226158 -0.10412254 -0.32452944  0.00575074  0.39947113  0.06897104
 -0.22016095  0.07682439 -0.02049354 -0.06355037  0.07314145  0.11492906
 -0.01459238  0.05741292 -0.07268909  0.03082533  0.1860791  -0.03189065
  0.00366248  0.17837964  0.001653    0.0783002   0.06590294  0.10436153
 -0.09364525  0.00111406 -0.08925654 -0.04089223  0.05367464 -0.05744829
  0.05406533  0.10192936 -0.14330274  0.24028349  0.02155483  0.09404811
 -0.00745413 -0.00851039 -0.04950086 -0.00162397  0.12113525 -0.239565
  0.22338803  0.21263336  0.00076269  0.08708552  0.11539185  0.00451279
  0.00250498  0.00869405 -0.1840885  -0.08472846  0.01453157 -0.05567626
  0.09057821  0.05528038]