[-0.12086221  0.13870063  0.08808273  0.01354437 -0.08897732 -0.07130621
  0.02790377 -0.2220342   0.09765992 -0.08312878  0.21997152 -0.05899718
 -0.25540867 -0.08352233 -0.01740176  0.18521285 -0.11296006 -0.18480024
 -0.10388565 -0.04808817  0.0985316  -0.01178621  0.0039401   0.03423677
 -0.09892123 -0.29065594 -0.09158751 -0.01736194  0.07048405 -0.0286007
 -0.08624091  0.05190572 -0.18907697 -0.1221205   0.0493663   0.07786099
 -0.03231785 -0.04982327  0.1759918  -0.02455363 -0.23635983  0.03403402
  0.08965684  0.26183534  0.17975575  0.03756393  0.05033827 -0.10329395
  0.07033428 -0.17000306  0.01022608  0.11563814  0.14886819  0.08787911
  0.00235886 -0.18709199 -0.00559091  0.07200647 -0.13653226  0.0485606
  0.10781481 -0.15940055 -0.04325306 -0.06645482  0.17188621  0.04976226
 -0.09539864 -0.14726155  0.12140252 -0.14049867 -0.10184775  0.02513757
 -0.16154873 -0.12880398 -0.35671899 -0.01588771  0.41069594  0.08651294
 -0.19373253  0.03235126 -0.01790125  0.06172108  0.11966753  0.12519112
 -0.03379388  0.05286899 -0.09653246  0.03867994  0.20383011 -0.07571121
 -0.07852761  0.19295649  0.01438831  0.08928917  0.02570377  0.06235578
 -0.03241938  0.00322332 -0.13795649 -0.0043221   0.03383058 -0.02117651
  0.04189339  0.09850889 -0.13946973  0.11703163  0.02488157  0.09014753
 -0.03098198 -0.00288085 -0.10820655 -0.02332356  0.09063312 -0.21643391
  0.22076856  0.25893077 -0.01668991  0.05729869  0.11207465  0.00416006
  0.0451191   0.0085562  -0.15510915 -0.07088933  0.12367294 -0.04813957
  0.10385996  0.04085511]