[-1.14061713e-01  1.50345042e-01  1.07144848e-01 -2.08998602e-02
 -1.55788541e-01 -2.17304546e-02  6.47705281e-03 -1.65519595e-01
  1.30148873e-01 -9.28138047e-02  2.30735168e-01 -8.84531364e-02
 -2.32669875e-01  4.70604375e-03 -5.41864447e-02  1.98613837e-01
 -1.35178730e-01 -1.69856414e-01 -8.52528587e-02 -6.48174509e-02
  6.65681586e-02 -8.03858321e-03 -3.15520428e-02  3.19860652e-02
 -7.41899386e-02 -3.09228659e-01 -8.16670582e-02 -2.39677411e-02
  9.30694416e-02 -7.65490010e-02 -6.83838055e-02  7.69460499e-02
 -1.63993850e-01 -1.01762906e-01  4.49581183e-02  6.68772012e-02
 -4.57680263e-02 -4.56858277e-02  1.52832448e-01 -1.44599853e-02
 -2.50644773e-01  4.40691423e-04  8.01733658e-02  2.83688337e-01
  2.08473966e-01  6.79753646e-02  1.99278118e-03 -1.17927127e-01
  7.83098638e-02 -2.12261185e-01  2.09746901e-02  1.07279554e-01
  1.19315378e-01  8.49153176e-02  3.01307291e-02 -1.87784106e-01
  9.73413978e-03  5.38192801e-02 -1.62721738e-01  1.27225770e-02
  8.41974989e-02 -1.45868361e-01 -8.64221156e-03 -9.01240036e-02
  2.19046831e-01  8.80651698e-02 -7.06042573e-02 -1.45547673e-01
  1.67878672e-01 -1.36444435e-01 -8.73168930e-02  5.52945621e-02
 -1.22820318e-01 -1.10163867e-01 -3.27601582e-01 -2.92161200e-02
  5.02202034e-01  9.55930948e-02 -1.85795337e-01  1.67300496e-02
 -1.44456103e-02 -1.71251863e-03  1.11728072e-01  1.30645663e-01
 -7.37855211e-02  2.03862041e-02 -8.19329247e-02  1.54960779e-02
  1.95801660e-01 -8.05124268e-02 -6.83719814e-02  1.71209872e-01
  1.17049518e-03  6.09836839e-02  5.68405986e-02  8.38229582e-02
 -7.97946975e-02  7.49683101e-03 -1.51130915e-01 -8.39339644e-02
  1.40255755e-02 -3.83118987e-02  2.10325457e-02  1.36800632e-01
 -1.72360182e-01  1.56811669e-01  1.04861455e-02  5.44033349e-02
 -3.46409641e-02  4.53831209e-03 -4.41482291e-02 -2.10526492e-02
  1.38246462e-01 -2.32670382e-01  1.65885791e-01  2.20093653e-01
 -2.85138041e-02  9.33008641e-02  7.56695792e-02  3.54140922e-02
  1.66643616e-02 -1.71076059e-02 -1.48583651e-01 -5.88602312e-02
  9.04575735e-02 -6.57998770e-02  7.72723109e-02  4.63188440e-02]