[-1.03508256e-01  9.57635865e-02  1.08708777e-01 -3.50341015e-02
 -5.39031513e-02 -8.54449123e-02 -5.70873991e-02 -1.30203709e-01
  1.08136632e-01 -3.35098393e-02  2.59191751e-01 -4.95786928e-02
 -1.82612583e-01 -8.85237083e-02 -2.38527246e-02  1.80887818e-01
 -1.80305555e-01 -9.54410806e-02 -1.43151730e-02  1.83007065e-02
  1.01002745e-01 -1.56849619e-05  6.05739020e-02  9.98716787e-05
 -1.00683726e-01 -3.44701976e-01 -1.25212118e-01 -9.54231173e-02
  4.20486890e-02 -2.53615510e-02 -8.04674551e-02  1.92899406e-02
 -1.93818018e-01 -9.77512822e-02  4.51470986e-02  8.38549435e-02
  1.83817709e-03 -4.59647253e-02  1.60410777e-01  2.04777736e-02
 -1.88621104e-01  7.29087070e-02  9.61147994e-03  2.34491616e-01
  1.90279260e-01  8.03616866e-02  9.51577127e-02 -1.53489307e-01
  6.86274245e-02 -1.23601772e-01  3.72770391e-02  1.04987003e-01
  1.07964218e-01  4.49827649e-02 -4.29666527e-02 -1.33197889e-01
  1.64546613e-02  7.49078616e-02 -1.59719825e-01  1.68653466e-02
  1.28936291e-01 -5.89972734e-02 -1.00965668e-02 -3.78231220e-02
  2.15454966e-01  5.57934828e-02 -1.05248071e-01 -1.33447096e-01
  1.48611352e-01 -8.43981877e-02 -5.62326908e-02  2.67009856e-03
 -1.91950679e-01 -1.41252965e-01 -3.01653475e-01  2.14135293e-02
  4.13472980e-01  1.03459079e-02 -1.95993155e-01  2.10052561e-02
 -1.11417584e-01  4.22964655e-02  9.22635570e-02  1.01432219e-01
 -1.51862353e-02  1.31375706e-02 -8.64727497e-02  5.81352832e-03
  2.31014475e-01 -1.18761197e-01 -3.39904730e-03  1.52483687e-01
  9.36737563e-03  8.27501267e-02  2.49693971e-02  3.40194851e-02
 -2.40286645e-02  6.01236001e-02 -1.11742198e-01  2.69216187e-02
 -2.81609055e-02 -6.09825142e-02  2.72376533e-03  1.12517908e-01
 -1.88388631e-01  8.96771997e-02  3.77812460e-02 -1.42622562e-02
  4.57128184e-03  2.24531181e-02 -9.24157351e-02 -1.07764803e-01
  1.12911716e-01 -2.18063861e-01  2.19394952e-01  2.64996022e-01
  4.25763540e-02  1.10280469e-01  6.94123507e-02  1.10935666e-01
 -8.00792035e-03  3.46659981e-02 -1.71080947e-01 -2.38594674e-02
  7.80197009e-02  2.85946485e-02  4.78153378e-02  2.95612961e-02]