[-0.09450429  0.14325847  0.07217383 -0.01815355 -0.05457128 -0.09532704
 -0.06742945 -0.17467973  0.12037189 -0.07300702  0.2602644  -0.03562381
 -0.2249755  -0.10340629 -0.05396324  0.21012072 -0.23759547 -0.13933989
  0.01042612  0.02138673  0.09055206 -0.01240411  0.06973287  0.01245348
 -0.061281   -0.33948076 -0.13979255 -0.1162112   0.05049285 -0.0483381
 -0.09076317 -0.0099435  -0.17831992 -0.08808263  0.03352239  0.02989647
 -0.03102552 -0.0405326   0.19946618 -0.00322397 -0.16588695  0.05279047
  0.01804695  0.25585726  0.19082676  0.08630531  0.08519796 -0.1964715
  0.0642551  -0.13164499  0.04023587  0.12651519  0.09515434  0.07750808
 -0.04183378 -0.16895318  0.00666295  0.05759278 -0.14190474  0.0413084
  0.12565659 -0.03544661 -0.02500919 -0.0274655   0.26796648  0.04898561
 -0.12333896 -0.13097672  0.14975363 -0.12473018 -0.07821842  0.00415504
 -0.17505258 -0.16369067 -0.28900075 -0.02843514  0.37984312  0.04158322
 -0.19357757  0.02972101 -0.09531646  0.02840033  0.12074994  0.12716737
 -0.04043917  0.03394406 -0.09951627  0.00595246  0.21730769 -0.11895501
 -0.02892596  0.18962993  0.01142114  0.11387228  0.04928584  0.04018369
 -0.00357171  0.03007703 -0.14097731  0.00716301 -0.01343933 -0.04723094
 -0.02263304  0.10080693 -0.13193831  0.08220275  0.04521065  0.02880321
 -0.02413506  0.01383828 -0.11267145 -0.10117648  0.12544346 -0.21795724
  0.25844523  0.25083977  0.03415626  0.1034397   0.0746393   0.10101271
 -0.03357024 -0.01978778 -0.18192212 -0.01145013  0.09571387  0.02222105
  0.08564027  0.01864188]