[-0.0595148   0.1561172   0.0923159  -0.03602455 -0.02094793 -0.11307108
 -0.04523512 -0.15322363  0.07194089 -0.00587838  0.23085979 -0.05586888
 -0.19012676 -0.13876192 -0.0144663   0.15830438 -0.15697354 -0.1031181
 -0.06381916 -0.03913489  0.04780545  0.00693223  0.06849043  0.02242124
 -0.1376666  -0.27956042 -0.08869173 -0.12873547  0.01981873 -0.07323492
 -0.09389026  0.03674036 -0.17751074 -0.13256614  0.02662751  0.03373122
  0.01011066 -0.0335548   0.16837575  0.05177714 -0.17266582  0.07086027
  0.00602267  0.29382604  0.23053865  0.01970336  0.06473086 -0.08361848
  0.11643421 -0.19392268  0.05332853  0.09016029  0.1246135   0.04098996
  0.00107026 -0.11766654  0.00257453  0.08054075 -0.18162991  0.05053386
  0.10364323 -0.05807102 -0.0229811  -0.03256195  0.16726945  0.08323132
 -0.10762366 -0.07831518  0.11354009 -0.10866188 -0.05379739  0.01023573
 -0.14496438 -0.12811503 -0.34280062  0.0161388   0.33676946  0.07455195
 -0.23995595 -0.03604884 -0.1122326   0.0426739   0.08575648  0.04841641
 -0.06036756  0.04379013 -0.09068523  0.00194536  0.21336754 -0.08045483
 -0.05043782  0.21450078  0.00199877  0.06231721  0.0428593   0.05435617
 -0.05850303 -0.01341079 -0.13711642  0.02582033  0.00659492 -0.09931299
 -0.023505    0.1307687  -0.20120879  0.11230587  0.03594282  0.00210383
 -0.03938041  0.00526711 -0.08415999 -0.07069582  0.13554421 -0.16701108
  0.1844168   0.26008889  0.02363285  0.06921202  0.07037484  0.00766444
 -0.03009133 -0.00261062 -0.11057162 -0.06893959  0.09218203  0.00410346
  0.05409405  0.02742692]