[-6.94324896e-02  1.78051218e-01  6.89565986e-02 -4.18179743e-02
  1.30045069e-02 -8.94347206e-02 -1.14834122e-02 -1.52651057e-01
  1.19806223e-01 -1.74878817e-02  1.90244719e-01 -4.85008433e-02
 -2.20148489e-01 -9.70924422e-02 -1.76606700e-05  1.29195347e-01
 -2.04917789e-01 -1.22268192e-01 -4.79876287e-02 -2.05324572e-02
  8.20962340e-02 -1.54364137e-02  3.88051085e-02  4.26520966e-02
 -1.58086345e-01 -2.71332473e-01 -1.43897101e-01 -1.25959948e-01
  2.32970472e-02 -6.67262673e-02 -6.34842589e-02  1.96123011e-02
 -1.74718574e-01 -1.13532543e-01  1.32256253e-02  1.25196232e-02
 -6.07468700e-03 -5.52910753e-02  1.56537399e-01  2.76762042e-02
 -1.58809528e-01  7.21644685e-02 -3.59240919e-04  2.82487363e-01
  2.06832647e-01  2.69687977e-02  4.00546268e-02 -7.59004802e-02
  5.86213246e-02 -1.73156306e-01  8.91683176e-02  1.07515134e-01
  1.39372483e-01  7.59964064e-02  2.95369159e-02 -1.74285382e-01
  1.27202319e-02  8.20828602e-02 -1.86565310e-01  3.65751944e-02
  1.06863759e-01 -7.99123719e-02  6.56176871e-03 -1.77125130e-02
  1.43688172e-01  1.08973421e-01 -8.34383219e-02 -9.84968916e-02
  1.53958157e-01 -1.03826821e-01 -3.31467576e-02 -1.29574714e-02
 -1.31208837e-01 -1.35635898e-01 -3.00853163e-01  2.19591539e-02
  3.03797245e-01  1.12300590e-01 -2.20060021e-01 -6.99970452e-03
 -1.29481062e-01  6.56227842e-02  8.25837702e-02  8.81957263e-03
 -9.67524052e-02  1.85169168e-02 -9.38439593e-02  1.24992495e-02
  1.68018490e-01 -3.95114720e-02 -6.71231076e-02  1.84364542e-01
 -1.09561933e-02  7.81254005e-03  7.74975270e-02 -4.82632226e-04
 -5.24211712e-02  2.41388544e-03 -1.41377419e-01  4.28942442e-02
 -1.27716055e-02 -1.19066037e-01 -5.15254810e-02  1.38167784e-01
 -2.02979952e-01  1.07000284e-01  7.10294470e-02 -3.08170300e-02
 -7.03435764e-02  2.47824304e-02 -1.39812037e-01 -2.68178470e-02
  1.48827106e-01 -2.34381840e-01  2.20593095e-01  2.35170528e-01
  3.30441003e-03  1.05939403e-01  5.52526191e-02  3.85482572e-02
 -3.76848206e-02 -3.06694638e-02 -1.43229604e-01 -6.14524670e-02
  1.27301782e-01  1.89567599e-02  7.00929686e-02  4.22741398e-02]