[-0.11239745  0.16648902  0.12751821 -0.02443136 -0.01975305 -0.13253932
 -0.01186911 -0.18918458  0.12504503 -0.04491225  0.29974538 -0.02404374
 -0.20623258 -0.09830659 -0.02051216  0.18860801 -0.20215972 -0.09399754
 -0.00706463 -0.01797196  0.08294917 -0.02991928  0.08604846  0.01613985
 -0.08471437 -0.30362722 -0.14746563 -0.1093988   0.05943887  0.03463448
 -0.03579627  0.02104523 -0.17985313 -0.10135292  0.0368958   0.03652801
 -0.01037179 -0.02849072  0.20065832  0.02465932 -0.14392915  0.02934072
 -0.01668163  0.27218208  0.16872269  0.0660217   0.09472018 -0.13808762
  0.04004825 -0.17324352  0.02980071  0.10819781  0.08489931  0.03827934
 -0.00507219 -0.19338159  0.04673633  0.04603472 -0.1678565   0.00570879
  0.11363446 -0.06749932 -0.00581204 -0.00273231  0.25260815  0.06892063
 -0.12785269 -0.0559778   0.1502452  -0.06673982 -0.01585516 -0.00920957
 -0.18777986 -0.14425813 -0.3388215   0.02131718  0.44078586  0.06419542
 -0.19058098  0.00084986 -0.14691785  0.07144882  0.11470307  0.07851413
 -0.0829168   0.02018403 -0.12821727  0.00158331  0.15141712 -0.11038704
 -0.04130084  0.2081687  -0.00085509  0.10244056  0.02056152  0.02241467
 -0.03747782  0.00184639 -0.14057845  0.01396166 -0.017457   -0.05048662
 -0.00101249  0.13014844 -0.20894265  0.04817608  0.05332715 -0.02027855
 -0.05126857  0.02106659 -0.1155231  -0.08763167  0.10488968 -0.20397983
  0.2055614   0.27520716 -0.00717565  0.12691523  0.10192432  0.0505688
 -0.04349467 -0.02093871 -0.12008311 -0.01734816  0.080282    0.02324797
  0.06539001  0.02331615]