[-1.52092919e-01  1.41668588e-01  1.15497611e-01 -3.95586230e-02
 -5.61347604e-02 -1.01133041e-01 -4.73851711e-02 -1.36352807e-01
  1.28015622e-01 -5.63879609e-02  2.46966794e-01 -3.75621468e-02
 -2.16379866e-01 -1.06692553e-01 -2.99442299e-02  1.69623539e-01
 -1.78935304e-01 -8.27085003e-02 -7.16355583e-03  1.84581804e-04
  1.00247994e-01  3.60210775e-03  8.73861313e-02 -5.05584059e-03
 -7.42508397e-02 -3.73246521e-01 -1.17369667e-01 -1.01373889e-01
  2.69006174e-02  1.19701894e-02 -6.64209947e-02  2.61249486e-02
 -1.92827135e-01 -1.04578607e-01 -7.05119222e-04  7.87908286e-02
 -1.63499899e-02 -3.98507621e-03  1.67554006e-01  2.29052063e-02
 -1.78852424e-01  3.30493115e-02 -1.79569349e-02  2.63865709e-01
  1.76812291e-01  8.35473463e-02  8.25967714e-02 -1.32322282e-01
  6.65941313e-02 -1.74739957e-01  3.91453691e-02  1.19582035e-01
  7.48049319e-02  2.78819557e-02 -1.76236685e-02 -1.44855917e-01
  3.80525067e-02  3.71152125e-02 -1.61642164e-01  4.68119606e-03
  1.26755044e-01 -7.36675039e-02 -3.47852558e-02 -1.57950558e-02
  2.37390712e-01  5.47932051e-02 -1.07248940e-01 -7.48377964e-02
  1.57414824e-01 -7.54574910e-02 -1.01632560e-02  1.57193188e-02
 -1.77261293e-01 -1.56001911e-01 -3.05897146e-01  5.09755313e-02
  4.32703465e-01  4.17267047e-02 -1.66630194e-01 -2.89543509e-03
 -1.45964667e-01  4.80842032e-02  1.08705103e-01  7.31917024e-02
 -5.84414080e-02  1.82547364e-02 -1.22603215e-01  2.29163561e-02
  1.83196113e-01 -1.20053768e-01 -2.28199046e-02  1.94201156e-01
  4.54563983e-02  1.00023106e-01  3.29084359e-02  5.14537506e-02
 -3.11746486e-02  2.37440206e-02 -1.50468484e-01  3.31990086e-02
  2.86550820e-02 -9.72163603e-02 -2.32708808e-02  9.51980129e-02
 -2.00501114e-01  8.35633278e-02  5.50596230e-02 -2.45396066e-02
 -1.01881884e-02 -5.81650017e-03 -1.16128922e-01 -1.00525759e-01
  1.14022844e-01 -1.87952071e-01  2.06211925e-01  2.66746044e-01
  3.41150574e-02  1.55149028e-01  9.13768038e-02  7.53110275e-02
 -3.27458791e-02 -1.84942354e-02 -1.36984751e-01 -4.32323292e-02
  9.66291651e-02  4.63931672e-02  4.35912237e-02  3.49520780e-02]