[-4.53819670e-02  2.00497612e-01  5.58371358e-02 -3.94961573e-02
  1.37165757e-02 -5.94045892e-02 -2.84973681e-02 -1.41581878e-01
  1.26428291e-01 -1.79756507e-02  1.87081859e-01 -6.46261573e-02
 -2.44649678e-01 -6.45906553e-02 -7.56083429e-03  1.46992564e-01
 -2.19541892e-01 -1.21082187e-01 -6.53827414e-02 -1.84084084e-02
  7.72949457e-02 -2.12040541e-04  2.86408700e-02  3.21793407e-02
 -1.55906349e-01 -2.67498612e-01 -1.29611120e-01 -9.49429423e-02
  2.83941068e-02 -6.66439310e-02 -7.70477429e-02  6.14666659e-03
 -1.98640123e-01 -1.16551876e-01  4.12745252e-02  1.85500700e-02
 -1.42792407e-02 -6.99225590e-02  1.43983513e-01  3.36395688e-02
 -1.58285752e-01  8.99189860e-02  8.98717158e-03  2.75259316e-01
  2.03187749e-01  4.36647721e-02  3.53751555e-02 -1.07817225e-01
  4.91989665e-02 -1.93389639e-01  8.10286924e-02  1.35986313e-01
  1.04789995e-01  8.87046009e-02  2.04327349e-02 -1.72577485e-01
  4.73913783e-03  9.76349935e-02 -1.54812604e-01  4.01227884e-02
  1.37032554e-01 -5.97059689e-02  1.72895975e-02 -3.46288346e-02
  1.35993242e-01  9.58658084e-02 -1.00312009e-01 -1.13869250e-01
  1.30380973e-01 -1.01647340e-01 -4.31169383e-02 -1.55741246e-02
 -1.15260936e-01 -1.41010016e-01 -3.12809289e-01  2.31822263e-02
  3.28015149e-01  1.04385570e-01 -2.12823614e-01 -1.22033646e-02
 -1.14699326e-01  6.27596900e-02  9.32495594e-02  2.07149722e-02
 -9.17445272e-02 -2.86470167e-03 -8.67605433e-02  2.49089953e-02
  2.07856223e-01 -3.99936475e-02 -5.95388412e-02  1.79154858e-01
 -2.36785077e-02 -2.12139639e-04  6.24477975e-02  3.52651030e-02
 -6.25989363e-02 -4.31686779e-03 -1.41062021e-01  4.70401347e-02
 -1.34822968e-02 -1.18070774e-01 -6.50902763e-02  1.63109884e-01
 -1.96113095e-01  1.01712346e-01  5.83763681e-02 -4.03057151e-02
 -5.21298423e-02  3.18419449e-02 -1.38572559e-01 -2.68620681e-02
  1.50325164e-01 -2.38743022e-01  2.27941558e-01  2.43545294e-01
  2.30870070e-03  8.36904496e-02  6.35638610e-02  5.93375675e-02
 -2.71716565e-02 -1.37047889e-02 -1.52728602e-01 -9.80275124e-02
  1.03104651e-01  3.20585780e-02  6.01072609e-02  2.38751546e-02]