[-0.10692197  0.15047461  0.06471938 -0.01121459 -0.03958856 -0.02101207
 -0.03153259 -0.13304546  0.07712749 -0.01241241  0.25206032 -0.00442209
 -0.15746371 -0.22397314  0.0436685   0.15586355 -0.17885025 -0.16557474
 -0.1029278  -0.03944661  0.04451932  0.04316553  0.01481746 -0.01118565
 -0.15836608 -0.32432917 -0.07418863 -0.11706889  0.12751362 -0.10767009
 -0.05869513  0.00849684 -0.15848421 -0.10099818  0.07908854  0.10592244
 -0.04682733 -0.03898618  0.20348819 -0.0373622  -0.21069382  0.08122661
  0.06564578  0.28342721  0.25892317  0.00508019  0.05002242 -0.04692676
  0.13608365 -0.17824742  0.07908683  0.13265635  0.09620256  0.08234154
  0.06911195 -0.11940421 -0.03835258  0.10740292 -0.1836388   0.04117801
  0.07716917 -0.14232898 -0.06770518 -0.03886485  0.10379305  0.05037742
 -0.10079942 -0.21092117  0.1363077  -0.15146843 -0.0818531   0.05352153
 -0.10411264 -0.09813908 -0.33324161  0.01039045  0.37698889  0.06623497
 -0.21960352  0.07935291 -0.01766967 -0.03666496  0.07282723  0.09866031
 -0.01569238  0.03844979 -0.10070837  0.01301226  0.18985339 -0.01780866
 -0.00466083  0.18557364 -0.01058748  0.04849716  0.08413374  0.06853124
 -0.0593892  -0.01130139 -0.09139692 -0.01752551  0.05580482 -0.09812867
  0.01782672  0.0969786  -0.14068474  0.2223275   0.02874154  0.10588073
 -0.00626727 -0.03111735 -0.04446579  0.01467192  0.14460944 -0.24265566
  0.24221487  0.19611013 -0.00792434  0.08795428  0.11259501  0.03016483
 -0.00737678  0.00432315 -0.19839171 -0.1005308   0.00575984 -0.04176707
  0.07693156  0.06128274]