[-1.01959005e-01  1.54507399e-01  9.72661674e-02 -2.46171542e-02
 -3.19808312e-02 -1.02025285e-01 -6.51888624e-02 -1.78070277e-01
  1.32712781e-01 -7.94245303e-02  2.70884454e-01 -2.54362524e-02
 -2.17072397e-01 -1.09601930e-01 -2.66606007e-02  1.96799949e-01
 -2.52402633e-01 -1.32087871e-01  1.57568734e-02  4.02905159e-02
  7.10523203e-02 -2.74131484e-02  7.87406191e-02  1.58415921e-02
 -3.59439254e-02 -3.45846742e-01 -1.58314019e-01 -1.17575265e-01
  7.19802603e-02 -1.89876445e-02 -1.01303697e-01  3.19338287e-03
 -1.59136370e-01 -7.92931542e-02  1.68469176e-02  3.48195359e-02
 -1.66332331e-02 -3.95373218e-02  1.83064386e-01  2.62764835e-04
 -1.67754069e-01  3.80589813e-02 -1.37190763e-02  2.54287183e-01
  1.98990181e-01  7.18472898e-02  1.03715919e-01 -1.72595128e-01
  4.81547005e-02 -1.37236834e-01  4.11854796e-02  1.33568510e-01
  1.04600109e-01  6.62693381e-02 -2.54175998e-02 -1.93556502e-01
  6.36595953e-03  3.84703390e-02 -1.30363703e-01  4.91758995e-02
  1.31947711e-01 -3.96048240e-02 -8.37885030e-03 -1.22732697e-02
  2.63582945e-01  6.65441751e-02 -1.30824387e-01 -1.41745299e-01
  1.43202677e-01 -1.14444844e-01 -6.23180047e-02  1.25068082e-02
 -1.99817672e-01 -1.63568661e-01 -2.93613046e-01 -1.02078840e-02
  3.86615694e-01  5.32167740e-02 -1.82204530e-01  3.15530747e-02
 -1.22092023e-01  3.06554269e-02  1.10196173e-01  1.41296536e-01
 -5.16008250e-02  3.77313085e-02 -1.20136000e-01 -4.07448364e-03
  1.85235009e-01 -1.16255693e-01 -3.70115303e-02  1.86885819e-01
 -6.09672535e-03  1.17178574e-01  3.12117636e-02  3.43235359e-02
  1.04691982e-02  3.55045460e-02 -1.33715376e-01  1.61268525e-02
 -1.95256919e-02 -5.85114956e-02 -3.16925831e-02  9.97288004e-02
 -1.32201478e-01  6.20211735e-02  4.50328253e-02  3.71960476e-02
 -2.59619188e-02  1.97110083e-02 -1.15069583e-01 -1.00195110e-01
  1.25107124e-01 -2.28341267e-01  2.43240952e-01  2.65868038e-01
  3.57811563e-02  1.07450023e-01  7.88505003e-02  1.10551476e-01
 -2.68930588e-02 -2.37704068e-02 -1.55406073e-01 -2.01455061e-03
  7.65905678e-02  3.44308428e-02  6.04462735e-02  2.60861162e-02]