[-0.05184139  0.19142015  0.08395935 -0.02269717  0.0218928  -0.06506063
 -0.00762897 -0.15080027  0.12866518 -0.01599077  0.17897488 -0.0602755
 -0.24360704 -0.08110236 -0.00818988  0.14406334 -0.22362307 -0.1322882
 -0.05060745 -0.02675944  0.06799799 -0.00432734  0.03120809  0.03096985
 -0.136896   -0.27486643 -0.12012484 -0.11645266  0.033175   -0.04597346
 -0.07026123  0.02363946 -0.18108299 -0.1057251   0.02523039  0.0165832
 -0.00059378 -0.05238331  0.15215372  0.02196184 -0.16188176  0.07624933
 -0.00439502  0.28281683  0.19360903  0.03719921  0.03604999 -0.08952744
  0.05520289 -0.17337914  0.07603818  0.14452693  0.12571493  0.07779873
  0.00974385 -0.18732642  0.00428473  0.07533593 -0.16318916  0.04082191
  0.12950721 -0.06856801  0.02255506 -0.01712374  0.14201719  0.0878469
 -0.08828634 -0.12238543  0.13704561 -0.10624311 -0.04384366 -0.02549874
 -0.13851182 -0.12846598 -0.30366179  0.02528205  0.32576463  0.09006555
 -0.21565028 -0.0009565  -0.13110881  0.06363796  0.09160084  0.03024955
 -0.09702237  0.01303451 -0.09847102  0.00107236  0.18171716 -0.04636163
 -0.07150786  0.16822982 -0.02246958  0.00059409  0.06127837  0.00170681
 -0.05400371  0.01969715 -0.15047167  0.03646965 -0.01981079 -0.11278608
 -0.05482926  0.14567551 -0.20320092  0.10271471  0.06480044 -0.02465218
 -0.05124443  0.0390789  -0.14958596 -0.03530236  0.16382019 -0.22713113
  0.23199712  0.24498026  0.01502622  0.09511992  0.06830189  0.06055664
 -0.02607962 -0.00729843 -0.14775229 -0.08036495  0.11884891  0.02454138
  0.0578264   0.0382416 ]