[-6.85011372e-02  1.78164974e-01  6.84823319e-02 -4.07836549e-02
  2.14857012e-02 -6.75674900e-02 -1.26171140e-02 -1.64401248e-01
  1.32232770e-01 -3.84822600e-02  2.01186225e-01 -7.01409951e-02
 -2.28312179e-01 -9.35387835e-02 -1.09561412e-02  1.46142840e-01
 -2.34878093e-01 -1.40238613e-01 -3.48442160e-02 -1.96300801e-02
  7.69545212e-02 -8.60427599e-03  9.26213712e-03  3.24170142e-02
 -1.70209303e-01 -2.70205468e-01 -1.26125857e-01 -9.36557576e-02
  4.10284119e-04 -5.66752069e-02 -7.06264302e-02  3.48662548e-02
 -1.79355547e-01 -9.88543183e-02  4.06748019e-02  4.31720875e-02
 -8.14920943e-03 -6.10359795e-02  1.67078823e-01  1.61563810e-02
 -1.75021708e-01  6.20236099e-02  2.27845050e-02  2.80339688e-01
  2.14180991e-01  2.21514478e-02  9.64266062e-03 -9.80691984e-02
  8.78504962e-02 -1.63323611e-01  5.24495654e-02  1.32043287e-01
  1.20684974e-01  8.09897482e-02  9.55666881e-03 -1.74908698e-01
  1.41334673e-02  8.81362334e-02 -1.64699674e-01  1.12932259e-02
  1.07706599e-01 -1.15690961e-01  4.11983617e-02 -1.28548238e-02
  1.29045054e-01  7.78732672e-02 -9.04559195e-02 -1.20237552e-01
  1.37112707e-01 -1.11108042e-01 -4.99479212e-02 -4.80083888e-03
 -1.22089289e-01 -1.47997439e-01 -3.28349680e-01 -3.02284228e-04
  3.43784630e-01  8.48214403e-02 -2.08075762e-01  2.79338984e-03
 -8.45263824e-02  2.81990916e-02  1.15314059e-01  5.78918234e-02
 -9.61543098e-02  2.07071546e-02 -1.02565132e-01  1.06231514e-02
  2.20926270e-01 -2.24628244e-02 -7.42769316e-02  1.69543326e-01
 -3.22710089e-02  2.20884942e-02  8.11907798e-02  1.46272182e-02
 -5.01425527e-02  2.39212997e-02 -1.39551505e-01  4.60597016e-02
 -2.29624044e-02 -1.23971939e-01 -5.32637201e-02  1.61762938e-01
 -2.00748727e-01  1.08658664e-01  6.49708807e-02 -1.68426316e-02
 -7.37280771e-02  1.12638408e-02 -1.29588544e-01 -1.19953705e-02
  1.48675710e-01 -2.44672373e-01  2.01437280e-01  2.27947518e-01
  1.21675869e-02  1.08594753e-01  6.68998808e-02  3.68229114e-02
 -3.69557030e-02 -1.83109157e-02 -1.63622320e-01 -6.96490034e-02
  1.08214654e-01  2.18793042e-02  1.09294370e-01  2.98309214e-02]