[-0.11587363  0.1414464   0.11276654 -0.03587832 -0.04490437 -0.13352826
 -0.0604056  -0.17248233  0.11626952 -0.07862671  0.27479646 -0.06102857
 -0.184875   -0.11849397 -0.01927107  0.20692001 -0.21172085 -0.11501602
 -0.02187643 -0.00421135  0.07453634 -0.02808547  0.06889611  0.00338665
 -0.10960279 -0.3112357  -0.14358972 -0.09146779  0.0132094   0.03440347
 -0.0728524   0.01433487 -0.19390339 -0.11309291  0.04493125  0.06200533
  0.00357211 -0.03751489  0.19046837 -0.01486232 -0.18213043  0.0338725
  0.0170182   0.24474926  0.17683099  0.03967702  0.0685166  -0.1354816
  0.07569262 -0.12938961  0.01937865  0.11553254  0.09900003  0.04612518
 -0.0162281  -0.12296853  0.05990502  0.08969486 -0.14157465 -0.03832698
  0.12741505 -0.08373977 -0.02957985 -0.033028    0.23978983  0.06038332
 -0.11380692 -0.12095475  0.13146694 -0.06981142 -0.04762471 -0.00342486
 -0.18281572 -0.13656314 -0.35814074 -0.01595175  0.40994379  0.03925374
 -0.208323    0.03893284 -0.11362282  0.04892794  0.13165961  0.10450001
 -0.03735363  0.05324021 -0.10939395  0.00492296  0.18910973 -0.1215765
 -0.02387351  0.18136565  0.01851483  0.09997181  0.03397391  0.00509452
 -0.00474103  0.02127459 -0.12658319  0.05660981  0.00627548 -0.03931596
 -0.02194429  0.10195891 -0.18606274  0.05772681  0.06284597  0.01795429
 -0.03039612  0.008525   -0.10038873 -0.10600537  0.09857818 -0.22316924
  0.17753056  0.24688284 -0.01261945  0.11930956  0.09931934  0.06965954
 -0.04352207  0.00296113 -0.15949674 -0.02675316  0.09782647  0.02211611
  0.08781746  0.03574909]