[-0.11910899  0.168154    0.09186409 -0.04352858 -0.04220694 -0.13668653
 -0.06184892 -0.18471165  0.13222511 -0.06293686  0.27885738 -0.02004765
 -0.2054282  -0.13147272 -0.01482094  0.19289693 -0.25964412 -0.1181451
  0.01202285  0.03832025  0.08522884 -0.03738864  0.09491307  0.03818749
 -0.04517059 -0.34802285 -0.17451254 -0.12766616  0.07493468 -0.02402002
 -0.09264579 -0.00828354 -0.17089795 -0.1038893   0.00906717  0.03113416
 -0.02918629 -0.05559626  0.17924172  0.0029381  -0.15952827  0.04476499
 -0.02007555  0.2563462   0.20022464  0.07425854  0.12217068 -0.15786175
  0.06285037 -0.13917561  0.04359123  0.12543263  0.11000129  0.05096023
 -0.00625297 -0.19263065  0.02130164  0.04609996 -0.16467576  0.04806951
  0.12822783 -0.03452387 -0.00646963 -0.00758501  0.25682482  0.09160291
 -0.1244506  -0.1245384   0.15303136 -0.11304009 -0.04060553  0.01751259
 -0.20091875 -0.17383376 -0.29326811 -0.01033739  0.38536805  0.07209545
 -0.17947027  0.01119979 -0.13549267  0.04170335  0.10213277  0.11864056
 -0.0635415   0.04065704 -0.14072572  0.00449156  0.17158043 -0.11514571
 -0.03461262  0.209196    0.01264712  0.10938086  0.03423568  0.0248962
 -0.00973325  0.02569664 -0.12348821  0.02538405 -0.01751951 -0.06771816
 -0.03523814  0.09263269 -0.12793146  0.05375628  0.04732036  0.02777348
 -0.06752171  0.01185885 -0.12166753 -0.100696    0.10810342 -0.21888988
  0.24626115  0.2695094   0.01787538  0.1153546   0.06616975  0.09461703
 -0.03746547 -0.04363555 -0.12688614 -0.00480293  0.08053795  0.0364249
  0.07331375  0.02112182]