[-0.07985559  0.18010512  0.07103085 -0.04865057  0.01155804 -0.10246425
 -0.00166882 -0.16511807  0.13138489 -0.02173862  0.23009284 -0.04109914
 -0.20995359 -0.13534306  0.01102911  0.13395064 -0.19250065 -0.11239661
 -0.03639759 -0.01279972  0.09186536 -0.02762615  0.05282551  0.05745846
 -0.15141863 -0.28834316 -0.14408463 -0.12569842  0.03039867 -0.07328508
 -0.06303318  0.02234147 -0.18728988 -0.13068588 -0.00419527  0.01321557
 -0.00994116 -0.05369846  0.15178771  0.0275525  -0.16911821  0.0743773
 -0.01739049  0.27493608  0.21285911  0.01653889  0.05825073 -0.08300408
  0.0614171  -0.17661531  0.06343632  0.10515725  0.12414213  0.05407028
  0.03014051 -0.1601775   0.00307908  0.07052558 -0.18862472  0.02845102
  0.10109891 -0.07291787  0.00361563 -0.02327125  0.13765183  0.1081815
 -0.08187377 -0.09706686  0.15349439 -0.10736006 -0.03249779  0.00306893
 -0.14097928 -0.14905868 -0.31625196  0.03422065  0.30872169  0.11815199
 -0.21073416 -0.00444597 -0.14035761  0.07737833  0.07481419  0.01092022
 -0.08161018  0.02613475 -0.10251945  0.01542566  0.15752743 -0.04316061
 -0.06002843  0.20117588 -0.01490824  0.02756499  0.0711365   0.01275863
 -0.05770962  0.00874445 -0.13862471  0.04380577 -0.00461299 -0.11088867
 -0.03280927  0.14161524 -0.20359467  0.10567087  0.05540149 -0.02398711
 -0.06610789  0.02805066 -0.12624721 -0.03013744  0.12650429 -0.22242276
  0.22587283  0.2429667   0.00066567  0.10148952  0.06106287  0.0328965
 -0.04740639 -0.034312   -0.12816632 -0.05572432  0.11600289  0.01364814
  0.06829656  0.02454249]