[-8.45866278e-02  1.35222584e-01  1.28592655e-01 -4.31059599e-02
 -9.58502963e-02 -6.55308440e-02 -2.49622930e-02 -1.58186466e-01
  1.09411001e-01 -9.43580419e-02  2.72865087e-01 -5.68518825e-02
 -2.05305681e-01 -7.08597228e-02 -6.81902617e-02  1.85181856e-01
 -1.36112645e-01 -1.73580021e-01 -7.54788518e-02 -7.77452439e-03
  8.76262560e-02  8.43262672e-03 -2.51940452e-04  2.30383482e-02
 -1.07870892e-01 -3.09400290e-01 -6.11282997e-02 -2.69123167e-03
  6.29793927e-02 -6.12074509e-02 -6.06243797e-02  7.28392825e-02
 -1.94259435e-01 -7.76313543e-02  4.95187044e-02  1.32169276e-01
 -1.02693355e-02 -2.18197443e-02  1.45230234e-01  1.45695424e-02
 -2.93697089e-01  2.93965377e-02  4.60334681e-02  2.94819057e-01
  2.45537683e-01  2.76283510e-02  2.37990115e-02 -1.27090648e-01
  6.96993694e-02 -2.10224345e-01  2.47616693e-02  1.32367536e-01
  1.53882727e-01  6.70119524e-02 -4.67869546e-03 -1.46285892e-01
 -2.35034786e-02  1.07459068e-01 -1.36635169e-01 -1.87108908e-02
  8.78275484e-02 -1.11164533e-01  1.71461608e-02 -1.06676616e-01
  2.31885672e-01  7.67632052e-02 -1.36055037e-01 -1.28588289e-01
  1.45299777e-01 -1.51072890e-01 -9.48743373e-02  5.86445928e-02
 -1.38071224e-01 -9.76947993e-02 -3.42199504e-01 -3.10135987e-02
  4.26366866e-01  7.60456473e-02 -2.01908335e-01  3.02934404e-02
 -6.87687919e-02  4.89939526e-02  5.39408587e-02  1.42961353e-01
 -6.34599254e-02  1.11329220e-01 -6.08743727e-02  5.80061460e-03
  2.14838818e-01 -6.86414763e-02 -3.73746045e-02  2.05879137e-01
 -1.56480819e-02  6.91589639e-02  5.44179566e-02  2.94954963e-02
 -4.35708500e-02 -2.79082800e-03 -1.41380936e-01 -6.11152053e-02
 -3.53170186e-02 -5.71004748e-02  4.96585742e-02  1.48132280e-01
 -1.90432474e-01  1.49434552e-01 -2.43916921e-03  8.52567777e-02
  4.09055799e-02  3.51647176e-02 -9.88593604e-03 -9.26562920e-02
  1.27019346e-01 -2.25935921e-01  1.79862902e-01  2.21282348e-01
  1.30385188e-02  7.07556084e-02  1.13389805e-01  6.85667172e-02
 -8.49822816e-03  2.75748014e-03 -1.22486077e-01 -1.65347662e-02
  6.73228577e-02 -8.09446722e-02  1.11765221e-01  2.23941635e-02]