[-1.06700674e-01  1.46175370e-01  9.04692039e-02 -6.34394959e-02
 -1.29960999e-01 -2.32436713e-02  2.78335791e-02 -1.30121261e-01
  1.15450263e-01 -9.94560942e-02  2.33603433e-01 -2.43412014e-02
 -2.28753611e-01 -5.39778136e-02 -4.78351600e-02  1.57029048e-01
 -1.25298604e-01 -1.81289464e-01 -1.22221805e-01 -6.87834993e-02
  6.42971024e-02  6.22030930e-04 -5.41670918e-02  2.93754973e-02
 -1.00913487e-01 -3.01695108e-01 -4.25406694e-02 -8.29909928e-03
  1.31363064e-01 -8.88931528e-02 -3.76963727e-02  6.65745661e-02
 -1.83845922e-01 -8.24970081e-02  4.48797308e-02  1.11782983e-01
 -5.87351024e-02 -1.51748424e-02  1.51558235e-01  2.39608567e-02
 -2.59942263e-01  2.96669453e-02  5.00076786e-02  3.31585139e-01
  2.27005839e-01  4.47601452e-02  2.54998207e-02 -7.91213736e-02
  7.87953287e-02 -2.35380515e-01  2.56571155e-02  1.30903482e-01
  1.68763906e-01  8.95262286e-02  3.95236388e-02 -1.78114563e-01
  4.32992121e-03  7.45354220e-02 -1.71563268e-01  2.47820821e-02
  6.10645115e-02 -1.44229874e-01  7.79605471e-04 -6.48407564e-02
  2.09118843e-01  6.30825385e-02 -1.01648867e-01 -1.27283245e-01
  1.84430018e-01 -1.61578402e-01 -7.71493688e-02  6.74654394e-02
 -9.60974619e-02 -8.85641202e-02 -2.79686928e-01 -1.52164027e-02
  4.81405646e-01  1.48265883e-01 -1.92121819e-01  1.75257009e-02
 -7.28846565e-02  8.72097560e-04  9.29309502e-02  1.01393037e-01
 -8.71106386e-02  4.77094091e-02 -7.07065538e-02  4.18353491e-02
  2.04089925e-01 -4.51225229e-02 -5.94094656e-02  1.81918174e-01
  3.46660614e-02  4.51992415e-02  4.50198501e-02  2.43057013e-02
 -8.91356841e-02 -1.11240451e-03 -1.29058942e-01 -9.90137234e-02
 -2.34674662e-04 -7.29192719e-02  5.69877401e-02  1.30680621e-01
 -1.88047454e-01  2.15376720e-01  2.67302189e-02  7.27724209e-02
 -3.89801199e-03  4.26083021e-02 -2.55570002e-02 -2.29908358e-02
  1.24268435e-01 -2.41149858e-01  2.17990279e-01  2.45875075e-01
  2.49655539e-04  7.73571953e-02  1.05065048e-01 -5.28031634e-03
  3.93939242e-02 -3.85660417e-02 -1.14742152e-01 -7.76792988e-02
  5.12074791e-02 -9.54002365e-02  1.18045025e-01  2.82130670e-02]