[-1.31611764e-01  1.42000541e-01  7.60748163e-02  2.38119792e-02
 -9.47153792e-02 -8.42492506e-02  2.06045471e-02 -2.18868375e-01
  9.26198140e-02 -7.40614161e-02  2.23338127e-01 -5.47742024e-02
 -2.47343928e-01 -9.13720727e-02 -2.52207872e-02  1.72633186e-01
 -1.26803711e-01 -1.68317467e-01 -9.71016735e-02 -5.00797220e-02
  1.24476910e-01 -3.29886191e-02  1.51393637e-02  2.34099422e-02
 -1.17423847e-01 -2.91811079e-01 -9.83641967e-02 -2.65342295e-02
  5.75264581e-02 -4.30902317e-02 -7.97420293e-02  5.91569617e-02
 -1.97559386e-01 -1.28936633e-01  3.57586630e-02  6.52764440e-02
 -1.23931644e-02 -3.16918567e-02  1.67268962e-01 -1.96027067e-02
 -2.25329548e-01  3.72119881e-02  8.80834460e-02  2.55388319e-01
  1.90820396e-01  3.22351269e-02  4.12337445e-02 -1.08828247e-01
  7.17155039e-02 -1.61140144e-01 -1.61565549e-03  1.11466460e-01
  1.40435830e-01  8.91721696e-02  1.33001078e-02 -1.64613232e-01
 -3.11817043e-03  6.28681034e-02 -1.47968099e-01  3.81824672e-02
  9.63987932e-02 -1.66683048e-01 -5.03144078e-02 -7.61440024e-02
  1.58107772e-01  6.24512397e-02 -7.50360489e-02 -1.52104676e-01
  1.26989231e-01 -1.31442949e-01 -1.03231274e-01  3.14049423e-02
 -1.50161445e-01 -1.30192026e-01 -3.58623743e-01 -2.20479611e-02
  4.07205820e-01  9.63782668e-02 -1.93172947e-01  3.40008289e-02
 -3.38575356e-02  3.71686444e-02  1.13004580e-01  1.04695998e-01
 -3.08004972e-02  6.47216067e-02 -9.52636674e-02  5.63869439e-02
  1.92277446e-01 -7.79624507e-02 -7.39725679e-02  1.92983121e-01
  1.09469881e-02  9.12944898e-02  3.64562459e-02  5.97585551e-02
 -5.15868142e-02  8.65180138e-03 -1.49066016e-01 -2.10138727e-02
  3.50392051e-02 -3.23716663e-02  4.52376679e-02  8.72948244e-02
 -1.30536407e-01  1.00296699e-01  2.45984849e-02  7.61226788e-02
 -5.42596392e-02 -1.57711618e-02 -1.03199206e-01 -5.52962115e-03
  8.09473619e-02 -2.21469551e-01  2.30091959e-01  2.48828396e-01
 -2.51551624e-02  6.04078732e-02  1.02486730e-01 -2.39326037e-03
  2.64740624e-02 -2.10870057e-04 -1.38950139e-01 -6.38736635e-02
  1.20785788e-01 -3.76794226e-02  1.04416214e-01  3.02066840e-02]