[-9.87003744e-02  1.57434523e-01  5.12450449e-02 -5.99951744e-02
 -1.33393809e-01 -5.24742762e-03  7.84993824e-03 -1.78886861e-01
  1.19537964e-01 -9.28543359e-02  2.49649957e-01 -1.10562801e-01
 -2.32092485e-01 -3.81848030e-02 -4.40120474e-02  2.27597699e-01
 -1.35694668e-01 -1.77310541e-01 -8.63136873e-02 -3.42730917e-02
  3.92600708e-02  5.09878946e-03 -3.42628434e-02  4.34522592e-02
 -6.40380457e-02 -3.34997386e-01 -1.18528582e-01 -6.02944521e-03
  6.86702803e-02 -4.05123197e-02 -5.13614714e-02  8.48427564e-02
 -1.57512575e-01 -6.98196217e-02  6.20559528e-02  4.91099879e-02
 -5.33866286e-02 -5.98730519e-02  1.74014091e-01  1.94077508e-03
 -2.31779128e-01  4.02525365e-02  1.02213465e-01  3.00152481e-01
  2.19672665e-01  6.00513220e-02  4.78469245e-02 -1.42227307e-01
  5.14604561e-02 -1.67558655e-01  3.52913775e-02  1.08847737e-01
  1.06031671e-01  5.75631149e-02  6.67436805e-04 -1.62252590e-01
 -1.60005540e-02  9.20941606e-02 -1.72997341e-01 -6.49323082e-03
  9.78898108e-02 -1.12283401e-01 -6.12413585e-02 -9.75168720e-02
  2.25831538e-01  1.10559367e-01 -9.99976099e-02 -1.93694666e-01
  1.75271198e-01 -1.55222625e-01 -1.08613566e-01  2.22090483e-02
 -1.48810342e-01 -1.18764833e-01 -3.55324954e-01 -1.79950204e-02
  4.48098749e-01  1.00757673e-01 -1.85852930e-01  4.98446263e-02
  8.72847345e-03  2.53752712e-02  1.32060513e-01  1.42321274e-01
 -7.39372149e-02 -1.10336561e-02 -8.66153240e-02  9.69221164e-03
  2.11094216e-01 -6.94980547e-02 -7.94027299e-02  1.71005979e-01
  6.92684576e-03  3.21305357e-02  3.88658382e-02  7.64839649e-02
 -5.09131216e-02 -1.77146503e-04 -1.54433191e-01 -7.24082291e-02
  9.33065452e-03  1.37852141e-04  1.40285166e-02  1.58139199e-01
 -1.73601657e-01  1.79870859e-01  9.76288226e-03  5.60768023e-02
 -3.19455154e-02 -1.02378782e-02 -4.15007323e-02 -1.27121424e-02
  1.25612304e-01 -2.28306755e-01  1.38615951e-01  1.89708158e-01
 -7.17971614e-03  8.80495682e-02  1.19189277e-01  5.05661033e-02
  1.44863231e-02 -1.51453260e-02 -2.01383740e-01 -5.41248396e-02
  1.00546800e-01 -3.80322933e-02  1.20522223e-01  5.37367649e-02]