[-0.10516834  0.12894101  0.06813895 -0.05743741 -0.0830751  -0.1133635
  0.03565088 -0.17463672  0.09955084 -0.00056886  0.27986142 -0.0904463
 -0.22661574 -0.12640476  0.01858893  0.14996772 -0.07826293 -0.09472033
 -0.1180195  -0.03831577  0.10759778 -0.03935935  0.06854781  0.05776798
 -0.10763023 -0.30272785 -0.12267776 -0.07064723  0.06436443 -0.09366929
 -0.05503318  0.08267915 -0.16015454 -0.16100912  0.03269063  0.02957939
 -0.02527106 -0.0291565   0.15124941  0.01656878 -0.20963159  0.0230798
  0.04137469  0.25485402  0.21383782  0.04522155  0.09729063 -0.11610261
  0.04546282 -0.17428118  0.08698833  0.06127997  0.16420063  0.04081383
  0.06093833 -0.1273251   0.00090722  0.06253175 -0.18432443  0.04633496
  0.11066639 -0.1035642  -0.09976783 -0.05823733  0.1553521   0.10049511
 -0.08700305 -0.11638822  0.12438317 -0.09831636 -0.07211085  0.0830509
 -0.15599973 -0.14202644 -0.32261658  0.02664666  0.40922156  0.09892952
 -0.25516689 -0.00635953 -0.07658543  0.05667823  0.09769864  0.07689959
 -0.05616286  0.05128967 -0.09891137  0.03979176  0.12233198 -0.11887006
 -0.06906937  0.23133166  0.03027596  0.07472993  0.04943968  0.06538444
 -0.0448404  -0.00082351 -0.11652924 -0.06414381  0.10199463 -0.02424129
  0.0189363   0.06666734 -0.16644035  0.14221132  0.0278078   0.03619788
 -0.02779402 -0.04391531 -0.03842926 -0.04144387  0.08982228 -0.22068428
  0.14882611  0.22724529 -0.03110359  0.06427746  0.06680058  0.0209229
  0.04624587 -0.02109008 -0.08576784 -0.01829182  0.12973353 -0.00458754
  0.06195797  0.00753006]