[-0.1225294   0.13253298  0.06225674 -0.01470484 -0.12966652 -0.10004659
  0.04275689 -0.15564348  0.09276583 -0.0263325   0.27101946 -0.04192867
 -0.29991791 -0.03873669 -0.08930049  0.16304842 -0.12040873 -0.13848379
 -0.14613117 -0.0724418   0.03728976  0.03565996  0.02187958  0.03986852
 -0.03510823 -0.34047103 -0.05797122 -0.01150259  0.07771739 -0.05666382
 -0.02152034  0.11402464 -0.15266316 -0.10640942  0.07565817  0.05839782
 -0.05348385 -0.0358595   0.20792781  0.03320752 -0.22009234 -0.00261984
  0.08156952  0.32938978  0.23327489  0.05170666  0.06115676 -0.09243089
  0.05807129 -0.22094274  0.02208483  0.14003153  0.14413714  0.03815648
  0.07944079 -0.19578238 -0.03949139  0.13130049 -0.13954923  0.00661989
  0.0763149  -0.1065539  -0.02622811 -0.11344206  0.18984427  0.06376828
 -0.12716369 -0.09828194  0.14293689 -0.17483962 -0.09188709  0.05918329
 -0.12577191 -0.11570535 -0.31889725 -0.00819552  0.44410872  0.11195049
 -0.16179794 -0.01049775 -0.00993219  0.01713065  0.10319316  0.08244159
 -0.12022807  0.0015669  -0.11212529 -0.01519068  0.1663945  -0.0046221
 -0.09670257  0.16983195 -0.01818465  0.03679626  0.05471852  0.05941948
 -0.09096847 -0.01503453 -0.12628971 -0.04442524 -0.00358851 -0.09068532
  0.02462514  0.09536514 -0.13745168  0.10080234 -0.0299434   0.07897454
 -0.03619705 -0.01980814 -0.04444347  0.00740056  0.11230624 -0.23498364
  0.20714346  0.20851694 -0.05208775  0.08890428  0.09065067  0.00047425
 -0.00674985 -0.01177338 -0.11832102 -0.10146113  0.07072645 -0.06404474
  0.12767808 -0.00460051]