[-0.11371269  0.13067667  0.08740874 -0.07072439 -0.13405393 -0.01728474
  0.01731892 -0.14357953  0.12947595 -0.13949351  0.22061633 -0.03589169
 -0.22179031 -0.03118601 -0.04774296  0.17729647 -0.14593397 -0.19255877
 -0.09845657 -0.0687341   0.05879855 -0.01870385 -0.06331076  0.04801986
 -0.10739017 -0.313382   -0.05873054 -0.00080193  0.12445693 -0.07598819
 -0.0535255   0.08413293 -0.18926205 -0.07247635  0.03558625  0.09914842
 -0.05559709 -0.03136895  0.14237173  0.01916513 -0.2634334   0.01923713
  0.05837977  0.32265636  0.21293195  0.04950371  0.02153954 -0.08140022
  0.07839126 -0.24115138  0.02513467  0.12585251  0.13957144  0.09269457
  0.02878929 -0.18444613  0.00919268  0.06132597 -0.17352326  0.02750633
  0.06649119 -0.13901816  0.00356838 -0.0799695   0.20930247  0.08208123
 -0.09256258 -0.14078063  0.19416486 -0.16655788 -0.06806127  0.05681656
 -0.09972998 -0.10885481 -0.27645567 -0.02602556  0.47062731  0.17789677
 -0.15810648  0.03258487 -0.0649565  -0.01138827  0.09707703  0.11390008
 -0.06969124  0.04797676 -0.05039468  0.05444203  0.20636287 -0.03380902
 -0.05840076  0.19677716  0.02788761  0.03533429  0.0330546   0.03013558
 -0.09369913  0.00899487 -0.13775893 -0.09364144 -0.01179599 -0.04814228
  0.05858363  0.14098752 -0.18965381  0.22083974  0.01852603  0.07546022
 -0.00668149  0.05542767 -0.04006381 -0.02868115  0.11050574 -0.24214171
  0.19224034  0.24866115  0.0211388   0.08431905  0.09794808 -0.00484965
  0.04741583 -0.05046793 -0.1398249  -0.0672315   0.0658554  -0.10134307
  0.10787976  0.03979976]