[-5.96218519e-02  1.95144206e-01  7.24039152e-02 -4.02419828e-02
  3.35848033e-02 -6.47658184e-02 -2.06799358e-02 -1.69395909e-01
  1.27809361e-01 -3.14783640e-02  2.05973580e-01 -5.71546145e-02
 -2.21243173e-01 -9.14350748e-02 -9.07173473e-03  1.46570012e-01
 -2.27934316e-01 -1.26112536e-01 -5.72653413e-02 -1.34026203e-02
  6.47725388e-02 -1.57728922e-02  3.69923636e-02  4.03519720e-02
 -1.50005206e-01 -2.59918302e-01 -1.32385030e-01 -1.03572622e-01
  2.91742980e-02 -5.81881292e-02 -7.11864457e-02  1.20486664e-02
 -1.95301011e-01 -1.11591160e-01  2.52625179e-02  1.68221779e-02
 -2.55316496e-04 -5.75622618e-02  1.61065027e-01  1.30051440e-02
 -1.64777756e-01  8.86503309e-02  4.44047153e-03  2.67605752e-01
  2.13629127e-01  3.50161791e-02  2.92814467e-02 -9.99760553e-02
  6.10477738e-02 -1.72794864e-01  6.80157393e-02  1.29369155e-01
  1.11600280e-01  7.17597380e-02  4.38347925e-03 -1.82911471e-01
 -3.73180583e-03  9.56243202e-02 -1.46743760e-01  3.61276045e-02
  1.13644652e-01 -7.91230723e-02  2.60031205e-02 -1.47515899e-02
  1.27433389e-01  9.40498337e-02 -9.53606516e-02 -1.23543143e-01
  1.40946329e-01 -1.00002542e-01 -3.83800119e-02 -1.13208191e-02
 -1.30744427e-01 -1.40969157e-01 -3.19200009e-01  1.57079138e-02
  3.29561919e-01  9.40989405e-02 -2.15844914e-01 -3.34545388e-03
 -1.19997859e-01  5.83194755e-02  8.79268497e-02  3.79781164e-02
 -9.07171592e-02  1.38007104e-03 -9.18799713e-02  5.68168005e-03
  1.98456839e-01 -2.66960207e-02 -7.08902106e-02  1.76284343e-01
 -3.34543847e-02  7.46912649e-03  5.93552850e-02  1.95562895e-02
 -5.57872951e-02  1.03535792e-02 -1.47874236e-01  4.26292717e-02
 -2.57444363e-02 -1.01170138e-01 -5.73307164e-02  1.66717917e-01
 -2.00300217e-01  1.05508722e-01  5.80500923e-02 -2.34487634e-02
 -5.40580153e-02  4.09741923e-02 -1.28140330e-01 -2.57710665e-02
  1.51756987e-01 -2.27846220e-01  2.23758265e-01  2.47336864e-01
  9.41617135e-03  9.22763348e-02  7.87869990e-02  5.71800768e-02
 -2.42379382e-02  1.05918874e-03 -1.57780647e-01 -8.28698054e-02
  1.08246796e-01  1.87095348e-02  8.35022554e-02  3.10701318e-02]