[-0.05617502  0.16269971  0.09510718 -0.02613103 -0.01856575 -0.09549391
 -0.03422805 -0.14868021  0.08232783  0.00578858  0.21535996 -0.04100806
 -0.20527601 -0.12858544 -0.01964482  0.1482269  -0.15451472 -0.09502294
 -0.07581135 -0.03388743  0.0466417   0.01797017  0.06406192  0.02586125
 -0.1343656  -0.27764103 -0.07195574 -0.12161225  0.02009217 -0.08574078
 -0.0939699   0.05221739 -0.16422343 -0.12227118  0.01718117  0.02606537
  0.00608409 -0.0334615   0.16540568  0.04991938 -0.17221485  0.06678637
 -0.00213883  0.29410484  0.23042984  0.01341021  0.05830823 -0.08375024
  0.11904099 -0.21672086  0.05803446  0.09461915  0.12361908  0.0444394
  0.00799489 -0.13093835 -0.01771369  0.0801169  -0.18484835  0.05410748
  0.09028789 -0.05661337 -0.0276896  -0.0460267   0.14788093  0.09483123
 -0.10812576 -0.06937214  0.111059   -0.11038875 -0.0545864   0.00784412
 -0.13195552 -0.13109715 -0.33324653  0.0165858   0.326249    0.0853982
 -0.24478908 -0.04925804 -0.12361952  0.04068832  0.07352744  0.02738786
 -0.07424468  0.03231092 -0.08479398  0.00407751  0.20539434 -0.06756841
 -0.05475039  0.21853793  0.01083393  0.04860255  0.03725839  0.05593229
 -0.05850057 -0.01279446 -0.14845882  0.02108486  0.00950808 -0.10288824
 -0.01860783  0.12963574 -0.20867205  0.12786534  0.04833883  0.00112322
 -0.01813241  0.00118155 -0.09915359 -0.05669624  0.1496613  -0.17240272
  0.19052474  0.24749927  0.03046598  0.07579542  0.06128564  0.00807026
 -0.03178438 -0.01280792 -0.10267172 -0.07332373  0.11109328  0.00203388
  0.04336117  0.02847574]