[-0.10862364  0.10459965  0.10284784 -0.04605539 -0.05967697 -0.10121184
 -0.04962424 -0.12081933  0.10372324 -0.01739335  0.2605322  -0.05035097
 -0.17809527 -0.09365957 -0.00734113  0.17179477 -0.17269777 -0.08445727
 -0.02296579  0.01078745  0.10338926 -0.00657245  0.06265371  0.01309851
 -0.10347996 -0.34957522 -0.13350825 -0.10196941  0.04201296 -0.03078871
 -0.08370579  0.01714199 -0.19404291 -0.11538827  0.04635149  0.08353673
 -0.00068797 -0.04881291  0.16046377  0.02782753 -0.18184581  0.08256385
  0.01276465  0.24618725  0.19195431  0.07936782  0.09858068 -0.13524048
  0.07851069 -0.12306576  0.04513959  0.10028742  0.11646668  0.03995813
 -0.02579649 -0.1229611   0.02946535  0.06220912 -0.17204316  0.0132565
  0.13393521 -0.0646153  -0.01880858 -0.03888666  0.21905354  0.06584046
 -0.1013392  -0.12169831  0.1445917  -0.07909061 -0.04506236  0.0041383
 -0.19398141 -0.13204609 -0.29569665  0.03470729  0.41426921  0.01887347
 -0.20923309  0.01278866 -0.12114828  0.04412638  0.0956184   0.09074476
 -0.02001796  0.01778829 -0.09941658  0.01517087  0.2237927  -0.12106337
 -0.00045136  0.16094187  0.02292186  0.08611606  0.03491179  0.03149593
 -0.03950572  0.04295536 -0.11140603  0.02942516 -0.01273234 -0.06953457
 -0.00618858  0.1067295  -0.19215609  0.08740104  0.04174403 -0.02055515
 -0.01187442  0.01727874 -0.09221601 -0.10902494  0.10251931 -0.21247311
  0.21355072  0.25747868  0.02761978  0.10479603  0.06126567  0.09824339
 -0.01466484  0.02703364 -0.15371934 -0.02812522  0.08197676  0.03419623
  0.04972722  0.02375461]