[-0.10144711  0.13726419  0.04722608 -0.01757438 -0.13752018 -0.08843842
  0.04211698 -0.15243161  0.11096054 -0.01701662  0.2630308  -0.04633202
 -0.29611549 -0.02454659 -0.09186547  0.16148429 -0.10885699 -0.13244097
 -0.14608495 -0.07998069  0.0411763   0.0346567   0.00771935  0.04539338
 -0.04013902 -0.33370414 -0.06956351 -0.02425119  0.08258615 -0.071828
 -0.00920111  0.09524474 -0.13925533 -0.11851483  0.07190844  0.02985104
 -0.06844943 -0.03403901  0.20438738  0.05495524 -0.21583079  0.01214771
  0.05893567  0.33159193  0.22390619  0.07746588  0.0576206  -0.10120218
  0.06136235 -0.23099802  0.04143243  0.12707859  0.14830422  0.04336191
  0.07863808 -0.1893115  -0.04171238  0.11482247 -0.17071919  0.0325197
  0.07365557 -0.11526872 -0.04251381 -0.10342105  0.19196256  0.09027625
 -0.12099727 -0.08824743  0.16605139 -0.18053798 -0.09506249  0.05126054
 -0.10210162 -0.11701482 -0.31329185  0.00787399  0.45783791  0.11765581
 -0.18573558 -0.03346933  0.00264354  0.03267528  0.10265531  0.08613568
 -0.13179648 -0.01169146 -0.10130727 -0.0277161   0.15033725 -0.01833618
 -0.10448273  0.1955273  -0.01279129  0.04706926  0.07358552  0.08251026
 -0.10135306 -0.02800765 -0.11196794 -0.06465151  0.0406194  -0.08304261
  0.03681663  0.09999656 -0.12511221  0.13024847 -0.03908962  0.06967784
 -0.02559452 -0.00479038 -0.03327511 -0.00764337  0.12911372 -0.22106901
  0.20860694  0.19688097 -0.06690025  0.0886715   0.07804384  0.01087104
 -0.00863668 -0.01716341 -0.11321767 -0.10847721  0.06406613 -0.05793179
  0.11342365 -0.00087072]