[-9.75148007e-02  1.24553762e-01  8.70796815e-02 -4.09435295e-02
 -8.90286490e-02 -5.79567393e-03 -1.10014519e-02 -1.02196991e-01
  8.80715027e-02 -2.98022609e-02  2.29053661e-01  1.59558039e-02
 -1.78041697e-01 -1.86783388e-01  4.33306769e-02  1.81299180e-01
 -1.87316358e-01 -1.81533620e-01 -9.36192125e-02 -7.18883798e-02
  5.35152666e-02  5.35996929e-02 -6.08084211e-03 -1.25579238e-02
 -1.57918766e-01 -3.09739321e-01 -6.68809637e-02 -1.00188687e-01
  1.35713637e-01 -1.04649223e-01 -8.60955566e-02  6.25726441e-03
 -1.48618415e-01 -1.01900958e-01  7.88560808e-02  8.58458206e-02
 -5.36575988e-02 -7.76674822e-02  2.07971483e-01 -2.20950264e-02
 -2.25583598e-01  6.87939897e-02  7.95454159e-02  2.66992271e-01
  2.26555347e-01  5.93032409e-03  4.22949269e-02 -3.97927724e-02
  1.37136251e-01 -1.92277998e-01  7.94111639e-02  1.19148135e-01
  9.99515057e-02  8.23462158e-02  5.21724485e-02 -1.25206664e-01
 -2.49472111e-02  9.35508236e-02 -2.20361575e-01  2.69273911e-02
  7.49569461e-02 -1.91629812e-01 -6.79472238e-02 -7.66260847e-02
  1.10050671e-01  6.04156666e-02 -8.42391327e-02 -2.14316726e-01
  1.38387159e-01 -1.51598915e-01 -1.06032312e-01  3.25367525e-02
 -9.74835679e-02 -6.91177472e-02 -3.41415733e-01 -1.20853854e-03
  3.87299806e-01  9.58084539e-02 -1.97577760e-01  8.33666697e-02
 -1.70535044e-04 -4.72600572e-02  7.47634619e-02  1.24469891e-01
 -2.52930056e-02  6.45248517e-02 -8.23059157e-02  3.46544012e-02
  1.70853302e-01 -3.17045338e-02 -1.17123518e-02  1.78322673e-01
  1.74096636e-02  8.00940618e-02  8.44796002e-02  6.82401061e-02
 -6.46369979e-02 -1.33047728e-02 -8.25967342e-02 -6.06691837e-03
  4.72442694e-02 -8.24910998e-02  4.69407775e-02  1.02548741e-01
 -1.31175742e-01  2.15349555e-01  1.72900297e-02  7.61301741e-02
 -3.09837908e-02 -3.53450179e-02 -3.34489830e-02  3.41775268e-03
  1.19492948e-01 -2.38112286e-01  2.09362075e-01  2.13643223e-01
 -8.70493054e-03  9.61797386e-02  1.00902759e-01  1.21241314e-02
 -1.30694797e-02 -1.53257763e-02 -2.11526439e-01 -9.01802108e-02
  3.82381044e-02 -5.95940724e-02  1.11479715e-01  8.45719278e-02]