[-0.11066792  0.17848802  0.12445444 -0.00262879 -0.02751889 -0.11737561
 -0.02199269 -0.19371031  0.12676437 -0.04725648  0.2924577  -0.03749078
 -0.21524607 -0.09695017 -0.01849194  0.19329318 -0.20542446 -0.10194731
 -0.00871808  0.00411256  0.07886302 -0.02901764  0.0791501   0.01275465
 -0.08169783 -0.31335959 -0.13964085 -0.10123801  0.05777394  0.04699245
 -0.06129004  0.01059712 -0.18045838 -0.11010974  0.04462684  0.04125401
 -0.01291219 -0.03567028  0.2008128   0.01410314 -0.16088919  0.0335031
 -0.01821761  0.26853734  0.17055321  0.06206917  0.09137779 -0.15417154
  0.04610909 -0.17151926  0.02229724  0.12180143  0.08098831  0.04791335
 -0.02065299 -0.1873311   0.03475346  0.06292395 -0.1538792  -0.00591205
  0.11727538 -0.07350291 -0.00103728 -0.01888801  0.25028279  0.06869706
 -0.12385356 -0.08115648  0.12522499 -0.07030199 -0.02905238 -0.01083156
 -0.18247226 -0.14529641 -0.344897    0.02387347  0.44769594  0.05204269
 -0.19048882  0.00744475 -0.1413786   0.05667191  0.11580857  0.09502412
 -0.06659388  0.01467841 -0.12225791 -0.00498276  0.17114888 -0.12610373
 -0.02551386  0.1961184  -0.00684983  0.1002934   0.0159869   0.02642094
 -0.03811599  0.02240868 -0.12902032  0.01770392 -0.00951321 -0.04869456
  0.00761952  0.12350225 -0.21644834  0.04710972  0.05225867 -0.01246326
 -0.01948762  0.00346348 -0.10788121 -0.09004682  0.11249771 -0.21318772
  0.21483116  0.26620343 -0.00488014  0.13074791  0.1021106   0.06335328
 -0.04118812 -0.00248565 -0.12939511 -0.020393    0.08994127  0.0305109
  0.06042441  0.01568066]