[-0.05419606  0.16002899  0.08232971 -0.01908034 -0.01922694 -0.09093726
 -0.04627973 -0.15779689  0.0717697  -0.00188456  0.23797381 -0.05651046
 -0.20364943 -0.13604438 -0.02398995  0.16057171 -0.16570155 -0.10841852
 -0.07320382 -0.02131013  0.0415255   0.00570538  0.06813169  0.02274329
 -0.13229047 -0.28568974 -0.08062664 -0.12464517  0.02950598 -0.07337251
 -0.10493238  0.04249132 -0.16965507 -0.12956302  0.03372625  0.02214547
  0.01727505 -0.02479152  0.17221873  0.03913632 -0.18142222  0.08202396
  0.01164351  0.29773083  0.22743896  0.02912465  0.05951893 -0.10097896
  0.10800804 -0.19808196  0.05276115  0.10047038  0.12454903  0.04470183
 -0.00322092 -0.13086127 -0.0159158   0.08687895 -0.1712925   0.05691848
  0.09119787 -0.04529287 -0.01399098 -0.04845154  0.16092964  0.08432244
 -0.10992911 -0.09011579  0.10260897 -0.11092384 -0.05752267  0.01715316
 -0.14617461 -0.13540623 -0.34340024  0.00362482  0.33554405  0.07272555
 -0.24185212 -0.03690489 -0.1022887   0.0310261   0.08517104  0.05322117
 -0.06039606  0.03140298 -0.08170886  0.00288399  0.2186728  -0.07961998
 -0.04798281  0.21130131 -0.00318813  0.05753492  0.03415783  0.06427877
 -0.05369139 -0.00310416 -0.14139846  0.02493578  0.00073546 -0.08571327
 -0.01349043  0.12953731 -0.19745398  0.10669974  0.03679537  0.01141276
 -0.01937606  0.00717772 -0.07567429 -0.06475111  0.14408655 -0.1792008
  0.19914815  0.25930908  0.03042278  0.06022909  0.06496903  0.0077699
 -0.02716988  0.00375159 -0.12060435 -0.0664045   0.09860065 -0.00979843
  0.05105421  0.02071819]