[-1.28142640e-01  1.46129608e-01  8.89407545e-02 -5.93801029e-02
 -1.54702902e-01  3.63718922e-04  3.15628685e-02 -1.45650566e-01
  1.14099242e-01 -1.00484133e-01  2.47394323e-01 -2.69249734e-02
 -2.38771036e-01 -4.13231589e-02 -5.37570529e-02  1.59234673e-01
 -1.38606891e-01 -1.91000819e-01 -9.58341286e-02 -8.34011585e-02
  6.37415797e-02 -7.28119677e-03 -5.93979321e-02  3.45150009e-02
 -1.09591894e-01 -3.07013780e-01 -5.50273769e-02 -4.56821918e-03
  1.38991654e-01 -8.10476542e-02 -3.99004184e-02  8.17344114e-02
 -1.85640991e-01 -7.20978081e-02  3.34093533e-02  1.06955729e-01
 -6.30437657e-02 -3.67207341e-02  1.54832110e-01  1.10862199e-02
 -2.46020317e-01  2.61457767e-02  6.76502213e-02  3.35112393e-01
  1.99619234e-01  2.84815673e-02  2.91222762e-02 -7.43143260e-02
  7.51370043e-02 -2.30577782e-01  3.20295766e-02  1.34435937e-01
  1.58350185e-01  9.94904265e-02  2.81831231e-02 -1.79417595e-01
 -7.49761611e-03  7.47370869e-02 -1.62396342e-01  3.38701941e-02
  6.51096851e-02 -1.43836126e-01 -1.55655004e-03 -1.05720319e-01
  1.98079988e-01  8.88161808e-02 -8.53012949e-02 -1.43066034e-01
  1.74726769e-01 -1.60636961e-01 -9.24225524e-02  7.28499889e-02
 -1.03307717e-01 -9.40760002e-02 -2.72174925e-01 -1.04957344e-02
  4.72813994e-01  1.61180213e-01 -1.73688516e-01  1.26427189e-02
 -4.91823666e-02 -1.32605201e-02  9.95153487e-02  1.06791317e-01
 -7.60973766e-02  5.02428822e-02 -6.96615055e-02  5.52684553e-02
  2.16645673e-01 -4.15674411e-02 -6.30080327e-02  1.94390655e-01
  4.25917767e-02  4.81824577e-02  4.85096201e-02  3.94293331e-02
 -7.84347877e-02  4.05335287e-03 -1.31180853e-01 -8.29184279e-02
 -1.42507628e-02 -6.96749240e-02  5.21499179e-02  1.14540897e-01
 -1.75519481e-01  2.14029476e-01  3.08676697e-02  8.13354030e-02
 -1.99652147e-02  2.56734025e-02 -2.84603070e-02 -4.40942589e-03
  1.26632810e-01 -2.50729680e-01  2.10431799e-01  2.35751733e-01
  4.36894363e-03  8.96589980e-02  9.84381139e-02 -5.09504369e-03
  3.14225443e-02 -5.80564141e-02 -1.18941069e-01 -7.34823421e-02
  6.36492446e-02 -1.06033802e-01  1.06559552e-01  3.66242193e-02]