[-0.07832917  0.13990121  0.10263097 -0.0426519  -0.0455362   0.00244947
 -0.02171466 -0.06150105  0.11373316 -0.02046265  0.22741278  0.05818762
 -0.26579067 -0.17101049  0.05453889  0.12532195 -0.13393278 -0.11527357
 -0.12839559 -0.10310137  0.02362416  0.05456926  0.02340949 -0.03001328
 -0.17852572 -0.30027106 -0.05369844 -0.06476812  0.10009612 -0.14596872
 -0.06670678  0.02535463 -0.18851773 -0.12311484  0.05104801  0.08165707
 -0.05957259 -0.04427593  0.20841038  0.02516095 -0.16837084  0.06789005
  0.04691819  0.28419605  0.20443881 -0.00734178  0.03404234 -0.0308791
  0.15207981 -0.20842098  0.08628237  0.14484493  0.14645839  0.07455695
  0.10742731 -0.17172296 -0.04796808  0.13012861 -0.20178747  0.07418384
  0.04921484 -0.14263254 -0.09734201 -0.10141271  0.10754873  0.06932812
 -0.11737438 -0.17271776  0.16432177 -0.08977266 -0.02514908  0.07349507
 -0.1002365  -0.08735425 -0.30309585  0.04555706  0.30819854  0.09874313
 -0.23628287  0.01591901 -0.06756551 -0.02145551  0.01418867  0.05118385
 -0.0675104   0.05417838 -0.04479132  0.04008954  0.13351071  0.01658496
 -0.03058864  0.19567864  0.02363247  0.06123751  0.07794181  0.0343789
 -0.1294748  -0.06999311 -0.13623063 -0.01151594  0.04017453 -0.18032251
  0.03031582  0.09881712 -0.14665979  0.20383191  0.04620184  0.05340821
 -0.00210348  0.02047297 -0.08791649 -0.00539635  0.14591698 -0.28837979
  0.260196    0.19946653 -0.02837902  0.08506338  0.09797885  0.0475224
 -0.0288436   0.00823815 -0.13085632 -0.12911317  0.02571441 -0.06292959
  0.08746298  0.04375122]