[-0.10556179  0.14367995  0.09120433 -0.03856675 -0.03258569 -0.10965519
 -0.0577294  -0.17732519  0.13558856 -0.07838206  0.27510962 -0.0328575
 -0.21175814 -0.11044984 -0.03011234  0.19610229 -0.23947544 -0.13282077
  0.00377474  0.03879404  0.08100711 -0.02810369  0.06660274  0.02340947
 -0.03796185 -0.33905903 -0.16880308 -0.11157241  0.05903726 -0.02993445
 -0.08702184 -0.0020562  -0.17129505 -0.09059898  0.01127779  0.03272566
 -0.02005663 -0.04116492  0.17547019 -0.0047017  -0.17687911  0.05803872
  0.00296639  0.25174344  0.19587426  0.08274901  0.09990986 -0.17441706
  0.05725155 -0.13195899  0.03708889  0.12617144  0.11042731  0.06657474
 -0.02631983 -0.18731749  0.00688225  0.03840112 -0.1342164   0.04497647
  0.12945281 -0.03515276 -0.01183885 -0.01912414  0.25017902  0.06455666
 -0.13051152 -0.143362    0.14677845 -0.1230595  -0.06307148  0.02237023
 -0.19923075 -0.16407934 -0.30173156 -0.00959561  0.38721892  0.04177006
 -0.1797121   0.0295164  -0.11832649  0.04137125  0.09919108  0.1309271
 -0.04731822  0.04104995 -0.12152403 -0.00348319  0.19736747 -0.11622975
 -0.03259562  0.18640983  0.00385724  0.11131895  0.02992151  0.04602295
  0.0079959   0.02993724 -0.13468376  0.02583591 -0.02225543 -0.05134836
 -0.03878332  0.09472311 -0.13315335  0.07629588  0.04777969  0.03306095
 -0.04401075  0.02669713 -0.11186676 -0.09567247  0.11791077 -0.22492443
  0.24005917  0.26423439  0.03224912  0.10139596  0.07501286  0.1088846
 -0.03596244 -0.02148726 -0.1584522  -0.0132838   0.07784491  0.03534843
  0.06780794  0.02628202]