[-0.13353987  0.13365415  0.07010626  0.02761311 -0.07358636 -0.09782623
  0.03081431 -0.22746241  0.08362814 -0.07195301  0.20214324 -0.02931836
 -0.22162707 -0.1241667   0.01328955  0.16834038 -0.11408737 -0.17345111
 -0.0899452  -0.05158621  0.08929273 -0.0164225   0.03312933  0.03958153
 -0.12574211 -0.278896   -0.09473276 -0.03067058  0.03471426 -0.0229835
 -0.07467171  0.07908051 -0.19237153 -0.11327561  0.04286848  0.07642355
 -0.03012629 -0.01808453  0.19662634 -0.02241524 -0.21821041  0.01763289
  0.10384669  0.25975746  0.19289231  0.01295249  0.0557935  -0.06671637
  0.07701395 -0.15916383  0.00626077  0.10191245  0.14854392  0.07246006
  0.01314095 -0.16570631 -0.00528549  0.05968682 -0.1508318   0.04016144
  0.08278755 -0.17446612 -0.06498391 -0.0392269   0.16414873  0.06430063
 -0.0696392  -0.15154529  0.12131095 -0.14906032 -0.10116446  0.04496088
 -0.15482032 -0.13964903 -0.36181992 -0.01933327  0.38776484  0.09915996
 -0.17868511  0.04602965 -0.01886798  0.03326693  0.11097485  0.10283295
 -0.04415948  0.07235947 -0.10271547  0.05683113  0.19761579 -0.05729858
 -0.08838607  0.18618992  0.02931688  0.08236121  0.03369891  0.03162999
 -0.01720153 -0.00122585 -0.15111451 -0.01231881  0.03490746 -0.03215779
  0.05037308  0.09417649 -0.14302231  0.10782339  0.02611075  0.07136765
 -0.06010004  0.00429976 -0.12375581 -0.01898132  0.0670684  -0.21309116
  0.20530796  0.23711827 -0.03618499  0.06623574  0.09465008  0.00192358
  0.02728233  0.00923981 -0.12868021 -0.06235768  0.13637595 -0.03134459
  0.13189285  0.04356491]