[-0.06853932  0.14208318  0.11189961 -0.03905474 -0.0221186   0.00231926
 -0.03992441 -0.06477286  0.11326844 -0.02181255  0.2450168   0.0576726
 -0.27185321 -0.1587601   0.05011089  0.11207817 -0.14666842 -0.12894167
 -0.11525925 -0.10103323  0.03354292  0.05951452  0.01929574 -0.04214331
 -0.18383671 -0.30208904 -0.06579443 -0.07754717  0.09567787 -0.14450113
 -0.07341733  0.01640043 -0.17421196 -0.11375803  0.06615098  0.07244569
 -0.03996838 -0.0458197   0.230682    0.01646324 -0.16348875  0.06128777
  0.04959243  0.28025898  0.20656478 -0.00082244  0.03575394 -0.03864622
  0.13928454 -0.21759284  0.09048412  0.17363971  0.13746463  0.07804602
  0.11103451 -0.17951433 -0.06330433  0.12524824 -0.1988896   0.07458799
  0.04634246 -0.13466001 -0.09574577 -0.10425736  0.11177538  0.06469713
 -0.14016652 -0.18419041  0.14893784 -0.09577782 -0.04490235  0.07481513
 -0.11590576 -0.1005578  -0.31588775  0.04538448  0.31527209  0.08967068
 -0.23665428  0.04594589 -0.06516548 -0.03795714  0.01248457  0.05804123
 -0.06515931  0.07059114 -0.03939398  0.04133741  0.13929732  0.01922548
 -0.04058249  0.1836082  -0.00900541  0.07707217  0.08197509  0.06072342
 -0.11397684 -0.07960559 -0.13948421 -0.00059997  0.04136535 -0.16121721
  0.01798488  0.11005414 -0.14655744  0.18409674  0.03145554  0.03861325
 -0.016707    0.00672059 -0.0908691   0.00108373  0.15835635 -0.31238589
  0.25350562  0.20568228 -0.0303983   0.08611952  0.10441542  0.03405071
 -0.02102168  0.0112038  -0.15312703 -0.13829973  0.01493483 -0.04757776
  0.08646583  0.0358604 ]