[-0.11041545  0.13692258  0.11486711 -0.02849598 -0.02348569 -0.141086
 -0.03670492 -0.17205243  0.11221626 -0.06550736  0.29907474 -0.03033817
 -0.17263272 -0.1380785   0.0180799   0.18723631 -0.2091056  -0.09705314
 -0.02515514 -0.00203073  0.07958945 -0.04712919  0.10105373 -0.00279878
 -0.10337237 -0.31071872 -0.16000679 -0.1139011   0.04776918  0.03309951
 -0.04679142 -0.0020359  -0.19883607 -0.11633032  0.03477527  0.02709494
 -0.0004069  -0.02306193  0.21049094 -0.00949135 -0.17147993  0.03709778
 -0.002209    0.23527436  0.16201638  0.05517347  0.08334064 -0.13502447
  0.06907338 -0.12981708  0.04497433  0.10525518  0.10019457  0.04431695
 -0.01133631 -0.12129489  0.06206659  0.07491016 -0.161717   -0.02657307
  0.11932637 -0.07166463 -0.03791567 -0.00638214  0.23342334  0.05612688
 -0.10752364 -0.10556604  0.13747297 -0.04932847 -0.02116162  0.02070819
 -0.18311439 -0.1388668  -0.33806905  0.00593259  0.40325734  0.03627179
 -0.20098053  0.02053001 -0.1575731   0.04574556  0.10724133  0.07790833
 -0.04163318  0.04331657 -0.11853184  0.01148924  0.15923585 -0.13754158
 -0.00821118  0.20377867  0.02893152  0.09425917  0.02132507  0.019809
 -0.01975713  0.00977617 -0.12908457  0.02234266  0.02401536 -0.02430569
 -0.01215966  0.09871229 -0.20862988  0.06263429  0.06492535 -0.0058722
 -0.02302783  0.00657723 -0.08772494 -0.12204363  0.07707696 -0.21842651
  0.17822324  0.25489676 -0.01811118  0.11607745  0.08298595  0.06570157
 -0.05607486 -0.01908963 -0.14831281 -0.01620611  0.09624939  0.0496018
  0.05960875  0.02492248]