[-9.94856283e-02  1.45109981e-01  1.16832249e-01 -2.12611407e-02
 -3.58716510e-02 -1.21156015e-01 -3.91532294e-02 -1.72753498e-01
  1.17305994e-01 -7.57277533e-02  2.91189045e-01 -5.32655492e-02
 -1.95283100e-01 -1.07216753e-01 -5.97308902e-03  1.98305279e-01
 -2.16714904e-01 -1.12056039e-01 -1.87027287e-02  7.21514243e-06
  7.39002749e-02 -3.77229713e-02  7.43769556e-02 -8.68740585e-03
 -1.04498997e-01 -3.18841070e-01 -1.44244775e-01 -9.68543366e-02
  3.15443054e-02  3.72835994e-02 -5.98429218e-02  2.02844664e-02
 -2.00159937e-01 -1.12645425e-01  4.75541912e-02  3.80476527e-02
  8.93663149e-03 -3.23966779e-02  2.01989129e-01 -1.69005245e-03
 -1.74867496e-01  3.70882191e-02 -5.15304528e-05  2.45732531e-01
  1.62527263e-01  5.36687970e-02  8.15554410e-02 -1.43544361e-01
  5.83660081e-02 -1.31006226e-01  1.24282585e-02  1.19772248e-01
  8.98137689e-02  4.55322526e-02 -3.37934308e-02 -1.43463641e-01
  4.31770794e-02  7.28359073e-02 -1.41373798e-01 -3.23359817e-02
  1.24935664e-01 -7.61850551e-02 -2.04264596e-02 -2.92963274e-02
  2.50323147e-01  4.90211211e-02 -1.19284652e-01 -1.18853770e-01
  1.27510712e-01 -5.56244552e-02 -3.67872529e-02  4.19616699e-05
 -1.92202389e-01 -1.33835480e-01 -3.43322694e-01 -4.42420685e-04
  4.18519229e-01  2.33140402e-02 -1.96529552e-01  2.51215436e-02
 -1.44594520e-01  4.58296798e-02  1.13839559e-01  1.04323886e-01
 -3.12528834e-02  4.05644365e-02 -1.03617802e-01  6.35402370e-03
  1.86527833e-01 -1.34468600e-01 -2.45764554e-02  1.78049907e-01
 -5.51443954e-04  9.64282975e-02  1.42122805e-02  1.19274706e-02
 -2.26883180e-02  2.76068635e-02 -1.23030305e-01  3.69172916e-02
 -3.33786616e-03 -2.98555139e-02 -1.30029386e-02  1.18786089e-01
 -1.99453339e-01  5.03468476e-02  4.96761985e-02  1.86606182e-03
 -2.09794510e-02  9.85115860e-03 -9.51178595e-02 -1.12756148e-01
  9.33521986e-02 -2.30012372e-01  1.86755925e-01  2.60567546e-01
 -1.48815131e-02  1.15703307e-01  9.44152102e-02  7.00122342e-02
 -4.29025404e-02  1.21180136e-02 -1.64994135e-01 -2.58404259e-02
  9.36847255e-02  3.88319790e-02  6.85895011e-02  1.50019526e-02]