[-0.11442474  0.10263433  0.09301951 -0.02658453 -0.04862753 -0.08077583
  0.02582383 -0.23692992  0.14272377 -0.1267923   0.24135713 -0.09094824
 -0.20951484 -0.12155967  0.00307652  0.18335117 -0.11170387 -0.17397411
 -0.05476848 -0.04562403  0.1115884  -0.06954183  0.0059139   0.04928353
 -0.14310728 -0.29192209 -0.15190689 -0.03141241  0.06321216 -0.03287671
 -0.06771622  0.08130284 -0.18506978 -0.1245962   0.01676017  0.07745193
 -0.01326395 -0.06490566  0.14738968 -0.02673557 -0.23816346  0.03622444
  0.05260844  0.25732288  0.15519117  0.00682318  0.05407597 -0.10277517
  0.09500145 -0.16234137  0.02802813  0.09563248  0.13160294  0.07527158
  0.01157807 -0.1260836   0.01650101  0.08018317 -0.16502236  0.04867763
  0.10722152 -0.12129964 -0.04183043 -0.04734925  0.14781898  0.11042675
 -0.0949851  -0.15061991  0.12861691 -0.11590268 -0.07006983  0.03960363
 -0.18593404 -0.14691959 -0.35736394 -0.00406252  0.42540732  0.08498876
 -0.18867721  0.03487549 -0.05227008  0.07206627  0.12963845  0.12039933
 -0.02558765  0.07000668 -0.07599197  0.04668805  0.19654259 -0.07531265
 -0.09730039  0.21207221  0.006456    0.08367007  0.02498681  0.06310035
 -0.02624321 -0.00460446 -0.14700785 -0.02564214  0.05340102  0.00386054
  0.01880177  0.10805134 -0.16186543  0.15382478  0.05352035  0.08053192
 -0.01917922  0.02029615 -0.11129089 -0.02695551  0.07507253 -0.22089915
  0.16921429  0.23845904  0.00819626  0.05670681  0.10550018 -0.00274215
  0.0394529  -0.0195252  -0.12232625 -0.04054072  0.13194646 -0.01758956
  0.08561367  0.01756294]