[-0.12234079  0.14338864  0.08914379 -0.06421246 -0.13352086 -0.02218547
  0.01166225 -0.14911826  0.12111818 -0.11887722  0.2206066  -0.02053522
 -0.22525203 -0.04029458 -0.05462432  0.16624872 -0.14820345 -0.19026814
 -0.09736373 -0.06856065  0.06655642 -0.01411284 -0.05360145  0.03756111
 -0.10378646 -0.30837432 -0.05340562  0.00244913  0.12336452 -0.06565975
 -0.04445055  0.07614399 -0.18714763 -0.06689756  0.04040669  0.11513072
 -0.05502812 -0.02005792  0.14897399  0.0122047  -0.25328088  0.02532898
  0.05958826  0.31769094  0.21943168  0.04171406  0.02476915 -0.07994699
  0.07630205 -0.23581949  0.01773332  0.13773653  0.14931834  0.09638218
  0.03055643 -0.18711279  0.00450421  0.06457997 -0.16272776  0.02442682
  0.05915077 -0.14823662  0.00171921 -0.07902866  0.2067219   0.07537773
 -0.09851836 -0.14103429  0.18265088 -0.16590743 -0.07304913  0.06606767
 -0.10130707 -0.101272   -0.27936265 -0.0265084   0.46656069  0.16813913
 -0.16758645  0.02577721 -0.06880899 -0.00604758  0.08846481  0.10420697
 -0.07720633  0.05337924 -0.06658982  0.04927744  0.20614295 -0.03608666
 -0.06112224  0.19447665  0.03602527  0.05422217  0.03505334  0.03004396
 -0.08418181 -0.00066606 -0.13768661 -0.09242991 -0.01539727 -0.05913063
  0.05922455  0.12986796 -0.18087406  0.20765923  0.02118643  0.08130654
 -0.01614342  0.04919381 -0.04034091 -0.02302024  0.11851018 -0.24451582
  0.20904718  0.25165686  0.01224347  0.08428863  0.1032028  -0.00652487
  0.03513011 -0.04884942 -0.11814421 -0.06917933  0.05235275 -0.09944322
  0.11244418  0.03856941]