[-0.10740985  0.1744058   0.12702377 -0.05568808 -0.12391388 -0.04383786
 -0.00123003 -0.12746127  0.15653569 -0.10761606  0.23257194 -0.02001113
 -0.21017642 -0.0267997  -0.08634787  0.1555779  -0.10785087 -0.15387519
 -0.09133434 -0.0462123   0.09265034 -0.01035741 -0.03857227  0.03165847
 -0.10052617 -0.30056337 -0.05443135  0.01376959  0.09797734 -0.04674253
 -0.05149095  0.06086918 -0.2014945  -0.11050536  0.03250098  0.09892812
 -0.05621091 -0.00249052  0.16074423  0.02215642 -0.26470837  0.05457753
  0.0261151   0.3272492   0.22873364  0.05301769  0.03385223 -0.10162755
  0.11285379 -0.23499782  0.02910583  0.159922    0.14195456  0.08102926
  0.03403833 -0.15490268 -0.00166362  0.09622331 -0.15497859  0.00963712
  0.0799145  -0.13774863  0.00273889 -0.09625445  0.2016371   0.07874085
 -0.10097217 -0.12181562  0.17365186 -0.14735387 -0.04282817  0.06781721
 -0.11654724 -0.09797119 -0.28629071  0.01310033  0.47355404  0.15948994
 -0.16445689  0.0320812  -0.08335178  0.03740125  0.07791457  0.10740741
 -0.07808768  0.07380704 -0.04648892  0.03522762  0.19102615 -0.04765755
 -0.05550554  0.20167446  0.03382251  0.05035933  0.03688959  0.01643988
 -0.10335784 -0.01671232 -0.1492819  -0.07610001 -0.01358609 -0.04928635
  0.06352933  0.12352879 -0.19745569  0.18945281 -0.00296994  0.08335419
 -0.00426365  0.04075559 -0.0223941  -0.04229461  0.11152265 -0.21263137
  0.20829408  0.20189703 -0.01033233  0.08907521  0.116032    0.01528523
  0.02440966 -0.02246953 -0.08071782 -0.07266971  0.06905137 -0.07783762
  0.13917917  0.01038081]