[-1.12701572e-01  1.72500923e-01  1.41441897e-01  6.59955433e-03
 -1.98453628e-02 -1.26556784e-01 -1.07039614e-02 -1.94053307e-01
  1.16409555e-01 -4.10302691e-02  2.98879504e-01 -3.42249982e-02
 -2.12076291e-01 -8.67314860e-02 -1.45405727e-02  1.89276159e-01
 -2.03499705e-01 -1.01450346e-01 -6.57746056e-03  1.76130605e-04
  8.03521797e-02 -1.59706064e-02  8.45890865e-02  1.65430736e-02
 -9.34653208e-02 -3.03101629e-01 -1.43676013e-01 -1.09007947e-01
  6.65497556e-02  3.78209688e-02 -6.10241592e-02  1.07923453e-03
 -1.76403582e-01 -1.00496843e-01  4.72729616e-02  3.63451615e-02
 -1.03029935e-02 -3.01561784e-02  2.06735060e-01  2.63113435e-02
 -1.63043246e-01  2.83175241e-02 -1.95985083e-02  2.72470146e-01
  1.75190806e-01  6.95325732e-02  8.69063661e-02 -1.50983021e-01
  3.08004264e-02 -1.71865851e-01  3.26778293e-02  1.20874219e-01
  8.33976343e-02  4.59197536e-02 -1.85350124e-02 -1.93350628e-01
  2.89533231e-02  5.40225469e-02 -1.67576149e-01  3.21920146e-03
  1.21495537e-01 -6.29052073e-02  1.14837280e-02 -2.02558120e-03
  2.42381483e-01  6.56357408e-02 -1.24903359e-01 -7.20374510e-02
  1.32105634e-01 -8.38623568e-02 -2.81677004e-02 -4.78233909e-03
 -1.79172233e-01 -1.46639213e-01 -3.42206478e-01  1.40529666e-02
  4.49896783e-01  5.10059372e-02 -1.91458151e-01 -6.82580867e-04
 -1.44885510e-01  5.50219491e-02  1.18284129e-01  8.28469098e-02
 -7.27818683e-02  1.67133007e-02 -1.27328858e-01 -4.02082643e-03
  1.64746985e-01 -1.16767585e-01 -2.59657055e-02  1.97257265e-01
 -1.01114688e-02  8.95137712e-02  2.54818983e-02  3.47955190e-02
 -4.09674533e-02  1.69670712e-02 -1.27575994e-01  8.59447103e-03
 -2.32640356e-02 -4.86680157e-02  1.20408153e-02  1.32059500e-01
 -2.20891878e-01  5.43816984e-02  5.28348759e-02 -2.48455387e-02
 -3.12423017e-02  1.43700456e-02 -1.15994968e-01 -9.00692791e-02
  1.16007499e-01 -2.12074354e-01  2.10920408e-01  2.70806283e-01
 -1.69626977e-02  1.23042606e-01  9.30623040e-02  6.29645735e-02
 -4.91359308e-02 -4.37861308e-03 -1.26298651e-01 -1.90505516e-02
  7.92575926e-02  2.05818713e-02  6.98890164e-02  1.87609922e-02]