[-0.18259645  0.03384386 -0.00111349 -0.08363207 -0.10396838 -0.04297078
 -0.0490583  -0.10847648  0.12956892 -0.10430083  0.22775817 -0.05866925
 -0.20580974 -0.07856074 -0.0673907   0.17692839 -0.14397922 -0.14726172
  0.01941588 -0.01577951  0.08085743 -0.0442848   0.04997295  0.11660873
 -0.17563848 -0.37459314 -0.12142844 -0.07450544 -0.05079491 -0.00653589
 -0.01344175  0.03353674 -0.24801019 -0.04771357  0.02748923  0.10226662
  0.01950871 -0.03000283  0.17885804  0.03352446 -0.26539978 -0.03193069
  0.09562505  0.29269704  0.14994119  0.07877052  0.01532866 -0.09965641
  0.1000597  -0.16416515  0.07232129  0.1382107   0.04773546 -0.01935527
  0.00192243 -0.06229286  0.05603699  0.14016065 -0.16175157 -0.02019467
  0.05945377 -0.03622593  0.00171939 -0.11299451  0.22818492  0.08586884
 -0.10526191 -0.10259574  0.16795175 -0.16113222 -0.02958766  0.04938994
 -0.14815687 -0.23595719 -0.32570776  0.01363885  0.40516821  0.17723566
 -0.11907928  0.0828601  -0.03112366 -0.00214107  0.14196371  0.17533691
  0.0063825   0.07784189 -0.06327996  0.02977542  0.22609384 -0.02892546
  0.0060873   0.23254783  0.00349943  0.02724994  0.04558346  0.04221165
 -0.10038441  0.02628565 -0.14630361 -0.0007269  -0.02811168  0.0118521
  0.03791595  0.09815582 -0.20133427  0.07107695  0.01013732 -0.02750635
 -0.01705783  0.03840959 -0.05727173 -0.14572583  0.04650998 -0.21240294
  0.11703541  0.17733948  0.02742339  0.15203197  0.10941547  0.07612875
 -0.00277213 -0.03262631 -0.16997015 -0.00847316  0.10071854 -0.06142327
  0.12920979 -0.00712274]