[-1.59350306e-01  7.64835849e-02  5.25666475e-02 -3.29932421e-02
 -1.53179750e-01 -2.16502864e-02 -6.32125661e-02 -9.50196311e-02
  1.04498208e-01 -9.05820876e-02  1.81678653e-01 -8.91587138e-02
 -2.24531889e-01 -2.15918031e-02 -6.33548573e-02  2.30821416e-01
 -9.56832990e-02 -1.25798211e-01 -7.99522456e-03 -1.98893994e-02
  4.01980281e-02 -2.05149851e-03  1.83525532e-02  7.65744001e-02
 -1.56301543e-01 -3.82606924e-01 -1.26344725e-01 -4.74464297e-02
 -8.05517137e-02 -3.56406868e-02 -6.52219504e-02  4.08282466e-02
 -1.66233212e-01 -4.93657738e-02  6.89931214e-02  9.87776369e-02
 -7.08430493e-03 -4.61570509e-02  1.57432407e-01  3.52257639e-02
 -2.54519373e-01  6.69917464e-03  1.11247078e-01  3.07296276e-01
  1.70617685e-01  1.09436035e-01  6.36071488e-02 -1.16780415e-01
  7.98512176e-02 -1.65185317e-01  4.64246348e-02  1.09982900e-01
  2.93042939e-02  1.65950961e-03 -6.99737435e-03 -1.10189214e-01
  3.67875658e-02  1.36616662e-01 -1.63424477e-01 -1.36268651e-02
  9.11145732e-02 -5.72912693e-02 -1.91556048e-02 -8.36717114e-02
  2.72177547e-01  9.05574411e-02 -1.32042155e-01 -1.10765770e-01
  1.50747508e-01 -1.64444253e-01 -2.59612985e-02  9.78993811e-03
 -1.52729809e-01 -2.16682360e-01 -3.34093958e-01  3.53653741e-04
  4.36669409e-01  1.58336312e-01 -1.42111376e-01  6.14872463e-02
 -3.17951553e-02  2.89798621e-02  1.27092183e-01  1.95182338e-01
 -8.06701090e-03  4.22162600e-02 -6.10003583e-02  2.11390853e-02
  2.34211788e-01 -4.79367152e-02  1.35238161e-02  2.11313918e-01
  2.84777824e-02  2.19285917e-02  1.30711822e-02  6.02199137e-02
 -1.15495861e-01  2.12765485e-03 -1.03092216e-01 -3.19145508e-02
 -1.13919601e-02 -4.71770717e-03  5.69013953e-02  1.28288850e-01
 -2.41383463e-01  1.37716517e-01 -1.40977846e-02  5.02391160e-03
 -1.66374277e-02  2.25770418e-02 -3.85278910e-02 -8.23990330e-02
  9.43481848e-02 -2.33085230e-01  8.36071372e-02  2.00221255e-01
  1.65137651e-04  1.47696972e-01  1.06505059e-01  8.26034471e-02
  8.53338861e-04 -1.35608977e-02 -1.88554198e-01 -1.70841608e-02
  8.10619220e-02 -6.78761899e-02  1.34901926e-01  3.44415680e-02]