[-0.17167735  0.05671674  0.06070369 -0.05961227 -0.12114175 -0.05270611
 -0.04389324 -0.11081839  0.11810181 -0.07908489  0.14529361 -0.09331699
 -0.24423409 -0.05101135 -0.07078123  0.24009708 -0.12340038 -0.12340367
  0.04010803 -0.03935287  0.05791677 -0.02203605  0.0394811   0.0834097
 -0.16024883 -0.36897802 -0.12804808 -0.04154935 -0.11765106 -0.00802194
 -0.01200702  0.09099807 -0.19031028 -0.02814267  0.03441156  0.11021435
  0.01893913 -0.09432405  0.14160699  0.05250162 -0.27133289 -0.0068949
  0.11580919  0.28452918  0.15012234  0.05929646  0.06102929 -0.10254226
  0.13831404 -0.1755839   0.00670113  0.11952462  0.01695637 -0.02813761
 -0.0179689  -0.09938364  0.06455046  0.12097692 -0.17031579 -0.04579892
  0.07781771 -0.04824987 -0.0358618  -0.08550046  0.22794726  0.12395658
 -0.1355366  -0.10331418  0.15396646 -0.14020623 -0.02502675  0.01945555
 -0.1899064  -0.21659003 -0.33895829  0.02551339  0.39971551  0.10325189
 -0.10539762  0.07127076 -0.01451712  0.07463293  0.12465518  0.25360546
  0.00085379  0.04788056 -0.0454838   0.01787022  0.21427624 -0.06358831
 -0.02104482  0.20868807  0.02404841  0.04484501 -0.0135102   0.06556513
 -0.09661248  0.03506481 -0.10903565  0.00888786  0.02811927  0.01565831
  0.02939494  0.12348057 -0.22268339  0.09094696  0.00391899 -0.00724145
 -0.00611254 -0.00420836 -0.03493037 -0.0765183   0.03982081 -0.22177719
  0.10168052  0.20184086 -0.03463854  0.13739967  0.10180429  0.08118205
  0.01890555 -0.01772454 -0.15520695 -0.01895883  0.11957275 -0.04733083
  0.07551472 -0.01374956]