[-0.12254434  0.106163    0.09817419 -0.03277665 -0.14677976  0.03109935
 -0.07910404 -0.11576845  0.14102647 -0.09642106  0.21059541 -0.05310442
 -0.21793972 -0.0259791  -0.09391226  0.23005919 -0.12553303 -0.16913712
  0.01759166 -0.05073671  0.02613484 -0.02844357  0.07965382  0.05451214
 -0.17048745 -0.38267273 -0.07884862 -0.01697577 -0.08217274 -0.02707012
 -0.05729444  0.07254437 -0.2022572  -0.01202291  0.03216788  0.10688406
 -0.02210794 -0.09032308  0.15161788  0.03427455 -0.25432444 -0.02450928
  0.09463202  0.27979988  0.15934616  0.04425295  0.06299191 -0.09717378
  0.10574184 -0.18106459  0.03752708  0.1356696   0.02542625 -0.01383522
  0.00747886 -0.10410421 -0.00702318  0.15455733 -0.08263333 -0.02729024
  0.04430658 -0.03138874 -0.02610721 -0.17701422  0.20608298  0.12571757
 -0.09988589 -0.13368259  0.15166016 -0.0984958  -0.06373154  0.04379883
 -0.17112648 -0.21611932 -0.32390225 -0.01376428  0.43242201  0.13950966
 -0.10110015  0.03592462  0.00889152  0.0315506   0.04379801  0.21290515
 -0.03693063  0.10066598 -0.05597265  0.03215177  0.21536517 -0.04050605
 -0.04292765  0.20688216 -0.00900917  0.04878872 -0.00115804  0.05952188
 -0.09261672  0.06443154 -0.16257556 -0.03738419 -0.03116263  0.00334643
  0.03129366  0.11453425 -0.21633421  0.08261877 -0.01619246  0.02656699
  0.00400899  0.04685567 -0.03673859 -0.08340716  0.08286001 -0.24077335
  0.04917901  0.21699309  0.0277413   0.14697918  0.11998589  0.08177526
  0.02052339 -0.0157651  -0.16977631 -0.02252275  0.06420092 -0.06250284
  0.06681351  0.04429228]