[-0.09777258  0.08495482  0.0444991  -0.06130102 -0.13848566 -0.04678062
 -0.03964927 -0.09947379  0.16565613 -0.05560574  0.17782739 -0.05602843
 -0.21607284 -0.04476446 -0.07800284  0.23849486 -0.14752214 -0.14003797
  0.02690778 -0.02154931  0.11576618 -0.0147995   0.05388116  0.09353306
 -0.19025438 -0.37300628 -0.13575436 -0.06925398 -0.03722149 -0.02053264
 -0.04253107  0.07912775 -0.20092086 -0.05500025  0.0564549   0.07369887
 -0.00269853 -0.08335637  0.18130726  0.06218401 -0.28921741  0.00358788
  0.06837425  0.27729899  0.15148106  0.0400525   0.07831126 -0.11305936
  0.11691096 -0.1632999   0.05057586  0.14119723  0.01690342  0.00947983
 -0.02459338 -0.06698847  0.06205244  0.17790286 -0.22641671 -0.01736668
  0.11219571 -0.10566427 -0.02465736 -0.07625642  0.20961915  0.12579948
 -0.09816394 -0.15390892  0.1368238  -0.1550764  -0.03459933  0.03301648
 -0.17132877 -0.1911802  -0.35353747 -0.01146514  0.41713747  0.14122885
 -0.1184171   0.08296465 -0.04436373  0.07095375  0.16121414  0.19231282
 -0.00318642  0.07761642 -0.08404507  0.03618361  0.20234363 -0.07162207
 -0.01431125  0.24937029  0.01426215  0.07286929  0.0154642   0.05845198
 -0.10848697  0.01959851 -0.10194516 -0.01125492 -0.0065602   0.04977898
  0.05006013  0.11642388 -0.18501927  0.07500137 -0.01176146  0.01953978
 -0.02373488 -0.00959692 -0.05502294 -0.12586027  0.05564198 -0.21602045
  0.10576164  0.17520928 -0.02642103  0.11417542  0.10588542  0.05704063
 -0.01799784 -0.079598   -0.1817797   0.04013114  0.14462997 -0.04326734
  0.11257505 -0.02071272]