[-0.15777123  0.07165147  0.0758144  -0.07941898 -0.1247386  -0.05987971
 -0.06279271 -0.11215663  0.1170032  -0.08081906  0.20409517 -0.08436152
 -0.24446027 -0.07116356 -0.06768076  0.21374188 -0.12291854 -0.12247209
  0.02804896 -0.02096383  0.05066321 -0.03311759  0.05978088  0.04858009
 -0.14994398 -0.37888405 -0.10853662 -0.04909116 -0.09782055  0.02092217
 -0.02784064  0.08473747 -0.1976088  -0.05620141  0.04921256  0.09620072
  0.0113064  -0.04415217  0.15481776  0.01885327 -0.26368895 -0.02207087
  0.09554014  0.25338337  0.13831925  0.08212619  0.0677819  -0.126142
  0.10000966 -0.17257141  0.0255795   0.13222365  0.04638577 -0.02717846
 -0.01532942 -0.11255769  0.06808309  0.12653174 -0.16045173 -0.05215782
  0.0863416  -0.03849141 -0.03409969 -0.09968585  0.25811443  0.10323278
 -0.1435895  -0.09715464  0.14683692 -0.12639897 -0.02415307  0.03758071
 -0.17721264 -0.21014157 -0.34735987  0.00148029  0.39138705  0.12272091
 -0.13737625  0.03818398 -0.04698018  0.06451287  0.10753671  0.20695861
 -0.03645189  0.06832117 -0.05298941 -0.01589597  0.1992383  -0.06247675
 -0.0151229   0.21575032  0.03714062  0.07635086 -0.00263888  0.04369136
 -0.08471007  0.00693157 -0.12317542  0.00945938 -0.01060723 -0.00050436
  0.02179048  0.1347907  -0.23029807  0.0847991  -0.01412178 -0.00444663
 -0.01154315  0.00916154  0.0004972  -0.12025698  0.04875667 -0.21995349
  0.08135306  0.21840863  0.00436678  0.147916    0.11479907  0.06942133
 -0.00518711 -0.01488613 -0.16464929 -0.01707105  0.10126462 -0.0718262
  0.09070261 -0.00056537]