[-1.35557279e-01  7.37935305e-02  5.31485453e-02 -6.26436397e-02
 -1.59417033e-01  2.86644138e-03 -4.60495166e-02 -1.21171907e-01
  1.25186130e-01 -1.00498296e-01  1.91413447e-01 -7.18259811e-02
 -2.15875864e-01 -2.37340536e-02 -8.52623433e-02  2.47630998e-01
 -1.30371317e-01 -1.29624784e-01  1.46819232e-02 -4.49119247e-02
  3.51725407e-02 -1.28460005e-02  6.38288781e-02  5.36686964e-02
 -1.69332817e-01 -3.54708344e-01 -1.23233594e-01 -3.42440270e-02
 -7.76917860e-02 -3.99442278e-02 -6.51174188e-02  7.09713623e-02
 -1.84056804e-01 -2.63733249e-02  5.71585707e-02  1.00794554e-01
 -7.04932166e-03 -8.11167508e-02  1.48420319e-01  2.76366360e-02
 -2.40390942e-01 -1.13333315e-02  1.18237548e-01  2.95244217e-01
  1.67735383e-01  4.95588928e-02  3.75075080e-02 -1.25913650e-01
  1.13699473e-01 -1.66711003e-01  4.18618917e-02  8.17098618e-02
 -7.42077595e-03 -4.06312960e-04 -3.44369821e-02 -8.55370387e-02
  4.65763025e-02  1.68434784e-01 -1.57348469e-01 -1.08462414e-02
  9.94998068e-02 -7.75912330e-02 -2.54411045e-02 -1.07637167e-01
  2.43623450e-01  1.05613910e-01 -1.33968577e-01 -1.33893445e-01
  1.15237214e-01 -1.28895149e-01 -2.06794646e-02  1.58633571e-02
 -1.72139242e-01 -2.16817260e-01 -3.55130047e-01 -1.46068563e-03
  4.33459193e-01  1.51156574e-01 -8.57916325e-02  4.97020185e-02
 -2.60528624e-02  3.93088721e-02  1.18202232e-01  2.03199774e-01
 -2.71198656e-02  6.40107617e-02 -7.41448328e-02  5.61682582e-02
  2.30662689e-01 -6.34800941e-02 -2.44670380e-02  2.45381981e-01
 -7.98664428e-03  5.69379330e-02 -1.58451106e-02  8.69982764e-02
 -1.14851274e-01  3.44108753e-02 -1.25009403e-01 -2.13432144e-02
 -9.01549216e-03 -1.57574322e-02  6.15537278e-02  1.48967698e-01
 -2.21074805e-01  9.39937532e-02 -2.03646757e-02  3.54581773e-02
  5.11681661e-04 -6.27484778e-03 -5.36888540e-02 -9.47601125e-02
  7.57507607e-02 -2.36137137e-01  5.79678528e-02  2.10732102e-01
  3.72090600e-02  1.36186153e-01  1.29169956e-01  6.07086681e-02
  4.69013816e-03 -2.86842529e-02 -1.84733510e-01  3.85035649e-02
  1.01303160e-01 -5.03870025e-02  1.20667078e-01  4.00777198e-02]