[-0.11878049  0.06361102  0.09706409 -0.09991637 -0.09336551 -0.09022446
 -0.06792948 -0.1460039   0.11394427 -0.09692293  0.18020734 -0.04806175
 -0.16944192  0.00055603 -0.07692881  0.22018354 -0.17104428 -0.16122654
  0.00265887 -0.01607398  0.03069682 -0.02683535  0.01273762  0.0685355
 -0.13411798 -0.31680632 -0.13658552 -0.05601436 -0.03544094 -0.00153753
 -0.03471933  0.0922787  -0.21102539 -0.02273776  0.02513274  0.12309702
  0.02391204 -0.09167128  0.19317518  0.02077488 -0.26991737  0.02103547
  0.093562    0.28140387  0.17994528 -0.00312008  0.05141964 -0.07208579
  0.15968715 -0.19753344  0.02949263  0.10852679  0.06744533  0.04061955
 -0.01208818 -0.10652182  0.08886158  0.12151009 -0.18808436 -0.01536612
  0.09935156 -0.10376304  0.02763339 -0.08635115  0.25486466  0.12953149
 -0.11763016 -0.09011492  0.1584886  -0.1088407  -0.02216985  0.00538416
 -0.1886324  -0.15624924 -0.34341201  0.00907641  0.4008708   0.11192589
 -0.12407017  0.10278171 -0.03963924  0.02976766  0.11044562  0.17368743
 -0.02043575  0.09321623 -0.06779352  0.05328208  0.25417319 -0.05478749
 -0.01030312  0.18768874 -0.01888951  0.06029617  0.01576517  0.07345623
 -0.07342654 -0.00071481 -0.13850921  0.05520149 -0.02817022  0.00209821
  0.01550709  0.13558149 -0.17765963  0.08537006  0.00224487  0.010793
 -0.05280558  0.02520398 -0.0356575  -0.09641923  0.07005769 -0.19637015
  0.14930454  0.16905339 -0.04422066  0.11194195  0.0762812   0.06874957
 -0.03603223 -0.03273804 -0.15307198 -0.01642192  0.1273751  -0.01504199
  0.1218907   0.04532402]