[-1.78138360e-01  5.08083105e-02  5.62357120e-02 -5.17359488e-02
 -1.54474661e-01 -4.84995060e-02 -4.55929153e-02 -1.03487194e-01
  1.08990960e-01 -8.16527680e-02  2.08065987e-01 -7.73222819e-02
 -2.21828490e-01 -3.49010304e-02 -4.72382195e-02  2.34132633e-01
 -9.69496369e-02 -1.21345751e-01  1.70114711e-02 -2.70736050e-02
  4.30676118e-02 -2.58072447e-02  3.24358307e-02  8.57068002e-02
 -1.52365759e-01 -3.71867001e-01 -1.31656975e-01 -6.28815070e-02
 -1.01649620e-01 -1.97599642e-02 -3.68933789e-02  5.48412986e-02
 -1.75039396e-01 -4.30677012e-02  4.63115275e-02  8.65480453e-02
  6.12750664e-05 -4.59756367e-02  1.71746582e-01  5.55783920e-02
 -2.58202046e-01 -6.94674253e-03  9.44690555e-02  2.94125885e-01
  1.55581132e-01  9.22044739e-02  6.53489828e-02 -1.03860892e-01
  9.12360474e-02 -1.63210317e-01  5.26739545e-02  1.04725979e-01
  3.12917493e-02 -2.46936679e-02 -7.22762803e-03 -1.03351370e-01
  5.90530336e-02  1.24489479e-01 -1.76845774e-01 -1.18604815e-02
  9.80757326e-02 -6.29057437e-02 -2.75676437e-02 -8.69937688e-02
  2.73148030e-01  1.10680476e-01 -1.24740325e-01 -9.35485661e-02
  1.52072221e-01 -1.37712315e-01 -3.34940515e-02  1.85876843e-02
 -1.80571884e-01 -2.21722722e-01 -3.42086107e-01  1.46673471e-02
  4.18460608e-01  1.37528062e-01 -1.49400994e-01  4.82917912e-02
 -2.77538635e-02  4.53112870e-02  1.38476148e-01  2.03049898e-01
  3.32111726e-03  3.67480963e-02 -7.30838105e-02 -1.61804410e-03
  2.13482887e-01 -5.06313741e-02  4.65712883e-03  2.29419902e-01
  2.22535469e-02  3.16846371e-02  1.45388693e-02  6.39964566e-02
 -9.94408354e-02  2.81259418e-05 -9.61271226e-02 -2.69090123e-02
 -4.88238782e-03 -8.22031870e-03  4.39319797e-02  1.16753042e-01
 -2.43695542e-01  1.11475363e-01 -1.97351873e-02  7.17381900e-03
 -3.27241197e-02  1.36458445e-02 -2.89552268e-02 -8.96902010e-02
  7.03724697e-02 -2.14196011e-01  9.16619599e-02  1.97181672e-01
 -1.78448781e-02  1.40468419e-01  9.42550525e-02  8.01509619e-02
 -2.36095246e-02 -1.75715312e-02 -1.78388134e-01 -9.68904817e-04
  8.61330926e-02 -6.07099310e-02  1.22807279e-01  3.31772864e-02]