[-1.32758319e-01  5.12452088e-02  7.90969580e-02 -8.71107355e-02
 -1.05437957e-01 -2.23963037e-02 -4.34939899e-02 -7.62657523e-02
  1.39612794e-01 -8.54709223e-02  1.51604876e-01 -7.08359554e-02
 -2.03487158e-01 -5.23810498e-02 -7.10305348e-02  2.38527462e-01
 -1.77292168e-01 -1.44594267e-01  2.94795875e-02 -2.20008937e-04
  5.77753782e-02  2.15239786e-02  1.13831833e-02  3.98380831e-02
 -1.89128980e-01 -3.45089138e-01 -1.21903501e-01 -4.98169698e-02
 -7.20727220e-02  1.51779177e-02 -3.63282263e-02  1.25098005e-01
 -1.79385230e-01 -1.69291086e-02  5.03912866e-02  1.04217105e-01
  7.70484516e-03 -4.30307314e-02  1.40019372e-01  6.35265633e-02
 -2.64373422e-01  8.47930368e-03  9.91941988e-02  2.93515146e-01
  1.75990641e-01  8.32019653e-03  4.24957350e-02 -1.02317177e-01
  1.11219041e-01 -1.69526726e-01 -1.28265414e-02  1.41845569e-01
  1.97073873e-02  3.96163613e-02 -1.92451030e-02 -6.01501949e-02
  9.95903984e-02  1.09311514e-01 -1.72163218e-01 -4.16377932e-03
  1.13911703e-01 -1.09005652e-01 -1.40550500e-02 -7.16596469e-02
  1.71597391e-01  4.43240814e-02 -1.10947669e-01 -1.62808344e-01
  1.06340937e-01 -1.28184587e-01 -5.80748916e-02  4.01194058e-02
 -1.88192114e-01 -1.77245840e-01 -3.75432938e-01 -2.63600554e-02
  3.77089381e-01  1.13968574e-01 -1.10678755e-01  1.03447534e-01
 -3.31008481e-03  2.47229580e-02  1.29438639e-01  1.95262566e-01
 -2.67989319e-02  7.44293779e-02 -7.13526234e-02  5.48980944e-02
  2.26323232e-01 -5.34315482e-02 -4.48231772e-03  1.89189926e-01
  9.46039706e-03  5.28703444e-02  7.91921560e-03  6.56931847e-02
 -6.13023713e-02  2.21371353e-02 -1.24400631e-01  1.16318129e-02
  9.94669553e-03 -2.76190527e-02  2.32936572e-02  1.24412216e-01
 -1.99064016e-01  1.39139518e-01  6.78449078e-03  1.65271051e-02
 -3.50395851e-02 -1.20407743e-02 -6.47446290e-02 -2.88020559e-02
  9.41758305e-02 -1.82389483e-01  1.06136501e-01  1.99331939e-01
  1.86971035e-02  8.94258022e-02  1.21268727e-01  4.55690064e-02
 -7.35711902e-02 -1.46992924e-02 -1.67615250e-01 -7.59361172e-03
  1.00034378e-01 -5.44442199e-02  1.29279345e-01  9.67970118e-03]