[-0.14301658  0.08911254  0.07631256 -0.06874456 -0.12285953 -0.03861078
 -0.0386699  -0.12581961  0.11431479 -0.09985986  0.20960052 -0.10105014
 -0.23474224 -0.06613936 -0.07711001  0.24453238 -0.09572621 -0.1260962
 -0.00684804 -0.03854179  0.03773304 -0.03276718  0.0482411   0.06964361
 -0.13955025 -0.36223182 -0.13448904 -0.05722195 -0.05073161 -0.02288361
 -0.03191814  0.06245136 -0.1847486  -0.04494284  0.04905694  0.0727193
  0.02497765 -0.04964155  0.16095179  0.01224791 -0.25375232  0.00570822
  0.09345514  0.26607329  0.14322716  0.08440806  0.07425945 -0.13196762
  0.10934397 -0.14451174  0.02508327  0.1085304   0.02720212 -0.01189456
 -0.03998986 -0.11163612  0.04386623  0.14588349 -0.18555664 -0.01844202
  0.09297605 -0.04536492 -0.05538385 -0.07623571  0.25153619  0.11155011
 -0.16014963 -0.11245481  0.18896249 -0.14918254  0.01386396  0.01898397
 -0.18648705 -0.19065873 -0.33767945  0.01499282  0.42070076  0.13512984
 -0.13382018  0.03145842 -0.04709236  0.0852979   0.09680785  0.20685302
 -0.04354345  0.053441   -0.04159056  0.00985608  0.19726816 -0.04979716
 -0.01253085  0.22490516  0.02537267  0.06471557 -0.0130561   0.06209641
 -0.10313767 -0.02588539 -0.122967   -0.00134642 -0.03317209  0.00955597
  0.03830194  0.14308085 -0.20625225  0.1255828  -0.01484468  0.00987605
 -0.03705795  0.0448687  -0.00835387 -0.10299076  0.06883349 -0.1929134
  0.09303534  0.21466629  0.01646343  0.12131243  0.12735902  0.08255947
  0.01038804 -0.02534794 -0.16495852 -0.01985675  0.10282922 -0.08968253
  0.1149042   0.00186975]