[-1.62884891e-01  7.94325918e-02  4.95753773e-02 -6.96176812e-02
 -1.41080171e-01 -1.56229436e-02 -5.66072538e-02 -9.98620093e-02
  1.30524382e-01 -7.20684752e-02  2.06419036e-01 -5.38416766e-02
 -2.23771527e-01 -4.90685366e-02 -6.14874028e-02  2.32453376e-01
 -1.43805429e-01 -1.42318711e-01  3.14493403e-02 -3.28477584e-02
  4.84937839e-02 -4.01378684e-02  5.91879748e-02  7.00426921e-02
 -1.78735301e-01 -3.89455169e-01 -1.07238889e-01 -4.32452932e-02
 -6.87763914e-02 -6.38858741e-03 -3.79551463e-02  7.49871582e-02
 -2.09001020e-01 -3.18454020e-02  4.88480143e-02  9.40978825e-02
  2.33586365e-03 -6.73052371e-02  1.56593159e-01  4.75656316e-02
 -2.56418943e-01 -5.14182262e-02  1.05781496e-01  2.84300476e-01
  1.59836903e-01  6.21080175e-02  6.00683652e-02 -1.06296003e-01
  1.03832796e-01 -1.72628865e-01  5.17875813e-02  1.17131904e-01
  6.04703231e-03 -9.05240607e-03 -1.48990517e-02 -8.84924456e-02
  5.81198409e-02  1.70299813e-01 -1.54929206e-01 -2.26920303e-02
  8.21812078e-02 -6.54110014e-02 -2.88444702e-02 -1.12487338e-01
  2.53752798e-01  1.03322603e-01 -1.20872699e-01 -1.07077539e-01
  1.56200156e-01 -9.63103026e-02 -2.63296794e-02  3.01213413e-02
 -1.70948461e-01 -2.18114138e-01 -3.50581199e-01  4.52638650e-03
  4.14450854e-01  1.44746214e-01 -9.57582518e-02  5.03211021e-02
 -3.60673107e-02  3.51218395e-02  1.12857223e-01  1.97441712e-01
 -2.88137980e-02  5.20932674e-02 -7.05397353e-02  3.31313424e-02
  2.21162364e-01 -3.23152952e-02 -2.26577139e-03  2.37017468e-01
  1.45979604e-04  4.80394177e-02 -6.54703751e-03  7.93062449e-02
 -1.07565120e-01  3.00561618e-02 -1.23190723e-01 -3.43732983e-02
 -8.89705669e-04 -2.59771501e-03  4.67285141e-02  1.44155532e-01
 -2.37990662e-01  6.91354275e-02 -1.26993901e-03  2.65504066e-02
  7.85090495e-03  1.67203962e-03 -2.40103789e-02 -1.14395224e-01
  4.97910939e-02 -2.24208698e-01  7.33584687e-02  2.08682731e-01
  2.61547156e-02  1.37489870e-01  1.12397037e-01  5.60406744e-02
 -4.23324481e-03 -5.71098812e-02 -1.85990751e-01  2.76695285e-02
  9.85231921e-02 -6.14384897e-02  8.96673277e-02  2.58119311e-02]