[-0.17541     0.05624205  0.03184668 -0.08070638 -0.09902103 -0.01285216
 -0.03735102 -0.08324427  0.13223448 -0.11640085  0.17529021 -0.08276612
 -0.22864071 -0.10753476 -0.08399536  0.22682579 -0.14327963 -0.14462028
  0.01429384  0.016107    0.08544423 -0.02809169  0.03457476  0.04471986
 -0.14018376 -0.38022056 -0.12584627 -0.05250258 -0.06182737 -0.03244208
 -0.04220716  0.07736523 -0.19106078 -0.06219741  0.01312238  0.11954483
 -0.0055478  -0.03763535  0.13935563  0.05281952 -0.23351453 -0.04079224
  0.09731813  0.29805881  0.16951531  0.0775792   0.04820613 -0.13602184
  0.11829589 -0.15789126  0.02532339  0.10674696  0.05357558  0.05209133
 -0.00918573 -0.08559413  0.10543352  0.10492926 -0.1507639   0.01360995
  0.08131911 -0.06790517 -0.02415485 -0.07138614  0.22318743  0.0456229
 -0.10387136 -0.14785202  0.16594945 -0.13578022 -0.052806    0.02623151
 -0.16226818 -0.20317864 -0.33668822 -0.0056586   0.37342134  0.1463795
 -0.1211549   0.07208803 -0.00499799 -0.00686836  0.13040531  0.22996442
 -0.0207797   0.0712725  -0.06954109  0.01580632  0.21613626 -0.05864136
 -0.00741316  0.20350447  0.02278327  0.06670519  0.0306938   0.04284206
 -0.08917919  0.0736926  -0.13340993 -0.01123829  0.02574512 -0.05146804
  0.02178254  0.09979974 -0.16539058  0.13838123 -0.00145251  0.03644137
 -0.01647282 -0.0217235  -0.07242527 -0.06532556  0.08007231 -0.17613085
  0.11969232  0.2171537   0.04829361  0.12377882  0.15635157  0.1032963
  0.00593418 -0.00280389 -0.19260566  0.00444639  0.10113289 -0.05584292
  0.10276961  0.01687571]