[-0.16261932  0.05602095  0.06070363 -0.05944163 -0.11656101 -0.02879723
 -0.02181281 -0.0428897   0.15882783 -0.08902143  0.17522113 -0.06796479
 -0.27303824 -0.07035141 -0.06418639  0.26683688 -0.1292529  -0.11365665
  0.01660813  0.01052791  0.05171228 -0.01415874  0.04558082  0.0904356
 -0.14213501 -0.40006685 -0.11673868 -0.05397991 -0.10535391 -0.04040351
 -0.07430367  0.10796439 -0.1673333  -0.0652059   0.04193207  0.11430661
 -0.00797444 -0.04903652  0.1580054   0.08868265 -0.25573638 -0.03910793
  0.0921587   0.30043697  0.16880123  0.06368279  0.05651143 -0.11513138
  0.11169356 -0.21063128  0.02256143  0.12079024  0.06600332 -0.01029326
 -0.01003702 -0.09598719  0.07178007  0.13015877 -0.19568945 -0.00631576
  0.07560993 -0.07951423 -0.05379063 -0.06514289  0.2303905   0.08632348
 -0.12785666 -0.1072976   0.17508732 -0.14188354 -0.01940648  0.02190924
 -0.16991265 -0.2277004  -0.35022715 -0.01614704  0.37316418  0.14674895
 -0.1265965   0.075326   -0.05856863  0.02674664  0.0812052   0.21035765
 -0.04108528  0.06354328 -0.07307692  0.01417841  0.1917868  -0.04556667
  0.01593025  0.23283243  0.03737825  0.05427861  0.02059358  0.02581408
 -0.0918394  -0.01049139 -0.14907101 -0.05158499  0.00273234 -0.05512827
  0.02704052  0.10552932 -0.25841662  0.10509326 -0.00138844 -0.00519128
  0.01080702 -0.00800683 -0.07868455 -0.08142231  0.0972752  -0.19631565
  0.07600134  0.2156792   0.02032589  0.12228715  0.13267908  0.07734432
 -0.02056259 -0.0511469  -0.17234324  0.01162053  0.12583522 -0.07203796
  0.10821773  0.00111874]