[-9.59039256e-02  6.59652129e-02  4.42943089e-02 -8.17232057e-02
 -1.47092119e-01 -5.08118682e-02 -3.10818739e-02 -8.37359354e-02
  1.53781533e-01 -6.97237253e-02  1.75676227e-01 -6.50837049e-02
 -2.13910565e-01 -3.45789269e-02 -8.07473063e-02  2.43459970e-01
 -1.70798853e-01 -1.34488925e-01  1.90068688e-02 -1.28771290e-02
  1.03427388e-01 -3.05988230e-02  3.51556987e-02  9.70696732e-02
 -1.94146037e-01 -3.64877313e-01 -1.21686719e-01 -6.61965385e-02
 -5.56098185e-02 -1.98563226e-02 -3.90657149e-02  9.14587006e-02
 -2.02258870e-01 -5.74238971e-02  5.34990393e-02  7.97899589e-02
 -5.94574586e-03 -8.19787309e-02  1.78746313e-01  7.34063461e-02
 -2.84030765e-01  1.01061426e-02  6.99799880e-02  2.82079399e-01
  1.52013123e-01  4.34006453e-02  7.13490918e-02 -9.64864492e-02
  1.24373339e-01 -1.87180161e-01  4.71570194e-02  1.29612923e-01
  2.49763913e-02  1.20374290e-02 -7.46402517e-03 -7.59014338e-02
  7.54896402e-02  1.67980984e-01 -2.28400692e-01 -2.18870230e-02
  1.01501994e-01 -1.02343477e-01 -9.77422576e-03 -8.56317654e-02
  2.15159521e-01  1.14557266e-01 -9.86210108e-02 -1.26853123e-01
  1.52756676e-01 -1.32202655e-01 -2.67180931e-02  2.45106015e-02
 -1.65471181e-01 -1.94636732e-01 -3.43083352e-01 -4.97357314e-03
  4.07002032e-01  1.58626482e-01 -1.15907349e-01  7.65025467e-02
 -4.12470773e-02  5.85608371e-02  1.54728591e-01  1.85216382e-01
  6.52987510e-03  7.77509809e-02 -6.68817163e-02  4.75601070e-02
  1.86003998e-01 -7.00827688e-02 -1.11797908e-02  2.44210392e-01
  1.45847639e-02  4.75010388e-02  1.72929149e-02  3.96863371e-02
 -1.08444311e-01  2.83887424e-02 -1.06793717e-01  4.46088634e-05
  1.04203133e-03  3.05950399e-02  4.87868972e-02  1.11293733e-01
 -1.89878508e-01  6.73935041e-02 -1.80492159e-02  3.50485416e-03
 -3.65893133e-02 -7.20683997e-03 -6.11145012e-02 -1.10312544e-01
  5.29918671e-02 -2.29409859e-01  1.10494591e-01  1.83900490e-01
 -3.33496854e-02  1.14823215e-01  9.48554799e-02  4.21615541e-02
 -1.35910315e-02 -7.82315060e-02 -1.74249485e-01  2.43921615e-02
  1.47029012e-01 -3.84314284e-02  1.19749561e-01 -1.50950467e-02]