[-1.49219871e-01  5.37395738e-02  4.55058068e-02 -7.61480331e-02
 -1.24947362e-01 -1.94327217e-02 -6.45689294e-02 -8.50871429e-02
  1.11926556e-01 -1.00641847e-01  1.66067585e-01 -9.49566364e-02
 -2.43328452e-01 -7.66006634e-02 -8.19543451e-02  2.43850872e-01
 -1.76169157e-01 -1.25345498e-01  2.68756244e-02 -3.78581439e-03
  6.91358149e-02 -1.73190478e-02  4.33836952e-02  3.12687419e-02
 -1.24559402e-01 -3.91496867e-01 -1.34885475e-01 -4.58950140e-02
 -6.08638898e-02 -2.79646721e-02 -5.08058667e-02  6.33882955e-02
 -1.70700356e-01 -5.24872616e-02  3.74893248e-02  1.08380198e-01
 -4.47568251e-03 -8.17784593e-02  1.36120170e-01  4.78876233e-02
 -2.27928042e-01 -2.45108008e-02  1.16366282e-01  2.87065685e-01
  1.80925891e-01  8.53389129e-02  4.04884107e-02 -1.19005680e-01
  1.24726966e-01 -1.62974760e-01  1.09560592e-02  1.00703433e-01
  3.62919234e-02  3.52779105e-02  4.39237198e-03 -8.91900361e-02
  9.18198749e-02  1.30402938e-01 -1.65767163e-01 -1.35775674e-02
  8.88903365e-02 -6.77475780e-02  2.10949569e-03 -8.75220746e-02
  2.47008190e-01  6.05738424e-02 -1.15893304e-01 -1.33164078e-01
  1.55202612e-01 -1.22162752e-01 -4.45080511e-02  7.65007501e-03
 -1.67829156e-01 -1.99304819e-01 -3.27847302e-01 -1.92247335e-05
  3.85187417e-01  1.40860289e-01 -1.16483226e-01  5.38186505e-02
  6.14743214e-03  4.15407680e-03  1.43052191e-01  2.16666609e-01
 -9.14277788e-03  4.50278297e-02 -7.98697397e-02 -2.49956478e-03
  2.19398305e-01 -7.37420171e-02 -1.29379733e-02  1.88283309e-01
  1.12681128e-02  5.92844374e-02  2.80699227e-02  4.67461608e-02
 -1.09781578e-01  6.16706014e-02 -1.47589639e-01 -1.32464860e-02
  5.22904191e-03 -5.13237603e-02  1.82011761e-02  1.05097234e-01
 -1.52671590e-01  1.02352105e-01 -5.56697545e-04  1.82132458e-03
 -3.94930914e-02 -2.99668312e-02 -7.32119083e-02 -5.81697710e-02
  8.12340081e-02 -2.05111742e-01  1.22277282e-01  2.17417523e-01
  3.94466408e-02  1.40956864e-01  1.29170164e-01  9.73082334e-02
 -1.09196277e-02 -1.36591969e-02 -1.67263582e-01 -1.78336836e-02
  9.66096148e-02 -3.58843319e-02  1.14596084e-01  9.91361495e-03]