[-1.39594495e-01  7.06345141e-02  4.75459807e-02 -6.45386949e-02
 -1.57329798e-01  1.20115431e-03 -4.97822389e-02 -1.23089604e-01
  1.24133281e-01 -1.08532265e-01  1.95219815e-01 -6.10802546e-02
 -2.16748998e-01 -3.26111838e-02 -7.98668489e-02  2.40794227e-01
 -1.25839800e-01 -1.27956316e-01  2.84254807e-03 -3.71826142e-02
  3.31810601e-02 -2.15220246e-02  7.38258511e-02  6.16554804e-02
 -1.72052130e-01 -3.59325230e-01 -1.20862536e-01 -3.78049575e-02
 -8.00800100e-02 -3.80215235e-02 -6.40653670e-02  6.38040528e-02
 -1.92660719e-01 -3.19421515e-02  5.96871749e-02  1.01647161e-01
 -2.10570707e-03 -6.81983009e-02  1.53426483e-01  2.89190467e-02
 -2.37512067e-01 -2.51787193e-02  1.11822389e-01  2.90753365e-01
  1.65565237e-01  5.80493920e-02  4.43396196e-02 -1.23776175e-01
  1.17619134e-01 -1.69544742e-01  5.14098220e-02  8.73126239e-02
  1.17001684e-04 -1.47201715e-03 -3.11821401e-02 -9.44466814e-02
  5.29528670e-02  1.70802221e-01 -1.48362726e-01 -1.55192437e-02
  9.04454216e-02 -5.87725751e-02 -3.12512629e-02 -9.82358307e-02
  2.53257334e-01  1.06884338e-01 -1.39561564e-01 -1.31534904e-01
  1.19932093e-01 -1.25522032e-01 -1.19057102e-02  1.25908582e-02
 -1.86609775e-01 -2.13979840e-01 -3.54976684e-01 -7.76883727e-03
  4.33082402e-01  1.46122381e-01 -9.48496982e-02  3.66858393e-02
 -3.89706604e-02  3.95725444e-02  1.07300416e-01  2.01095611e-01
 -2.78531052e-02  6.09872602e-02 -6.42248318e-02  5.76925762e-02
  2.23567948e-01 -6.03492558e-02 -2.08946560e-02  2.41371378e-01
 -2.45131738e-03  5.28479889e-02 -1.66871734e-02  7.86550343e-02
 -1.18295133e-01  2.96811461e-02 -1.22853078e-01 -1.63186025e-02
 -1.53317573e-02 -6.79920381e-03  5.90623431e-02  1.54827788e-01
 -2.29296878e-01  9.64979529e-02 -2.26490851e-02  3.17994654e-02
  5.09185856e-03  1.11825022e-04 -5.81850410e-02 -1.11495577e-01
  7.03633353e-02 -2.28262782e-01  6.25045076e-02  2.18718797e-01
  3.52308638e-02  1.31316438e-01  1.21960454e-01  6.32241890e-02
  1.09862303e-02 -1.07623879e-02 -1.85982108e-01  3.65426764e-02
  9.83528048e-02 -6.30879998e-02  1.08760156e-01  2.75076814e-02]