[-1.48083925e-01  5.64098023e-02  4.92944866e-02 -7.57680312e-02
 -1.34473845e-01 -1.80472434e-02 -3.84853259e-02 -9.04375166e-02
  1.40910253e-01 -1.04732625e-01  1.79652393e-01 -9.43575725e-02
 -2.32227236e-01 -4.71087499e-03 -6.95943907e-02  2.11821720e-01
 -1.26790866e-01 -1.18372858e-01  1.38337612e-02 -1.34189818e-02
  7.84186050e-02 -2.77305599e-02  8.05544015e-03  5.56959584e-02
 -1.88016519e-01 -3.53970051e-01 -1.41438216e-01 -5.04063629e-02
 -9.67882499e-02 -2.05821600e-02 -3.79769318e-02  6.28194734e-02
 -1.90483645e-01 -4.95763868e-02  3.91623676e-02  1.04729176e-01
  5.09425990e-05 -7.51588568e-02  1.57384560e-01  4.38713692e-02
 -2.79357761e-01  2.26424169e-02  9.55817476e-02  2.77446419e-01
  1.36723444e-01  6.46682009e-02  4.53560688e-02 -9.95604023e-02
  1.09576821e-01 -1.68164447e-01  3.40621248e-02  1.27419010e-01
  3.98347564e-02  8.58189818e-03 -1.65286288e-02 -7.96688348e-02
  6.69478178e-02  1.46970868e-01 -1.72552347e-01 -4.75344174e-02
  1.07038714e-01 -5.96393831e-02 -1.20031163e-02 -8.48755613e-02
  2.29504868e-01  1.02790020e-01 -1.30120590e-01 -1.18767373e-01
  1.33549735e-01 -1.21159866e-01 -2.72276159e-02  3.11936531e-02
 -1.84382886e-01 -2.17848212e-01 -3.17051739e-01  3.29446942e-02
  4.26701605e-01  1.25787124e-01 -1.04299583e-01  7.91860223e-02
 -4.59560268e-02  3.44807692e-02  1.24114491e-01  2.08085820e-01
  1.97774973e-02  6.34050742e-02 -3.57879400e-02  4.22612503e-02
  2.21296221e-01 -7.14809895e-02 -4.29527042e-03  2.05818966e-01
  1.60446353e-02  3.34052071e-02 -9.06347390e-03  5.57232499e-02
 -9.82727036e-02  2.39466410e-02 -8.88888836e-02  6.46683294e-03
  1.62414517e-02  1.00226654e-02  2.19547842e-02  1.27257377e-01
 -2.37360284e-01  1.14189461e-01 -7.86078442e-03 -8.79305229e-03
 -1.13505321e-02 -9.17869247e-03 -2.76136249e-02 -7.03287572e-02
  6.50081858e-02 -2.57224858e-01  8.61713067e-02  1.91943333e-01
 -2.89420765e-02  1.26842737e-01  1.03789449e-01  5.42397089e-02
  1.61786657e-02 -1.10287461e-02 -2.08745822e-01 -2.03492530e-02
  1.18366003e-01 -3.77238169e-02  1.06514074e-01 -5.66008268e-03]