[-1.65850878e-01  6.97853928e-03  6.32219315e-02 -5.28012626e-02
 -1.06706344e-01 -1.99080221e-02 -6.38360828e-02 -9.32621658e-02
  1.09228194e-01 -9.76864621e-02  1.83236137e-01 -6.95590600e-02
 -2.40933806e-01 -5.51572219e-02 -7.99283683e-02  2.52808422e-01
 -1.25764325e-01 -1.34862691e-01  8.36917781e-04 -2.17918288e-02
  6.16085827e-02 -1.90225597e-02  4.40106019e-02  8.13538730e-02
 -1.67338490e-01 -3.85000199e-01 -1.34454951e-01 -2.63097733e-02
 -1.11569993e-01 -8.12009629e-03 -6.41514435e-02  6.77426979e-02
 -1.98853150e-01 -2.64487211e-02  4.82893921e-02  1.00841165e-01
  2.88677216e-02 -8.04649517e-02  1.28154054e-01  3.43271382e-02
 -2.85689682e-01 -1.34589318e-02  1.41894609e-01  2.65145183e-01
  1.72856972e-01  8.70718881e-02  2.39544846e-02 -1.18243448e-01
  1.13633551e-01 -1.86736956e-01  4.74436395e-02  1.10252582e-01
  3.02928984e-02 -6.27603335e-03  1.74583215e-02 -9.22524631e-02
  4.95201834e-02  1.30523950e-01 -1.39558911e-01 -4.02237549e-02
  3.71106192e-02 -4.85212319e-02 -3.48457514e-04 -1.46028444e-01
  2.20401749e-01  1.11308552e-01 -1.29025206e-01 -1.28628507e-01
  1.48549452e-01 -1.51121140e-01 -2.62365788e-02  3.57366093e-02
 -1.75177768e-01 -2.24604055e-01 -3.76006931e-01 -2.17462182e-02
  3.76826346e-01  1.47528693e-01 -1.25304446e-01  8.38405862e-02
  1.07608142e-03  2.92823669e-02  1.13021113e-01  2.31799483e-01
  7.35243876e-03  9.21439752e-02 -5.06783016e-02  1.73431709e-02
  2.30163261e-01 -4.45020609e-02  1.12535898e-03  2.40554810e-01
 -3.47870076e-03  3.96870822e-02  1.72190350e-02  7.60174543e-02
 -1.01519220e-01  1.79921743e-02 -1.35372207e-01 -1.24400947e-02
 -1.72005617e-03  2.78548785e-02  5.22809736e-02  1.13388136e-01
 -2.00101927e-01  8.15699771e-02 -2.00367849e-02  1.92504413e-02
  1.93970313e-03  2.63608037e-03 -4.50949743e-02 -9.19005945e-02
  5.34243174e-02 -2.22888350e-01  7.84658119e-02  1.86975494e-01
  3.63351451e-03  1.19333282e-01  1.03931837e-01  9.09197554e-02
 -2.75666248e-02 -2.49855500e-02 -1.86610475e-01  1.24319578e-02
  1.13663830e-01 -8.89511034e-02  1.14468031e-01  1.84731390e-02]