[-0.16588208  0.06787335  0.05287642 -0.05301332 -0.14925914 -0.03639791
 -0.05439216 -0.09324756  0.11315166 -0.07321382  0.19114994 -0.08942892
 -0.23020172 -0.03375166 -0.06772693  0.24124435 -0.10506066 -0.12282471
  0.01398253 -0.02098256  0.04585134 -0.0108389   0.03270231  0.07270937
 -0.15168567 -0.38684899 -0.12679215 -0.05801566 -0.09734529 -0.01407832
 -0.03981641  0.06009742 -0.16858312 -0.04658629  0.0535357   0.08308891
  0.00334126 -0.06148854  0.15940832  0.04702947 -0.27171537 -0.01311296
  0.11377084  0.2930342   0.16286215  0.09140489  0.06578848 -0.11080777
  0.08437835 -0.1602747   0.03930271  0.10679445  0.02103242 -0.00937894
 -0.00886511 -0.1041261   0.05876823  0.13368207 -0.18162593 -0.03132575
  0.09272606 -0.0550505  -0.0141471  -0.09146095  0.27165589  0.10299542
 -0.12715696 -0.10048085  0.15661731 -0.1434533  -0.02342408  0.02038552
 -0.16891204 -0.22160712 -0.33773312  0.00564151  0.41583091  0.1458848
 -0.12441301  0.06033455 -0.02739313  0.0374151   0.12898709  0.20523362
 -0.00266022  0.04574815 -0.06108048  0.00056976  0.22132729 -0.04923571
  0.00325676  0.22300415  0.01630552  0.02498732  0.01200635  0.07100915
 -0.10581692  0.01651996 -0.09686927 -0.01925712 -0.00523834 -0.01331518
  0.049834    0.11859151 -0.23839982  0.10979231 -0.014225    0.01100856
 -0.02523321  0.00630975 -0.01713364 -0.08063177  0.08052798 -0.21968873
  0.09104801  0.19146864 -0.00687724  0.15019228  0.10278805  0.08070713
 -0.01718031 -0.03406606 -0.18316245 -0.00407334  0.09004168 -0.06680297
  0.12985225  0.03521071]