[-0.16667823  0.06838936  0.07856917 -0.0700398  -0.1218226  -0.03430054
 -0.02171944 -0.11052646  0.10877595 -0.07853407  0.20559393 -0.09170636
 -0.24009208 -0.08647144 -0.06182629  0.24471764 -0.11151256 -0.12148205
  0.01920499 -0.04476529  0.03489475 -0.0447028   0.05454142  0.07041694
 -0.13875701 -0.36900982 -0.13328722 -0.07329648 -0.07233443 -0.01338842
 -0.02811898  0.05103321 -0.18807232 -0.04185829  0.02508216  0.06943092
  0.02133315 -0.05955742  0.14655535  0.02576213 -0.24952722 -0.01248482
  0.08769199  0.2615284   0.13860671  0.07830286  0.06514066 -0.10283925
  0.10754599 -0.15927975  0.02599096  0.1016686   0.02188306 -0.02665981
 -0.0360423  -0.09422102  0.04990839  0.13322991 -0.19013572 -0.01801861
  0.08060665 -0.05304791 -0.04690237 -0.08901465  0.23592399  0.11949221
 -0.1441351  -0.10388758  0.16055523 -0.14669089  0.01308889  0.02965809
 -0.18153906 -0.20440324 -0.33767435  0.02783485  0.40419322  0.13290787
 -0.120779    0.01508783 -0.04717524  0.0772244   0.10839744  0.20326281
 -0.02514535  0.05363494 -0.06085888 -0.00517012  0.18797036 -0.05968469
 -0.01033802  0.22752784  0.01328561  0.05668682 -0.01285615  0.07031922
 -0.09357038 -0.00491813 -0.10079432  0.00149193 -0.0188968  -0.0162784
  0.03335491  0.10986679 -0.213181    0.09984937 -0.01539128  0.00309957
 -0.03878459  0.01441797 -0.01480107 -0.0934874   0.06782862 -0.19554861
  0.09171942  0.22668369 -0.00655587  0.13240664  0.10724254  0.08071318
 -0.02198561 -0.03906858 -0.14666839 -0.01059527  0.10157968 -0.0804832
  0.1067482  -0.00319395]