[-1.47051081e-01  8.60090181e-02  3.05180009e-02 -9.19078514e-02
 -1.30071446e-01 -7.19645172e-02 -6.97085708e-02 -1.23149000e-01
  1.74496308e-01 -1.21706478e-01  1.39581785e-01 -3.78988162e-02
 -1.65902868e-01 -1.12827467e-02 -4.03690562e-02  1.71559170e-01
 -1.80397943e-01 -1.46541402e-01 -1.12169068e-02 -6.22196402e-03
  8.61138329e-02  2.80805621e-02  2.68145241e-02  5.75459674e-02
 -1.61091089e-01 -3.76452118e-01 -1.10889576e-01 -7.80771002e-02
 -4.18155864e-02 -4.33950266e-03 -1.24249980e-03  5.07677570e-02
 -2.18987688e-01 -4.96002473e-02  8.23193509e-03  1.07927181e-01
 -1.54894507e-02 -3.88011336e-04  1.88833803e-01  5.74896820e-02
 -2.87512153e-01  4.14617695e-02  5.48449047e-02  3.02612066e-01
  2.13021144e-01  3.19497846e-02  4.87462692e-02 -1.14071988e-01
  1.47851795e-01 -1.79016858e-01  4.94223647e-02  1.29017621e-01
  3.31649147e-02  4.59985016e-03  3.62886339e-02 -9.29048061e-02
  5.03312834e-02  1.34840101e-01 -1.79917857e-01  4.21924703e-02
  1.70040682e-01 -7.34738559e-02 -1.90667007e-02 -5.24063781e-02
  2.35030293e-01  6.53425828e-02 -1.21516623e-01 -1.22498333e-01
  1.22660361e-01 -1.47090957e-01 -3.55922058e-02  5.61752021e-02
 -1.57609776e-01 -2.04033047e-01 -3.38196605e-01  8.23662709e-03
  4.01530236e-01  1.14365421e-01 -1.50747418e-01  5.10952435e-02
 -2.68270168e-02  4.42144498e-02  1.94836318e-01  1.75321028e-01
  8.47123284e-03  4.36347984e-02 -9.39653665e-02  4.87875529e-02
  2.18595430e-01 -2.42539234e-02 -1.76955592e-02  2.36897826e-01
  2.27941722e-02  5.05288020e-02  1.24326311e-02  8.16221237e-02
 -1.24121062e-01 -3.21147288e-03 -1.61910340e-01  7.38122687e-03
  8.79826955e-03  1.95130762e-02 -5.22715226e-03  1.27103120e-01
 -1.43301114e-01  1.42592311e-01 -1.84276793e-02  3.10594868e-02
 -5.76663092e-02 -1.52122453e-02 -6.67649955e-02 -8.05660337e-02
  8.69564861e-02 -1.73595384e-01  1.29350811e-01  1.55761093e-01
 -3.14207487e-02  1.24508373e-01  9.66060981e-02  4.02256958e-02
 -4.03258875e-02  1.81595981e-03 -2.20537931e-01  6.21761149e-03
  8.44129845e-02 -2.18543261e-02  1.28134310e-01  9.41008702e-03]