[-0.15469807  0.05792129  0.07193106 -0.08125322 -0.1157878  -0.03627191
 -0.02367044 -0.10179196  0.11202826 -0.09501277  0.1942495  -0.09956151
 -0.23442625 -0.07059193 -0.07233795  0.24626236 -0.10388158 -0.12657776
  0.01667939 -0.04107857  0.04405468 -0.02899871  0.03959789  0.07532194
 -0.15447585 -0.36140224 -0.14334674 -0.06204021 -0.09058843 -0.02300005
 -0.0150306   0.06637105 -0.18207239 -0.02979683  0.04013082  0.07958656
  0.03744836 -0.0677494   0.15104564  0.03810479 -0.26560971 -0.00753201
  0.09873655  0.27382511  0.13509367  0.06875594  0.05467049 -0.10209589
  0.12317788 -0.16428766  0.02600846  0.10000876  0.014754   -0.01467321
 -0.0319604  -0.08528613  0.06835274  0.1393224  -0.19371644 -0.02790138
  0.08305076 -0.0669631  -0.03108594 -0.07859196  0.22313409  0.11360031
 -0.1440765  -0.10369434  0.17014895 -0.15189265  0.01150043  0.03018414
 -0.18136804 -0.20207076 -0.34119782  0.02601512  0.40891466  0.14403753
 -0.11633544  0.03176646 -0.03337095  0.08302738  0.11684733  0.21293354
 -0.0195179   0.05994638 -0.05185881  0.01030071  0.20755748 -0.04956592
 -0.01517289  0.22882076  0.01238801  0.05477765 -0.00264593  0.07239663
 -0.09055538 -0.01089265 -0.10184821  0.01815086 -0.02027025 -0.0103216
  0.0304251   0.12500571 -0.21798971  0.11076572 -0.01725817 -0.00812611
 -0.04789692  0.02466858 -0.00978624 -0.08281377  0.06026491 -0.19774652
  0.08609664  0.21495436 -0.00681522  0.13225019  0.10547816  0.07926045
 -0.01664213 -0.05111105 -0.15065709 -0.02151873  0.1042568  -0.07045813
  0.1149269  -0.00711166]