[-8.57196748e-02  8.12443197e-02  4.67696451e-02 -5.71068004e-02
 -9.69842747e-02  1.54706538e-02 -4.86135818e-02 -8.61410275e-02
  1.56224713e-01 -7.42419362e-02  1.88622341e-01  2.23391294e-03
 -1.56115264e-01 -5.91052361e-02 -4.48803715e-02  2.22207412e-01
 -1.44636586e-01 -1.46318957e-01  7.64040684e-04 -7.50184059e-03
  7.84350000e-03 -2.19870005e-02  6.98811635e-02  1.00628994e-01
 -1.56171024e-01 -3.72349501e-01 -1.00596845e-01 -7.93423951e-02
 -2.81278249e-02 -1.67919453e-02 -5.54924011e-02  8.98179039e-02
 -1.86415046e-01  4.83536487e-03  1.80232618e-02  1.19053856e-01
 -3.02920938e-02 -8.14783275e-02  1.87382311e-01  8.31383839e-02
 -2.65817612e-01 -1.15874512e-02  5.23577444e-02  2.86123067e-01
  2.16021568e-01  2.33403333e-02  5.58609627e-02 -6.52972683e-02
  1.26140833e-01 -1.87478840e-01  7.65784010e-02  1.23821355e-01
  1.87922213e-02  1.87705960e-02 -2.38624378e-03 -7.56031573e-02
  4.41474840e-02  1.24274008e-01 -1.61755130e-01 -3.05864345e-02
  2.97727194e-02 -3.56659107e-02 -2.41281781e-02 -8.92398730e-02
  2.08412796e-01  1.61641300e-01 -8.24360624e-02 -1.49177119e-01
  1.61521152e-01 -1.55098781e-01 -7.62687847e-02  4.94156443e-02
 -1.76384836e-01 -1.88061073e-01 -3.27332795e-01 -3.72561975e-03
  4.17868465e-01  1.58037588e-01 -1.29509673e-01  4.97334711e-02
 -2.53028423e-02 -5.62550453e-03  1.31660566e-01  1.73473820e-01
 -1.75837185e-02  3.73613201e-02 -7.62299225e-02 -1.43979123e-04
  2.48260617e-01 -2.28513051e-02 -5.84736653e-02  1.98647425e-01
 -4.34069475e-03  4.09010760e-02  1.60096660e-02  5.16764298e-02
 -5.08981012e-02  5.69778942e-02 -1.74987152e-01 -5.51553145e-02
 -8.55825190e-03  1.53731769e-02 -3.30713391e-03  1.19142964e-01
 -2.25284562e-01  1.16855316e-01  3.06336228e-02  1.69484466e-02
  3.44857685e-02  4.58812527e-02 -1.17314950e-01 -8.85828584e-02
  1.18343867e-01 -1.97302461e-01  1.27518818e-01  1.86517477e-01
  2.48058569e-02  1.02048337e-01  1.32847518e-01  8.18932652e-02
 -1.69319194e-02 -6.33648112e-02 -1.89744726e-01 -2.73107737e-03
  1.06965147e-01 -3.62141021e-02  8.80411491e-02  2.82417387e-02]