[-0.13664323  0.04725471  0.05160763 -0.06032315 -0.10814779 -0.05588999
 -0.03868468 -0.11286242  0.13908565 -0.06700853  0.15694551 -0.07326587
 -0.24347739 -0.04091944 -0.06140315  0.23441601 -0.12122457 -0.1481176
  0.017281   -0.0274849   0.05108107 -0.0330111   0.0350337   0.10404088
 -0.16928579 -0.36918053 -0.1198113  -0.0689934  -0.12571913  0.01758639
 -0.03924559  0.08261996 -0.20018272 -0.04587327  0.06029334  0.09381413
  0.02042451 -0.0952207   0.17401877  0.06782172 -0.27679929  0.01003278
  0.12060326  0.27852058  0.14520511  0.04992009  0.06777984 -0.09367017
  0.14622167 -0.19110298  0.04512842  0.13900632  0.04055892 -0.01168104
  0.01695822 -0.10354503  0.07019196  0.1275634  -0.17945249 -0.02065744
  0.08919831 -0.03786052 -0.0305928  -0.09743821  0.23187868  0.13645758
 -0.13157555 -0.10061812  0.12838362 -0.1323566  -0.03202197  0.01703604
 -0.20327437 -0.21625172 -0.3417905   0.02707913  0.38989073  0.12596503
 -0.12664138  0.0786373  -0.02484724  0.07102617  0.12881903  0.21516554
  0.00943981  0.06241902 -0.04508486  0.01586548  0.22022982 -0.04463561
 -0.01511326  0.22938202 -0.00219434  0.03142815 -0.00615489  0.06333959
 -0.09379641  0.0135332  -0.11507722  0.01215957  0.02354859  0.02906105
  0.03526033  0.10270341 -0.24233356  0.04236011 -0.01600967 -0.0031225
 -0.01043055  0.00571578 -0.05650881 -0.08491665  0.04216413 -0.2274462
  0.12522228  0.177053   -0.0383727   0.10733949  0.08829178  0.05038761
  0.00554309 -0.03162665 -0.15514533 -0.02339766  0.1287522  -0.0322489
  0.08957843 -0.00953269]