[-0.16020142  0.03380177  0.02998407 -0.07671157 -0.11124267 -0.03046509
 -0.05110798 -0.07872583  0.11453126 -0.0940402   0.16093452 -0.10031807
 -0.23218213 -0.07018562 -0.08908992  0.25332835 -0.19177352 -0.12658677
  0.02830735 -0.00257664  0.05418968 -0.02255953  0.026675    0.04019907
 -0.13499488 -0.36845258 -0.13326487 -0.06544509 -0.06008493 -0.01562457
 -0.06041703  0.08384075 -0.16344427 -0.05790912  0.05318266  0.11845688
  0.00363205 -0.07549076  0.13672565  0.05155103 -0.21592966 -0.03221245
  0.13486794  0.29525205  0.17988196  0.06403349  0.03264641 -0.10678196
  0.12212789 -0.1671261  -0.00444129  0.08933762  0.05336323  0.0463066
  0.01429369 -0.08185674  0.12062508  0.11820041 -0.17588045 -0.0150679
  0.09578855 -0.07664051 -0.00901323 -0.07201383  0.24096821  0.06703478
 -0.10728127 -0.12931791  0.16438572 -0.12159675 -0.04809454 -0.00685224
 -0.15834358 -0.1867474  -0.32832846 -0.01888533  0.3688069   0.14196526
 -0.1163547   0.08244912  0.02649173 -0.00558634  0.14567736  0.21256199
 -0.02205589  0.05318905 -0.07538737  0.00276935  0.2050638  -0.05912423
  0.00756323  0.16037185  0.00337711  0.04114976  0.04840234  0.04415414
 -0.10471964  0.05199898 -0.14233661 -0.00750483  0.01512256 -0.06343606
  0.02147558  0.10214826 -0.1573541   0.09801894 -0.00639069 -0.0060876
 -0.04401388 -0.03405908 -0.05386207 -0.03132178  0.07726582 -0.1959281
  0.12042528  0.20161192  0.0138599   0.12739591  0.11198782  0.08739289
 -0.02942113 -0.00207011 -0.17467007 -0.0267855   0.08653092 -0.0522911
  0.11699696  0.00816781]