[-0.1585719   0.08283184  0.05052612 -0.06785791 -0.14688133 -0.01419526
 -0.06332908 -0.10239533  0.13145985 -0.07414731  0.20835653 -0.0491358
 -0.21939066 -0.04265425 -0.06363524  0.23467015 -0.13836895 -0.14850728
  0.02775749 -0.03308023  0.04120116 -0.0330766   0.06245014  0.07602638
 -0.1813774  -0.38983306 -0.1103123  -0.03612306 -0.06627151 -0.01623129
 -0.05023995  0.07450711 -0.20731454 -0.03225246  0.05401136  0.10342713
  0.003656   -0.06952389  0.1601945   0.05073477 -0.26429382 -0.03453636
  0.1146336   0.29130828  0.16397063  0.06280064  0.0583179  -0.10444129
  0.10580925 -0.17209387  0.05865228  0.11747544  0.01497356 -0.01050996
 -0.01641626 -0.09054848  0.04736475  0.17311347 -0.15431289 -0.02710822
  0.08136906 -0.06237486 -0.02770519 -0.12000116  0.25178748  0.11186737
 -0.12438792 -0.10714277  0.15232046 -0.10270014 -0.03088143  0.02826434
 -0.17133375 -0.21304308 -0.35363576  0.00415791  0.42044234  0.14348513
 -0.09422828  0.05658894 -0.02852263  0.03211923  0.09623578  0.2009789
 -0.034462    0.05895203 -0.06561603  0.03868445  0.22326727 -0.02618597
  0.00095091  0.23364203  0.00301018  0.05470326 -0.00356185  0.08718627
 -0.10964924  0.02408235 -0.12415444 -0.02963988 -0.01375262 -0.00247353
  0.04841527  0.14433829 -0.24414591  0.07666375 -0.00050302  0.02356907
  0.00916243  0.01674105 -0.0169441  -0.1169814   0.0479158  -0.234569
  0.07017095  0.20983957  0.02371529  0.13874415  0.11108372  0.05951744
 -0.00227178 -0.05037211 -0.18469799  0.02083124  0.0952033  -0.06927102
  0.09538219  0.03509759]