[-0.15587775  0.02854599  0.03005323 -0.06702397 -0.11550821 -0.03451087
 -0.06615052 -0.12128203  0.10569185 -0.11225233  0.17208426 -0.09133127
 -0.21077783 -0.05809977 -0.08565154  0.22684002 -0.13301548 -0.1584049
  0.00458925 -0.02132949  0.06640335 -0.01891131  0.03982334  0.07514875
 -0.1870677  -0.36388972 -0.12801552 -0.04158093 -0.09263732 -0.00826834
 -0.05062998  0.06542181 -0.22061698 -0.03928507  0.05406693  0.11029994
  0.01800587 -0.05898442  0.15223436  0.03386229 -0.27089062 -0.01925757
  0.12160625  0.27894226  0.1650392   0.07974721  0.03174804 -0.11695005
  0.10206051 -0.16026042  0.0450782   0.12068246  0.01217779  0.00243293
 -0.00396145 -0.07144117  0.05998126  0.14051157 -0.13111934 -0.03048403
  0.07553532 -0.06234598 -0.02298117 -0.12883244  0.22900645  0.08444818
 -0.11417717 -0.13982256  0.14630869 -0.15373595 -0.05226577  0.0297292
 -0.16030966 -0.20438349 -0.36053351 -0.02970345  0.39322957  0.14463645
 -0.12345314  0.09266521  0.00053895  0.03038387  0.14697866  0.2152237
  0.01705141  0.09233885 -0.04901842  0.02420287  0.23666564 -0.04562796
 -0.01202542  0.20839505 -0.00841231  0.03573655  0.02706041  0.05692353
 -0.09562211  0.03007639 -0.11659849 -0.00392126  0.01262974  0.02486382
  0.03824995  0.12869947 -0.18793193  0.09877448 -0.02272691  0.02083109
 -0.00302588  0.00520283 -0.04307735 -0.1010407   0.054871   -0.22359478
  0.08459232  0.18996459 -0.01033384  0.12183513  0.11252995  0.08823423
 -0.01521952  0.00376312 -0.21168263 -0.01136513  0.10687077 -0.06351676
  0.12835008  0.01078902]