[-0.16374172  0.0629504   0.04671155 -0.04671513 -0.13219742 -0.04325913
 -0.03441601 -0.10737681  0.1137585  -0.07601834  0.20143259 -0.09681381
 -0.22866324 -0.05146992 -0.05727987  0.23710246 -0.11061495 -0.12858878
  0.01460731 -0.03792539  0.03858471 -0.01697725  0.03350399  0.0771156
 -0.15404879 -0.3732495  -0.12623186 -0.06405616 -0.08675986 -0.00911958
 -0.03964129  0.07389849 -0.17176008 -0.04536779  0.05539532  0.08605792
  0.01666062 -0.05093694  0.16973662  0.04562094 -0.24343371 -0.02143285
  0.11205506  0.29942518  0.14304999  0.08067085  0.056893   -0.09882376
  0.0884361  -0.15712437  0.02990252  0.10476714  0.03349533 -0.01321461
 -0.00709948 -0.09792595  0.0644419   0.11994994 -0.17740627 -0.02408781
  0.0909427  -0.06587887 -0.02934305 -0.08583718  0.2733818   0.09718206
 -0.11842429 -0.09635057  0.14678286 -0.13756208 -0.03057487  0.01603724
 -0.16654466 -0.20508817 -0.34404406  0.00363499  0.40976611  0.13658164
 -0.13974713  0.06499741 -0.02783616  0.04323132  0.14306711  0.18485992
 -0.01771426  0.05345074 -0.07953114 -0.00109658  0.21958673 -0.05021257
 -0.00368632  0.2135192   0.01315616  0.03372272  0.01985749  0.05367745
 -0.09443286  0.00285355 -0.10213766 -0.01980873  0.00788263 -0.01838866
  0.04217575  0.11081695 -0.244452    0.09693497 -0.0087697   0.00172459
 -0.02673637  0.01284962 -0.03533769 -0.07843994  0.07846831 -0.22431822
  0.08770961  0.19139703 -0.01700266  0.14519142  0.09855075  0.07580238
 -0.03210432 -0.02508092 -0.16495018 -0.01611424  0.09848356 -0.0601046
  0.12818597  0.02674538]