[-0.18494424  0.05613635  0.06817905 -0.06494739 -0.12893043 -0.04810977
 -0.04236679 -0.09894667  0.11995037 -0.076692    0.20601247 -0.07791401
 -0.22290142 -0.05292838 -0.04669546  0.23123951 -0.11296894 -0.12092628
  0.02056538 -0.03531209  0.03961677 -0.02332144  0.0341012   0.08540446
 -0.15441345 -0.38259298 -0.118191   -0.06622434 -0.10599374 -0.00637951
 -0.04027366  0.06643134 -0.18555044 -0.04464196  0.03849782  0.08844954
  0.01090279 -0.04309975  0.16077021  0.05012445 -0.25349513 -0.02191565
  0.10406283  0.29104644  0.16761184  0.07872788  0.05678326 -0.09049479
  0.09541871 -0.16488104  0.03890069  0.10552076  0.04554697 -0.02964673
  0.00162168 -0.09927812  0.06031136  0.11655439 -0.17960428 -0.02275901
  0.08304643 -0.06356341 -0.03239475 -0.07922537  0.26053426  0.1055758
 -0.1241267  -0.08737029  0.15366875 -0.12800984 -0.0250696   0.0203139
 -0.17707822 -0.22240177 -0.34661838  0.00906897  0.41091463  0.13537589
 -0.1467533   0.05965466 -0.03514795  0.04018826  0.13364491  0.19229451
 -0.01456917  0.05106416 -0.07054048  0.00814033  0.20476368 -0.03570808
 -0.00267045  0.22325651  0.01544651  0.0286546   0.01325107  0.06054794
 -0.0895575   0.00905545 -0.11132903 -0.02296971  0.00341643 -0.01314003
  0.03952924  0.11065543 -0.26022616  0.1014147  -0.00309738  0.00403031
 -0.02814305  0.01031106 -0.03055003 -0.07766671  0.06913482 -0.21976018
  0.08323344  0.19986002 -0.01605381  0.14897229  0.09308087  0.06082969
 -0.01997678 -0.03061885 -0.16886492 -0.00650979  0.09313826 -0.06238722
  0.13076836  0.03376762]