[-0.14453827  0.05643668  0.06572741 -0.08440744 -0.12546596 -0.03711459
 -0.03250536 -0.11373778  0.09822188 -0.08698701  0.20678413 -0.10497595
 -0.23146152 -0.06136999 -0.07602017  0.24035501 -0.11123021 -0.12244836
  0.013339   -0.03640265  0.0478179  -0.02887674  0.03474816  0.0812379
 -0.14445277 -0.35272035 -0.13355792 -0.06026521 -0.07577834 -0.02059662
 -0.02387713  0.06278446 -0.18639006 -0.02961714  0.03437257  0.06725635
  0.04257328 -0.07191407  0.15209977  0.03117268 -0.271065    0.01126115
  0.09730153  0.26328194  0.14541768  0.07633894  0.04947864 -0.1056109
  0.11663514 -0.15513854  0.03339681  0.10008442  0.01812399 -0.02295718
 -0.04775737 -0.10188063  0.04894393  0.13995259 -0.19443147 -0.02174363
  0.08368818 -0.05855172 -0.02119765 -0.09459656  0.2232282   0.11861248
 -0.1483501  -0.10678484  0.16349821 -0.15525632  0.00108868  0.02873249
 -0.18840967 -0.19916986 -0.34549749  0.02503981  0.39732394  0.13559948
 -0.1310852   0.0167159  -0.02191103  0.08032489  0.12736702  0.2138969
 -0.00414594  0.04124386 -0.05288464 -0.00212405  0.21209851 -0.04954486
 -0.02388723  0.23577653  0.00760817  0.04951765 -0.00961799  0.08792599
 -0.09115769 -0.00643984 -0.10170054  0.02365433 -0.03171086  0.00115249
  0.02431979  0.13576256 -0.20373936  0.10482104 -0.02161598  0.00110111
 -0.04925406  0.01972695 -0.00520795 -0.09012935  0.06365951 -0.19028932
  0.09607306  0.21389297  0.00686644  0.12432096  0.10285109  0.0749059
 -0.01057803 -0.04338731 -0.16618553 -0.02059122  0.10461133 -0.08011213
  0.1192685   0.00123568]