[-1.50792643e-01  5.77583872e-02  3.20383795e-02 -6.91250488e-02
 -1.27863884e-01 -1.29567711e-02 -6.14301078e-02 -7.91818127e-02
  1.12437025e-01 -1.02662325e-01  1.57178417e-01 -9.29951370e-02
 -2.45418936e-01 -6.63310513e-02 -8.90597999e-02  2.34234914e-01
 -1.61568299e-01 -1.29575461e-01  2.56959349e-02 -2.05707061e-03
  7.99636841e-02 -1.30162006e-02  2.97889151e-02  3.52738909e-02
 -1.36928797e-01 -3.75575960e-01 -1.38594672e-01 -5.21409027e-02
 -6.46790415e-02 -3.35916094e-02 -4.48945723e-02  6.44805655e-02
 -1.70525253e-01 -6.15137629e-02  4.59531210e-02  1.14693604e-01
 -3.78607976e-04 -6.87460080e-02  1.35962114e-01  3.94390747e-02
 -2.25124747e-01 -2.93622371e-02  1.28018662e-01  2.96457708e-01
  1.59203008e-01  8.60076472e-02  3.95849235e-02 -1.18903793e-01
  1.11538328e-01 -1.57766849e-01  1.94974281e-02  1.01834290e-01
  3.56642120e-02  5.01928329e-02  1.60552131e-03 -8.96723494e-02
  1.01251438e-01  1.31200209e-01 -1.61325321e-01 -6.00386178e-03
  9.65128765e-02 -6.71744868e-02 -4.31106379e-03 -8.17655027e-02
  2.45576188e-01  5.37465401e-02 -1.11945346e-01 -1.38890058e-01
  1.51589662e-01 -1.33453816e-01 -5.33869863e-02  1.04273949e-02
 -1.63371801e-01 -1.92588612e-01 -3.30455601e-01 -5.51555771e-03
  3.87659281e-01  1.50927708e-01 -1.15135528e-01  6.28746226e-02
  1.06985895e-02 -4.46913764e-04  1.42400309e-01  2.14295670e-01
 -9.21241380e-03  5.96797056e-02 -7.38464594e-02  1.33402264e-02
  2.24938780e-01 -6.46377280e-02 -9.81381070e-03  1.79810986e-01
  1.90089755e-02  5.37737384e-02  3.56498770e-02  4.63156216e-02
 -1.08325779e-01  4.44771536e-02 -1.49597600e-01 -1.46327261e-02
  6.82691066e-03 -4.60888632e-02  1.37528721e-02  1.13045990e-01
 -1.55330658e-01  1.11496463e-01 -1.04216114e-03 -3.50931333e-03
 -4.77696210e-02 -2.44017374e-02 -7.59146288e-02 -5.15562966e-02
  8.96540135e-02 -1.94377407e-01  1.18915319e-01  2.08349496e-01
  3.96433584e-02  1.31831169e-01  1.34834245e-01  9.28276852e-02
 -9.43298172e-03 -1.55555205e-02 -1.81098923e-01 -2.38110125e-02
  9.93259326e-02 -4.74408455e-02  1.22244194e-01  5.06911566e-03]