[-1.30816549e-01  8.52952525e-02  1.21542014e-01 -9.08494219e-02
 -1.09474398e-01 -7.98560679e-02 -6.06682077e-02 -1.45771429e-01
  1.15140729e-01 -8.97818208e-02  1.73725173e-01 -2.72836816e-02
 -1.67092085e-01  3.01893950e-02 -1.01913355e-01  2.13749453e-01
 -1.74297407e-01 -1.62850708e-01  2.72946176e-03 -1.61556751e-02
  2.32673604e-02 -3.00978664e-02  2.54148245e-02  6.88472465e-02
 -1.30698889e-01 -3.22400540e-01 -1.38133153e-01 -5.37239425e-02
 -2.32572965e-02  1.09588373e-02 -4.09890562e-02  8.83457661e-02
 -2.04934761e-01 -9.18252673e-03  9.62928869e-03  1.08634546e-01
  1.87615945e-03 -8.92477408e-02  2.09712386e-01  2.16039028e-02
 -2.73341626e-01  2.40000729e-02  9.87191200e-02  2.92443901e-01
  1.95102736e-01  4.26549464e-04  5.68024218e-02 -6.95823729e-02
  1.69147938e-01 -2.22544834e-01  3.83967832e-02  1.27515107e-01
  6.81750178e-02  4.92895059e-02 -9.65094287e-03 -1.11692958e-01
  8.07041451e-02  1.16718732e-01 -1.93055063e-01  1.53813441e-03
  8.84630159e-02 -1.04294799e-01  3.87289785e-02 -9.47315991e-02
  2.52792776e-01  1.46989241e-01 -1.20405257e-01 -7.42066428e-02
  1.69900239e-01 -1.23707496e-01 -3.46287643e-03  1.43273836e-02
 -1.82575583e-01 -1.72225013e-01 -3.25197697e-01  1.61250122e-02
  4.31754351e-01  1.43256590e-01 -1.16391830e-01  8.65918472e-02
 -5.36850654e-02  1.61490887e-02  1.06033884e-01  1.80322140e-01
 -3.59645002e-02  8.28079507e-02 -8.08332190e-02  4.39929478e-02
  2.53016174e-01 -5.70843406e-02 -1.58547722e-02  2.01005980e-01
  5.15869120e-03  5.77267185e-02  1.72067713e-02  9.31340382e-02
 -9.76665840e-02 -1.05890781e-02 -1.56858131e-01  4.77015525e-02
 -6.30422458e-02 -1.02180464e-03  9.13027488e-03  1.22910358e-01
 -1.61807805e-01  9.76159498e-02  3.11529334e-03  6.57725055e-03
 -7.11195394e-02  2.20950674e-02 -3.21333110e-02 -1.06388472e-01
  7.07756877e-02 -1.87371001e-01  1.37730807e-01  1.60741642e-01
 -5.95692098e-02  1.34713888e-01  7.80096203e-02  8.17054063e-02
 -4.13205400e-02 -4.29749303e-02 -1.21000253e-01 -2.09063888e-02
  1.26433507e-01 -2.09630225e-02  1.24253273e-01  4.91570495e-02]