[-0.16341545  0.06559988  0.05217038 -0.07472776 -0.1318292  -0.02259337
 -0.04722435 -0.1016043   0.12392978 -0.08793432  0.18665664 -0.09276016
 -0.22403081 -0.0362979  -0.07803758  0.22133039 -0.13602111 -0.12710232
  0.02858626 -0.01471994  0.06739193 -0.02761699  0.02893459  0.06551534
 -0.18280783 -0.35978594 -0.122967   -0.05856602 -0.10107446 -0.01305142
 -0.0348977   0.0686432  -0.20095511 -0.03866212  0.03554341  0.11334135
  0.01411162 -0.0632697   0.17184867  0.05601934 -0.27384177  0.0136505
  0.09311947  0.28564116  0.14780442  0.05745918  0.04710936 -0.08889287
  0.1194361  -0.1712694   0.03008769  0.13584825  0.03833055 -0.01134779
 -0.01864474 -0.06538476  0.0714779   0.1344285  -0.18017764 -0.04957646
  0.10976911 -0.06289824 -0.02388358 -0.09511854  0.22410677  0.10608949
 -0.12451694 -0.11652769  0.1371675  -0.12257345 -0.03521015  0.03590603
 -0.18011455 -0.21101359 -0.3325727   0.02933505  0.41635004  0.13052097
 -0.10981175  0.07456505 -0.02812219  0.0367531   0.12678874  0.21108094
  0.01597287  0.06709471 -0.04384054  0.03106379  0.20652287 -0.05689972
 -0.00723269  0.20564237  0.0150087   0.03643642 -0.00152598  0.06311475
 -0.08584462  0.0295471  -0.08793512  0.02011159  0.0082948   0.0037118
  0.0284918   0.11692806 -0.2331543   0.10156461 -0.0205183  -0.00787981
 -0.01995824 -0.0104134  -0.02113374 -0.06802689  0.05685785 -0.25260973
  0.08762927  0.19307593 -0.04151293  0.12539607  0.10157868  0.06380241
  0.00094945 -0.01043053 -0.1932546  -0.03595869  0.10724874 -0.04878694
  0.11073346 -0.00147343]