[-0.17139547  0.09230984  0.0161206  -0.05856809 -0.02423974 -0.08890216
 -0.01129841 -0.12745821  0.15814601 -0.09390485  0.1935108  -0.05957203
 -0.19822764 -0.06791686 -0.06766051  0.17367826 -0.21250813 -0.11020207
  0.01165861 -0.09897401  0.06804259 -0.00229841  0.03651407  0.06542119
 -0.12916344 -0.2985889  -0.13996963 -0.14816159 -0.01734008 -0.00293057
  0.01143742  0.04696392 -0.16950841 -0.02958797  0.01368655  0.07340705
  0.00709897 -0.02194198  0.18259664  0.04602136 -0.11229058 -0.09094903
  0.04876273  0.32762668  0.14718692  0.03601199  0.02122281 -0.04243342
  0.0892446  -0.19092485  0.03560013  0.1253437   0.05084939  0.03820826
  0.07099365 -0.09709778  0.06118379  0.052348   -0.19280639  0.03006828
  0.04323665 -0.02059285 -0.06125651 -0.02001702  0.26562017  0.1306165
 -0.11499418 -0.07055055  0.20601526 -0.15138417 -0.02979213  0.0104262
 -0.14542906 -0.19933943 -0.24658878 -0.0046222   0.42384776  0.13240585
 -0.13507937  0.07680016 -0.0470088  -0.0469352   0.15257417  0.13379611
 -0.05964656  0.11615547 -0.07146996  0.05654409  0.16745523 -0.05202368
 -0.06236259  0.22221234 -0.02802717  0.01328458  0.07003575  0.00200406
 -0.03264676 -0.01350325 -0.14657049 -0.03632191  0.06927623 -0.07232668
 -0.03072209  0.06669378 -0.15246849  0.08189812  0.04505234 -0.0208856
 -0.09252226  0.00712097 -0.12779896 -0.0397475   0.14146666 -0.19001979
  0.15585405  0.1641324  -0.05735763  0.14909571  0.04039974  0.05836539
 -0.00107238 -0.0551126  -0.11069101 -0.05237659  0.05896724  0.00108904
  0.08391406  0.00128031]