[-0.15159301  0.04457453  0.04468458 -0.08289693 -0.13561574 -0.01599376
 -0.0599215  -0.1081053   0.12053496 -0.08126452  0.20417066 -0.05665926
 -0.21859112 -0.03823742 -0.06435052  0.24071467 -0.15662406 -0.1572644
  0.03730431 -0.03591366  0.01251568 -0.03760699  0.04950518  0.07579855
 -0.17404273 -0.369899   -0.1115361  -0.04138498 -0.07096654  0.00316854
 -0.04378426  0.09676103 -0.20049231 -0.01443543  0.06024475  0.10880059
  0.01520528 -0.07092889  0.15727064  0.05932697 -0.24815559 -0.04915665
  0.11759615  0.29403269  0.16574463  0.04277726  0.04515349 -0.09170027
  0.1001997  -0.1697883   0.04627003  0.11098011  0.02398266 -0.00652703
 -0.01536875 -0.08685827  0.07996102  0.16796654 -0.15913047 -0.02541026
  0.08638351 -0.0757746  -0.01885105 -0.10675987  0.25219107  0.09420774
 -0.11981374 -0.10717579  0.15367094 -0.08563126 -0.04283566  0.01043831
 -0.17782977 -0.20747553 -0.36043158 -0.00129397  0.39618722  0.14448415
 -0.09522067  0.08385228 -0.01498839  0.02862777  0.10807907  0.18865989
 -0.03571638  0.05222191 -0.0736167   0.03159845  0.20928803 -0.02155939
  0.00245299  0.21265553 -0.02011435  0.03480961  0.0093933   0.08855613
 -0.09682436  0.03644979 -0.1273632  -0.02700046 -0.00212635 -0.01609161
  0.05417224  0.13923445 -0.24808958  0.0714388  -0.00228826  0.01751895
  0.0071437   0.00797266 -0.02238619 -0.09608403  0.05348815 -0.24285315
  0.07294523  0.20828533  0.02827314  0.13685854  0.10823653  0.05368322
 -0.02145348 -0.04861075 -0.1840173   0.01372342  0.08854313 -0.05962412
  0.09997845  0.050616  ]