[-1.31498054e-01  6.97977319e-02  5.15741967e-02 -9.52469036e-02
 -1.10949174e-01 -6.92474395e-02 -7.38234445e-02 -1.22854449e-01
  1.54078752e-01 -1.53647155e-01  1.32801414e-01 -6.98352978e-02
 -2.04123259e-01 -1.73804145e-02 -4.43896875e-02  2.09155872e-01
 -1.51236415e-01 -1.39181480e-01 -1.25136366e-02  7.78588513e-03
  8.55654106e-02  4.28551156e-03 -1.02026695e-02  7.35279843e-02
 -1.52890205e-01 -3.61967891e-01 -1.46959677e-01 -4.11957912e-02
 -7.96685293e-02 -1.79423839e-02 -3.09634209e-02  1.85072683e-02
 -2.17828378e-01 -5.94428480e-02 -1.94593670e-03  1.01698376e-01
 -2.61114538e-02 -5.45832627e-02  1.42763242e-01  4.63992357e-02
 -2.89166600e-01  4.29966114e-02  6.63357079e-02  2.61241734e-01
  1.85942724e-01  4.23034839e-02  5.20934761e-02 -1.31133541e-01
  1.30067647e-01 -1.72899202e-01  5.09238355e-02  1.03735209e-01
  2.84679066e-02  3.54397446e-02  2.49504577e-02 -1.06714025e-01
  5.39903603e-02  1.72264710e-01 -1.81501806e-01  4.71587256e-02
  1.35072500e-01 -8.39897320e-02 -3.42643890e-03 -5.09411953e-02
  2.17946514e-01  8.76917616e-02 -1.23865418e-01 -1.41381547e-01
  1.51690468e-01 -1.52881816e-01 -2.34917253e-02  4.56040576e-02
 -1.45510778e-01 -2.22430304e-01 -3.51133585e-01  2.79678944e-02
  3.80494237e-01  1.43961295e-01 -1.49576873e-01  4.42260690e-02
 -2.22098697e-02  5.26306443e-02  1.87663600e-01  1.91497549e-01
  3.88356596e-02  3.34613733e-02 -7.62382150e-02  4.28484157e-02
  2.23689482e-01 -2.53794324e-02 -1.82140432e-02  2.38621816e-01
  1.16228806e-02  3.56914103e-02  7.02327257e-03  8.36891085e-02
 -1.30036756e-01  5.51042706e-03 -1.39201835e-01  4.60876664e-03
  2.60280501e-02  1.37626473e-02 -3.76423751e-03  1.37051612e-01
 -1.30755991e-01  1.42904803e-01 -1.46981347e-02  2.05139872e-02
 -4.69750799e-02  4.10130713e-03 -7.85088465e-02 -7.85846338e-02
  8.30851495e-02 -1.84345812e-01  1.39188647e-01  1.67889342e-01
 -2.31108870e-02  1.16151989e-01  1.00812040e-01  7.00316802e-02
 -2.09166110e-02 -3.33829410e-02 -2.17927009e-01  3.26360780e-04
  1.05828956e-01 -1.66361667e-02  1.43947229e-01  1.01107694e-02]