[-1.43064603e-01  6.89240992e-02  5.83763309e-02 -6.37778565e-02
 -1.60312340e-01 -7.36887334e-03 -4.54510190e-02 -1.05746627e-01
  1.20468453e-01 -8.75802860e-02  1.96389899e-01 -5.29802032e-02
 -2.17111275e-01 -4.73172478e-02 -6.69021383e-02  2.45574877e-01
 -1.42393604e-01 -1.24452248e-01  3.56669025e-03 -5.14477752e-02
  2.43296046e-02 -1.90095287e-02  6.99002966e-02  6.33770451e-02
 -1.73065037e-01 -3.76949161e-01 -1.19173206e-01 -4.82277162e-02
 -6.86448812e-02 -3.76671813e-02 -6.29387423e-02  6.20182939e-02
 -1.86824545e-01 -3.63722444e-02  6.27939254e-02  9.56904367e-02
  3.88265791e-04 -7.88136497e-02  1.41782627e-01  3.40158157e-02
 -2.33561039e-01 -3.14320773e-02  1.18951894e-01  2.84808815e-01
  1.70755297e-01  7.36210570e-02  4.91872653e-02 -9.67775956e-02
  1.16206646e-01 -1.74929544e-01  3.85861620e-02  8.69213864e-02
  5.96717757e-04 -1.24226008e-02 -1.73348691e-02 -9.55133364e-02
  5.12183197e-02  1.64573058e-01 -1.68946221e-01 -1.70911010e-02
  7.72818923e-02 -7.38166645e-02 -2.76537184e-02 -9.26423296e-02
  2.53760308e-01  1.05793573e-01 -1.37896746e-01 -1.12416998e-01
  1.31972298e-01 -1.28441706e-01 -4.79752291e-03  5.14850579e-03
 -1.75091892e-01 -2.11388096e-01 -3.51388901e-01 -2.86953081e-03
  4.42375273e-01  1.54307097e-01 -9.12294760e-02  3.24073620e-02
 -3.69576477e-02  3.48283984e-02  9.98413488e-02  1.97084293e-01
 -3.91274132e-02  5.40180989e-02 -7.87124187e-02  4.95901704e-02
  2.12222964e-01 -4.88447659e-02 -7.04446901e-03  2.39722759e-01
 -6.08293898e-03  5.25954627e-02 -1.63740274e-02  7.61877820e-02
 -1.32073641e-01  2.50824522e-02 -1.08515598e-01 -2.36351937e-02
 -7.50036677e-03 -1.70017090e-02  6.37490749e-02  1.47173569e-01
 -2.23045573e-01  8.38714242e-02 -2.35748943e-02  2.03824397e-02
 -6.28425041e-03  2.48055393e-03 -4.74970452e-02 -1.09585695e-01
  6.59166947e-02 -2.25276425e-01  6.18363135e-02  2.28790686e-01
  2.08903290e-02  1.42157063e-01  1.10404573e-01  5.85068427e-02
 -9.12112009e-04 -2.96849068e-02 -1.70448765e-01  2.20360346e-02
  8.77323002e-02 -7.44742900e-02  1.14850439e-01  2.60361917e-02]