[-1.72479346e-01  4.66108322e-02  7.41966888e-02 -8.09808075e-02
 -1.28580853e-01 -5.28250113e-02 -3.70404832e-02 -1.24767698e-01
  1.09929048e-01 -7.65238032e-02  1.82272106e-01 -9.17311832e-02
 -2.46541336e-01 -8.92588869e-02 -7.33606443e-02  2.52426893e-01
 -1.08481489e-01 -1.22053824e-01  2.79534049e-02 -4.50392924e-02
  4.01408896e-02 -2.15150323e-02  3.71924415e-02  9.86350179e-02
 -1.49041533e-01 -3.66452992e-01 -1.24111868e-01 -5.13910241e-02
 -1.40040800e-01 -1.60679780e-02 -2.72670519e-02  9.15865973e-02
 -1.83821782e-01 -3.89468260e-02  3.96630354e-02  1.09527253e-01
  2.52136705e-03 -8.71476308e-02  1.04687609e-01  3.18419375e-02
 -2.58589596e-01 -2.82794330e-02  1.25135332e-01  2.70232439e-01
  1.55711383e-01  7.25728422e-02  6.17586076e-02 -1.02112889e-01
  1.23816684e-01 -1.74062252e-01  2.24678721e-02  9.61223245e-02
  2.84863915e-02 -3.73680256e-02 -5.78246592e-03 -1.01884328e-01
  5.07676192e-02  1.17903315e-01 -1.56856015e-01 -4.35501151e-02
  7.48962685e-02 -5.47734685e-02 -6.02494478e-02 -1.00234583e-01
  2.27321386e-01  1.33296326e-01 -1.42893985e-01 -1.02298871e-01
  1.64869443e-01 -1.42469332e-01 -3.73878106e-02  1.52341248e-02
 -1.92234948e-01 -2.12300584e-01 -3.47106904e-01  2.06326935e-02
  3.94670844e-01  1.09332524e-01 -1.21133819e-01  3.61989811e-02
 -1.93859022e-02  1.00759983e-01  1.09570019e-01  2.19225124e-01
 -7.50975916e-03  4.04748283e-02 -6.14023097e-02  2.78570387e-03
  2.00154141e-01 -6.76954985e-02 -1.71898901e-02  2.14128688e-01
  1.23052895e-02  3.36137973e-02 -8.98239482e-03  6.43893480e-02
 -8.49886686e-02  4.48009782e-02 -1.08787455e-01  8.45942367e-03
  3.74888182e-02  3.73545894e-03  3.37995552e-02  1.19356729e-01
 -2.19211534e-01  8.63808393e-02 -2.18138477e-04  7.11147487e-03
  5.00288280e-03 -4.80134040e-04 -5.31340316e-02 -9.15773660e-02
  5.08823171e-02 -2.08200440e-01  9.91018340e-02  2.05630705e-01
 -1.16914585e-02  1.32251590e-01  1.03175595e-01  8.67334381e-02
  7.23510236e-03 -4.04445641e-02 -1.49435565e-01 -1.97569076e-02
  1.25964329e-01 -6.43756017e-02  7.80586004e-02 -6.24403451e-03]