[-1.30168080e-01  6.35557920e-02  4.88779843e-02 -7.12598190e-02
 -1.41695365e-01 -1.89767387e-02 -3.11489552e-02 -3.43238078e-02
  1.63161784e-01 -6.14390373e-02  1.55805439e-01 -3.42625417e-02
 -2.31421337e-01 -4.84129600e-02 -6.45219758e-02  2.56180495e-01
 -1.85845360e-01 -1.24355949e-01  2.03736071e-02  1.67198684e-02
  7.83804581e-02 -1.02993464e-02  4.82588895e-02  1.00526236e-01
 -1.58483267e-01 -3.96357030e-01 -1.19871177e-01 -5.90512566e-02
 -4.47127819e-02 -3.58523130e-02 -5.44623025e-02  7.35601187e-02
 -1.96185142e-01 -7.72105828e-02  3.02264746e-02  1.09485090e-01
 -2.83636693e-02 -9.00818706e-02  1.61728904e-01  7.47828037e-02
 -2.77581900e-01 -6.45720819e-03  7.25237355e-02  2.94751406e-01
  1.91194445e-01  5.89189902e-02  6.55652210e-02 -8.72242898e-02
  1.19269527e-01 -2.11141139e-01  3.98420468e-02  1.30473897e-01
  4.97419480e-03  3.57986055e-02 -2.94506978e-02 -7.60038868e-02
  7.47286975e-02  1.73558161e-01 -2.08008036e-01 -1.79397371e-02
  7.08691180e-02 -6.04762323e-02  1.49137527e-02 -5.78738153e-02
  2.08296016e-01  9.47536305e-02 -9.73996595e-02 -1.39549360e-01
  1.52323857e-01 -1.62482962e-01 -4.41970006e-02  2.11149100e-02
 -1.71223760e-01 -2.05917984e-01 -3.49919558e-01 -1.17483502e-02
  3.92601103e-01  1.47705838e-01 -9.82773975e-02  7.18369856e-02
 -3.65468413e-02  1.90434493e-02  1.31575093e-01  2.02203587e-01
  3.95497680e-03  6.14134744e-02 -7.47524723e-02  3.14755552e-02
  2.18726382e-01 -4.18499187e-02 -7.00193970e-03  2.41280392e-01
  4.40433510e-02  4.57310453e-02  4.15474251e-02  6.61440119e-02
 -7.73660466e-02  3.41186486e-02 -1.50509104e-01 -1.63355526e-02
 -3.85224441e-04 -2.17717001e-03  2.44510975e-02  1.11129366e-01
 -1.98492989e-01  1.11125112e-01  8.45523924e-03  1.92416720e-02
 -1.52733726e-02 -1.12209385e-02 -9.70337316e-02 -9.10907015e-02
  9.85375866e-02 -1.92520395e-01  1.24955036e-01  2.22214252e-01
  9.53145354e-05  1.12359241e-01  1.16798781e-01  5.98497652e-02
 -1.92149151e-02 -6.92250282e-02 -1.80757269e-01  2.24443190e-02
  1.33231923e-01 -5.14944755e-02  1.17220424e-01  5.71694737e-03]