[-1.51988015e-01  3.70924734e-02  4.71083596e-02 -9.90026519e-02
 -1.19292356e-01 -3.34085859e-02 -5.04327789e-02 -1.19750418e-01
  1.20114565e-01 -9.00222957e-02  1.93491533e-01 -4.47687656e-02
 -2.04973683e-01 -7.81671032e-02 -7.67685398e-02  2.36760885e-01
 -1.82895571e-01 -1.35915384e-01  3.12399156e-02 -3.87804210e-02
  4.54674028e-02 -6.88370457e-03  6.26711696e-02  4.52617332e-02
 -1.69924974e-01 -3.65260273e-01 -1.05431907e-01 -5.30404337e-02
 -8.07712749e-02  2.20440868e-02 -1.73200946e-02  8.98205787e-02
 -1.99074134e-01 -1.78007130e-02  5.26271872e-02  8.87403563e-02
  1.32077439e-02 -6.49783388e-02  1.51120052e-01  4.78728637e-02
 -2.43610904e-01 -4.76250723e-02  1.13015436e-01  2.86743194e-01
  1.70812711e-01  4.15115245e-02  4.01554927e-02 -1.03302553e-01
  1.11699842e-01 -1.70794010e-01  5.26817003e-03  9.99167487e-02
  1.90400414e-03 -2.01444514e-02 -1.64828673e-02 -8.60533640e-02
  8.44863653e-02  1.35862619e-01 -1.71951368e-01 -3.59692276e-02
  7.68882558e-02 -8.92121717e-02 -3.94760817e-02 -1.05490975e-01
  2.33983114e-01  7.93344826e-02 -1.36445746e-01 -1.17360830e-01
  1.33517489e-01 -1.07777216e-01 -3.42277177e-02  1.38893044e-02
 -1.82400599e-01 -2.04873517e-01 -3.66930455e-01 -2.52136718e-02
  4.01844323e-01  1.24219157e-01 -1.02777578e-01  6.09135516e-02
 -8.55468959e-03  4.27241214e-02  1.39427215e-01  2.09332779e-01
 -2.13684440e-02  5.99326864e-02 -7.00837597e-02  2.58769151e-02
  1.93963438e-01 -5.06182797e-02 -2.24674325e-02  2.10925132e-01
 -1.28117371e-02  4.58337255e-02 -1.72477064e-03  7.60624260e-02
 -9.47913677e-02  5.33993207e-02 -1.20605431e-01  6.50153309e-03
  9.00775753e-03 -1.61640998e-02  5.30695431e-02  1.40799165e-01
 -2.02620029e-01  8.44996795e-02 -6.14045141e-03  1.34150730e-02
  3.08929215e-04 -2.18635593e-02 -3.24496515e-02 -9.65987667e-02
  4.88651767e-02 -2.10046396e-01  8.35452825e-02  2.24133119e-01
  1.62103008e-02  1.48238540e-01  1.03150085e-01  5.75260483e-02
 -4.27671634e-02 -1.12733664e-02 -1.89801693e-01  1.05632050e-02
  7.98603892e-02 -6.22829460e-02  1.14003144e-01  1.18926959e-02]