[-0.12262436  0.05256297  0.10020931 -0.09398351 -0.09935983 -0.08166637
 -0.05926771 -0.14546371  0.10625632 -0.08347066  0.17536199 -0.03979262
 -0.1577087   0.00407998 -0.07361408  0.21270104 -0.16465606 -0.15258312
  0.00477735 -0.01913746  0.02122051 -0.02678386  0.0170426   0.07545657
 -0.12965921 -0.30922309 -0.13275681 -0.05761857 -0.02739523 -0.00892789
 -0.04810712  0.09248874 -0.21097223 -0.01759711  0.02534848  0.12647127
  0.0136932  -0.09020786  0.1931877   0.03489992 -0.26444981  0.02314514
  0.08669338  0.28612551  0.18470776  0.00452403  0.05027843 -0.07062417
  0.16814776 -0.20156729  0.03426411  0.10915237  0.06608387  0.02960059
 -0.01456659 -0.10819262  0.0782245   0.11940374 -0.19392249 -0.0024544
  0.09338606 -0.10326228  0.01971462 -0.09744825  0.24808922  0.14202483
 -0.11959765 -0.08355397  0.1579067  -0.10674776 -0.02095895  0.01209788
 -0.1886739  -0.16291606 -0.33823395  0.01629629  0.41203213  0.11176522
 -0.11988334  0.08527751 -0.03816484  0.02928543  0.10948946  0.176948
 -0.02901649  0.08885314 -0.06243285  0.05496051  0.24540177 -0.05069959
 -0.01113982  0.17959325 -0.02132476  0.05842311  0.0076562   0.08423068
 -0.07437737  0.00222501 -0.13849707  0.04575608 -0.02937519 -0.00567142
  0.02572663  0.13657907 -0.18514416  0.08724191  0.00117877  0.00200089
 -0.05009755  0.01483158 -0.03684602 -0.08556594  0.06803121 -0.20673774
  0.14891678  0.17429422 -0.04699402  0.11145159  0.06604844  0.06843889
 -0.03822648 -0.03372876 -0.14695312 -0.01470232  0.12708114 -0.01423631
  0.11740685  0.04073266]