[-1.65185615e-01  6.97142407e-02  5.39827757e-02 -7.68078491e-02
 -1.21812515e-01 -1.98981315e-02 -4.55052964e-02 -9.95905325e-02
  1.26749352e-01 -9.76257101e-02  1.91614971e-01 -1.03773378e-01
 -2.23321512e-01 -3.00859399e-02 -6.33079261e-02  2.05707982e-01
 -1.23610131e-01 -1.24312319e-01  1.73147377e-02 -9.95341130e-03
  7.31717274e-02 -4.25172262e-02  1.78180318e-02  6.22866228e-02
 -1.77968130e-01 -3.57933044e-01 -1.38841748e-01 -5.17772846e-02
 -8.58803093e-02 -1.29087269e-02 -5.03362380e-02  4.63903807e-02
 -2.00537369e-01 -4.75104712e-02  2.30815299e-02  1.10051729e-01
  1.01327617e-02 -7.58431330e-02  1.58468947e-01  4.16382141e-02
 -2.73644060e-01  2.44291108e-02  9.34542343e-02  2.71883816e-01
  1.57200858e-01  6.52151853e-02  4.20325249e-02 -8.39772448e-02
  1.13649443e-01 -1.64023936e-01  3.60803418e-02  1.31569117e-01
  5.96896000e-02 -5.18778292e-03 -1.58863198e-02 -7.94412494e-02
  6.02500923e-02  1.45128161e-01 -1.73214853e-01 -4.26693074e-02
  9.53342915e-02 -5.35763502e-02 -1.58389397e-02 -8.59259740e-02
  2.21706390e-01  1.16426073e-01 -1.32117704e-01 -1.15118980e-01
  1.42083600e-01 -1.19650953e-01 -1.92612838e-02  3.36052291e-02
 -1.84393853e-01 -2.19975263e-01 -3.20977271e-01  4.12388854e-02
  4.14720505e-01  1.28477141e-01 -1.15459077e-01  7.10007772e-02
 -4.00015861e-02  3.72401848e-02  1.19352303e-01  2.07249552e-01
  1.37948608e-02  5.37690893e-02 -4.97479849e-02  2.47890390e-02
  2.10579798e-01 -6.05721474e-02 -5.34924865e-03  2.08415672e-01
  1.06353406e-02  3.42931896e-02 -1.07312808e-02  6.73487112e-02
 -9.30910483e-02  2.68275384e-02 -8.53877217e-02  1.43853994e-02
  1.12919128e-02 -2.99960375e-03  1.42700896e-02  1.20909415e-01
 -2.37774476e-01  9.94752869e-02 -8.57383106e-03 -3.52689269e-04
 -1.71547197e-02 -1.03268921e-02 -1.78599898e-02 -6.73506409e-02
  5.66536263e-02 -2.57974595e-01  8.20189640e-02  1.99212953e-01
 -3.79271246e-02  1.29208326e-01  1.10678554e-01  5.92527762e-02
  2.53255200e-02 -1.09360507e-02 -1.98699385e-01 -3.27445604e-02
  1.00974798e-01 -4.10648175e-02  1.00802295e-01  7.54356477e-03]