[-0.16191006  0.06527873  0.05099715 -0.07244432 -0.12742539 -0.02074079
 -0.03214733 -0.09041821  0.13982785 -0.09020429  0.18269193 -0.0780885
 -0.22899278 -0.03054126 -0.08220889  0.21674459 -0.12754831 -0.12188321
  0.01863836 -0.01750861  0.07516679 -0.03322576  0.02561024  0.05659724
 -0.17745148 -0.3660405  -0.13244726 -0.05619656 -0.09279794 -0.00635381
 -0.03104248  0.07559621 -0.20026489 -0.04624235  0.02842087  0.11157934
  0.0019071  -0.05249041  0.15623541  0.04710306 -0.27562651  0.02622303
  0.10003539  0.28734049  0.14554557  0.06927263  0.05696298 -0.09667533
  0.10673385 -0.17251281  0.03786147  0.12892491  0.04337622 -0.00283931
 -0.0067088  -0.0771715   0.06479645  0.12916699 -0.1716287  -0.04799795
  0.09795309 -0.05558262 -0.02204198 -0.09031393  0.22307935  0.10554953
 -0.1239052  -0.11560614  0.14010803 -0.13506027 -0.02383739  0.03776348
 -0.1768385  -0.21018732 -0.33288762  0.03661333  0.42562291  0.13283186
 -0.09523368  0.08432436 -0.03905303  0.03424311  0.12139847  0.21142168
  0.00657191  0.06867927 -0.04653583  0.03369237  0.2065026  -0.06646877
 -0.00468033  0.20191474  0.02346911  0.03598633 -0.01137811  0.05871661
 -0.09728002  0.02658684 -0.09808701  0.00779126  0.00137669  0.00808901
  0.02074668  0.11033247 -0.2319418   0.10087057 -0.01413128 -0.00963643
 -0.02039888 -0.00598274 -0.02212932 -0.07295477  0.05251501 -0.25005955
  0.08783647  0.19669478 -0.03988731  0.12996343  0.1112315   0.06112849
  0.00792125 -0.01447033 -0.19265543 -0.02387869  0.11217084 -0.04842206
  0.10236184 -0.00274418]