[-0.0817169   0.09149109  0.05202146 -0.06552169 -0.13607901 -0.04534348
 -0.02639775 -0.09787381  0.17156681 -0.06533983  0.18492189 -0.05975247
 -0.22566681 -0.04159406 -0.07770339  0.2343684  -0.13361484 -0.13369261
  0.01236261 -0.00989539  0.11101256 -0.00844076  0.05013162  0.09049619
 -0.17258239 -0.37566268 -0.14166845 -0.05041699 -0.03010192 -0.04140721
 -0.05106777  0.08278468 -0.19531702 -0.05995464  0.05507633  0.07859961
 -0.019869   -0.08373863  0.18208534  0.07074424 -0.2820735   0.01678299
  0.06424143  0.28876734  0.14797755  0.0506202   0.07963333 -0.12633613
  0.11478353 -0.1662975   0.06280442  0.14069143  0.02829914  0.01454911
 -0.02226468 -0.08005241  0.0540938   0.1699786  -0.21471162 -0.00715178
  0.12382524 -0.09703722 -0.0283398  -0.07272132  0.21787015  0.11041466
 -0.11243799 -0.14352673  0.14129744 -0.15318531 -0.02996411  0.02587326
 -0.1704579  -0.18754877 -0.34352696  0.00625621  0.42197725  0.13994713
 -0.1247765   0.07497453 -0.05681     0.07014541  0.14593646  0.19670334
 -0.01784731  0.07809611 -0.08731999  0.04158892  0.20042792 -0.07270666
 -0.0101814   0.26140454  0.02540931  0.08099019  0.00992705  0.04519081
 -0.11253513  0.01481341 -0.11154764 -0.01388608 -0.00219437  0.03683199
  0.04204587  0.12978487 -0.19060431  0.09454364 -0.00608103  0.01860248
 -0.00757402 -0.00261516 -0.06854118 -0.13584235  0.05877051 -0.2205718
  0.09877522  0.17686225 -0.00317814  0.10512353  0.11913065  0.06606869
  0.00067605 -0.07443265 -0.18489695  0.04293313  0.14795204 -0.04077709
  0.10425697 -0.0157057 ]