[-1.04934052e-01  9.03976113e-02  1.07978843e-01 -9.31332260e-02
 -1.13033533e-01 -5.95559254e-02 -7.23015890e-02 -1.41606092e-01
  1.28351316e-01 -8.29053596e-02  1.99002624e-01 -3.59894633e-02
 -1.84137285e-01  1.62591506e-02 -1.03958547e-01  2.28864536e-01
 -1.62849486e-01 -1.48018584e-01  1.05293086e-02  4.82147885e-03
  2.76393890e-02 -3.15961055e-02  3.43569592e-02  5.58271483e-02
 -1.31636694e-01 -3.16838294e-01 -1.34551033e-01 -5.43661900e-02
 -3.81603055e-02 -1.59076657e-02 -5.49515001e-02  8.06589350e-02
 -2.11204410e-01 -2.29565501e-02  2.58046091e-02  1.13023631e-01
  4.72675078e-03 -9.98959169e-02  2.07815409e-01  2.11890806e-02
 -2.68264353e-01  2.78215911e-02  9.43615958e-02  2.85690904e-01
  1.79660335e-01  4.92909504e-03  5.65103255e-02 -1.00139156e-01
  1.62778810e-01 -2.05405220e-01  5.61874397e-02  1.13284104e-01
  7.15050325e-02  3.95192914e-02 -1.93837825e-02 -1.13706909e-01
  7.35914037e-02  1.39343560e-01 -1.70015648e-01  2.91179866e-04
  9.57181379e-02 -7.99679011e-02  3.02740522e-02 -1.02230467e-01
  2.63878524e-01  1.30649924e-01 -1.28545150e-01 -8.60407948e-02
  1.44765452e-01 -1.00639723e-01 -1.76338777e-02  1.55592887e-02
 -1.94435447e-01 -1.80445910e-01 -3.40567470e-01  1.35428188e-02
  4.25825447e-01  1.28122047e-01 -1.51152119e-01  7.64131695e-02
 -5.47017157e-02  1.89813972e-02  1.10945188e-01  1.94791630e-01
 -7.04664132e-03  7.99721256e-02 -8.17190185e-02  2.99570542e-02
  2.75116563e-01 -8.44784975e-02 -1.46757020e-02  2.08466217e-01
 -3.44351842e-03  6.53531551e-02 -7.96216354e-03  7.51480386e-02
 -8.81373435e-02 -4.12356993e-03 -1.54243916e-01  2.54187975e-02
 -5.32530211e-02  1.37293907e-02 -6.23074872e-03  1.43578082e-01
 -1.86987683e-01  7.87037238e-02  1.33065032e-02  3.87240946e-03
 -3.86858732e-02  1.53669165e-02 -3.44962552e-02 -1.25242591e-01
  8.21149871e-02 -1.99130893e-01  1.40393212e-01  1.68624029e-01
 -3.45311277e-02  1.17438033e-01  9.12595987e-02  8.74557421e-02
 -1.85803901e-02 -3.11549306e-02 -1.39818192e-01 -9.65017732e-03
  1.30510062e-01 -1.34111969e-02  1.17503241e-01  3.79709415e-02]