[-0.15313525  0.08163505  0.06763479 -0.0737022  -0.12437072 -0.05238211
 -0.02101744 -0.10563198  0.11972751 -0.09854436  0.18913373 -0.11300159
 -0.23876719 -0.06076201 -0.06973033  0.25196466 -0.11017295 -0.11709907
 -0.00198914 -0.04392558  0.04761194 -0.01208518  0.03357621  0.06822365
 -0.13697493 -0.36162299 -0.13104104 -0.0620751  -0.07450383 -0.01691299
 -0.01620327  0.07257714 -0.17205201 -0.0477292   0.04559854  0.07978624
  0.02792114 -0.06393173  0.14747284  0.01761063 -0.2665374  -0.01161366
  0.10514273  0.27323422  0.13395076  0.06596703  0.05459481 -0.11279739
  0.11552632 -0.16619878  0.01413288  0.08939793  0.00637494 -0.00172172
 -0.02746006 -0.09667078  0.06001655  0.1352044  -0.19578452 -0.03445374
  0.09201031 -0.07254259 -0.04255548 -0.07991889  0.23414576  0.10870744
 -0.14152001 -0.10180321  0.16203624 -0.15925702  0.00891206  0.02928951
 -0.1703086  -0.19123133 -0.33868837  0.01993964  0.42085901  0.1347091
 -0.11231422  0.03035832 -0.02525345  0.07232559  0.12300775  0.20720823
 -0.02297322  0.05693457 -0.04755716  0.01964776  0.20903201 -0.06525125
 -0.01649459  0.22035265  0.01718403  0.05390781 -0.00550401  0.06527811
 -0.0905767  -0.01751801 -0.11015034  0.01177977 -0.00322535 -0.01681838
  0.02386684  0.11910943 -0.20790641  0.11235199 -0.00756849 -0.00637487
 -0.04277388  0.02045198 -0.01137922 -0.08017285  0.07617494 -0.17927991
  0.09949634  0.20905614 -0.00691314  0.13924102  0.10178389  0.07679564
 -0.01240395 -0.04543646 -0.14696224 -0.02574652  0.11579309 -0.06286656
  0.12072036 -0.01054351]