[-0.15198934  0.06508262  0.04735141 -0.05541255 -0.12058824 -0.01028851
 -0.05982292 -0.0847152   0.11459628 -0.09797986  0.15719517 -0.09022288
 -0.24463962 -0.07415255 -0.08461472  0.22764777 -0.15533237 -0.13020901
  0.01444602 -0.01291277  0.06893184 -0.00859768  0.03142313  0.01597358
 -0.13107853 -0.37727937 -0.12358203 -0.05527214 -0.06475168 -0.03051393
 -0.05299016  0.05576823 -0.16962209 -0.08002214  0.04900867  0.12218715
 -0.01518084 -0.06898161  0.14374129  0.02925498 -0.21016796 -0.01801206
  0.12418447  0.30637652  0.15765813  0.08965673  0.04665598 -0.12550938
  0.12702988 -0.15300848  0.02818736  0.10083993  0.04780633  0.05201173
  0.01643956 -0.09408053  0.09623583  0.13278469 -0.15509214  0.00417758
  0.09709617 -0.05869953 -0.00427829 -0.07908874  0.23685773  0.05015127
 -0.10018499 -0.13822737  0.1490529  -0.12334372 -0.06204345  0.00200707
 -0.16054413 -0.19252811 -0.33329675 -0.00655497  0.39054176  0.14381932
 -0.12724297  0.05550381  0.01595042 -0.00440577  0.15014787  0.21046825
 -0.01443031  0.06229256 -0.07502248  0.00878081  0.2305105  -0.06322553
 -0.02325286  0.17022169  0.02793173  0.04449871  0.03787794  0.03850399
 -0.10805871  0.05403198 -0.1643354  -0.02362529  0.02123728 -0.04847002
  0.01607923  0.10746876 -0.16688459  0.11545134  0.00340121  0.00457916
 -0.0437869  -0.03054938 -0.07940699 -0.03849337  0.09762757 -0.19671966
  0.1235564   0.21363497  0.04027104  0.13801335  0.13624178  0.0799332
  0.00297975 -0.00342578 -0.18302147 -0.03806493  0.09112083 -0.02532644
  0.12512927  0.02246181]