[-0.16972001  0.03393796  0.03365092 -0.05434409 -0.11796644 -0.0335947
 -0.06496995 -0.11542089  0.11121126 -0.10631257  0.17161541 -0.09139948
 -0.2135787  -0.06375726 -0.08614279  0.22127481 -0.1234709  -0.15869597
  0.00067256 -0.01569887  0.07204632 -0.0232749   0.04557259  0.07378087
 -0.19090454 -0.37440622 -0.12354761 -0.04440805 -0.1015371  -0.0075808
 -0.04100629  0.06514804 -0.21760236 -0.04617951  0.05217907  0.10887211
  0.01481267 -0.0555211   0.15218481  0.01567759 -0.28216252 -0.0180016
  0.12456856  0.28298926  0.16414383  0.08241897  0.02977677 -0.11833558
  0.10802426 -0.16110051  0.04402515  0.12639718  0.01672168  0.00309307
 -0.00637704 -0.06928378  0.05937911  0.13927239 -0.12950753 -0.03297553
  0.06602116 -0.05720399 -0.02557169 -0.12454956  0.22061992  0.08485933
 -0.1138996  -0.14294101  0.14556995 -0.15729652 -0.0432636   0.03958608
 -0.16548677 -0.2184497  -0.3544865  -0.02911693  0.39263675  0.13693281
 -0.12327983  0.08886122 -0.00402895  0.03439343  0.13073808  0.219166
  0.01522525  0.09018029 -0.04985831  0.0243057   0.24034928 -0.05385152
 -0.01140218  0.22039714  0.00589856  0.0287006   0.02511488  0.05937771
 -0.0928012   0.03616574 -0.12162998 -0.00463381  0.0260228   0.02764098
  0.04026034  0.11941191 -0.1966664   0.10206085 -0.01660945  0.03272023
  0.00920338  0.0038238  -0.04332665 -0.10814022  0.05868689 -0.21764277
  0.08685105  0.19017285 -0.00140173  0.12715214  0.11641111  0.08474977
 -0.00391959  0.00454835 -0.20579286 -0.00717814  0.10950261 -0.06208635
  0.11540921  0.01098364]