[-0.05487126  0.04604667  0.06627136  0.01443846 -0.0452382  -0.09987368
 -0.05597782 -0.12149101  0.09392922 -0.04793873  0.30032048 -0.0420231
 -0.18981867 -0.1438307  -0.03342767  0.16723657 -0.14629631 -0.07866302
 -0.06626572  0.00270771  0.03162213 -0.01029045  0.0884007   0.04237751
 -0.02506626 -0.39990476 -0.10846443 -0.10420271  0.0675781  -0.07265355
 -0.12042315  0.06727957 -0.13866338 -0.09157924  0.04201965  0.07987496
 -0.02175493 -0.08485904  0.18290846  0.05204773 -0.17223459  0.02965195
 -0.01957742  0.26499209  0.24159832  0.08718783  0.06200124 -0.10685279
  0.12010325 -0.17102477  0.05882856  0.11059333  0.11256679 -0.00391306
  0.07802206 -0.11123202 -0.0202872   0.05376633 -0.14028697  0.01774839
  0.02620544 -0.07073437 -0.01891821 -0.11422409  0.18132772  0.08554392
 -0.09178014 -0.07522561  0.13382779 -0.14562282 -0.06835141  0.01207768
 -0.17502037 -0.17588648 -0.32101828  0.01880592  0.36873016  0.12172265
 -0.19218753  0.02678425  0.0103486  -0.00809411  0.12365635  0.146888
 -0.03630193  0.0326364  -0.10753725 -0.01622314  0.17018004 -0.08291229
 -0.05741761  0.1809316  -0.09250221  0.10119571  0.04768639  0.00076013
 -0.03617066  0.02886435 -0.12992084 -0.02451268  0.06921361 -0.05286518
  0.00800405  0.05007954 -0.11586813  0.00464771 -0.02327283  0.02544366
  0.04181099 -0.03792856 -0.11542161 -0.05942184  0.12086203 -0.19752537
  0.22063549  0.21031344  0.03126208  0.09929036  0.09078631  0.06038104
 -0.0164522  -0.02858939 -0.1376155  -0.04700439  0.07178267  0.0399082
  0.07366914 -0.02036783]