[-0.06843598  0.12671272  0.08514952 -0.02957286 -0.10911667 -0.04037591
 -0.01072422 -0.14667214  0.13737062 -0.05953656  0.28227088 -0.06411015
 -0.31113037 -0.08017506 -0.05446402  0.22962733 -0.16506505 -0.18253517
 -0.07085773  0.03277576  0.01546072  0.03319144  0.02183541  0.09927206
 -0.09087808 -0.36827621 -0.08120989 -0.03256249  0.00869422 -0.08229997
 -0.05544544  0.0834833  -0.17482345 -0.02566622  0.08350872  0.05602905
 -0.04802038 -0.14792483  0.19751608 -0.0080312  -0.28955394 -0.05707604
  0.07687714  0.22929028  0.20852299  0.00436258 -0.0033449  -0.12484603
  0.0525107  -0.23162976  0.01507414  0.18599854  0.01827415  0.04638463
 -0.03360388 -0.17344002 -0.00755641  0.11827307 -0.18000215 -0.08741769
  0.05998747 -0.15838209 -0.05963587 -0.08417843  0.18222146  0.10633007
 -0.12578797 -0.13747175  0.18255123 -0.20358634 -0.03968458  0.02714068
 -0.13839155 -0.16654502 -0.28821081 -0.03474587  0.38911256  0.08041981
 -0.16323674  0.06740188 -0.02580898  0.03552115  0.06723008  0.15910956
 -0.02373184 -0.01002627 -0.09940609  0.00856325  0.19649209 -0.05298526
  0.0294173   0.24468727 -0.02379619  0.02050614  0.09674826  0.03888002
 -0.00965986  0.00067597 -0.1104005   0.03662706 -0.0113248  -0.03748025
  0.00678586  0.10922088 -0.15438218  0.07228708  0.05403404  0.02041216
  0.09049287 -0.04472357 -0.04470357 -0.14832795  0.12359367 -0.23958066
  0.19608805  0.14876531  0.01065297  0.12382489  0.05984405  0.13055718
 -0.01868107 -0.09000661 -0.17251444 -0.02756895  0.10419414 -0.06703719
  0.04849084 -0.02971793]