[-0.1263044   0.10268779  0.06434917 -0.01670759 -0.10453411 -0.03676131
 -0.00151887 -0.14298843  0.13465856 -0.08147892  0.23672763 -0.09970182
 -0.24547696 -0.09067895 -0.04197212  0.24763668 -0.18855737 -0.11809995
  0.00425291  0.0304461   0.12416766  0.00664268  0.00386195  0.08154979
 -0.11227365 -0.32456693 -0.0941704  -0.06977992 -0.0101589  -0.07653878
 -0.0953161   0.09117898 -0.17084007 -0.05312237  0.01707515  0.07285359
 -0.02553868 -0.13476363  0.12908569 -0.03429667 -0.2540119   0.00789538
  0.07684056  0.21848972  0.1629031  -0.00560598  0.02467519 -0.12379243
  0.07903495 -0.14596169 -0.05679994  0.11999031  0.02510745  0.05152885
 -0.00195587 -0.15367447  0.02013373  0.05889077 -0.13659862 -0.01744426
  0.06724022 -0.11939152  0.00160054 -0.10512282  0.18192184  0.05963009
 -0.06989122 -0.17752407  0.14357074 -0.14797638 -0.08023297  0.04701635
 -0.15926723 -0.19842099 -0.26246348 -0.04301604  0.32151785  0.1015566
 -0.18698739  0.11299236 -0.02443253  0.00805808  0.1382177   0.19957906
  0.08702076  0.06156207 -0.11653533 -0.01118583  0.23173152 -0.1106113
  0.02532263  0.25703946 -0.00557408  0.01728222  0.04681371 -0.0099442
 -0.04457694  0.06708701 -0.1001799  -0.01398826  0.02817588 -0.06288742
 -0.00983734  0.08777969 -0.14660075  0.08182925  0.02549677  0.07708915
  0.01108145 -0.03916819 -0.084365   -0.04214159  0.10709007 -0.2225085
  0.2106283   0.16656882  0.00124218  0.09962278  0.07104088  0.12413068
 -0.01339746 -0.0367581  -0.18336497 -0.01414069  0.13284467 -0.05100718
  0.05456102 -0.00510187]