[-0.11510836  0.05873252  0.0419497  -0.0222421  -0.08428422 -0.0591451
  0.00160147 -0.1412829   0.17598584 -0.06544109  0.21353357 -0.04906038
 -0.17995951 -0.12679762 -0.03724941  0.22676969 -0.21374384 -0.14436407
  0.02698742  0.06134171  0.12708902 -0.02361443  0.017144    0.07438616
 -0.11711097 -0.36091682 -0.13346231 -0.07769661 -0.0052117  -0.06385398
 -0.06159439  0.13208647 -0.17073105 -0.06853453  0.03355008  0.0892893
 -0.02281146 -0.10779916  0.14910322 -0.01690379 -0.26135534  0.02700771
  0.07712157  0.24078654  0.1892574   0.00771024  0.03376107 -0.11654911
  0.11840978 -0.13834184 -0.00789517  0.11822804  0.05603031  0.076951
  0.02968337 -0.11429062  0.02966702  0.05504416 -0.16141346 -0.00505575
  0.07116672 -0.10839137  0.01850521 -0.09755383  0.16949075  0.07163263
 -0.07193995 -0.18375322  0.14626084 -0.13173263 -0.08732544  0.05214422
 -0.17140307 -0.20426185 -0.26219466 -0.01305812  0.35122928  0.10998949
 -0.17558068  0.09864679 -0.01601715 -0.01976405  0.12075645  0.19649851
  0.07596059  0.06018412 -0.10868497 -0.00311994  0.22436212 -0.07743087
 -0.00325843  0.23389748 -0.01807464  0.04259501  0.03530145  0.00958354
 -0.03662508  0.11234286 -0.13437702 -0.02211077  0.03494808 -0.01585216
  0.00404466  0.08641344 -0.101915    0.1042842   0.02678086  0.08165696
 -0.00871769 -0.0262314  -0.10505146 -0.03359069  0.07434251 -0.22540753
  0.24153642  0.13536121  0.01327687  0.09837843  0.05306726  0.11539879
 -0.01271965 -0.05751977 -0.17124245  0.0018977   0.13987002 -0.01047864
  0.07255016 -0.00227665]