[-0.12993278  0.09507841  0.03983579 -0.01848814 -0.09206276 -0.03698769
  0.00066584 -0.1430943   0.17583883 -0.09022468  0.20277272 -0.07358038
 -0.20148067 -0.10258194 -0.05986628  0.2563605  -0.20904644 -0.14432003
  0.01383629  0.03935636  0.12793921 -0.00381302 -0.01181663  0.07895538
 -0.13826546 -0.33095229 -0.11435179 -0.07637061 -0.00608684 -0.06523304
 -0.05981904  0.10448291 -0.15788594 -0.04690065  0.01703373  0.07652988
 -0.01637485 -0.13558099  0.15178715 -0.02036146 -0.28773007  0.02408457
  0.0897094   0.23078941  0.1919422  -0.02033253  0.02652579 -0.12841403
  0.12585852 -0.13689354 -0.07329015  0.11582865  0.02226094  0.08338368
  0.00469015 -0.12380915  0.03578882  0.05662097 -0.15599971 -0.0413205
  0.04758501 -0.13275927  0.0322891  -0.07836117  0.16500464  0.05373002
 -0.05723191 -0.19177391  0.17045709 -0.16677563 -0.08341417  0.06476456
 -0.14798133 -0.19494495 -0.28351966 -0.04111849  0.34559575  0.12436912
 -0.15361844  0.12681875 -0.01362593 -0.01622378  0.12927143  0.22402732
  0.0845741   0.06053872 -0.106492   -0.01529906  0.25920665 -0.08622982
  0.01462267  0.2441545   0.00754204  0.02828019  0.03800946  0.01023882
 -0.06007957  0.08028175 -0.10352404 -0.02821948  0.02898213 -0.01372522
  0.01583916  0.10342971 -0.12659757  0.11360247  0.02351189  0.07634187
 -0.0166739  -0.02239788 -0.06027436 -0.02075093  0.09083766 -0.20191124
  0.20907734  0.14193578  0.0011623   0.09955589  0.07264075  0.10985529
 -0.03360593 -0.05168533 -0.17702815 -0.01042183  0.12479009 -0.0388079
  0.08427116 -0.00330091]