[-0.08735197  0.12729284  0.12055029 -0.01885547 -0.13489518  0.02837131
 -0.00555574 -0.05694539  0.15623179 -0.06331383  0.25770378  0.00399198
 -0.25293645 -0.05074204  0.0208291   0.20676509 -0.12923793 -0.1421573
 -0.10167219 -0.0061667   0.00549375  0.08577483  0.04428755  0.05426392
 -0.14633004 -0.40732938 -0.06278723 -0.05015597  0.01937419 -0.09550126
 -0.09291341  0.09502777 -0.11773373 -0.03057756  0.09902125  0.07973123
 -0.07847169 -0.115701    0.18368472  0.05433162 -0.26222438  0.0053776
  0.03702437  0.30219808  0.26824108 -0.00538001  0.04968131 -0.13540232
  0.17146416 -0.25240102  0.03503445  0.16774833  0.05774794  0.06106275
  0.05978826 -0.10205598 -0.04123407  0.12819077 -0.13326503 -0.0203592
  0.05571547 -0.06315138 -0.03043337 -0.14133736  0.14891706  0.07966373
 -0.15035728 -0.11383199  0.11780317 -0.16037709 -0.06681755  0.05023649
 -0.18709026 -0.1998751  -0.27622184  0.0192722   0.3728047   0.12729421
 -0.20244358 -0.01581896  0.00574056  0.02923398  0.05780984  0.18680133
 -0.0711041  -0.00055076 -0.05973721  0.0349431   0.24749862 -0.06192445
  0.02394997  0.29060933  0.01564446  0.05531451  0.05872597  0.0661101
 -0.06348183 -0.01734206 -0.16308816 -0.02119025  0.00955191 -0.05166075
  0.02874828  0.12757759 -0.1810571   0.14659095 -0.00456797  0.06518668
  0.07715251 -0.03883145 -0.07355755 -0.09899517  0.13437127 -0.17765279
  0.12133308  0.18144064  0.01113415  0.08678975  0.08673027  0.08082675
 -0.02721567 -0.029351   -0.13739179 -0.00916272  0.11329746 -0.03244149
 -0.0008132  -0.04933774]