[-0.17639123  0.08947157  0.0420327  -0.03667493 -0.0699809  -0.0540396
 -0.04151333 -0.14827101  0.14149931 -0.06186643  0.24966846 -0.07947038
 -0.21800466 -0.12755306 -0.06479986  0.23043855 -0.23501094 -0.14287992
  0.04192291  0.06049765  0.08567605 -0.03374298  0.00096048  0.06986106
 -0.13688655 -0.36131299 -0.1137185  -0.09094257 -0.03961458 -0.03169179
 -0.03602311  0.01929254 -0.24635363 -0.07323035  0.02722064  0.12041271
 -0.0185457  -0.09034438  0.15285993 -0.04445153 -0.2496004   0.00947483
  0.09970394  0.24950533  0.12585242  0.03776605  0.03419073 -0.12173303
  0.08187251 -0.17616108  0.02650908  0.12099183  0.0758305   0.02979252
 -0.00889777 -0.15210068  0.02105821  0.11055346 -0.14283489 -0.01661363
  0.09497928 -0.03093802 -0.0013632  -0.07236754  0.23040465  0.08005793
 -0.14616153 -0.13278644  0.09795953 -0.11091571 -0.01850764  0.05368346
 -0.13178149 -0.23531382 -0.32705408  0.01356188  0.35452864  0.04457829
 -0.17706525  0.04963052 -0.05279222  0.02367717  0.13469575  0.16827562
  0.06753155  0.04108221 -0.12123465  0.00749726  0.23076506 -0.08277436
  0.02475422  0.18648395 -0.02509258  0.0010938  -0.01335965  0.07032512
 -0.05447466  0.07171714 -0.08706079  0.04858106  0.04141542  0.01051758
 -0.0374543   0.09221226 -0.16285183  0.05699098  0.05077089  0.00552935
  0.00784643 -0.05533778 -0.09881141 -0.06973396  0.08432084 -0.26812753
  0.24067064  0.16261512 -0.04480024  0.13901551  0.07853211  0.08167785
 -0.02157088 -0.04204259 -0.19015989 -0.03621633  0.10813361 -0.03895804
  0.09078683 -0.03521306]