[-7.25088641e-02  6.26267567e-02  7.28679448e-02  1.81192644e-02
 -4.57679145e-02 -1.10510223e-01 -4.93454449e-02 -1.13400973e-01
  9.78705883e-02 -5.12707829e-02  3.14263403e-01 -4.76293378e-02
 -1.79966494e-01 -1.36299402e-01 -3.07772309e-02  1.70118198e-01
 -1.52631223e-01 -8.39090347e-02 -7.52924904e-02  1.42770295e-03
  2.43489891e-02  3.38199292e-03  8.70356336e-02  4.34216373e-02
 -7.40609644e-03 -4.05471534e-01 -1.06343068e-01 -1.19473018e-01
  9.43393037e-02 -8.82646665e-02 -1.14127055e-01  4.99256402e-02
 -1.33063570e-01 -9.95565057e-02  3.22029181e-02  7.01634884e-02
 -2.35657040e-02 -8.34278166e-02  2.05002025e-01  4.88480702e-02
 -1.65498212e-01  2.72070654e-02 -1.93410069e-02  2.88323671e-01
  2.43218765e-01  7.51534700e-02  6.06672242e-02 -1.03758864e-01
  1.01754270e-01 -1.74244806e-01  6.70722350e-02  1.01893917e-01
  1.33853137e-01 -3.14802746e-03  8.36591423e-02 -1.10974841e-01
 -2.01833490e-02  3.74180079e-02 -1.42819688e-01  2.90963482e-02
  4.54054847e-02 -6.94650933e-02 -1.90395731e-02 -9.51407850e-02
  1.89982399e-01  7.29377493e-02 -8.06103721e-02 -6.75669238e-02
  1.35480002e-01 -1.40994817e-01 -6.01273440e-02  1.31315738e-02
 -1.66833803e-01 -1.67656451e-01 -3.11165243e-01  1.69320144e-02
  3.75829458e-01  1.19061284e-01 -1.98780820e-01  3.12927850e-02
 -3.34724970e-03 -1.84128135e-02  1.26371846e-01  1.33434519e-01
 -3.90188284e-02  1.51012158e-02 -1.24446012e-01  7.87045792e-05
  1.59935638e-01 -8.78002048e-02 -5.34052141e-02  1.66344449e-01
 -8.22681636e-02  8.70632678e-02  5.14091812e-02 -9.65296873e-04
 -3.63945775e-02  2.59220358e-02 -1.25876084e-01 -2.27544494e-02
  6.91187829e-02 -4.88078743e-02  2.06626439e-03  4.44295071e-02
 -1.16758548e-01  7.91355129e-03 -9.86589305e-03  1.38841616e-02
  4.04075049e-02 -3.05979941e-02 -1.12386636e-01 -6.16821721e-02
  1.29119024e-01 -1.83168650e-01  2.18489334e-01  2.05706149e-01
  1.82775799e-02  1.06436551e-01  8.41012225e-02  6.19759336e-02
 -1.86162889e-02 -2.65599247e-02 -1.39029264e-01 -4.38276716e-02
  5.76492622e-02  4.98619117e-02  7.94277340e-02 -5.97752398e-03]