[-0.09957394  0.08339566  0.10610429  0.02298199 -0.00066955 -0.11067821
  0.00338476 -0.11469891  0.10750455 -0.04720495  0.3014383  -0.02152622
 -0.18277919 -0.18464842  0.02983316  0.13013592 -0.13802038 -0.07370773
 -0.04788112 -0.02126601  0.05783935 -0.03537619  0.04117371  0.06403264
 -0.06212813 -0.33934811 -0.0766701  -0.17281598  0.04473528 -0.09859792
 -0.07723363  0.05586973 -0.12887424 -0.05067542 -0.06970158  0.04398792
  0.01310081 -0.05772747  0.20405145 -0.00218997 -0.17614542 -0.06304013
 -0.04074354  0.23201787  0.22502342 -0.0195265   0.04973808 -0.01292604
  0.08896332 -0.19416754  0.00103165  0.09236419  0.13141324  0.01221156
  0.02054884 -0.15037739 -0.04001071  0.01480721 -0.16293831  0.03734654
 -0.00331791 -0.13417563 -0.09262597 -0.02905892  0.21222296  0.11913558
 -0.09603857 -0.07361274  0.1440414  -0.15067516 -0.05483029  0.0346402
 -0.17723189 -0.1765354  -0.297005    0.05572059  0.31628749  0.08230451
 -0.22816148  0.02530592 -0.09104504  0.01409188  0.1107214   0.09739216
 -0.03255991  0.05392645 -0.1233523   0.0102043   0.14711528 -0.08427829
 -0.03764207  0.193437   -0.07641916  0.08990824  0.022675   -0.02641267
  0.03484927  0.03462639 -0.10551979  0.02269353  0.12989019 -0.09351771
  0.00255045  0.04367166 -0.16635275  0.01622687  0.03956958  0.02953679
  0.05655334 -0.03578056 -0.15532611 -0.05640421  0.17729644 -0.16923416
  0.23992096  0.21039084  0.00861908  0.10886341  0.08950905  0.05804573
 -0.01653293 -0.05989294 -0.14103559  0.01325487  0.11355924  0.00928726
  0.03398497 -0.01407754]