[-0.13614796  0.07271992  0.0411698  -0.04660553 -0.0713042  -0.04641418
  0.02535806 -0.13969927  0.1726024  -0.0715526   0.22848439 -0.08474766
 -0.22197095 -0.11627389 -0.04242322  0.25989679 -0.21675432 -0.12289462
  0.01572389  0.05804479  0.12476467 -0.02748629  0.03268989  0.10105067
 -0.11475959 -0.3634102  -0.12485451 -0.08422919  0.00691504 -0.05834341
 -0.08910274  0.11551663 -0.17040209 -0.04998083  0.01405737  0.08503622
 -0.03121464 -0.12387428  0.1366829  -0.01623158 -0.26990843  0.01892035
  0.07259231  0.2391361   0.19806388 -0.00215281  0.03284939 -0.1212151
  0.08930689 -0.16701832 -0.01053257  0.09046749  0.04369704  0.05104722
  0.03589733 -0.13229568  0.02703764  0.05346523 -0.16070342 -0.00949518
  0.05664225 -0.10632678  0.02008939 -0.08880974  0.17713594  0.08306867
 -0.06885804 -0.1801039   0.17734893 -0.13725261 -0.05302812  0.06176636
 -0.16534247 -0.20700267 -0.26936066 -0.02569388  0.33333161  0.12316599
 -0.16311099  0.10812483 -0.0339568  -0.00618645  0.1326406   0.19662462
  0.07712694  0.04423168 -0.12830485  0.00545093  0.21515083 -0.10862475
  0.00790763  0.26159    -0.01492268  0.02368049  0.02369857  0.00262827
 -0.05522966  0.10333642 -0.12861641 -0.03332601  0.04598328 -0.01596467
  0.00310166  0.10101272 -0.13399445  0.0818015   0.02504465  0.06609824
  0.01057409 -0.03664953 -0.09265267 -0.03481111  0.07684014 -0.22534147
  0.21884273  0.15765578  0.01671017  0.0823166   0.05503797  0.09253616
  0.00427976 -0.06483438 -0.18976538  0.02724592  0.15136318 -0.03559413
  0.05527587  0.00339886]