[-5.57071045e-02  6.21539652e-02  3.76347452e-02 -1.05288280e-02
  4.89518061e-05 -7.16435909e-02 -5.91784948e-03 -1.12066351e-01
  1.08488999e-01 -3.99229750e-02  2.91901261e-01 -5.86880855e-02
 -2.28092954e-01 -1.45496026e-01 -2.31309719e-02  1.66749105e-01
 -1.53072715e-01 -7.39662275e-02 -7.31243491e-02  6.71628863e-04
  6.55157790e-02 -4.80270721e-02  6.30737245e-02  4.15641554e-02
 -7.71256089e-02 -3.51088852e-01 -8.53792056e-02 -1.21008210e-01
  4.48746532e-02 -7.04566911e-02 -8.33983049e-02  5.25805764e-02
 -1.50725886e-01 -6.39414340e-02 -2.39155572e-02  4.40206379e-02
  8.44715256e-03 -9.47312936e-02  2.18936965e-01  2.70306021e-02
 -1.82851553e-01 -9.17173363e-03 -7.14816758e-03  2.49066025e-01
  1.91404223e-01  2.14330684e-02  7.23898634e-02 -8.79058167e-02
  1.02024138e-01 -1.85307026e-01  3.14558409e-02  8.48985538e-02
  8.21314603e-02  2.08596848e-02  2.52714213e-02 -1.57166973e-01
  6.08639442e-04  4.62541208e-02 -1.53128132e-01  1.75235812e-02
  2.84445621e-02 -7.23687336e-02 -3.32357772e-02 -8.26331303e-02
  1.81609631e-01  7.99884945e-02 -9.19825956e-02 -9.43601131e-02
  1.00355439e-01 -1.41288206e-01 -2.61571314e-02  1.76895335e-02
 -1.68019906e-01 -1.78940848e-01 -3.56275171e-01  3.58654037e-02
  3.26649427e-01  9.52472016e-02 -1.87885389e-01  2.72934232e-02
 -3.54398265e-02 -3.91951966e-04  1.62058279e-01  1.00266650e-01
 -3.61284129e-02  5.29450364e-02 -1.29090488e-01  6.01950684e-04
  1.93155125e-01 -1.00834750e-01 -5.12551367e-02  1.75617456e-01
 -7.28555843e-02  6.05661348e-02  2.97406707e-02  3.00658327e-02
 -3.78572829e-02  4.89627831e-02 -1.10121906e-01  5.06941043e-02
  9.36954245e-02 -9.36040208e-02  5.47064934e-03  4.92441766e-02
 -1.54875666e-01 -2.57678074e-03  9.67694167e-03  3.28480091e-04
  3.09279859e-02 -3.79360132e-02 -1.63036630e-01 -6.92282245e-02
  1.46710187e-01 -1.86673433e-01  2.01541781e-01  2.23062143e-01
  3.29225548e-02  1.01036154e-01  1.18110754e-01  7.34187812e-02
 -3.97964679e-02  2.13219761e-03 -1.47243738e-01 -1.00782597e-02
  9.59816203e-02  5.09425066e-02  6.91423044e-02 -1.37582747e-02]