[-0.08290986  0.04702088  0.07685124  0.01686758 -0.03347312 -0.10676272
 -0.04774304 -0.10380105  0.08982553 -0.03714676  0.29893181 -0.05234569
 -0.17830899 -0.14171842 -0.0371961   0.15846072 -0.1614553  -0.08105201
 -0.07856047  0.00332642  0.03856719  0.00797876  0.07767018  0.03340869
 -0.01827343 -0.39504513 -0.11271206 -0.10993724  0.10742958 -0.09068998
 -0.10791202  0.04836773 -0.1339813  -0.08888585  0.04075086  0.06839892
 -0.01443905 -0.07233133  0.18632022  0.04508115 -0.16620386  0.0229651
 -0.01730352  0.28351575  0.25601822  0.10427979  0.03703364 -0.09892821
  0.11122476 -0.18106958  0.07203767  0.11974313  0.11388981  0.00841964
  0.09227826 -0.10481324 -0.01549415  0.0316849  -0.14498653  0.02428879
  0.03742802 -0.06981795 -0.01153527 -0.09543157  0.15790899  0.06230969
 -0.07988425 -0.07926384  0.13734512 -0.15035781 -0.05843551  0.01609686
 -0.16299438 -0.16170731 -0.31471509  0.0117167   0.37754864  0.12608828
 -0.18785886  0.04031862  0.00645372 -0.01762152  0.12962787  0.11789773
 -0.0510811   0.02250236 -0.1232561  -0.00174612  0.15299265 -0.08037752
 -0.05245422  0.16071026 -0.08918115  0.08173844  0.05713043  0.00551524
 -0.03530928  0.02516533 -0.12653549 -0.0336315   0.08579599 -0.04146662
  0.01224317  0.04944129 -0.10462027  0.02792627 -0.00620673  0.02216168
  0.03015548 -0.0365092  -0.1164704  -0.04041757  0.12355687 -0.18353489
  0.22964178  0.20187555  0.02128837  0.09722812  0.08440738  0.05972287
 -0.02627943 -0.02262149 -0.12464591 -0.058781    0.05400317  0.05125887
  0.08499058 -0.01001144]