[-0.10826851  0.07079916  0.10114074  0.02355133 -0.01071387 -0.10276262
 -0.00337432 -0.12024256  0.0971769  -0.04271942  0.29859132 -0.02480555
 -0.18943503 -0.17921482  0.01489864  0.13175814 -0.15268271 -0.06456574
 -0.03745193 -0.01467422  0.06962898 -0.02811911  0.05190891  0.05188942
 -0.05200995 -0.33797193 -0.07548223 -0.14979632  0.04632851 -0.07546838
 -0.07063811  0.05680844 -0.13661423 -0.05337694 -0.05379963  0.05439731
 -0.00219829 -0.04751398  0.20601808 -0.00847107 -0.16887988 -0.05745219
 -0.02835242  0.22708058  0.22726646  0.01332304  0.03274856 -0.03293765
  0.08615292 -0.19772439 -0.00358635  0.10976062  0.12066388  0.00607677
  0.02273042 -0.14538918 -0.02449041  0.01973005 -0.16164188  0.03136846
 -0.00473071 -0.13019311 -0.06796665 -0.03308965  0.20552544  0.10438514
 -0.08607908 -0.07444607  0.14418401 -0.14627086 -0.06345784  0.04082002
 -0.17565399 -0.18955477 -0.29976872  0.03460836  0.33261141  0.0829018
 -0.21529928  0.02807298 -0.06727587  0.00622955  0.14020662  0.09387356
 -0.03181447  0.03298384 -0.12889837  0.00309798  0.15334716 -0.09070815
 -0.04749006  0.18740444 -0.06454294  0.09320437  0.03159463 -0.02545591
  0.04207878  0.04860587 -0.12560241  0.0144352   0.12154072 -0.08811031
  0.01283103  0.04283302 -0.15258348  0.00928507  0.04030083  0.02586608
  0.04967236 -0.04858019 -0.1647137  -0.04470612  0.1725169  -0.17565493
  0.25367579  0.21250196  0.00463496  0.11197652  0.09509479  0.06176789
 -0.0190645  -0.05570924 -0.13814029  0.00335593  0.10935938  0.01147808
  0.05620794 -0.01425018]