[-0.13058947  0.08484729  0.05530646 -0.0131086  -0.07019436 -0.06240252
  0.03408262 -0.13921706  0.16609226 -0.05572949  0.23126812 -0.07439514
 -0.2268465  -0.10837115 -0.03129579  0.2485123  -0.2130395  -0.14247164
  0.00467834  0.04890919  0.1289783  -0.01790468  0.00071727  0.07368323
 -0.12909651 -0.34725377 -0.1130919  -0.07090487  0.02548398 -0.07278936
 -0.08407068  0.1032094  -0.17692728 -0.06532504  0.03916316  0.08748597
 -0.01953993 -0.12635532  0.16438992 -0.02214177 -0.28348416  0.02990725
  0.07781553  0.24008369  0.19474831  0.00224018  0.02639687 -0.11548056
  0.09082936 -0.1488537  -0.03037098  0.12030876  0.04872313  0.06562199
  0.01154131 -0.14149408  0.0044615   0.07325466 -0.18840444 -0.0306098
  0.06180512 -0.11993436  0.02603711 -0.07998856  0.16709845  0.0640347
 -0.07880264 -0.17814586  0.16939549 -0.15401314 -0.06077985  0.04559477
 -0.15425716 -0.20026217 -0.27147856 -0.01828922  0.34367207  0.09510613
 -0.16576003  0.12028235 -0.02391705 -0.01989651  0.12846883  0.19178681
  0.07736792  0.05737489 -0.10827307 -0.00321244  0.23259425 -0.08584478
  0.01846659  0.23244779 -0.02126471  0.01122971  0.03221708  0.00828527
 -0.04921151  0.08828688 -0.11389174 -0.02831372  0.02481594 -0.02837801
  0.01457087  0.10823946 -0.13889149  0.08340586  0.03308085  0.06339052
 -0.00520202 -0.0320005  -0.0774546  -0.04026575  0.07639085 -0.24419509
  0.24416295  0.16594163 -0.0162025   0.08619516  0.0494409   0.091293
  0.00747701 -0.0450418  -0.18358724 -0.00453929  0.13871135 -0.0298184
  0.08214096 -0.00540134]