[-0.19509056  0.04818407  0.08624795 -0.01522728 -0.09791826 -0.05918203
 -0.01340013 -0.15000445  0.16789643 -0.08089902  0.24331294 -0.03510722
 -0.13014291 -0.13342734 -0.01202065  0.21280968 -0.22438498 -0.14783263
  0.00750726  0.01600336  0.0764396  -0.080825    0.01244414  0.12256224
 -0.17002897 -0.38639376 -0.11311173 -0.1377081  -0.01318    -0.07302994
 -0.04418049  0.06641114 -0.22631529 -0.05458688 -0.02524183  0.10336157
  0.02155255 -0.093793    0.15557344 -0.03051074 -0.25254762  0.00672178
  0.03551032  0.23020032  0.19382919 -0.02631447  0.05158272 -0.07068365
  0.12907283 -0.11103886 -0.00938322  0.10065279  0.11329754  0.01542339
  0.03200393 -0.1336896   0.00269065  0.0756859  -0.15259066 -0.00778105
  0.0174571  -0.10270991  0.0100732  -0.08560441  0.19691351  0.08790538
 -0.07486509 -0.13223785  0.16832227 -0.09246679 -0.00672781  0.03821397
 -0.18639933 -0.22988728 -0.31078598  0.01345925  0.33608067  0.09340569
 -0.23991115  0.05219443 -0.08143746  0.01396884  0.08727009  0.18560842
  0.07175048  0.05885292 -0.10657578  0.01642067  0.18269406 -0.0560305
  0.02800184  0.20596956 -0.02953592 -0.02486724  0.01108668 -0.00720787
 -0.08176547  0.08279245 -0.10380182 -0.00265807  0.00771643  0.01724382
  0.00385311  0.06042972 -0.16838296  0.05257712  0.03540385  0.0153697
 -0.04114769 -0.02184808 -0.11200338 -0.0730349   0.10009992 -0.24195018
  0.21085159  0.18156061 -0.04064375  0.16259612  0.03827899  0.09221452
 -0.04127664 -0.02739776 -0.13389614  0.03217978  0.12972897 -0.0451484
  0.06717184 -0.01004955]