[-1.57081455e-01  8.14028010e-02  4.87085842e-02 -4.09750789e-02
 -8.80585909e-02 -5.54609299e-02  1.03898244e-02 -1.26031429e-01
  1.60495982e-01 -6.87487870e-02  2.25704461e-01 -9.11828056e-02
 -1.98307678e-01 -1.13756202e-01 -4.95808385e-02  2.51139015e-01
 -2.20227867e-01 -1.28972650e-01  1.46696959e-02  4.92226258e-02
  1.37184888e-01 -2.59817187e-02 -6.48857886e-03  8.55334476e-02
 -1.40493363e-01 -3.29974264e-01 -9.81913805e-02 -7.79861733e-02
 -1.23776458e-02 -6.08950071e-02 -5.52824736e-02  1.14629708e-01
 -1.78252667e-01 -6.31167293e-02  5.99403400e-03  9.63308737e-02
 -8.66678916e-03 -1.20895937e-01  1.54953584e-01 -4.08136994e-02
 -2.76476294e-01  1.15785552e-02  8.21840465e-02  2.17147276e-01
  1.89923912e-01 -1.59172695e-02  3.88282984e-02 -1.21352650e-01
  1.18288539e-01 -1.43453225e-01 -6.69513717e-02  1.06351554e-01
  4.05062102e-02  6.49165735e-02  2.00766395e-03 -1.25470057e-01
  3.69933024e-02  7.44081959e-02 -1.46259740e-01 -4.31127399e-02
  5.27217872e-02 -1.26638934e-01  2.74553485e-02 -9.20170769e-02
  1.72841311e-01  4.38042060e-02 -6.23346083e-02 -1.70866191e-01
  1.80295393e-01 -1.23224162e-01 -7.42661208e-02  7.10418597e-02
 -1.57570392e-01 -1.99290365e-01 -2.92385191e-01 -2.42605638e-02
  3.33891183e-01  1.05398379e-01 -1.63959309e-01  1.12842023e-01
 -1.92443300e-02  3.30499926e-04  1.27797946e-01  2.06671983e-01
  7.74204433e-02  5.75705431e-02 -1.12059273e-01 -3.22328502e-04
  2.36533508e-01 -8.61685351e-02  2.10998766e-02  2.21988872e-01
  1.10276816e-02  2.88109630e-02  2.99319476e-02  5.99350501e-03
 -4.08202522e-02  9.69013572e-02 -1.04977824e-01  9.79547272e-04
  4.51245308e-02 -1.47461621e-02  1.16496673e-02  1.08141959e-01
 -1.22917451e-01  8.60280916e-02  1.72907878e-02  7.00960383e-02
 -2.23408379e-02 -3.31311226e-02 -5.21953516e-02 -2.36687157e-02
  7.85076022e-02 -2.05612257e-01  1.98794961e-01  1.53624073e-01
 -1.56891122e-02  9.93350595e-02  6.66967854e-02  1.10956125e-01
 -2.49145310e-02 -3.96927819e-02 -1.90404102e-01  4.68738517e-03
  1.45333439e-01 -3.21067534e-02  8.56689960e-02 -5.35554427e-04]