[-1.31333098e-01  5.77845462e-02  8.17260742e-02  9.58874356e-03
 -3.98517214e-02 -1.18754804e-01 -4.77878470e-03 -1.26090631e-01
  1.05588429e-01 -4.22837473e-02  3.00761849e-01 -3.29060070e-02
 -1.72261164e-01 -1.73261344e-01 -3.18035553e-03  1.55605748e-01
 -1.63336620e-01 -4.81611155e-02 -3.58787440e-02  5.97941689e-03
  8.97450298e-02 -1.27375424e-02  8.13876390e-02  3.15307342e-02
 -7.11986348e-02 -3.98604542e-01 -1.15683712e-01 -1.35948464e-01
  5.19576482e-02 -5.43832853e-02 -9.45498124e-02  5.64361922e-02
 -1.62155852e-01 -7.88824409e-02 -1.82779264e-02  7.27180019e-02
 -5.20992093e-03 -5.66480942e-02  1.75811753e-01  9.19847935e-03
 -1.82449162e-01 -3.92556265e-02  8.92840326e-04  2.42270470e-01
  2.25416616e-01  3.52961235e-02  4.49440330e-02 -7.89327472e-02
  8.23530704e-02 -1.66363671e-01  1.03325900e-02  7.94008672e-02
  8.06161389e-02  1.35278646e-02  2.63680350e-02 -1.01927094e-01
 -9.33405757e-03  2.62945481e-02 -1.64752021e-01  7.69972045e-04
  2.36496348e-02 -1.05865456e-01 -7.21802041e-02 -5.83256893e-02
  2.21302897e-01  1.04575254e-01 -9.94761735e-02 -7.71921724e-02
  1.17419027e-01 -1.62736461e-01 -3.98874432e-02  1.81936007e-02
 -1.70253158e-01 -1.83651090e-01 -3.21888447e-01  1.25043979e-02
  3.53643507e-01  8.01547095e-02 -2.15425014e-01  1.78495385e-02
 -6.83164597e-02  3.25199403e-03  1.77274331e-01  1.31524459e-01
 -4.53375047e-03  6.30818829e-02 -1.31077155e-01  6.85398793e-03
  1.78776070e-01 -1.16835535e-01 -2.13552378e-02  2.17207313e-01
 -4.89898548e-02  1.05639853e-01  3.70992236e-02 -1.98513269e-04
 -7.14281900e-03  2.93323826e-02 -1.22569732e-01  3.43163544e-03
  1.04551509e-01 -6.27402365e-02  1.29335898e-03  5.57884350e-02
 -1.40130177e-01  1.86246578e-02  4.16796207e-02  2.70201415e-02
  5.92803061e-02 -8.22317973e-02 -1.33894190e-01 -9.45592150e-02
  1.24446943e-01 -1.70774996e-01  2.19942018e-01  2.11681440e-01
 -1.36403535e-02  1.26220182e-01  8.48532617e-02  6.74523339e-02
 -4.35920544e-02 -3.64322439e-02 -1.41537175e-01  2.90535036e-02
  1.05814934e-01  1.30157117e-02  5.36215976e-02 -4.16899249e-02]