[-0.07249583  0.07198116  0.03763119  0.00288003  0.0062716  -0.05434226
 -0.01030121 -0.12060945  0.1097708  -0.04516209  0.29571071 -0.05779987
 -0.22793904 -0.12639131 -0.04909949  0.18842897 -0.15932654 -0.0794305
 -0.07616378  0.00568011  0.06645622 -0.03868823  0.05358202  0.0337421
 -0.05671887 -0.34848091 -0.08169557 -0.09688564  0.05072707 -0.07117929
 -0.10134037  0.03777623 -0.14885579 -0.06894506 -0.01140115  0.0484446
  0.00462449 -0.08202147  0.20175695  0.02742472 -0.18620525  0.00765236
  0.01575885  0.27040836  0.19986729  0.0589842   0.05086391 -0.11609989
  0.07799352 -0.19595972  0.05439011  0.07716625  0.07164788  0.03134532
  0.0195036  -0.16544393 -0.01246021  0.03355045 -0.13066809  0.0138956
  0.04643987 -0.06214917 -0.0297039  -0.09165937  0.18893304  0.08030895
 -0.09965049 -0.1031698   0.08998854 -0.14375095 -0.04129113  0.00123598
 -0.14772521 -0.17670549 -0.36100537  0.0362744   0.35236913  0.09687591
 -0.18493392  0.04124237 -0.02528507 -0.00520331  0.18058397  0.11730956
 -0.02305573  0.04033127 -0.12076776 -0.01402236  0.19180636 -0.09707271
 -0.05562158  0.16765052 -0.07423057  0.04851269  0.03013491  0.05483628
 -0.04140722  0.06475774 -0.12284328  0.02539277  0.08327679 -0.06698422
  0.01044297  0.05477871 -0.15490909  0.01670975  0.01638101  0.01419164
  0.06139969 -0.02952003 -0.15392816 -0.07216269  0.13540106 -0.20144561
  0.20381923  0.22502692  0.03968362  0.10481568  0.13033484  0.09116409
 -0.01899313  0.02216925 -0.16335428 -0.01408135  0.08882497  0.04541317
  0.07366385  0.00384786]