[-0.16769053  0.0599333   0.08729287 -0.01296435 -0.11465392 -0.02302655
 -0.01087955 -0.15126808  0.16400236 -0.06046261  0.2866728  -0.06678026
 -0.1738677  -0.11023027 -0.04890355  0.23926811 -0.24413922 -0.13077478
  0.01469689  0.04005665  0.07207157 -0.08639907  0.01549547  0.09926005
 -0.14275692 -0.36212027 -0.1104547  -0.12486037 -0.02732976 -0.05149141
 -0.07066306  0.04281504 -0.2327828  -0.05745339 -0.01868151  0.07751031
 -0.00950192 -0.09902757  0.12880749 -0.05738068 -0.23926781  0.02884464
  0.07799536  0.21146519  0.1671325   0.00178051  0.03674893 -0.11559116
  0.10563301 -0.12833352  0.00734004  0.10733434  0.09651259  0.02721727
  0.02102215 -0.1207772   0.01379482  0.10298224 -0.14837663  0.03211242
  0.05818127 -0.0554865   0.00807289 -0.11022992  0.18047409  0.10366882
 -0.07918425 -0.16563964  0.12309509 -0.1061363  -0.04513082  0.05755649
 -0.17355186 -0.25533903 -0.33016044 -0.01210553  0.35467228  0.08858696
 -0.22887571  0.03136927 -0.04149652 -0.00870053  0.1142421   0.17664315
  0.07313575  0.04411726 -0.14234355  0.00297181  0.2146775  -0.08080164
  0.03569153  0.23375891 -0.0279176  -0.04254048 -0.00590254  0.04035972
 -0.06244719  0.0899928  -0.12433132 -0.01496399  0.00462212  0.00245794
 -0.03107688  0.0398686  -0.16882224  0.038745    0.02674019  0.02570898
 -0.03764466 -0.05665781 -0.10768329 -0.04241266  0.12124126 -0.2459818
  0.21003623  0.1726758  -0.00614088  0.12222963  0.04145879  0.08762953
 -0.04772524 -0.04882007 -0.1531087   0.01308902  0.10733088 -0.06307065
  0.07507965 -0.00129878]