[-0.11156838  0.12284243  0.08689526 -0.04111983 -0.08243545 -0.05101389
  0.01131378 -0.1465864   0.11726345 -0.03140527  0.26407659 -0.07246723
 -0.30504364 -0.06311359 -0.0949519   0.19134995 -0.16147716 -0.16226736
  0.01123616  0.01777616  0.00278912 -0.04670442  0.0193043   0.12280209
 -0.07025582 -0.33406338 -0.06433367 -0.06985372  0.00878707 -0.05469308
 -0.05730942  0.10191315 -0.17917462 -0.01359657  0.07906818  0.08708292
 -0.04102983 -0.10652622  0.23517255 -0.01021242 -0.23519002 -0.06767692
  0.06222429  0.27184257  0.20752554 -0.00350657 -0.00829773 -0.08906557
  0.0866207  -0.24735251  0.01418785  0.19609503  0.07187679  0.03767417
 -0.02483164 -0.17958979  0.00797526  0.10964407 -0.21128924 -0.06383327
  0.02228925 -0.15936674 -0.03767863 -0.10523938  0.23599398  0.11537605
 -0.15145844 -0.07350713  0.2071781  -0.16971166  0.00422509  0.0280439
 -0.13679866 -0.18989386 -0.23911813  0.03227395  0.36614668  0.15995529
 -0.13486122  0.10165849 -0.06305254  0.01917858  0.03155808  0.15776891
 -0.05381706  0.03834635 -0.05328989 -0.00723498  0.13821593 -0.04079862
  0.00909057  0.21462058 -0.06564074  0.02627657  0.07471589 -0.00333658
 -0.03196612 -0.01010537 -0.13559753 -0.00204767 -0.04083168 -0.08194726
  0.049326    0.09709739 -0.21933202  0.03004931  0.02174422 -0.00917766
  0.04295832 -0.04484648 -0.02204395 -0.09181709  0.10891145 -0.30739164
  0.23299716  0.14169644  0.0081417   0.15497981  0.06479084  0.0747128
  0.01753203 -0.10757873 -0.09603913 -0.03529922  0.12912603 -0.05080338
  0.08740943 -0.03804008]