[-0.14103636  0.06561977  0.09559085  0.01240406 -0.02967234 -0.11290362
  0.0012283  -0.12138053  0.10444491 -0.03789116  0.30160674 -0.03496729
 -0.17417221 -0.16960847  0.01039051  0.15220761 -0.16480207 -0.04857468
 -0.03267193 -0.01414203  0.0686759  -0.01354054  0.0732516   0.04945569
 -0.06690772 -0.38496074 -0.10793381 -0.14489646  0.06558865 -0.05250362
 -0.09392965  0.074706   -0.14696212 -0.06840473 -0.03557332  0.0733583
  0.00599924 -0.04310549  0.18148847  0.01077244 -0.17317259 -0.04947453
 -0.00571535  0.25101337  0.23935087  0.03079958  0.03556303 -0.03990459
  0.07026076 -0.18569253  0.00677011  0.08050939  0.09398251  0.00737046
  0.02759863 -0.12461659 -0.02950007  0.02012756 -0.15286991  0.00823204
  0.00617045 -0.12505473 -0.06304779 -0.05545164  0.22303326  0.11236329
 -0.0971828  -0.05258346  0.12836407 -0.15617625 -0.03670047  0.01952016
 -0.17033915 -0.16673009 -0.31837425  0.01798272  0.3488878   0.07999284
 -0.21359454  0.01491436 -0.072025    0.00256843  0.16381598  0.11930875
 -0.0171227   0.03843315 -0.12919685 -0.00057114  0.16215163 -0.10027182
 -0.01716754  0.20905533 -0.05755387  0.10882349  0.0289375  -0.00622595
  0.00697428  0.02226116 -0.11662667  0.00976801  0.08768462 -0.07487678
  0.00191391  0.05229938 -0.15806742  0.01650557  0.05317035  0.02942793
  0.05606429 -0.06264048 -0.12768827 -0.07398292  0.14492194 -0.17362142
  0.21286419  0.22143845 -0.02818063  0.13191415  0.07957914  0.06620556
 -0.04622766 -0.04620299 -0.13596277  0.02707539  0.10536911 -0.00528859
  0.04224013 -0.02175587]