[-0.07421946  0.17597969  0.06989185 -0.04689359 -0.05867106 -0.02184729
 -0.00712801 -0.16317017  0.13866065 -0.03556451  0.26165614 -0.06822409
 -0.29377231 -0.05522082 -0.03477088  0.21679826 -0.18169814 -0.16575494
 -0.08208627  0.03588762  0.01907191  0.05872152  0.03901225  0.05845983
 -0.10702955 -0.34495708 -0.06205952 -0.07519054  0.0007754  -0.05209919
 -0.09672852  0.03111835 -0.16913794 -0.04558147  0.12277061  0.07567712
 -0.06841941 -0.12303603  0.19640024  0.01613766 -0.26965004  0.00253422
  0.07748806  0.27568543  0.23744102 -0.00772255  0.00200929 -0.17868149
  0.12648654 -0.20757245  0.01725351  0.15291731  0.04831938  0.06680226
  0.02188492 -0.14531961 -0.01531155  0.13299437 -0.17743839 -0.09518765
  0.1060242  -0.09275222 -0.02868524 -0.13825399  0.19962426  0.07200827
 -0.1528239  -0.12217013  0.13021784 -0.13557845 -0.0452391   0.03583055
 -0.14761937 -0.17122345 -0.27584359 -0.01025273  0.36707357  0.10561512
 -0.15242492  0.05631428 -0.0416276   0.02988671  0.0652209   0.14971368
 -0.02787905  0.05034149 -0.06328475  0.02075842  0.20514432 -0.08483467
  0.03394948  0.22532967 -0.05539566  0.03901049  0.05209229  0.02607735
 -0.08396485  0.00757251 -0.15976682 -0.01285886 -0.04149092 -0.01061741
  0.04733469  0.13441297 -0.17536645  0.07625057  0.03667     0.02344325
  0.05546389 -0.0662943  -0.00656581 -0.09859035  0.09578337 -0.25512561
  0.17705891  0.12706041  0.01579373  0.08994591  0.05834332  0.05780098
 -0.03312994 -0.02913912 -0.20230201 -0.01368758  0.13544793 -0.001637
  0.07857229 -0.04560307]