[-0.20198014  0.10619272  0.05551263 -0.0064178  -0.11080893 -0.05403015
 -0.04939744 -0.14212973  0.15493241 -0.04201477  0.22753315 -0.03705974
 -0.20172177 -0.14766026 -0.04699533  0.207708   -0.22182874 -0.14897035
  0.04752458  0.04644292  0.10932896 -0.0385543   0.01788706  0.06990999
 -0.15712915 -0.38218048 -0.11373174 -0.09491782  0.00949853 -0.05119052
 -0.03982865  0.01197925 -0.2631838  -0.08786187  0.02908657  0.12817214
  0.00467667 -0.06723839  0.16181336 -0.06204559 -0.25027603 -0.00526723
  0.07624491  0.23625354  0.11362274  0.02542758  0.049105   -0.11752322
  0.09038496 -0.14482732  0.01755964  0.14548066  0.09511773  0.02538597
 -0.00240514 -0.14430772  0.0178463   0.11522754 -0.17347202 -0.00674876
  0.06500136 -0.04735342 -0.00377258 -0.0720397   0.20818733  0.06361604
 -0.11276179 -0.16373463  0.0924706  -0.12813777  0.00054309  0.07903661
 -0.12750867 -0.22689913 -0.34911385 -0.00443207  0.35210246  0.05762172
 -0.18527642  0.04478837 -0.07569658 -0.00721945  0.08682344  0.14202714
  0.03251354  0.07884192 -0.1245001   0.04073934  0.22533229 -0.07429039
  0.05002556  0.19849591  0.00276047  0.02099529 -0.0207012   0.06259008
 -0.0696904   0.05146474 -0.0706835   0.02922542  0.03943878 -0.00106306
 -0.00162781  0.09078097 -0.19271655  0.04812521  0.04028859 -0.00497999
 -0.02605036 -0.05440387 -0.11625476 -0.08106811  0.10344621 -0.26903924
  0.24941655  0.19195005 -0.05130489  0.13935892  0.0611198   0.06010443
 -0.03771205 -0.05788485 -0.1417952  -0.01659933  0.10647915 -0.07982792
  0.08253127 -0.03686919]