[-0.11958843  0.06487165  0.04883491 -0.02431341 -0.07473029 -0.0495546
  0.01465071 -0.14231591  0.17533949 -0.06262904  0.21808992 -0.06067798
 -0.19663136 -0.12675227 -0.03049289  0.22662316 -0.20770355 -0.13485442
  0.02496774  0.06033513  0.12528148 -0.01301087  0.02322489  0.07149731
 -0.11293488 -0.35512063 -0.13204996 -0.07629324  0.00276076 -0.06609128
 -0.07420458  0.11048734 -0.17260627 -0.06853574  0.02195374  0.08234365
 -0.02659176 -0.11614592  0.14462596 -0.00422937 -0.25609994  0.02526916
  0.06505442  0.24235527  0.19441448  0.01708148  0.02849796 -0.12792939
  0.10700517 -0.14142197 -0.00613691  0.11605691  0.04503962  0.07049299
  0.02138589 -0.12164029  0.01934784  0.05500137 -0.1593259  -0.00044618
  0.06552019 -0.0954336   0.02664611 -0.09206911  0.17389898  0.07012486
 -0.07631804 -0.17402355  0.14445654 -0.13157459 -0.08657481  0.04953128
 -0.16905951 -0.2037721  -0.26179248 -0.01600359  0.35445315  0.10412393
 -0.18142127  0.09000435 -0.0337729  -0.01969085  0.13298672  0.20595375
  0.08230903  0.05170935 -0.11372817 -0.00954438  0.22402239 -0.08698454
 -0.00358893  0.24633093 -0.01731431  0.0420652   0.02854288  0.01608635
 -0.04461551  0.11356787 -0.12442755 -0.03893064  0.04144138 -0.01521011
  0.00737423  0.09829171 -0.11641208  0.11288313  0.03823705  0.08112492
  0.00761067 -0.03762283 -0.08990847 -0.03115397  0.07632861 -0.22779392
  0.23489873  0.1436757   0.00639898  0.09919226  0.05133675  0.11833695
 -0.00950188 -0.05173596 -0.17617545  0.00778881  0.13072349 -0.00516656
  0.07383327  0.00401384]