[-0.07335548  0.06984924  0.06993573  0.01859489 -0.01954337 -0.13068335
 -0.0316704  -0.13550599  0.08378842 -0.04228904  0.27306792 -0.07081232
 -0.17813902 -0.16530393 -0.01733032  0.16891328 -0.16576104 -0.05592144
 -0.07738905  0.0246899   0.06779742 -0.00899529  0.07394698  0.03660407
 -0.05202398 -0.37401208 -0.07620581 -0.1295628   0.03567127 -0.02523789
 -0.12333222  0.08008388 -0.16444467 -0.1027981   0.01867854  0.08389726
 -0.01484295 -0.04599518  0.17890708 -0.01042639 -0.20676647  0.02876096
  0.02697862  0.24557106  0.24152267  0.04878418  0.05957975 -0.12858887
  0.10553274 -0.14180763  0.0272577   0.09441222  0.09822557  0.03347355
  0.03573667 -0.13753538  0.00430678  0.00083116 -0.12637007 -0.00679978
  0.05437198 -0.08080663 -0.04836173 -0.06782499  0.20827253  0.04485596
 -0.10534766 -0.09407506  0.09396257 -0.15889685 -0.06066993  0.02168721
 -0.17333762 -0.16625051 -0.36599922  0.0006602   0.35139287  0.06861009
 -0.22926879  0.05663692 -0.04782374 -0.00285603  0.1826707   0.16250567
  0.00272731  0.06731365 -0.1113643  -0.00194806  0.18964167 -0.12983011
 -0.04435186  0.18017916 -0.03988647  0.08271441  0.03213169 -0.00096187
 -0.01628957  0.03927314 -0.14919725  0.01453376  0.10213795 -0.05133935
 -0.01534628  0.04743402 -0.1487724   0.02041799  0.04059697  0.03972288
  0.06431734 -0.05698115 -0.14493506 -0.08459555  0.12218557 -0.18863426
  0.23327155  0.20143516  0.03074811  0.10394492  0.11810811  0.06860386
 -0.02009707  0.00091921 -0.15464555 -0.01122088  0.11879122  0.05112198
  0.08222878 -0.0142439 ]