[-7.92714134e-02  1.90570831e-01  9.40962285e-02 -3.44861634e-02
 -5.83136380e-02 -1.42862638e-02 -1.65056046e-02 -1.55723363e-01
  1.43276960e-01 -5.12792654e-02  2.59249628e-01 -4.62258235e-02
 -2.96199292e-01 -4.05250043e-02 -2.70584859e-02  2.02681109e-01
 -1.72470316e-01 -1.61013588e-01 -8.03977028e-02  3.10728252e-02
  1.80031192e-02  7.53838569e-02  3.98154110e-02  2.68892944e-02
 -1.16133273e-01 -3.42458427e-01 -6.71647862e-02 -6.59090579e-02
  1.62847135e-02 -4.34987061e-02 -9.16102305e-02  1.20421154e-02
 -1.66886315e-01 -4.77897488e-02  1.20277844e-01  6.80499226e-02
 -5.81880510e-02 -1.14099853e-01  1.78436935e-01  1.65802985e-02
 -2.70096779e-01  1.37486756e-02  6.06927462e-02  2.69330859e-01
  2.42515355e-01  1.09153986e-02 -3.13337514e-04 -1.97664350e-01
  1.05622590e-01 -2.09795266e-01  3.38825583e-03  1.56529635e-01
  2.74042320e-02  6.27440214e-02  1.67382639e-02 -1.51148990e-01
 -1.83534920e-02  1.23818450e-01 -1.66634768e-01 -1.00144401e-01
  1.07070878e-01 -6.86584711e-02 -2.00260784e-02 -1.25848815e-01
  2.04381689e-01  5.92261367e-02 -1.61479563e-01 -1.17716812e-01
  1.21981941e-01 -1.45117998e-01 -4.02348824e-02  3.84092890e-02
 -1.44434139e-01 -1.69473723e-01 -2.63241380e-01  1.96751882e-03
  3.90467763e-01  1.01695709e-01 -1.46039605e-01  5.56247346e-02
 -4.90063541e-02  3.27293314e-02  6.44292384e-02  1.49534091e-01
 -4.36048731e-02  3.49532329e-02 -4.51949127e-02  1.67958681e-02
  2.17439175e-01 -7.77909458e-02  3.78940850e-02  2.24298745e-01
 -5.27380481e-02  4.75034900e-02  5.12742698e-02  2.87809577e-02
 -8.62479433e-02  4.60370770e-03 -1.53795153e-01 -1.89560410e-02
 -3.72455008e-02 -1.99820045e-02  5.05329780e-02  1.56234682e-01
 -1.83460176e-01  8.69956538e-02  3.09367478e-02  1.69876665e-02
  8.07238594e-02 -4.94562499e-02 -1.31164794e-03 -1.04339741e-01
  1.06986932e-01 -2.48490244e-01  1.82420611e-01  1.48676366e-01
  1.11555494e-02  8.98158625e-02  7.40675107e-02  6.86802194e-02
 -3.17509323e-02  5.03691321e-04 -1.99478030e-01 -2.02729683e-02
  1.20757781e-01 -2.52596680e-02  7.57526457e-02 -5.70355356e-02]