[-0.04956934  0.14076899  0.0463256  -0.06821274 -0.08059671 -0.03655065
 -0.01407856 -0.16329958  0.15489875 -0.04074937  0.27544141 -0.11306335
 -0.31804109 -0.07329431 -0.081305    0.25125799 -0.20315038 -0.19169247
 -0.05249023  0.06385345  0.0394922  -0.00851592  0.00216175  0.09888961
 -0.08628807 -0.36620229 -0.07291494 -0.04524771 -0.00570335 -0.09544531
 -0.04756252  0.07181937 -0.18680082 -0.02772613  0.10329203  0.079322
 -0.01867288 -0.16078825  0.19899651 -0.04302561 -0.30988038 -0.03110835
  0.11697824  0.23604608  0.18870007 -0.01850997 -0.01376992 -0.15608561
  0.06851125 -0.19286725  0.00430748  0.16535632  0.04288433  0.04668568
 -0.03473472 -0.16395776  0.01100627  0.12037224 -0.18159643 -0.08292142
  0.09757691 -0.15205918 -0.04433711 -0.10654282  0.19588943  0.06860904
 -0.14462282 -0.1634272   0.14238116 -0.17601226 -0.03776472  0.02325062
 -0.14282215 -0.1704191  -0.3108066  -0.05622645  0.36771628  0.06735639
 -0.1795415   0.10052937 -0.02937455  0.02299366  0.07400342  0.18264267
  0.01256454  0.03372705 -0.10461648  0.01842285  0.22801767 -0.08396029
  0.03298399  0.22320342 -0.06547138  0.01960392  0.04420107  0.02848717
 -0.03443581  0.0229637  -0.12063296  0.02304322 -0.0100656  -0.00891812
  0.00083626  0.12088259 -0.17764924  0.03612312  0.06429263  0.02173654
  0.08677781 -0.04315722 -0.03631518 -0.14500543  0.13065612 -0.26262689
  0.21010242  0.15025532  0.04837307  0.0816749   0.06947087  0.09341361
  0.00894695 -0.07393076 -0.19807893 -0.00375894  0.10802354 -0.0507241
  0.0761112  -0.03953255]