[-0.136107    0.103173    0.04247092 -0.02909999 -0.11281407 -0.04224486
 -0.00726873 -0.14048259  0.12382354 -0.0916199   0.26019832 -0.05639319
 -0.18452731 -0.09278847 -0.06303594  0.21335097 -0.22147091 -0.14448518
  0.03429008  0.02013018  0.08849477 -0.0196314   0.00742069  0.07389494
 -0.13821848 -0.30370292 -0.09368037 -0.12095588 -0.06235921 -0.04982657
 -0.03585301  0.10826392 -0.15003939 -0.00783649  0.00301824  0.04802041
  0.03117896 -0.06081574  0.18179834 -0.01033838 -0.24914466  0.0166189
  0.08410309  0.27187338  0.15884563 -0.03076371  0.00877109 -0.08869936
  0.08973141 -0.11685965 -0.01888894  0.12142445  0.04633929  0.01131715
  0.01357878 -0.11577699  0.0305621   0.04765641 -0.13833247 -0.04865353
  0.06557483 -0.07092036  0.0071243  -0.0945972   0.21987872  0.08992174
 -0.06178173 -0.18010533  0.14256255 -0.13151877 -0.1098547   0.07223821
 -0.17720012 -0.16760696 -0.25888664 -0.03357722  0.33339554  0.08896937
 -0.19018349  0.08298772 -0.0437797  -0.03994408  0.14720668  0.16214041
  0.05766213  0.05668314 -0.12825438 -0.02613037  0.23763631 -0.06588982
 -0.01068888  0.21394025  0.00215947 -0.02689362  0.05500768 -0.01954399
 -0.0406568   0.06876988 -0.13836847 -0.02419357 -0.01352834 -0.04508358
 -0.0515303   0.10452304 -0.17862618  0.05260268  0.01497334  0.03157858
 -0.04937707 -0.01297722 -0.07974018 -0.03729906  0.10646126 -0.2117561
  0.17688261  0.12065656  0.00797414  0.08983966  0.06354886  0.07940459
 -0.0642115  -0.03956702 -0.1847299  -0.01435575  0.12262221 -0.05774287
  0.09032717 -0.00399698]