[-0.12857723  0.07733075  0.07273993 -0.05858858 -0.12667458 -0.02713209
 -0.02086811 -0.09605243  0.15166481 -0.0202489   0.30896553 -0.06261038
 -0.24246259 -0.10906503 -0.06319132  0.2440089  -0.20257477 -0.08276428
  0.04927639  0.04575895  0.07413731 -0.03577373  0.0203822   0.10125758
 -0.14688274 -0.38043103 -0.09905862 -0.10577305 -0.08697732 -0.06523152
 -0.04253727  0.1185593  -0.18119375 -0.02115951  0.03679721  0.10640212
 -0.03694251 -0.06769865  0.15095401  0.00987147 -0.2521672  -0.00646687
  0.05713714  0.28649929  0.19852476  0.00915014  0.0599453  -0.09488162
  0.11076987 -0.18652354  0.04323559  0.14432211  0.05063728  0.00417935
  0.0367362  -0.13273083 -0.00758739  0.13629057 -0.17341284 -0.02370157
  0.06046775 -0.07052805  0.00315687 -0.1260024   0.21952872  0.10687888
 -0.1328306  -0.09319307  0.1715042  -0.08385245 -0.0165223   0.05162279
 -0.21596515 -0.26488879 -0.29119369  0.03599091  0.38026598  0.09991767
 -0.17591803  0.05441753 -0.03874377  0.0154208   0.10342802  0.16763063
  0.06482576  0.04290636 -0.09784015  0.03958612  0.19310574 -0.10778809
  0.04393153  0.24817863 -0.05318221 -0.0270817   0.01444299  0.01863467
 -0.03761395  0.07599127 -0.12892403 -0.00212928 -0.00246472 -0.07432924
  0.00609436  0.05607344 -0.20747685  0.04558561  0.04518184  0.02271602
 -0.02369929 -0.06778574 -0.0845539  -0.03768389  0.13394074 -0.27099636
  0.24380882  0.13260058 -0.00576169  0.14688565  0.03983718  0.09385357
 -0.03173261 -0.12363104 -0.12494081  0.0176786   0.11917382 -0.02482509
  0.08701044 -0.02670898]