[-5.43875955e-02  1.80533335e-01  9.15180445e-02 -3.08792032e-02
 -5.85032217e-02 -1.13881566e-02 -5.15185250e-03 -1.60251543e-01
  1.33121699e-01 -4.89912331e-02  2.67508209e-01 -7.56125450e-02
 -3.14726204e-01 -4.85910736e-02 -2.12720763e-02  2.16132984e-01
 -1.63307592e-01 -1.67341515e-01 -8.50308463e-02  4.17172126e-02
  2.73622070e-02  5.14777862e-02  3.45447920e-02  4.30069678e-02
 -1.18913554e-01 -3.39311093e-01 -6.72031790e-02 -6.61762208e-02
 -5.16554946e-03 -5.88763542e-02 -9.59320217e-02  2.02162247e-02
 -1.68238133e-01 -4.10597138e-02  1.01790003e-01  5.36978841e-02
 -6.62260354e-02 -1.34715989e-01  1.71249852e-01  1.59794632e-02
 -2.79289663e-01  1.03349369e-02  6.14296496e-02  2.68381119e-01
  2.26635814e-01  1.15404429e-03  4.61402675e-03 -1.81830883e-01
  9.50839892e-02 -2.07544953e-01  1.00607853e-02  1.44478381e-01
  4.10026610e-02  6.51973560e-02  1.61886830e-02 -1.52829632e-01
 -7.83923175e-03  1.28516912e-01 -1.76301941e-01 -8.23634863e-02
  1.13700084e-01 -8.72235373e-02 -2.07825284e-02 -1.34347066e-01
  2.05419168e-01  7.21911937e-02 -1.51678413e-01 -1.16662286e-01
  1.27540454e-01 -1.42693654e-01 -5.05790375e-02  2.57922597e-02
 -1.47221014e-01 -1.74850047e-01 -2.79089689e-01 -8.00985936e-03
  3.61653626e-01  9.67353433e-02 -1.72891602e-01  4.90247570e-02
 -3.09018325e-02  5.18159829e-02  8.02763700e-02  1.57998517e-01
 -2.29959544e-02  3.64462584e-02 -6.35429248e-02  3.99735896e-03
  2.16396838e-01 -9.30927768e-02  3.59418057e-02  2.35261753e-01
 -5.32617681e-02  1.68501567e-02  5.97783141e-02  1.82466712e-02
 -7.31499717e-02  1.13589037e-02 -1.50915816e-01  1.23769787e-04
 -4.43614982e-02 -3.51041965e-02  2.85881292e-02  1.34441584e-01
 -1.79622650e-01  7.78514445e-02  4.07877415e-02  1.85525101e-02
  7.19539896e-02 -5.76997176e-02 -1.87035482e-02 -1.07190266e-01
  1.05594359e-01 -2.62327731e-01  1.79654032e-01  1.48677468e-01
  2.30115224e-02  8.13338533e-02  6.04504161e-02  8.02566633e-02
 -3.06098368e-02 -1.13509428e-02 -2.05639586e-01 -1.87763758e-02
  1.33432344e-01 -2.22432893e-02  6.22353666e-02 -4.44070995e-02]