[-0.05355842  0.05572852  0.07156741 -0.00182493 -0.05399408 -0.10704155
 -0.04248985 -0.0908107   0.07898635 -0.02881485  0.28869894 -0.05209577
 -0.17747755 -0.13853754 -0.01701844  0.15454128 -0.12458183 -0.07596709
 -0.08631968 -0.00956521  0.03262568 -0.00442406  0.08228653  0.03272016
 -0.02256877 -0.39495561 -0.08906615 -0.11068467  0.06936435 -0.07166953
 -0.08911133  0.06914686 -0.13361482 -0.09738153  0.04916408  0.09388941
 -0.03732294 -0.09290316  0.19836733  0.02970816 -0.15002334  0.0051196
 -0.01120895  0.27582142  0.23257709  0.0770809   0.07267135 -0.089448
  0.1122235  -0.17891163  0.06194258  0.10470185  0.11135869  0.00741861
  0.09084502 -0.0920902   0.01617929  0.05666745 -0.15917377  0.00572268
  0.03826315 -0.07672503 -0.03832847 -0.12152901  0.20642637  0.08375832
 -0.08608213 -0.05480482  0.13886866 -0.13138536 -0.07057804 -0.00373414
 -0.17251968 -0.14965765 -0.31377193  0.01356214  0.36902875  0.1291647
 -0.19843704  0.02319855  0.005448    0.00351511  0.12956898  0.11588278
 -0.05814887  0.02483147 -0.10879194  0.00651584  0.16447435 -0.08557381
 -0.05899175  0.14747113 -0.07185793  0.0814959   0.05188417 -0.02235647
 -0.02563927  0.02325871 -0.13386333 -0.00828974  0.08596398 -0.06703616
  0.01056416  0.05795354 -0.12733172  0.01061044 -0.01395079  0.01466135
  0.04024306 -0.04264848 -0.11914752 -0.0549104   0.12906335 -0.17905746
  0.21085966  0.20077562  0.01911992  0.10117199  0.08943941  0.06351524
 -0.02099871 -0.02961491 -0.14583531 -0.04883048  0.06957097  0.06180791
  0.08175518 -0.00486164]