[-0.14665346  0.07720228  0.08596331 -0.04768768 -0.11106775 -0.01647838
 -0.02125991 -0.13894315  0.12633832 -0.07979466  0.24372016 -0.1059829
 -0.18978904 -0.06205588 -0.03319083  0.21314898 -0.18933225 -0.11480644
  0.00788978  0.04241353  0.0599256  -0.05769259 -0.01604655  0.0887718
 -0.1086295  -0.34718323 -0.10792953 -0.09275386 -0.01030481 -0.07228045
 -0.0563559   0.02296275 -0.21606402 -0.03858633 -0.01664189  0.11338311
  0.00263291 -0.1203316   0.12518895 -0.02255341 -0.25419176  0.05010961
  0.04956367  0.20379356  0.15110791  0.01255931  0.05759624 -0.10784967
  0.11226457 -0.1175329   0.0350075   0.06483422  0.12811528  0.00818686
  0.01751221 -0.1692865  -0.02738649  0.09195548 -0.11892754  0.02599189
  0.06661854 -0.04184049  0.02947267 -0.12279258  0.19625239  0.098581
 -0.09108621 -0.15705298  0.15444477 -0.10008875 -0.0339767   0.05725629
 -0.15618531 -0.19814384 -0.29036605  0.04208382  0.3460395   0.0796214
 -0.20180063  0.01943836 -0.04505444  0.01201729  0.07913555  0.19919674
  0.07499778  0.04366395 -0.08116644 -0.00208598  0.22584446 -0.09028625
  0.0131828   0.19675028 -0.05112725 -0.0014221  -0.03577949 -0.00223957
 -0.06884501  0.09204704 -0.06427627  0.00469539  0.00251601 -0.02458404
 -0.01297649  0.0898506  -0.18805575  0.05190499  0.00343626  0.01819326
 -0.00462466  0.00933498 -0.083886   -0.045681    0.12581883 -0.26755792
  0.2096123   0.17926697 -0.01857113  0.10852887  0.06202395  0.11148553
  0.02903011 -0.01091042 -0.17336309 -0.00810282  0.10546646 -0.0402656
  0.05329776  0.0167955 ]