[-6.19807653e-02  8.09864029e-02  6.48214221e-02  2.07980033e-02
 -1.68151353e-02 -1.10603191e-01 -4.01119143e-02 -1.50526211e-01
  8.50521699e-02 -3.48383784e-02  3.00785989e-01 -6.75474331e-02
 -1.85099676e-01 -1.66211441e-01 -2.76098587e-02  1.75244018e-01
 -1.71843871e-01 -7.23204836e-02 -4.75495718e-02  1.50295170e-02
  8.33382532e-02 -1.47506073e-02  8.48233923e-02  3.66708711e-02
 -5.29359952e-02 -3.76802802e-01 -9.51065347e-02 -1.26338825e-01
  5.59681766e-02 -4.47775237e-02 -1.08062662e-01  6.26731664e-02
 -1.76896498e-01 -8.17117840e-02  2.34558489e-02  5.97297549e-02
 -4.46176855e-03 -7.94747621e-02  1.92249849e-01 -3.60860163e-03
 -1.95802256e-01  2.76433956e-02  2.60061920e-02  2.37725541e-01
  2.19200402e-01  4.19236608e-02  6.72063753e-02 -1.24971867e-01
  1.07540183e-01 -1.27251267e-01  3.02757230e-02  9.28941444e-02
  1.11357905e-01  2.57319100e-02  2.33821645e-02 -1.32580087e-01
 -1.33193582e-02  2.99977306e-02 -1.27754927e-01  1.14543540e-02
  4.00508754e-02 -8.23531523e-02 -4.64319400e-02 -8.47159326e-02
  2.02847868e-01  5.18067256e-02 -1.09465137e-01 -1.12818740e-01
  7.92413354e-02 -1.48188084e-01 -6.36943057e-02  4.72431518e-02
 -1.72443822e-01 -1.70552328e-01 -3.51153582e-01 -2.18370566e-04
  3.47896039e-01  5.46217225e-02 -2.21776232e-01  5.50709069e-02
 -3.37560140e-02 -1.99790834e-03  1.59091979e-01  1.69581503e-01
  4.91837785e-03  7.22115785e-02 -1.17051415e-01 -1.14906216e-02
  2.09071547e-01 -1.27092302e-01 -5.46741597e-02  2.02513844e-01
 -7.44767785e-02  9.95511487e-02  1.63903460e-02  1.13754710e-02
 -1.13301724e-02  3.71083133e-02 -1.09324552e-01  8.82433378e-04
  8.52863565e-02 -4.46332470e-02 -2.62564067e-02  4.02050987e-02
 -1.55240014e-01  2.35268986e-03  2.24581622e-02  5.04327193e-02
  5.82673214e-02 -6.38663098e-02 -1.32242963e-01 -7.32976273e-02
  1.18065953e-01 -2.23960474e-01  2.33401582e-01  2.04578742e-01
  2.76437048e-02  9.92233977e-02  1.07407011e-01  6.08927086e-02
 -1.54029755e-02 -2.27872860e-02 -1.56671748e-01 -1.34576736e-02
  1.17057681e-01  3.91187333e-02  7.52237141e-02 -3.16649638e-02]