[-0.08097861  0.13642018  0.02895461 -0.06250903 -0.09600242 -0.03831559
  0.00502346 -0.13809997  0.14868496 -0.02796622  0.25934193 -0.07009768
 -0.30013293 -0.08491583 -0.06201581  0.22981691 -0.1928598  -0.19594173
 -0.07027534  0.0335913   0.03202712  0.01773202  0.02039428  0.10509159
 -0.11630233 -0.35695228 -0.07097196 -0.06311618 -0.00179621 -0.08041997
 -0.02371511  0.06821916 -0.17919789 -0.03002196  0.11214826  0.06534258
 -0.0379778  -0.14592217  0.23566893 -0.02865447 -0.30688933 -0.04296431
  0.11252981  0.25504443  0.20073979 -0.02807981 -0.0030714  -0.1286643
  0.09655801 -0.21100788  0.01105845  0.1746106   0.03112083  0.04857209
 -0.03651721 -0.1366981   0.02821083  0.14911446 -0.22744584 -0.09560096
  0.0824834  -0.17686149 -0.05499509 -0.08456512  0.17918602  0.07353776
 -0.13281429 -0.16095464  0.15572134 -0.19471352 -0.02332017  0.06111011
 -0.13654098 -0.18351534 -0.30496925 -0.03648314  0.40041891  0.10320219
 -0.13133848  0.09763304 -0.02959388  0.01733468  0.07062984  0.16178621
 -0.02237558  0.02482171 -0.10252074  0.04155042  0.21576829 -0.05256329
  0.01523339  0.22598481 -0.02107118  0.0196402   0.07085031  0.03949226
 -0.02906847 -0.00199115 -0.10966765  0.03720158 -0.02293502 -0.01320874
  0.02703453  0.10385653 -0.16361932  0.06447004  0.05100223  0.01146346
  0.04124777 -0.06160573 -0.01998037 -0.12745322  0.10839045 -0.26032287
  0.18281181  0.13489722  0.03395542  0.11476956  0.05629981  0.06978605
 -0.01872913 -0.0937018  -0.19012563 -0.00712134  0.12303678 -0.04563316
  0.11569053 -0.04023337]