[-0.07770498  0.06340741  0.07701212  0.02415181 -0.02620801 -0.12695833
 -0.03286093 -0.12982742  0.0804833  -0.04209469  0.2709938  -0.07239556
 -0.17339836 -0.16139349 -0.0143962   0.17253546 -0.16492189 -0.05138701
 -0.0664264   0.02445486  0.06729352 -0.02110068  0.06950986  0.03661474
 -0.05368051 -0.37667224 -0.08145746 -0.12714855  0.02579291 -0.02058964
 -0.12214948  0.08139249 -0.1591647  -0.09864446  0.01133857  0.08009466
 -0.01299168 -0.05291688  0.17115957 -0.01834321 -0.20514707  0.02363998
  0.0228332   0.2345234   0.23601468  0.05017327  0.06196421 -0.11843216
  0.10357628 -0.14024433  0.01734526  0.08600128  0.09146393  0.03000125
  0.03012706 -0.13562708  0.00556801  0.00569815 -0.12252867 -0.0120687
  0.04473669 -0.08847019 -0.04459342 -0.07083527  0.21116428  0.05460372
 -0.09863396 -0.09785265  0.10017882 -0.15424486 -0.05772909  0.0200654
 -0.17308569 -0.16922541 -0.36349455  0.00566946  0.34794745  0.0682018
 -0.22629113  0.04908968 -0.04584811  0.00511645  0.18323033  0.16185518
  0.00665277  0.05937567 -0.11508399 -0.01206195  0.19098085 -0.13040911
 -0.04229608  0.17809471 -0.0396607   0.08314854  0.02968681 -0.00342457
 -0.0115559   0.05000928 -0.14192925  0.0214756   0.10520809 -0.05222208
 -0.01381975  0.04971765 -0.14810592  0.01285656  0.0334257   0.04270913
  0.06442375 -0.05496018 -0.14613946 -0.08402032  0.12202438 -0.19116938
  0.22388326  0.2049135   0.02641134  0.10795569  0.11385752  0.07429915
 -0.024078   -0.00285278 -0.15928951 -0.0044862   0.12248694  0.04714333
  0.07107127 -0.01169014]