[-0.0515549   0.17702545  0.07912362 -0.04072257 -0.04896219 -0.0321386
  0.00778466 -0.16304104  0.13868582 -0.04382852  0.28287572 -0.06682008
 -0.29214391 -0.06497966 -0.01959312  0.20883112 -0.15986827 -0.16628638
 -0.09419608  0.05608798  0.01470024  0.04318684  0.04207715  0.0620052
 -0.11583289 -0.33700249 -0.07136603 -0.08072817 -0.00264809 -0.05825654
 -0.09659032  0.01624663 -0.1779145  -0.04627949  0.11795551  0.04927217
 -0.06436457 -0.11968346  0.20116623  0.01619365 -0.27712354  0.00900527
  0.06099406  0.266357    0.23981138 -0.00689204  0.00773933 -0.19005232
  0.11372341 -0.20493351  0.02461143  0.13754049  0.04891328  0.07519747
  0.01118195 -0.15256999 -0.00969662  0.14045134 -0.18328743 -0.09191765
  0.09974702 -0.09230158 -0.04200268 -0.12024462  0.21071027  0.06623264
 -0.1641994  -0.1215485   0.13110606 -0.14710654 -0.03355708  0.04272556
 -0.14195707 -0.17430447 -0.27779987  0.0091288   0.36523563  0.10715459
 -0.18317847  0.04643089 -0.05545523  0.04646196  0.06344878  0.15147735
 -0.02414088  0.04136944 -0.06372235  0.00714525  0.20234437 -0.08944749
  0.04672147  0.24210826 -0.05471493  0.03061452  0.05175791  0.02053789
 -0.07906541  0.00629256 -0.14771126 -0.00255134 -0.03918926 -0.01149025
  0.03707157  0.13918166 -0.19418882  0.08359051  0.03326817  0.00993603
  0.0706623  -0.06379423  0.00309187 -0.1194304   0.08807383 -0.27218792
  0.18018755  0.13301836  0.02067575  0.08927613  0.05114866  0.06962007
 -0.02953645 -0.02198783 -0.2050221  -0.00623902  0.14080967 -0.01005422
  0.06980028 -0.05773409]