[-0.1185021   0.09430338  0.0731023  -0.03801128 -0.07173274 -0.06870304
 -0.0006487  -0.14230464  0.17721713 -0.06045887  0.21296631 -0.08467335
 -0.21447296 -0.09722984 -0.04843125  0.25901362 -0.22188096 -0.13720925
 -0.01370281  0.05513761  0.14674857 -0.02638943  0.00860394  0.07592228
 -0.12998407 -0.36955413 -0.12379228 -0.06902475  0.00552129 -0.05149232
 -0.08220408  0.07835554 -0.18206602 -0.05880985  0.02678653  0.08177479
 -0.03334871 -0.15240891  0.14362773 -0.01814224 -0.28417161  0.06367967
  0.0929108   0.20712204  0.22919738  0.01736964  0.04886911 -0.14174852
  0.13151148 -0.1427747  -0.03363826  0.11927474  0.05721795  0.08596635
  0.04694679 -0.11796754  0.02426393  0.07168733 -0.17398162 -0.02191853
  0.07802429 -0.11955116  0.02411381 -0.10523778  0.17229693  0.07543844
 -0.07420393 -0.17934375  0.18502589 -0.14398383 -0.06776342  0.0426001
 -0.16348715 -0.1910103  -0.26268074 -0.01925856  0.35167786  0.11552063
 -0.17452379  0.11040439 -0.02471513  0.00467782  0.12307485  0.20066133
  0.08480878  0.03375363 -0.10625547 -0.00888681  0.24715717 -0.10204353
  0.02836887  0.24279745 -0.00853858  0.02469333  0.01505952 -0.01124097
 -0.0803626   0.10178158 -0.11356933 -0.02278134  0.02083142  0.00225884
  0.01526219  0.07830421 -0.10383141  0.08030803  0.02221044  0.07064869
 -0.00693892 -0.0248778  -0.07782221 -0.04003608  0.06555562 -0.22493117
  0.25050589  0.14417726 -0.00440367  0.07819266  0.05098801  0.12287322
  0.00166701 -0.03656044 -0.17137168 -0.00494897  0.13963236 -0.01506829
  0.08370145 -0.00429985]