[-8.20355415e-02  1.36792377e-01  8.39915797e-02 -4.33206297e-02
 -5.03014326e-02 -1.89703684e-02  3.08523886e-03 -1.45610973e-01
  1.23446904e-01 -3.47949453e-02  2.76377857e-01 -4.78363670e-02
 -2.62287766e-01 -7.99395666e-02  1.81210898e-02  2.21712232e-01
 -1.69231877e-01 -1.68112561e-01 -7.86133856e-02  3.01036928e-02
  3.22971828e-02  1.88245829e-02  8.20110440e-02  6.97230026e-02
 -1.42040715e-01 -3.13031107e-01 -7.23734722e-02 -4.32001092e-02
  1.22267073e-02 -4.13900614e-02 -1.05436109e-01  2.16240194e-02
 -1.73549041e-01 -5.02061509e-02  1.14617936e-01  8.73746574e-02
 -3.51170339e-02 -1.39275149e-01  1.89182788e-01 -6.29266864e-03
 -2.78975338e-01 -1.13683089e-03  1.08632140e-01  2.52668768e-01
  2.30623409e-01  8.66257586e-03  7.74679100e-03 -1.58814684e-01
  1.31054834e-01 -1.91743866e-01  3.58699486e-02  1.15477085e-01
  6.23626001e-02  5.33769019e-02  1.43790338e-02 -1.49994507e-01
  1.03548449e-02  1.38297185e-01 -1.54769763e-01 -8.78166631e-02
  6.92347810e-02 -4.82871495e-02 -1.17508788e-02 -1.32389888e-01
  1.99935064e-01  8.95117596e-02 -1.41211107e-01 -1.58245489e-01
  1.06674984e-01 -1.20079875e-01 -6.96983263e-02  5.80682866e-02
 -1.76298127e-01 -1.68376207e-01 -3.00614625e-01 -3.13800238e-02
  3.32509249e-01  7.26718754e-02 -1.82352588e-01  5.97438030e-02
 -1.53524731e-03  3.63711007e-02  6.62593544e-02  1.78072214e-01
 -3.45219672e-02  8.28564242e-02 -8.41010138e-02 -1.05354939e-05
  2.31231242e-01 -8.72239023e-02  1.77292172e-02  2.42162585e-01
 -1.83323920e-02  4.29937467e-02  6.47028312e-02  4.44040261e-02
 -6.11735955e-02  3.53677534e-02 -1.88635871e-01 -2.03558113e-02
 -9.56382509e-03  1.09924125e-02  4.00457978e-02  1.30819723e-01
 -1.97420105e-01  7.59280249e-02  3.31020541e-02  4.02279161e-02
  5.25758378e-02 -4.84090410e-02 -3.05517968e-02 -1.08347751e-01
  7.20239207e-02 -2.51035571e-01  1.44119918e-01  1.68188080e-01
  3.01441681e-02  6.14618175e-02  8.14718232e-02  6.72070682e-02
 -1.57940912e-03  1.95486657e-02 -1.82249978e-01  1.52303996e-02
  1.39943704e-01 -4.72173765e-02  7.72641525e-02 -1.40303867e-02]