[-0.05674664  0.05894067  0.04203818 -0.00718535  0.00039274 -0.07989448
  0.0147016  -0.1061912   0.09306413 -0.02491654  0.30452883 -0.06281614
 -0.21625467 -0.14813586 -0.01627984  0.16960405 -0.14724223 -0.08986617
 -0.07362948 -0.01384657  0.05713437 -0.06243989  0.05922931  0.04901143
 -0.08333196 -0.33624864 -0.07799017 -0.12245172  0.02904822 -0.07335637
 -0.07862463  0.07025691 -0.16003607 -0.07056656 -0.01072099  0.03930701
  0.00933631 -0.10056002  0.22300895  0.00419381 -0.16946656 -0.01105781
  0.00778855  0.25122499  0.18519528  0.0017492   0.07786812 -0.06916862
  0.07491814 -0.17609777  0.01989507  0.07908531  0.08343093  0.03537051
  0.01068458 -0.15321095  0.00047358  0.03869865 -0.14106596  0.00741895
  0.021066   -0.09317721 -0.03185075 -0.09110969  0.19637947  0.07601702
 -0.09211939 -0.10071886  0.10208266 -0.12402599 -0.03300135  0.01622476
 -0.16696666 -0.17220117 -0.34273466  0.04673087  0.31659004  0.09187303
 -0.20062554  0.0359775  -0.05033977  0.00637286  0.14199705  0.09384119
 -0.0255362   0.06408626 -0.13450477  0.00690537  0.19347779 -0.09979113
 -0.06208283  0.16099018 -0.07655735  0.04402628  0.04183859  0.03296024
 -0.02531204  0.05978384 -0.11094685  0.06207295  0.08620571 -0.09608282
  0.00210051  0.05185615 -0.14963017 -0.00873601  0.00211989  0.00051142
  0.00822218 -0.03033785 -0.15101092 -0.0657691   0.12878893 -0.20584667
  0.20404015  0.22092786  0.0258845   0.10926783  0.10627388  0.07399984
 -0.0361277  -0.00219601 -0.13956945 -0.0142931   0.10159609  0.06470551
  0.07676587 -0.00044944]