[-0.03860498  0.0967086   0.10781522 -0.00822036 -0.0505314  -0.09477931
 -0.07413556 -0.09482252  0.07586175 -0.01216239  0.29309961 -0.04747338
 -0.1898568  -0.13100296 -0.02871166  0.14282243 -0.14014475 -0.08860945
 -0.07456325 -0.00402884  0.02577998  0.01425481  0.09023263  0.01448607
 -0.06218596 -0.3797555  -0.11276557 -0.09612239  0.09904765 -0.08615874
 -0.10235371  0.04232449 -0.15763132 -0.08719164  0.01867872  0.06350046
 -0.04062069 -0.0919899   0.18867172  0.05492204 -0.16923717  0.0264586
 -0.03138004  0.29243332  0.25691342  0.07687998  0.08177048 -0.10005816
  0.09156388 -0.20406674  0.08295438  0.12942037  0.09290969 -0.00257044
  0.08824851 -0.10715733 -0.03297782  0.08544108 -0.16594253  0.03950838
  0.02442773 -0.04471608 -0.02292621 -0.12732647  0.18593213  0.09869244
 -0.10035546 -0.06777912  0.14821041 -0.14757106 -0.06251296  0.03038499
 -0.15390739 -0.16577758 -0.35810775  0.02397051  0.36348519  0.12081484
 -0.2170327   0.01574193  0.01976003 -0.00503317  0.12851249  0.13697852
 -0.07184778  0.05053152 -0.12183034  0.00824611  0.17566353 -0.0925132
 -0.05918231  0.17588428 -0.06063873  0.08206617  0.05781154  0.03074834
 -0.04187592 -0.00788911 -0.15957394 -0.00576216  0.06901443 -0.04203863
 -0.02541806  0.08731753 -0.08564054  0.02834701  0.00472393 -0.02109322
 -0.00945928 -0.06886475 -0.09526134 -0.07042628  0.14451665 -0.18838516
  0.18524893  0.20805369  0.00119175  0.09720747  0.09795123  0.05377553
 -0.0264163  -0.03369213 -0.12214545 -0.05045179  0.05768448  0.03170959
  0.07502705 -0.00663566]