[-9.10120532e-02  1.15532614e-01  1.15001537e-01 -3.12237293e-02
 -1.03989951e-01  2.39050761e-02 -2.10789852e-02 -6.86618313e-02
  1.48449138e-01 -7.89587349e-02  2.51152724e-01  5.21399779e-03
 -2.42726207e-01 -2.91729514e-02 -1.77645739e-02  2.04997018e-01
 -1.39368296e-01 -1.34805515e-01 -1.07870415e-01 -5.78742614e-03
 -1.55718939e-03  8.92189667e-02  4.27351855e-02  5.47793321e-02
 -1.29163951e-01 -3.80545944e-01 -6.23406880e-02 -3.57422121e-02
  3.36659998e-02 -8.96649361e-02 -9.72993597e-02  9.40355211e-02
 -1.11622214e-01 -1.24157993e-02  1.13466375e-01  9.16109309e-02
 -7.15880021e-02 -1.17456615e-01  1.89215675e-01  6.12923689e-02
 -2.57107288e-01  2.50553334e-04  3.15113552e-02  3.19087595e-01
  2.82739311e-01 -1.55476499e-02  3.77607048e-02 -1.51101753e-01
  1.71205103e-01 -2.45605275e-01  2.56348085e-02  1.70899302e-01
  5.72760366e-02  6.49818480e-02  4.59597372e-02 -1.22986637e-01
 -3.26867364e-02  1.20022133e-01 -1.08076490e-01 -2.81923767e-02
  5.23267873e-02 -7.67243281e-02 -2.39132475e-02 -1.34226695e-01
  1.34497598e-01  7.31785148e-02 -1.62136659e-01 -1.32441238e-01
  1.31581545e-01 -1.58647388e-01 -4.60821278e-02  4.88333181e-02
 -1.88149422e-01 -1.91677243e-01 -2.59694159e-01 -5.89988369e-04
  3.75234753e-01  1.30265251e-01 -1.93366915e-01  1.46721886e-03
 -2.53574876e-03  2.46529672e-02  5.49739897e-02  2.03497157e-01
 -7.80061111e-02  1.13850348e-02 -5.07470258e-02  3.26822512e-02
  2.40215063e-01 -5.80356307e-02  1.11718802e-02  2.62505859e-01
 -8.91680655e-04  4.39366698e-02  6.57868311e-02  6.50398359e-02
 -8.01912993e-02 -9.64886229e-03 -1.67711198e-01 -3.08943540e-02
 -3.84245417e-03 -5.63520193e-02  3.94455530e-02  1.42795533e-01
 -1.75632298e-01  1.64020762e-01 -4.95815091e-03  6.81833774e-02
  8.97320583e-02 -3.25451754e-02 -6.03286922e-02 -9.45690274e-02
  1.38402075e-01 -1.69601068e-01  1.20687641e-01  1.84234008e-01
  3.56425121e-02  9.04346630e-02  1.00125305e-01  9.24213752e-02
 -2.13973913e-02 -3.43035534e-03 -1.40220210e-01 -9.19557922e-03
  8.18334222e-02 -2.68369261e-02  9.01184697e-03 -5.51393144e-02]