[-0.04897069  0.07448616  0.05220396  0.00174386 -0.00581128 -0.12992756
 -0.04043454 -0.12248212  0.06988659 -0.04680028  0.29099211 -0.05449128
 -0.18858771 -0.16423635 -0.02167541  0.14639841 -0.17362753 -0.06669516
 -0.04883043  0.00253782  0.08130547 -0.01391695  0.08267702  0.02649921
 -0.09513064 -0.3663207  -0.08911979 -0.1457936   0.01721196 -0.05375677
 -0.09211373  0.10066929 -0.15165274 -0.07046729  0.03063859  0.08354395
  0.00094576 -0.04257458  0.19991985  0.00725945 -0.17810093  0.0155863
  0.01429611  0.26878181  0.22349477  0.02858485  0.05515534 -0.08563995
  0.09921602 -0.15905741  0.02281181  0.09252249  0.09227198  0.03804302
  0.04006087 -0.12478761  0.00485887  0.02361479 -0.15268855 -0.00311252
  0.02091757 -0.10534505 -0.0469127  -0.07362615  0.21261978  0.06427936
 -0.12660064 -0.06455809  0.09225892 -0.15235142 -0.05686757  0.02509708
 -0.17196424 -0.16473316 -0.33962569  0.00195298  0.33367005  0.07750005
 -0.20892189  0.04975518 -0.0254322  -0.01536648  0.15326147  0.13891214
 -0.02858921  0.09222179 -0.09573767  0.03119693  0.19092619 -0.11111739
 -0.06003695  0.1885027  -0.08388906  0.10988446  0.04800782 -0.00364764
 -0.00762841  0.0152813  -0.13497302  0.03540738  0.08569786 -0.10047791
 -0.02954852  0.055074   -0.14556243 -0.00210331  0.02112881  0.01968778
  0.02768683 -0.04736024 -0.14383686 -0.06548841  0.12733845 -0.21519475
  0.23632793  0.21639533  0.02317016  0.10588508  0.10672557  0.02757606
 -0.02898902 -0.03186781 -0.15439197 -0.02030526  0.11528005  0.05092942
  0.08745676 -0.04115244]