[-1.78374454e-01  9.56146345e-02  3.52904983e-02 -4.61561792e-02
 -6.58088923e-02 -5.44784032e-02 -4.39920537e-02 -1.47919521e-01
  1.51792109e-01 -5.12515083e-02  2.51145095e-01 -6.45657331e-02
 -2.16964126e-01 -1.27151489e-01 -6.49401769e-02  2.22438365e-01
 -2.45614275e-01 -1.45462647e-01  4.45243642e-02  7.11787045e-02
  9.51337144e-02 -3.35134231e-02  3.84734082e-03  6.62113950e-02
 -1.42772660e-01 -3.55587780e-01 -1.16481617e-01 -8.59681219e-02
 -2.84374356e-02 -3.37129496e-02 -2.65912060e-02  8.18630308e-03
 -2.50625819e-01 -6.43384457e-02  3.29235084e-02  1.26793370e-01
 -1.78520568e-02 -9.05594155e-02  1.59696981e-01 -4.20298651e-02
 -2.54649609e-01  1.27437888e-02  9.50826406e-02  2.47862443e-01
  1.39929101e-01  2.88803708e-02  3.22734155e-02 -1.27896369e-01
  8.98202583e-02 -1.78339154e-01  3.23242322e-02  1.29492089e-01
  8.30893666e-02  2.73676794e-02 -1.64571672e-03 -1.42588913e-01
  2.07183808e-02  1.26000628e-01 -1.52455866e-01 -1.46354092e-02
  1.04573205e-01 -2.99886819e-02  4.64869849e-03 -7.19959065e-02
  2.16246486e-01  7.78948888e-02 -1.51337862e-01 -1.37956634e-01
  1.00117281e-01 -1.13649003e-01 -1.89150255e-02  6.07064851e-02
 -1.26453921e-01 -2.40475059e-01 -3.25512290e-01  9.41496622e-03
  3.55933875e-01  4.86342125e-02 -1.76962718e-01  5.19057401e-02
 -5.19369058e-02  1.83219463e-02  1.31479010e-01  1.59063503e-01
  6.20178580e-02  3.77940200e-02 -1.28931478e-01  9.89485253e-03
  2.41369843e-01 -7.54781142e-02  3.23074088e-02  1.90348670e-01
 -2.54510473e-02  1.55646040e-03 -1.58138778e-02  7.26741850e-02
 -5.21786883e-02  7.04518035e-02 -8.83791670e-02  4.91780117e-02
  2.69769970e-02  7.37884268e-03 -3.59070711e-02  9.44064483e-02
 -1.59623131e-01  5.78956492e-02  5.48968017e-02  4.11370909e-03
  8.50263968e-05 -6.12988845e-02 -9.72466916e-02 -6.55232593e-02
  8.43499899e-02 -2.72822142e-01  2.49805614e-01  1.56271696e-01
 -4.19514701e-02  1.31457150e-01  7.44284391e-02  7.84760937e-02
 -2.12318003e-02 -4.74189520e-02 -1.85785860e-01 -3.46026532e-02
  9.56623182e-02 -4.18677628e-02  9.76986140e-02 -3.74853872e-02]