[-9.67872962e-02  1.44077525e-01  8.20480064e-02 -4.53604460e-02
 -8.26977864e-02 -4.81000878e-02 -1.50143532e-02 -1.50134653e-01
  1.50435075e-01 -4.72411327e-02  2.53451467e-01 -7.10025504e-02
 -3.14159065e-01 -5.26462570e-02 -1.11155942e-01  1.94861189e-01
 -1.80552393e-01 -1.61394954e-01  1.96764246e-04  3.56835797e-02
  4.24865410e-02 -3.79213840e-02  2.38536336e-02  1.17275618e-01
 -7.14560896e-02 -3.38820428e-01 -6.63686022e-02 -4.81768250e-02
  1.45092895e-02 -5.81781976e-02 -4.20119502e-02  5.99998496e-02
 -1.79230675e-01 -2.32036840e-02  6.73286617e-02  8.82563144e-02
 -3.41834575e-02 -1.43613935e-01  2.08789065e-01 -3.56505662e-02
 -2.58841842e-01 -5.11369370e-02  6.08661659e-02  2.53395528e-01
  2.19360635e-01  1.49559816e-02 -6.41942024e-04 -1.39609382e-01
  9.78061035e-02 -2.46619269e-01  2.88022985e-03  2.03865632e-01
  5.24748079e-02  3.30922604e-02 -2.28127278e-02 -1.92539483e-01
  3.05220876e-02  1.22915290e-01 -2.16156676e-01 -7.50088319e-02
  5.12431338e-02 -1.20091058e-01 -1.28589272e-02 -8.35683495e-02
  2.20301062e-01  1.13491990e-01 -1.56881556e-01 -8.53357315e-02
  1.98226258e-01 -1.86599761e-01  8.45849235e-03  2.16419138e-02
 -1.36173397e-01 -2.13604122e-01 -2.42774293e-01  1.11349495e-02
  3.88411492e-01  1.59508556e-01 -1.34834960e-01  1.00553982e-01
 -4.52053323e-02  4.58958112e-02  5.46954572e-02  1.75021768e-01
 -6.33530915e-02  2.40869801e-02 -8.14825594e-02  6.93432242e-03
  1.51462018e-01 -4.10298370e-02  1.06312651e-02  2.26388171e-01
 -4.38990146e-02  9.17640980e-03  7.68906921e-02  2.88245957e-02
 -6.03972636e-02  2.33553406e-02 -1.42128408e-01  9.78622958e-03
 -7.36342603e-03 -4.94661629e-02  4.89931442e-02  1.06035650e-01
 -1.88603193e-01  4.38639224e-02  1.44564305e-02 -5.33492211e-03
  5.38051538e-02 -6.31177649e-02 -2.21631117e-02 -8.98081958e-02
  1.15951799e-01 -2.73372412e-01  2.27841213e-01  1.34832039e-01
  1.95467565e-02  1.62844762e-01  7.99740776e-02  1.01905800e-01
  2.84942780e-02 -1.00233436e-01 -1.13214634e-01 -3.25252824e-02
  1.03052936e-01 -5.79150617e-02  1.08099774e-01 -4.68529277e-02]