[-1.25923157e-01  9.43746194e-02  6.90532699e-02 -3.35341655e-02
 -7.76364654e-02 -5.35585843e-02  2.82007549e-02 -1.26488790e-01
  1.73529163e-01 -4.34410982e-02  2.11374044e-01 -6.96611330e-02
 -2.07414463e-01 -1.03217833e-01 -2.85429563e-02  2.23798901e-01
 -1.78911418e-01 -1.46715447e-01  6.24859749e-05  5.73897660e-02
  1.34435982e-01 -4.40640710e-02  1.86182559e-03  9.16749611e-02
 -1.25876114e-01 -3.23208541e-01 -1.16064094e-01 -7.07778856e-02
  1.37929562e-02 -8.39605108e-02 -7.27312192e-02  8.56606886e-02
 -1.86789647e-01 -6.53978810e-02  2.07722932e-02  7.76067153e-02
 -2.16182955e-02 -1.39710963e-01  1.60799250e-01 -1.66630112e-02
 -2.80187517e-01  4.60505746e-02  5.03548272e-02  2.35221297e-01
  2.07688689e-01 -7.47562572e-03  3.96324247e-02 -1.22575425e-01
  1.17382042e-01 -1.49481997e-01 -1.37935942e-02  1.39136553e-01
  6.06490150e-02  5.79201356e-02  2.30617244e-02 -1.30049691e-01
  1.93930250e-02  6.61840215e-02 -1.65686369e-01 -1.03475852e-02
  7.06466362e-02 -1.01601221e-01  2.85015833e-02 -1.04359411e-01
  1.63465843e-01  6.87559247e-02 -8.41691121e-02 -1.72003850e-01
  1.69075295e-01 -1.18982963e-01 -4.71375100e-02  6.53056428e-02
 -1.81615800e-01 -2.00733334e-01 -2.43059143e-01  8.45178217e-03
  3.69375378e-01  1.10697567e-01 -1.82749838e-01  1.03858374e-01
 -6.30979836e-02  2.09695566e-03  1.02955177e-01  1.98062405e-01
  7.96548724e-02  4.13823687e-02 -9.91577134e-02  1.36999339e-02
  2.30211064e-01 -9.07230899e-02  1.13385003e-02  2.30825886e-01
 -1.10479556e-02  1.66829508e-02  4.23214724e-03 -5.48972888e-03
 -4.86401878e-02  1.03825368e-01 -1.01643600e-01 -1.47480639e-02
  1.91408582e-02 -1.50579456e-02  1.56601425e-02  1.04843222e-01
 -1.35542616e-01  8.71967971e-02  4.00959775e-02  7.14125037e-02
 -1.37815550e-02 -2.67308988e-02 -8.03017169e-02 -2.91071292e-02
  7.05438927e-02 -2.39963770e-01  2.48440981e-01  1.45450547e-01
 -3.00838868e-03  6.52193949e-02  4.93828878e-02  1.05504908e-01
  2.75756754e-02 -4.61933129e-02 -1.59446791e-01  9.38700419e-03
  1.37626991e-01 -1.87193584e-02  7.41798505e-02 -3.55241890e-03]