[-0.11087497  0.07553616  0.0690316  -0.07328055 -0.06320661 -0.03711193
 -0.00523394 -0.16596787  0.21733335 -0.08579113  0.23223279 -0.09601348
 -0.20448957 -0.09544902 -0.05495178  0.25289029 -0.2271314  -0.14174162
  0.0068342   0.06666871  0.10869    -0.03825371  0.0235259   0.0546658
 -0.10890537 -0.40035245 -0.17072475 -0.07802531  0.01318536 -0.05274451
 -0.06009302  0.09002751 -0.16872191 -0.05921192  0.02808081  0.06704877
 -0.03657469 -0.14548367  0.1324037  -0.0233528  -0.28108749  0.05379989
  0.07179862  0.21616368  0.22305472  0.01883968  0.03598588 -0.16397698
  0.11132025 -0.14101984  0.01039984  0.10179748  0.03283083  0.08645034
  0.05367092 -0.11674533  0.00808633  0.07659688 -0.16123219 -0.01118441
  0.06400645 -0.09023871  0.01491751 -0.10576283  0.16738868  0.10196006
 -0.08494071 -0.19860347  0.189512   -0.13061035 -0.03974065  0.05231737
 -0.1789237  -0.2034678  -0.24375252 -0.01730647  0.35505828  0.08998986
 -0.17568572  0.09015118 -0.02419361 -0.01453586  0.09577626  0.22338259
  0.09005968  0.03779982 -0.0760141  -0.01840624  0.22969532 -0.11269917
  0.01610772  0.27262631 -0.04709962  0.02235902  0.02034152  0.0234343
 -0.06601854  0.10118803 -0.13059659 -0.05399701  0.04101806  0.01079445
 -0.01179377  0.09287358 -0.12560223  0.12214436  0.02554514  0.07280096
  0.01741759 -0.05154936 -0.03480734 -0.03920634  0.10801659 -0.23534326
  0.23138046  0.14983468  0.01703944  0.09884302  0.03000689  0.1141006
  0.01040263 -0.04869222 -0.18576543  0.02425134  0.11149819 -0.0113495
  0.03421898 -0.00291775]