[-0.11446569  0.06543877  0.04671982 -0.02858298 -0.07171977 -0.0502541
  0.01084494 -0.14295386  0.16654399 -0.05333398  0.22022067 -0.06108093
 -0.19351594 -0.12865071 -0.03447897  0.22136684 -0.21281016 -0.13618889
  0.02164338  0.05705537  0.13178061 -0.01986545  0.02168955  0.06559783
 -0.11514027 -0.35026586 -0.13352457 -0.07515253  0.01025864 -0.06232358
 -0.06287741  0.11627686 -0.18080357 -0.07398977  0.02784017  0.08490499
 -0.02202608 -0.1143328   0.15192841 -0.01147874 -0.25127047  0.02848309
  0.07104453  0.23829167  0.19113098  0.01386258  0.02954853 -0.12249544
  0.11333217 -0.13498852 -0.00386672  0.11970948  0.05505278  0.07838955
  0.02469048 -0.11462543  0.02613203  0.0565039  -0.16195457 -0.00615592
  0.06599189 -0.09894665  0.02772959 -0.09825277  0.16461436  0.06610307
 -0.0704843  -0.1847699   0.148469   -0.12386321 -0.08940999  0.05363289
 -0.1693912  -0.19208848 -0.26809794 -0.01239808  0.35168004  0.10219838
 -0.18192284  0.09373526 -0.02589588 -0.0262839   0.12765656  0.19697137
  0.07837733  0.06166357 -0.11042724 -0.00564775  0.22315012 -0.08612653
 -0.00901344  0.23762982 -0.01829726  0.04570784  0.03554631  0.01667476
 -0.04331699  0.11283065 -0.13207631 -0.0317751   0.04071624 -0.01088983
  0.00700046  0.09844765 -0.10282107  0.10761626  0.03324181  0.07972126
 -0.00761418 -0.03666076 -0.0940203  -0.03013009  0.07470553 -0.22743762
  0.23673068  0.13820128  0.00224457  0.08914908  0.05704368  0.11548386
 -0.00884391 -0.04985403 -0.17526923 -0.00139553  0.13511947 -0.00096967
  0.07432219  0.00223499]