[-0.12895899  0.08207171  0.03978325 -0.06463207 -0.06227253 -0.05048728
 -0.0252045  -0.16091911  0.21051128 -0.08124454  0.21260595 -0.07792232
 -0.19291313 -0.09501285 -0.0522943   0.24485157 -0.21133852 -0.15732539
  0.0143174   0.0470139   0.1367877  -0.01401344 -0.00790961  0.05448708
 -0.11366146 -0.35189646 -0.17119806 -0.07443476  0.02191936 -0.05806315
 -0.03839345  0.07280354 -0.1453177  -0.05777402  0.06318721  0.09487527
 -0.01713038 -0.13862018  0.14784937  0.00763675 -0.25465238  0.0672626
  0.09209404  0.2455323   0.21216102  0.01630189  0.04227081 -0.17606531
  0.12104952 -0.14246656 -0.01294054  0.12196598  0.05198446  0.10056982
  0.05870089 -0.124043    0.03086332  0.07206469 -0.18962634 -0.01328091
  0.07158647 -0.07709777 -0.01287874 -0.08747493  0.17439893  0.10122887
 -0.10384735 -0.2105422   0.16048332 -0.12796271 -0.0816917   0.0551866
 -0.18140985 -0.19058897 -0.23871373 -0.01054894  0.38835782  0.08773409
 -0.18558277  0.12426227 -0.01181301 -0.02311723  0.09908839  0.21774042
  0.08131727  0.02992036 -0.06992354 -0.0083676   0.21909225 -0.10383727
  0.01971364  0.22364087 -0.02317584  0.04025513  0.01588376  0.03853473
 -0.0751137   0.08741942 -0.11921426 -0.08433676  0.04319566  0.03054943
  0.01277037  0.08566523 -0.1260082   0.14218576  0.03803605  0.04315468
 -0.01513318 -0.04433671 -0.0319975   0.00325611  0.09003565 -0.24508972
  0.24409519  0.14516896  0.00079618  0.10000563  0.04806118  0.10711019
  0.01540475 -0.02691567 -0.16166516 -0.00562853  0.07947057  0.00639193
  0.05143341 -0.0206966 ]