[-0.14907382  0.11070036  0.07265913 -0.04594921 -0.11017219 -0.0544537
 -0.0261788  -0.13858446  0.12206352 -0.07981136  0.21720712 -0.08836965
 -0.21397617 -0.12059456 -0.06263442  0.24371932 -0.21770616 -0.15030037
  0.01987609  0.03993243  0.09597307 -0.01986045 -0.01487912  0.08751681
 -0.11605144 -0.33016559 -0.09617168 -0.09653389 -0.05995701 -0.06534153
 -0.05259211  0.11412253 -0.18458079 -0.03815128  0.0135114   0.10390737
 -0.00672016 -0.10678692  0.13914947 -0.03537879 -0.2516391  -0.01002219
  0.09082817  0.22393255  0.18034542 -0.04473241  0.04268655 -0.09211724
  0.09120885 -0.12480616 -0.06127453  0.1459226   0.05393186  0.05337067
  0.00718976 -0.16089872  0.02763046  0.04681768 -0.12126303 -0.04377516
  0.06128393 -0.13770758 -0.01137336 -0.10670988  0.20598209  0.05317402
 -0.07179292 -0.20337033  0.18455613 -0.12977844 -0.06645256  0.05629227
 -0.1924101  -0.18163712 -0.27608544 -0.02095965  0.2876887   0.10075092
 -0.16977023  0.13139181 -0.05553415  0.00889285  0.0758708   0.20459215
  0.09215587  0.09414645 -0.09983858 -0.00139976  0.20717137 -0.09935423
  0.02321461  0.20327869 -0.01931859  0.00073463  0.04309753 -0.06498484
 -0.02667611  0.06710728 -0.11364456  0.01971775 -0.01511044 -0.06355546
 -0.02181895  0.07927369 -0.12512229  0.03705938  0.02084523  0.05538706
 -0.0591788  -0.03666805 -0.09921018 -0.04957407  0.12203759 -0.22336619
  0.23232193  0.15275334  0.00298776  0.10533333  0.08910214  0.12894495
 -0.02588724 -0.04342474 -0.15672959 -0.00165107  0.13025421 -0.04709994
  0.05954439 -0.0057048 ]