[-0.10866862  0.0760146   0.09124946  0.01355135 -0.021568   -0.08532142
 -0.01232981 -0.12628339  0.11821437 -0.04207047  0.29058531 -0.02758137
 -0.19990334 -0.1625798  -0.00399322  0.15136497 -0.17521144 -0.07147401
 -0.0278307  -0.00728486  0.066885   -0.03488179  0.03774337  0.05928102
 -0.05710426 -0.34859571 -0.08443749 -0.14853717  0.0417034  -0.06804431
 -0.08204027  0.03740968 -0.13915794 -0.06084279 -0.04576965  0.05518591
  0.00595565 -0.05055744  0.20028372 -0.01384244 -0.18366204 -0.03435527
 -0.00975956  0.23882797  0.22198749  0.02816165  0.0370016  -0.05323698
  0.09816635 -0.2001133   0.02062266  0.10411239  0.10516151  0.00251164
  0.0097439  -0.16383438 -0.0415024   0.03932188 -0.15987103  0.04574477
  0.01585499 -0.12100849 -0.06494347 -0.04238762  0.20724483  0.11963065
 -0.09793503 -0.09409057  0.13110197 -0.16278532 -0.06038268  0.01571207
 -0.17697988 -0.18925643 -0.33634806  0.02993113  0.34280261  0.08126852
 -0.21376383  0.02927797 -0.0596254   0.01914232  0.1549397   0.11725704
 -0.02357727  0.04093271 -0.12915902 -0.00244631  0.16840957 -0.08871013
 -0.0411027   0.19598551 -0.0653846   0.0916637   0.02414882 -0.00102944
  0.02131972  0.03690103 -0.13613974  0.01755882  0.1059918  -0.06424669
  0.01601083  0.05206303 -0.16215423  0.01121683  0.03992468  0.03046848
  0.04643487 -0.04675763 -0.1607198  -0.05593311  0.18336001 -0.17230046
  0.24906865  0.21556108  0.01861476  0.1169634   0.10593994  0.05729493
 -0.01862967 -0.04662653 -0.15170884  0.01589013  0.10224994  0.00223092
  0.06865041 -0.00489225]