[-1.53669834e-01  1.04294918e-01  3.79908197e-02 -2.88888570e-02
 -7.45286420e-02 -7.54018947e-02  3.17802392e-02 -1.37920603e-01
  1.88365534e-01 -5.13641015e-02  2.23760471e-01 -4.82985675e-02
 -2.09457040e-01 -1.29611045e-01 -2.50948649e-02  2.35989451e-01
 -2.08292291e-01 -1.33843660e-01  7.20332423e-03  4.85549122e-02
  1.49359182e-01 -2.95507070e-02  2.87542474e-02  8.61724168e-02
 -1.34993181e-01 -3.45164984e-01 -1.16825402e-01 -7.76172951e-02
  1.91020165e-02 -7.08675310e-02 -8.34167823e-02  9.31590199e-02
 -1.88910261e-01 -7.55211487e-02  2.17898935e-02  8.63616019e-02
 -3.84347849e-02 -1.15149729e-01  1.58563182e-01 -2.54144277e-02
 -2.81342447e-01  5.82043827e-03  7.65008405e-02  2.19383270e-01
  2.12302729e-01  1.53547917e-02  4.58269045e-02 -1.29205093e-01
  9.90945101e-02 -1.33533388e-01 -2.97554880e-02  1.13765836e-01
  4.56083678e-02  7.05402195e-02  2.25055404e-02 -1.50174901e-01
  2.32776534e-02  6.80124685e-02 -1.74800172e-01 -3.62827294e-02
  5.72718270e-02 -1.27778873e-01  2.70162579e-02 -6.16950281e-02
  1.83839679e-01  6.43302351e-02 -7.14378953e-02 -1.64971873e-01
  1.82213828e-01 -1.48609325e-01 -5.13934866e-02  7.27535263e-02
 -1.44019976e-01 -2.14523822e-01 -2.64150321e-01 -1.73151605e-02
  3.52805942e-01  1.16773508e-01 -1.52062640e-01  1.01454578e-01
 -4.14488912e-02 -1.69012640e-02  1.25907347e-01  1.92485467e-01
  4.79514562e-02  5.79186566e-02 -1.29720479e-01 -2.79324199e-03
  2.34515980e-01 -7.96931386e-02  1.98567733e-02  2.36491352e-01
  2.57581519e-03  3.02366260e-02  2.86199749e-02  1.15364715e-02
 -6.56037554e-02  1.01652041e-01 -1.07533291e-01 -2.98381690e-02
  2.94053555e-02 -3.65202092e-02  1.08582349e-02  1.02561131e-01
 -1.27846718e-01  7.99127892e-02  3.15733850e-02  6.11266904e-02
 -3.91356982e-02 -4.18017171e-02 -6.98207617e-02 -3.82271670e-02
  5.11448458e-02 -2.28186086e-01  2.43848562e-01  1.61000460e-01
 -1.28702363e-02  1.10557690e-01  5.39556816e-02  1.04959682e-01
 -3.05031252e-04 -6.60696775e-02 -1.66338027e-01  1.16841020e-02
  1.45878211e-01 -2.68438999e-02  1.04044639e-01 -4.84878896e-03]