[-0.09234446  0.15483718  0.08275408 -0.03712286 -0.07676806 -0.03961314
 -0.02859895 -0.16524753  0.15926838 -0.05576934  0.27912307 -0.07437568
 -0.30544302 -0.06391968 -0.10631552  0.20779911 -0.19772546 -0.16055226
  0.00426019  0.06962777  0.02519011 -0.03529659  0.03323109  0.10286989
 -0.07725438 -0.35525313 -0.08074204 -0.05350927  0.02471192 -0.06541042
 -0.07667851  0.05461406 -0.17866552 -0.02677764  0.07112873  0.08443916
 -0.03217177 -0.13714437  0.19617859 -0.02169378 -0.29121503 -0.05674775
  0.06257035  0.26132557  0.2479966   0.00594433 -0.00067546 -0.16306908
  0.08293381 -0.22335687  0.01457064  0.20111172  0.05538064  0.04799617
 -0.04259613 -0.19276391  0.00460721  0.11403348 -0.17127337 -0.0926938
  0.08498064 -0.09153635  0.00195736 -0.07894997  0.2167975   0.1004618
 -0.1637646  -0.10626662  0.17457584 -0.1932468   0.00384851  0.02585585
 -0.14991538 -0.21781588 -0.25743723 -0.00853689  0.37928611  0.15046142
 -0.14016964  0.08399961 -0.07001154  0.03601684  0.05793483  0.19671814
 -0.03434131  0.03971416 -0.07940301 -0.00841643  0.17609648 -0.06139475
  0.03070187  0.22874844 -0.05511699  0.00847181  0.06532497  0.03508161
 -0.05833897  0.03294455 -0.14436443 -0.00514845 -0.03872412 -0.03456831
  0.04241202  0.12315112 -0.20019646  0.06286603  0.04045416  0.01614283
  0.08160922 -0.0630036  -0.00444258 -0.11723812  0.12225652 -0.26118726
  0.2144738   0.14216904  0.04133069  0.14994901  0.08979874  0.119338
  0.01316548 -0.0888471  -0.12394226 -0.00621151  0.08373899 -0.05889113
  0.09375476 -0.05503232]