[-1.22105554e-01  7.37553760e-02  3.48259360e-02 -2.87126396e-02
 -7.54731148e-02 -5.21158241e-02  2.25992650e-02 -1.39345348e-01
  1.69408888e-01 -4.69530933e-02  2.16561317e-01 -6.17618263e-02
 -2.00801164e-01 -1.31413072e-01 -2.88643632e-02  2.17211038e-01
 -2.02230364e-01 -1.34580404e-01  2.20785886e-02  5.68030141e-02
  1.28327355e-01 -2.26582047e-02  2.42406577e-02  7.40235150e-02
 -1.14219405e-01 -3.51397246e-01 -1.35567188e-01 -7.89903179e-02
  9.10694338e-03 -7.44284391e-02 -7.42915273e-02  1.27488911e-01
 -1.68734297e-01 -7.45155439e-02  2.14942601e-02  8.36200193e-02
 -2.09965352e-02 -1.05240583e-01  1.49076581e-01 -1.37236780e-02
 -2.52205938e-01  1.92496162e-02  7.30079636e-02  2.51089960e-01
  1.96080714e-01  1.09564504e-02  3.19243297e-02 -1.12300217e-01
  1.05335288e-01 -1.38429105e-01 -3.94455856e-03  1.23211756e-01
  4.07918021e-02  7.64998943e-02  2.43411660e-02 -1.15122512e-01
  2.70595104e-02  5.51569462e-02 -1.64677247e-01 -4.72145295e-03
  7.31860995e-02 -9.95262563e-02  2.40865275e-02 -8.83987099e-02
  1.61961868e-01  6.90989271e-02 -6.97049126e-02 -1.75862491e-01
  1.41641513e-01 -1.35153145e-01 -8.23767409e-02  4.97992076e-02
 -1.72803000e-01 -2.01201305e-01 -2.60897934e-01 -8.78316071e-03
  3.50273997e-01  1.16336994e-01 -1.70155033e-01  1.00885287e-01
 -2.83164922e-02 -2.93309689e-02  1.37842342e-01  1.87937260e-01
  7.15091974e-02  6.06793649e-02 -1.23123169e-01  3.99472797e-03
  2.20205352e-01 -8.09533000e-02 -3.47848982e-04  2.38424882e-01
 -1.50385750e-02  4.20270711e-02  3.67985070e-02  2.77034473e-02
 -4.27912138e-02  1.11956194e-01 -1.31904081e-01 -2.57809702e-02
  4.20022793e-02 -2.81468723e-02  4.06317133e-03  9.53001827e-02
 -1.08932734e-01  1.11352697e-01  3.96891199e-02  8.54685530e-02
 -1.78885181e-02 -4.30512540e-02 -8.82714316e-02 -2.22945288e-02
  7.30071589e-02 -2.21828610e-01  2.31798038e-01  1.40776947e-01
 -2.42960086e-04  9.15438011e-02  5.34332767e-02  1.10115103e-01
 -7.63085810e-03 -6.23805299e-02 -1.70667574e-01  3.42465937e-03
  1.36115357e-01 -2.62533943e-03  7.40645379e-02  4.62521100e-03]