[-1.53212428e-01  7.97298029e-02  5.86138330e-02 -6.16631396e-02
 -9.15300176e-02 -5.67964204e-02 -3.54454182e-02 -1.09365515e-01
  1.37445778e-01 -5.72902076e-02  2.83035427e-01 -1.10986352e-01
 -2.41858914e-01 -8.89974460e-02 -8.72689858e-02  2.41520122e-01
 -1.97173104e-01 -8.94167274e-02  4.59303260e-02  6.15089424e-02
  6.98549524e-02 -3.70504521e-02  9.80105530e-03  1.09998658e-01
 -1.01420157e-01 -3.80301535e-01 -1.09649144e-01 -9.10037383e-02
 -5.30337952e-02 -3.85062397e-02 -5.82592152e-02  7.41651878e-02
 -2.06373975e-01 -3.64187509e-02  3.11100911e-02  1.29996479e-01
 -5.34908436e-02 -6.45167083e-02  1.86460242e-01  2.93860352e-03
 -2.40133926e-01 -6.95073977e-03  8.03994164e-02  2.86301136e-01
  1.73165634e-01  3.54502723e-02  4.72570360e-02 -1.24665223e-01
  8.99022073e-02 -1.63503453e-01  6.26953691e-02  1.49457440e-01
  7.85770938e-02  3.99454311e-02  1.01557299e-02 -1.51988849e-01
  6.98578078e-03  1.22282997e-01 -1.65079921e-01 -2.51564365e-02
  7.73690492e-02 -5.00787906e-02  1.43618658e-02 -1.13201283e-01
  2.68341631e-01  9.81971845e-02 -1.24676183e-01 -1.06871419e-01
  1.88296616e-01 -1.20172419e-01  1.08006885e-02  4.70501333e-02
 -1.80310130e-01 -2.38919973e-01 -2.62353390e-01  3.63003574e-02
  3.29324841e-01  9.32264104e-02 -1.47008449e-01  7.83331841e-02
 -4.49384712e-02 -2.75413878e-02  1.07487179e-01  1.85007378e-01
  7.17674047e-02  5.13368957e-02 -6.31404072e-02  2.32911222e-02
  2.06104547e-01 -1.11893453e-01  6.27445430e-02  2.16839358e-01
 -3.54800783e-02 -3.05391680e-02  1.87680963e-02 -2.41898000e-02
 -5.39391413e-02  7.02267438e-02 -1.23398058e-01  1.81389078e-02
 -3.70468982e-02 -6.54160008e-02 -1.87043101e-04  4.49733511e-02
 -2.01679379e-01  4.99119125e-02  4.74536382e-02 -6.48664683e-03
 -1.49110379e-02 -5.65221198e-02 -8.51531401e-02 -7.83943310e-02
  1.33252084e-01 -2.59426683e-01  2.60245174e-01  1.18109904e-01
  1.44978082e-02  1.54151693e-01  5.55489026e-02  1.28811955e-01
 -2.34096940e-03 -8.16021785e-02 -1.45258546e-01  2.68134214e-02
  1.24314323e-01 -3.24327052e-02  1.00138962e-01 -1.81990508e-02]