[-0.14624405  0.06623933  0.07643193 -0.02124655 -0.09470307 -0.0183623
 -0.00566961 -0.16995983  0.17300789 -0.09289031  0.28368512 -0.07777198
 -0.18709338 -0.10052097 -0.00975086  0.21263142 -0.22221918 -0.12065685
  0.03923169  0.01863602  0.0722959  -0.04734712  0.01118799  0.08333828
 -0.1324219  -0.38552538 -0.10395914 -0.10824831  0.00783162 -0.0662118
 -0.04607555  0.07694184 -0.23614693 -0.0243683  -0.01304746  0.09465351
 -0.01457823 -0.09632307  0.1495419  -0.02713836 -0.24098372 -0.01112148
  0.02817186  0.20457692  0.17847066 -0.02268053  0.02121226 -0.09454831
  0.09326065 -0.13057277 -0.01884968  0.10643417  0.07297112  0.0122657
  0.01496449 -0.14941755 -0.04035892  0.05217642 -0.12386905 -0.0204083
  0.04182783 -0.09862113  0.00478825 -0.11964823  0.19876722  0.06949471
 -0.08535301 -0.13067095  0.13784117 -0.11445504 -0.0114594   0.05303672
 -0.17169695 -0.22832166 -0.29663172  0.00898019  0.33141121  0.06663912
 -0.19838329  0.05826366 -0.03515906  0.00584053  0.11086404  0.20363174
  0.10232732  0.05804738 -0.08144765  0.01361519  0.19170047 -0.10308933
  0.02896802  0.23193069 -0.08634909  0.01916121 -0.0024158  -0.00850981
 -0.04240954  0.06810993 -0.08680937  0.00415334 -0.01633494 -0.00914466
 -0.00608643  0.07470139 -0.16793649  0.04280805  0.02725955  0.02706057
  0.00456253 -0.04341612 -0.08434595 -0.07473079  0.11378171 -0.27584878
  0.21035509  0.1689088  -0.05299276  0.15160613  0.02385939  0.10909996
 -0.03102705 -0.02563924 -0.16455965  0.0271272   0.09981903 -0.03993644
  0.02688156 -0.03608423]