[-0.06264427  0.08255269  0.06895141  0.02210657 -0.01381239 -0.11224522
 -0.03574338 -0.13727693  0.09206852 -0.03239915  0.31361204 -0.05815787
 -0.18227808 -0.1611961  -0.0377292   0.16511579 -0.17072509 -0.06799944
 -0.03964217  0.01083984  0.0852819  -0.02084734  0.07343765  0.03285116
 -0.06336288 -0.37464094 -0.09676331 -0.13671647  0.06448589 -0.05803936
 -0.09874432  0.05127847 -0.16033714 -0.07408125  0.01952866  0.05616216
  0.0034674  -0.07692524  0.1919148   0.00763267 -0.19134931  0.02425344
  0.01237631  0.25272933  0.21462262  0.04634254  0.0663399  -0.11915437
  0.10578283 -0.14139059  0.02678244  0.0929639   0.10840549  0.02591289
  0.02563862 -0.13080613 -0.01944409  0.03462926 -0.14854698  0.02205797
  0.03652329 -0.07640155 -0.04209354 -0.08175239  0.20771575  0.07037468
 -0.12198632 -0.09363701  0.0974478  -0.15822001 -0.0604409   0.02923992
 -0.16397108 -0.17696348 -0.34186146  0.0106967   0.35057616  0.06805763
 -0.21227498  0.04695667 -0.03888324  0.00452211  0.15756129  0.16012447
 -0.00629534  0.06636224 -0.10391264 -0.01251616  0.2061765  -0.11888484
 -0.04775183  0.20076691 -0.08548041  0.10251299  0.01372045  0.01007878
 -0.01169833  0.04195425 -0.10292254  0.02034429  0.07373089 -0.06039495
 -0.01108002  0.04075379 -0.15793525 -0.00519964  0.02731823  0.03899081
  0.05821347 -0.04813596 -0.13557792 -0.07297244  0.12657785 -0.23089616
  0.25544506  0.21666746  0.03571898  0.10315359  0.11001945  0.05031723
 -0.00494109 -0.03373938 -0.1468775  -0.01228916  0.09714373  0.02557274
  0.06270939 -0.03514279]