[-0.05955237  0.05031544  0.07660424  0.00912123 -0.03992442 -0.10400011
 -0.05633846 -0.1093257   0.08700179 -0.0296769   0.30420884 -0.04624497
 -0.18694966 -0.14696644 -0.03165646  0.1665995  -0.13588493 -0.07702637
 -0.07791226  0.00480184  0.03720699 -0.00639243  0.08309641  0.04095149
 -0.0272543  -0.38877434 -0.10726752 -0.110503    0.08951952 -0.09302003
 -0.11079194  0.05721854 -0.13832322 -0.09719402  0.03736214  0.07769137
 -0.03463986 -0.08548258  0.19221233  0.05835247 -0.17858584  0.01881638
 -0.01975174  0.26265937  0.25431344  0.09114787  0.07046665 -0.09828424
  0.11665124 -0.18794519  0.06684794  0.11575621  0.1150442   0.00875144
  0.09539206 -0.11736243 -0.01947463  0.05036344 -0.14693739  0.02062326
  0.0265804  -0.06257499 -0.01279678 -0.1030821   0.16221125  0.07305207
 -0.08258537 -0.06524428  0.14814828 -0.14327502 -0.06007124  0.0278458
 -0.16637243 -0.173187   -0.32760131  0.01624321  0.3689948   0.13048115
 -0.18431452  0.03111788  0.00741698 -0.01094169  0.11274379  0.12145721
 -0.04258941  0.0377089  -0.10946038 -0.01277348  0.15606792 -0.08342494
 -0.04390874  0.17180103 -0.08811725  0.09248436  0.05245334  0.01176516
 -0.03786281  0.01740658 -0.12504178 -0.03309671  0.07201479 -0.04996719
  0.01854126  0.04795803 -0.11350911  0.01606702 -0.01619384  0.0197245
  0.01932823 -0.03542098 -0.11026714 -0.04633265  0.12547746 -0.18708162
  0.2165526   0.2105606   0.01187414  0.08999958  0.09751938  0.05938934
 -0.02402573 -0.03960509 -0.12405648 -0.05448876  0.05801342  0.05039964
  0.07255846 -0.01274715]