[-1.10168278e-01  8.62060636e-02  6.45384118e-02 -4.56066839e-02
 -8.28531906e-02 -2.29364745e-02 -2.53996637e-04 -1.65873811e-01
  1.89651772e-01 -7.38195404e-02  2.34684572e-01 -8.43680426e-02
 -2.12129861e-01 -8.81426260e-02 -3.23087573e-02  2.53075302e-01
 -2.12177664e-01 -1.41249463e-01  8.42996524e-04  4.04047146e-02
  1.13204420e-01 -4.65471223e-02  2.78840810e-02  6.53671846e-02
 -1.29040077e-01 -3.71233851e-01 -1.44429013e-01 -8.39774236e-02
  3.59625183e-02 -5.69406822e-02 -8.64242986e-02  9.52739343e-02
 -1.61575347e-01 -5.67019992e-02  9.36156791e-03  7.62010440e-02
 -4.07189019e-02 -1.46493018e-01  1.37637958e-01 -3.25920209e-02
 -2.67829388e-01  7.38304332e-02  6.25300333e-02  2.18637854e-01
  2.31461599e-01  3.66119971e-03  4.73540090e-02 -1.39894739e-01
  9.76198316e-02 -1.61218390e-01  1.26796670e-03  1.14348628e-01
  4.45529334e-02  8.06165338e-02  4.53260057e-02 -1.17518000e-01
  1.12976981e-02  7.84175470e-02 -1.70596227e-01  3.67123261e-03
  6.98304698e-02 -8.04067180e-02  2.74222400e-02 -1.03880443e-01
  1.59055606e-01  1.02812164e-01 -8.04255009e-02 -1.60527900e-01
  1.64107367e-01 -1.20445840e-01 -4.70565185e-02  4.50154431e-02
 -1.89426973e-01 -2.26014927e-01 -2.36252904e-01 -3.18847015e-03
  3.57785076e-01  1.24496795e-01 -1.92685738e-01  9.10400301e-02
 -8.09107907e-03 -1.34329265e-02  1.23490334e-01  2.02754378e-01
  9.32711139e-02  8.89844354e-03 -1.03018932e-01  9.18854959e-03
  2.17043236e-01 -1.16759896e-01  2.36421004e-02  2.77880937e-01
 -2.24224683e-02  1.87717378e-02  1.41748879e-02  5.47172390e-02
 -7.28851929e-02  1.00402847e-01 -1.29977778e-01 -5.44877648e-02
  4.59513851e-02  1.07989758e-02 -9.38960526e-04  8.21523219e-02
 -1.08767524e-01  1.24559060e-01  2.11641826e-02  8.09934810e-02
  2.99519859e-03 -5.91357313e-02 -3.57895568e-02 -1.85790490e-02
  1.04039907e-01 -2.15340286e-01  2.19541818e-01  1.63189650e-01
 -1.48815829e-02  9.09705758e-02  3.88808511e-02  1.04049541e-01
  1.33610358e-02 -5.49184941e-02 -1.86706647e-01  1.63183697e-02
  1.18118264e-01 -2.47790795e-02  4.18428443e-02  1.01700965e-02]