[-0.06519984  0.05218498  0.07521354  0.00906305 -0.04109439 -0.1045607
 -0.04670801 -0.10748775  0.08670373 -0.03035933  0.30520198 -0.05113017
 -0.1862288  -0.15055327 -0.02629152  0.16375439 -0.1353735  -0.0826259
 -0.08015287  0.00724018  0.03395803 -0.00459193  0.08222641  0.0385807
 -0.02340939 -0.39699489 -0.10739148 -0.11524862  0.09478322 -0.09324051
 -0.11124098  0.05188692 -0.1352115  -0.09566387  0.0363423   0.07411025
 -0.03599622 -0.08199386  0.19210951  0.05618415 -0.17867461  0.01660141
 -0.01810864  0.26901731  0.25837278  0.08969994  0.07056635 -0.10015497
  0.11010482 -0.18335421  0.06918493  0.11401583  0.11971412  0.01058615
  0.0962821  -0.11155897 -0.01827155  0.04267421 -0.14876606  0.02263829
  0.03262795 -0.05934287 -0.01879455 -0.09787115  0.163581    0.06561232
 -0.08108597 -0.06969046  0.14750339 -0.1501206  -0.06211187  0.02841011
 -0.16614053 -0.17330563 -0.32281405  0.01688054  0.3699927   0.13216937
 -0.18642437  0.03240388  0.00445942 -0.01241221  0.11748131  0.12024418
 -0.04223005  0.03305509 -0.11544503 -0.01032687  0.15508936 -0.08750125
 -0.04369333  0.16749831 -0.08435955  0.08753445  0.05279737  0.01146752
 -0.0336789   0.02271849 -0.12299529 -0.03471128  0.07648623 -0.05126437
  0.01637217  0.04559379 -0.11696851  0.02324785 -0.01228535  0.01996483
  0.02250079 -0.03849842 -0.10686791 -0.04608614  0.12492018 -0.18815926
  0.21593313  0.21304861  0.01381157  0.09051933  0.09203319  0.05709315
 -0.0218844  -0.03823031 -0.12731439 -0.05274705  0.05272688  0.05254781
  0.07085745 -0.0099405 ]