[-9.27803889e-02  1.38492391e-01  7.18617737e-02 -5.80705963e-02
 -6.11408316e-02 -3.21783610e-02 -4.94610798e-03 -1.51129693e-01
  1.15251027e-01 -2.74246819e-02  2.61320204e-01 -7.39786401e-02
 -2.66105413e-01 -7.63707086e-02  1.09768501e-02  2.36340955e-01
 -1.65165409e-01 -1.71776220e-01 -1.02189839e-01  9.41749662e-03
  2.58821547e-02  8.34551733e-03  6.46987483e-02  7.67531171e-02
 -1.37472838e-01 -3.07843536e-01 -7.06493929e-02 -5.50195687e-02
 -2.21355469e-03 -5.03259711e-02 -9.62294489e-02  2.59305295e-02
 -1.79564163e-01 -7.26434514e-02  1.27031952e-01  1.02357440e-01
 -1.73603334e-02 -1.41952828e-01  1.89980328e-01 -1.49646867e-02
 -2.74724692e-01  3.38869926e-04  1.23333193e-01  2.57616162e-01
  2.25261360e-01  7.02298945e-03  1.01784896e-02 -1.56580731e-01
  1.48834571e-01 -1.95058033e-01  2.98120622e-02  1.06857233e-01
  6.85801804e-02  4.51617166e-02  1.90436095e-02 -1.42765537e-01
  3.11732423e-02  1.49175122e-01 -1.72523320e-01 -1.00580968e-01
  8.36739689e-02 -6.37707338e-02 -3.25545333e-02 -1.34396896e-01
  2.07593992e-01  9.18775499e-02 -1.41799122e-01 -1.47738367e-01
  1.07443489e-01 -1.07375287e-01 -5.55692799e-02  4.61598635e-02
 -1.74473926e-01 -1.58201203e-01 -3.15133363e-01 -3.40948813e-02
  3.57830614e-01  7.14139268e-02 -1.94474474e-01  6.46021813e-02
 -6.22108392e-03  3.50267775e-02  6.85141981e-02  1.74951553e-01
 -3.27226408e-02  8.80479664e-02 -8.10872838e-02  1.84135176e-02
  2.26265654e-01 -9.08084884e-02  3.10178585e-02  2.28643805e-01
 -1.52071416e-02  3.90047431e-02  5.66386580e-02  4.49103974e-02
 -7.75346458e-02  1.57497823e-02 -1.82165921e-01 -2.17131060e-02
  3.42367042e-04  2.93327849e-02  4.00328413e-02  1.23780563e-01
 -2.00557351e-01  7.03518465e-02  3.07419598e-02  2.91294437e-02
  2.69550625e-02 -6.86727166e-02 -6.59590168e-03 -9.98405889e-02
  7.69610927e-02 -2.42207885e-01  1.19629227e-01  1.67490110e-01
  7.81257730e-03  6.12256490e-02  7.68293887e-02  5.13740964e-02
  2.38652085e-03  1.55907422e-02 -1.92760572e-01  8.83844495e-03
  1.49511084e-01 -4.12507020e-02  8.50318968e-02 -1.82135291e-02]