[-0.06381773  0.07665994  0.05199615  0.00380764 -0.02609951 -0.03953123
 -0.00497465 -0.08943521  0.09452532 -0.02941333  0.27492803 -0.09354105
 -0.24329172 -0.10131037 -0.04039919  0.18388583 -0.15260871 -0.09056599
 -0.05716755 -0.01022046  0.07112821 -0.0353647   0.04569587  0.04700949
 -0.06564374 -0.32885665 -0.0640785  -0.11881386  0.02845203 -0.09853678
 -0.09463614  0.04737915 -0.14204413 -0.05719579 -0.01166157  0.0375956
  0.01800167 -0.09235706  0.21643792  0.01044913 -0.17020147 -0.00900519
 -0.00138423  0.26017952  0.17960902  0.03467227  0.04558675 -0.07586104
  0.08795216 -0.20760477  0.05384485  0.08733349  0.08454518  0.03395489
  0.01023439 -0.15901004 -0.01792554  0.05072581 -0.13036492  0.03175526
  0.05128741 -0.08623796 -0.01953183 -0.11216984  0.19112049  0.07661921
 -0.08989216 -0.09940419  0.08809949 -0.11711388 -0.05280224  0.00675267
 -0.1551097  -0.16078304 -0.33907458  0.04125597  0.32320455  0.1024152
 -0.20790198  0.01701897 -0.02971428  0.01953837  0.14501159  0.09236322
 -0.02674014  0.04588785 -0.13241211 -0.00370529  0.18333115 -0.10425486
 -0.0662647   0.16221431 -0.07934536  0.04763499  0.03638623  0.04503909
 -0.02981615  0.04325304 -0.11195773  0.03676556  0.08123271 -0.08514287
 -0.00412492  0.06053109 -0.15760751  0.01282101 -0.01411849  0.00598039
  0.00895606 -0.03003822 -0.15084679 -0.03450791  0.15539451 -0.19837183
  0.19345041  0.20761383  0.02467155  0.10833197  0.10241103  0.08475275
 -0.03356534 -0.00054958 -0.15414296 -0.03660948  0.11082399  0.06528695
  0.07638895  0.01623153]