[-8.95839334e-02  6.33581877e-02  9.48216170e-02  2.41253246e-02
 -2.14872938e-02 -1.07904673e-01 -6.05452806e-03 -1.21081404e-01
  1.04551964e-01 -3.73839326e-02  3.01823825e-01 -2.59100143e-02
 -1.91420645e-01 -1.82497427e-01  3.35660912e-02  1.22977160e-01
 -1.50262401e-01 -5.71379773e-02 -5.35135269e-02 -1.70275811e-02
  5.25733195e-02 -3.32356356e-02  6.41181692e-02  5.90164252e-02
 -5.06746955e-02 -3.44403267e-01 -7.97029212e-02 -1.60841867e-01
  6.07423894e-02 -8.09538662e-02 -6.72682822e-02  5.87656163e-02
 -1.24578096e-01 -6.14080913e-02 -4.98994179e-02  5.43140545e-02
 -1.11408448e-02 -6.03100844e-02  2.18190342e-01 -2.10621785e-02
 -1.70464396e-01 -6.61250800e-02 -3.70839685e-02  2.20966861e-01
  2.27743506e-01  3.40574840e-03  3.39849852e-02 -2.03951728e-02
  1.02271393e-01 -2.10532025e-01  7.24392245e-03  1.06671154e-01
  1.23114310e-01  3.17821722e-03  3.37690376e-02 -1.45985797e-01
 -2.65212245e-02  4.11383770e-02 -1.73702374e-01  3.27517800e-02
 -1.07756350e-02 -1.33673549e-01 -8.29529986e-02 -3.85208726e-02
  2.01274499e-01  1.28366545e-01 -8.58586729e-02 -7.05767795e-02
  1.40459463e-01 -1.54288203e-01 -5.72236069e-02  3.55862454e-02
 -1.77641228e-01 -1.87050626e-01 -2.98278838e-01  2.59630512e-02
  3.29483956e-01  7.79519528e-02 -2.27934644e-01  1.64093263e-02
 -5.80363274e-02  6.74772123e-03  1.32766411e-01  8.85335207e-02
 -3.74423563e-02  2.86844578e-02 -1.29393741e-01  1.21353565e-04
  1.44178063e-01 -9.97745767e-02 -3.60035598e-02  1.97534904e-01
 -6.45613894e-02  1.00092590e-01  3.89153548e-02 -3.19385640e-02
  4.28803898e-02  3.66127826e-02 -1.27208158e-01  2.44410522e-02
  1.34056032e-01 -9.34669748e-02  1.18065653e-02  2.69439947e-02
 -1.54030889e-01  1.60069130e-02  4.75937501e-02  2.77640820e-02
  6.37541711e-02 -5.99892996e-02 -1.61662936e-01 -5.19605391e-02
  1.93731710e-01 -1.73639253e-01  2.53620833e-01  2.07276106e-01
  1.00457191e-03  1.18909314e-01  8.27308446e-02  6.12222813e-02
 -2.17001308e-02 -5.83110861e-02 -1.38304308e-01  8.56589992e-03
  1.05087101e-01  7.39842234e-03  3.44570614e-02 -1.71168484e-02]