[-9.25903097e-02  1.26773641e-01  9.93234664e-02 -2.82204729e-02
 -1.25035435e-01  1.79401916e-02 -5.11065731e-03 -7.99174979e-02
  1.47816941e-01 -6.99177161e-02  2.69355625e-01 -3.64054251e-03
 -2.39873007e-01 -6.30224273e-02  2.74499841e-02  2.11784407e-01
 -1.45656332e-01 -1.52165607e-01 -1.07383743e-01  2.21935147e-03
 -6.17502024e-03  8.02297518e-02  3.60443145e-02  7.33197704e-02
 -1.38942495e-01 -3.87433141e-01 -5.57851791e-02 -6.02804795e-02
  1.86218116e-02 -1.04251586e-01 -1.02016628e-01  1.09915316e-01
 -1.16276264e-01 -4.14159484e-02  1.12301305e-01  9.06475484e-02
 -7.83495530e-02 -1.10264778e-01  1.98697031e-01  4.79958616e-02
 -2.59902507e-01  9.20881238e-03  3.50893922e-02  3.16341221e-01
  2.79864967e-01 -2.08814051e-02  3.90540473e-02 -1.36464536e-01
  1.76998511e-01 -2.45677426e-01  4.04015705e-02  1.63405940e-01
  7.57413730e-02  6.35004044e-02  4.97901849e-02 -1.08523227e-01
 -3.58341001e-02  1.12998843e-01 -1.48071453e-01 -3.55528742e-02
  6.95007443e-02 -8.52926299e-02 -3.21332216e-02 -1.41329899e-01
  1.51270285e-01  8.05461034e-02 -1.50941253e-01 -1.26496673e-01
  1.21779636e-01 -1.44767702e-01 -6.82746395e-02  5.84231094e-02
 -1.96026489e-01 -1.93791315e-01 -2.75672406e-01  1.78363491e-02
  3.76191795e-01  1.27249673e-01 -2.01580912e-01 -9.44255944e-03
  3.53568990e-04  1.28302146e-02  4.78388853e-02  1.87216744e-01
 -5.61730340e-02 -9.15093254e-03 -5.38511090e-02  4.93868552e-02
  2.25784212e-01 -5.78632168e-02  1.09480591e-02  2.67087042e-01
  5.45915170e-03  3.93586271e-02  6.44117296e-02  6.89784735e-02
 -6.23067506e-02 -7.48791685e-03 -1.56345233e-01 -2.17424389e-02
  3.45728034e-03 -4.35040668e-02  3.85289118e-02  1.40746385e-01
 -1.69529468e-01  1.58513546e-01 -8.76962300e-03  7.01088533e-02
  7.30929747e-02 -4.25442718e-02 -6.07917905e-02 -9.58036333e-02
  1.22853808e-01 -1.89305201e-01  1.23464681e-01  1.64104402e-01
  1.34886419e-02  8.30503330e-02  6.59767315e-02  8.22285339e-02
 -2.98572425e-02 -2.04679929e-02 -1.56599998e-01 -1.14661371e-02
  1.18339799e-01 -1.39519321e-02  2.19097529e-02 -4.43554111e-02]