[-0.08962251  0.14763047  0.06734955 -0.03641034 -0.1057855  -0.04748611
  0.01096897 -0.13421918  0.16050832 -0.01540938  0.2672835  -0.03076678
 -0.31498629 -0.07686138 -0.02729875  0.19488318 -0.16446176 -0.18068454
 -0.0759417   0.04831609  0.00909801  0.00791357  0.044453    0.10311572
 -0.10894883 -0.33480045 -0.05420501 -0.04138817  0.01880892 -0.09633895
 -0.06635527  0.05526356 -0.19116993 -0.0410168   0.09794619  0.08205216
 -0.08607657 -0.15526116  0.24797788 -0.01858029 -0.28945777 -0.08822621
  0.05712258  0.22021239  0.24262324 -0.02565246  0.00670208 -0.11609197
  0.10207224 -0.25721288  0.02447062  0.19949518  0.04048489  0.05512957
 -0.01102895 -0.17428051 -0.01374951  0.14366616 -0.19073588 -0.10460158
  0.04906625 -0.15338133 -0.05462724 -0.08514673  0.1791133   0.10551168
 -0.12879612 -0.13201571  0.17819026 -0.1861328  -0.0230406   0.07185622
 -0.12384026 -0.19229385 -0.25995183 -0.02251286  0.39019772  0.095749
 -0.1468578   0.06214627 -0.05396407  0.00897117  0.03559692  0.13058476
 -0.03509932  0.01570509 -0.10300367  0.0216363   0.20702527 -0.061694
  0.0267472   0.21812144 -0.01757468  0.02262055  0.08955292  0.03686161
 -0.01239003  0.00741966 -0.11215695  0.0284996  -0.00154917 -0.04766692
  0.0284796   0.1005851  -0.16537935  0.06127916  0.05699177  0.01213844
  0.05896466 -0.08337768 -0.03998782 -0.1265832   0.10902543 -0.27990422
  0.22329764  0.12475413 -0.02708104  0.12642907  0.03227652  0.10145973
  0.00088288 -0.08519627 -0.13077395 -0.03411985  0.1081235  -0.02345514
  0.07816684 -0.04173157]