[-0.08128292  0.04764659  0.07953399  0.01313119 -0.03819269 -0.10660815
 -0.05400235 -0.09861436  0.09190134 -0.03070618  0.31139815 -0.04743022
 -0.17099415 -0.13875292 -0.03011105  0.16327813 -0.15012191 -0.07095268
 -0.07064398  0.0010457   0.02732737  0.00115794  0.081861    0.04689651
 -0.0187483  -0.39989474 -0.11123232 -0.11424186  0.10066672 -0.08986098
 -0.10992114  0.04706258 -0.12914529 -0.08809745  0.04223029  0.07068686
 -0.02715742 -0.08678913  0.19403239  0.04835762 -0.15675659  0.01239769
 -0.02473208  0.28408208  0.24819092  0.09068608  0.05561241 -0.08839026
  0.10701346 -0.18975714  0.06778461  0.1148693   0.11513742  0.00218357
  0.09253671 -0.10556717 -0.01493009  0.04279009 -0.14844647  0.02438387
  0.0280049  -0.06213078 -0.01883551 -0.10342403  0.17070812  0.07875697
 -0.08634219 -0.07016798  0.13647237 -0.14175563 -0.05608232  0.01126166
 -0.16679634 -0.17973082 -0.31147018  0.01802977  0.36861214  0.1403275
 -0.19826093  0.03375047  0.00389091 -0.01430777  0.12044638  0.11736073
 -0.04620124  0.02420851 -0.12118882 -0.00550993  0.15113266 -0.0814041
 -0.04788481  0.16573484 -0.08761685  0.08342249  0.04910725  0.00123579
 -0.03407594  0.02403412 -0.1266223  -0.02858203  0.07973267 -0.03815842
  0.01370018  0.04715687 -0.12083496  0.03081764 -0.0064697   0.0120442
  0.02683656 -0.03682378 -0.11822315 -0.04049704  0.12952141 -0.18499008
  0.22122362  0.2084631   0.02771836  0.10829335  0.08542265  0.05148019
 -0.02129457 -0.03073279 -0.12354898 -0.05369399  0.04947005  0.04470531
  0.07448833 -0.00974676]