[-0.13843556  0.08413418  0.03740644 -0.03408081 -0.08044298 -0.0475238
  0.00926089 -0.14964025  0.15665856 -0.05698233  0.2329195  -0.08229084
 -0.19535111 -0.1315956  -0.05103385  0.24745102 -0.22289184 -0.15543638
  0.03344133  0.06738543  0.1284966  -0.04241176 -0.00180702  0.10018666
 -0.13264093 -0.33199903 -0.1328323  -0.09131867  0.01366423 -0.0805888
 -0.05877042  0.10507973 -0.18330507 -0.04990192  0.01940637  0.08214056
 -0.01448024 -0.13731773  0.15305491 -0.02955217 -0.27338049  0.02286297
  0.07856755  0.23503999  0.18056975 -0.02017956  0.03887425 -0.11928796
  0.10287362 -0.14045528 -0.03015223  0.11612997  0.0529633   0.06709766
 -0.001784   -0.13570702  0.03001303  0.07223321 -0.16965893 -0.00472542
  0.06290352 -0.12053492  0.02266336 -0.09084371  0.1604133   0.07740988
 -0.07466435 -0.19502147  0.17066303 -0.13429491 -0.06259458  0.07131267
 -0.16550769 -0.207267   -0.27995732 -0.01854797  0.33943594  0.11153052
 -0.16086593  0.10899784 -0.02469193 -0.00401932  0.10630895  0.20516618
  0.07348076  0.0513227  -0.12015644  0.00809278  0.23013321 -0.08328607
  0.0178777   0.2287112  -0.02530687  0.02348957  0.02004702  0.01519049
 -0.03950462  0.09937764 -0.09425268 -0.00486092  0.01974523 -0.01805583
  0.005673    0.10644038 -0.11486047  0.08311768  0.02983634  0.06659862
 -0.02823714 -0.03528296 -0.07575691 -0.01942186  0.07987326 -0.22839628
  0.23863296  0.14876287  0.01167986  0.08281723  0.06444006  0.10361295
 -0.01376979 -0.07243601 -0.18445231  0.01312932  0.13577132 -0.0400919
  0.0727214  -0.00859522]