[-0.04710276  0.07495458  0.04315075 -0.00886809 -0.00880564 -0.06419837
 -0.01650715 -0.11670636  0.1044956  -0.03757177  0.30070198 -0.07516984
 -0.21016164 -0.13201343 -0.04306623  0.18407503 -0.17154007 -0.07171529
 -0.06382536  0.00935906  0.07381501 -0.0549674   0.0581565   0.03273304
 -0.06550056 -0.35078779 -0.08481053 -0.1143018   0.06160452 -0.06337326
 -0.10368939  0.04278716 -0.1670177  -0.08415524 -0.01627271  0.03897626
  0.00334137 -0.09542544  0.20317014  0.00610198 -0.18334429  0.0175867
  0.01395699  0.24702306  0.19865409  0.042549    0.06291542 -0.10303914
  0.08995247 -0.19093069  0.03893647  0.07685417  0.07718676  0.03181786
  0.01236028 -0.15831028 -0.00045586  0.03400498 -0.14626515  0.02072859
  0.03924292 -0.06148164 -0.02267114 -0.08773568  0.18579917  0.07834182
 -0.08932888 -0.10967108  0.09112027 -0.13709736 -0.02985179  0.00614945
 -0.15822709 -0.17649129 -0.36872512  0.02605018  0.33750167  0.09081216
 -0.18863569  0.04138809 -0.03216795 -0.0062777   0.16765127  0.10931168
 -0.0132003   0.05042365 -0.12874575  0.00311454  0.19764973 -0.12335582
 -0.05065576  0.17903952 -0.07857052  0.06011388  0.01994241  0.05628041
 -0.04360017  0.06523948 -0.12107719  0.04696629  0.09350322 -0.06767967
 -0.00140129  0.06073559 -0.15704076  0.00066389  0.00535875  0.0105986
  0.03509309 -0.0464733  -0.15272306 -0.0672205   0.14204566 -0.19131185
  0.20923066  0.22987568  0.03422922  0.09755141  0.12609719  0.06294236
 -0.01719498  0.00218729 -0.16624062 -0.01368213  0.087258    0.04418514
  0.06312436  0.00348247]