[-0.06803675  0.14607337  0.04251688 -0.05817102 -0.07686099 -0.04066641
 -0.00162381 -0.16160965  0.15459721 -0.03491021  0.27222678 -0.08830073
 -0.29663607 -0.07525387 -0.06053169  0.22575067 -0.20429738 -0.20542267
 -0.05746133  0.06464644  0.01611387 -0.01089841  0.00407845  0.10516038
 -0.09320478 -0.35870939 -0.06944906 -0.07381359  0.01239442 -0.07925167
 -0.05177129  0.05505835 -0.18502796 -0.02443376  0.10592703  0.07453044
 -0.02526232 -0.13431023  0.21433707 -0.02932723 -0.32371908 -0.0502032
  0.10367063  0.25660655  0.21987715 -0.02408375 -0.02386633 -0.12859333
  0.07823543 -0.20072387  0.01226975  0.16927695  0.0560845   0.04836429
 -0.03350133 -0.16577607  0.00904013  0.12493221 -0.19496961 -0.08600593
  0.08768211 -0.16949622 -0.03797407 -0.08749222  0.20228373  0.06937375
 -0.1364378  -0.1510879   0.15788436 -0.19240616 -0.02398095  0.04143491
 -0.1403313  -0.17207664 -0.30516896 -0.05512389  0.38741639  0.08832979
 -0.16084126  0.09600973 -0.05076048  0.02124792  0.06820844  0.16728644
 -0.00396925  0.03684653 -0.10573974  0.00361295  0.22280191 -0.06921568
  0.03713152  0.21304333 -0.06821179  0.00726614  0.05891429  0.01627942
 -0.02720459  0.00044036 -0.12307687  0.00530614 -0.04454828 -0.02718921
  0.01434386  0.1173375  -0.20220625  0.03643228  0.07383607  0.0201195
  0.07398964 -0.03854394 -0.01451333 -0.14978884  0.13064273 -0.26883397
  0.20458327  0.15194383  0.04412219  0.09800683  0.05144282  0.07714464
 -0.01560275 -0.08097451 -0.1850502   0.0010152   0.09713636 -0.04629667
  0.08687848 -0.03655666]