[-0.16775188  0.11780985  0.08767805 -0.03149777 -0.09662607 -0.07455809
 -0.03514942 -0.13237794  0.15490083 -0.07910495  0.24040711 -0.06913599
 -0.21187456 -0.12710418 -0.05562601  0.25345099 -0.21353438 -0.13420682
  0.01917902  0.05364944  0.11513881 -0.0202527   0.00979974  0.09065767
 -0.13616352 -0.35322523 -0.10147107 -0.10401846 -0.05716694 -0.04976529
 -0.04187481  0.10144843 -0.184889   -0.05629274  0.01313017  0.10761549
  0.00053458 -0.0911584   0.1549632  -0.04380625 -0.28122899 -0.01765213
  0.07824022  0.23388873  0.17195676 -0.02606982  0.05237876 -0.10451298
  0.089924   -0.13352382 -0.0482791   0.12812732  0.05662326  0.04803586
  0.02498511 -0.14502503  0.02973508  0.05266625 -0.11804815 -0.0663996
  0.06338057 -0.13375109 -0.00446865 -0.10153221  0.21362324  0.04986221
 -0.0794917  -0.17733602  0.18285768 -0.12047495 -0.0626836   0.07297931
 -0.18379323 -0.1767436  -0.31928983 -0.03546746  0.31938109  0.0883232
 -0.18430333  0.10292106 -0.06584907  0.01842112  0.08485071  0.21029258
  0.09965574  0.07968836 -0.10657688 -0.00135626  0.20827614 -0.10966831
  0.0333638   0.20372759  0.00721689  0.01609027  0.01715071 -0.04088029
 -0.03776731  0.06485044 -0.11216138  0.02588671  0.0008908  -0.00173425
 -0.01435798  0.09131531 -0.14298849  0.03921403  0.0409044   0.04077263
 -0.02844793 -0.01341396 -0.08972802 -0.07893326  0.10068375 -0.21819901
  0.21632905  0.15838927 -0.01834227  0.10594838  0.07234462  0.12344239
 -0.04080888 -0.04507403 -0.16795944 -0.00154727  0.13158119 -0.04702308
  0.05680744 -0.01498103]