[-0.05601456  0.04888542  0.05964634  0.01520503 -0.03823354 -0.10049975
 -0.06311839 -0.11402924  0.09526276 -0.04495542  0.29481611 -0.04428799
 -0.18985775 -0.14012793 -0.03432401  0.16509354 -0.15259276 -0.08060595
 -0.07469206  0.0069463   0.03593593  0.00196109  0.07490265  0.04033795
 -0.0176188  -0.39924112 -0.11283294 -0.10584138  0.08644112 -0.08129169
 -0.11517344  0.0671062  -0.13255839 -0.08894616  0.04532919  0.07799691
 -0.02999886 -0.07286461  0.19396535  0.0570922  -0.17776088  0.02361013
 -0.02005567  0.27139038  0.25816277  0.0899326   0.06126339 -0.10332904
  0.12298687 -0.17701463  0.06187272  0.12800807  0.12041428  0.00687781
  0.08610361 -0.10669354 -0.02673011  0.05106834 -0.14591825  0.02391007
  0.0385613  -0.077917   -0.01854059 -0.10210206  0.16437018  0.06860702
 -0.08858803 -0.08387839  0.14698945 -0.15631884 -0.06770331  0.02218693
 -0.16876043 -0.1784348  -0.32082671  0.01615866  0.37751964  0.12555838
 -0.17935342  0.04242572  0.01636245 -0.02648642  0.12298021  0.13663678
 -0.0402002   0.03002008 -0.10842663 -0.00686806  0.16833895 -0.08066911
 -0.04815353  0.17083402 -0.09351214  0.09782155  0.0526514   0.00796733
 -0.03181791  0.02083457 -0.13035335 -0.02918651  0.06683118 -0.0517736
  0.01269189  0.04518885 -0.09747522  0.02205904 -0.01920872  0.02854506
  0.02702471 -0.03840803 -0.12026327 -0.05077741  0.13111465 -0.18793038
  0.2185359   0.19778711  0.02606006  0.09180755  0.09288522  0.06550109
 -0.01908261 -0.03772315 -0.14243703 -0.05581307  0.06304838  0.05120283
  0.07751639 -0.02012928]