[-0.07041513  0.13304685  0.059409   -0.08545436 -0.09173685 -0.04053174
 -0.0012129  -0.14780988  0.14315178 -0.0287769   0.25958011 -0.08594902
 -0.30302522 -0.09764095 -0.03590082  0.21812506 -0.19504486 -0.18544593
 -0.04954254  0.02715406  0.00681077  0.00129597  0.01699784  0.12279713
 -0.11851423 -0.36889613 -0.06819898 -0.05587575 -0.02021231 -0.08034422
 -0.02585638  0.09554642 -0.18468745 -0.02906771  0.10158587  0.09207396
 -0.05518087 -0.16052315  0.21883491 -0.02785873 -0.29137504 -0.06602625
  0.09860207  0.25283861  0.22754669 -0.03482569 -0.00653975 -0.09472735
  0.0870242  -0.22848968  0.0184739   0.18846326  0.01677528  0.03807402
 -0.01236876 -0.14633967  0.00463206  0.11660104 -0.20944758 -0.11788826
  0.06181999 -0.16549508 -0.06189496 -0.1100316   0.18655133  0.10285659
 -0.13520864 -0.13403849  0.17751202 -0.17959869 -0.0256603   0.03407165
 -0.15370053 -0.17799082 -0.27940843 -0.02608253  0.38012564  0.10172399
 -0.15122542  0.09737948 -0.03079676  0.01602475  0.06178905  0.16710094
  0.00233604  0.03582994 -0.06728666  0.052077    0.18478017 -0.05888186
  0.01191888  0.22626637 -0.04549653  0.00477006  0.08820506  0.01096087
 -0.01054298  0.0185447  -0.13572511  0.0384244   0.00598586 -0.02275603
  0.02769464  0.1072157  -0.17598531  0.06895465  0.07516973  0.00730106
  0.06441206 -0.06570836 -0.04234943 -0.12478671  0.12952565 -0.27701455
  0.1965863   0.1289995   0.00550026  0.12441428  0.04793011  0.08532207
  0.00693045 -0.10092793 -0.16274561 -0.01426986  0.12005279 -0.03289818
  0.09338772 -0.03948029]