[-0.1246647   0.10798045  0.03142743 -0.03227807 -0.10793292 -0.03857977
 -0.03373151 -0.13592225  0.15345022 -0.08233683  0.24193422 -0.0751591
 -0.21912014 -0.10952725 -0.07214462  0.25358707 -0.25671488 -0.13851252
  0.02656166  0.04020424  0.1168672  -0.00679288  0.00825131  0.06893758
 -0.12264366 -0.33454299 -0.10164212 -0.10103247 -0.04271742 -0.07195763
 -0.03750795  0.09972622 -0.16216509 -0.03630564  0.02668443  0.0352467
  0.00255799 -0.1029686   0.17200784 -0.02637167 -0.26901618  0.01824895
  0.10816502  0.23312683  0.18630868 -0.01131504  0.01404306 -0.12943232
  0.11419582 -0.11165696 -0.05850367  0.14341639  0.01808489  0.03620165
  0.01942093 -0.13064925  0.02177355  0.06931228 -0.13391443 -0.05353358
  0.08267268 -0.09683373  0.00278441 -0.10434929  0.18328276  0.04899163
 -0.07010783 -0.21199515  0.15496232 -0.14091422 -0.09278397  0.06580452
 -0.1644979  -0.18792237 -0.26279369 -0.06284913  0.31196943  0.08397868
 -0.16780524  0.12276679 -0.01277342 -0.02898919  0.12968244  0.20278893
  0.07972488  0.05946932 -0.10967175 -0.03749498  0.228513   -0.07357141
  0.029531    0.23375717 -0.01189666 -0.00793622  0.05801696 -0.01962636
 -0.06178797  0.07494534 -0.1309862  -0.01876256 -0.01429415 -0.0403075
 -0.0264775   0.0819844  -0.12503703  0.06180079  0.01525982  0.06962036
 -0.04459688 -0.03343012 -0.07084851 -0.03091191  0.10305669 -0.21291625
  0.20508511  0.11645325  0.01139566  0.09400374  0.08132593  0.12177714
 -0.05964548 -0.03669367 -0.1966166  -0.01536033  0.11307248 -0.05317228
  0.08862179 -0.02464129]