[-0.06049569  0.14820814  0.05716575 -0.04367113 -0.09753922 -0.03011851
 -0.00634044 -0.1400608   0.14901266 -0.04685018  0.26841545 -0.06904527
 -0.30055177 -0.08194464 -0.06268527  0.23474915 -0.18882804 -0.19638906
 -0.06382569  0.05098547  0.03033352  0.01539689  0.016242    0.09977741
 -0.1140938  -0.35882169 -0.07258513 -0.02999224  0.00973961 -0.09243615
 -0.05591699  0.07406294 -0.17998154 -0.02159471  0.09279454  0.07178714
 -0.03500282 -0.15381831  0.21218319 -0.01433772 -0.31198597 -0.03852014
  0.09315666  0.24664198  0.22037855 -0.01778885 -0.01063758 -0.12226834
  0.07964798 -0.22440925  0.01739831  0.18592377  0.0315332   0.05486684
 -0.04336649 -0.15105423  0.00047207  0.13670038 -0.19330065 -0.09776058
  0.08069445 -0.15752737 -0.0379681  -0.09345721  0.16529217  0.08852863
 -0.1313737  -0.15341592  0.15821527 -0.20469955 -0.03273344  0.03853482
 -0.13524425 -0.17393389 -0.30151674 -0.03850289  0.38395625  0.10119981
 -0.14300828  0.07814148 -0.02175286  0.02371277  0.06564955  0.16164453
 -0.01624718  0.0109758  -0.10057435  0.02710692  0.22231436 -0.04975136
  0.0237261   0.23444705 -0.02942396  0.01684334  0.07031401  0.04023166
 -0.0141086   0.01464274 -0.1070411   0.04839739 -0.03268344 -0.03198886
  0.01261815  0.11826359 -0.16474262  0.06916665  0.05573382  0.02872335
  0.07395341 -0.04161361 -0.04043222 -0.13884255  0.11697185 -0.25297651
  0.19038747  0.14943719  0.0256446   0.10272665  0.06269909  0.10669868
 -0.00891811 -0.08949155 -0.17919913 -0.01899706  0.10550968 -0.06354138
  0.08312085 -0.03078558]