[-1.16356663e-01  9.76107121e-02  4.91314791e-02 -1.75718497e-02
 -7.84253106e-02 -4.35312688e-02  1.09256599e-02 -1.56101674e-01
  1.72727510e-01 -1.07883692e-01  2.17247471e-01 -8.31087157e-02
 -2.10758194e-01 -9.46494713e-02 -4.41148058e-02  2.57016987e-01
 -2.07978591e-01 -1.45593226e-01  6.30160654e-03  5.16779087e-02
  1.28278404e-01  2.64400174e-03 -3.82511853e-03  7.18389973e-02
 -1.19245827e-01 -3.10984939e-01 -1.31154209e-01 -7.52941668e-02
  2.07816251e-02 -5.75852394e-02 -8.24569315e-02  6.98985010e-02
 -1.51557118e-01 -4.20149304e-02  1.31020723e-02  5.78897707e-02
 -1.29142990e-02 -1.56036779e-01  1.49804831e-01  1.11681351e-03
 -2.97558486e-01  3.81650589e-02  6.85464814e-02  2.24727660e-01
  2.01771125e-01 -1.60078350e-02  1.14786616e-02 -1.46566629e-01
  1.15070663e-01 -1.51208490e-01 -5.77189215e-02  1.09962158e-01
  2.70136800e-02  6.73908815e-02  5.66468667e-03 -1.44255847e-01
  2.28679888e-02  5.63367568e-02 -1.58656135e-01 -3.44320945e-02
  5.67646921e-02 -1.02261119e-01  4.49393354e-02 -7.94005319e-02
  1.68220595e-01  6.51809797e-02 -7.58592784e-02 -1.81614712e-01
  1.67074502e-01 -1.72691196e-01 -7.69997388e-02  5.76312132e-02
 -1.45714059e-01 -1.94379807e-01 -2.67428726e-01 -4.84735928e-02
  3.49806160e-01  1.15962170e-01 -1.69029966e-01  1.19601682e-01
 -3.54440585e-02 -1.48442900e-02  1.36294335e-01  2.32517272e-01
  9.07563120e-02  5.25406711e-02 -1.14269190e-01 -4.43084948e-02
  2.56583512e-01 -1.02376163e-01  2.58986931e-02  2.78366059e-01
 -4.88687446e-03  3.13739069e-02  3.46915536e-02  6.32097572e-03
 -6.41942173e-02  6.81226552e-02 -9.90538225e-02 -4.36019003e-02
  9.36516467e-03 -2.56510582e-02  7.25451100e-04  1.11869052e-01
 -1.41271204e-01  1.11837976e-01  3.12993787e-02  7.82537758e-02
  3.69668960e-05 -3.41769271e-02 -5.19876964e-02 -2.53130738e-02
  9.14653316e-02 -2.06394225e-01  1.97194204e-01  1.48233190e-01
  4.12484631e-03  9.16322097e-02  8.02468881e-02  1.13278307e-01
 -2.47281324e-02 -4.90531363e-02 -1.92908764e-01  7.27161751e-05
  1.11831903e-01 -4.48574983e-02  6.48211539e-02  3.18607385e-03]