[-8.23427364e-02  1.30927771e-01  1.13684535e-01 -3.04876417e-02
 -1.29252538e-01  1.95049196e-02 -3.84250656e-04 -6.91030845e-02
  1.71380609e-01 -6.74839765e-02  2.55302280e-01  1.65100020e-04
 -2.50231057e-01 -4.69476432e-02  2.40731295e-02  2.19740227e-01
 -1.35431379e-01 -1.42312095e-01 -1.19634628e-01  1.35876015e-02
 -2.68765702e-03  8.02800134e-02  5.35281487e-02  7.87275657e-02
 -1.35127500e-01 -4.01003569e-01 -5.53170517e-02 -5.85843697e-02
  1.27740148e-02 -1.01198494e-01 -1.07480861e-01  1.10120311e-01
 -1.08115457e-01 -4.12743650e-02  1.08280674e-01  9.66752544e-02
 -9.00303796e-02 -1.20626114e-01  1.86898589e-01  5.81903644e-02
 -2.68356442e-01  4.67462046e-03  3.68854739e-02  2.93886155e-01
  3.02760690e-01 -1.85688715e-02  5.25422804e-02 -1.50946125e-01
  1.79794416e-01 -2.59901524e-01  2.84522381e-02  1.55985177e-01
  5.83918653e-02  7.20846578e-02  7.25526586e-02 -1.10734574e-01
 -3.10830660e-02  1.24391459e-01 -1.60718977e-01 -3.29797715e-02
  6.86939582e-02 -7.43068233e-02 -4.33892235e-02 -1.36558384e-01
  1.50932595e-01  9.17317197e-02 -1.53849483e-01 -1.19659007e-01
  1.46246582e-01 -1.61796138e-01 -6.04217611e-02  6.28124550e-02
 -1.85500666e-01 -2.01931104e-01 -2.58681357e-01  1.05248038e-02
  3.69698733e-01  1.39498070e-01 -2.02929765e-01 -1.63547285e-02
  2.47498415e-03  2.21005250e-02  3.56036462e-02  1.85992986e-01
 -6.16332702e-02 -7.88382255e-03 -5.45326062e-02  3.19055170e-02
  2.21926972e-01 -4.99156304e-02  3.33398432e-02  2.91659623e-01
  1.77079942e-02  3.25903855e-02  7.47996792e-02  7.13003799e-02
 -7.40326568e-02 -1.41363740e-02 -1.86175227e-01 -3.64416204e-02
 -4.42668004e-03 -5.46765402e-02  3.27645279e-02  1.20122194e-01
 -1.71003371e-01  1.59112304e-01 -1.77244637e-02  5.99267371e-02
  6.96232542e-02 -5.63732758e-02 -6.28852174e-02 -8.63631144e-02
  1.37907684e-01 -1.84249565e-01  1.15314484e-01  1.62867293e-01
  1.77192073e-02  8.33042860e-02  6.62227347e-02  9.47257057e-02
 -2.67997775e-02 -3.32799889e-02 -1.44681305e-01 -7.11151166e-03
  1.12998918e-01 -2.94109341e-02  5.05590718e-03 -4.87591848e-02]