[-0.10529216  0.13337535  0.08151425 -0.01991609 -0.08362594 -0.0480461
  0.00045186 -0.16551685  0.13039353 -0.04177149  0.29842898 -0.07011786
 -0.32731259 -0.06524024 -0.08929422  0.19839297 -0.18784484 -0.14408414
 -0.01376714  0.0389864   0.00985885 -0.03244953  0.05127557  0.11131006
 -0.0679194  -0.35949311 -0.06202445 -0.07337316  0.03157648 -0.02973008
 -0.05660723  0.07514485 -0.16361079 -0.01297555  0.07582429  0.06100209
 -0.0371887  -0.1211154   0.23142858 -0.02946062 -0.26811355 -0.06765721
  0.0649789   0.24967571  0.22869253 -0.003832    0.01217969 -0.13113371
  0.07658406 -0.25592026  0.01937229  0.19924605  0.07185497  0.02750657
 -0.01327643 -0.19782467 -0.00605416  0.13417172 -0.1865567  -0.06977423
  0.04272872 -0.0956287  -0.01104866 -0.07646181  0.22459765  0.10281625
 -0.17261681 -0.06778859  0.18098471 -0.17984442  0.00981554  0.04398891
 -0.15146999 -0.22446299 -0.25950998  0.01090367  0.39994392  0.14589472
 -0.13687359  0.07553791 -0.07290088  0.0231083   0.05035264  0.1658386
 -0.05650297 -0.00152647 -0.08034222 -0.01233766  0.15059423 -0.05304525
  0.0178917   0.24859309 -0.05146512  0.00744639  0.05917801  0.03865039
 -0.04257709 -0.00270319 -0.12678933 -0.00761044 -0.02776567 -0.06239738
  0.04557117  0.0997951  -0.22549093  0.03004208  0.02476827  0.00607636
  0.08656291 -0.05947462 -0.00771452 -0.1004562   0.11742934 -0.28770587
  0.2136478   0.1472843   0.02021534  0.1599236   0.06780419  0.0821019
  0.01385826 -0.10379472 -0.10837688 -0.02393323  0.10056763 -0.05955061
  0.0738703  -0.04895085]