[-8.30424726e-02  7.36998469e-02  6.39344901e-02  1.58714615e-02
 -3.40017490e-02 -1.26113489e-01 -3.52586210e-02 -1.31691173e-01
  8.50998834e-02 -3.65724452e-02  2.63177186e-01 -8.43549147e-02
 -1.71013743e-01 -1.58236355e-01 -2.86352877e-02  1.77885577e-01
 -1.79837450e-01 -5.25377989e-02 -6.85933530e-02  1.73710138e-02
  7.70020634e-02 -1.71981081e-02  6.47080392e-02  4.34472077e-02
 -5.23915291e-02 -3.78618449e-01 -7.59656578e-02 -1.36315808e-01
  3.43946815e-02 -3.15908082e-02 -1.27781212e-01  7.85538480e-02
 -1.63285792e-01 -1.08678579e-01  1.66851282e-02  8.30535814e-02
 -1.70422718e-02 -5.27011752e-02  1.63855761e-01 -2.14785188e-02
 -1.96012065e-01  3.83860618e-02  4.01774272e-02  2.39265725e-01
  2.40601256e-01  6.18238524e-02  5.89134693e-02 -1.26119509e-01
  1.11725762e-01 -1.41384050e-01  2.19868217e-02  8.47244859e-02
  9.03758332e-02  4.01830152e-02  3.93281169e-02 -1.34159222e-01
  8.30237474e-03  2.60121422e-03 -1.29840478e-01 -3.88621236e-03
  5.65079153e-02 -8.27499330e-02 -4.61347364e-02 -6.95409626e-02
  2.17353627e-01  5.32427244e-02 -9.74473879e-02 -9.38564688e-02
  9.86422822e-02 -1.56876832e-01 -5.99690564e-02  1.73549596e-02
 -1.63931355e-01 -1.63226202e-01 -3.57871681e-01  5.14881825e-03
  3.54590416e-01  7.61319846e-02 -2.19186351e-01  5.46325743e-02
 -4.29883301e-02  2.53790780e-03  1.86524764e-01  1.57985806e-01
  2.37189210e-03  5.72386980e-02 -1.12031177e-01 -3.18946550e-03
  1.88400015e-01 -1.25942275e-01 -4.01960127e-02  1.81597367e-01
 -3.48710567e-02  7.98740536e-02  3.06539536e-02 -4.43190329e-05
 -2.41227876e-02  4.32710946e-02 -1.41584128e-01  1.27291922e-02
  1.06124900e-01 -4.78324965e-02 -1.61664989e-02  4.51036580e-02
 -1.42870769e-01  1.08358525e-02  2.98471656e-02  4.27845046e-02
  5.26315942e-02 -5.79413958e-02 -1.40786394e-01 -7.39211068e-02
  1.16765238e-01 -1.96392640e-01  2.30689362e-01  1.99261934e-01
  2.95823067e-02  1.07796155e-01  1.09436430e-01  6.47367463e-02
 -1.70868374e-02 -7.68057955e-03 -1.54601350e-01 -1.02359205e-02
  1.27214536e-01  4.90262695e-02  7.84822479e-02 -1.09176505e-02]