[-0.09915544  0.14884487  0.08048391 -0.01827317 -0.07515634 -0.04405729
  0.00788112 -0.16698234  0.1257457  -0.05830031  0.2866995  -0.07857838
 -0.3306751  -0.06007499 -0.09413934  0.19910698 -0.18847723 -0.15830958
 -0.02059819  0.02883258  0.02009819 -0.03888502  0.02233635  0.11407423
 -0.07959542 -0.3605659  -0.05956584 -0.07530637  0.02941707 -0.04049779
 -0.0577988   0.07226831 -0.17522521  0.00382471  0.060329    0.0591339
 -0.03702342 -0.11660979  0.20192523 -0.01494263 -0.26355031 -0.06258491
  0.04027313  0.2561928   0.22681069 -0.00989193  0.01726181 -0.12725581
  0.06779249 -0.2508916  -0.02236117  0.19581899  0.06498784  0.03954785
 -0.02739169 -0.19643919 -0.01092032  0.11635231 -0.17763276 -0.05962238
  0.02971912 -0.12450694 -0.01339851 -0.077587    0.22786844  0.08781765
 -0.174181   -0.06251654  0.19151369 -0.19898976  0.0152732   0.04187751
 -0.13080549 -0.21905088 -0.24975483  0.00559098  0.40899992  0.15467165
 -0.14749281  0.06800517 -0.09069961  0.03738312  0.06130518  0.16634811
 -0.05404755  0.01171711 -0.08765019 -0.01188641  0.17539062 -0.05845052
  0.02174683  0.24928854 -0.05983914  0.01378078  0.05739586  0.02071971
 -0.04841135 -0.01220259 -0.10783231 -0.01187296 -0.04629685 -0.08415139
  0.03048063  0.09532972 -0.2123986   0.03749566  0.02964745  0.01114993
  0.07627788 -0.03973835 -0.01529538 -0.10631212  0.12318558 -0.29018256
  0.21147268  0.17261021  0.01820997  0.15486883  0.06556219  0.08237711
 -0.00262683 -0.11048235 -0.10574336 -0.03074908  0.09913506 -0.06101021
  0.06334161 -0.0710554 ]