[-0.12453611  0.09338401  0.0491501  -0.01464258 -0.09001397 -0.04320386
 -0.00068467 -0.15324526  0.15749274 -0.1019633   0.21635173 -0.08736187
 -0.20556708 -0.09522025 -0.04329542  0.25105637 -0.20655882 -0.13970061
  0.01099764  0.0509527   0.13088602  0.00565501 -0.00575811  0.07244008
 -0.11708052 -0.32160425 -0.12646335 -0.0779292   0.01736505 -0.04899408
 -0.08761512  0.06194933 -0.15522306 -0.04598482  0.01061237  0.05375314
 -0.01153494 -0.14878319  0.1457139   0.00182601 -0.29508129  0.0401131
  0.06902611  0.21999733  0.19739354 -0.00656678  0.01170852 -0.14021005
  0.11666699 -0.15661602 -0.05506774  0.11090439  0.02737045  0.0647786
  0.00132622 -0.13987508  0.02683069  0.05739906 -0.16632178 -0.0249693
  0.05291553 -0.10067313  0.04907072 -0.07781045  0.16857474  0.06773061
 -0.0712319  -0.184956    0.15192756 -0.17520599 -0.08293583  0.05771651
 -0.13892253 -0.2019624  -0.27648669 -0.04321162  0.35234341  0.12209117
 -0.17517915  0.11408726 -0.03475042 -0.02313956  0.14677528  0.22402655
  0.09450661  0.04890004 -0.11966753 -0.04990845  0.25946602 -0.10146376
  0.02481498  0.28695256 -0.00059422  0.03993297  0.03557482  0.01836003
 -0.06744754  0.07083439 -0.09222067 -0.04057834  0.01376189 -0.02568728
  0.00298816  0.10480018 -0.14657703  0.11596739  0.02373451  0.07890493
 -0.00520801 -0.04007297 -0.05515311 -0.02261677  0.09120514 -0.20637174
  0.1971616   0.1533771   0.01019354  0.10102322  0.08417705  0.09889418
 -0.0251461  -0.05157045 -0.19262414 -0.00490495  0.11244971 -0.04794307
  0.06371891  0.00991379]