[-1.12911239e-01  6.54430240e-02  9.49950814e-02  2.45176833e-02
 -3.86848710e-02 -1.08729713e-01 -2.07941476e-02 -1.10865198e-01
  8.84868130e-02 -3.13601531e-02  2.97751755e-01 -3.42731886e-02
 -1.87486872e-01 -1.66367784e-01  1.78097095e-02  1.33136049e-01
 -1.64305508e-01 -6.11802824e-02 -4.34910469e-02 -2.44354773e-02
  6.89831823e-02 -3.01404577e-02  6.61719516e-02  7.06358328e-02
 -6.07355013e-02 -3.54398638e-01 -7.91861787e-02 -1.62896320e-01
  4.92037013e-02 -9.25690159e-02 -8.36130157e-02  5.56606315e-02
 -1.40308082e-01 -6.74988255e-02 -4.71826382e-02  5.06963134e-02
  4.85868752e-03 -6.16493933e-02  2.09405586e-01 -2.54101958e-02
 -1.65686175e-01 -4.08854149e-02 -1.99386533e-02  2.32790098e-01
  2.23618224e-01  8.38316511e-03  3.49436961e-02 -2.22573932e-02
  9.69627723e-02 -1.95290610e-01  6.49115676e-03  1.10262312e-01
  1.22020915e-01  1.20121462e-03  1.76507272e-02 -1.46487042e-01
 -3.01518589e-02  4.08888198e-02 -1.63353398e-01  5.04804738e-02
 -5.72487665e-03 -1.37087211e-01 -7.39257857e-02 -5.11119328e-02
  2.03282595e-01  1.24851063e-01 -8.88246074e-02 -8.01005885e-02
  1.26051113e-01 -1.41764879e-01 -5.90211339e-02  2.52428409e-02
 -1.91077217e-01 -1.91224575e-01 -3.08911264e-01  2.51118969e-02
  3.17073643e-01  7.38055855e-02 -2.37820461e-01  2.34261248e-02
 -5.90466969e-02  1.85756590e-02  1.31018683e-01  1.00679278e-01
 -3.21847312e-02  3.49754319e-02 -1.34581670e-01  1.71033610e-02
  1.50138780e-01 -9.66553912e-02 -4.54200432e-02  1.97117910e-01
 -6.24970570e-02  9.68123227e-02  4.47257385e-02 -1.02276625e-02
  2.64984202e-02  2.80926172e-02 -1.30230814e-01  3.28234099e-02
  1.20990790e-01 -9.27610993e-02 -6.40373677e-04  3.07793822e-02
 -1.46886051e-01  2.36265369e-05  3.77255604e-02  2.93030795e-02
  3.63623649e-02 -5.18381782e-02 -1.66631028e-01 -5.22252880e-02
  1.79153785e-01 -1.73290417e-01  2.61466265e-01  2.21340045e-01
  5.06888563e-03  1.25334159e-01  8.84055942e-02  5.42639308e-02
 -2.33392995e-02 -4.72834110e-02 -1.33516416e-01  7.01644784e-03
  1.14778176e-01  1.25691388e-02  4.88117710e-02 -1.01852966e-02]