[-6.84049502e-02  1.54397130e-01  5.33416755e-02 -6.62921593e-02
 -9.13147330e-02 -1.01916762e-02 -1.53883249e-02 -1.45949438e-01
  1.44194171e-01 -4.29583043e-02  2.70803511e-01 -1.07479930e-01
 -3.12660396e-01 -7.12335929e-02 -7.60015473e-02  2.50043601e-01
 -1.99109569e-01 -1.92758441e-01 -5.23952730e-02  4.58163768e-02
  3.28041501e-02  1.35731166e-02  3.36112012e-03  9.31188762e-02
 -9.94051024e-02 -3.80392522e-01 -5.77141158e-02 -3.52052450e-02
 -6.20821957e-03 -8.50762054e-02 -4.23140600e-02  9.25173387e-02
 -1.93264037e-01 -3.21860090e-02  1.04915313e-01  9.47817117e-02
 -3.20738889e-02 -1.64847896e-01  1.93694249e-01 -4.50500064e-02
 -2.95622557e-01 -2.62942445e-02  1.21831588e-01  2.51274794e-01
  2.02387646e-01 -1.68420374e-02 -1.38526205e-02 -1.31441668e-01
  6.85951859e-02 -2.04141527e-01  1.49906136e-03  1.71866372e-01
  3.19339745e-02  5.62747605e-02 -3.62980329e-02 -1.66321859e-01
  2.14722641e-02  1.02814339e-01 -1.75716281e-01 -1.00155607e-01
  8.04229155e-02 -1.48763344e-01 -2.67958287e-02 -9.66330320e-02
  1.98199973e-01  6.32025748e-02 -1.38664037e-01 -1.56710446e-01
  1.41029328e-01 -1.64372191e-01 -3.05021405e-02  2.35256087e-02
 -1.56346947e-01 -1.73467681e-01 -3.03719014e-01 -3.24827284e-02
  3.84057939e-01  8.32517073e-02 -1.65897295e-01  1.12069905e-01
 -7.17255799e-03  2.34117452e-02  8.09292421e-02  1.97926626e-01
  8.69573653e-03  2.15680972e-02 -9.42326114e-02  3.87549438e-02
  2.20544368e-01 -6.83695525e-02 -3.91796837e-03  2.25876316e-01
 -5.28567247e-02  2.03189626e-02  6.51139319e-02  3.67945470e-02
 -2.79487669e-02  2.82739755e-02 -1.22561447e-01  3.21392938e-02
 -2.13629377e-04 -4.44916263e-03  1.16027601e-03  1.31598875e-01
 -1.57963023e-01  5.41346930e-02  5.40594570e-02  4.20269370e-02
  8.06747302e-02 -4.25254293e-02 -3.85224521e-02 -1.29641384e-01
  1.18228368e-01 -2.61630714e-01  2.02357873e-01  1.45004913e-01
  2.76809279e-02  1.03498094e-01  8.89024809e-02  9.04225782e-02
  2.75130421e-02 -6.15757592e-02 -1.94448307e-01 -2.00840291e-02
  1.16308771e-01 -4.61855344e-02  9.21465755e-02 -2.77600344e-02]