[-0.0966053   0.13335998  0.06564833 -0.0283265  -0.06998765 -0.05227436
 -0.00243813 -0.15214825  0.14921106 -0.04346271  0.26764536 -0.08211644
 -0.31091985 -0.06073606 -0.10578277  0.2063068  -0.19047794 -0.15558985
 -0.01516601  0.05275245  0.02532451 -0.04148155  0.01548039  0.10660132
 -0.06229223 -0.36481291 -0.08224248 -0.05586317  0.0338152  -0.04575824
 -0.05870426  0.06524234 -0.17108077 -0.03157776  0.094934    0.09254595
 -0.02905815 -0.12403303  0.21077195 -0.03945267 -0.27439734 -0.03797367
  0.07994285  0.26478654  0.21875237  0.01527044  0.0019555  -0.15360063
  0.09734767 -0.23047629  0.01116252  0.19524771  0.07976774  0.0494491
 -0.03287483 -0.18769859  0.01349681  0.14300248 -0.20797494 -0.07145866
  0.05705456 -0.11797221 -0.01591437 -0.07732585  0.21583119  0.09689702
 -0.17641194 -0.10028621  0.1836229  -0.19966857  0.0173502   0.02374203
 -0.13659368 -0.21638167 -0.27137789  0.00402947  0.40199372  0.14986421
 -0.14006677  0.09418118 -0.06567421  0.03000168  0.05139241  0.18665868
 -0.05495247  0.02263231 -0.08236663 -0.00782693  0.16977809 -0.04983492
  0.02666507  0.21828079 -0.05143177  0.0213894   0.04934357  0.03329313
 -0.06464724  0.00068666 -0.13660061 -0.01281019 -0.03355835 -0.0447967
  0.0435554   0.11092879 -0.21400009  0.05926467  0.03144586  0.00682807
  0.0762423  -0.05397334  0.00107171 -0.10106446  0.11761083 -0.2843214
  0.22078124  0.15089941  0.03648149  0.15612154  0.07727753  0.08819281
  0.01888549 -0.10018855 -0.13341813 -0.02101354  0.09340789 -0.0564032
  0.0944995  -0.05600717]