[-0.12046061  0.07915533  0.10673151  0.0231598  -0.01974483 -0.10292482
  0.00602721 -0.11519762  0.09668379 -0.03762085  0.30467275 -0.02738554
 -0.18985145 -0.1846211   0.02524882  0.13838792 -0.14274356 -0.0802649
 -0.04690544 -0.02631854  0.05557268 -0.04263895  0.03498898  0.07266159
 -0.06677018 -0.33600092 -0.07654035 -0.16242643  0.04464346 -0.09651487
 -0.07300337  0.06770157 -0.14282317 -0.05839756 -0.05959523  0.05973741
  0.01493819 -0.03702784  0.2036237  -0.01820974 -0.1776384  -0.05534234
 -0.03340559  0.23520966  0.22355263 -0.00307763  0.04332453 -0.02179197
  0.0814079  -0.19765514  0.00488106  0.10274561  0.13087754  0.00396662
  0.00199666 -0.15117155 -0.04611573  0.02476678 -0.17289262  0.038984
 -0.00221265 -0.15027647 -0.09011991 -0.03723269  0.20670655  0.12394299
 -0.09057675 -0.0770038   0.16364253 -0.15357733 -0.0454179   0.0413977
 -0.17610113 -0.18458462 -0.30934545  0.05676487  0.33082342  0.08200053
 -0.22287503  0.02254857 -0.07686978  0.02020514  0.1126998   0.09530517
 -0.04372115  0.05021904 -0.11889813  0.0294647   0.14847146 -0.08235338
 -0.03155512  0.19306436 -0.06132322  0.09008417  0.03561131 -0.01845765
  0.05311742  0.02751839 -0.12162528  0.03150902  0.11498653 -0.09130057
  0.01913458  0.04227935 -0.15156172  0.00706442  0.03785197  0.02339859
  0.03481787 -0.03658549 -0.15227601 -0.06240828  0.18398871 -0.17167546
  0.24227095  0.21645252 -0.00121516  0.11057931  0.0900986   0.06599499
 -0.01609596 -0.07153752 -0.13442014  0.02134535  0.12741129 -0.00266174
  0.05056865 -0.01004585]