[-0.07209014  0.07383869  0.07799564  0.01720156 -0.02880283 -0.11284971
 -0.03511159 -0.1410099   0.09035085 -0.04659164  0.27485549 -0.08620607
 -0.17782824 -0.14703147 -0.03256091  0.18142359 -0.17976348 -0.06006942
 -0.05951919  0.02927846  0.08072968 -0.02708585  0.06619253  0.03391881
 -0.05140877 -0.36289474 -0.07394509 -0.12193187  0.0288256  -0.02688847
 -0.13355152  0.08372246 -0.17435823 -0.10071015  0.01434331  0.08337063
 -0.0135995  -0.05402892  0.16774932 -0.0277176  -0.21135409  0.03777079
  0.03514617  0.23292737  0.22812879  0.04532477  0.05825805 -0.14125338
  0.09773736 -0.14148732  0.02835478  0.09184498  0.09279191  0.02983755
  0.02315961 -0.14421117  0.00037324  0.00679372 -0.10861194  0.00212922
  0.07405427 -0.08271649 -0.042606   -0.07083552  0.21731351  0.05022999
 -0.10813055 -0.11213639  0.08755904 -0.13537332 -0.06463427  0.02531678
 -0.17105174 -0.16753832 -0.371153    0.00465657  0.36583793  0.05221493
 -0.22874446  0.06024138 -0.05931062  0.00462341  0.1826911   0.17490871
  0.00653556  0.071196   -0.12202048 -0.00179847  0.19341773 -0.13518839
 -0.04705217  0.18197167 -0.04136645  0.07525706  0.02135292  0.01430284
 -0.02056427  0.04650321 -0.15593126  0.00403876  0.10231336 -0.0403531
 -0.02747945  0.06434225 -0.15229777  0.00538238  0.02953538  0.0423932
  0.06450417 -0.06344333 -0.14254047 -0.08188858  0.11383019 -0.20575105
  0.21234393  0.19554071  0.04393446  0.09951606  0.12880431  0.07016663
 -0.00553881 -0.00192954 -0.16696742 -0.00043259  0.12751867  0.05697889
  0.0743422  -0.00658885]