[-0.06821272  0.13314012  0.03848685 -0.05496088 -0.10600292 -0.03524573
 -0.00414523 -0.14087377  0.13964866 -0.04645003  0.25784883 -0.08233931
 -0.29451928 -0.06709999 -0.06143463  0.22982588 -0.19421959 -0.20475176
 -0.06545487  0.04090667  0.03362875  0.0210902   0.00731694  0.08667243
 -0.10956689 -0.33727911 -0.07831731 -0.05013418  0.01800366 -0.07650405
 -0.04717755  0.07105155 -0.17869407 -0.03136832  0.10768086  0.07374309
 -0.01836841 -0.13926141  0.22395805 -0.02158078 -0.31875911 -0.03114125
  0.10710639  0.25571895  0.20807348 -0.01472678 -0.02457453 -0.12926002
  0.06991094 -0.19941388  0.01643112  0.17545502  0.04908758  0.05458312
 -0.06556112 -0.15286289  0.02727514  0.12736125 -0.21566069 -0.1049907
  0.10398246 -0.17789859 -0.0346698  -0.08621321  0.18800436  0.06161265
 -0.13082945 -0.1657676   0.14358957 -0.19842455 -0.0334186   0.0512796
 -0.14341661 -0.16180001 -0.31111571 -0.04269564  0.40195823  0.0881566
 -0.13960627  0.09513752 -0.03051899  0.01238657  0.0766049   0.16410412
 -0.01227648  0.01982897 -0.10255233  0.02715554  0.22488017 -0.07010661
  0.01782312  0.20938812 -0.02426521  0.01944192  0.06903326  0.04188444
 -0.01431384  0.00463092 -0.10401759  0.0428198  -0.04413869 -0.02797188
  0.01358505  0.11645909 -0.17038682  0.06749015  0.05797256  0.00998641
  0.04643152 -0.05621133 -0.02431495 -0.13873349  0.12374669 -0.2605454
  0.1781722   0.15482344  0.03855594  0.10976619  0.06601302  0.09252841
 -0.02108024 -0.0755407  -0.20110098 -0.01095985  0.11484448 -0.05544497
  0.11299255 -0.02014402]