[-0.11336277  0.07483768  0.05902613 -0.03387538 -0.07955586 -0.06420203
  0.006717   -0.14994375  0.18813778 -0.07332738  0.20444334 -0.09132771
 -0.22785266 -0.09218679 -0.04612685  0.25082833 -0.20127499 -0.14596827
 -0.0120079   0.04689919  0.15012789  0.00105375  0.00535852  0.0556448
 -0.11962571 -0.36667728 -0.12808059 -0.05386294  0.02683295 -0.06409752
 -0.09841355  0.10147934 -0.17623398 -0.08079417  0.04101748  0.08755051
 -0.02820542 -0.13169645  0.14617509 -0.01237211 -0.29549304  0.05922805
  0.08032427  0.23257063  0.22005419  0.03411394  0.03431503 -0.1502593
  0.10799624 -0.16524525 -0.00463017  0.1237834   0.05178325  0.07888602
  0.02974985 -0.13393424  0.00489085  0.06736588 -0.17101555 -0.01075352
  0.0921429  -0.11593707  0.02351381 -0.09540727  0.16910847  0.05835762
 -0.08606485 -0.16956265  0.15674171 -0.1571869  -0.07619993  0.0279589
 -0.15920354 -0.19886415 -0.27942666 -0.02500843  0.3618446   0.10760572
 -0.18723647  0.12631775 -0.01717281  0.00192602  0.14150558  0.21524255
  0.08453767  0.0603647  -0.10075694 -0.00626849  0.2411613  -0.11094929
  0.01387552  0.26349404 -0.00698772  0.04286518  0.02655393  0.02247323
 -0.06333301  0.07683144 -0.12246227 -0.04102562  0.04425286  0.00910096
  0.01235498  0.10047405 -0.11975835  0.12396803  0.02215856  0.08150661
  0.00398068 -0.05209793 -0.05576004 -0.03954356  0.07348578 -0.22596596
  0.22643752  0.16234671 -0.00451266  0.09971835  0.05947387  0.10169903
  0.02309292 -0.03393535 -0.19041915 -0.00632568  0.14008616 -0.01026974
  0.08037054  0.01235287]