[-0.12117936  0.08753654  0.05629451 -0.00878533 -0.07618263 -0.0410588
  0.02385098 -0.13948263  0.15806773 -0.06567033  0.23692076 -0.08507218
 -0.23720527 -0.09731983 -0.0347811   0.24186373 -0.20485346 -0.13811325
  0.00666364  0.05332652  0.12960142 -0.00150448 -0.00346159  0.05880064
 -0.11418542 -0.34297305 -0.11651979 -0.06283389  0.03971688 -0.060664
 -0.09316047  0.08806046 -0.17855763 -0.06378903  0.03127926  0.06604525
 -0.01939967 -0.13269596  0.1586545  -0.00094674 -0.28077868  0.03799039
  0.07500487  0.23496722  0.19099462  0.01619747  0.01688595 -0.12496235
  0.08001805 -0.16642097 -0.03517434  0.13347223  0.0426222   0.06241499
 -0.00627996 -0.15145586 -0.00493233  0.059596   -0.17537157 -0.01847564
  0.06259597 -0.09726941  0.02871199 -0.08455449  0.18336283  0.06310558
 -0.08870077 -0.17471911  0.15196514 -0.15308096 -0.06411029  0.04691293
 -0.15547444 -0.19781838 -0.26036307 -0.01311617  0.35493079  0.08291067
 -0.16513956  0.12244352 -0.04395983 -0.02143629  0.12775092  0.19638991
  0.082736    0.04715357 -0.10256921 -0.02210877  0.24376865 -0.10190361
  0.02292312  0.25735882 -0.02231041  0.02367967  0.03141015  0.01783489
 -0.04924594  0.07167661 -0.10312503 -0.03995865  0.02418549 -0.03878534
  0.01192288  0.1090044  -0.14982568  0.08928993  0.03334428  0.06866067
  0.02269335 -0.04088481 -0.07279567 -0.04357248  0.08636657 -0.24279718
  0.23729444  0.16244429 -0.00664446  0.08831253  0.07205832  0.10190492
  0.00543227 -0.03412592 -0.18145204 -0.01114281  0.1279147  -0.0336124
  0.06372099 -0.00559382]