[-7.80643672e-02  1.37989506e-01  7.68988878e-02 -4.02689651e-02
 -5.93663119e-02 -3.10952198e-02  6.21617539e-03 -1.51871532e-01
  1.16601586e-01 -3.11786775e-02  2.71466762e-01 -4.98381630e-02
 -2.58574367e-01 -7.78556615e-02  3.86073976e-03  2.24037752e-01
 -1.62953094e-01 -1.73948765e-01 -9.31381732e-02  2.03576889e-02
  3.25445570e-02  2.42516380e-02  7.86769986e-02  6.39461279e-02
 -1.29957482e-01 -3.10611576e-01 -6.79330230e-02 -3.96162644e-02
  1.85964517e-02 -4.23689447e-02 -9.89988372e-02  3.12628113e-02
 -1.76277876e-01 -5.94532304e-02  1.29079327e-01  8.60692561e-02
 -3.31957825e-02 -1.36002466e-01  1.99507371e-01 -5.95102971e-03
 -2.78680921e-01 -2.69031152e-04  1.12172581e-01  2.59385079e-01
  2.23217800e-01  8.32777750e-03  9.97558795e-03 -1.72134697e-01
  1.37946889e-01 -1.85081288e-01  3.68261337e-02  1.17616378e-01
  6.54435381e-02  5.22162281e-02  9.34721809e-03 -1.45846918e-01
  2.01757625e-02  1.35934830e-01 -1.61836967e-01 -9.46745872e-02
  7.60215148e-02 -6.45741448e-02 -2.43960824e-02 -1.34267539e-01
  1.93653584e-01  7.70813450e-02 -1.33385897e-01 -1.60029441e-01
  1.07949458e-01 -1.19797900e-01 -6.90581203e-02  5.47819920e-02
 -1.68499097e-01 -1.59387246e-01 -3.05316359e-01 -3.59820612e-02
  3.53101969e-01  6.77112341e-02 -1.84021369e-01  6.57402426e-02
 -2.34950031e-03  3.04119419e-02  7.26675317e-02  1.75571531e-01
 -4.14757021e-02  8.28114375e-02 -8.61606821e-02  6.19274797e-03
  2.32388690e-01 -9.41203460e-02  1.22570014e-02  2.28671655e-01
 -1.36414366e-02  4.47719879e-02  6.83304295e-02  4.58244383e-02
 -6.65151775e-02  3.39310281e-02 -1.85954392e-01 -2.26797666e-02
 -6.12397585e-03  1.30958632e-02  3.91465649e-02  1.25526443e-01
 -1.95085511e-01  7.63866231e-02  3.24705280e-02  3.48402001e-02
  4.77841459e-02 -6.05911128e-02 -2.52452847e-02 -1.12068236e-01
  6.89796135e-02 -2.45492131e-01  1.43342927e-01  1.66507289e-01
  2.66034901e-02  6.84787333e-02  8.32818076e-02  6.30239323e-02
 -4.01507335e-04  1.51526248e-02 -1.83709741e-01  8.05521943e-03
  1.47286102e-01 -3.77508886e-02  8.21789429e-02 -1.78653803e-02]