[-1.61859304e-01  1.03855826e-01  4.39287722e-02 -4.27784808e-02
 -1.20243862e-01 -7.42344186e-02 -3.32906134e-02 -1.54230222e-01
  1.56080559e-01 -6.33001104e-02  2.38797575e-01 -6.29531518e-02
 -1.99263573e-01 -1.46299750e-01 -7.99194500e-02  2.57494181e-01
 -2.32438669e-01 -1.51941091e-01  1.63304303e-02  4.07717712e-02
  1.15319088e-01 -1.83372237e-02  1.96008496e-02  9.11981091e-02
 -1.27398849e-01 -3.42152268e-01 -9.66373757e-02 -9.32399556e-02
 -2.93697119e-02 -6.64096847e-02 -3.48321609e-02  1.06292896e-01
 -1.94415256e-01 -6.17193691e-02  3.75843644e-02  1.02175571e-01
 -1.19166076e-02 -8.71787071e-02  1.58278659e-01 -6.26795813e-02
 -2.76250690e-01 -1.11040082e-02  1.12831332e-01  2.25806817e-01
  1.99513897e-01 -7.32248416e-03  3.45619023e-02 -1.35514870e-01
  1.10747613e-01 -1.20667748e-01 -3.38246301e-02  1.32037044e-01
  5.01483344e-02  4.22469638e-02  2.90688127e-02 -1.39702603e-01
  2.04221979e-02  7.90701360e-02 -1.25067651e-01 -5.62839918e-02
  6.31562993e-02 -1.18173502e-01 -7.75880134e-03 -1.12308659e-01
  1.93455249e-01  4.73566055e-02 -7.08867982e-02 -2.04416379e-01
  1.92449972e-01 -1.45623371e-01 -9.14218649e-02  6.73548207e-02
 -1.61012277e-01 -1.81091994e-01 -3.24879706e-01 -7.04830214e-02
  3.06864321e-01  9.28658247e-02 -1.71086654e-01  1.18781365e-01
 -2.79199611e-02  4.36000386e-03  8.66422653e-02  1.89707324e-01
  6.77221045e-02  7.54201040e-02 -1.18930042e-01 -1.58031192e-02
  2.25132510e-01 -8.92704278e-02  3.01552098e-02  2.14586690e-01
 -1.61259284e-03  1.58218537e-02  3.55314091e-02 -2.14559138e-02
 -4.80564535e-02  7.91779086e-02 -1.35233566e-01 -3.31001286e-03
  4.36385628e-03 -7.04279775e-03  1.12155534e-03  9.54568982e-02
 -1.27177209e-01  5.27036972e-02  2.55137235e-02  7.05696270e-02
 -4.71725613e-02 -3.24409120e-02 -8.69357809e-02 -5.52018248e-02
  1.01871423e-01 -2.09312826e-01  2.45153949e-01  1.43053561e-01
  9.34986956e-03  1.00871146e-01  9.09141302e-02  1.07794285e-01
 -3.67980599e-02 -5.73688634e-02 -1.75048500e-01 -1.42253939e-05
  1.22777157e-01 -7.01509118e-02  8.51377025e-02  5.28832991e-03]