[-0.06470164  0.04955596  0.06707851  0.016446   -0.0372943  -0.10150975
 -0.0453907  -0.10484554  0.09515243 -0.04902922  0.299036   -0.04466425
 -0.17519091 -0.14241491 -0.01695949  0.15444241 -0.15198185 -0.0786196
 -0.08736155 -0.00610116  0.02932103  0.01449371  0.0877924   0.03923075
 -0.03099895 -0.3988702  -0.11012043 -0.1160193   0.09640899 -0.09154749
 -0.1019266   0.05204678 -0.12397649 -0.08239691  0.03289311  0.06457618
 -0.02556721 -0.0817388   0.19664717  0.05399016 -0.16498244  0.02257266
 -0.02846556  0.27905893  0.25895023  0.0814333   0.04492483 -0.08564921
  0.10112318 -0.1869853   0.06848039  0.11555067  0.1079997   0.00707206
  0.09903108 -0.09072692 -0.0224045   0.03646071 -0.14624555  0.01856239
  0.02639261 -0.07485129 -0.01895032 -0.09853618  0.16290098  0.07257039
 -0.0804961  -0.0690664   0.12837891 -0.1585931  -0.06994338  0.01540633
 -0.16472307 -0.16637798 -0.31700882  0.01680358  0.3663145   0.13552615
 -0.19078313  0.03548538  0.01172906 -0.01863328  0.12754968  0.12363608
 -0.04132922  0.01356261 -0.11066443  0.00397778  0.14949951 -0.08136743
 -0.0605345   0.17403458 -0.08942281  0.08265704  0.05704675 -0.00127594
 -0.02553917  0.01778547 -0.11465217 -0.02268273  0.08987245 -0.04599489
  0.01012287  0.04776435 -0.10907489  0.0283312  -0.01232889  0.01450596
  0.04403728 -0.03197148 -0.11926565 -0.04861632  0.13139713 -0.18847303
  0.21773402  0.20716408  0.01022048  0.10037196  0.07723697  0.05990229
 -0.02894869 -0.01963095 -0.1298914  -0.05462111  0.05297893  0.05418283
  0.07516725 -0.01142139]