[-0.12004709  0.04705651  0.0504196  -0.03261755 -0.06496122 -0.06830526
  0.00712195 -0.17148992  0.18483698 -0.07839992  0.23053344 -0.05021286
 -0.18479423 -0.11597246 -0.03762754  0.24253874 -0.22555637 -0.1562696
 -0.01954253  0.03973598  0.11622097 -0.04659187  0.02458968  0.06379607
 -0.12511398 -0.35873061 -0.13659206 -0.09274799  0.03490089 -0.03510574
 -0.07142039  0.10414197 -0.18071751 -0.06017379  0.02594474  0.08592683
 -0.02335041 -0.13416015  0.1510649  -0.02870138 -0.29429042  0.06969079
  0.07583509  0.21803863  0.23495415  0.00581283  0.02462805 -0.1277861
  0.11792219 -0.16595745  0.0021676   0.11576094  0.06323899  0.0762411
  0.05831922 -0.10917155  0.02397151  0.07172165 -0.18117781 -0.01422763
  0.06394304 -0.10269556  0.03107209 -0.09668081  0.15565944  0.11058193
 -0.08340053 -0.15657227  0.16787608 -0.14248225 -0.06789493  0.04447257
 -0.17186189 -0.21408606 -0.26970664 -0.01797904  0.35599455  0.1291928
 -0.18857747  0.09818622 -0.01388612 -0.0061867   0.14069754  0.193377
  0.08439746  0.02757047 -0.10823169 -0.01389051  0.22950621 -0.09075511
  0.00454513  0.25787899 -0.02966805  0.01345339  0.0180972   0.03765775
 -0.05857925  0.08476708 -0.14712922 -0.04843845  0.04079876  0.0273445
  0.00407124  0.07850009 -0.09659093  0.0880955   0.02361021  0.07358002
 -0.00298086 -0.048774   -0.0558444  -0.02500716  0.0656442  -0.21321101
  0.26071784  0.15253825 -0.00970806  0.08891683  0.05196644  0.0805378
 -0.00556927 -0.06645455 -0.17626645 -0.00742262  0.12795298 -0.00885878
  0.07467469  0.002396  ]