[-1.26982704e-01  5.77959791e-02  7.23501816e-02  6.93500508e-03
 -3.60159539e-02 -1.14942089e-01 -3.77742737e-03 -1.23544216e-01
  1.08629249e-01 -3.38447765e-02  2.99848288e-01 -3.38249877e-02
 -1.66744038e-01 -1.75641939e-01  1.63967460e-02  1.47375450e-01
 -1.75431252e-01 -4.92805652e-02 -4.21454236e-02 -5.70208160e-03
  7.88971409e-02 -1.14788758e-02  8.12780857e-02  4.18277197e-02
 -7.10564181e-02 -4.00205374e-01 -1.16123609e-01 -1.40429810e-01
  6.67370185e-02 -6.14734553e-02 -8.28836337e-02  5.29078953e-02
 -1.55316353e-01 -7.65975863e-02 -2.40883287e-02  6.46138564e-02
 -5.56493178e-04 -5.51335029e-02  1.87150523e-01  2.24931259e-02
 -1.71901420e-01 -3.99209037e-02 -1.12572918e-02  2.47974351e-01
  2.31804132e-01  3.75880599e-02  4.02095504e-02 -5.73433004e-02
  8.00302401e-02 -1.74409375e-01  1.30294552e-02  8.45389292e-02
  9.12304148e-02  3.94950015e-03  3.25785540e-02 -1.03598870e-01
 -2.11158134e-02  2.21167393e-02 -1.65649191e-01  3.24581191e-03
  1.49579598e-02 -9.92785618e-02 -7.08386526e-02 -5.73812611e-02
  2.12776348e-01  1.05649233e-01 -9.34382007e-02 -6.73707277e-02
  1.13193892e-01 -1.56047240e-01 -4.20225672e-02  1.84123125e-02
 -1.68759778e-01 -1.81402624e-01 -3.13631028e-01  1.21532017e-02
  3.56126636e-01  7.33560398e-02 -2.25988969e-01  5.49200037e-03
 -6.59430847e-02 -5.58140269e-03  1.75660551e-01  1.13899529e-01
 -1.01387873e-02  4.59362082e-02 -1.31953150e-01  8.41770694e-03
  1.69786945e-01 -1.10705815e-01 -2.30046641e-02  2.13544846e-01
 -5.02646454e-02  1.07781522e-01  3.66940014e-02 -2.49641063e-03
  2.95013422e-03  3.41034494e-02 -1.15270115e-01  6.69883052e-03
  1.08683564e-01 -6.07175790e-02 -1.71825290e-04  4.57726680e-02
 -1.45900995e-01  2.82921679e-02  5.46176545e-02  1.83193889e-02
  5.47436774e-02 -7.40476623e-02 -1.41231656e-01 -8.45350847e-02
  1.41751438e-01 -1.75774485e-01  2.14194924e-01  2.21981749e-01
 -2.69203726e-02  1.28003955e-01  7.00090826e-02  6.32168576e-02
 -4.74651232e-02 -3.44184749e-02 -1.39173791e-01  2.41976064e-02
  9.65501592e-02  1.11389486e-02  4.35982607e-02 -3.77911888e-02]