[-0.08560451  0.12936613  0.0703134  -0.05684931 -0.08032262 -0.03219637
 -0.008108   -0.15754293  0.11052332 -0.02945623  0.26124844 -0.06828561
 -0.25731155 -0.07334366  0.01236317  0.23475735 -0.15662667 -0.17756967
 -0.10483167  0.01037382  0.01554441  0.0243992   0.06808884  0.07169995
 -0.138822   -0.31505093 -0.06736978 -0.04317782  0.00638348 -0.04391911
 -0.10472631  0.03770142 -0.19281688 -0.06904443  0.13789731  0.10527962
 -0.02865815 -0.1484981   0.19791755  0.00060959 -0.2733705   0.00504553
  0.10592617  0.2613354   0.22267561 -0.00847791  0.01452845 -0.15803185
  0.14461534 -0.19078349  0.03088704  0.11914908  0.05683115  0.04628148
  0.00302013 -0.14125796  0.03606898  0.15759866 -0.18355273 -0.10242148
  0.08178958 -0.07462883 -0.03326691 -0.1330522   0.20180202  0.08782986
 -0.13331407 -0.15746558  0.10485806 -0.10664796 -0.05093951  0.0402868
 -0.18075614 -0.16058157 -0.3224732  -0.034338    0.35573643  0.0721106
 -0.19671331  0.06657854 -0.01001881  0.03554433  0.06993209  0.17020135
 -0.02733872  0.08526354 -0.08441484  0.02450529  0.2273773  -0.09160905
  0.02733344  0.24170168 -0.00883045  0.03400371  0.0641811   0.04975642
 -0.0732161   0.00960664 -0.17240591 -0.01843718 -0.00583956  0.02013422
  0.04519569  0.1354868  -0.20794836  0.07903814  0.02730374  0.03137634
  0.03014089 -0.07955026 -0.00344587 -0.11458243  0.07076208 -0.24940693
  0.12011967  0.1732109   0.0138667   0.07392983  0.0692996   0.04621127
 -0.00569446  0.01461013 -0.19109794  0.00996811  0.14119063 -0.02838564
  0.07581806 -0.00650487]