[-0.12543969  0.05424623  0.07703618  0.01224533 -0.04256276 -0.13035582
  0.00327251 -0.10502058  0.10038858 -0.0285204   0.29419109 -0.01885172
 -0.1742525  -0.17550704  0.02937526  0.13391474 -0.15217812 -0.0366931
 -0.04354876 -0.01514284  0.08614086 -0.01566869  0.08281732  0.05379678
 -0.07653667 -0.39309388 -0.11164506 -0.15511388  0.06590194 -0.06966363
 -0.08814885  0.0525059  -0.15889895 -0.08650617 -0.02990841  0.06054028
 -0.00401429 -0.06742986  0.17820445  0.01853046 -0.17326556 -0.05851704
 -0.02225454  0.23552151  0.23093979  0.02102803  0.06079421 -0.05181208
  0.08867241 -0.17457031  0.01314161  0.07784383  0.10569914  0.00268894
  0.03740735 -0.10096683 -0.01604519  0.03152157 -0.17889154  0.00055674
  0.00918771 -0.0966185  -0.07154682 -0.05692735  0.21949251  0.11105483
 -0.09353305 -0.0565113   0.12991588 -0.16239367 -0.0347251   0.02459383
 -0.16427064 -0.1835192  -0.29965684  0.02642287  0.34715721  0.09232584
 -0.21722351  0.00999395 -0.09535884 -0.00293969  0.15274173  0.10511599
 -0.01853967  0.05823039 -0.12507086  0.01737057  0.16811819 -0.10880684
 -0.01230999  0.21529733 -0.04715673  0.10159262  0.0417503  -0.01367439
 -0.01323891  0.02742378 -0.10258347  0.0056954   0.1097187  -0.08244347
  0.00887472  0.04644413 -0.15523255  0.02282591  0.04192455  0.01416661
  0.05602292 -0.07744056 -0.14102183 -0.08902577  0.13284503 -0.17145382
  0.21547244  0.208462   -0.02723638  0.13101639  0.06531496  0.0639221
 -0.04513976 -0.05758576 -0.13364813  0.02846739  0.11513317  0.00738877
  0.04123169 -0.04695676]