[-1.48617119e-01  1.31459579e-01  8.55822712e-02 -3.79064083e-02
 -9.90159437e-02 -5.61668761e-02 -1.55561147e-02 -1.48014769e-01
  1.53760687e-01 -9.65621024e-02  2.54859388e-01 -8.40152428e-02
 -2.22646669e-01 -1.06623612e-01 -4.88754921e-02  2.43264914e-01
 -2.02754900e-01 -1.31352454e-01  1.94793399e-02  4.90155481e-02
  1.18108563e-01 -1.20642094e-03 -7.69178942e-03  7.35354349e-02
 -1.12024784e-01 -3.37665558e-01 -1.04851387e-01 -8.63643512e-02
 -4.38442491e-02 -7.18779787e-02 -4.83223386e-02  7.87015408e-02
 -1.79197088e-01 -5.19138277e-02  1.22829981e-03  8.20749104e-02
 -6.37029717e-03 -1.14413671e-01  1.32403940e-01 -2.64623016e-02
 -2.75317609e-01 -4.42026323e-03  6.84446022e-02  2.32029155e-01
  1.58176184e-01 -3.25611308e-02  3.29266563e-02 -1.31781459e-01
  6.84281811e-02 -1.34940073e-01 -4.97311875e-02  1.17785469e-01
  4.02014963e-02  4.39943187e-02  5.42294653e-03 -1.57600433e-01
  7.23857572e-03  3.62534598e-02 -1.07877009e-01 -5.22128604e-02
  8.26337859e-02 -1.08081631e-01 -3.16615589e-03 -1.16842330e-01
  2.05243468e-01  5.41013777e-02 -8.85613188e-02 -1.82003602e-01
  1.41371727e-01 -1.41008809e-01 -8.09273198e-02  5.80697767e-02
 -1.64518580e-01 -1.77959070e-01 -2.99175709e-01 -3.64862941e-02
  3.04243177e-01  8.08314309e-02 -1.96055979e-01  8.97230059e-02
 -7.89094418e-02  1.98572874e-02  1.02682792e-01  2.13752493e-01
  1.05931900e-01  8.44263807e-02 -1.03589289e-01 -2.54433285e-02
  2.24747941e-01 -1.15612581e-01  2.84669343e-02  2.41206482e-01
 -9.69830994e-03  1.78656783e-02  2.11390667e-02 -3.36815380e-02
 -3.93851399e-02  5.78282140e-02 -1.00666665e-01  9.33366083e-03
 -1.19400294e-02 -3.64852212e-02 -3.39544863e-02  1.03118554e-01
 -1.68739229e-01  6.34117723e-02  4.28416021e-02  5.49575500e-02
 -1.00254954e-03 -2.67724451e-02 -8.64897296e-02 -7.64766261e-02
  1.17238425e-01 -2.21592501e-01  2.01981097e-01  1.70001104e-01
 -9.67290252e-05  1.05947427e-01  8.93307850e-02  1.25455335e-01
 -3.76495421e-02 -3.69640067e-02 -1.78023845e-01  8.02927185e-03
  1.14170425e-01 -5.05171679e-02  3.29100005e-02 -1.64819602e-02]