[-0.13982336  0.09923642  0.0317243  -0.04708638 -0.08640682 -0.05950253
 -0.0076477  -0.12347243  0.15035509 -0.05835617  0.21775185 -0.08836694
 -0.19745986 -0.10847008 -0.04870379  0.23066603 -0.22117944 -0.14560574
  0.03855052  0.04237716  0.13889603 -0.02940348 -0.01909462  0.09752912
 -0.13665977 -0.32648399 -0.10987516 -0.08542719  0.01080903 -0.06695952
 -0.05186012  0.1217618  -0.18501829 -0.04008076  0.01277355  0.09053987
 -0.00402002 -0.10615187  0.16043854 -0.04304782 -0.2670978   0.01705726
  0.08031022  0.22490382  0.18188576 -0.00560309  0.03380656 -0.1067666
  0.09494565 -0.12656835 -0.03107464  0.13225015  0.05697478  0.06371012
  0.00166068 -0.13728823  0.02975765  0.0606743  -0.16785714 -0.02586244
  0.05720589 -0.13598479  0.0169358  -0.09208106  0.19075355  0.05397376
 -0.07067424 -0.17000894  0.19663478 -0.13430043 -0.06431143  0.07373143
 -0.14798564 -0.19711792 -0.26788306  0.0074334   0.33026516  0.11684544
 -0.16489156  0.14124835 -0.00790263 -0.01174388  0.12598069  0.1961289
  0.05560369  0.05380348 -0.108177    0.00754436  0.2283603  -0.07730371
  0.01764227  0.21247475 -0.00733513  0.02713817  0.04159359  0.0031999
 -0.02789362  0.08231326 -0.09698543  0.00918537  0.03591234 -0.04319687
 -0.01136755  0.1048155  -0.10952276  0.06887257  0.0268779   0.05151248
 -0.03966954 -0.00958629 -0.06903781 -0.04576607  0.08196268 -0.23366313
  0.23324092  0.13348803 -0.01197924  0.10714108  0.06498205  0.1292439
 -0.00715953 -0.07153252 -0.17566693 -0.00943578  0.15614931 -0.03237811
  0.08883957  0.00391608]