[-1.38600558e-01  9.82499644e-02  6.10094629e-02 -1.90287810e-02
 -1.14236392e-01 -4.17708531e-02 -2.34160549e-03 -1.35578856e-01
  1.49639249e-01 -6.06982000e-02  2.21341774e-01 -7.50464946e-02
 -2.25466639e-01 -1.19188704e-01 -3.71658616e-02  2.40437016e-01
 -1.83486640e-01 -1.31461054e-01  1.00498302e-02  4.80882972e-02
  1.33741304e-01 -1.50147816e-02  8.01242795e-03  9.01179984e-02
 -1.33492425e-01 -3.37035149e-01 -9.86375734e-02 -7.95801803e-02
 -1.76865011e-02 -9.00034904e-02 -8.44123736e-02  1.21618703e-01
 -1.58642605e-01 -6.10638335e-02  1.47074675e-02  9.45731923e-02
 -2.27846950e-02 -1.13361076e-01  1.29554510e-01 -4.30903845e-02
 -2.76570886e-01  6.40549976e-03  7.42953047e-02  2.30062321e-01
  1.91311464e-01 -6.68379618e-03  3.96313965e-02 -1.07243612e-01
  9.79441032e-02 -1.31079063e-01 -5.16470633e-02  1.21234931e-01
  4.54897620e-02  5.29382788e-02  1.78263914e-02 -1.39113203e-01
  1.62888449e-02  6.12530708e-02 -1.48718536e-01 -3.27151865e-02
  5.74793108e-02 -1.39840528e-01  1.50033077e-02 -1.07309185e-01
  1.69582471e-01  5.44299260e-02 -5.97175471e-02 -1.78999647e-01
  1.60118133e-01 -1.35900125e-01 -7.16652051e-02  6.56484887e-02
 -1.76214859e-01 -1.97259024e-01 -2.61550337e-01 -3.21993046e-02
  3.26147735e-01  1.09361231e-01 -1.71677634e-01  1.09945260e-01
 -2.41219662e-02 -2.08623405e-03  1.05182327e-01  1.90313444e-01
  8.61891434e-02  6.03963695e-02 -1.21488862e-01  3.78646073e-03
  2.20205858e-01 -1.10385515e-01  3.80705073e-02  2.30512410e-01
  6.70176014e-05  1.25885373e-02  3.32561992e-02 -1.12325661e-02
 -5.57815805e-02  1.01519220e-01 -1.03148393e-01 -1.78500824e-02
  2.74641272e-02 -4.45941798e-02  1.97464228e-02  8.17829892e-02
 -1.22890353e-01  8.01891536e-02  2.76421644e-02  8.41193646e-02
 -1.30190551e-02 -3.77763771e-02 -8.39236304e-02 -4.36811410e-02
  9.74616855e-02 -2.14797884e-01  2.16994360e-01  1.51777521e-01
 -3.10648791e-03  9.21870396e-02  5.95140718e-02  1.24020375e-01
 -1.68373659e-02 -4.84085009e-02 -1.64903149e-01  4.89766244e-03
  1.48486525e-01 -4.50947359e-02  6.74909502e-02 -4.53589717e-03]