[-9.87794027e-02  7.72407949e-02  5.40364496e-02 -3.04193087e-02
 -7.13380128e-02 -5.38410544e-02  1.17540210e-02 -1.50465980e-01
  1.63619041e-01 -6.80624917e-02  2.26480350e-01 -1.03174448e-01
 -2.23145485e-01 -8.44478533e-02 -4.59184758e-02  2.55208552e-01
 -2.09317997e-01 -1.33718297e-01 -4.14976291e-03  5.70125282e-02
  1.22046106e-01 -1.17388656e-02  4.32311045e-03  7.66381249e-02
 -1.07057787e-01 -3.44941765e-01 -1.34895906e-01 -7.26183355e-02
  1.54036498e-02 -5.48046008e-02 -8.43664408e-02  8.49327743e-02
 -1.67745888e-01 -5.20289540e-02  3.53983305e-02  5.88843115e-02
 -1.70006584e-02 -1.53089210e-01  1.51627406e-01  3.72754340e-03
 -2.77912557e-01  5.94479516e-02  7.30680525e-02  2.26498768e-01
  2.11703256e-01  9.62080713e-03  2.72791218e-02 -1.40017346e-01
  1.14033796e-01 -1.51253194e-01 -4.66841087e-02  1.17615283e-01
  3.93584110e-02  6.45942092e-02  9.80916061e-03 -1.26880363e-01
  1.02119418e-02  6.48771524e-02 -1.64711729e-01 -2.02949829e-02
  8.00047666e-02 -1.01296537e-01  2.68678349e-02 -1.15345120e-01
  1.87617525e-01  6.40693903e-02 -9.15596932e-02 -1.73654109e-01
  1.67134196e-01 -1.49656057e-01 -6.30282685e-02  3.98164131e-02
 -1.70951277e-01 -1.92406192e-01 -2.44864613e-01 -1.89817939e-02
  3.59856665e-01  1.01458885e-01 -1.79149151e-01  1.15476690e-01
 -4.19778116e-02  6.44090353e-03  1.26263618e-01  2.08816454e-01
  9.99448374e-02  4.09813300e-02 -9.89763737e-02 -3.49591412e-02
  2.49458835e-01 -1.13260768e-01  2.92666908e-02  2.62914777e-01
 -2.89143063e-02  3.49368863e-02  2.56405119e-02 -1.18242428e-02
 -6.08585663e-02  7.88624659e-02 -1.06254041e-01 -2.61695813e-02
 -1.98325492e-03 -1.82958283e-02  1.30377878e-02  9.07486454e-02
 -1.21258639e-01  9.48403850e-02  2.44301111e-02  7.63792619e-02
  1.26879262e-02 -2.58017238e-02 -6.39555380e-02 -4.47097979e-02
  8.70864838e-02 -2.34892160e-01  2.23355725e-01  1.43538550e-01
  7.01971352e-03  7.88369328e-02  5.33705465e-02  1.30646303e-01
 -1.20775793e-02 -2.38665678e-02 -1.85005113e-01  2.91234261e-04
  1.30594730e-01 -2.49752477e-02  6.30268827e-02 -1.21677229e-02]