[-0.07931229  0.13682811  0.05255827 -0.05962079 -0.07130855 -0.04546055
 -0.01536457 -0.15166625  0.13893512 -0.06160086  0.27035567 -0.0693228
 -0.25609636 -0.07315993 -0.00132507  0.21853743 -0.16824615 -0.15745413
 -0.08104035  0.00294014  0.01119132  0.01872972  0.04394406  0.05734835
 -0.1217412  -0.32338923 -0.06807994 -0.03651794 -0.00287319 -0.04271149
 -0.08940541  0.05418483 -0.16216137 -0.08087447  0.13526414  0.11411929
 -0.04054026 -0.10521205  0.1905362  -0.00486523 -0.25584975 -0.01184365
  0.09018672  0.28310725  0.1937518  -0.01225447 -0.01333733 -0.16790795
  0.1195745  -0.20426968  0.00293138  0.12135482  0.06080685  0.05080156
  0.02316622 -0.11567197  0.0234693   0.15778051 -0.18998787 -0.11072796
  0.05865796 -0.09995737 -0.04792064 -0.14698431  0.21610737  0.08715098
 -0.14468108 -0.12545276  0.08319689 -0.09953435 -0.04915399  0.05143913
 -0.13060696 -0.18263315 -0.28814194 -0.03282415  0.36647391  0.08742877
 -0.18454888  0.07670503 -0.02234759 -0.00708488  0.08411956  0.14955948
 -0.02579222  0.0905071  -0.05497847  0.03745395  0.19684859 -0.10612565
  0.03205512  0.2209096  -0.03416591  0.0626817   0.0547207   0.0340612
 -0.07039482  0.02382207 -0.1731029  -0.03793504  0.02786337 -0.00957417
  0.05313078  0.09336444 -0.21574306  0.08002501  0.0569006   0.01452956
  0.07060894 -0.07439291  0.00169785 -0.10318431  0.10093782 -0.28980789
  0.14320108  0.16864127 -0.00550243  0.11255721  0.06386634  0.02572705
 -0.01378437 -0.02766411 -0.16554059  0.01007953  0.13556959 -0.01848006
  0.08591231 -0.04317332]