[-0.13240257  0.06167858  0.08637921  0.01371415 -0.04304188 -0.11843427
 -0.01115389 -0.12428736  0.10486858 -0.03964772  0.30289063 -0.03469956
 -0.17991543 -0.16474696  0.00511516  0.15609793 -0.16937022 -0.04352596
 -0.0481056   0.00175019  0.07894173  0.00343666  0.07066157  0.02975729
 -0.05543814 -0.40006581 -0.10841545 -0.12307608  0.06369277 -0.04988948
 -0.09311833  0.0646022  -0.15591258 -0.08123165 -0.00930803  0.07860047
 -0.00778107 -0.04738719  0.17030199  0.02207917 -0.17903575 -0.03991781
 -0.00312162  0.25581652  0.23515172  0.04014674  0.04135093 -0.07616449
  0.06785639 -0.17516355  0.01343591  0.09182341  0.09006133  0.00897237
  0.0316265  -0.11903594 -0.01929989  0.02297502 -0.16561706  0.00786579
  0.02727528 -0.10668041 -0.07479455 -0.05310775  0.22021465  0.10361011
 -0.10546148 -0.07472876  0.12250455 -0.15926535 -0.04793669  0.01091774
 -0.17534809 -0.17971754 -0.33480904  0.00377711  0.36523676  0.0683983
 -0.22507332  0.01559981 -0.06047001 -0.0053627   0.1718719   0.14136904
 -0.01246621  0.05357604 -0.12560207  0.01376025  0.16448937 -0.10765715
 -0.02480411  0.21885458 -0.0462127   0.09707069  0.03790555  0.002495
  0.00375504  0.0141964  -0.12924097 -0.0125588   0.10377635 -0.06751763
  0.0014586   0.06313351 -0.14763783  0.03096258  0.05314622  0.03029146
  0.06334505 -0.08335567 -0.12787937 -0.08494921  0.13934454 -0.17046808
  0.21726763  0.22037888 -0.00896694  0.1245445   0.07889783  0.06208707
 -0.03627725 -0.03470626 -0.14201568  0.02368325  0.08212902  0.00893178
  0.04644971 -0.02842821]