[-0.09003876  0.12331791  0.1207326  -0.03107405 -0.13402231  0.00866576
 -0.0106236  -0.06644649  0.14778693 -0.06074784  0.26456055 -0.00215574
 -0.24985586 -0.05294093  0.02151004  0.21312061 -0.14080927 -0.14839824
 -0.0986575   0.010497   -0.00343066  0.09260567  0.04581865  0.0586968
 -0.13497415 -0.40270981 -0.0625547  -0.04734499  0.01486764 -0.09122707
 -0.09341108  0.1088867  -0.12125094 -0.03775943  0.11400366  0.09927087
 -0.08635155 -0.1188867   0.18062493  0.05117339 -0.26686373  0.00165105
  0.03111004  0.31106478  0.27044302 -0.009128    0.04192843 -0.14260748
  0.15981244 -0.24993587  0.03427289  0.16916734  0.05730861  0.05833686
  0.0458415  -0.09117796 -0.02858957  0.12544696 -0.1552147  -0.0366125
  0.06949861 -0.07965537 -0.03167307 -0.14960304  0.15206993  0.08731635
 -0.15327986 -0.11931226  0.11871278 -0.15846263 -0.07819803  0.0493525
 -0.19096699 -0.19353443 -0.27883381  0.00212813  0.36891004  0.11449526
 -0.19750807 -0.01191887  0.00975758  0.02361107  0.05203701  0.190111
 -0.0628106  -0.0014959  -0.05822032  0.04115274  0.24186181 -0.06888407
  0.01921229  0.27378577  0.00822267  0.04570605  0.06653423  0.0661863
 -0.04916138 -0.01141915 -0.16515116 -0.01957065  0.00531956 -0.04953185
  0.02680542  0.13486411 -0.16928713  0.1485246   0.00092471  0.0632041
  0.08588758 -0.05053619 -0.06637977 -0.11101716  0.13165806 -0.17907813
  0.13175385  0.17746057  0.01229232  0.08153997  0.07192692  0.0841074
 -0.03608735 -0.03041365 -0.14741822 -0.01122633  0.11684852 -0.01989507
  0.01394171 -0.04979027]