[-0.09406716  0.05469598  0.07935433  0.00702263 -0.02884665 -0.11177496
 -0.03057525 -0.07094177  0.10144823 -0.0107153   0.28919956 -0.06156273
 -0.16441971 -0.12531687 -0.03217677  0.14719458 -0.16740201 -0.06894283
 -0.0890357  -0.02463978  0.05216305  0.01210213  0.07716452  0.04192851
 -0.02804478 -0.40512821 -0.10823367 -0.13757733  0.13343687 -0.09274534
 -0.08171465  0.03484685 -0.11736875 -0.08155651  0.04074002  0.05528022
 -0.01934763 -0.07895931  0.20191617  0.04290272 -0.15094863  0.00911596
 -0.01800373  0.29313743  0.25876141  0.10224189  0.048663   -0.07630359
  0.10698644 -0.20203784  0.07792645  0.12638199  0.10452326  0.01736341
  0.11420279 -0.09885606 -0.01243106  0.02938384 -0.15882261  0.03704911
  0.03672048 -0.06935401 -0.02952908 -0.08685725  0.1588596   0.07099766
 -0.08491703 -0.06812861  0.14910828 -0.15036066 -0.04577799  0.00738344
 -0.15779102 -0.15406711 -0.29792449  0.0214244   0.39206967  0.13226509
 -0.18288711  0.0431046  -0.01375463 -0.00808298  0.124343    0.09991922
 -0.07298853  0.0096751  -0.12154839  0.01385278  0.12904564 -0.0828267
 -0.04645345  0.157075   -0.08560988  0.07677262  0.04953707  0.0064736
 -0.04560751  0.02208052 -0.11065769 -0.02474487  0.10863485 -0.043245
  0.0188983   0.04194028 -0.12261532  0.03571409 -0.00062365  0.00908746
  0.02480821 -0.03083544 -0.11775357 -0.02669105  0.13613001 -0.18050638
  0.22715043  0.2097982   0.01181149  0.10984106  0.07881872  0.04711578
 -0.01430825 -0.02851664 -0.12179507 -0.05131583  0.03487337  0.06022966
  0.05455143 -0.00383484]