[-0.1398946   0.0828658   0.07622524 -0.03418038 -0.08471254 -0.08504754
  0.00617876 -0.16281644  0.19162045 -0.09037112  0.22599149 -0.07567573
 -0.20521103 -0.1033805  -0.0376723   0.2339607  -0.20996939 -0.14695676
 -0.01122621  0.04890974  0.1482003  -0.05490622  0.02774942  0.06354386
 -0.13192661 -0.37343094 -0.14415069 -0.07541893  0.02620873 -0.05036442
 -0.07265183  0.07823177 -0.17772534 -0.06557977  0.01210673  0.08913775
 -0.04350924 -0.12847085  0.1466749  -0.03133845 -0.28264782  0.03843844
  0.05023674  0.20767796  0.20761739  0.01864016  0.0535147  -0.14849627
  0.11364106 -0.14671101  0.00284359  0.12851055  0.0596284   0.08419745
  0.06437238 -0.09574805  0.03393508  0.08332133 -0.18656531 -0.01777835
  0.0936663  -0.10440855  0.00820799 -0.09576955  0.15445404  0.10077343
 -0.06907337 -0.16016142  0.18412404 -0.14114313 -0.06369968  0.04131265
 -0.15751919 -0.21632682 -0.2458881  -0.01190815  0.35814855  0.13446413
 -0.16796981  0.09141407 -0.01973234 -0.00714355  0.12475479  0.18094966
  0.05468268  0.05303567 -0.10237765  0.01715176  0.20735757 -0.10369929
  0.03008635  0.25155717 -0.00488266  0.01855547  0.02583413  0.00550376
 -0.06563096  0.10239651 -0.12422494 -0.03258461  0.05723659  0.00070909
  0.00876111  0.05558434 -0.10496636  0.0989143   0.01906461  0.05968554
 -0.01894272 -0.0550802  -0.07441439 -0.03143561  0.06731553 -0.21850662
  0.24264312  0.15679678 -0.01176672  0.09915145  0.04865134  0.09847867
  0.01304635 -0.06695654 -0.16217025 -0.0007702   0.14126013 -0.00538642
  0.06964784 -0.00675029]