[-0.05836356  0.0557945   0.03045228 -0.00961027  0.00710852 -0.07277277
 -0.01377798 -0.12971842  0.09596696 -0.04481073  0.29889637 -0.06425754
 -0.21736358 -0.13910578 -0.0394327   0.1789095  -0.16271344 -0.06678699
 -0.08201291  0.01546518  0.06453907 -0.0351102   0.07037952  0.03488002
 -0.05321196 -0.34700119 -0.09677054 -0.11619719  0.04911582 -0.06935906
 -0.09278043  0.03644293 -0.15783416 -0.07346719 -0.01238553  0.03213322
 -0.00037398 -0.10580696  0.21091734  0.03722634 -0.18304911  0.0067868
  0.01459099  0.24445029  0.20147109  0.03475987  0.04820435 -0.10014077
  0.09386309 -0.18867429  0.04559652  0.0678674   0.08808076  0.02924324
  0.03784248 -0.1505817   0.00884422  0.03719159 -0.14285131  0.01401656
  0.03635439 -0.05682952 -0.02620421 -0.07798387  0.17892073  0.0806134
 -0.09512511 -0.0853316   0.09670055 -0.12861997 -0.03174771  0.01151498
 -0.15793288 -0.18318488 -0.34840012  0.03187856  0.33893749  0.0996049
 -0.19645983  0.02974144 -0.02345642 -0.00794236  0.17566258  0.1115992
 -0.01680209  0.04077625 -0.11913263 -0.01276043  0.18491219 -0.0986272
 -0.06091705  0.18551934 -0.08145952  0.05688901  0.03928872  0.0391066
 -0.03292488  0.04575131 -0.11824284  0.03654127  0.08883115 -0.07560724
 -0.00781415  0.05126119 -0.13873312 -0.00042137  0.01804725  0.00214269
  0.04341151 -0.04262346 -0.15235028 -0.06068813  0.12486301 -0.19221546
  0.21069241  0.21085499  0.02764454  0.09635278  0.11754697  0.07366782
 -0.02841046  0.00644708 -0.15641509 -0.02554494  0.09588663  0.05560421
  0.07211705 -0.01174815]