[-1.33756280e-01  8.61065984e-02  5.52890263e-02 -1.59645174e-02
 -7.25429431e-02 -5.81931584e-02  3.18534411e-02 -1.34059370e-01
  1.68055341e-01 -5.03600016e-02  2.36122489e-01 -5.98982573e-02
 -2.31319025e-01 -1.20404027e-01 -2.65469253e-02  2.41781116e-01
 -2.14692906e-01 -1.44538760e-01  9.53619368e-03  4.53823097e-02
  1.29239723e-01 -2.16543823e-02  1.03868740e-02  7.57126138e-02
 -1.34601951e-01 -3.50474298e-01 -1.09149255e-01 -7.53418207e-02
  3.34597342e-02 -7.70894885e-02 -8.81172419e-02  1.00952663e-01
 -1.74744457e-01 -6.87091351e-02  3.52097824e-02  9.01769921e-02
 -1.20602390e-02 -1.17358424e-01  1.63713053e-01 -2.81434637e-02
 -2.84515947e-01  3.33276652e-02  7.56861418e-02  2.48545676e-01
  1.99253529e-01  7.85551593e-03  2.69202236e-02 -1.12745956e-01
  9.52876136e-02 -1.55493617e-01 -7.89948832e-03  1.18931942e-01
  5.22092283e-02  5.67856431e-02  1.25539741e-02 -1.41986758e-01
 -2.28553149e-03  7.30030388e-02 -1.91740915e-01 -2.26366501e-02
  5.74204437e-02 -1.16414502e-01  2.78145652e-02 -7.99967274e-02
  1.61112875e-01  6.85347021e-02 -7.58426338e-02 -1.77579850e-01
  1.63753226e-01 -1.57456949e-01 -6.10088482e-02  4.84010801e-02
 -1.54315308e-01 -1.97645962e-01 -2.71647304e-01 -1.81041285e-02
  3.47486943e-01  1.00229837e-01 -1.70579866e-01  1.21443927e-01
 -2.84731667e-02 -2.76362542e-02  1.27755716e-01  1.87172979e-01
  7.54124820e-02  5.91152720e-02 -1.17739201e-01  1.62246113e-03
  2.33821020e-01 -8.70766863e-02  1.75030660e-02  2.40169674e-01
 -1.24170240e-02  1.46861598e-02  3.73882614e-02  1.62421465e-02
 -5.41004129e-02  8.85623768e-02 -1.22255981e-01 -3.87719423e-02
  2.86268722e-02 -2.65593119e-02  1.61037929e-02  1.00974672e-01
 -1.44714057e-01  8.98667425e-02  3.89529243e-02  6.64600953e-02
  2.10158523e-05 -3.27285938e-02 -7.43030831e-02 -4.61325571e-02
  7.92488381e-02 -2.39570245e-01  2.45695591e-01  1.67212114e-01
 -6.52707834e-03  9.21076909e-02  5.04702888e-02  8.54621157e-02
  1.21041853e-02 -5.24691045e-02 -1.74725831e-01 -1.13302621e-03
  1.37674615e-01 -3.44402753e-02  9.00224522e-02  2.68819719e-03]