[-0.07128014  0.05352562  0.06844117  0.02004044 -0.03872738 -0.12426577
 -0.04034419 -0.12211167  0.08475293 -0.04183775  0.26567519 -0.07559713
 -0.19331746 -0.15183814 -0.02186137  0.1658428  -0.16150539 -0.05244623
 -0.05474622  0.01858778  0.06727266 -0.01893118  0.07551557  0.0358299
 -0.05847161 -0.3877762  -0.07500001 -0.13312188  0.01365878 -0.03918757
 -0.11741032  0.08457332 -0.15451396 -0.09596489  0.01423813  0.08132303
 -0.00736952 -0.05059934  0.1697702  -0.01307256 -0.20524979  0.01571466
  0.02354249  0.23683348  0.22224109  0.05613788  0.06301868 -0.11432799
  0.10635958 -0.15378428  0.02979298  0.08887657  0.09011576  0.01479877
  0.03562726 -0.13350627 -0.00524735  0.0101005  -0.12565194 -0.00049626
  0.05462521 -0.06949808 -0.04775094 -0.07279725  0.21771896  0.0564642
 -0.10448896 -0.08249827  0.10504621 -0.15460515 -0.06144978  0.00865318
 -0.17525917 -0.17879778 -0.35367259  0.01305994  0.3482556   0.07105055
 -0.21679461  0.04986884 -0.04421053  0.01085694  0.16936357  0.15432316
  0.0005748   0.06821339 -0.10816322 -0.00390249  0.1890472  -0.12868683
 -0.04497466  0.18040578 -0.04337966  0.08854844  0.03603043 -0.00360895
 -0.0159824   0.03978616 -0.15275022  0.02020619  0.10649095 -0.05798209
 -0.01207349  0.05187694 -0.14829998  0.00488113  0.02691934  0.02713959
  0.06531092 -0.04029261 -0.15009634 -0.09474573  0.12287243 -0.19183274
  0.22415438  0.20456539  0.04300057  0.11197599  0.11045348  0.06619912
 -0.00857386 -0.00311181 -0.15163559 -0.0132097   0.12040742  0.05024424
  0.06329047 -0.01279157]