[-0.08587369  0.14723338  0.07664584 -0.0678056  -0.06213751 -0.02182809
 -0.00393847 -0.13939632  0.15788163 -0.02908639  0.29074469 -0.05903916
 -0.27609181 -0.07516309 -0.00679128  0.22872844 -0.17955437 -0.14157717
 -0.08256716  0.01707806  0.03001941  0.02102601  0.04932816  0.07448415
 -0.15950847 -0.33544272 -0.06569871 -0.04908588  0.01023477 -0.03896594
 -0.08048384  0.03823147 -0.18174748 -0.06658819  0.13223785  0.10496296
 -0.01346746 -0.12739848  0.19338074  0.01314859 -0.27155262  0.01110253
  0.07014768  0.26870438  0.21263106 -0.01302891  0.01415245 -0.16359375
  0.14910468 -0.19670013  0.00651778  0.13625787  0.0738959   0.03087284
  0.00968843 -0.13525259  0.00416101  0.17090257 -0.1863759  -0.10442233
  0.062973   -0.08202381 -0.03275524 -0.1364506   0.19636106  0.07095929
 -0.17233483 -0.12121763  0.10980923 -0.09307914 -0.01697288  0.0434486
 -0.16146116 -0.17747767 -0.29980659 -0.02173445  0.36809984  0.08344075
 -0.2201304   0.06595138 -0.06251676  0.04143327  0.05441479  0.17363028
 -0.01486276  0.08801804 -0.06987026  0.01270209  0.20271336 -0.09366013
  0.0534077   0.27588376 -0.02399383  0.0540788   0.03994982  0.02993814
 -0.10131365 -0.0049139  -0.14239469 -0.04065805  0.00252994  0.01407512
  0.06098378  0.1173142  -0.23650102  0.09376396  0.04576522  0.03994346
  0.07952913 -0.0605247   0.01594817 -0.12124927  0.10018313 -0.2762008
  0.12927991  0.16261695 -0.01115051  0.09893865  0.0764363   0.04632226
 -0.01561472 -0.00773077 -0.16252401  0.00783336  0.12173032 -0.04929845
  0.07927211 -0.04960525]