[-1.13897301e-01  5.31392694e-02  9.70081687e-02  1.44809801e-02
 -2.10376233e-02 -1.16583467e-01  4.46108356e-03 -1.13121204e-01
  9.60596427e-02 -3.05356774e-02  2.99245775e-01 -2.60007866e-02
 -1.83879778e-01 -1.92340627e-01  4.40065116e-02  1.28878176e-01
 -1.47368431e-01 -5.85761443e-02 -5.29202819e-02 -2.01431271e-02
  5.52027635e-02 -4.71669473e-02  4.87661771e-02  7.18302354e-02
 -6.47360608e-02 -3.40190738e-01 -8.33479166e-02 -1.61927849e-01
  4.46766429e-02 -7.83958584e-02 -7.33154565e-02  6.14503212e-02
 -1.33866265e-01 -6.55765533e-02 -5.46029918e-02  6.13677576e-02
  5.01328323e-04 -5.10201938e-02  2.02483371e-01 -2.40027811e-02
 -1.75904915e-01 -5.68221807e-02 -2.58115362e-02  2.15870455e-01
  2.32021615e-01  8.88480153e-03  3.98894884e-02 -1.44462741e-03
  1.01104140e-01 -2.09427580e-01  6.62883511e-03  1.04418017e-01
  1.18222438e-01  1.55630265e-03  2.79798508e-02 -1.49714947e-01
 -2.83747744e-02  3.43161784e-02 -1.66557118e-01  3.24055515e-02
 -1.14441756e-02 -1.37169942e-01 -8.06113034e-02 -3.26196253e-02
  2.03736857e-01  1.26822039e-01 -9.14484635e-02 -6.91995770e-02
  1.42656222e-01 -1.48678899e-01 -4.67874594e-02  3.46157625e-02
 -1.89603075e-01 -1.87685430e-01 -3.04496258e-01  4.63064201e-02
  3.28875721e-01  7.68437609e-02 -2.26722881e-01  2.14252304e-02
 -7.82385543e-02  2.01124903e-02  1.30311951e-01  7.87337795e-02
 -2.47652587e-02  2.97391508e-02 -1.35565296e-01  2.99959269e-04
  1.50592834e-01 -9.22122747e-02 -2.89759673e-02  1.93849653e-01
 -6.05827644e-02  9.11235437e-02  3.35541628e-02 -2.50176769e-02
  4.21729721e-02  2.96325982e-02 -1.17832616e-01  2.98703015e-02
  1.33197173e-01 -9.71896276e-02  8.87032505e-03  2.90940888e-02
 -1.60255849e-01  1.41200861e-02  4.73712012e-02  3.36222015e-02
  4.38430421e-02 -4.71939668e-02 -1.65017530e-01 -5.13483994e-02
  1.78135023e-01 -1.70963064e-01  2.58940190e-01  2.15418339e-01
 -5.91460010e-03  1.14916734e-01  8.49252790e-02  5.90143017e-02
 -2.51797866e-02 -5.54725006e-02 -1.24632739e-01  7.16736121e-03
  1.13164820e-01  6.74273772e-03  4.35868539e-02 -1.10202609e-02]