[-1.18595056e-01  7.67924562e-02  5.46984375e-02 -1.01509960e-02
 -8.90839919e-02 -5.83678186e-02  2.23170910e-02 -1.54713809e-01
  1.74486935e-01 -5.04460819e-02  2.35230014e-01 -5.40358126e-02
 -1.86192080e-01 -1.46160990e-01 -1.68749578e-02  2.11383581e-01
 -2.09929824e-01 -1.50702223e-01  2.02066135e-02  4.45542447e-02
  1.35200277e-01 -5.03041260e-02  1.67035516e-02  7.64093548e-02
 -1.33327976e-01 -3.54326576e-01 -1.33574352e-01 -8.01180005e-02
  5.32512143e-02 -7.02168271e-02 -6.38051555e-02  1.08023070e-01
 -1.76385000e-01 -8.03978741e-02  2.59239431e-02  9.06634703e-02
 -1.38271078e-02 -1.10995449e-01  1.41759589e-01 -2.86552440e-02
 -2.63422042e-01  3.17731947e-02  6.11797236e-02  2.29153082e-01
  1.97143987e-01  1.78767778e-02  5.00756279e-02 -1.29972011e-01
  1.01127110e-01 -1.09295145e-01 -2.01213057e-03  1.32757962e-01
  7.81994686e-02  6.42693043e-02  3.55087034e-02 -1.28249675e-01
  1.80767681e-02  5.65501414e-02 -1.86016992e-01 -8.52595642e-03
  6.66392818e-02 -1.03537835e-01  3.20362858e-02 -8.53455290e-02
  1.56573310e-01  6.67474791e-02 -5.63169196e-02 -1.78961113e-01
  1.75926611e-01 -1.33865342e-01 -7.21207336e-02  5.48502579e-02
 -1.68392852e-01 -1.97100207e-01 -2.63252705e-01 -9.31511167e-03
  3.60297471e-01  1.08494356e-01 -1.77208945e-01  1.04907691e-01
 -2.74241660e-02 -2.24009473e-02  1.12578034e-01  1.93071112e-01
  6.17975965e-02  5.29395416e-02 -1.15010262e-01  8.61894060e-03
  2.00117514e-01 -8.44818875e-02  1.77761298e-02  2.22801253e-01
 -1.50767118e-02  2.06931066e-02  3.76368724e-02  9.83162876e-03
 -6.00853749e-02  1.23537518e-01 -1.12379752e-01 -4.33345437e-02
  3.86978909e-02 -1.62338335e-02  3.00689433e-02  7.98910782e-02
 -1.15702562e-01  9.44027230e-02  3.38444971e-02  6.55636489e-02
 -1.93747859e-02 -4.31755856e-02 -7.71144852e-02 -3.03708594e-02
  7.88586959e-02 -2.42744327e-01  2.52198786e-01  1.51605070e-01
 -5.61566185e-03  9.99798700e-02  4.58832197e-02  1.13458335e-01
  4.04403126e-03 -6.83845952e-02 -1.48997709e-01  1.05165699e-02
  1.17334127e-01 -3.63212414e-02  7.48059973e-02  3.20477033e-04]