[-0.06941421  0.07165387  0.05632988 -0.00139819  0.00909609 -0.05777146
 -0.00705651 -0.11145964  0.09776919 -0.01861925  0.29630217 -0.04930346
 -0.20028582 -0.13171498 -0.03887127  0.17289673 -0.1389751  -0.0845134
 -0.07122862  0.00086645  0.05591311 -0.06035033  0.04768478  0.03259914
 -0.07050326 -0.31728414 -0.06663223 -0.11151543  0.0417009  -0.08667113
 -0.08970419  0.05104124 -0.17849286 -0.06657188 -0.01951971  0.04109572
  0.01160749 -0.08722754  0.21023528  0.02152932 -0.17478099 -0.01479577
  0.00695398  0.256028    0.20257793  0.0184911   0.0551527  -0.09086167
  0.09316982 -0.17992687  0.05101466  0.06800388  0.10937762  0.03997395
  0.01226889 -0.16303377  0.00148063  0.01639763 -0.14095126  0.01078423
  0.0362426  -0.05520808 -0.03098883 -0.09255629  0.1916573   0.07797392
 -0.08935425 -0.10892405  0.099512   -0.11034556 -0.02168274  0.02997105
 -0.15300451 -0.17579238 -0.35176694  0.05142654  0.3319695   0.09800092
 -0.21087272  0.02278119 -0.05916065 -0.00650901  0.14661096  0.08070195
 -0.02690478  0.06373738 -0.12008779 -0.01172112  0.19912921 -0.09485894
 -0.07207859  0.1513326  -0.075789    0.02757873  0.02390559  0.04458034
 -0.02912634  0.06964198 -0.12626159  0.02760516  0.06840308 -0.0737938
  0.00561021  0.06419641 -0.1607133   0.00876103  0.02125244  0.00796172
  0.02402472 -0.02259166 -0.17197531 -0.07468104  0.13094941 -0.20750375
  0.20217088  0.20300789  0.0362332   0.09422231  0.11954405  0.08891435
 -0.02412768  0.01206137 -0.1290285  -0.01565499  0.10245069  0.0604407
  0.07582894  0.01087843]