[-3.16857807e-02  1.36876538e-01  8.88441429e-02 -3.47154848e-02
 -8.40370953e-02 -1.65675841e-02 -5.47859399e-03 -1.92093208e-01
  1.43663138e-01 -9.22407731e-02  2.51840115e-01 -3.49569619e-02
 -2.29208991e-01 -9.91209373e-02 -3.52726243e-02  2.18735620e-01
 -2.35978156e-01 -1.56968161e-01 -3.01172622e-02 -1.39390109e-02
  4.31450009e-02  5.10437274e-03  2.56802980e-02 -2.21546739e-02
 -6.45613819e-02 -3.53146642e-01 -9.67730209e-02 -6.73600361e-02
  1.07201479e-01 -3.28876339e-02 -1.02336816e-01  5.59676252e-02
 -1.63051412e-01 -8.26494917e-02  1.09787755e-01  6.38668761e-02
 -5.24425395e-02 -7.88757727e-02  1.79810062e-01  1.20372754e-02
 -2.32801273e-01  7.20662549e-02  7.14805946e-02  2.33911425e-01
  2.38347679e-01  5.95139563e-02  1.66548640e-02 -1.28078327e-01
  1.39911637e-01 -1.64917588e-01 -1.94391739e-02  1.41363785e-01
  8.83984938e-02  5.18633537e-02  8.63453466e-03 -1.78398073e-01
 -1.25149488e-02  6.86800554e-02 -1.77011594e-01 -6.24319427e-02
  9.81256217e-02 -1.08847655e-01 -1.41184554e-02 -3.46967280e-02
  1.72407433e-01  4.86628711e-02 -9.28995684e-02 -1.93734035e-01
  1.86708733e-01 -1.51197448e-01 -5.22771589e-02  8.15251376e-03
 -1.58254236e-01 -1.05452873e-01 -2.36203119e-01 -4.84692268e-02
  4.29828733e-01  5.97167723e-02 -1.44046232e-01  5.51463366e-02
 -5.79957552e-02 -3.74044548e-03  1.01799086e-01  1.51545376e-01
  2.12717503e-02  4.19199088e-04 -7.61126652e-02 -5.76554798e-02
  1.88930511e-01 -1.02217615e-01  2.12858687e-03  1.88882336e-01
 -2.04519350e-02  9.52387378e-02  3.02167330e-02 -9.16890986e-03
 -9.09682363e-02  5.33941351e-02 -1.56952754e-01 -6.23231046e-02
 -9.22881067e-02 -1.67086609e-02  1.90359354e-02  1.45755485e-01
 -1.69729277e-01  1.25072420e-01  1.41738234e-02  5.54118752e-02
  9.78608802e-03 -2.30095554e-02 -6.05214527e-03 -6.86677843e-02
  8.13505575e-02 -2.64646947e-01  1.98184058e-01  2.38295361e-01
  4.69168136e-03  8.29350054e-02  6.38369769e-02  3.33462805e-02
  3.16890739e-02 -1.07476749e-02 -2.28558227e-01 -6.84924200e-02
  3.51595357e-02 -5.72360940e-02  9.66300815e-03 -2.26005260e-02]