[-0.03684727  0.08140705  0.06831654 -0.03575697 -0.15259278 -0.00404078
  0.00132262 -0.15251009  0.1183622  -0.1315823   0.17229421  0.004652
 -0.21302812 -0.06083867  0.04674603  0.18427898 -0.15928026 -0.18613701
 -0.05515163 -0.04959533 -0.01929645  0.04533173 -0.00100167  0.00495928
 -0.11966697 -0.33298942 -0.0844512  -0.06920557  0.0957708  -0.030788
 -0.08751952  0.09909675 -0.12501784 -0.05226618  0.11870924  0.11976745
 -0.03109704 -0.06041965  0.15691884  0.04193022 -0.24272715  0.04565716
  0.07563508  0.26040146  0.23413484  0.04957163  0.05111824 -0.08508035
  0.11797857 -0.2245065   0.06283972  0.06941143  0.06457209  0.04010653
  0.07765508 -0.22925599 -0.01656797  0.05450721 -0.18531413 -0.00921375
  0.07619109 -0.07855635 -0.02488861 -0.03508812  0.21125208  0.10060558
 -0.06781775 -0.177756    0.22347037 -0.20754968 -0.09007563  0.01732545
 -0.12368025 -0.07762849 -0.2433871  -0.03268636  0.40627024  0.12399047
 -0.1886431   0.03422134  0.00258456 -0.00232655  0.13686983  0.14277303
  0.02663304 -0.02108473 -0.06595498 -0.04445164  0.22540925 -0.05628384
 -0.00794784  0.18892068  0.03457184  0.04593258  0.07634614  0.00294735
 -0.08970878  0.0041339  -0.18519242 -0.07902535 -0.05328517 -0.02916766
  0.01274224  0.17268629 -0.18510477  0.1807465  -0.0142573   0.00194463
 -0.01397882 -0.00064527 -0.02431656 -0.0413319   0.11282518 -0.24974604
  0.17484918  0.22351603 -0.01829193  0.10842752  0.03717723  0.03552261
  0.04863901 -0.01703752 -0.21642819 -0.08765637  0.02319473 -0.0993991
 -0.00806622  0.03891517]