[-0.03896341  0.1015318   0.03318426 -0.0536292  -0.06986981 -0.01875937
 -0.01577183 -0.20086713  0.16825564 -0.10614425  0.22540049 -0.01042507
 -0.21812811 -0.1094171  -0.0144146   0.20216437 -0.22960098 -0.17979357
 -0.01259165 -0.02311934  0.03412681 -0.00478745  0.02874037  0.01205721
 -0.05020445 -0.34365201 -0.10940833 -0.0551135   0.11234882 -0.02435835
 -0.08849754  0.07355428 -0.17138045 -0.06598125  0.09388836  0.05946083
 -0.03178415 -0.08611449  0.18319808  0.02540328 -0.22710581  0.05461602
  0.07512584  0.23600812  0.23432748  0.07164139  0.0149601  -0.13379417
  0.12949605 -0.16902228  0.01205842  0.14629473  0.07809682  0.03854753
  0.0114901  -0.21145891 -0.00881819  0.05173301 -0.16868024 -0.03861088
  0.06159921 -0.05481773 -0.0198679  -0.02160395  0.1911124   0.09052008
 -0.08402081 -0.19348645  0.19315076 -0.16218066 -0.06277227  0.02581893
 -0.17104614 -0.13240735 -0.22075498 -0.03830343  0.41231203  0.06351507
 -0.14960781  0.0634459  -0.03001624 -0.00356934  0.13245775  0.15174557
 -0.00449103 -0.0175254  -0.07449631 -0.06186754  0.21124692 -0.06867273
 -0.0315479   0.1980696  -0.00937629  0.07482996  0.0460867   0.02745969
 -0.05119909  0.05914282 -0.17810148 -0.08310678 -0.03427136 -0.01318901
  0.00767492  0.15662847 -0.17724195  0.11111689  0.02638994  0.04244759
  0.02229057  0.0017829  -0.02284001 -0.07756054  0.07520785 -0.25591862
  0.21745768  0.23427124  0.01163328  0.09609424  0.04775084  0.06204895
  0.04257111 -0.02627146 -0.19819352 -0.06325682  0.03841469 -0.03335628
  0.00626499 -0.00902765]