[-0.09485599  0.13432553  0.05370233 -0.06064283 -0.10980131 -0.06770822
 -0.03990649 -0.19874068  0.1518539  -0.11151142  0.25929451 -0.07454349
 -0.2666398  -0.1128801  -0.04544127  0.22908317 -0.21685739 -0.16715194
 -0.05153786 -0.00855182  0.03122193 -0.01871691  0.04799541  0.02267095
 -0.0953581  -0.3879796  -0.10186999 -0.0641617   0.05888763 -0.04478442
 -0.07387804  0.07692408 -0.18172961 -0.08515526  0.09851767  0.15329529
 -0.01732899 -0.06014625  0.20004085 -0.03386557 -0.29447609  0.00218774
  0.13906322  0.22836128  0.20651574  0.05345486  0.03096597 -0.13748297
  0.11074226 -0.16361962  0.01707126  0.11766255  0.11782444  0.01267659
  0.02186628 -0.23277889 -0.0291703   0.10094829 -0.18314013 -0.10298536
  0.09449895 -0.09743375 -0.06985556 -0.04614345  0.23976366  0.10255712
 -0.13101901 -0.16315201  0.22806382 -0.1596608   0.00215763  0.06067929
 -0.13071948 -0.13108674 -0.26610065 -0.07602801  0.42817545  0.03290117
 -0.15771301  0.05070664 -0.07568868 -0.01106504  0.07413116  0.15009435
  0.00754454  0.05362317 -0.10207241 -0.02338999  0.19139141 -0.10435631
  0.03174188  0.16127463  0.01396046  0.08142524  0.03584247  0.01169755
 -0.12060771  0.01186058 -0.19315211 -0.05291222 -0.06001407 -0.0104039
 -0.01257356  0.09536278 -0.17115325  0.0943305   0.06574041 -0.00693867
 -0.00787903 -0.0317234  -0.00176664 -0.10740625  0.11129835 -0.28396669
  0.17881547  0.19962926 -0.02534633  0.15176509  0.09552661  0.06787801
  0.03753221 -0.05626366 -0.2092943  -0.05459953  0.05321795 -0.0846796
  0.06414191 -0.0202149 ]