[-0.0355401   0.07913728  0.06638578 -0.03520658 -0.11887658 -0.01732283
 -0.00336542 -0.16575891  0.13757828 -0.0912108   0.19433032  0.00835101
 -0.21719061 -0.10457158  0.01120395  0.20073171 -0.19477881 -0.17822318
 -0.0254958  -0.03071686  0.01981965  0.00935846  0.02800742 -0.01822815
 -0.08593325 -0.36952314 -0.09761853 -0.07732975  0.09504268 -0.04418582
 -0.07996541  0.07272583 -0.15839629 -0.07477564  0.10344372  0.07781709
 -0.0453257  -0.06752541  0.17316173  0.0250432  -0.24303329  0.05272439
  0.07662807  0.24308172  0.24977684  0.06647886  0.03667071 -0.09137773
  0.13212095 -0.18116057  0.0223642   0.10831442  0.07601648  0.03690055
  0.03535862 -0.19096525 -0.00679376  0.05467279 -0.19394831 -0.03384117
  0.07742234 -0.06886055 -0.03332258 -0.01358062  0.19822527  0.06276291
 -0.08175348 -0.18393105  0.19178596 -0.17534494 -0.06109953  0.00690304
 -0.16850874 -0.11113298 -0.23851195 -0.04448656  0.40120044  0.0746429
 -0.16245641  0.05505934 -0.03136369  0.0133655   0.12128756  0.13340157
  0.02378763  0.00504689 -0.07515816 -0.04643289  0.19484651 -0.07656502
 -0.01781034  0.19265321  0.00063308  0.07813275  0.05003522  0.01318362
 -0.0744748   0.04024341 -0.180867   -0.09004433 -0.03051025 -0.00498629
  0.03133995  0.15639536 -0.17497857  0.15086445  0.00525511  0.05719577
  0.00443026 -0.01573475 -0.03474575 -0.06011451  0.08926254 -0.24778619
  0.20752101  0.24126494 -0.01578854  0.08202519  0.05314175  0.01396964
  0.03282139 -0.01861854 -0.2251737  -0.05642574  0.0339676  -0.06546471
  0.01639521  0.00838718]