[-0.01836048  0.09785464  0.00512423 -0.06355983 -0.07500291 -0.02075761
 -0.00282674 -0.20179832  0.1649328  -0.11170767  0.2276419  -0.0135152
 -0.24135165 -0.09663112 -0.0071853   0.19041778 -0.23176573 -0.17049089
 -0.02299557 -0.01550483  0.03181911 -0.01985969  0.01795818  0.01769286
 -0.03719575 -0.3629216  -0.13557418 -0.06737176  0.10031696 -0.02934922
 -0.07823274  0.07530033 -0.15103355 -0.06504487  0.08827948  0.03185449
 -0.04078741 -0.08054418  0.16996424  0.04843344 -0.21313901  0.04185935
  0.05726854  0.24161504  0.24038859  0.06574918  0.02769449 -0.11515354
  0.10282874 -0.19561769  0.01739739  0.12006433  0.08846435  0.04948274
  0.0010644  -0.20802787 -0.01920485  0.05862473 -0.20238478 -0.02529097
  0.06665858 -0.08448275 -0.04727024 -0.0063106   0.20660193  0.13089739
 -0.09418358 -0.19541834  0.20888662 -0.18843019 -0.05838863  0.00496912
 -0.15852533 -0.12780119 -0.20767494 -0.03450409  0.40561819  0.07245207
 -0.14669167  0.0296236  -0.06064641  0.00375806  0.11808248  0.12321513
 -0.00591386 -0.0371612  -0.07597542 -0.06034851  0.19893375 -0.07820457
 -0.03282315  0.21530454 -0.02066856  0.07134413  0.05950704  0.03093365
 -0.05135446  0.03867128 -0.1690799  -0.08006854 -0.05085408 -0.03859897
  0.00061724  0.14862202 -0.17358422  0.12719585  0.01478542  0.02917916
  0.02063536 -0.02066409 -0.02539685 -0.07868814  0.09309785 -0.26317468
  0.20700307  0.23958676  0.02366685  0.10305818  0.02042689  0.04559433
  0.03424146 -0.05721421 -0.21480422 -0.05194582  0.03422523 -0.0276073
 -0.02350381 -0.02328304]