[-0.03572499  0.10452942  0.03222766 -0.04944884 -0.07599813 -0.01158792
 -0.02244714 -0.19914405  0.16658975 -0.11984105  0.22752893 -0.00176283
 -0.21821046 -0.1094078  -0.01511842  0.21578939 -0.2337573  -0.18665476
 -0.01807241 -0.01890059  0.03226895 -0.00275321  0.02882924  0.00198587
 -0.05182003 -0.35062945 -0.10399763 -0.05632832  0.09680549 -0.02272673
 -0.0847559   0.07426339 -0.16683833 -0.0562683   0.09208599  0.05429764
 -0.02936597 -0.08256828  0.18465064  0.02635144 -0.23678115  0.06403179
  0.07285886  0.22686295  0.23399726  0.06662541  0.01879454 -0.14262934
  0.13311304 -0.17406759 -0.00264619  0.14242084  0.07109943  0.03821116
  0.0066577  -0.20674847 -0.00321759  0.05487499 -0.16917475 -0.04907782
  0.06019632 -0.05646237 -0.02177128 -0.01895717  0.19869624  0.08870478
 -0.08635001 -0.19045787  0.1866103  -0.15895469 -0.06438159  0.02953436
 -0.17357729 -0.14080368 -0.22510235 -0.03944773  0.4146913   0.06611043
 -0.14830749  0.06254382 -0.02346386  0.00503299  0.13700597  0.15404446
 -0.00840821 -0.01895791 -0.07231577 -0.0601164   0.21756311 -0.06711299
 -0.03375877  0.20092463 -0.00578924  0.08434155  0.04626933  0.02671057
 -0.0413089   0.05040458 -0.1805426  -0.08162898 -0.03941293 -0.00786309
  0.00497217  0.15279211 -0.16898756  0.10550932  0.01475452  0.04434099
  0.01920749  0.0034045  -0.01752531 -0.0745857   0.07269841 -0.25009504
  0.21383522  0.23771751  0.00990852  0.09566946  0.05577086  0.05824139
  0.02677769 -0.02782202 -0.20721678 -0.05930874  0.05027593 -0.03445398
  0.01676248 -0.01737891]