[ 0.00862577  0.11790832  0.11237597 -0.04447466 -0.09486594 -0.00396042
 -0.0417619  -0.18400964  0.12725018 -0.12168568  0.27406466 -0.0324531
 -0.24549918 -0.1250367   0.00950182  0.24200456 -0.22395699 -0.16655098
 -0.04015424  0.01551768  0.02046014 -0.0020258   0.06386515 -0.01783367
 -0.10069074 -0.38452145 -0.08409523 -0.04429026  0.10655997 -0.02429399
 -0.10382348  0.07954109 -0.19779456 -0.06105646  0.09450991  0.09468915
 -0.03881428 -0.09513903  0.16515988 -0.02930743 -0.26076138  0.04851585
  0.06889781  0.17635372  0.21006063  0.06733205  0.0664574  -0.16591181
  0.09658983 -0.18586172  0.0266905   0.10216154  0.03922391  0.03960269
  0.04016699 -0.20459233 -0.03452719  0.11147781 -0.1486669  -0.0587493
  0.06258558 -0.03965197  0.00101454 -0.08618033  0.20735823  0.03807308
 -0.10089495 -0.12561761  0.19982961 -0.12311464 -0.02390141  0.04902713
 -0.13537224 -0.1383362  -0.26202542 -0.04911984  0.4162595   0.07849248
 -0.1833372   0.02773026 -0.01089912  0.00049833  0.12866871  0.14149342
  0.02799778  0.01790363 -0.06652984 -0.01531089  0.22629607 -0.09911116
  0.03227292  0.21525908 -0.00188218  0.07718817  0.03467067  0.01180162
 -0.05104066  0.03390364 -0.20447353 -0.04680917 -0.06017939 -0.0016285
 -0.01036521  0.13408433 -0.14613432  0.08297266  0.03356465  0.00223808
  0.0343321  -0.006704   -0.02142832 -0.11028519  0.09827185 -0.27555719
  0.1771248   0.23859607 -0.01052601  0.10955431  0.05813139  0.09210261
  0.01667427 -0.07005497 -0.20647784 -0.05734059  0.0909908  -0.06362983
  0.03648016 -0.02140127]