[-5.19437306e-02  1.04281127e-01  5.53097092e-02 -4.36869040e-02
 -9.01947916e-02 -1.70808043e-02 -4.94117662e-03 -1.94009706e-01
  1.53455883e-01 -1.15890108e-01  2.30399042e-01 -2.74025109e-02
 -2.39019558e-01 -1.15276039e-01  1.84291285e-02  2.15812206e-01
 -2.11353853e-01 -1.94945425e-01 -5.67997759e-03 -9.84978583e-03
  3.18410732e-02 -1.76982861e-02  2.93905046e-02  8.35616421e-03
 -6.97198063e-02 -3.45480531e-01 -1.06631756e-01 -7.63201267e-02
  9.48446542e-02 -5.13030849e-02 -8.26565027e-02  6.08237684e-02
 -1.64376795e-01 -6.31815791e-02  7.27231205e-02  4.49605137e-02
 -3.55081968e-02 -8.28902200e-02  1.95922643e-01  1.41704110e-02
 -2.53483057e-01  4.63226810e-02  6.01115339e-02  2.37493590e-01
  2.38591462e-01  4.55933250e-02  1.64792724e-02 -1.00848176e-01
  1.20349579e-01 -1.75412804e-01 -9.57622193e-03  1.13893047e-01
  6.85579926e-02  3.01184207e-02  1.41767005e-03 -2.04827458e-01
 -2.16334052e-02  6.13955073e-02 -1.86147079e-01 -3.86145301e-02
  6.81879073e-02 -8.48147497e-02 -1.80282500e-02 -2.56735329e-02
  2.12795690e-01  6.58089444e-02 -8.82420912e-02 -1.82068154e-01
  1.93755254e-01 -1.60781249e-01 -5.24552166e-02  3.19789499e-02
 -1.78923070e-01 -1.30642220e-01 -2.33455136e-01 -3.61423679e-02
  4.01299566e-01  6.11527078e-02 -1.57992408e-01  6.12359419e-02
 -2.57572588e-02  6.78793481e-03  1.15735248e-01  1.59916148e-01
  3.13453488e-02 -3.46136658e-04 -7.34769329e-02 -6.78443387e-02
  2.03855380e-01 -8.12650099e-02 -1.91521682e-02  2.04331204e-01
 -6.48838142e-03  8.04367065e-02  5.05578481e-02  4.18039795e-04
 -4.27208506e-02  2.61644330e-02 -1.82304367e-01 -7.54335001e-02
 -8.19742307e-02 -1.55398315e-02  7.86942337e-03  1.49907604e-01
 -1.63390443e-01  1.22550443e-01  3.02704554e-02  4.37259674e-02
 -1.88474506e-02  6.80878712e-03 -1.59321520e-02 -7.60789663e-02
  7.45365322e-02 -2.59630442e-01  1.94706917e-01  2.41910204e-01
  1.85918901e-02  8.90952870e-02  4.23271470e-02  4.00678776e-02
  2.77275927e-02 -4.53742919e-03 -2.08865076e-01 -4.70316522e-02
  5.68529367e-02 -4.75853682e-02  2.66169198e-02 -1.35828555e-03]