[-2.38326471e-02  1.08321264e-01  1.22304976e-01 -3.21918167e-02
 -1.19701102e-01 -1.20095601e-02 -5.67264631e-02 -1.65465638e-01
  1.23309277e-01 -1.12499416e-01  2.73175299e-01 -9.92908049e-03
 -2.35882357e-01 -1.45359144e-01  1.41901150e-03  2.39693284e-01
 -2.35856220e-01 -1.63955256e-01 -3.43862288e-02 -5.63891744e-03
  3.24498042e-02 -1.15487054e-02  8.87593031e-02 -2.09244471e-02
 -1.02991126e-01 -4.04086024e-01 -8.80529284e-02 -8.48367959e-02
  1.04639612e-01 -3.29966284e-02 -9.14210975e-02  5.58741391e-02
 -1.92519978e-01 -7.68783167e-02  7.99453184e-02  8.85702744e-02
 -4.58992980e-02 -1.11810304e-01  1.83138162e-01 -2.09580697e-02
 -2.40738198e-01  3.13660763e-02  8.28876272e-02  1.92500576e-01
  2.23646313e-01  7.03779757e-02  9.17626172e-02 -1.38729110e-01
  1.09793462e-01 -1.59396783e-01  2.47946959e-02  1.09671846e-01
  6.32007495e-02  2.77448893e-02  5.85383959e-02 -2.00815350e-01
 -3.41455303e-02  1.19994283e-01 -1.62498638e-01 -5.16767502e-02
  5.51200882e-02 -3.44720334e-02 -1.70991179e-02 -9.34296623e-02
  2.22311407e-01  4.77629416e-02 -9.76359919e-02 -1.37448534e-01
  2.13408589e-01 -1.15165353e-01 -2.92502176e-02  4.14847992e-02
 -1.77263975e-01 -1.31233841e-01 -2.66037077e-01 -5.20010665e-02
  4.17973340e-01  6.72230944e-02 -1.56088948e-01  1.79621689e-02
 -1.89185441e-02 -1.19571853e-02  8.70509073e-02  1.57102063e-01
  2.87013482e-02  1.34228496e-02 -6.20268062e-02 -1.66535582e-02
  1.91322044e-01 -1.00511901e-01  2.72694360e-02  1.78861380e-01
  2.33896819e-04  4.64428067e-02  2.56969929e-02 -9.64889117e-03
 -8.29012841e-02  4.46543954e-02 -1.97994694e-01 -5.51387444e-02
 -8.05978104e-02 -1.30198961e-02  6.82115555e-04  1.07079759e-01
 -1.36089131e-01  4.61694486e-02  2.54989397e-02 -1.17116887e-02
 -6.15024765e-04 -2.23646350e-02 -4.91023101e-02 -1.06500462e-01
  9.99550149e-02 -2.62735516e-01  1.83446065e-01  2.52680361e-01
 -1.16661645e-03  1.22631267e-01  6.65619001e-02  9.56569836e-02
  1.01858051e-02 -4.45518792e-02 -1.97670862e-01 -5.36846630e-02
  6.62446171e-02 -5.55791259e-02  4.32396941e-02 -2.05763411e-02]