[-4.49947044e-02  1.14766039e-01  9.49715599e-02 -3.67503315e-02
 -9.15733054e-02 -6.26045018e-02 -5.29434793e-02 -1.94314718e-01
  1.26606032e-01 -6.68272749e-02  2.70955324e-01 -2.25739088e-02
 -2.57191628e-01 -1.50131285e-01 -1.94135513e-02  2.29926690e-01
 -2.42244989e-01 -1.58064365e-01 -4.28014770e-02 -2.42405804e-03
  3.03628128e-02  8.66674911e-03  7.92526752e-02 -3.16143744e-02
 -1.02378719e-01 -3.97817820e-01 -6.86895102e-02 -7.35732689e-02
  7.25213215e-02  1.18067777e-02 -7.17719048e-02  6.03226610e-02
 -2.13219926e-01 -8.60017166e-02  1.08615674e-01  9.92412195e-02
 -5.39444759e-02 -6.82444945e-02  1.86552346e-01 -4.07866128e-02
 -2.43651703e-01  2.84889042e-02  9.33373347e-02  1.87225133e-01
  2.22798020e-01  7.31311366e-02  7.43017718e-02 -1.92945465e-01
  1.12338677e-01 -1.47371471e-01  3.21752913e-02  1.30188987e-01
  5.90225458e-02  1.52632864e-02  5.63160367e-02 -1.89382464e-01
 -3.08334827e-02  1.23275436e-01 -1.75883710e-01 -5.27823046e-02
  1.04458176e-01 -5.28509133e-02 -3.72464582e-02 -1.11835115e-01
  2.07979158e-01  1.61602069e-02 -1.14550225e-01 -1.43473729e-01
  1.85323879e-01 -1.19895779e-01 -2.79879868e-02  4.61685844e-02
 -1.50787100e-01 -1.58936456e-01 -3.07279944e-01 -3.65309604e-02
  4.19666499e-01  4.37259227e-02 -1.40254691e-01  4.30814289e-02
 -1.25585990e-02 -1.17650023e-02  1.21757440e-01  1.18954837e-01
  1.20600611e-02 -2.12225597e-03 -7.54212290e-02 -9.49027389e-03
  2.03201681e-01 -1.02412455e-01  2.19209641e-02  1.62492380e-01
 -3.49529944e-02  6.81744367e-02  9.42666363e-03  4.40764520e-03
 -8.37177932e-02  7.57525489e-02 -1.79108903e-01 -1.43098952e-02
 -4.45988141e-02 -2.07236800e-02  2.68032942e-02  9.49222445e-02
 -1.09832600e-01  2.52835304e-02  3.21492590e-02  1.15086231e-02
  2.43376195e-02 -3.97833027e-02 -7.11792931e-02 -1.23711638e-01
  1.01565421e-01 -2.68226683e-01  2.42410094e-01  2.11120993e-01
  3.67867207e-04  1.17451906e-01  7.63979703e-02  8.75660777e-02
 -2.69069336e-03 -2.50330158e-02 -2.11340740e-01 -3.97680700e-02
  8.57007280e-02 -4.64952253e-02  8.43482539e-02 -1.88474264e-02]