[-0.02905314  0.10914356  0.06929669 -0.03291774 -0.11371084 -0.03510447
  0.00267811 -0.199564    0.14929633 -0.1286387   0.21891819 -0.01678832
 -0.23118928 -0.08742564  0.00224205  0.2208129  -0.19985585 -0.18618716
 -0.04123776 -0.02847338  0.04127827  0.01994808  0.01009475 -0.00603377
 -0.06931578 -0.32806668 -0.10932545 -0.06462761  0.09381883 -0.03650396
 -0.09941521  0.07008877 -0.13776182 -0.08435618  0.09633147  0.0766286
 -0.02328517 -0.08805883  0.17673588  0.02019344 -0.25546318  0.08462279
  0.07574373  0.24218376  0.21925445  0.03949048  0.02980138 -0.12727848
  0.12659457 -0.167401   -0.00950565  0.09846843  0.08928756  0.04688961
  0.02382584 -0.20850085 -0.02179806  0.07313322 -0.19530244 -0.04990941
  0.08169634 -0.08945671 -0.02243332 -0.03962544  0.1935112   0.07554407
 -0.09073087 -0.18060836  0.18156944 -0.17020582 -0.08535599  0.00838684
 -0.16043782 -0.10219727 -0.24383083 -0.04382779  0.41236353  0.06831262
 -0.17473045  0.05768656 -0.02399227  0.0064112   0.12401875  0.16038966
  0.03492719  0.0161799  -0.07327337 -0.0482552   0.19476937 -0.09517878
 -0.00303283  0.20626192  0.01112397  0.09296109  0.04197487  0.01599279
 -0.07267839  0.03582201 -0.17835951 -0.0694714  -0.0575489  -0.00399545
  0.01922581  0.1407883  -0.16368726  0.12660125  0.01757619  0.04060718
 -0.01255894 -0.01116652 -0.0076083  -0.05849454  0.08494502 -0.25828624
  0.1856824   0.24275064 -0.02246814  0.09151316  0.05284102  0.02814761
  0.03364741 -0.02619314 -0.22748557 -0.06011188  0.05991018 -0.05349879
  0.01704986  0.00621372]