[-2.38376297e-02  9.79468897e-02  6.84158579e-02 -2.44612955e-02
 -1.19542085e-01 -2.31423881e-02 -1.90433618e-02 -1.73937827e-01
  1.17169552e-01 -9.33436081e-02  1.96397588e-01 -3.68408370e-03
 -2.04044208e-01 -1.10579625e-01  1.93666350e-02  2.09446624e-01
 -1.94833428e-01 -1.83148012e-01 -2.92846151e-02 -1.88347846e-02
  1.30761787e-02 -9.70700011e-03  2.03465857e-02 -2.34539639e-02
 -7.82874003e-02 -3.62528056e-01 -8.90784264e-02 -7.75307417e-02
  9.18256864e-02 -2.88050175e-02 -9.00077075e-02  7.90876299e-02
 -1.45314708e-01 -8.94003063e-02  1.11315168e-01  9.02118683e-02
 -5.11771925e-02 -7.29798675e-02  1.65247753e-01  6.72341604e-03
 -2.46411845e-01  5.41000441e-02  5.98848946e-02  2.34959036e-01
  2.44218022e-01  6.33446351e-02  5.11905253e-02 -8.86350125e-02
  1.24455176e-01 -1.91018566e-01  1.97207481e-02  9.84604508e-02
  6.77050501e-02  5.62420189e-02  2.21639369e-02 -1.83233425e-01
  8.48704576e-03  5.70897236e-02 -1.97668001e-01 -4.34317887e-02
  9.07503068e-02 -1.01053290e-01 -2.57550273e-02 -1.66875683e-02
  2.10757047e-01  7.31249228e-02 -7.64074326e-02 -1.80563211e-01
  1.91405043e-01 -1.62165180e-01 -7.06881061e-02 -1.34783506e-03
 -1.54464528e-01 -1.12565853e-01 -2.43813545e-01 -2.42017694e-02
  4.04854208e-01  1.03182755e-01 -1.65444762e-01  4.99216095e-02
 -2.22751778e-02  2.13971734e-02  1.26124442e-01  1.43291697e-01
  3.37025411e-02  8.64608865e-03 -7.43284225e-02 -5.36630824e-02
  1.89576969e-01 -8.71144384e-02 -2.45307330e-02  1.89516947e-01
 -3.08757648e-04  8.35800841e-02  5.79012930e-02  1.48710730e-02
 -6.08164929e-02  4.49407920e-02 -1.77424178e-01 -8.39527771e-02
 -1.43823130e-02 -1.90551730e-03  3.77241448e-02  1.56502530e-01
 -1.49689525e-01  1.47014946e-01 -1.43309012e-02  6.66551217e-02
  7.94142671e-03 -1.92354601e-02 -1.54811591e-02 -6.81293234e-02
  8.61541852e-02 -2.40180850e-01  2.00840339e-01  2.44086310e-01
 -7.73523003e-03  9.05129239e-02  6.39186800e-02  2.16536298e-02
  4.09190357e-02 -3.15663554e-02 -2.26985022e-01 -6.40728772e-02
  4.73336466e-02 -4.10132408e-02  1.66822728e-02  1.71819087e-02]