[-0.05870664  0.12808137  0.0971858  -0.06047157 -0.08444659 -0.03691977
 -0.07211813 -0.19368421  0.13482368 -0.0935952   0.23471247 -0.0344933
 -0.23526131 -0.13888337 -0.00830718  0.24363647 -0.25033662 -0.16966732
 -0.05487869  0.00328383 -0.01365142  0.00197584  0.07881258 -0.01762599
 -0.10907549 -0.40502635 -0.09845206 -0.09375908  0.04802047  0.02741824
 -0.0615795   0.05679603 -0.18755487 -0.06989514  0.09978092  0.11365552
 -0.04850309 -0.06797983  0.15342814 -0.05279971 -0.24891277  0.00844996
  0.12607324  0.19293046  0.23808432  0.06758994  0.06852299 -0.1567568
  0.09937306 -0.15156452  0.01680103  0.08989202  0.04619161  0.03441575
  0.07532651 -0.17080837 -0.01054033  0.11741924 -0.16787422 -0.06369468
  0.08477033 -0.0460483  -0.04443562 -0.08306661  0.23759305  0.05887789
 -0.11752637 -0.16415943  0.21918054 -0.1364665  -0.02960311  0.05497932
 -0.13876586 -0.13091153 -0.29720852 -0.07321828  0.44487029  0.04916133
 -0.13624056  0.02780109 -0.02750903 -0.0366296   0.09263998  0.12938198
  0.01159685 -0.00535042 -0.07172715 -0.02166398  0.22607063 -0.08864724
  0.03288253  0.15588541 -0.01283642  0.04968134  0.00826938  0.00557919
 -0.08259183  0.06221463 -0.20486093 -0.03336923 -0.06349918 -0.00353238
 -0.00141177  0.10369784 -0.11880119  0.06609788  0.06050906  0.0008625
  0.01643843 -0.00245949 -0.06030699 -0.11563241  0.12928499 -0.26166686
  0.18453757  0.21239851  0.01064569  0.10568555  0.06531159  0.09159818
 -0.0039582  -0.03267012 -0.22370778 -0.05003936  0.06308861 -0.07171182
  0.0594044   0.00495787]