[-1.47452978e-02  9.46846977e-02  4.51053493e-02 -5.85274212e-02
 -1.06808685e-01 -1.87302046e-02  3.68627463e-03 -1.91050276e-01
  1.43673405e-01 -1.04346216e-01  2.10287049e-01  5.55125950e-03
 -2.21565172e-01 -1.34244606e-01  2.41951328e-02  1.86325476e-01
 -1.93278596e-01 -1.97215736e-01 -1.72582399e-02 -2.05009859e-02
  1.76090077e-02 -8.65168124e-03  2.12910846e-02 -7.20234914e-03
 -6.22459315e-02 -3.37903768e-01 -1.23100393e-01 -6.20971322e-02
  8.31714571e-02 -4.33323048e-02 -7.79812410e-02  6.77423179e-02
 -1.63135648e-01 -8.00895393e-02  9.49893519e-02  6.67475984e-02
 -3.61738317e-02 -6.32436275e-02  1.78796574e-01  2.97207367e-02
 -2.10743055e-01  5.80752492e-02  6.33309707e-02  2.43026450e-01
  2.41313323e-01  7.31745735e-02  4.24684286e-02 -1.13680840e-01
  1.29716843e-01 -1.69773385e-01  4.68222946e-02  1.05703078e-01
  8.15349966e-02  4.08459865e-02  2.21022777e-02 -2.14444861e-01
 -4.08728188e-03  5.68058155e-02 -1.86428577e-01 -1.64647307e-02
  8.56106356e-02 -8.22625980e-02 -3.32489982e-02 -1.72000546e-02
  2.06379816e-01  7.37995282e-02 -7.56597742e-02 -2.12079048e-01
  1.85687885e-01 -1.79221064e-01 -8.18751305e-02  1.29811410e-02
 -1.63951859e-01 -9.98153538e-02 -2.43681714e-01 -2.66804099e-02
  3.98906350e-01  8.50755200e-02 -1.72928974e-01  4.38566431e-02
 -3.12498789e-02  4.34726849e-03  1.29688889e-01  1.39796719e-01
  1.82468984e-02 -1.98382675e-03 -9.76420939e-02 -5.18929362e-02
  2.00145230e-01 -7.22739622e-02 -2.63486113e-02  2.06924424e-01
 -2.37253684e-04  9.99888852e-02  4.89400849e-02  4.60748607e-03
 -5.44004850e-02  6.52933121e-02 -1.69030219e-01 -6.52761832e-02
 -4.43020537e-02 -1.18250465e-02  2.07946412e-02  1.58529386e-01
 -1.61789700e-01  1.46724865e-01 -5.51433442e-03  5.61334752e-02
 -2.89352592e-02 -3.29705216e-02 -2.90840846e-02 -5.41931689e-02
  8.39466453e-02 -2.65864432e-01  1.99748516e-01  2.32245207e-01
  2.87028844e-03  8.71962830e-02  4.88751195e-02  4.04714011e-02
  4.23302539e-02 -3.53746526e-02 -2.33281419e-01 -4.17829864e-02
  3.24965231e-02 -5.10394573e-02  2.52486598e-02  2.53307521e-02]