[-0.04369428  0.08949026  0.08260711 -0.03181028 -0.12894598 -0.02830022
  0.00177346 -0.17441218  0.13352594 -0.08767916  0.20468108  0.03726286
 -0.2271869  -0.13482076  0.03722021  0.18093927 -0.19030835 -0.17751259
 -0.02328941 -0.04986414  0.02985045 -0.00974247  0.03743165 -0.03190355
 -0.07599642 -0.36571005 -0.10493205 -0.08104021  0.09163203 -0.0480481
 -0.0589782   0.05093122 -0.15267354 -0.08564404  0.08580461  0.06448474
 -0.04977902 -0.05890138  0.16087107  0.00570555 -0.2269982   0.04278505
  0.06362792  0.22426112  0.24622352  0.07172479  0.04997126 -0.09588316
  0.13479181 -0.17085767  0.03505918  0.10252777  0.08395879  0.03397927
  0.04554268 -0.19180171 -0.00483253  0.05581752 -0.20676148 -0.03110783
  0.07619857 -0.08379113 -0.04650698 -0.00305907  0.18573073  0.07684006
 -0.0724056  -0.18217671  0.18505464 -0.17661893 -0.06383829  0.02092466
 -0.16750343 -0.10540634 -0.2378155  -0.03629935  0.41300797  0.07027781
 -0.16544075  0.01491725 -0.03725063  0.01653079  0.11900725  0.1207461
  0.00652012 -0.00391311 -0.09206519 -0.03873871  0.1728531  -0.07682727
 -0.02345523  0.19352072  0.01971639  0.0868771   0.05540125  0.02323613
 -0.07023356  0.041302   -0.17581449 -0.0975209  -0.02442617 -0.0166104
  0.03081024  0.13431792 -0.16131862  0.14778607  0.00714488  0.0547002
 -0.01976367 -0.0377069  -0.02506194 -0.05531893  0.08388756 -0.23991311
  0.20767419  0.25070068 -0.02377506  0.09308597  0.03180922  0.01421081
  0.01708259 -0.04827177 -0.20104948 -0.04750632  0.02305689 -0.05659021
  0.02074115  0.00252294]