[-7.73772001e-02  1.55827925e-01  7.02661201e-02 -5.65785468e-02
 -1.14666060e-01 -3.86053659e-02 -3.98926176e-02 -1.99287578e-01
  1.57472119e-01 -1.08850136e-01  2.59225041e-01 -6.22311123e-02
 -2.87609428e-01 -9.91883203e-02 -3.39320116e-02  2.32089028e-01
 -2.07566530e-01 -1.67254135e-01 -5.12525029e-02 -5.35523240e-03
  1.41349575e-02 -5.83016360e-03  5.03540523e-02  1.57343317e-02
 -8.37406367e-02 -3.80427659e-01 -9.85004902e-02 -6.22301660e-02
  4.47097979e-02 -3.23428176e-02 -9.62044597e-02  6.66355416e-02
 -1.75678745e-01 -7.96586052e-02  1.03523411e-01  1.36732459e-01
 -1.90090127e-02 -7.36495852e-02  1.73886359e-01 -3.97928506e-02
 -2.89527893e-01  1.09527837e-02  1.38603151e-01  2.15111300e-01
  1.94757774e-01  4.82494608e-02  3.64417061e-02 -1.41351253e-01
  9.18384790e-02 -1.53308421e-01  2.34471913e-02  1.17157936e-01
  1.11063085e-01  1.15598878e-02  1.39328958e-02 -2.50978053e-01
 -3.88999954e-02  1.02620259e-01 -1.52733088e-01 -8.81480873e-02
  1.06731676e-01 -9.37295556e-02 -7.34054074e-02 -4.72384803e-02
  2.51753181e-01  1.15442671e-01 -1.37078956e-01 -1.83446944e-01
  2.00558901e-01 -1.49278030e-01 -1.32892830e-02  4.50333506e-02
 -1.41950846e-01 -1.24455072e-01 -2.39458799e-01 -6.39819056e-02
  4.17574376e-01  2.27260590e-02 -1.79363638e-01  5.30798025e-02
 -8.44856873e-02  3.29285371e-03  7.03159198e-02  1.66373283e-01
  1.39737045e-02  5.04518822e-02 -1.08186536e-01 -4.06471603e-02
  2.05606341e-01 -1.13851607e-01  3.65551375e-02  1.81514025e-01
  2.65938835e-03  7.56964386e-02  3.25652622e-02  3.35660623e-03
 -1.16861522e-01  2.03141179e-02 -1.87862366e-01 -6.03590123e-02
 -5.48221469e-02 -2.32331939e-02 -2.73879673e-02  9.35376808e-02
 -1.85184941e-01  8.75197724e-02  6.18449710e-02  1.28893480e-02
  2.14820467e-02 -3.43820453e-02 -1.18568540e-04 -1.10729933e-01
  1.24058142e-01 -2.83022016e-01  1.93591610e-01  1.93304583e-01
 -1.28845647e-02  1.47294566e-01  1.05921678e-01  8.38929266e-02
  5.44422641e-02 -4.70223688e-02 -2.10871577e-01 -5.50520495e-02
  6.22916706e-02 -9.55958292e-02  5.04934192e-02 -1.44528439e-02]