[-5.47289215e-02  1.04525082e-01  1.97065081e-02 -5.58222830e-02
 -6.96468353e-02 -1.31202284e-02 -1.77840218e-02 -2.03856975e-01
  1.69722006e-01 -1.15481414e-01  2.36623436e-01 -1.55056641e-02
 -2.26308390e-01 -1.04509093e-01 -2.09790934e-02  2.08204791e-01
 -2.30349049e-01 -1.83721185e-01 -1.53331668e-03 -2.44814921e-02
  4.41065021e-02 -1.45182330e-02  2.09067743e-02  2.45676171e-02
 -5.92686422e-02 -3.31895262e-01 -1.06978156e-01 -6.30568489e-02
  8.22139606e-02 -2.92792171e-02 -8.91891047e-02  7.45330229e-02
 -1.67225346e-01 -5.61284795e-02  7.70991668e-02  5.26891015e-02
 -2.70867087e-02 -8.08323249e-02  1.84136435e-01  2.36293022e-02
 -2.25949332e-01  5.76421209e-02  7.52347782e-02  2.43346691e-01
  2.32173592e-01  6.38049766e-02 -2.60365952e-04 -1.33707598e-01
  1.22097388e-01 -1.67259648e-01  6.77066762e-03  1.37685329e-01
  8.75243172e-02  3.29161882e-02 -5.45581803e-04 -2.15812832e-01
 -7.43757654e-03  3.75837237e-02 -1.67342290e-01 -4.78169769e-02
  5.41085787e-02 -6.21953867e-02 -1.73792951e-02 -3.52150016e-02
  1.98954299e-01  9.55669954e-02 -7.98956305e-02 -1.88137934e-01
  1.86592385e-01 -1.59511372e-01 -6.54668584e-02  3.65233123e-02
 -1.78597674e-01 -1.48830518e-01 -2.22508222e-01 -3.79768610e-02
  3.94778788e-01  7.44474307e-02 -1.56299353e-01  5.87987676e-02
 -2.28932407e-02 -3.95218143e-03  1.34825990e-01  1.48089573e-01
  1.95189647e-03 -1.87921729e-02 -8.24606270e-02 -6.22733124e-02
  2.16695935e-01 -7.33392611e-02 -4.19122092e-02  2.03201294e-01
 -5.71134267e-03  6.94303811e-02  4.91564982e-02  2.10483614e-02
 -4.52065915e-02  5.55799715e-02 -1.84612587e-01 -8.38987902e-02
 -4.81073447e-02 -1.10781621e-02 -3.70563800e-03  1.51013300e-01
 -1.76942766e-01  1.03098862e-01  2.66225822e-02  3.59017625e-02
  1.75637810e-03 -5.97290709e-05 -2.90535521e-02 -7.27831945e-02
  8.00782740e-02 -2.48292834e-01  2.05173925e-01  2.28997022e-01
  2.70911958e-02  1.00238077e-01  4.76874672e-02  5.51431291e-02
  2.48381812e-02 -2.61269044e-02 -2.07359955e-01 -5.06485514e-02
  5.66610955e-02 -3.76369320e-02  2.59973463e-02 -7.71112088e-03]