[-0.08042663  0.14212124  0.0562671  -0.06365593 -0.10933309 -0.06517593
 -0.04425086 -0.20444469  0.15513089 -0.1048159   0.24951033 -0.07398766
 -0.27066243 -0.11324152 -0.04436396  0.22516631 -0.22021823 -0.16925624
 -0.04997223 -0.01469947  0.01919015 -0.01932376  0.05479742  0.01764187
 -0.09592005 -0.37893406 -0.10361763 -0.0659346   0.05711553 -0.03043549
 -0.08386369  0.07905094 -0.18329857 -0.08929259  0.09906509  0.14875986
 -0.02142636 -0.06900459  0.18461132 -0.03569193 -0.28548548  0.00334604
  0.13215102  0.22534814  0.19840376  0.05255725  0.03592607 -0.13645875
  0.10340593 -0.15255582  0.02339032  0.12132519  0.11255747  0.00715423
  0.01326833 -0.2315474  -0.0294891   0.10531193 -0.17584483 -0.09902566
  0.10600244 -0.09883754 -0.07675686 -0.05321833  0.25093469  0.12281082
 -0.12789559 -0.17098756  0.22807507 -0.15447454 -0.00474238  0.04752763
 -0.13456732 -0.11351397 -0.25734833 -0.07978114  0.4225733   0.01979885
 -0.15548299  0.04753368 -0.08660289  0.00050483  0.06877386  0.15055655
 -0.00462937  0.05788833 -0.10319972 -0.03225051  0.19845788 -0.10879203
  0.02676384  0.15888453  0.01168174  0.07389354  0.04052616 -0.00383568
 -0.11806384  0.01157101 -0.19097683 -0.0529058  -0.05590184 -0.02494721
 -0.02083535  0.09850077 -0.1701308   0.0855735   0.06960675 -0.00055788
  0.00802621 -0.03223928 -0.00202804 -0.12056937  0.11940926 -0.27936456
  0.1818528   0.19275515 -0.01218348  0.1473778   0.09423887  0.07954377
  0.03395801 -0.05081489 -0.20703943 -0.05427979  0.0576511  -0.08515054
  0.06015211 -0.01302889]