[-0.02337771  0.11951683  0.06223082 -0.01385328 -0.09984223 -0.03303102
  0.00968394 -0.20382321  0.14343612 -0.09889761  0.21556146 -0.01009196
 -0.23948458 -0.10108105  0.01658905  0.19980626 -0.18082981 -0.19205582
 -0.03669352 -0.03811959  0.03664336  0.01012725  0.01105584 -0.006802
 -0.07761633 -0.3277795  -0.09534575 -0.06662426  0.0930459  -0.04780778
 -0.09519326  0.07844764 -0.15033446 -0.07055162  0.09666234  0.06306127
 -0.02172763 -0.06861534  0.17160726  0.03555719 -0.24776998  0.06013471
  0.07219817  0.24378236  0.23291491  0.04936166  0.03231975 -0.1195124
  0.1314759  -0.1564341   0.0087164   0.11419173  0.09046336  0.03563024
  0.01596789 -0.20922773 -0.0348649   0.05343779 -0.20052858 -0.04499715
  0.08887621 -0.0901598  -0.06261542 -0.03358654  0.18184669  0.0799311
 -0.07653659 -0.18324839  0.18562247 -0.18214077 -0.08739483  0.00902246
 -0.16455972 -0.10648489 -0.23574999 -0.03413968  0.40884629  0.05926536
 -0.17689276  0.06683841 -0.01473273  0.01761884  0.13345371  0.14906929
  0.02403164  0.01750911 -0.07213799 -0.05342985  0.19469295 -0.08873675
 -0.01422642  0.18651541 -0.0016175   0.07779887  0.05349588  0.00283694
 -0.05964817  0.03144721 -0.18380268 -0.09531301 -0.05876253 -0.0071319
  0.01355955  0.12544496 -0.17082989  0.12850086  0.03322478  0.04202009
 -0.00577531 -0.02083507 -0.01318187 -0.0670444   0.07831592 -0.25799316
  0.19710323  0.2266966  -0.01978092  0.09034776  0.04153705  0.04036475
  0.04154725 -0.01912583 -0.20728171 -0.06540387  0.06315214 -0.04754837
  0.01258567 -0.01140311]