[-0.02412     0.10951074  0.06032542 -0.01966444 -0.10020103 -0.04835653
  0.00939219 -0.21004872  0.14439072 -0.10613179  0.22172742 -0.00735832
 -0.2403626  -0.09424722  0.01055418  0.20158914 -0.18415566 -0.19713315
 -0.04034743 -0.04435795  0.02730663 -0.00307466 -0.00197055  0.00423787
 -0.07764383 -0.31449625 -0.10103995 -0.06750108  0.0826359  -0.0444211
 -0.08477347  0.0851168  -0.15228149 -0.06326649  0.09795427  0.06360664
 -0.01870327 -0.08016612  0.17597029  0.04300357 -0.24528129  0.05019861
  0.0659601   0.23634151  0.23380068  0.03806772  0.03617878 -0.11587895
  0.13980578 -0.16520886 -0.00136588  0.12136958  0.08706342  0.03508582
  0.01133572 -0.22063696 -0.03088648  0.0618549  -0.2025862  -0.05839313
  0.07085445 -0.09820486 -0.07313932 -0.03063393  0.17285122  0.10053207
 -0.06760872 -0.18486743  0.2053405  -0.18925627 -0.08228092  0.01322379
 -0.16927944 -0.10807665 -0.22545762 -0.04612428  0.41154715  0.06273555
 -0.16954072  0.0712706  -0.0262865   0.02229128  0.12569213  0.13973418
  0.02663619  0.0186321  -0.07129548 -0.05563629  0.19534683 -0.08662523
 -0.00818996  0.18538208 -0.00450068  0.06761929  0.05956683 -0.01102207
 -0.05259734  0.02182726 -0.17555378 -0.10575434 -0.06295847 -0.00574418
  0.0133876   0.11741578 -0.18114227  0.11803652  0.03381168  0.03988591
 -0.01123763 -0.02388713  0.00158101 -0.06596027  0.08198812 -0.25691211
  0.19384855  0.22610168 -0.03524898  0.09633716  0.02947109  0.04177909
  0.03014915 -0.03677944 -0.20070826 -0.06470251  0.05312301 -0.03719757
  0.00441582 -0.02195217]