[-0.0492724   0.11945255  0.03184887 -0.04215379 -0.06655537 -0.02404596
 -0.01703001 -0.21506813  0.16220282 -0.10777047  0.25920242  0.0199387
 -0.2255698  -0.14231519  0.00210466  0.17827524 -0.2234257  -0.16690837
 -0.0111063  -0.02818533  0.03657196 -0.0345948   0.04962154  0.01194585
 -0.03472492 -0.34878069 -0.11621369 -0.06830218  0.1101433  -0.02934122
 -0.0801453   0.04762723 -0.17718028 -0.07373249  0.06438085  0.0572773
 -0.03955954 -0.06666327  0.16796008  0.02239564 -0.19112979  0.03752043
  0.04820572  0.22435193  0.24215792  0.08224634  0.02570312 -0.13535368
  0.12220045 -0.16884898  0.0257198   0.13343762  0.09278476  0.03612386
  0.02281369 -0.21380857 -0.0103697   0.04734353 -0.16685699 -0.04856037
  0.03726426 -0.04418318 -0.04474587 -0.01155399  0.2088964   0.11670788
 -0.07722352 -0.17452554  0.20007597 -0.16112496 -0.06633798  0.03200246
 -0.16713716 -0.13063358 -0.21574517 -0.02490678  0.4143208   0.06592011
 -0.16057518  0.03185616 -0.05184058 -0.00140157  0.12309416  0.12821484
 -0.01953808 -0.02398047 -0.09019596 -0.06468642  0.18141608 -0.07028735
 -0.03325089  0.20334737 -0.00266836  0.08540371  0.06235746  0.02149826
 -0.04487042  0.05430537 -0.18398173 -0.10373308 -0.02972456 -0.02291751
 -0.00503333  0.13005039 -0.17837833  0.09845638  0.03136808  0.03605996
  0.02416916 -0.02016302 -0.02318636 -0.07984304  0.07409605 -0.26466507
  0.22318332  0.23886879  0.00111995  0.11247953  0.03640287  0.06647141
  0.02781612 -0.04885668 -0.18189311 -0.05462069  0.03169242 -0.03021277
 -0.0092324  -0.02406897]