[-0.0294498   0.11142158  0.0503108  -0.05355674 -0.06909484 -0.03369958
 -0.01623636 -0.20176004  0.14877185 -0.11234646  0.23097025 -0.00624861
 -0.22727075 -0.09607904  0.00848031  0.20301464 -0.21905664 -0.17928272
 -0.03044124 -0.01579275  0.03052919  0.00492497  0.04287326 -0.00102754
 -0.05091559 -0.34480807 -0.12388499 -0.0523858   0.12308103 -0.02386207
 -0.09336238  0.05529403 -0.16767971 -0.05480189  0.10175389  0.05216449
 -0.03035292 -0.09409338  0.19249395  0.04572743 -0.23357682  0.04196694
  0.0744461   0.23275784  0.24752279  0.05767346  0.02670881 -0.1072124
  0.13268459 -0.18362781  0.00195853  0.12897484  0.07222417  0.04227239
  0.03119018 -0.20786087 -0.0057176   0.06404892 -0.16347873 -0.04624271
  0.06835448 -0.062159   -0.02685728 -0.01337222  0.20503183  0.07751263
 -0.09283302 -0.18142335  0.1970623  -0.15509504 -0.06483983  0.01747291
 -0.18079394 -0.10803171 -0.23187678 -0.04550758  0.40891638  0.05276422
 -0.14863086  0.06778468 -0.03011107  0.0073414   0.12023349  0.13706668
 -0.00448507 -0.00069764 -0.08216941 -0.06134401  0.22147086 -0.07711426
 -0.01894835  0.19678785 -0.01918919  0.09073352  0.0518791   0.01738179
 -0.04976406  0.01663742 -0.18891108 -0.07590277 -0.05488193 -0.02017171
 -0.01028479  0.1613863  -0.18532982  0.10662198  0.02826026  0.03028056
 -0.00405963 -0.00469135 -0.02870454 -0.0644272   0.0650583  -0.25555262
  0.21057835  0.24738458  0.00338611  0.07562099  0.04742249  0.03174381
  0.03449293 -0.01598503 -0.19735727 -0.08054276  0.03792413 -0.03568476
 -0.00480034 -0.01530848]