[ 0.00365873  0.10236038  0.10198968 -0.04823625 -0.11675527 -0.02536828
 -0.04245376 -0.17156278  0.11894665 -0.11005719  0.25677237 -0.02432721
 -0.27379867 -0.15495309  0.01405232  0.23182583 -0.22613464 -0.1651887
 -0.03972964  0.00950969  0.00716822 -0.03034379  0.07366138 -0.01521706
 -0.0764241  -0.40274468 -0.10062607 -0.06097403  0.07834247 -0.03342015
 -0.06583124  0.07958075 -0.17901665 -0.06887611  0.08502789  0.07673598
 -0.04622702 -0.11023062  0.18625326 -0.01855456 -0.24984486  0.0063368
  0.07096155  0.16656008  0.21860099  0.06911781  0.07577809 -0.13477135
  0.12252235 -0.21412531  0.03240608  0.10388487  0.04960452  0.03303833
  0.06108798 -0.18911649 -0.01905224  0.12303641 -0.1853521  -0.08405449
  0.03371217 -0.06365236 -0.025741   -0.06283429  0.20062469  0.07440988
 -0.07861388 -0.12069192  0.2195009  -0.14862923 -0.0189952   0.05571819
 -0.12768348 -0.12982559 -0.26015213 -0.05105181  0.40564772  0.0882225
 -0.15112871  0.00581389 -0.01958121 -0.00883304  0.10757118  0.12349924
  0.01224099  0.00375396 -0.07064646 -0.0218774   0.19467175 -0.10871582
  0.03467989  0.21410942  0.01680787  0.07316393  0.04890005 -0.00609136
 -0.03704844  0.02341478 -0.19257155 -0.04699636 -0.03993597 -0.00504357
  0.00207119  0.09399511 -0.14555572  0.04237901  0.02717452 -0.02513589
  0.01280778 -0.05134839 -0.01803556 -0.11036753  0.09495586 -0.27958271
  0.16292024  0.23282559 -0.04077359  0.12464031  0.03419949  0.08004642
  0.00546744 -0.12333926 -0.16750591 -0.05760526  0.08991984 -0.02631048
  0.01765252 -0.04193079]