[-0.0281397   0.11033573  0.06620057 -0.02363641 -0.10561065 -0.03056654
  0.00416927 -0.19302174  0.14651284 -0.13380644  0.21258341 -0.01303729
 -0.22006647 -0.08145369  0.00804913  0.22210947 -0.20398319 -0.19868639
 -0.03867625 -0.02760157  0.04574822  0.02481924 -0.01047845 -0.00873836
 -0.07953341 -0.3179706  -0.10688847 -0.05396634  0.10956784 -0.03760431
 -0.09787012  0.06793071 -0.13570362 -0.07397205  0.09975177  0.07610893
 -0.02786276 -0.08045015  0.18264827  0.02460115 -0.25571364  0.08612672
  0.07216512  0.24617441  0.21798602  0.04747375  0.02693692 -0.13181445
  0.12450147 -0.17097452 -0.01885907  0.10934257  0.07919499  0.06636305
  0.01592718 -0.20980027 -0.0135218   0.06338779 -0.193767   -0.0513741
  0.07870594 -0.09422591 -0.00391487 -0.03053824  0.19225149  0.05200102
 -0.08581059 -0.1784856   0.1782075  -0.17676416 -0.09100319  0.0114798
 -0.14459793 -0.09977912 -0.25109348 -0.04826159  0.42221555  0.07279022
 -0.16864657  0.07156201 -0.01844619 -0.00376262  0.13887429  0.15318142
  0.02671052  0.01001033 -0.0757274  -0.05029563  0.21019891 -0.08393892
  0.0021304   0.19243132  0.01771308  0.09684172  0.04851369  0.02461986
 -0.06877515  0.03286936 -0.16476412 -0.07101837 -0.06526551 -0.00523656
  0.0241363   0.15038164 -0.16312288  0.14924446  0.02181542  0.04377265
 -0.01809668  0.007247   -0.01100441 -0.05489732  0.07965797 -0.26237947
  0.18270819  0.24556051 -0.02795369  0.09041791  0.05366544  0.03539444
  0.01435773 -0.02204532 -0.22930193 -0.06562882  0.05413304 -0.05141007
  0.02634429  0.01111759]