[-2.16817316e-02  1.18574552e-01  6.69810995e-02 -6.53442740e-02
 -7.78986290e-02 -2.78655626e-02 -1.81800742e-02 -1.90057024e-01
  1.49740636e-01 -9.56675336e-02  2.08122402e-01 -5.46138501e-03
 -2.33122662e-01 -7.53522217e-02  1.44307343e-02  1.91139013e-01
 -2.07444310e-01 -1.82437539e-01 -3.63236479e-02 -1.47197517e-02
  9.00055096e-03  1.73123181e-02  4.49796207e-02  9.19683557e-03
 -5.05525433e-02 -3.52184027e-01 -1.15421109e-01 -4.89410162e-02
  1.20821677e-01 -1.93626527e-02 -1.03071503e-01  6.51607439e-02
 -1.64428741e-01 -5.27166985e-02  1.09356023e-01  6.25878200e-02
 -4.22689132e-02 -9.30685475e-02  1.97659761e-01  4.92526256e-02
 -2.38441750e-01  3.04288249e-02  8.66268352e-02  2.35675737e-01
  2.60290742e-01  5.44385500e-02  2.76227426e-02 -7.38126859e-02
  1.21155553e-01 -2.00881153e-01  1.17952377e-02  1.41569227e-01
  8.07016194e-02  4.46573608e-02  3.84030715e-02 -2.07755715e-01
 -1.63661819e-02  7.91692883e-02 -1.73367321e-01 -4.05636691e-02
  7.55577311e-02 -7.57783875e-02 -2.91570872e-02 -1.11611439e-02
  2.16344625e-01  1.00323729e-01 -1.02277391e-01 -1.70637146e-01
  2.01682955e-01 -1.62966773e-01 -6.81350157e-02 -4.97101282e-04
 -1.75387740e-01 -8.89497027e-02 -2.26220042e-01 -4.61768098e-02
  3.94798756e-01  5.87398112e-02 -1.49789259e-01  5.91882728e-02
 -3.49228196e-02  1.11455554e-02  9.51311216e-02  1.25323281e-01
 -2.59952191e-02 -1.07272004e-03 -7.64731020e-02 -6.29194379e-02
  2.12002188e-01 -5.72750233e-02 -8.80139694e-03  1.89773843e-01
 -1.59685276e-02  7.86561295e-02  5.48869744e-02  2.03333478e-02
 -5.75149357e-02 -3.73326847e-03 -2.02967271e-01 -6.93693683e-02
 -7.23244920e-02 -2.80368570e-02 -5.98648516e-03  1.74155265e-01
 -1.98504582e-01  1.13392793e-01  2.65650302e-02  1.66669022e-02
 -5.67688886e-03  1.66805356e-03 -2.18781233e-02 -6.97577596e-02
  7.16031939e-02 -2.52784312e-01  2.00985655e-01  2.38146931e-01
 -2.53279391e-03  7.63883516e-02  4.13522385e-02  2.85433177e-02
  4.06438522e-02 -1.83429997e-02 -1.85637131e-01 -9.49359387e-02
  3.50315347e-02 -4.26589027e-02 -4.03194875e-03 -2.85556918e-04]