[-1.66222956e-02  9.52980146e-02  5.23715094e-02 -4.69393097e-02
 -1.12164579e-01 -3.21350549e-03  2.07996374e-04 -1.86600894e-01
  1.54430032e-01 -1.09706305e-01  1.98193058e-01  6.53573731e-03
 -2.13436633e-01 -1.13466121e-01  1.76614411e-02  2.04920158e-01
 -1.86748117e-01 -2.04957753e-01 -1.21398820e-02 -2.58406550e-02
  2.12515648e-02  4.82979324e-03  2.29051840e-02  1.75652059e-03
 -8.62259790e-02 -3.46851587e-01 -1.11260228e-01 -6.07366078e-02
  9.60776433e-02 -4.05661538e-02 -9.57543924e-02  7.72688463e-02
 -1.60260633e-01 -7.01185018e-02  1.07854567e-01  8.25564489e-02
 -2.73964796e-02 -6.86998442e-02  1.77586555e-01  2.26494521e-02
 -2.33234242e-01  5.92753589e-02  7.15360940e-02  2.39982411e-01
  2.28514433e-01  6.51976019e-02  4.76124883e-02 -1.07462958e-01
  1.19790427e-01 -1.67151883e-01  3.95763628e-02  1.10997714e-01
  7.21626133e-02  3.78047600e-02  2.29211207e-02 -2.19879985e-01
 -1.97547134e-02  6.08967356e-02 -1.70465037e-01 -2.10179146e-02
  8.41351748e-02 -7.28624687e-02 -2.60076225e-02 -2.54431255e-02
  2.00170636e-01  6.72626272e-02 -7.77616724e-02 -2.12318897e-01
  1.86958432e-01 -1.71392128e-01 -7.43731931e-02  2.50392151e-03
 -1.68329641e-01 -1.03283338e-01 -2.37185195e-01 -2.77735125e-02
  3.92416328e-01  8.64270777e-02 -1.72043547e-01  6.21954761e-02
 -2.24535968e-02  1.73703395e-02  1.19487815e-01  1.41843110e-01
  2.45366413e-02  6.20791363e-03 -8.97847563e-02 -4.71342877e-02
  2.01793835e-01 -7.32315704e-02 -1.13220979e-02  1.97715685e-01
 -8.37004650e-03  9.13051367e-02  4.05602120e-02  1.78430993e-02
 -7.61209652e-02  6.90143704e-02 -1.70933411e-01 -6.97464570e-02
 -3.71955894e-02  3.27817211e-03  3.23403589e-02  1.74511507e-01
 -1.72895789e-01  1.46563694e-01 -1.40581233e-02  5.29875569e-02
 -1.05939498e-02 -1.46419404e-03 -3.45767103e-02 -6.62017092e-02
  8.48504826e-02 -2.53595978e-01  1.98508725e-01  2.38634571e-01
 -9.73939244e-03  8.80930871e-02  6.18543327e-02  4.63497303e-02
  5.19350246e-02 -1.93579141e-02 -2.37318233e-01 -4.98430207e-02
  4.09235060e-02 -6.97526932e-02  1.25670526e-02  2.50563323e-02]