[-0.00625013  0.11339357  0.10174971 -0.05433504 -0.10201577 -0.0053027
 -0.03492056 -0.17588252  0.12635523 -0.10678579  0.28757998 -0.03947331
 -0.26876044 -0.13632916  0.00645201  0.2401938  -0.24162725 -0.17133546
 -0.03034856  0.01166035  0.01869915 -0.01255925  0.05818086 -0.01438607
 -0.11056053 -0.39110526 -0.08115565 -0.04336955  0.09484743 -0.03251701
 -0.08656269  0.09472413 -0.19674669 -0.06133126  0.09287917  0.11328585
 -0.03865924 -0.10790487  0.1769035  -0.01421132 -0.25367948  0.03188653
  0.06803112  0.19653121  0.20505145  0.05949131  0.05999474 -0.14669913
  0.10666255 -0.19003177  0.0354984   0.11953054  0.04864708  0.03725372
  0.0345295  -0.20424505 -0.02371673  0.10599174 -0.16814792 -0.07515223
  0.06785158 -0.05155852  0.01235743 -0.09419983  0.20077591  0.04321538
 -0.0957035  -0.12566181  0.20436099 -0.12012761 -0.02723343  0.04797378
 -0.15364616 -0.13617782 -0.28532726 -0.04291701  0.40834838  0.08234467
 -0.16354446  0.01638611 -0.00756568 -0.00751292  0.12025919  0.14324982
  0.02722565  0.01817524 -0.0802261  -0.01043125  0.2174141  -0.0944823
  0.01103903  0.20778203  0.00105182  0.07040765  0.04425004  0.00476415
 -0.04954652  0.02999846 -0.19855015 -0.03745912 -0.06932731 -0.01193673
 -0.00903471  0.13599847 -0.1354935   0.06546206  0.03877457 -0.002308
  0.01292921 -0.01749638 -0.03284511 -0.11732662  0.09646991 -0.27979845
  0.17239805  0.23717475 -0.00121849  0.11035015  0.05745586  0.08639415
  0.0041953  -0.07407337 -0.19215225 -0.05791276  0.07850807 -0.04424107
  0.04646498 -0.01677517]