[-2.93096732e-02  7.75735006e-02  6.43250719e-02 -3.64608206e-02
 -1.19608872e-01 -7.75566325e-03 -4.74047801e-03 -1.64562300e-01
  1.45586908e-01 -1.00570157e-01  1.98803633e-01  1.74190998e-02
 -2.15404779e-01 -1.08398929e-01  2.59204190e-02  2.03037292e-01
 -1.96138442e-01 -1.71822146e-01 -9.69364401e-03 -3.04454099e-02
  2.09114703e-04 -1.26995593e-02  2.91882064e-02 -1.53617105e-02
 -8.28538910e-02 -3.76746267e-01 -8.96708593e-02 -8.50583464e-02
  7.78050199e-02 -3.82773690e-02 -7.69673511e-02  7.84291402e-02
 -1.61429599e-01 -7.20935389e-02  9.46147367e-02  7.02878162e-02
 -5.79783209e-02 -6.50460720e-02  1.64999470e-01  2.44931988e-02
 -2.23963812e-01  4.58104685e-02  5.38005121e-02  2.30711058e-01
  2.56469637e-01  6.51945099e-02  4.83874008e-02 -9.12893936e-02
  1.21568993e-01 -1.92458898e-01  9.52308532e-03  9.33762342e-02
  6.38841018e-02  3.22063789e-02  2.43226383e-02 -2.04096004e-01
  1.37042522e-03  3.56967263e-02 -2.02878103e-01 -3.34063210e-02
  6.46888912e-02 -7.52103254e-02 -3.62688266e-02  4.35272092e-03
  2.13586017e-01  7.35256076e-02 -7.05292895e-02 -1.78670883e-01
  2.07990602e-01 -1.73903450e-01 -4.23351564e-02  2.60533742e-03
 -1.61015287e-01 -1.32967874e-01 -2.16210052e-01 -3.65247875e-02
  3.95688415e-01  9.02354717e-02 -1.63515493e-01  4.76635396e-02
 -4.11477238e-02  1.47011131e-02  1.19956590e-01  1.28525004e-01
  3.39209251e-02 -1.70416478e-02 -7.08195791e-02 -4.97021191e-02
  1.90159619e-01 -7.99053833e-02 -1.66555829e-02  2.01289445e-01
 -3.40050843e-04  6.85018227e-02  5.44363856e-02  2.55327183e-03
 -6.71838745e-02  6.00059889e-02 -1.78991988e-01 -9.13156793e-02
 -3.48063670e-02 -1.79608241e-02  3.85828167e-02  1.50916830e-01
 -1.86436877e-01  1.53889522e-01 -6.77234028e-03  4.82847057e-02
  8.65814742e-03 -1.79302637e-02 -3.12788226e-02 -6.09776378e-02
  9.52065215e-02 -2.56532431e-01  2.10842997e-01  2.51461834e-01
 -9.86888725e-03  1.05616324e-01  3.69787328e-02  2.14324985e-02
  3.81907783e-02 -2.77918484e-02 -2.24463299e-01 -4.71197702e-02
  2.14624219e-02 -6.29361123e-02  4.93069226e-03  1.14212958e-02]