[-0.02453     0.09959996  0.03174158 -0.0380213  -0.11197964 -0.03752684
  0.020028   -0.20373599  0.15125662 -0.09691348  0.22569063 -0.00994059
 -0.23791687 -0.07068322  0.01474507  0.19987749 -0.17738202 -0.18658219
 -0.05577748 -0.04976575  0.03364006 -0.00220018  0.00232235  0.00444386
 -0.05408388 -0.30120206 -0.13346277 -0.0471804   0.11835885 -0.04126645
 -0.08067039  0.07829086 -0.13652007 -0.08276885  0.10602832  0.05126432
 -0.0183141  -0.08122329  0.17081009  0.03908152 -0.23348628  0.06722897
  0.09291165  0.24371319  0.22305802  0.06587517  0.03008246 -0.12204383
  0.10528316 -0.19449709  0.03934206  0.09340935  0.10174381  0.05197904
  0.02130949 -0.22928198 -0.02327335  0.0658498  -0.19683337 -0.02541853
  0.09446487 -0.08966175 -0.05164413 -0.03010599  0.1866056   0.11461712
 -0.08563668 -0.17113708  0.18545805 -0.17228843 -0.0786598   0.01241288
 -0.15596059 -0.09825055 -0.24175274 -0.02106344  0.43632728  0.06514916
 -0.15665172  0.04060567 -0.02097687  0.01909381  0.11620214  0.12250264
 -0.0059008  -0.02708482 -0.08378597 -0.03644267  0.19321577 -0.09035709
 -0.00520751  0.20402963  0.00542097  0.08606866  0.0393823   0.0609743
 -0.05479695  0.02012069 -0.16104709 -0.07781482 -0.04275281 -0.01137756
  0.02146362  0.13870457 -0.17809711  0.12256052  0.02300586  0.02761425
 -0.01446536 -0.02142635  0.00857426 -0.05229262  0.07572286 -0.25998509
  0.18209021  0.23905869 -0.0260836   0.08772438  0.02551527  0.03864039
  0.04489251 -0.05193206 -0.20443968 -0.05450502  0.04049521 -0.0434819
 -0.01802729  0.01637463]