[-3.87917832e-02  1.35583296e-01  6.73413873e-02 -2.66963523e-02
 -9.61868390e-02 -2.80166958e-02 -7.48916855e-03 -1.79309055e-01
  1.23057239e-01 -8.21850821e-02  2.44879633e-01 -1.98764466e-02
 -2.22096473e-01 -1.02710508e-01 -2.06798520e-02  2.01882884e-01
 -2.36533955e-01 -1.44545645e-01 -2.66682710e-02 -1.50125129e-02
  4.87661920e-02  1.28714088e-02  8.32581334e-03 -2.51333471e-02
 -6.40863404e-02 -3.38178843e-01 -9.92683768e-02 -6.72072098e-02
  9.63571891e-02 -4.32138741e-02 -9.09684077e-02  4.56447378e-02
 -1.58644661e-01 -9.72589478e-02  1.07525826e-01  5.44737875e-02
 -5.32380454e-02 -6.97485730e-02  1.68888256e-01  2.21673511e-02
 -2.20812038e-01  7.19669536e-02  8.46270621e-02  2.50072777e-01
  2.42311627e-01  6.56825230e-02  1.19787920e-02 -1.21437006e-01
  1.43649131e-01 -1.57299384e-01 -8.28193314e-03  1.24600403e-01
  9.65399966e-02  5.66381924e-02  4.65410575e-03 -1.81076333e-01
 -6.70697028e-03  6.66432530e-02 -1.96136042e-01 -5.14026769e-02
  1.02742590e-01 -1.05296411e-01 -1.89210381e-02 -2.50630267e-02
  1.74509510e-01  5.73346391e-02 -8.30633417e-02 -2.01419070e-01
  1.73659191e-01 -1.61834463e-01 -7.13878870e-02  7.13426759e-03
 -1.51823550e-01 -1.10996060e-01 -2.39704013e-01 -3.78938951e-02
  4.19732004e-01  7.30494931e-02 -1.45378441e-01  4.93104048e-02
 -4.08162437e-02 -1.43479407e-02  1.22149222e-01  1.49368316e-01
  2.36283597e-02  2.58200249e-04 -7.75680020e-02 -4.90875132e-02
  1.87191382e-01 -9.06073451e-02 -1.27206910e-02  1.83844894e-01
 -1.18900938e-02  8.70690942e-02  4.66442071e-02 -9.20377579e-03
 -9.39241797e-02  5.47084697e-02 -1.61266983e-01 -7.60826766e-02
 -7.77515173e-02 -2.56367121e-02  2.56142356e-02  1.46620169e-01
 -1.52453810e-01  1.36663660e-01  1.63799580e-02  5.99579178e-02
 -6.12571323e-03 -3.39484364e-02 -1.14834737e-02 -5.50958402e-02
  7.72549212e-02 -2.48974964e-01  2.10717961e-01  2.20651269e-01
  3.48688918e-03  8.63005146e-02  6.40311465e-02  2.86109038e-02
  2.58794725e-02 -1.13839833e-02 -2.26519227e-01 -6.30564541e-02
  3.42672877e-02 -5.13439737e-02  4.04838733e-02 -2.31005456e-02]