[-0.03798017  0.11459982  0.07657708 -0.04725234 -0.09576443 -0.01725874
 -0.02349707 -0.17464535  0.12428554 -0.09414929  0.21501715 -0.03047678
 -0.21248917 -0.10047772 -0.02329893  0.21003221 -0.22376542 -0.16659938
 -0.02699718 -0.0120034   0.06580908 -0.00044518  0.02636678 -0.01124854
 -0.06657667 -0.34249622 -0.09916401 -0.07589572  0.11672088 -0.03441876
 -0.09568997  0.05115495 -0.1667987  -0.07999536  0.10084325  0.0579573
 -0.04182177 -0.09235837  0.17022736  0.00146496 -0.23952758  0.05523586
  0.07821909  0.21410118  0.2512171   0.0708372   0.02055786 -0.10785418
  0.13242364 -0.17374414  0.00190277  0.11886126  0.06730542  0.06403692
  0.02690006 -0.17645922 -0.00074981  0.07826706 -0.17685446 -0.06231443
  0.06412539 -0.09238111 -0.01722515 -0.03058041  0.18353264  0.06600922
 -0.07433579 -0.19605976  0.20655726 -0.15155378 -0.0675744   0.02006312
 -0.15286089 -0.0867814  -0.2189029  -0.04983174  0.41367671  0.07412309
 -0.14943124  0.06307452 -0.03353624 -0.0038092   0.11115497  0.14254765
  0.02434309  0.00504936 -0.06133769 -0.05641034  0.18935156 -0.09136125
 -0.0013346   0.19190659 -0.00579255  0.07458235  0.05257539  0.00281528
 -0.07219893  0.04770831 -0.1706554  -0.08842883 -0.04625472  0.00291604
  0.01533337  0.15726425 -0.16005458  0.11805505  0.00532172  0.05010692
  0.00099768 -0.02670657 -0.00053528 -0.05674606  0.06876754 -0.24635644
  0.19458957  0.22969273 -0.00157661  0.07666849  0.05507823  0.03047902
  0.04580076 -0.03049088 -0.22815715 -0.07078167  0.06085865 -0.04294195
  0.00604461 -0.01227841]