[-0.04557839  0.13393022  0.06813058 -0.03171911 -0.08489683 -0.02729606
 -0.01028832 -0.19495581  0.13793209 -0.08321871  0.24363633 -0.01202237
 -0.22752479 -0.11897676 -0.02496326  0.20466034 -0.24416561 -0.14887032
 -0.01706064 -0.02156367  0.05467945  0.00107348  0.01994198 -0.01304953
 -0.07596094 -0.34289011 -0.10620335 -0.07951313  0.08823936 -0.03256443
 -0.09479498  0.04577856 -0.16275591 -0.09561392  0.09782051  0.0644021
 -0.04699091 -0.07394233  0.1677991   0.01596454 -0.21555935  0.06702723
  0.08124322  0.24092607  0.23936711  0.06783073  0.02319934 -0.11492383
  0.14918096 -0.15277234 -0.00905962  0.12555306  0.09092931  0.04886878
  0.00991434 -0.18599145 -0.01054264  0.06678425 -0.19151145 -0.05344684
  0.09053215 -0.10734599 -0.02449129 -0.0240892   0.17603022  0.07162539
 -0.08112425 -0.19848204  0.1818331  -0.16349141 -0.06886798  0.00891972
 -0.16171806 -0.10957114 -0.2406863  -0.04548922  0.42785546  0.07325397
 -0.14393881  0.04993173 -0.04666622 -0.0076243   0.12339517  0.15057804
  0.02633761  0.01257516 -0.08566439 -0.05040345  0.18751292 -0.08630247
 -0.0157545   0.18717258 -0.01111297  0.09449247  0.04550382 -0.01472567
 -0.0932444   0.05437886 -0.16210555 -0.07787722 -0.07336454 -0.01092562
  0.0236652   0.13550995 -0.14876071  0.12490457  0.01984674  0.06000362
 -0.01183957 -0.03343083 -0.01780493 -0.05412094  0.07963073 -0.24973693
  0.20765257  0.22196034 -0.00257394  0.09105045  0.05999434  0.02996602
  0.02090763 -0.01864001 -0.22432721 -0.06330787  0.04046125 -0.05454718
  0.0488248  -0.02672991]