[-0.10711276  0.11311745  0.06963193 -0.0527548  -0.0681188  -0.03356292
 -0.05721251 -0.14381717  0.14536734 -0.04598495  0.26349172 -0.0515306
 -0.19472839 -0.1272943  -0.04767671  0.21204107 -0.22162096 -0.13430862
 -0.01772088 -0.0127351   0.12140983 -0.02063161  0.0125024   0.0254908
 -0.1233113  -0.3043848  -0.07605309 -0.04533609  0.03330637 -0.00448947
 -0.04928143  0.03991108 -0.24164334 -0.08762445  0.06330943  0.07940479
 -0.01106135 -0.12113531  0.1723012  -0.00875128 -0.21332435  0.0335344
  0.05639482  0.19379243  0.14782324  0.02309788  0.03090838 -0.17360157
  0.15275727 -0.11630621  0.00111625  0.18655531  0.04783316  0.03951763
 -0.00442605 -0.17799897  0.04178137  0.1090842  -0.15021273 -0.03379272
  0.04294412 -0.07030021 -0.0181191  -0.14290076  0.16177435  0.05059031
 -0.07859369 -0.23500967  0.11540738 -0.05966357 -0.03982357  0.08824404
 -0.17784216 -0.1792645  -0.30672127 -0.00690464  0.35562962  0.03908452
 -0.19781816  0.08291616 -0.05554162 -0.02460023  0.09545492  0.16024075
  0.0208572   0.08457986 -0.09645724 -0.04035133  0.2243598  -0.08466076
 -0.01166869  0.23661628 -0.02330361  0.03238466  0.03181634  0.00068948
 -0.09527814  0.06044001 -0.11862539 -0.0640031   0.03555966 -0.04645385
 -0.01031407  0.09211241 -0.17838845  0.05216023  0.0095247   0.05990741
 -0.0136945  -0.07172139 -0.09232221 -0.07593527  0.12095536 -0.22642446
  0.20917574  0.17464061  0.05043582  0.11497059  0.13568977  0.09746486
 -0.03204684  0.00605106 -0.15838528 -0.00724089  0.09642547 -0.02335952
  0.07185136 -0.01664206]