[-0.09697793  0.12487765  0.06246374 -0.01275248 -0.07752701 -0.02483298
 -0.01634586 -0.15197432  0.12347952 -0.05258252  0.29682282 -0.02433873
 -0.19522035 -0.17726104 -0.01231963  0.17954424 -0.19475858 -0.14027373
 -0.0072031   0.02218669  0.14811142  0.0127307   0.03236495  0.00107309
 -0.107496   -0.30693969 -0.07885422 -0.03832853  0.03844211 -0.04556974
 -0.06422514  0.08764181 -0.19920416 -0.10936953  0.05967979  0.08128753
 -0.02536046 -0.05381442  0.18007098 -0.04631237 -0.19512114  0.05690487
  0.04698137  0.24863878  0.19621487  0.02609152  0.03179503 -0.16026756
  0.12822974 -0.10897229  0.02580924  0.17152387  0.08297327  0.04190657
  0.00517096 -0.15006755  0.00621474  0.07418843 -0.12754023 -0.03666342
  0.07906329 -0.07811786  0.01817678 -0.12115937  0.13173923 -0.01167996
 -0.04622879 -0.23263279  0.10054829 -0.08663943 -0.09471143  0.07309328
 -0.20843785 -0.16851562 -0.30765805 -0.00244228  0.34855378  0.0677776
 -0.18703747  0.10075183 -0.0196212  -0.02329193  0.10804071  0.12592199
  0.02259723  0.0705141  -0.13550381  0.00354862  0.20785637 -0.09194031
 -0.03280784  0.22413336  0.00516201  0.04287321  0.07307415 -0.01546843
 -0.03795849  0.09438322 -0.16087402 -0.04220964  0.00525986 -0.05310685
  0.01942893  0.12232985 -0.13449697  0.09654464 -0.00832752  0.10952111
 -0.02924917 -0.06607097 -0.10617568 -0.05385701  0.09472357 -0.20254162
  0.18946116  0.15309504  0.05138311  0.09756114  0.11947005  0.10679451
 -0.02865729  0.01917872 -0.18838237 -0.00121396  0.11147447  0.00569315
  0.10559347  0.01792882]