[-1.09876566e-01  1.55142322e-01  2.63436381e-02 -4.38769460e-02
 -7.74888545e-02 -4.51616012e-02 -3.86899896e-02 -1.38897702e-01
  1.39704227e-01 -1.83191635e-02  2.62033582e-01 -1.51633071e-02
 -1.87632248e-01 -1.64959177e-01 -4.71990667e-02  1.71434626e-01
 -2.12463662e-01 -1.03087045e-01  1.29837934e-02 -1.17260811e-03
  1.29439667e-01  2.35539824e-02  4.92473841e-02  1.60741732e-02
 -1.03310585e-01 -3.05889606e-01 -6.41710088e-02 -6.36836812e-02
  3.75297526e-03 -2.61959787e-02 -5.04938625e-02  1.10623263e-01
 -1.89705506e-01 -9.80928689e-02  6.33834973e-02  7.13767409e-02
 -2.84675807e-02 -2.28227768e-02  1.69800833e-01 -2.17239615e-02
 -1.85440898e-01  2.14761999e-02  6.99283928e-02  2.49952361e-01
  2.07397893e-01  1.76178869e-02  2.14131977e-02 -1.49330288e-01
  1.22153103e-01 -9.44518372e-02  5.45321871e-03  1.60722539e-01
  4.50848565e-02  2.78453883e-02  2.07465682e-02 -1.34413615e-01
  2.02897917e-02  9.00653601e-02 -1.40337020e-01 -4.40711565e-02
  5.95458746e-02 -9.93804783e-02 -2.54086703e-02 -9.30710211e-02
  1.57574534e-01  3.39566842e-02 -4.39400300e-02 -2.27153182e-01
  1.14121020e-01 -9.58900079e-02 -1.00981370e-01  9.83124077e-02
 -1.67460009e-01 -1.63129419e-01 -2.91244894e-01 -1.96494255e-02
  3.38227123e-01  7.42510334e-02 -1.68222651e-01  9.47572514e-02
 -1.94078814e-02 -4.12810259e-02  1.38679668e-01  1.19244114e-01
 -1.77430492e-02  7.08900690e-02 -1.25921234e-01 -1.74838547e-02
  2.06944019e-01 -5.83270602e-02 -5.20598888e-02  2.18754157e-01
 -1.64844838e-04  5.19851111e-02  7.57069513e-02 -1.82109475e-02
 -4.67451513e-02  7.80379400e-02 -1.79483041e-01 -7.66722709e-02
  3.26377414e-02 -7.80952796e-02 -7.14971498e-03  1.15433268e-01
 -1.52041242e-01  5.93899153e-02  1.01786079e-02  8.84475261e-02
 -3.71236168e-02 -7.23307058e-02 -8.34767371e-02 -3.46428268e-02
  1.05940320e-01 -1.99711159e-01  2.07986742e-01  1.31644726e-01
  5.32502793e-02  1.07260704e-01  1.21192612e-01  6.42123744e-02
 -3.55417579e-02 -2.91585065e-02 -1.60633013e-01 -6.06995833e-04
  1.19801119e-01 -7.52122561e-03  1.24823980e-01 -7.92511553e-03]