[-0.09130777  0.11562457  0.04969929 -0.02002477 -0.06736244 -0.04810412
 -0.01999415 -0.16276221  0.12277093 -0.05830586  0.29743364 -0.01714729
 -0.17976566 -0.18606088 -0.00845928  0.18037915 -0.20212542 -0.13388366
 -0.00604822  0.01973791  0.13757311 -0.0023358   0.04643648  0.01411943
 -0.11331543 -0.30246601 -0.08368613 -0.02984688  0.03658206 -0.04187351
 -0.05500915  0.10104529 -0.21244894 -0.10771928  0.06140755  0.08674077
 -0.02136906 -0.05927527  0.17983523 -0.03643665 -0.1862248   0.0526973
  0.04791276  0.24734688  0.20000818  0.01850469  0.03656394 -0.15334748
  0.14663012 -0.11294734  0.02094045  0.15603016  0.06092963  0.03722704
  0.01093687 -0.15238048  0.0163355   0.08866477 -0.13290249 -0.03859197
  0.0698794  -0.07610665  0.00351234 -0.1242699   0.13168743  0.00920524
 -0.04220355 -0.23657481  0.1065677  -0.08623897 -0.08419637  0.07725398
 -0.20395868 -0.1701517  -0.29917532 -0.00539748  0.331817    0.07975621
 -0.17785835  0.10744219 -0.00692719 -0.01949132  0.11228388  0.12595098
  0.02864129  0.08292022 -0.13225596  0.00373393  0.20274608 -0.07392045
 -0.03598404  0.23218857 -0.00558411  0.04476861  0.07605485 -0.03081165
 -0.05008884  0.09579726 -0.17411248 -0.04881666  0.00865538 -0.04468499
  0.01865747  0.11504338 -0.12489197  0.098469   -0.01483059  0.11456425
 -0.03374045 -0.06907999 -0.09978542 -0.04503558  0.07742435 -0.20340596
  0.19865304  0.14392291  0.0526996   0.09938615  0.1149823   0.10113831
 -0.02812943  0.02069144 -0.18184425  0.00364694  0.11052509 -0.00238212
  0.11129751  0.00405148]