[-7.92964697e-02  1.36957869e-01  2.64760945e-02 -3.87245752e-02
 -6.02944680e-02 -2.71764137e-02 -1.12617994e-02 -1.32814020e-01
  1.42567381e-01 -2.30077039e-02  2.83472776e-01 -2.80253440e-02
 -1.99537262e-01 -1.78143248e-01 -7.57461274e-03  1.79529503e-01
 -2.00595617e-01 -1.32822677e-01  9.75095201e-03  2.46158950e-02
  1.30107030e-01 -6.38966216e-03  3.91104519e-02  2.59897318e-02
 -1.24635391e-01 -2.95640200e-01 -6.81398064e-02 -5.76644242e-02
 -2.28468422e-03 -5.16414456e-02 -6.57449514e-02  1.16901733e-01
 -2.06401706e-01 -9.28389579e-02  5.93273416e-02  9.08887684e-02
 -6.98006013e-03 -4.63201068e-02  1.81442022e-01 -2.16577332e-02
 -1.89700887e-01  3.72069366e-02  4.52430062e-02  2.44723752e-01
  1.99037716e-01  1.68321290e-04  1.49643915e-02 -1.26861036e-01
  1.08595945e-01 -1.05206825e-01 -6.38636237e-04  1.68904275e-01
  5.60277961e-02  2.68286113e-02 -3.01416102e-03 -1.42805189e-01
  2.15198565e-02  7.06767738e-02 -1.46428213e-01 -5.98379634e-02
  6.39063269e-02 -9.61692035e-02 -9.18843318e-03 -1.15640119e-01
  1.45474479e-01  1.27979768e-02 -4.42924760e-02 -2.20915601e-01
  1.09799050e-01 -8.41375440e-02 -7.88231418e-02  8.31831992e-02
 -1.99809432e-01 -1.77829251e-01 -2.82601327e-01  2.77833268e-03
  3.19257677e-01  7.97593668e-02 -1.88336894e-01  1.07955806e-01
 -1.28233610e-02 -3.28865871e-02  1.12279333e-01  1.18695907e-01
  2.53280457e-02  8.72530043e-02 -1.34607658e-01  8.33116099e-03
  2.04276964e-01 -7.45258629e-02 -2.06983574e-02  2.25142285e-01
 -1.67207476e-02  4.74940576e-02  7.02437684e-02 -3.69054265e-02
 -1.65628605e-02  9.83036757e-02 -1.69638962e-01 -2.96894312e-02
  7.08980719e-03 -7.66833052e-02 -1.03713281e-03  1.21979766e-01
 -1.46132514e-01  4.90068719e-02  3.71954846e-03  7.80304819e-02
 -4.53165956e-02 -6.25975206e-02 -9.10555050e-02 -5.59691079e-02
  1.02648787e-01 -2.16222987e-01  1.90068498e-01  1.50851592e-01
  4.12651896e-02  8.30815360e-02  9.83357131e-02  9.59426239e-02
 -2.76266579e-02 -6.16802229e-03 -1.90629408e-01  1.08643789e-02
  1.15438521e-01 -7.17429956e-03  1.02146707e-01 -8.97356134e-04]