[-0.06154505  0.12230505  0.04369631 -0.02360746 -0.05818983 -0.01258802
 -0.01395233 -0.14088331  0.12702136 -0.03493011  0.28438127 -0.03771213
 -0.20433179 -0.18275683 -0.00986267  0.18418398 -0.20129733 -0.13528173
  0.00810576  0.02898735  0.13654567  0.00987122  0.04244075  0.01427273
 -0.10479148 -0.29439011 -0.07975355 -0.05767665  0.02447816 -0.05066921
 -0.08086929  0.08745774 -0.20417523 -0.09139236  0.05237648  0.05820939
 -0.00384962 -0.0622767   0.17447168 -0.01775478 -0.19107884  0.04286089
  0.04507134  0.23736449  0.1897376   0.01847635  0.0096931  -0.13514869
  0.09747871 -0.10711409  0.02168975  0.15997307  0.07087523  0.01893101
 -0.0072336  -0.14869423 -0.00451186  0.06769212 -0.1418401  -0.0302053
  0.06311538 -0.07711208 -0.0049557  -0.12534292  0.15102319  0.0044805
 -0.05890094 -0.22971597  0.09710938 -0.08851903 -0.08651581  0.07632042
 -0.19506089 -0.16522816 -0.29094264 -0.00166074  0.32631022  0.05398693
 -0.20528209  0.09628655 -0.02202307 -0.03917721  0.10696327  0.13464922
  0.03675999  0.08149642 -0.13406436 -0.01451769  0.20199442 -0.09423313
 -0.02506759  0.23867057 -0.02507735  0.03881916  0.06195962 -0.02327965
 -0.02378161  0.0913651  -0.15797481 -0.04282236  0.00496244 -0.06993582
 -0.01060389  0.12254208 -0.14185695  0.05930638  0.00331796  0.07504693
 -0.02195608 -0.07394814 -0.10947905 -0.06641908  0.10966277 -0.21961558
  0.17862998  0.15080649  0.05877612  0.08107514  0.10211992  0.10899806
 -0.0228961   0.00479462 -0.19827738  0.00437851  0.11813384 -0.01655192
  0.09034204  0.0059964 ]