[-0.11060305  0.12983198  0.05192855 -0.06744229 -0.09299962 -0.05840285
 -0.07140582 -0.11296169  0.15951212 -0.02965747  0.27752063 -0.00968775
 -0.18234435 -0.1356799  -0.04898161  0.21279614 -0.26467869 -0.14148583
  0.00349758 -0.00959567  0.10271092 -0.04717686  0.01754806  0.02884762
 -0.13710313 -0.32121041 -0.04160814 -0.06080253  0.00598849 -0.01040727
 -0.02802128  0.09437587 -0.24691336 -0.09602376  0.06907132  0.11107838
 -0.01410957 -0.07219338  0.1626754  -0.02984181 -0.19461016  0.01824594
  0.05331827  0.22865534  0.16654535  0.01811104  0.04741868 -0.13778576
  0.15369225 -0.11788616 -0.00515117  0.16244316  0.06320169  0.04052625
 -0.00216776 -0.18016814  0.05589271  0.09358878 -0.15895489 -0.05591866
  0.04922074 -0.10312984 -0.01161811 -0.14221823  0.2036109   0.04892739
 -0.06864848 -0.23177545  0.12044332 -0.04595954 -0.05550822  0.07763048
 -0.1833436  -0.15989833 -0.33143169 -0.0128064   0.3277379   0.05477632
 -0.17074782  0.08009049 -0.03533088 -0.02798936  0.06170741  0.13522837
 -0.00601266  0.09979471 -0.1221629  -0.00339224  0.21576093 -0.07565044
 -0.03144717  0.18792352 -0.02849917  0.0381324   0.03000984 -0.02435382
 -0.09682089  0.08243655 -0.15437764 -0.04902749  0.01839063 -0.03867384
 -0.00759837  0.09967943 -0.14376561  0.02548994 -0.00956949  0.06529178
 -0.06437907 -0.04997023 -0.1028589  -0.08326482  0.10549855 -0.20938699
  0.24087091  0.17071596  0.07733466  0.1157539   0.12399155  0.05549579
 -0.04893732  0.00203876 -0.15152803  0.00077431  0.09813277 -0.02123173
  0.11675717 -0.00274958]