[-1.06284581e-01  1.40129536e-01  5.23096137e-02 -3.31269242e-02
 -7.77805075e-02 -4.06135358e-02 -1.10640945e-02 -1.55056596e-01
  1.21624365e-01 -3.95091660e-02  3.14785898e-01 -3.91723588e-02
 -1.95563763e-01 -1.91949531e-01 -2.66934019e-02  1.86834142e-01
 -1.94847032e-01 -1.35007381e-01  1.12049244e-02  2.99962219e-02
  1.41552120e-01 -7.46049127e-03  6.37264997e-02  1.15998369e-02
 -1.02698363e-01 -3.08573127e-01 -7.64583498e-02 -3.99608947e-02
  2.62592528e-02 -4.05820236e-02 -5.06107621e-02  1.14530317e-01
 -2.10187748e-01 -1.03476182e-01  5.73489629e-02  7.45892003e-02
 -3.15399691e-02 -3.36473659e-02  1.87606022e-01 -4.54234593e-02
 -1.98100403e-01  3.72444987e-02  5.75815700e-02  2.52871841e-01
  1.91989541e-01  1.57704931e-02  3.38768400e-02 -1.45231783e-01
  1.07138805e-01 -1.11737110e-01  2.49263402e-02  1.58863485e-01
  8.56437609e-02  2.06212308e-02  3.59992799e-03 -1.38963044e-01
  1.76522639e-02  8.58153924e-02 -1.23546436e-01 -3.09711043e-02
  7.41929263e-02 -8.96459296e-02 -6.31495519e-03 -1.10551588e-01
  1.50385335e-01 -2.92386115e-03 -5.55723198e-02 -2.19197229e-01
  1.03482679e-01 -6.66736811e-02 -8.13274533e-02  1.06701672e-01
 -2.06665829e-01 -1.72876686e-01 -3.05911541e-01  1.71408360e-03
  3.49408597e-01  4.63879816e-02 -1.76426917e-01  9.07165930e-02
 -3.18222865e-03 -2.07599699e-02  9.51573700e-02  1.30403593e-01
 -5.62773412e-03  6.63453788e-02 -1.41948387e-01  1.46796589e-03
  1.99488267e-01 -9.17082280e-02 -4.84045409e-02  2.22501203e-01
 -4.20641294e-03  4.66535874e-02  6.54241517e-02 -1.45759853e-02
 -1.60499569e-02  8.50758329e-02 -1.62849352e-01 -4.13200967e-02
  1.22904526e-02 -7.99440518e-02 -1.81655791e-02  1.18784070e-01
 -1.48002848e-01  6.71747401e-02 -9.63044167e-03  9.42437574e-02
 -3.85726057e-02 -7.13793561e-02 -8.96399841e-02 -4.93047982e-02
  8.15588161e-02 -2.09956437e-01  1.93043098e-01  1.60186797e-01
  5.83994798e-02  8.96555409e-02  1.16554141e-01  8.30385014e-02
 -1.69678330e-02  7.71298027e-03 -1.65795729e-01 -5.98575163e-04
  1.27535984e-01 -1.45776365e-02  1.09751523e-01  1.42529607e-04]