[-0.1034948   0.15808687  0.04583336 -0.0576187  -0.06582401 -0.00566591
 -0.04311183 -0.13382514  0.1320833  -0.04241862  0.2786853  -0.02697375
 -0.19336602 -0.19928914 -0.0468953   0.19107687 -0.21890962 -0.13690858
  0.00745808  0.00682855  0.15525196  0.00324324  0.0399569   0.01494793
 -0.12747104 -0.32237762 -0.06960008 -0.04648298  0.00411148 -0.03051923
 -0.03747462  0.08370468 -0.20103215 -0.09043504  0.04243929  0.10262128
 -0.02315781 -0.05852553  0.15905482 -0.0337627  -0.16174459  0.04682786
  0.04665566  0.25737906  0.17523329  0.01940118  0.04796065 -0.15718363
  0.1231782  -0.13113868  0.01894466  0.16371883  0.09082939  0.03598995
  0.01471121 -0.13072383  0.02694406  0.10130345 -0.11918161 -0.03322411
  0.03842807 -0.06875674 -0.00744815 -0.1270806   0.16391398  0.03479717
 -0.07183748 -0.21376064  0.09859771 -0.05417282 -0.10011198  0.06800435
 -0.18218991 -0.16138807 -0.30469042  0.00607627  0.34856233  0.05833033
 -0.21399437  0.06280588 -0.02526969 -0.01684063  0.10803244  0.13137439
 -0.01971675  0.04716804 -0.13833117  0.00957553  0.21229231 -0.0956252
 -0.04204476  0.21847723  0.01498801  0.06584193  0.0465827  -0.01344276
 -0.04838155  0.12293457 -0.14460924 -0.02231564  0.04710364 -0.05526846
 -0.01506294  0.11687522 -0.13697836  0.07727304  0.00537359  0.07562121
 -0.01012591 -0.06987673 -0.11652386 -0.05349037  0.11192906 -0.20145801
  0.18976609  0.17152463  0.04747844  0.11066933  0.14239077  0.09669421
 -0.01493763 -0.00408604 -0.18148278  0.00285904  0.12838945 -0.01765083
  0.07970095 -0.00559633]