[-0.12301679  0.11327942  0.059973   -0.05607048 -0.08321615 -0.05062146
 -0.05820588 -0.12738933  0.14713489 -0.03698045  0.27453613 -0.03106754
 -0.18151207 -0.13996378 -0.04223185  0.20340548 -0.22870003 -0.12704608
 -0.0167496  -0.00714617  0.12337148 -0.03631236  0.01133912  0.02215444
 -0.11850584 -0.32249948 -0.07438248 -0.04510924  0.03092412 -0.01911993
 -0.03028943  0.06059785 -0.23080234 -0.09773415  0.05577563  0.0963669
 -0.00741729 -0.10424137  0.178242   -0.01948894 -0.2109663   0.02732707
  0.06127435  0.20039327  0.14748719  0.02821853  0.03670431 -0.15587698
  0.16825214 -0.10840634  0.00119217  0.17841242  0.06035516  0.04104678
  0.00486634 -0.17779388  0.0665344   0.09127806 -0.17438219 -0.05393522
  0.04396635 -0.08846994 -0.01426766 -0.13432962  0.16178334  0.05795638
 -0.05086565 -0.24123581  0.12882286 -0.06072521 -0.04300498  0.08522273
 -0.18460117 -0.17610972 -0.31801432 -0.00052563  0.34479386  0.06036068
 -0.1827248   0.08748405 -0.03690417 -0.03640149  0.09108111  0.14400265
  0.00516785  0.09036639 -0.11460402 -0.03011672  0.21190563 -0.07232603
 -0.02152765  0.20796199 -0.00647417  0.0435788   0.04771359 -0.01693585
 -0.09815347  0.071079   -0.1362583  -0.05244105  0.03365302 -0.04709676
 -0.0038227   0.08440028 -0.15602727  0.05181416  0.00277978  0.05568812
 -0.05079602 -0.06435906 -0.09630433 -0.07164408  0.11100391 -0.20757173
  0.22521973  0.16881506  0.05783777  0.12489863  0.13777336  0.09202182
 -0.04293117  0.00568754 -0.15000972 -0.00499748  0.09465298 -0.02227361
  0.09455813 -0.00692672]