[-0.1117646   0.1494581   0.04527449 -0.03842483 -0.06333623 -0.05765447
 -0.03946947 -0.16572012  0.12486384 -0.03618718  0.28743741 -0.02358343
 -0.18846035 -0.18652335 -0.02311867  0.18933079 -0.21141675 -0.12875588
  0.00590399  0.03234575  0.14749785  0.01253158  0.03781207  0.01988236
 -0.13977377 -0.30073199 -0.07668165 -0.05746309 -0.00601065 -0.03906308
 -0.04022259  0.09342128 -0.19798373 -0.10745794  0.06671726  0.07035981
 -0.0478927  -0.03799151  0.19138853 -0.03094299 -0.21465997  0.03784978
  0.08576428  0.25904462  0.17512411  0.02044496  0.0434822  -0.16784336
  0.14627638 -0.11798169  0.035001    0.15762904  0.07989265  0.04679109
  0.019776   -0.15213148  0.02349879  0.1103388  -0.14123672 -0.01663681
  0.06703192 -0.08551653 -0.00927576 -0.08691769  0.14716779  0.02268597
 -0.05397277 -0.20331883  0.11260301 -0.05804697 -0.0966628   0.09711207
 -0.19187973 -0.19491501 -0.30832812 -0.01151317  0.34132889  0.04128347
 -0.18679434  0.08388414 -0.00397022 -0.03228418  0.12502298  0.14085808
  0.01190708  0.05252046 -0.11369929  0.00806692  0.22785221 -0.09442798
 -0.02248495  0.22422934  0.02003468  0.04042648  0.05494324 -0.01332284
 -0.0461221   0.09152784 -0.16623919 -0.04775312  0.03078411 -0.04184926
 -0.00604683  0.11914277 -0.15349561  0.08282547  0.04016061  0.07536749
 -0.0268605  -0.06561531 -0.08560868 -0.06772988  0.07909125 -0.189858
  0.22160745  0.14690258  0.04961873  0.09944036  0.10706002  0.0712068
 -0.01218284 -0.00779349 -0.17394613  0.00798872  0.14775865  0.00152123
  0.09886248 -0.0148208 ]