[-1.17653146e-01  1.14713870e-01  6.19997159e-02 -6.54597506e-02
 -7.93747678e-02 -4.95310090e-02 -5.70689850e-02 -1.37920111e-01
  1.43046826e-01 -3.38316560e-02  2.81323254e-01 -3.01805194e-02
 -1.86469004e-01 -1.52297914e-01 -3.79937552e-02  2.00905606e-01
 -2.29887873e-01 -1.34212807e-01 -1.60158202e-02 -1.11528840e-02
  1.19376145e-01 -4.17566560e-02  1.56726129e-02  2.79408041e-02
 -1.25549451e-01 -3.28045696e-01 -7.75082558e-02 -4.58463691e-02
  3.26066911e-02 -6.40849769e-03 -3.63251604e-02  6.80438876e-02
 -2.31244162e-01 -9.12606046e-02  5.55042103e-02  9.25642475e-02
 -9.07662499e-04 -1.07056677e-01  1.83253735e-01 -1.39834750e-02
 -2.10823327e-01  2.47100871e-02  6.07160926e-02  2.04294011e-01
  1.48548618e-01  1.84311699e-02  5.29331230e-02 -1.56778842e-01
  1.72209650e-01 -1.03806436e-01  4.51586535e-03  1.89634651e-01
  5.79158366e-02  3.31677273e-02  2.56534782e-03 -1.79329678e-01
  5.92700839e-02  9.49318483e-02 -1.68052152e-01 -4.74691503e-02
  4.19720672e-02 -9.39949602e-02 -2.48911101e-02 -1.44480869e-01
  1.63977802e-01  6.45617843e-02 -5.93180060e-02 -2.42234707e-01
  1.24043010e-01 -5.72780967e-02 -4.59337905e-02  8.10044631e-02
 -1.99771389e-01 -1.69345185e-01 -3.29829663e-01 -2.52987607e-03
  3.43679398e-01  5.46986051e-02 -1.93621263e-01  9.01844203e-02
 -4.46250774e-02 -2.69108955e-02  9.97381508e-02  1.54808238e-01
  1.79483579e-03  9.81655568e-02 -1.20398380e-01 -3.04812733e-02
  2.13911161e-01 -7.53885433e-02 -2.33455580e-02  2.11649641e-01
 -9.02578887e-03  4.84881327e-02  4.91078421e-02 -1.04472516e-02
 -1.01569809e-01  6.04787730e-02 -1.35407403e-01 -5.08036911e-02
  3.53048854e-02 -4.60799932e-02 -5.69549715e-03  8.27248320e-02
 -1.58658966e-01  4.59863953e-02  6.48771925e-03  6.04656115e-02
 -4.76907007e-02 -7.42085800e-02 -9.06741247e-02 -8.01278502e-02
  1.08329192e-01 -2.06508026e-01  2.16783807e-01  1.69044718e-01
  5.54871969e-02  1.25567645e-01  1.43241212e-01  9.26782042e-02
 -5.17207049e-02  3.82886524e-03 -1.41116261e-01 -1.23964259e-04
  9.66491401e-02 -1.85311753e-02  9.49331671e-02 -1.35062132e-02]