[-0.12205826  0.11561779  0.05684083 -0.05759673 -0.08145199 -0.04108981
 -0.06528167 -0.12124658  0.14351432 -0.03295326  0.27353141 -0.02442841
 -0.18201922 -0.14610948 -0.04555914  0.20050859 -0.22738813 -0.12994204
 -0.01115405 -0.00253664  0.1176366  -0.03355045  0.00909254  0.01320073
 -0.11733922 -0.3270658  -0.06794517 -0.04653447  0.02817221 -0.01274433
 -0.03890446  0.05776532 -0.23420595 -0.09876447  0.0618108   0.10073864
 -0.00761931 -0.0953754   0.16570182 -0.0204856  -0.20986044  0.03402038
  0.06235157  0.20557578  0.1571005   0.03013751  0.03944428 -0.15757993
  0.16319899 -0.11208526  0.00663724  0.17840521  0.06452376  0.0415198
  0.00095864 -0.17650093  0.0601709   0.08862937 -0.16413563 -0.0493356
  0.04743385 -0.08081762 -0.01277986 -0.13488935  0.17044237  0.05285852
 -0.06434724 -0.24344932  0.115932   -0.06079237 -0.04342144  0.08267555
 -0.18170613 -0.17571583 -0.31745383  0.00534839  0.34573674  0.05905607
 -0.18534076  0.09259251 -0.04783205 -0.03262495  0.08955541  0.14299187
  0.00827946  0.09041733 -0.11385808 -0.03619543  0.2209045  -0.0739023
 -0.02411366  0.20469689 -0.01465944  0.0451419   0.04574975 -0.00748749
 -0.09651588  0.07195794 -0.13233136 -0.05417275  0.03047822 -0.0567557
 -0.00508844  0.08412877 -0.16020119  0.05545895  0.00096403  0.06842609
 -0.03746235 -0.06535228 -0.09419321 -0.07097818  0.1112128  -0.21627586
  0.235695    0.1678813   0.06503239  0.12757906  0.14753973  0.08876728
 -0.04025581  0.00755767 -0.14719652 -0.01017232  0.08727448 -0.02221054
  0.09852072 -0.00450625]