[-9.21969563e-02  1.25877962e-01  6.15549348e-02 -5.55054508e-02
 -7.75801316e-02 -4.64431792e-02 -6.79944605e-02 -1.13500491e-01
  1.67247117e-01 -3.32344174e-02  2.76911080e-01 -2.32023764e-02
 -1.94473937e-01 -1.41945139e-01 -4.50226180e-02  2.11071596e-01
 -2.56670564e-01 -1.31029353e-01 -9.43318848e-03 -2.66435347e-03
  1.11278310e-01 -2.39214730e-02  2.82350611e-02  2.24357247e-02
 -1.15233772e-01 -3.28051418e-01 -5.53319231e-02 -6.40233308e-02
  2.01131124e-02 -2.21611001e-03 -5.43610230e-02  7.50270188e-02
 -2.43219897e-01 -1.10937774e-01  6.56610280e-02  8.21332037e-02
 -1.58745926e-02 -8.02001879e-02  1.64151028e-01 -2.67590024e-02
 -1.92711934e-01  2.35450994e-02  5.17619960e-02  2.14088634e-01
  1.68279022e-01  3.72934826e-02  5.08639999e-02 -1.51239142e-01
  1.45407915e-01 -1.18628524e-01  2.04009265e-02  1.64036453e-01
  7.45918378e-02  3.25630158e-02 -2.96797807e-04 -1.95024058e-01
  2.38672271e-02  1.00138322e-01 -1.35268897e-01 -2.85660364e-02
  5.14532104e-02 -8.50203782e-02 -2.24994384e-02 -1.38436586e-01
  2.01946288e-01  3.87786962e-02 -7.80125931e-02 -2.47039750e-01
  1.11340001e-01 -5.09883426e-02 -5.26421852e-02  8.58177990e-02
 -1.84896871e-01 -1.55684218e-01 -3.24238658e-01 -1.33274710e-02
  3.38128388e-01  2.29181927e-02 -1.92894131e-01  7.30690360e-02
 -5.83462231e-02 -3.06591000e-02  6.36559650e-02  1.46710098e-01
  6.40266994e-03  8.88190195e-02 -1.29496634e-01 -3.08205485e-02
  2.20070347e-01 -9.09458324e-02 -3.01490705e-02  2.12357640e-01
 -2.89894845e-02  3.74793820e-02  2.43656784e-02 -2.12010350e-02
 -9.65385586e-02  7.50747919e-02 -1.45206675e-01 -6.17962554e-02
  3.06543894e-02 -3.73968445e-02 -3.19077037e-02  9.45629999e-02
 -1.53577313e-01  3.36277112e-02 -1.04838312e-02  7.31739625e-02
 -3.22477631e-02 -7.34112784e-02 -1.12749331e-01 -8.93642232e-02
  1.25309318e-01 -2.11004883e-01  2.17595488e-01  1.62661061e-01
  8.31491575e-02  1.18791915e-01  1.26479462e-01  7.80972615e-02
 -3.53605598e-02  9.62975621e-03 -1.75353572e-01  2.18313630e-03
  1.05618618e-01 -2.24218778e-02  9.62160379e-02 -1.85616687e-03]