[-8.68285820e-02  1.45897046e-01  3.43640819e-02 -3.46832275e-02
 -6.11982122e-02 -2.71082427e-02 -1.98782235e-02 -1.30075261e-01
  1.28799781e-01 -3.57016847e-02  2.91394889e-01 -2.29395758e-02
 -2.03555331e-01 -1.89061671e-01 -6.18583197e-03  1.85001314e-01
 -2.05766708e-01 -1.27288043e-01  1.36749251e-02  4.02126051e-02
  1.39105901e-01 -9.07543581e-03  5.27115948e-02  1.62349790e-02
 -1.07270099e-01 -3.03688705e-01 -8.25256407e-02 -4.99209128e-02
  1.11253262e-02 -5.63818589e-02 -6.96079060e-02  9.23141837e-02
 -1.99310616e-01 -1.00980215e-01  5.46025224e-02  7.92431608e-02
 -1.57821774e-02 -4.58026491e-02  1.78771153e-01 -2.76609063e-02
 -1.88196152e-01  3.70836221e-02  4.38443273e-02  2.43605405e-01
  1.98035166e-01  2.22482271e-02  1.82120297e-02 -1.30332485e-01
  1.17195122e-01 -1.12969533e-01  1.76875088e-02  1.57371685e-01
  6.15817197e-02  3.01627126e-02  7.38331815e-03 -1.35468885e-01
  2.31489725e-02  7.61418268e-02 -1.45156980e-01 -5.55631593e-02
  6.18085042e-02 -7.50597194e-02  3.59322876e-03 -1.07708834e-01
  1.41892135e-01  1.34333689e-02 -4.24467139e-02 -2.32825711e-01
  1.03893772e-01 -8.57802853e-02 -8.12185407e-02  9.13415700e-02
 -1.93568140e-01 -1.73452973e-01 -2.81053901e-01 -1.80099902e-04
  3.26619834e-01  8.35945755e-02 -1.74364641e-01  9.80581045e-02
 -1.19749559e-02 -4.62662354e-02  1.09134160e-01  1.11338399e-01
  1.83783974e-02  8.33330080e-02 -1.40961811e-01 -3.74141353e-04
  2.02732787e-01 -8.14775601e-02 -3.00196800e-02  2.28731319e-01
 -9.93537810e-03  5.57285845e-02  7.42414147e-02 -3.12532634e-02
 -2.19836272e-02  1.00886248e-01 -1.70487732e-01 -4.30737063e-02
  1.02752410e-02 -7.60411769e-02 -5.96118672e-03  1.18857406e-01
 -1.36644229e-01  5.98108768e-02 -3.26115335e-03  9.04858708e-02
 -4.48629893e-02 -5.65875955e-02 -1.07881263e-01 -5.37080541e-02
  9.16884318e-02 -2.11158156e-01  1.90264240e-01  1.52714297e-01
  4.38189097e-02  7.49168545e-02  1.10513367e-01  9.50920507e-02
 -2.28790138e-02 -7.16606854e-03 -1.83385998e-01  5.66794013e-04
  1.21900193e-01 -2.56720115e-03  1.09818712e-01 -2.31426954e-03]