[-0.12181588  0.13236357  0.0658522  -0.03288595 -0.07268627 -0.05907921
 -0.04243688 -0.1351205   0.10950144 -0.03229534  0.27069828 -0.0109954
 -0.18277109 -0.17859738 -0.04442478  0.20724265 -0.20740937 -0.12403166
 -0.01612121 -0.01427512  0.10633838 -0.01831793  0.0299587   0.00313057
 -0.11639267 -0.29395634 -0.0478962  -0.07055715  0.00049693 -0.01911108
 -0.0332192   0.10319749 -0.19941846 -0.07651472  0.06526202  0.09355848
 -0.00474187 -0.04514345  0.17671847 -0.03074236 -0.202865    0.02440205
  0.08681739  0.23260279  0.18941231  0.01138597  0.04617524 -0.14774863
  0.1517947  -0.096682   -0.00517214  0.15464941  0.06893616  0.03237711
  0.04116374 -0.17609718  0.04283015  0.06743101 -0.13992698 -0.05389826
  0.03908055 -0.08680692 -0.0283777  -0.11782795  0.17621075  0.02889453
 -0.05908139 -0.21594803  0.16050267 -0.06962863 -0.07465304  0.08309007
 -0.18865365 -0.16347145 -0.31502438 -0.01262671  0.32412234  0.0837192
 -0.20160866  0.10126115 -0.01861779 -0.0286307   0.11537494  0.16222106
  0.0151997   0.0882187  -0.10946824 -0.03553138  0.19783235 -0.07818736
 -0.03353013  0.19009821  0.00613412  0.03186753  0.04367406 -0.05128659
 -0.07222342  0.07146781 -0.18543081 -0.06772496  0.00437311 -0.04700333
 -0.00249885  0.09786677 -0.13363548  0.03795825  0.01408817  0.06988882
 -0.07222628 -0.05046157 -0.0798386  -0.04825033  0.08619475 -0.19725172
  0.23206258  0.15689428  0.04424883  0.10497288  0.1447783   0.08324461
 -0.01916226 -0.00332409 -0.14502464 -0.01407026  0.10360197 -0.02745922
  0.10421357  0.00042795]