[-0.10899606  0.15191369  0.07271013 -0.04709522 -0.09684374 -0.06658184
 -0.06744566 -0.12086214  0.14518341 -0.02368158  0.29518566 -0.02079882
 -0.18936467 -0.15527132 -0.03831594  0.20515175 -0.24317348 -0.12579082
 -0.00347194  0.00488251  0.13027681 -0.03671274  0.04806875  0.02028432
 -0.12801294 -0.34819338 -0.0525361  -0.06311004  0.02049982 -0.0117919
 -0.04457943  0.07152331 -0.23820312 -0.11672803  0.05190766  0.08577096
 -0.03714724 -0.07704493  0.17380105 -0.02595337 -0.20029043  0.00455037
  0.05069854  0.22299369  0.16322771  0.03860324  0.07055586 -0.13989255
  0.14755347 -0.11249854  0.02456956  0.15776029  0.0845337   0.03047138
  0.02107364 -0.1768921   0.0379266   0.10271791 -0.15076008 -0.03980124
  0.04890389 -0.08160773 -0.01383515 -0.14178041  0.20522776  0.04465548
 -0.05777031 -0.21722303  0.12741005 -0.0373536  -0.06016135  0.09052294
 -0.18985473 -0.16197172 -0.33212346 -0.01836117  0.34819016  0.03954389
 -0.17823863  0.05198931 -0.04439828 -0.03495215  0.07042238  0.13607146
 -0.00239285  0.08640754 -0.13459009 -0.01593122  0.20945072 -0.09654319
 -0.03881783  0.20178092 -0.01115045  0.04741901  0.02705941 -0.03481664
 -0.10025058  0.08768215 -0.14379969 -0.05620461  0.02417533 -0.04115513
 -0.0249381   0.09453729 -0.14571349  0.02211574  0.00296288  0.07257795
 -0.04829989 -0.06246216 -0.11729906 -0.09856575  0.10048803 -0.20211907
  0.22018437  0.1714714   0.0668717   0.11308904  0.12206849  0.06225483
 -0.03230704 -0.00173675 -0.16364986  0.00570529  0.1139133  -0.02260055
  0.09871666 -0.00189216]