[-1.17375486e-01  1.51170775e-01  5.32754734e-02 -4.97941561e-02
 -8.19395334e-02 -4.46645208e-02 -4.47846614e-02 -1.59185991e-01
  1.27520710e-01 -5.03461026e-02  2.78926820e-01 -5.28711267e-02
 -1.94252357e-01 -1.55427769e-01 -5.40447421e-02  2.08397254e-01
 -2.11753055e-01 -1.22541606e-01 -1.94349904e-02  8.29447154e-03
  1.39897674e-01  1.83738880e-02  2.79849451e-02  7.27459881e-03
 -1.08096145e-01 -2.95763493e-01 -6.23540096e-02 -5.51314168e-02
 -3.55382264e-03 -5.50137572e-02 -4.09744307e-02  5.81796654e-02
 -2.14482829e-01 -9.87166986e-02  5.23955785e-02  6.54048547e-02
 -4.32555303e-02 -5.65151349e-02  1.65533200e-01 -4.09985594e-02
 -2.10950881e-01  4.28881124e-02  7.80098066e-02  2.37506792e-01
  1.77079245e-01  1.80869047e-02  1.82261914e-02 -1.78717121e-01
  1.26454309e-01 -1.21936776e-01  1.43586518e-02  1.50999799e-01
  7.27812871e-02  3.69058624e-02  1.64524335e-02 -1.42762646e-01
  6.93476666e-03  1.08824275e-01 -1.09409690e-01 -3.02454513e-02
  7.22152814e-02 -6.75707087e-02 -1.90911014e-02 -1.16382204e-01
  1.66541085e-01  1.71007421e-02 -7.09470958e-02 -2.09350586e-01
  1.00686170e-01 -5.83398938e-02 -9.14537460e-02  8.19871798e-02
 -1.69236511e-01 -1.80932552e-01 -2.99898356e-01 -1.85480230e-02
  3.40901464e-01  3.63988690e-02 -1.98353678e-01  7.81490505e-02
 -4.57282551e-02 -1.91459972e-02  1.06589518e-01  1.31368265e-01
  1.96962487e-02  6.25529885e-02 -1.08812526e-01 -5.06714731e-03
  2.23501012e-01 -1.16602100e-01 -1.56369098e-02  2.34842062e-01
  1.73267355e-04  3.23604010e-02  2.61176508e-02 -2.26441398e-02
 -5.92741035e-02  8.58412459e-02 -1.47775650e-01 -6.23989515e-02
  3.79989184e-02 -4.13758419e-02 -1.21847158e-02  1.17048025e-01
 -1.64928362e-01  7.27010891e-02  2.82917079e-02  8.46258923e-02
 -5.45948138e-03 -6.19743727e-02 -8.54711160e-02 -6.93672225e-02
  1.03078149e-01 -1.98583201e-01  2.14111477e-01  1.60134420e-01
  4.84968908e-02  9.56712589e-02  1.28692746e-01  7.50645623e-02
 -8.38341005e-03  4.56390390e-03 -1.80628255e-01  6.14533294e-03
  1.32772729e-01 -1.98578252e-03  8.04959163e-02 -3.83967464e-03]