[-0.10348952  0.14058891  0.06102746 -0.05676023 -0.08768108 -0.05313675
 -0.06489589 -0.11513575  0.159411   -0.03118589  0.29236808 -0.01375812
 -0.19401021 -0.14388995 -0.04337381  0.19916917 -0.2513541  -0.1294153
 -0.00499278 -0.00919043  0.12368339 -0.02926459  0.02433464  0.01773181
 -0.130179   -0.33140132 -0.04759362 -0.05895099  0.0239966  -0.01166082
 -0.0322579   0.08110161 -0.2467256  -0.10963495  0.05986822  0.08588731
 -0.02471395 -0.07551338  0.17150627 -0.02981824 -0.19442724  0.01939777
  0.053355    0.22292352  0.16905582  0.02642801  0.05707197 -0.14636151
  0.15366991 -0.12086792  0.00868357  0.16849363  0.07321786  0.03464718
  0.00331679 -0.18459623  0.03149771  0.100027   -0.14735614 -0.03978086
  0.05261878 -0.08933828 -0.01658254 -0.13544883  0.19760473  0.03874077
 -0.06681505 -0.23536174  0.12145741 -0.05089582 -0.0530046   0.09442243
 -0.18699878 -0.15960248 -0.32232413 -0.01019929  0.34158382  0.03717243
 -0.17582273  0.07159853 -0.05328476 -0.02807695  0.07193737  0.13349736
  0.00280585  0.0833888  -0.12822546 -0.01221757  0.22483781 -0.08524524
 -0.03633149  0.20750976 -0.01629727  0.0416029   0.03036119 -0.02736247
 -0.10096595  0.07290957 -0.14954567 -0.05726207  0.0186481  -0.0352871
 -0.02030694  0.10169373 -0.14433233  0.03358955 -0.00676417  0.07511193
 -0.04545652 -0.06735592 -0.10534102 -0.08981878  0.10829365 -0.20389831
  0.22467656  0.15913841  0.07544561  0.11591461  0.12751886  0.06195918
 -0.0368361   0.00184539 -0.165344    0.00310377  0.10267683 -0.02203823
  0.1033557  -0.01385428]