[-1.14639618e-01  1.05337039e-01  5.17857075e-02 -4.71877642e-02
 -8.30320939e-02 -2.94363201e-02 -3.93512398e-02 -1.61826998e-01
  1.45279199e-01 -4.95743714e-02  2.96069115e-01 -6.78754449e-02
 -1.51133895e-01 -1.76286206e-01 -5.39148115e-02  1.94529340e-01
 -2.11792260e-01 -1.30244821e-01 -1.49153909e-02  7.68934283e-03
  1.14577465e-01 -5.37318457e-03  4.82047303e-03  3.55012044e-02
 -1.50961950e-01 -2.69425452e-01 -8.72082263e-02 -7.66013041e-02
  1.46511039e-02 -4.40000407e-02 -4.93538491e-02  7.40172192e-02
 -2.06744030e-01 -1.27709419e-01  6.18928187e-02  1.11438803e-01
 -6.65960312e-02 -5.64797409e-02  1.36566728e-01 -4.93719392e-02
 -1.77169919e-01  8.08709487e-02  8.35659355e-02  2.58994192e-01
  1.63056418e-01  3.23051177e-02  1.51352556e-02 -1.76077947e-01
  1.45377502e-01 -1.56776294e-01  2.08206344e-02  1.47200048e-01
  8.59693214e-02  7.52374828e-02  4.09116745e-02 -1.35273620e-01
  2.97285002e-02  1.46557912e-01 -1.14578545e-01  1.81957372e-02
  3.93883511e-02 -6.13187812e-02 -1.51664042e-03 -1.21001974e-01
  1.53479159e-01  6.56261519e-02 -6.86134622e-02 -1.89638406e-01
  8.13666135e-02 -5.49985580e-02 -1.11394979e-01  8.89194980e-02
 -1.69604659e-01 -1.81892052e-01 -3.31678122e-01 -7.51618063e-03
  3.61483157e-01  4.10382822e-02 -2.18180999e-01  5.30666225e-02
 -4.80870157e-03  7.19242170e-03  1.12874605e-01  1.17440581e-01
 -2.52105849e-04  2.62182690e-02 -1.13184087e-01 -1.59890186e-02
  2.24057153e-01 -1.09089233e-01 -7.86835371e-05  2.02399924e-01
  2.62929662e-03  2.57444233e-02  3.93220596e-02  5.99658524e-04
 -5.97684272e-02  7.49503747e-02 -1.53176352e-01 -5.65213971e-02
  5.31246625e-02 -3.58648337e-02 -1.41571378e-02  9.10168886e-02
 -1.66315749e-01  9.03733075e-02  3.90614383e-02  5.07778637e-02
 -1.09292287e-02 -6.81958869e-02 -8.09058174e-02 -1.82284415e-02
  1.24038033e-01 -2.20769331e-01  2.41628036e-01  1.66284621e-01
  4.46007065e-02  1.11170411e-01  1.16860151e-01  6.38984367e-02
 -4.87866960e-02  9.36834700e-03 -1.33786902e-01 -1.21680638e-02
  1.15292601e-01 -9.42824408e-03  6.79035559e-02 -1.84129681e-02]