[-1.29837632e-01  1.11382343e-01  6.35158941e-02 -5.14128506e-02
 -7.96657354e-02 -5.80996387e-02 -5.54767624e-02 -1.24245241e-01
  1.53114110e-01 -3.50789651e-02  2.74423689e-01 -2.82052755e-02
 -1.69445217e-01 -1.49899930e-01 -3.05199958e-02  1.99288592e-01
 -2.26953074e-01 -1.24860287e-01 -1.28359646e-02 -7.80443614e-03
  1.19149305e-01 -4.49152626e-02  2.08822396e-02  2.72204783e-02
 -1.23460427e-01 -3.33787650e-01 -7.68538862e-02 -5.28720282e-02
  4.13477533e-02 -1.20887700e-02 -3.95029113e-02  5.42003289e-02
 -2.34512687e-01 -1.03130363e-01  4.99588475e-02  8.72201100e-02
 -1.11760898e-02 -9.96665284e-02  1.74957663e-01 -1.65664013e-02
 -2.15145424e-01  1.71817224e-02  5.64579181e-02  2.04540610e-01
  1.52760997e-01  3.87457982e-02  4.73587513e-02 -1.52581170e-01
  1.67356804e-01 -1.00368373e-01  1.05978129e-02  1.74234018e-01
  6.12402149e-02  3.56643274e-02  3.46310320e-03 -1.78820506e-01
  6.00789860e-02  9.24369767e-02 -1.70898780e-01 -4.37065773e-02
  4.18051593e-02 -8.56172219e-02 -2.04798989e-02 -1.28469750e-01
  1.73370644e-01  6.73354268e-02 -5.00954576e-02 -2.36131832e-01
  1.34886160e-01 -6.17003217e-02 -3.55526917e-02  8.38505775e-02
 -1.86269194e-01 -1.77526817e-01 -3.17134261e-01 -6.11391990e-03
  3.45918536e-01  5.86256795e-02 -1.82014272e-01  8.25054720e-02
 -4.92229313e-02 -2.67549343e-02  9.75865126e-02  1.55636236e-01
  3.16847116e-03  9.12973881e-02 -1.12855665e-01 -3.65751050e-02
  2.08656549e-01 -7.31438398e-02 -2.08167788e-02  2.06186175e-01
 -4.78391862e-03  4.07869145e-02  4.14299890e-02 -2.24345326e-02
 -1.02552764e-01  7.27400333e-02 -1.30240425e-01 -6.19450025e-02
  3.60632166e-02 -4.10908982e-02 -1.16813928e-04  8.15785080e-02
 -1.65813282e-01  5.43740503e-02  1.29733179e-02  6.39360696e-02
 -3.85509096e-02 -6.05912022e-02 -8.61990973e-02 -8.33065063e-02
  1.00424662e-01 -2.06408024e-01  2.24961668e-01  1.72656521e-01
  5.82717918e-02  1.34143949e-01  1.31205976e-01  9.43172053e-02
 -4.06392291e-02  5.59342885e-03 -1.45814434e-01  7.35985721e-03
  9.08013508e-02 -2.30790060e-02  9.43591520e-02 -5.46795595e-03]