[-0.08714379  0.11746984  0.0589189  -0.01788174 -0.07630583 -0.02769914
 -0.01273627 -0.15252493  0.13433672 -0.06386565  0.29272029 -0.03158484
 -0.1912103  -0.16429184 -0.01581429  0.1951091  -0.21118763 -0.13976277
 -0.01058409  0.01643415  0.14435421  0.01112992  0.03434472  0.00330691
 -0.10507146 -0.30834934 -0.07516616 -0.03093304  0.04325456 -0.04407115
 -0.06269949  0.08419225 -0.20840397 -0.09860023  0.05611701  0.08327194
 -0.02563037 -0.07024949  0.1708888  -0.04373835 -0.2034357   0.05687352
  0.05187816  0.23784271  0.19283707  0.01658591  0.02053682 -0.15729122
  0.12827075 -0.12281581  0.01405299  0.16161901  0.06219059  0.04237395
  0.00659324 -0.14982548  0.00427046  0.08437938 -0.12522201 -0.03871807
  0.07580038 -0.06983223  0.0159926  -0.12518848  0.1325004   0.00307299
 -0.05011371 -0.23681477  0.08832856 -0.09129121 -0.08860549  0.07360557
 -0.19711523 -0.16902174 -0.30349812 -0.01196616  0.34050968  0.06054487
 -0.17779469  0.09865258 -0.01319083 -0.01908257  0.11219883  0.12614143
  0.02731137  0.07956298 -0.13850378  0.004593    0.21038139 -0.09274594
 -0.02929013  0.23698251 -0.01119944  0.03934466  0.06240615 -0.00920537
 -0.0462636   0.09447726 -0.16381028 -0.05203774  0.01903206 -0.04866739
  0.01203299  0.12024547 -0.1359822   0.08956808 -0.01410858  0.11168597
 -0.01724122 -0.06600208 -0.10446413 -0.04990488  0.09469924 -0.20073345
  0.1925347   0.15707229  0.04669591  0.09213716  0.11694055  0.09836847
 -0.03268398  0.01659239 -0.18953052  0.00499299  0.10471506  0.00087741
  0.09715417  0.00983328]