[-0.13790123  0.15152811  0.06778631 -0.0309406  -0.06432756 -0.08096939
 -0.04101393 -0.13115613  0.0984081  -0.0286672   0.28573227 -0.0139911
 -0.19143844 -0.21114957 -0.01780734  0.19147146 -0.18424074 -0.09765214
 -0.02051151 -0.01292648  0.12669452 -0.03068725  0.05744189  0.00621548
 -0.10535636 -0.31024033 -0.06067199 -0.06199207  0.0042022  -0.03158033
 -0.03679238  0.07804713 -0.19679748 -0.1000553   0.04805049  0.09927651
 -0.02032514 -0.03035313  0.17458226 -0.0424636  -0.18089917  0.00448075
  0.07615601  0.22374733  0.18857303  0.0267097   0.06227927 -0.14213
  0.13856423 -0.08605423  0.00193803  0.14889209  0.07432816  0.03174601
  0.06146443 -0.14606602  0.05578082  0.06993946 -0.14751692 -0.07040866
  0.04739072 -0.06447246 -0.03972838 -0.09540294  0.17201118  0.03118834
 -0.05276311 -0.20532759  0.15438125 -0.07314067 -0.07070728  0.09462732
 -0.18051104 -0.15988423 -0.31333926 -0.0071013   0.33970296  0.08687143
 -0.19020048  0.07270657 -0.02576383 -0.04592546  0.12206936  0.12600401
 -0.00981814  0.08310971 -0.12247285 -0.00859241  0.17385347 -0.07036334
 -0.03175492  0.17845146  0.03378717  0.04985731  0.04935026 -0.04449151
 -0.06807631  0.08169836 -0.17920648 -0.05513647  0.02367442 -0.06095489
 -0.00238935  0.08866312 -0.13033597  0.04873045  0.02330175  0.06321846
 -0.07998465 -0.04567191 -0.09832519 -0.04361933  0.06768355 -0.19381452
  0.21259092  0.16477112  0.0309612   0.09230494  0.13480674  0.08308589
 -0.01554021 -0.01473017 -0.13641649 -0.01744288  0.09870426 -0.0208402
  0.11186788 -0.00794354]