[-0.09994096  0.1096405   0.04929019 -0.01582278 -0.0635365  -0.04676185
 -0.01796102 -0.15714307  0.12137043 -0.05292626  0.29437241 -0.02024591
 -0.17407748 -0.19275902 -0.00084471  0.18043643 -0.21076536 -0.13718314
 -0.00481429  0.02222179  0.14014283 -0.00042884  0.04279358  0.01291246
 -0.11452433 -0.30469912 -0.0837542  -0.03865775  0.04850442 -0.02178961
 -0.05918761  0.0913083  -0.20823418 -0.10964812  0.06507603  0.08735782
 -0.01168374 -0.05740843  0.17207436 -0.03776248 -0.19006577  0.05197012
  0.04993427  0.24531364  0.20726399  0.03000929  0.03365083 -0.14951073
  0.14048003 -0.11765124  0.02322572  0.15752314  0.0706525   0.03416181
  0.0132123  -0.14913845  0.01541816  0.07842505 -0.13847797 -0.0392906
  0.07043669 -0.06594219  0.01204995 -0.12324557  0.13466008  0.00762356
 -0.04999033 -0.22880831  0.10079465 -0.0910028  -0.08351392  0.07645138
 -0.20472372 -0.16688377 -0.30959898 -0.00879726  0.34505063  0.07649154
 -0.17575276  0.10250258 -0.01202727 -0.01576397  0.11711188  0.12265616
  0.0258379   0.07134292 -0.13395809 -0.00350647  0.20194164 -0.07728618
 -0.03488175  0.22547852 -0.00705595  0.03991068  0.06993772 -0.01854412
 -0.04116576  0.09368394 -0.16039875 -0.04643775  0.01133824 -0.04436504
  0.0251698   0.11329629 -0.12907375  0.08881574 -0.01156539  0.11457264
 -0.02574117 -0.06588927 -0.10296354 -0.04600556  0.07775549 -0.20413089
  0.19542164  0.14910927  0.04417852  0.09904393  0.11084609  0.10335492
 -0.03670108  0.02101523 -0.17551632 -0.00185101  0.10159097 -0.00146757
  0.11307649  0.00861607]