[-0.10905001  0.14969066  0.03210697 -0.04484043 -0.08290004 -0.05607687
 -0.04426545 -0.1362299   0.14706324 -0.01731776  0.26617861 -0.01224731
 -0.17780854 -0.16207403 -0.04464389  0.17569768 -0.21167456 -0.10125084
  0.01283907  0.00398822  0.12828948  0.01490223  0.05288951  0.0226789
 -0.10173859 -0.30602902 -0.07168792 -0.06252094  0.00264974 -0.02803358
 -0.05056938  0.10703379 -0.19132352 -0.09924436  0.0667816   0.07464624
 -0.02319149 -0.03029225  0.17416571 -0.01801973 -0.19431016  0.02526493
  0.06317242  0.24748965  0.21246     0.01482984  0.02833405 -0.1499836
  0.13212858 -0.08906057  0.00269682  0.16320319  0.04460649  0.01650898
  0.02199459 -0.13552138  0.02007663  0.09781867 -0.14528194 -0.05360421
  0.06414083 -0.09794999 -0.02762644 -0.09945839  0.15563361  0.04423879
 -0.04164077 -0.23132114  0.12539908 -0.09527005 -0.08734396  0.10025269
 -0.1759997  -0.16638756 -0.28323242 -0.02481181  0.3404499   0.06919456
 -0.1699063   0.09635298 -0.0239449  -0.03297746  0.13240023  0.12150641
 -0.00813703  0.07717381 -0.12563272 -0.02209142  0.2068136  -0.06182497
 -0.03760017  0.21626902  0.00240944  0.04434654  0.07678888 -0.02994703
 -0.04577039  0.07829621 -0.18166807 -0.07016693  0.01327513 -0.07653184
 -0.00619351  0.103646   -0.15546726  0.05190091  0.01229782  0.08310398
 -0.04878062 -0.07379894 -0.07834549 -0.04027059  0.10629747 -0.20311879
  0.20624588  0.12955117  0.04849306  0.11134189  0.11088572  0.07634506
 -0.0391038  -0.03033603 -0.15357609  0.00605424  0.11027967 -0.00907796
  0.12122422 -0.01233282]