[-0.11841517  0.15522356  0.05817536 -0.06149707 -0.11130817 -0.06296697
 -0.06664901 -0.12576899  0.12299491 -0.00303593  0.29634663 -0.0330743
 -0.18516624 -0.12709789 -0.02483421  0.18609725 -0.21758313 -0.12084844
 -0.01704773 -0.0387341   0.12168974  0.00221383  0.03472305  0.02714004
 -0.12927637 -0.32598493 -0.05540375 -0.05221977  0.05226805 -0.01857412
 -0.03084129  0.08918898 -0.24983232 -0.11502051  0.08041928  0.12048524
 -0.00137386 -0.06929929  0.16323797 -0.02363125 -0.18736379  0.04347948
  0.05162214  0.23387575  0.1763327   0.01392531  0.06123627 -0.14666086
  0.11436059 -0.09146141  0.0132155   0.16364153  0.05663944  0.01800601
 -0.00755446 -0.18413375  0.03557834  0.09579314 -0.16728447 -0.05866278
  0.07746931 -0.10597477 -0.02006151 -0.14073452  0.19897106  0.03709378
 -0.06901944 -0.23321025  0.10260741 -0.05869975 -0.04318749  0.09911031
 -0.1832881  -0.13112973 -0.32747987  0.01001388  0.36049673  0.03038996
 -0.20656443  0.08077242 -0.04383303 -0.02654337  0.08248238  0.13420424
 -0.00053119  0.09147984 -0.14323781  0.00153783  0.20676737 -0.07290259
 -0.02609814  0.20897794 -0.00897506  0.04972038  0.06618091  0.00689743
 -0.12137389  0.03590541 -0.1371451  -0.06149896 -0.00133766 -0.05546845
 -0.02692652  0.10957328 -0.14493196  0.05912073 -0.01818779  0.05525487
 -0.07961164 -0.08733634 -0.05898405 -0.08051052  0.11641905 -0.20974031
  0.19525547  0.15978253  0.0466145   0.13361478  0.1265811   0.07486486
 -0.05174728  0.01411008 -0.1585546   0.00363163  0.08380591 -0.04026702
  0.11341987 -0.00405919]