[-0.12084434  0.13276994 -0.00331736 -0.06219462 -0.09110292 -0.07178398
 -0.03801125 -0.13484077  0.1547484  -0.01708022  0.24401753 -0.02964552
 -0.16461661 -0.14417189 -0.05185226  0.19483487 -0.2434819  -0.12224796
  0.0138476  -0.01549701  0.12162405 -0.00284914  0.04286435  0.04350261
 -0.11397248 -0.29462317 -0.07165565 -0.07381516 -0.01023478 -0.02804574
 -0.04148789  0.11814697 -0.19669282 -0.0867589   0.07937402  0.07836555
 -0.01217133 -0.04265034  0.17267947 -0.00537036 -0.18957095  0.01018484
  0.07951991  0.24687491  0.21571572  0.00125013  0.01113226 -0.12823451
  0.13229831 -0.11104266 -0.01927992  0.15277801  0.03758609  0.01491206
  0.01943217 -0.1324482   0.03920231  0.09328164 -0.15724225 -0.05663172
  0.07798105 -0.12198358 -0.04353825 -0.10615851  0.16884805  0.06233848
 -0.04881259 -0.22804563  0.13468823 -0.09054669 -0.08377817  0.0864276
 -0.16030572 -0.17321563 -0.27605104 -0.03812422  0.33744109  0.08381363
 -0.15539879  0.10306032 -0.02127008 -0.0205745   0.12835827  0.1133407
 -0.01105065  0.07668873 -0.13326149 -0.01437064  0.19981408 -0.05337888
 -0.034427    0.21094425 -0.01738455  0.04896125  0.06927264 -0.02951381
 -0.04741552  0.0804765  -0.17209207 -0.05292803  0.00776829 -0.0741464
 -0.00713668  0.09730911 -0.13968956  0.03388541  0.00277512  0.07544363
 -0.08290371 -0.0750818  -0.07675254 -0.02163567  0.09285065 -0.21378911
  0.2018913   0.13554977  0.04433584  0.11412954  0.10013145  0.05544752
 -0.04121359 -0.0409695  -0.16771676  0.00988715  0.10241427 -0.01599975
  0.11354256 -0.00568751]