[-0.13627343  0.14085297  0.05013145 -0.02832268 -0.07607859 -0.0378367
 -0.03971591 -0.13609122  0.14716761 -0.04880038  0.27383548 -0.04469721
 -0.17461756 -0.1709519  -0.03800464  0.19813046 -0.20375068 -0.13177653
 -0.00478361  0.00157599  0.15902632  0.01526707  0.01544412  0.01741195
 -0.12130854 -0.30635229 -0.06304308 -0.06753673  0.02456086 -0.05356492
 -0.055299    0.0517001  -0.2222251  -0.12146576  0.03671133  0.05451316
 -0.02760469 -0.05623196  0.16755784 -0.03783691 -0.20545374  0.05210278
  0.05323001  0.25082466  0.19211704  0.03460658  0.01055538 -0.16712557
  0.13468882 -0.12305512  0.00103429  0.16705345  0.06345665  0.03973527
  0.00051738 -0.149754    0.01936483  0.08153389 -0.13002618 -0.03333941
  0.03948246 -0.06671716  0.00291343 -0.09849759  0.15625444  0.00098266
 -0.04998138 -0.20978783  0.08811619 -0.07228676 -0.07391264  0.07701413
 -0.18238457 -0.18629961 -0.31672761 -0.00952554  0.33872893  0.03419081
 -0.20081906  0.10132547 -0.04028335 -0.02313097  0.11677217  0.13112596
  0.01965509  0.0485685  -0.11716416 -0.00928989  0.22117107 -0.10741241
 -0.01496084  0.23178227  0.00346222  0.0255556   0.04293222  0.00335428
 -0.06712908  0.08978    -0.13044046 -0.05897343  0.05527544 -0.03735324
 -0.00475752  0.11862648 -0.18511215  0.08425879  0.01962489  0.08679523
 -0.01831728 -0.07774453 -0.08978916 -0.05578398  0.102153   -0.18406612
  0.21705225  0.17348717  0.03979268  0.11832231  0.12378867  0.06488841
 -0.02872026  0.02076738 -0.17705129  0.00664353  0.12491031 -0.00416982
  0.08435997  0.00079603]