[-0.13382237  0.14558063  0.03965844 -0.02133162 -0.06185032 -0.04795199
 -0.03580717 -0.13861589  0.12738429 -0.03900287  0.27880344 -0.02580968
 -0.16653933 -0.19689728 -0.02535577  0.19799829 -0.21137546 -0.1145637
 -0.00315021  0.00988397  0.15203403  0.00698096  0.04406787  0.0231862
 -0.12016131 -0.30074063 -0.06153917 -0.06619783  0.00983648 -0.05816634
 -0.05763149  0.05258588 -0.20556019 -0.1199407   0.03900087  0.06434298
 -0.04623462 -0.04778427  0.18796639 -0.03248818 -0.19003938  0.04658764
  0.06166998  0.26309264  0.20401528  0.03438286  0.01914633 -0.15146229
  0.1511018  -0.12688194  0.01323488  0.1551815   0.06910013  0.04280398
  0.00647826 -0.14606811  0.02734721  0.0865125  -0.13422602 -0.03033718
  0.03861339 -0.07161102  0.00679782 -0.07773911  0.15623896  0.01319199
 -0.04812009 -0.20059121  0.09023873 -0.06751435 -0.07426245  0.07745849
 -0.1850764  -0.19926773 -0.30819052 -0.00502811  0.33175287  0.0515626
 -0.19048871  0.08476111 -0.02788599 -0.03145605  0.12831889  0.13221568
  0.01395574  0.04566306 -0.1285042  -0.00395941  0.21005034 -0.10152169
 -0.03063891  0.22958834  0.01703601  0.03398096  0.05280872 -0.00818833
 -0.06236116  0.10666442 -0.1476671  -0.05246587  0.05059635 -0.05134748
  0.00671492  0.10935239 -0.16433656  0.08522347  0.02360614  0.09245118
 -0.02708685 -0.07178091 -0.10661405 -0.05427999  0.08607429 -0.17836803
  0.22282803  0.17017023  0.04107126  0.11794734  0.12603657  0.07373638
 -0.02140172  0.01855009 -0.16431884  0.01424087  0.12576033  0.01095618
  0.10611554  0.00273518]