[-0.11124398  0.13973634  0.04468384 -0.05241251 -0.07020932 -0.00806835
 -0.05996471 -0.13089244  0.13258617 -0.04154039  0.25733435 -0.01217507
 -0.1873803  -0.19690843 -0.04522458  0.18426894 -0.21729818 -0.15252225
  0.00982539  0.00732175  0.14909886 -0.00218702  0.03481273 -0.00318537
 -0.14195986 -0.31825247 -0.07009385 -0.04620129 -0.00450747 -0.01290375
 -0.01499346  0.08203784 -0.2219996  -0.08933683  0.05307888  0.09950564
 -0.0136802  -0.05582916  0.16034029 -0.03211174 -0.17245995  0.04874698
  0.04385556  0.24803638  0.16944061  0.01712289  0.05258689 -0.15798518
  0.13288604 -0.11976055  0.01280258  0.17314541  0.09029534  0.04050082
  0.01108277 -0.13840474  0.03953408  0.10722213 -0.1139081  -0.03100648
  0.04014385 -0.0672538  -0.00722782 -0.12953022  0.16247848  0.02459299
 -0.07251679 -0.23258133  0.09886228 -0.04406723 -0.09416809  0.07716929
 -0.19079302 -0.16001251 -0.32048327  0.00289872  0.33299375  0.04889648
 -0.21146598  0.06470695 -0.02894181  0.00458628  0.09174833  0.12902139
 -0.01903518  0.05431238 -0.12510642 -0.00399054  0.22122379 -0.0848745
 -0.04919375  0.20604287  0.01081117  0.05536038  0.04216908 -0.01227717
 -0.04737067  0.11061263 -0.13868384 -0.02124673  0.04625579 -0.05261757
 -0.00606474  0.12351264 -0.13808405  0.07229964 -0.00442014  0.08319196
 -0.02002869 -0.05982628 -0.11653378 -0.0514925   0.10518219 -0.20779715
  0.2111259   0.173729    0.04790394  0.10925809  0.14689559  0.0953723
 -0.03508289  0.0143707  -0.17392673 -0.00955491  0.1155401  -0.00889125
  0.08174764 -0.00275432]