[-0.12247391  0.14285636  0.06347033 -0.03616926 -0.05964762 -0.0605725
 -0.04823834 -0.14422832  0.12217783 -0.02953174  0.27255696 -0.02720474
 -0.18724063 -0.17673145 -0.04091273  0.20905738 -0.20537916 -0.12648955
 -0.0232743  -0.00674358  0.10755123 -0.02547888  0.02908447  0.01350683
 -0.11977039 -0.29857883 -0.05366183 -0.07040562 -0.00275352 -0.02169246
 -0.04369829  0.09931867 -0.19820362 -0.07627182  0.06392764  0.08841261
 -0.00483648 -0.05436134  0.173567   -0.0349723  -0.20866612  0.02246838
  0.08858555  0.22674195  0.19375253  0.00442086  0.04350649 -0.15352094
  0.15313466 -0.09148068 -0.01600917  0.1668738   0.06092935  0.03402159
  0.04998304 -0.17099015  0.04997307  0.06441499 -0.14126085 -0.05793705
  0.04331551 -0.08464584 -0.0333805  -0.11567885  0.16512226  0.03265373
 -0.05653555 -0.22420549  0.15137254 -0.07063596 -0.06631597  0.09026384
 -0.19426379 -0.17234538 -0.32000813 -0.02436893  0.32410914  0.08251112
 -0.202335    0.11256724 -0.0225309  -0.03045244  0.11655229  0.15483975
  0.01141439  0.0910198  -0.11821576 -0.03310777  0.20025623 -0.07607771
 -0.02511143  0.19369191  0.00090505  0.02465495  0.04265408 -0.04489092
 -0.0767469   0.06473124 -0.18240331 -0.07157123  0.01152831 -0.04306712
 -0.00722607  0.09368543 -0.14240563  0.03340125  0.02327647  0.07418398
 -0.07043802 -0.05066936 -0.07977898 -0.04829881  0.08785314 -0.2002666
  0.21903518  0.15131548  0.04656457  0.09359484  0.13960826  0.08108403
 -0.02724593 -0.00138239 -0.1396253  -0.01192608  0.09817164 -0.01976889
  0.09953043 -0.00479617]