[-1.07562952e-01  1.55675814e-01  4.56808619e-02 -3.82713191e-02
 -7.57026151e-02 -3.06915846e-02 -5.93576673e-03 -1.45555601e-01
  1.29268453e-01 -4.06373590e-02  3.06364566e-01 -2.85555478e-02
 -2.02809572e-01 -1.93405077e-01 -2.12886333e-02  1.82767183e-01
 -1.99287042e-01 -1.33563444e-01  7.43494183e-03  4.15699035e-02
  1.40182823e-01  1.33889599e-03  6.34390637e-02  1.28218774e-02
 -9.58488882e-02 -3.12684268e-01 -7.42838234e-02 -3.96176614e-02
  2.76751164e-02 -3.83373499e-02 -5.10786846e-02  1.01239920e-01
 -1.97652981e-01 -1.02135561e-01  5.63898347e-02  7.92815685e-02
 -3.39476392e-02 -2.57038753e-02  1.92378744e-01 -3.48372720e-02
 -2.00995073e-01  4.10368331e-02  5.95956035e-02  2.68379897e-01
  2.08400011e-01  1.31557053e-02  3.18390615e-02 -1.49990812e-01
  1.16932355e-01 -1.14352338e-01  2.77635884e-02  1.59744859e-01
  9.47599113e-02  1.95561387e-02  1.42299635e-02 -1.40222371e-01
  8.60309880e-03  9.02647898e-02 -1.31572112e-01 -2.88142897e-02
  6.84572086e-02 -7.86830708e-02 -7.14076031e-03 -1.10282101e-01
  1.49628550e-01 -3.47675802e-03 -6.16361089e-02 -2.28573158e-01
  1.09628573e-01 -7.74917826e-02 -8.63300189e-02  1.10158555e-01
 -2.07606107e-01 -1.69470862e-01 -3.05852860e-01 -4.07128042e-04
  3.47318500e-01  5.02264611e-02 -1.73863292e-01  8.66945907e-02
 -6.24888390e-03 -3.22453193e-02  9.14693475e-02  1.35266885e-01
 -6.93254313e-03  5.86645789e-02 -1.39766112e-01 -1.44408274e-04
  1.98112011e-01 -9.08811018e-02 -4.79853190e-02  2.22032174e-01
  3.53826093e-03  4.53222208e-02  6.21692501e-02 -1.66193545e-02
 -2.25662123e-02  8.84160474e-02 -1.76816508e-01 -4.94078621e-02
  4.37171292e-03 -8.84320512e-02 -1.29608093e-02  1.21966653e-01
 -1.54630378e-01  7.07189366e-02 -2.06117402e-03  9.39147249e-02
 -3.37848030e-02 -6.92434013e-02 -9.71108526e-02 -4.73115407e-02
  9.23228338e-02 -2.10216746e-01  1.95329174e-01  1.59347624e-01
  5.92712425e-02  8.21054801e-02  1.19602434e-01  8.19756910e-02
 -1.20388893e-02  1.07085695e-02 -1.66759700e-01  3.15337698e-03
  1.18030444e-01 -1.57828033e-02  1.11057520e-01  2.83982605e-04]