[-0.12582006  0.11960802  0.07325178 -0.0455923  -0.06826237 -0.02446439
 -0.04058208 -0.13440707  0.14081375 -0.0591071   0.26453325 -0.05847151
 -0.17158341 -0.14508338 -0.02973079  0.19803457 -0.21143997 -0.13011675
 -0.00431044  0.02243286  0.14526191  0.00119856  0.02177548  0.00101225
 -0.1268041  -0.29417637 -0.08270045 -0.06221462  0.01799255 -0.0448026
 -0.06293376  0.04488126 -0.22064427 -0.09380532  0.03282821  0.06047173
 -0.01676574 -0.07720634  0.15614307 -0.02826264 -0.21391089  0.04934965
  0.02892137  0.22293507  0.17424487  0.03305019  0.0030264  -0.15727754
  0.11402302 -0.12784401  0.00981894  0.14694098  0.06234176  0.02622871
  0.01124333 -0.14749365  0.01537196  0.09138336 -0.11462966 -0.03456286
  0.0398689  -0.06712919  0.01222295 -0.12520005  0.17512596  0.02162352
 -0.06913295 -0.20343092  0.10421371 -0.03086342 -0.07103696  0.07288783
 -0.1782383  -0.1757575  -0.30165729 -0.00258423  0.35177621  0.02528715
 -0.21830566  0.08464012 -0.0603842  -0.01664593  0.10535848  0.14175163
  0.02795937  0.05720169 -0.10529568 -0.02748819  0.2176456  -0.11715627
 -0.01811227  0.21920641 -0.019563    0.03274729  0.02481918 -0.02032921
 -0.05190761  0.09314577 -0.12303423 -0.0510333   0.04791385 -0.03881931
 -0.02352336  0.13559106 -0.17680413  0.06821466  0.02655846  0.06260427
 -0.00518297 -0.06293236 -0.09240922 -0.05803942  0.10057477 -0.2289176
  0.203058    0.17884794  0.03460471  0.10831328  0.11812036  0.08205668
 -0.01763397  0.03516089 -0.19158813  0.00359871  0.13662146  0.00101234
  0.06589694  0.01097561]