[-0.12062848  0.16123626  0.058608   -0.06541275 -0.12129177 -0.07364314
 -0.07991534 -0.12822546  0.12603784 -0.00458209  0.28482732 -0.0231977
 -0.17764437 -0.12217058 -0.02441984  0.18636309 -0.23072517 -0.12580211
 -0.00696472 -0.05090051  0.11928409  0.00312979  0.0409734   0.03062786
 -0.14703701 -0.32687333 -0.05383604 -0.0544472   0.04303197 -0.03248512
 -0.01973522  0.10008702 -0.23935273 -0.09770527  0.07946262  0.12236404
  0.00326602 -0.076143    0.17080876 -0.02024378 -0.20029162  0.03840613
  0.06293102  0.23388116  0.18560769 -0.0014531   0.05963085 -0.13979864
  0.13094071 -0.08417238 -0.00671325  0.17150906  0.04164156  0.01088739
 -0.00256843 -0.18979159  0.03363094  0.10236664 -0.17813103 -0.07119119
  0.06784218 -0.1199909  -0.01878031 -0.14281949  0.19514205  0.04701008
 -0.06399959 -0.23062359  0.10757303 -0.06183087 -0.03424435  0.11124096
 -0.1867519  -0.13923998 -0.3114993  -0.00260041  0.35504481  0.03409448
 -0.1908147   0.08862283 -0.0380684  -0.03237524  0.07531958  0.13895448
 -0.00392179  0.09836163 -0.140535    0.0038356   0.20717561 -0.06497298
 -0.01924752  0.2030818  -0.00855738  0.04930111  0.06970593 -0.00291849
 -0.13914227  0.03384228 -0.14122659 -0.07003473 -0.02044947 -0.06605738
 -0.02316586  0.10191634 -0.14070652  0.05217847 -0.01057655  0.04739464
 -0.09953334 -0.07985696 -0.0447873  -0.08245566  0.11554555 -0.21115473
  0.19503663  0.15810411  0.04015691  0.14876273  0.11855091  0.07948133
 -0.06715801  0.00873291 -0.13791493  0.01322734  0.07742721 -0.04294739
  0.12240588 -0.01447351]