[-0.1249853   0.12752043  0.01373091 -0.07682984 -0.09487846 -0.06076824
 -0.05393581 -0.13698344  0.14994948 -0.02961622  0.24329339 -0.02073224
 -0.16266857 -0.14579503 -0.05102785  0.19063912 -0.23492025 -0.12942825
  0.01793049 -0.02860121  0.11244201 -0.00883683  0.03053246  0.03735567
 -0.13106407 -0.29155087 -0.06915822 -0.06571752 -0.00780084 -0.01886771
 -0.03275778  0.11506339 -0.21025932 -0.08592322  0.06741726  0.09554102
 -0.01649587 -0.05453738  0.16846295 -0.01772859 -0.18896107  0.01802872
  0.08080145  0.24286325  0.20976193 -0.01123721  0.02038729 -0.12882358
  0.14134333 -0.10303693 -0.02012326  0.15631963  0.03802982  0.02561685
  0.01527508 -0.13047893  0.04204353  0.11077952 -0.15236853 -0.06053839
  0.0592185  -0.11944636 -0.04001044 -0.12026926  0.1773731   0.07221762
 -0.0487682  -0.2296458   0.14651892 -0.07945684 -0.08771607  0.0867058
 -0.16941105 -0.16038905 -0.28603265 -0.02997854  0.3213084   0.0860227
 -0.16497499  0.10608856 -0.02000532 -0.01227725  0.12306143  0.12276969
 -0.00427533  0.0826806  -0.11607049 -0.01428573  0.20887609 -0.04745061
 -0.03757988  0.2027667  -0.00369579  0.0438522   0.07379469 -0.02719653
 -0.05864489  0.06688038 -0.18211198 -0.06074857  0.01283649 -0.06056411
 -0.00214737  0.10994716 -0.13731001  0.04923894  0.00826544  0.07598595
 -0.07433417 -0.0664778  -0.05953161 -0.03122296  0.09494236 -0.20799258
  0.20585023  0.1332131   0.04184455  0.11881607  0.11106577  0.06008996
 -0.05112557 -0.0335699  -0.16052364  0.00533992  0.10171685 -0.01725265
  0.12256706 -0.00086291]