[-1.13161646e-01  1.55087665e-01  3.13121304e-02 -4.84568886e-02
 -7.83511400e-02 -5.11016622e-02 -3.65681835e-02 -1.35905132e-01
  1.47239491e-01 -1.72353331e-02  2.61660784e-01 -1.80279315e-02
 -1.89544633e-01 -1.56548992e-01 -4.36120145e-02  1.75665170e-01
 -2.21299559e-01 -1.05163887e-01  1.63552277e-02  1.24176135e-02
  1.38871059e-01  1.11229885e-02  5.03006354e-02  1.92528646e-02
 -1.17659487e-01 -2.99905747e-01 -7.75017291e-02 -6.19345903e-02
 -3.48876859e-03 -3.06827705e-02 -4.38075624e-02  1.08671419e-01
 -1.91939786e-01 -8.86193216e-02  6.22561090e-02  6.51127324e-02
 -2.38955300e-02 -2.92645823e-02  1.78361103e-01 -1.17524816e-02
 -2.01645643e-01  3.01487185e-02  6.41117841e-02  2.47321472e-01
  2.12772593e-01  1.20852813e-02  2.60014366e-02 -1.51955709e-01
  1.30891979e-01 -9.65551063e-02  7.53360987e-03  1.70501396e-01
  4.78276536e-02  2.17575710e-02  2.36919802e-02 -1.30880669e-01
  1.48732457e-02  9.81596783e-02 -1.49508104e-01 -4.25960235e-02
  6.89572021e-02 -9.63999853e-02 -2.18963008e-02 -1.00655995e-01
  1.47877574e-01  4.55289148e-02 -4.87853549e-02 -2.30346397e-01
  1.27237007e-01 -9.15797278e-02 -8.94520432e-02  1.07463501e-01
 -1.75534293e-01 -1.73953280e-01 -2.79006869e-01 -2.33300664e-02
  3.36032778e-01  6.69889078e-02 -1.64526224e-01  9.64218155e-02
 -2.75486838e-02 -3.96840982e-02  1.26780733e-01  1.23946361e-01
 -8.18962138e-03  7.35391751e-02 -1.16870739e-01 -1.45460488e-02
  2.14919671e-01 -6.57312050e-02 -3.87313329e-02  2.27324411e-01
 -1.37884912e-04  3.87259573e-02  7.00322986e-02 -2.81497575e-02
 -4.06919569e-02  7.62563422e-02 -1.74273059e-01 -6.86086789e-02
  1.26296496e-02 -8.43931958e-02 -1.08050257e-02  1.04583025e-01
 -1.55105487e-01  5.31861186e-02  1.55377211e-02  8.31433311e-02
 -5.32185212e-02 -7.45568797e-02 -8.52808952e-02 -3.16800550e-02
  1.05285585e-01 -2.12598398e-01  2.14600310e-01  1.26829490e-01
  4.25969772e-02  9.86292511e-02  1.09889247e-01  7.37919807e-02
 -3.32527272e-02 -3.22986506e-02 -1.50280654e-01  4.52075759e-03
  1.21051334e-01 -5.94042474e-03  1.21796958e-01 -1.47798304e-02]