[-0.12775169  0.14522146  0.04341989 -0.04893057 -0.07245179 -0.0276358
 -0.05399475 -0.13777846  0.14764027 -0.06326329  0.26879188 -0.02714219
 -0.16317639 -0.1800196  -0.03803791  0.19465874 -0.22215115 -0.14943223
  0.00421967  0.03228914  0.13423279 -0.01817494  0.02336693  0.00659024
 -0.10457458 -0.29709074 -0.09369657 -0.03995387  0.02770926 -0.04306219
 -0.04372643  0.07462447 -0.21915434 -0.10681627  0.04727624  0.10187234
 -0.03935788 -0.05974515  0.15112653 -0.04400816 -0.18468875  0.05233853
  0.05900906  0.24768801  0.18404582  0.03443433  0.01831348 -0.15277748
  0.11502015 -0.1201084   0.01071264  0.15937519  0.096366    0.04779931
  0.03253102 -0.15521251  0.04277515  0.07753396 -0.10370355 -0.03904508
  0.04316166 -0.06385922  0.00843888 -0.11055221  0.17560516  0.01918185
 -0.05867158 -0.22065754  0.11859639 -0.04040347 -0.07821202  0.08753905
 -0.17932037 -0.17273171 -0.29585227 -0.00056761  0.34983572  0.05447774
 -0.18594597  0.09918569 -0.02671669 -0.02985478  0.07931091  0.13121884
 -0.01104777  0.05221413 -0.12671416 -0.00698768  0.2111599  -0.09436942
 -0.02879423  0.19137213  0.00222179  0.03986879  0.03972186 -0.03346023
 -0.03481263  0.10446209 -0.15430523 -0.04645631  0.03780361 -0.05857049
 -0.02871972  0.12020888 -0.14019565  0.05956618  0.02659147  0.07402187
 -0.03548541 -0.04631382 -0.11829381 -0.0428625   0.09313288 -0.22813824
  0.22461656  0.1704607   0.04675288  0.10258694  0.14254157  0.09467713
 -0.00902365  0.00928036 -0.16023961 -0.01220658  0.11520479 -0.00394258
  0.08207347  0.01279466]