[-0.11956729  0.14079368  0.03986015 -0.05207804 -0.07788172 -0.03749368
 -0.04607158 -0.16854297  0.14666432 -0.03828618  0.26340732 -0.0380873
 -0.1466016  -0.18773247 -0.02929463  0.18948339 -0.22773734 -0.14090382
 -0.01846866 -0.0058789   0.12145995 -0.00770463  0.02038002  0.01496394
 -0.12260079 -0.29531702 -0.09048708 -0.06225158  0.02380215 -0.02995526
 -0.04699595  0.06799658 -0.21964125 -0.12807722  0.05886544  0.11907966
 -0.05064971 -0.06548139  0.12844887 -0.05171824 -0.15839176  0.08251046
  0.06552159  0.25348228  0.1725266   0.02476114  0.03786407 -0.15845214
  0.15099549 -0.12583549  0.00588611  0.15476449  0.06798066  0.06906789
  0.03366604 -0.1443069   0.03388176  0.14391778 -0.11334596  0.00375997
  0.05250844 -0.07343062 -0.01862452 -0.12467469  0.16571136  0.07199882
 -0.06920276 -0.21632782  0.07155257 -0.04754078 -0.10469355  0.05724243
 -0.18323456 -0.16706789 -0.31651506 -0.00427695  0.34372273  0.04390146
 -0.21677652  0.06425892 -0.02026335  0.02244985  0.12033468  0.1255378
 -0.00460509  0.05422918 -0.13118748 -0.01533512  0.21753433 -0.09106439
 -0.02004198  0.20947516 -0.00418319  0.05396574  0.0329753  -0.01176673
 -0.05718016  0.08424931 -0.15246722 -0.04744213  0.05080264 -0.04878784
 -0.02331154  0.09322061 -0.1416354   0.08229139  0.02992946  0.10128202
 -0.03292277 -0.0770335  -0.08227316 -0.01889094  0.10906719 -0.21992047
  0.2499558   0.18528192  0.02727507  0.11890829  0.12452648  0.07037625
 -0.03882208  0.01157691 -0.15273385 -0.00496181  0.10780574  0.00815241
  0.06323127 -0.00204747]