[-1.25669464e-01  1.27601311e-01  6.17469735e-02 -3.39243300e-02
 -5.91209047e-02 -5.86400889e-02 -4.03366201e-02 -1.35603964e-01
  1.24775343e-01 -4.28357534e-02  2.76035935e-01 -6.34090183e-03
 -1.84042126e-01 -1.81135565e-01 -3.55776958e-02  1.98958427e-01
 -2.01857001e-01 -1.25623047e-01 -1.85190961e-02 -1.36704193e-02
  1.16906561e-01 -2.32055057e-02  2.58136876e-02  1.75586680e-03
 -1.18078314e-01 -2.96299338e-01 -5.59753478e-02 -6.60464913e-02
  6.06194837e-03 -2.09549293e-02 -3.33682261e-02  1.01938188e-01
 -1.96086690e-01 -8.40400904e-02  5.92728332e-02  9.19680372e-02
  7.32708722e-05 -4.22814675e-02  1.75869867e-01 -2.45656502e-02
 -2.03565627e-01  1.46581745e-02  7.43439123e-02  2.28055984e-01
  1.78895772e-01  1.76872015e-02  4.13873866e-02 -1.52520418e-01
  1.48295224e-01 -9.36669335e-02 -1.01166470e-02  1.64371029e-01
  6.31547570e-02  3.67331468e-02  4.45421226e-02 -1.67046413e-01
  5.68990484e-02  5.67929745e-02 -1.44347146e-01 -6.62473664e-02
  4.09634225e-02 -8.54397193e-02 -2.80506164e-02 -1.07925884e-01
  1.67536229e-01  2.64928918e-02 -4.97077107e-02 -2.18395263e-01
  1.54960275e-01 -6.62530884e-02 -7.71573409e-02  8.76057297e-02
 -1.89932078e-01 -1.62863061e-01 -3.14677626e-01 -1.40813738e-02
  3.30583781e-01  8.33124444e-02 -1.93316564e-01  1.07344091e-01
 -2.61381175e-02 -3.71259823e-02  1.21031933e-01  1.50264129e-01
  6.57519558e-03  9.23341140e-02 -1.10542014e-01 -3.15792672e-02
  1.90498173e-01 -6.87233433e-02 -3.16045471e-02  1.85802758e-01
  8.07798654e-03  3.64736244e-02  5.17845154e-02 -4.23083752e-02
 -7.38408566e-02  7.22016618e-02 -1.80786952e-01 -7.59963617e-02
  2.29727533e-02 -3.90932113e-02  2.19008327e-03  1.00085318e-01
 -1.38787791e-01  4.46613692e-02  1.47918407e-02  6.81726113e-02
 -6.30049855e-02 -4.82054539e-02 -8.04747641e-02 -5.07037453e-02
  7.97232389e-02 -1.93800449e-01  2.17130095e-01  1.57599792e-01
  4.22349274e-02  9.91871729e-02  1.43807858e-01  8.28861818e-02
 -3.06981653e-02 -2.19501043e-03 -1.49876520e-01 -1.42878713e-02
  1.01729624e-01 -1.87828094e-02  1.01164438e-01 -7.87391514e-03]