[-0.09398841  0.14255421  0.04479664 -0.04409581 -0.08021527 -0.03875163
 -0.04543274 -0.13822116  0.14798205 -0.03133264  0.27572855 -0.02919954
 -0.18921767 -0.15195705 -0.04912379  0.1891229  -0.22283974 -0.10576665
  0.01248672  0.01590485  0.13118118  0.01546232  0.04184442  0.01589778
 -0.09911137 -0.29804966 -0.07278599 -0.05904625  0.00358655 -0.04734157
 -0.06137564  0.08828323 -0.1978303  -0.09341555  0.06276145  0.05979514
 -0.02325998 -0.05120699  0.16078898 -0.03032323 -0.21091762  0.03253405
  0.06533836  0.2299944   0.2002809   0.01221161  0.01116109 -0.16582845
  0.11372834 -0.09609275  0.01200806  0.15760033  0.04583636  0.01889213
  0.00644419 -0.14328186  0.00158481  0.0942151  -0.12813358 -0.03780231
  0.08105011 -0.09983099 -0.01666421 -0.11097597  0.15492912  0.03256366
 -0.05984617 -0.24561968  0.10867687 -0.08859342 -0.08769629  0.09999012
 -0.1662792  -0.17122483 -0.28697449 -0.02602441  0.33713576  0.04868652
 -0.17732406  0.09494396 -0.04518504 -0.03568275  0.11618417  0.13630971
  0.01814455  0.07363297 -0.12102415 -0.02401918  0.21839137 -0.0813389
 -0.02984192  0.22979191 -0.02001574  0.03533794  0.05716855 -0.02021069
 -0.04634788  0.08615027 -0.16285561 -0.06384715  0.01064017 -0.07663675
 -0.0166168   0.11146547 -0.15912293  0.05341498  0.01519687  0.08526833
 -0.01814266 -0.07557803 -0.09034198 -0.05157284  0.11797192 -0.22241043
  0.21236351  0.13371773  0.0748562   0.10147988  0.11797054  0.08668502
 -0.02595335 -0.02780927 -0.17414325  0.01360266  0.11081063 -0.01608514
  0.10734632 -0.00574012]