[-1.10613309e-01  1.24279760e-01  4.66134436e-02 -3.83313000e-02
 -3.40551436e-02 -5.22055142e-02 -5.34810424e-02 -1.25211686e-01
  1.15292251e-01 -8.87320191e-03  2.41816193e-01 -1.25307534e-02
 -2.20773861e-01 -1.99030504e-01 -4.52682227e-02  1.40958294e-01
 -1.59663722e-01 -9.68410745e-02 -5.43858111e-02 -2.76657995e-02
  5.93796782e-02  5.64660644e-03  6.85476810e-02 -1.16039813e-02
 -5.81288897e-02 -3.32871258e-01 -6.74387366e-02 -7.34457001e-02
  2.68434118e-02 -7.38471597e-02 -4.74563465e-02  2.73420494e-02
 -1.72614321e-01 -1.08778380e-01  4.54685232e-03  1.00123502e-01
 -3.67053784e-02 -4.72159125e-02  1.61357835e-01 -1.31812934e-02
 -1.47307664e-01 -1.04946401e-02  4.61840741e-02  2.24494562e-01
  2.44187400e-01  6.12757206e-02  3.62986512e-02 -1.05774119e-01
  1.04469277e-01 -1.82178721e-01  4.93167415e-02  1.37227476e-01
  9.15257931e-02  5.06557040e-02  5.38245440e-02 -1.33348152e-01
 -1.45649156e-02  9.40313339e-02 -4.73853126e-02 -1.73675325e-02
  1.57220010e-02 -7.67278671e-02 -2.12067682e-02 -5.79101853e-02
  1.94659814e-01  3.14198695e-02 -8.16751868e-02 -1.18427254e-01
  8.83161947e-02 -8.13749433e-02 -1.06753208e-01  4.26078625e-02
 -1.52131662e-01 -1.19923189e-01 -3.44897002e-01  4.60277982e-02
  3.74081373e-01  7.34699667e-02 -1.62113935e-01  4.04981077e-02
 -9.70976949e-02  4.35565412e-03  8.02812204e-02  6.67235851e-02
 -6.60926178e-02  2.50894573e-05 -1.38221815e-01 -2.11849827e-02
  1.87207744e-01 -7.64498040e-02 -7.24063143e-02  1.32697850e-01
 -3.99038009e-02  1.22026794e-01  1.63832325e-02  1.47882849e-02
 -5.07319644e-02  6.31409213e-02 -1.05316058e-01 -6.01831451e-02
  1.36600241e-01 -6.33709654e-02  2.29751263e-02  1.12749115e-01
 -1.52450830e-01  4.62837219e-02  3.24525610e-02  6.16433136e-02
  7.44014457e-02 -2.02120990e-02 -8.93335789e-02 -4.43178527e-02
  1.25575215e-01 -1.89155489e-01  2.52203822e-01  2.01384351e-01
  1.63955614e-02  1.13432802e-01  1.53842077e-01  8.14915821e-02
 -2.85442919e-02  9.94316954e-03 -1.06209457e-01 -4.09892276e-02
  7.04710111e-02  6.63613230e-02  9.33233500e-02  2.55297758e-02]