[-5.55534139e-02  9.62867364e-02  2.69693732e-02 -3.26194279e-02
 -6.17870651e-02 -1.20512284e-01 -4.17696871e-02 -7.33374953e-02
  6.42439052e-02 -7.21275201e-03  2.54537046e-01 -5.44561259e-02
 -2.07274154e-01 -4.30060066e-02 -9.16643962e-02  9.21669230e-02
 -1.63516566e-01 -6.72568306e-02 -1.37654528e-01 -1.09984927e-01
  7.39438161e-02  5.50840003e-03  2.43857205e-02  4.22078781e-02
 -1.11978568e-01 -2.30795220e-01 -9.04262662e-02 -9.38075408e-02
  1.06505886e-01 -1.13850847e-01 -3.76191251e-02  1.06047979e-02
 -1.93240717e-01 -1.09142914e-01  3.38572338e-02  1.12174330e-02
 -3.09821274e-02 -9.21622440e-02  1.89658836e-01  2.14644261e-02
 -1.80430472e-01  8.38456079e-02  3.65591832e-02  2.58096576e-01
  2.69309044e-01  4.80878353e-02  5.80016531e-05 -9.43745598e-02
  1.25848174e-01 -2.09681660e-01  8.81398246e-02  1.85151681e-01
  1.22523032e-01  9.67337787e-02  7.13508278e-02 -1.60863325e-01
 -4.68929810e-03  1.10676706e-01 -1.00017764e-01  3.94805288e-03
  4.11656052e-02 -4.53449637e-02  3.86971235e-02 -1.19806305e-01
  9.14849937e-02  6.14266880e-02 -8.55146572e-02 -1.27872556e-01
  1.24576353e-01 -1.42723396e-01 -5.33600561e-02  1.04645312e-01
 -1.30277172e-01 -1.49095401e-01 -2.72390515e-01  6.59240037e-02
  3.88788521e-01  1.83267787e-01 -1.36035547e-01  4.89692949e-02
 -9.22408327e-02 -1.68054607e-02  7.10862353e-02  2.35179402e-02
 -6.25856891e-02 -2.13389588e-03 -7.46231079e-02  4.19296548e-02
  1.72742918e-01 -6.65742308e-02 -9.81917605e-02  1.46430954e-01
 -6.99528381e-02  5.31616770e-02  4.31693196e-02  3.64651494e-02
 -1.33011013e-01  3.15241590e-02 -7.54459351e-02 -9.83946840e-04
  6.26085401e-02 -8.74283463e-02  2.22767889e-03  7.38479868e-02
 -1.13900654e-01  9.54681635e-02 -2.22041551e-03  2.49760877e-02
 -5.43937050e-02  5.05471602e-03 -7.01393113e-02  4.19796817e-02
  1.34175822e-01 -2.26333782e-01  3.16561460e-01  1.74055532e-01
  5.79885487e-03  9.77777094e-02  1.23540394e-01  2.56649088e-02
 -1.38770360e-02 -3.23001444e-02 -1.06092751e-01 -1.03711449e-01
  4.64216881e-02  2.65809596e-02  1.19336903e-01 -2.34299316e-03]