[-0.10097358  0.10991555  0.06655756 -0.03266878 -0.00632138 -0.08565424
 -0.04104044 -0.13856123  0.12930404 -0.04113799  0.23560138 -0.02769724
 -0.22737586 -0.2060173  -0.03502029  0.13753043 -0.13921474 -0.10769365
 -0.0552929  -0.05951321  0.04697205  0.00425808  0.07560005 -0.01611261
 -0.0621015  -0.33918881 -0.08350951 -0.10493656  0.02231905 -0.0361377
 -0.05415627  0.04030439 -0.15538828 -0.10404793 -0.00204895  0.10071944
 -0.03810716 -0.03108998  0.16649108 -0.018839   -0.13755421 -0.04626718
  0.02768861  0.22728641  0.22030421  0.05933768  0.04029389 -0.09428387
  0.08036374 -0.17294081  0.04435306  0.13985525  0.09078351  0.05765153
  0.07693607 -0.11935504  0.0079362   0.08695151 -0.07494564 -0.01995959
  0.01659817 -0.08483954 -0.01883297 -0.03650457  0.23395574  0.04113803
 -0.07466202 -0.08433449  0.12176613 -0.10014111 -0.08473378  0.03881985
 -0.15446927 -0.11928004 -0.32142392  0.04110007  0.37848935  0.09102989
 -0.14729716  0.04004289 -0.10733535 -0.00692803  0.10343178  0.05059908
 -0.08153375  0.01770668 -0.13530417 -0.01660235  0.17912844 -0.08329673
 -0.06443154  0.13310961 -0.04383492  0.11953824  0.01985591 -0.02540378
 -0.04500441  0.05399748 -0.11348374 -0.0544027   0.13351543 -0.06762949
  0.02278695  0.09768546 -0.14384304  0.02678677  0.03647112  0.03486228
  0.05608418 -0.01185303 -0.09201061 -0.06663765  0.13672681 -0.1722004
  0.23313446  0.19874762  0.01853045  0.12076503  0.12756684  0.07361635
 -0.0392553  -0.02299194 -0.11079798 -0.02651372  0.08544176  0.0623535
  0.09521534  0.02533022]