[-0.11585154  0.1266429   0.05148702 -0.03289182 -0.03756817 -0.06528123
 -0.03443183 -0.11750138  0.11584198 -0.00149894  0.23994909 -0.02306738
 -0.22223745 -0.20022269 -0.05553933  0.13361685 -0.14970104 -0.09490015
 -0.05616022 -0.03374394  0.06780634 -0.00602723  0.07082712 -0.01418943
 -0.0564867  -0.32416701 -0.06758147 -0.08385422  0.03313294 -0.07755387
 -0.0449266   0.03228955 -0.18088526 -0.12756991 -0.00877602  0.09651229
 -0.03198759 -0.03785079  0.15613475 -0.01080573 -0.14796622 -0.01733254
  0.0475639   0.2318307   0.24476437  0.06369503  0.02436546 -0.09721005
  0.09206524 -0.18982004  0.03923896  0.13151173  0.09420406  0.05809251
  0.04992231 -0.13062474 -0.00811455  0.0806458  -0.05801757 -0.02635501
  0.01288424 -0.07881528 -0.02753217 -0.06257045  0.19539577  0.02711682
 -0.07628238 -0.10647062  0.08642168 -0.09399809 -0.09095363  0.05438303
 -0.14187853 -0.11060727 -0.34187329  0.05267116  0.3702479   0.07858788
 -0.14803606  0.03418062 -0.11083811  0.00520171  0.07005247  0.05683178
 -0.06596451  0.01477023 -0.1347525  -0.02245629  0.16506667 -0.08904983
 -0.06194545  0.1351341  -0.03839588  0.12087697  0.01322782  0.01228975
 -0.05476717  0.06459703 -0.1042913  -0.05468696  0.13381033 -0.07279427
  0.02524683  0.10012987 -0.15573028  0.0288919   0.03134686  0.05245389
  0.0661286  -0.03253588 -0.08092757 -0.05002091  0.12500274 -0.19181369
  0.24280147  0.21199115  0.00102201  0.11133283  0.15174794  0.07591277
 -0.03318252  0.00449835 -0.09454312 -0.0322469   0.07326046  0.05781345
  0.0775581   0.01666777]