[-8.14419612e-02  5.32640032e-02  4.57431339e-02 -5.10458127e-02
 -7.05245137e-02 -1.05488017e-01  4.29686904e-03 -1.07267439e-01
  8.57525393e-02  2.38286871e-02  2.20646173e-01 -5.50605059e-02
 -2.12539122e-01 -6.00593798e-02 -3.50589491e-02  1.20286383e-01
 -1.53057337e-01 -8.60831514e-02 -1.22090392e-01 -7.18106553e-02
  3.38336602e-02 -3.13305035e-02  5.52372113e-02  4.00522314e-02
 -8.09136629e-02 -3.24313223e-01 -1.40205905e-01 -6.27856925e-02
  2.91518848e-02 -3.44799906e-02 -3.54217850e-02  9.53512825e-03
 -1.53461456e-01 -1.06425785e-01  1.96814630e-02  6.13409141e-03
 -3.89788523e-02 -9.73550081e-02  1.82775244e-01  2.00258493e-02
 -1.79134309e-01  5.49829490e-02  5.87150119e-02  2.63122976e-01
  2.49859974e-01  9.15194899e-02  5.38138151e-02 -7.12527037e-02
  8.60039219e-02 -1.95564076e-01  1.05357468e-01  1.13882340e-01
  8.59700143e-02  9.83866304e-03  8.15781429e-02 -1.24838054e-01
 -2.76711322e-02  1.28744289e-01 -1.15768038e-01  2.61711031e-02
  2.80446764e-02 -7.68522322e-02 -2.93596648e-04 -1.15387164e-01
  1.58756316e-01  1.24665953e-01 -7.34404400e-02 -1.15391254e-01
  1.22939937e-01 -1.39060423e-01 -6.62919804e-02  1.99957155e-02
 -1.60584196e-01 -1.45855710e-01 -3.47072840e-01  5.22883423e-02
  4.17319536e-01  1.09368876e-01 -1.56982914e-01  1.42494068e-02
 -5.47344200e-02  3.16742882e-02  1.32368043e-01  6.71580955e-02
 -8.59036222e-02 -5.82401594e-03 -1.35123879e-01 -3.78609006e-03
  1.87889546e-01 -7.65558556e-02 -1.03946172e-01  1.57229096e-01
 -3.94020975e-02  4.10179161e-02  4.90094684e-02  4.23797742e-02
 -8.22803453e-02  3.34047712e-02 -1.13374628e-01 -1.06304949e-02
  1.04279511e-01 -4.58448008e-02  2.43649613e-02  8.81196856e-02
 -1.33803815e-01  3.10292002e-02  2.43536918e-03  9.42905527e-03
 -1.98090877e-02 -1.55342594e-02 -8.48682076e-02 -4.80301082e-02
  1.22480370e-01 -2.11182758e-01  1.85337216e-01  2.05135971e-01
 -2.72251014e-02  1.02548376e-01  7.71203712e-02  4.21614498e-02
 -2.89420336e-02  1.75981075e-02 -1.09692268e-01 -1.97619479e-02
  6.92692026e-02  6.84541985e-02  1.14034332e-01  4.82163243e-02]