[-0.06489693  0.06400856  0.05483998 -0.02329749 -0.08501899 -0.09585915
 -0.01040036 -0.10001081  0.07087826  0.00667689  0.24530783 -0.06450809
 -0.20401657 -0.04806715 -0.05649441  0.11248334 -0.1529745  -0.07790706
 -0.12177234 -0.07249125  0.05883662 -0.00307874  0.04799652  0.03679922
 -0.10412669 -0.29934677 -0.13862129 -0.04943977  0.06380606 -0.07561234
 -0.05556906 -0.01050709 -0.14696579 -0.11272909  0.03306853  0.000912
 -0.04728056 -0.0983426   0.18527569  0.01932007 -0.1938757   0.07431485
  0.05898493  0.28706551  0.26776117  0.09636673  0.03226787 -0.08594415
  0.10133909 -0.22312026  0.12323955  0.12967347  0.09231303  0.02630782
  0.08522122 -0.12701304 -0.05155965  0.13476433 -0.08272865  0.03490434
  0.05109737 -0.06193296  0.03123837 -0.12327738  0.13340716  0.09632003
 -0.08500435 -0.1209005   0.11083013 -0.14442535 -0.07456183  0.04561883
 -0.14518927 -0.14735052 -0.34224841  0.05421814  0.45403096  0.11776768
 -0.16512313  0.00636246 -0.05629687  0.033575    0.13748674  0.06119707
 -0.0702351  -0.01982003 -0.14147408  0.00649133  0.19914475 -0.08935308
 -0.10750344  0.15303743 -0.03695965  0.04400172  0.06529522  0.07075917
 -0.11142733  0.03391344 -0.1092419  -0.00706021  0.09616881 -0.04764641
  0.01991244  0.10443703 -0.11895712  0.08241238  0.00083967  0.01479269
 -0.01263738 -0.01319624 -0.09287765 -0.02216463  0.1252511  -0.22160268
  0.19610326  0.18514068 -0.0195779   0.10607512  0.09134918  0.05134347
 -0.02804206  0.02066168 -0.10620032 -0.05082366  0.04861043  0.05195289
  0.11965328  0.03168923]