[-0.0625098   0.11292639  0.0314067  -0.04893938 -0.02667675 -0.08562087
 -0.06816241 -0.11626964  0.11269527  0.00710941  0.25177169 -0.00581319
 -0.18324721 -0.17472886 -0.01590822  0.13190298 -0.15731332 -0.10308724
 -0.07372184 -0.02875101  0.05190248 -0.00445121  0.07434173 -0.00941082
 -0.09657478 -0.33045492 -0.08806607 -0.06613182  0.03846246 -0.05042062
 -0.04952592  0.01822044 -0.20052056 -0.11111241  0.02870065  0.08997061
 -0.01476822 -0.05462191  0.17009662 -0.0132883  -0.15881185  0.00259521
  0.06592124  0.23239699  0.2379446   0.03923506  0.0433985  -0.11284461
  0.0734881  -0.14390001  0.05064479  0.13755101  0.10043769  0.07341108
  0.02628826 -0.11128782  0.01786194  0.10842524 -0.09161673 -0.04065084
  0.03619386 -0.03606577 -0.02943176 -0.06640627  0.23212472  0.04860001
 -0.10457548 -0.1276422   0.05987146 -0.09084483 -0.07805619  0.03101601
 -0.15283041 -0.12997688 -0.33532947  0.02910132  0.34826225  0.05607877
 -0.21011913  0.04641508 -0.11194532 -0.00971705  0.10249614  0.04706121
 -0.05294931  0.03390315 -0.13297644  0.0032691   0.2160273  -0.09198967
 -0.03072042  0.14610685 -0.02495677  0.10024235  0.02219538  0.04122178
 -0.05900627  0.0757256  -0.11638816 -0.0136977   0.10985621 -0.05061775
  0.01666701  0.10265353 -0.15688951  0.0597074   0.06853411  0.04113033
  0.06999873 -0.0141206  -0.08441501 -0.1168795   0.1247346  -0.20499745
  0.2379802   0.19706661  0.00697218  0.1095575   0.12377276  0.0998938
 -0.04483798  0.0130832  -0.11546391 -0.00132725  0.05360951  0.04100629
  0.08512866  0.02410686]