[-0.05575439  0.09781758  0.06708266 -0.02468196 -0.0626651  -0.10641565
 -0.06676117 -0.06075909  0.07326369 -0.01122164  0.28389844 -0.04175148
 -0.19399107 -0.04791077 -0.10666175  0.09894925 -0.16515011 -0.08252213
 -0.11199343 -0.09230981  0.06184257 -0.00175092  0.0267021   0.03309497
 -0.12629639 -0.23637544 -0.09064698 -0.07143735  0.10888968 -0.12337011
 -0.05884776  0.05030831 -0.18680596 -0.10022811  0.05852816  0.02994666
  0.00210877 -0.05592385  0.20278691  0.03366552 -0.18088827  0.0921832
  0.01590466  0.27373001  0.23716323  0.06392328  0.00789195 -0.10459676
  0.11618375 -0.1948991   0.07913084  0.21386345  0.12077887  0.07735123
  0.05709881 -0.1696213  -0.02369316  0.10428267 -0.0860052   0.01187435
  0.03071793 -0.06273501  0.0482117  -0.13131487  0.08914515  0.0580904
 -0.09195943 -0.14154564  0.14044599 -0.10283392 -0.04474682  0.11553635
 -0.13313024 -0.13059013 -0.27064052  0.05341339  0.41615072  0.14426582
 -0.14297412  0.04993867 -0.10394248 -0.04132958  0.02928008  0.02934448
 -0.0910696   0.0190776  -0.06601425  0.04802049  0.17713387 -0.05008901
 -0.07510551  0.12541653 -0.07030004  0.07593898  0.04197809  0.04149492
 -0.12379694  0.0374867  -0.07858047  0.00622145  0.02941589 -0.1032254
  0.01237981  0.08503488 -0.13029291  0.07776069 -0.00048028  0.01127957
 -0.05702218  0.05054648 -0.06680158  0.02142095  0.13375662 -0.25933477
  0.30493551  0.19008593  0.02179999  0.09271576  0.12870997  0.04098388
 -0.01332307 -0.03025069 -0.07879379 -0.11165556  0.02950229  0.01203609
  0.10894205  0.00246726]