[-0.11077531  0.09118094  0.05601081 -0.03257747 -0.07904495 -0.12854274
 -0.04668644 -0.10660262  0.07620104 -0.04307853  0.27391148 -0.07827027
 -0.22781718 -0.08086862 -0.08339794  0.13728531 -0.1619222  -0.08612208
 -0.10094912 -0.05778806  0.07579539 -0.00954204  0.04659363  0.02745625
 -0.04960668 -0.30668077 -0.10598689 -0.05673698  0.08931321 -0.05920186
 -0.06462171  0.01660275 -0.17339455 -0.12440417  0.05912075  0.05228126
 -0.01702105 -0.04841636  0.19333462 -0.01008939 -0.19503763  0.05936359
  0.05590143  0.24254981  0.22675018  0.10757487 -0.0031683  -0.10511366
  0.09607989 -0.1822415   0.05573134  0.15920667  0.11325663  0.03358929
  0.08366591 -0.16314328 -0.02621648  0.1349722  -0.1121387  -0.00921174
  0.03460098 -0.08386365  0.00568843 -0.13196149  0.17084123  0.07414229
 -0.10992678 -0.13289694  0.13862316 -0.12417831 -0.0469403   0.07833543
 -0.12834691 -0.12145654 -0.28889558  0.03012398  0.38749039  0.11305636
 -0.1415658   0.04315374 -0.05384616 -0.00353109  0.07764892  0.05628864
 -0.07530976  0.01262366 -0.09191941 -0.02679792  0.14161554 -0.05990803
 -0.06286713  0.14736502 -0.07244404  0.09270062  0.0422163   0.01363008
 -0.11802896  0.00766917 -0.10936207 -0.02879663  0.0551542  -0.08603079
  0.01518473  0.07391577 -0.11941116  0.02357192 -0.02805065  0.03822822
 -0.03066642  0.00761484 -0.06146399 -0.00467345  0.10726175 -0.24754427
  0.28021321  0.19200964 -0.00954719  0.10152239  0.13558829  0.02903621
 -0.01104154 -0.00432716 -0.1152541  -0.08912349  0.06630494 -0.00275811
  0.13249063 -0.00357812]