[-4.09496129e-02  1.43691629e-01  4.15326841e-02 -4.00460102e-02
 -6.64107827e-03 -4.96102385e-02 -6.92989007e-02 -1.25811830e-01
  1.30364820e-01 -3.04557476e-02  2.54389942e-01 -8.16699304e-03
 -2.16847524e-01 -1.57615468e-01 -6.21878915e-02  1.56076297e-01
 -1.45943388e-01 -8.56922045e-02 -7.93537647e-02 -1.64995193e-02
  8.33362341e-02  2.81924549e-02  8.18546191e-02 -1.71362963e-02
 -7.57003948e-02 -3.26781839e-01 -8.27875808e-02 -6.40395209e-02
  3.58163677e-02 -7.51850083e-02 -5.99998422e-02  1.07381810e-02
 -1.84957728e-01 -1.09746233e-01  2.45960541e-02  7.20526129e-02
 -3.45037580e-02 -6.62788451e-02  1.75565466e-01  8.18448793e-03
 -1.70018271e-01  2.92449687e-02  4.07850407e-02  2.37770364e-01
  2.21046314e-01  6.33774400e-02  4.60195802e-02 -1.56478390e-01
  8.36993381e-02 -1.40986711e-01  5.29067628e-02  1.19083978e-01
  7.57079571e-02  7.22512975e-02  3.44873145e-02 -1.46425173e-01
  8.72535445e-03  1.14691377e-01 -8.17027912e-02 -2.51445379e-02
  3.02957725e-02 -6.71769157e-02  5.73525112e-03 -4.55820300e-02
  2.28650257e-01  3.65626663e-02 -1.03872024e-01 -1.14781909e-01
  9.10692587e-02 -7.68788680e-02 -7.25525543e-02  2.96296924e-02
 -1.46273568e-01 -1.20279208e-01 -3.34543258e-01  3.00542414e-02
  3.94979954e-01  5.61172068e-02 -1.89223260e-01  4.62104492e-02
 -9.20676216e-02 -1.89142418e-03  1.22831501e-01  1.01748459e-01
 -5.71142808e-02  1.30816372e-02 -1.08798973e-01 -6.10329211e-03
  2.16717675e-01 -8.30553398e-02 -7.50448331e-02  1.44360229e-01
 -4.39186655e-02  1.11399174e-01  2.85914894e-02  2.32518259e-02
 -8.63944516e-02  6.75167739e-02 -1.15573503e-01 -2.97589656e-02
  8.05785730e-02 -5.41039594e-02  4.52918652e-03  1.24263249e-01
 -1.37022048e-01  5.55493347e-02  5.33716194e-02  3.21295373e-02
  7.37119168e-02 -1.31290042e-04 -8.81309211e-02 -8.53792652e-02
  1.18422925e-01 -2.03506693e-01  2.63750881e-01  1.88091412e-01
  3.43923904e-02  1.16160467e-01  1.53380379e-01  1.04809098e-01
 -1.74283516e-02  1.76956933e-02 -1.43451944e-01 -2.25464050e-02
  8.59916508e-02  5.25801480e-02  1.25733688e-01  6.68230979e-03]