[-0.08490013  0.10992134  0.03332529 -0.0045931  -0.05965033 -0.1268259
 -0.04283016 -0.12178128  0.0997149  -0.04946166  0.30772433 -0.05128942
 -0.22590916 -0.09749967 -0.08586462  0.13940562 -0.17779484 -0.09011579
 -0.10356422 -0.03809608  0.0694281   0.00101368  0.0606516   0.0224445
 -0.04995185 -0.31852925 -0.09433591 -0.05885624  0.08802059 -0.05843648
 -0.04657099 -0.01104446 -0.18789719 -0.14197735  0.06826846  0.04545008
 -0.02196892 -0.02973549  0.20184453  0.0179092  -0.19334716  0.05996487
  0.01364887  0.27857044  0.19756252  0.11502492 -0.01224546 -0.13378976
  0.06784154 -0.18824424  0.05856934  0.14339732  0.12240326  0.02229167
  0.062228   -0.16074808 -0.02753652  0.13547157 -0.14905401 -0.01682734
  0.03216844 -0.06528838  0.013327   -0.12569581  0.21030442  0.08408874
 -0.12247621 -0.1247185   0.13394004 -0.13575293 -0.05817764  0.06109685
 -0.08971387 -0.13861576 -0.30849317  0.01261246  0.40645695  0.10482824
 -0.17486618  0.0214176  -0.06345384 -0.01399898  0.08757441  0.07494014
 -0.06911755  0.03359807 -0.08450379 -0.04143501  0.13939269 -0.05433097
 -0.08292842  0.16886999 -0.07629805  0.09637292  0.06044148 -0.00471043
 -0.11146871  0.0212809  -0.11649501 -0.02905383  0.02741065 -0.07037839
  0.0221055   0.07734518 -0.11910856  0.0452037  -0.01408951  0.02161843
  0.00260221  0.01975707 -0.06716362 -0.0439428   0.11874    -0.27626991
  0.29937062  0.19628696  0.0086367   0.11961865  0.12239342  0.0263618
 -0.01616153  0.00972216 -0.14279011 -0.07900623  0.04833173 -0.03341986
  0.145092   -0.01202327]