[-0.10785799  0.12921654  0.0539608  -0.02521557 -0.03167672 -0.06008694
 -0.02727591 -0.10714628  0.11454567  0.0032982   0.26118737 -0.01224278
 -0.2174212  -0.20589314 -0.02756942  0.12738578 -0.15035915 -0.08776048
 -0.04813955 -0.02754234  0.06853902  0.00472493  0.07548536 -0.00348609
 -0.06066869 -0.32635096 -0.05958482 -0.08837873  0.04565095 -0.08546779
 -0.05515957  0.01036285 -0.1841511  -0.12793575 -0.00494053  0.0939322
 -0.03440366 -0.04760127  0.15223037 -0.01522568 -0.14414974 -0.00741663
  0.03876295  0.23088208  0.24690452  0.05509485  0.02596837 -0.09300645
  0.08713951 -0.1962847   0.04588232  0.12305802  0.10455755  0.0483727
  0.05105036 -0.1286294  -0.01590008  0.0734636  -0.06528004 -0.01954644
  0.01730078 -0.06516314 -0.02405035 -0.0556697   0.19754337  0.02316844
 -0.081234   -0.1086174   0.07662471 -0.08982997 -0.09600381  0.05922335
 -0.13880256 -0.12260904 -0.32905689  0.0661351   0.36691734  0.08365178
 -0.17092322  0.04131966 -0.11717568  0.01559379  0.07291004  0.05132286
 -0.0476638   0.00806782 -0.15104249 -0.01498125  0.16261892 -0.09083619
 -0.06433713  0.14021814 -0.03890672  0.11819829  0.02213296  0.02016526
 -0.05567601  0.06947261 -0.10520668 -0.0579018   0.14393593 -0.06504735
  0.02440684  0.10332306 -0.16149519  0.04612344  0.03084026  0.04654087
  0.08258446 -0.02929044 -0.08281779 -0.04419949  0.11642518 -0.20562251
  0.2564716   0.20108171  0.00053092  0.11694715  0.13897942  0.07437102
 -0.02754919  0.00407645 -0.09828077 -0.04170525  0.06404369  0.05422026
  0.08532628  0.01463181]