[-7.53073022e-02  1.41393527e-01  6.35073781e-02 -1.48793086e-02
 -1.12591602e-01 -8.76676813e-02 -6.88024983e-02 -6.39190301e-02
  9.57536623e-02 -3.54526266e-02  2.73499727e-01 -7.25342631e-02
 -2.04127058e-01  1.96920168e-02 -1.12573765e-01  1.13492511e-01
 -1.61169574e-01 -6.57985434e-02 -1.26029581e-01 -9.51287374e-02
  3.59982625e-02  5.58462553e-03  2.40451153e-02  3.59831117e-02
 -8.20912272e-02 -3.09117109e-01 -9.54864621e-02 -6.77805468e-02
  1.25675857e-01 -1.17338732e-01 -4.85800616e-02  2.39127856e-02
 -1.78161561e-01 -8.28808025e-02  3.13684866e-02  8.91012885e-03
 -3.27342376e-02 -4.87448797e-02  1.84656873e-01  4.21716683e-02
 -1.91918939e-01  4.67435010e-02  1.05402544e-02  2.95701534e-01
  2.26294309e-01  9.07102972e-02  2.27215718e-02 -1.27260908e-01
  8.02880973e-02 -2.09286213e-01  6.18526936e-02  2.19159916e-01
  7.25871548e-02  9.90278944e-02  4.57752571e-02 -1.57929525e-01
 -1.74061584e-04  1.09452881e-01 -8.74537379e-02  1.54061243e-02
  7.66482279e-02 -5.67727685e-02  1.65790063e-03 -1.20093457e-01
  1.81215212e-01  9.12223384e-02 -9.13937613e-02 -1.52467832e-01
  1.47511706e-01 -1.35260701e-01 -5.65902181e-02  9.09645483e-02
 -1.25395030e-01 -1.49206951e-01 -2.71483064e-01  7.12494478e-02
  4.24238592e-01  1.70802146e-01 -1.32402405e-01  3.76696326e-02
 -1.05112195e-01 -5.49523206e-03  7.46692643e-02  7.05378801e-02
 -9.75702927e-02 -7.34596932e-03 -6.39140606e-02  3.87011580e-02
  1.63615033e-01 -7.50609711e-02 -5.83038107e-02  1.38285592e-01
 -5.52427769e-02  6.39109239e-02  2.51447950e-02  5.32327257e-02
 -1.44974783e-01  3.41699384e-02 -8.13080445e-02 -1.19738551e-02
  7.09243938e-02 -6.85148761e-02  7.60782836e-03  9.35267881e-02
 -1.50883511e-01  1.16382889e-01 -1.64511036e-02  5.10872016e-03
 -9.37059615e-03  2.61750910e-02 -3.29337157e-02 -9.27144289e-03
  1.55249164e-01 -2.52981842e-01  3.02879870e-01  2.08481357e-01
  1.64952856e-02  1.16044901e-01  1.19823098e-01  6.50250837e-02
 -1.04865674e-02 -1.92340408e-02 -1.10125698e-01 -8.73444602e-02
  2.32939161e-02 -1.06349951e-02  4.32188585e-02 -1.40004279e-02]