[-9.74837020e-02  1.02115430e-01  6.72115833e-02 -2.29467805e-02
 -3.09260050e-03 -8.35881233e-02 -5.38307615e-02 -1.35203406e-01
  1.26357287e-01 -3.96180637e-02  2.32532412e-01 -3.49098332e-02
 -2.28945285e-01 -1.97280511e-01 -4.94315438e-02  1.40650734e-01
 -1.35219932e-01 -8.94101262e-02 -5.53321913e-02 -4.66095023e-02
  5.69892786e-02  6.98500220e-03  6.67145550e-02 -2.59963330e-02
 -5.47091179e-02 -3.40890467e-01 -9.48339626e-02 -9.88275781e-02
  2.79621780e-02 -4.11519855e-02 -5.29311672e-02  3.32248695e-02
 -1.48995802e-01 -1.03913240e-01 -4.15772192e-05  9.76167396e-02
 -3.45092081e-02 -3.29222083e-02  1.58673480e-01 -9.41238552e-03
 -1.43526301e-01 -3.33883502e-02  2.47817636e-02  2.31955484e-01
  2.31599018e-01  6.99620396e-02  3.79424691e-02 -1.10623658e-01
  8.75608400e-02 -1.66572303e-01  4.94198017e-02  1.38827935e-01
  8.43087658e-02  7.11637810e-02  7.05848113e-02 -1.16517425e-01
  8.57791025e-03  8.44503716e-02 -7.57332370e-02 -1.64358225e-02
  2.87025105e-02 -7.99046084e-02 -1.20360795e-02 -3.09359133e-02
  2.18490437e-01  3.19376178e-02 -8.00458714e-02 -9.32389647e-02
  1.27262816e-01 -1.08620785e-01 -7.76204988e-02  3.64301391e-02
 -1.59651875e-01 -1.21854179e-01 -3.31559837e-01  4.66252528e-02
  3.90932769e-01  9.04973075e-02 -1.47106126e-01  3.35102715e-02
 -1.05120003e-01 -9.93915088e-03  1.13686018e-01  6.55692220e-02
 -5.67609668e-02  3.35347664e-04 -1.24463581e-01 -2.19080504e-02
  1.84644386e-01 -9.16670710e-02 -6.29710779e-02  1.32189080e-01
 -4.10828702e-02  1.14718214e-01  1.18435128e-02 -1.09524466e-02
 -5.00392094e-02  5.63317649e-02 -1.10800482e-01 -5.48465252e-02
  1.23372197e-01 -6.02793209e-02  2.63083875e-02  1.00185491e-01
 -1.34449646e-01  4.53600846e-02  4.73664068e-02  3.81042250e-02
  6.35992438e-02 -1.38517618e-02 -9.35043320e-02 -6.47409856e-02
  1.40590504e-01 -1.67972133e-01  2.42235094e-01  1.97425365e-01
  3.61212417e-02  1.14803314e-01  1.26685426e-01  8.78755003e-02
 -3.39054428e-02 -1.85971055e-02 -1.11512318e-01 -2.90809311e-02
  6.61295578e-02  7.14290887e-02  8.38872269e-02  2.18664855e-02]