[-0.09062512  0.1017854   0.07110613 -0.02665576 -0.0023303  -0.07698579
 -0.04962526 -0.14343764  0.12608674 -0.04138003  0.24112792 -0.03863432
 -0.2311199  -0.19786771 -0.05556401  0.1459157  -0.12707186 -0.08385198
 -0.06532539 -0.03307228  0.0561146   0.01315562  0.06505371 -0.02388798
 -0.05744852 -0.3365202  -0.10275004 -0.1002      0.02067829 -0.03412373
 -0.06638627  0.02879122 -0.14911777 -0.11490878 -0.00216641  0.09698302
 -0.03118442 -0.04193257  0.14804071 -0.00605464 -0.16213176 -0.01854042
  0.04271514  0.22618528  0.23696092  0.07383876  0.03440013 -0.11796649
  0.08351127 -0.16484909  0.05672104  0.12336939  0.09070664  0.07158587
  0.06777301 -0.11276841  0.0048865   0.08477914 -0.07466522 -0.02752937
  0.03398825 -0.07323619 -0.02550912 -0.03783952  0.2123477   0.0430396
 -0.08902457 -0.09509032  0.11449458 -0.12010862 -0.09066478  0.03991699
 -0.16032635 -0.11082719 -0.35181108  0.04592578  0.3913908   0.08518463
 -0.14967416  0.03239414 -0.09917754  0.00048287  0.11296935  0.07812761
 -0.04977744  0.0066754  -0.11393877 -0.03008313  0.18279369 -0.09250321
 -0.05819788  0.14169614 -0.04258017  0.11055958  0.00892529  0.00585807
 -0.04580003  0.04908487 -0.10539239 -0.05322636  0.14009194 -0.04832627
  0.0243233   0.10271448 -0.15123348  0.04491494  0.04431028  0.04127653
  0.09370314 -0.02583107 -0.082933   -0.06318548  0.1424367  -0.17255065
  0.22762299  0.19309093  0.02449951  0.09995504  0.13749109  0.08796901
 -0.03840261 -0.01491086 -0.12860274 -0.03430527  0.07759797  0.05793615
  0.08851884  0.0171295 ]