[-5.47542274e-02  1.39337286e-01  7.60755762e-02 -1.66735314e-02
 -9.94132310e-02 -1.00808263e-01 -4.04488258e-02 -6.46299720e-02
  7.22300634e-02  4.24059108e-03  2.84457326e-01 -4.70216833e-02
 -1.83026105e-01 -1.74956787e-02 -1.01886772e-01  9.54045430e-02
 -1.50554448e-01 -8.29360485e-02 -1.62375525e-01 -1.16432130e-01
  4.55160849e-02 -7.52614299e-03  3.77965271e-02  1.64412018e-02
 -1.39034316e-01 -2.60610878e-01 -9.09868479e-02 -7.30798319e-02
  1.33413807e-01 -1.34148106e-01 -1.21034896e-02  1.94891822e-02
 -2.02862456e-01 -1.06007636e-01  4.75299172e-02 -2.30025873e-03
 -3.27894762e-02 -6.92688376e-02  1.97662920e-01  3.06145791e-02
 -1.91344932e-01  9.85313281e-02  1.21656982e-02  2.85672903e-01
  2.54336566e-01  6.79888129e-02  1.97158940e-02 -1.21841289e-01
  7.88882822e-02 -2.18079254e-01  7.28974491e-02  2.17590094e-01
  8.07052478e-02  9.53800306e-02  5.72608411e-02 -1.36932641e-01
  1.47644430e-04  1.06208622e-01 -8.50174427e-02  4.20594960e-03
  6.31289259e-02 -7.16163591e-02  1.18162725e-02 -1.33923516e-01
  1.23801112e-01  8.36746320e-02 -8.42421353e-02 -1.34458765e-01
  1.33589491e-01 -1.22996330e-01 -5.24931811e-02  9.62762386e-02
 -1.19099990e-01 -1.19870402e-01 -2.86436945e-01  6.86810538e-02
  4.40321177e-01  1.68164894e-01 -1.63907558e-01  2.82880161e-02
 -1.24319933e-01  2.69982852e-02  5.25159128e-02  3.11648753e-02
 -1.16777636e-01 -1.53326271e-02 -6.50885329e-02  4.84914109e-02
  1.68268681e-01 -7.01006800e-02 -8.20071772e-02  1.29601821e-01
 -5.50085865e-02  4.80086356e-02  5.01327328e-02  4.11064811e-02
 -1.48153543e-01  1.39313461e-02 -6.86723143e-02 -9.95002966e-03
  7.12898150e-02 -8.10321793e-02  1.85398012e-02  1.05946973e-01
 -1.39884278e-01  1.08624689e-01 -1.49048408e-02  8.13332372e-05
 -1.47408964e-02  4.03210260e-02 -2.96714511e-02 -2.49934586e-04
  1.43200085e-01 -2.44097620e-01  3.21274966e-01  2.10756764e-01
 -2.32114717e-02  9.43275467e-02  1.40021592e-01  6.27221689e-02
 -3.99042182e-02  6.68683276e-03 -7.00646937e-02 -1.02105670e-01
  1.63334310e-02  5.02198935e-03  8.64150673e-02 -1.91389062e-02]