[-0.09578999  0.10638141  0.05926185 -0.0296408  -0.01213435 -0.08125945
 -0.04274132 -0.12625799  0.13031752 -0.03620994  0.23060511 -0.03587692
 -0.22979288 -0.19281286 -0.04516129  0.12814087 -0.13354802 -0.08750457
 -0.06839486 -0.05370674  0.03687445  0.0039063   0.06746283 -0.02646743
 -0.06008201 -0.34010205 -0.08775728 -0.1006496   0.03059385 -0.03931152
 -0.04566345  0.0353123  -0.15086877 -0.10898221 -0.00709526  0.0898139
 -0.03684784 -0.02234788  0.15689112 -0.00581428 -0.14487399 -0.04201363
  0.02218691  0.2393748   0.22791135  0.06947097  0.0315171  -0.09311882
  0.08446142 -0.18135993  0.05009865  0.13523991  0.08941147  0.05717518
  0.08247041 -0.10691003  0.00577806  0.08623315 -0.0759474  -0.02348595
  0.02312812 -0.07707424 -0.02167497 -0.03856871  0.22990055  0.03899441
 -0.0775977  -0.07431271  0.13040826 -0.10432515 -0.07579099  0.03208248
 -0.14248511 -0.11391249 -0.33313951  0.04995848  0.39296618  0.09923823
 -0.14434758  0.03619705 -0.11487909 -0.00480864  0.10419942  0.049387
 -0.08123098  0.01168528 -0.12399732 -0.02132446  0.1705253  -0.08930857
 -0.06213189  0.12823196 -0.04064525  0.10936469  0.01936653 -0.02068104
 -0.05688303  0.04083183 -0.11270974 -0.05871205  0.14328122 -0.06885682
  0.02959038  0.0985841  -0.14667575  0.0457406   0.04772819  0.0294774
  0.07381418 -0.0080421  -0.08034745 -0.06633271  0.14183317 -0.17478067
  0.23003964  0.18760662  0.01765352  0.12142899  0.12758262  0.07688756
 -0.04439487 -0.01364513 -0.09903891 -0.04057501  0.06939566  0.06553352
  0.08891241  0.02426515]