[-0.10534564  0.11614585  0.03344946 -0.02937451 -0.0017975  -0.0852305
 -0.06175069 -0.1449775   0.10413002 -0.02276827  0.24640273  0.00943285
 -0.17755483 -0.20396006 -0.01659971  0.14350434 -0.14966391 -0.11101722
 -0.05818526 -0.0149573   0.06835956  0.03042783  0.07422018 -0.02549808
 -0.09267262 -0.34581113 -0.07189032 -0.07830363  0.00223281 -0.02265166
 -0.04891761  0.03649465 -0.18528746 -0.09104018  0.03362477  0.10505378
 -0.01102211 -0.02865791  0.18027459 -0.01492608 -0.1625109  -0.01525832
  0.07138523  0.23702939  0.22974347  0.02743227  0.0525356  -0.11716018
  0.09712604 -0.12653467  0.03967096  0.11128565  0.0879541   0.05848629
  0.03497909 -0.1241432   0.02173509  0.06122715 -0.07308882 -0.05591192
  0.02624248 -0.05319695 -0.04620542 -0.02540518  0.21795571  0.01001395
 -0.09580779 -0.13425826  0.05977926 -0.08263833 -0.08744711  0.04100499
 -0.17084028 -0.12800914 -0.35437799  0.02391596  0.384846    0.03184674
 -0.19178861  0.06592795 -0.08760987 -0.0250728   0.12574632  0.07391302
 -0.04348115  0.03854202 -0.14609751  0.01178329  0.22072177 -0.07849877
 -0.06664741  0.12896352 -0.02356122  0.11564703  0.02261415  0.04070519
 -0.04610514  0.07829198 -0.11339255 -0.03449877  0.13380459 -0.03140566
  0.01013039  0.126026   -0.15666656  0.06898909  0.05926815  0.06368294
  0.07517504 -0.01572363 -0.09995114 -0.09450283  0.08980728 -0.17220823
  0.21266022  0.18000916  0.01025265  0.11461637  0.13523458  0.07368706
 -0.04085484  0.03735746 -0.15613961 -0.01558933  0.07311375  0.06882636
  0.10736634  0.02307196]