[-4.82524559e-02  1.14729308e-01  5.05680814e-02 -2.43403818e-02
 -5.32802828e-02 -1.07614778e-01 -5.02332412e-02 -6.15948327e-02
  8.26562047e-02  2.16620252e-03  2.77239531e-01 -5.69938608e-02
 -1.92544565e-01 -3.89886908e-02 -1.00418024e-01  1.01319604e-01
 -1.68097660e-01 -6.02989458e-02 -1.37966633e-01 -1.00951053e-01
  5.49383834e-02 -2.19431543e-03  5.01572900e-02  2.92823222e-02
 -1.17418230e-01 -2.55703300e-01 -8.70773122e-02 -9.07254443e-02
  1.02408491e-01 -1.20262913e-01 -3.81649546e-02  3.28524597e-02
 -1.87757447e-01 -1.05499782e-01  4.95478176e-02  1.80515796e-02
 -2.28690859e-02 -5.32672293e-02  1.97615132e-01  3.43855582e-02
 -1.73251599e-01  9.41333324e-02  1.82222426e-02  2.73819506e-01
  2.52916783e-01  7.16486499e-02  1.72974178e-04 -1.01575509e-01
  8.74897838e-02 -2.11933285e-01  7.28325397e-02  2.03379616e-01
  1.00428298e-01  8.81298706e-02  6.18879274e-02 -1.36434481e-01
 -1.16566261e-02  9.51034576e-02 -9.04280692e-02 -6.20225852e-04
  5.01225181e-02 -6.04645275e-02  2.00085882e-02 -1.18238233e-01
  1.17313281e-01  7.46751279e-02 -1.00063622e-01 -1.22781657e-01
  1.16667144e-01 -1.18646838e-01 -5.24523817e-02  9.10895392e-02
 -1.23152673e-01 -1.35151789e-01 -2.76046246e-01  6.49656877e-02
  4.12050724e-01  1.55672505e-01 -1.45382330e-01  4.65242937e-02
 -1.15209714e-01 -1.03726909e-02  4.76760454e-02  2.75095645e-02
 -9.33701992e-02  4.91860509e-03 -5.74215762e-02  4.24905084e-02
  1.54000863e-01 -7.09468946e-02 -8.54180753e-02  1.33354723e-01
 -7.76613131e-02  7.13682026e-02  3.58430184e-02  2.98305936e-02
 -1.20717764e-01  2.95951664e-02 -8.31847191e-02  8.69063311e-04
  5.73841445e-02 -8.71944427e-02  1.11713503e-02  7.51900673e-02
 -1.36915773e-01  8.06341022e-02 -6.25275061e-05  6.66121021e-04
 -2.02352013e-02  4.70476560e-02 -6.57464489e-02  9.34783649e-03
  1.40350133e-01 -2.57498890e-01  3.15746278e-01  2.02324823e-01
  4.93776333e-03  9.30873081e-02  1.36243924e-01  4.46328297e-02
 -1.44212786e-02 -4.12069587e-03 -8.20774734e-02 -1.03410497e-01
  3.22459824e-02  2.95111239e-02  9.55218822e-02 -1.06090531e-02]