[-0.06510997  0.04208488  0.04344121 -0.04387442 -0.08683512 -0.10264086
 -0.00508019 -0.09483844  0.08031993  0.01601081  0.24162057 -0.05939096
 -0.22188655 -0.06081325 -0.05220987  0.11905908 -0.13163106 -0.06118471
 -0.12704571 -0.05929096  0.05494453 -0.01645674  0.06778837  0.04742486
 -0.08235907 -0.31427926 -0.14020933 -0.05614736  0.04407149 -0.08151931
 -0.05181731  0.00369116 -0.14140777 -0.12079978  0.0294151   0.00778274
 -0.06239668 -0.10783201  0.18437323  0.02699308 -0.18238054  0.04966649
  0.05406484  0.26512045  0.2590251   0.10216212  0.04344746 -0.07931712
  0.09771761 -0.23081718  0.10988766  0.11639799  0.09071988  0.0092486
  0.11565471 -0.12829411 -0.02610594  0.1211104  -0.10036849  0.02711603
  0.03033508 -0.05115921  0.01849218 -0.12937208  0.13947439  0.09582218
 -0.08566477 -0.09976598  0.09943742 -0.14542516 -0.05468616  0.05317272
 -0.14903843 -0.16060606 -0.33435452  0.0359909   0.43174258  0.12729636
 -0.16527973  0.0007229  -0.05636971  0.02371393  0.1317897   0.04287792
 -0.06668748 -0.01647415 -0.14679883 -0.01308641  0.18090443 -0.09507515
 -0.09754894  0.161346   -0.04118465  0.04752275  0.05731946  0.05402381
 -0.11131102  0.02839397 -0.10062152 -0.01093489  0.0988047  -0.06244684
  0.01647148  0.07501958 -0.12429029  0.05555891 -0.00548036  0.00841012
 -0.01758209 -0.0280616  -0.11817198 -0.02591636  0.12893453 -0.22473124
  0.18873622  0.19389135 -0.03342643  0.09624952  0.08634159  0.0467444
 -0.03927924  0.01624164 -0.08999475 -0.04612894  0.05341148  0.04824371
  0.11297989  0.01618519]