[-0.09676756  0.11014865  0.02605047 -0.05369604 -0.02407306 -0.07494219
 -0.07326908 -0.12912253  0.10230652 -0.01076521  0.23828037 -0.00293773
 -0.19216216 -0.19302382 -0.02422366  0.1379519  -0.16486599 -0.10391623
 -0.06355214 -0.02337689  0.05994527 -0.00196477  0.06848217 -0.01935757
 -0.09728177 -0.34866014 -0.10145511 -0.06787453  0.02159792 -0.03008869
 -0.03752253  0.03487469 -0.18232039 -0.0955768   0.03025111  0.09687608
 -0.01304327 -0.0372894   0.17744851 -0.02020058 -0.15963927  0.00436318
  0.07579138  0.24777122  0.24387501  0.02513007  0.04567919 -0.09829991
  0.10218668 -0.13017361  0.04313581  0.1411532   0.10276657  0.07287329
  0.04856071 -0.09445671  0.03506424  0.10102493 -0.09395335 -0.04656604
  0.02525216 -0.06071026 -0.02856868 -0.04393384  0.21248642  0.04186685
 -0.09874801 -0.13605426  0.06759217 -0.08781942 -0.06438873  0.03361918
 -0.17907564 -0.12221471 -0.34701484  0.02301446  0.3602801   0.05184673
 -0.18927971  0.06367596 -0.08271184 -0.02112657  0.11822468  0.06428886
 -0.06271362  0.03276304 -0.12710233  0.02044108  0.20793068 -0.08212092
 -0.04638284  0.14291726 -0.01926847  0.09696109  0.03917829  0.04237948
 -0.05017069  0.05420917 -0.10928889 -0.01522312  0.1227689  -0.06592565
  0.02253434  0.10041758 -0.14654812  0.06129157  0.06170223  0.06780895
  0.0554052  -0.02018731 -0.08630081 -0.09049719  0.11256894 -0.19231357
  0.23080663  0.18112102 -0.01358598  0.10206974  0.12277438  0.08353682
 -0.05941669  0.01664548 -0.10455871 -0.01140792  0.06014548  0.05689332
  0.10680314  0.01540144]