[-0.02465858  0.10438452  0.0654547  -0.03744844 -0.07569733 -0.10671377
 -0.04152826 -0.0489796   0.08813938 -0.01004448  0.27840999 -0.05474093
 -0.20483856 -0.01144444 -0.10076805  0.08868893 -0.15615165 -0.05584612
 -0.14638835 -0.11134274  0.05116106 -0.00651221  0.04026766  0.03941808
 -0.0925765  -0.2490311  -0.09500114 -0.07239752  0.13060437 -0.12112798
 -0.04158956  0.02010863 -0.17028587 -0.10524547  0.04179746  0.01122777
 -0.0240108  -0.08343694  0.21382831  0.02352688 -0.18110029  0.08838806
  0.01297356  0.27020684  0.25057417  0.06289157  0.0015476  -0.08664575
  0.12628639 -0.22857468  0.09414654  0.20035544  0.12874243  0.08330338
  0.0689637  -0.16238141 -0.01338502  0.1299763  -0.09587578  0.01601887
  0.03841498 -0.07735731  0.02501307 -0.12445318  0.10201155  0.09079584
 -0.09638192 -0.12554549  0.13767038 -0.12113234 -0.03698394  0.09547289
 -0.13211851 -0.12611149 -0.26269695  0.07239179  0.41691336  0.16420554
 -0.16048588  0.02466811 -0.10173744  0.00902197  0.05279042  0.02989906
 -0.10025217 -0.01002343 -0.08400878  0.03312593  0.14713667 -0.07934925
 -0.09421541  0.13642101 -0.06434678  0.07835422  0.04464904  0.04555232
 -0.13876179  0.02092533 -0.0942828   0.01044459  0.06867266 -0.09443723
 -0.00104845  0.07071051 -0.13441627  0.09239453 -0.00764381  0.00149754
 -0.02909091  0.02885641 -0.05235252  0.01721346  0.15435371 -0.24445263
  0.30530041  0.19355674 -0.00339387  0.11159524  0.12363851  0.04512016
 -0.00523347 -0.03163024 -0.07760664 -0.11264723  0.02285878  0.02533546
  0.08888068 -0.00625619]