[-0.10308035  0.12646139  0.0671906  -0.01302136 -0.00808915 -0.09924024
 -0.03546669 -0.12467103  0.12704651 -0.02439427  0.22591606 -0.02822879
 -0.22268192 -0.19329682 -0.02467294  0.12597261 -0.13751394 -0.09715509
 -0.05750866 -0.0719278   0.04869406 -0.00336424  0.05134758 -0.01559637
 -0.05084632 -0.31420174 -0.08513826 -0.10131227  0.03211894 -0.06008103
 -0.02880981  0.0273433  -0.17345375 -0.11030724 -0.00990126  0.06872028
 -0.01772026 -0.02199292  0.1747819  -0.01700207 -0.144426   -0.03603779
  0.01871813  0.22752149  0.22572592  0.05794081  0.01422364 -0.09226587
  0.08245053 -0.16561933  0.04439486  0.15788409  0.08716483  0.05619886
  0.05380679 -0.11750159 -0.01287672  0.06829259 -0.07953113 -0.01938373
  0.02906148 -0.09226083 -0.0374142  -0.04061095  0.22149323  0.04667011
 -0.07066659 -0.10103039  0.13389747 -0.10558661 -0.08023888  0.04496652
 -0.14190486 -0.10826273 -0.31766218  0.0619523   0.37531814  0.0781382
 -0.15428054  0.03812928 -0.13742521 -0.00430445  0.08598107  0.04317588
 -0.07733288  0.01069983 -0.11205488 -0.00730902  0.17591314 -0.07803191
 -0.0659714   0.13417216 -0.05052378  0.10778727  0.01197493 -0.02314211
 -0.03712014  0.04021087 -0.1098491  -0.06186258  0.1508387  -0.07498798
  0.02946338  0.11221607 -0.15811858  0.03215842  0.04875761  0.03631683
  0.06135587  0.00721424 -0.0940055  -0.06223154  0.1472867  -0.16990097
  0.27131706  0.18249208  0.00221198  0.10470307  0.12324556  0.09096681
 -0.03951145 -0.0321345  -0.09654088 -0.03522114  0.07873809  0.07303481
  0.08990888  0.02247034]