[-0.10877494  0.11705949  0.04271663 -0.04377678  0.00323723 -0.0863011
 -0.05254432 -0.15402257  0.11111744 -0.01408129  0.24184187  0.00610662
 -0.18661979 -0.20200554 -0.02145423  0.15522158 -0.15331922 -0.11490667
 -0.05499125 -0.02005991  0.05003892  0.02044552  0.08701652 -0.02773009
 -0.08347867 -0.35657966 -0.06978703 -0.08067655 -0.011151   -0.01200503
 -0.04432664  0.04628905 -0.18822064 -0.07338958  0.03198179  0.10363501
 -0.01810459 -0.03322426  0.19593315 -0.01571044 -0.16054806 -0.02329462
  0.08622095  0.22612882  0.23148571  0.02208572  0.05470425 -0.11175919
  0.09981715 -0.12000299  0.03258268  0.10914346  0.09041323  0.05551708
  0.03748677 -0.1235216   0.03410075  0.04762494 -0.08010211 -0.05938878
  0.03218872 -0.07253767 -0.04833941 -0.01969064  0.23965359  0.0096565
 -0.09590098 -0.1293197   0.06783891 -0.08334105 -0.06734502  0.04503482
 -0.16966516 -0.12169211 -0.3484126   0.02652638  0.37986121  0.02673415
 -0.17865306  0.06506446 -0.09809794 -0.02898081  0.11472138  0.07441854
 -0.05868822  0.03661352 -0.15318595 -0.00401451  0.22582792 -0.07799035
 -0.06008381  0.13816719 -0.02320159  0.11316539  0.01399509  0.02805889
 -0.04740016  0.07524919 -0.10234661 -0.0285875   0.11805488 -0.05132706
  0.01426238  0.1209571  -0.16890959  0.04518105  0.0495514   0.06007563
  0.07415833 -0.00726526 -0.09617656 -0.11775329  0.08417448 -0.18544887
  0.20155895  0.17908393  0.00943229  0.11231651  0.12438402  0.08934791
 -0.04934097  0.04122267 -0.13898927 -0.00553554  0.07432548  0.07188275
  0.10709567  0.03465107]