[-0.11464882  0.12150048  0.05342981 -0.03390346 -0.03695665 -0.05859398
 -0.04261923 -0.12206634  0.10990901 -0.00147737  0.24463992 -0.01473954
 -0.22441855 -0.19535393 -0.0470171   0.13913471 -0.15319602 -0.09125444
 -0.05746978 -0.04130861  0.0575209   0.00836198  0.07598616 -0.01526563
 -0.05567356 -0.32607347 -0.05946681 -0.09782749  0.01908559 -0.06848958
 -0.04935455  0.02913654 -0.16757785 -0.11747674  0.0028953   0.09128484
 -0.03436916 -0.04643113  0.16585058 -0.01344602 -0.15062551 -0.01919365
  0.04676558  0.22903673  0.23643291  0.05009365  0.02835167 -0.09783679
  0.09276921 -0.17718188  0.04693051  0.12850559  0.09458311  0.05025887
  0.05317897 -0.13681071 -0.00635161  0.08378714 -0.05404622 -0.03016755
  0.01801933 -0.08197962 -0.02188742 -0.0606582   0.20324361  0.03344637
 -0.07811709 -0.10603263  0.07511061 -0.07990339 -0.09763395  0.04491524
 -0.15486777 -0.1166551  -0.33460346  0.05014723  0.36644766  0.07537252
 -0.16439757  0.03314365 -0.1046762   0.00352671  0.08484131  0.06782101
 -0.06462246  0.01811299 -0.13143677 -0.02662624  0.16785116 -0.08713071
 -0.06999724  0.13777958 -0.04329272  0.1151795   0.02335239  0.00450278
 -0.05287548  0.06250455 -0.10501372 -0.05775509  0.133026   -0.07352553
  0.0263387   0.10000043 -0.16010301  0.02551275  0.03035098  0.05438054
  0.06924897 -0.03298346 -0.07887103 -0.05124654  0.13052106 -0.18306702
  0.24317427  0.20321988  0.01053271  0.12084677  0.15293351  0.07330531
 -0.03818711  0.00878441 -0.10578593 -0.0257859   0.08282369  0.06537439
  0.09186002  0.02079695]