[-0.1232486   0.11954627  0.04495516 -0.03468305 -0.00710596 -0.08466452
 -0.05258849 -0.14159368  0.10686544 -0.00671772  0.23492289 -0.00193311
 -0.18548675 -0.19463721 -0.01400222  0.15053047 -0.14662187 -0.11114756
 -0.06270912 -0.02529988  0.05723558  0.02366099  0.07437296 -0.02736388
 -0.08335783 -0.35354832 -0.06471954 -0.08296005 -0.00168512 -0.01830966
 -0.04509079  0.03663873 -0.18441486 -0.08702382  0.02965676  0.1035255
 -0.0191661  -0.03393054  0.17758469 -0.0179213  -0.16211872 -0.02339612
  0.07742472  0.22829905  0.22457071  0.02895716  0.0566656  -0.11271355
  0.09244748 -0.12414049  0.03894737  0.11112496  0.08806741  0.05005316
  0.0456066  -0.12846445  0.01938307  0.05595956 -0.07752737 -0.05088498
  0.03392933 -0.05453077 -0.05137118 -0.03857996  0.22241114  0.01343816
 -0.09239702 -0.12945008  0.06531414 -0.0787022  -0.07259341  0.04036677
 -0.16596878 -0.13041447 -0.34669694  0.03035872  0.38206527  0.03251229
 -0.18350618  0.0591514  -0.09611025 -0.02672863  0.11396442  0.06986816
 -0.05359998  0.03675205 -0.14485453 -0.00338762  0.2141933  -0.07823538
 -0.05715212  0.13010125 -0.02283991  0.10214236  0.01025112  0.02673346
 -0.05264595  0.07532146 -0.10574456 -0.04072662  0.12095401 -0.04900387
  0.0129468   0.11485868 -0.1657782   0.05219969  0.05825595  0.0616896
  0.06790089 -0.00958723 -0.09925344 -0.10444987  0.09393629 -0.17562109
  0.20029441  0.18587379  0.01016306  0.11707199  0.13169667  0.08297429
 -0.03960113  0.04390151 -0.14213519 -0.00731376  0.0741986   0.07053756
  0.09468391  0.03630639]