[-8.50921646e-02  1.24351971e-01  2.95977034e-02 -4.63635772e-02
 -2.46619433e-02 -6.39221892e-02 -7.28410408e-02 -1.19176686e-01
  1.17970504e-01 -1.56917814e-02  2.31485844e-01 -3.57619312e-04
 -2.00277567e-01 -1.89574227e-01 -3.70874926e-02  1.45063758e-01
 -1.42556354e-01 -9.61282179e-02 -8.39334279e-02 -4.49340232e-02
  4.47996669e-02  7.24924216e-03  8.72537196e-02 -1.69932246e-02
 -8.18132535e-02 -3.46386790e-01 -8.59319568e-02 -7.67160580e-02
  3.80038023e-02 -8.56774971e-02 -4.65577394e-02  1.18572190e-02
 -1.76456600e-01 -1.02748528e-01  3.65425949e-03  8.12165737e-02
 -3.91882770e-02 -4.45451811e-02  1.84284255e-01  1.19553953e-02
 -1.60396680e-01 -8.48687533e-03  3.76843326e-02  2.51643658e-01
  2.37464815e-01  6.22310750e-02  6.67769313e-02 -1.13583699e-01
  9.70480368e-02 -1.44147202e-01  6.28736243e-02  1.27117187e-01
  7.14874193e-02  5.37618957e-02  5.19179180e-02 -1.23029135e-01
  7.75983511e-03  1.10051312e-01 -7.20931515e-02 -5.64219896e-03
  3.39636169e-02 -7.63825104e-02 -1.21211587e-02 -3.32651399e-02
  2.46824786e-01  3.43379080e-02 -8.21946859e-02 -1.13176636e-01
  1.15923837e-01 -7.51351342e-02 -6.00230396e-02  3.79759930e-02
 -1.51619315e-01 -1.28304154e-01 -3.31807345e-01  4.84528840e-02
  3.96902502e-01  6.96925670e-02 -1.65193453e-01  4.83673662e-02
 -1.11529328e-01 -1.33814430e-02  1.19495891e-01  8.01346302e-02
 -6.88758716e-02  1.36008430e-02 -1.29757255e-01 -7.43135824e-05
  2.18738154e-01 -7.77985081e-02 -6.65674210e-02  1.29386708e-01
 -2.58327406e-02  1.06410220e-01  2.83119865e-02  9.69055202e-03
 -8.28958452e-02  6.61569685e-02 -9.93526727e-02 -3.77928205e-02
  1.13422453e-01 -7.11440220e-02  2.80152149e-02  1.05119228e-01
 -1.23672865e-01  6.19985536e-02  5.63144386e-02  4.48130816e-02
  5.39978147e-02  5.22415992e-03 -8.83654505e-02 -9.86501724e-02
  1.23556189e-01 -1.89581051e-01  2.51982778e-01  1.95669055e-01
  3.05656381e-02  1.22164369e-01  1.43434644e-01  1.09231509e-01
 -2.81682350e-02  2.01875269e-02 -1.08313359e-01 -7.34969229e-03
  6.65377453e-02  6.26354441e-02  1.19230621e-01  3.46182100e-02]