[-0.09431922  0.0981014   0.06537882 -0.03050931 -0.0101259  -0.06797042
 -0.05817477 -0.13385923  0.11776822 -0.03451342  0.23230748 -0.03420305
 -0.22057502 -0.18820292 -0.04828885  0.14884152 -0.12784156 -0.09325328
 -0.06897018 -0.04092439  0.05596882  0.00864904  0.06919079 -0.02096697
 -0.06024518 -0.34884688 -0.09311005 -0.09384139  0.01899755 -0.04107465
 -0.05147188  0.03128078 -0.15074815 -0.10147836  0.00292709  0.10536765
 -0.04247738 -0.04600656  0.15691449 -0.014154   -0.15382783 -0.02012255
  0.04700146  0.22551563  0.22657506  0.08038625  0.04844579 -0.11100578
  0.09092364 -0.17380442  0.05122607  0.12790541  0.07193507  0.06949203
  0.07637181 -0.10808873  0.01817168  0.08115479 -0.06268711 -0.0214124
  0.02534713 -0.06939272 -0.01679271 -0.04233013  0.21782684  0.02925375
 -0.07932594 -0.09153489  0.11083465 -0.10429584 -0.09366096  0.04095795
 -0.16187115 -0.1186651  -0.34869966  0.03878362  0.40891019  0.079847
 -0.14673589  0.03901977 -0.09072716 -0.00624541  0.11897428  0.06726003
 -0.05404121 -0.0028207  -0.12794201 -0.019888    0.20680442 -0.091917
 -0.06262778  0.12693033 -0.03120809  0.11684841  0.0087209   0.00958867
 -0.04487007  0.05447903 -0.11169242 -0.04921727  0.13475724 -0.04142246
  0.01563679  0.09791268 -0.14657618  0.04803352  0.0471129   0.03703589
  0.07563602 -0.01015828 -0.10255438 -0.06239617  0.13716742 -0.1733944
  0.22271685  0.20650037  0.03201837  0.1023306   0.1380512   0.08259521
 -0.0358781  -0.00786179 -0.12883829 -0.03866375  0.07581852  0.07078815
  0.07980558  0.02585324]