[-0.11149774  0.08302433  0.04204803 -0.02874056 -0.07399948 -0.13972361
 -0.01441938 -0.09897821  0.06045431 -0.02462344  0.27962279 -0.08285459
 -0.22623996 -0.07613927 -0.07624988  0.11651355 -0.17917387 -0.0703456
 -0.13472544 -0.05978599  0.06544517 -0.01534785  0.04322298  0.02484365
 -0.0553169  -0.32810292 -0.09670252 -0.06274771  0.08194373 -0.07491335
 -0.02036464  0.00993165 -0.17963634 -0.11823871  0.05304202  0.03277363
 -0.0225648  -0.05593595  0.19314288 -0.00581877 -0.18651174  0.05992944
  0.04149241  0.25242677  0.22759561  0.10770034 -0.01576828 -0.10227516
  0.07832807 -0.20364252  0.0589378   0.15496996  0.10012265  0.02227308
  0.09074987 -0.14388555 -0.00938918  0.11248223 -0.13177268 -0.01709265
  0.03466731 -0.09469251 -0.00802467 -0.12518753  0.17022941  0.08313274
 -0.1031428  -0.1125742   0.15459003 -0.12949196 -0.04828357  0.04563842
 -0.10653682 -0.13292827 -0.29008454  0.039116    0.39559081  0.13098238
 -0.16534999  0.04246478 -0.07588296  0.01083746  0.0957367   0.04988322
 -0.08404555 -0.00559197 -0.09543089 -0.00997947  0.12292667 -0.05195798
 -0.08420207  0.1504101  -0.07538863  0.06531566  0.06605643 -0.01360137
 -0.1200845   0.01027124 -0.10475802 -0.02549535  0.09673714 -0.0859661
  0.01824482  0.08483105 -0.12057576  0.04085685 -0.02320788  0.01811451
  0.00568686  0.00069988 -0.05999278 -0.00699579  0.10781404 -0.25662705
  0.30289561  0.18981926 -0.01881311  0.11380934  0.12377267  0.02557666
 -0.01331082  0.01038368 -0.12892799 -0.08921718  0.0571697   0.00837908
  0.12911299 -0.00894379]