[-0.10453343  0.0967104   0.02340533 -0.03077857 -0.05637517 -0.14308383
 -0.03426087 -0.11114242  0.092967   -0.02752796  0.28010175 -0.05162691
 -0.23678544 -0.11577915 -0.07276127  0.13926187 -0.168558   -0.08587741
 -0.0934248  -0.04886487  0.0742931  -0.01050439  0.0676775   0.03486005
 -0.04464777 -0.3154586  -0.11055966 -0.06110976  0.08249242 -0.04619541
 -0.05367539  0.01855555 -0.17904377 -0.13564694  0.06457871  0.05143331
 -0.03114203 -0.03770901  0.20546055 -0.0005279  -0.17913853  0.06104251
  0.03114329  0.27225211  0.224406    0.09853118  0.0013726  -0.10965021
  0.08450663 -0.169425    0.05388024  0.14711088  0.11951645  0.01976446
  0.07732884 -0.15343124 -0.02288608  0.14421566 -0.14254974 -0.02465283
  0.01257261 -0.08608431 -0.00744723 -0.13159339  0.18617474  0.07764239
 -0.11465501 -0.12450772  0.15158138 -0.12765436 -0.04481275  0.06566422
 -0.12436078 -0.13122533 -0.2983627   0.0191622   0.38015652  0.10841572
 -0.15351765  0.04986094 -0.0494369  -0.00475582  0.08846643  0.06220713
 -0.07750069  0.02020498 -0.09507619 -0.02596583  0.12987928 -0.05931285
 -0.08060592  0.15311427 -0.06284919  0.10538969  0.05514697 -0.01102876
 -0.09368934  0.01533112 -0.12614252 -0.01996077  0.04181322 -0.08567741
  0.01718926  0.06758434 -0.10809584  0.02306652  0.00413603  0.03862727
 -0.02692643  0.00801053 -0.07046927 -0.02205581  0.09867723 -0.2666215
  0.29624525  0.19251339 -0.00459513  0.11054301  0.11635851  0.01702726
 -0.01726553 -0.01146434 -0.13167217 -0.0699015   0.07585086 -0.00180506
  0.1496938  -0.00326018]