[-0.08853892  0.10723396  0.02275848 -0.06171765 -0.01560924 -0.07915653
 -0.07132369 -0.13979463  0.10390025 -0.01322622  0.2448494  -0.00660082
 -0.1859386  -0.20531373 -0.02085565  0.1392708  -0.15435584 -0.10700992
 -0.07322609 -0.03521402  0.057599    0.00141251  0.07158616 -0.01903875
 -0.09822338 -0.34714603 -0.09555525 -0.07493421  0.01973086 -0.03383832
 -0.04253729  0.04194126 -0.19889644 -0.103241    0.0238954   0.10325895
 -0.00914486 -0.04467563  0.17401867 -0.01516409 -0.15006427  0.00249257
  0.0777877   0.23454285  0.23259445  0.01808589  0.05491723 -0.10055834
  0.09494048 -0.1231808   0.03018794  0.12739812  0.102207    0.06784622
  0.04429302 -0.10017387  0.03272697  0.1007233  -0.09409972 -0.04777795
  0.02059123 -0.06505045 -0.04369438 -0.04621748  0.22440651  0.03973625
 -0.09484525 -0.12604909  0.07201978 -0.07525563 -0.05881475  0.03946051
 -0.17303184 -0.12104768 -0.34109837  0.02982082  0.36165008  0.04963009
 -0.19495946  0.06408453 -0.09769212 -0.01685594  0.11827302  0.05524815
 -0.05262181  0.04107967 -0.13196033  0.02203529  0.21113184 -0.08256504
 -0.04002156  0.14185491 -0.021432    0.10465761  0.02981236  0.03389455
 -0.05585606  0.05559951 -0.10791701 -0.01697317  0.120139   -0.05774286
  0.01865617  0.0974592  -0.14115968  0.04706071  0.06408472  0.05308717
  0.055317   -0.02246168 -0.07515655 -0.10250566  0.10490578 -0.19564746
  0.21744059  0.18477777 -0.01469443  0.11044939  0.12263364  0.08751199
 -0.05825734  0.01221996 -0.11517965 -0.00868806  0.068503    0.06256185
  0.10166635  0.01281282]