[-0.08902342  0.10859902  0.02124456 -0.06178266 -0.01730891 -0.07954862
 -0.07220377 -0.12994897  0.10059314 -0.00465877  0.24880455 -0.00883055
 -0.18832289 -0.19169515 -0.02012224  0.14017223 -0.16411161 -0.10379177
 -0.06135381 -0.03016008  0.05657197 -0.00471688  0.06935814 -0.013792
 -0.0894083  -0.34666365 -0.09540372 -0.07079535  0.02792451 -0.03394789
 -0.04233219  0.03860859 -0.1971232  -0.09212631  0.02859434  0.0957894
 -0.00452187 -0.04271002  0.17865181 -0.0215967  -0.14783554 -0.00527773
  0.07787447  0.23459704  0.23046546  0.02472128  0.05055329 -0.10299017
  0.09944464 -0.12038507  0.03795544  0.13047978  0.10999973  0.06540864
  0.03908583 -0.10318124  0.03383948  0.09961589 -0.09476638 -0.04662257
  0.0188586  -0.05597508 -0.0383503  -0.05255456  0.23081653  0.03531248
 -0.09840631 -0.13401997  0.07033835 -0.07525884 -0.06172835  0.04009703
 -0.17298235 -0.12233367 -0.34437874  0.02687278  0.35250983  0.04380898
 -0.19744216  0.06827917 -0.09314077 -0.02303473  0.11621417  0.05562345
 -0.06222807  0.03807559 -0.13670534  0.01555675  0.21567045 -0.08694755
 -0.0415599   0.13732125 -0.02675169  0.10695621  0.02642397  0.0394054
 -0.05244382  0.05858383 -0.10651008 -0.01711808  0.11888269 -0.05870074
  0.01209899  0.1030402  -0.1519139   0.04499681  0.06227877  0.05599526
  0.05450755 -0.01795158 -0.08290248 -0.10656627  0.10582905 -0.20405947
  0.22154318  0.1830004  -0.01072418  0.1061674   0.11710577  0.08825153
 -0.05650588  0.01198213 -0.11525258 -0.00623553  0.07182892  0.0579959
  0.09746444  0.01562127]