[-0.07507282  0.13628526  0.03056314 -0.04428485 -0.02088253 -0.0634387
 -0.07274878 -0.12768196  0.1189592  -0.02185834  0.23430954 -0.00791413
 -0.20713595 -0.1812001  -0.04550735  0.15607516 -0.1477406  -0.09179329
 -0.07709769 -0.02515942  0.05638859  0.00364776  0.08975814 -0.0129375
 -0.07479848 -0.34518513 -0.08412743 -0.0646946   0.03774709 -0.07318131
 -0.05076031  0.02061364 -0.17690232 -0.09970789  0.01692911  0.08460465
 -0.04824588 -0.05134973  0.19333611 -0.00120631 -0.16301048  0.0041313
  0.04891818  0.24712606  0.23373353  0.05825551  0.06948641 -0.12516999
  0.10188051 -0.13900052  0.05840843  0.12140673  0.06959759  0.06162727
  0.05374862 -0.12858371  0.00322201  0.11678236 -0.07042625 -0.00863974
  0.03175732 -0.07391034 -0.0135419  -0.04809179  0.24594784  0.03602656
 -0.09150959 -0.12477076  0.11206072 -0.07958061 -0.06928467  0.04132485
 -0.15515585 -0.12075581 -0.34118968  0.0323768   0.38703576  0.07233776
 -0.16353364  0.04924612 -0.08964188 -0.01363875  0.11664325  0.09594832
 -0.06531902  0.02028731 -0.11822255 -0.00101609  0.22324558 -0.07450685
 -0.08097859  0.13285963 -0.02674955  0.11209953  0.01801555 -0.00056431
 -0.07782954  0.05304685 -0.11889025 -0.04432225  0.09919336 -0.05664828
  0.02073606  0.11756489 -0.12341358  0.05714292  0.05064272  0.0537462
  0.05288164  0.0107582  -0.09809462 -0.08451153  0.11501162 -0.19377284
  0.25693187  0.18645409  0.043179    0.10364423  0.15064421  0.09517523
 -0.01807958  0.02302629 -0.11773409 -0.0136352   0.07996794  0.06108824
  0.13563363  0.02608093]