[-0.07248807  0.1377769   0.03884916 -0.05036198 -0.01185909 -0.06774236
 -0.07661698 -0.12864992  0.11272818 -0.03155918  0.25017747 -0.00147329
 -0.20970745 -0.18468586 -0.0438638   0.15124016 -0.14331268 -0.09976142
 -0.07429796 -0.02322048  0.06703226  0.01454288  0.07585116 -0.01310416
 -0.07458996 -0.34274971 -0.09316252 -0.06080021  0.03393747 -0.07328662
 -0.05107883  0.01865591 -0.1737849  -0.10244177  0.01961874  0.08619303
 -0.04651987 -0.05769015  0.18585993 -0.00370514 -0.16219868  0.01353456
  0.03720418  0.25645015  0.23867045  0.04628989  0.0674426  -0.12257848
  0.09652422 -0.14715055  0.05960361  0.12426384  0.07408427  0.06316571
  0.05182528 -0.12254434 -0.00272765  0.12977867 -0.0789037  -0.01561114
  0.02184111 -0.0796165  -0.0052636  -0.04518402  0.23200737  0.043129
 -0.10056043 -0.12250087  0.10714012 -0.08009075 -0.07105165  0.03930053
 -0.1635917  -0.12149363 -0.34091625  0.03921011  0.39245579  0.06692123
 -0.16662757  0.05340318 -0.08694573 -0.00765111  0.12057755  0.08780586
 -0.06201739  0.01527168 -0.11972076  0.01239213  0.22325075 -0.07116362
 -0.08778038  0.1356023  -0.03660722  0.11225903  0.03101661  0.01476801
 -0.0656465   0.04834433 -0.11695661 -0.03489352  0.09576868 -0.05553988
  0.01375969  0.12609456 -0.11451349  0.05668845  0.05180274  0.05911058
  0.05270419  0.00288307 -0.09498715 -0.08311792  0.11145379 -0.19215104
  0.25380906  0.18409328  0.03387929  0.10462723  0.14758351  0.08102593
 -0.02038294  0.00504364 -0.12579246 -0.01487762  0.08394717  0.07370657
  0.13958025  0.0164599 ]