[-9.50638875e-02  5.71648963e-02  1.50056584e-02 -5.29537275e-02
 -3.21283899e-02 -1.48977682e-01  3.34386490e-02 -1.24005929e-01
  8.40577036e-02 -1.93777774e-02  2.68236607e-01 -6.61485344e-02
 -2.16301307e-01 -1.47862300e-01  3.05224763e-04  1.44751295e-01
 -1.69206083e-01 -8.61682147e-02 -7.79505894e-02 -4.57226634e-02
  4.72171083e-02 -3.19570974e-02  5.56758530e-02  5.55893555e-02
 -4.37619425e-02 -3.09993416e-01 -1.27934560e-01 -6.77816495e-02
  1.94703974e-02 -2.74245422e-02 -5.07798009e-02  8.03699195e-02
 -1.94788560e-01 -1.29294306e-01  3.98828946e-02  3.72931436e-02
 -1.90445017e-02 -4.54250053e-02  2.24441573e-01  1.04063125e-02
 -1.78186387e-01 -6.28914637e-03  6.30072951e-02  2.64240623e-01
  2.05613330e-01  5.17636426e-02 -4.10474511e-03 -7.56671876e-02
  5.28764986e-02 -1.49684176e-01  7.57948756e-02  1.13297716e-01
  1.17003381e-01  1.82980336e-02  1.89438649e-02 -1.43767819e-01
  1.49777497e-03  8.46774876e-02 -1.63470611e-01 -5.73993921e-02
  1.93067621e-02 -1.13510333e-01 -5.76887988e-02 -8.10200274e-02
  1.93518102e-01  1.06659688e-01 -7.29892999e-02 -1.41742304e-01
  1.66617259e-01 -1.11817323e-01 -6.07737079e-02  5.36020584e-02
 -1.62692010e-01 -1.41535446e-01 -3.26355428e-01  4.39685844e-02
  3.64970744e-01  6.83337301e-02 -1.76279888e-01  2.30555832e-02
 -6.72700033e-02 -2.51730289e-02  1.43740281e-01  7.39993304e-02
 -4.89786081e-02  1.84477549e-02 -1.05428852e-01  2.12425850e-02
  1.43942252e-01 -8.04793015e-02 -1.07034378e-01  1.34128019e-01
 -2.91236993e-02  6.46715090e-02  5.81183136e-02  6.65032130e-04
 -6.07888913e-03  6.08157404e-02 -1.73082873e-01  7.05570122e-03
  9.62834731e-02 -6.03715293e-02 -1.25245918e-02  1.14198208e-01
 -1.51875377e-01  1.77344810e-02  6.14329465e-02 -3.00722178e-02
 -2.43787915e-02 -3.64318378e-02 -1.02098368e-01 -6.33913800e-02
  8.45447034e-02 -2.34382734e-01  2.32131764e-01  1.95416227e-01
 -1.27853500e-02  1.09234564e-01  6.43798336e-02  3.84397767e-02
 -6.18743291e-03 -5.01981638e-02 -1.69603094e-01 -1.79652255e-02
  1.38403878e-01  6.02504313e-02  1.19748689e-01  1.14465868e-02]