[-0.09113485  0.1091427   0.06539271 -0.03781908 -0.0080107  -0.0627763
 -0.04700864 -0.12703852  0.11084385 -0.00540589  0.23704799  0.01347621
 -0.15961726 -0.2062712  -0.00286092  0.14680259 -0.12938468 -0.12213842
 -0.08332296 -0.03584246  0.05145062  0.04542603  0.06402447 -0.01726456
 -0.1191797  -0.35194969 -0.05123955 -0.08800494  0.00726164 -0.02717762
 -0.05386643  0.05931642 -0.17554013 -0.08573053  0.0467957   0.11543953
 -0.01456104 -0.02936684  0.14992189 -0.01694949 -0.15938865 -0.01274453
  0.0559011   0.25233772  0.23760708  0.00881223  0.06705371 -0.09363921
  0.08582046 -0.13064013  0.05735988  0.09055962  0.10964616  0.05143002
  0.05128248 -0.1215358   0.01895788  0.05791639 -0.09044667 -0.03590987
  0.02930919 -0.08064622 -0.07511757 -0.02542323  0.2131623   0.01971751
 -0.09757116 -0.12799063  0.07592466 -0.06392705 -0.05940858  0.04009563
 -0.16904812 -0.11490186 -0.32864776  0.03058991  0.41681263  0.04145299
 -0.25177449  0.04837283 -0.09885598  0.02010843  0.12956382  0.06259966
 -0.05140853  0.03965936 -0.1583768   0.01851312  0.19007495 -0.07420721
 -0.07377286  0.13245296 -0.00493751  0.0802981   0.04380787  0.02853559
 -0.04725249  0.07071441 -0.11318155 -0.05769155  0.14247671 -0.03009221
  0.01535656  0.11411952 -0.14582203  0.10523821  0.07017132  0.07365628
  0.09778443 -0.00272294 -0.0900945  -0.11444191  0.10411673 -0.17896084
  0.17072514  0.16707002  0.00096955  0.13268532  0.11006023  0.09546885
 -0.04220394  0.03367455 -0.13503119 -0.00766318  0.07446357  0.06057463
  0.10561196  0.03311824]