[-0.14116883  0.05016557  0.07088242 -0.02923517 -0.01479755 -0.1724494
  0.07405283 -0.11820461  0.09599569 -0.01410356  0.28945908 -0.02642713
 -0.19248347 -0.17161919  0.06010998  0.14384231 -0.15826757 -0.09156912
 -0.07267845 -0.0791039   0.0005868  -0.04117847  0.05506305  0.07909744
 -0.03439144 -0.29883346 -0.11147306 -0.10998674  0.04509421 -0.02994144
 -0.02708478  0.10269119 -0.20518391 -0.11776835 -0.00177624  0.02704056
  0.01396158 -0.02470293  0.22774653 -0.0098006  -0.15990888 -0.04973688
  0.02180279  0.25504977  0.18711047  0.02381314 -0.00193668 -0.01007552
  0.0262716  -0.18250327  0.06285693  0.09032857  0.14208683 -0.00943485
  0.01203568 -0.17617212 -0.01918058  0.0277338  -0.16889249 -0.04141051
  0.00326205 -0.11360973 -0.08489463 -0.07633374  0.22129451  0.12212391
 -0.06434481 -0.11266444  0.18000682 -0.1059884  -0.02069044  0.08118283
 -0.1697499  -0.13299225 -0.29825467  0.07776347  0.33770278  0.0720256
 -0.19094446 -0.00312136 -0.1304284   0.00351168  0.08570836  0.01693518
 -0.06231388  0.01692711 -0.11264604  0.01524034  0.11478847 -0.05968219
 -0.08875428  0.14692973 -0.03226109  0.04864267  0.02594891 -0.0404654
  0.03921708  0.04063862 -0.15290567  0.01105907  0.10083564 -0.06782802
 -0.00116217  0.1098079  -0.19229268  0.0113476   0.05726836 -0.03028705
 -0.00776824  0.01469724 -0.12258639 -0.08209937  0.11034888 -0.21561554
  0.23925798  0.2150111  -0.04257843  0.11078952  0.02526425  0.05974844
 -0.04074926 -0.05689621 -0.13786285 -0.00330814  0.15574498  0.01570497
  0.08104771  0.02612211]