[-5.09207621e-02  7.38464296e-02  4.26467769e-02 -3.68408822e-02
 -5.86080067e-02 -9.36815068e-02 -2.24329736e-02 -1.31403923e-01
  8.28970522e-02 -3.75540415e-03  2.60323256e-01 -6.57126382e-02
 -2.11759910e-01 -7.42725804e-02 -5.66692762e-02  1.29167050e-01
 -1.62541732e-01 -8.13272372e-02 -1.04376338e-01 -4.83767204e-02
  6.01854138e-02 -3.20967357e-03  6.10326901e-02  3.50862220e-02
 -7.85900578e-02 -3.12971890e-01 -1.46059975e-01 -4.79288697e-02
  5.67340851e-02 -6.93659708e-02 -6.20406382e-02 -6.14246447e-03
 -1.38605043e-01 -1.08115546e-01  4.72649746e-02 -3.16644693e-03
 -4.04354259e-02 -9.10046920e-02  1.84259996e-01  2.54211817e-02
 -1.97077647e-01  6.51123300e-02  6.10414222e-02  2.76539564e-01
  2.68452227e-01  1.02280855e-01  2.69272625e-02 -1.10275604e-01
  9.30866972e-02 -1.98932156e-01  1.00302689e-01  1.23882078e-01
  8.12776834e-02  1.33596808e-02  7.56323561e-02 -1.34034798e-01
 -4.84416261e-02  1.24998532e-01 -9.54313874e-02  1.65380090e-02
  5.13773039e-02 -6.19166382e-02  1.78180840e-02 -1.08531080e-01
  1.44846991e-01  8.71191919e-02 -1.00380994e-01 -1.34576395e-01
  1.02427445e-01 -1.43910483e-01 -6.91603124e-02  5.02882898e-02
 -1.53901309e-01 -1.51354417e-01 -3.38588655e-01  2.98502501e-02
  4.51844603e-01  9.54652131e-02 -1.59048676e-01  1.70119144e-02
 -5.35891540e-02  2.48964652e-02  1.43873900e-01  7.40415007e-02
 -6.18141778e-02 -1.57988258e-02 -1.34288356e-01 -1.62353180e-02
  1.90660432e-01 -8.79677758e-02 -1.03152685e-01  1.61457941e-01
 -5.92262708e-02  6.63523525e-02  5.72688654e-02  6.70262203e-02
 -9.79015753e-02  4.43060324e-02 -1.12515561e-01 -2.01712996e-02
  7.44825229e-02 -4.17608880e-02  2.26372611e-02  1.08172737e-01
 -1.24896683e-01  6.74956590e-02  9.60755814e-03  2.59383079e-02
  6.11888198e-03 -1.21138813e-02 -8.91334340e-02 -4.17087674e-02
  1.19887762e-01 -2.38082647e-01  1.87844515e-01  1.94813758e-01
  1.93902481e-04  9.27897766e-02  9.31071937e-02  5.14504798e-02
 -2.51089539e-02  1.94050390e-02 -1.24404781e-01 -3.32253464e-02
  4.65669408e-02  4.48181815e-02  1.17377222e-01  1.19172223e-02]