[-0.04950825  0.07222702  0.04960635 -0.03205322 -0.08627852 -0.10043223
 -0.01443523 -0.0912221   0.07561477  0.01103361  0.24015646 -0.06346979
 -0.2017893  -0.04013289 -0.06441324  0.11169402 -0.15549138 -0.07285053
 -0.12795092 -0.06685048  0.06375476  0.00450675  0.0532378   0.03531515
 -0.08866862 -0.29359737 -0.13392191 -0.04214269  0.07234623 -0.09581053
 -0.04450305 -0.00288784 -0.14847742 -0.11781662  0.03477145 -0.00942492
 -0.0525911  -0.10314798  0.19250788  0.03203477 -0.19199494  0.07293849
  0.05483706  0.28932059  0.27258286  0.09754062  0.02689338 -0.08838169
  0.10487961 -0.22993711  0.11629784  0.13190138  0.09342928  0.02494865
  0.09044841 -0.12999435 -0.04211997  0.12436283 -0.07393871  0.0325649
  0.05729828 -0.05588064  0.03080322 -0.11958804  0.12923688  0.0777859
 -0.08253375 -0.11409316  0.10820623 -0.13023528 -0.07273601  0.05298981
 -0.13887988 -0.14210553 -0.32256299  0.0446847   0.45777732  0.11552256
 -0.16571729  0.00959718 -0.06285032  0.02971904  0.12952706  0.05273032
 -0.07875862 -0.02035559 -0.1421607   0.00977585  0.1942174  -0.08924887
 -0.11015927  0.15510075 -0.03661169  0.05423773  0.06426496  0.06059211
 -0.11134493  0.03921769 -0.11230168 -0.01309097  0.1028577  -0.04991719
  0.01265519  0.10682118 -0.11636235  0.08792996  0.0061911   0.01981459
 -0.00932347 -0.00874055 -0.09851835 -0.01548501  0.12624107 -0.21646118
  0.19745004  0.18136422 -0.01848569  0.09475853  0.09955687  0.05037556
 -0.02212217  0.01775557 -0.10654344 -0.05466055  0.04851865  0.05520365
  0.11619916  0.02605434]