[-0.05805084  0.06251466  0.04106294 -0.03487698 -0.07930548 -0.10307776
 -0.02645263 -0.11055311  0.08206978  0.0071567   0.23687544 -0.06842551
 -0.20707034 -0.07099453 -0.05996162  0.13266049 -0.16681859 -0.08532666
 -0.11074577 -0.07715945  0.06991505  0.00442171  0.04586826  0.03361067
 -0.08768453 -0.31153235 -0.13165651 -0.04724769  0.07482489 -0.07434248
 -0.04949419  0.0023774  -0.1439334  -0.11051545  0.04659705  0.00237075
 -0.04855747 -0.09921106  0.18913911  0.01960888 -0.19031304  0.06590866
  0.06880921  0.27178127  0.2818802   0.09684838  0.04033919 -0.10617043
  0.11077173 -0.20733042  0.10010397  0.1456921   0.07727318  0.02385446
  0.08191212 -0.12928383 -0.05011591  0.12606984 -0.08981549  0.03076489
  0.05885686 -0.06398982  0.00670487 -0.11365085  0.13098462  0.07287833
 -0.09218344 -0.1370616   0.12000751 -0.14557374 -0.07835914  0.04436035
 -0.15368271 -0.1433679  -0.33928615  0.03103607  0.4559598   0.09238824
 -0.15831311  0.03083023 -0.0476389   0.0248065   0.14143279  0.06784561
 -0.06128619 -0.03149283 -0.13690655 -0.00085806  0.19807786 -0.08745932
 -0.09912753  0.14711666 -0.04135295  0.05946245  0.05965068  0.07691901
 -0.10723767  0.03870445 -0.10744299 -0.02339283  0.0977507  -0.04635706
  0.02338444  0.10078096 -0.10755427  0.09036149  0.00921316  0.03466712
 -0.00864531 -0.01746257 -0.09376141 -0.02113294  0.1270562  -0.20992915
  0.20677221  0.18647845 -0.00502865  0.09696534  0.09552748  0.0581672
 -0.02642161  0.01664955 -0.11721887 -0.04899492  0.03082806  0.05167658
  0.11470329  0.02624865]