[-0.10834341  0.12036148  0.03899658 -0.03737235 -0.00581368 -0.07412212
 -0.06034185 -0.15691923  0.10069014 -0.02119168  0.22824387  0.0035025
 -0.18932681 -0.19381145 -0.02103656  0.15684997 -0.15198082 -0.10860854
 -0.05732221 -0.02472314  0.05962603  0.03486718  0.08352052 -0.02191032
 -0.08563607 -0.35776743 -0.06209383 -0.07220461 -0.01419959  0.00058379
 -0.05010782  0.04424143 -0.18777096 -0.07243206  0.04202753  0.11086726
 -0.02601733 -0.03478173  0.18655825 -0.02742773 -0.16389211 -0.00906832
  0.09711074  0.22315042  0.2361609   0.01987522  0.04454672 -0.11654802
  0.10397802 -0.12222188  0.02470253  0.11115688  0.08281883  0.05943054
  0.05073864 -0.12484428  0.03807415  0.04790935 -0.07338642 -0.07007077
  0.022673   -0.07607146 -0.03935383 -0.02595755  0.22866617  0.00640558
 -0.09216399 -0.12949117  0.05982769 -0.08249217 -0.06889767  0.04723817
 -0.16591011 -0.12377619 -0.34645566  0.02149769  0.38532484  0.03781348
 -0.18791296  0.07047156 -0.0765449  -0.02486642  0.13627382  0.07779641
 -0.04929595  0.02719681 -0.14917536  0.00730373  0.22197886 -0.0788806
 -0.06421899  0.13809767 -0.01626366  0.11243733  0.02579802  0.03645973
 -0.05684763  0.07476786 -0.11582921 -0.03124922  0.12633306 -0.04422117
  0.01853476  0.12065289 -0.16242915  0.05310157  0.04996088  0.06048707
  0.07509596 -0.01227368 -0.09852105 -0.09530506  0.08088185 -0.1859334
  0.20949765  0.16775636 -0.00402517  0.11830669  0.12564096  0.0823245
 -0.05188119  0.03697528 -0.14196606 -0.01832653  0.08159509  0.06902324
  0.11747934  0.02694336]