[-0.06125033  0.13684742  0.03670356 -0.04247374 -0.0204026  -0.05357937
 -0.07224918 -0.11345465  0.12443556 -0.03562271  0.24969225  0.00156025
 -0.21405147 -0.16840015 -0.05233428  0.14846843 -0.15297376 -0.08748204
 -0.08237954 -0.03358106  0.07071934  0.02096641  0.08661243 -0.01212789
 -0.08719076 -0.35756162 -0.08497503 -0.05739516  0.03986789 -0.08137947
 -0.05802005  0.02752859 -0.16968109 -0.10218563  0.01493173  0.0895099
 -0.04778014 -0.05530931  0.18462054  0.00993283 -0.16222583  0.01826282
  0.03299471  0.26466364  0.23761573  0.05024172  0.07060739 -0.12835322
  0.10920868 -0.15993766  0.05879882  0.12979992  0.06577255  0.07031886
  0.05303943 -0.1178868  -0.00487163  0.14266644 -0.07244559 -0.0020057
  0.02974479 -0.08611057  0.00523933 -0.05204432  0.22294906  0.04444568
 -0.09768786 -0.11939026  0.09778897 -0.08428725 -0.07535302  0.03741847
 -0.15259328 -0.1257948  -0.34027311  0.03644016  0.39725596  0.07864004
 -0.1649542   0.04015454 -0.08917378 -0.00796912  0.13208722  0.09405179
 -0.06576013  0.0106108  -0.12739192  0.01571723  0.22827101 -0.06790801
 -0.08640407  0.14274324 -0.03218798  0.12010784  0.03385025  0.02623929
 -0.09562178  0.0554384  -0.12233309 -0.03209368  0.08966925 -0.06350284
  0.01151337  0.11205006 -0.11292936  0.0725436   0.04119886  0.05682377
  0.05923958 -0.00453267 -0.09451399 -0.07282499  0.1187946  -0.19390358
  0.25078785  0.18914172  0.0384809   0.12054294  0.15165082  0.08656689
 -0.02815737  0.00374898 -0.12710753 -0.01672834  0.07833119  0.06624921
  0.1335105   0.00795234]