[-0.07848847  0.12939137  0.02875352 -0.04392339 -0.01191752 -0.0654899
 -0.07826141 -0.13162428  0.11684576 -0.03262077  0.23516057 -0.01219114
 -0.20677443 -0.19538961 -0.04334002  0.15444607 -0.14307666 -0.10196405
 -0.07100575 -0.03436077  0.06054812  0.01132441  0.08069526 -0.01519909
 -0.0805262  -0.35317776 -0.08925792 -0.07093553  0.03523327 -0.07464184
 -0.06471387  0.01541693 -0.17958067 -0.10322928  0.01531707  0.09171151
 -0.04286217 -0.05610013  0.17823713 -0.00082214 -0.16135466 -0.00283967
  0.0441654   0.24400575  0.23318084  0.05595288  0.06360256 -0.12646917
  0.09875962 -0.13500153  0.05821112  0.12162732  0.06899601  0.06374065
  0.04676884 -0.12485254 -0.0006135   0.12140524 -0.0804131  -0.01291886
  0.02410766 -0.08196856 -0.01485642 -0.04088132  0.24156514  0.0407049
 -0.09371947 -0.11959475  0.12028964 -0.082395   -0.06341299  0.03091457
 -0.15068196 -0.13026154 -0.33560961  0.04262125  0.39069137  0.07181352
 -0.16501676  0.05397988 -0.08873441 -0.01654417  0.12489083  0.09866426
 -0.05778968  0.01974535 -0.11990493  0.00455476  0.2210321  -0.07312084
 -0.07536943  0.1305875  -0.03824003  0.11836221  0.02839528  0.01385967
 -0.08335669  0.06093026 -0.11192198 -0.0394513   0.1032292  -0.05954466
  0.01776754  0.11854146 -0.10855005  0.059439    0.05540763  0.04897173
  0.05456358 -0.00118723 -0.08609691 -0.09267621  0.10870998 -0.18968232
  0.25302041  0.18626973  0.04171335  0.12399037  0.14650288  0.09652381
 -0.01423564  0.00701121 -0.13205948 -0.01261572  0.08046667  0.06599222
  0.12998766  0.02354684]