[-0.08290044  0.12811613  0.03773249 -0.04266282 -0.01935362 -0.07026809
 -0.07456329 -0.12362819  0.11530823 -0.03292666  0.24159625 -0.01889627
 -0.21077538 -0.18254979 -0.03919495  0.15453945 -0.13665394 -0.09488287
 -0.06988075 -0.03706876  0.05940683  0.01175449  0.077951   -0.00594845
 -0.07571768 -0.35370621 -0.09168424 -0.07293634  0.03326863 -0.07037901
 -0.06358419  0.02262519 -0.17355327 -0.1054667   0.01423466  0.09165305
 -0.04481198 -0.05851238  0.18133356 -0.00839588 -0.15700424 -0.00598462
  0.04846567  0.24702375  0.22787569  0.05999205  0.06801752 -0.12021957
  0.10030074 -0.13504203  0.06195921  0.11970295  0.07949238  0.06299633
  0.05684652 -0.12272453  0.00581268  0.11967836 -0.07666985 -0.01704107
  0.02424712 -0.07788652 -0.01285874 -0.04588974  0.25168845  0.03964462
 -0.0899503  -0.1126221   0.11698605 -0.08024558 -0.06766834  0.03836615
 -0.15783866 -0.123393   -0.33337495  0.0445028   0.38831255  0.07012468
 -0.16474353  0.05808409 -0.08491985 -0.01482106  0.12489777  0.0955824
 -0.06041538  0.01443342 -0.12257715  0.00495075  0.21982148 -0.07792866
 -0.07270526  0.12811011 -0.03247499  0.11131342  0.02814673  0.00838551
 -0.08018117  0.05526407 -0.10636949 -0.03954846  0.11332837 -0.05474151
  0.01184967  0.11248694 -0.12196799  0.0533788   0.04915912  0.0498553
  0.05702429 -0.00257435 -0.08918716 -0.08872709  0.11040955 -0.19360587
  0.24340223  0.17649196  0.02676116  0.12038117  0.13861357  0.09749956
 -0.01884942  0.00433476 -0.12968008 -0.01616142  0.0934123   0.06627408
  0.13022262  0.02212287]