[-0.0946824   0.10433146  0.01535113 -0.06037246 -0.02650577 -0.07496601
 -0.06561332 -0.12977773  0.09693575 -0.00290863  0.23861049 -0.00293691
 -0.19351752 -0.20381854 -0.0226875   0.13501684 -0.15834908 -0.09870484
 -0.06940416 -0.03380983  0.06456172  0.00319945  0.07272568 -0.0183027
 -0.09099969 -0.35160512 -0.10075938 -0.06840089  0.02516128 -0.03998205
 -0.03457415  0.03687886 -0.1894062  -0.09654258  0.02913004  0.09985782
 -0.0053822  -0.0411248   0.17833143 -0.01306912 -0.14536226 -0.00440501
  0.08541004  0.23791718  0.24359067  0.02435455  0.04881611 -0.08889499
  0.11050391 -0.13587694  0.04286876  0.13372821  0.10868859  0.06597674
  0.0591507  -0.097144    0.03035725  0.10341269 -0.09576296 -0.04146133
  0.01770245 -0.06086488 -0.03520649 -0.04600876  0.21975783  0.03870307
 -0.10056887 -0.12321513  0.07670855 -0.08276864 -0.05653179  0.03154526
 -0.17600141 -0.11536305 -0.34879121  0.03334605  0.36639553  0.05134825
 -0.18969683  0.05904256 -0.09230438 -0.01792276  0.11078679  0.05068084
 -0.06601737  0.02990345 -0.13659981  0.01890477  0.20553933 -0.07782661
 -0.04224028  0.14660947 -0.02334825  0.10553056  0.03861756  0.04468338
 -0.05871871  0.04274217 -0.10003152 -0.01242952  0.11911284 -0.08306935
  0.02318324  0.10417836 -0.14368396  0.04747899  0.05357522  0.06016928
  0.04845303 -0.0202351  -0.08527546 -0.09416267  0.10412873 -0.19605601
  0.22489379  0.1780729  -0.02704666  0.10738285  0.11474835  0.09498884
 -0.06202564  0.01320814 -0.09511723 -0.01768768  0.05487168  0.06036956
  0.09597646  0.01640926]