[-0.11451166  0.11292952  0.05787363 -0.02921761 -0.03721996 -0.05193179
 -0.03887298 -0.11904798  0.1140355  -0.00596033  0.24638167 -0.01909492
 -0.21526046 -0.19633178 -0.03647175  0.13871206 -0.14586781 -0.10232198
 -0.04853607 -0.0267879   0.06326709  0.00365848  0.06551542 -0.01256284
 -0.05261567 -0.32984778 -0.06739324 -0.08913559  0.02514243 -0.06680026
 -0.05022237  0.02535017 -0.17742495 -0.11687884 -0.00101201  0.09736652
 -0.02842182 -0.0380331   0.15042058 -0.02264928 -0.15189911 -0.01885263
  0.04699625  0.22371244  0.2388144   0.06607413  0.02679658 -0.09095683
  0.08081803 -0.18378551  0.04785286  0.12442698  0.10538325  0.05179098
  0.04769649 -0.13000944 -0.00700798  0.07083325 -0.04899429 -0.02373617
  0.02299211 -0.07592548 -0.01893582 -0.05608199  0.21275215  0.01975944
 -0.07891342 -0.1106772   0.07542177 -0.08381392 -0.10225238  0.04993994
 -0.15342581 -0.11474527 -0.33839628  0.0513461   0.3756814   0.06747784
 -0.17231016  0.03920716 -0.11083384  0.01557061  0.07940613  0.05643521
 -0.04842916  0.00813311 -0.14824422 -0.03110191  0.17795353 -0.09412449
 -0.06183105  0.13197134 -0.04088214  0.11250438  0.01606892  0.0177103
 -0.03783133  0.06703905 -0.09953772 -0.0580959   0.13375628 -0.05645114
  0.02029514  0.10360771 -0.16336799  0.04103998  0.02824822  0.05774118
  0.07580989 -0.02589792 -0.08534371 -0.05399538  0.126019   -0.1942694
  0.2368414   0.20293577  0.0021031   0.11537111  0.13903455  0.08661151
 -0.03859691  0.00957106 -0.11084814 -0.03643709  0.0749163   0.05978851
  0.08233204  0.02926384]