[-1.00852385e-01  1.20342791e-01  5.33132553e-02 -2.65270174e-02
 -2.18239315e-02 -5.58619685e-02 -4.86215726e-02 -1.02224186e-01
  1.16453290e-01 -3.23896925e-03  2.47454435e-01 -8.07605777e-03
 -2.19520763e-01 -1.91063806e-01 -3.82155739e-02  1.29936025e-01
 -1.60270602e-01 -8.68830308e-02 -4.67898957e-02 -3.37974429e-02
  6.01796620e-02  1.24928327e-02  7.18372464e-02 -1.26491738e-02
 -5.18904217e-02 -3.13229024e-01 -6.47744685e-02 -8.50788653e-02
  4.53291349e-02 -8.26688334e-02 -4.85413782e-02  2.99953227e-03
 -1.70567080e-01 -1.19111516e-01 -3.69625771e-03  8.43741670e-02
 -3.53176706e-02 -4.10952419e-02  1.56093225e-01 -5.51828940e-04
 -1.46449521e-01 -1.73274186e-02  3.64656858e-02  2.29519248e-01
  2.46663615e-01  7.58044943e-02  1.09763965e-02 -9.98246670e-02
  8.43257979e-02 -2.01993227e-01  5.81842475e-02  1.34543806e-01
  1.03555873e-01  5.66740818e-02  5.03835343e-02 -1.37805626e-01
 -1.65818371e-02  8.16184208e-02 -5.69730811e-02 -1.67726334e-02
  1.65849421e-02 -6.08035140e-02 -7.22873677e-03 -5.69227040e-02
  1.92518011e-01  2.69816946e-02 -8.47561359e-02 -1.06001310e-01
  7.45307505e-02 -8.89692828e-02 -1.04394436e-01  5.60960732e-02
 -1.26687422e-01 -1.20440535e-01 -3.28412652e-01  4.85706441e-02
  3.63132685e-01  8.00034851e-02 -1.61198318e-01  3.05240098e-02
 -1.15675114e-01 -3.82920587e-03  7.05557540e-02  5.00345305e-02
 -5.86690195e-02 -4.36232425e-03 -1.36384726e-01 -3.68717387e-02
  1.62396327e-01 -8.45327601e-02 -6.13314286e-02  1.30938247e-01
 -4.88337539e-02  1.19613864e-01  1.59437805e-02  2.78429575e-02
 -6.13786392e-02  7.49703050e-02 -9.99053270e-02 -6.74177557e-02
  1.29923984e-01 -6.92999065e-02  2.61617154e-02  1.01259641e-01
 -1.64377198e-01  5.92586398e-02  3.88247781e-02  4.52697612e-02
  8.55784342e-02 -1.81397386e-02 -8.26174691e-02 -4.11338620e-02
  1.34577915e-01 -1.98007375e-01  2.56860912e-01  2.06042692e-01
  8.67961813e-03  1.21162824e-01  1.46281049e-01  8.80526453e-02
 -4.01549749e-02  2.62663525e-04 -1.06357515e-01 -4.39052843e-02
  5.06410487e-02  5.38889766e-02  8.34847391e-02  2.53124367e-02]