[-0.11735743  0.09799287  0.06861489 -0.0573023  -0.06186152 -0.0957374
  0.05634596 -0.07677148  0.08724749  0.00232499  0.24879198 -0.11113041
 -0.23411046 -0.09809848 -0.03110874  0.1223375  -0.13868009 -0.12063129
 -0.10041048 -0.12799935  0.01074987  0.01050531  0.03237915  0.06101981
 -0.07483736 -0.3080354  -0.07405939 -0.07409211  0.03370136 -0.11093547
 -0.02560659  0.08643369 -0.20169063 -0.08816541  0.03158689  0.03135426
 -0.00334107 -0.06014368  0.21083096  0.02692684 -0.14316927  0.00258045
  0.067669    0.31812572  0.18878545  0.03902041 -0.02670324 -0.03189035
  0.0641614  -0.2159131   0.058615    0.16479097  0.11845034  0.00740538
  0.05123382 -0.12955903 -0.01932466  0.06757756 -0.13604677 -0.00482883
  0.04499711 -0.11446825 -0.05609838 -0.12819573  0.16776739  0.0798597
 -0.07574214 -0.11426232  0.1367757  -0.10317355 -0.04769718  0.0555131
 -0.12110386 -0.1235349  -0.26116419  0.10169733  0.38664269  0.11323543
 -0.1791089   0.02266419 -0.10080528 -0.00591183  0.05893902  0.02834682
 -0.11274324  0.00241982 -0.12132648  0.04489156  0.13882852 -0.05538909
 -0.07483886  0.12898289 -0.04246703  0.02062378  0.03282025 -0.0086215
 -0.08630251  0.05120149 -0.12518172  0.0070666   0.08307367 -0.10995525
 -0.01050116  0.10424872 -0.20369168  0.06225148  0.01836525 -0.07210103
 -0.03926128 -0.00121416 -0.06957696 -0.01716632  0.10444951 -0.25849262
  0.20403336  0.20040019 -0.01186044  0.13998285  0.0637282   0.04890756
  0.00385594 -0.01427687 -0.09307943 -0.09252104  0.10080041  0.03602435
  0.07206479  0.01845893]