[-0.10903592  0.11260662  0.04234706 -0.03488999 -0.00504566 -0.08082227
 -0.05932748 -0.14791779  0.10487039 -0.02723163  0.23186465  0.00769235
 -0.18863258 -0.19362366 -0.01519133  0.15461646 -0.14614153 -0.11135294
 -0.04707447 -0.0141732   0.05870227  0.02773683  0.07703564 -0.02443841
 -0.08384011 -0.35581759 -0.06377471 -0.07345483 -0.01887949 -0.00897549
 -0.0517234   0.04578952 -0.17758216 -0.07074191  0.04117436  0.10652339
 -0.014516   -0.036118    0.18395829 -0.02331799 -0.15446697 -0.03063377
  0.08109713  0.2196383   0.22403872  0.02099659  0.05436723 -0.11770584
  0.11410128 -0.13041691  0.0358957   0.1024868   0.0900548   0.05767947
  0.0460249  -0.12812831  0.03513046  0.0512812  -0.07786854 -0.05813609
  0.02596618 -0.0601468  -0.05164362 -0.02814713  0.22447164  0.00869952
 -0.09578393 -0.12674001  0.06572521 -0.07768181 -0.07051113  0.03935948
 -0.16879191 -0.13290797 -0.33881566  0.02296272  0.37764704  0.04532552
 -0.18845411  0.05989427 -0.0844593  -0.01990145  0.12299056  0.06719967
 -0.04988554  0.02825122 -0.14845693  0.00458828  0.21878354 -0.07642349
 -0.06364211  0.13689829 -0.01947923  0.1164398   0.01709822  0.0346919
 -0.04644862  0.07840998 -0.10821444 -0.03174228  0.12936567 -0.04493939
  0.01743469  0.12443223 -0.16704547  0.05863303  0.04615352  0.06791668
  0.08129577 -0.00644833 -0.10527518 -0.10187576  0.07896364 -0.17926757
  0.19784069  0.17001431  0.00419319  0.12085948  0.1165465   0.08675056
 -0.04353976  0.03050609 -0.1451855  -0.01719824  0.07918685  0.07652869
  0.10038358  0.02958773]