[-0.1027353   0.12529175  0.05497475 -0.0254284  -0.04053515 -0.06181149
 -0.04644766 -0.1202004   0.11169668 -0.00348046  0.23712523 -0.02580117
 -0.22877896 -0.18855993 -0.04608799  0.13735743 -0.15326755 -0.08680097
 -0.05409337 -0.03183016  0.0636572   0.01657634  0.07802986 -0.01279171
 -0.05498666 -0.32863662 -0.0677731  -0.08606976  0.02942631 -0.07611014
 -0.05444465  0.02155451 -0.17481817 -0.12772809  0.0037039   0.09687451
 -0.04030519 -0.05904898  0.1599154  -0.00946921 -0.15198688 -0.00756709
  0.04456142  0.22832401  0.2358204   0.05934596  0.02490941 -0.10445356
  0.08921649 -0.18532412  0.04805681  0.13525794  0.08345439  0.05433294
  0.0483456  -0.13446872 -0.01013383  0.08910137 -0.05602041 -0.02586043
  0.02881255 -0.07652404 -0.01599676 -0.06420211  0.19236782  0.0301755
 -0.0772822  -0.10815559  0.07270322 -0.0900465  -0.10232683  0.04384699
 -0.1464085  -0.11519986 -0.33922216  0.04665853  0.37075284  0.07781821
 -0.15947457  0.03315744 -0.10683594  0.00757388  0.0819167   0.06750088
 -0.05018404  0.0084412  -0.13536975 -0.02310669  0.1718511  -0.08882201
 -0.06797107  0.13581727 -0.04009512  0.11820878  0.02150749  0.01083753
 -0.06100178  0.05910555 -0.10751667 -0.05636259  0.13083629 -0.06930341
  0.01907903  0.10608949 -0.15823258  0.04098202  0.036389    0.04437492
  0.07608066 -0.03402502 -0.0845693  -0.04287836  0.13256358 -0.1890616
  0.25171101  0.20386624  0.01090868  0.12074111  0.15065201  0.08077388
 -0.03806592  0.00626477 -0.1101069  -0.04240837  0.07160188  0.0677517
  0.08989012  0.01935443]