[-0.09809941  0.12308315  0.04934289 -0.03687169 -0.0022308  -0.07907633
 -0.05588555 -0.14997746  0.09852904 -0.00940566  0.25220162  0.00060191
 -0.18972878 -0.18300003 -0.02340797  0.15199308 -0.13535945 -0.10634428
 -0.06741206 -0.01069341  0.06588754  0.0376635   0.07496698 -0.02100162
 -0.07454564 -0.338368   -0.06439561 -0.07089155 -0.00219783 -0.0184263
 -0.05611318  0.03022753 -0.18662468 -0.0905938   0.03526035  0.0949345
 -0.01029954 -0.04336327  0.17817949 -0.01461077 -0.16877244 -0.00682753
  0.07940603  0.22612865  0.22287838  0.02427146  0.05558919 -0.13072763
  0.07798212 -0.12641551  0.03766153  0.09504483  0.09497501  0.05341376
  0.02501097 -0.14153185  0.0203743   0.05782061 -0.07661278 -0.05502337
  0.03410792 -0.06064332 -0.04606548 -0.03655841  0.22554658  0.01100476
 -0.0994167  -0.12914975  0.04973126 -0.07637794 -0.07921629  0.04155255
 -0.1602641  -0.12432382 -0.34723422  0.02932026  0.38397926  0.02734808
 -0.20768066  0.06349213 -0.09535957 -0.01390986  0.12197825  0.07287697
 -0.04563607  0.04149203 -0.14633422 -0.00157121  0.21936996 -0.08496289
 -0.05675685  0.14237477 -0.02208071  0.10890479  0.02322456  0.04496516
 -0.04653896  0.07971827 -0.10892629 -0.0297366   0.11877858 -0.0393766
  0.01550336  0.11756577 -0.17390139  0.05760146  0.05565233  0.05414781
  0.08600552 -0.01859522 -0.08859014 -0.10487805  0.09565669 -0.18404011
  0.19780485  0.18102829  0.01282843  0.11984275  0.13636935  0.0878837
 -0.03784059  0.04027088 -0.15276094 -0.00605375  0.08606537  0.06266819
  0.10790324  0.03230888]