[-0.07079386  0.13288341  0.02300945 -0.05022174 -0.02228705 -0.06128835
 -0.06732183 -0.13382624  0.11814028 -0.02244844  0.24120508 -0.00586146
 -0.21928313 -0.18342698 -0.04186225  0.14611332 -0.15024465 -0.1017103
 -0.07461053 -0.02673598  0.05864389  0.01515089  0.09089863 -0.01492975
 -0.0719369  -0.34874392 -0.07925425 -0.06509794  0.02651593 -0.06886412
 -0.05305739  0.02358528 -0.18534093 -0.10844147  0.02131459  0.08801366
 -0.04900945 -0.05166575  0.19161797  0.00088682 -0.15835279 -0.00989018
  0.04715052  0.25157595  0.23121832  0.04932284  0.06183244 -0.11817749
  0.09069343 -0.13376427  0.05040983  0.12501611  0.09160762  0.05920165
  0.03875833 -0.12969844  0.01193512  0.12002981 -0.07963067 -0.01714533
  0.03593504 -0.09194554 -0.00792988 -0.03792823  0.25251281  0.02434259
 -0.08885871 -0.11841668  0.10238196 -0.06683607 -0.06796287  0.04040695
 -0.16064872 -0.13177221 -0.32067043  0.03436754  0.39085171  0.06755767
 -0.16984583  0.05121682 -0.09591039 -0.01252879  0.11925369  0.08589964
 -0.06251968  0.02627306 -0.13470487  0.00912535  0.21781757 -0.08085932
 -0.08493342  0.13127057 -0.03391058  0.11084908  0.03630249  0.00085387
 -0.07508852  0.07010721 -0.11646841 -0.0417413   0.10115651 -0.06769969
  0.02306595  0.10977038 -0.11655177  0.05505933  0.04997759  0.05120005
  0.05310751 -0.01128591 -0.08808658 -0.09172495  0.11480331 -0.1984321
  0.25219852  0.18170166  0.03411444  0.12466431  0.13821934  0.09507617
 -0.02237549  0.0155449  -0.12618648 -0.01317991  0.0872058   0.07012114
  0.15276137  0.02083923]