[-0.11328099  0.1119292   0.03354139 -0.05780909 -0.019015   -0.05851185
 -0.05893832 -0.16418305  0.10633119 -0.0307999   0.22536205  0.00643383
 -0.18633083 -0.19133042 -0.02649616  0.15965833 -0.1582278  -0.11813029
 -0.0590806  -0.04084891  0.05223651  0.03133133  0.08754271 -0.01781627
 -0.09963505 -0.35255793 -0.05973859 -0.07268467 -0.0239629  -0.00463557
 -0.05643771  0.05600661 -0.19764251 -0.07351938  0.03851226  0.12070384
 -0.0233874  -0.03802323  0.18239699 -0.02231559 -0.15398404 -0.01218279
  0.09628568  0.22839414  0.22641151  0.01430651  0.03872264 -0.1098203
  0.11068939 -0.12561953  0.01820073  0.11035883  0.07397188  0.05872933
  0.04164517 -0.11655002  0.04562945  0.06926095 -0.06821188 -0.06233081
  0.02251123 -0.08987379 -0.04285645 -0.04607053  0.23626573  0.01675991
 -0.092513   -0.120027    0.05222363 -0.06525135 -0.07199021  0.04112543
 -0.17765296 -0.12703028 -0.34359095  0.02004171  0.37487966  0.04936852
 -0.18397468  0.05678897 -0.06894413 -0.01123264  0.13967459  0.08190082
 -0.0540723   0.0374735  -0.13841787  0.0204664   0.22399549 -0.07101471
 -0.06499205  0.14993636 -0.01964432  0.12000733  0.02059129  0.03250783
 -0.05161048  0.07376712 -0.11825466 -0.01804656  0.12219664 -0.04492154
  0.02199425  0.12280899 -0.15899591  0.04208068  0.04059689  0.06377391
  0.06726915 -0.02386976 -0.08908799 -0.09551692  0.08239068 -0.18797363
  0.19938003  0.18726264 -0.00244758  0.1192235   0.12280027  0.07129722
 -0.05642794  0.03617357 -0.14891486 -0.00625351  0.09928473  0.0580174
  0.11838765  0.024089  ]