[-1.00705884e-01  4.84887771e-02  3.21274176e-02 -5.65568693e-02
 -7.28311539e-02 -1.37158439e-01  3.49874645e-02 -9.65543538e-02
  7.18410239e-02 -9.24562104e-03  2.44125605e-01 -7.96494037e-02
 -2.43349984e-01 -9.50956866e-02 -1.72603503e-02  1.27896652e-01
 -1.43945634e-01 -8.61277059e-02 -6.80163577e-02 -7.50899091e-02
  3.04561388e-02 -2.37783138e-02  4.10339013e-02  7.28394166e-02
 -4.81079519e-02 -2.99617887e-01 -1.16284691e-01 -5.28421402e-02
  8.50380026e-03 -5.07979169e-02 -3.53787392e-02  9.34506133e-02
 -1.82495669e-01 -1.00464717e-01  4.11447957e-02  3.94823402e-02
 -5.80849051e-02 -4.37454246e-02  2.33983755e-01  2.67442204e-02
 -1.67859271e-01 -2.61771511e-02  6.15778528e-02  2.85867900e-01
  1.99625477e-01  5.30052446e-02 -1.49904443e-02 -6.01098351e-02
  5.87626584e-02 -1.89187497e-01  7.26648346e-02  1.56333268e-01
  1.18782900e-01  1.52563080e-02  4.44242768e-02 -1.30009323e-01
 -2.83274803e-05  9.82017145e-02 -1.69006497e-01 -3.20959799e-02
  1.45890387e-02 -1.20843075e-01 -4.53319438e-02 -1.23616576e-01
  1.75237805e-01  1.08616136e-01 -6.52292594e-02 -1.27705723e-01
  1.70351282e-01 -1.34423897e-01 -7.67805576e-02  6.15343153e-02
 -1.39397994e-01 -1.61518589e-01 -3.01144928e-01  4.59507778e-02
  3.54608506e-01  1.14234366e-01 -1.56249121e-01  2.46521961e-02
 -4.70414571e-02 -4.66070287e-02  1.18395351e-01  5.36451638e-02
 -8.14476088e-02  1.37938140e-02 -9.71409380e-02  2.66810060e-02
  1.39046609e-01 -7.91486055e-02 -8.82896408e-02  1.31666899e-01
 -2.66876407e-02  5.42549193e-02  6.10163622e-02 -1.40887843e-02
 -3.28199379e-02  5.62396012e-02 -1.75713852e-01 -1.37148803e-04
  7.25714564e-02 -9.65229273e-02  6.07938087e-03  9.50502753e-02
 -1.67217955e-01  4.05471660e-02  4.40100357e-02 -5.63202612e-02
 -5.65862320e-02 -3.32464688e-02 -1.16899528e-01 -3.61183658e-02
  1.09034680e-01 -2.45661423e-01  2.26758555e-01  1.89938888e-01
 -1.31086474e-02  1.15065299e-01  6.52085245e-02  3.15290242e-02
 -1.04047330e-02 -6.32895306e-02 -1.33608058e-01 -3.62372361e-02
  1.30470932e-01  4.35861610e-02  1.08738758e-01  1.24397343e-02]