[-0.0801874   0.12149034  0.06816968 -0.03131904 -0.0032565  -0.07050709
 -0.04637478 -0.12473607  0.13403656 -0.02555573  0.24914519 -0.04023182
 -0.23974343 -0.18222456 -0.05010406  0.14292178 -0.12837842 -0.08039322
 -0.07162002 -0.02952654  0.06198505  0.02411075  0.05624183 -0.02151596
 -0.03959719 -0.33159193 -0.08529516 -0.09261391  0.04303068 -0.04554364
 -0.05975794  0.00949548 -0.15576786 -0.12555023  0.00303496  0.08665846
 -0.025596   -0.03866358  0.14507124 -0.00359003 -0.16229843 -0.00900078
  0.03284669  0.22392033  0.2234519   0.08636583  0.03491382 -0.13313495
  0.07980779 -0.17553501  0.06284883  0.1232297   0.10623226  0.05780035
  0.06206637 -0.13047089 -0.00945225  0.0904363  -0.08711647 -0.0122544
  0.03960575 -0.05807726 -0.02892703 -0.05119346  0.21407466  0.03587997
 -0.09469193 -0.09853529  0.10709973 -0.11517426 -0.09554567  0.03851055
 -0.13851075 -0.112385   -0.34806785  0.05033891  0.38996196  0.07984657
 -0.17115396  0.0409444  -0.10476553  0.00848526  0.10334883  0.070374
 -0.05941488  0.01108394 -0.1153545  -0.04465368  0.17889023 -0.09474116
 -0.05675297  0.14142756 -0.04535845  0.11702611  0.01020692  0.00495637
 -0.05263525  0.04156576 -0.10878476 -0.06464633  0.13057999 -0.05244997
  0.01836692  0.09558288 -0.16336086  0.0544619   0.0443609   0.03415532
  0.09746828 -0.0144406  -0.07669739 -0.06581646  0.15409963 -0.18138269
  0.2397726   0.19445549  0.02702511  0.10974423  0.14570411  0.09297835
 -0.02615427 -0.00522164 -0.12564723 -0.04498903  0.07579727  0.04799072
  0.09025057  0.01884601]