[-0.08237608  0.13226661  0.0344298  -0.04676139 -0.0259496  -0.06155044
 -0.07335313 -0.12732707  0.11660718 -0.02660556  0.23988958  0.00284133
 -0.20574458 -0.19991919 -0.03775171  0.15107153 -0.13655861 -0.0951093
 -0.06655636 -0.02421665  0.06028495  0.00118958  0.0886853  -0.00041348
 -0.08097132 -0.35795507 -0.08573101 -0.06642281  0.03129933 -0.07767003
 -0.05933359  0.02696362 -0.17107382 -0.10553961  0.0096669   0.09636974
 -0.05231204 -0.05661738  0.18522489 -0.00569026 -0.15480284 -0.00295875
  0.04210775  0.25117278  0.23442817  0.05435885  0.07938512 -0.11579112
  0.1117806  -0.15835245  0.06461241  0.11659509  0.06456224  0.06051477
  0.07036275 -0.12977265  0.00180045  0.12110414 -0.07562478 -0.00815122
  0.00510704 -0.06858288 -0.01113734 -0.05283604  0.24012931  0.04796193
 -0.08806875 -0.10966422  0.11125565 -0.08064094 -0.06406631  0.04472209
 -0.16027831 -0.13088071 -0.34208813  0.04293368  0.38480064  0.08781155
 -0.1635403   0.04440285 -0.08014983 -0.00971901  0.12298044  0.08917007
 -0.05923595  0.01555623 -0.12234974  0.00973164  0.21395825 -0.06989244
 -0.07988716  0.14200802 -0.0227581   0.11920973  0.02651681  0.0127354
 -0.07429494  0.05757585 -0.11689446 -0.03361718  0.11211389 -0.05435394
  0.02360984  0.11480266 -0.11972149  0.05115369  0.04668264  0.05683472
  0.05318912 -0.00151396 -0.10116214 -0.08274082  0.10730016 -0.19726634
  0.25009993  0.18832804  0.02601668  0.11522231  0.13883707  0.08498354
 -0.01806217  0.00073231 -0.10975462 -0.00901027  0.08744673  0.06200201
  0.12232661  0.01969784]