[-0.08000804  0.10726788  0.00679597 -0.06978606 -0.08211345 -0.04842355
 -0.01617084 -0.13783801  0.14232405 -0.06717966  0.23289262 -0.03882924
 -0.21340194 -0.10426509 -0.0614818   0.20499614 -0.22312653 -0.14120305
 -0.01108774 -0.05961318  0.11850852  0.02752228  0.00269934  0.04293031
 -0.12688975 -0.31389436 -0.08059753 -0.06823479 -0.00410756 -0.03828978
 -0.03802248  0.17953065 -0.19978197 -0.06478031  0.09452774  0.08885028
 -0.01897002 -0.07175106  0.2018147  -0.00828161 -0.19052486  0.00325424
  0.09380127  0.27276966  0.17780936 -0.06253342  0.00563842 -0.08115803
  0.12624788 -0.13162766 -0.02870516  0.15180376  0.06016172  0.05074858
  0.02561315 -0.13845034  0.02113187  0.1211943  -0.17679672 -0.0605307
  0.04516948 -0.1828541  -0.05789882 -0.13086826  0.1521738   0.06768232
 -0.05944086 -0.22519337  0.16952851 -0.09497413 -0.06428906  0.06767166
 -0.18517642 -0.15306315 -0.26370272 -0.02247723  0.33363539  0.09795862
 -0.14898442  0.12114704  0.02010107 -0.04089101  0.1252365   0.13246183
  0.01642309  0.09139619 -0.07683203  0.06331003  0.19710866 -0.05124995
 -0.05572097  0.19692211 -0.04616135  0.0561977   0.06800791 -0.04674532
 -0.04652948  0.04552841 -0.19433381 -0.01213596 -0.02071138 -0.05738833
 -0.01981162  0.12266078 -0.1029627   0.0482728   0.00484316  0.04835654
 -0.09355561 -0.07409529 -0.08398435 -0.01244527  0.10013515 -0.21863906
  0.19864459  0.13376504  0.02260118  0.1041583   0.07492639  0.01324303
 -0.0094197  -0.07189105 -0.23569952 -0.00902365  0.15527441 -0.02507875
  0.09374548 -0.03924133]