[-1.01957574e-01  6.63325116e-02  2.34421808e-02 -7.42390081e-02
 -3.37867849e-02 -7.11172894e-02 -6.87981432e-04 -1.75296426e-01
  1.34701222e-01 -8.33397657e-02  2.47321486e-01 -5.58673739e-02
 -1.85015529e-01 -1.10177279e-01 -2.66296752e-02  1.82591617e-01
 -2.21981272e-01 -1.49066254e-01 -1.99001189e-02  2.42298543e-02
  1.01109959e-01  1.39101809e-02  1.02230562e-02  5.54879121e-02
 -9.67641622e-02 -2.52542943e-01 -1.56444058e-01 -5.10471463e-02
  4.61952062e-03 -5.44113386e-03 -3.48753594e-02  1.03653885e-01
 -1.86349526e-01 -8.73181447e-02  9.17868689e-02  1.11310937e-01
  3.05040181e-02 -7.01858774e-02  1.81822062e-01 -2.13236734e-02
 -2.29007885e-01  4.58711945e-02  1.05394661e-01  2.89123058e-01
  1.68545589e-01 -8.18944629e-03 -1.11538675e-02 -1.69193253e-01
  1.31328419e-01 -1.32987708e-01  3.59406881e-02  1.31769553e-01
  6.15477376e-02  6.47308901e-02 -4.79501998e-03 -1.70910791e-01
  9.61979255e-02  1.12668313e-01 -1.79349706e-01 -2.78598666e-02
  9.97774825e-02 -1.33772895e-01  1.32876607e-02 -5.98513000e-02
  1.43689409e-01  6.47210479e-02 -8.06007385e-02 -2.48418048e-01
  8.97664949e-02 -1.23996377e-01 -7.01523796e-02  9.60830674e-02
 -2.10489064e-01 -1.59865499e-01 -3.66708517e-01 -2.73195207e-02
  3.45712245e-01  6.11120239e-02 -1.69878975e-01  1.16394900e-01
  2.52463680e-04  8.05543177e-03  1.72329888e-01  1.91670015e-01
  1.21765826e-02  8.39736238e-02 -1.37352377e-01  3.13014202e-02
  2.06211999e-01 -7.07680658e-02 -3.96373980e-02  2.05111146e-01
 -1.21885138e-02  3.12401261e-02  7.49130547e-02  5.69223650e-02
 -3.10394969e-02  3.61624174e-02 -1.86987415e-01  4.31985408e-03
  1.34814708e-02 -2.39999825e-03 -1.85559876e-02  1.39994770e-01
 -1.56621143e-01  7.48831257e-02  1.19801629e-02  2.28354558e-02
 -7.25333318e-02 -1.19727030e-01 -4.19402011e-02 -2.10036300e-02
  8.99252370e-02 -2.33119354e-01  1.65503398e-01  1.55837327e-01
  2.15018149e-02  1.00516714e-01  7.58962333e-02  6.54240996e-02
 -5.50910607e-02 -3.27402167e-02 -2.07445726e-01  3.02596632e-02
  1.11508481e-01  1.39103755e-02  1.12165928e-01 -1.48478122e-02]