[-0.06806438  0.08990803  0.03285763 -0.08913966 -0.10153639 -0.05165542
 -0.01181964 -0.13027945  0.13136332 -0.01983705  0.22912645 -0.05532157
 -0.20426683 -0.08989675 -0.07128355  0.22128928 -0.21693932 -0.13051996
 -0.04183024  0.00576113  0.11385421  0.03818988  0.01254917  0.04347808
 -0.09959748 -0.33674166 -0.09187773 -0.04904756  0.01201143 -0.04091474
 -0.01384826  0.14924259 -0.18775891 -0.05077798  0.08454826  0.08478208
  0.00529808 -0.11551038  0.18913405  0.01225041 -0.26597974  0.04186378
  0.12200893  0.24509244  0.21102741 -0.02968861  0.03687836 -0.09514662
  0.14104664 -0.14034282 -0.01711812  0.13225017  0.03677556  0.03798069
  0.02779875 -0.14698629  0.02030887  0.11749396 -0.17308189 -0.07086517
  0.07075065 -0.11592226 -0.01600912 -0.12496334  0.14035821  0.06606671
 -0.06156385 -0.23042439  0.13891254 -0.12776589 -0.06718319  0.08406779
 -0.19737457 -0.12686434 -0.27923879 -0.03278063  0.35829473  0.07280139
 -0.15861231  0.09904019  0.01152081 -0.01246671  0.12533493  0.14344779
  0.03580986  0.09159793 -0.11136963  0.00840564  0.23595679 -0.06035566
 -0.02508443  0.21745431 -0.01998683  0.03091087  0.05240596 -0.01402881
 -0.05994954  0.04632238 -0.17314361 -0.03358651 -0.01677963 -0.01303009
 -0.00971056  0.11553138 -0.11914174  0.06996454 -0.00348845  0.05730936
 -0.07251719 -0.07158066 -0.04410871 -0.01783911  0.10486134 -0.18439405
  0.18139192  0.12472947  0.01279124  0.07312356  0.08205975  0.05542892
 -0.03534971 -0.03994191 -0.19267252 -0.00566979  0.12655769 -0.02881273
  0.10690212 -0.03330806]