[-0.09596771  0.15811212 -0.02134596 -0.09411643 -0.05369207 -0.09263798
 -0.02518176 -0.13451332  0.17506732 -0.05417422  0.25650704 -0.05303354
 -0.22305298 -0.13049741 -0.0315173   0.23906396 -0.24624422 -0.1528239
 -0.03382571 -0.00927126  0.10870256  0.01689501  0.0318462   0.0769722
 -0.14498219 -0.33162692 -0.07118745 -0.06451488 -0.01818957 -0.04949717
 -0.01418183  0.12826437 -0.20838778 -0.05760757  0.10639467  0.08246186
  0.0072002  -0.08108869  0.18737741 -0.00794213 -0.23541735  0.01745403
  0.10339081  0.28014001  0.20835732 -0.05858916  0.03786021 -0.16229428
  0.12670068 -0.12227792 -0.03594439  0.13919346  0.04147696  0.0181951
  0.04532444 -0.15426646  0.026407    0.12864795 -0.16966459 -0.09472101
  0.07407543 -0.08018836 -0.06142293 -0.11905479  0.17753805  0.05224999
 -0.10979891 -0.19702892  0.13860965 -0.10264893 -0.04119675  0.07418778
 -0.18300644 -0.18265675 -0.30868649 -0.05657057  0.30226231  0.07691455
 -0.18001865  0.12253209  0.00879074  0.02178214  0.12821908  0.14875509
 -0.01719317  0.08521967 -0.09997263  0.06129016  0.21033731 -0.05327308
 -0.02003508  0.20080388 -0.03006043  0.02413107  0.04520487 -0.02537022
 -0.06869122  0.02792572 -0.1935146  -0.01506585 -0.01113659 -0.01724462
 -0.03074764  0.12945196 -0.13960747  0.02866311  0.0378552   0.03347999
 -0.07638926 -0.04167474 -0.05345112 -0.04805553  0.06645202 -0.21235517
  0.1990701   0.1405447   0.01210651  0.09203231  0.07807854  0.03162974
 -0.03651944 -0.03866735 -0.18921834  0.01768591  0.12979715 -0.01977952
  0.1225358  -0.07008439]