[-0.07579254  0.13185892  0.00833124 -0.07186645 -0.10149815 -0.08581846
 -0.02655542 -0.15172936  0.16371603 -0.05485999  0.22644542 -0.04941804
 -0.22778685 -0.08779319 -0.05588899  0.17045735 -0.23333691 -0.1478574
 -0.00978123 -0.00334628  0.11938721 -0.01303005  0.02321048  0.06125484
 -0.10193043 -0.29950032 -0.09002934 -0.04065709  0.06606226 -0.07655842
 -0.06461874  0.09749758 -0.20282154 -0.09165891  0.08713587  0.10319463
 -0.0242552  -0.11629679  0.1919917  -0.04124654 -0.24518907  0.00567572
  0.07576019  0.22949632  0.20318742  0.01602656 -0.00198119 -0.15693498
  0.14327559 -0.18340884  0.0151573   0.17429118  0.04085198  0.00523314
  0.0197076  -0.17014419  0.02094355  0.11952283 -0.18499421 -0.04626242
  0.10153206 -0.12823819 -0.00912219 -0.11893149  0.17138831  0.08214555
 -0.06729905 -0.21924996  0.19272117 -0.14832766 -0.06270981  0.08742027
 -0.13403736 -0.15825675 -0.2672089  -0.03199057  0.42496991  0.1006081
 -0.09630688  0.1117719  -0.05753    -0.03793379  0.09896634  0.11664317
 -0.03062499  0.0255013  -0.12269872  0.02876389  0.24482477 -0.05587416
 -0.02315143  0.18439558 -0.02681518  0.07249352  0.04511378 -0.02196956
 -0.08855227  0.07367666 -0.15323745 -0.01544148  0.00182365 -0.07166546
  0.00323796  0.17983532 -0.13906042  0.03045839  0.00247432  0.02480013
 -0.00669093 -0.04305076 -0.07920612 -0.07500514  0.09272338 -0.25421035
  0.22139154  0.1474667   0.06647106  0.08688512  0.07818455  0.06981482
  0.03341264 -0.06006066 -0.21990402 -0.00937737  0.10645117 -0.03896008
  0.08033868 -0.01630525]