[-0.09633878  0.14593151 -0.01139425 -0.07184391 -0.0429168  -0.0708969
 -0.01429628 -0.13198151  0.14974891 -0.03984113  0.25339943 -0.06992065
 -0.22641222 -0.11224126 -0.03237992  0.23171774 -0.23724554 -0.13340825
 -0.03742474 -0.01034962  0.10313004  0.00699709  0.03324873  0.05442113
 -0.12745075 -0.32565042 -0.06950599 -0.05713056 -0.00641608 -0.02598599
 -0.01661549  0.12785946 -0.21321855 -0.04465578  0.09703058  0.0682117
 -0.0020611  -0.08934547  0.20895953 -0.02233188 -0.21892121  0.02336229
  0.09672716  0.25686374  0.20033966 -0.05933446  0.03250248 -0.16475712
  0.13712439 -0.12643388 -0.03134969  0.1440919   0.03384871  0.0346746
  0.01412467 -0.15173399  0.03686313  0.12228528 -0.17170249 -0.07979452
  0.06608687 -0.11411893 -0.05980874 -0.11838589  0.1701362   0.06448829
 -0.09327675 -0.21386357  0.12858851 -0.08740946 -0.02350532  0.08165365
 -0.18462718 -0.18121754 -0.30356202 -0.03254873  0.30691168  0.06001253
 -0.17670305  0.12386012  0.01023185  0.01071274  0.14376964  0.15292607
 -0.01506486  0.06077134 -0.10481446  0.05603242  0.22357154 -0.07332157
 -0.04099555  0.18841569 -0.039419    0.02766889  0.04954475 -0.00934452
 -0.06476195  0.02720867 -0.18058176 -0.01571533  0.00911786 -0.03164674
 -0.03074424  0.11627667 -0.13249208  0.03784812  0.02145464  0.03784293
 -0.06179267 -0.07849117 -0.04724159 -0.02371198  0.07504459 -0.20764089
  0.21899533  0.11749051  0.00570462  0.10414188  0.08030736  0.05157474
 -0.04569073 -0.02290643 -0.19043694  0.01485786  0.14268555  0.01076407
  0.12939653 -0.06521844]