[-0.11934415  0.12077582  0.0448751  -0.04800724 -0.04754755 -0.07249554
  0.02218967 -0.16817775  0.16363488 -0.09325607  0.25172487 -0.07413656
 -0.22245756 -0.01966804 -0.04256374  0.21672559 -0.18856783 -0.12664433
 -0.02822194  0.00365417  0.13074635  0.01864247 -0.00690474  0.02780486
 -0.12440274 -0.24379794 -0.12013372 -0.02272985  0.0035125   0.02307614
 -0.00940646  0.09511658 -0.19581303 -0.06161736  0.0937785   0.08264017
 -0.01177172 -0.09402474  0.19252516 -0.04650385 -0.26676702  0.02344812
  0.12726006  0.26378986  0.15940741  0.00631372 -0.02756961 -0.15785216
  0.13142519 -0.15257041 -0.01875827  0.1158027   0.03191825  0.07048408
  0.01519333 -0.20904517  0.09798194  0.09905999 -0.18084501 -0.06754245
  0.09040227 -0.12843291  0.02838539 -0.06944286  0.17462449  0.03412578
 -0.10825743 -0.17766021  0.11676711 -0.10455018 -0.02017928  0.09937781
 -0.19698706 -0.18934453 -0.36793774 -0.03609733  0.3798621   0.0698702
 -0.1263663   0.11262818  0.02462752  0.03985604  0.1670602   0.1765693
  0.00137772  0.0527274  -0.12906462  0.01461529  0.22986488 -0.08369882
 -0.05962745  0.21974187 -0.03004146  0.01467863  0.01743699  0.06794729
 -0.07758027 -0.00205523 -0.17196582 -0.01909779  0.01987    -0.00567332
 -0.02210811  0.18241441 -0.18776128  0.06259518  0.01336212  0.0526253
 -0.07428544 -0.06772334 -0.05576001 -0.00593191  0.06082412 -0.22271299
  0.17572175  0.14499508 -0.02108568  0.09540519  0.09725688  0.02717935
 -0.04132387 -0.01467763 -0.2134289  -0.02025675  0.11622097  0.00232166
  0.13524182 -0.00832032]