[-0.14283483  0.12747727  0.03165493 -0.0552469  -0.0715033  -0.0852455
  0.00092424 -0.16247313  0.1441725  -0.08516326  0.25873274 -0.06048605
 -0.21842943 -0.1284323  -0.02656014  0.23284987 -0.22666419 -0.14420815
 -0.0140696  -0.01052611  0.1164512  -0.01561935  0.03528392  0.04177368
 -0.08646979 -0.32278904 -0.08491847 -0.07028504  0.00990624 -0.02749397
 -0.02384996  0.10140232 -0.20290327 -0.06927695  0.05331939  0.09848347
 -0.00886322 -0.08301277  0.18665157 -0.03154442 -0.22544062 -0.0205599
  0.09827348  0.24761775  0.20179132 -0.01501625  0.02749098 -0.13288698
  0.14085715 -0.13007335 -0.05349771  0.11781062  0.06367803  0.03084674
  0.04818964 -0.16550486  0.03751227  0.07966384 -0.13814765 -0.0642824
  0.06547584 -0.09581786 -0.01607145 -0.11451533  0.20458522  0.03316317
 -0.08472871 -0.1620122   0.16159172 -0.09466656 -0.05298066  0.07867099
 -0.19781739 -0.17766349 -0.29594609 -0.04598719  0.32533416  0.06356022
 -0.15268576  0.07741984  0.01587792  0.00119241  0.13613042  0.17015132
  0.01915766  0.07041348 -0.11727712  0.01248924  0.2251652  -0.09228271
 -0.02648487  0.18540727 -0.03719221  0.04122957  0.02753439 -0.01725901
 -0.05235017  0.04948589 -0.19168606 -0.02270578 -0.00573073 -0.04434789
 -0.03356526  0.10415824 -0.12106295  0.01320214  0.01574066  0.05022201
 -0.10008728 -0.07626495 -0.08171814 -0.01133396  0.07895233 -0.1794358
  0.22330706  0.17446934 -0.01425102  0.0912554   0.08351191  0.05053912
 -0.02934772 -0.03161471 -0.17764586 -0.01206888  0.12239716 -0.01853398
  0.10147642 -0.04546534]