[-0.09874654  0.12902339  0.048947   -0.06627247 -0.05691235 -0.06463321
  0.00746671 -0.18953852  0.14476922 -0.10894083  0.25086972 -0.09987836
 -0.24619809 -0.02323618 -0.04050279  0.23048997 -0.20192431 -0.15860926
 -0.02839551  0.00512654  0.09938752 -0.00347987 -0.00568472  0.04438634
 -0.05942332 -0.25350812 -0.13243091 -0.00694087  0.02165907  0.00719321
 -0.03838465  0.08147594 -0.20647119 -0.07013913  0.08084742  0.09502071
  0.00243513 -0.11103212  0.18371835 -0.03396388 -0.25294799  0.04975612
  0.11871953  0.26872325  0.14772744  0.01513654 -0.0295814  -0.16776197
  0.12668663 -0.17292307 -0.01557647  0.11597946  0.05138665  0.05317653
 -0.01410581 -0.21280681  0.09416517  0.08135247 -0.17924455 -0.05416164
  0.11668005 -0.11634997  0.01472021 -0.09235548  0.18158196  0.05566046
 -0.10250702 -0.20736425  0.08496473 -0.11699207 -0.03471347  0.10913252
 -0.19157468 -0.1637443  -0.3606599  -0.0338208   0.38965252  0.06550131
 -0.1314427   0.09034213  0.01193882  0.03491091  0.16216676  0.16568716
 -0.00458387  0.06058262 -0.15404725  0.01781038  0.23671241 -0.09684106
 -0.06305536  0.21303597 -0.02212723  0.05331073  0.01183661  0.07675524
 -0.05705019 -0.00084978 -0.19682169 -0.01800773 -0.00112325  0.00785799
 -0.04468678  0.15710397 -0.17902599  0.05017498  0.00812147  0.03160574
 -0.08227756 -0.07488703 -0.06640863 -0.00984941  0.07734666 -0.23737907
  0.15013778  0.18091522  0.00505273  0.06891548  0.10222093  0.02425918
 -0.03826156 -0.03522249 -0.213269   -0.02515916  0.12289534  0.00513095
  0.11983442 -0.01228128]