[-0.1012577   0.11254906  0.01198996 -0.0550212  -0.06058902 -0.04978989
  0.03436879 -0.14892466  0.13184331 -0.07986758  0.26227015 -0.0592627
 -0.24221297 -0.10924575 -0.03726941  0.22367051 -0.23099855 -0.14278618
 -0.0307328  -0.04638134  0.08081394  0.0114882   0.02324457  0.02944034
 -0.0855903  -0.30707484 -0.05547786 -0.06110704  0.00136499 -0.0338047
 -0.01736692  0.16304837 -0.19416316 -0.05313147  0.07468051  0.06507789
 -0.02142072 -0.0594854   0.20588124  0.00745678 -0.20075348 -0.01531521
  0.09331593  0.27349395  0.19805713 -0.0256484  -0.01422409 -0.10311919
  0.11885883 -0.14187849 -0.05602549  0.12836367  0.04035702  0.04725082
  0.01511881 -0.15981048  0.0232613   0.0853035  -0.15687087 -0.05751017
  0.05782987 -0.16586213 -0.02144706 -0.1042632   0.18231444  0.0251651
 -0.08786943 -0.16676734  0.14754169 -0.08727347 -0.06449436  0.06720577
 -0.17909914 -0.1602381  -0.28764462 -0.01485924  0.32549563  0.07338974
 -0.13308524  0.07343102  0.02781271 -0.01515318  0.15109116  0.15885387
  0.00054232  0.03920651 -0.0962465   0.00922033  0.1921237  -0.05525001
 -0.07878793  0.18870817 -0.07123267  0.03698133  0.04928029 -0.00484868
 -0.05245722  0.0430738  -0.19658998 -0.03389878 -0.02077146 -0.07578575
 -0.0226218   0.1208936  -0.10518916  0.02370819 -0.00046448  0.05447086
 -0.08264659 -0.06584908 -0.07497609 -0.00562981  0.0681815  -0.21041213
  0.21772757  0.1661558   0.00698576  0.09866014  0.09224126  0.02771929
 -0.03158645 -0.03358909 -0.18823378 -0.03093454  0.13949113  0.0136473
  0.11923359 -0.0454936 ]