[-0.09414534  0.12610961  0.02927779 -0.05163908 -0.08814841 -0.05962133
  0.00433673 -0.1381831   0.14615807 -0.05884191  0.24680717 -0.04157897
 -0.22409788 -0.12168977 -0.03949082  0.19847304 -0.20163512 -0.13304506
 -0.01190378 -0.03035229  0.15794387  0.02506976  0.03128129  0.04343051
 -0.11757244 -0.33377981 -0.09329645 -0.06722602 -0.00053722 -0.044726
 -0.03105375  0.14521749 -0.19912688 -0.0822204   0.08088724  0.07442065
 -0.0253319  -0.07037166  0.20369168 -0.01489883 -0.21910162  0.0005701
  0.08219565  0.25752482  0.1664435  -0.02705647  0.01626442 -0.08265551
  0.11983112 -0.1355412  -0.0101926   0.146901    0.06995491  0.01978915
  0.04776428 -0.14429097  0.00655449  0.12820829 -0.18236242 -0.05649216
  0.05210555 -0.142046   -0.03687658 -0.12366523  0.14269271  0.06380849
 -0.05635884 -0.2173769   0.15783189 -0.10581315 -0.05631993  0.09075882
 -0.18907745 -0.16902292 -0.26029727 -0.02356403  0.35927448  0.08477147
 -0.14309564  0.086123    0.00811218 -0.03351105  0.1201086   0.11870278
  0.01051112  0.08840898 -0.09847125  0.04320782  0.19776815 -0.06076297
 -0.04999901  0.22466682 -0.03356759  0.06071252  0.04907672 -0.06519989
 -0.04392827  0.05896766 -0.18597649 -0.01516729 -0.031407   -0.05531712
 -0.02582394  0.11969908 -0.12235035  0.02926627  0.0007698   0.04987271
 -0.100299   -0.06665098 -0.11651532 -0.02268696  0.09204059 -0.21388169
  0.18627742  0.14938067  0.01490423  0.08782487  0.08220607  0.01101802
  0.01134418 -0.07053285 -0.235351    0.00160773  0.17243941 -0.04010934
  0.08632725 -0.04798813]