[-1.08117200e-01  5.81171028e-02  3.85181718e-02 -7.08644316e-02
 -3.61780785e-02 -6.56844154e-02  1.93110478e-04 -1.77437097e-01
  1.25078350e-01 -9.72850919e-02  2.56852448e-01 -7.33028427e-02
 -1.97164014e-01 -1.10512666e-01 -2.54983492e-02  1.75218955e-01
 -2.10266307e-01 -1.45453662e-01 -1.16898380e-02  2.56805811e-02
  1.13003910e-01 -2.86943815e-03 -9.82706901e-03  4.60141078e-02
 -9.34084952e-02 -2.64558762e-01 -1.69002831e-01 -4.94310297e-02
 -2.47604190e-03 -9.35097225e-03 -3.62519138e-02  8.85135680e-02
 -1.79357991e-01 -8.64965022e-02  7.19321594e-02  1.10907905e-01
  2.72430964e-02 -7.83272013e-02  1.71711326e-01 -2.90095452e-02
 -2.20935851e-01  5.08509837e-02  9.56410989e-02  2.77827114e-01
  1.63136825e-01 -1.72510743e-04 -9.26474761e-03 -1.66381732e-01
  1.27919078e-01 -1.29698828e-01  2.92820316e-02  1.28780216e-01
  7.55793825e-02  6.30588308e-02 -1.72557298e-03 -1.57375440e-01
  9.74335968e-02  9.97097865e-02 -1.86727703e-01 -2.61348486e-02
  1.04468323e-01 -1.36574015e-01  2.11864281e-02 -5.51265851e-02
  1.46748707e-01  6.25254139e-02 -7.90541992e-02 -2.39184812e-01
  1.04484215e-01 -1.29306108e-01 -6.53361231e-02  8.73001218e-02
 -2.05323741e-01 -1.62508637e-01 -3.59154999e-01 -1.46760913e-02
  3.57043207e-01  6.36619106e-02 -1.71992421e-01  1.09616816e-01
 -1.31482137e-02  5.54327620e-03  1.80196390e-01  1.83000654e-01
  2.33654734e-02  7.06233680e-02 -1.43179163e-01  2.64476687e-02
  2.08222345e-01 -7.61137307e-02 -3.21025960e-02  2.10446984e-01
 -5.61639853e-03  3.17735188e-02  7.91552439e-02  5.39118126e-02
 -3.05432975e-02  4.01367024e-02 -1.69087619e-01  1.40494360e-02
  1.37095368e-02 -1.36575466e-02 -1.54562434e-02  1.34395778e-01
 -1.52207702e-01  7.54080936e-02  8.14465247e-03  2.48976182e-02
 -6.71859309e-02 -1.20209649e-01 -5.28482273e-02 -2.42188871e-02
  9.13772956e-02 -2.46757463e-01  1.45635933e-01  1.54792860e-01
  1.84503198e-02  9.88484919e-02  7.49201477e-02  7.17833117e-02
 -5.10830171e-02 -4.13822345e-02 -2.14948967e-01  2.65671257e-02
  1.02840163e-01  1.97033938e-02  1.01588123e-01 -9.39498749e-03]