[-0.07552867  0.09208142  0.03001891 -0.09948683 -0.11181333 -0.05011095
 -0.01800797 -0.12963276  0.13668846 -0.02624451  0.2289983  -0.05041288
 -0.214624   -0.08407883 -0.07863801  0.22242239 -0.2272296  -0.1277045
 -0.03314407 -0.00500302  0.1101287   0.04631219  0.01698601  0.03746965
 -0.09735689 -0.33486637 -0.08452423 -0.05248756  0.00389155 -0.03904678
 -0.0104498   0.14663959 -0.18742242 -0.05316746  0.08546187  0.08673682
 -0.0062209  -0.1061997   0.18700488  0.00313378 -0.25043136  0.03050165
  0.13495396  0.23997672  0.20586057 -0.03376568  0.03754006 -0.10751178
  0.12960024 -0.13773657 -0.0277275   0.13344522  0.04278997  0.0442991
  0.0285952  -0.14208157  0.02195065  0.12067395 -0.16148847 -0.05178472
  0.07999839 -0.1211518  -0.02145573 -0.12023898  0.16694596  0.05769876
 -0.07302663 -0.2294784   0.13643198 -0.12347902 -0.08796593  0.0786622
 -0.18842037 -0.12775318 -0.27863237 -0.04244363  0.34334859  0.07068133
 -0.16122632  0.10332729  0.00176422 -0.01297156  0.12059768  0.14844091
  0.02666572  0.09107967 -0.11055046  0.00780748  0.23685093 -0.06325009
 -0.0246469   0.22323246 -0.01702201  0.04342768  0.05396196 -0.01053654
 -0.06589326  0.04113149 -0.17550258 -0.03911528 -0.00729658 -0.02617258
 -0.00454493  0.11701878 -0.1132464   0.06579057 -0.00996209  0.06318291
 -0.06333254 -0.06620343 -0.04548976 -0.02438567  0.11079788 -0.18616755
  0.19343227  0.12579046  0.01609602  0.07638698  0.09405234  0.05797337
 -0.03620845 -0.03704902 -0.18710612 -0.00337189  0.11975481 -0.03241059
  0.11317714 -0.02624138]