[-0.09543055  0.12146833  0.01816037 -0.05416228 -0.06394612 -0.04598377
  0.03941653 -0.14470658  0.13797702 -0.07842436  0.26982599 -0.06882022
 -0.24472621 -0.11253935 -0.03929104  0.22828995 -0.22830355 -0.1395999
 -0.03205806 -0.0467048   0.0820812   0.01167151  0.02514615  0.02542715
 -0.09757703 -0.30297142 -0.05037724 -0.06585244  0.01066024 -0.03752387
 -0.02730888  0.16880818 -0.18067984 -0.05621946  0.07843699  0.06479004
 -0.02770153 -0.06667706  0.20730446  0.00320845 -0.20622516 -0.01514273
  0.09193113  0.27587035  0.19196424 -0.03445422 -0.00610996 -0.10741585
  0.11534917 -0.15272805 -0.04756349  0.13192497  0.03636254  0.05132201
  0.02676774 -0.15852115  0.02543944  0.08421328 -0.15958695 -0.05581647
  0.06330448 -0.16332677 -0.02016479 -0.09634487  0.17122155  0.03310634
 -0.07996824 -0.16769564  0.14406119 -0.08559708 -0.06206354  0.07401168
 -0.179194   -0.16152421 -0.29099554 -0.01245753  0.33309317  0.08521052
 -0.12867528  0.07653072  0.02852499 -0.01091135  0.15886211  0.15720867
 -0.00530752  0.03827704 -0.09962318  0.01762764  0.18335827 -0.06957725
 -0.08126303  0.18763962 -0.06346209  0.02800471  0.05012221 -0.00234011
 -0.05429928  0.04110029 -0.18910393 -0.03935612  0.0003365  -0.07601864
 -0.0169689   0.12375145 -0.11074071  0.01638404 -0.00155543  0.04788401
 -0.07366198 -0.06546777 -0.06584325 -0.00698355  0.06652638 -0.20955284
  0.21151064  0.16509299  0.00074761  0.09803316  0.09436963  0.02581862
 -0.02537634 -0.03900653 -0.168594   -0.03214074  0.13587175  0.02649403
  0.11415899 -0.04766307]