[-0.10321353  0.13689481  0.05202244 -0.06429927 -0.05837293 -0.06874281
  0.01703386 -0.19018903  0.14085357 -0.09875411  0.26654378 -0.09746276
 -0.23997746 -0.03054263 -0.02952847  0.22143114 -0.19268017 -0.16179959
 -0.03859643  0.00740152  0.09987526 -0.00607183 -0.00632685  0.04375916
 -0.06726138 -0.24710441 -0.12442267 -0.00578017  0.03308026 -0.00229678
 -0.03726496  0.0808044  -0.21133545 -0.07249755  0.08382911  0.09843393
  0.00524779 -0.11225696  0.1909021  -0.03571914 -0.25175044  0.05223043
  0.10555654  0.26610562  0.14980131  0.00251043 -0.02232093 -0.16779226
  0.13372554 -0.17276193 -0.02238664  0.11869744  0.05163451  0.04635952
 -0.01083518 -0.21394704  0.08932476  0.07885312 -0.18095869 -0.05762241
  0.11284144 -0.11151936  0.01645952 -0.09243896  0.16862719  0.05049794
 -0.10041483 -0.20398544  0.08464047 -0.1089411  -0.02598892  0.11893769
 -0.19189624 -0.16283813 -0.35729492 -0.03041745  0.3992832   0.05692481
 -0.13970126  0.08344143  0.00638781  0.03291367  0.15685432  0.15011884
 -0.01054919  0.06110552 -0.16473296  0.02680797  0.2435756  -0.09429515
 -0.05910924  0.21038203 -0.02086446  0.05402382  0.01501616  0.08182476
 -0.05687644 -0.00324976 -0.18927746 -0.01225701 -0.00187665  0.00052452
 -0.04410974  0.16029249 -0.17800629  0.04742271  0.00831917  0.03308664
 -0.09391334 -0.07736155 -0.06295051 -0.00542065  0.07193836 -0.23592944
  0.1502116   0.17855172 -0.00481409  0.06232816  0.09826937  0.01524727
 -0.03927694 -0.03127898 -0.20143929 -0.02946258  0.11458118  0.00910949
  0.11748581 -0.01702148]