[-9.88458470e-02  1.31370947e-01  4.28602211e-02 -6.66458681e-02
 -6.28448650e-02 -6.61133751e-02  1.27589377e-02 -1.91211671e-01
  1.41107380e-01 -1.11797728e-01  2.58068264e-01 -1.00621782e-01
 -2.34503582e-01 -2.87663471e-02 -3.28654610e-02  2.29829431e-01
 -1.96688995e-01 -1.64781645e-01 -3.54892723e-02 -1.38340227e-03
  9.94665250e-02 -2.23230873e-03 -1.53713897e-02  4.93860655e-02
 -7.75561109e-02 -2.46916130e-01 -1.27359375e-01 -9.33564734e-03
  1.43840378e-02 -6.61346305e-04 -3.97203602e-02  9.20191035e-02
 -2.11942241e-01 -7.38447234e-02  8.36019143e-02  1.00318246e-01
  9.60086752e-03 -1.02459125e-01  1.79071829e-01 -3.51702869e-02
 -2.49877974e-01  5.36033697e-02  1.14406370e-01  2.67805964e-01
  1.41536549e-01 -3.43711535e-03 -2.10898407e-02 -1.63756788e-01
  1.28128350e-01 -1.68506235e-01 -2.44431738e-02  1.13924019e-01
  5.00144958e-02  5.43340556e-02 -1.59212202e-02 -2.02623844e-01
  9.47758853e-02  8.56707022e-02 -1.77459255e-01 -5.61699271e-02
  1.18221119e-01 -1.23416819e-01  1.17209964e-02 -8.36634487e-02
  1.72205865e-01  5.30062392e-02 -9.65983048e-02 -2.07411438e-01
  7.60496929e-02 -1.10903084e-01 -3.66623998e-02  1.08255439e-01
 -1.91974938e-01 -1.62916228e-01 -3.72028679e-01 -2.73040328e-02
  3.93897295e-01  6.24223351e-02 -1.36345655e-01  9.45601463e-02
  1.33835105e-02  4.25487868e-02  1.68371454e-01  1.54725730e-01
 -7.97202904e-03  6.66719303e-02 -1.57984063e-01  3.94586809e-02
  2.37471491e-01 -9.26042572e-02 -6.04981296e-02  2.07692415e-01
 -2.32348293e-02  5.34584597e-02  1.94955803e-02  8.59516487e-02
 -5.33663705e-02 -5.47297904e-03 -1.84039861e-01 -4.78828931e-03
  4.77798376e-03  6.88000536e-03 -4.32187319e-02  1.60605446e-01
 -1.74320191e-01  4.51205224e-02 -9.93447393e-05  3.25856768e-02
 -9.38953534e-02 -7.01714903e-02 -6.18626475e-02 -1.11473603e-02
  6.72113672e-02 -2.35511780e-01  1.40670195e-01  1.79366291e-01
 -1.58999041e-02  6.70774803e-02  9.84518975e-02  1.71156656e-02
 -4.54092585e-02 -3.44294906e-02 -2.06726938e-01 -2.52331104e-02
  1.27523050e-01  1.30700320e-02  1.20209232e-01 -1.90489348e-02]