[-1.30103216e-01  1.22846700e-01  3.04904617e-02 -7.12888762e-02
 -8.09156746e-02 -8.59219581e-02 -7.21962017e-04 -1.63712099e-01
  1.52448103e-01 -8.70369226e-02  2.50508934e-01 -8.29153582e-02
 -2.31140137e-01 -7.88070709e-02 -4.31049727e-02  2.42514879e-01
 -2.42811471e-01 -1.45801261e-01 -2.49372069e-02 -2.54014228e-02
  1.08622991e-01  6.82360202e-04  2.32271533e-02  4.63651083e-02
 -8.51596594e-02 -3.17590356e-01 -8.33177641e-02 -7.30804726e-02
  1.36203906e-02 -1.84644740e-02 -2.60712560e-02  1.04630880e-01
 -1.97710276e-01 -7.41628259e-02  6.77300915e-02  8.67273882e-02
 -1.77650303e-02 -1.08327486e-01  1.83494776e-01 -4.61172462e-02
 -2.28647634e-01  1.64498022e-04  1.20515466e-01  2.48377919e-01
  1.98486820e-01 -1.64675303e-02  1.32776825e-02 -1.36392683e-01
  1.19415008e-01 -1.31853744e-01 -4.32953611e-02  1.11120939e-01
  5.46636470e-02  4.19633649e-02  3.60033512e-02 -1.86143741e-01
  3.73656750e-02  8.65700170e-02 -1.35415494e-01 -6.39681667e-02
  8.41242597e-02 -9.90758762e-02 -1.24130426e-02 -1.16190426e-01
  2.08455965e-01  3.26543450e-02 -9.97430459e-02 -1.63238913e-01
  1.38536245e-01 -9.43892822e-02 -5.65942228e-02  5.76099455e-02
 -2.06878856e-01 -1.68956116e-01 -3.00354570e-01 -4.74335365e-02
  3.37521404e-01  5.81084751e-02 -1.54780746e-01  8.61023292e-02
  2.37685274e-02  1.08982911e-02  1.41628549e-01  1.76304474e-01
  1.96402725e-02  5.20351306e-02 -1.13584295e-01  1.44749852e-02
  2.19190031e-01 -9.22829583e-02 -4.82647829e-02  1.80652663e-01
 -4.49800044e-02  3.05989236e-02  2.59820800e-02 -3.17219645e-03
 -6.87761530e-02  3.41697708e-02 -1.97575375e-01 -2.63034292e-02
 -5.86946728e-03 -2.30312031e-02 -5.24485111e-02  1.20891728e-01
 -1.19235255e-01  2.20420342e-02  2.12055501e-02  4.62277718e-02
 -9.30801556e-02 -6.79951459e-02 -7.70477578e-02 -1.42104896e-02
  8.78320560e-02 -1.75353393e-01  2.15514377e-01  1.74932227e-01
  7.10218726e-03  9.94601324e-02  9.11407024e-02  3.16059664e-02
 -2.10065171e-02 -1.07796434e-02 -2.01844007e-01 -1.41300205e-02
  1.29580259e-01 -1.11452322e-02  1.17753759e-01 -3.13331895e-02]