[-0.11122717  0.08599376 -0.01744382 -0.11275487 -0.09516941 -0.06201456
  0.01548368 -0.16031235  0.1668707  -0.06871241  0.23234478 -0.02300808
 -0.18637636 -0.11060019 -0.05837374  0.21190111 -0.23822255 -0.1314884
 -0.01721868 -0.05426047  0.11209287  0.02930989 -0.01036875  0.07850312
 -0.09816804 -0.30589968 -0.09697553 -0.07138123  0.00477603 -0.03438071
 -0.01727676  0.16166906 -0.18927328 -0.08649747  0.09463094  0.11903703
 -0.01950333 -0.07638643  0.18726803  0.00257461 -0.19537513  0.02390329
  0.11513787  0.28076157  0.2118609  -0.04830272  0.01677518 -0.08997872
  0.15602015 -0.1683504  -0.05627631  0.1209415   0.055803    0.0378768
  0.03289615 -0.14636377  0.0267785   0.11332877 -0.19315708 -0.0522634
  0.05247873 -0.16494992 -0.04432302 -0.11051482  0.14555882  0.07542662
 -0.07445823 -0.2162634   0.15867418 -0.143472   -0.08013076  0.06818224
 -0.18261091 -0.16362223 -0.28126284 -0.03454414  0.36517921  0.12333279
 -0.13441005  0.10532558  0.00565477 -0.01797586  0.13742694  0.13269494
  0.03408251  0.07350522 -0.09579616  0.04361152  0.21127744 -0.04277582
 -0.03958609  0.21611114 -0.02587448  0.06970038  0.04663548 -0.0128688
 -0.05290768  0.04673925 -0.19299559 -0.01423565 -0.03514675 -0.03187264
  0.01035634  0.12095541 -0.12765338  0.08208527 -0.01033639  0.0477361
 -0.11661207 -0.08494009 -0.06475387  0.02282576  0.10281098 -0.20626377
  0.19329686  0.17023323  0.00342863  0.10803532  0.06805608 -0.00672557
 -0.01767817 -0.07396701 -0.21928671 -0.00910953  0.11309316 -0.04115967
  0.10175788 -0.04287753]