[-0.12381398  0.12238377  0.0538031  -0.02644617 -0.05087195 -0.06667233
  0.02707851 -0.17018262  0.16266875 -0.0774154   0.25743958 -0.07361573
 -0.22169609 -0.04058507 -0.04263924  0.21016066 -0.17018004 -0.1047122
 -0.01089801  0.00960725  0.1404959   0.01614819  0.00722918  0.02910194
 -0.1266478  -0.24781547 -0.1228428  -0.0151806   0.00295962  0.00214438
 -0.03382829  0.0975823  -0.20400739 -0.06757335  0.07864259  0.09220808
 -0.01378023 -0.08029258  0.16579123 -0.03455497 -0.24830452  0.0196065
  0.11339314  0.25226817  0.14846137  0.02182045 -0.01440411 -0.17259865
  0.10521805 -0.13568792 -0.00663949  0.10110027  0.03966872  0.05544438
  0.01466039 -0.20898047  0.06892994  0.08874351 -0.16568922 -0.05085246
  0.08598484 -0.10541999  0.01226585 -0.07657097  0.15507729  0.03957576
 -0.09562817 -0.16855307  0.12312677 -0.11212697 -0.03011457  0.1052523
 -0.17105308 -0.20473459 -0.36265013 -0.03460785  0.38468882  0.08052276
 -0.15420976  0.08146138  0.02742061  0.02929794  0.17390536  0.18024482
  0.00398393  0.06798001 -0.13500158  0.01465297  0.22473107 -0.07958564
 -0.0519045   0.22482288 -0.00923296  0.02796817  0.01223866  0.05763676
 -0.06482332  0.01330283 -0.17911933 -0.03579803  0.01212179 -0.00826101
 -0.03277658  0.17293651 -0.18651299  0.07348332  0.03132124  0.03129978
 -0.07599542 -0.0708686  -0.06174017  0.00173154  0.06246643 -0.23097682
  0.15870284  0.15571193 -0.0166617   0.10349227  0.08827793  0.04567672
 -0.02450636 -0.03128983 -0.20404795 -0.01667289  0.11429161 -0.01953487
  0.12299217 -0.01070132]