[-9.07733142e-02  1.33779198e-01  3.72823887e-02 -7.16034025e-02
 -4.32443097e-02 -6.53476566e-02  2.23957542e-02 -1.94199726e-01
  1.47967681e-01 -1.01462185e-01  2.63868362e-01 -1.07193463e-01
 -2.45251343e-01 -3.13688219e-02 -2.41204277e-02  2.20247269e-01
 -2.04258204e-01 -1.57447278e-01 -4.01987173e-02  9.74774361e-04
  9.15248692e-02 -5.93366986e-03 -9.24557727e-03  4.35233489e-02
 -6.49305657e-02 -2.64248788e-01 -1.28701016e-01 -1.32559678e-02
  3.41296159e-02 -1.54315948e-03 -4.03819829e-02  7.94999823e-02
 -2.08972499e-01 -7.45324567e-02  9.12607834e-02  9.71284956e-02
 -1.00192172e-03 -1.13865353e-01  1.87094003e-01 -3.38797458e-02
 -2.43221879e-01  4.80520837e-02  1.13888144e-01  2.64405340e-01
  1.39988303e-01  7.08024809e-03 -2.84718629e-02 -1.71494409e-01
  1.30547136e-01 -1.70955732e-01 -2.17655487e-02  1.16318934e-01
  4.11774181e-02  5.56002930e-02 -8.61869194e-03 -2.09153280e-01
  8.13819394e-02  8.12837854e-02 -1.86687633e-01 -5.39110117e-02
  1.14504233e-01 -1.15798824e-01  4.44389833e-03 -9.71520469e-02
  1.66473567e-01  5.81314638e-02 -1.03048168e-01 -2.03608438e-01
  8.43545124e-02 -1.13565817e-01 -2.64993198e-02  1.03233173e-01
 -1.79862708e-01 -1.67441979e-01 -3.47566575e-01 -3.29981633e-02
  3.86484057e-01  6.37940690e-02 -1.34396285e-01  8.18916112e-02
  1.57049042e-03  2.67865490e-02  1.65633291e-01  1.44572914e-01
 -3.10102827e-03  6.12402968e-02 -1.54605895e-01  2.89108045e-02
  2.41455361e-01 -9.51696560e-02 -5.44227958e-02  2.08015546e-01
 -3.89925949e-02  6.10496402e-02  1.09494729e-02  8.01828802e-02
 -6.93671331e-02  3.54245305e-04 -1.98570251e-01 -1.73064694e-02
  3.14415176e-03  1.43376144e-03 -4.30224203e-02  1.56086877e-01
 -1.80633649e-01  5.21516092e-02  1.87511109e-02  2.42291205e-02
 -7.89048523e-02 -7.65581578e-02 -6.21104799e-02 -7.17792241e-03
  7.78229162e-02 -2.41615042e-01  1.59898952e-01  1.82697460e-01
  1.68287533e-03  7.02683553e-02  9.47355032e-02  8.76678154e-03
 -3.73691730e-02 -4.30369787e-02 -2.17252597e-01 -3.00109740e-02
  1.12734817e-01  1.98857728e-02  1.07680261e-01 -2.64242925e-02]