[-0.1352143   0.11412642  0.01646272 -0.07298636 -0.07376232 -0.08613892
  0.00090177 -0.16026749  0.16023178 -0.09723893  0.24594267 -0.07486723
 -0.22159605 -0.09898531 -0.03371577  0.24270812 -0.23781793 -0.15473895
 -0.02456941 -0.01673471  0.10547423 -0.01292606  0.02298558  0.05104733
 -0.0911897  -0.3043476  -0.08457815 -0.06293412  0.00989096 -0.02936312
 -0.02233973  0.10553888 -0.20324259 -0.06780875  0.06565248  0.09712576
 -0.00958771 -0.09859987  0.1855908  -0.0326287  -0.23634361 -0.00970659
  0.11318114  0.25063738  0.20088311 -0.01620027  0.00852992 -0.13968186
  0.13530141 -0.13615744 -0.0485368   0.1176065   0.04942325  0.03769943
  0.04916524 -0.17227313  0.04427164  0.08250188 -0.12594657 -0.06622475
  0.07845273 -0.09615423 -0.01373166 -0.12242077  0.19895437  0.02969706
 -0.08967831 -0.16332372  0.15189284 -0.09338062 -0.05975357  0.06965826
 -0.19436154 -0.17491446 -0.29289225 -0.0546412   0.32777831  0.0666796
 -0.14972845  0.09632787  0.03122316  0.00270634  0.13993159  0.17945617
  0.02163905  0.06577113 -0.1073323   0.01754502  0.22740114 -0.08878837
 -0.02788261  0.17989859 -0.04456812  0.02646006  0.02783308 -0.01085076
 -0.05818777  0.04436226 -0.19504444 -0.02707742  0.00603336 -0.0334263
 -0.04036463  0.10902261 -0.12370511  0.02143063  0.02216981  0.04591146
 -0.0934596  -0.06363555 -0.07153384 -0.0053458   0.07827816 -0.18056361
  0.22400224  0.17123464 -0.00616226  0.0901721   0.08509433  0.04867708
 -0.02366299 -0.01682905 -0.18377355 -0.02017575  0.11855866 -0.01095904
  0.11353662 -0.03674933]