[-0.08606338  0.15018205  0.00620112 -0.0731194  -0.0460943  -0.05371969
 -0.00910771 -0.13520794  0.16363057 -0.0743145   0.2703487  -0.09121975
 -0.24507356 -0.1025961  -0.02711635  0.24412568 -0.23938313 -0.12524417
 -0.02849944 -0.00200595  0.1079846   0.00590494  0.02145799  0.04214036
 -0.13111119 -0.32693976 -0.08741044 -0.05329409 -0.02495055 -0.03588536
 -0.03491968  0.11524923 -0.20227528 -0.0565904   0.08333667  0.05802852
  0.00274782 -0.0911262   0.1959224  -0.02041611 -0.22167325  0.02705816
  0.09374069  0.2617228   0.17391621 -0.0480287   0.01412375 -0.16888182
  0.11139949 -0.13323496 -0.02584059  0.13121621  0.02004361  0.03643985
  0.01342682 -0.14569549  0.02337982  0.12564792 -0.15888099 -0.06725541
  0.07279389 -0.10509977 -0.05413864 -0.11957138  0.17770994  0.07027027
 -0.09597432 -0.21735902  0.11680122 -0.09257729 -0.04684787  0.06191842
 -0.18345134 -0.18373893 -0.31877294 -0.04108836  0.30113867  0.05524784
 -0.19661911  0.1073066   0.00854172  0.00062032  0.16685015  0.17574053
  0.02000926  0.06428873 -0.09337884  0.04716125  0.23131917 -0.09271448
 -0.03451798  0.22304955 -0.03856445  0.02864511  0.03793252 -0.01501861
 -0.05311831  0.02637168 -0.18894002 -0.01464872  0.01646077 -0.02392001
 -0.05062386  0.13433006 -0.15582605  0.03356662  0.03176581  0.03167995
 -0.04044357 -0.0739631  -0.05867264 -0.04084224  0.0933245  -0.2175262
  0.19405982  0.14741838  0.00740848  0.09023605  0.08434073  0.0455749
 -0.02357843 -0.02137771 -0.21546181  0.02047466  0.14293441  0.00297216
  0.09980673 -0.06116372]