[-0.10089836  0.12170839  0.04281952 -0.06677237 -0.04692471 -0.07849275
  0.00983432 -0.19022451  0.13724777 -0.0987941   0.27181846 -0.09458289
 -0.23505664 -0.0474879  -0.03169237  0.22254677 -0.19924712 -0.1597404
 -0.03289784  0.00684084  0.09951477 -0.0082306  -0.00478629  0.0409862
 -0.07245778 -0.25464484 -0.1226424  -0.0069863   0.02938118 -0.00200342
 -0.0452222   0.08419725 -0.21662043 -0.07329597  0.08776825  0.10148925
  0.01187224 -0.10214871  0.1827819  -0.0379482  -0.25295943  0.04767356
  0.11765181  0.2631565   0.15456808  0.0117143  -0.02881948 -0.16215117
  0.12530915 -0.17268851 -0.01497106  0.10922299  0.05769115  0.04456041
 -0.01546574 -0.20534527  0.08088335  0.08846519 -0.18146536 -0.05863293
  0.10619666 -0.1146968   0.01084347 -0.08774801  0.17510371  0.05287287
 -0.10811622 -0.19009732  0.08035846 -0.11579283 -0.0302301   0.10483153
 -0.18017988 -0.16793874 -0.36372796 -0.03377917  0.38577318  0.06021319
 -0.14397798  0.08945231  0.01374494  0.03077154  0.16277066  0.14979649
 -0.0119436   0.07112379 -0.15911315  0.02327638  0.24504752 -0.08728176
 -0.05283049  0.21179163 -0.02977474  0.05736474  0.01555434  0.08004013
 -0.05180295 -0.00775522 -0.19271293 -0.01856537  0.00072772  0.00391923
 -0.04292234  0.15920191 -0.18031052  0.04437908  0.01277132  0.03037671
 -0.08002209 -0.07534587 -0.05012948 -0.01751986  0.06126397 -0.23473732
  0.15152426  0.18286507  0.00445182  0.0725032   0.0977476   0.00913944
 -0.03621469 -0.03726835 -0.20340641 -0.02651547  0.1188452   0.00424533
  0.12983894 -0.0187495 ]