[-0.10342491  0.06747331  0.03352771 -0.06831571 -0.02534512 -0.06037069
 -0.00101834 -0.17582858  0.12958823 -0.0798292   0.25267801 -0.06724618
 -0.19061911 -0.11487956 -0.03242856  0.1796093  -0.21679874 -0.15358615
 -0.0119172   0.03079453  0.10802615  0.00592735 -0.00066902  0.04559632
 -0.10185535 -0.26654938 -0.15619044 -0.04895244  0.0041047   0.00996035
 -0.02901506  0.09655532 -0.19272333 -0.08014193  0.08438121  0.10386501
  0.0333984  -0.07578298  0.18077877 -0.01910726 -0.2264175   0.0554292
  0.09400155  0.28328416  0.15935805 -0.00776381 -0.00122539 -0.16724153
  0.1295096  -0.13209285  0.02652725  0.13798167  0.06833675  0.06074606
 -0.00947412 -0.16774262  0.09204482  0.10939417 -0.18262713 -0.02422649
  0.08605349 -0.12925448  0.01582633 -0.06033461  0.13618387  0.06098292
 -0.07735807 -0.25106043  0.09378366 -0.12140365 -0.0608949   0.09449585
 -0.20808206 -0.16332607 -0.36788318 -0.0189905   0.34415182  0.05473026
 -0.17508619  0.12039834 -0.00484198  0.0155366   0.17232347  0.1871305
  0.01622471  0.08144023 -0.13869075  0.01992896  0.21152413 -0.07566099
 -0.03981513  0.21175034 -0.01468936  0.02832139  0.07224853  0.05368242
 -0.02739554  0.03911116 -0.16992572  0.00726658  0.01780647 -0.00170168
 -0.01519092  0.13485646 -0.16565739  0.06854912  0.00680364  0.02683722
 -0.06254021 -0.11968651 -0.04255483 -0.02224455  0.09036838 -0.24420296
  0.15945071  0.15840347  0.01575979  0.10257369  0.08156727  0.06063333
 -0.05336223 -0.0294659  -0.20594393  0.02360653  0.10730239  0.0188841
  0.09916445 -0.01631142]