[-0.08492091  0.0746026  -0.02198337 -0.06729605 -0.09285712 -0.03222817
  0.0092219  -0.16356717  0.15673167 -0.08447099  0.23962064 -0.00276167
 -0.1942993  -0.12231958 -0.0325986   0.2028327  -0.22715412 -0.15018179
 -0.03554816 -0.04017128  0.11260965  0.03740839 -0.02623447  0.03934779
 -0.09730845 -0.31141615 -0.09650364 -0.07373408  0.02397647 -0.01434113
 -0.02984717  0.12923081 -0.17041473 -0.07473888  0.0922617   0.09070316
 -0.02035194 -0.07532682  0.18724091  0.01710005 -0.21718405  0.04939701
  0.09418627  0.26896164  0.21235405 -0.01490265  0.01488883 -0.10328615
  0.16187651 -0.15882303 -0.01419915  0.15105274  0.07774406  0.05175433
  0.03680939 -0.1380782   0.01778786  0.09888988 -0.17810394 -0.04588262
  0.06393206 -0.12302506 -0.01808997 -0.10338266  0.14065544  0.06299696
 -0.06872039 -0.20555523  0.13607641 -0.153697   -0.12439764  0.03327213
 -0.19588795 -0.17345273 -0.28533378 -0.02898287  0.36166325  0.12935191
 -0.16305302  0.11486299  0.0190863  -0.01957023  0.17693396  0.14674664
  0.05034322  0.05643761 -0.08894204  0.00390644  0.23450063 -0.0556022
 -0.04516028  0.23764877 -0.02435735  0.0597235   0.05757007 -0.01664514
 -0.02752084  0.04053042 -0.1751561  -0.04160519 -0.01566429 -0.014985
  0.01273364  0.10272609 -0.12721573  0.10128494 -0.00371029  0.08975073
 -0.07134851 -0.08301695 -0.07524268  0.01331243  0.10496318 -0.19088076
  0.21808825  0.15725107  0.00484765  0.10028155  0.09495373  0.01075938
 -0.01863392 -0.0638276  -0.23286119 -0.03064719  0.11356472 -0.02223677
  0.10074069 -0.02434807]