[-0.1367145   0.12753372  0.03520112 -0.05932825 -0.08053003 -0.10810347
  0.01238011 -0.1560411   0.14767097 -0.07354172  0.26033553 -0.06584736
 -0.2260804  -0.12293348 -0.01963071  0.2273633  -0.22489491 -0.1326324
 -0.01495785 -0.01205302  0.12534826 -0.01767231  0.05370096  0.04971434
 -0.07398256 -0.32750842 -0.08909308 -0.07306339  0.02655625 -0.0311938
 -0.02484789  0.09779999 -0.19926408 -0.07349925  0.04347328  0.06480471
 -0.02333529 -0.09632289  0.2005776  -0.03337448 -0.23379214 -0.03230042
  0.08999527  0.22600928  0.19768764 -0.00250022  0.02890758 -0.13686512
  0.13873801 -0.13357638 -0.03016385  0.11552943  0.04814217  0.02280733
  0.04309745 -0.17412318  0.03651934  0.08411548 -0.16306908 -0.06358239
  0.07213167 -0.10235794 -0.03086771 -0.11062836  0.19181751  0.05175891
 -0.08294    -0.15986797  0.1621599  -0.10131808 -0.04763603  0.08418806
 -0.18844603 -0.17325924 -0.29472202 -0.04273437  0.3402853   0.05831967
 -0.13973877  0.05839176  0.01375417 -0.00460129  0.13933747  0.16295193
 -0.00199386  0.04628531 -0.1278874   0.00782512  0.19989431 -0.08875121
 -0.03873632  0.18611811 -0.03209507  0.05336512  0.02420709  0.00132303
 -0.06518058  0.05169984 -0.18043999 -0.01976757  0.00515824 -0.04490288
 -0.04675267  0.10597157 -0.11531083  0.02017237  0.01907081  0.04090397
 -0.10229965 -0.0845605  -0.07884198 -0.01421403  0.06014799 -0.17084537
  0.22119907  0.16621242 -0.0055572   0.10118409  0.07521243  0.04662107
 -0.02804114 -0.04716057 -0.18825756 -0.00872028  0.13468198 -0.01035728
  0.10557949 -0.04113574]