[-0.10468569  0.12746027  0.02360582 -0.0406278  -0.05349916 -0.03686885
  0.00172475 -0.14268272  0.10012683 -0.06132961  0.28534874 -0.05874841
 -0.22369789 -0.12917314 -0.02217302  0.19844662 -0.21677153 -0.14415339
 -0.02510856 -0.02127521  0.0662963   0.00267074  0.07801888  0.03034564
 -0.06860152 -0.31167397 -0.0711391  -0.066805    0.04995885 -0.02652484
 -0.0543236   0.12323602 -0.18232191 -0.05300814  0.07069457  0.07055981
  0.02004822 -0.07096636  0.20254283 -0.0217908  -0.19892377 -0.0066897
  0.08945161  0.26985118  0.21446398 -0.00261055 -0.00664224 -0.08762161
  0.08061346 -0.13375638  0.00304134  0.1122637   0.06218479  0.03338489
  0.01822771 -0.151678    0.01588788  0.07167764 -0.12707244 -0.05444973
  0.04638601 -0.1130783  -0.00170093 -0.11390146  0.19585034  0.05688986
 -0.07137581 -0.19342764  0.14280377 -0.09467019 -0.09228391  0.09008508
 -0.18984774 -0.122252   -0.30067644 -0.02062296  0.31689805  0.08092453
 -0.14978115  0.06057354  0.02605564 -0.01581371  0.11536157  0.13500458
 -0.03090346  0.04385048 -0.12054175 -0.00492339  0.21532419 -0.05269022
 -0.10863291  0.169945   -0.05870273  0.02826376  0.07203915  0.02080148
 -0.01068844  0.03321727 -0.20907441 -0.03749898  0.0052329  -0.08207466
 -0.04314632  0.13758479 -0.14325784  0.00911972 -0.01110333  0.03557456
 -0.05910506 -0.04177919 -0.07294166  0.00617667  0.08854517 -0.21763276
  0.21963203  0.18321231  0.04838295  0.08526307  0.09192687  0.04173299
 -0.02394304 -0.02655655 -0.16217044 -0.06464853  0.11683587  0.004103
  0.12597951  0.00208257]