[-1.03821076e-01  1.27218083e-01  4.35755961e-02 -5.32303937e-02
 -4.67940532e-02 -7.16635212e-02  1.79747343e-02 -1.89655647e-01
  1.41456276e-01 -1.00893490e-01  2.58135378e-01 -9.47616398e-02
 -2.34878451e-01 -3.07776816e-02 -2.80818548e-02  2.27387935e-01
 -1.91447735e-01 -1.54244319e-01 -4.20829356e-02  2.49775616e-03
  9.69689116e-02 -3.73136415e-03 -7.88825098e-03  4.93244827e-02
 -7.11241290e-02 -2.54485130e-01 -1.22184552e-01 -9.83200222e-03
  2.98753027e-02  7.93909933e-03 -4.39872108e-02  7.88656846e-02
 -2.06945285e-01 -7.05731437e-02  8.59115198e-02  1.00241996e-01
  1.19358152e-02 -1.06063388e-01  1.91845328e-01 -4.13735770e-02
 -2.57950336e-01  5.42220064e-02  1.21963166e-01  2.68386960e-01
  1.60364330e-01  1.28702139e-02 -2.98441835e-02 -1.61220938e-01
  1.34924039e-01 -1.75517827e-01 -1.49910888e-02  1.01770483e-01
  5.46340533e-02  5.13150953e-02 -5.58771193e-03 -2.09430337e-01
  8.15529749e-02  7.55494609e-02 -1.83089152e-01 -6.31474704e-02
  1.06427446e-01 -1.14341453e-01  1.57422777e-02 -9.29328129e-02
  1.78076953e-01  5.52517734e-02 -1.03984855e-01 -1.90625593e-01
  9.20118913e-02 -1.27762258e-01 -2.74218116e-02  1.04773641e-01
 -1.75598696e-01 -1.63623124e-01 -3.66375178e-01 -3.47224325e-02
  3.86054844e-01  7.42245317e-02 -1.45580813e-01  9.02858302e-02
  1.47057846e-02  3.40557024e-02  1.70553058e-01  1.54843763e-01
  1.09676947e-03  6.22490309e-02 -1.55368969e-01  1.80155430e-02
  2.48928189e-01 -8.69628042e-02 -5.44872098e-02  2.18151450e-01
 -1.96651798e-02  4.98568527e-02  1.35266604e-02  8.37423727e-02
 -5.90068810e-02 -8.38256162e-03 -1.96764737e-01 -1.30219730e-02
  1.89034047e-03  1.52530270e-02 -3.27883065e-02  1.57425568e-01
 -1.86795071e-01  5.62573448e-02  1.02801099e-02  3.65848765e-02
 -7.79181048e-02 -6.86074123e-02 -5.91717623e-02 -5.84283611e-03
  6.95437044e-02 -2.36588985e-01  1.51022151e-01  1.71283722e-01
 -9.53098387e-03  7.05555007e-02  9.32288989e-02  1.64071172e-02
 -3.79050002e-02 -3.66278552e-02 -2.13638216e-01 -3.28468159e-02
  1.18238352e-01 -2.52809376e-04  1.27136037e-01 -5.71974833e-03]