[-0.12190249  0.11366767  0.03812734 -0.04388949 -0.04060118 -0.0809718
  0.01761485 -0.16525264  0.16500859 -0.10162373  0.24809007 -0.06801053
 -0.21508808 -0.0398492  -0.04321527  0.21467821 -0.18029954 -0.11743845
 -0.01364127  0.00460451  0.14151905  0.02597223 -0.00945606  0.02850108
 -0.12871292 -0.23463905 -0.12372446 -0.01968242 -0.00490539  0.01220927
 -0.0167558   0.10638006 -0.19043873 -0.07035736  0.08570209  0.09903423
 -0.00582108 -0.08153281  0.1707305  -0.05521121 -0.26462123  0.02549511
  0.13917038  0.25653017  0.15500109  0.01430601 -0.03214322 -0.16929035
  0.12738262 -0.1534286  -0.02344773  0.09678833  0.03507818  0.07624997
  0.01593196 -0.19600855  0.10444107  0.08080464 -0.1831388  -0.06151112
  0.09071998 -0.13608995  0.02627921 -0.0636239   0.16496685  0.03136373
 -0.09846054 -0.17752294  0.11695682 -0.13325423 -0.04114445  0.11443432
 -0.16986011 -0.19350421 -0.38142833 -0.03915009  0.3673535   0.09385389
 -0.12290251  0.11836088  0.04291552  0.03400306  0.17650282  0.18580388
  0.00478616  0.06081966 -0.13126491  0.01651976  0.23704778 -0.07708823
 -0.05575969  0.22436333 -0.01169318  0.03729035  0.02020999  0.0744709
 -0.06721129  0.0011087  -0.17165355 -0.01429943  0.03237231 -0.00369527
 -0.01862405  0.18439908 -0.17342944  0.07333244  0.00590059  0.04705558
 -0.06684075 -0.05893931 -0.04675993 -0.00465915  0.05176754 -0.21805806
  0.16635159  0.1453681  -0.01816654  0.09510916  0.09510747  0.0414234
 -0.04331749 -0.03007879 -0.21509464 -0.02323709  0.11582174 -0.01329244
  0.14066701 -0.00694933]