[-0.11941641  0.1228164   0.05017059 -0.05756391 -0.05230407 -0.080845
  0.02544072 -0.16670845  0.16673243 -0.09898306  0.24895859 -0.09428985
 -0.2267205  -0.01295144 -0.03777188  0.21936606 -0.1950314  -0.11924579
 -0.0172976   0.01163078  0.12724894  0.01465653 -0.00660234  0.0371805
 -0.10815871 -0.24534364 -0.12788247 -0.02330405  0.01013091  0.02159555
 -0.00686119  0.09827094 -0.18486057 -0.07160322  0.08793934  0.08567659
 -0.00831985 -0.09504598  0.18727267 -0.04991006 -0.26707956  0.01671998
  0.13518213  0.26288325  0.14923692  0.00724401 -0.03091599 -0.16225764
  0.13321105 -0.15780264 -0.0266396   0.10650744  0.02776359  0.07378813
  0.0185919  -0.20220263  0.11255689  0.09264462 -0.19589181 -0.05437181
  0.10472665 -0.12654658  0.03289724 -0.06483861  0.17534383  0.03843901
 -0.09822228 -0.18434058  0.11955752 -0.11440332 -0.02665458  0.11054493
 -0.1907749  -0.18119584 -0.36700037 -0.04591894  0.37308592  0.07352567
 -0.11474808  0.107237    0.03025498  0.03023964  0.16796656  0.18024383
  0.00390329  0.05074475 -0.13040878  0.01538941  0.2257878  -0.0860721
 -0.0522377   0.2229998  -0.02189613  0.02285859  0.01839315  0.0719132
 -0.07916601 -0.00273184 -0.18261826 -0.01954524  0.02316279 -0.00839589
 -0.02280891  0.18034588 -0.18935911  0.06479888  0.01058447  0.04295122
 -0.07782041 -0.06491633 -0.05010992  0.00046918  0.06938849 -0.21533218
  0.16873176  0.14740458 -0.01548967  0.08227886  0.08631054  0.02629253
 -0.04214278 -0.02506155 -0.20627654 -0.01801207  0.1097576  -0.00601499
  0.12685844 -0.0095045 ]