[-1.32611111e-01  1.09744750e-01  1.81378480e-02 -7.71301612e-02
 -8.92605111e-02 -8.42778310e-02 -5.99285169e-03 -1.48385078e-01
  1.35526314e-01 -8.70152637e-02  2.34513864e-01 -8.05026814e-02
 -2.21310288e-01 -8.95077065e-02 -4.20279503e-02  2.38527760e-01
 -2.35186979e-01 -1.54889390e-01 -2.11657435e-02 -2.78913360e-02
  1.06166624e-01 -2.76415522e-04  1.00752255e-02  4.87557128e-02
 -9.55839157e-02 -3.04061204e-01 -6.66479245e-02 -6.06897138e-02
  1.05378684e-03 -2.52766497e-02 -7.15587428e-03  1.29382297e-01
 -2.02948138e-01 -4.49640341e-02  6.57858625e-02  1.02674261e-01
 -3.15109268e-03 -9.40964594e-02  1.83836356e-01 -3.63669954e-02
 -2.33097076e-01 -4.44354070e-03  1.10168926e-01  2.50004858e-01
  1.93927020e-01 -2.73195989e-02  6.17898395e-03 -1.24839239e-01
  1.31151661e-01 -1.38371751e-01 -6.76770434e-02  1.31366238e-01
  3.32036875e-02  3.56621519e-02  3.26018035e-02 -1.68528467e-01
  5.57353087e-02  8.24113637e-02 -1.48475572e-01 -7.88289309e-02
  6.87634870e-02 -1.14588492e-01 -1.25313746e-02 -1.27128601e-01
  2.05765039e-01  3.10332123e-02 -9.06526446e-02 -1.61262646e-01
  1.54411510e-01 -9.36465189e-02 -6.23086393e-02  6.28133789e-02
 -2.00044796e-01 -1.65768892e-01 -3.01222026e-01 -4.81652319e-02
  3.23086679e-01  7.03244731e-02 -1.44994125e-01  1.07999481e-01
  3.63130830e-02  1.08224917e-02  1.44506022e-01  1.71293199e-01
  1.48687884e-02  6.01385832e-02 -1.05649136e-01  2.96175983e-02
  2.19957307e-01 -8.12327787e-02 -3.88787128e-02  1.68784365e-01
 -3.84831689e-02  2.97469106e-02  3.09750829e-02 -1.18033197e-02
 -5.21011166e-02  3.46070491e-02 -1.91495851e-01 -1.00754192e-02
 -5.13822539e-03 -3.63145471e-02 -3.58461849e-02  1.20041586e-01
 -1.10851862e-01  2.11704709e-02  1.69107262e-02  4.13706377e-02
 -1.08778536e-01 -6.02510646e-02 -6.59503937e-02 -2.16696388e-03
  7.30166063e-02 -1.83022901e-01  2.28614688e-01  1.66398391e-01
 -1.08548068e-03  9.62934867e-02  8.64513740e-02  3.85109447e-02
 -3.58292088e-02 -2.21749172e-02 -1.86177179e-01 -2.40962729e-02
  1.26525238e-01 -9.95776337e-03  1.19090490e-01 -3.05773076e-02]