[-0.10124055  0.08195207 -0.00318549 -0.08926723 -0.08796383 -0.05408175
  0.01051067 -0.17054957  0.18268026 -0.06442272  0.24410959 -0.01458721
 -0.19273967 -0.10648932 -0.0496264   0.20925286 -0.22332774 -0.1263126
 -0.01843444 -0.04135841  0.13539387  0.03139183 -0.00159053  0.06961628
 -0.10022428 -0.32865411 -0.11335869 -0.07367077  0.01556207 -0.04404519
 -0.02118576  0.15528335 -0.1817665  -0.08979799  0.09385551  0.11000049
 -0.02939643 -0.08381038  0.18845125  0.00782944 -0.2230432   0.03600604
  0.1071678   0.26630357  0.19579278 -0.0298771   0.02315171 -0.09862324
  0.14652517 -0.15539205 -0.03800785  0.12651458  0.07711262  0.03389624
  0.04404707 -0.15260163  0.01676529  0.1095546  -0.18305512 -0.04427297
  0.06464847 -0.16434467 -0.02879264 -0.09788664  0.13894241  0.06837159
 -0.07401517 -0.20731223  0.13875131 -0.13713159 -0.08118587  0.07080731
 -0.1924929  -0.18052888 -0.28278753 -0.02570474  0.37763882  0.1079585
 -0.15316372  0.10262283  0.00777659 -0.01185834  0.1441128   0.15511477
  0.04078121  0.07400233 -0.09989893  0.02224694  0.21313596 -0.05406593
 -0.03234913  0.23699458 -0.02786261  0.08652792  0.03691379 -0.02236446
 -0.05804789  0.04279951 -0.18289463 -0.03214489 -0.03766359 -0.00130512
  0.00462173  0.11524894 -0.12890552  0.07704135 -0.00386527  0.04996797
 -0.09321638 -0.08104362 -0.07334512 -0.00364945  0.09789653 -0.20963983
  0.18454804  0.17401187  0.00942098  0.10288215  0.08220028 -0.00124015
 -0.00354134 -0.06644516 -0.23081718  0.00869765  0.13287321 -0.04489731
  0.08047267 -0.0567495 ]