[-0.13145755  0.1160211   0.01632932 -0.06373622 -0.07940661 -0.09795234
 -0.0187293  -0.15659152  0.14186184 -0.09448907  0.24653654 -0.05568894
 -0.21047495 -0.11132725 -0.01515202  0.22300231 -0.23093843 -0.15342718
 -0.00339381  0.00599132  0.12410835 -0.02194286  0.03659469  0.05103979
 -0.09207573 -0.31994733 -0.08784822 -0.06094588  0.01285657 -0.03760545
 -0.02121305  0.10952053 -0.21110912 -0.05625248  0.05928975  0.10041306
  0.00032275 -0.08498616  0.18749215 -0.02816176 -0.23210461 -0.01901464
  0.0852865   0.24131511  0.21280026 -0.02584046  0.02468798 -0.13097349
  0.13662685 -0.13170676 -0.06083639  0.1182804   0.05528634  0.04045201
  0.03627646 -0.16437818  0.0568838   0.08916235 -0.15739226 -0.06364953
  0.06656521 -0.10491067 -0.00448065 -0.10494927  0.21497145  0.03700931
 -0.08412598 -0.16903844  0.15174071 -0.09915512 -0.04480743  0.08835902
 -0.19547944 -0.17707561 -0.27477893 -0.05871215  0.31200311  0.06430548
 -0.14907221  0.08986172  0.01926791 -0.00613631  0.12741001  0.1604899
  0.01787293  0.06888638 -0.11254022  0.02912953  0.2307779  -0.08001055
 -0.01472796  0.19268495 -0.04284049  0.03882496  0.0395577  -0.010292
 -0.04852688  0.04797285 -0.17683479 -0.02055523 -0.01578413 -0.05923758
 -0.02926657  0.10891936 -0.12157223  0.019429    0.00186721  0.05475429
 -0.10162161 -0.07185438 -0.06706005 -0.01403665  0.0677565  -0.19511478
  0.23118602  0.16932043 -0.00957365  0.08985945  0.0547288   0.05427064
 -0.03815412 -0.03481846 -0.17505082  0.00079986  0.11520224 -0.01527312
  0.10664897 -0.04804076]