[-1.05690576e-01  1.01545475e-01 -1.33115500e-02 -9.90024060e-02
 -8.14554319e-02 -5.67891560e-02  1.77875347e-02 -1.67783931e-01
  1.78335741e-01 -6.45160824e-02  2.42264152e-01 -1.24799581e-02
 -2.01281905e-01 -1.04980491e-01 -4.80153710e-02  2.07553074e-01
 -2.29131371e-01 -1.28519699e-01 -2.30892114e-02 -3.74595709e-02
  1.38111219e-01  4.24485914e-02 -2.12979550e-03  6.37347326e-02
 -9.36783329e-02 -3.18716973e-01 -1.12594597e-01 -6.16942160e-02
  1.29871694e-02 -3.46340351e-02 -1.77207552e-02  1.46249324e-01
 -1.83842584e-01 -9.30773243e-02  9.85134467e-02  1.08317517e-01
 -2.58568376e-02 -8.19069743e-02  1.98520213e-01  1.01747978e-02
 -2.17223838e-01  3.57298553e-02  1.13519371e-01  2.76074320e-01
  2.03856811e-01 -3.66873555e-02  2.10552718e-02 -1.01483680e-01
  1.44972667e-01 -1.59640536e-01 -4.79036123e-02  1.30425170e-01
  7.78394714e-02  3.69263142e-02  3.50464843e-02 -1.57177165e-01
  1.49474209e-02  9.91559178e-02 -1.80228516e-01 -6.13526963e-02
  6.52042106e-02 -1.53756335e-01 -2.77128518e-02 -1.01048522e-01
  1.42165899e-01  5.33693992e-02 -8.42304230e-02 -2.13015422e-01
  1.36012197e-01 -1.39665663e-01 -7.89748430e-02  7.37180188e-02
 -1.93444997e-01 -1.76763520e-01 -2.81578153e-01 -2.40265187e-02
  3.75329494e-01  1.08699754e-01 -1.44288316e-01  1.07372008e-01
 -1.64084171e-03 -1.93879586e-02  1.34190202e-01  1.49237365e-01
  3.63980196e-02  8.43549967e-02 -1.02692187e-01  3.25101577e-02
  2.19717890e-01 -5.92206232e-02 -3.99831422e-02  2.36742452e-01
 -2.04672236e-02  9.19454396e-02  3.96931469e-02 -1.48742115e-02
 -5.42506985e-02  4.10065241e-02 -1.88663527e-01 -2.00111195e-02
 -3.91967818e-02 -1.17684333e-02  4.93743224e-03  1.27741858e-01
 -1.27280518e-01  8.24882388e-02 -4.42957133e-03  5.05690575e-02
 -1.06652752e-01 -8.25103745e-02 -7.57293999e-02 -1.16005994e-03
  9.65363681e-02 -2.04481080e-01  1.78432971e-01  1.73631981e-01
  6.48950401e-04  9.96891111e-02  8.81548449e-02 -1.99190457e-03
 -4.81134607e-03 -5.73809445e-02 -2.30934098e-01 -3.26482957e-04
  1.27529889e-01 -3.72453295e-02  9.42633376e-02 -5.36315106e-02]