[-1.16697215e-01  7.99621120e-02  1.86008494e-02 -6.09743707e-02
 -5.97586930e-02 -8.88303742e-02  1.96170900e-02 -1.53953657e-01
  1.48010567e-01 -1.09209947e-01  2.27793202e-01 -5.59121557e-02
 -1.90159485e-01 -1.59639716e-02 -2.62718033e-02  2.05617592e-01
 -2.14533284e-01 -1.21666335e-01 -1.46663906e-02 -1.51794283e-02
  1.21909894e-01  3.43230069e-02 -1.53133301e-02  4.00312766e-02
 -1.50794610e-01 -2.30806902e-01 -1.11838296e-01 -2.84750368e-02
 -1.99727193e-02  3.08515336e-02  7.58484146e-03  1.44137144e-01
 -1.92197621e-01 -4.12799232e-02  9.79397967e-02  1.03050113e-01
 -1.80260657e-04 -5.97036481e-02  1.81889117e-01 -2.45804898e-02
 -2.52567738e-01 -6.21173857e-03  1.35952041e-01  2.64364034e-01
  1.59963906e-01 -1.16438055e-02 -3.91476266e-02 -1.24467731e-01
  1.31262109e-01 -1.74491525e-01 -6.41186163e-02  1.14786327e-01
  5.58061991e-03  8.49878043e-02  1.91084482e-02 -1.81168020e-01
  1.25119835e-01  8.81381556e-02 -1.87050432e-01 -7.01833889e-02
  7.38042593e-02 -1.59951076e-01  3.60987745e-02 -5.55705689e-02
  1.75404057e-01  3.32261585e-02 -8.80229399e-02 -1.63559616e-01
  1.25240132e-01 -1.19230799e-01 -5.40442467e-02  9.51594561e-02
 -1.81149587e-01 -1.93524018e-01 -3.66978317e-01 -5.67671657e-02
  3.47379565e-01  9.32932422e-02 -1.05914295e-01  1.26073956e-01
  5.04661575e-02  2.69834194e-02  1.94602087e-01  1.62761852e-01
  1.01289293e-02  6.05005510e-02 -1.16409779e-01  4.34501208e-02
  2.33964115e-01 -7.28840977e-02 -4.04363759e-02  2.10250735e-01
 -2.66805645e-02  3.25752459e-02  3.76789048e-02  6.61279038e-02
 -5.27707748e-02  9.83642973e-03 -1.82677567e-01  1.79500505e-02
  1.63525678e-02 -1.92832146e-02 -4.99224989e-03  1.79213151e-01
 -1.65018603e-01  5.90677373e-02  4.36487561e-03  2.80551761e-02
 -1.03339665e-01 -5.76614402e-02 -5.59661053e-02  2.04067514e-03
  4.93534766e-02 -2.15745255e-01  1.83357105e-01  1.60506696e-01
 -4.89251353e-02  1.01322532e-01  6.66869432e-02  1.90469585e-02
 -6.96361139e-02 -3.48174088e-02 -2.05698296e-01 -2.16097329e-02
  1.08713500e-01 -4.52096900e-03  1.13156870e-01 -1.92586277e-02]