[-7.88602605e-02  9.85277221e-02  1.48451598e-02 -6.83865249e-02
 -9.37923416e-02 -6.65214583e-02 -1.57490454e-03 -1.54847726e-01
  1.70035169e-01 -7.41388351e-02  2.41748676e-01 -5.98109476e-02
 -2.24863097e-01 -8.39047730e-02 -4.92663048e-02  2.17018589e-01
 -2.44718298e-01 -1.38962522e-01 -2.27110516e-02 -2.01328546e-02
  1.45371661e-01  1.00143747e-02  4.82092146e-03  4.80513610e-02
 -1.21693149e-01 -3.39128435e-01 -1.14892639e-01 -6.28088936e-02
 -6.20747125e-03 -4.01559249e-02 -1.71638187e-02  1.50944918e-01
 -1.89649954e-01 -7.11046830e-02  8.85257050e-02  8.17196593e-02
 -1.98296960e-02 -8.46415162e-02  2.10299179e-01 -1.09329715e-03
 -2.26867437e-01  2.37931814e-02  9.72807854e-02  2.61946589e-01
  1.84927434e-01 -2.79808231e-02  2.11568605e-02 -1.09770909e-01
  1.20410763e-01 -1.32115543e-01 -3.16057280e-02  1.56966135e-01
  5.52376993e-02  3.35339010e-02  3.37217934e-02 -1.46868095e-01
  2.42335387e-02  9.40606743e-02 -1.87934741e-01 -7.33887628e-02
  9.10983607e-02 -1.60097748e-01 -4.77012172e-02 -1.17262080e-01
  1.51158884e-01  5.17132580e-02 -5.40479235e-02 -2.33089551e-01
  1.60070539e-01 -1.30820155e-01 -5.86591326e-02  5.87659776e-02
 -1.98137417e-01 -1.66161284e-01 -2.64609784e-01 -5.37773743e-02
  3.69014829e-01  7.38430917e-02 -1.45935819e-01  1.38599038e-01
 -2.26373784e-04 -3.93855236e-02  1.32656008e-01  1.50404692e-01
  4.98941429e-02  9.97197703e-02 -9.43808556e-02  5.12898378e-02
  2.00205356e-01 -8.80903080e-02 -8.45697057e-03  2.27349594e-01
 -2.37361714e-02  4.21960615e-02  6.46368787e-02 -7.46767372e-02
 -5.04345261e-02  5.64335100e-02 -1.78920373e-01 -1.45606613e-02
 -3.96069959e-02 -2.52263080e-02 -8.30780715e-03  8.89899284e-02
 -1.23138778e-01  5.59131689e-02  9.64950956e-03  4.26810384e-02
 -8.99982378e-02 -8.34311172e-02 -9.67162177e-02 -4.11355533e-02
  1.14056565e-01 -2.31120929e-01  1.63994238e-01  1.45905942e-01
  4.86471271e-03  9.46614519e-02  6.52029663e-02  4.79988232e-02
 -1.01752346e-02 -3.71717587e-02 -2.45874509e-01  2.41508018e-02
  1.30580083e-01 -2.72882637e-02  7.96949118e-02 -4.44514714e-02]