[-9.01935622e-02  4.76952456e-02  1.19538583e-01  2.37664282e-02
 -1.02887869e-01 -8.21195170e-02  3.93137187e-02 -1.60216689e-01
  1.44000754e-01 -9.88605022e-02  1.71439886e-01 -4.72380072e-02
 -2.77151793e-01 -5.44630997e-02  4.58044112e-02  1.78250164e-01
 -1.22870423e-01 -1.09198153e-01 -1.14125960e-01 -2.99671534e-02
  1.97582599e-02  4.47757952e-02  4.78870012e-02  4.73980792e-03
 -1.26381978e-01 -3.85870904e-01 -9.17863995e-02 -3.69097255e-02
  6.85304776e-03  6.20051194e-03 -6.55628964e-02  9.12854671e-02
 -1.69713855e-01 -1.20655373e-01  1.09945409e-01  1.18983760e-01
 -7.94294626e-02 -7.80680329e-02  1.61396250e-01  5.55661088e-03
 -2.78374404e-01  5.17579203e-04  5.52573204e-02  2.14290380e-01
  2.21279025e-01  1.33093642e-02  2.54134331e-02 -1.23942308e-01
  1.10987835e-01 -2.32417390e-01 -2.84800772e-02  1.36441857e-01
  6.56806827e-02  6.77260906e-02  8.34657177e-02 -1.45165980e-01
 -8.94106168e-04  1.12689376e-01 -1.47593364e-01 -8.06220025e-02
  4.63694707e-02 -1.01380028e-01  2.58650421e-03 -4.65462543e-02
  1.42607614e-01  2.65451614e-02 -1.10946678e-01 -4.96352501e-02
  1.27829239e-01 -1.55500114e-01 -1.19568575e-02  1.88827403e-02
 -1.46168754e-01 -1.87828258e-01 -3.04344296e-01 -2.83784922e-02
  4.34395164e-01  8.84052441e-02 -1.83826029e-01  1.26707405e-02
 -7.66176507e-02  3.60272899e-02  9.56113413e-02  1.30569324e-01
 -7.78358444e-05  3.04553509e-02 -3.74728926e-02  2.10633986e-02
  1.73665419e-01 -9.57270488e-02  1.71809047e-02  2.18054041e-01
  1.53002068e-02  5.47334813e-02  5.75991832e-02  1.82797499e-02
 -8.82437974e-02 -3.60126346e-02 -1.66095123e-01 -6.26522079e-02
  3.49348299e-02 -4.71287444e-02  6.36878535e-02  1.12792604e-01
 -2.28700504e-01  1.42068729e-01  4.31644693e-02 -3.50352307e-03
  6.77124485e-02 -3.50597985e-02 -3.75401303e-02 -6.02231510e-02
  1.01375513e-01 -2.41082594e-01  1.64798886e-01  2.34414935e-01
 -1.09374486e-01  1.48057863e-01  2.27406193e-02  3.46638076e-02
 -3.91607359e-02 -4.18022787e-03 -1.16574049e-01 -6.29954115e-02
  8.62141773e-02  1.75712053e-02  3.09584737e-02 -4.81627360e-02]