[-1.30419359e-01  5.09922877e-02  1.35234699e-01 -6.18997626e-02
 -1.28973722e-01 -8.17636494e-03 -3.94646032e-03 -1.34307146e-01
  1.77449688e-01 -4.58658002e-02  1.79158434e-01 -4.86668106e-03
 -2.66021669e-01 -4.02064584e-02  2.83539835e-02  1.74672276e-01
 -1.51861221e-01 -1.20835721e-01 -9.10926908e-02 -1.91277768e-02
 -1.47981262e-02  9.25384015e-02  6.52302355e-02  2.92137060e-02
 -1.81550041e-01 -3.86461467e-01 -9.47249308e-02 -5.19346073e-02
 -1.24849593e-02  3.51036862e-02 -5.50071560e-02  1.37139276e-01
 -1.58688545e-01 -9.87703875e-02  9.83353481e-02  1.29523069e-01
 -7.31032118e-02 -1.11637130e-01  1.45701036e-01  2.91438885e-02
 -2.62986779e-01 -4.22979482e-02  5.60345314e-02  2.73088843e-01
  2.30422169e-01 -4.03950475e-02  6.99473470e-02 -1.05857030e-01
  1.18470311e-01 -2.67439902e-01 -2.93084960e-02  1.64155126e-01
  2.70247944e-02  5.44882417e-02  7.32984766e-02 -1.36897460e-01
  2.90645938e-02  1.41244844e-01 -1.64479226e-01 -4.48645763e-02
  5.48374541e-02 -7.69123062e-02  3.94810438e-02 -9.38846469e-02
  1.59528255e-01  4.28017303e-02 -1.22397959e-01 -1.15676045e-01
  9.61903781e-02 -9.27215591e-02 -1.04480619e-02  7.62565583e-02
 -2.34736398e-01 -2.14002892e-01 -3.39025170e-01 -1.58960391e-02
  4.64708000e-01  9.21877250e-02 -1.19993389e-01  3.00046299e-02
 -1.25732094e-01  1.36242211e-02  5.76816760e-02  1.11671783e-01
  5.91898104e-03  5.58049325e-03 -5.85055612e-02  6.67638406e-02
  2.18948439e-01 -1.01309933e-01  9.00855847e-03  2.33627036e-01
  2.89704595e-02  2.79693697e-02  1.57642048e-02  7.56879449e-02
 -8.21235552e-02  3.62089016e-02 -1.43747538e-01  1.50452405e-02
  3.88689269e-03 -2.49817874e-02  1.06521845e-01  1.27354145e-01
 -2.12958500e-01  1.32015944e-01  6.39235005e-02  1.54510811e-02
  5.83408661e-02 -6.77134767e-02 -8.62479806e-02 -8.98107663e-02
  1.47972703e-01 -2.64584839e-01  1.15631483e-01  2.25318775e-01
 -3.34975868e-02  1.42225623e-01  2.71140281e-02  3.64592373e-02
 -5.83637059e-02  9.23164841e-03 -9.93406922e-02  2.80444697e-03
  9.20364931e-02 -3.35357356e-04  3.26202228e-03 -3.00787389e-04]