[-0.11683413  0.0857104   0.1456701  -0.05326454 -0.0830931   0.00355974
 -0.00300903 -0.12400674  0.17171717 -0.05467657  0.23114605 -0.03460171
 -0.24608849 -0.08658808  0.04889789  0.18819913 -0.1691118  -0.1341192
 -0.04756602 -0.01719888 -0.00601017  0.05985251  0.02699187  0.01127818
 -0.18156333 -0.41063109 -0.09119564 -0.06026008  0.02678014  0.00318151
 -0.11950386  0.09886829 -0.18895113 -0.09523004  0.11092851  0.14510968
 -0.04203792 -0.08157425  0.11790265 -0.00499817 -0.26017174 -0.01214255
  0.05520472  0.2417829   0.19466269  0.01534679  0.03469233 -0.09218433
  0.08338946 -0.19952443  0.01405163  0.15065944  0.05115355  0.03988797
  0.0413676  -0.18383281 -0.00785884  0.11676254 -0.14444447 -0.05744242
  0.02084658 -0.10102282 -0.00242422 -0.05885398  0.15881561  0.03865662
 -0.11468601 -0.13326858  0.09303185 -0.08272653  0.00719725  0.04143539
 -0.21366684 -0.19864149 -0.33137274  0.01117128  0.42599297  0.05381101
 -0.17869641  0.07496839 -0.06611412  0.02155633  0.09236141  0.15612444
  0.00416313  0.05291021 -0.05913032  0.05225986  0.18672512 -0.09951503
  0.01492559  0.19826093 -0.04083888  0.07268815  0.01685011  0.04012934
 -0.05888179  0.0328266  -0.11976993 -0.02475589  0.058374   -0.01425417
  0.03742909  0.14909565 -0.25707197  0.10313145  0.07151063  0.01635787
  0.08153578 -0.04925036 -0.03347899 -0.10078776  0.12983373 -0.29472014
  0.15862124  0.26774549 -0.0593558   0.15636654  0.05133096  0.01028916
  0.00562599  0.00596361 -0.16030777 -0.00385034  0.10501099 -0.03426709
  0.01661162 -0.01811823]