[-0.07906625  0.06149929  0.06870337 -0.08648314 -0.04838442 -0.04302516
 -0.03103982 -0.16155699  0.16407013 -0.07027724  0.25446919 -0.09034299
 -0.24531817 -0.08471406 -0.03242692  0.23482668 -0.20352297 -0.1057294
 -0.04635475  0.0137087   0.02617727  0.02024246  0.0362592   0.02983356
 -0.13389781 -0.36159095 -0.10799537 -0.07868204 -0.03474219  0.00181868
 -0.08607157  0.07082056 -0.1645447  -0.07083249  0.11802941  0.12917544
 -0.00836257 -0.1053789   0.15118945 -0.0217598  -0.27464524  0.00824833
  0.11383366  0.22590899  0.1793049   0.00938715  0.02556794 -0.17472461
  0.14310996 -0.15337475  0.02805335  0.09063584  0.06742541  0.01457949
  0.02982279 -0.1368544  -0.01109677  0.17138377 -0.13489673 -0.06485216
  0.09573574 -0.05767605 -0.03659756 -0.10576536  0.19392733  0.07554375
 -0.16077308 -0.1395378   0.12341016 -0.07609244 -0.01302916  0.05573031
 -0.19652498 -0.19769572 -0.30285081 -0.01695776  0.42540398  0.0321715
 -0.17637861  0.03214578 -0.06028924  0.02846286  0.13068263  0.1688768
  0.03935215  0.04579799 -0.06745608  0.01513007  0.24014197 -0.12168647
  0.01719722  0.18755643 -0.05005266  0.06241873 -0.02144077  0.0279689
 -0.07914559  0.04898357 -0.16480875 -0.03130414  0.03255271  0.02571038
  0.01686     0.12689056 -0.19167964  0.05486978  0.07365835  0.00903965
  0.09033579 -0.04028754 -0.02810918 -0.11347125  0.11931237 -0.24574411
  0.14358285  0.1695397   0.01817532  0.10581403  0.0636982   0.0600162
  0.00082455 -0.02279392 -0.21351428  0.01700796  0.12492871  0.00187957
  0.07322258 -0.05570972]