[-1.20724522e-01  6.86189532e-02  1.48689255e-01 -4.34488878e-02
 -8.93535614e-02 -9.09956731e-03 -2.98492773e-03 -1.22461401e-01
  1.78410158e-01 -8.33074227e-02  2.19309643e-01 -4.43995148e-02
 -2.48055726e-01 -8.88326317e-02  1.08029908e-02  2.09972486e-01
 -1.68911919e-01 -1.55180484e-01 -6.07651956e-02 -9.00488533e-03
 -9.73804761e-03  4.49469090e-02  4.87951301e-02  8.60631652e-03
 -1.65007100e-01 -4.10609305e-01 -1.04655184e-01 -5.33757992e-02
  2.60814577e-02  6.70730835e-03 -1.19093969e-01  9.08930227e-02
 -1.82217717e-01 -9.06253457e-02  1.01903178e-01  1.33384153e-01
 -2.29613762e-02 -9.81270671e-02  1.16821505e-01 -1.71943735e-02
 -2.83517599e-01 -3.29217874e-02  6.96366802e-02  2.31077269e-01
  2.13145241e-01  1.57781076e-02  2.72355508e-02 -1.18030310e-01
  1.05379179e-01 -2.16898486e-01 -3.48714809e-03  1.45701811e-01
  4.05809544e-02  5.56042492e-02  2.67540161e-02 -1.51333079e-01
 -7.40696350e-03  1.56324759e-01 -1.28875419e-01 -8.09317678e-02
  1.98225025e-02 -8.55305046e-02  1.47383353e-02 -7.22056031e-02
  1.81414932e-01  4.42489497e-02 -1.30785152e-01 -1.28210321e-01
  1.09378181e-01 -9.13459435e-02  2.38397103e-02  5.57883158e-02
 -2.07250148e-01 -1.85787454e-01 -3.15359324e-01  2.95877457e-04
  4.61566925e-01  4.88020740e-02 -1.28135502e-01  6.00580350e-02
 -1.16612174e-01  3.27418223e-02  6.22283630e-02  1.35561734e-01
 -6.43458357e-03  2.97828559e-02 -6.14889227e-02  3.42899226e-02
  2.15353012e-01 -1.12269893e-01  2.64732968e-02  1.76502451e-01
 -3.83303277e-02  6.72959313e-02  3.95922875e-03  5.53967059e-02
 -7.06476048e-02  4.57297079e-02 -1.20791070e-01 -1.88209619e-02
  2.43898537e-02 -1.57291479e-02  4.87321876e-02  1.27439246e-01
 -2.36586884e-01  8.56958851e-02  7.30139911e-02  1.81065183e-02
  1.01130299e-01 -3.95356342e-02 -2.90417131e-02 -1.15812205e-01
  1.15690611e-01 -2.89557159e-01  1.55742094e-01  2.50286520e-01
 -3.98443006e-02  1.64819911e-01  5.06535061e-02  5.02338111e-02
 -2.05107164e-02 -1.15340203e-02 -1.26732215e-01  4.61465126e-04
  1.19375341e-01 -2.00701114e-02  2.31448896e-02 -2.88814548e-02]