[-5.48259690e-02  7.27295130e-02  7.57499561e-02 -1.25306472e-02
 -6.70384765e-02  4.38865880e-03  4.09691781e-02 -1.43301472e-01
  1.78543314e-01 -9.79888365e-02  2.09237263e-01 -2.21086387e-02
 -2.48935848e-01 -1.11891799e-01  7.91222379e-02  1.16465978e-01
 -1.96044698e-01 -1.39230788e-01 -4.28156927e-02 -3.48633602e-02
  4.25244719e-02  8.37081820e-02  2.47583550e-04  1.03169605e-02
 -1.95915744e-01 -3.92043680e-01 -9.12880823e-02 -9.56643745e-02
  5.93593493e-02 -2.61117313e-02 -8.27950165e-02  1.31418273e-01
 -1.42842680e-01 -6.50744811e-02  6.86943755e-02  8.53624493e-02
 -4.18347977e-02 -8.69186148e-02  1.45533338e-01  1.42904893e-02
 -2.36230373e-01  8.90082400e-03  1.10956570e-02  2.42964134e-01
  2.18571067e-01 -3.74167413e-02  2.67985254e-03 -8.63718092e-02
  1.19389705e-01 -2.09782124e-01 -1.43773621e-02  1.65462598e-01
  7.12449700e-02  7.27186799e-02  7.42131695e-02 -1.34069860e-01
 -3.19992863e-02  6.79099038e-02 -2.04167277e-01 -3.04358248e-02
  8.15599505e-03 -1.15986384e-01  2.31917687e-02 -5.96874021e-02
  8.39136392e-02  3.04478202e-02 -7.82026947e-02 -1.17555819e-01
  1.14772320e-01 -1.73552498e-01 -6.66514859e-02  5.87778464e-02
 -1.68119550e-01 -2.02045307e-01 -3.04719746e-01  2.26572898e-04
  3.68831486e-01  1.26368150e-01 -1.64927363e-01  4.33454327e-02
 -3.14689167e-02 -2.61841062e-02  1.20077111e-01  1.12480156e-01
 -4.58705937e-03  9.75049753e-03 -5.25130145e-02  7.29516372e-02
  2.02636793e-01 -5.85234053e-02 -3.14534642e-02  2.38635421e-01
 -3.43406796e-02  6.46244735e-02  5.81982844e-02  3.77156250e-02
 -3.72650735e-02  1.70996543e-02 -1.26983419e-01 -1.09615121e-02
  6.57558516e-02 -6.84813410e-02  3.42447273e-02  1.53192177e-01
 -2.07138568e-01  1.47109210e-01  4.39463630e-02  1.34000019e-03
  5.47268353e-02 -6.74701259e-02 -7.54938051e-02 -1.28895519e-02
  1.46480516e-01 -2.77363151e-01  1.80074483e-01  2.16771364e-01
 -3.35669257e-02  1.40968621e-01 -7.19924225e-03 -2.13381257e-02
 -4.75809909e-02 -6.75439686e-02 -1.79129645e-01 -5.40285595e-02
  9.86001268e-02 -4.84257936e-03  1.34223197e-02 -4.05518599e-02]