[-0.13246466  0.09401431  0.12939686 -0.05505058 -0.0922851  -0.0206825
 -0.02235912 -0.12041664  0.19317569 -0.08160555  0.22556897 -0.03598288
 -0.24318306 -0.10325239  0.00763418  0.21426657 -0.19761032 -0.14585516
 -0.04583401 -0.00774778  0.01493604  0.06353685  0.05609692  0.01794607
 -0.1751717  -0.41631457 -0.10638618 -0.04887781  0.03376765  0.01120561
 -0.1030875   0.09334251 -0.17788911 -0.09504955  0.09984592  0.15188478
 -0.02517103 -0.10320945  0.11624192 -0.01249885 -0.28816098 -0.02450496
  0.07360872  0.25320736  0.20816088 -0.00230944  0.03551782 -0.12963957
  0.11484341 -0.1914127  -0.00478317  0.15423025  0.05000883  0.0519986
  0.05468422 -0.13760316  0.00879989  0.14759459 -0.1316559  -0.0964723
  0.02562145 -0.07646138  0.0355591  -0.0833969   0.17297867  0.03879846
 -0.11432624 -0.15815032  0.0995041  -0.0966612  -0.00885598  0.07464971
 -0.20523922 -0.17459595 -0.34375343 -0.0214274   0.44298369  0.0519901
 -0.12648785  0.08319465 -0.09225369  0.00300948  0.07297757  0.16339116
 -0.00058931  0.04659673 -0.07552112  0.04176439  0.21851985 -0.11517566
  0.01521435  0.17932777 -0.01948641  0.07099845  0.01112595  0.0447234
 -0.08994748  0.05877955 -0.11481541 -0.02089621  0.03533397 -0.00575655
  0.04125025  0.1276416  -0.22307959  0.09015598  0.07770329  0.02434859
  0.08740556 -0.03730493 -0.03637559 -0.11054688  0.11229108 -0.28532901
  0.16256097  0.23246193 -0.04002461  0.15661617  0.05778281  0.04819342
 -0.03235267 -0.00621107 -0.12262142  0.00123595  0.10660619 -0.03015296
  0.03879211 -0.02753113]