[-0.08946256  0.08172863  0.10414702  0.01396849 -0.09391794 -0.08758864
 -0.0020839  -0.15824232  0.1211808  -0.11967998  0.17805243 -0.04565847
 -0.22232835 -0.0271007   0.01604581  0.19491793 -0.13479547 -0.12637687
 -0.11826123 -0.01261683 -0.00616042  0.03392708  0.0867461   0.01560277
 -0.10255273 -0.39084679 -0.08617448 -0.07279439  0.01236968  0.02136162
 -0.11441188  0.058051   -0.17786224 -0.09064626  0.10940701  0.14210115
 -0.07693337 -0.06114184  0.19062482 -0.01661617 -0.28742346  0.00639302
  0.07517707  0.23120101  0.25306401  0.01075419  0.01412704 -0.11597753
  0.11779699 -0.24583617  0.02160791  0.11050475  0.04331157  0.09728838
  0.06053461 -0.12922603  0.02209871  0.10928299 -0.11971187 -0.09909823
  0.07353647 -0.09995143  0.00432644 -0.06630921  0.20884907  0.05805121
 -0.11655679 -0.0814829   0.09333643 -0.16720641 -0.0216712   0.01707943
 -0.14996877 -0.15488981 -0.32241157 -0.00964134  0.4634625   0.11702367
 -0.14247514  0.02976532 -0.08931869  0.00386044  0.08483592  0.10686608
 -0.01734529  0.03718859 -0.05789978  0.02513362  0.21549916 -0.10779832
 -0.00123884  0.15898053 -0.02516571  0.07620539  0.04236944  0.03282136
 -0.10567143 -0.02651444 -0.19283013 -0.0416789  -0.00946772 -0.04765517
  0.02487482  0.12190576 -0.24146672  0.13094996  0.01565976 -0.0186521
  0.0593197  -0.00254366 -0.06089301 -0.07295795  0.09992675 -0.2166456
  0.19013561  0.22593808 -0.03833394  0.15263599  0.06431372  0.03797873
 -0.05079935  0.02479512 -0.15657727 -0.06190546  0.10897     0.03829212
  0.06899234 -0.01365198]