[-1.32549524e-01  9.71900001e-02  1.27512798e-01 -6.22751191e-02
 -1.01954497e-01 -1.85510225e-03 -6.03989065e-02 -1.32840812e-01
  1.69973224e-01 -8.82044807e-02  1.97887331e-01 -3.96422595e-02
 -2.49236137e-01 -7.49939084e-02 -1.78246072e-03  2.34129742e-01
 -1.74502432e-01 -1.47180438e-01 -8.44308436e-02 -1.67632978e-02
  3.22630676e-03  7.31178895e-02  3.10979728e-02 -1.00893937e-02
 -1.42956004e-01 -4.12748247e-01 -1.10499516e-01 -6.72786981e-02
  9.61314701e-03  7.44399009e-03 -1.12768464e-01  5.65724745e-02
 -1.50314882e-01 -8.40026289e-02  1.13893107e-01  1.41185254e-01
 -3.90833132e-02 -7.74967894e-02  1.10445276e-01 -3.66782434e-02
 -3.00545633e-01  1.73547864e-03  1.23756580e-01  2.20874071e-01
  2.49877796e-01  4.82852943e-02  2.23600902e-02 -1.52840763e-01
  1.12494864e-01 -1.88708827e-01  6.92956150e-04  1.20883681e-01
  5.68695553e-02  6.66957498e-02  6.45892397e-02 -1.50257438e-01
 -4.56542533e-04  1.48303986e-01 -1.46170676e-01 -9.19311345e-02
  5.36124781e-02 -1.21350728e-01 -1.91522520e-02 -7.03988373e-02
  2.03522548e-01  6.10987060e-02 -1.36326373e-01 -1.56029969e-01
  1.33052588e-01 -1.13461696e-01 -1.59403570e-02  4.52354215e-02
 -1.69325098e-01 -1.58991367e-01 -3.32609236e-01 -2.44691465e-02
  4.50368851e-01  5.02519570e-02 -1.54982969e-01  7.39615187e-02
 -7.09867775e-02  1.77401304e-02  7.65799358e-02  1.45507216e-01
 -1.79814510e-02  6.63393736e-03 -6.63333163e-02  1.72244280e-03
  2.17821077e-01 -1.17245279e-01  6.31800145e-02  1.67248219e-01
 -1.64702814e-02  6.40511289e-02  1.70398187e-02  8.43505785e-02
 -1.18488781e-01  2.73642484e-02 -1.40431941e-01 -5.35487123e-02
  3.72075103e-02 -9.60525777e-03  5.62386774e-02  1.21299461e-01
 -2.12156415e-01  1.14768736e-01  5.75036071e-02  1.92169156e-02
  8.67630616e-02 -4.14181910e-02 -1.98656111e-03 -1.03043489e-01
  1.33184671e-01 -2.62274712e-01  1.52595505e-01  2.18241006e-01
 -4.68786396e-02  1.62219882e-01  8.28324482e-02  8.06783065e-02
 -4.21590097e-02 -5.97695587e-03 -1.76682264e-01 -2.13674046e-02
  1.03960969e-01 -2.28789244e-02  4.87936847e-02  5.62533751e-05]