[-0.05914794  0.05408871  0.10005675 -0.05297038 -0.0736053  -0.04881534
 -0.00050332 -0.15567835  0.14487894 -0.03802881  0.21116605 -0.03416661
 -0.25752926 -0.08936124  0.03951893  0.17513204 -0.14001873 -0.12598501
 -0.07957173 -0.02988976 -0.01140133  0.00845466  0.05233352  0.02182191
 -0.18024576 -0.33395576 -0.11894079 -0.05805748 -0.00128558  0.00885569
 -0.04990025  0.09782638 -0.15052702 -0.0387032   0.12791352  0.12441313
 -0.0622582  -0.11106986  0.1744152  -0.01704413 -0.27961001 -0.0292035
  0.04572161  0.21823183  0.22960043  0.00661124  0.04575156 -0.10672494
  0.14019664 -0.2016131   0.06998873  0.14412938  0.04403519  0.02473093
  0.0459924  -0.14123566 -0.01109607  0.18784358 -0.1740851  -0.06135915
  0.06147733 -0.11783653 -0.0509157  -0.06333379  0.14336707  0.11411597
 -0.16177943 -0.11219907  0.16983791 -0.10972011  0.00753073  0.07624754
 -0.20270865 -0.20449241 -0.29540214  0.00747402  0.47607842  0.06325921
 -0.16982388 -0.01045494 -0.05633185  0.05790535  0.12206598  0.13974017
 -0.00880824 -0.01649239 -0.07699539  0.03597092  0.21697846 -0.10382872
 -0.02626016  0.19662814 -0.02242865  0.05076898 -0.00522197  0.05692222
 -0.0356069   0.01995539 -0.13602012 -0.02634178  0.07015187  0.00278044
  0.03481717  0.13849455 -0.17338659  0.11165481  0.09100096  0.02365039
  0.07154714 -0.06441667 -0.04361702 -0.09359121  0.11930121 -0.27131304
  0.16097839  0.18117806 -0.03888524  0.11395258  0.03191915  0.04789744
  0.01659139 -0.08187333 -0.16383955 -0.01610414  0.10075606  0.02489064
  0.05190722 -0.03518237]