[-0.14709149  0.04704067  0.12951019 -0.05801512 -0.10860145 -0.01988956
  0.00209222 -0.134701    0.17816728 -0.02626625  0.1985371   0.00712287
 -0.25338489 -0.05732156  0.04517516  0.16396666 -0.15096089 -0.11061586
 -0.0986663  -0.02532294 -0.02473716  0.05054039  0.07684835  0.03920354
 -0.17451018 -0.39188924 -0.10560371 -0.06896251 -0.02245458  0.03748956
 -0.06097231  0.11343709 -0.16531245 -0.1168467   0.09855594  0.14330225
 -0.0741317  -0.0969248   0.14125395  0.00278867 -0.25412413 -0.04147461
  0.06687292  0.2583544   0.23250981 -0.01888849  0.07486621 -0.09292448
  0.13361596 -0.2446724  -0.00150488  0.14831159  0.05374587  0.0392614
  0.08799972 -0.13317344  0.01408234  0.16774659 -0.15442453 -0.03722009
  0.02634123 -0.08003853  0.02216945 -0.08899378  0.15554823  0.07260122
 -0.12014908 -0.10477225  0.10972501 -0.08283886  0.0025795   0.07828461
 -0.23169084 -0.22811344 -0.32604969 -0.01705004  0.47173104  0.07191121
 -0.13242598  0.02608383 -0.12784407  0.00412383  0.05008703  0.1161366
  0.00396465  0.02079314 -0.06710397  0.05405494  0.22077568 -0.0965931
  0.0184235   0.2257525   0.01331332  0.02965095  0.0183832   0.06873512
 -0.07910355  0.03136702 -0.1531923  -0.01298229  0.00945045 -0.0294521
  0.08528777  0.0885829  -0.23016511  0.1065879   0.07815401  0.02713524
  0.05569456 -0.07272648 -0.0656808  -0.09138852  0.15010636 -0.274353
  0.12167387  0.22886661 -0.05552336  0.15239923  0.01577706  0.02885471
 -0.03987741 -0.00766617 -0.10052613  0.01144833  0.09002423  0.00535446
  0.00867328 -0.00230525]