[-4.93318029e-02  4.90298942e-02  1.00277357e-01 -5.36549352e-02
 -6.80977926e-02 -5.85480407e-02  3.69462627e-03 -1.51237011e-01
  1.41458377e-01 -5.24034463e-02  2.03768536e-01 -5.82742169e-02
 -2.63768584e-01 -7.23717734e-02  4.77148108e-02  1.71597168e-01
 -1.45557612e-01 -1.47879705e-01 -7.56289512e-02 -5.36597334e-02
 -3.02473251e-02  6.89222058e-03  3.46637629e-02  1.75537858e-02
 -1.95136949e-01 -3.48186493e-01 -9.93384421e-02 -6.17009699e-02
 -2.27825064e-02  3.15647945e-02 -3.81174013e-02  1.25252709e-01
 -1.53461024e-01 -3.63026001e-02  1.32469103e-01  1.39099643e-01
 -5.12497425e-02 -1.11390270e-01  1.83800459e-01 -9.55340359e-03
 -2.66041726e-01 -4.10987698e-02  5.40357232e-02  2.36336753e-01
  2.09860995e-01 -1.69234481e-02  3.42960060e-02 -8.18562731e-02
  1.33127734e-01 -2.06795499e-01  5.43585420e-02  1.47648185e-01
  5.52659445e-02  2.69493144e-02  5.07705919e-02 -1.40578389e-01
  7.92237651e-03  1.82057545e-01 -1.91944703e-01 -8.07365030e-02
  5.98234013e-02 -1.21751547e-01 -4.80457433e-02 -7.54087344e-02
  1.60361871e-01  1.09653465e-01 -1.51146412e-01 -8.90434310e-02
  1.61985815e-01 -1.00366138e-01  4.62873979e-03  4.38768342e-02
 -1.99210525e-01 -1.96513742e-01 -3.00901741e-01 -6.41964361e-05
  4.46526617e-01  6.50753751e-02 -1.69044837e-01  1.07277203e-02
 -4.66088951e-02  5.19298390e-02  1.27478272e-01  1.20059073e-01
 -1.39497491e-02 -3.90524301e-03 -6.65351003e-02  4.19594310e-02
  2.07665682e-01 -9.08818543e-02 -3.20878588e-02  1.77509755e-01
 -3.82784978e-02  3.83605920e-02  9.82987043e-03  2.92406622e-02
 -3.99374701e-02  1.74367484e-02 -1.50391087e-01 -1.02850972e-02
  5.50166033e-02 -1.18893217e-02  2.79022548e-02  1.28557429e-01
 -2.00081781e-01  9.53470990e-02  9.46242586e-02  7.56902853e-03
  6.50299117e-02 -5.76260202e-02 -5.02216518e-02 -9.27738026e-02
  1.26176044e-01 -2.84275264e-01  1.42621309e-01  1.84056878e-01
 -4.54291813e-02  1.35716990e-01  3.08057070e-02  2.07654219e-02
  6.19061803e-03 -7.43638203e-02 -1.76392645e-01 -2.23542731e-02
  1.01882569e-01  3.11967377e-02  4.94386367e-02 -2.14029457e-02]