[-0.12144569  0.07177866  0.15370598 -0.06183871 -0.10747726  0.00863655
 -0.01295176 -0.12794724  0.17436285 -0.09991125  0.20586085 -0.05681147
 -0.25377321 -0.07233255 -0.00519199  0.21291517 -0.17493759 -0.17712474
 -0.05919891 -0.02159352 -0.0073592   0.05887169  0.02268517  0.01612507
 -0.17836906 -0.40494218 -0.08228164 -0.04665551  0.00449038 -0.01533574
 -0.10280998  0.09514006 -0.1823595  -0.07862653  0.08596516  0.14762604
 -0.01995475 -0.11364933  0.11688861 -0.02111925 -0.29372758 -0.02681128
  0.07580849  0.23800047  0.20818181 -0.01326042  0.01285256 -0.10446548
  0.1246196  -0.22138861 -0.03272757  0.14952628  0.03790423  0.04889256
  0.03323781 -0.13875695  0.01121102  0.14234799 -0.13544241 -0.09772988
  0.02468732 -0.10289841  0.0348563  -0.07416421  0.16643645  0.02677757
 -0.10320836 -0.1307724   0.11105748 -0.08721558  0.00423033  0.05325365
 -0.20673572 -0.17413297 -0.3293643  -0.01417931  0.4542377   0.0555191
 -0.11670144  0.08626023 -0.09294575  0.03968146  0.06995865  0.12220043
 -0.00679606  0.04557322 -0.0658704   0.06275812  0.21908326 -0.09806851
  0.01259247  0.16334163 -0.03036954  0.05882604  0.03030694  0.05234716
 -0.0702481   0.04953488 -0.12727511  0.00153114  0.03220096 -0.00593501
  0.06158283  0.13269277 -0.22810034  0.08672088  0.06461338  0.01591723
  0.08118828 -0.03064333 -0.03921017 -0.0964577   0.12316629 -0.28744251
  0.13850737  0.23886989 -0.0459327   0.15525189  0.05576283  0.02603194
 -0.03583939 -0.00755657 -0.13158749 -0.01376587  0.12409989 -0.01928542
  0.04838301 -0.01565899]