[-0.101468    0.02180986  0.07157352 -0.06785781 -0.08386055 -0.07386466
 -0.0378393  -0.16104388  0.17461088 -0.09973165  0.27184907 -0.08247529
 -0.24257055 -0.06679714 -0.02417509  0.23399685 -0.21495061 -0.13166372
 -0.0534143  -0.03257564  0.00589381  0.01793536  0.04784357  0.02082653
 -0.15260355 -0.40274867 -0.11217073 -0.06541761  0.01349684  0.00789149
 -0.09057544  0.10184926 -0.17395718 -0.08327512  0.11816522  0.1383494
 -0.01169297 -0.11991812  0.1663675  -0.01459394 -0.26933932  0.00892312
  0.08793048  0.24211276  0.18263732  0.00811504  0.03387078 -0.1793952
  0.14986783 -0.15512976  0.00250542  0.10575598  0.03738365  0.0323846
  0.03214748 -0.12305947  0.00863546  0.15245694 -0.15221427 -0.10098126
  0.0789089  -0.08259708 -0.01145178 -0.12119343  0.20293954  0.07070247
 -0.13398969 -0.12461833  0.13267286 -0.090234   -0.02382179  0.03139245
 -0.18726473 -0.17786604 -0.33819175 -0.03984063  0.42046043  0.03256265
 -0.16291995  0.06621559 -0.04130015  0.01762902  0.14343445  0.1681367
  0.0274632   0.05277938 -0.07842986  0.01712825  0.24013527 -0.11452144
  0.00677761  0.16622649 -0.03138021  0.07775421  0.03993715  0.06755655
 -0.10991707  0.01961805 -0.16998954 -0.02091324  0.02521551  0.03564306
  0.02041075  0.10031394 -0.16682112  0.08302294  0.06597873  0.00051306
  0.05524013 -0.05218359 -0.00317148 -0.1105377   0.08607781 -0.2669073
  0.15072088  0.18438332  0.00172257  0.16265179  0.04488571  0.03709859
 -0.05789497 -0.00878005 -0.18406296 -0.01249789  0.09725162  0.02304056
  0.0794931  -0.03379025]