[-1.35026738e-01  4.24132161e-02  1.22921191e-01 -4.30590361e-02
 -1.20498262e-01 -1.91826206e-02  4.29195864e-03 -1.30689368e-01
  1.76125824e-01 -4.99344133e-02  2.07482815e-01 -3.13721976e-04
 -2.70644873e-01 -5.95709458e-02  3.03208828e-02  1.83471829e-01
 -1.45950899e-01 -1.02387898e-01 -9.93474722e-02 -1.82655994e-02
 -1.49266524e-02  8.27480406e-02  8.09620842e-02  1.95213798e-02
 -1.66589946e-01 -4.00040627e-01 -9.25326869e-02 -6.32966384e-02
 -2.02991404e-02  4.02181074e-02 -6.92684650e-02  1.28313407e-01
 -1.59798428e-01 -1.18290678e-01  1.13064341e-01  1.14874341e-01
 -6.61323294e-02 -7.74871483e-02  1.46807656e-01  1.54891880e-02
 -2.67086983e-01 -3.36875729e-02  7.19063357e-02  2.63439208e-01
  2.19054580e-01 -1.89507212e-02  6.81266114e-02 -1.18041851e-01
  1.08677380e-01 -2.49418408e-01 -1.89572275e-02  1.41289353e-01
  5.58923297e-02  3.85360382e-02  7.78494924e-02 -1.41754434e-01
  1.10256160e-02  1.52376235e-01 -1.50329664e-01 -4.31964360e-02
  4.30823229e-02 -5.70648797e-02  9.16770939e-03 -7.92563781e-02
  1.71613470e-01  4.89317477e-02 -1.38842478e-01 -1.09890655e-01
  9.08116847e-02 -9.65904593e-02 -5.44142816e-03  7.66801462e-02
 -2.28348717e-01 -2.25753099e-01 -3.38787258e-01 -2.49931011e-02
  4.53577012e-01  7.03833401e-02 -1.47014514e-01  1.97696500e-02
 -1.10525824e-01  2.00401749e-02  6.68914244e-02  1.32067829e-01
 -2.54595955e-03  2.26427224e-02 -4.51094173e-02  4.96501625e-02
  2.03884110e-01 -1.01718798e-01  1.11461096e-02  2.44415000e-01
  2.62184087e-02  4.34217528e-02  1.53522715e-02  6.94546029e-02
 -6.95018843e-02  1.66514535e-02 -1.54606655e-01 -3.31828534e-03
  1.42389340e-02 -2.15608235e-02  9.20701623e-02  1.14356637e-01
 -2.28231236e-01  1.14163391e-01  5.53042181e-02  2.64827069e-02
  7.47602507e-02 -6.36884347e-02 -5.89304343e-02 -9.48167294e-02
  1.33404002e-01 -2.66411304e-01  1.20917454e-01  2.35826999e-01
 -4.61946018e-02  1.39761060e-01  2.93233003e-02  1.77434720e-02
 -4.06005196e-02  1.34876762e-02 -1.18291795e-01  8.15074053e-03
  9.85022858e-02 -2.51098927e-02  6.15917426e-03 -2.17300784e-02]