[-1.29563451e-01  4.66616936e-02  1.52680784e-01 -4.82095592e-02
 -1.04487970e-01 -6.60380861e-03  1.53473197e-02 -1.38854250e-01
  1.90152347e-01 -4.06347923e-02  1.89665616e-01 -9.87573620e-03
 -2.56952822e-01 -5.02663516e-02  4.95051928e-02  1.75907508e-01
 -1.48388624e-01 -1.15093254e-01 -1.08872049e-01 -2.38754749e-02
 -3.07764001e-02  5.55643998e-02  7.01785237e-02  2.08939500e-02
 -1.85843959e-01 -3.87439340e-01 -1.02684356e-01 -6.90086931e-02
 -3.95020191e-03  4.06991392e-02 -6.88880309e-02  1.33121893e-01
 -1.63640976e-01 -1.17072128e-01  8.86651278e-02  1.24532878e-01
 -7.86819234e-02 -1.06277920e-01  1.60240591e-01  6.04192493e-03
 -2.63419241e-01 -1.69127025e-02  5.65867908e-02  2.62942016e-01
  2.39306688e-01 -2.80286614e-02  7.14830235e-02 -8.77111703e-02
  1.29884809e-01 -2.67291188e-01 -1.95504408e-02  1.54341191e-01
  3.86626236e-02  5.26132099e-02  8.47500637e-02 -1.37756377e-01
  1.24256825e-02  1.55043319e-01 -1.66776821e-01 -2.21906863e-02
  3.49091254e-02 -9.03628021e-02  2.53872667e-02 -8.35658535e-02
  1.46240905e-01  6.45065978e-02 -1.19805098e-01 -1.03463247e-01
  1.08462326e-01 -8.10844451e-02  1.68368910e-02  8.39677751e-02
 -2.38702655e-01 -2.20705196e-01 -3.31706733e-01 -1.60551593e-02
  4.75796849e-01  7.16143027e-02 -1.36488140e-01  1.71282031e-02
 -1.26550004e-01  6.02054363e-03  5.58215193e-02  1.18561678e-01
  1.75852664e-02 -5.81873301e-03 -5.53660505e-02  5.84279187e-02
  2.20677286e-01 -1.02760151e-01  1.65080167e-02  2.36601785e-01
  2.12193485e-02  1.35828024e-02 -5.39695239e-03  7.80831650e-02
 -7.86187425e-02  2.27888953e-02 -1.50441751e-01 -5.53775905e-03
  1.83108430e-02 -2.16706153e-02  8.87326822e-02  1.09129302e-01
 -2.34716654e-01  1.27496704e-01  7.19373673e-02  2.44866963e-02
  6.29071817e-02 -7.70231783e-02 -6.01724647e-02 -7.08388910e-02
  1.56949535e-01 -2.73179948e-01  1.17700934e-01  2.38933355e-01
 -6.47167936e-02  1.35303482e-01  6.74683601e-03  2.25379206e-02
 -4.39374819e-02  7.20352773e-03 -1.10325672e-01 -3.96906445e-03
  8.70315880e-02  7.09085912e-03 -2.10495855e-04  3.16769700e-03]