[-0.04061777  0.05197158  0.07775601 -0.0017557  -0.04602765 -0.02913136
  0.0102893  -0.14255571  0.17284611 -0.07834425  0.20644461 -0.04065853
 -0.20677248 -0.1383691   0.06331717  0.13936268 -0.19516072 -0.14752673
 -0.05589962 -0.01736071  0.04830396  0.04732134  0.01470969  0.02009496
 -0.18472119 -0.38843408 -0.0931678  -0.10739195  0.05065677 -0.02471319
 -0.10817891  0.10782015 -0.16263777 -0.09099121  0.0738918   0.09275018
 -0.02615956 -0.07820312  0.15240021  0.01072112 -0.26572117  0.01398832
  0.0178495   0.21672359  0.23547225 -0.0038455   0.00254434 -0.09770752
  0.13720682 -0.17785862 -0.01979663  0.16361956  0.07805502  0.06273995
  0.04109183 -0.11571877 -0.02486867  0.07832597 -0.18333215 -0.05220429
  0.01935147 -0.12030001  0.00613394 -0.04768948  0.09742872  0.02471399
 -0.07374594 -0.1260128   0.11640828 -0.1582378  -0.05338813  0.06191149
 -0.1724292  -0.19766687 -0.31265438 -0.0100608   0.40061361  0.08334178
 -0.17889658  0.04835176 -0.04434463 -0.00744613  0.13336079  0.12120321
  0.00512929  0.03801864 -0.0640473   0.0440456   0.20934489 -0.07955054
 -0.008738    0.20118184 -0.03786887  0.09174557  0.05309919  0.02517422
 -0.02808226  0.04372022 -0.13941716 -0.01489855  0.06698278 -0.01911766
  0.03914266  0.12290732 -0.17916806  0.10915463  0.06154783  0.00644368
  0.06209794 -0.0511216  -0.07243155 -0.06691607  0.13286287 -0.25184366
  0.16429225  0.21907333 -0.02294785  0.12472258  0.01978113  0.00984959
 -0.0465917  -0.04972263 -0.18869999 -0.02334188  0.11587139  0.01281017
  0.0294535  -0.05297957]