[-1.59904763e-01  8.24998394e-02  1.27986014e-01 -3.97198312e-02
 -1.23370387e-01 -3.08056865e-02 -1.09400731e-02 -1.26612946e-01
  1.47918388e-01 -4.06458415e-02  1.93694457e-01 -4.47124653e-02
 -2.29203746e-01 -7.18465075e-02  2.38284711e-02  1.83605000e-01
 -1.23264432e-01 -1.35616824e-01 -6.74275607e-02 -4.83527919e-03
  1.86699759e-02  3.48179750e-02  2.49554235e-02  2.90354621e-02
 -1.58230886e-01 -3.70667428e-01 -1.27364978e-01 -5.42286299e-02
  2.24480350e-02  6.16677897e-03 -1.10846341e-01  5.82996123e-02
 -1.63743258e-01 -1.09916329e-01  1.10018075e-01  1.55382797e-01
 -6.03043623e-02 -9.73019004e-02  1.14438377e-01 -4.91859913e-02
 -2.82468408e-01 -1.66494772e-02  1.00037888e-01  2.28305534e-01
  2.45055750e-01  3.37486081e-02  3.86975668e-02 -1.09587923e-01
  1.14050843e-01 -1.98298723e-01  2.83470433e-02  1.37426659e-01
  7.51611218e-02  5.04887812e-02  7.52181038e-02 -1.50228187e-01
  3.17277061e-03  1.74653053e-01 -1.53181717e-01 -7.70851821e-02
  1.01723867e-02 -8.67634118e-02  1.31180724e-02 -6.59015998e-02
  1.65638983e-01  7.29267374e-02 -1.13296799e-01 -1.17086567e-01
  1.29385695e-01 -1.14706650e-01  7.63140852e-03  6.01111017e-02
 -1.88804924e-01 -1.98916048e-01 -3.14122677e-01 -6.33032015e-03
  4.64984328e-01  6.41376525e-02 -1.50933817e-01  7.80005530e-02
 -7.49893486e-02  1.53650194e-02  7.66625777e-02  1.20111957e-01
 -1.48284584e-02  1.44049022e-02 -8.11577663e-02  2.34668832e-02
  2.20451191e-01 -1.16112247e-01  5.11115305e-02  1.71009034e-01
 -5.55770099e-03  2.97830533e-02  2.88289543e-02  6.94961846e-02
 -7.75380358e-02  2.49032155e-02 -1.16335429e-01 -4.80514430e-02
  4.59955893e-02 -3.50747965e-02  4.71305810e-02  1.08747616e-01
 -2.50555724e-01  9.63613540e-02  8.01865384e-02  2.38649752e-02
  4.27628122e-02 -8.25184062e-02 -2.57006884e-02 -6.60642013e-02
  1.26786098e-01 -2.81538576e-01  1.56808540e-01  2.10740447e-01
 -9.63904411e-02  1.66570276e-01  5.12963906e-02  4.07938063e-02
 -3.28520616e-03 -3.61627713e-02 -1.14647977e-01 -1.18714822e-02
  1.14693694e-01 -1.59598198e-02  4.76964898e-02  2.24489719e-04]