[-1.05895951e-01  3.89181226e-02  1.22953869e-01 -1.83904846e-03
 -7.34254047e-02 -6.84205741e-02  3.33577618e-02 -1.52385026e-01
  1.63273260e-01 -1.06539838e-01  1.98645011e-01 -7.93265924e-02
 -2.57787168e-01 -6.82500601e-02  2.58443784e-02  2.11699054e-01
 -1.58705711e-01 -1.20835654e-01 -9.06655565e-02 -2.51285732e-02
  2.14082561e-02  1.90644898e-02  2.54040547e-02  2.51278561e-02
 -8.96674171e-02 -4.04807389e-01 -9.67780948e-02 -7.43220374e-02
  3.60004306e-02  1.98382363e-02 -9.60742161e-02  9.48091745e-02
 -1.76666230e-01 -1.13984779e-01  7.68801197e-02  1.24816395e-01
 -3.76523659e-02 -8.32558200e-02  1.32713884e-01 -2.92722974e-02
 -2.75398463e-01 -3.24320495e-02  5.19635193e-02  1.99899644e-01
  2.15216681e-01  1.78786106e-02  2.82078516e-02 -1.31633505e-01
  8.96183774e-02 -2.04489753e-01 -3.59208770e-02  1.08259134e-01
  8.91060904e-02  5.57135716e-02  4.25252616e-02 -1.89546108e-01
 -4.38138115e-04  8.44559297e-02 -1.39158368e-01 -8.41723680e-02
  2.02877428e-02 -9.04082209e-02  1.02282977e-02 -4.42317314e-02
  1.59132436e-01  1.68999974e-02 -1.00108080e-01 -7.96900541e-02
  1.48362428e-01 -1.49389029e-01  2.76495218e-02  2.91937720e-02
 -1.67341292e-01 -1.92589998e-01 -3.17527533e-01 -4.87603061e-02
  4.55163538e-01  6.32797405e-02 -1.72909856e-01  3.32456939e-02
 -1.02682114e-01  1.21372826e-02  1.02240324e-01  1.40572816e-01
  1.00986315e-02  3.86249088e-02 -6.74190819e-02  1.96116548e-02
  1.78824574e-01 -1.22889660e-01  3.25877182e-02  1.89599380e-01
 -1.67693589e-02  6.67651370e-02  1.87080633e-02  2.31785122e-02
 -6.45974874e-02  2.22228393e-02 -1.47463262e-01 -4.70169671e-02
  1.24226874e-02 -2.72358302e-02  3.98189090e-02  1.03527725e-01
 -2.37968117e-01  1.02861099e-01  6.67644218e-02  8.84724874e-03
  6.56360313e-02 -3.50794569e-02 -3.86965834e-02 -8.64325389e-02
  1.37392744e-01 -2.29793593e-01  1.24010436e-01  2.67910093e-01
 -7.29678497e-02  1.64575636e-01  2.45306473e-02  5.01313917e-02
 -2.86418796e-02 -3.53855081e-02 -1.80537105e-01  2.01585150e-04
  9.22347754e-02 -3.95269785e-03  2.19576783e-03 -2.21129935e-02]