[-1.13308847e-01  3.83563749e-02  1.25619352e-01  1.81407190e-03
 -8.72092843e-02 -7.43756518e-02  3.71382795e-02 -1.83042273e-01
  1.34994373e-01 -1.04268551e-01  2.20200300e-01 -3.84253822e-02
 -2.20575258e-01 -1.05016544e-01  3.13991830e-02  1.76757291e-01
 -1.66255459e-01 -1.27218708e-01 -8.56717080e-02 -2.55918335e-02
  2.12965344e-04  2.40660589e-02  3.09468843e-02  4.57755290e-03
 -8.80680904e-02 -3.94200236e-01 -9.48150828e-02 -9.99869034e-02
  5.52760921e-02  2.91226781e-03 -6.59954175e-02  8.15829262e-02
 -1.83157250e-01 -1.12344101e-01  5.47155514e-02  1.19685791e-01
 -2.94507351e-02 -6.31870851e-02  1.53398722e-01 -2.81884577e-02
 -2.48628095e-01 -3.32232080e-02  4.08674218e-02  1.90287098e-01
  2.24977523e-01 -2.24489775e-02  1.80846043e-02 -9.77627710e-02
  7.43823871e-02 -1.95296928e-01 -5.67260757e-02  9.50047672e-02
  6.54746294e-02  4.99767140e-02  3.93501595e-02 -1.63527176e-01
 -1.59660075e-02  6.05021082e-02 -1.38309598e-01 -7.81754777e-02
 -7.34402612e-03 -1.30790353e-01 -8.67194869e-03 -3.27423140e-02
  1.56054482e-01 -2.63300189e-03 -7.80811682e-02 -7.49583468e-02
  1.34853557e-01 -1.53019950e-01  2.69455696e-03  2.06643920e-02
 -1.57400891e-01 -1.51170999e-01 -3.26251239e-01 -4.19298597e-02
  4.52712864e-01  4.36454006e-02 -1.71231404e-01  4.96213883e-02
 -1.17824234e-01 -2.58223303e-02  7.75360093e-02  1.13297991e-01
  3.08425929e-02  4.54439521e-02 -6.45937771e-02  2.97464617e-02
  1.65237233e-01 -1.08333044e-01  3.63895558e-02  1.79155216e-01
 -4.37202863e-02  8.31000209e-02  4.55139168e-02  1.28976451e-02
 -4.97664399e-02  6.36358571e-04 -1.31027982e-01 -4.59802449e-02
  1.69751830e-02 -5.49992882e-02  4.88274172e-02  9.73554328e-02
 -2.29677543e-01  9.30897370e-02  6.58655688e-02 -1.89429708e-03
  6.87022060e-02 -4.81775329e-02 -3.79628055e-02 -7.77118877e-02
  1.56959996e-01 -2.23145589e-01  1.64326906e-01  2.68526316e-01
 -8.88797641e-02  1.64921790e-01  2.64440030e-02  2.48572063e-02
 -6.45445734e-02 -1.38588641e-02 -1.56995356e-01 -6.81924168e-03
  6.36171624e-02 -1.16904303e-02  1.20458575e-02 -2.07276773e-02]