[-1.22262120e-01  6.04231842e-02  1.10850073e-01 -5.15902741e-03
 -1.25124082e-01  4.32599336e-03 -6.54370943e-03 -1.00641489e-01
  1.03696086e-01 -9.01156813e-02  2.31065020e-01 -6.01805523e-02
 -2.76311010e-01 -8.16045552e-02  1.60294622e-02  1.96242318e-01
 -1.30739316e-01 -1.27024069e-01 -8.69574994e-02 -4.31646593e-04
 -9.43277776e-03  1.35315647e-02  1.14144422e-02 -1.48255173e-02
 -1.29310966e-01 -3.96718621e-01 -7.66567811e-02 -3.72981541e-02
 -6.01765290e-02 -2.76593212e-02 -8.01230296e-02  9.85751897e-02
 -1.45653635e-01 -8.50713477e-02  8.66823122e-02  1.41690776e-01
 -6.35397583e-02 -5.10205291e-02  1.31381586e-01 -2.32225303e-02
 -2.44545609e-01 -1.36946589e-02  7.26456791e-02  2.61254042e-01
  1.52325794e-01  1.75951999e-02  2.80001219e-02 -9.18940231e-02
  9.20287594e-02 -2.31200740e-01 -1.78462273e-04  1.21647932e-01
  9.23964679e-02  3.35593820e-02  7.42866322e-02 -1.22495212e-01
  1.39546366e-02  1.28050730e-01 -1.10243224e-01 -5.43441176e-02
  2.57560164e-02 -9.45990011e-02 -2.55135056e-02 -1.11069024e-01
  1.72457442e-01  4.59080711e-02 -1.09646022e-01 -1.09496355e-01
  9.49319899e-02 -9.67784747e-02 -5.73324375e-02  2.85807140e-02
 -1.66378066e-01 -2.10656151e-01 -3.56944174e-01 -1.39409853e-02
  3.96611899e-01  7.43181184e-02 -2.03044444e-01  2.45834533e-02
 -1.38273938e-02  6.29023323e-03  1.02295302e-01  1.41934499e-01
 -8.22498184e-03  5.17826192e-02 -7.49552846e-02  2.32569780e-02
  2.10796669e-01 -1.11321725e-01 -3.06626456e-03  1.60382181e-01
  9.70852654e-03  4.95609529e-02  4.23345938e-02  7.55175669e-03
 -1.99120510e-02 -2.34983861e-03 -1.74850240e-01 -4.06525796e-03
  3.38558070e-02 -6.50321245e-02 -9.39335953e-03  8.36522505e-02
 -2.18430981e-01  9.54057276e-02  5.10850027e-02 -1.04671519e-03
  3.74739505e-02 -5.65849729e-02 -8.42303857e-02 -4.99820150e-02
  1.39728159e-01 -2.77481705e-01  1.31791502e-01  2.54465312e-01
 -3.14394683e-02  1.31277978e-01  7.94871002e-02  5.65595785e-03
 -2.12026127e-02  2.84740934e-03 -1.63389981e-01 -5.67541532e-02
  1.08663261e-01 -2.08441410e-02  1.65141299e-02 -1.79781821e-02]