[-1.13675892e-01  3.66041176e-02  1.23171329e-01  4.88247715e-05
 -8.84480476e-02 -9.33787450e-02  3.27579491e-02 -1.67003453e-01
  1.36976704e-01 -1.03403963e-01  1.90433562e-01 -3.05550825e-02
 -2.31801733e-01 -9.08801481e-02  3.91066559e-02  1.69150263e-01
 -1.55855700e-01 -1.27878085e-01 -9.71687362e-02 -3.62245142e-02
  1.30486516e-02  3.55394594e-02  1.62482113e-02  1.16994046e-02
 -1.22174077e-01 -3.76427948e-01 -1.12889923e-01 -5.79590574e-02
  4.53647338e-02  1.63617432e-02 -7.45009109e-02  1.08204938e-01
 -1.84557796e-01 -1.20341532e-01  8.42091516e-02  1.40077844e-01
 -3.52026671e-02 -7.08149448e-02  1.39045134e-01 -1.86834391e-02
 -2.53011405e-01 -3.70069630e-02  5.30534796e-02  2.03079060e-01
  2.29804590e-01 -1.16877817e-02  2.87546068e-02 -1.09032333e-01
  1.00066982e-01 -2.02523112e-01 -2.83508953e-02  1.18106999e-01
  8.03389251e-02  6.20639138e-02  5.70988655e-02 -1.70547187e-01
  2.68710079e-03  1.03845797e-01 -1.56452820e-01 -7.09519312e-02
 -3.06309579e-04 -1.35532737e-01 -4.86311642e-03 -3.02935075e-02
  1.27545059e-01  2.62473430e-02 -8.31364021e-02 -8.51156041e-02
  1.72942221e-01 -1.60668045e-01  4.91792848e-03  3.12762633e-02
 -1.50526583e-01 -1.62434652e-01 -3.32519978e-01 -5.81624396e-02
  4.61257786e-01  6.28458112e-02 -1.69765219e-01  4.62503023e-02
 -1.02369905e-01 -1.75882522e-02  9.20719877e-02  1.19451873e-01
  2.09932891e-03  3.51290889e-02 -6.64312690e-02  4.69869785e-02
  1.87432885e-01 -7.81019330e-02  2.73989197e-02  1.85682058e-01
 -8.83125234e-03  6.84906766e-02  5.89387007e-02  2.54560169e-02
 -5.76336570e-02 -9.94110294e-03 -1.34278983e-01 -4.16053906e-02
  2.14808583e-02 -6.82126135e-02  3.98412794e-02  1.18439116e-01
 -2.21630201e-01  1.22476451e-01  7.42297322e-02  1.29142553e-02
  5.11251278e-02 -5.76126054e-02 -3.52424905e-02 -6.35160208e-02
  1.37823269e-01 -2.34425947e-01  1.51217148e-01  2.48299271e-01
 -1.07462227e-01  1.64484248e-01  1.00335618e-02  3.56526487e-02
 -4.91929911e-02 -5.22055104e-02 -1.59656078e-01 -2.24089343e-02
  6.50528595e-02 -1.84170548e-02  2.04497445e-02 -1.34873884e-02]