[-0.10949259  0.06599272  0.13539946 -0.03299588 -0.09117681 -0.01546041
 -0.04632892 -0.12319662  0.15085088 -0.04737363  0.22815798 -0.03467308
 -0.21450146 -0.0888947  -0.00431496  0.17161886 -0.11138516 -0.14516364
 -0.03100531  0.01562843  0.02327847  0.0437978   0.00832105 -0.0092463
 -0.17529745 -0.34525308 -0.11010611 -0.0494668   0.01757284 -0.0160157
 -0.12167069  0.06056731 -0.18440844 -0.10267049  0.11164703  0.1312604
 -0.03516416 -0.07719277  0.12297511 -0.02328998 -0.28226098  0.02635497
  0.07569309  0.24664132  0.20914657  0.02439596  0.02923472 -0.17774358
  0.12777762 -0.15971588  0.04855431  0.14535724  0.08221456  0.06859456
  0.02641617 -0.14299594  0.01803913  0.16511008 -0.14804648 -0.04176738
  0.07269137 -0.05966327  0.02534578 -0.10499614  0.16363762  0.03547274
 -0.11135369 -0.16873442  0.08049752 -0.1012757  -0.02307145  0.08178156
 -0.1957045  -0.19752745 -0.34046751  0.01717698  0.40151855  0.07006163
 -0.16146944  0.08075181 -0.05630159  0.01996193  0.09137263  0.1272092
 -0.00570099  0.04487375 -0.04383079  0.01729736  0.2568264  -0.09362571
  0.03644424  0.16301656 -0.0272505   0.05831954  0.00987906  0.04916511
 -0.06586515  0.05923719 -0.12029459 -0.01167969  0.00785134 -0.01968852
  0.0673367   0.13413773 -0.24448422  0.11904335  0.05819897  0.03387163
  0.06532195 -0.06588356 -0.02773533 -0.0704916   0.12714414 -0.28564283
  0.19695926  0.1923102   0.02788567  0.12464722  0.07955556  0.04147441
 -0.02679215 -0.00051755 -0.15954851  0.02131458  0.11842064 -0.04813262
  0.07524333 -0.00266649]