[-0.12901583  0.11344432  0.10959854 -0.00930977 -0.14005405  0.00171518
 -0.03556086 -0.13823061  0.0982758  -0.05227119  0.24361961 -0.0475901
 -0.2718555  -0.10086614  0.01257115  0.21157332 -0.12016582 -0.10090911
 -0.10390531 -0.00651935 -0.00540358  0.02842335  0.00977574 -0.01851784
 -0.08363255 -0.36863667 -0.06514359 -0.04237952  0.00332709 -0.00606461
 -0.09062497  0.06370831 -0.18207866 -0.1001114   0.08672466  0.11079613
 -0.07370228 -0.06465106  0.10677677 -0.07706749 -0.24906698 -0.02134895
  0.07909068  0.20054078  0.18334553  0.01839081  0.04274204 -0.14001043
  0.10220301 -0.19687447  0.00832767  0.11726339  0.07513884  0.05341522
  0.05617167 -0.16275243  0.01244241  0.15232283 -0.12166824 -0.07232136
  0.04182758 -0.07177221 -0.04705867 -0.11599268  0.18699965  0.06837434
 -0.09616484 -0.15308478  0.12014657 -0.0997815  -0.02752994  0.06042479
 -0.15129259 -0.19328538 -0.32689711 -0.01448813  0.42260861  0.08336455
 -0.21747239  0.01913022 -0.04682669  0.00183976  0.11205535  0.111696
  0.00361958  0.01884878 -0.07683244 -0.0027968   0.22068568 -0.11879962
  0.03455701  0.18986619  0.02196374  0.03773695  0.02125566  0.02333044
 -0.04110371  0.01246096 -0.14431685 -0.03993658  0.03118412 -0.05523528
  0.01399585  0.09226243 -0.20498648  0.12948211  0.06301478  0.06193218
  0.0562865  -0.08022749 -0.021521   -0.05179217  0.14643423 -0.24677515
  0.18312159  0.19577226 -0.03621142  0.13866489  0.06574171  0.06543922
 -0.02680382 -0.03440911 -0.1743965  -0.04452845  0.11419573 -0.05615152
  0.02100874 -0.00415397]