[-8.77932385e-02  2.71095429e-02  8.17936957e-02 -7.38943666e-02
 -8.82339403e-02 -7.39874616e-02 -4.72067408e-02 -1.49027228e-01
  1.73792854e-01 -1.07373230e-01  2.52762020e-01 -7.77726918e-02
 -2.43228987e-01 -5.91600649e-02 -2.09405348e-02  2.27229118e-01
 -2.11534888e-01 -1.27599016e-01 -4.95574474e-02 -3.28401960e-02
  7.29166932e-05  3.71707790e-02  3.75115238e-02  1.65663268e-02
 -1.53813049e-01 -4.04003531e-01 -1.13033295e-01 -6.27438352e-02
  2.50205467e-03  7.14135682e-03 -9.22646299e-02  9.48776156e-02
 -1.58307686e-01 -7.70205706e-02  1.15554623e-01  1.31536439e-01
 -1.42353987e-02 -1.26012757e-01  1.57403812e-01 -3.20292870e-03
 -2.66941249e-01  9.91276372e-03  7.66931549e-02  2.38259107e-01
  1.82417318e-01  6.19815756e-03  3.94973718e-02 -1.79754660e-01
  1.55394539e-01 -1.58462450e-01  1.00960584e-04  1.04765497e-01
  3.34283896e-02  2.45926138e-02  4.07800786e-02 -1.22893766e-01
  2.61473167e-03  1.54627353e-01 -1.56346127e-01 -1.00821830e-01
  7.13348314e-02 -7.45552033e-02 -1.59986764e-02 -1.20044507e-01
  1.85108781e-01  7.04233125e-02 -1.29681006e-01 -1.25774547e-01
  1.31644994e-01 -1.01416484e-01 -3.16525251e-02  2.57463399e-02
 -1.77394032e-01 -1.79279938e-01 -3.29483122e-01 -4.28900421e-02
  4.06076521e-01  4.26644534e-02 -1.60076588e-01  6.51450977e-02
 -3.25759314e-02  1.42331794e-02  1.42559454e-01  1.62484244e-01
  1.90826077e-02  5.44358604e-02 -7.02007785e-02  2.43235957e-02
  2.38740236e-01 -1.11458875e-01  9.75558069e-03  1.67159840e-01
 -3.03843915e-02  8.43049660e-02  3.72378826e-02  5.78512065e-02
 -1.08974673e-01  2.79790461e-02 -1.64558962e-01 -1.44899925e-02
  4.19731401e-02  3.27234864e-02  2.06668247e-02  1.03104189e-01
 -1.74192190e-01  9.22855064e-02  6.26132637e-02 -7.16250716e-03
  5.73570095e-02 -5.61843626e-02 -1.14499722e-02 -9.81156006e-02
  1.02230981e-01 -2.57486671e-01  1.40804768e-01  1.86479837e-01
 -1.57392398e-03  1.63473830e-01  4.78324182e-02  2.29967553e-02
 -5.44807091e-02 -2.12464314e-02 -1.93879396e-01 -1.59295294e-02
  9.83834714e-02  1.71588045e-02  7.70908222e-02 -3.55323330e-02]