[-1.24985553e-01  4.30941097e-02  9.63212624e-02  2.15356704e-02
 -9.81660038e-02 -3.68584655e-02  3.51244584e-02 -1.60281926e-01
  1.13037206e-01 -1.21538930e-01  1.70067951e-01 -3.50390561e-02
 -2.75049895e-01 -8.23425651e-02  7.82434642e-02  1.88753232e-01
 -1.30640835e-01 -1.22219816e-01 -1.10949062e-01 -8.38447139e-02
 -4.40645255e-02  5.38684502e-02  2.80851461e-02  1.56235099e-02
 -1.54757649e-01 -3.88899118e-01 -9.34958607e-02 -4.47116494e-02
 -3.42500359e-02  8.82029813e-03 -6.01655133e-02  1.21764854e-01
 -1.56468570e-01 -8.13746229e-02  9.24860984e-02  1.25558540e-01
 -1.04144871e-01 -8.70998651e-02  1.64820313e-01  1.64501164e-02
 -2.18000248e-01 -1.21572781e-02  7.31463581e-02  2.63480663e-01
  2.04325676e-01 -2.88517661e-02  1.29613802e-02 -4.45369557e-02
  1.34904683e-01 -2.45706752e-01 -2.98023224e-08  1.26017079e-01
  9.05066952e-02  8.05385932e-02  1.04119934e-01 -1.22608475e-01
  6.09492371e-03  1.13816284e-01 -1.47034153e-01 -6.23550415e-02
  1.05294110e-02 -1.27754807e-01  7.23969331e-03 -8.47280324e-02
  1.47843644e-01  8.03572536e-02 -9.55093652e-02 -7.07212016e-02
  1.15578227e-01 -1.53239384e-01 -5.35964966e-02 -1.70706809e-02
 -1.52666986e-01 -1.82964191e-01 -3.45298260e-01 -8.53996631e-03
  3.88564825e-01  1.36117145e-01 -1.84019953e-01  8.27481877e-03
 -3.24342176e-02 -1.98597815e-02  8.49323496e-02  1.38663322e-01
 -9.29360092e-03  7.73578882e-04 -3.05243786e-02  1.42498761e-02
  1.94893464e-01 -5.27843498e-02 -3.37643959e-02  2.08772764e-01
  7.82422628e-03  2.82023940e-02  6.33817092e-02 -1.69823673e-02
 -9.16638598e-02 -5.39917350e-02 -1.46957919e-01 -4.22186479e-02
 -9.84531920e-03 -9.14047658e-02  3.62668857e-02  1.15584649e-01
 -2.29997978e-01  1.97679684e-01  4.23677042e-02  1.17621413e-02
  3.35955434e-02 -1.06069548e-02 -7.97949508e-02 -2.09680628e-02
  1.02538943e-01 -2.48177633e-01  1.54860929e-01  2.18628436e-01
 -8.21268260e-02  1.72329560e-01  2.23523397e-02  2.76768208e-02
 -6.51243106e-02  2.33426373e-02 -1.27852798e-01 -9.87653062e-02
  9.48869213e-02  6.62885327e-03  3.96309905e-02  7.23206624e-03]