[-1.11619249e-01  3.50030363e-02  7.88669810e-02 -4.47344929e-02
 -7.23257214e-02 -6.22526184e-02 -2.82185860e-02 -1.63138032e-01
  1.50395706e-01 -6.15886040e-02  2.69775838e-01 -5.64080253e-02
 -2.41435915e-01 -8.96498337e-02 -6.87757740e-03  1.97711155e-01
 -1.66629553e-01 -1.11668877e-01 -2.78716329e-02 -6.72198553e-03
  3.51691842e-02  7.18828524e-03  6.34549260e-02  1.91210061e-02
 -1.54805645e-01 -3.75006586e-01 -1.26465827e-01 -7.97526166e-02
  6.51571248e-03  6.21471554e-05 -1.00649975e-01  4.97018658e-02
 -1.87102869e-01 -9.13596898e-02  1.00825965e-01  1.06193043e-01
 -1.19646927e-02 -9.48676094e-02  1.72469199e-01 -2.83360435e-03
 -2.74738580e-01  1.65450468e-03  6.54131472e-02  2.30435759e-01
  1.40883207e-01  3.34070437e-02  5.11630774e-02 -1.62613973e-01
  1.04757003e-01 -1.30281717e-01  4.39606495e-02  1.07334770e-01
  5.35006002e-02 -9.02801767e-05  1.07849305e-02 -1.30342305e-01
 -1.07172672e-02  1.46301359e-01 -1.41068980e-01 -5.66043518e-02
  9.55271199e-02 -4.85542864e-02 -3.16306539e-02 -9.62695628e-02
  2.17624173e-01  7.96112642e-02 -1.47204012e-01 -1.20116495e-01
  1.13823570e-01 -7.95044601e-02 -2.57228799e-02  4.68356013e-02
 -1.94586441e-01 -1.98237166e-01 -3.26650470e-01  2.36968929e-03
  4.29163069e-01  2.38935091e-02 -1.83615729e-01  3.51094119e-02
 -6.73111379e-02  3.72946449e-02  1.49420515e-01  1.71006233e-01
  1.22941015e-02  8.85218829e-02 -6.68973178e-02  1.32010831e-02
  2.28989124e-01 -1.03905641e-01 -5.73960738e-03  1.84616387e-01
 -2.41139363e-02  8.87412652e-02  2.41608750e-02  5.74072003e-02
 -6.75225332e-02  1.27734216e-02 -1.48744404e-01 -1.86207853e-02
  5.31422980e-02  2.71670707e-02  2.62785908e-02  1.24540344e-01
 -1.89092770e-01  6.24109209e-02  6.96650967e-02 -7.47027574e-03
  6.44877031e-02 -3.82351466e-02 -3.68901677e-02 -1.25111461e-01
  8.15192685e-02 -2.67512590e-01  1.59358472e-01  1.93733186e-01
  7.73385493e-03  1.25924826e-01  7.03813285e-02  3.38488743e-02
 -1.99374184e-02 -4.65852534e-03 -1.87733606e-01  3.13483179e-03
  1.27803639e-01 -2.87707895e-03  8.94566178e-02 -4.37633730e-02]