[-1.03454046e-01  2.21979525e-02  1.26066044e-01  2.30176356e-02
 -1.11872099e-01 -7.99677372e-02  1.85922794e-02 -1.58088908e-01
  1.26095876e-01 -9.78379399e-02  1.77745357e-01 -4.91060950e-02
 -2.64573246e-01 -2.42116861e-02  2.50598248e-02  2.05639869e-01
 -1.40230954e-01 -1.11837864e-01 -1.01945095e-01 -2.38022711e-02
  9.20618977e-03  4.29791100e-02  2.21411120e-02  6.21129433e-03
 -1.03296660e-01 -3.62805158e-01 -8.83406326e-02 -3.73451374e-02
 -5.42449672e-03  1.78508610e-02 -7.82093257e-02  8.78951997e-02
 -1.49102554e-01 -1.05161212e-01  1.06965117e-01  1.24250248e-01
 -6.38214201e-02 -8.63845944e-02  1.56490773e-01 -1.97195597e-02
 -2.68309802e-01 -1.21833580e-02  8.33877325e-02  2.13601306e-01
  2.03968391e-01 -1.24495476e-04  1.98740177e-02 -1.21326201e-01
  1.06418312e-01 -2.40503713e-01 -4.82087843e-02  1.09572642e-01
  5.96988685e-02  7.36292228e-02  6.69851452e-02 -1.64002448e-01
  7.49761611e-03  1.09995507e-01 -1.32971302e-01 -6.50015175e-02
  2.38550920e-02 -9.76153836e-02  2.21237615e-02 -6.34303391e-02
  1.61908373e-01  2.02240180e-02 -1.11255668e-01 -6.51925355e-02
  9.70118791e-02 -1.49594784e-01 -2.85062995e-02  1.26693295e-02
 -1.59525976e-01 -1.86305434e-01 -3.47049057e-01 -6.17472641e-02
  4.34595972e-01  5.97959720e-02 -1.79128692e-01  2.52646897e-02
 -5.89319244e-02  2.57852464e-03  9.65255722e-02  1.29058361e-01
  1.17314709e-02  4.04774360e-02 -5.87651916e-02  1.84332635e-02
  2.07090423e-01 -1.11087434e-01  2.61597317e-02  1.99912608e-01
  6.55534212e-03  5.83083294e-02  4.05219421e-02  4.85604964e-02
 -6.98400959e-02 -3.45126949e-02 -1.67858824e-01 -5.23311496e-02
  1.87941547e-02 -4.34363112e-02  5.92548028e-02  1.12326756e-01
 -2.32738808e-01  1.15198612e-01  4.87066396e-02  6.37597358e-03
  4.97351475e-02 -3.27221043e-02 -5.87128177e-02 -5.98022714e-02
  1.29375741e-01 -2.22010046e-01  1.43499658e-01  2.50992805e-01
 -8.13394487e-02  1.35529891e-01  1.99083071e-02  1.76244248e-02
 -6.39781207e-02  7.57132191e-03 -1.28575504e-01 -3.47174741e-02
  7.52529800e-02  8.83983169e-03  2.58615818e-02 -1.36093721e-02]