[-0.12722045  0.11064627  0.11827455 -0.03646466 -0.14026193 -0.00838713
 -0.01294716 -0.1194341   0.18145275 -0.07084971  0.23302527 -0.04693451
 -0.2706227  -0.03312497  0.02912712  0.1727425  -0.13821034 -0.11640316
 -0.04618547 -0.00315557  0.03320842  0.07139363 -0.01451969  0.0006288
 -0.14055467 -0.36979383 -0.09899421 -0.02211613  0.02701197  0.00373331
 -0.09712627  0.1089647  -0.15357982 -0.13243315  0.11173423  0.15415823
 -0.0466858  -0.06897547  0.11881608 -0.03624356 -0.27440679  0.00822566
  0.10480788  0.23686938  0.17771721  0.02011165  0.03199528 -0.13573523
  0.08268032 -0.21030465 -0.00083439  0.16121329  0.07078745  0.05706182
  0.0773048  -0.19426952 -0.01137137  0.14207105 -0.13520458 -0.05388789
  0.06553578 -0.06022999  0.01576435 -0.0872288   0.14832306  0.03249924
 -0.11515112 -0.1333977   0.07471162 -0.09865494 -0.04034694  0.08326713
 -0.18778306 -0.20907989 -0.32024577  0.01371948  0.42775288  0.06079837
 -0.15808992  0.06601438 -0.02319634 -0.01477224  0.0987499   0.12963666
  0.01499241  0.00870935 -0.06777387  0.04599317  0.21426724 -0.09621552
  0.04363382  0.18616596 -0.00116224  0.06179926  0.00592569  0.09859113
 -0.07577898  0.02372818 -0.1497473  -0.0238482   0.05698283 -0.0335078
  0.01716377  0.13222903 -0.24406528  0.10609218  0.05505243  0.01062304
  0.03504392 -0.08260904 -0.02441419 -0.0238767   0.14939748 -0.27395105
  0.16781619  0.2173502  -0.07891785  0.14347404  0.06607206  0.00859161
  0.00910558 -0.03121355 -0.15718089 -0.0481539   0.08821705 -0.0511374
  0.01878638 -0.02359067]