[-0.12546098  0.02361327  0.07655466 -0.04716022 -0.07568623 -0.07288688
 -0.01905178 -0.16090059  0.15681811 -0.06605016  0.27489731 -0.04245846
 -0.24719623 -0.10228162  0.00508571  0.18880932 -0.172087   -0.11761271
 -0.02127621 -0.00281742  0.03595194 -0.00560943  0.07612923  0.02792196
 -0.15987864 -0.3890968  -0.13130729 -0.08679898  0.00543842  0.00787256
 -0.08594903  0.06967481 -0.1946284  -0.09820326  0.09294509  0.11013892
 -0.01717152 -0.08684923  0.18629579 -0.00262071 -0.27769569 -0.01814312
  0.06590103  0.22736405  0.13915798  0.03094241  0.06264632 -0.15481618
  0.10313207 -0.13965431  0.04311301  0.11358136  0.06361365 -0.0044733
  0.02213992 -0.13244542 -0.00275664  0.13559823 -0.14314467 -0.06049126
  0.08880065 -0.05128933 -0.02337842 -0.09637173  0.22233401  0.0811969
 -0.13398007 -0.11481988  0.13161354 -0.0849484  -0.02942964  0.05983804
 -0.19829953 -0.19721904 -0.33190313 -0.01113638  0.42963988  0.03008275
 -0.16681284  0.03785716 -0.08183698  0.02602499  0.1370104   0.1636937
  0.00572755  0.08758654 -0.06881698  0.01389623  0.22959407 -0.09528917
 -0.00633994  0.17689487 -0.01239663  0.09437654  0.03443094  0.03990227
 -0.06287972  0.00929182 -0.1563258  -0.01158397  0.03031106  0.02173608
  0.02759301  0.11804749 -0.18970628  0.05423881  0.07034647 -0.01721652
  0.05159898 -0.03049054 -0.04692346 -0.12809765  0.07254464 -0.26996633
  0.16119163  0.19338124  0.00292929  0.13099289  0.06551666  0.03688181
 -0.0338226  -0.01188656 -0.18295851  0.005162    0.1305601  -0.00666885
  0.0904315  -0.04441611]