[-0.14137876  0.03864463  0.12505327 -0.05855441 -0.12080204 -0.00844335
  0.00485288 -0.13525455  0.17822765 -0.03076084  0.18602428  0.00793635
 -0.26931566 -0.04423445  0.04501792  0.16591682 -0.1489851  -0.11406244
 -0.08678606 -0.02651501 -0.02506584  0.06523339  0.06234365  0.0447263
 -0.17007776 -0.38959488 -0.10571616 -0.06363758 -0.01957321  0.0365765
 -0.05323569  0.12954925 -0.15852867 -0.10893124  0.10213434  0.13170703
 -0.0743197  -0.10885256  0.14216752  0.01532471 -0.25358191 -0.03824615
  0.06232594  0.27360013  0.23002763 -0.02495438  0.07158732 -0.09715419
  0.13282318 -0.2663579  -0.00865502  0.15699033  0.0387791   0.03973019
  0.07242361 -0.14490317  0.02492412  0.14772412 -0.16904028 -0.02809852
  0.0435661  -0.08172567  0.02550024 -0.088099    0.15864015  0.06391069
 -0.12752333 -0.10618367  0.10277338 -0.09347096 -0.00111878  0.06745709
 -0.24136989 -0.23421514 -0.32847819 -0.00518591  0.47678167  0.08940051
 -0.12703408  0.03820458 -0.12594551  0.01409604  0.05681957  0.12514895
  0.00645789  0.0065903  -0.06027454  0.06263536  0.21969222 -0.09251696
  0.01271444  0.24534278  0.02061162  0.03160983  0.02145682  0.077388
 -0.07468637  0.02646758 -0.15276369 -0.00237048  0.01002673 -0.02825776
  0.10230503  0.10711824 -0.23148076  0.12953551  0.07183105  0.02875276
  0.06277179 -0.07706504 -0.07763042 -0.08388682  0.15237467 -0.27247369
  0.12175603  0.22582559 -0.03291424  0.15185596  0.02136629  0.02746174
 -0.03955688 -0.00783825 -0.10751909  0.01249648  0.09335803 -0.00080781
  0.00226883  0.00144165]