[-1.22851036e-01  4.42896262e-02  1.37233093e-01  1.38526103e-02
 -9.32786688e-02 -7.65947476e-02  3.74434106e-02 -1.62772968e-01
  1.16780080e-01 -9.37555134e-02  2.09218174e-01 -4.65142466e-02
 -2.25343257e-01 -9.89757404e-02  3.32934484e-02  1.74922183e-01
 -1.57030210e-01 -1.24231912e-01 -8.18333402e-02 -1.38138011e-02
  1.17300171e-02  6.17521070e-03  2.88629886e-02 -7.26162037e-03
 -9.30767730e-02 -3.94302845e-01 -8.48251358e-02 -8.92750919e-02
  5.48034087e-02  8.34625214e-04 -8.28569978e-02  8.37404504e-02
 -1.77824840e-01 -1.14244401e-01  5.24210148e-02  1.52852684e-01
 -5.28674610e-02 -6.88047335e-02  1.42243966e-01 -4.21609841e-02
 -2.48783872e-01 -1.05591929e-02  4.37022857e-02  1.97695300e-01
  2.19852760e-01 -6.27354544e-04  3.17301676e-02 -9.80114862e-02
  9.19663906e-02 -2.16209322e-01 -4.10573296e-02  9.16510746e-02
  5.54201975e-02  6.11807704e-02  6.42368123e-02 -1.69317648e-01
  5.20153856e-03  6.24166988e-02 -1.45690501e-01 -6.25280514e-02
  4.49234241e-04 -1.14360116e-01 -8.99697375e-03 -4.36732434e-02
  1.54521629e-01  1.63842198e-02 -7.36377239e-02 -7.00043961e-02
  1.31649718e-01 -1.53820679e-01  8.03626236e-03  4.62765358e-02
 -1.50606468e-01 -1.59499303e-01 -3.13939959e-01 -3.07713337e-02
  4.50503439e-01  5.69630563e-02 -1.58016935e-01  4.29898016e-02
 -7.96191096e-02 -1.20494552e-02  1.07272841e-01  1.16466835e-01
  2.45725662e-02  4.89615239e-02 -7.70861059e-02  3.34109217e-02
  1.68063492e-01 -1.06091939e-01  2.71365978e-02  1.71644375e-01
 -2.27106418e-02  7.98273087e-02  4.84984629e-02  1.99372675e-02
 -4.23559435e-02  2.37220828e-03 -1.38313100e-01 -4.65470552e-02
  4.91989814e-02 -7.10881725e-02  3.31635363e-02  8.32610950e-02
 -2.12106034e-01  8.24540854e-02  5.09527922e-02  1.92336403e-02
  6.45139217e-02 -6.29947782e-02 -4.04849537e-02 -4.92915511e-02
  1.41812444e-01 -2.44003534e-01  1.74066529e-01  2.68697083e-01
 -1.07707582e-01  1.46798998e-01  2.67329346e-02  1.84126440e-02
 -5.22098541e-02 -2.21354458e-02 -1.55591220e-01 -1.69776883e-02
  6.77266940e-02 -1.75361789e-03  1.19914878e-02 -2.15068702e-02]