[-4.55938391e-02  6.02292903e-02  8.27557966e-02 -1.27040362e-02
 -4.31147069e-02 -1.52009344e-02  2.69103888e-02 -1.48721024e-01
  1.75411537e-01 -8.17140564e-02  2.19893411e-01 -4.51180264e-02
 -2.06181571e-01 -1.19385533e-01  3.77428234e-02  1.59910545e-01
 -1.92578778e-01 -1.51073620e-01 -8.23185369e-02 -1.66679341e-02
  4.33296375e-02  5.95974922e-02  2.41100844e-02  2.99468432e-02
 -1.78338692e-01 -3.92274469e-01 -8.01968500e-02 -9.37520340e-02
  7.85230175e-02 -2.95078102e-02 -1.17504671e-01  9.95956287e-02
 -1.68233648e-01 -7.90935755e-02  9.45552140e-02  1.03329219e-01
 -2.18000468e-02 -1.05428852e-01  1.58009052e-01  6.28857920e-03
 -2.81757832e-01  3.28998417e-02  3.16889249e-02  2.20834121e-01
  2.31332138e-01 -2.01599598e-02  8.82824045e-03 -1.21472172e-01
  1.53577372e-01 -1.86212480e-01 -1.84917152e-02  1.57099128e-01
  6.65168688e-02  6.12747855e-02  3.08904108e-02 -1.34634063e-01
 -3.43401991e-02  9.64567810e-02 -1.79868981e-01 -6.23859428e-02
  2.02609561e-02 -1.06207840e-01 -1.43624653e-04 -5.74601665e-02
  7.88500383e-02  2.60285269e-02 -9.89092216e-02 -1.37401506e-01
  1.11636594e-01 -1.54084191e-01 -1.20064979e-02  6.69453889e-02
 -1.74333975e-01 -1.96907207e-01 -2.90565312e-01 -4.10945062e-03
  4.14836138e-01  7.94195309e-02 -1.72454745e-01  5.14037870e-02
 -5.42609990e-02  6.91471482e-03  1.16624951e-01  1.41540617e-01
  1.11979349e-02  4.05179448e-02 -6.45008236e-02  5.39997593e-02
  2.02675030e-01 -8.30620751e-02  2.48864479e-03  2.12704405e-01
 -3.93614285e-02  8.14552978e-02  3.70319411e-02  5.27839474e-02
 -6.86023161e-02  4.34073992e-02 -1.34120435e-01 -1.63732078e-02
  4.88482825e-02  4.48693288e-03  4.27687429e-02  1.25732079e-01
 -1.82877287e-01  1.23306714e-01  5.03479727e-02  1.24873407e-02
  8.07925388e-02 -6.23223446e-02 -3.73988338e-02 -7.46014640e-02
  1.13320880e-01 -2.53401339e-01  1.51364401e-01  2.18585253e-01
 -1.95384677e-02  1.32582381e-01  2.83168014e-02  7.83961173e-03
 -2.11056899e-02 -3.65627371e-02 -1.93767473e-01 -1.82586964e-02
  1.09981336e-01 -1.10624661e-03  1.48926796e-02 -6.99801221e-02]