[-9.73071530e-02  4.13979664e-02  1.19770162e-01 -4.21099318e-03
 -8.22907314e-02 -7.43337497e-02  4.71298359e-02 -1.59930572e-01
  1.49437234e-01 -9.07382071e-02  1.99522316e-01 -7.87791237e-02
 -2.44131073e-01 -9.10594687e-02  5.30486219e-02  1.89529374e-01
 -1.51774168e-01 -1.14939146e-01 -8.34144428e-02 -2.27324702e-02
  1.85420252e-02  1.24119601e-04  4.56023887e-02  3.80759090e-02
 -7.80387446e-02 -4.01437014e-01 -1.09166376e-01 -9.02959034e-02
  4.47523110e-02  2.61885356e-02 -8.90603215e-02  8.39865878e-02
 -1.79307327e-01 -1.18048124e-01  6.25920147e-02  1.04140513e-01
 -4.28143702e-02 -8.71978849e-02  1.26794040e-01 -3.38421874e-02
 -2.69812346e-01 -5.76528423e-02  3.77713107e-02  1.79354146e-01
  2.17542931e-01  1.04429368e-02  3.34736407e-02 -1.08172014e-01
  7.26766959e-02 -1.92507967e-01 -2.99335122e-02  1.00929417e-01
  8.15698132e-02  4.18509655e-02  3.90837789e-02 -1.82246551e-01
 -7.35921925e-03  7.57604763e-02 -1.37970373e-01 -8.82483646e-02
  7.18542654e-03 -9.50965807e-02 -3.32456524e-03 -4.13448438e-02
  1.64997146e-01  4.36496250e-02 -8.21062848e-02 -8.99002552e-02
  1.58834904e-01 -1.50808439e-01  2.50288788e-02  3.57698090e-02
 -1.72522113e-01 -1.75434485e-01 -2.99922436e-01 -5.16666770e-02
  4.45880264e-01  4.85809818e-02 -1.68816015e-01  1.61576532e-02
 -1.28046453e-01  1.98682398e-02  9.46769044e-02  1.25058517e-01
  1.50853870e-02  3.89198884e-02 -7.31016025e-02  1.48323374e-02
  1.65190592e-01 -1.40475512e-01  2.94335373e-02  1.89970896e-01
 -2.46406104e-02  6.80913255e-02  2.87075397e-02  7.27539463e-03
 -4.32706811e-02  3.46749835e-02 -1.42743930e-01 -4.14555557e-02
  2.09866781e-02 -3.94398347e-02  3.78934108e-02  9.47448835e-02
 -2.41495639e-01  8.21773112e-02  7.79595673e-02  5.16259996e-03
  6.54977486e-02 -4.97002974e-02 -4.91113476e-02 -9.18343887e-02
  1.42982155e-01 -2.28794813e-01  1.35701865e-01  2.64461190e-01
 -7.85477385e-02  1.59104332e-01  1.15482500e-02  5.03197201e-02
 -2.86701452e-02 -5.76225892e-02 -1.68867618e-01  1.75016019e-02
  9.47253332e-02 -3.28025292e-03 -2.19723899e-02 -2.49870997e-02]