[-0.09759656  0.07903405  0.14744838 -0.01977992 -0.10858118 -0.020919
 -0.0490973  -0.12387589  0.14352231 -0.06598452  0.23348303 -0.03932175
 -0.23150945 -0.04403728 -0.00644001  0.17214368 -0.10382713 -0.13518904
 -0.0600952   0.01160544  0.02232002  0.06467929  0.00347108 -0.0100636
 -0.15448023 -0.34171438 -0.10920037 -0.01628477  0.01276351 -0.01125085
 -0.14052041  0.05888356 -0.17174213 -0.11454342  0.11298282  0.1404462
 -0.04354119 -0.08308879  0.10333114 -0.0286308  -0.27044407  0.02030035
  0.08923119  0.24467687  0.20480716  0.02843776  0.02590139 -0.16407478
  0.10810987 -0.20001261  0.03794397  0.13861977  0.08127557  0.07325303
  0.03879468 -0.15245405  0.00318722  0.18206577 -0.1313757  -0.03460892
  0.06941041 -0.06414645  0.02983823 -0.10417972  0.16624986  0.05412827
 -0.12192587 -0.14661418  0.05923512 -0.10498785 -0.03941136  0.05282938
 -0.18217616 -0.18948793 -0.35077792  0.00514115  0.41792211  0.04830782
 -0.16080336  0.06916238 -0.04288307  0.01406229  0.08107561  0.1062446
 -0.02116297  0.03433184 -0.06800182  0.03312269  0.26475838 -0.10005247
  0.04369907  0.16360669 -0.03219838  0.05294043  0.02175169  0.08856537
 -0.0777857   0.03768568 -0.13518152 -0.0022444   0.0167087  -0.04286328
  0.04134034  0.13006172 -0.24331684  0.112344    0.04846673  0.02413011
  0.06756166 -0.07849528 -0.04559695 -0.06135805  0.14044027 -0.2683571
  0.1791831   0.19924144  0.00227949  0.13129978  0.07737743  0.03241866
 -0.02243743  0.00191431 -0.15078712 -0.0104073   0.10652002 -0.04593211
  0.05775778  0.00297989]