[-0.06336716  0.06112473  0.08215791  0.01144738 -0.07761184 -0.01554211
  0.03376331 -0.10459898  0.1261804  -0.05742262  0.20308197 -0.03379791
 -0.22043808 -0.13429528  0.05206663  0.11023062 -0.17912626 -0.13166547
 -0.04996748  0.00169763  0.06323804  0.04950066 -0.00821145 -0.01086247
 -0.13898927 -0.40045229 -0.09942929 -0.09379176  0.07760465 -0.04401284
 -0.06814156  0.10513639 -0.15015878 -0.10386493  0.06106502  0.08360162
 -0.02164715 -0.05264051  0.170431    0.00733302 -0.22738802  0.01223216
  0.02780225  0.25854552  0.22708456  0.00592536  0.01686721 -0.10416318
  0.11081294 -0.18240151 -0.01268355  0.16692381  0.08759328  0.07624374
  0.06975037 -0.1063025  -0.01187451  0.03818781 -0.20093019 -0.0299332
  0.01046836 -0.08981402  0.03068566 -0.06903397  0.09524668 -0.02657264
 -0.05799843 -0.13978252  0.1189301  -0.17863345 -0.0734316   0.06204512
 -0.15833358 -0.17385758 -0.34603798 -0.00545234  0.39088586  0.11690438
 -0.1643234   0.05820597 -0.04679875 -0.07562239  0.12604009  0.11238598
  0.00424551  0.03813984 -0.05994122  0.07885984  0.19354799 -0.07460685
 -0.01503132  0.18284829 -0.01563314  0.08251718  0.05165116  0.03672583
 -0.02766356  0.04721986 -0.14596832 -0.00469901  0.05985289 -0.04549982
  0.06038088  0.13985772 -0.1806978   0.11694888  0.04368023 -0.00377089
  0.01674181 -0.07764064 -0.1010343  -0.01437908  0.15059145 -0.26020122
  0.17304109  0.22302853 -0.03585768  0.09816905  0.03260617 -0.01225036
 -0.04410627 -0.06199506 -0.18661067 -0.02988707  0.08002456  0.00771459
  0.02969424 -0.02731487]