[-1.39704138e-01  7.12888911e-02  1.24130428e-01 -3.00982334e-02
 -1.10287048e-01  1.62813847e-03 -1.23881269e-02 -1.15662150e-01
  1.56981885e-01 -6.25731498e-02  1.84196994e-01 -4.41654623e-02
 -2.40455791e-01 -4.17035297e-02  2.82920897e-02  1.78172976e-01
 -1.37791619e-01 -1.28987730e-01 -6.18154407e-02 -1.26086129e-02
  1.34483874e-02  5.34302257e-02 -3.41110467e-03  3.59109533e-03
 -1.59302488e-01 -3.69662583e-01 -1.12036742e-01 -3.73993926e-02
  2.73432080e-02 -1.47177649e-04 -1.17941611e-01  7.24534392e-02
 -1.64805561e-01 -9.55757126e-02  9.78347883e-02  1.48589805e-01
 -4.54797745e-02 -1.03504241e-01  1.25738144e-01 -1.59891546e-02
 -2.79851377e-01  2.20075320e-03  7.94583112e-02  2.45533809e-01
  2.19071150e-01  2.47327071e-02  1.40570253e-02 -1.10172473e-01
  1.18912958e-01 -1.99929178e-01  2.02947631e-02  1.47463888e-01
  8.35146904e-02  4.60497960e-02  5.96866012e-02 -1.54713288e-01
  1.12071345e-02  1.52206525e-01 -1.52520984e-01 -8.26109424e-02
  4.12727892e-02 -8.68443176e-02  3.22959423e-02 -7.67256767e-02
  1.59990847e-01  5.91864176e-02 -9.21730921e-02 -1.30244046e-01
  1.09650485e-01 -9.77284312e-02 -8.83961748e-03  4.25683968e-02
 -1.89953089e-01 -1.94375396e-01 -3.20996225e-01  1.16797378e-02
  4.40207779e-01  7.23969117e-02 -1.50918588e-01  8.31777230e-02
 -6.37586936e-02  8.79187416e-03  1.13780461e-01  1.20628536e-01
 -1.09885624e-02  4.36074613e-03 -6.38823062e-02  2.74539385e-02
  2.29976937e-01 -9.99263227e-02  3.07633132e-02  1.50793612e-01
 -8.22580606e-03  2.47311108e-02  2.10719295e-02  4.59616147e-02
 -7.81827867e-02  3.99037376e-02 -1.22052208e-01 -3.19590271e-02
  4.46666181e-02 -2.95721535e-02  5.25992513e-02  1.40481874e-01
 -2.63474047e-01  1.06799237e-01  7.22038671e-02  5.55942347e-03
  6.89790100e-02 -7.30998814e-02 -4.35561650e-02 -5.54337464e-02
  1.30155876e-01 -2.91514367e-01  1.50411159e-01  2.11566374e-01
 -7.62055367e-02  1.57033846e-01  5.62961400e-02  4.16334756e-02
 -1.27578052e-02 -1.55788218e-03 -1.58707395e-01 -2.06533857e-02
  1.25601485e-01 -1.19949067e-02  4.45928797e-02  7.54319131e-04]