[-0.11137958  0.11152818  0.09085082 -0.04342762 -0.12076976 -0.03060194
 -0.01369488 -0.11929926  0.19881617 -0.05746911  0.21091537 -0.04913525
 -0.2409879  -0.05356239  0.02896743  0.1644066  -0.13860868 -0.12852253
 -0.05201755  0.01423479  0.05436619  0.06022064 -0.00643927  0.02752441
 -0.16261803 -0.37291536 -0.11081131 -0.03633682  0.03813606  0.00417524
 -0.09730292  0.09748709 -0.15787968 -0.14874355  0.12878762  0.14921789
 -0.02915647 -0.08270846  0.12316187 -0.01825686 -0.29885492  0.02725273
  0.08965431  0.25271431  0.18419667  0.03248425  0.04374833 -0.15389358
  0.11326281 -0.17330106  0.0204134   0.16307238  0.06464955  0.0505226
  0.0810037  -0.18126501  0.00391969  0.15886378 -0.15434377 -0.05353839
  0.07338968 -0.05926216  0.02282697 -0.09241273  0.14467248  0.03777289
 -0.1090801  -0.14711915  0.08965566 -0.10336937 -0.03793253  0.07475739
 -0.18735106 -0.19663323 -0.31689781  0.00216201  0.43137836  0.07494623
 -0.16090043  0.09130352 -0.04003015  0.00479956  0.10654975  0.14851773
  0.01145727  0.03266535 -0.05701878  0.03193148  0.2210214  -0.07868189
  0.04053771  0.19179481 -0.01124626  0.05589394  0.01525687  0.06515364
 -0.0995298   0.0383944  -0.13277064 -0.03584873  0.06611156 -0.01993658
  0.03747448  0.13457522 -0.25544938  0.10759789  0.05969639  0.0317986
  0.05161823 -0.06314676 -0.01937422 -0.03811334  0.13416781 -0.27881646
  0.18415138  0.19726655 -0.05487968  0.1369677   0.07438645  0.01488759
  0.01506972 -0.02743309 -0.16485885 -0.02967597  0.10185796 -0.04266355
  0.04702857 -0.02521713]