[-1.54437289e-01  8.16356018e-02  1.24355756e-01 -4.99094054e-02
 -1.25453070e-01  5.29159140e-03 -2.63822973e-02 -1.26220644e-01
  1.56105801e-01 -6.12917840e-02  2.06844002e-01 -4.15956192e-02
 -2.49409318e-01 -5.07927947e-02  1.33158760e-02  1.85333073e-01
 -1.41903684e-01 -1.27880439e-01 -6.33955449e-02 -1.46451890e-02
  5.30349417e-03  5.75619116e-02  3.04160261e-04  2.31817376e-05
 -1.63723424e-01 -3.75970632e-01 -1.16767779e-01 -4.19313200e-02
  1.59379300e-02 -7.91242532e-03 -1.14715360e-01  7.83803016e-02
 -1.48181766e-01 -8.99182633e-02  1.06011383e-01  1.64025262e-01
 -4.95964736e-02 -9.54295620e-02  1.24749176e-01 -2.49529872e-02
 -2.70869464e-01 -2.12834100e-03  8.92789811e-02  2.51768112e-01
  2.28225037e-01  1.28450068e-02  2.82897837e-02 -1.17328048e-01
  1.25189528e-01 -1.94667310e-01  1.89984292e-02  1.53317079e-01
  8.82759243e-02  5.07308021e-02  6.23643883e-02 -1.49222925e-01
  1.14072384e-02  1.55513048e-01 -1.45174086e-01 -8.95250961e-02
  4.84614708e-02 -9.40667987e-02  2.31573824e-02 -7.44858459e-02
  1.63756892e-01  5.80748916e-02 -1.04313612e-01 -1.41950175e-01
  1.06596902e-01 -9.61974487e-02 -1.86601412e-02  3.49208638e-02
 -2.05374867e-01 -1.90754324e-01 -3.27923775e-01  6.51571620e-03
  4.45004076e-01  6.66984245e-02 -1.51782408e-01  9.51988325e-02
 -7.20957741e-02 -1.46511162e-03  9.20339897e-02  1.17966749e-01
 -1.48834661e-02  9.43834428e-03 -7.25341365e-02  3.10344584e-02
  2.34072402e-01 -1.15085363e-01  4.29088883e-02  1.53546095e-01
 -4.99377027e-03  3.51519771e-02  2.83558015e-02  5.18412367e-02
 -8.49334970e-02  3.70541066e-02 -1.13430321e-01 -2.80946624e-02
  3.68955173e-02 -4.14674692e-02  5.63117936e-02  1.26586005e-01
 -2.62973011e-01  1.22021258e-01  7.26683661e-02  1.86185688e-02
  5.94917610e-02 -8.15111026e-02 -3.95857282e-02 -5.82818761e-02
  1.45465523e-01 -2.90514320e-01  1.51808903e-01  2.11112663e-01
 -6.45947382e-02  1.64001629e-01  7.25848898e-02  4.19836752e-02
 -1.54016465e-02  5.59368823e-03 -1.42824098e-01 -1.97017938e-02
  1.12126544e-01 -1.57174952e-02  4.42624688e-02  7.88342021e-03]