[-0.05614829  0.09472441  0.07695772 -0.04975181 -0.10674521 -0.06765702
 -0.01723898 -0.12833056  0.23917261 -0.07895507  0.2509962  -0.05755869
 -0.25782692 -0.08830141 -0.04351382  0.25759435 -0.21849325 -0.18821113
 -0.07320843  0.00247618  0.04475255 -0.03620489  0.0425636   0.04928159
 -0.11824474 -0.41504961 -0.07906532 -0.07277121  0.00240971 -0.02096295
 -0.05489507  0.07789546 -0.1852936  -0.09093788  0.05441023  0.08199354
 -0.01113067 -0.13819668  0.16436784 -0.05025974 -0.32164082  0.00859236
  0.05977992  0.21302938  0.17855798  0.01912461  0.03153425 -0.17336155
  0.15672804 -0.14794882 -0.01149758  0.15179734  0.05288361  0.06819815
  0.00851292 -0.18231319  0.03241995  0.16004409 -0.15726577 -0.12251683
  0.05247154 -0.05021957  0.01847516 -0.13844666  0.20434418  0.05406318
 -0.11110418 -0.14804098  0.13742891 -0.10515709 -0.01351937  0.02790183
 -0.20277233 -0.19563934 -0.31587574 -0.04352555  0.39291605  0.0840826
 -0.16688028  0.04860618 -0.0808028   0.04382191  0.07093747  0.16236691
  0.01277479  0.06391621 -0.11772326 -0.01893557  0.19428836 -0.10957356
  0.02537439  0.22653411 -0.01136281  0.08981179 -0.01754773  0.01016819
 -0.11218119  0.11189605 -0.1591673  -0.00140331 -0.00386386  0.06108812
  0.02406383  0.07550704 -0.15540898  0.06580643  0.07093073  0.08734044
  0.03307359  0.00684556 -0.01932384 -0.15165724  0.10306187 -0.22762191
  0.18334277  0.203086    0.04304321  0.14717968  0.07592966  0.07166642
 -0.04256999 -0.05564674 -0.21940564  0.05200597  0.11931246 -0.02658158
  0.04558469  0.01310208]