[-0.03425135  0.04509505  0.04411001 -0.04373931 -0.11642311 -0.03460379
 -0.0231634  -0.13684094  0.17769824 -0.08789077  0.24262217 -0.08552372
 -0.21519183 -0.08384026 -0.0480722   0.21873736 -0.20115367 -0.1217038
 -0.05941767  0.01464792  0.0519455   0.00790562  0.00172742  0.02486535
 -0.08859377 -0.38061863 -0.09203707 -0.07871675  0.01203317 -0.03353772
 -0.09585404  0.0898775  -0.14167289 -0.08194914  0.07481764  0.06913266
 -0.03971608 -0.11396518  0.15669996 -0.04234534 -0.27162644  0.01774248
  0.07589376  0.18687704  0.17971671  0.00737737  0.02041565 -0.18035641
  0.13553281 -0.13582024 -0.01830152  0.1197793   0.07943439  0.0700449
 -0.00075819 -0.14005069 -0.0161836   0.14803818 -0.11231472 -0.05928286
  0.074777   -0.09017771 -0.02041609 -0.13774484  0.1900001   0.04276353
 -0.1190398  -0.15293041  0.10684999 -0.11988274 -0.05158366  0.03335581
 -0.15999553 -0.19145742 -0.26560041 -0.02956142  0.38636327  0.06463115
 -0.20058274  0.01387852 -0.06307983  0.01183962  0.13224401  0.15245178
  0.03698514  0.01638673 -0.07977971 -0.03294556  0.22954397 -0.12922864
  0.03927403  0.20286529 -0.0239317   0.09907163 -0.00507426  0.00549797
 -0.06643997  0.09181839 -0.12120479  0.00699351  0.01261386 -0.01674098
  0.01539452  0.079912   -0.14250395  0.08916954  0.05123878  0.06540953
  0.08685811 -0.04367467 -0.04013257 -0.11160883  0.14301552 -0.22797632
  0.16825879  0.17215493  0.04822807  0.14112189  0.0685109   0.09872799
 -0.04154691 -0.04891331 -0.23435238  0.03824551  0.12600568 -0.01922529
  0.02388997 -0.03550569]