[-0.14094412  0.15263113  0.06496479 -0.01445142 -0.09292588  0.01592976
 -0.00075522 -0.07762351  0.11203553 -0.00758031  0.27670571  0.03135588
 -0.22484063 -0.14939384  0.02328465  0.12845752 -0.13037436 -0.14236458
 -0.14136611 -0.07564627  0.0464487  -0.02644891 -0.01633831  0.01356469
 -0.21544726 -0.26526275 -0.07373177 -0.07198521  0.06558823 -0.16508707
 -0.07132719 -0.03254325 -0.18868887 -0.13227116  0.01696236  0.13848473
 -0.05871475 -0.06408023  0.17113163 -0.0358282  -0.18520503  0.02216567
  0.0733525   0.27889222  0.27523422  0.02145658  0.02328805 -0.04564215
  0.16332212 -0.21872418  0.11821272  0.09382457  0.18356512  0.09803813
  0.08594225 -0.15962777 -0.03041207  0.18621537 -0.1758894  -0.00332537
 -0.00726848 -0.1309917  -0.0532426  -0.1008931   0.1319813   0.08143475
 -0.10270318 -0.12533379  0.15681916 -0.13484627 -0.03737964  0.09227616
 -0.08754473 -0.15877448 -0.36834899  0.05543141  0.40116587  0.12302925
 -0.24003111  0.01389269 -0.00696599 -0.03607478  0.05472281  0.09363087
 -0.03897298  0.04185073 -0.10880738  0.02904685  0.18851098 -0.02215929
 -0.00670812  0.17325804  0.02772253  0.02235804  0.09239626  0.07775267
 -0.08447752 -0.02052711 -0.0869467  -0.00733118  0.02836835 -0.11185582
 -0.01194036  0.04914736 -0.14847355  0.17101203  0.0526947   0.056878
 -0.05427466 -0.10100942 -0.03977069 -0.00369037  0.16729724 -0.31839183
  0.16625164  0.19698206 -0.09668348  0.14391899  0.07236548  0.05770574
 -0.00931224 -0.01431283 -0.15424943 -0.06109178  0.04568553 -0.08920356
  0.10935948  0.04707843]