[-1.47656649e-01  1.61686629e-01  7.69817755e-02 -1.56040806e-02
 -6.81431741e-02  3.43394503e-02 -4.42879088e-03 -7.97417685e-02
  1.31583869e-01  3.12740961e-03  3.30466986e-01 -7.00789923e-03
 -2.26038888e-01 -1.95009217e-01 -6.59061247e-04  1.55548975e-01
 -1.27531216e-01 -1.17699735e-01 -9.85074937e-02 -1.43181253e-02
  1.98190417e-02  1.69212266e-03  3.15118959e-04 -1.40675027e-02
 -1.57707050e-01 -3.72987092e-01 -5.50331958e-02 -8.38672146e-02
  4.42958735e-02 -1.11404836e-01 -8.54429230e-02  1.82717610e-02
 -1.87701091e-01 -1.36042371e-01  3.01718116e-02  1.49349853e-01
 -5.78128695e-02 -4.51950133e-02  1.60338923e-01 -5.25040291e-02
 -2.09784076e-01  9.40639526e-03  7.62173235e-02  2.80590653e-01
  2.16157362e-01  3.06105670e-02  5.04136048e-02 -9.15423259e-02
  1.19175747e-01 -1.71533391e-01  1.05201997e-01  1.00903846e-01
  1.34122357e-01  6.00443780e-02  7.41190761e-02 -1.54828057e-01
 -2.30855197e-02  1.40655711e-01 -1.78480938e-01 -2.69144960e-02
  2.54137758e-02 -8.18370804e-02 -4.60166559e-02 -7.21739382e-02
  1.71984419e-01  7.40145221e-02 -9.37171578e-02 -1.66250139e-01
  1.56501576e-01 -1.10417344e-01 -2.23228298e-02  9.34569761e-02
 -1.00260831e-01 -1.92548648e-01 -3.61276776e-01  7.80776963e-02
  3.95143390e-01  9.54959020e-02 -2.24755749e-01  4.63233851e-02
 -2.42744964e-02 -5.55058978e-02  1.10258676e-01  1.15686871e-01
 -1.22429691e-02  5.58017083e-02 -1.33027866e-01  5.57007780e-03
  2.04361707e-01 -2.98499316e-02 -1.78906228e-02  1.72143713e-01
  5.42878686e-03  2.02328078e-02  7.87909999e-02  7.52358809e-02
 -7.42197484e-02  4.74408530e-02 -1.25135615e-01 -8.23281147e-03
  7.33675808e-02 -8.04943070e-02 -1.59387495e-02  6.53531626e-02
 -1.60847172e-01  1.40210509e-01  5.33420518e-02  6.21768050e-02
  7.13673700e-03 -1.12287223e-01 -3.95313315e-02 -2.58711129e-02
  1.61755189e-01 -3.05238187e-01  1.96013585e-01  1.53242618e-01
 -2.90922169e-02  1.61108479e-01  1.25327870e-01  4.90329750e-02
  2.00195815e-02 -4.17374037e-02 -1.92622229e-01 -4.92250845e-02
  6.11263774e-02 -7.08399117e-02  1.08216226e-01  4.34481315e-02]