[-0.14948855  0.1209285   0.07129066 -0.03058284 -0.08467225  0.03050152
  0.00895338 -0.07383724  0.12728685 -0.02765198  0.25625265  0.01572239
 -0.23865882 -0.17396815  0.05405685  0.13475695 -0.14239372 -0.13893202
 -0.14173345 -0.06603675 -0.0292098   0.03002785 -0.01799729  0.01078528
 -0.19821338 -0.35913882 -0.06599905 -0.08876259  0.00053593 -0.10837958
 -0.07245474  0.06454425 -0.16198039 -0.12732998  0.07242353  0.15350857
 -0.06423818 -0.02249594  0.1574951  -0.04724209 -0.20326142  0.00054933
  0.10498022  0.28745642  0.24715483  0.03466744  0.03991104 -0.04945623
  0.14500467 -0.20145734  0.09832224  0.11640134  0.1174899   0.05169128
  0.11867362 -0.16478533 -0.06115202  0.15976411 -0.15004043  0.00510698
  0.024667   -0.1600201  -0.06269131 -0.07909258  0.16702639  0.06783088
 -0.12715982 -0.14479373  0.16566096 -0.12040124 -0.01469464  0.09509661
 -0.11386897 -0.18253519 -0.33732921  0.07824223  0.4176209   0.10685364
 -0.20000823  0.03161366 -0.02292278 -0.03998202  0.09743172  0.1406996
 -0.01772053  0.01548107 -0.09202053  0.05066398  0.19123249  0.00305594
 -0.0110191   0.1644976  -0.00628245  0.02360079  0.06735452  0.04862545
 -0.09098659  0.00293017 -0.11822663  0.0085709   0.06036557 -0.07774842
  0.01183893  0.07444942 -0.10847276  0.13274984  0.0377924   0.06211824
 -0.0105705  -0.09569467 -0.04534965 -0.0269903   0.15212445 -0.32036567
  0.16858938  0.14783238 -0.07917359  0.15908843  0.08638746  0.05195276
  0.01855022 -0.0330677  -0.18778931 -0.04926527  0.08095627 -0.06016758
  0.11781795  0.01532596]