[-0.09214336  0.03897582  0.09931179 -0.05891816 -0.12619507 -0.04043726
 -0.03014342 -0.13901299  0.16518599 -0.11899292  0.22091852 -0.12366181
 -0.21728086 -0.06740902 -0.03858719  0.21400173 -0.19812393 -0.15125966
 -0.07095692 -0.01482279  0.0173095   0.00152279 -0.00592253  0.00781438
 -0.07191739 -0.42493421 -0.09126621 -0.07446513  0.02084125 -0.02602342
 -0.08452245  0.04534895 -0.19088571 -0.07557047  0.04801599  0.08720883
 -0.02048356 -0.10022434  0.12454005 -0.07734034 -0.29258579  0.04072945
  0.05762185  0.19500197  0.17632873  0.02637333 -0.00395883 -0.18375476
  0.14389531 -0.13849182  0.00732343  0.12738419  0.04611144  0.06428619
  0.00236979 -0.15576878 -0.00322959  0.13454242 -0.13403443 -0.03965497
  0.08473179 -0.08231895  0.011101   -0.14102213  0.21227145  0.05234583
 -0.1070405  -0.19440766  0.12010399 -0.13670969  0.00182862  0.04486845
 -0.17694113 -0.19253638 -0.29989141  0.00506132  0.36699334  0.08796536
 -0.19568069  0.01422063 -0.0710148   0.04003504  0.13214651  0.17851678
  0.0444309   0.05508954 -0.08437084 -0.01309104  0.21392715 -0.11903989
  0.00308976  0.21545441 -0.03027638  0.0835367  -0.00646391  0.00879576
 -0.10445827  0.05870131 -0.15715452 -0.00691027  0.0122226   0.03030314
  0.01413161  0.10413098 -0.12366332  0.11303212  0.01314084  0.0619779
  0.02522936 -0.04490103  0.00116245 -0.11177551  0.13609727 -0.22196317
  0.19158575  0.1921622   0.07494482  0.16008073  0.06152467  0.06203765
 -0.03829303 -0.0216418  -0.2221576   0.05134491  0.10792456 -0.0205433
  0.04975479  0.00197561]