[-1.42928824e-01  1.45594195e-01  7.11440593e-02  1.23474887e-02
 -8.56274068e-02  2.63695717e-02  1.03667360e-02 -8.17008838e-02
  1.27462313e-01 -4.66010086e-02  2.83565491e-01  3.01174056e-02
 -2.19118521e-01 -1.38703391e-01  2.70017367e-02  1.47854000e-01
 -1.34938821e-01 -1.43040404e-01 -1.52356431e-01 -6.61249384e-02
  3.65706906e-02 -1.93633866e-02 -1.14035187e-02  2.57357280e-03
 -2.21564442e-01 -3.01314801e-01 -7.14472309e-02 -7.73085579e-02
  6.48921728e-02 -1.53947353e-01 -8.21931884e-02 -4.13921662e-02
 -1.72979519e-01 -1.31989270e-01  3.93642345e-03  1.26164481e-01
 -6.61788881e-02 -6.88073263e-02  1.72956750e-01 -4.19623107e-02
 -2.10013345e-01  3.24769542e-02  5.61428741e-02  2.85399109e-01
  2.74853945e-01  1.03385961e-02  3.34019139e-02 -4.88319509e-02
  1.63584933e-01 -2.40077242e-01  1.12792037e-01  7.14853182e-02
  1.59210756e-01  1.03024863e-01  8.20135847e-02 -1.54017583e-01
 -5.10316193e-02  2.07924202e-01 -1.66782349e-01  7.47340126e-03
  3.12414509e-03 -1.19197622e-01 -2.19490565e-02 -8.89499560e-02
  1.46138132e-01  8.56927037e-02 -1.13757662e-01 -1.17263272e-01
  1.53599650e-01 -1.43619284e-01 -2.09984966e-02  6.84391186e-02
 -8.84328708e-02 -1.77793846e-01 -3.80669713e-01  6.57878518e-02
  4.04239655e-01  1.22117095e-01 -2.13044405e-01  2.59989477e-03
 -1.24790389e-02 -2.34050509e-02  6.07253797e-02  1.07456885e-01
 -2.80489419e-02  2.56965160e-02 -9.75584313e-02  2.55897231e-02
  2.03378603e-01 -1.11028915e-02 -1.20596727e-02  1.93570063e-01
  1.05091259e-02  1.18831722e-02  8.54793340e-02  9.02963281e-02
 -9.84522104e-02 -1.74372848e-02 -8.02925751e-02  1.33809792e-02
  1.84095204e-02 -1.12433828e-01 -3.48053873e-05  6.60373196e-02
 -1.47938415e-01  1.86517820e-01  2.40147319e-02  8.25619102e-02
 -2.03947499e-02 -8.47124383e-02 -4.21874821e-02 -8.32705386e-03
  1.67594939e-01 -3.02631080e-01  1.61677614e-01  2.04388723e-01
 -7.73959830e-02  1.54222116e-01  7.62356073e-02  4.75322902e-02
 -1.17923664e-02  8.97247996e-03 -1.90074667e-01 -4.21821140e-02
  4.72605415e-02 -9.50969309e-02  1.00723200e-01  5.68479560e-02]