[-1.29591390e-01  1.28123835e-01  6.69534132e-02 -2.51842085e-02
 -7.51543865e-02  5.07079326e-02  1.47487838e-02 -4.50731553e-02
  1.29800394e-01 -1.85463317e-02  2.61581928e-01  1.39575154e-02
 -2.58815736e-01 -1.72176525e-01  5.78720085e-02  1.20690703e-01
 -1.52334690e-01 -1.27364188e-01 -1.47790268e-01 -7.08112046e-02
 -4.35003601e-02  4.49936688e-02 -2.54813023e-02 -1.01839937e-03
 -1.91408724e-01 -3.80736887e-01 -5.92246614e-02 -8.44953656e-02
  2.34992597e-02 -1.34203047e-01 -7.79747665e-02  5.63108325e-02
 -1.57728404e-01 -1.29169762e-01  6.38068244e-02  1.23521149e-01
 -5.93385771e-02 -2.45859586e-02  1.62827358e-01 -6.33244216e-03
 -1.80154964e-01  2.42950773e-04  9.04609412e-02  3.15909237e-01
  2.34978229e-01  4.51612361e-02  3.01665720e-02 -2.43044533e-02
  1.28006443e-01 -2.19869420e-01  9.52294916e-02  1.20880380e-01
  1.16709426e-01  4.82199788e-02  1.20918132e-01 -1.77781448e-01
 -7.69372210e-02  1.46088406e-01 -1.65576652e-01  3.19769979e-02
  1.79356132e-02 -1.58238947e-01 -7.05880076e-02 -7.89059773e-02
  1.67964533e-01  5.53428791e-02 -1.32024854e-01 -1.42589197e-01
  1.51736692e-01 -1.18854068e-01  2.22804467e-03  9.08034071e-02
 -9.78089571e-02 -1.79643139e-01 -3.29957306e-01  1.07251979e-01
  4.09361422e-01  1.07907973e-01 -2.01059058e-01  1.38509395e-02
 -2.05131527e-02 -5.90124130e-02  9.32012498e-02  1.28444672e-01
 -3.11595388e-02  5.93041163e-03 -8.93113613e-02  5.20612560e-02
  1.73671499e-01  1.84130222e-02 -1.87907461e-02  1.63891554e-01
 -2.17791852e-02  1.56031102e-02  6.81636110e-02  5.19747436e-02
 -1.05199911e-01 -3.13948112e-04 -1.05495170e-01  1.88470762e-02
  7.41248950e-02 -1.16888955e-01  6.11087773e-03  7.45633021e-02
 -1.13239527e-01  1.33180857e-01  3.70859504e-02  3.37169245e-02
  1.01457036e-03 -9.21306536e-02 -6.31426871e-02 -2.44100820e-02
  1.68816552e-01 -3.43659878e-01  1.74223468e-01  1.67946264e-01
 -6.44091219e-02  1.61862016e-01  7.64546022e-02  4.39627431e-02
  1.71688776e-02 -1.60800051e-02 -1.75502449e-01 -7.12141618e-02
  5.82083873e-02 -6.72802180e-02  1.02960661e-01  3.89416306e-03]