[-0.08144149  0.05173776  0.09142348 -0.0381875  -0.12169483 -0.0455276
 -0.05414724 -0.10863699  0.17782281 -0.12353381  0.20110007 -0.07958362
 -0.20685942 -0.07528203 -0.04602976  0.22323601 -0.19963489 -0.16234802
 -0.06344774  0.02775012  0.02726399 -0.00297923 -0.00356289  0.02093749
 -0.08521221 -0.4164587  -0.09725266 -0.09885028 -0.01342463 -0.03634491
 -0.09279847  0.01473956 -0.1350522  -0.07182405  0.03190139  0.05303646
  0.00119361 -0.11096194  0.15156028 -0.03089566 -0.30594507  0.03359912
  0.03895431  0.2060319   0.19284597  0.03319771  0.02673981 -0.1421738
  0.16777314 -0.14375229 -0.00232672  0.11132748  0.08490413  0.03585268
  0.01186593 -0.15929775 -0.00067566  0.13419241 -0.11712029 -0.02385623
  0.084917   -0.08768032  0.01880766 -0.08985829  0.22631402  0.03807985
 -0.12059186 -0.15209013  0.15075986 -0.10767024 -0.01078443 -0.00272849
 -0.18373041 -0.18837176 -0.28109881  0.00618547  0.39614233  0.07307184
 -0.18874145  0.02761323 -0.08403057  0.05156994  0.09989546  0.18251351
  0.02398618  0.02023289 -0.09854669 -0.04021344  0.21514814 -0.10027873
  0.02385753  0.19972746 -0.02917395  0.09248968 -0.00397038 -0.00849594
 -0.09439883  0.09146865 -0.10427367  0.04063051  0.02331103 -0.00634033
  0.02734907  0.0895031  -0.12614708  0.07748336  0.0192531   0.08078504
  0.05039134  0.01227792 -0.04975121 -0.12283198  0.13299046 -0.19942984
  0.18378322  0.18819456  0.07087499  0.14747988  0.09053392  0.08225376
 -0.01936136 -0.00372619 -0.2331991   0.03214413  0.10135555 -0.02464963
  0.050367    0.02921254]