[-8.37317333e-02  4.85401712e-02  8.08966309e-02 -4.54715155e-02
 -1.15278862e-01 -6.18604496e-02 -6.82482049e-02 -1.17955521e-01
  1.79597124e-01 -1.15033306e-01  1.85990319e-01 -7.77834430e-02
 -1.94384679e-01 -7.59870559e-02 -4.76337336e-02  2.18639448e-01
 -2.01787233e-01 -1.66322470e-01 -7.26095662e-02  1.91505700e-02
  1.98413488e-02  3.38650914e-03  6.44476339e-03  2.39236820e-02
 -9.13952813e-02 -4.12657022e-01 -8.77277181e-02 -9.88923460e-02
 -1.77424792e-02 -3.13147083e-02 -9.14411545e-02  2.52133664e-02
 -1.49049789e-01 -8.60154778e-02  4.64551821e-02  7.05545321e-02
  2.83312052e-03 -1.17649458e-01  1.55337647e-01 -3.83533612e-02
 -3.08916658e-01  3.58602479e-02  4.63930778e-02  2.08418131e-01
  2.01015621e-01  2.64404304e-02  2.48956792e-02 -1.44443244e-01
  1.81871399e-01 -1.35335073e-01 -5.12420759e-03  1.14676908e-01
  8.26100484e-02  3.73420380e-02  1.93443876e-02 -1.58492595e-01
  1.36461258e-02  1.37504056e-01 -1.21240795e-01 -3.56231295e-02
  8.44953135e-02 -9.05819088e-02  2.71145683e-02 -9.43254232e-02
  2.30697498e-01  3.99743393e-02 -1.17513552e-01 -1.54370070e-01
  1.50587305e-01 -1.01693727e-01 -9.90254339e-03  7.56591544e-05
 -1.83775380e-01 -1.84358314e-01 -2.91961133e-01 -6.56141061e-03
  3.81694943e-01  7.07506388e-02 -1.89425200e-01  3.81580479e-02
 -8.19157586e-02  5.29780947e-02  9.43129957e-02  1.85011402e-01
  2.23105755e-02  3.31173055e-02 -9.31108445e-02 -4.07143533e-02
  2.21481159e-01 -8.86506811e-02  1.14034908e-02  1.91759855e-01
 -3.15186940e-02  8.31999555e-02  3.90896294e-03 -3.13493982e-03
 -1.07590914e-01  8.75345394e-02 -1.10121273e-01  4.16740142e-02
  3.08026467e-02 -3.23264307e-04  3.13479304e-02  1.01343177e-01
 -1.23883270e-01  7.48138130e-02  1.24746002e-02  8.51828456e-02
  4.57200930e-02  1.06168138e-02 -3.65781933e-02 -1.26292109e-01
  1.24356799e-01 -2.02118739e-01  1.92482755e-01  1.80520847e-01
  6.63375854e-02  1.51931792e-01  8.24914500e-02  7.78868124e-02
 -2.44300161e-02  8.95033218e-03 -2.29519561e-01  2.28381883e-02
  9.80546698e-02 -1.31265018e-02  6.36200681e-02  3.74352075e-02]