[-0.11321934  0.10747977  0.09183321  0.00667014 -0.13216935 -0.07563599
 -0.02745805 -0.16542026  0.16520399 -0.08865498  0.21427636 -0.08816709
 -0.24123572 -0.11885756 -0.03803671  0.25130305 -0.16504464 -0.19041198
 -0.05140287 -0.01052708  0.03680189 -0.00124149  0.00715224  0.03553302
 -0.09335729 -0.39260659 -0.08207235 -0.10044934  0.00374306 -0.02603139
 -0.08017003  0.05692483 -0.14998367 -0.07116311  0.06814627  0.06795806
 -0.04246884 -0.06568743  0.19345616 -0.05664256 -0.30484638 -0.01737259
  0.06217211  0.22795819  0.1989588   0.04451464  0.01468545 -0.16376582
  0.13876544 -0.13045393  0.00304512  0.16727239  0.06697153  0.07650591
  0.00138397 -0.18102001 -0.00580362  0.11386903 -0.1570739  -0.09054603
  0.06286503 -0.1080187  -0.03502264 -0.12398808  0.22969949  0.01848415
 -0.12294205 -0.1451558   0.13744608 -0.15080182 -0.02952625  0.03820153
 -0.18338273 -0.19028817 -0.32096562 -0.01874943  0.38693228  0.08201862
 -0.1950698   0.02534089 -0.04436643  0.01032411  0.08633896  0.17420554
  0.01771715  0.0334703  -0.08551275 -0.04692534  0.18018731 -0.12672871
  0.03136034  0.19145928 -0.01204618  0.08184879 -0.01990095  0.00473735
 -0.08828475  0.05617439 -0.12251333 -0.03034669  0.00453496  0.02290032
  0.02482469  0.07704558 -0.16134219  0.12582585  0.05382073  0.07041577
 -0.01214244 -0.04619269 -0.03984583 -0.10110074  0.1377445  -0.20060323
  0.2111315   0.19065367  0.03450254  0.15826535  0.07666576  0.06779303
 -0.05582784 -0.04277456 -0.20911546  0.01488904  0.14216889 -0.05076842
  0.07218153  0.00493735]