[-1.19269274e-01  1.56334683e-01  6.99033067e-02  1.60756744e-02
 -8.33993554e-02  5.47913983e-02 -4.52241255e-03 -7.76493326e-02
  1.48948893e-01 -4.17654365e-02  3.15069526e-01  3.73155102e-02
 -2.32017905e-01 -1.57260537e-01  3.91432606e-02  1.37994349e-01
 -1.22064270e-01 -1.13175713e-01 -1.57518461e-01 -4.59973328e-02
  3.41024846e-02 -2.76797749e-02  1.07673360e-02 -5.31866308e-03
 -2.15138480e-01 -3.24646682e-01 -7.41091967e-02 -7.43150711e-02
  5.81104644e-02 -1.65658474e-01 -9.19113979e-02 -3.74350324e-02
 -1.78928778e-01 -1.52144074e-01  9.05469060e-05  1.05638817e-01
 -5.12151085e-02 -5.71361780e-02  1.51749149e-01 -5.77970706e-02
 -1.93690136e-01  3.15014608e-02  6.02352396e-02  2.69134104e-01
  2.66721547e-01  1.92071535e-02  3.67853343e-02 -5.52469790e-02
  1.39597639e-01 -2.28436425e-01  9.64911804e-02  7.47116879e-02
  1.64915681e-01  1.00884639e-01  8.29174668e-02 -1.46738693e-01
 -4.72610705e-02  1.97271571e-01 -1.63188949e-01 -5.13575692e-03
 -3.48467001e-04 -8.55571181e-02 -3.16017047e-02 -7.86083043e-02
  1.66142851e-01  9.08614472e-02 -1.18828945e-01 -1.18979074e-01
  1.23799801e-01 -1.25310495e-01 -6.40160451e-03  6.54186532e-02
 -1.08747832e-01 -1.91276133e-01 -3.64688754e-01  6.45531565e-02
  4.02488142e-01  1.19591691e-01 -2.44193509e-01  7.28260726e-04
 -3.55349444e-02 -2.95362622e-02  4.84496094e-02  9.50372592e-02
 -1.48512004e-02  2.60327794e-02 -8.98791477e-02  3.71778384e-02
  1.95084795e-01 -2.37980988e-02  4.75204596e-03  2.02454090e-01
  1.86814424e-02  8.12090002e-03  7.95373544e-02  8.50718841e-02
 -9.55701843e-02 -1.16546517e-02 -9.73179266e-02  1.47973998e-02
  1.25752008e-02 -9.55629349e-02  1.90131366e-04  4.98495512e-02
 -1.59165427e-01  1.90472335e-01  4.16966639e-02  6.77823648e-02
  1.94912031e-03 -8.77988338e-02 -3.48139107e-02 -1.86767336e-02
  1.71998337e-01 -3.15337449e-01  1.68186188e-01  1.95448503e-01
 -6.49994239e-02  1.57931566e-01  6.15949035e-02  6.44695386e-02
 -4.56213532e-03  2.05398928e-02 -1.64478466e-01 -4.54254448e-02
  3.95544507e-02 -1.14449419e-01  9.36218277e-02  3.16808410e-02]