[-0.061053    0.06363741  0.01781372 -0.03675135 -0.08943577 -0.02971627
  0.0237551  -0.18080829  0.20160234 -0.14291362  0.1873486  -0.06668661
 -0.23976366 -0.09484624 -0.00140305  0.2348512  -0.17118293 -0.16256164
 -0.09083325 -0.04171839  0.01811445  0.00973572  0.00590373  0.04106968
 -0.05258185 -0.33101121 -0.08615076 -0.07391559  0.02363884 -0.02224028
 -0.08960359  0.09282328 -0.12448125 -0.03992992  0.06926431  0.08311861
 -0.0733289  -0.08493333  0.16794728 -0.01028349 -0.25117728 -0.00519017
  0.031751    0.20141073  0.19328037  0.03251738 -0.02251988 -0.15814605
  0.16299555 -0.16861521 -0.02120444  0.12356005  0.09790628  0.0608309
 -0.01868357 -0.19076601 -0.01755804  0.11355773 -0.18108475 -0.08285718
  0.03926736 -0.12524246 -0.07357936 -0.08017552  0.20036753  0.12266495
 -0.12229861 -0.1465411   0.14907567 -0.15687574 -0.01423762  0.02272867
 -0.15103136 -0.18891352 -0.18587069 -0.02913847  0.38085735  0.06921317
 -0.17726047 -0.01651088 -0.05525114  0.02144284  0.11340842  0.14410706
 -0.02096979 -0.01886941 -0.08052223 -0.05286167  0.17506586 -0.14500549
  0.02014919  0.21818875 -0.00863737  0.09024817 -0.01812493 -0.0216959
 -0.07905304  0.07931785 -0.13378753 -0.07331831  0.00922597 -0.01193859
  0.03457491  0.06282266 -0.13765676  0.14617452  0.05055436  0.0681593
  0.06035287 -0.05056487 -0.03801144 -0.10696328  0.12263067 -0.19520497
  0.16752823  0.17698826  0.01021762  0.16379742  0.05544011  0.10604125
 -0.01324135 -0.05081656 -0.22352691  0.02662112  0.15146044  0.00084065
  0.01266305 -0.035841  ]