[-0.14109986  0.1257329   0.07893311 -0.00935188 -0.06755199  0.02656239
  0.00390348 -0.06090835  0.12359612 -0.03097164  0.28532684  0.01497923
 -0.25256249 -0.18005112  0.04551877  0.12306701 -0.13968894 -0.12199718
 -0.14187352 -0.06962542 -0.00634185  0.03389804 -0.01643959 -0.01786532
 -0.19787811 -0.37026355 -0.06913561 -0.08499556  0.00409651 -0.12698193
 -0.08050033  0.04557346 -0.1545282  -0.1499619   0.06588744  0.13861446
 -0.0522748  -0.01442268  0.16502307 -0.03560613 -0.17831177  0.01382979
  0.10045081  0.31286269  0.23499008  0.04277666  0.03800576 -0.04478787
  0.13535492 -0.20090978  0.09250668  0.11171129  0.12635006  0.05704927
  0.12800883 -0.15387152 -0.06981898  0.15036529 -0.14613667  0.0172583
  0.02300325 -0.15213183 -0.06219384 -0.07656326  0.16980655  0.05167741
 -0.1222796  -0.13721234  0.15743808 -0.11544664 -0.01871534  0.08131748
 -0.11369937 -0.17296074 -0.34228766  0.08414339  0.41702682  0.09222894
 -0.21377292  0.03126375 -0.01825533 -0.05131301  0.10344651  0.13095123
 -0.01396221  0.03529311 -0.09201351  0.05402491  0.19148549  0.00124256
 -0.01929429  0.16238457 -0.00410672  0.02519567  0.09486722  0.04435336
 -0.09378767 -0.01323299 -0.13005243  0.01125085  0.06558252 -0.10532288
  0.00472798  0.06815883 -0.10814597  0.12432323  0.03764579  0.05019189
 -0.00800542 -0.08725828 -0.05374276 -0.02823921  0.15717345 -0.32287791
  0.16781084  0.16076143 -0.07153783  0.15604435  0.08023095  0.04644359
  0.01255125 -0.00478859 -0.17554511 -0.06737123  0.05410803 -0.04913525
  0.11803088  0.00753562]