[-1.30175799e-01  1.31399676e-01  7.80062303e-02 -2.80114952e-02
 -7.07352459e-02  1.44602871e-02  6.85938308e-03 -6.52301759e-02
  1.24217108e-01 -3.10459286e-02  2.72140950e-01  7.71496678e-03
 -2.53373116e-01 -1.77807808e-01  4.25922237e-02  1.32403955e-01
 -1.57929152e-01 -1.31947994e-01 -1.26732260e-01 -6.85951784e-02
 -5.30159287e-03  3.93402800e-02 -2.11092159e-02 -1.35031718e-04
 -1.83317587e-01 -3.70183557e-01 -6.82113916e-02 -7.71958977e-02
  2.87190732e-03 -1.14994660e-01 -6.66641816e-02  6.39394075e-02
 -1.57086059e-01 -1.32127687e-01  6.88663274e-02  1.29195720e-01
 -4.63853553e-02 -1.71712544e-02  1.58543453e-01 -2.98430081e-02
 -1.82000533e-01  7.47511489e-03  9.31949615e-02  3.05797338e-01
  2.37201288e-01  4.31889184e-02  3.26851942e-02 -4.45318334e-02
  1.33339733e-01 -2.02791601e-01  8.17389116e-02  1.12819605e-01
  1.24261521e-01  5.04200049e-02  1.15929060e-01 -1.62723184e-01
 -6.46495745e-02  1.45829245e-01 -1.62120804e-01  2.19751652e-02
  2.06044987e-02 -1.82589546e-01 -6.39202073e-02 -8.21951851e-02
  1.63390219e-01  4.62594964e-02 -1.31026849e-01 -1.36728168e-01
  1.58056319e-01 -1.19107060e-01 -2.22731736e-02  8.31725225e-02
 -1.02472700e-01 -1.72188878e-01 -3.41827810e-01  8.12523887e-02
  4.05621022e-01  9.89770219e-02 -2.14027211e-01  2.63645202e-02
 -3.08867381e-03 -4.07220460e-02  1.01299383e-01  1.40362531e-01
 -2.56902408e-02  2.24873032e-02 -9.98305902e-02  5.35389259e-02
  1.77494511e-01  3.24640796e-03 -2.62329131e-02  1.74694106e-01
 -2.15473603e-02  4.03663591e-02  7.93444663e-02  5.27791642e-02
 -8.84370580e-02  2.49293610e-03 -1.16968706e-01  2.15524379e-02
  7.34094754e-02 -1.05552152e-01 -1.34657326e-04  7.02900216e-02
 -1.00712858e-01  1.22884385e-01  2.68475916e-02  5.16722202e-02
 -1.82342660e-02 -9.32947099e-02 -5.38791604e-02 -1.90042052e-02
  1.54198930e-01 -3.23320150e-01  1.76776275e-01  1.66174218e-01
 -7.29647875e-02  1.62504226e-01  7.55355582e-02  4.15097587e-02
  1.20301545e-02 -3.65189388e-02 -1.78112373e-01 -6.89980984e-02
  6.97373003e-02 -5.64206429e-02  1.23932719e-01  5.44552226e-03]