[-7.73101971e-02  9.34446827e-02  5.98428547e-02 -3.33083384e-02
 -8.64100382e-02  1.62431714e-03  5.32409921e-02 -8.22276697e-02
  1.36078015e-01 -1.16705522e-03  2.58079678e-01 -3.28062363e-02
 -2.44687423e-01 -1.57046765e-01  5.10910563e-02  9.73784626e-02
 -1.38035610e-01 -8.53266343e-02 -1.34887859e-01 -9.16282460e-02
 -1.51272537e-02 -2.13606041e-02  1.60819944e-02  8.53105076e-03
 -1.81735352e-01 -3.41107339e-01 -7.75789022e-02 -8.04611519e-02
  2.15204097e-02 -1.30720362e-01 -3.75894532e-02  1.68332934e-01
 -1.71226293e-01 -1.30804464e-01  3.65103744e-02  1.18227445e-01
 -8.20242018e-02 -2.52481233e-02  1.72472268e-01 -6.62915036e-02
 -1.37520000e-01 -3.64444265e-03  7.80799016e-02  2.55286545e-01
  2.34996632e-01  7.95096066e-03  2.36946158e-02 -4.49459963e-02
  1.60999998e-01 -2.04837427e-01  4.37494889e-02  1.42594203e-01
  1.18312083e-01  6.13042824e-02  9.42448378e-02 -1.25673607e-01
  2.01670089e-04  1.19608276e-01 -2.18372464e-01  1.08837811e-02
 -4.21366468e-03 -1.83334485e-01 -1.01650774e-01 -7.69704729e-02
  9.54840183e-02  7.39382729e-02 -7.19945729e-02 -1.34691879e-01
  1.64302811e-01 -1.38951898e-01  2.24297424e-03  1.06201552e-01
 -1.34082243e-01 -1.97523952e-01 -3.32712322e-01  3.89532186e-02
  3.67774606e-01  9.51678455e-02 -1.87928125e-01  3.30578238e-02
 -3.13573191e-03 -6.51473850e-02  7.58179426e-02  8.97545964e-02
 -6.01660311e-02  5.76343409e-05 -1.00904964e-01  9.28357467e-02
  1.55208096e-01 -4.36249636e-02 -3.03798504e-02  1.77516267e-01
  6.15482545e-03  3.48321684e-02  6.86594024e-02  4.09094878e-02
 -6.30092844e-02  3.54470615e-03 -1.46074221e-01  2.69312393e-02
  8.51068050e-02 -1.27642855e-01 -2.64680721e-02  4.43737619e-02
 -1.34127736e-01  1.48682043e-01  3.66624109e-02  2.60031316e-02
 -3.86487991e-02 -1.57273278e-01 -6.16350845e-02  9.70258098e-03
  1.82525560e-01 -3.16252857e-01  1.55403644e-01  1.72550529e-01
 -8.04001987e-02  1.42712340e-01  2.45154742e-02  3.15372199e-02
 -3.54164816e-03 -5.75306714e-02 -1.58757836e-01 -4.80060242e-02
  8.26657340e-02 -4.53754328e-02  4.60830331e-02 -1.02880541e-02]