[-0.09104984  0.09018049  0.08149574 -0.00041482 -0.1259371  -0.07641032
 -0.03046705 -0.15805782  0.16282731 -0.08443295  0.21609417 -0.09668797
 -0.24026187 -0.09871327 -0.04827478  0.23501635 -0.16181396 -0.18837552
 -0.05741509  0.00333209  0.03324891  0.00352279 -0.00592601  0.03177699
 -0.07429749 -0.39870569 -0.08350889 -0.09340321  0.00452803 -0.02550851
 -0.07830845  0.06203061 -0.14997298 -0.06820717  0.08014905  0.05962569
 -0.03848379 -0.0737571   0.19051981 -0.05889332 -0.30991003 -0.00596873
  0.06032291  0.22860503  0.20148985  0.0497791   0.00490432 -0.17551726
  0.15184899 -0.13422684 -0.00357655  0.16840295  0.07359669  0.07408347
 -0.01602231 -0.18265949 -0.01072768  0.1150797  -0.15568791 -0.08202194
  0.06374248 -0.11565617 -0.02577403 -0.13374616  0.23517565  0.01657537
 -0.13579965 -0.14709643  0.13652767 -0.15709873 -0.01871108  0.03602802
 -0.1842043  -0.19383936 -0.30564013 -0.01486785  0.38331327  0.06939445
 -0.19583279  0.02342788 -0.05099896  0.02302181  0.08351652  0.17818569
  0.01685747  0.02632118 -0.08817859 -0.05508327  0.20562048 -0.13461024
  0.0308657   0.19406529 -0.02873993  0.09166081 -0.01970552  0.00944044
 -0.09080207  0.05484673 -0.12409003 -0.01653284 -0.00382999  0.02093152
  0.02499775  0.0876006  -0.14887986  0.1198619   0.04395888  0.07764383
  0.00797606 -0.05086799 -0.02652449 -0.12035231  0.13818717 -0.19762181
  0.21507457  0.17544131  0.05819139  0.15770818  0.07049038  0.07107048
 -0.05442605 -0.04081271 -0.22125737  0.02210433  0.13833801 -0.03734013
  0.06134553 -0.00679004]