[-0.14041279  0.12958185  0.07054225 -0.02327746 -0.07601292  0.03064051
 -0.00431098 -0.06170239  0.11694358 -0.03092246  0.27060619  0.01652278
 -0.25116479 -0.18870604  0.05639924  0.12919343 -0.1514114  -0.12510419
 -0.14113615 -0.07019898 -0.02421787  0.04317575 -0.01546548 -0.0098879
 -0.19090857 -0.37690851 -0.0655202  -0.07726764  0.01494604 -0.1193874
 -0.08041312  0.06473946 -0.15153101 -0.13220665  0.06814816  0.14276223
 -0.05450353 -0.0146426   0.16051632 -0.0270361  -0.18958661  0.00184009
  0.09546969  0.30799523  0.25216517  0.04132599  0.02758935 -0.03469462
  0.13932635 -0.20723425  0.09579869  0.12268231  0.12068912  0.05681446
  0.11717909 -0.16020922 -0.06637137  0.15788005 -0.15995596  0.00125067
  0.01570279 -0.1672025  -0.06606227 -0.07409309  0.1688789   0.06117043
 -0.13080119 -0.13848706  0.15939164 -0.11951168 -0.01534393  0.08097941
 -0.11222909 -0.17331104 -0.3475998   0.09081524  0.39984673  0.10549631
 -0.21029381  0.02663757 -0.00894582 -0.04877552  0.10453234  0.13967404
 -0.02748509  0.01654347 -0.08846676  0.04370156  0.17372482  0.00780089
 -0.01992187  0.17319933 -0.00539672  0.03140806  0.08833147  0.05310854
 -0.08960959 -0.01385012 -0.12317415  0.00978588  0.07195485 -0.10767968
  0.00587695  0.07973599 -0.10575507  0.13661146  0.03976109  0.05858256
  0.00121115 -0.09576254 -0.04322663 -0.03674332  0.15373431 -0.32357773
  0.16720138  0.16459097 -0.07290812  0.16698307  0.08702649  0.05242577
  0.00947936 -0.02318737 -0.17471729 -0.06456244  0.06819504 -0.05447569
  0.10962639  0.01040485]