[-0.05912619  0.06722251  0.10048915 -0.0373967  -0.09204922 -0.05141476
 -0.01077394 -0.13678046  0.19887014 -0.13221836  0.21593194 -0.08536986
 -0.23216124 -0.09385039 -0.02607876  0.23626359 -0.18890475 -0.19380182
 -0.06632417 -0.01154065  0.05792153  0.04588937 -0.00907726  0.02726144
 -0.09095448 -0.35236868 -0.07193575 -0.05669243  0.02371642 -0.04430717
 -0.09257585  0.09230768 -0.14315766 -0.05593645  0.07684497  0.11778188
 -0.02842296 -0.11919118  0.15290128 -0.05963888 -0.29866463  0.02250469
  0.05650486  0.20145288  0.20442656 -0.0069525  -0.0367422  -0.15424392
  0.14177647 -0.13975699 -0.02952158  0.17317     0.0772657   0.10513385
  0.00447009 -0.17794369  0.0156966   0.11790555 -0.13001791 -0.11666167
  0.06061962 -0.12037136  0.03277972 -0.10181706  0.16231287  0.01471478
 -0.09862334 -0.17073339  0.11105706 -0.14543004 -0.03903275  0.02722677
 -0.19452536 -0.16206838 -0.23915091 -0.03307757  0.34543371  0.07498778
 -0.18573287  0.07985841 -0.02538881  0.02575915  0.10006072  0.17667983
  0.03650995  0.04143339 -0.08691003 -0.02174589  0.17920421 -0.11947439
  0.03852324  0.2082874  -0.02058295  0.09146271  0.02065045 -0.03951507
 -0.05778721  0.10329878 -0.12487941  0.00484767 -0.01891087  0.00997325
  0.02551499  0.08185282 -0.1208805   0.1156469   0.05022712  0.09778121
  0.03934515 -0.0180652  -0.01447403 -0.11195476  0.1159483  -0.21031474
  0.19299677  0.1802687   0.02800921  0.14966013  0.06556127  0.11088003
 -0.02340387 -0.02433854 -0.21437927  0.03816974  0.12250295 -0.02302908
  0.03999656  0.0015805 ]