[-7.26792440e-02  8.29083771e-02  3.96620072e-02 -2.61418521e-02
 -8.43780190e-02 -1.27992993e-02  5.52850179e-02 -8.83702859e-02
  1.37791559e-01  1.55322794e-02  2.35456631e-01 -1.99973527e-02
 -2.43621260e-01 -1.54742360e-01  8.38875398e-02  7.18226209e-02
 -1.31400868e-01 -7.70816207e-02 -1.69969827e-01 -1.04139507e-01
 -3.57053876e-02 -2.19548568e-02  2.51362361e-02  1.41606477e-04
 -1.80130616e-01 -3.32976669e-01 -6.97738230e-02 -9.18276086e-02
  3.96700241e-02 -1.23856083e-01 -3.14612575e-02  1.41478941e-01
 -1.91303581e-01 -1.49305329e-01  3.27947214e-02  9.83754396e-02
 -8.64881799e-02 -3.98378931e-02  1.66064426e-01 -6.22694604e-02
 -1.34252235e-01 -8.38811602e-03  6.64366484e-02  2.33498722e-01
  2.43423939e-01  9.33944248e-03  3.61899249e-02 -7.42581710e-02
  1.79987565e-01 -2.19605207e-01  8.28260705e-02  1.33042127e-01
  1.12917699e-01  6.46153390e-02  1.10509180e-01 -1.29133791e-01
  7.86799937e-05  1.13520816e-01 -2.27679774e-01  2.63662320e-02
  2.41840389e-02 -1.55855015e-01 -1.20494783e-01 -9.67670009e-02
  9.44129527e-02  1.06934503e-01 -5.64943962e-02 -1.37625709e-01
  1.61574751e-01 -1.46497235e-01 -2.82099540e-03  9.66211855e-02
 -1.18358552e-01 -1.96731359e-01 -3.42379302e-01  5.34134172e-02
  3.54927748e-01  1.08560435e-01 -1.83851436e-01  2.48874761e-02
 -1.72517654e-02 -5.49523830e-02  8.27151760e-02  7.68448710e-02
 -6.40162155e-02 -1.21647408e-02 -7.50360712e-02  1.04061782e-01
  1.61965832e-01 -4.61057797e-02 -3.41078453e-02  1.69166014e-01
  1.35828147e-03  2.04873383e-02  6.80919215e-02  4.07181606e-02
 -7.23177567e-02  4.40972624e-03 -1.35806948e-01  3.71217504e-02
  1.13009706e-01 -1.19952850e-01 -1.99116394e-03  3.60891148e-02
 -1.26222447e-01  1.55250028e-01  3.41563784e-02  1.76474508e-02
 -1.26061467e-02 -1.77108347e-01 -5.24096787e-02  9.81934648e-03
  1.77863777e-01 -3.07689369e-01  1.99203908e-01  1.47238255e-01
 -8.22009072e-02  1.46978989e-01  4.02368431e-04  5.00902832e-02
 -5.80662163e-03 -3.77135836e-02 -1.56017512e-01 -4.43316661e-02
  7.86525756e-02 -2.52093859e-02  3.52901332e-02 -2.97561288e-04]