[-0.14264293  0.12615703  0.07070164 -0.02304955 -0.082381    0.02197506
  0.00711879 -0.06103618  0.11971867 -0.01154599  0.27630231  0.00574003
 -0.24585688 -0.18458709  0.05136594  0.12438267 -0.13919796 -0.120763
 -0.14144516 -0.07570726 -0.01003507  0.02737737 -0.01602903  0.00289038
 -0.19096236 -0.37417528 -0.06085604 -0.07859962  0.01244866 -0.11876971
 -0.07214367  0.07270486 -0.15983209 -0.14217784  0.07030379  0.145045
 -0.05752114 -0.02486867  0.16970253 -0.04037436 -0.17886786  0.00476558
  0.1014174   0.30516732  0.24724817  0.03937307  0.03318068 -0.03168738
  0.14908707 -0.20672515  0.0932652   0.12148378  0.12593669  0.05680754
  0.12615596 -0.15183254 -0.05529476  0.14833705 -0.16311415  0.01466537
  0.01847799 -0.182244   -0.06864219 -0.09492202  0.16098724  0.05935041
 -0.11924455 -0.13327378  0.15856282 -0.10968757 -0.0171335   0.08348271
 -0.11420609 -0.17807683 -0.34129921  0.09498354  0.41044661  0.11247089
 -0.21681035  0.02996802  0.00083063 -0.05054653  0.10531165  0.13190931
 -0.01820577  0.01163148 -0.09541006  0.05833207  0.18292806  0.0004619
 -0.02303407  0.17227168 -0.0109639   0.03438104  0.08055174  0.04870662
 -0.0888781   0.00495601 -0.11954147  0.02540951  0.08412718 -0.10658266
  0.01145883  0.05863461 -0.10469798  0.12537245  0.03531947  0.06005486
 -0.01296394 -0.10675891 -0.05713604 -0.01343558  0.15525548 -0.32365966
  0.18779981  0.15439229 -0.07213568  0.16424924  0.08098144  0.04403571
  0.02410169 -0.0300028  -0.16788144 -0.06922779  0.07280231 -0.05214176
  0.11706692  0.01489178]