[-0.06193702  0.05051839  0.01077652 -0.00250729 -0.14095214 -0.01678661
  0.02459784 -0.15667361  0.1566969  -0.11736565  0.20026112 -0.07117201
 -0.25362161 -0.0867721   0.00706576  0.22176848 -0.16878766 -0.17749248
 -0.07298891 -0.00631054  0.05442464  0.02419476  0.03381374  0.03715554
 -0.07257905 -0.38277337 -0.08845361 -0.06059697  0.0059533  -0.02607559
 -0.10432688  0.10972034 -0.12826221 -0.04311228  0.085044    0.0634091
 -0.05079512 -0.08252539  0.1762033  -0.00374158 -0.28739643  0.00099088
  0.05453758  0.22288811  0.19449624  0.0380641  -0.02941993 -0.12088802
  0.11335845 -0.16989957  0.02016415  0.135749    0.11292776  0.0578278
 -0.01273994 -0.18183444 -0.03108989  0.08725586 -0.14601877 -0.10154505
  0.05116962 -0.10901763 -0.02041475 -0.12791879  0.21500456  0.0822506
 -0.1155495  -0.13503753  0.11134642 -0.14399926 -0.040822    0.01476629
 -0.18703584 -0.19526622 -0.21007775 -0.01611259  0.36982968  0.08752937
 -0.20208335 -0.01361455 -0.03078171  0.0282408   0.1123177   0.16006139
  0.01603584  0.00918328 -0.0908769  -0.04096925  0.17247231 -0.15208316
 -0.00900797  0.23750126 -0.00278936  0.09346335  0.02723829 -0.0153167
 -0.04651361  0.07358231 -0.14290051 -0.03118003 -0.02250714 -0.015939
  0.02015476  0.07481384 -0.12148042  0.12125899  0.03562362  0.07161125
  0.0356174  -0.04758063 -0.05552554 -0.11973562  0.09148597 -0.22090586
  0.16346082  0.17480661  0.01413768  0.16931053  0.04282167  0.10283871
 -0.01979325 -0.03501905 -0.22290277  0.02408419  0.17308556 -0.00977719
  0.01984538 -0.01298486]