[-0.0211383   0.05307933  0.09237348 -0.03611045 -0.12726998 -0.07038198
 -0.0573201  -0.14151382  0.16741136 -0.08328032  0.21338153 -0.07491802
 -0.24552646 -0.07860889 -0.04668264  0.24436668 -0.19553778 -0.18034661
 -0.07561793 -0.00540436  0.01230862  0.01083158  0.01958249  0.00128599
 -0.0848252  -0.39923096 -0.07103096 -0.07902749 -0.00993331 -0.01043529
 -0.09737822  0.06738739 -0.16923767 -0.07060213  0.08246087  0.05006967
 -0.02681437 -0.12060355  0.15601321 -0.04904121 -0.29622456  0.03317313
  0.056735    0.17561342  0.2192509   0.02709085  0.01101051 -0.18967573
  0.15325366 -0.15575588  0.00214197  0.13040203  0.06051528  0.06882771
  0.0022899  -0.16965757 -0.00437017  0.14209186 -0.14096153 -0.08436841
  0.06970894 -0.07512214 -0.01348295 -0.15686904  0.23273216  0.04241376
 -0.12703101 -0.14732225  0.11767634 -0.11779276 -0.02452793  0.02579701
 -0.18025587 -0.17483452 -0.28393111 -0.01606174  0.38645324  0.06845205
 -0.21257894  0.01417702 -0.05395253  0.04770689  0.10080969  0.13381909
  0.01226097  0.02553124 -0.08652892 -0.04346883  0.21899986 -0.12608996
  0.0136865   0.21192542 -0.0397613   0.10957966  0.00291556  0.00591245
 -0.08036868  0.07885896 -0.14473207 -0.00675721  0.01877506  0.01825459
  0.02831494  0.0909523  -0.10760552  0.07568486  0.02491731  0.08335396
  0.05931037 -0.02310935 -0.0237195  -0.14077863  0.13085525 -0.21281679
  0.20550583  0.16544634  0.05534487  0.1379796   0.05518425  0.08657661
 -0.07073314 -0.0327124  -0.22333686  0.03708735  0.14280498 -0.0146299
  0.06895619  0.00574289]