[-0.14514133  0.12905605  0.07910192 -0.01652732 -0.07766766  0.00057609
  0.0111746  -0.04948001  0.12044411 -0.00215404  0.25365815  0.0288503
 -0.26398644 -0.19731526  0.0467911   0.11969407 -0.11741024 -0.10044958
 -0.14808114 -0.06468035 -0.00965745  0.02012189  0.01341939  0.00978477
 -0.185188   -0.37149724 -0.0652306  -0.08326005 -0.01792893 -0.12538123
 -0.05761945  0.05564066 -0.16841196 -0.16672437  0.05598531  0.13940616
 -0.07638921 -0.01924543  0.15741883 -0.04978891 -0.17832719 -0.00607104
  0.09162339  0.28591618  0.23992167  0.03814262  0.05048239 -0.04280542
  0.14125241 -0.2072209   0.08479933  0.11202693  0.13067232  0.05233117
  0.14195602 -0.15168631 -0.04187159  0.15832233 -0.16021001  0.00788316
  0.00041297 -0.14872967 -0.07002717 -0.07727667  0.15674248  0.05323783
 -0.12645747 -0.11536305  0.1561015  -0.11697843  0.01594339  0.11151218
 -0.10080486 -0.1934375  -0.32795024  0.08913688  0.4034794   0.11796331
 -0.21335416  0.004945   -0.03599488 -0.03811962  0.07910138  0.1117746
 -0.03480481  0.02637608 -0.09603641  0.05818161  0.15780886  0.00435343
 -0.02212784  0.17413692  0.0106898   0.03290354  0.08425729  0.04179441
 -0.10241375  0.00052817 -0.11966491  0.02130695  0.09289428 -0.12253263
  0.0113583   0.04419808 -0.09673043  0.12074404  0.03634794  0.05470726
 -0.00967008 -0.0927421  -0.07426497 -0.02500382  0.15660445 -0.31592879
  0.18989876  0.15284052 -0.10334394  0.15771863  0.07860285  0.0576519
  0.00228365 -0.03969568 -0.1382851  -0.06203128  0.08200592 -0.06077418
  0.13069037 -0.01125827]