[-5.29405773e-02  5.71875945e-02  9.90854725e-02 -2.73671784e-02
 -8.05132017e-02 -4.67463247e-02  6.50766864e-03 -1.42129913e-01
  1.97598800e-01 -1.31681845e-01  2.05964521e-01 -6.53810874e-02
 -2.27551728e-01 -9.56194922e-02 -1.02788061e-02  2.32670262e-01
 -1.66895851e-01 -1.79074094e-01 -8.33005905e-02 -3.28594334e-02
  4.21649888e-02  7.61532411e-02  5.86820242e-04  1.94900949e-02
 -9.70543772e-02 -3.47070307e-01 -6.88883439e-02 -5.73914908e-02
  1.71675440e-02 -3.23318951e-02 -7.98685774e-02  1.09072760e-01
 -1.35765761e-01 -4.34669554e-02  7.87552074e-02  1.09996878e-01
 -4.87132072e-02 -1.07003294e-01  1.70960128e-01 -4.81236614e-02
 -2.97133416e-01  1.30369877e-02  4.78011072e-02  2.12099984e-01
  2.09097371e-01 -1.31511008e-02 -4.16997410e-02 -1.36055484e-01
  1.39311239e-01 -1.51816681e-01 -3.99717465e-02  1.61039427e-01
  5.84289841e-02  1.04908727e-01  3.03019391e-04 -1.71514973e-01
  1.03038279e-02  1.14277385e-01 -1.42262116e-01 -1.29565343e-01
  3.98803689e-02 -1.47882998e-01  8.19491968e-03 -9.01220664e-02
  1.54584289e-01  1.05599435e-02 -1.01198874e-01 -1.61087453e-01
  1.02163494e-01 -1.54133603e-01 -3.37135904e-02  4.17116210e-02
 -1.88903794e-01 -1.70494705e-01 -2.41985008e-01 -2.38480922e-02
  3.55696380e-01  7.53445476e-02 -1.81912363e-01  7.28004575e-02
 -1.47512453e-02  2.66722590e-02  1.18180230e-01  1.68645918e-01
  3.83450352e-02  3.32387462e-02 -8.03074837e-02 -1.49711883e-02
  1.73116520e-01 -1.24968164e-01  2.20947415e-02  2.14543149e-01
 -1.67009067e-02  9.62451547e-02  1.12646203e-02 -2.92731058e-02
 -4.60427701e-02  1.02005176e-01 -1.25641391e-01  2.78882380e-03
  9.71104484e-03  2.25384086e-02  3.90755795e-02  8.12112689e-02
 -1.26772955e-01  1.48894399e-01  5.63556030e-02  9.27251354e-02
  5.43551035e-02 -3.32155935e-02 -2.14549378e-02 -1.01023152e-01
  1.20920159e-01 -2.12946206e-01  1.82644591e-01  1.82160780e-01
  5.16157737e-03  1.61846355e-01  5.91843501e-02  9.71591473e-02
 -3.58074419e-02 -2.57201921e-02 -2.30155870e-01  3.22136432e-02
  1.41787246e-01 -1.40111772e-02  4.57840189e-02 -5.96001837e-03]