[-0.15142952  0.17413981  0.08997814 -0.03171352 -0.08720347  0.05191362
 -0.02378511 -0.09238137  0.14008114 -0.02041017  0.31772333  0.00100124
 -0.22514974 -0.18501236  0.01147267  0.15884288 -0.13891229 -0.12972878
 -0.07722137 -0.01841915  0.00770008  0.00493561  0.00268354 -0.02474766
 -0.16391216 -0.38451871 -0.06418739 -0.06984795  0.04310989 -0.1028487
 -0.08752389  0.02168152 -0.18573408 -0.12135547  0.02996526  0.16795677
 -0.07178809 -0.05874723  0.15308967 -0.04568687 -0.21330877 -0.00124419
  0.06727467  0.27299759  0.22059517  0.01920257  0.04836581 -0.09568912
  0.13046575 -0.16197471  0.10327157  0.10958581  0.11818802  0.06282847
  0.07337748 -0.15631998 -0.0152506   0.14402698 -0.17919409 -0.04424226
  0.0298446  -0.08509544 -0.0416791  -0.06941517  0.17270498  0.09253771
 -0.08600891 -0.1889789   0.16563611 -0.09661531 -0.03185667  0.09774903
 -0.11750509 -0.18739009 -0.36234692  0.072059    0.39675978  0.09638612
 -0.21031702  0.03061226 -0.01747431 -0.05523604  0.11365384  0.12602612
 -0.01529359  0.04529252 -0.1308323   0.01093713  0.20467949 -0.02728439
 -0.03740022  0.16452253  0.01021683  0.03621276  0.07799573  0.08196567
 -0.07985018  0.0538272  -0.14262159 -0.02361542  0.07199725 -0.06716432
 -0.01988259  0.09532069 -0.15348533  0.14976797  0.0579612   0.06334281
  0.00040591 -0.11482378 -0.04475993 -0.0254454   0.15962319 -0.30550668
  0.18709575  0.15817332 -0.02688399  0.16160166  0.13314854  0.04204806
  0.01794987 -0.05142809 -0.19904533 -0.04515351  0.05680931 -0.06041833
  0.10179328  0.04633727]