[-0.05948766  0.1170123   0.10462274 -0.00201099 -0.12844454 -0.07069843
  0.01236422 -0.16292034  0.16340242 -0.09444454  0.22617345 -0.09200832
 -0.2595112  -0.08318128 -0.03797195  0.21927296 -0.165069   -0.19198297
 -0.0668527   0.01620606  0.03760599  0.01128989  0.01417394  0.01357161
 -0.09276623 -0.37437084 -0.07754403 -0.083972    0.02013288 -0.00978316
 -0.08078789  0.0484811  -0.15070091 -0.06144821  0.07152937  0.03176805
 -0.04983015 -0.06823826  0.17045183 -0.04808128 -0.32725567 -0.00718269
  0.04004813  0.22495535  0.19168128  0.04715334  0.00174974 -0.19616023
  0.1102758  -0.15435784 -0.01257086  0.15812981  0.05971251  0.07108738
 -0.02386447 -0.18495791 -0.02132461  0.11883947 -0.15181027 -0.07936408
  0.07000466 -0.10219108 -0.02309404 -0.13971953  0.23400204  0.00809733
 -0.15612832 -0.12437723  0.11677171 -0.16182975 -0.03395344  0.04291348
 -0.15565726 -0.18590558 -0.29140466 -0.03123267  0.39594063  0.06657182
 -0.20045368  0.00054965 -0.08027523  0.04254803  0.08711229  0.17203657
 -0.00246429  0.03861697 -0.09281243 -0.05740774  0.19856906 -0.15959392
  0.03290331  0.21473542 -0.02786326  0.09528773 -0.02424901  0.01183555
 -0.09135252  0.06222891 -0.12845568 -0.02196901 -0.00369357  0.00062066
  0.01282997  0.09327044 -0.16951007  0.12977271  0.05820118  0.06337123
  0.03847399 -0.05918819 -0.01819103 -0.12221229  0.13772793 -0.21992078
  0.20798786  0.20044604  0.04647241  0.15019147  0.0781725   0.05439311
 -0.05681476 -0.04521387 -0.21780001  0.02135546  0.14805412 -0.06120819
  0.05557146 -0.02347816]