[-0.11968305  0.13914853  0.08862316 -0.00625556 -0.08057008  0.05460773
 -0.00439325 -0.08263632  0.12293708 -0.04601426  0.29605556 -0.00442644
 -0.25303516 -0.161955    0.04357251  0.13060248 -0.14584918 -0.13391769
 -0.15142238 -0.05653999 -0.02043598  0.03584118 -0.02311012 -0.0175785
 -0.19888663 -0.3608377  -0.0692424  -0.07375783  0.03338493 -0.12647095
 -0.10421946  0.03471498 -0.15103398 -0.1297707   0.06291085  0.1247563
 -0.04914814 -0.02884334  0.14749981 -0.04316469 -0.19443049  0.02657728
  0.09079664  0.29474226  0.2328773   0.04036468  0.02761656 -0.04934247
  0.11213318 -0.21208218  0.08775532  0.11441946  0.13214929  0.05566293
  0.10617807 -0.16885442 -0.07971872  0.16206637 -0.13830689  0.0326093
  0.03888967 -0.1578479  -0.0608224  -0.07713337  0.15955316  0.06267126
 -0.13716082 -0.14502645  0.13201784 -0.11784375 -0.01912406  0.0749727
 -0.10510661 -0.1766129  -0.34337768  0.07977947  0.42760965  0.09066119
 -0.23554881  0.01296567 -0.00589954 -0.03624049  0.10216787  0.13527374
 -0.02259175  0.00626055 -0.10393765  0.04332208  0.19106428 -0.00815379
 -0.00342302  0.17351609 -0.01649038  0.02073282  0.07428689  0.06948008
 -0.09336817 -0.00956309 -0.10330524  0.02333029  0.0608658  -0.10350927
 -0.00741242  0.07602353 -0.11352804  0.14218855  0.03291321  0.04994459
  0.01757366 -0.09226374 -0.03797154 -0.02735231  0.17132282 -0.33182353
  0.15642916  0.17876579 -0.06162352  0.15497747  0.08403265  0.05350614
  0.01944461  0.00469409 -0.1872959  -0.07836841  0.04607205 -0.08456656
  0.09496602  0.00876335]