[-0.13586761  0.12489019  0.07403158 -0.01519954 -0.07649479  0.02514187
  0.00354112 -0.05527657  0.11302166 -0.01952277  0.26687044  0.01979136
 -0.26577279 -0.17800303  0.04308211  0.11869895 -0.14497694 -0.1275603
 -0.14690001 -0.06813151 -0.0098169   0.04505624 -0.02403224 -0.01314649
 -0.19124545 -0.36391217 -0.07281583 -0.07422536  0.00537345 -0.12617867
 -0.0715844   0.05101171 -0.14638312 -0.1396734   0.06539343  0.12368821
 -0.04938558 -0.01370633  0.15954053 -0.02632544 -0.18192171  0.00911747
  0.0983228   0.31757161  0.23370917  0.04560339  0.03662751 -0.03379495
  0.13031398 -0.2164055   0.0934188   0.12118395  0.13023731  0.05026543
  0.13046272 -0.15685396 -0.07066537  0.16398452 -0.1556111   0.03839916
  0.02062544 -0.16975534 -0.06265427 -0.07958198  0.1606736   0.04674649
 -0.13113958 -0.13929604  0.15235971 -0.12168882 -0.02182912  0.09007159
 -0.10168654 -0.17728142 -0.34440327  0.08961879  0.41667962  0.10136355
 -0.21739972  0.02495576 -0.01242572 -0.04998493  0.10599931  0.12829755
 -0.02571975  0.02074005 -0.1077363   0.04948874  0.18599902  0.00562452
 -0.0193646   0.17470115 -0.00151116  0.02579219  0.08798949  0.05704603
 -0.09181634 -0.01382445 -0.11325258  0.0198608   0.07814113 -0.11623811
  0.00319356  0.0648955  -0.08919358  0.12546805  0.03423716  0.05324903
 -0.01242608 -0.09617072 -0.05708739 -0.02763142  0.16145453 -0.32845232
  0.16593137  0.16237341 -0.07764929  0.15280063  0.07526078  0.04716147
  0.00887182 -0.02211064 -0.16675338 -0.07386454  0.06101663 -0.05988344
  0.1149771   0.00727258]