[-0.12586515  0.13179888  0.0664107  -0.00282558 -0.08365009  0.01503319
 -0.00726635 -0.04887437  0.1176764  -0.00906063  0.2807906   0.04385559
 -0.22214369 -0.14721973  0.01719575  0.13785005 -0.11200186 -0.13262273
 -0.14428398 -0.04942092  0.04400583 -0.03248902  0.00798951 -0.01400094
 -0.20095411 -0.30110347 -0.06896638 -0.07258768  0.06881425 -0.18355255
 -0.07403508 -0.03797787 -0.20135121 -0.13893569 -0.00735523  0.13508897
 -0.05923955 -0.07384708  0.16708575 -0.03888179 -0.19173615  0.03680567
  0.0663409   0.27176139  0.26167378  0.00458978  0.02388821 -0.02602563
  0.15069504 -0.2570897   0.10768338  0.06176589  0.1783606   0.09923185
  0.09766542 -0.13336857 -0.02106181  0.19464631 -0.17499903  0.01241613
 -0.01970381 -0.0942053  -0.04027274 -0.10301168  0.14984027  0.07353511
 -0.10888761 -0.09200023  0.13323015 -0.1253462  -0.0087265   0.06883597
 -0.0753428  -0.1742612  -0.3671726   0.07309866  0.37056419  0.11676035
 -0.23675194  0.03070235 -0.00586493 -0.03837496  0.03013934  0.07217564
 -0.03058953  0.05479431 -0.10818787  0.02643311  0.19976844 -0.02693436
  0.01534634  0.19230542  0.01175899  0.0361684   0.0869141   0.08275627
 -0.08079825 -0.02971737 -0.096457    0.02333729  0.02607736 -0.13901478
 -0.02609354  0.03862102 -0.14690916  0.15325561  0.04250037  0.05661217
 -0.01931592 -0.07801645 -0.04930967 -0.02526604  0.15963174 -0.30869839
  0.18432353  0.21248186 -0.0855534   0.1352953   0.07706426  0.04757139
 -0.00854967  0.01084799 -0.15515882 -0.05490092  0.0421548  -0.09988498
  0.07017738  0.05650895]