[-0.06121742  0.06624132  0.08115766 -0.0666641  -0.14408359 -0.01314445
 -0.0200869  -0.0877593   0.19743454 -0.0957697   0.22776563 -0.07136198
 -0.24763644 -0.08176096  0.01893531  0.24665451 -0.17075108 -0.14278662
 -0.07425912  0.00228908  0.02590824  0.0368183   0.01012388  0.05249118
 -0.11336227 -0.42030683 -0.08170979 -0.09069019 -0.02012086 -0.06272011
 -0.10094988  0.07456317 -0.12517855 -0.05904923  0.0754879   0.10254999
 -0.06141865 -0.12999751  0.12316203 -0.02973129 -0.29507279  0.02657146
  0.06849145  0.20735919  0.20535047  0.00472443  0.0148433  -0.11813801
  0.14200942 -0.1497923  -0.00820899  0.11851461  0.07013432  0.06202392
  0.04620656 -0.15980889  0.01009373  0.14969745 -0.18054792 -0.08856544
  0.07029765 -0.09760871  0.00271807 -0.11696278  0.19804262  0.06241987
 -0.12355454 -0.14985961  0.09873893 -0.13264555 -0.01444756  0.00326065
 -0.2020822  -0.20313893 -0.25240338  0.00317235  0.34087911  0.09961485
 -0.18785384  0.04300781 -0.01706217  0.02833892  0.08514986  0.1631019
  0.03482455  0.01657841 -0.08597399 -0.01200042  0.17483301 -0.11954258
  0.07396314  0.23248835 -0.02609655  0.06617089  0.00438008 -0.02694438
 -0.10397785  0.08790725 -0.11995225  0.01948547 -0.03191076 -0.02855452
  0.0278988   0.05150596 -0.15317364  0.10660163  0.04106958  0.06265932
  0.02291674 -0.02841192 -0.05093567 -0.11074059  0.12887283 -0.23055051
  0.1766728   0.18465774  0.04756844  0.15802737  0.06564363  0.08081473
 -0.02318315 -0.02909403 -0.21313496  0.049269    0.12955873 -0.0467363
  0.03366315 -0.00120565]