[-0.0631256   0.08950692  0.07544712 -0.04244693 -0.11462118 -0.02950267
 -0.05774537 -0.14102814  0.15702578 -0.04900266  0.23522978 -0.07788037
 -0.23170741 -0.05171722 -0.06383231  0.23346575 -0.19449738 -0.1692262
 -0.05934346 -0.01614157  0.033807    0.03888299 -0.00801365  0.01501981
 -0.08209724 -0.37387598 -0.06838667 -0.08338957  0.00072022 -0.0132074
 -0.10785872  0.04251637 -0.17545749 -0.05931205  0.1051443   0.08334316
 -0.01944978 -0.09827112  0.13095637 -0.05370143 -0.27140769  0.0368009
  0.09861092  0.19698009  0.19953276  0.05008391 -0.00573081 -0.17599455
  0.09940254 -0.1315046   0.01050062  0.13412862  0.07596     0.07135915
 -0.01584437 -0.18127504 -0.02185686  0.12095044 -0.11223421 -0.07502344
  0.06699984 -0.07500602 -0.03245727 -0.14594108  0.23489432  0.05809636
 -0.13040431 -0.17726205  0.08787824 -0.12827034 -0.0655011   0.03150746
 -0.17471878 -0.16834779 -0.27593908 -0.01119877  0.40807065  0.04675406
 -0.22519238  0.03833173 -0.02897115  0.03364273  0.11641308  0.14783697
  0.01059814  0.04204047 -0.08919618 -0.03871092  0.24184513 -0.12401012
  0.01231424  0.18621658 -0.05247682  0.10147975  0.0018819   0.02488185
 -0.05226386  0.07498485 -0.13150658 -0.03170735  0.01719375  0.0244115
  0.00315239  0.09907243 -0.14697717  0.06756433  0.04007329  0.06779633
  0.05783228 -0.01856434 -0.01741013 -0.12388889  0.15020725 -0.22889324
  0.2109623   0.18418199  0.04176835  0.13272628  0.07240566  0.08210906
 -0.02993015 -0.01434157 -0.23367174  0.01757872  0.12761843 -0.03704081
  0.06376626 -0.0022324 ]