[-0.13644654  0.17902561  0.06308844 -0.010658   -0.08329961  0.04331299
  0.00303411 -0.0810257   0.15305413 -0.00767928  0.31803393  0.0018871
 -0.26602495 -0.19714001  0.02966904  0.14796238 -0.10600179 -0.10100799
 -0.11747217 -0.02719183  0.03865384 -0.00621363  0.0193997  -0.00297652
 -0.16562758 -0.35760677 -0.05612792 -0.09141361  0.02639983 -0.15984961
 -0.08179193 -0.0107485  -0.17261866 -0.14373678  0.00992145  0.12880616
 -0.07337847 -0.04790808  0.15495914 -0.07155364 -0.19786304 -0.00480076
  0.06791858  0.26011625  0.18950944  0.00218184  0.06926768 -0.09630056
  0.12006082 -0.18163365  0.10048649  0.09073781  0.14981024  0.0493506
  0.09930157 -0.14728762 -0.04758115  0.17523871 -0.16691197  0.0098086
  0.0348957  -0.08629402 -0.07955722 -0.07338192  0.1786195   0.07594752
 -0.11243089 -0.14052978  0.13420372 -0.08825167 -0.00815193  0.09974124
 -0.10074508 -0.21214063 -0.33044961  0.08819937  0.4104867   0.08125926
 -0.23263     0.02625266 -0.0486254  -0.05379526  0.0699157   0.11362913
 -0.01817671  0.05272997 -0.12550472  0.05830047  0.1823217  -0.05775653
  0.01530805  0.18702154  0.01760815  0.02925926  0.05480632  0.06458998
 -0.09196112  0.02926135 -0.10066283 -0.00498165  0.08662169 -0.11029195
 -0.01023578  0.03416916 -0.15225673  0.13709098  0.06598091  0.04524541
  0.01777351 -0.11057492 -0.0429257  -0.03265255  0.16842878 -0.30880725
  0.18887551  0.14930944 -0.04066209  0.15747677  0.08900931  0.06678575
  0.03577576 -0.03786009 -0.16834706 -0.02843343  0.07274801 -0.07281786
  0.08765873  0.01578618]