[-0.15745972  0.18020217  0.07751305 -0.00596899 -0.07873955  0.04697784
  0.00082214 -0.0708318   0.14794862 -0.01164169  0.32006714 -0.01256933
 -0.25782865 -0.18550672  0.00792554  0.15907148 -0.1340912  -0.10656146
 -0.0973864  -0.02042886  0.02110525 -0.00596047  0.0100357  -0.01120748
 -0.16147541 -0.39096218 -0.05666625 -0.09861337  0.0313097  -0.12396649
 -0.0871669   0.00330893 -0.17932802 -0.14490549  0.02317716  0.14279346
 -0.05684283 -0.0399602   0.15346907 -0.06423728 -0.20476976 -0.01325918
  0.07025423  0.27531156  0.19537817  0.03186048  0.05509244 -0.08746009
  0.12571779 -0.17228702  0.09044298  0.09408988  0.13235159  0.05110143
  0.08687411 -0.15955165 -0.03173207  0.14682762 -0.17937651 -0.02766435
  0.02127421 -0.08231797 -0.04811006 -0.06093846  0.19314742  0.06833289
 -0.09873616 -0.15024318  0.16738676 -0.09773865  0.01160981  0.09772465
 -0.10109637 -0.20362233 -0.34041688  0.08187426  0.41274664  0.0917983
 -0.20820475  0.03367486 -0.04713958 -0.05903244  0.08948138  0.12098737
 -0.01608686  0.06584527 -0.12866908  0.02924281  0.18882798 -0.04400513
 -0.00750667  0.17276409  0.00682825  0.02313657  0.07599195  0.06195106
 -0.09885969  0.03201032 -0.12564355 -0.01482029  0.07476386 -0.09126114
 -0.01628979  0.05261357 -0.15703067  0.12170336  0.05403454  0.0447373
 -0.00317906 -0.11022951 -0.04492648 -0.03225072  0.16962382 -0.31168419
  0.18418401  0.15137742 -0.04417535  0.17351046  0.10693695  0.0472392
  0.02442696 -0.04751865 -0.17853199 -0.04633036  0.07360944 -0.072335
  0.10582473  0.01870458]