[-0.15848014  0.14188001  0.05793045 -0.00959185 -0.10671749  0.02105746
  0.01624157 -0.0574626   0.1201393  -0.00726274  0.25138703  0.0331317
 -0.23173526 -0.14311926  0.04410151  0.13102403 -0.11816487 -0.13770503
 -0.16076456 -0.08862636  0.02660045 -0.04288247 -0.00474325  0.01436759
 -0.22699289 -0.28373292 -0.07272192 -0.09477051  0.05658991 -0.16779931
 -0.06730267 -0.0420789  -0.18024643 -0.1492717  -0.00522775  0.11112281
 -0.07974596 -0.08078209  0.17139275 -0.06245576 -0.18889022  0.02387649
  0.07146523  0.27105787  0.27476919 -0.00687772  0.03722766 -0.02797622
  0.16959134 -0.24926808  0.11857275  0.07874667  0.16172457  0.10393466
  0.1093559  -0.13186869 -0.03358236  0.21523464 -0.17377667  0.01573137
 -0.01368804 -0.10370312 -0.05624652 -0.1062324   0.141923    0.10207605
 -0.1079813  -0.11448055  0.14952308 -0.13020442 -0.01638531  0.08211651
 -0.09158524 -0.18034171 -0.36224589  0.08541773  0.38487393  0.13782839
 -0.22256541  0.01111214 -0.02319168 -0.02542046  0.04429927  0.08342693
 -0.03936788  0.02120304 -0.08813698  0.03968025  0.18317404 -0.01994968
 -0.00696281  0.19003633  0.03398228  0.00871148  0.08631755  0.08841934
 -0.09410451 -0.0314978  -0.08379897  0.01557087  0.05625459 -0.12080865
 -0.00410995  0.04545907 -0.13746117  0.16884826  0.04047615  0.07441796
 -0.03835049 -0.09257209 -0.04443788 -0.00490782  0.16331767 -0.3078109
  0.17153513  0.19432148 -0.10626123  0.13819762  0.06650554  0.03876864
 -0.00432377  0.00218747 -0.15161476 -0.04216875  0.06741489 -0.08498111
  0.08179495  0.05483399]