[-0.13143754  0.12699986  0.06875603 -0.02200349 -0.07068284  0.02152219
  0.0163862  -0.05065131  0.11641095 -0.0008069   0.26663703  0.02395823
 -0.2540504  -0.19077647  0.04952088  0.11892499 -0.14101055 -0.11824646
 -0.1506286  -0.06936885 -0.02224513  0.04403225 -0.01469004  0.00099325
 -0.19277668 -0.36011013 -0.06215844 -0.08256125  0.01235037 -0.12881207
 -0.06487875  0.0588082  -0.15377577 -0.1397651   0.05882837  0.12209853
 -0.06139472 -0.018564    0.16452311 -0.02412276 -0.18365155  0.00490442
  0.09420402  0.3111988   0.24050882  0.03946256  0.04218183 -0.02380021
  0.13385282 -0.21213257  0.0936113   0.10845204  0.12734126  0.04665174
  0.1269163  -0.16926077 -0.07668525  0.16527894 -0.16435876  0.03148067
  0.00503182 -0.16778064 -0.06867131 -0.08308615  0.16295804  0.05359676
 -0.13283151 -0.13498245  0.15638173 -0.11901684 -0.00555455  0.10567512
 -0.09529688 -0.17381595 -0.33974305  0.09987061  0.41193786  0.09970024
 -0.20872267  0.01532798 -0.01907371 -0.04706901  0.09253293  0.12131786
 -0.03295973  0.0164586  -0.10297785  0.04203763  0.17264837  0.01393088
 -0.02523624  0.16920759 -0.00918024  0.02414489  0.07670211  0.05105835
 -0.09746484 -0.00102316 -0.09928252  0.02185685  0.08078045 -0.12414924
  0.01010183  0.0638682  -0.09295155  0.12977807  0.03816781  0.05778327
 -0.00488925 -0.08726814 -0.05653048 -0.02621639  0.16057834 -0.33521178
  0.17756388  0.15405266 -0.08185964  0.15749203  0.07414766  0.05337362
  0.00325286 -0.02181471 -0.16340186 -0.06533887  0.06980234 -0.06579768
  0.12403329  0.00868927]