[-0.06173375  0.07458431  0.0914821  -0.01101402 -0.1301854  -0.03067319
 -0.02260896 -0.13308458  0.12972288 -0.06907649  0.22478604 -0.05025266
 -0.21399705 -0.11565655  0.03958055  0.19872165 -0.15298355 -0.14268416
 -0.09294217  0.02746653  0.0461968   0.04219937  0.03361229  0.02559658
 -0.14112644 -0.39944264 -0.05703079 -0.08986419  0.0191606  -0.02864916
 -0.10187285  0.07387308 -0.14981775 -0.06321739  0.07354122  0.09045842
 -0.04703935 -0.08538678  0.17212917 -0.03257831 -0.31047904  0.04037852
  0.04560114  0.20671092  0.21958689  0.00406163  0.03949839 -0.12435614
  0.1231915  -0.15843378  0.02243648  0.11936378  0.07925965  0.04126711
  0.04333455 -0.16862085 -0.0365108   0.13220422 -0.16154669 -0.04062204
  0.04507419 -0.09497458 -0.00219327 -0.1183622   0.17668538  0.03457491
 -0.11901685 -0.13586396  0.08904303 -0.13166313 -0.02079432  0.06291073
 -0.18968771 -0.19662562 -0.30136454  0.00241044  0.38287756  0.06694496
 -0.24014972 -0.01372907 -0.01705363  0.00545047  0.12777261  0.15990961
  0.05522286 -0.0083141  -0.08542984 -0.00798424  0.2096806  -0.12401813
  0.03307409  0.22785972 -0.0006235   0.05642158 -0.00985277  0.00928617
 -0.0717937   0.06464355 -0.1149086   0.01099314 -0.00183984 -0.01600538
  0.02492206  0.09580436 -0.14165448  0.09122846  0.04329006  0.04832965
  0.05115169 -0.04114064 -0.06562858 -0.13360421  0.12648602 -0.22206675
  0.17899339  0.20105791  0.01164941  0.12608643  0.04633598  0.07114829
 -0.01981169  0.00344373 -0.20439421  0.02909061  0.1327377  -0.03585491
  0.03118077 -0.0143486 ]