[-0.04104468  0.07418153  0.0865566  -0.03392012 -0.13672099 -0.06896029
 -0.06567981 -0.14258818  0.17688471 -0.08411942  0.21290556 -0.05746585
 -0.2296485  -0.09343161 -0.05098676  0.22750954 -0.17984493 -0.17262094
 -0.07811817 -0.01198622  0.03382992  0.0252177   0.03176702  0.0024289
 -0.07619458 -0.41074029 -0.06085829 -0.0718808  -0.01231545 -0.0252354
 -0.08711623  0.07831208 -0.17083769 -0.0813844   0.0688194   0.07555594
 -0.03728525 -0.10963392  0.16181479 -0.04767519 -0.29548764  0.02670296
  0.04053813  0.18694718  0.22660911  0.0224276   0.02502805 -0.19111608
  0.15526736 -0.1433519   0.00658237  0.1455729   0.05639816  0.0475694
  0.00569775 -0.17142223 -0.00746842  0.14779729 -0.12088851 -0.08603649
  0.08172282 -0.099149   -0.02009374 -0.14082444  0.22972654  0.04065068
 -0.11535715 -0.14725524  0.13055255 -0.10545427 -0.0288402   0.03159226
 -0.18571304 -0.17632928 -0.28134155 -0.01206552  0.38839695  0.05436669
 -0.21248272  0.0086059  -0.0594443   0.05599389  0.10908899  0.15225311
  0.00881017  0.01394581 -0.10788149 -0.0327496   0.21378107 -0.11116401
  0.0041737   0.21129489 -0.02196132  0.11039013  0.00760672  0.00654275
 -0.08970769  0.08761811 -0.14888537 -0.00501281  0.03039328  0.01778077
  0.01403729  0.10088547 -0.10005321  0.07834639  0.01695972  0.09459131
  0.05556552 -0.05900927 -0.0190064  -0.13269424  0.13083243 -0.18891756
  0.19661359  0.15887181  0.05746765  0.15630248  0.07645252  0.08972356
 -0.05371607 -0.04385553 -0.24641247  0.04822717  0.13630961 -0.01278011
  0.06167239  0.00666488]