[-0.05238804  0.06820282  0.12512082 -0.03425789 -0.10136159 -0.04648744
 -0.02455189 -0.11437511  0.17464438 -0.069708    0.230073   -0.04776858
 -0.19909945 -0.09349879  0.01225255  0.19462122 -0.18458109 -0.15215026
 -0.06493255  0.02375996  0.03358871  0.06528584  0.00609657  0.0133817
 -0.12912956 -0.35810897 -0.07285967 -0.06158376  0.02325323 -0.02667573
 -0.0886631   0.08671297 -0.1516178  -0.05241416  0.08192249  0.12521638
 -0.04633917 -0.11473888  0.1447752  -0.05947293 -0.32085165  0.0435485
  0.05959259  0.20002227  0.24622658 -0.00549963 -0.02147965 -0.1377786
  0.15187252 -0.15210307 -0.00865835  0.17375289  0.04063278  0.09543635
  0.01795427 -0.15808243 -0.00078955  0.13307889 -0.13915412 -0.1159168
  0.06129162 -0.10308236  0.05523105 -0.13410975  0.16019447  0.02188709
 -0.1096042  -0.17168561  0.09238394 -0.15322998 -0.05348812  0.06027249
 -0.20509897 -0.16435097 -0.29514191 -0.01219423  0.36294875  0.0822238
 -0.17183746  0.06834002 -0.03931139  0.01718778  0.08205146  0.16384111
  0.04529596  0.03838739 -0.08418765 -0.02488025  0.218032   -0.09959762
  0.04605706  0.20993698 -0.02189112  0.08428907  0.00816676 -0.02243658
 -0.05554953  0.08133323 -0.1297258   0.01487054 -0.03187536 -0.00303541
  0.04228554  0.12296678 -0.14857183  0.13366012  0.05817961  0.09530869
  0.05924615 -0.0192528  -0.01023035 -0.10715046  0.1270867  -0.23185618
  0.20648482  0.15936284  0.04557008  0.13118684  0.05660008  0.1066995
 -0.06948621 -0.00610382 -0.20782891  0.03888278  0.09917712 -0.02969404
  0.0581654   0.01813438]