[-0.04322135  0.04997546  0.04161    -0.05620318 -0.11823962 -0.03275895
 -0.03006659 -0.12790117  0.19187133 -0.08308027  0.24115813 -0.08545642
 -0.22082381 -0.08175252 -0.04621873  0.22209568 -0.19971506 -0.1214961
 -0.05187381  0.01915007  0.04675058  0.01435955 -0.00275678  0.02854659
 -0.08954826 -0.38197619 -0.08724507 -0.08029684  0.01042119 -0.03554498
 -0.09012683  0.08536925 -0.14465486 -0.08501202  0.07850245  0.07946783
 -0.04223984 -0.11162572  0.15863502 -0.03809869 -0.27440786  0.00609645
  0.07697066  0.1882247   0.17455146  0.01827418  0.01880969 -0.19077644
  0.14352055 -0.13380913 -0.01678965  0.12027717  0.07990604  0.06645604
  0.0009574  -0.14532115 -0.01641542  0.15647916 -0.12078495 -0.05708894
  0.07347518 -0.08453804 -0.01889388 -0.14362876  0.2024629   0.04300997
 -0.12116672 -0.14430478  0.11445247 -0.11582184 -0.05129689  0.03594742
 -0.15292619 -0.19565342 -0.2625483  -0.03312914  0.37373397  0.06208862
 -0.20041154  0.01188847 -0.05566483  0.00800172  0.12783031  0.15431091
  0.03136916  0.01663416 -0.07311194 -0.04051722  0.24046123 -0.12863009
  0.05376989  0.2013021  -0.02568501  0.100569   -0.01011705  0.00173269
 -0.0736072   0.09064104 -0.12418385 -0.00154506  0.01538626 -0.01663256
  0.02120747  0.07893326 -0.15024349  0.08667158  0.05818857  0.05825572
  0.0869197  -0.04236527 -0.03526336 -0.11737859  0.15323654 -0.21938992
  0.18058281  0.16508624  0.04780527  0.14625129  0.07198388  0.10445733
 -0.04340475 -0.0519757  -0.22824322  0.03889238  0.12920548 -0.02292277
  0.03450961 -0.03668211]