[-0.03347211  0.0763953   0.09573357 -0.03914874 -0.12720209 -0.06540633
 -0.05694392 -0.16316091  0.19834509 -0.10668784  0.20504871 -0.06624334
 -0.24069022 -0.09887547 -0.0363647   0.25372878 -0.21940215 -0.18840484
 -0.08658066 -0.01140888  0.02229834 -0.00828571  0.02083035  0.02727336
 -0.05950107 -0.40646988 -0.06577756 -0.09283143  0.00280762 -0.03900585
 -0.08953124  0.05164715 -0.16676979 -0.08680833  0.07014009  0.06399263
 -0.04340189 -0.11929657  0.17626886 -0.05462804 -0.31225011  0.04591165
  0.04599949  0.18435101  0.23343411  0.03122857  0.00790542 -0.19925034
  0.19757961 -0.16410987 -0.01762129  0.15963851  0.06552003  0.06177973
  0.01217949 -0.20495847 -0.00109027  0.12764351 -0.1546423  -0.09689178
  0.07341328 -0.08670858 -0.01575981 -0.12268152  0.2162234   0.06684675
 -0.11669137 -0.16722736  0.13921998 -0.12411638 -0.01468786  0.02306577
 -0.19623399 -0.18110278 -0.27194265 -0.03738777  0.4076592   0.06752101
 -0.22714749  0.00157148 -0.07207187  0.05492162  0.10758531  0.167439
  0.02062268  0.01837622 -0.09383788 -0.04639243  0.17872894 -0.12880754
  0.01986962  0.20331255 -0.00758221  0.1122482   0.00194648 -0.00848792
 -0.1155835   0.0886158  -0.18855767 -0.02859088 -0.01068483  0.06178323
  0.03387963  0.0839506  -0.10118027  0.10210258  0.0410779   0.07238416
  0.0209468  -0.02917848 -0.01596929 -0.12940174  0.12496858 -0.19630915
  0.21285549  0.18211053  0.04561552  0.15270793  0.06361903  0.08884656
 -0.05380962 -0.03478181 -0.22792296  0.04051933  0.12408514 -0.00438128
  0.05318129 -0.01736189]