[-1.40629470e-01  1.26768917e-01  7.67227486e-02 -2.59420481e-02
 -7.03748986e-02  4.11975794e-02  2.34343112e-04 -6.26971945e-02
  1.20663583e-01 -3.86900343e-02  2.71826625e-01  2.03415211e-02
 -2.55693883e-01 -1.85398653e-01  6.07271008e-02  1.23393081e-01
 -1.54469714e-01 -1.31548718e-01 -1.41432092e-01 -7.54677802e-02
 -1.82336960e-02  3.84506695e-02 -1.34857986e-02 -6.04727399e-03
 -1.92509711e-01 -3.78196687e-01 -7.26706609e-02 -8.26979429e-02
  1.69941392e-02 -1.23594820e-01 -8.61587599e-02  5.06233983e-02
 -1.50373012e-01 -1.27118453e-01  6.37713596e-02  1.40470892e-01
 -5.09839021e-02 -2.81547606e-02  1.52414247e-01 -2.00616345e-02
 -1.85844511e-01 -2.91790976e-03  9.19021741e-02  3.02674204e-01
  2.57787228e-01  3.80037688e-02  2.99111605e-02 -3.53515558e-02
  1.44373938e-01 -2.04651400e-01  9.89475474e-02  1.14187635e-01
  1.27071694e-01  5.77104688e-02  1.27320126e-01 -1.69742271e-01
 -7.43797868e-02  1.56367198e-01 -1.59035176e-01  1.05657969e-02
  7.79088959e-03 -1.62977293e-01 -6.33957908e-02 -7.90096819e-02
  1.57806113e-01  7.20339343e-02 -1.30713508e-01 -1.52914748e-01
  1.64092392e-01 -1.23137139e-01 -1.75120067e-02  9.02881399e-02
 -1.14016235e-01 -1.71502814e-01 -3.40995669e-01  8.52409974e-02
  4.03484315e-01  1.10015407e-01 -2.07738265e-01  1.31886574e-02
 -1.27673987e-02 -5.15556298e-02  9.41743627e-02  1.41582653e-01
 -3.24898809e-02  2.81249825e-02 -9.23507214e-02  4.61462848e-02
  1.72119647e-01  1.60634462e-02 -2.89308820e-02  1.77683979e-01
 -1.72778200e-02  3.23985256e-02  9.17193219e-02  5.82040735e-02
 -9.97397155e-02 -9.05282702e-03 -1.27683043e-01 -2.70161475e-03
  6.50193021e-02 -1.10050261e-01  5.15788561e-03  7.74859712e-02
 -1.04277968e-01  1.32908374e-01  3.04728933e-02  5.80217838e-02
 -1.21682575e-02 -1.01342991e-01 -5.18769212e-02 -1.87634230e-02
  1.57556593e-01 -3.30424070e-01  1.55162454e-01  1.68814659e-01
 -6.42693192e-02  1.63920626e-01  8.65771398e-02  4.39432226e-02
  1.16934273e-02 -3.20523195e-02 -1.80388078e-01 -6.01342283e-02
  5.95888570e-02 -5.36498800e-02  1.08734362e-01  8.53802171e-03]