[-0.13530646  0.17256819  0.06310719  0.01526625 -0.08985472  0.01065619
  0.01035271 -0.05136643  0.12120874  0.01769468  0.28951582  0.02553586
 -0.22275837 -0.13816051  0.03166991  0.14653932 -0.13575077 -0.13435879
 -0.15185735 -0.06326142  0.03376966 -0.0047654   0.02171367 -0.02396276
 -0.18873483 -0.34163022 -0.0555831  -0.08625298  0.06084913 -0.18361813
 -0.03698248 -0.0128509  -0.20093806 -0.14014231  0.01557177  0.06755503
 -0.07661673 -0.03916169  0.15378906 -0.00959924 -0.19444907  0.05316523
  0.04416072  0.32288098  0.27243418  0.04541063  0.02535667 -0.07165223
  0.11357184 -0.23803778  0.08144841  0.09897023  0.11485537  0.07775174
  0.10568571 -0.1261562  -0.01324964  0.12922835 -0.17804551  0.01497206
  0.03739049 -0.0709374  -0.04990662 -0.11336932  0.14802235  0.04339335
 -0.10218485 -0.09659929  0.11176495 -0.12312465 -0.0197599   0.08326509
 -0.08719961 -0.20765212 -0.36123994  0.05762814  0.37973553  0.12713718
 -0.24389337  0.00638124  0.00131373  0.00450355  0.08509684  0.08103996
 -0.05478046  0.02927258 -0.10951272  0.02500277  0.17810525 -0.02021248
 -0.02521574  0.20520926  0.00451913  0.00041477  0.0921148   0.08870735
 -0.08248083 -0.02263797 -0.12099447 -0.01425222  0.04020462 -0.11932832
 -0.02919467  0.05662883 -0.14139622  0.17184702  0.03305929  0.0709184
 -0.03979435 -0.07632603 -0.04323147 -0.00334764  0.15087554 -0.29774687
  0.19768757  0.22796945 -0.08595674  0.12429561  0.06995736  0.03674181
 -0.05231871  0.0177943  -0.15632692 -0.05940853  0.0356439  -0.07453447
  0.07905463  0.02352095]