[-0.17113639  0.1390163   0.07982263  0.00984805 -0.0920525   0.00487505
  0.00550192 -0.07392275  0.0974222  -0.01729093  0.26838532  0.02887082
 -0.21256597 -0.15937792  0.02761676  0.13252574 -0.13464026 -0.15139821
 -0.12769687 -0.06337597  0.03372717 -0.02323468 -0.01461812  0.01515808
 -0.21867166 -0.30908713 -0.06634592 -0.07447269  0.03307233 -0.16140468
 -0.06439744 -0.00378807 -0.19470809 -0.13423662  0.02007142  0.15667687
 -0.04446631 -0.04958086  0.16570644 -0.03954355 -0.19646215  0.02568608
  0.07374977  0.30253935  0.27049968  0.01218942  0.0114753  -0.03383597
  0.16824642 -0.22155534  0.09210073  0.09524012  0.14029886  0.09646866
  0.07938664 -0.13383681 -0.01655831  0.17204461 -0.17102979 -0.01592515
 -0.00235953 -0.14895667 -0.03536855 -0.09570838  0.14242008  0.07055794
 -0.09279421 -0.11641659  0.14945649 -0.13676932 -0.0264262   0.08101889
 -0.09334217 -0.15983833 -0.37039787  0.06364315  0.38456866  0.12076457
 -0.22841747  0.02199936 -0.01103432 -0.02041306  0.07121193  0.10433042
 -0.02091115  0.04921391 -0.1062839   0.03346032  0.19624089  0.00872463
 -0.00739967  0.17697005  0.02239996  0.01355509  0.11899265  0.06899864
 -0.08198117 -0.02788574 -0.10942431  0.00381595  0.02467676 -0.11406138
 -0.00714459  0.0587135  -0.14789288  0.16071433  0.03795756  0.0697972
 -0.0401539  -0.09516892 -0.04044507 -0.00776111  0.14808153 -0.31196436
  0.17567907  0.19277683 -0.0958854   0.14961621  0.06746446  0.04890327
 -0.03821462 -0.00764576 -0.15131645 -0.05318682  0.06055813 -0.07976515
  0.1114185   0.03291215]