[-0.1226213   0.13875477  0.08810136 -0.01767762 -0.07746112  0.02981918
  0.01701344 -0.05482632  0.12557729 -0.0187167   0.2807031   0.02802013
 -0.27316737 -0.18124296  0.05376461  0.11668906 -0.12711583 -0.11964988
 -0.15953051 -0.05462107 -0.01364246  0.03615119 -0.00917254 -0.00684633
 -0.17065267 -0.36441797 -0.05311686 -0.0754106   0.02561527 -0.15249237
 -0.07420468  0.01046752 -0.16022499 -0.14370544  0.04367173  0.11444695
 -0.06298166 -0.02816889  0.14668313 -0.04475435 -0.19402067  0.00522692
  0.08795685  0.28234586  0.22372711  0.04557095  0.03461207 -0.05091893
  0.11951698 -0.22058789  0.10915307  0.10276431  0.13008101  0.05215539
  0.12412037 -0.18459678 -0.08330637  0.16231616 -0.16589347  0.03958317
  0.02712773 -0.13136515 -0.07941806 -0.08800224  0.15831457  0.05574678
 -0.15077412 -0.13709731  0.12270089 -0.12870094  0.00170204  0.09590758
 -0.0869531  -0.18143938 -0.32901087  0.10386117  0.40308449  0.10412812
 -0.2189642  -0.0042649  -0.03369112 -0.03932967  0.07143369  0.11474372
 -0.02861734  0.02405008 -0.10135929  0.0494911   0.14436497  0.00631721
 -0.00692174  0.18383732 -0.01440325  0.02854118  0.05900618  0.07092273
 -0.11593181  0.00367665 -0.0991216   0.01864857  0.0798623  -0.11517047
  0.01142891  0.05609794 -0.09892659  0.14128888  0.03365016  0.05845322
  0.02273799 -0.08473764 -0.05709418 -0.04212787  0.16053094 -0.33004841
  0.18662851  0.16604161 -0.06593037  0.15317973  0.08169583  0.05998158
  0.0204016  -0.01434049 -0.1681274  -0.05712876  0.05251129 -0.08346935
  0.10870625  0.00459388]