[-0.05411121  0.03869095  0.03885584 -0.05690312 -0.12026149 -0.03545008
 -0.02343276 -0.12293502  0.20936023 -0.0774643   0.23778628 -0.07016942
 -0.21714643 -0.07689223 -0.03705718  0.22462402 -0.20297216 -0.12138795
 -0.05101752  0.00179577  0.0359504   0.0071059  -0.00095843  0.03349946
 -0.10076708 -0.38380414 -0.08550581 -0.08787753  0.00537308 -0.03365829
 -0.09071141  0.09371102 -0.15094128 -0.09259906  0.07218506  0.08811934
 -0.04169985 -0.11960465  0.16704725 -0.03806443 -0.2609534   0.00660848
  0.07782891  0.19245534  0.18178181  0.00665061  0.02058976 -0.18231735
  0.15681711 -0.13473159 -0.02883969  0.11991169  0.06801369  0.07134788
  0.00381009 -0.14028594 -0.00984475  0.15436867 -0.12573075 -0.05714408
  0.06359866 -0.09220988 -0.01928553 -0.15368162  0.21736677  0.05408794
 -0.1161912  -0.13615859  0.11454042 -0.11590312 -0.05328489  0.01886493
 -0.16328862 -0.19341926 -0.2719017  -0.03472659  0.35850948  0.06232749
 -0.20192735  0.0280263  -0.05372388  0.00696757  0.12954357  0.16405678
  0.03871695  0.02288184 -0.06726404 -0.03926263  0.24614005 -0.11977907
  0.05785334  0.20635366 -0.02713569  0.10364009 -0.00266102  0.0006908
 -0.07802489  0.08211727 -0.12679026  0.0058591   0.01560376 -0.01781806
  0.03090394  0.07305976 -0.15088418  0.07970244  0.05547858  0.06845366
  0.08274614 -0.04513953 -0.0313878  -0.11785182  0.15393965 -0.21975695
  0.19081786  0.16326168  0.02900704  0.15145199  0.06114991  0.10682386
 -0.05892698 -0.03592426 -0.22334476  0.04978287  0.12342683 -0.02205352
  0.03720713 -0.02548149]