[-0.04054993  0.04581114  0.04899589 -0.04876105 -0.11698826 -0.03603807
 -0.02342159 -0.13501254  0.18887985 -0.08335641  0.2369983  -0.07764458
 -0.21764643 -0.0804848  -0.05175321  0.22066699 -0.19955173 -0.11522906
 -0.05520814  0.00880266  0.0571284   0.00617912  0.00346383  0.022274
 -0.08625697 -0.38292393 -0.0868837  -0.07775772  0.00838528 -0.03216176
 -0.09753568  0.09612655 -0.15178573 -0.09019811  0.0740146   0.07373845
 -0.04242479 -0.1133945   0.15507053 -0.0396027  -0.26421103  0.01972829
  0.0723144   0.18324634  0.18605784  0.00716674  0.02206622 -0.18467653
  0.13624583 -0.13748576 -0.02240862  0.12208175  0.07701725  0.06830408
  0.00616427 -0.136923   -0.01587448  0.14377408 -0.11722016 -0.05977
  0.07720801 -0.09053233 -0.0207878  -0.14231776  0.19083057  0.04923029
 -0.11363777 -0.14755903  0.11244189 -0.11484736 -0.0457342   0.02913599
 -0.1604753  -0.19159193 -0.25682148 -0.02510146  0.38385466  0.06921034
 -0.20139669  0.0100934  -0.06593015  0.01062145  0.13309079  0.14570481
  0.03702789  0.01265011 -0.07056203 -0.02957153  0.22933201 -0.12525962
  0.04066141  0.2029922  -0.02414162  0.09215557 -0.00617805  0.00159993
 -0.07211579  0.09363276 -0.12913315  0.00046546  0.01115917 -0.02098276
  0.02225398  0.08328965 -0.14264457  0.07862544  0.04425939  0.05920092
  0.08416046 -0.04525202 -0.04166932 -0.11114748  0.14095062 -0.22020197
  0.17887738  0.16994219  0.03870359  0.14031503  0.06165245  0.10359744
 -0.04069006 -0.04733967 -0.2227948   0.03709623  0.1284052  -0.01342968
  0.02822211 -0.04019631]