[-0.14907691  0.15433827  0.09099861 -0.03190701 -0.0927394   0.05405162
 -0.00338917 -0.07330187  0.12167158 -0.02413586  0.32270679  0.01423433
 -0.24078695 -0.2106428   0.03644466  0.14504789 -0.12302542 -0.12612107
 -0.09887721 -0.0133682  -0.00126627  0.01245168  0.00453864 -0.0180761
 -0.16707924 -0.39103404 -0.06122601 -0.08531034  0.03116454 -0.10361331
 -0.08526964  0.04190977 -0.17049424 -0.13087939  0.03068864  0.15801929
 -0.07027739 -0.04691392  0.13396136 -0.06076086 -0.22310822 -0.00965193
  0.07510015  0.27374539  0.22373977  0.01721722  0.04612685 -0.06829531
  0.1169635  -0.18412291  0.0964689   0.10007449  0.12360813  0.05709329
  0.08739056 -0.16987817 -0.0111948   0.15341696 -0.19373028 -0.04491191
 -0.00720408 -0.09162473 -0.04238423 -0.06020353  0.17021063  0.09054925
 -0.09740775 -0.17771856  0.16045438 -0.11149406 -0.01923857  0.11098506
 -0.13000461 -0.1928006  -0.35701773  0.07001626  0.39449796  0.10290998
 -0.21612589  0.02803087 -0.02613619 -0.05258257  0.10313324  0.11921805
 -0.01244773  0.03177187 -0.13043128  0.00708825  0.18450952 -0.02358568
 -0.03099077  0.17259     0.01546466  0.02231795  0.08870641  0.07347795
 -0.07385585  0.04041186 -0.14120407 -0.01586934  0.06250867 -0.09306397
 -0.02717968  0.08554044 -0.15818155  0.15152162  0.0597474   0.06454397
  0.00681326 -0.12343694 -0.0367268  -0.02385718  0.15945891 -0.3145189
  0.18419154  0.17111892 -0.03048238  0.17030329  0.12116224  0.02869579
  0.01113889 -0.06089488 -0.1999568  -0.04443001  0.07060572 -0.08613612
  0.0928387   0.03095234]