[-0.1288691   0.12828366  0.07301319  0.00613167 -0.09147716  0.0302022
  0.01177282 -0.06560358  0.13349067 -0.02300779  0.27558675  0.03605869
 -0.22092056 -0.12128027  0.02979308  0.13500923 -0.11584939 -0.14514303
 -0.16042793 -0.07690375  0.03840256 -0.03181335 -0.02154959 -0.00071315
 -0.22325154 -0.28124484 -0.07257634 -0.08312474  0.06410154 -0.17249149
 -0.06131243 -0.05253658 -0.17297043 -0.13683473 -0.00065487  0.11791917
 -0.06428228 -0.08414109  0.17049536 -0.07107954 -0.19905044  0.04341536
  0.07070353  0.266909    0.24963418  0.00735793  0.03449048 -0.03308957
  0.15886365 -0.25339729  0.10740147  0.06596726  0.16684987  0.10215713
  0.09889591 -0.14342698 -0.03557755  0.21416517 -0.16316281  0.03854173
 -0.0033347  -0.1177538  -0.02789057 -0.09463742  0.14374286  0.07287253
 -0.11326703 -0.0985739   0.14420044 -0.13455862 -0.02211262  0.0691787
 -0.0783416  -0.18194446 -0.36926818  0.07108549  0.41178042  0.11157631
 -0.23840323  0.0149788  -0.00786268 -0.02098344  0.04324289  0.08707216
 -0.02778114  0.02123037 -0.11266764  0.02405199  0.22187971 -0.01531031
  0.01221901  0.19572099  0.02204366  0.00916531  0.08175456  0.10159385
 -0.08953475 -0.03404608 -0.07295436  0.02767132  0.03481318 -0.12361892
 -0.01703453  0.04955892 -0.15235238  0.18033396  0.03033826  0.06753691
 -0.02347856 -0.07157971 -0.03762224 -0.01058567  0.18217103 -0.30694726
  0.1598442   0.21034327 -0.08254589  0.14331479  0.0563127   0.04964145
 -0.00849623  0.01283798 -0.17912483 -0.05781167  0.03212767 -0.10546434
  0.07455391  0.06928534]