[-0.13095431  0.112474    0.07148539 -0.0062537  -0.07987883  0.01354161
  0.01201054 -0.04119184  0.11944429 -0.01982377  0.2486724   0.00359968
 -0.27618036 -0.16022931  0.02931893  0.12125462 -0.13680273 -0.12753026
 -0.15015973 -0.09236451 -0.00765365  0.02297493 -0.01857129 -0.01722604
 -0.19688724 -0.35628769 -0.06759705 -0.05630186  0.01380798 -0.1366825
 -0.05599361  0.05432085 -0.1654381  -0.13493522  0.05869198  0.14435135
 -0.06253035 -0.05397506  0.16985181 -0.03290574 -0.17015341 -0.00429849
  0.08847284  0.30760846  0.22875467  0.01987163  0.02324745 -0.01955347
  0.13361715 -0.24711178  0.0984662   0.12751998  0.12175232  0.06938609
  0.13287406 -0.15935504 -0.05527736  0.17365183 -0.15370545  0.02753349
  0.00802456 -0.15914127 -0.07145446 -0.09507553  0.15177624  0.07905713
 -0.12699798 -0.13898729  0.16676453 -0.12612078  0.00212705  0.0899524
 -0.08780926 -0.17547935 -0.32335693  0.0920205   0.41194984  0.10543137
 -0.21641412  0.01131493 -0.0101974  -0.04501167  0.09489862  0.11858612
 -0.02536489  0.0175752  -0.10430773  0.0572159   0.18133937  0.00526444
 -0.04102772  0.17194943 -0.00220305  0.02093787  0.09452751  0.05177867
 -0.09230859 -0.01139711 -0.1090305   0.02969479  0.0983953  -0.14001051
 -0.01454729  0.06126795 -0.08012681  0.13242675  0.03460654  0.05416794
 -0.00390892 -0.09925184 -0.06772938 -0.01125102  0.16854402 -0.33656469
  0.1885917   0.15943073 -0.09533346  0.15968485  0.06640739  0.06005522
  0.02229508 -0.02574012 -0.15738356 -0.08170609  0.03618079 -0.05626737
  0.08828487  0.01114508]