[-0.03849041  0.07295784  0.07105353 -0.04228232 -0.13287376 -0.05180835
 -0.03142683 -0.11868208  0.18208361 -0.1046806   0.20929916 -0.0748736
 -0.24326997 -0.05976603 -0.05170015  0.23683839 -0.19944888 -0.15524893
 -0.06620757  0.0076451   0.06137499  0.0130412   0.00513365  0.01177534
 -0.06822672 -0.37229586 -0.07302926 -0.06499016  0.02412454 -0.0210559
 -0.07704382  0.05633464 -0.14072695 -0.09308191  0.06957141  0.06142015
 -0.0302987  -0.11836512  0.1681722  -0.05361449 -0.28798661  0.02758613
  0.04866149  0.20172362  0.18607251  0.03648874  0.01269366 -0.18813042
  0.14007895 -0.16176245 -0.00695255  0.12945448  0.06234599  0.06262963
  0.0016298  -0.16510724  0.01138705  0.14328416 -0.14066218 -0.08222324
  0.07307767 -0.06282445  0.01912928 -0.11784416  0.21974039  0.02061481
 -0.11527491 -0.13979892  0.13445215 -0.11424512 -0.03527176  0.01285182
 -0.16329417 -0.16876924 -0.25609061 -0.03653061  0.40825638  0.06533571
 -0.19439858  0.03171089 -0.07300401  0.01844343  0.1297473   0.14796038
  0.03280025  0.00065717 -0.09087054 -0.0359721   0.21498071 -0.13891813
  0.02307025  0.21131337  0.00842905  0.09224109  0.00397847  0.00533859
 -0.08375143  0.10096882 -0.14154576 -0.0036166   0.01640404  0.01421022
  0.02302696  0.09855787 -0.12942563  0.09184063  0.04894492  0.07878202
  0.06589153 -0.02072765 -0.04310643 -0.13346186  0.1339606  -0.20312698
  0.17954752  0.18121809  0.03898428  0.1377492   0.0765432   0.0853755
 -0.01520791 -0.04210472 -0.23965232  0.03015249  0.12764417 -0.01607837
  0.04303977  0.0082246 ]