[-0.07546944  0.05782601  0.02207744 -0.01892962 -0.10328855 -0.01562289
  0.03692473 -0.18074867  0.20263217 -0.13033062  0.20367244 -0.06616809
 -0.25570008 -0.09813824 -0.00176383  0.2551246  -0.17486186 -0.18542881
 -0.08392777 -0.0287772   0.02922147  0.01267274  0.01555454  0.04455372
 -0.05745668 -0.36251241 -0.07839287 -0.05356498  0.01635743 -0.01456715
 -0.09060069  0.12689558 -0.15040444 -0.06143681  0.0922963   0.082049
 -0.05841327 -0.0922566   0.19181927 -0.00986153 -0.26876897 -0.01703177
  0.05461632  0.21240115  0.18836117  0.01462918 -0.02882972 -0.13231173
  0.13752113 -0.18067935 -0.0359056   0.13881034  0.08926842  0.05484904
 -0.0200506  -0.19293426 -0.02969312  0.08955882 -0.14495765 -0.09746053
  0.04179403 -0.14285706 -0.04705028 -0.10704423  0.19908147  0.08157197
 -0.10842784 -0.15193354  0.14024206 -0.13294072 -0.00678642  0.02128484
 -0.17514235 -0.19014393 -0.20104884 -0.0318372   0.38909346  0.06719428
 -0.18511163  0.00498534 -0.04779978  0.02139224  0.10657348  0.16044368
  0.02192174  0.00508634 -0.08505101 -0.04505631  0.18320256 -0.13946399
  0.01166526  0.23884621 -0.01515983  0.09471088  0.00594099 -0.02673543
 -0.05944774  0.0712378  -0.15437673 -0.05523416 -0.01926563  0.00551845
  0.04574887  0.07612351 -0.11845511  0.10809427  0.04013216  0.08486617
  0.04905651 -0.03882299 -0.0506717  -0.12801445  0.10151426 -0.19482648
  0.15544599  0.17526904 -0.00749507  0.15496941  0.05823888  0.10950086
 -0.01059155 -0.0304865  -0.21530579  0.026205    0.15842086 -0.00378187
  0.01267264 -0.03364524]