[-0.0736495   0.05351336  0.0612483  -0.05786129 -0.14785175 -0.08835967
 -0.03676046 -0.11873428  0.18360811 -0.09291247  0.20945893 -0.06090729
 -0.23283671 -0.0913822  -0.03889835  0.25079861 -0.20677288 -0.19565658
 -0.04871378 -0.0147226   0.03817707 -0.01728548  0.01212032  0.02881163
 -0.09488232 -0.3956461  -0.06326506 -0.08230769 -0.03214524 -0.02544594
 -0.01948396  0.10285597 -0.14445379 -0.08669379  0.06584504  0.08790888
 -0.01238461 -0.1168936   0.18350941 -0.04614584 -0.29538044 -0.01790343
  0.06549126  0.22158824  0.18459152  0.01409495  0.02173027 -0.14417534
  0.16453058 -0.15511157 -0.04825191  0.11934971  0.05362346  0.0519274
  0.02033272 -0.15460055  0.06792841  0.11240988 -0.16100958 -0.1241972
  0.06578034 -0.10040738  0.01414822 -0.13280259  0.24290793  0.02295819
 -0.08778103 -0.12270451  0.14695103 -0.09949468 -0.04845903  0.01899275
 -0.18548945 -0.16694054 -0.28558639 -0.05549387  0.38309112  0.08609931
 -0.18025284  0.04002594 -0.02750142  0.03563363  0.12039857  0.1539008
  0.02416176  0.03675973 -0.1101239  -0.02975749  0.19792442 -0.10749548
  0.00831733  0.18000123  0.00495805  0.11060836  0.02554944 -0.01749631
 -0.08009442  0.1122185  -0.15268114  0.01756913  0.01551362  0.03862021
  0.04329746  0.0788547  -0.0951286   0.06907723  0.03575203  0.08259773
 -0.00548458 -0.00741625 -0.02562252 -0.1211045   0.10438366 -0.18414955
  0.17393444  0.17980367  0.01712028  0.14512382  0.06493158  0.06650214
 -0.06994314 -0.04213082 -0.22567299  0.03792527  0.12054986 -0.02101657
  0.07919024  0.01349293]