[-0.14522415  0.13702081  0.06731196  0.00477119 -0.09042407  0.02944498
  0.00412816 -0.07819287  0.12469398 -0.0435768   0.27380213  0.03272937
 -0.21633239 -0.13421471  0.03833878  0.1432973  -0.13549118 -0.14372967
 -0.15971747 -0.07610429  0.03482561 -0.02885536 -0.01804799  0.00146882
 -0.23111811 -0.29580209 -0.06942731 -0.07614621  0.06662248 -0.14884104
 -0.08032011 -0.04101412 -0.17994753 -0.13977243  0.01216271  0.12713042
 -0.07038631 -0.0670952   0.16692522 -0.05009192 -0.20167921  0.03881729
  0.06882893  0.27897254  0.28325352  0.01447651  0.02966473 -0.04321777
  0.16440703 -0.24725662  0.11269953  0.07721133  0.16699269  0.10796653
  0.10046711 -0.14598106 -0.04439778  0.20591131 -0.16087949  0.00995461
 -0.00116775 -0.10656884 -0.02852846 -0.09575974  0.14424294  0.07729285
 -0.11958022 -0.10767762  0.13980637 -0.13331798 -0.02045407  0.06817987
 -0.09191529 -0.18547617 -0.37743244  0.06943467  0.401604    0.13342069
 -0.22617984  0.00898136 -0.00522542 -0.02560282  0.06287313  0.10021434
 -0.02606767  0.02199195 -0.08494254  0.03441816  0.1966043  -0.01291695
 -0.00507171  0.19731072  0.01486327  0.00658897  0.07968962  0.09406114
 -0.09933311 -0.02707973 -0.0867964   0.00201647  0.03588022 -0.09908652
  0.00425136  0.06295116 -0.14769225  0.18356343  0.0253028   0.0834762
 -0.02032845 -0.08494146 -0.04435828 -0.00787712  0.16245116 -0.30654767
  0.15550309  0.2091589  -0.09365313  0.14412852  0.07676077  0.03657845
 -0.00429111  0.01680019 -0.17821839 -0.04769567  0.04904943 -0.09282429
  0.09630994  0.05099341]