[-9.14072916e-02  1.02247953e-01  8.46552998e-02  7.82593340e-03
 -1.33849949e-01 -7.39538223e-02 -2.32895594e-02 -1.51484370e-01
  1.61376074e-01 -8.36825967e-02  2.08757043e-01 -8.75356197e-02
 -2.43046552e-01 -1.00238897e-01 -5.55461533e-02  2.51250148e-01
 -1.70013770e-01 -2.04296753e-01 -5.93574047e-02  4.29133046e-03
  3.42677198e-02  9.19381063e-03 -3.79651296e-03  2.47600004e-02
 -7.67727718e-02 -3.93011749e-01 -8.04134533e-02 -8.87366906e-02
  1.75402332e-02 -2.06003133e-02 -8.88599008e-02  4.47309278e-02
 -1.57645568e-01 -6.92589730e-02  8.68619904e-02  5.03169186e-02
 -3.70014459e-02 -7.63534307e-02  1.86795339e-01 -5.14031164e-02
 -3.18977326e-01  8.01125634e-03  6.40853420e-02  2.34094858e-01
  1.96961313e-01  5.51822782e-02  3.17650731e-03 -1.87579796e-01
  1.36329666e-01 -1.37999251e-01  2.24828045e-03  1.73278704e-01
  6.87704533e-02  7.55205378e-02 -1.95745733e-02 -1.82508603e-01
 -9.47496388e-03  1.17018774e-01 -1.64163589e-01 -8.46016333e-02
  6.56363145e-02 -9.43308696e-02 -2.63159331e-02 -1.41547576e-01
  2.32007533e-01  1.25956433e-02 -1.37956530e-01 -1.49278596e-01
  1.31593138e-01 -1.66496918e-01 -2.38960069e-02  3.12686823e-02
 -1.69466361e-01 -1.94034025e-01 -3.07601154e-01 -2.33119018e-02
  3.91095549e-01  8.29678997e-02 -1.99179560e-01  2.97940131e-02
 -4.90344204e-02  1.97613928e-02  8.52632150e-02  1.78200528e-01
  6.66941563e-03  4.00902368e-02 -8.56384560e-02 -5.59771061e-02
  2.05463871e-01 -1.30340248e-01  3.16681676e-02  1.97194666e-01
 -1.78228375e-02  8.32247362e-02 -1.64384041e-02  1.14511512e-02
 -8.61752629e-02  4.85530458e-02 -1.29138082e-01 -2.84458883e-02
 -1.13733085e-02  1.61526594e-02  1.89677384e-02  8.40655491e-02
 -1.56584188e-01  1.24383405e-01  4.97605018e-02  7.02454969e-02
 -2.71647237e-04 -4.59520295e-02 -2.61935778e-02 -1.11888431e-01
  1.35389358e-01 -2.00894877e-01  2.24788889e-01  1.88977808e-01
  5.57448156e-02  1.55967578e-01  7.89568573e-02  6.47190660e-02
 -5.86378351e-02 -4.73406315e-02 -2.16044590e-01  1.11801764e-02
  1.41216636e-01 -5.61397932e-02  8.04463252e-02 -9.16007906e-04]