[-1.42237410e-01  1.39818907e-01  6.42136559e-02 -3.24745110e-04
 -8.55203941e-02  1.82078723e-02 -5.74694714e-03 -7.53107890e-02
  1.07794262e-01 -2.15864610e-02  2.86763132e-01  3.29201445e-02
 -2.17017204e-01 -1.47384852e-01  2.93758996e-02  1.34283468e-01
 -1.27425328e-01 -1.39572024e-01 -1.58422396e-01 -7.34231025e-02
  3.94607298e-02 -3.09321340e-02  9.68398002e-04 -6.94678864e-03
 -2.18781278e-01 -2.90557832e-01 -6.51559159e-02 -8.52772370e-02
  7.59599358e-02 -1.68570936e-01 -7.58683830e-02 -4.87418883e-02
 -1.86373696e-01 -1.34541065e-01 -9.48945468e-04  1.20380342e-01
 -5.96710928e-02 -7.18344301e-02  1.76892817e-01 -5.54266460e-02
 -1.98954582e-01  3.63536738e-02  6.55098781e-02  2.71038413e-01
  2.71914095e-01  2.07372308e-02  2.84111146e-02 -4.51199114e-02
  1.58663064e-01 -2.28914931e-01  1.24242008e-01  7.12747797e-02
  1.66119218e-01  9.56194028e-02  9.27380398e-02 -1.47066250e-01
 -3.59554403e-02  1.93433210e-01 -1.64375305e-01  2.61804159e-03
 -8.16433039e-03 -1.00839555e-01 -3.97279933e-02 -1.04584791e-01
  1.46370456e-01  7.61689767e-02 -1.00837566e-01 -1.10299423e-01
  1.51406854e-01 -1.25723481e-01 -2.63366830e-02  7.72167370e-02
 -8.83179232e-02 -1.71229452e-01 -3.69035691e-01  6.40727654e-02
  3.86359662e-01  1.21106647e-01 -2.31821418e-01  1.89480875e-02
 -7.99933076e-03 -3.55035663e-02  5.45611866e-02  8.36782679e-02
 -3.27345505e-02  3.60633992e-02 -9.97555852e-02  2.62817871e-02
  2.01307654e-01 -2.14589331e-02 -6.15073647e-03  1.85710654e-01
  1.88464969e-02  1.30939577e-02  8.96909311e-02  8.41109231e-02
 -9.20164064e-02 -2.01763734e-02 -8.77095833e-02  1.33488781e-03
  4.71314788e-02 -1.10172585e-01 -9.98939853e-03  5.58733940e-02
 -1.49358138e-01  1.72039717e-01  3.70948575e-02  7.30430782e-02
 -1.95942018e-02 -8.31640288e-02 -3.61156687e-02 -1.67111214e-02
  1.64656386e-01 -3.02579254e-01  1.71361387e-01  2.07511410e-01
 -7.63412565e-02  1.41415820e-01  7.85879418e-02  4.62190323e-02
 -8.66882969e-03  1.56603940e-02 -1.84140489e-01 -5.22814468e-02
  5.20804934e-02 -8.99619386e-02  9.67565775e-02  6.56806305e-02]