[-0.05447878  0.05839674  0.10888659 -0.03641618 -0.08210424 -0.04127359
  0.00445258 -0.12786457  0.20665686 -0.14721121  0.20905562 -0.08796075
 -0.23471323 -0.08986112 -0.02363607  0.23663525 -0.18321535 -0.19350126
 -0.07152136 -0.01513941  0.05195494  0.04204442 -0.01304553  0.02520257
 -0.0909371  -0.35642833 -0.07203992 -0.05362583  0.02266612 -0.04575609
 -0.09761833  0.08902749 -0.14301613 -0.05720354  0.07030114  0.10939767
 -0.03293273 -0.12332145  0.17252372 -0.04988312 -0.29785359  0.02158452
  0.0460866   0.20796648  0.19696523  0.00103781 -0.04240401 -0.14578503
  0.14844051 -0.1571749  -0.03031188  0.17994331  0.08029462  0.10334843
  0.00794022 -0.18027094  0.01708758  0.11214533 -0.1449023  -0.1162399
  0.05135609 -0.12168629  0.04235707 -0.1032421   0.16776827  0.01816866
 -0.09905583 -0.1604882   0.12519845 -0.14471316 -0.02317607  0.0166469
 -0.1889639  -0.17190979 -0.23189302 -0.02526707  0.34528545  0.09744713
 -0.18149467  0.08163732 -0.03635323  0.02054541  0.09972897  0.17966156
  0.03339361  0.04828549 -0.07160728 -0.02101375  0.16782634 -0.11363009
  0.03311767  0.21197961 -0.02061333  0.08649409  0.01746784 -0.05292967
 -0.06535494  0.10590356 -0.12713237  0.01254147 -0.01943268  0.01004732
  0.04205222  0.08783825 -0.13188009  0.12660962  0.03962575  0.08538105
  0.03726856 -0.01317061 -0.0194775  -0.10573166  0.11398824 -0.22165667
  0.1857308   0.18275905  0.01824763  0.15918474  0.06669308  0.11104777
 -0.01616495 -0.02144667 -0.22191715  0.03089224  0.12720273 -0.02035473
  0.0499548   0.00751332]