[-0.12571384  0.14482212  0.08697062  0.00420946 -0.06930033  0.04252429
 -0.00897345 -0.08931236  0.14013492 -0.0535135   0.32562053 -0.01242337
 -0.26099038 -0.16603592  0.02614923  0.14270027 -0.14844495 -0.12129734
 -0.12064797 -0.03096617  0.00867057  0.00962901 -0.00813871 -0.01732224
 -0.16436915 -0.37989709 -0.07173304 -0.05749753  0.01651564 -0.12699692
 -0.10330605  0.03178618 -0.16751616 -0.14068763  0.05404876  0.1258526
 -0.0273269  -0.02015067  0.14821021 -0.03723193 -0.18064474  0.0181329
  0.07470817  0.29247096  0.21185513  0.04949763  0.02441679 -0.07427914
  0.11066705 -0.19989564  0.07071545  0.11145772  0.13366096  0.04254903
  0.09627456 -0.16795628 -0.07521399  0.14142822 -0.12480202  0.01583105
  0.03684054 -0.12654231 -0.05187393 -0.08384609  0.18150325  0.06497978
 -0.13096146 -0.14800662  0.12458338 -0.09428366 -0.01742118  0.06586074
 -0.11743215 -0.1789363  -0.34041879  0.06514689  0.42602125  0.06665588
 -0.24378255  0.01118274 -0.02779821 -0.03679474  0.10369445  0.13370393
 -0.00487271  0.02635488 -0.11355101  0.03592202  0.18975294 -0.02182348
 -0.0120565   0.17500706 -0.02766776  0.04363292  0.07072637  0.05746258
 -0.08842468  0.01081065 -0.12446213  0.01074282  0.0462397  -0.08857493
 -0.01107733  0.07172666 -0.12427658  0.10981426  0.03487214  0.05608229
  0.02160018 -0.08026793 -0.05408576 -0.03566872  0.15331766 -0.33264518
  0.17065118  0.17423011 -0.05695551  0.14912     0.08208188  0.06069447
  0.02229241  0.00918018 -0.17575733 -0.0655962   0.03845314 -0.06727442
  0.08836925 -0.00540248]