[-4.00319658e-02  8.56760368e-02  8.88123438e-02 -5.27599566e-02
 -1.05144106e-01 -4.74864244e-02 -2.34105196e-02 -1.23133563e-01
  2.14544058e-01 -1.00705862e-01  2.42659241e-01 -7.49875158e-02
 -2.61312246e-01 -7.95674846e-02 -4.65893373e-02  2.50114828e-01
 -2.15369985e-01 -1.81608647e-01 -7.22180232e-02  1.59199033e-02
  3.32591049e-02 -2.08889437e-03  2.42486689e-02  1.62586793e-02
 -1.09106638e-01 -4.09153759e-01 -8.13666508e-02 -5.82043417e-02
  1.51215466e-02 -3.05842608e-04 -8.13032687e-02  7.70005360e-02
 -1.66695580e-01 -7.04233795e-02  6.75071329e-02  7.96396807e-02
 -1.01069463e-02 -1.24426246e-01  1.45832017e-01 -5.93660176e-02
 -3.07820171e-01  2.23529898e-02  5.52700870e-02  2.02882692e-01
  1.81880042e-01  1.08153326e-02  2.31102519e-02 -1.81431442e-01
  1.50804251e-01 -1.49999604e-01 -1.80489570e-02  1.46706432e-01
  6.52997643e-02  7.30551854e-02  1.28828408e-02 -1.63277552e-01
  2.11611460e-03  1.59194648e-01 -1.32761225e-01 -1.07009627e-01
  4.00066637e-02 -4.93818335e-02  1.99567135e-02 -1.56660438e-01
  1.92891106e-01  2.71975528e-02 -1.20626427e-01 -1.63537294e-01
  1.24895178e-01 -1.13168553e-01 -2.10348796e-02  2.87691001e-02
 -1.94625333e-01 -1.79118469e-01 -3.01897556e-01 -4.35816608e-02
  3.68519992e-01  7.18246102e-02 -1.76052630e-01  5.40937893e-02
 -6.44799024e-02  2.94138398e-02  7.04802647e-02  1.53972998e-01
  2.12440211e-02  5.70101924e-02 -1.05265811e-01 -1.86979752e-02
  2.18131095e-01 -1.43656135e-01  3.16870026e-02  2.14901209e-01
 -2.58595254e-02  9.69253704e-02 -2.16506850e-02  5.43070165e-03
 -9.67280269e-02  9.87820849e-02 -1.49761736e-01  3.03790881e-03
  5.32607082e-03  3.91456150e-02  1.46902120e-02  8.17277655e-02
 -1.42347515e-01  7.80130178e-02  5.69436513e-02  8.61319527e-02
  5.56868687e-02 -6.65409258e-03 -2.06406768e-02 -1.42076999e-01
  1.24237351e-01 -2.22877368e-01  1.84089676e-01  1.93615004e-01
  4.13435064e-02  1.36220500e-01  6.90747574e-02  6.93568289e-02
 -4.49476279e-02 -3.66637371e-02 -2.12918356e-01  3.00565865e-02
  1.23127520e-01 -2.84299608e-02  3.73106264e-02  2.19783420e-03]