[-5.12434952e-02  6.25725836e-02  2.46163066e-02 -2.66391616e-02
 -8.50322545e-02 -2.06739437e-02  2.26936489e-02 -1.65736526e-01
  2.07301021e-01 -1.36045158e-01  1.86737284e-01 -8.15156698e-02
 -2.43318483e-01 -9.17693302e-02 -2.78351158e-02  2.39521071e-01
 -1.80288658e-01 -1.72549635e-01 -8.12477618e-02 -3.78921144e-02
  3.88314612e-02  2.12613847e-02  1.29452243e-03  3.91359888e-02
 -6.55227229e-02 -3.50259542e-01 -8.16008970e-02 -6.80162832e-02
  1.98571812e-02 -2.97529083e-02 -1.00585900e-01  1.07723072e-01
 -1.30996451e-01 -4.94515076e-02  7.75010213e-02  9.05394480e-02
 -4.85528708e-02 -9.05739442e-02  1.69646710e-01 -1.20611386e-02
 -2.59970605e-01  1.51245324e-02  4.20034193e-02  2.14269146e-01
  1.78141102e-01  3.32826264e-02 -2.82021202e-02 -1.48368016e-01
  1.55803517e-01 -1.55979559e-01 -2.38808692e-02  1.32192254e-01
  1.02866769e-01  5.22214845e-02 -2.82499474e-02 -1.86422795e-01
 -2.44495403e-02  1.08883694e-01 -1.65810362e-01 -7.92593881e-02
  4.51391898e-02 -1.44633681e-01 -5.14933541e-02 -8.41716453e-02
  1.90827161e-01  9.57677588e-02 -1.11216620e-01 -1.54971257e-01
  1.44544467e-01 -1.54831156e-01 -7.86945038e-03  1.79947987e-02
 -1.52912617e-01 -1.75797999e-01 -1.91061616e-01 -3.02913394e-02
  3.87620538e-01  5.50870970e-02 -1.80554792e-01  8.50408990e-03
 -4.72873636e-02  2.62923371e-02  1.16200462e-01  1.60263970e-01
 -1.16033601e-02  5.07201394e-03 -9.18464586e-02 -4.82365303e-02
  1.91455677e-01 -1.34984002e-01  1.16824871e-02  2.16390684e-01
 -1.39653971e-02  9.37357247e-02  3.16656398e-04 -3.62906307e-02
 -7.74450451e-02  7.87228420e-02 -1.29847482e-01 -5.42289019e-02
 -5.33950340e-04 -1.43239824e-02  2.24304833e-02  6.56094179e-02
 -1.30319953e-01  1.21788047e-01  3.99712212e-02  6.98328316e-02
  6.24458268e-02 -3.83492075e-02 -4.17122580e-02 -1.17905915e-01
  1.25989735e-01 -2.01011777e-01  1.55467376e-01  1.73968673e-01
  1.91331543e-02  1.63134918e-01  6.10977076e-02  1.08732499e-01
 -7.27741793e-03 -3.93186845e-02 -2.31647924e-01  2.32496411e-02
  1.56814381e-01 -9.77032445e-03  2.72577591e-02 -3.47936638e-02]