[-0.09230236  0.10743314  0.09200735 -0.00138429 -0.13236077 -0.08838602
 -0.02159066 -0.15736687  0.17021435 -0.07965412  0.22108069 -0.08057653
 -0.24001603 -0.11141215 -0.03457893  0.24292067 -0.15806518 -0.19394302
 -0.06572999  0.00847878  0.02749304 -0.01491344  0.0005165   0.04342352
 -0.0760975  -0.38375914 -0.0746366  -0.10244422  0.00853793 -0.02488381
 -0.08234753  0.06889024 -0.14429122 -0.07913593  0.06887819  0.07096714
 -0.05483321 -0.07297307  0.19699471 -0.0586671  -0.32271767 -0.01733295
  0.06041001  0.22725895  0.22034208  0.04474404  0.01055686 -0.16330838
  0.1572392  -0.15035404  0.00541225  0.16520135  0.07454484  0.0898523
  0.00178434 -0.19915685  0.00680552  0.12995569 -0.17861608 -0.09372859
  0.05933649 -0.12325641 -0.02829764 -0.12746249  0.2359356   0.03841341
 -0.12563433 -0.13470234  0.14816706 -0.15511011 -0.0241719   0.04635211
 -0.1805795  -0.18980156 -0.30589685 -0.01946495  0.37674174  0.09290774
 -0.19543663  0.01508229 -0.04630438  0.01586488  0.0803205   0.16672361
  0.01419241  0.0207159  -0.09761425 -0.06749433  0.18034862 -0.12458249
  0.04459438  0.1951354  -0.01678043  0.07720383 -0.01835286  0.00833844
 -0.0988675   0.06038668 -0.14122771 -0.03607034 -0.00669917  0.01678378
  0.0229865   0.07030653 -0.15813152  0.12385792  0.05278616  0.08217809
 -0.01066144 -0.06660157 -0.0148868  -0.09953524  0.13817577 -0.1915478
  0.22544496  0.17400728  0.04395241  0.15929104  0.07401721  0.06559763
 -0.06148123 -0.06956508 -0.21563874  0.0232697   0.14484671 -0.04606274
  0.07092839  0.00403354]