[-0.13041554  0.12645578  0.08757134 -0.02762155 -0.07387879  0.02718487
  0.00664663 -0.0590253   0.12304819 -0.03908018  0.26323929  0.01965731
 -0.255472   -0.17652434  0.06222711  0.12619813 -0.15146157 -0.12788045
 -0.13791712 -0.06976291 -0.02327605  0.04633819 -0.02475186 -0.0028167
 -0.19053517 -0.37313533 -0.06610983 -0.0833241   0.01163724 -0.11576875
 -0.07640629  0.06596606 -0.14741473 -0.13642177  0.06506481  0.14080115
 -0.05614355 -0.01697648  0.1505263  -0.02765202 -0.19722424  0.00574388
  0.09280478  0.30518645  0.24603508  0.04271332  0.03261201 -0.03782183
  0.13867639 -0.20900194  0.09218425  0.10926652  0.11671752  0.05709032
  0.1250625  -0.1799569  -0.06684347  0.14194196 -0.16908453  0.01525801
  0.01248155 -0.17459212 -0.05804455 -0.06646209  0.16131844  0.05668987
 -0.12697382 -0.14533894  0.16669312 -0.12512974 -0.01337856  0.09574352
 -0.10802301 -0.16586962 -0.34220493  0.08567085  0.40842867  0.09966276
 -0.20543514  0.02171587 -0.0151603  -0.0489041   0.10255682  0.14132208
 -0.01872815  0.01717842 -0.09230547  0.0498945   0.16978167  0.007064
 -0.02548033  0.1711565  -0.01037378  0.02969604  0.086838    0.06140396
 -0.1037748  -0.00293346 -0.12783614  0.00394114  0.07913218 -0.10366262
  0.00622116  0.08066326 -0.10512568  0.13878319  0.03559031  0.05327054
 -0.00383017 -0.09058875 -0.05326254 -0.02662428  0.16120599 -0.3253575
  0.17067769  0.16545762 -0.07626095  0.16164222  0.08052424  0.04143769
  0.01057209 -0.03607909 -0.18107338 -0.06477895  0.06646472 -0.05569815
  0.1133333   0.00921306]