[-0.0737887   0.09019332  0.09401329 -0.05448316 -0.09129503 -0.07324802
 -0.00766497 -0.13528351  0.22767138 -0.10058895  0.24636602 -0.08170967
 -0.275507   -0.10043619 -0.02392947  0.26513049 -0.21476559 -0.18531381
 -0.07142328  0.00050898  0.03793452 -0.04348277  0.03717745  0.05119261
 -0.1091392  -0.40958476 -0.08299953 -0.07604995 -0.00500106 -0.02210935
 -0.05669932  0.0778163  -0.19667163 -0.10902869  0.0411242   0.08276575
 -0.00920907 -0.13597359  0.15572284 -0.06670483 -0.31624016  0.00872645
  0.05379018  0.21105199  0.16105382  0.0245708   0.03220087 -0.16239539
  0.13659182 -0.15908697 -0.00255689  0.13525391  0.06255003  0.05551156
  0.02111244 -0.17812784  0.03346666  0.14276998 -0.15742807 -0.10336262
  0.0748546  -0.05578344  0.02905723 -0.14077996  0.21194918  0.04912587
 -0.10562208 -0.13386859  0.14434223 -0.10359003  0.00058283  0.02586593
 -0.18842603 -0.19477867 -0.30179429 -0.0340002   0.38215181  0.08870365
 -0.16736232  0.05618072 -0.08121037  0.03614041  0.07993017  0.17037873
  0.03601284  0.06251498 -0.09088012 -0.01291718  0.19225034 -0.10990604
  0.02892337  0.22949009 -0.01559772  0.06334335 -0.01533943 -0.02070183
 -0.09213922  0.10930166 -0.14269812  0.02372554 -0.00877235  0.0393079
  0.01727022  0.06169659 -0.15552025  0.06420901  0.06262884  0.07921582
  0.03547161  0.01196555 -0.02783518 -0.14493014  0.10509486 -0.24227467
  0.18848372  0.20766127  0.02303789  0.1437484   0.059122    0.08978021
 -0.01998006 -0.0457151  -0.21780418  0.03488672  0.1406977  -0.03685683
  0.05659356  0.01744818]