[-9.10287648e-02  4.23228182e-02  6.08823858e-02 -3.12040932e-02
 -1.32729173e-01 -5.52694760e-02 -6.05003834e-02 -1.22463956e-01
  1.87895969e-01 -9.73053202e-02  2.20185429e-01 -6.57562241e-02
 -2.37437204e-01 -1.11365631e-01 -2.62241811e-02  2.39823580e-01
 -1.93278596e-01 -1.69751510e-01 -4.91552912e-02 -2.04912461e-02
  2.82410439e-02 -4.43438068e-04 -7.97116605e-04  2.56724153e-02
 -7.54468292e-02 -4.17800009e-01 -6.87280893e-02 -8.61919373e-02
 -2.19478216e-02 -2.61468291e-02 -8.00242051e-02  1.07870057e-01
 -1.51143953e-01 -7.90214166e-02  7.53458515e-02  1.08687818e-01
 -2.17003375e-02 -8.38851035e-02  1.41848490e-01 -4.87616174e-02
 -2.67979562e-01 -1.46303521e-02  4.70470265e-02  2.04039261e-01
  2.13656828e-01  1.10820048e-02  6.94093108e-03 -1.60785273e-01
  1.48862407e-01 -1.56365916e-01 -2.96138953e-02  1.44016534e-01
  6.92219138e-02  5.67350760e-02  2.04992723e-02 -1.71982706e-01
  9.37092211e-03  1.42232284e-01 -1.25370786e-01 -9.88679528e-02
  4.30971794e-02 -1.04087546e-01 -2.12331749e-02 -1.37966841e-01
  2.14802787e-01  4.32011783e-02 -1.08379044e-01 -1.63512826e-01
  9.94306654e-02 -1.20711140e-01 -3.08493376e-02  3.97570990e-02
 -1.97271436e-01 -1.89986497e-01 -3.10567826e-01 -2.11399477e-02
  3.94120276e-01  7.54923001e-02 -2.00570777e-01  2.01611761e-02
 -3.90535109e-02  2.55006552e-02  1.12791754e-01  1.47559091e-01
  9.38448124e-03  8.55114590e-03 -1.03085630e-01 -4.34552319e-02
  1.81749821e-01 -1.00021951e-01  2.44755782e-02  1.78383738e-01
 -3.24726328e-02  1.14086725e-01  3.40889557e-03 -6.28833193e-03
 -7.41670653e-02  7.65025988e-02 -1.35010570e-01 -3.11625637e-02
 -1.85879192e-03 -3.16145277e-04  2.91553792e-02  8.47737715e-02
 -1.26274154e-01  6.53097704e-02  2.58412845e-02  8.81536230e-02
  3.83595824e-02 -2.84767281e-02 -2.75272522e-02 -1.21812485e-01
  1.30653888e-01 -2.08823085e-01  1.59511596e-01  1.94322035e-01
  3.98148522e-02  1.66104540e-01  6.14968315e-02  9.18050855e-02
 -8.51054117e-02 -2.96756569e-02 -2.17509180e-01  6.10270165e-02
  1.10138774e-01 -6.32891804e-03  2.99133901e-02 -1.94258466e-02]