[-1.38973400e-01  1.33158252e-01  6.75514340e-02 -2.11136276e-03
 -8.79023448e-02  2.89589446e-02 -7.93051004e-05 -8.10472816e-02
  1.17673695e-01 -1.53893773e-02  2.86603898e-01  3.87846082e-02
 -2.07747370e-01 -1.60511851e-01  3.30104008e-02  1.25745520e-01
 -1.20101191e-01 -1.42899871e-01 -1.45413935e-01 -6.14758506e-02
  3.46033014e-02 -3.06238681e-02 -1.44394825e-03  1.70572626e-03
 -2.15535522e-01 -2.91216314e-01 -7.91399106e-02 -7.38075301e-02
  6.19241111e-02 -1.53956205e-01 -6.97635859e-02 -2.71076560e-02
 -1.88125983e-01 -1.39055714e-01  7.59278098e-03  1.35849819e-01
 -5.25867939e-02 -6.30143061e-02  1.69023737e-01 -5.51660433e-02
 -1.91283986e-01  3.28988545e-02  7.03599826e-02  2.79941022e-01
  2.74250835e-01  1.71306860e-02  3.24422754e-02 -3.59443575e-02
  1.47582963e-01 -2.26059943e-01  1.25757098e-01  7.54825175e-02
  1.69474766e-01  9.31002051e-02  9.09618661e-02 -1.48132250e-01
 -3.85931693e-02  1.92085117e-01 -1.62506953e-01  1.15295581e-03
 -1.05316062e-02 -1.04882620e-01 -3.86274755e-02 -9.71232504e-02
  1.53792262e-01  9.46540982e-02 -1.04880430e-01 -1.23937361e-01
  1.52667016e-01 -1.27133116e-01 -3.03494930e-02  8.19303691e-02
 -1.01787649e-01 -1.63628832e-01 -3.74960184e-01  6.51477054e-02
  4.02694285e-01  1.12500511e-01 -2.46247098e-01  9.53901000e-03
 -9.92553588e-03 -2.50204094e-02  5.93246035e-02  9.43753198e-02
 -2.30955631e-02  3.60354111e-02 -1.06791832e-01  2.73216367e-02
  1.98957130e-01 -1.12817334e-02 -1.70076657e-02  1.82059169e-01
  2.79083084e-02  1.06352670e-02  9.60541517e-02  8.86582881e-02
 -6.87454492e-02 -1.58108249e-02 -1.02234080e-01  1.06106820e-02
  3.26106660e-02 -9.34409052e-02 -9.65802651e-03  6.31937608e-02
 -1.41181037e-01  1.75462991e-01  4.31391783e-02  6.93344995e-02
 -3.08611691e-02 -9.36737135e-02 -3.63152623e-02 -8.89206398e-03
  1.63884476e-01 -3.17435324e-01  1.62721872e-01  1.89810514e-01
 -8.69345441e-02  1.45943910e-01  6.46823198e-02  5.83434403e-02
 -6.61710231e-03  4.27418202e-03 -1.70125559e-01 -4.93259542e-02
  4.14934643e-02 -9.33617279e-02  9.98926461e-02  6.35016635e-02]