[-0.07680517  0.04361227  0.09680282 -0.03187671 -0.16071904 -0.05973023
 -0.08771481 -0.09229024  0.15812208 -0.10840122  0.17021309 -0.05407565
 -0.19625057 -0.06769803 -0.03424672  0.21888553 -0.19743086 -0.19633919
 -0.040437   -0.00532874  0.01409512  0.01402937 -0.01585207  0.0043053
 -0.12547849 -0.41392872 -0.07978776 -0.0963425  -0.04308833 -0.05818913
 -0.08461815  0.03597862 -0.15707663 -0.07178249  0.05727432  0.08572012
  0.0060393  -0.13077775  0.15513274 -0.01610021 -0.29374525  0.03780788
  0.04123921  0.22471415  0.20377408  0.02194689  0.01652792 -0.09934756
  0.20055793 -0.14943025 -0.02371299  0.12454206  0.0765722   0.04503044
  0.01651718 -0.16504222  0.03966602  0.11401852 -0.1437739  -0.05616691
  0.06255936 -0.11408389  0.04345313 -0.1070588   0.23577502  0.01416566
 -0.09939502 -0.13352774  0.13275987 -0.0985988  -0.03038958 -0.01877676
 -0.20184477 -0.17976475 -0.32142967  0.00188022  0.37730113  0.09062844
 -0.19288218  0.04416798 -0.03220652  0.05417942  0.07395893  0.17298503
  0.01365745  0.05238231 -0.1039868  -0.01747906  0.23080626 -0.079693
 -0.0030681   0.16977201 -0.03689798  0.10570105  0.02386218 -0.00671968
 -0.10014194  0.06501941 -0.10509429  0.05065998  0.02287278 -0.01935703
  0.02525022  0.1183465  -0.12713349  0.07647335 -0.00436591  0.06273835
 -0.02717406  0.00782636 -0.05125408 -0.09241822  0.1207515  -0.20490949
  0.20440455  0.20529954  0.05098591  0.16554235  0.07022434  0.0401688
 -0.06533146  0.00793463 -0.21360548 -0.01152911  0.08780264 -0.01271521
  0.09039648  0.05088376]