[-0.14291839  0.15227439  0.08484591 -0.00487409 -0.09020676  0.03151051
 -0.00566269 -0.07718629  0.11689579 -0.02123424  0.28916261  0.04342185
 -0.22427276 -0.13462259  0.02340009  0.12115649 -0.11304114 -0.13653724
 -0.14862697 -0.06694846  0.03648103 -0.02250434 -0.00791168 -0.00373839
 -0.21646948 -0.2876156  -0.06712603 -0.07039385  0.05597743 -0.16991864
 -0.07411192 -0.03795232 -0.18900406 -0.13242233  0.00934735  0.14263012
 -0.06889433 -0.05757469  0.1708485  -0.0312494  -0.1907991   0.03465633
  0.05896001  0.27832529  0.29205897  0.02896149  0.02050704 -0.05351513
  0.15891932 -0.23380964  0.11873803  0.08952116  0.16340849  0.0985768
  0.09468605 -0.15585089 -0.03607037  0.16936548 -0.16629283 -0.01243111
 -0.00168327 -0.12077712 -0.04703275 -0.1051419   0.13864395  0.08071507
 -0.10405444 -0.11836703  0.15521584 -0.13526762 -0.03363446  0.08474129
 -0.0892567  -0.16382858 -0.36187509  0.06880831  0.40202451  0.12823842
 -0.23503883  0.01774772 -0.01258118 -0.03446288  0.0470806   0.0889548
 -0.0280845   0.03778592 -0.0922636   0.02406928  0.19004031 -0.01229407
 -0.00738821  0.17927387  0.01467089  0.02156965  0.10313238  0.07974213
 -0.09372457 -0.01774608 -0.10211223 -0.00800017  0.02243326 -0.10976522
 -0.00303551  0.05360804 -0.15749837  0.18747173  0.0339966   0.0625069
 -0.02941707 -0.09981903 -0.04296703  0.00119107  0.17406075 -0.3225424
  0.17402864  0.1951129  -0.08851346  0.14528322  0.08684716  0.05613145
 -0.00921441  0.01304661 -0.17095111 -0.06330434  0.03578305 -0.09269045
  0.10479946  0.0512862 ]