[-0.03495923  0.06632101  0.08729255 -0.03238727 -0.13127528 -0.06411491
 -0.05908738 -0.14189671  0.16900684 -0.07811518  0.22018944 -0.06395227
 -0.22896753 -0.0856933  -0.04554016  0.23508905 -0.19396108 -0.17129405
 -0.07140289 -0.00348758  0.02336809  0.00888947  0.02623506  0.00704448
 -0.07427949 -0.4108347  -0.06398561 -0.07781291  0.00091796 -0.02117607
 -0.10006823  0.07232197 -0.174218   -0.07324623  0.07258677  0.0671355
 -0.03968222 -0.11109578  0.15795031 -0.04823603 -0.29467919  0.03537705
  0.05073289  0.18144171  0.22719507  0.02926505  0.01561896 -0.18589763
  0.15063143 -0.15214594  0.01024254  0.13985811  0.06286938  0.06327949
 -0.00341272 -0.17249607 -0.01217302  0.14147775 -0.13320188 -0.07903949
  0.07733272 -0.08396142 -0.02015964 -0.15240332  0.22786658  0.05124785
 -0.12389155 -0.1480144   0.11526853 -0.11487825 -0.02590174  0.02739601
 -0.18223779 -0.1841497  -0.27504596 -0.00456896  0.37903208  0.06509285
 -0.20965703  0.00507605 -0.05147609  0.0438948   0.10251023  0.14434431
  0.01192785  0.01546277 -0.09202807 -0.03761816  0.21251602 -0.11805501
  0.01584343  0.21293454 -0.03752652  0.10969859 -0.00377524  0.01139933
 -0.08286414  0.09025329 -0.15041731 -0.00785228  0.0164312   0.01369897
  0.01771724  0.09004148 -0.11114115  0.07979398  0.02111443  0.08852201
  0.06076571 -0.04600064 -0.02500665 -0.13331895  0.13173917 -0.20234104
  0.2131772   0.17200825  0.06379065  0.14675875  0.06921397  0.08547129
 -0.05325338 -0.04108557 -0.23786609  0.04755846  0.1415076  -0.02033822
  0.05489096  0.0015076 ]