[-0.12567917  0.12819184  0.07528944 -0.02606851 -0.08146527  0.0483945
  0.00377687 -0.0476045   0.12521879 -0.02667651  0.2538037   0.011913
 -0.26034844 -0.17349651  0.06176046  0.12242677 -0.1575418  -0.12739128
 -0.15247671 -0.07364921 -0.04102398  0.05480277 -0.01654662 -0.00395978
 -0.18531804 -0.38375047 -0.05717919 -0.0833623   0.02028633 -0.13081239
 -0.08559846  0.06248743 -0.15556717 -0.13400429  0.06955399  0.1306937
 -0.05284578 -0.02795257  0.14805242 -0.0128042  -0.18179129 -0.00764055
  0.09782568  0.30274764  0.24299327  0.04705486  0.01898423 -0.02353499
  0.13503063 -0.22971836  0.09503629  0.11776754  0.1189483   0.05253111
  0.12696977 -0.17644718 -0.06802081  0.14348079 -0.16364817  0.02387312
  0.01618376 -0.16373903 -0.06931382 -0.07626068  0.15921545  0.05544755
 -0.12955086 -0.13997412  0.14125299 -0.12507926 -0.00319946  0.09123286
 -0.09530244 -0.17341702 -0.33640969  0.09119143  0.40640217  0.11253723
 -0.20777476  0.00645211 -0.01737888 -0.0563515   0.08966321  0.128552
 -0.03483709  0.01027588 -0.09426229  0.04684386  0.16957752  0.01491428
 -0.01738003  0.17922284 -0.01614377  0.02417704  0.07677045  0.05639656
 -0.10229447 -0.01270571 -0.11532631  0.01191724  0.07365218 -0.11777623
 -0.00368268  0.07306095 -0.11499097  0.12909548  0.03254516  0.03632373
  0.00402129 -0.10103112 -0.06057883 -0.03064835  0.16946784 -0.33559415
  0.15383878  0.17570327 -0.06581557  0.16727275  0.07527757  0.04520009
  0.01273497 -0.02663528 -0.16895138 -0.07638872  0.06097118 -0.06515973
  0.0900622   0.00372401]