[-0.0603472   0.07891703  0.08762482 -0.04821332 -0.10236865 -0.06420925
 -0.01265703 -0.13346197  0.23552279 -0.08803406  0.25148067 -0.05267829
 -0.26966709 -0.1088974  -0.02163863  0.26218948 -0.21584916 -0.17842804
 -0.06319123 -0.00646389  0.027662   -0.05471136  0.05040836  0.05155778
 -0.12138052 -0.40252262 -0.08746177 -0.08445834 -0.00765128 -0.01362928
 -0.07318667  0.0771346  -0.18158428 -0.09493697  0.05258287  0.08717703
 -0.01877063 -0.11782237  0.1596151  -0.04776484 -0.30673501 -0.01106632
  0.05197215  0.19480814  0.18109111  0.03367824  0.0339688  -0.16258392
  0.14710002 -0.15869747  0.00768584  0.14357603  0.07280671  0.06786056
  0.01603477 -0.18575682  0.01779026  0.16027427 -0.15086715 -0.11456889
  0.04807299 -0.0519834   0.01657593 -0.13337299  0.21302907  0.06544967
 -0.11755103 -0.13179787  0.1377649  -0.10415983 -0.0085034   0.03420736
 -0.19941105 -0.19878346 -0.31350109 -0.03631417  0.39725181  0.09445729
 -0.16400021  0.02069514 -0.0967792   0.03320655  0.0637572   0.15032159
  0.01355976  0.05660064 -0.09873985 -0.02641586  0.18019314 -0.11926043
  0.03462122  0.22292702 -0.01650803  0.09610238 -0.03198377 -0.0050626
 -0.09487222  0.10947969 -0.14638133 -0.00927597 -0.0165099   0.04498744
  0.03670659  0.05996615 -0.16818061  0.05725972  0.07219979  0.07417282
  0.03275251  0.01418828 -0.03433606 -0.1533027   0.11018047 -0.24508472
  0.18125498  0.21885256  0.02755648  0.14770642  0.0637054   0.08529454
 -0.0426612  -0.06821941 -0.19707742  0.05356902  0.1294485  -0.02834763
  0.04838565  0.01076057]