[-1.25674620e-01  1.33623704e-01  7.65548721e-02 -2.35843901e-02
 -7.83941150e-02  5.66303805e-02  5.58667490e-03 -4.95361090e-02
  1.36895016e-01 -3.05760540e-02  2.76691705e-01  7.14113703e-03
 -2.52767473e-01 -1.68464497e-01  5.78183308e-02  1.26654148e-01
 -1.62434623e-01 -1.26147404e-01 -1.50691733e-01 -6.51099831e-02
 -3.74417193e-02  4.74058352e-02 -1.81089435e-02 -4.31757281e-03
 -1.86653271e-01 -3.84826750e-01 -5.55159338e-02 -8.41669515e-02
  2.96067577e-02 -1.30255178e-01 -8.75195488e-02  5.13846651e-02
 -1.55868158e-01 -1.28782198e-01  7.08609149e-02  1.35281086e-01
 -4.73687015e-02 -2.63706148e-02  1.46172702e-01 -2.01790389e-02
 -1.91194043e-01  3.68612632e-03  9.03188512e-02  2.99985200e-01
  2.44805679e-01  4.78845648e-02  2.28398200e-02 -3.33963446e-02
  1.30774722e-01 -2.16173366e-01  9.04838517e-02  1.17366448e-01
  1.19059481e-01  4.87364493e-02  1.17675714e-01 -1.78514749e-01
 -8.06458965e-02  1.53533012e-01 -1.60369441e-01  1.67932101e-02
  2.43644565e-02 -1.48381576e-01 -6.10978566e-02 -7.67750517e-02
  1.62296563e-01  6.04019761e-02 -1.37196168e-01 -1.51086554e-01
  1.40565664e-01 -1.25973478e-01 -1.56531489e-04  9.59253088e-02
 -1.02118649e-01 -1.78427905e-01 -3.31466526e-01  9.11824703e-02
  4.17140961e-01  1.06763534e-01 -2.06835434e-01  3.51077504e-03
 -1.91145986e-02 -4.88871112e-02  8.86483639e-02  1.33354574e-01
 -3.02670933e-02  1.56516470e-02 -9.54898223e-02  4.15265635e-02
  1.72890127e-01  1.65632907e-02 -1.60844270e-02  1.75112754e-01
 -2.43928079e-02  1.78286508e-02  6.95586950e-02  5.68154827e-02
 -1.02940217e-01 -6.77672774e-03 -1.15010791e-01  4.53566900e-03
  5.61249517e-02 -1.06286563e-01 -1.12678192e-03  7.45699629e-02
 -1.17496215e-01  1.31044909e-01  2.67624240e-02  4.32545990e-02
  3.55664827e-03 -9.15048942e-02 -4.72602807e-02 -2.77101528e-02
  1.71228334e-01 -3.41235578e-01  1.53201446e-01  1.73947200e-01
 -5.71429618e-02  1.66557893e-01  7.87573531e-02  4.83773537e-02
  1.61340926e-02 -1.76870711e-02 -1.75251275e-01 -7.03405216e-02
  4.75436747e-02 -7.02749044e-02  1.00840606e-01 -1.37044198e-03]