[-0.15319288  0.16922162  0.08395638 -0.0181889  -0.08714268  0.05642402
  0.00147517 -0.0760294   0.14380188 -0.02585433  0.31760713 -0.00572839
 -0.26854739 -0.17832886  0.02479492  0.16279769 -0.13550632 -0.12262052
 -0.08879375 -0.02095585  0.0040501   0.0033864  -0.01349661 -0.0113321
 -0.173177   -0.40383235 -0.05935779 -0.09769236  0.01038975 -0.1053947
 -0.08892598  0.02328011 -0.16505446 -0.13754825  0.03717915  0.15066759
 -0.05824902 -0.04655048  0.14989595 -0.05719423 -0.21914153 -0.00952525
  0.08163027  0.27690631  0.20458136  0.02283787  0.05907951 -0.08037823
  0.12508845 -0.17580378  0.08037498  0.0974806   0.10891663  0.05681675
  0.08621191 -0.16135465 -0.02794992  0.14265727 -0.19547151 -0.03666139
  0.02353571 -0.10035757 -0.0392336  -0.05774012  0.18245618  0.06979617
 -0.09367444 -0.1640735   0.17135124 -0.11671722 -0.01092786  0.09175128
 -0.11601591 -0.20523046 -0.35104346  0.07826928  0.40688387  0.10719754
 -0.19483532  0.04393357 -0.02593764 -0.06607954  0.10840215  0.12747528
  0.00732137  0.05395917 -0.11801793  0.0302058   0.20749931 -0.02591936
 -0.01121529  0.176229    0.00179892  0.01958722  0.08620053  0.07343166
 -0.08989455  0.03104217 -0.1376359  -0.01188978  0.06480301 -0.08339857
 -0.00784635  0.06807292 -0.16390765  0.12916653  0.04528004  0.0475948
 -0.011909   -0.11617859 -0.04176231 -0.01863551  0.17421341 -0.3111597
  0.17960785  0.15951912 -0.03747217  0.16684638  0.10679854  0.02013925
  0.01974597 -0.06371979 -0.20254123 -0.05264442  0.0708885  -0.07323285
  0.11448766  0.02271128]