[-2.49097086e-02  6.51625246e-02  9.74669829e-02 -4.34935652e-02
 -1.17082134e-01 -6.23045079e-02 -5.04861362e-02 -1.49456814e-01
  2.01316983e-01 -1.09346032e-01  1.96719840e-01 -6.36579022e-02
 -2.48313382e-01 -8.19541663e-02 -3.53998207e-02  2.46584877e-01
 -2.15075895e-01 -1.84753567e-01 -8.63872319e-02 -4.68532043e-03
  2.19945759e-02 -3.63133638e-03  1.29937874e-02  2.35375669e-02
 -6.88657612e-02 -3.83983642e-01 -6.41110018e-02 -9.72084254e-02
  2.63294182e-03 -2.25177016e-02 -9.93890986e-02  3.88516188e-02
 -1.65375814e-01 -6.97479770e-02  6.01563454e-02  5.85491545e-02
 -3.93522829e-02 -1.09694853e-01  1.80183053e-01 -4.21540104e-02
 -3.07399690e-01  4.03789915e-02  2.75147855e-02  1.84798136e-01
  2.35986874e-01  4.34978120e-02 -3.97646194e-03 -1.98614880e-01
  1.82212651e-01 -1.85464188e-01 -8.17322731e-03  1.57116279e-01
  6.45581707e-02  6.71581775e-02  8.76995176e-03 -1.98175177e-01
  5.95726399e-03  1.12489596e-01 -1.63560376e-01 -9.77359042e-02
  6.95172176e-02 -8.42578635e-02 -1.07742688e-02 -1.28685683e-01
  2.34264523e-01  5.65951578e-02 -1.26905844e-01 -1.44049913e-01
  1.33373052e-01 -1.31834641e-01 -1.82176139e-02  2.28094794e-02
 -1.81051970e-01 -1.76330015e-01 -2.76178896e-01 -3.15468982e-02
  4.21913058e-01  8.23090672e-02 -2.32214496e-01  5.43824444e-03
 -8.63217637e-02  4.25437205e-02  1.20265104e-01  1.48888633e-01
  2.14903969e-02  1.28044235e-02 -9.48372409e-02 -4.63184826e-02
  1.86517209e-01 -1.44349799e-01  2.81151142e-02  2.00300649e-01
 -5.60870767e-03  1.10772133e-01 -9.21307411e-03 -5.25668403e-03
 -1.02945745e-01  8.77738595e-02 -1.72027603e-01 -2.13170890e-02
  2.04863594e-04  5.92425577e-02  3.86780575e-02  8.31890628e-02
 -1.14227168e-01  1.07933439e-01  4.95066009e-02  5.04723564e-02
  3.57739739e-02 -2.58483123e-02 -2.83299591e-02 -1.35062933e-01
  1.33285835e-01 -2.09616974e-01  2.08849341e-01  1.78406149e-01
  3.87319028e-02  1.50122851e-01  5.09072058e-02  9.71214101e-02
 -6.88500553e-02 -3.17888632e-02 -2.29326084e-01  3.15667801e-02
  1.28952965e-01  1.21006893e-03  6.70173094e-02 -4.87842551e-03]