[-0.06684672  0.079629    0.08184416 -0.04625505 -0.11942762 -0.05568937
 -0.02163265 -0.13553391  0.14837886 -0.06552341  0.22617035 -0.05781195
 -0.22101192 -0.11294114  0.00589371  0.21875544 -0.17549692 -0.1555448
 -0.0726618   0.00263536  0.05174402  0.05660433  0.02593823  0.02748222
 -0.11282568 -0.39480594 -0.05707007 -0.09144416  0.0067388  -0.03510651
 -0.07620092  0.06533551 -0.15852173 -0.06043598  0.08033765  0.09169345
 -0.04395742 -0.08380079  0.15869229 -0.0389231  -0.29590687  0.04127093
  0.07732979  0.22074854  0.20419824  0.00416593  0.0348325  -0.14234272
  0.13110694 -0.13822202 -0.00174146  0.10554577  0.09334563  0.04159699
  0.02246587 -0.16122746 -0.0217782   0.12128788 -0.1517244  -0.04321986
  0.07851211 -0.11409793 -0.0174978  -0.11513114  0.21402195  0.0129054
 -0.12947799 -0.14446262  0.07815113 -0.13767703 -0.03665913  0.04679167
 -0.17552024 -0.17023075 -0.28538057 -0.01301449  0.35598415  0.03853279
 -0.22664773  0.02518158 -0.027439    0.03532023  0.11625189  0.16864322
  0.03993807  0.03003342 -0.10429911 -0.0166782   0.22181542 -0.13905011
  0.04390041  0.2223352  -0.00735746  0.08711326 -0.00850648 -0.01176264
 -0.08261713  0.06706323 -0.11217662  0.01222301 -0.01293831 -0.00598385
  0.02173398  0.07279261 -0.13595144  0.09581397  0.04138597  0.06238988
  0.04098605 -0.03685419 -0.03995655 -0.14252825  0.11645535 -0.21254981
  0.19168724  0.1897952   0.03373492  0.13414882  0.05501585  0.06988383
 -0.0331898   0.00483195 -0.20484935  0.04456628  0.13425469 -0.04511997
  0.05447335 -0.01535327]