[-0.06751096  0.04993682  0.10731828 -0.02503016 -0.15219048 -0.05080357
 -0.08054014 -0.10715067  0.16462331 -0.11375165  0.17309293 -0.05243897
 -0.20348799 -0.06438679 -0.03611489  0.22116347 -0.18991612 -0.19125953
 -0.05083435 -0.00095579  0.01788718  0.00503857 -0.00600538 -0.00072028
 -0.11630308 -0.4043521  -0.0814799  -0.08656909 -0.03830292 -0.05803601
 -0.08980997  0.02490125 -0.17234702 -0.07237438  0.04902088  0.07871487
 -0.00360109 -0.14205378  0.16116476 -0.02131772 -0.28253004  0.04848629
  0.03005164  0.2067457   0.19829951  0.02500322  0.01956121 -0.11844468
  0.19812986 -0.14819507 -0.01033507  0.12810558  0.08329587  0.0465478
  0.01443413 -0.17092556  0.02970854  0.12224849 -0.13251577 -0.04663585
  0.06556071 -0.10015545  0.03046598 -0.11506376  0.23366688  0.02415287
 -0.10163935 -0.13464765  0.13782342 -0.08589809 -0.02064929 -0.01745365
 -0.20405398 -0.18448171 -0.30153796  0.01045612  0.37501857  0.08520012
 -0.20873848  0.02921765 -0.04682232  0.06357455  0.07177122  0.17182532
  0.02276405  0.03763246 -0.09653374 -0.02093337  0.22861414 -0.08868445
 -0.00419687  0.18317187 -0.03298163  0.0937318   0.00860854 -0.01778471
 -0.09570497  0.07100558 -0.10581179  0.04293723  0.02724408 -0.01102471
  0.01855012  0.11707059 -0.12782939  0.07218091 -0.0040817   0.06468307
 -0.00228514  0.00104614 -0.06059685 -0.10158763  0.12248955 -0.21268716
  0.21276549  0.20128618  0.04023907  0.15772419  0.06639025  0.06619788
 -0.04775977  0.01394709 -0.2176851  -0.01002753  0.09974387 -0.00635958
  0.07636765  0.04554187]