[-0.04274687  0.0677077   0.08238246 -0.05100438 -0.12190836 -0.02469803
 -0.04219247 -0.11420604  0.15406476 -0.08494922  0.22861207 -0.0799451
 -0.24492458 -0.06695925 -0.04166634  0.23771711 -0.2044194  -0.1775361
 -0.05528622  0.03174232  0.04949875  0.06251684  0.02204665  0.01412113
 -0.11544003 -0.38849965 -0.08365532 -0.06299809 -0.00260003 -0.03789194
 -0.10175315  0.05571583 -0.1532729  -0.0489735   0.08649113  0.07480069
 -0.02887878 -0.11517214  0.13654736 -0.02789981 -0.32000968  0.03528928
  0.07702625  0.21901141  0.19503641  0.02876469  0.00314135 -0.13451479
  0.0960113  -0.16172159  0.00910177  0.12670302  0.07076172  0.05271709
 -0.02215204 -0.16754662 -0.02497347  0.15464561 -0.11472424 -0.05483649
  0.08794987 -0.09877569  0.02897129 -0.09977385  0.20505288  0.03266295
 -0.13635987 -0.16624324  0.09374457 -0.12187099 -0.04413393  0.02152067
 -0.18670715 -0.17697866 -0.26929143 -0.02823064  0.35830161  0.0287727
 -0.18904494  0.03570333 -0.02685387  0.06314611  0.10631945  0.17237858
  0.03705074  0.03016439 -0.12038925 -0.02150008  0.23613659 -0.14345317
  0.02716167  0.21948038 -0.03558239  0.086884    0.01274135  0.02461918
 -0.06208048  0.09112972 -0.11719819  0.03342344 -0.00671009  0.00968478
  0.00282113  0.10876455 -0.10695698  0.08147226  0.03693739  0.07622527
  0.05709493 -0.0241871  -0.03072131 -0.14804873  0.11730547 -0.21075812
  0.18563686  0.19359487  0.04820879  0.12751584  0.07933081  0.07737145
 -0.01631817 -0.01293355 -0.24047816  0.03132897  0.12539892 -0.03853613
  0.04764578  0.00263449]