[-0.13561708  0.13559298  0.07176834 -0.00319464 -0.08301616  0.03198716
 -0.00106324 -0.08100396  0.12031788 -0.02152669  0.29171774  0.04552658
 -0.20979786 -0.16686241  0.03655108  0.12744974 -0.11484573 -0.13898432
 -0.14658535 -0.05962995  0.03408137 -0.02661233  0.00242771 -0.00113377
 -0.21782218 -0.2936236  -0.07736307 -0.07283583  0.04942174 -0.15717064
 -0.07038932 -0.02105935 -0.18620598 -0.13712087  0.00540245  0.13819969
 -0.05364967 -0.0621793   0.1687011  -0.05472314 -0.1867992   0.02916693
  0.06642561  0.27770621  0.27612266  0.00951957  0.03485741 -0.03535001
  0.1519568  -0.23086207  0.1258235   0.07155535  0.16937487  0.09555089
  0.09231466 -0.14821886 -0.03829802  0.19279997 -0.1641807  -0.00309146
 -0.01562671 -0.10642667 -0.04161521 -0.09406836  0.1529332   0.09617346
 -0.10911857 -0.1212941   0.14669566 -0.1237666  -0.02603257  0.08278582
 -0.10710406 -0.16919553 -0.37628922  0.06917791  0.39955711  0.11466102
 -0.24951243  0.00641509 -0.01257342 -0.02512626  0.05687862  0.09281623
 -0.01875812  0.03523314 -0.10511822  0.03094454  0.19728982 -0.01177801
 -0.02183522  0.18701394  0.02650816  0.01324945  0.09442288  0.08761116
 -0.06572738 -0.01582305 -0.10288395  0.01490232  0.02861243 -0.09512501
 -0.0131421   0.06147754 -0.14096422  0.17898099  0.04227492  0.0712081
 -0.02877765 -0.09764773 -0.04207177 -0.01019239  0.16342573 -0.31818086
  0.15968738  0.18771406 -0.08825909  0.15150784  0.06431294  0.0610072
 -0.00684412  0.00319849 -0.16837001 -0.04753232  0.04658481 -0.08868351
  0.10051262  0.05974214]