[-0.01378984  0.0910714   0.09496211 -0.02406205 -0.12913524 -0.04288237
 -0.04523344 -0.13640912  0.15367182 -0.07869804  0.22254322 -0.06449436
 -0.25250921 -0.06035814 -0.0455534   0.20766342 -0.17127067 -0.16721316
 -0.07504206  0.01916499  0.03836255  0.04223963  0.01903671 -0.01109848
 -0.08802509 -0.38022497 -0.05785405 -0.05824635  0.00788094 -0.01103166
 -0.11755969  0.04078306 -0.16393857 -0.05099259  0.07470232  0.05234376
 -0.04150123 -0.10486948  0.14096799 -0.03674135 -0.30622929  0.05409047
  0.03332616  0.17628786  0.225492    0.02212319  0.01300673 -0.2117586
  0.12349939 -0.15635346  0.00911364  0.15638217  0.04611644  0.05860531
 -0.00885208 -0.16804229 -0.03846663  0.1478492  -0.11798352 -0.07963055
  0.07460999 -0.05488792 -0.00508894 -0.154725    0.21266018  0.03069139
 -0.13702381 -0.15823241  0.09912046 -0.13754097 -0.04897917  0.0360663
 -0.15920809 -0.17632458 -0.25573084 -0.01102383  0.37587303  0.04902412
 -0.21890262  0.02726069 -0.07727543  0.03544408  0.10803672  0.1313718
  0.02368944  0.02075821 -0.10054244 -0.05136568  0.24562769 -0.13958338
  0.03208366  0.22680394 -0.0313222   0.0974623   0.01053715  0.02234833
 -0.08489694  0.08140218 -0.13813554 -0.01574538  0.00497059 -0.01485981
  0.00045466  0.09553673 -0.13894591  0.1030213   0.0313228   0.08336119
  0.08530169 -0.06172154 -0.01989082 -0.12588528  0.14417687 -0.22425191
  0.2148629   0.15818158  0.06470837  0.13448678  0.07756454  0.08019129
 -0.04854426 -0.03087088 -0.23510604  0.0270141   0.12834112 -0.03472388
  0.04341794 -0.00308711]