[-7.76262432e-02  1.11403406e-01  7.77940080e-02 -1.24634365e-02
 -4.62121889e-02  1.43993022e-02  5.90685122e-02 -9.62841287e-02
  1.44558594e-01  5.90404775e-03  2.42104217e-01 -7.83393532e-03
 -2.58261502e-01 -1.37856290e-01  6.32681474e-02  9.74052250e-02
 -1.59105033e-01 -1.08173333e-01 -1.43368587e-01 -9.35329944e-02
 -1.44862803e-02  2.40658596e-03 -2.18025548e-03 -6.07123086e-03
 -1.87070936e-01 -3.26694161e-01 -8.69872943e-02 -6.77763373e-02
  2.49847993e-02 -1.21525168e-01 -2.80083697e-02  1.09266259e-01
 -1.81829318e-01 -1.24687932e-01  4.59289327e-02  5.70355356e-02
 -6.60006031e-02 -3.82025614e-02  1.41120598e-01 -4.46159169e-02
 -1.41191438e-01 -9.02698282e-03  1.04346775e-01  2.51848161e-01
  2.37327248e-01  3.26861441e-02  1.31552089e-02 -8.71539339e-02
  1.40779719e-01 -2.02159837e-01  9.15355235e-02  1.18943587e-01
  1.29170343e-01  8.76348242e-02  8.95302817e-02 -1.57695174e-01
 -2.12311950e-02  1.19717658e-01 -2.24648476e-01  6.40076250e-02
  1.79315638e-02 -1.77349254e-01 -9.25206318e-02 -6.28139600e-02
  8.97616670e-02  8.32601935e-02 -8.41845050e-02 -1.63146943e-01
  1.58289969e-01 -1.55174240e-01 -2.18682718e-02  8.94426703e-02
 -9.46949944e-02 -1.95441902e-01 -3.60396117e-01  3.43374461e-02
  3.65291566e-01  8.92639086e-02 -2.09586784e-01  1.46156503e-02
 -1.11963218e-02 -6.14968650e-02  7.79159665e-02  1.24348305e-01
 -6.46306649e-02 -2.01776680e-02 -8.51174816e-02  6.27806410e-02
  1.75668150e-01 -7.01331720e-03 -4.92016077e-02  2.00345188e-01
 -9.06589720e-03 -3.04189714e-04  6.65573850e-02  7.08233938e-02
 -8.24093148e-02  1.80307485e-03 -1.33685187e-01 -5.16016502e-03
  5.28544970e-02 -1.01932637e-01 -2.58826371e-02  6.82616234e-02
 -1.38359621e-01  1.76568940e-01  4.93878461e-02  2.58885622e-02
 -1.67487171e-02 -1.47975281e-01 -4.98632044e-02 -3.92367691e-03
  1.68603286e-01 -3.26936066e-01  1.63735285e-01  1.66634604e-01
 -5.03636561e-02  1.48950145e-01  1.27443322e-03  5.54971099e-02
  8.32481124e-03 -4.33604233e-02 -1.66810617e-01 -3.86896431e-02
  6.56206831e-02 -6.13348149e-02  4.99127693e-02  1.31141366e-02]