[-5.58430627e-02  6.40585348e-02  2.87136585e-02 -3.08561511e-02
 -9.00594294e-02 -2.75477506e-02  1.32966358e-02 -1.74533889e-01
  2.09651515e-01 -1.47705123e-01  1.95397362e-01 -7.57080242e-02
 -2.41845801e-01 -1.02666579e-01 -3.37511115e-02  2.52892703e-01
 -1.92185551e-01 -1.84223413e-01 -7.61062652e-02 -3.81526910e-02
  4.01078463e-02  3.70259071e-03  2.75497150e-04  3.36204842e-02
 -7.48282820e-02 -3.57664764e-01 -8.93383250e-02 -5.63142896e-02
  1.35122333e-02 -3.70267034e-02 -8.55567679e-02  1.14287913e-01
 -1.47258922e-01 -4.98068705e-02  7.42283314e-02  8.95718485e-02
 -4.17975113e-02 -1.01524524e-01  1.72872350e-01 -1.07879220e-02
 -2.60723114e-01  3.20422580e-03  4.02014516e-02  2.13792428e-01
  1.84548572e-01  1.32965986e-02 -2.18177121e-02 -1.54658064e-01
  1.69836625e-01 -1.56853542e-01 -3.69990952e-02  1.35555848e-01
  9.93401110e-02  5.92612103e-02 -3.12773809e-02 -1.81841284e-01
 -2.15492304e-02  1.14182904e-01 -1.55681774e-01 -9.24001560e-02
  3.24354880e-02 -1.48378998e-01 -5.80058768e-02 -9.80401859e-02
  1.83891460e-01  8.81192535e-02 -1.09896123e-01 -1.65517837e-01
  1.57687843e-01 -1.42097592e-01 -4.18744842e-03  1.64619945e-02
 -1.62734076e-01 -1.78238913e-01 -2.11717486e-01 -4.19045463e-02
  3.77337098e-01  5.03030308e-02 -1.82644159e-01  1.21683944e-02
 -5.49064092e-02  2.77952198e-02  9.77236852e-02  1.68995455e-01
  3.79849900e-03  1.37147922e-02 -8.50106105e-02 -3.99973467e-02
  1.94827184e-01 -1.42547369e-01  1.19071454e-02  2.20599920e-01
 -1.85279753e-02  9.69580114e-02 -2.99603282e-03 -3.38589549e-02
 -7.80422837e-02  8.04697350e-02 -1.31514400e-01 -5.03078178e-02
 -4.38665971e-03 -5.90285426e-03  2.06847861e-02  7.14006349e-02
 -1.27884462e-01  1.20377161e-01  4.42765281e-02  7.96188787e-02
  5.61720543e-02 -4.45798934e-02 -4.21369039e-02 -1.25247598e-01
  1.20599918e-01 -2.04183057e-01  1.56913981e-01  1.85965016e-01
  9.48059745e-03  1.63318351e-01  6.10935278e-02  1.09686390e-01
 -1.45974224e-02 -4.32423614e-02 -2.25769833e-01  2.87473258e-02
  1.47810921e-01 -6.37665624e-03  9.22524184e-03 -4.04082052e-02]