[-0.06049968  0.06009201  0.0970131  -0.0366204  -0.09286769 -0.06415865
  0.0124905  -0.13809328  0.20254421 -0.12868194  0.20578419 -0.06165218
 -0.24091652 -0.08526721 -0.02021842  0.23079376 -0.16982834 -0.15309094
 -0.07241791 -0.03796943  0.04426096  0.07142799  0.00114067  0.01188791
 -0.07542791 -0.34861836 -0.0730641  -0.05672356  0.00225633 -0.02173229
 -0.05935792  0.11087426 -0.14227043 -0.06082918  0.06743052  0.10855277
 -0.05389941 -0.10883173  0.16706929 -0.06341912 -0.28553781  0.00482996
  0.06116289  0.20549026  0.18252251 -0.01757292 -0.03163382 -0.13726681
  0.13877665 -0.14291839 -0.04838775  0.1505363   0.04884164  0.09711172
  0.00442018 -0.16659728  0.01678494  0.11918926 -0.13781735 -0.12880768
  0.05209755 -0.13907324 -0.00532686 -0.09872021  0.16615097  0.01803759
 -0.10115137 -0.15392847  0.10641612 -0.15082295 -0.03871344  0.03081243
 -0.18381065 -0.16272785 -0.23636463 -0.0263484   0.35534975  0.06046605
 -0.16923511  0.071052   -0.02555701  0.01997425  0.12288668  0.16877745
  0.0491368   0.03563654 -0.07634577 -0.01363314  0.17649578 -0.12832756
  0.02376162  0.20739713 -0.01143836  0.09683369  0.00470247 -0.03265844
 -0.05095929  0.10176106 -0.13067737  0.01623026  0.01863403  0.0009217
  0.02306966  0.07237875 -0.13086292  0.13853417  0.06437465  0.09291034
  0.057609   -0.03550106 -0.02455615 -0.09461779  0.12462709 -0.20431876
  0.20333134  0.17263043 -0.01142167  0.16561511  0.05608122  0.10094203
 -0.03622831 -0.03429266 -0.23222688  0.02006253  0.13748203 -0.01419872
  0.04537074 -0.00917654]