[-7.60358945e-02  5.27581163e-02  1.00972213e-01 -3.87450308e-02
 -1.18602276e-01 -6.11256920e-02 -2.53121592e-02 -1.21284150e-01
  1.39446497e-01 -7.51446187e-02  2.17523053e-01 -4.13548611e-02
 -2.21595332e-01 -9.85425636e-02  2.54056584e-02  2.09453449e-01
 -1.51767358e-01 -1.40541017e-01 -8.65539014e-02 -6.14303118e-03
  2.41728313e-02  5.04735224e-02  1.80579387e-02  1.94132607e-02
 -9.58509967e-02 -3.98427218e-01 -4.91555333e-02 -7.95981139e-02
 -1.61076467e-02 -2.35932115e-02 -8.82474333e-02  9.27448496e-02
 -1.56893849e-01 -6.10993989e-02  6.74622357e-02  1.20801330e-01
 -5.20833544e-02 -8.16957578e-02  1.51447177e-01 -3.32262293e-02
 -2.83561558e-01  1.83325317e-02  5.29769845e-02  2.12914303e-01
  2.32867673e-01  1.51737931e-03  2.32268889e-02 -1.21596061e-01
  1.28923729e-01 -1.58819824e-01 -1.26088113e-02  1.06575467e-01
  7.84288049e-02  3.93743478e-02  4.12644483e-02 -1.71629936e-01
 -1.38462503e-02  9.82546508e-02 -1.51311144e-01 -7.36982152e-02
  4.78023961e-02 -1.15120843e-01 -1.21765677e-02 -1.30045563e-01
  2.13744506e-01  2.30370015e-02 -1.20820001e-01 -1.27236173e-01
  8.63295570e-02 -1.33807167e-01 -2.16683894e-02  5.13976999e-02
 -1.94290444e-01 -1.86690018e-01 -2.90914655e-01  4.82747285e-03
  3.58442754e-01  6.28582612e-02 -2.23503470e-01  1.15388064e-02
 -1.66810509e-02  1.44238537e-02  1.29472688e-01  1.54465243e-01
  5.04419990e-02  2.17394885e-02 -9.92959812e-02 -8.82534776e-03
  2.06145242e-01 -1.27291009e-01  2.37059910e-02  2.00629354e-01
 -1.94632020e-02  8.24472010e-02 -6.14291197e-03 -1.12212542e-02
 -7.07567781e-02  7.31865391e-02 -1.42817900e-01  7.10072368e-03
 -1.40084143e-04 -8.86154454e-03  2.45673340e-02  8.02971348e-02
 -1.16484702e-01  8.13275501e-02  3.39815021e-02  5.81964739e-02
  3.11600715e-02 -5.28281890e-02 -6.50502220e-02 -1.31383762e-01
  1.27100870e-01 -2.01600656e-01  1.80425644e-01  1.91948935e-01
  1.00675477e-02  1.36774525e-01  5.08914106e-02  7.08329231e-02
 -4.49314974e-02  3.93533660e-03 -2.07011893e-01  4.57183979e-02
  1.32936865e-01 -2.08775681e-02  5.74826598e-02 -1.15318727e-02]