[-0.09009895  0.07750108  0.08297237 -0.06802157 -0.13449818 -0.00219373
 -0.01758708 -0.1011827   0.20465492 -0.10773646  0.22599816 -0.07423311
 -0.2315874  -0.08338068 -0.0036518   0.24836819 -0.17425233 -0.14321323
 -0.07289147 -0.00852889  0.03344226  0.04424664  0.00141734  0.04634685
 -0.11685669 -0.42265758 -0.07869405 -0.08773681 -0.01318744 -0.05626524
 -0.10287738  0.07224452 -0.13202991 -0.06577244  0.06431983  0.101378
 -0.0545667  -0.11934692  0.13971083 -0.03555365 -0.28842935  0.02618886
  0.06895769  0.21615684  0.19812934 -0.01103189  0.00642971 -0.11623277
  0.15111028 -0.14508881 -0.02699533  0.12107974  0.06623361  0.05423725
  0.04341362 -0.1473929  -0.00370707  0.14021061 -0.16009067 -0.07889245
  0.05944704 -0.11791819 -0.00369526 -0.11975584  0.16966693  0.04298059
 -0.11243618 -0.15673631  0.10190313 -0.11851015 -0.00407607  0.00400915
 -0.19782089 -0.2107449  -0.26353586  0.00925719  0.35232839  0.09974296
 -0.18608834  0.0499734  -0.01182837  0.0162957   0.10113364  0.16478932
  0.0424174   0.01762718 -0.08409163  0.00203323  0.18127729 -0.11850563
  0.05878996  0.22247401 -0.03087884  0.07789537 -0.00347777 -0.01401725
 -0.10937983  0.09363779 -0.12535262  0.0328975  -0.01467258 -0.01737678
  0.02932082  0.05896473 -0.14223717  0.1039336   0.0426506   0.06210516
  0.01626203 -0.02928597 -0.06414761 -0.10202092  0.1349102  -0.20713921
  0.17002785  0.1916928   0.03269419  0.16363023  0.08677951  0.06227968
 -0.01383497 -0.01364359 -0.21697707  0.03780436  0.13484493 -0.04406908
  0.03886984 -0.00573341]