[-0.14302501  0.15161526  0.08177358  0.00467044 -0.09755332  0.0349388
 -0.0055962  -0.09201378  0.11839622 -0.02945693  0.28523588  0.04158893
 -0.21395646 -0.14596722  0.02638998  0.13462105 -0.14622392 -0.12445476
 -0.15574715 -0.06318282  0.02062641 -0.01495357  0.00892979 -0.00137888
 -0.20644131 -0.29989403 -0.0722708  -0.07986613  0.07494768 -0.15427391
 -0.08232503 -0.04973933 -0.17522661 -0.13062607  0.00783113  0.1203806
 -0.06107463 -0.06182965  0.17091651 -0.04823507 -0.19275087  0.02929485
  0.05785972  0.27163267  0.29248264  0.0191884   0.03241255 -0.06416257
  0.16319467 -0.2161316   0.11746695  0.07796384  0.15320858  0.09819932
  0.08230358 -0.15927547 -0.04746931  0.19352786 -0.16882311 -0.00635824
  0.00638374 -0.10829456 -0.03491306 -0.08703146  0.14188032  0.08700869
 -0.11145718 -0.14327577  0.14022875 -0.14519495 -0.02214336  0.07978839
 -0.09205599 -0.1631082  -0.37750453  0.05252572  0.40068752  0.12145211
 -0.23209539 -0.01243622 -0.02644436 -0.04148784  0.05756367  0.10296807
 -0.03031466  0.02599111 -0.10083564  0.02234389  0.18325332 -0.01206685
 -0.00923774  0.18957613  0.02355161  0.00685241  0.08660884  0.09518045
 -0.10892653 -0.00851581 -0.09171518 -0.00184204  0.01735815 -0.09453079
  0.00638468  0.06025438 -0.14801838  0.20069967  0.02855858  0.07212444
 -0.02806705 -0.11358482 -0.03923746 -0.00128967  0.18096477 -0.31035936
  0.16100913  0.19551824 -0.07281107  0.15667659  0.07307189  0.05745969
 -0.02254242  0.01356951 -0.17360145 -0.04183466  0.03275996 -0.10370848
  0.11080524  0.05231076]