[-0.04900902  0.07406961  0.09726194 -0.0382368  -0.14964308 -0.06058466
 -0.04367403 -0.13241801  0.19283314 -0.10100865  0.20162451 -0.05323741
 -0.22373021 -0.08112629 -0.03773404  0.22491696 -0.18502478 -0.1734501
 -0.07244582  0.01171828  0.03148863 -0.01231135  0.01279482 -0.00649814
 -0.08424949 -0.38867822 -0.07558479 -0.0937665  -0.00436171  0.00238016
 -0.07094876  0.06109623 -0.15431939 -0.08117002  0.04678168  0.06106839
 -0.03274544 -0.09216981  0.15927784 -0.06043242 -0.30210435  0.02443976
  0.03686195  0.18165849  0.19365071  0.03411002  0.02838169 -0.18056516
  0.1660599  -0.15465926  0.00763037  0.14716206  0.05906462  0.06605691
  0.02520142 -0.15436657  0.01530795  0.15506554 -0.14351153 -0.07000756
  0.07984219 -0.0548636  -0.01837899 -0.14955376  0.23178199  0.05746063
 -0.11011141 -0.13988256  0.13909683 -0.10579427 -0.0434523   0.01663812
 -0.1899672  -0.17526458 -0.26702434 -0.02450213  0.39121899  0.08043014
 -0.20165244  0.01060912 -0.08098151  0.03627937  0.1047757   0.13154528
  0.02484287  0.01254428 -0.08213269 -0.04872638  0.20933111 -0.13258943
  0.04074427  0.21038468 -0.00360281  0.09003349 -0.02732403 -0.01713316
 -0.07967252  0.09486613 -0.15194316 -0.00961032  0.02384917  0.01784004
  0.02039496  0.07472569 -0.13639076  0.0896439   0.04430097  0.09575485
  0.05345532 -0.02952902 -0.0322028  -0.12218022  0.14502893 -0.18801019
  0.21681467  0.17012784  0.03760672  0.13471644  0.07327297  0.08452872
 -0.05049833 -0.04703264 -0.23399448  0.03258361  0.13673663 -0.0248248
  0.03455319  0.01828567]