[-8.39545503e-02  5.72111197e-02  1.23771861e-01 -1.98245682e-02
 -1.40972957e-01 -3.87541391e-02 -8.55107605e-02 -1.06925368e-01
  1.61281750e-01 -1.06970929e-01  1.82850182e-01 -4.88810316e-02
 -2.08409056e-01 -6.35104254e-02 -3.54982093e-02  2.22070694e-01
 -1.87251076e-01 -1.87853813e-01 -3.91426161e-02  6.07046904e-03
  1.34861711e-02  5.16807381e-03 -1.56677177e-03 -9.81181581e-03
 -1.07574321e-01 -4.15182650e-01 -8.37321058e-02 -9.37976763e-02
 -4.97147888e-02 -4.92493026e-02 -8.88950601e-02  2.11852733e-02
 -1.62822515e-01 -6.82808235e-02  6.18742369e-02  8.43357444e-02
 -3.59958527e-03 -1.37881145e-01  1.61436945e-01 -2.70505846e-02
 -2.83994049e-01  3.84795777e-02  3.94691229e-02  2.05160215e-01
  1.93068609e-01  3.67471091e-02  1.59192290e-02 -1.24907218e-01
  1.99037954e-01 -1.43947825e-01 -1.21851719e-03  1.30171835e-01
  9.59672853e-02  4.35292646e-02  2.22523268e-02 -1.73136681e-01
  2.88975090e-02  1.17759287e-01 -1.28150582e-01 -5.64739890e-02
  6.38884231e-02 -9.27908346e-02  3.66820991e-02 -1.14423335e-01
  2.31704623e-01  3.14920992e-02 -9.88109261e-02 -1.39745608e-01
  1.39023557e-01 -7.74019957e-02 -1.83184128e-02 -7.71760941e-03
 -2.10517153e-01 -1.97431847e-01 -2.86064297e-01  1.31247519e-02
  3.72592807e-01  9.39756632e-02 -2.05487251e-01  2.63770279e-02
 -4.94150631e-02  6.01987205e-02  7.00403079e-02  1.78615049e-01
  2.59821098e-02  3.85821238e-02 -8.95554051e-02 -3.66839655e-02
  2.28503853e-01 -9.34542716e-02 -3.24586709e-03  1.80882737e-01
 -3.76534052e-02  9.66989100e-02  2.01327517e-03 -3.35734710e-02
 -9.09252241e-02  7.96002969e-02 -1.18294470e-01  2.31414363e-02
  1.17834760e-02  8.35202169e-03  2.56021209e-02  1.15764879e-01
 -1.38932645e-01  5.61572574e-02 -2.62864935e-03  6.31472021e-02
  4.29717032e-03  1.38424418e-03 -5.33834994e-02 -1.08121708e-01
  1.21034816e-01 -2.16172576e-01  2.05469251e-01  1.99058101e-01
  4.01704274e-02  1.60019457e-01  7.53822103e-02  6.80520386e-02
 -3.37634236e-02  6.38395501e-03 -2.19692752e-01 -2.58384878e-03
  1.08015493e-01 -2.97591090e-04  6.84781298e-02  3.63734290e-02]