[-9.59594175e-02  1.21663295e-01  5.03428541e-02 -2.11223066e-02
 -1.33922547e-01 -1.92653947e-02 -1.70903895e-02 -1.35635361e-01
  1.51305422e-01 -7.38982186e-02  2.59796351e-01 -8.33981708e-02
 -2.75562584e-01 -6.20220415e-02 -2.33404506e-02  2.25865200e-01
 -1.84535787e-01 -1.53540581e-01 -5.64411767e-02 -4.94578201e-03
  7.64999837e-02  3.25919054e-02 -1.96853559e-02  3.71781401e-02
 -1.01142421e-01 -3.51115048e-01 -9.49311629e-02 -7.98839033e-02
  2.52253991e-02 -3.10085099e-02 -8.55027586e-02  6.17916360e-02
 -1.37143418e-01 -1.07057035e-01  9.26593021e-02  6.48818538e-02
 -2.48924214e-02 -9.89294648e-02  1.75051197e-01 -5.31833954e-02
 -2.65324056e-01 -6.36464590e-03  1.18845418e-01  2.33135730e-01
  1.31200120e-01  1.29961525e-03  2.14871541e-02 -1.43194422e-01
  9.39454660e-02 -1.46841109e-01 -5.00028022e-02  1.41883031e-01
  7.49365017e-02  6.49174675e-02  4.10647877e-02 -1.46016523e-01
  1.23547195e-02  1.20013654e-01 -1.44623682e-01 -7.40926191e-02
  6.74808174e-02 -1.13762997e-01  3.50401941e-04 -1.30129099e-01
  1.76370904e-01 -5.28360484e-03 -8.03561807e-02 -1.47130489e-01
  1.01889685e-01 -1.10458791e-01 -7.07731694e-02  6.92316815e-02
 -1.67238966e-01 -1.74749494e-01 -3.25036585e-01 -4.45061103e-02
  4.25586224e-01  7.55223855e-02 -1.56108305e-01  7.55506456e-02
 -7.54933571e-03 -3.70944589e-02  1.18689612e-01  1.31415948e-01
  2.31771432e-02  4.41059880e-02 -1.05387211e-01  3.32015231e-02
  2.24510774e-01 -1.23739615e-01  4.97736335e-02  1.67621508e-01
  1.27899949e-03  7.47125670e-02  3.12431883e-02  4.80993092e-02
 -6.41483143e-02  1.41745526e-02 -1.33954406e-01  3.49268992e-03
 -4.29732073e-03 -1.52944094e-02  1.14913629e-02  8.11707377e-02
 -1.58213317e-01  3.51116620e-02  6.18415885e-02  3.88653134e-03
 -3.11612487e-02 -4.23101708e-02 -4.22655866e-02 -6.44241422e-02
  1.30398810e-01 -2.28139117e-01  1.36254087e-01  1.87720254e-01
 -1.63092222e-02  1.08067632e-01  5.26339300e-02  2.91012730e-02
 -6.33466020e-02 -6.02825843e-02 -2.00908333e-01 -3.49826291e-02
  1.24170542e-01 -3.06367166e-02  6.17770255e-02 -3.42640728e-02]