[-0.05717696  0.12232528  0.0228377  -0.05800549 -0.11025932 -0.05496184
 -0.02244269 -0.14240186  0.15598725 -0.09282584  0.23030448 -0.05471241
 -0.26881376 -0.08605278 -0.08117717  0.22038384 -0.16302092 -0.16329454
 -0.04310901  0.01475239  0.10713351  0.05561251  0.00700042  0.00654532
 -0.07905828 -0.32067338 -0.08684211 -0.0434975  -0.02491862 -0.05846439
 -0.06071509  0.08053578 -0.1470001  -0.04433404  0.09275996  0.08115898
 -0.03371574 -0.08520743  0.19679694 -0.02847006 -0.28061399 -0.00229543
  0.11692448  0.23224925  0.15817387 -0.03765649  0.00860686 -0.18867022
  0.1134208  -0.11146964 -0.04009916  0.15042123  0.04803211  0.07900706
  0.01853212 -0.14557932  0.04450511  0.10737725 -0.12231869 -0.07656872
  0.09124868 -0.14399673 -0.03502959 -0.09212714  0.16797875 -0.037908
 -0.08321947 -0.20875584  0.11607879 -0.13743447 -0.08106297  0.10654622
 -0.17328785 -0.18138018 -0.2942878  -0.03889621  0.38190812  0.09464321
 -0.14403199  0.10938878 -0.01310719 -0.00674368  0.14951509  0.1428178
  0.02412476  0.08157734 -0.13897066  0.03584155  0.24648431 -0.13219129
 -0.01163945  0.18496452  0.00586784  0.11183029  0.02968824  0.00770117
 -0.03548999  0.05418119 -0.1620408  -0.00249854  0.02179867 -0.03898009
 -0.00486683  0.10040387 -0.1156575   0.03504771  0.05279956  0.03764094
 -0.02954567 -0.04003246 -0.0681622  -0.08018097  0.10315388 -0.21803644
  0.19573554  0.16324885  0.05259791  0.08918929  0.10483339  0.05271834
 -0.03364191 -0.08104561 -0.19903027  0.00089033  0.12281952  0.01697319
  0.10244552 -0.03267005]