[-0.09160113  0.12724347  0.09773342 -0.0504665  -0.1192446  -0.04547284
 -0.03163413 -0.11703594  0.1424017  -0.0482303   0.27769712 -0.07083946
 -0.29299384 -0.07402065 -0.03357836  0.23209441 -0.1747881  -0.14111392
 -0.05038701  0.03106186  0.08030326  0.06826832  0.01830718  0.02419008
 -0.13366354 -0.37308025 -0.0831792  -0.05202538 -0.03250539  0.00227042
 -0.1029753   0.07685497 -0.14621261 -0.09770539  0.09810365  0.11885711
 -0.03746377 -0.11221581  0.14599624 -0.05448276 -0.28875574  0.02100007
  0.12193465  0.23587063  0.1635066  -0.01610074  0.05433031 -0.15409496
  0.0682316  -0.15834628 -0.01152109  0.14433622  0.08980285  0.06394669
  0.02090863 -0.13454807  0.0116063   0.15965782 -0.14342915 -0.07586165
  0.10486648 -0.08029497  0.01095317 -0.12533812  0.17572521  0.00614635
 -0.13072282 -0.12718336  0.08276284 -0.11511227 -0.06642446  0.06818177
 -0.18879327 -0.2113374  -0.31600797 -0.02420122  0.37392002  0.08246832
 -0.18271832  0.06165766 -0.01719587  0.01679258  0.1107752   0.13585965
  0.02727968  0.07111481 -0.13098721  0.03849532  0.24901807 -0.12267756
  0.04545696  0.23353779  0.03155749  0.0639049   0.03691109  0.05755238
 -0.03191809  0.0306573  -0.1522447   0.0387145   0.00598711 -0.03504281
 -0.00726603  0.07762124 -0.15531908  0.05016224  0.06046953  0.0400386
  0.01207346 -0.06187696 -0.04149193 -0.10280774  0.13600229 -0.21629865
  0.13278335  0.18702361  0.01119699  0.11603047  0.08258971  0.04818787
 -0.04192306 -0.07738841 -0.1933015  -0.01112929  0.1357238  -0.03669807
  0.09501348 -0.00719341]