[-0.05391029  0.08171067  0.04978163 -0.07193469 -0.13262169 -0.06963065
 -0.04958127 -0.09774809  0.15281625 -0.05728523  0.24094768 -0.0929008
 -0.24608842 -0.03778064 -0.0503215   0.20891939 -0.20038275 -0.0924684
 -0.04342162  0.03740773  0.0374903   0.0418205   0.00265203  0.04675723
 -0.0572551  -0.35661724 -0.0921733  -0.09038816  0.00532007 -0.04778644
 -0.07944574  0.08444431 -0.13175851 -0.08678508  0.1003355   0.09138512
 -0.04958872 -0.10190083  0.18753186 -0.0491767  -0.2435538  -0.01735044
  0.09935493  0.20890911  0.18525515 -0.00506906  0.03282871 -0.15364721
  0.15363531 -0.16774021 -0.01889354  0.12000664  0.08357981  0.06511515
  0.05800059 -0.1428849   0.0138795   0.14575872 -0.14052404 -0.04115478
  0.07318915 -0.07428896  0.01739622 -0.09199405  0.21923725  0.01108522
 -0.10334563 -0.13513605  0.1600797  -0.12176559 -0.03569371  0.08246164
 -0.156139   -0.19295977 -0.25526366 -0.03174637  0.37792417  0.07989038
 -0.17783214  0.04899196 -0.03962562 -0.03904124  0.12338781  0.12022904
  0.04031765  0.02320376 -0.11539128  0.00239044  0.2643331  -0.14190851
  0.05005969  0.1904517   0.00354647  0.08686953  0.03138893  0.00356955
 -0.05754543  0.02802383 -0.17215461  0.01713647 -0.00519119 -0.03161375
 -0.01844656  0.0884906  -0.11542092  0.03429406  0.0524963   0.00354376
 -0.02348875 -0.04569585 -0.0598321  -0.10070796  0.15590648 -0.20983413
  0.18464431  0.12479692  0.0184115   0.11104281  0.03198376  0.06306355
 -0.02196212 -0.09068692 -0.16572951 -0.01048012  0.11360333  0.00672913
  0.04715184 -0.03694537]