[-0.04103367  0.09955262  0.02975546  0.01926104 -0.13462166 -0.00432014
  0.02776568 -0.15511048  0.13724409 -0.11996732  0.20140357 -0.0389275
 -0.25945017 -0.06657112  0.00921238  0.17364362 -0.14755166 -0.17349075
 -0.05509856 -0.00816753  0.08574682  0.00523945  0.02324053  0.03657188
 -0.04312132 -0.33117604 -0.05714989 -0.02968988  0.0095492  -0.05310385
 -0.03033654  0.08387253 -0.13491462  0.00545564  0.02000131  0.03448509
 -0.08682989 -0.10648493  0.20076814 -0.0302299  -0.24377368  0.00725121
  0.01665426  0.21355568  0.17632711 -0.01451008  0.01311695 -0.13964091
  0.12452812 -0.19992182 -0.00468597  0.15908034  0.10310251  0.05178923
  0.01966983 -0.16565856 -0.00246373  0.03922861 -0.13852732 -0.06109342
  0.05571992 -0.06101182 -0.01417322 -0.10541157  0.15595014  0.06375418
 -0.06686733 -0.13931534  0.13201547 -0.14838916 -0.08690039  0.05898945
 -0.16904493 -0.22621648 -0.21605793  0.01186714  0.40422782  0.1246066
 -0.15574542  0.0113123  -0.00086081  0.02952679  0.13189773  0.11652503
 -0.03420407 -0.01921137 -0.11091352  0.05114604  0.18126141 -0.13044956
 -0.07184367  0.2131803   0.04575104  0.07830007  0.03012595 -0.0008584
  0.03074411  0.11477232 -0.16589448  0.02433906  0.01842905 -0.03015354
  0.02796669  0.07750604 -0.10265958  0.09639087  0.035002    0.04603896
  0.00976926 -0.00796132 -0.1427431  -0.05309635  0.07838973 -0.23795815
  0.17851207  0.16062643  0.01833959  0.12563913  0.04832638  0.09556577
  0.01898962 -0.07702406 -0.18687718 -0.01158266  0.14424829  0.05298783
  0.00702962  0.00458185]