[-0.019046    0.10380614  0.03812024 -0.07941797 -0.15189618 -0.06520056
 -0.030606   -0.09789933  0.15105063 -0.05748302  0.2462052  -0.08961903
 -0.27966908 -0.01000621 -0.05446561  0.20602098 -0.17399763 -0.10285842
 -0.04698812  0.0604092   0.04719206  0.06330036 -0.00321967  0.06953514
 -0.07529975 -0.33401844 -0.0985608  -0.08345465 -0.02398874 -0.07588495
 -0.07467914  0.08381253 -0.11067617 -0.0553839   0.09550831  0.06502637
 -0.02953326 -0.08400392  0.18055266 -0.00107053 -0.29468971  0.00437329
  0.08731224  0.24737214  0.18394713 -0.00798869  0.01568918 -0.158502
  0.09476294 -0.16630907 -0.0098873   0.12893312  0.06966921  0.06815176
  0.03124185 -0.14364098  0.02441275  0.13891463 -0.18287535 -0.0669269
  0.10119273 -0.0726696   0.03847709 -0.07639118  0.23385151  0.00091914
 -0.11929259 -0.12296516  0.12119652 -0.16016118 -0.04854939  0.09602123
 -0.15576637 -0.19494347 -0.25334057 -0.01847698  0.36282918  0.11032937
 -0.16645448  0.05685503 -0.05865642 -0.03032989  0.11350852  0.10508855
  0.03129363  0.04756209 -0.11198815  0.02694844  0.24554923 -0.1433212
  0.07546097  0.24767201  0.00730159  0.05404275  0.03206758  0.02145864
 -0.0507345   0.03002567 -0.141036    0.01613284 -0.00607081 -0.04815642
  0.01143581  0.09713823 -0.17677729  0.04560958  0.04560113 -0.01437921
 -0.01296063 -0.03758996 -0.04374876 -0.11490712  0.16680841 -0.24569888
  0.17232597  0.13426025  0.03247397  0.0842246   0.02298496  0.05005523
 -0.0434499  -0.123923   -0.15889625  0.0171014   0.13254234 -0.01970395
  0.07112531 -0.03480941]