[-0.06179095  0.10031598  0.05648443 -0.07125019 -0.14769481 -0.04167749
 -0.0603439  -0.11869295  0.16670901 -0.07427747  0.27707836 -0.067656
 -0.22860213 -0.04575825 -0.05327367  0.18668765 -0.21002217 -0.09950279
 -0.02912493  0.02493763  0.0834346   0.06410294  0.00165422  0.04208589
 -0.12067945 -0.3476921  -0.12163277 -0.11467834  0.0175369  -0.06676947
 -0.06960378  0.05861209 -0.14821543 -0.09171607  0.07481978  0.08126409
 -0.04080833 -0.10558968  0.15030579 -0.03784931 -0.25750908  0.01324443
  0.07355778  0.22545652  0.15604685 -0.00609179  0.0554512  -0.17386957
  0.14774579 -0.1053496  -0.01877246  0.12822442  0.0638425   0.05906142
  0.05625569 -0.13141909  0.04165689  0.15529262 -0.16380034 -0.02499607
  0.09589303 -0.08181988  0.03644488 -0.07226049  0.17143977 -0.00316146
 -0.06531843 -0.17512622  0.14264105 -0.12152294 -0.05530709  0.12552929
 -0.18041153 -0.20107901 -0.28462636 -0.04435134  0.39021558  0.06620543
 -0.14113134  0.07080011 -0.01974402 -0.02939901  0.13137856  0.12510985
  0.02956645  0.06274597 -0.13272186  0.0547314   0.26690117 -0.12614529
  0.05469484  0.21621454 -0.00537182  0.0503341   0.05630961  0.04113742
 -0.07649086  0.04314695 -0.12105312  0.01661046  0.03330601 -0.04288923
 -0.01854392  0.08250163 -0.14049657  0.04531617  0.02545206  0.01267121
 -0.04952545 -0.08789813 -0.05383066 -0.05848877  0.17477673 -0.22824974
  0.17455231  0.1400812   0.01836509  0.10436233  0.03271408  0.03357359
 -0.06861307 -0.11126935 -0.20122515 -0.00387267  0.10675681 -0.02241222
  0.07270461 -0.0474915 ]