[-0.07973578  0.14549999  0.03098766 -0.03637433 -0.12549393 -0.04275822
 -0.03744168 -0.1500567   0.15546434 -0.08411375  0.23465391 -0.03266528
 -0.2629579  -0.08447803 -0.06130316  0.21771176 -0.16945063 -0.16840945
 -0.03554819  0.0198798   0.09316155  0.04770642  0.05030448  0.02099339
 -0.06946404 -0.36172405 -0.10034808 -0.07181757 -0.010958   -0.05717307
 -0.06772648  0.02840654 -0.15681528 -0.06606688  0.07179555  0.06469429
 -0.05447964 -0.06798224  0.19989263 -0.02928512 -0.28257036  0.00701909
  0.09845629  0.25892994  0.17102064 -0.00521539  0.0242998  -0.18704663
  0.10297852 -0.11515211  0.00530288  0.13343979  0.06652466  0.05817571
  0.03559291 -0.14674307  0.032426    0.12146661 -0.11543464 -0.04468835
  0.07238954 -0.09847927 -0.00267512 -0.0742734   0.20830877 -0.04858201
 -0.08107054 -0.18133348  0.11079773 -0.1194474  -0.06605652  0.13155332
 -0.1801333  -0.20219098 -0.31609377 -0.03888125  0.42412797  0.07171034
 -0.15444773  0.07275217 -0.04692817 -0.01589892  0.13755141  0.13312797
  0.0168497   0.05404729 -0.16438875  0.02475248  0.25665537 -0.1376581
 -0.0274075   0.2034537   0.0210694   0.10005029  0.03148324  0.04395455
 -0.04589261  0.04104352 -0.17393292 -0.03929004  0.01321144 -0.03509099
 -0.03296516  0.09584005 -0.15788993  0.03324097  0.06984221  0.03147785
 -0.02857022 -0.03124972 -0.09348863 -0.09944671  0.1253994  -0.24143293
  0.18658452  0.19708493  0.05274188  0.10107257  0.08266731  0.02739776
 -0.04773088 -0.09063896 -0.19576754  0.01273839  0.12842542  0.01419001
  0.09573817 -0.00797242]