[-0.02882496  0.08732336  0.05797031 -0.05931532 -0.15199748 -0.05271978
 -0.0585255  -0.11091937  0.13586979 -0.06291541  0.24505746 -0.116762
 -0.25832972 -0.0289963  -0.04448732  0.20705879 -0.21418028 -0.09377883
 -0.04483839  0.05892811  0.05474433  0.06162087  0.00560977  0.04635314
 -0.07226185 -0.36398348 -0.09178899 -0.09339284  0.0242761  -0.08290594
 -0.0888893   0.07228853 -0.13365002 -0.07567128  0.08593724  0.07434548
 -0.03986112 -0.11681878  0.15951611 -0.03805182 -0.26886606 -0.01304931
  0.08651923  0.20644115  0.18053886 -0.00188402  0.03428951 -0.16442636
  0.13685344 -0.18037231 -0.03593643  0.10588364  0.06455691  0.06611437
  0.0367609  -0.16525494  0.00164978  0.11909678 -0.15078588 -0.03945845
  0.07706031 -0.06813418  0.03148507 -0.08774137  0.19879477 -0.01457815
 -0.09827282 -0.14631815  0.11511933 -0.14373323 -0.03858402  0.09794167
 -0.15113305 -0.1939472  -0.28808925 -0.0508373   0.37172338  0.06703568
 -0.1675813   0.04532602 -0.0326291  -0.03483509  0.10394686  0.12772819
  0.04683632  0.05895681 -0.12688589  0.03535415  0.25416622 -0.17803423
  0.07067766  0.21605866 -0.00541927  0.08719893  0.02664151  0.0345926
 -0.06988343  0.03129429 -0.14707412  0.01838428  0.01302973 -0.01497305
 -0.00463225  0.0938916  -0.12686749  0.04922053  0.04071791 -0.01510218
 -0.02014203 -0.07537746 -0.05817633 -0.09960423  0.16905145 -0.22301319
  0.15311329  0.15500838  0.03151008  0.10492239  0.02342143  0.04374025
 -0.04083246 -0.08307145 -0.17128859  0.0028648   0.11111324 -0.00185752
  0.02244588 -0.05021165]