[-2.67482605e-02  1.06307007e-01  4.22552973e-02 -1.87508166e-02
 -1.40551195e-01 -2.19383463e-03 -1.63770989e-02 -1.34787664e-01
  1.67292818e-01 -1.29565239e-01  2.63682365e-01 -5.51200770e-02
 -2.37125590e-01 -6.05369508e-02 -2.16998463e-03  1.77207068e-01
 -2.05799177e-01 -1.49137020e-01 -4.53377366e-02  1.78006440e-02
  8.14148188e-02  4.85302731e-02  5.86054008e-03  1.19762020e-02
 -1.17526188e-01 -3.97875786e-01 -8.55915174e-02 -1.05345227e-01
  6.70017526e-02 -3.10974605e-02 -6.70914799e-02  9.71287712e-02
 -1.44579992e-01 -5.85334599e-02  4.37990837e-02  3.88474204e-02
 -5.01399897e-02 -6.85781837e-02  1.77715108e-01 -3.15633044e-02
 -2.92027980e-01  3.95999365e-02  4.30439264e-02  2.11618185e-01
  1.60750702e-01  2.02608106e-04  2.61637755e-02 -1.47699639e-01
  1.17980435e-01 -1.16808489e-01  1.28689932e-03  1.52585030e-01
  9.16953012e-02  9.21562463e-02  4.72273119e-02 -1.42677426e-01
  7.44244223e-03  8.48914385e-02 -1.38081715e-01 -4.55287099e-02
  7.69425854e-02 -6.37802780e-02  4.59504798e-02 -8.93670246e-02
  1.55077323e-01 -3.34254131e-02 -5.86152151e-02 -1.45049021e-01
  1.26407951e-01 -1.30131170e-01 -8.54661241e-02  8.62025172e-02
 -1.83706209e-01 -1.95068389e-01 -2.68345475e-01 -1.25243962e-02
  3.71220529e-01  1.00298166e-01 -1.65704444e-01  4.92374338e-02
  7.87023641e-03 -3.87578085e-02  1.52302101e-01  1.37922555e-01
  4.20498066e-02  2.62581394e-03 -8.92360359e-02  2.74478476e-02
  2.24862099e-01 -1.23148225e-01  2.36639217e-03  2.25128651e-01
 -2.64217495e-03  8.57582539e-02  3.60429659e-02  2.96708997e-02
 -4.99010347e-02  6.90260008e-02 -1.40386805e-01  1.69914495e-02
  1.12371687e-02 -1.69951785e-02 -3.31440978e-02  8.85592252e-02
 -1.26000151e-01  1.00240983e-01  3.81110087e-02  4.86487821e-02
  5.32964617e-03 -1.75762307e-02 -7.40162283e-02 -7.46025816e-02
  1.32424042e-01 -2.22104073e-01  2.02202469e-01  1.74803406e-01
  2.17422843e-02  1.12074748e-01  5.56418113e-02  2.99545564e-02
 -3.70221063e-02 -8.06827769e-02 -2.49260262e-01 -3.31228822e-02
  1.42012700e-01 -2.57471688e-02  2.02548262e-02 -2.47888062e-02]