[-3.82488035e-02  1.09522320e-01  1.43268500e-02 -3.70619670e-02
 -1.24993257e-01 -2.15199795e-02 -2.82384697e-02 -1.53733999e-01
  1.72373205e-01 -1.18595086e-01  2.63106823e-01 -3.48045453e-02
 -2.12501004e-01 -9.56840441e-02  5.28233126e-03  1.66627213e-01
 -2.16519624e-01 -1.69411346e-01 -5.30465543e-02 -2.13071913e-03
  9.68425944e-02  3.04135587e-02 -1.95856579e-03  3.48499976e-02
 -1.31815732e-01 -3.81973833e-01 -8.84830132e-02 -1.20955013e-01
  5.24041057e-02 -3.71909849e-02 -3.61325182e-02  8.10292512e-02
 -1.56177148e-01 -5.20584658e-02  5.57496361e-02  6.36398420e-02
 -6.06451333e-02 -6.65079206e-02  1.89907223e-01 -4.05734479e-02
 -2.82817632e-01  3.84869687e-02  4.21396270e-02  1.97551176e-01
  1.81439027e-01 -3.66885657e-03  2.46191751e-02 -1.46126851e-01
  1.48708701e-01 -1.07525460e-01 -1.39477095e-02  1.79809853e-01
  8.34233090e-02  9.66962427e-02  5.92309199e-02 -1.41239092e-01
  1.90183613e-02  1.01705812e-01 -1.53104097e-01 -6.20611794e-02
  5.35299256e-02 -9.34613273e-02  3.27128917e-02 -8.70943516e-02
  1.59921095e-01 -1.64572168e-02 -6.42000586e-02 -1.51318237e-01
  1.50994763e-01 -1.24722064e-01 -8.42234418e-02  1.09421887e-01
 -1.95420355e-01 -2.03295156e-01 -2.58569777e-01 -8.01914930e-03
  4.07974809e-01  9.56424996e-02 -1.58935994e-01  5.05997352e-02
 -1.79824798e-04 -3.52987424e-02  1.44090116e-01  1.21289328e-01
  3.41548547e-02 -8.45933985e-03 -9.40982923e-02  3.49906534e-02
  2.27638364e-01 -1.02152720e-01 -2.76687066e-03  2.02091768e-01
 -1.52583821e-02  1.01343118e-01  4.15143333e-02  1.64203141e-02
 -4.98385094e-02  7.13983178e-02 -1.31901383e-01  1.16147771e-02
  2.14022445e-03 -1.66891105e-02 -2.45897081e-02  8.01231191e-02
 -9.64877754e-02  8.76606330e-02  4.56797890e-02  4.78186682e-02
 -3.31303366e-02 -1.09028816e-02 -7.61143863e-02 -6.65468201e-02
  1.27336785e-01 -2.30598554e-01  2.39634275e-01  1.65678352e-01
  1.83879435e-02  1.16240345e-01  4.70804684e-02  3.51498909e-02
 -5.42506948e-02 -9.58540887e-02 -2.44757488e-01 -2.62404531e-02
  1.32188603e-01 -8.25038459e-03  4.40423302e-02 -4.46911380e-02]