[-7.30048940e-02  9.90140662e-02  5.10769486e-02 -5.54201081e-02
 -1.61381245e-01 -1.86626967e-02 -4.82500494e-02 -1.32984146e-01
  1.46993011e-01 -8.12441930e-02  2.41075084e-01 -1.05390027e-01
 -2.84400254e-01 -3.14284638e-02 -5.92532158e-02  2.23364219e-01
 -1.97527766e-01 -1.54899999e-01 -4.03062366e-02  3.04765757e-02
  6.63533881e-02  8.53325948e-02  7.62183825e-03  2.23828983e-02
 -8.26251879e-02 -3.92180920e-01 -9.89410505e-02 -6.21542223e-02
 -5.40414220e-03 -5.93426600e-02 -1.11768499e-01  3.61802988e-02
 -1.63206086e-01 -7.76755735e-02  8.27025920e-02  7.63690025e-02
 -2.68683191e-02 -1.32118732e-01  1.31633848e-01 -3.36409397e-02
 -3.08658570e-01  2.42519528e-02  1.18653409e-01  2.28380248e-01
  1.64745837e-01  3.31285154e-03  1.57545246e-02 -1.85186073e-01
  8.70970413e-02 -1.41401052e-01 -1.37793366e-02  1.24346077e-01
  3.79098617e-02  3.67118977e-02 -2.06976687e-03 -1.77025363e-01
 -1.56253856e-02  1.42535210e-01 -1.12827897e-01 -3.36022526e-02
  1.11614399e-01 -8.02591965e-02  2.01067533e-02 -1.03114963e-01
  1.98112428e-01 -1.65770762e-02 -9.92537960e-02 -1.89033911e-01
  1.01233080e-01 -1.25602677e-01 -5.55131733e-02  8.61028060e-02
 -1.82099089e-01 -2.18883082e-01 -2.96626776e-01 -2.14718059e-02
  4.01367396e-01  5.38228340e-02 -1.57557234e-01  7.28438720e-02
 -3.45489159e-02  2.08055768e-02  1.35766685e-01  1.58203751e-01
  5.81828542e-02  6.05945848e-02 -1.61843061e-01  3.06725539e-02
  2.77611941e-01 -1.46273598e-01  2.15372331e-02  2.24421293e-01
 -1.13081364e-02  7.60340765e-02  4.15434428e-02  7.54375681e-02
 -7.51441121e-02  4.50237952e-02 -1.64387897e-01 -4.82690660e-03
  2.75745820e-02 -1.98454875e-02 -2.42687818e-02  1.14065103e-01
 -1.32290274e-01  3.98187041e-02  4.51041050e-02  1.86967887e-02
 -3.22727501e-05 -7.66191781e-02 -3.67800072e-02 -9.90100726e-02
  1.46829709e-01 -2.29681969e-01  1.60458788e-01  1.83018595e-01
  6.72497749e-02  1.33225605e-01  7.61067420e-02  3.93472053e-02
 -2.89196055e-02 -7.02134296e-02 -2.27721319e-01  8.46473314e-03
  1.13951340e-01 -6.14541396e-03  6.78129569e-02 -7.73641048e-03]