[-6.74703568e-02  1.34045169e-01  6.34287521e-02 -3.96094844e-02
 -1.44438192e-01 -3.43484990e-02 -1.81549769e-02 -1.46778256e-01
  1.42430708e-01 -6.24677502e-02  2.83004999e-01 -7.99275264e-02
 -2.72058338e-01 -6.30844459e-02 -3.96172814e-02  2.24188119e-01
 -1.84638605e-01 -1.58125073e-01 -5.56180961e-02  2.44951397e-02
  7.48484135e-02  4.89560701e-02  2.03509107e-02  4.47019227e-02
 -9.99317542e-02 -3.46210510e-01 -9.55405608e-02 -7.97635093e-02
  1.22349022e-03 -5.91108464e-02 -9.29046273e-02  1.02476276e-01
 -1.25845715e-01 -9.08145085e-02  9.11010504e-02  8.18512961e-02
 -2.41317004e-02 -8.23619366e-02  1.85893103e-01 -4.30419408e-02
 -2.65871614e-01  1.58723891e-02  1.39557168e-01  2.46996269e-01
  1.61528915e-01 -3.50227579e-02  2.96507925e-02 -1.54246077e-01
  8.82152915e-02 -1.64675862e-01 -4.91289310e-02  1.33349583e-01
  8.56814831e-02  6.96987659e-02  2.15261318e-02 -1.49155155e-01
  8.12188443e-03  1.24484323e-01 -1.57699212e-01 -4.24872302e-02
  8.10032785e-02 -1.12104118e-01 -1.63463783e-02 -1.01109110e-01
  1.76390156e-01  8.50988273e-03 -9.17870626e-02 -1.57892153e-01
  7.81779960e-02 -1.25434652e-01 -6.66938275e-02  1.16835795e-01
 -1.93509221e-01 -1.80302903e-01 -3.06132048e-01 -5.86528368e-02
  4.14452136e-01  5.25363386e-02 -1.66358337e-01  5.51863797e-02
 -2.19344180e-02 -2.56979894e-02  1.00057505e-01  1.12521999e-01
  1.56321917e-02  4.98383455e-02 -1.47477314e-01  5.72776496e-02
  2.32810184e-01 -1.41327739e-01  4.92429808e-02  2.11615995e-01
  2.74152495e-02  9.34361964e-02  4.15308811e-02  6.78076893e-02
 -3.98573615e-02  6.14712248e-03 -1.73227161e-01  4.09022300e-03
 -3.50519419e-02 -3.19195986e-02 -1.06911492e-02  7.02666864e-02
 -1.42032951e-01  1.69546902e-02  5.90417460e-02  6.73313299e-03
 -3.73639278e-02 -5.52136004e-02 -4.22304273e-02 -9.53284130e-02
  1.44093767e-01 -2.25870728e-01  1.11241415e-01  1.89001575e-01
  2.08033991e-04  8.54832679e-02  4.59248982e-02  3.48090418e-02
 -6.70903847e-02 -7.99566284e-02 -1.67558253e-01  1.32575333e-02
  1.23964846e-01 -2.34261900e-02  4.92405668e-02 -4.26488183e-02]