[-0.09513692  0.15854624  0.07464936 -0.01126559 -0.14094588 -0.01035946
  0.02250949 -0.08327343  0.16637897 -0.05587782  0.21644841 -0.05216108
 -0.27398512 -0.02990639  0.01278028  0.14510788 -0.13411653 -0.13969581
 -0.08054748  0.00709316  0.06865067  0.07322641  0.00478274  0.06392543
 -0.10065897 -0.35019442 -0.07612311 -0.07067951  0.02085851 -0.04630454
 -0.0609347   0.11381114 -0.11002117 -0.05327142  0.05057612  0.12297757
 -0.08657965 -0.07650926  0.17377694 -0.03035171 -0.2626524  -0.04932649
  0.05750212  0.26343521  0.19173411 -0.01254975  0.02129378 -0.08423921
  0.09105013 -0.19384304  0.0165911   0.20577529  0.09814362  0.10901468
  0.07706887 -0.16806412  0.0116473   0.1135034  -0.1183491  -0.04637507
  0.05744326 -0.07725253  0.03020715 -0.09627462  0.15467595  0.0141739
 -0.08329258 -0.12716241  0.1276838  -0.15128489 -0.09325445  0.11431596
 -0.19658771 -0.22174215 -0.24328147  0.04367707  0.42356801  0.14527887
 -0.16224205  0.02038413 -0.00421444 -0.04774014  0.09812916  0.120601
 -0.02611719  0.00291687 -0.1401753   0.04252654  0.22185114 -0.1015766
 -0.0017929   0.20155545  0.03700935  0.05697963  0.03454719  0.01246255
 -0.01794905  0.06640565 -0.17426465  0.01048862  0.02086327 -0.07748621
 -0.04788843  0.08754328 -0.13876884  0.10261667  0.0722972   0.01862045
 -0.03917999 -0.03631296 -0.1271854  -0.049664    0.18218812 -0.20038071
  0.16941921  0.1706631   0.00720105  0.12206166  0.07167254  0.07907351
  0.01211483 -0.09005317 -0.16550426 -0.03699073  0.14680283 -0.00980804
  0.00531518 -0.00900224]