[-0.04212426  0.07419925  0.03807683  0.00819098 -0.14470945 -0.01003503
  0.03753751 -0.14097758  0.12311347 -0.11233907  0.19952123 -0.04416358
 -0.26150805 -0.06556289  0.02061564  0.15814321 -0.13981235 -0.19064653
 -0.05520698  0.00285239  0.05513437 -0.00112513  0.02630898  0.03596264
 -0.04128574 -0.34607825 -0.06090183 -0.03684146 -0.00226152 -0.04663224
 -0.01897522  0.09101051 -0.12759137  0.00978815  0.02563219  0.04791029
 -0.09286932 -0.09188131  0.20694387 -0.0107711  -0.24444313 -0.0184455
  0.00151449  0.22636703  0.17761812 -0.01267604  0.02112289 -0.11648792
  0.11581352 -0.21161222  0.01674552  0.15787168  0.11412325  0.05391696
  0.01899899 -0.14548634  0.00176997  0.05389846 -0.15010327 -0.04814175
  0.05825543 -0.06011172 -0.00858676 -0.09955772  0.1649898   0.0647837
 -0.06245607 -0.13396384  0.14393882 -0.15701155 -0.09406568  0.0665425
 -0.16987269 -0.22442234 -0.20671432  0.01581715  0.39641574  0.1276321
 -0.14742491 -0.01152879 -0.00335917  0.02479394  0.11980724  0.09990829
 -0.04208216 -0.0060934  -0.11259568  0.04472281  0.18479407 -0.1250719
 -0.07343246  0.21311298  0.04539993  0.07432994  0.04890074 -0.01140886
  0.0609569   0.11247776 -0.17163609  0.02476258  0.01002054 -0.04388569
  0.03101154  0.06366175 -0.1039305   0.09597998  0.02779874  0.04057323
 -0.00042112 -0.01172568 -0.1432613  -0.06705632  0.09514694 -0.24280611
  0.16240309  0.17049909  0.0286376   0.1200733   0.03367743  0.08124297
  0.01542821 -0.09171158 -0.17503142 -0.00216794  0.13945468  0.06259567
  0.00178738  0.01449716]