[-0.08176138  0.1108992   0.04306697 -0.03844728 -0.13335666 -0.0384937
 -0.02497777 -0.14050996  0.13110968 -0.07948206  0.2565068  -0.07665402
 -0.26074076 -0.07793499 -0.07809754  0.22917815 -0.15130278 -0.15493159
 -0.04117352  0.00886588  0.11649819  0.08504417 -0.01090905  0.01394858
 -0.1084125  -0.32776707 -0.08973064 -0.04974164 -0.00526616 -0.08952627
 -0.06322443  0.06788655 -0.15022378 -0.05479443  0.08746779  0.08935818
 -0.01828489 -0.11055662  0.15393701 -0.04922192 -0.27644357  0.01994991
  0.12587032  0.23979108  0.14870302 -0.04265703  0.02325874 -0.18938704
  0.0980865  -0.11778653 -0.03175412  0.11385833  0.06078831  0.06747791
  0.01843235 -0.14253883  0.00384288  0.11906148 -0.10803061 -0.04076289
  0.09306878 -0.11079363 -0.01511594 -0.11634906  0.15818176 -0.04622059
 -0.09925329 -0.18859595  0.11341917 -0.13782468 -0.0836226   0.09269221
 -0.16890924 -0.18388478 -0.32318196 -0.02953152  0.37984809  0.06490233
 -0.18504345  0.08999248  0.00221684  0.02277663  0.1384097   0.15883905
  0.06072469  0.05594677 -0.14402747  0.0373206   0.26723006 -0.13948788
  0.01041302  0.20351771  0.01063465  0.08568334  0.03297257  0.05413064
 -0.04900534  0.0346803  -0.1266806   0.02112712  0.00959027 -0.02974357
 -0.01685974  0.12142837 -0.10257881  0.05779052  0.04921686  0.04339835
 -0.01132501 -0.03756545 -0.05591374 -0.09226739  0.11123563 -0.21699809
  0.17087366  0.16851297  0.03048796  0.09624577  0.08105361  0.07208452
 -0.03241646 -0.05470769 -0.20447016 -0.00578274  0.10663199 -0.02057011
  0.05622506 -0.02204776]