[-0.11898194  0.10419201  0.04740158 -0.00293162 -0.15767451 -0.0462528
  0.0248329  -0.05559083  0.09636429 -0.03628046  0.29287755 -0.05253395
 -0.22683969 -0.06892308 -0.03084215  0.10353495 -0.12439724 -0.11257795
 -0.09407886 -0.02818231  0.05668862  0.0363139   0.02312671  0.05016426
 -0.08007555 -0.33683285 -0.06517601 -0.1301254   0.05344522 -0.06162019
 -0.04136291  0.00102899 -0.14718013 -0.05695173  0.0226671   0.02884181
 -0.06788137 -0.06428159  0.21502064 -0.0427044  -0.2328649  -0.02694592
  0.04743426  0.26619825  0.14709274  0.03497801  0.0090533  -0.07646543
  0.06510077 -0.13422926  0.0330287   0.180426    0.12256596  0.05650752
  0.0383307  -0.11110138  0.01185931  0.07126219 -0.14375675 -0.04058351
  0.05570481 -0.0375834  -0.02216169 -0.14101629  0.226662    0.04496859
 -0.0894352  -0.14278935  0.13230665 -0.19118288 -0.09060638  0.12136938
 -0.12768841 -0.17560689 -0.20019045  0.02395077  0.40677854  0.14907423
 -0.18263669  0.00259082 -0.08798125 -0.0518843   0.09128525  0.0691053
 -0.05337774  0.06504176 -0.13914032 -0.00699872  0.20252906 -0.09270324
 -0.00737728  0.1997572   0.0405115   0.02232214  0.07108338 -0.01492727
 -0.04745665  0.04549127 -0.09177073  0.0095769   0.05383167 -0.12119661
 -0.00483348  0.03645523 -0.16110657  0.10714104  0.02530899  0.02861342
 -0.00511652 -0.00229778 -0.090892   -0.0701494   0.16177157 -0.23295498
  0.20155576  0.1301126   0.03151202  0.13149995  0.08112122  0.08505926
 -0.06262457 -0.06295664 -0.168164   -0.06711143  0.08371951 -0.04154092
  0.0954143   0.00745395]