[-4.40858789e-02  9.38578174e-02  4.93204072e-02 -5.27102128e-02
 -1.21630363e-01 -7.99454376e-02 -5.64244203e-02 -1.37221113e-01
  1.44107491e-01 -9.28274319e-02  2.67122507e-01 -7.29126111e-02
 -2.20413044e-01 -6.41046539e-02 -4.27264795e-02  2.12716982e-01
 -2.13655114e-01 -1.20358489e-01 -5.24767749e-02  1.56952292e-02
  7.32853785e-02  3.18329446e-02  2.41731104e-04  1.51228905e-02
 -8.75862911e-02 -3.45387548e-01 -1.05600789e-01 -9.50862765e-02
  1.31251337e-02 -2.14171614e-02 -6.05712906e-02  7.65387565e-02
 -1.51095659e-01 -8.57721344e-02  8.74923989e-02  8.29180628e-02
 -3.56335454e-02 -1.04834914e-01  1.72514960e-01 -4.92402539e-02
 -2.52188057e-01  2.35571153e-03  8.98478851e-02  1.98611423e-01
  1.50546566e-01 -2.84544267e-02  5.08017913e-02 -1.53012142e-01
  1.16676867e-01 -1.31321564e-01 -6.19813688e-02  1.16953887e-01
  9.17594358e-02  6.45825863e-02  4.52600047e-02 -1.31224036e-01
  2.91970018e-02  1.33842900e-01 -1.42194077e-01 -5.48589714e-02
  8.88874233e-02 -1.06824555e-01 -1.09676560e-02 -1.04395524e-01
  1.98828682e-01  6.75384095e-03 -9.56252590e-02 -1.56181023e-01
  1.23293854e-01 -1.04808353e-01 -6.53035194e-02  8.17376375e-02
 -1.65133819e-01 -1.90232813e-01 -2.90720224e-01 -4.94431220e-02
  3.68678242e-01  6.84332401e-02 -1.58326462e-01  6.96987137e-02
 -2.50809100e-02 -1.35182962e-02  1.21588670e-01  1.12397783e-01
  3.33874635e-02  6.79588988e-02 -1.15592301e-01  3.90502065e-02
  2.48175487e-01 -1.51472554e-01  4.02443483e-02  1.79718763e-01
 -2.98766326e-02  9.44778919e-02  1.11178514e-02  1.74995663e-03
 -4.44923490e-02  4.23020795e-02 -1.44813910e-01  3.25473659e-02
  2.58092489e-02 -2.38047522e-02 -1.16439639e-02  6.64581954e-02
 -1.10043578e-01  7.41185481e-03  3.51388194e-02  1.20273186e-02
 -3.13001946e-02 -6.06769323e-02 -7.87503943e-02 -6.99995682e-02
  1.49537221e-01 -2.12872624e-01  1.91279277e-01  1.68551430e-01
  7.77078001e-03  9.83002409e-02  7.62253627e-02  2.43969914e-02
 -5.26726805e-02 -9.31594223e-02 -2.09274098e-01 -1.39752151e-02
  1.19028986e-01 -3.69507750e-03  6.16480671e-02 -5.22933714e-02]