[-0.06364586  0.09553885  0.0363893  -0.06204585 -0.16913907 -0.01684276
 -0.05070079 -0.12421753  0.14647917 -0.0874642   0.23140208 -0.10470743
 -0.27933079 -0.02637767 -0.06660905  0.2269419  -0.1949442  -0.16973662
 -0.04319905  0.03751233  0.06547058  0.07377381  0.00423715  0.04308325
 -0.0899296  -0.3883698  -0.09965005 -0.06796759  0.00204141 -0.05600452
 -0.11198583  0.03015878 -0.16875343 -0.08023614  0.07972633  0.07631224
 -0.0090648  -0.13772903  0.13679068 -0.02735957 -0.3199752   0.03672723
  0.1154983   0.23236611  0.14524667  0.00440642  0.0182971  -0.1753699
  0.08324333 -0.13799655 -0.01079624  0.11835977  0.04795498  0.03781064
 -0.01316314 -0.17101543  0.00224988  0.1487889  -0.12476074 -0.02908478
  0.11225354 -0.06997173  0.02429427 -0.11354398  0.20796934 -0.00665699
 -0.10100664 -0.1855754   0.10781389 -0.13344716 -0.06146935  0.07955638
 -0.17229986 -0.2014555  -0.2950561  -0.03240296  0.39598319  0.07099195
 -0.16513754  0.06749555 -0.03263263  0.02375336  0.12724699  0.15830253
  0.05097764  0.06939769 -0.15294495  0.03085549  0.28112793 -0.12543227
  0.02646344  0.22938214 -0.0011127   0.08033965  0.04256791  0.07527955
 -0.07466461  0.04014639 -0.1538413   0.01507472  0.02143241 -0.01749186
 -0.02430662  0.11435039 -0.13806939  0.04524657  0.03849075  0.01869196
  0.00110905 -0.04730472 -0.03475709 -0.09911513  0.14801082 -0.22695234
  0.16155326  0.18780799  0.07464843  0.11713184  0.07892653  0.03344474
 -0.03237995 -0.0777447  -0.24571574 -0.00220541  0.11828806 -0.04015484
  0.07781418  0.00186154]