[-0.09275664  0.11608835  0.05866169 -0.01985533 -0.15054791 -0.02438045
  0.00375621 -0.15667908  0.15167968 -0.07489927  0.27153495 -0.07623991
 -0.26470375 -0.07144897 -0.03058339  0.21021996 -0.17966555 -0.16060655
 -0.04016507  0.00966719  0.09364569  0.01859711 -0.00671216  0.03481747
 -0.09525473 -0.34461817 -0.10443809 -0.07661813  0.01941115 -0.03311181
 -0.07497185  0.06811052 -0.1445552  -0.11387146  0.0833955   0.05834883
 -0.03470827 -0.09765686  0.18562345 -0.0572654  -0.24781679 -0.01572063
  0.11252163  0.22042394  0.11336442 -0.00959697  0.03718049 -0.1536846
  0.09503003 -0.14418635 -0.05059687  0.14551006  0.08276242  0.0637859
  0.0315735  -0.1394832   0.01449906  0.12279316 -0.15067293 -0.0503199
  0.07346989 -0.10220291 -0.01630014 -0.12389497  0.16463061 -0.00084007
 -0.06370308 -0.16416268  0.10675301 -0.1014585  -0.08706339  0.08148654
 -0.18221489 -0.19025147 -0.30853945 -0.04569359  0.42354652  0.07650047
 -0.14762683  0.06392686 -0.02653187 -0.02273991  0.10802384  0.10209203
  0.01968179  0.05761061 -0.12050333  0.04793697  0.21656084 -0.13138364
  0.0337486   0.18117437  0.0115767   0.08273711  0.03407977  0.04155837
 -0.03882624  0.03613953 -0.1527257   0.00068829  0.00985493 -0.01236864
  0.02005979  0.07592664 -0.15596007  0.02348335  0.04994623  0.00714615
 -0.04242982 -0.06114377 -0.07318091 -0.05598303  0.13117684 -0.23042135
  0.1404269   0.18847962 -0.01102876  0.10056397  0.05706669  0.01771634
 -0.0528194  -0.08067976 -0.19171956 -0.02074693  0.13615538 -0.01708232
  0.05377027 -0.03663459]