[-0.04557483  0.10599677  0.06827611 -0.01004428 -0.1150023  -0.02301475
 -0.00610206 -0.14152311  0.14471352 -0.10209065  0.27946255 -0.07539108
 -0.2303649  -0.07860632 -0.03246743  0.18767627 -0.15369073 -0.13702306
 -0.04476978  0.02502056  0.10711228  0.03042449  0.00060312  0.03787729
 -0.12963848 -0.33211991 -0.10346218 -0.09758845 -0.007515   -0.05196714
 -0.07318994  0.07496477 -0.13075206 -0.05152177  0.04636535  0.07355226
 -0.02979545 -0.07523762  0.19781797 -0.04969376 -0.27441543 -0.01500593
  0.06312291  0.23169327  0.1449324  -0.05822398  0.02733277 -0.11954289
  0.10614133 -0.12933342 -0.00996697  0.14381938  0.10765626  0.07818788
  0.02856415 -0.1234891   0.01214924  0.11576743 -0.1205278  -0.05391079
  0.0623951  -0.08891901  0.00857975 -0.07697315  0.14713353 -0.01244515
 -0.07889258 -0.17400125  0.10427862 -0.13650779 -0.07889902  0.09776086
 -0.20449655 -0.20208693 -0.32522929 -0.03038434  0.39964619  0.07557307
 -0.19436881  0.04970818 -0.03394048 -0.02783098  0.13508765  0.12266052
  0.04969168  0.07437788 -0.13799183  0.04883327  0.23433964 -0.15135472
  0.00797966  0.2145981   0.00758297  0.07694729  0.02547101  0.02012007
 -0.00908483  0.05654502 -0.14040546  0.04156377  0.00549234 -0.01765672
 -0.02794847  0.09377822 -0.1613279   0.06466364  0.06075374  0.03082964
 -0.02543379 -0.03966982 -0.12439553 -0.08823153  0.16186349 -0.21717691
  0.11996283  0.17489819  0.01861497  0.08379026  0.0732547   0.03206387
 -0.03134554 -0.08220221 -0.22464232  0.01197066  0.1280257  -0.01648976
  0.02020616 -0.02535719]