[-0.03888957  0.10481044  0.03752862 -0.05782383 -0.13549237 -0.05533053
 -0.0535489  -0.10328565  0.18177897 -0.0721497   0.25365043 -0.04558116
 -0.21094601 -0.05107411 -0.06129595  0.18598726 -0.18801586 -0.11061474
 -0.03817907  0.03122531  0.09249696  0.06823149 -0.02444513  0.03914784
 -0.09692982 -0.33837599 -0.1186373  -0.09425222  0.01394599 -0.07565553
 -0.05446825  0.06441865 -0.14983024 -0.10199922  0.08363064  0.05093725
 -0.05856225 -0.10802197  0.17351978 -0.021597   -0.25344366  0.03295314
  0.08090311  0.22535984  0.14341669 -0.00480002  0.05257246 -0.18318333
  0.14993684 -0.0931085  -0.03828607  0.14855479  0.06510907  0.08403552
  0.05199438 -0.13167322  0.0525628   0.14666875 -0.16982388 -0.03075365
  0.07180335 -0.08666865  0.01332508 -0.07713728  0.16279411 -0.01323061
 -0.05312946 -0.18862475  0.13888051 -0.1364262  -0.07195006  0.12070601
 -0.16066469 -0.19659515 -0.26540446 -0.05162692  0.37667441  0.0771802
 -0.14503923  0.10026609 -0.01717781 -0.04439924  0.12307049  0.12269918
  0.02301822  0.06351627 -0.10300058  0.03452994  0.2699928  -0.09687274
  0.04708538  0.20342076  0.00668467  0.05787095  0.05449852  0.00589025
 -0.05915337  0.03975954 -0.11326337  0.00529466  0.02375114 -0.04971407
 -0.0202273   0.07447224 -0.15315416  0.06842753  0.03830272  0.02550982
 -0.04371509 -0.05837362 -0.05559579 -0.044703    0.16181882 -0.22993012
  0.20814864  0.12954299  0.0236382   0.09972957  0.03790894  0.03922702
 -0.0731301  -0.11108792 -0.20563722 -0.01606393  0.10799529 -0.0197938
  0.08466377 -0.05077277]