[-0.10546041  0.11566325  0.04437216 -0.04051262 -0.14088206 -0.03724876
 -0.02932621 -0.14183144  0.1416353  -0.09683178  0.25424963 -0.06805858
 -0.26614976 -0.07487921 -0.06969177  0.235709   -0.16218902 -0.16539708
 -0.0273213   0.01039698  0.12149     0.07451325 -0.01185254  0.02547967
 -0.10670789 -0.34015715 -0.07995417 -0.04820876 -0.03127924 -0.07502296
 -0.05653898  0.07904796 -0.14447486 -0.05481447  0.08702394  0.11344438
 -0.02065842 -0.10198195  0.16282433 -0.06178349 -0.28125569  0.00899769
  0.13946448  0.24279182  0.13746622 -0.04465876  0.0208085  -0.18840162
  0.10692318 -0.12585719 -0.03757929  0.13140802  0.06194305  0.07089951
  0.03044471 -0.1471144   0.02096616  0.1143684  -0.09628756 -0.05897244
  0.09480705 -0.10550516  0.0071222  -0.11600497  0.18296729 -0.03790783
 -0.08782715 -0.17244606  0.12261689 -0.12026018 -0.09435087  0.0867131
 -0.18985389 -0.19205818 -0.31486535 -0.03309182  0.38660139  0.07631852
 -0.17656694  0.0928279  -0.00294665  0.02330714  0.14483438  0.15907136
  0.0594974   0.0509729  -0.14229783  0.04110672  0.27285886 -0.12969652
  0.00973432  0.19207951  0.03367121  0.0853615   0.0453621   0.03216549
 -0.04219733  0.0330229  -0.16045342  0.01662402 -0.01248037 -0.02605218
 -0.01376669  0.12343977 -0.11060397  0.03895864  0.05846043  0.0361626
 -0.02147622 -0.01002246 -0.06305661 -0.10127594  0.10059454 -0.20442687
  0.17597865  0.16513543  0.03286002  0.10725742  0.08001678  0.0827064
 -0.03924485 -0.05810608 -0.19159356 -0.00149169  0.11825325 -0.00644976
  0.06359668 -0.01881692]