[-1.31393597e-01  1.43370122e-01  4.32887338e-02 -4.93220948e-02
 -1.60711393e-01  8.83823726e-03 -7.01849982e-02 -1.29908592e-01
  1.64138034e-01 -8.52812007e-02  2.87093222e-01 -5.18015884e-02
 -2.32394144e-01 -1.38334185e-01 -2.34982353e-02  2.08000407e-01
 -1.99533924e-01 -1.70134321e-01  8.62172153e-03  1.04643470e-02
  8.01181495e-02  2.74899285e-02  1.97991338e-02  4.93046530e-02
 -1.55969888e-01 -4.08100843e-01 -9.38876495e-02 -1.33773088e-01
 -2.32998636e-02 -3.29843871e-02 -5.97587787e-02  2.53251437e-02
 -1.67839542e-01 -7.97183439e-02  5.73446341e-02  1.09274320e-01
 -4.56873663e-02 -7.33879656e-02  1.48726135e-01 -4.95303757e-02
 -2.51583368e-01 -1.79236941e-02  7.40828514e-02  2.34953865e-01
  1.39591947e-01  2.15420779e-02  6.59662113e-02 -1.40633970e-01
  1.25063568e-01 -1.35724202e-01  2.48502325e-02  1.43554613e-01
  9.52254012e-02  1.97999962e-02  5.75590916e-02 -1.43876165e-01
  3.72662762e-04  1.17377214e-01 -1.26648381e-01 -5.30436002e-02
  4.50575911e-02 -3.06140911e-02  3.77474655e-03 -1.09546922e-01
  1.95882604e-01  4.10109945e-02 -6.69439211e-02 -1.82275668e-01
  1.35799676e-01 -1.13899983e-01 -8.32347870e-02  1.06604598e-01
 -1.98301807e-01 -2.13234454e-01 -3.38284016e-01 -3.22246477e-02
  4.08569872e-01  8.23528692e-02 -1.46049038e-01  2.50078682e-02
 -1.94334239e-02 -1.09908357e-02  8.88764709e-02  1.28590509e-01
  1.92819145e-02  3.79419588e-02 -1.39586136e-01  4.10970710e-02
  2.43932962e-01 -1.32634223e-01  1.45495757e-02  1.95156381e-01
  5.95052494e-03  8.92943963e-02  1.42857255e-02  2.46755015e-02
 -5.62552698e-02  7.49327466e-02 -1.10266149e-01  1.09303836e-02
  1.93579346e-02  1.10210972e-02 -8.58402159e-03  1.00647174e-01
 -1.62514687e-01  2.86314338e-02  3.09791397e-02  2.16768216e-02
 -4.20730226e-02 -3.11239958e-02 -9.30333734e-02 -9.11707804e-02
  1.46646544e-01 -2.14122206e-01  1.58039987e-01  1.87201858e-01
  1.55843897e-02  1.27181157e-01  8.39789882e-02  2.03507375e-02
 -4.16898988e-02 -8.74900967e-02 -2.26975724e-01 -6.04220433e-03
  9.79726240e-02 -4.48948741e-02  3.94286551e-02 -1.26912445e-02]