[-0.0401472   0.0881912   0.04081855 -0.065012   -0.11878037 -0.08677231
 -0.06322304 -0.14038262  0.15557313 -0.0853823   0.27033275 -0.07597602
 -0.2085558  -0.06382629 -0.03918119  0.2065554  -0.21915856 -0.11384424
 -0.04916164  0.01775863  0.07565283  0.02943093  0.0023594   0.02779038
 -0.09442628 -0.34258607 -0.11656351 -0.09790326  0.02328962 -0.02246427
 -0.05412891  0.07182675 -0.15179352 -0.09432553  0.09024829  0.08865876
 -0.03611466 -0.113547    0.15697382 -0.06115016 -0.25288045  0.00200473
  0.08884703  0.19351232  0.15525781 -0.01729788  0.05670626 -0.16446236
  0.11592209 -0.13109736 -0.06104171  0.10996671  0.08777148  0.06438091
  0.04206206 -0.13786796  0.02726758  0.1421223  -0.14882676 -0.05202297
  0.08126968 -0.09840885 -0.00216456 -0.10298731  0.21048029  0.01746315
 -0.10696635 -0.15544753  0.12374263 -0.10882597 -0.05817935  0.09139545
 -0.16215721 -0.19657476 -0.29186302 -0.05732414  0.36977181  0.05896678
 -0.16084062  0.06787624 -0.03883424 -0.00196891  0.11502918  0.11328635
  0.03743866  0.06325489 -0.12174894  0.03294425  0.25568107 -0.1613553
  0.04531493  0.18378265 -0.03275849  0.09334578  0.00710891  0.0198107
 -0.05660213  0.04600191 -0.1352358   0.02861035  0.03505936 -0.01012702
 -0.0094898   0.06915893 -0.10904121  0.01801272  0.04012518  0.01198697
 -0.0236599  -0.06679022 -0.0677023  -0.07953598  0.15718636 -0.22247611
  0.19467239  0.16585924  0.00740941  0.11026704  0.06548031  0.03262685
 -0.05672783 -0.09888554 -0.20247702 -0.00324706  0.10944662 -0.00638439
  0.05844052 -0.05529433]