[-1.10229708e-01  1.46063685e-01  6.37518689e-02 -4.23707291e-02
 -1.68479994e-01  3.11505180e-02 -6.97324798e-02 -1.33205891e-01
  1.56913385e-01 -8.66864771e-02  2.77038425e-01 -7.24652186e-02
 -2.30104208e-01 -1.02542438e-01 -1.81999877e-02  2.04783604e-01
 -1.83321893e-01 -1.65290281e-01 -1.65966561e-03  1.27723906e-02
  7.09235221e-02  3.23549435e-02  2.60732858e-03  3.73715274e-02
 -1.44989535e-01 -3.88726652e-01 -9.30604786e-02 -1.26978591e-01
 -1.01604238e-02 -4.02504876e-02 -8.66249949e-02 -3.26573849e-04
 -1.64477721e-01 -8.05618465e-02  5.25617003e-02  1.07648447e-01
 -5.60048036e-02 -7.74677843e-02  1.38669878e-01 -5.54361828e-02
 -2.58177280e-01 -2.20431178e-03  7.49506876e-02  2.26445228e-01
  1.43154427e-01  3.28864194e-02  5.36029600e-02 -1.38982818e-01
  1.09051049e-01 -1.37737110e-01  4.94308136e-02  1.41714051e-01
  9.88112316e-02  2.97811460e-02  4.71265800e-02 -1.55615136e-01
 -2.19389703e-02  1.30313709e-01 -1.08747117e-01 -2.70623807e-02
  6.52280673e-02 -2.17983648e-02  1.70923956e-03 -1.12148665e-01
  1.95115492e-01  3.96619290e-02 -7.66462311e-02 -1.79459572e-01
  1.12277083e-01 -1.13058262e-01 -8.98562074e-02  9.07372758e-02
 -1.99938238e-01 -2.16216713e-01 -3.35155696e-01 -1.87562220e-02
  4.07583565e-01  7.57422969e-02 -1.76210687e-01  1.24726938e-02
 -8.25109612e-03 -1.64717843e-03  1.06671207e-01  1.42191634e-01
  4.18751612e-02  3.59092280e-02 -1.32763907e-01  2.93257274e-02
  2.41945416e-01 -1.49594113e-01  2.04393882e-02  1.98091790e-01
 -3.11847404e-03  7.63845369e-02 -2.33071303e-04  4.07693461e-02
 -5.25196791e-02  6.51476458e-02 -1.17650174e-01 -4.92961565e-03
  2.63303518e-02  2.12359745e-02 -2.54957527e-02  1.07049726e-01
 -1.73384219e-01  4.78522889e-02  3.63465920e-02  2.41118353e-02
 -2.86085252e-02 -4.61107753e-02 -8.52584317e-02 -8.99414122e-02
  1.73416734e-01 -2.11565956e-01  1.46771044e-01  1.97716013e-01
  8.78024008e-03  1.21033035e-01  8.98652971e-02  2.59981211e-02
 -1.68689787e-02 -7.15058446e-02 -2.42162570e-01 -7.00685335e-03
  9.49714631e-02 -4.49307114e-02  2.72164829e-02 -4.27503139e-04]