[-6.92476705e-02  1.30124792e-01  1.82671063e-02 -5.73423766e-02
 -1.18983701e-01 -5.50914109e-02 -2.74851974e-02 -1.53343394e-01
  1.55320555e-01 -8.46045539e-02  2.44476438e-01 -7.48776272e-02
 -2.65328765e-01 -1.00416340e-01 -5.80265410e-02  2.31841162e-01
 -1.89495131e-01 -1.75641581e-01 -4.61477898e-02  3.05634774e-02
  1.06438272e-01  5.21986783e-02  2.73698159e-02  3.21994834e-02
 -8.93464237e-02 -3.45744461e-01 -9.72757190e-02 -6.01371415e-02
 -2.74200924e-02 -7.39875808e-02 -6.58296049e-02  5.60532771e-02
 -1.61106408e-01 -6.10924326e-02  9.24885795e-02  8.35246369e-02
 -1.35358041e-02 -1.01728193e-01  1.75506517e-01 -4.10510860e-02
 -2.91993856e-01  1.62882253e-03  1.18481040e-01  2.29623601e-01
  1.63814098e-01 -2.77949814e-02  9.78386030e-03 -1.83100164e-01
  1.13985255e-01 -1.10698037e-01 -3.52068655e-02  1.34489059e-01
  5.69502972e-02  5.24076633e-02  1.25445379e-02 -1.59638405e-01
  1.97574235e-02  1.13914035e-01 -1.23911873e-01 -7.62610883e-02
  8.77198800e-02 -1.27462745e-01 -2.00471338e-02 -1.08255260e-01
  1.82447597e-01 -2.68216785e-02 -8.91976207e-02 -2.15888932e-01
  1.16111122e-01 -1.34983763e-01 -7.27128088e-02  9.14905965e-02
 -1.90806806e-01 -1.88647062e-01 -3.22258949e-01 -5.09413593e-02
  3.66083086e-01  7.12859631e-02 -1.57439768e-01  1.04922652e-01
 -2.52948552e-02  2.48842128e-02  1.08282819e-01  1.57823071e-01
  3.77487093e-02  9.77798924e-02 -1.55770957e-01  2.79187504e-02
  2.41384536e-01 -1.49050146e-01 -2.13419466e-04  2.04117775e-01
 -1.09905591e-02  1.05054788e-01  3.88931222e-02  3.88050382e-03
 -4.75900844e-02  4.66832183e-02 -1.59718394e-01  8.75169411e-03
 -1.53992476e-03 -2.55648233e-02 -8.39132536e-03  1.05767153e-01
 -1.14415765e-01  1.40954508e-02  4.60693166e-02  3.63834985e-02
 -3.87909636e-02 -3.33959125e-02 -6.87494725e-02 -1.15427569e-01
  1.06910124e-01 -2.26648018e-01  1.83399156e-01  1.79428801e-01
  5.04428111e-02  1.01548366e-01  9.15025324e-02  6.80088550e-02
 -3.89377102e-02 -5.14073260e-02 -2.00291082e-01  1.81782544e-02
  1.22433715e-01  7.44428206e-03  8.30710679e-02 -2.29309257e-02]