[-0.08227953  0.13551144  0.03685405 -0.07271373 -0.13287859 -0.03788422
 -0.02355859 -0.14542723  0.15792905 -0.09330646  0.24746488 -0.06710183
 -0.28384361 -0.0683557  -0.07672276  0.22095449 -0.18023655 -0.16615395
 -0.03517805  0.03228543  0.11738238  0.05314596  0.0045622   0.01266908
 -0.07861765 -0.34777042 -0.10756081 -0.04093406 -0.02644025 -0.07107504
 -0.02908188  0.07345227 -0.15723267 -0.04649968  0.08352505  0.08584084
 -0.02137559 -0.08784828  0.16079497 -0.05353019 -0.29356495 -0.00217677
  0.13538177  0.22456312  0.15175533 -0.027307    0.01627639 -0.19619457
  0.09692512 -0.11175328 -0.04271149  0.14416039  0.05330541  0.06667951
  0.0329014  -0.15975647  0.0259524   0.11794116 -0.11394572 -0.05702267
  0.10112103 -0.11983375 -0.01329641 -0.10951521  0.16932833 -0.04026049
 -0.09173734 -0.21493474  0.14039947 -0.12807141 -0.06951981  0.1221514
 -0.19158316 -0.19495469 -0.30123293 -0.03879201  0.37910867  0.07766771
 -0.13495986  0.09227724 -0.02206135  0.02101749  0.10995205  0.13954157
  0.03263196  0.06756222 -0.14721715  0.04111836  0.2532247  -0.13541636
  0.00364781  0.19680943 -0.00274495  0.08858998  0.02737373  0.02791743
 -0.04411019  0.04421451 -0.17525016  0.00372595 -0.00662794 -0.04754616
 -0.02004117  0.114343   -0.11053324  0.01740666  0.04613024  0.03142944
 -0.0466799  -0.02611784 -0.07196795 -0.08900317  0.12149765 -0.22697268
  0.19718382  0.17687637  0.04263106  0.08601236  0.09379439  0.07401691
 -0.03745976 -0.08530285 -0.19043462  0.00243544  0.11142304 -0.00191017
  0.07005715 -0.03597028]