[-0.08007602  0.12296037  0.0485399  -0.03688451 -0.14545861 -0.01121783
 -0.01554326 -0.1291519   0.15725419 -0.05009923  0.22410642 -0.06228808
 -0.26791927 -0.07207524 -0.05919197  0.19460474 -0.19097874 -0.17547493
 -0.02870618 -0.01926854  0.10678109  0.07865127 -0.00348527  0.07231285
 -0.16707885 -0.33219269 -0.08056869 -0.12851977 -0.00105354 -0.04357598
 -0.05269578  0.10054606 -0.12095507 -0.04464752  0.10941859  0.10688382
 -0.03032204 -0.07536783  0.19968902 -0.01891406 -0.27144498 -0.0285459
  0.10191184  0.24104004  0.17558478 -0.02263407  0.05760479 -0.14225432
  0.13675384 -0.12497514 -0.00157636  0.19488101  0.11000917  0.09643624
  0.06408539 -0.17289546  0.02704578  0.13063523 -0.12989132 -0.04062475
  0.06724686 -0.10302829  0.0439313  -0.06572513  0.13860834 -0.05912142
 -0.07572427 -0.15769666  0.16402507 -0.14448909 -0.08934578  0.1453554
 -0.18743651 -0.19895224 -0.2731863  -0.04035146  0.46464738  0.11092969
 -0.17297612  0.05994812 -0.02615909 -0.04014357  0.12200648  0.13258219
  0.02070493  0.03411981 -0.13733338  0.02483712  0.25451443 -0.10285974
  0.02610978  0.20063917  0.03644257  0.0717539   0.05760469  0.02792652
 -0.04547798  0.0630562  -0.10053313  0.00507485 -0.03902569 -0.05331576
 -0.01260295  0.06929918 -0.15551887  0.07760742  0.05605558  0.01645637
 -0.09266683 -0.03074314 -0.07723513 -0.04557433  0.17521165 -0.253135
  0.14901116  0.17101873 -0.00227473  0.12894642  0.04117916  0.06576758
 -0.03763858 -0.12920122 -0.18307076 -0.03600457  0.11483874 -0.03959029
  0.05232925 -0.02264223]