[-0.05570906  0.07925904  0.03791704 -0.05274343 -0.11914828 -0.01584431
 -0.00590863 -0.14533268  0.15428475 -0.12529212  0.24571291 -0.07614226
 -0.24487428 -0.07022327 -0.06915995  0.24612685 -0.20463045 -0.18310079
 -0.07291541  0.00884579  0.09298628  0.0167477  -0.01807643  0.01482287
 -0.08895793 -0.36421293 -0.10970975 -0.03460522 -0.01659738 -0.03692002
 -0.05242341  0.10122187 -0.13782661 -0.00574029  0.06940686  0.0514518
 -0.01336286 -0.11154244  0.17226002 -0.01300013 -0.27336594  0.05207134
  0.1070094   0.20515366  0.18012848 -0.01164179  0.02955534 -0.17119598
  0.11877849 -0.13419472 -0.0450787   0.1458246   0.10468625  0.08837886
 -0.00163959 -0.14938562 -0.00502038  0.08848117 -0.11206972 -0.07010223
  0.06160799 -0.09823578 -0.02750891 -0.11783621  0.14856242  0.0204973
 -0.10964099 -0.1947162   0.14695069 -0.13443933 -0.06808989  0.06296515
 -0.19044665 -0.19816718 -0.24828644 -0.01711128  0.41166741  0.09198954
 -0.17987718  0.04229084 -0.02554282  0.00928588  0.10275687  0.15346852
  0.01653147  0.02411994 -0.11267097  0.0181475   0.24395393 -0.13378587
  0.00135604  0.22220688  0.02255038  0.08643287  0.00536057  0.02030417
 -0.02031218  0.08213075 -0.13238572  0.00961686 -0.02149477 -0.01713286
 -0.00604713  0.07376833 -0.09844743  0.08305018  0.03369561  0.05164693
 -0.01529638  0.00497315 -0.06187681 -0.08912946  0.09723663 -0.22416282
  0.1397661   0.19373374  0.03562553  0.1124345   0.07823601  0.11111403
 -0.01999773 -0.06307144 -0.2010756  -0.00873112  0.11442017  0.01575172
  0.02964053 -0.01843955]