[-0.06097789  0.09936929  0.04298446 -0.05091138 -0.15525271 -0.03491639
 -0.04543057 -0.14630564  0.13948901 -0.07722299  0.24294296 -0.10377496
 -0.28662923 -0.05013442 -0.05776481  0.22782378 -0.18721731 -0.16863261
 -0.06004187  0.02500894  0.06919748  0.06807785  0.01450769  0.03186304
 -0.07471216 -0.39142585 -0.10459287 -0.06577026 -0.00850233 -0.06401848
 -0.10109826  0.05430576 -0.17088971 -0.09075108  0.09131198  0.08237536
 -0.02580704 -0.13104686  0.14559312 -0.04671781 -0.29376012  0.01434327
  0.12815063  0.23041753  0.17033103 -0.00744091  0.02968164 -0.17265688
  0.08782732 -0.14514525 -0.01600899  0.11788141  0.04354698  0.04953806
  0.00196728 -0.18298633 -0.00597889  0.14865498 -0.12089305 -0.02964135
  0.10661667 -0.10873313 -0.00384642 -0.10181438  0.20952685 -0.00910904
 -0.09368323 -0.19431537  0.11814591 -0.12699425 -0.04596766  0.08586174
 -0.19641113 -0.20485412 -0.30588645 -0.02410811  0.40722218  0.05766861
 -0.16272293  0.07369494 -0.02699162  0.03181893  0.12194213  0.14908761
  0.05242546  0.07176006 -0.1699162   0.04774172  0.26770297 -0.1415493
  0.0130992   0.21851747 -0.01321554  0.07880555  0.05528998  0.06055526
 -0.06688451  0.0251817  -0.18448247 -0.00247556  0.01952559 -0.01438731
 -0.0226051   0.10846803 -0.10157277  0.02363226  0.03452382  0.02048304
 -0.02633034 -0.08040974 -0.04294446 -0.10315007  0.14532068 -0.21556298
  0.1597914   0.17743312  0.06697934  0.12439694  0.06930014  0.04532726
 -0.03209599 -0.07535278 -0.22572868  0.01566009  0.12244357  0.00251829
  0.07541456 -0.0137049 ]