[-0.06672519  0.09036148  0.05043922 -0.07921902 -0.13926275 -0.05057557
 -0.06123659 -0.11048143  0.17472719 -0.06694181  0.26614556 -0.05767491
 -0.21113442 -0.05368105 -0.04593104  0.19541435 -0.22333264 -0.09844009
 -0.03660478  0.01613148  0.07061127  0.06761821 -0.0042793   0.04054923
 -0.12476426 -0.35719433 -0.11855912 -0.11500867  0.00181553 -0.05633479
 -0.05459763  0.06974988 -0.14863031 -0.09055423  0.08641382  0.0935045
 -0.03235276 -0.10906675  0.15065616 -0.03466387 -0.25015432  0.00783396
  0.07897099  0.23220876  0.17293766 -0.01132611  0.05428829 -0.16042365
  0.16414629 -0.10727457 -0.04780813  0.12354495  0.05626041  0.06090877
  0.05063399 -0.12839654  0.05802562  0.14128037 -0.17210251 -0.05312839
  0.08687697 -0.1005884   0.02896067 -0.07181364  0.18299048 -0.00704453
 -0.07522867 -0.17697859  0.13599737 -0.12118894 -0.05088946  0.10678201
 -0.19163597 -0.1952318  -0.31032193 -0.04995798  0.39165789  0.06636284
 -0.13966677  0.07833551 -0.02134138 -0.01808519  0.12349532  0.13375615
  0.02517754  0.06969805 -0.13205707  0.05937     0.26284894 -0.11982031
  0.04830889  0.20013455 -0.01173113  0.06241272  0.04627256  0.0353377
 -0.07796463  0.04524236 -0.11676033  0.03085842  0.03689714 -0.02664531
 -0.00045912  0.09395283 -0.13889694  0.05387882  0.02185546  0.01759727
 -0.05636751 -0.08641166 -0.0511192  -0.05535549  0.16856454 -0.22318129
  0.16904907  0.14704897  0.01134473  0.11335503  0.03089319  0.03011039
 -0.08969929 -0.09058271 -0.20712808  0.00084078  0.0931775  -0.0152156
  0.08511084 -0.04539847]