[-7.98276663e-02  1.14578702e-01  7.40577802e-02 -4.77126688e-02
 -8.02455768e-02 -2.09146850e-02  9.36677679e-03 -1.34214818e-01
  1.68415695e-01 -6.36082888e-02  2.56980002e-01 -6.05495051e-02
 -2.43352085e-01 -5.82445264e-02 -3.26622138e-03  1.85296401e-01
 -1.88916072e-01 -1.54679209e-01 -4.87086289e-02  4.87970700e-03
  5.10028414e-02 -7.74847576e-03  1.57366402e-03  7.46145621e-02
 -1.03270963e-01 -3.69945258e-01 -1.08948350e-01 -1.35216296e-01
  1.30020594e-02 -3.55609111e-03 -6.67168424e-02  1.21324562e-01
 -1.37772784e-01 -3.48013006e-02  7.32786953e-02  1.16494969e-01
 -5.69879673e-02 -8.24099928e-02  1.92671567e-01 -3.39050405e-02
 -2.14870527e-01 -5.01250215e-02  5.11559248e-02  2.21016571e-01
  1.58379480e-01 -2.91496515e-02  4.92308550e-02 -7.42637664e-02
  1.18597344e-01 -1.64700255e-01 -1.03468420e-02  1.66805089e-01
  1.08549647e-01  1.17943101e-01  7.31768608e-02 -1.59593478e-01
  4.36004214e-02  8.83194655e-02 -1.57205969e-01 -6.07799850e-02
  3.57018202e-03 -1.11284606e-01 -1.50676016e-02 -7.93726295e-02
  1.75584897e-01  5.52616082e-02 -7.14758411e-02 -1.39627740e-01
  1.83942243e-01 -1.12707354e-01 -4.77817692e-02  8.78029987e-02
 -2.12613970e-01 -1.92577481e-01 -2.41009474e-01 -1.05495742e-02
  4.13808554e-01  1.17234707e-01 -1.68916523e-01  5.83170019e-02
 -3.87145840e-02 -5.56999221e-02  8.10052678e-02  1.16845004e-01
  7.67434854e-03  6.31221235e-02 -1.10416651e-01  4.56359647e-02
  1.94774911e-01 -1.20781615e-01  2.88349036e-02  2.06726119e-01
 -1.59879383e-02  9.26279277e-02  2.92990934e-02 -1.79359075e-02
  2.51668249e-03  4.64131571e-02 -1.54934615e-01 -8.66852715e-05
 -8.49420298e-03 -1.46815842e-02 -3.18205431e-02  5.85853122e-02
 -1.61002859e-01  4.16382700e-02  6.70367107e-02  1.82435270e-02
 -5.57872914e-02 -2.97548603e-02 -8.53184685e-02 -7.07951412e-02
  1.55107483e-01 -2.50712425e-01  1.49722204e-01  1.86718270e-01
 -2.35601775e-02  1.04211390e-01  1.52421966e-02  3.03744376e-02
 -7.27790967e-03 -1.28790200e-01 -2.03862190e-01 -8.60804878e-03
  1.37820810e-01  1.31598357e-02 -4.01737019e-02 -2.56579760e-02]