[-0.10468753  0.13618478  0.03970362 -0.0219491  -0.11689692 -0.05875437
 -0.01616634 -0.15310967  0.13178651 -0.06771793  0.25414592 -0.02723558
 -0.25952503 -0.13034655 -0.02929475  0.2004381  -0.15356116 -0.1323759
 -0.03460712  0.00904111  0.13154016  0.02794032  0.02060975  0.03050376
 -0.11150435 -0.32368663 -0.09381038 -0.071366   -0.01540606 -0.06131834
 -0.06734468  0.01730148 -0.15542327 -0.07252978  0.07158571  0.06352427
 -0.03121868 -0.08754551  0.17142218 -0.0660808  -0.26513565 -0.01884009
  0.11642583  0.19959547  0.14829992 -0.01273941  0.05219593 -0.17819218
  0.12308203 -0.08912069 -0.0108136   0.12634936  0.08798899  0.05070926
  0.04843818 -0.15680574 -0.00829128  0.12817284 -0.11881348 -0.05772575
  0.05170043 -0.07426716 -0.03267172 -0.10624959  0.16922149 -0.01159671
 -0.10162853 -0.17980358  0.13304487 -0.1214747  -0.08336654  0.10182282
 -0.17297377 -0.20734186 -0.2995418  -0.02903164  0.40070769  0.07732391
 -0.18225507  0.05852817 -0.04771471 -0.01866993  0.12255587  0.13528185
  0.04500526  0.06099707 -0.12524571  0.02477456  0.24835078 -0.12991332
  0.0048129   0.17979716  0.02194024  0.08574752  0.00739373  0.01869299
 -0.05851408  0.0648678  -0.13302894 -0.00777216  0.01060541 -0.03815182
 -0.00723291  0.08839452 -0.14082713  0.04672285  0.0842609   0.03090706
 -0.03804719 -0.03049968 -0.09950799 -0.07306333  0.09364963 -0.23284869
  0.21764269  0.17025359  0.01938315  0.10742307  0.07529012  0.05850263
 -0.00791235 -0.0792093  -0.17905468 -0.01876207  0.12970655 -0.0238796
  0.08888265 -0.03683918]