[-9.29146335e-02  1.63856670e-01  5.82690015e-02 -6.59308806e-02
 -9.71820205e-02 -2.39441898e-02 -8.96821395e-02 -1.49886325e-01
  1.07911400e-01 -7.34480098e-02  2.55802929e-01 -4.18812670e-02
 -1.76445857e-01 -1.70824215e-01 -3.71267460e-02  1.85008213e-01
 -1.80146664e-01 -1.57359719e-01 -9.24575329e-03  1.53503688e-02
  9.07720849e-02 -1.51462080e-02  1.28024993e-02  3.24057415e-03
 -6.74793795e-02 -3.83856922e-01 -9.56432000e-02 -6.11381643e-02
  2.66546663e-02 -3.95187885e-02 -9.47973579e-02  3.04770600e-02
 -1.99234590e-01 -1.06701665e-01  4.95448522e-02  1.53057545e-01
 -5.15935011e-02 -3.10673621e-02  1.23012938e-01 -4.06347075e-03
 -2.16010079e-01  7.92944357e-02  5.00743762e-02  2.52880514e-01
  2.12525845e-01  8.11033025e-02  6.97982833e-02 -1.59294277e-01
  1.30567029e-01 -1.02866463e-01  7.14975670e-02  1.43244997e-01
  1.26750872e-01  7.57264271e-02  8.71135853e-03 -1.55774474e-01
  1.59013998e-02  1.00926757e-01 -1.35674194e-01 -2.11212644e-03
  9.74742249e-02 -6.45519271e-02 -1.86203159e-02 -9.13036689e-02
  2.32074693e-01  8.40618387e-02 -1.20751895e-01 -1.96965009e-01
  1.31555244e-01 -1.05076604e-01 -1.07855283e-01  3.48191522e-02
 -1.65892512e-01 -1.50833622e-01 -3.11787337e-01  3.96414399e-02
  3.92341197e-01  8.08764026e-02 -2.11424112e-01  2.63369735e-02
 -1.85819268e-02 -2.16981032e-04  1.26368046e-01  1.95610747e-01
 -1.13271624e-02  6.47377595e-02 -8.73054489e-02 -2.46739760e-02
  2.07842663e-01 -6.75750673e-02 -4.72131297e-02  1.90570340e-01
 -1.38330190e-02  1.44134805e-01  3.54536138e-02  3.19531746e-02
 -4.93012071e-02  9.30903032e-02 -1.42065510e-01 -1.86192002e-02
 -1.10985117e-03 -6.06341027e-02 -2.86249351e-02  1.01329163e-01
 -1.18645310e-01  1.24636866e-01  1.13336295e-02  1.10482849e-01
 -2.36079060e-02 -2.92757098e-02 -6.17566109e-02 -5.73547781e-02
  1.07571162e-01 -2.44890884e-01  2.48704866e-01  2.14840397e-01
  5.81120066e-02  1.16199791e-01  1.68729097e-01  7.40683600e-02
  4.39688228e-02 -4.50415313e-02 -2.19397783e-01 -2.02096570e-02
  8.15009102e-02 -2.81307232e-02  8.19736868e-02  3.15114371e-02]