[-0.19393398  0.10305112  0.08302142 -0.06085267 -0.07200199 -0.09407341
  0.04443572 -0.08411422  0.09617049  0.02798027  0.24380906 -0.08608346
 -0.24351814 -0.04399807 -0.00640458  0.15666555 -0.17352566 -0.04171453
 -0.04881157 -0.07798149  0.08919461 -0.02892964  0.07068548  0.05246993
 -0.14758037 -0.27625394 -0.07531387 -0.11211162 -0.01783603 -0.05568151
 -0.00171846  0.0684047  -0.16823284 -0.08912699  0.01495358  0.04144168
 -0.05242376 -0.07140679  0.15493402  0.01830054 -0.13051049  0.0356164
  0.05372728  0.29132527  0.16566899  0.02329274  0.04566788 -0.05627041
  0.05355034 -0.18946467  0.05335794  0.08300327  0.09492865  0.03327509
  0.08988556 -0.16691008  0.06137973  0.07535769 -0.16786416  0.04564978
  0.12882839 -0.0157432   0.01785369 -0.06205981  0.17418054  0.09714808
 -0.11946744 -0.06944498  0.08875945 -0.03611369 -0.01049955  0.04885746
 -0.16040383 -0.19277327 -0.25367025  0.07411808  0.31615496  0.10874575
 -0.20698373 -0.07689824 -0.08205064  0.0343106   0.11149389  0.04207643
 -0.07571222 -0.02788417 -0.14136522  0.00228401  0.12366654 -0.04599146
 -0.06518132  0.22414899  0.03352463 -0.05285474  0.01605653  0.03869768
 -0.13970758  0.03969678 -0.13913003 -0.00681163  0.02040221 -0.12186773
 -0.03945021  0.10021988 -0.18306313  0.08091747  0.01472268 -0.01757709
 -0.12436058 -0.01894441 -0.13243107  0.02222093  0.07284527 -0.21128781
  0.17270653  0.21630549  0.02384591  0.10261091  0.07605128  0.00189829
 -0.00728592  0.02860277 -0.08019821 -0.03558854  0.08916309  0.01422212
  0.05582047  0.03144755]