[-0.09253743  0.11567416  0.06615152  0.00725615  0.04776933 -0.08395123
  0.05935505 -0.1459835   0.13636111 -0.02944666  0.30958539 -0.03364697
 -0.23585372 -0.15100051  0.04794045  0.15196741 -0.15035912 -0.03136149
 -0.15657221 -0.02116029 -0.01189999  0.01129143  0.11184175  0.07639163
 -0.04483302 -0.32476327 -0.09771544 -0.12473382  0.05893392 -0.04944817
 -0.02130118  0.05122948 -0.16406994 -0.09794452  0.02069542 -0.00712634
 -0.02532247 -0.04505855  0.24215047  0.04422613 -0.16214575 -0.01123996
 -0.00400437  0.24443702  0.26655087  0.0067701  -0.0024458  -0.06136158
  0.04863027 -0.25050566 -0.00196734  0.1035377   0.0649668   0.01505827
  0.04609713 -0.14774781 -0.0434467   0.07590266 -0.17899583 -0.01839347
 -0.00138761 -0.11025693 -0.08144839  0.0090849   0.17604354  0.154687
 -0.10934126 -0.07110228  0.17251198 -0.13390456  0.02311707  0.06194278
 -0.15835427 -0.1460245  -0.28387278  0.01703908  0.39845967  0.07418982
 -0.16958804 -0.00996915 -0.15361294  0.03096907  0.07166908  0.0478058
 -0.06943874 -0.05773277 -0.04957061  0.02422236  0.10569618 -0.02907977
 -0.05493338  0.22971626 -0.06230208  0.03238238  0.04350572 -0.03241429
  0.00539674 -0.04839427 -0.146557   -0.02894923  0.03819728 -0.06793749
  0.05891054  0.09550598 -0.21350585  0.04149403  0.06455462 -0.01119631
  0.10552086  0.01502532 -0.07850921 -0.03510659  0.143252   -0.21716471
  0.23992912  0.18545191 -0.0477741   0.0809951   0.04126886  0.06935448
 -0.04099476 -0.01192706 -0.11037973 -0.01754631  0.07298194  0.03310713
  0.06220008 -0.04850626]