[-6.82832599e-02  1.67263538e-01  4.14229594e-02 -4.56180423e-02
 -1.04789376e-01 -1.74739622e-02 -8.72112364e-02 -1.40789643e-01
  1.19652785e-01 -7.55207911e-02  2.46541306e-01 -2.26800982e-02
 -1.80903941e-01 -1.60892874e-01 -2.15827804e-02  1.54202834e-01
 -1.83462411e-01 -1.65369242e-01 -4.54645371e-03  7.76330149e-03
  8.86371061e-02 -1.15722623e-02  6.02034060e-03  1.50393101e-03
 -9.01053026e-02 -3.64512533e-01 -8.15890282e-02 -4.68700193e-02
  6.95310012e-02 -6.83735237e-02 -1.25808999e-01  6.53606281e-02
 -1.98953316e-01 -9.48199853e-02  3.32228057e-02  1.52528077e-01
 -5.99135421e-02 -2.17124708e-02  1.17253594e-01 -1.64192934e-02
 -2.30483890e-01  7.87649080e-02  1.82867050e-03  2.40176156e-01
  2.47818515e-01  5.68023399e-02  3.55858020e-02 -1.56673715e-01
  1.12793140e-01 -1.64835960e-01  7.49827847e-02  1.59015328e-01
  7.91286677e-02  7.78206810e-02  3.49795679e-03 -1.71491593e-01
 -1.45562952e-02  8.14463124e-02 -1.41587764e-01 -3.02149518e-03
  6.55412301e-02 -1.20034568e-01  9.05674975e-03 -9.20600891e-02
  2.01152906e-01  1.01386487e-01 -8.24706182e-02 -2.01098114e-01
  1.46983415e-01 -1.46037579e-01 -9.85453576e-02  5.62163293e-02
 -1.14925086e-01 -1.63447306e-01 -3.09732288e-01  5.06557114e-02
  3.84605706e-01  1.21295094e-01 -1.99586406e-01  6.33539855e-02
 -6.55687694e-03 -2.75156945e-02  1.43835977e-01  1.73388645e-01
 -2.08933838e-02  6.04285263e-02 -1.11568384e-01  5.45898103e-04
  2.22096398e-01 -7.03205690e-02 -4.66911905e-02  2.12439343e-01
 -2.30779760e-02  1.73298597e-01  8.17994103e-02  4.72698919e-02
 -4.25874963e-02  8.23335350e-02 -1.58008084e-01 -1.52799664e-02
  1.62949078e-02 -8.19567442e-02 -2.46217810e-02  1.24282315e-01
 -7.61551932e-02  1.30147412e-01 -2.30728285e-04  9.98160765e-02
 -2.31140256e-02 -5.54668307e-02 -4.11347002e-02 -5.54484688e-02
  1.18330777e-01 -2.48786911e-01  2.67691702e-01  1.93436787e-01
  6.01607151e-02  1.38173968e-01  1.54583007e-01  6.52232990e-02
  3.78330946e-02 -7.98838511e-02 -2.13142276e-01 -9.00574028e-04
  8.48419964e-02 -3.42667997e-02  6.69356883e-02  4.22698520e-02]