[-0.12998298  0.15116583  0.05430621 -0.05463576 -0.00473453 -0.09834404
  0.01083906 -0.17893027  0.1584412  -0.0710389   0.29655245 -0.03074553
 -0.20308088 -0.17510089 -0.0071533   0.15696706 -0.19541851 -0.12837139
 -0.02477341  0.01183627  0.03388966 -0.00383455  0.05390038  0.07501735
 -0.04173061 -0.31355903 -0.10445543 -0.17547257  0.10878097 -0.0223685
 -0.06132629 -0.02307696 -0.19102275 -0.06527321 -0.02382115  0.05781385
 -0.01483768 -0.04083342  0.18735377 -0.03228146 -0.21842837 -0.07470625
  0.00378903  0.23224273  0.19624102  0.01346257  0.07192986 -0.14875786
  0.07428879 -0.09810393  0.04173222  0.08433294  0.13764174  0.03777569
 -0.01397246 -0.22987032 -0.00459338  0.04783596 -0.16904753 -0.0082856
  0.05732405 -0.03490988 -0.028984    0.00277866  0.27554283  0.03962266
 -0.13212311 -0.14965004  0.17624676 -0.16786852 -0.0178964   0.10880914
 -0.14080857 -0.16504948 -0.29653725  0.01747977  0.38326421  0.06384116
 -0.1562573   0.04704817 -0.14772047 -0.03863388  0.08891566  0.14308748
 -0.04207462  0.07805363 -0.14182483 -0.01559238  0.17831242 -0.09959459
 -0.01090004  0.17099401 -0.04741659  0.08069348 -0.01117312  0.01759801
 -0.0507696   0.08507498 -0.08233199 -0.0036671   0.02526976 -0.0391676
 -0.01286153  0.0830189  -0.17392048  0.09274604  0.07390516  0.01901347
 -0.01131538 -0.04108531 -0.07381291 -0.08785444  0.15159161 -0.22014475
  0.24160635  0.17865549  0.05252823  0.14573817  0.09316115  0.07234312
 -0.00890368 -0.07077595 -0.19968639  0.02880757  0.09605321 -0.05777451
  0.10609256  0.01251167]