[-0.15468661  0.06516863  0.05630493 -0.06973126 -0.08022445 -0.11616462
  0.04935195 -0.04798251  0.10729088  0.06463967  0.16617264 -0.093945
 -0.22430931 -0.02074609 -0.0280526   0.08632945 -0.14076659 -0.05548129
 -0.07292004 -0.15135542  0.03407725  0.0180043   0.06210766  0.05642391
 -0.14530607 -0.26129666 -0.05857904 -0.10421643  0.01775743 -0.09600985
  0.01677113  0.08875217 -0.19170696 -0.10234878 -0.01813365  0.06843118
 -0.04813026 -0.09562158  0.17513166  0.03297172 -0.09783888  0.01811314
  0.05223581  0.29627484  0.21150652  0.01804388  0.02668191 -0.0352209
  0.12143856 -0.2394743   0.08429688  0.10913491  0.08715292  0.01815402
  0.1144307  -0.12583448  0.03561459  0.0986211  -0.11718442  0.0737614
  0.11454652 -0.02808674  0.00686477 -0.10468292  0.15094094  0.05612332
 -0.08370759 -0.04562619  0.10226383 -0.07811775 -0.05241169  0.05516743
 -0.09695008 -0.14220837 -0.28312349  0.12173688  0.33669215  0.11286218
 -0.17597835 -0.0203596  -0.09343233  0.02984928  0.1028839   0.0067377
 -0.10566922 -0.06646534 -0.17662722 -0.00775298  0.16210884 -0.01934904
 -0.07832148  0.16208313  0.01037327 -0.00321313  0.02505837  0.06614833
 -0.17988782  0.0511973  -0.09830166  0.02646794  0.11008646 -0.13556688
 -0.04684199  0.11564429 -0.16592218  0.10652331 -0.00939371 -0.02654566
 -0.06214911 -0.02974466 -0.11023477  0.02489461  0.10239811 -0.22111392
  0.16011707  0.16406004 -0.03430685  0.13293032  0.06668936  0.04954331
 -0.02690082  0.05013597 -0.0907109  -0.08033025  0.06370609  0.0443902
  0.02447758  0.07438449]