[-9.47663710e-02  1.31875277e-01  3.07513811e-02 -8.09989497e-02
 -6.86516762e-02 -1.19641983e-04 -1.12675779e-01 -1.39955983e-01
  9.71557125e-02 -1.04477547e-01  2.26844773e-01 -2.53585186e-02
 -1.84033439e-01 -1.50684670e-01 -6.56304089e-03  1.82282671e-01
 -1.90680608e-01 -1.81212649e-01 -2.86486745e-02  9.22826398e-03
  4.76953946e-02 -3.70011404e-02 -5.84484485e-04  5.05664211e-04
 -8.83737803e-02 -3.58218789e-01 -1.13459542e-01 -4.16995287e-02
  4.57838923e-03 -1.49597675e-02 -9.70374122e-02  4.16795127e-02
 -1.90724745e-01 -6.59418330e-02  4.40528356e-02  1.54157639e-01
 -3.16727050e-02 -4.63866703e-02  1.52347460e-01 -1.30658317e-02
 -2.24313408e-01  8.79323408e-02  3.40076648e-02  2.41366491e-01
  2.10100442e-01  4.18349802e-02  5.83268814e-02 -1.36269882e-01
  1.29308447e-01 -1.23604439e-01  8.35239738e-02  1.66957781e-01
  1.02426782e-01  8.84518027e-02  5.21666789e-03 -1.72084346e-01
  4.02256437e-02  9.51783210e-02 -1.20073460e-01 -2.51771510e-02
  7.38421082e-02 -8.13034549e-02  3.62574938e-03 -9.93948877e-02
  2.02446580e-01  1.18267849e-01 -1.07164793e-01 -2.39209414e-01
  1.29712880e-01 -1.03872836e-01 -8.63716230e-02  4.19708900e-02
 -1.77835286e-01 -1.62720755e-01 -3.31943899e-01  3.96497212e-02
  3.44168872e-01  1.13506198e-01 -2.05802441e-01  5.70077896e-02
 -5.31579182e-03 -1.70927830e-02  1.35915831e-01  1.86002910e-01
 -2.01917440e-02  7.05446824e-02 -8.51442367e-02 -1.11039924e-02
  2.22974062e-01 -4.33333181e-02 -6.88147917e-02  1.77223504e-01
 -1.02283992e-02  1.23611741e-01  6.62216172e-02  5.82760274e-02
 -2.44292505e-02  6.72116801e-02 -1.45251110e-01  2.38961559e-02
  9.03918687e-03 -7.58027360e-02 -3.28530706e-02  1.13904417e-01
 -1.05393089e-01  1.33912936e-01 -3.29160551e-03  1.08173862e-01
 -4.93524373e-02 -1.06480131e-02 -6.28751293e-02 -4.37593982e-02
  1.14235558e-01 -2.52550811e-01  2.29305431e-01  2.11025998e-01
  4.35529761e-02  1.19328082e-01  1.70443252e-01  9.47624445e-02
  2.45123333e-03 -3.20839845e-02 -2.31409714e-01 -2.99710315e-02
  6.72049969e-02  9.04988404e-03  9.12629142e-02  6.79604113e-02]