[-0.09710099  0.11700165  0.02550699 -0.02887862  0.04812383 -0.12108462
  0.02431372 -0.20332332  0.16174045 -0.06281888  0.28050369 -0.0056437
 -0.16933207 -0.16039525  0.00652753  0.10645658 -0.18695377 -0.11131587
 -0.04061956 -0.03430161  0.02214174 -0.00144048  0.07282221  0.05577976
 -0.09134832 -0.28484154 -0.11911631 -0.15893488  0.1201904  -0.004323
 -0.00895876  0.04733277 -0.22366543 -0.06759948  0.00144448  0.05307452
  0.00695752 -0.04168269  0.19350581  0.02350206 -0.17032015 -0.08240628
 -0.03186069  0.26800773  0.1710818  -0.01221595  0.06975164 -0.12865207
  0.09856807 -0.12181604  0.02955214  0.08681547  0.11284323  0.04242047
 -0.00473257 -0.20738077  0.03171916  0.04808716 -0.19209652 -0.02563133
  0.02354835 -0.03900642 -0.03164286  0.02792874  0.25990924  0.06278186
 -0.12229858 -0.0899616   0.1776154  -0.12278259  0.02064057  0.10067292
 -0.12609701 -0.15511903 -0.29241976  0.0183051   0.42239341  0.02763054
 -0.15560204  0.05735987 -0.18437894 -0.0253801   0.10113692  0.10689793
 -0.07052697  0.0802782  -0.11362157  0.00242657  0.18408035 -0.07133088
 -0.05205831  0.15987502 -0.05968341  0.04431162  0.030737    0.03307728
 -0.06143527  0.0378492  -0.07999688 -0.01932972  0.03445771 -0.05898279
 -0.02841314  0.09280634 -0.21028225  0.11517876  0.10314161 -0.01988622
  0.01522826 -0.05159468 -0.05906328 -0.08032861  0.11252715 -0.27622807
  0.22449318  0.15906291 -0.0034333   0.18998162  0.03113719  0.06842018
 -0.0478546  -0.05927135 -0.13991697 -0.01613848  0.08533204  0.00744208
  0.0616457  -0.02815322]