[-1.11078896e-01  9.50417519e-02  5.77735677e-02  2.26735114e-03
 -2.19350886e-02 -3.95041034e-02  3.66064124e-02 -1.38329744e-01
  1.70827419e-01 -5.53439669e-02  2.99758971e-01 -1.18934512e-02
 -2.57275879e-01 -1.46222219e-01  2.09820624e-02  1.42529473e-01
 -2.29234383e-01 -1.01546220e-01 -2.94682682e-02 -3.28662805e-02
  1.61750149e-02  1.49801644e-02  4.83925082e-02  3.80969532e-02
 -7.05293566e-02 -3.62100184e-01 -8.30454603e-02 -1.44026518e-01
  1.03411555e-01 -2.72186082e-02 -2.29976010e-02  4.58154865e-02
 -1.91409126e-01 -8.89435783e-02 -3.84019309e-04  4.40474302e-02
 -2.17238311e-02 -1.85335204e-02  1.95846602e-01  7.46088102e-03
 -1.79592356e-01 -1.00672178e-01 -9.99233220e-03  2.59623975e-01
  1.96239576e-01  2.06136443e-02  3.14356796e-02 -9.39736292e-02
 -1.67158898e-02 -1.86914116e-01  2.43809596e-02  1.55130014e-01
  1.15863740e-01  4.85455208e-02 -2.24177185e-02 -2.03027084e-01
 -2.87479162e-02  3.36657576e-02 -1.78199530e-01 -3.40713300e-02
  6.16262257e-02 -2.65853163e-02 -6.58977404e-03  3.08252573e-02
  2.75072783e-01  4.16021794e-02 -1.43331081e-01 -9.02243555e-02
  1.35080412e-01 -1.45758584e-01 -1.06232157e-02  5.41474819e-02
 -1.37733102e-01 -1.87681809e-01 -2.81224281e-01  2.54129954e-02
  4.18462962e-01  4.22355421e-02 -1.76368520e-01  2.01789495e-02
 -1.87389642e-01 -5.27599268e-02  1.01732664e-01  9.25138518e-02
 -4.04930077e-02  3.08098346e-02 -9.58908126e-02  1.58759486e-02
  1.23533383e-01 -6.14876859e-02 -2.49146540e-02  1.86883599e-01
 -3.88935022e-02  1.73563492e-02  5.64583726e-02  5.29293232e-02
 -1.83707830e-02  4.86938655e-02 -1.08348824e-01 -2.90729702e-02
  3.36043648e-02 -7.22289234e-02  2.20154654e-02  8.72343332e-02
 -2.00701699e-01  1.28006965e-01  8.59795511e-02 -1.64811052e-02
  5.75487725e-02 -5.35504706e-02 -1.01260237e-01 -8.20278898e-02
  1.89693734e-01 -2.67447442e-01  2.22407535e-01  1.95674047e-01
 -1.61364805e-02  1.84937000e-01  5.27315810e-02  9.36925486e-02
 -5.05286455e-02 -6.21549264e-02 -1.54338524e-01 -5.30004501e-04
  5.07022142e-02 -3.84574533e-02  7.45848417e-02 -1.58057269e-02]