[-1.45621181e-01  1.11519568e-01  8.99018273e-02 -4.40234207e-02
 -9.60289761e-02 -8.57114121e-02  1.32181896e-02 -6.82396665e-02
  6.76741078e-02  3.72489356e-02  2.54262596e-01 -9.01003629e-02
 -1.85492158e-01 -6.05590753e-02 -5.12923896e-02  1.39817268e-01
 -1.73519716e-01 -5.00833951e-02 -6.00373633e-02 -5.73484004e-02
  1.31451771e-01 -2.86082420e-02  4.95340191e-02  3.86952013e-02
 -1.46608979e-01 -2.67145365e-01 -5.40384650e-02 -1.08916581e-01
  7.33586401e-03 -6.92301393e-02 -1.67287998e-02  5.88679798e-02
 -1.84055313e-01 -1.00801133e-01 -5.09611377e-03  5.25536314e-02
 -2.12814957e-02 -6.10258467e-02  1.55784786e-01  1.64545607e-02
 -1.53647125e-01  9.75037068e-02  6.05825968e-02  2.88388222e-01
  2.18894958e-01  1.73179414e-02  4.03732657e-02 -3.79086211e-02
  7.99102709e-02 -2.23508433e-01  7.75621086e-02  9.60813090e-02
  1.37170702e-01  2.88951378e-02  1.02631345e-01 -1.41112998e-01
  6.57231687e-03  9.39355642e-02 -1.47199377e-01  4.23220992e-02
  9.64879617e-02  2.11659055e-02  4.07758169e-02 -1.01745687e-01
  1.44588634e-01  1.17597677e-01 -8.55097398e-02 -9.31189954e-02
  9.25336555e-02 -5.78483231e-02 -3.78921367e-02  6.75216466e-02
 -1.48787737e-01 -1.50291726e-01 -2.60484785e-01  6.05444796e-02
  3.00547272e-01  9.50248241e-02 -2.21268937e-01 -7.22416416e-02
 -8.95744264e-02  2.24007498e-02  8.93665850e-02 -7.02009490e-03
 -3.52929644e-02 -1.60623640e-02 -1.43757224e-01  4.27159620e-03
  1.60450697e-01 -7.15697631e-02 -4.76975329e-02  2.27885798e-01
  2.86967903e-02 -6.92752227e-02  1.24003049e-02  3.29008885e-02
 -1.25726834e-01  5.67019843e-02 -1.50857151e-01 -5.36054326e-03
  1.04576768e-02 -1.02554202e-01 -4.42807712e-02  9.13540572e-02
 -1.92291871e-01  5.05816303e-02 -1.73058826e-02 -3.23761301e-03
 -1.19434312e-01 -4.76549342e-02 -1.27388120e-01  4.41884436e-02
  1.09844565e-01 -1.90065965e-01  1.86285406e-01  1.88835070e-01
  3.64192692e-03  7.00732097e-02  8.65886956e-02 -1.58986449e-02
  8.82792461e-04 -2.35156724e-04 -8.65663886e-02 -4.09147553e-02
  7.17536062e-02 -4.71757352e-03  3.01020890e-02  3.95251326e-02]