[-1.18039429e-01  1.37723669e-01  4.49520685e-02  2.31710318e-02
  2.47244146e-02 -7.63287917e-02  6.69636428e-02 -1.82281598e-01
  1.66839048e-01 -7.49662369e-02  3.36396337e-01 -3.03361099e-02
 -2.16963202e-01 -1.35899484e-01 -7.95111246e-03  1.35764584e-01
 -2.15170249e-01 -1.21847726e-01 -2.88339686e-02 -1.52630983e-02
  2.21431460e-02 -2.66884151e-03  2.76414435e-02  5.11178672e-02
 -4.44807075e-02 -2.72324711e-01 -1.03560962e-01 -1.47132367e-01
  1.38844565e-01 -3.50562818e-02 -1.09301507e-01  5.93828820e-02
 -1.66189358e-01 -1.03246048e-01 -5.97702805e-03  2.09997036e-02
 -1.52246235e-02 -4.29487638e-02  1.97581261e-01 -2.97526717e-02
 -1.44979775e-01 -7.02606440e-02  1.94135047e-02  2.84967691e-01
  1.91376165e-01 -2.04576831e-02 -3.22842970e-04 -7.31868371e-02
  6.89831600e-02 -1.39298111e-01  7.73220882e-03  8.99980515e-02
  1.99035108e-01  8.98238048e-02 -2.62507778e-02 -1.95830777e-01
 -3.12057324e-02  3.12341843e-02 -1.89757019e-01  1.36857880e-02
  3.81490402e-02 -9.78232771e-02 -4.17921683e-06 -1.71025991e-02
  2.45163962e-01  6.53834864e-02 -9.22868252e-02 -1.41655058e-01
  1.86165318e-01 -1.60173997e-01 -4.93713096e-02  6.52360693e-02
 -1.31496549e-01 -1.43128321e-01 -2.82172143e-01 -3.19096562e-03
  3.03630203e-01  6.07476830e-02 -1.22029163e-01  6.45671412e-02
 -1.34481192e-01 -7.01403394e-02  2.41044741e-02  7.55109638e-02
 -6.54249415e-02  6.98402748e-02 -1.24245584e-01 -2.77635511e-02
  1.91740394e-01 -6.20509200e-02 -5.19501567e-02  1.86679795e-01
 -7.44723678e-02  1.51351783e-02  5.91020361e-02  1.43956486e-02
 -1.28255934e-02  2.00811978e-02 -1.16408370e-01 -1.00707784e-02
 -1.82158761e-02 -1.34431407e-01 -1.82475485e-02  9.21422616e-02
 -2.01730639e-01  8.69916007e-02  4.82338034e-02  5.24703935e-02
  2.01500999e-03 -4.99716103e-02 -9.57850665e-02 -3.66820656e-02
  1.55101061e-01 -2.59951562e-01  2.36902073e-01  1.54802829e-01
  6.15717173e-02  1.33665577e-01  2.10212413e-02  3.65656279e-02
 -4.06399556e-02 -5.64951189e-02 -1.64270297e-01 -4.09276970e-02
  9.77983922e-02 -4.43029106e-02  7.36004114e-02  4.23752926e-02]