[-0.04958408  0.10469866 -0.00863027 -0.0293048   0.00525469 -0.06234494
  0.05777842 -0.18242078  0.20144205 -0.10061506  0.25054029 -0.04899313
 -0.22478668 -0.09106755 -0.02215727  0.08749338 -0.20808139 -0.11562188
 -0.04613783  0.00050179  0.01470804 -0.01788581  0.08006974  0.06088893
 -0.06722663 -0.3094202  -0.12010119 -0.12228792  0.14274041 -0.0605486
 -0.04889783  0.05292193 -0.16375037 -0.08814311  0.00241466  0.05607856
 -0.071523   -0.08245908  0.20367765  0.00160439 -0.16631316 -0.06090053
 -0.03875159  0.32471424  0.20259432 -0.01156097  0.04828845 -0.12146648
  0.11152627 -0.17224747  0.01414982  0.10284659  0.13124821  0.08139317
 -0.00438993 -0.15869653  0.03111406  0.12353756 -0.18730505  0.02694066
  0.0870555  -0.06458008  0.02692949  0.02050136  0.2284141   0.07058774
 -0.11853462 -0.11881837  0.14331038 -0.18467309 -0.01902141  0.06684279
 -0.11204375 -0.17497745 -0.23353426 -0.02551983  0.35025626  0.09426794
 -0.1049508   0.01863372 -0.12361655 -0.01071629  0.10287908  0.12186792
 -0.08725091  0.0395909  -0.13542701  0.0061604   0.18926725 -0.06982448
 -0.06055211  0.17143336 -0.04838334  0.00957847  0.04781519  0.03889503
 -0.09604319  0.07227793 -0.11289692 -0.00199569  0.02137473 -0.08495593
 -0.00710314  0.09941296 -0.18067549  0.17784517  0.02843078  0.02116911
  0.03764614 -0.10820291 -0.04593132 -0.01955274  0.1394396  -0.28276941
  0.19522646  0.17070441  0.0509191   0.16106367  0.00794236  0.03085259
 -0.01812058 -0.04258281 -0.1825434  -0.02173769  0.05216711  0.00396282
  0.06348155 -0.03885138]