[-9.09036025e-02  1.14063121e-01  2.43973769e-02 -4.04267795e-02
 -2.77305543e-02 -3.49860489e-02  2.09111553e-02 -1.33832768e-01
  1.68356389e-01 -6.03511594e-02  2.91357398e-01  8.52541812e-03
 -2.61288255e-01 -1.74628809e-01  1.72168110e-02  1.50643393e-01
 -2.06190690e-01 -1.89267710e-01 -2.33620536e-02 -6.18613176e-02
  4.82189050e-03  2.56330110e-02  2.98046172e-02  6.04047589e-02
 -1.31385610e-01 -3.29441965e-01 -7.02411011e-02 -1.72037110e-01
  6.06797747e-02 -6.63780198e-02 -1.99394412e-02  5.69740906e-02
 -1.67645857e-01 -2.61089299e-02  3.59968282e-02  6.41462877e-02
 -2.82818228e-02 -2.84712799e-02  2.08379343e-01  1.51076382e-02
 -2.00677425e-01 -7.77017623e-02  1.77591424e-02  2.61558115e-01
  1.86759070e-01 -2.78346725e-02  4.23940010e-02 -9.34637189e-02
  3.70406471e-02 -1.51263714e-01  4.19770479e-02  1.56117171e-01
  1.19911574e-01  6.77591190e-02 -1.84901548e-03 -1.94103763e-01
 -5.88412993e-02  7.31745958e-02 -1.75930336e-01 -1.86849125e-02
  3.34750079e-02 -8.18514973e-02 -6.45410046e-02 -4.48882692e-02
  2.26775274e-01  6.08490072e-02 -1.60513029e-01 -1.37017861e-01
  1.43843532e-01 -1.76624939e-01 -7.81399384e-02  8.53895470e-02
 -1.23377837e-01 -1.59556821e-01 -2.67549217e-01  1.29552726e-02
  3.76354873e-01  6.21559136e-02 -1.73264772e-01  4.53678742e-02
 -1.10677354e-01 -4.97275107e-02  5.73928356e-02  1.16187766e-01
 -4.58730869e-02  5.48451543e-02 -8.11809152e-02 -1.47441038e-04
  1.55773804e-01 -4.17917073e-02 -2.53438987e-02  1.60865098e-01
 -6.90239593e-02  7.80701563e-02  5.15191071e-02  3.78945731e-02
 -2.00884733e-02  3.98847647e-02 -7.69936591e-02 -9.14156437e-03
 -2.94057038e-02 -9.37478319e-02 -6.70977635e-03  4.90035005e-02
 -1.55359194e-01  1.24540843e-01  8.83620083e-02  1.05410479e-02
  3.14464956e-03  4.17575613e-03 -7.27202594e-02 -7.58724362e-02
  1.61025792e-01 -2.98290402e-01  2.49285743e-01  1.84138328e-01
  1.36514725e-02  1.69877440e-01  6.81524947e-02  7.61922151e-02
 -4.92609665e-02 -8.61075297e-02 -1.74100265e-01 -2.31823120e-02
  6.00540824e-02 -4.28730994e-02  8.06321502e-02 -1.30548449e-02]