[-0.08703766  0.13551103  0.06876965 -0.00552373  0.01876004 -0.1020859
  0.0548468  -0.12239712  0.129492   -0.01679142  0.30584979 -0.04429843
 -0.22894982 -0.12799159  0.01845008  0.13798939 -0.14864175 -0.02313671
 -0.1402047  -0.03194408  0.0061241   0.01903195  0.0971714   0.08620209
 -0.0355657  -0.33054748 -0.07112267 -0.12718338  0.06924586 -0.07900223
 -0.022902    0.05766571 -0.13973056 -0.09345175  0.02413483  0.00094123
 -0.02375854 -0.05971347  0.22233498  0.03712687 -0.14052534 -0.05231683
 -0.0097597   0.25629127  0.28476319 -0.00520903  0.01178429 -0.06659307
  0.0606706  -0.26414105 -0.02010426  0.0919217   0.05847261  0.033687
  0.06584343 -0.16435127 -0.02602506  0.07128699 -0.17565517 -0.04219056
 -0.01545549 -0.09414514 -0.07899888 -0.00105075  0.21099333  0.13585155
 -0.12844539 -0.05398001  0.15074597 -0.14336197  0.01057044  0.04753261
 -0.1363055  -0.12850048 -0.27012381  0.01933063  0.38212797  0.07893512
 -0.18906753 -0.00506571 -0.14827731  0.03327311  0.07763513  0.04119242
 -0.09038346 -0.04764224 -0.06285443  0.00910498  0.09050222 -0.03444539
 -0.05308065  0.20488413 -0.07667883  0.03832813  0.06225299 -0.01188335
 -0.02949556 -0.02220953 -0.12370002 -0.01564192  0.06007596 -0.09315111
  0.03712486  0.09419379 -0.22482815  0.05626009  0.04204538 -0.00855987
  0.09151385 -0.03122778 -0.07557499 -0.00995874  0.15112393 -0.23438993
  0.24256539  0.18096432 -0.05333481  0.11412109  0.03634846  0.04904114
 -0.0373868  -0.01612591 -0.09032188 -0.01798059  0.06753444  0.0103178
  0.03815257 -0.06841782]