[-0.12337158  0.11711168  0.05177181 -0.00938652 -0.01468016 -0.043766
  0.02648576 -0.15403688  0.18444385 -0.08665138  0.31795189 -0.02181423
 -0.20067194 -0.16532128  0.0644338   0.14063023 -0.22918084 -0.11848082
 -0.00678968 -0.03128969  0.00513872  0.01493138  0.05036501  0.04844446
 -0.07474595 -0.37731996 -0.10541143 -0.15534715  0.16796778 -0.02126144
 -0.06517091  0.03981879 -0.21214865 -0.09229025  0.00601258  0.03223352
 -0.01967669 -0.02552422  0.20880044  0.0212528  -0.16475816 -0.11543094
 -0.03851145  0.27348897  0.15172905  0.02528279  0.0568545  -0.09511604
  0.00415774 -0.14243537  0.04729801  0.14058405  0.15162441  0.05296529
 -0.02121194 -0.21289693 -0.00961457 -0.00388855 -0.18616016 -0.01853347
  0.06151465 -0.02386875  0.00052989  0.03017221  0.33103684  0.03862357
 -0.11700924 -0.11204119  0.14377959 -0.10168158 -0.00074336  0.06618088
 -0.14770676 -0.18097042 -0.28063285  0.04427127  0.40401125  0.06687627
 -0.17567925  0.04888424 -0.19883756 -0.06883334  0.09441298  0.11815663
 -0.05942696  0.07214426 -0.08785637  0.03391391  0.13313153 -0.08288542
 -0.03787178  0.1815529  -0.04629949  0.05085415  0.03114328  0.01271975
 -0.02765992  0.04937285 -0.06893175 -0.03683262  0.05524591 -0.03642425
  0.02586692  0.11766434 -0.22417514  0.1384557   0.07986613 -0.0231607
  0.03826018 -0.03262338 -0.09198547 -0.10312904  0.14226638 -0.2911844
  0.22240114  0.1901931   0.00467443  0.20237052  0.04204607  0.07704418
 -0.02898104 -0.05513337 -0.15220711  0.00545661  0.08972032 -0.02748396
  0.07566536  0.00199016]