[-0.12691234  0.11585152  0.05094004 -0.02192176 -0.01097798 -0.032726
  0.03581467 -0.13563226  0.19994755 -0.0796084   0.3091616  -0.02950917
 -0.20423818 -0.16156499  0.05838963  0.14012578 -0.24071856 -0.10455249
 -0.00405733 -0.03965054  0.01914256  0.01727569  0.0427953   0.05483616
 -0.08865916 -0.37240729 -0.10990155 -0.15467775  0.17018656 -0.01897688
 -0.06444061  0.02886832 -0.21262208 -0.09051838 -0.00302578  0.03808678
 -0.02723124 -0.04260076  0.18305841  0.0290514  -0.15004528 -0.10558181
 -0.04250127  0.27126479  0.15466493  0.02426133  0.04965647 -0.07502516
  0.0039946  -0.16023444  0.03772555  0.14161234  0.15302013  0.06448948
 -0.01814322 -0.21640299 -0.00047742  0.00346024 -0.19698596 -0.02178318
  0.0474114  -0.01530277  0.00792781  0.04179351  0.31504998  0.04940432
 -0.12421002 -0.11303911  0.13222755 -0.11043445  0.01345555  0.06071899
 -0.1456544  -0.18718956 -0.27555734  0.05832682  0.39907572  0.07936098
 -0.17104805  0.04449568 -0.20080517 -0.05597422  0.08526865  0.11124893
 -0.06522521  0.07185533 -0.09631511  0.03139585  0.11586529 -0.08507094
 -0.03575901  0.19791415 -0.03943628  0.04510444  0.02687609  0.01056235
 -0.03609931  0.05127937 -0.0531494  -0.0296747   0.05828869 -0.04548725
  0.01861343  0.10904469 -0.22995083  0.15087453  0.08039635 -0.030018
  0.02626919 -0.04091752 -0.09771144 -0.0859642   0.14579418 -0.30052438
  0.21431158  0.20379305  0.00602478  0.21399061  0.04140039  0.06694169
 -0.02569316 -0.05198681 -0.13593791  0.00301405  0.0774468  -0.03694827
  0.06076799 -0.00112086]