[-0.14060567  0.11831655  0.09921169 -0.02920092  0.04660048 -0.12334745
  0.07903901 -0.13163185  0.10235744 -0.00292347  0.30559301 -0.06542804
 -0.21564901 -0.15234897  0.04108265  0.16034903 -0.1412015  -0.03314024
 -0.14204256 -0.03507199 -0.00877084  0.0140518   0.09742277  0.09770611
 -0.02259888 -0.31047341 -0.10838991 -0.1315987   0.04430288 -0.05378799
 -0.02228503  0.06499409 -0.14998862 -0.08954974  0.02914732  0.01072613
 -0.00053982 -0.04762317  0.22935899  0.04893611 -0.13795416 -0.03482767
 -0.00273822  0.2574586   0.26825923  0.00726115 -0.00772017 -0.0388087
  0.05260957 -0.22641782  0.00640008  0.08431008  0.08028373  0.01916699
  0.02862513 -0.13669494 -0.03567844  0.06064637 -0.17005599 -0.04679026
 -0.02018704 -0.14234559 -0.10793269 -0.01010404  0.18178521  0.15462223
 -0.11877169 -0.06124749  0.16887192 -0.11767876  0.02351805  0.053848
 -0.16795699 -0.09652421 -0.25262284  0.04349538  0.39027032  0.04954584
 -0.19503939 -0.02318044 -0.16296832  0.0343895   0.04643364  0.06235452
 -0.0850477  -0.0380955  -0.05136701  0.0069721   0.07875375 -0.04726578
 -0.04079271  0.2170683  -0.06533916  0.0461427   0.04500239 -0.04716506
  0.01742525 -0.04274698 -0.10443232 -0.03763763  0.05462349 -0.08266028
  0.03658643  0.09429079 -0.23411763  0.03924764  0.06367295 -0.00655235
  0.09120924  0.00379891 -0.04405331 -0.05506734  0.12905459 -0.20046654
  0.19958185  0.1972084  -0.07879474  0.09007677  0.02249884  0.08703168
 -0.03948503 -0.00797462 -0.08146411 -0.00097652  0.1096577   0.05233658
  0.04150039 -0.05246447]