[-0.22059627  0.09825344  0.06716441 -0.07632389 -0.07927024 -0.07396012
  0.04197866 -0.07398986  0.10919223  0.03187754  0.1890976  -0.08236173
 -0.23952894 -0.03874448 -0.00326642  0.14402153 -0.14512394 -0.07308652
 -0.09488517 -0.13649835  0.02746958  0.02695853  0.01428046  0.05212418
 -0.16999534 -0.23764303 -0.07344671 -0.08634319 -0.01588401 -0.11776882
 -0.00049371  0.08188414 -0.16044748 -0.10373334  0.03184464  0.10511126
 -0.05763862 -0.08720446  0.15529555  0.0105971  -0.09850974  0.0048856
  0.06721346  0.3347958   0.15705866  0.00720947  0.039789   -0.02859704
  0.14051308 -0.22774534  0.01943875  0.09436587  0.0900761   0.03023869
  0.14545609 -0.11697276  0.04796669  0.14147855 -0.14956366  0.09541525
  0.09869617 -0.08250147 -0.00223001 -0.09524448  0.15760061  0.06937744
 -0.11950081 -0.06997515  0.12606283 -0.03060224 -0.05457839  0.06330218
 -0.10996189 -0.18171696 -0.30190259  0.09384301  0.3605729   0.10546742
 -0.1939954  -0.03391026 -0.03079012  0.00906753  0.09281735  0.05790563
 -0.10625678 -0.02649832 -0.15550049  0.03017224  0.18938105 -0.01070686
 -0.04967069  0.17214613  0.02279084 -0.03403437  0.0090205   0.08552056
 -0.15800717  0.01171552 -0.09472313  0.01827012  0.11443824 -0.14269148
 -0.02658349  0.13263236 -0.14292026  0.11493097 -0.0027688  -0.01073686
 -0.1285204  -0.02718845 -0.10300844  0.055923    0.09432945 -0.24438153
  0.14790191  0.19886406 -0.06173189  0.09427007  0.04135255  0.01215573
 -0.00692206  0.04768776 -0.07630338 -0.12057867  0.07487064  0.02756015
  0.0425767   0.04946743]