[-0.08119341  0.10053945  0.02880336 -0.01286275 -0.0256767  -0.03478568
  0.03514339 -0.14858507  0.16777556 -0.06241107  0.30156851  0.02127111
 -0.26637238 -0.16571316  0.03727834  0.14711015 -0.20620959 -0.16107488
 -0.03391617 -0.03845327  0.01804807  0.01489853  0.04655514  0.05080795
 -0.10478025 -0.36541769 -0.09307551 -0.14983587  0.08921543 -0.05402973
 -0.03057122  0.03352595 -0.16096528 -0.03560079  0.01520638  0.02507442
 -0.02416064 -0.05099828  0.19938265  0.01733707 -0.21522184 -0.06922456
 -0.00895174  0.26279896  0.16810624 -0.01195756  0.05900345 -0.10475917
  0.00210668 -0.16415302  0.06787498  0.14658368  0.1212334   0.04619605
 -0.01486064 -0.20130022 -0.06138638  0.07142684 -0.17754203 -0.01236127
  0.05177236 -0.04815035 -0.05499593 -0.02593035  0.24339543  0.08329829
 -0.160569   -0.1197492   0.12613486 -0.15984245 -0.05370941  0.04769638
 -0.14272125 -0.1855538  -0.26587152  0.03798201  0.39243674  0.06131912
 -0.18856905  0.02876115 -0.14613198 -0.0200163   0.08180486  0.11735715
 -0.05423314  0.04211056 -0.09488604  0.01363709  0.13557763 -0.05768753
 -0.02655054  0.19675434 -0.05448947  0.05300615  0.04747268  0.05259393
 -0.02086909  0.05016699 -0.07203325 -0.02120468  0.03010249 -0.07691448
  0.0163074   0.0766555  -0.1819772   0.13324095  0.08790469  0.01045819
  0.07969402 -0.00717668 -0.07448031 -0.11026424  0.15157855 -0.28306767
  0.23719922  0.19820942  0.01805695  0.17621005  0.05405235  0.0930376
 -0.04375809 -0.07732479 -0.18577273  0.01268983  0.07212224 -0.03452997
  0.0546189  -0.01225751]