[-1.14384413e-01  1.40638530e-01  5.86189739e-02  2.72495039e-02
  1.53140128e-02 -8.46941099e-02  6.74861446e-02 -1.85478672e-01
  1.83622435e-01 -7.77431726e-02  3.40891570e-01 -1.42136086e-02
 -2.15120509e-01 -1.38943538e-01 -9.61202383e-03  1.42558530e-01
 -2.18347266e-01 -1.19931854e-01 -3.51542942e-02 -2.11046310e-03
  2.29387172e-02 -7.45633661e-05  4.22426127e-02  5.52372746e-02
 -3.81558649e-02 -2.82746285e-01 -1.03703640e-01 -1.39600232e-01
  1.66553766e-01 -4.75352779e-02 -1.11014128e-01  4.64167781e-02
 -1.78787693e-01 -1.17935792e-01  1.32214208e-03  3.58723812e-02
 -2.05013845e-02 -5.36454879e-02  1.89368710e-01 -2.84865797e-02
 -1.58896223e-01 -5.40956073e-02  2.51075928e-03  2.90786684e-01
  1.96554393e-01 -4.92418278e-03  1.20107131e-02 -9.93573740e-02
  7.81768858e-02 -1.41461462e-01  1.44556733e-02  8.65374953e-02
  1.77615002e-01  7.54084885e-02 -2.41794046e-02 -2.01718688e-01
 -3.68564688e-02  4.53861468e-02 -1.87972873e-01  1.93397924e-02
  6.14512041e-02 -8.23727623e-02  1.36202574e-03 -1.55453412e-02
  2.44217902e-01  6.40493110e-02 -1.00751355e-01 -1.43230736e-01
  1.83034062e-01 -1.72164261e-01 -3.48178335e-02  6.81768656e-02
 -1.28537714e-01 -1.36723146e-01 -2.71119595e-01 -7.55994348e-03
  3.27695191e-01  5.55342250e-02 -1.24659456e-01  5.29596210e-02
 -1.39462218e-01 -4.98506688e-02  3.65685634e-02  9.57512110e-02
 -5.32684997e-02  6.53453991e-02 -1.31009206e-01 -2.93910094e-02
  1.93194956e-01 -5.96011281e-02 -3.62511463e-02  1.96044877e-01
 -6.60713166e-02  1.43184410e-02  5.12754209e-02  7.96300545e-03
 -3.38586867e-02  2.41142567e-02 -1.21166624e-01 -2.24539470e-02
 -2.42451150e-02 -1.07465588e-01 -1.26475636e-02  9.48796272e-02
 -1.86044693e-01  9.19941440e-02  4.70561348e-02  6.04767576e-02
  2.67371535e-02 -5.34899943e-02 -8.93629268e-02 -5.70218451e-02
  1.46696612e-01 -2.53494710e-01  2.49147847e-01  1.57225788e-01
  6.12740330e-02  1.24773443e-01  2.25277394e-02  5.06780855e-02
 -3.10433544e-02 -4.74260524e-02 -1.62448883e-01 -3.00320536e-02
  8.76612216e-02 -5.93950748e-02  7.59180039e-02  1.76848639e-02]