[-0.07792302  0.15902029  0.08864047 -0.03092105 -0.08646627  0.03290435
 -0.05253402 -0.14123993  0.12586455 -0.1031225   0.25155109  0.02289551
 -0.20239162 -0.18635368 -0.04778625  0.18229231 -0.1058191  -0.16869402
 -0.06653213 -0.01244108  0.08479204 -0.00456549  0.00173963 -0.01174853
 -0.12443717 -0.35221353 -0.08451642  0.00745635  0.03272815 -0.05090076
 -0.11634963  0.06407534 -0.19537346 -0.09241954  0.05110551  0.17465563
 -0.02182075 -0.01449108  0.10631832  0.00533889 -0.23304997  0.07501157
  0.05723952  0.27815214  0.23271585  0.03990394  0.04924405 -0.08672561
  0.14159533 -0.18489701  0.06061667  0.13341115  0.13211076  0.09401012
  0.04798583 -0.13432382 -0.00806561  0.14053647 -0.0734889  -0.03378291
  0.04459408 -0.10851927 -0.00444719 -0.08530182  0.18891722  0.06713723
 -0.11544142 -0.15682432  0.13440792 -0.11597049 -0.07031573  0.03482175
 -0.1524304  -0.10358929 -0.34266081  0.05619123  0.4367964   0.13203485
 -0.2100956   0.028433   -0.0368376   0.05070976  0.10815501  0.13776977
 -0.02879913  0.07665482 -0.08892725 -0.00456067  0.22901741 -0.03004549
 -0.03192658  0.21982026  0.02466989  0.12895426  0.04770654  0.02402803
 -0.03269394  0.02365622 -0.14626221 -0.00419434 -0.02426613 -0.0690968
  0.01232948  0.11970674 -0.15629423  0.13579315  0.0152377   0.12952925
  0.02669306  0.01468379 -0.05752061 -0.05722139  0.08117081 -0.26661921
  0.18493818  0.22056894  0.01543366  0.09695693  0.15942447  0.06929132
  0.02954156 -0.04579635 -0.14093049 -0.05917772  0.08506074 -0.07585885
  0.06243565  0.02303517]