[-0.0564505   0.14792596  0.08767919 -0.02471027 -0.08898506 -0.015689
 -0.10612801 -0.14640546  0.09854107 -0.0838498   0.21419893 -0.00262462
 -0.14000176 -0.14077306 -0.01555466  0.15532808 -0.16081944 -0.18073098
 -0.04174558 -0.00919676  0.04981027  0.01133072 -0.01058182 -0.01827737
 -0.08240422 -0.36318573 -0.07974607 -0.03873114  0.07823014 -0.02344895
 -0.12014455  0.05992491 -0.17966528 -0.0798079   0.03625618  0.18819048
 -0.07082082 -0.0230773   0.09433173 -0.02022024 -0.23031616  0.09440468
  0.01350005  0.27846703  0.28260973  0.05062081  0.05804392 -0.12048963
  0.10881622 -0.16277058  0.08106185  0.1701017   0.10150273  0.11299926
  0.02020635 -0.15521769 -0.00232101  0.1060477  -0.10465355  0.01208338
  0.08385786 -0.08791941  0.04175954 -0.09008675  0.21657291  0.09275802
 -0.09859323 -0.17038211  0.13314287 -0.14223211 -0.10998338  0.00684668
 -0.15288247 -0.13283239 -0.30898142  0.03954911  0.40764818  0.10044469
 -0.20689403  0.04996679 -0.0141822  -0.01230612  0.1294869   0.15144125
 -0.03036614  0.03794904 -0.10142773 -0.0085459   0.25386739 -0.05155161
 -0.02706728  0.17511651 -0.02297493  0.10084953  0.06797314  0.05351877
 -0.03934031  0.08612017 -0.16046526 -0.02167883 -0.00624884 -0.11117458
 -0.01542626  0.12018331 -0.1147334   0.18782914  0.01953343  0.13864808
  0.01795286 -0.01898438 -0.05677755 -0.04489237  0.16347466 -0.20416561
  0.26512     0.21250458  0.06731104  0.12995315  0.1479473   0.0994058
  0.00437374 -0.04486068 -0.20491309 -0.02059685  0.04067912 -0.03277804
  0.05791238  0.08790001]