[-0.1782252   0.08578881  0.03980216 -0.06371058 -0.13931265 -0.06013937
  0.04381891 -0.07326774  0.10527962  0.04659279  0.14211625 -0.06431997
 -0.24067526 -0.01975043 -0.04417881  0.11655378 -0.1058112  -0.06656986
 -0.09403441 -0.14776318  0.01232865  0.03534981  0.05723781  0.01082394
 -0.16656774 -0.2438509  -0.06737186 -0.0962097   0.02080061 -0.1294293
  0.03345381  0.06070888 -0.19379802 -0.10967592 -0.00386842  0.0561106
 -0.09425689 -0.11086623  0.1771061   0.05570205 -0.11006874  0.020668
  0.06664838  0.29956904  0.17451334  0.00123621  0.05858644 -0.02858474
  0.13869937 -0.23161402  0.05810412  0.09408096  0.09806582  0.02727714
  0.14080134 -0.10139547  0.04936392  0.12781158 -0.136516    0.09725519
  0.12244604 -0.01675824  0.00549984 -0.06694696  0.12461337  0.04095184
 -0.05346635 -0.07901227  0.14302087 -0.07918008 -0.05593894  0.05576174
 -0.0735367  -0.17344162 -0.2753787   0.11616226  0.29863662  0.14911778
 -0.16251172 -0.02999013 -0.06230161  0.01770622  0.06984102  0.00474352
 -0.08126109 -0.0575762  -0.16337961 -0.03311693  0.2027757  -0.04552634
 -0.05101317  0.19300632  0.05926896 -0.06602325  0.02045895  0.06682502
 -0.20962439  0.0213949  -0.08999204 -0.00513911  0.1025242  -0.14445378
 -0.02671181  0.12230339 -0.1607043   0.1384788  -0.03553488 -0.04505772
 -0.1196373  -0.0418077  -0.10990738  0.03036298  0.09968895 -0.20257287
  0.1691609   0.1873949  -0.05553756  0.10847696  0.08569177  0.02269413
  0.00230383  0.06717157 -0.04901915 -0.15354693  0.04655945  0.0229172
 -0.0088837   0.07456314]