[-0.15660509  0.1043786   0.08557426 -0.05287004 -0.09203686 -0.08317783
  0.00636197 -0.06126248  0.0583132   0.03376257  0.25541949 -0.07412177
 -0.18808192 -0.08149213 -0.04108829  0.14517231 -0.16671585 -0.07111008
 -0.04877128 -0.06003346  0.11367601 -0.04112003  0.05152855  0.04663008
 -0.15169418 -0.25549015 -0.04272829 -0.11350635 -0.0173203  -0.0682977
 -0.02434612  0.06249975 -0.18580431 -0.08291322  0.00636745  0.06600755
 -0.01921735 -0.05239629  0.16805005  0.00797674 -0.14645642  0.06792588
  0.06754109  0.28978094  0.20883799  0.02109765  0.04006886 -0.03713228
  0.08376171 -0.20248829  0.06669305  0.10329949  0.13235508  0.03158742
  0.0882897  -0.14112566  0.02600843  0.08726567 -0.12858556  0.019383
  0.07855392  0.0061382   0.02442263 -0.11799192  0.16940634  0.10198992
 -0.09039678 -0.09850647  0.08527862 -0.04814113 -0.05634392  0.07437488
 -0.15921359 -0.14283042 -0.25586185  0.046966    0.29772526  0.09565117
 -0.21942566 -0.06066762 -0.08457948  0.00842428  0.08497743  0.00673214
 -0.04174865 -0.00309053 -0.13817193  0.0057913   0.16888617 -0.07056887
 -0.03837122  0.19430803  0.02886422 -0.05042463  0.00141508  0.01406545
 -0.10770056  0.07725073 -0.13942434  0.00036937  0.00695885 -0.09986191
 -0.03511326  0.08737732 -0.20228563  0.04056683 -0.00597298  0.00072432
 -0.11704277 -0.0332509  -0.12391999  0.03231364  0.09291352 -0.20468605
  0.18687765  0.19925055  0.01226664  0.0674099   0.08720877 -0.00495211
 -0.00784933  0.00455967 -0.09826936 -0.03612255  0.08406211 -0.0047933
  0.04918345  0.03796632]