[-0.13906668  0.11285744  0.05994209 -0.05459585 -0.04753227 -0.03209838
 -0.0187364  -0.09339324  0.10466214 -0.04075026  0.23535851 -0.03710746
 -0.26224133 -0.08859852 -0.02449592  0.18212785 -0.09313124 -0.15858643
 -0.12169528 -0.07513081  0.03760943 -0.01781601 -0.02528471  0.02212626
 -0.10753886 -0.33099973 -0.07255135 -0.07048517 -0.0103278  -0.12433127
 -0.05047391 -0.02605218 -0.17348218 -0.04102898 -0.03399166  0.03947222
 -0.03704432 -0.09612816  0.12900507  0.03551697 -0.20835912  0.05573156
  0.04171204  0.31625971  0.20764764  0.03743574  0.04762762 -0.07872306
  0.10943627 -0.27382812  0.08948281  0.07913513  0.08446795  0.06594025
  0.08419491 -0.16118073 -0.00317713  0.09382842 -0.14827561  0.04732151
  0.08148522 -0.02275843 -0.04702964 -0.13702177  0.22914422  0.14836243
 -0.14817522 -0.07880306  0.13579063 -0.11924125 -0.0393159  -0.00253174
 -0.10969894 -0.17590828 -0.31084177  0.12683575  0.40538469  0.15314275
 -0.21573475  0.00108319 -0.05502836  0.06129409  0.11337085  0.0686679
 -0.07582053  0.01585988 -0.10740518 -0.00282624  0.2092918  -0.01938046
 -0.03143124  0.21001072 -0.00516332  0.01989946  0.03389112  0.09250902
 -0.09599241  0.01565465 -0.09879325  0.03040115  0.04416948 -0.11206692
  0.00747099  0.09265584 -0.13933264  0.15873054  0.03064069  0.05645923
 -0.00170777  0.05873078 -0.05607627 -0.04308919  0.07787561 -0.23738992
  0.20027332  0.19827609  0.03537021  0.11095992  0.08294786  0.0845307
 -0.02063983  0.01800816 -0.15455157 -0.05796582  0.05614263  0.00504761
  0.03634312  0.08733652]