[-2.35829517e-01  1.46628127e-01  5.49527779e-02 -8.02842304e-02
 -7.21673444e-02 -6.52374104e-02  8.41134973e-03 -6.84159026e-02
  1.28527626e-01  3.59809510e-02  2.72618264e-01 -3.38151418e-02
 -1.98945314e-01 -7.16516152e-02  1.17060859e-02  1.15492277e-01
 -1.43358648e-01 -6.94352016e-02 -6.53137788e-02 -1.01607837e-01
  6.31458387e-02  2.25904002e-03  3.93999442e-02  7.02142492e-02
 -1.86030433e-01 -2.83311814e-01 -7.92272538e-02 -8.23915228e-02
 -2.18661856e-02 -1.19234346e-01  9.56859458e-06  5.96830249e-02
 -1.61549672e-01 -9.51253399e-02  1.62631948e-03  7.40142316e-02
 -1.17494268e-02 -4.09970246e-02  1.78120062e-01 -2.55415565e-03
 -1.13831438e-01  5.91438599e-02  5.38260117e-02  3.25447083e-01
  1.93744376e-01  6.42706035e-03  5.12969270e-02 -4.04800177e-02
  9.52217355e-02 -1.71805486e-01  9.06232819e-02  9.16654021e-02
  9.38763469e-02  9.31674894e-03  9.48319063e-02 -1.55786619e-01
 -1.16743967e-02  1.26770645e-01 -1.23896435e-01  5.93237579e-02
  8.28388259e-02 -6.70228451e-02 -3.03195715e-02 -7.97661468e-02
  1.78467363e-01  1.04926586e-01 -1.25111610e-01 -1.04671910e-01
  8.01907182e-02 -6.79551810e-03 -3.04179490e-02  7.37508982e-02
 -1.47471800e-01 -1.89042568e-01 -2.71733046e-01  1.39939085e-01
  3.52460623e-01  9.64179263e-02 -2.43456438e-01  9.06493235e-03
 -8.63608345e-02  3.02309301e-02  1.05472885e-01  4.54360247e-02
 -7.46858492e-02 -2.88481545e-02 -1.61425292e-01  2.86590904e-02
  1.48531318e-01  1.51913585e-02 -8.34339857e-02  2.08442330e-01
  2.74977684e-02  5.48370183e-03  4.31346297e-02  7.98561499e-02
 -1.34860173e-01  3.05024516e-02 -9.89147648e-02  5.45796705e-03
  8.58341753e-02 -9.50662419e-02 -3.60575467e-02  8.97504687e-02
 -1.62551433e-01  1.20202541e-01  3.14341746e-02  4.79813926e-02
 -8.83447751e-02  3.00192134e-03 -8.78248736e-02  1.46937370e-02
  8.18218663e-02 -2.77866632e-01  1.69133246e-01  1.54406890e-01
 -3.29977199e-02  1.63799763e-01  1.02541782e-01  3.49409282e-02
  1.43455034e-02  5.12315743e-02 -7.67807066e-02 -3.34563218e-02
  8.89697522e-02  2.75880396e-02  1.05950333e-01  7.09288567e-02]