[-0.22403662  0.09407461  0.084045   -0.05564274 -0.04578479 -0.10751721
  0.04811931 -0.08969072  0.106986    0.03340867  0.23403981 -0.0656442
 -0.24401951 -0.06891585 -0.02112599  0.12247547 -0.15988047 -0.0652281
 -0.0319968  -0.09508546  0.11713145  0.0067904   0.069475    0.03901371
 -0.14875934 -0.28432235 -0.07116763 -0.10433128 -0.02902958 -0.08901981
 -0.00109804  0.07017135 -0.17492253 -0.09306189  0.01484318  0.06513771
 -0.05256316 -0.07005171  0.1518604   0.01357455 -0.12166832  0.02166648
  0.05332762  0.29108581  0.17002706  0.05620627  0.02041009 -0.06227909
  0.09822681 -0.19204386  0.05373807  0.09847467  0.10383552  0.01992317
  0.107884   -0.15733382  0.0560798   0.03928692 -0.13489315  0.05056579
  0.0981392  -0.07479811  0.01810638 -0.05886148  0.15509371  0.04732188
 -0.10957652 -0.04849871  0.09368457 -0.03022295 -0.03946546  0.06188334
 -0.13629298 -0.19046152 -0.23800619  0.08897733  0.35395861  0.07306965
 -0.19421129 -0.02048081 -0.07205652  0.02534659  0.10110686  0.06884699
 -0.08588652 -0.02499333 -0.17034306 -0.00508661  0.14535235 -0.04124253
 -0.081234    0.20462194  0.00613954  0.00954376  0.03873472  0.05225379
 -0.14695133  0.06670251 -0.08829793 -0.00777686  0.08669023 -0.13289274
 -0.04975706  0.09536991 -0.1637518   0.08694261  0.00530947  0.00895962
 -0.08634982 -0.03676053 -0.112689    0.02453274  0.03732469 -0.23864774
  0.19557567  0.19755912 -0.0104859   0.13766538  0.06659483  0.01773188
  0.00848365  0.04334261 -0.09131455 -0.07198419  0.09765523  0.04179504
  0.0570581   0.03244006]