[-0.11293609  0.16083919  0.05281821 -0.05538388 -0.06385441 -0.01682735
 -0.06251718 -0.17504458  0.10529806 -0.04186404  0.25829449  0.00900523
 -0.19629377 -0.1964476  -0.02438131  0.17788854 -0.13848817 -0.15764061
 -0.03407323  0.00810023  0.07983629  0.00260362  0.02364674  0.02945007
 -0.08240861 -0.35976717 -0.09477831 -0.03621757  0.02895778 -0.03274881
 -0.12104312  0.03015767 -0.22095659 -0.09774604  0.06640773  0.18250702
 -0.02186693 -0.04511409  0.10136378 -0.01362095 -0.19474708  0.0525363
  0.05030978  0.25338623  0.19992132  0.05171712  0.0761319  -0.12551224
  0.11780969 -0.11320682  0.09129587  0.11456992  0.14134304  0.05431262
  0.01289905 -0.17326656 -0.01350136  0.13766412 -0.10963213  0.00828918
  0.03641429 -0.10930049 -0.04902938 -0.09627876  0.19717912  0.0847181
 -0.12413184 -0.18826352  0.10552277 -0.1072261  -0.08427589  0.02822253
 -0.16887468 -0.15105945 -0.34907299  0.06733109  0.37621355  0.08591848
 -0.24280618  0.04088664 -0.01264573  0.03989618  0.11619999  0.17549017
 -0.01094572  0.07645263 -0.12459362 -0.01672415  0.2219698  -0.06540025
 -0.04426445  0.203576   -0.03340507  0.1238929   0.02526649  0.0434686
 -0.03100357  0.06160828 -0.11098402 -0.01790913  0.03571991 -0.06165629
 -0.02305661  0.10676702 -0.14831558  0.07372042  0.01990066  0.10431258
  0.02549497 -0.04138971 -0.07450043 -0.10009512  0.09495376 -0.25866106
  0.24525824  0.23573866  0.01530572  0.12679057  0.13986991  0.08253042
  0.05381166 -0.03290109 -0.16629659 -0.03029202  0.11311739 -0.02875396
  0.06664033  0.01721865]