[-0.10459898  0.14770499  0.07847219  0.0219828   0.02276038 -0.08290161
  0.06530655 -0.18790478  0.18263008 -0.08598707  0.3429738  -0.00420671
 -0.2195605  -0.12875958 -0.01751442  0.14268059 -0.2266399  -0.12332781
 -0.03390574  0.00601725  0.02008565  0.0012031   0.04083749  0.03351741
 -0.03228082 -0.279587   -0.11299898 -0.13769566  0.14670818 -0.04059493
 -0.11170056  0.02209807 -0.17464125 -0.11387458  0.00262879  0.02377943
 -0.01081867 -0.05074868  0.19094799 -0.01622541 -0.16095057 -0.05886969
  0.00684957  0.28565061  0.19459252 -0.00336027 -0.00211416 -0.09505101
  0.06223677 -0.14519404  0.01319363  0.08533145  0.16936508  0.08496752
 -0.02809542 -0.20768097 -0.03920106  0.0501372  -0.18421356  0.01530802
  0.04923538 -0.09566356 -0.01081633 -0.00755936  0.24210814  0.07977673
 -0.10262945 -0.1518268   0.17978939 -0.17475894 -0.04495158  0.05074065
 -0.12929814 -0.12701121 -0.27017695 -0.02015469  0.3218846   0.04770503
 -0.14406595  0.04279955 -0.14186566 -0.04605326  0.04340741  0.10562979
 -0.03878981  0.07930019 -0.12298403 -0.04728391  0.18260956 -0.06676933
 -0.03771749  0.1954401  -0.0774807   0.01793274  0.05992268  0.0058372
 -0.02403995  0.01921267 -0.13285866 -0.02825397 -0.03063883 -0.10918516
 -0.0246023   0.0977489  -0.19601874  0.07966593  0.05428481  0.04702945
  0.02978523 -0.05484402 -0.07283739 -0.0677977   0.15578073 -0.25365791
  0.25470683  0.18046276  0.03779173  0.12828217  0.01842595  0.05287039
 -0.03384467 -0.04088957 -0.16270885 -0.03416993  0.0668126  -0.05345185
  0.06671338  0.01091735]