[-1.11043431e-01  1.16965525e-01  4.61542383e-02  4.12323372e-03
 -1.49030630e-02 -7.41605461e-02  1.24051562e-02 -1.03672110e-01
  9.77067500e-02 -6.61859987e-03  2.96675980e-01 -3.98177840e-02
 -2.16577455e-01 -1.57921866e-01  1.66024417e-02  1.55461267e-01
 -9.67231989e-02 -4.86279353e-02 -1.70390636e-01 -7.04164291e-03
  5.70584126e-02  8.63521360e-03  1.05638504e-01  7.82343671e-02
 -3.13737355e-02 -3.76564324e-01 -9.42761675e-02 -4.29343805e-02
  7.06049725e-02 -8.78021494e-02 -2.60970537e-02  7.09691718e-02
 -1.47900671e-01 -8.83139148e-02  5.84607013e-02  6.84903488e-02
 -3.36378664e-02 -6.16043322e-02  2.51691073e-01  2.90659070e-02
 -1.58694163e-01  1.30652008e-03  1.89378392e-02  2.63580024e-01
  2.83955008e-01  5.45870326e-02  1.50004821e-02 -8.52050185e-02
  8.55840817e-02 -2.54786760e-01  5.89566901e-02  1.28111765e-01
  5.49783483e-02  2.01956239e-02  8.66328105e-02 -1.02040581e-01
  1.17858900e-02  7.61767626e-02 -1.85212627e-01 -3.81786413e-02
  1.14508588e-02 -1.39177144e-01 -9.11791399e-02 -6.00528196e-02
  1.43626258e-01  1.41963571e-01 -8.68097618e-02 -1.08555280e-01
  1.43764898e-01 -1.56902671e-01 -8.43999069e-03  6.10826090e-02
 -1.46726876e-01 -1.25409827e-01 -3.34345460e-01  2.45751943e-02
  4.43775743e-01  1.22843109e-01 -1.77786142e-01  8.02129414e-03
 -3.62665653e-02 -5.84083749e-03  9.47528780e-02  5.76762334e-02
 -1.24968663e-01 -6.02280758e-02 -9.60323140e-02  6.25121221e-02
  1.27241224e-01 -2.03753734e-04 -6.51332587e-02  2.17579603e-01
 -2.17433926e-02  6.97907135e-02  7.70718604e-02  3.51846335e-03
 -5.72282169e-03 -3.51971500e-02 -1.31846279e-01 -1.83207821e-02
  8.38678628e-02 -7.56248757e-02  6.20264672e-02  9.51631740e-02
 -1.75668553e-01  6.37357607e-02 -6.84665167e-04  1.98709052e-02
  7.92375505e-02 -2.54156590e-02 -1.17788963e-01 -1.49354041e-02
  1.19755425e-01 -1.95061252e-01  1.91183984e-01  1.65391847e-01
 -1.03116408e-02  6.83582872e-02  9.15858150e-02  9.18060690e-02
 -2.02906430e-02 -1.37945367e-02 -1.21216476e-01 -1.94922704e-02
  6.88750595e-02  3.10135726e-02  9.27572995e-02 -2.05854326e-02]