[-0.10483481  0.13630374  0.0815258  -0.0183827   0.04780254 -0.09165076
  0.0267677  -0.12700711  0.1303637  -0.042971    0.31019422 -0.06712792
 -0.22808586 -0.12781183 -0.00583433  0.16978851 -0.15580173 -0.05656114
 -0.10796668 -0.04115111  0.0243166   0.01761231  0.06866566  0.06961548
 -0.03652976 -0.35214022 -0.08908399 -0.08536249  0.03439359 -0.05802869
 -0.03218078  0.05530255 -0.15846127 -0.09279093  0.0117635   0.00243658
  0.00168993 -0.05458735  0.19895229  0.06665217 -0.13985358 -0.01611633
 -0.00775963  0.30791399  0.22779952  0.03534647  0.00812283 -0.06028146
  0.04410814 -0.19491646 -0.00762079  0.10407287  0.054231    0.00772612
  0.0342596  -0.1364252  -0.03727523  0.05954678 -0.16486563 -0.01605673
  0.02760415 -0.10152844 -0.07201878 -0.05188545  0.21270926  0.13939114
 -0.11468984 -0.1050591   0.15458845 -0.11378676 -0.02612253 -0.00501586
 -0.16249204 -0.11976647 -0.29645842  0.03257794  0.35533673  0.07183763
 -0.18053143  0.02477213 -0.10697281  0.0502716   0.11197791  0.08213937
 -0.0711057   0.00402812 -0.06030172 -0.00967565  0.10476793 -0.01457311
 -0.10166299  0.1942699  -0.09546932  0.02609949  0.06119084 -0.0354566
 -0.03802481  0.00619119 -0.14845712 -0.02239676  0.04875578 -0.06645574
  0.03772784  0.10729541 -0.18160573  0.04536457  0.03894231  0.03092521
  0.0820244   0.04414523 -0.11533695 -0.05906609  0.1212034  -0.21183737
  0.21925306  0.18963215 -0.00546688  0.09459418  0.09255089  0.07573212
 -0.02266323  0.03592038 -0.11888444 -0.03052352  0.08116638  0.04040105
  0.08808808 -0.02688704]