[-0.11637687  0.13450526  0.05083863  0.02791275  0.0181538  -0.08543115
  0.06470048 -0.1943858   0.17523517 -0.08233113  0.34366491 -0.01651424
 -0.21685545 -0.14389811 -0.00375057  0.14930968 -0.21774605 -0.1107979
 -0.03638517 -0.01139165  0.02252969  0.00156977  0.03923925  0.04598491
 -0.04355989 -0.29348823 -0.10768914 -0.13459466  0.15595448 -0.03262533
 -0.10626223  0.0607076  -0.17993551 -0.11506941  0.01059506  0.02722605
 -0.01959977 -0.03860626  0.19574146 -0.02151418 -0.16074076 -0.05033542
  0.00578633  0.28808665  0.20964901 -0.00659339  0.01669252 -0.10700251
  0.08858585 -0.13677076 -0.00107883  0.08840965  0.1777124   0.07615049
 -0.02640147 -0.19732247 -0.04782757  0.04185184 -0.18756498  0.0035788
  0.04935274 -0.08891923  0.00499912 -0.01542985  0.2425328   0.05803514
 -0.10362591 -0.14135724  0.19461271 -0.16331758 -0.02516721  0.06872784
 -0.13760376 -0.14393997 -0.28250206 -0.00665164  0.33059978  0.04986502
 -0.11855587  0.05040002 -0.14533851 -0.0537926   0.03870198  0.09275391
 -0.0471617   0.05544547 -0.11439806 -0.02123384  0.20010443 -0.07114409
 -0.03766846  0.19686131 -0.07081791  0.02524525  0.04432735  0.01810865
 -0.04031267  0.02268811 -0.12196388 -0.02497873 -0.03001339 -0.10270613
  0.00845851  0.10579663 -0.18775812  0.0975679   0.04419432  0.06338289
  0.01910164 -0.05185444 -0.08006561 -0.05359387  0.13659655 -0.25132075
  0.24993101  0.15674888  0.04705567  0.1274318   0.01825229  0.0433726
 -0.0411096  -0.05007684 -0.16325569 -0.02841124  0.0900206  -0.04406875
  0.07551408  0.01077015]