[-1.30498439e-01  1.51381955e-01  3.28689106e-02  1.03359076e-03
  3.42934392e-02 -8.19762871e-02  4.99159507e-02 -1.77493125e-01
  1.92049190e-01 -6.72163963e-02  2.85909742e-01 -2.45234855e-02
 -2.18480587e-01 -1.47115514e-01 -1.86199133e-04  1.41958028e-01
 -1.96743414e-01 -1.17837027e-01 -3.67562585e-02  3.80627433e-04
  4.15329598e-02  1.34163145e-02  5.70886992e-02  8.93097967e-02
 -5.78460656e-02 -2.80786186e-01 -8.82689878e-02 -1.45121709e-01
  1.36364385e-01 -3.84306088e-02 -9.60168391e-02  6.27348870e-02
 -1.85311437e-01 -1.00024119e-01 -4.19861404e-03  5.59572354e-02
 -3.73006798e-02 -3.85018215e-02  1.74286917e-01 -1.82864442e-02
 -1.58210710e-01 -8.68627727e-02  7.33898603e-04  2.97581702e-01
  2.23872617e-01 -4.00063768e-03  2.13689283e-02 -1.12720191e-01
  9.31358710e-02 -1.48147479e-01 -8.26194882e-05  9.33071524e-02
  1.45519242e-01  8.75509605e-02 -1.52490288e-02 -2.01120242e-01
  2.71198875e-03  3.51949930e-02 -2.08555922e-01  7.96187297e-03
  3.28128040e-02 -6.72657341e-02 -1.12283314e-02  8.03954341e-03
  2.49218985e-01  5.23747914e-02 -9.68644768e-02 -1.40695468e-01
  1.90924376e-01 -1.80250794e-01 -2.03753784e-02  9.91523787e-02
 -1.37274504e-01 -1.59860939e-01 -2.78425783e-01 -2.02093665e-02
  3.28667611e-01  6.83555827e-02 -1.18709557e-01  7.01460093e-02
 -1.35435298e-01 -4.73447703e-02  4.92960699e-02  8.55490789e-02
 -7.17983544e-02  6.28745481e-02 -1.29154071e-01 -1.51431784e-02
  1.99858025e-01 -6.59780428e-02 -4.31940928e-02  1.94703743e-01
 -3.44399810e-02 -9.61310987e-04  5.77433296e-02  1.57978442e-02
 -3.70681286e-02  2.81731188e-02 -1.46305591e-01 -4.69897613e-02
 -8.66235234e-03 -1.00712039e-01 -1.06809800e-02  9.10819396e-02
 -1.96244642e-01  1.18564688e-01  7.54929632e-02  4.41560745e-02
  9.13580041e-03 -5.26287034e-02 -1.19078256e-01 -6.20538108e-02
  1.47651657e-01 -2.37108976e-01  2.30623126e-01  1.53807446e-01
  8.05427581e-02  1.32918060e-01  2.22333800e-02  6.05959482e-02
 -3.54729407e-02 -4.52850573e-02 -1.34417221e-01 -1.67580284e-02
  1.15543239e-01 -3.04049198e-02  7.83080608e-02  1.03262067e-02]