[-0.12687959  0.14585343  0.08955347 -0.04726613 -0.0110291  -0.084396
  0.01331942 -0.15916894  0.15285373 -0.07906354  0.30004886 -0.03781716
 -0.20859252 -0.15393455  0.00113908  0.15188994 -0.1904484  -0.11480936
 -0.00995116 -0.00084497  0.03710392 -0.00277115  0.04599101  0.0503713
 -0.04936122 -0.31356502 -0.08908488 -0.16337888  0.10729287 -0.01909202
 -0.04653416 -0.03216726 -0.19055232 -0.05935768 -0.03744272  0.07094579
 -0.00814784 -0.03964963  0.17355134 -0.03119475 -0.21296607 -0.0819705
 -0.01753472  0.22359799  0.18025225  0.01583689  0.06472945 -0.1522104
  0.04893757 -0.12070483  0.03783325  0.0859316   0.11258471  0.04233009
 -0.03356083 -0.22314739 -0.00445235  0.04352113 -0.16154717 -0.0156352
  0.06562179 -0.02440895 -0.0241344  -0.00460327  0.2862134   0.03937093
 -0.14011447 -0.1408001   0.1526071  -0.16233931 -0.0299206   0.10021802
 -0.13284881 -0.15446983 -0.30142996  0.02920588  0.39496765  0.05306412
 -0.17349438  0.02754282 -0.16797918 -0.02663578  0.10676932  0.14638785
 -0.0189561   0.06848314 -0.12901026 -0.02680646  0.17146035 -0.10909112
 -0.01808668  0.16096558 -0.04165816  0.08729272 -0.01492807  0.02478438
 -0.04678486  0.08773601 -0.08066124 -0.01066653  0.02561717 -0.03663855
 -0.01734867  0.09289613 -0.19316731  0.11701622  0.07780975  0.00495963
  0.02363813 -0.03666815 -0.06913596 -0.09425281  0.16843861 -0.22897302
  0.23293583  0.20323578  0.04368891  0.15834171  0.09897979  0.08894608
 -0.01430443 -0.0513307  -0.19884877  0.0302278   0.07329489 -0.05934566
  0.0851125   0.00904184]