[-0.13757907  0.15197735  0.04281014  0.0109562   0.03585155 -0.09145121
  0.04635163 -0.17742322  0.18234162 -0.07014316  0.29354629 -0.028641
 -0.20851003 -0.14893763  0.00856392  0.14938261 -0.20870221 -0.12064262
 -0.0288311  -0.00846996  0.03133189  0.00918487  0.04376895  0.08647188
 -0.05696009 -0.28120098 -0.09521376 -0.14802158  0.14736728 -0.04277923
 -0.09781445  0.06381541 -0.1798058  -0.1070443   0.00339158  0.04328781
 -0.02773351 -0.04250566  0.1840499  -0.00051508 -0.14144105 -0.09291895
  0.00678899  0.30191991  0.21295619  0.00051598  0.02719661 -0.10579914
  0.09330323 -0.1344222  -0.0109725   0.09710065  0.14840208  0.09854888
 -0.02799851 -0.20687197  0.00696668  0.00879087 -0.20923328  0.00642532
  0.0414394  -0.0677764  -0.01888006  0.02218052  0.25483748  0.04149171
 -0.0943641  -0.14510973  0.19027305 -0.1676717  -0.01934941  0.08936176
 -0.14332962 -0.14648621 -0.27003381 -0.01361995  0.33070657  0.05698518
 -0.10917326  0.07282771 -0.14038451 -0.06872848  0.03650598  0.10158191
 -0.06712128  0.0636643  -0.11180256 -0.00527437  0.18361716 -0.06011468
 -0.03182982  0.18956144 -0.03551034  0.00972749  0.05140922  0.01318596
 -0.04161656  0.03345121 -0.12160738 -0.04691388 -0.00468972 -0.08750407
  0.00351661  0.09565395 -0.19488423  0.12042029  0.07424816  0.04702926
  0.00634855 -0.04462703 -0.11194288 -0.06814925  0.13434592 -0.2351675
  0.21701752  0.1612395   0.07457335  0.12379878  0.01931389  0.059423
 -0.02837363 -0.03533089 -0.13664928 -0.01276916  0.10279071 -0.03222342
  0.06318742  0.00803681]