[-0.13168482  0.1514474   0.04361486  0.00212948  0.04251092 -0.08419143
  0.06212956 -0.17771643  0.19611262 -0.07839774  0.28828651 -0.01382124
 -0.21197419 -0.14376064  0.00762685  0.13645114 -0.20028786 -0.12679856
 -0.04532432 -0.00238981  0.02649898  0.00585413  0.04966962  0.08359601
 -0.06585222 -0.27225336 -0.08925821 -0.14669816  0.13763425 -0.04584407
 -0.0911695   0.05948371 -0.18020646 -0.10017344 -0.00480724  0.0659292
 -0.03861694 -0.04994451  0.17192596 -0.01114126 -0.15250602 -0.09174277
 -0.00243097  0.3104538   0.22242986 -0.01520603  0.02063512 -0.09825591
  0.10181242 -0.16228773  0.0007848   0.08373734  0.14708975  0.10025745
 -0.00381035 -0.2074738   0.01210499  0.03474666 -0.20864622  0.01716151
  0.03304293 -0.06795418 -0.01068751  0.01913577  0.25018615  0.06099112
 -0.10490841 -0.13372084  0.18857461 -0.1790307  -0.0201987   0.09064858
 -0.13351074 -0.15927173 -0.26967487 -0.01673179  0.32491311  0.07864159
 -0.12109073  0.06811918 -0.1373933  -0.04530966  0.04686055  0.09895052
 -0.06807645  0.07569104 -0.12743223 -0.01524081  0.19417323 -0.05353278
 -0.0468096   0.20351127 -0.04154469 -0.00630673  0.05834662  0.00941252
 -0.03925731  0.02675559 -0.14430742 -0.04799714 -0.00176196 -0.10119361
 -0.01432295  0.08952553 -0.19635403  0.12555128  0.07516557  0.0566367
  0.01279496 -0.05674344 -0.11513486 -0.05392403  0.14458832 -0.2479395
  0.22927573  0.16148327  0.07158453  0.13106339  0.02469742  0.04698103
 -0.02119284 -0.04250273 -0.13205838 -0.01818258  0.09952872 -0.03193107
  0.06766088  0.01153418]