[-0.12694158  0.13376556  0.04571532  0.02290696 -0.00150207 -0.08992992
  0.07555693 -0.17516811  0.17514126 -0.07813299  0.33351061 -0.01728243
 -0.23115189 -0.14647678  0.00426948  0.13438459 -0.21236949 -0.0899467
 -0.05414649 -0.01421665  0.02341955 -0.00329104  0.04824705  0.06288335
 -0.04467672 -0.30041233 -0.10734881 -0.14915629  0.15370935 -0.05641062
 -0.10448571  0.04081209 -0.17067687 -0.13433354 -0.00887448  0.02268768
 -0.02681478 -0.04991706  0.17305742 -0.0394049  -0.15846753 -0.06013686
 -0.00236881  0.28961548  0.20103608 -0.00240724  0.01985708 -0.10056329
  0.08763941 -0.15520972  0.01096912  0.07265493  0.16901423  0.06684818
 -0.01091533 -0.18939798 -0.03547524  0.05907355 -0.20895882  0.0170798
  0.06079048 -0.07587922 -0.00687322 -0.01249935  0.24777356  0.07772883
 -0.1079151  -0.12470359  0.20285144 -0.17890052 -0.00919663  0.06474652
 -0.12029468 -0.16000472 -0.2634027   0.00624799  0.32647839  0.08326166
 -0.11751141  0.03343236 -0.16192316 -0.03815243  0.03898722  0.08193182
 -0.06092096  0.06006736 -0.11985896 -0.00393776  0.17605034 -0.0618379
 -0.02511539  0.22461979 -0.04598743  0.00763934  0.05944179  0.01244301
 -0.05167535  0.01955278 -0.12267722 -0.00774812  0.00260835 -0.1250871
  0.01252417  0.08977103 -0.18129188  0.10637124  0.04244872  0.06017127
  0.03045653 -0.06637644 -0.08557935 -0.05418131  0.14875607 -0.25169578
  0.24456409  0.15437411  0.05777288  0.13742352  0.01142619  0.04272928
 -0.0315556  -0.07076085 -0.16139068 -0.01842706  0.09976117 -0.06530172
  0.07079365  0.01027623]