[-0.0981345   0.11542771  0.06515091 -0.00069777 -0.02044591 -0.04929885
  0.02219448 -0.1630951   0.14268009 -0.0511783   0.29622683  0.00433027
 -0.20335813 -0.19511497  0.04408369  0.14187823 -0.1821842  -0.1455733
  0.00155763 -0.00479387  0.0349788   0.01465341  0.06563945  0.03031807
 -0.10168343 -0.34213835 -0.10455163 -0.15177833  0.13986078 -0.02607128
 -0.08100906  0.04284219 -0.20462997 -0.0838949   0.00556681  0.06260739
 -0.01575773 -0.03944524  0.18196104  0.01349181 -0.19448225 -0.08212679
 -0.01911226  0.2417624   0.15582503  0.00271669  0.07769377 -0.12294637
  0.00207946 -0.09607526  0.05872544  0.11749402  0.12351064  0.06359694
 -0.02529022 -0.21336988  0.00084365 -0.00725415 -0.17524579 -0.01951885
  0.04211281 -0.02436055 -0.00830628 -0.00677958  0.24943213  0.02028728
 -0.07787005 -0.15682966  0.15318869 -0.1374525  -0.04805246  0.08829224
 -0.15608922 -0.15695636 -0.30512163  0.0181614   0.37619582  0.06679546
 -0.18714854  0.05662204 -0.13362548 -0.07673316  0.0930024   0.13146794
 -0.02473007  0.10672509 -0.11056588  0.01407644  0.1665103  -0.08871989
 -0.03609902  0.16695583 -0.02641249  0.07948471  0.05558332  0.0172763
 -0.01420795  0.07846104 -0.09654437 -0.03299316  0.02639757 -0.05113356
  0.00198945  0.11323402 -0.17787878  0.12716107  0.08777162 -0.01078034
  0.00703691 -0.03434691 -0.09651531 -0.10091112  0.14626843 -0.24431436
  0.22903858  0.2078241   0.03858558  0.14996473  0.06986071  0.08343419
 -0.03397889 -0.05297041 -0.18191409  0.01861345  0.08907522 -0.06076639
  0.06910974  0.02200349]