[-0.13076442  0.15063034  0.07108403 -0.02821971  0.02738681 -0.09319852
  0.03840515 -0.13810067  0.10689423  0.01816088  0.3150174  -0.09701064
 -0.22541861 -0.16871694  0.04040319  0.16231211 -0.16798061 -0.07541168
 -0.0791318  -0.0225552   0.03849056 -0.02140415  0.07435713  0.07769462
 -0.03800833 -0.34973651 -0.11923543 -0.08357539  0.04217733 -0.03477526
 -0.05438114  0.05389649 -0.18226574 -0.09698725  0.0285703   0.04080866
 -0.02141685 -0.06800874  0.22111359  0.00224746 -0.1193136  -0.02373039
  0.01179792  0.2450881   0.25076973  0.05825609  0.00884344 -0.07240467
  0.03504326 -0.16001104  0.01049162  0.13680907  0.04472067  0.03742789
 -0.0069181  -0.13879299 -0.02628345  0.06914353 -0.134803   -0.05599577
  0.00998763 -0.15368301 -0.08732443 -0.07762992  0.21232794  0.12189741
 -0.09030972 -0.12692599  0.14713398 -0.10064163 -0.04374068  0.02649502
 -0.1837592  -0.12070562 -0.29705009  0.06626152  0.36188784  0.0453893
 -0.18646787  0.02801087 -0.06879075  0.02387237  0.10249016  0.08861851
 -0.08184908 -0.01683908 -0.09787407  0.00761066  0.14075132 -0.05376561
 -0.05504189  0.18116143 -0.08567367  0.09288681  0.05597741 -0.03515176
  0.03601725  0.04215686 -0.11767652  0.00662259  0.09834727 -0.07541957
  0.01737705  0.10839003 -0.18434668  0.01457808  0.04591178  0.02651914
  0.04718762 -0.036358   -0.08806479 -0.04272955  0.13417333 -0.22467136
  0.23321116  0.20245099 -0.02710121  0.09631374  0.07673082  0.1057684
 -0.02453719  0.00384778 -0.15682781  0.00971613  0.13030051  0.05607305
  0.08199647 -0.01177401]