[-0.15217741  0.13149278  0.08224479 -0.01722838  0.02072657 -0.11639182
  0.03322749 -0.16379087  0.08620652  0.03083535  0.31150848 -0.09644253
 -0.19957915 -0.17831729  0.04775488  0.16401927 -0.13302396 -0.05986757
 -0.11911042 -0.02087064  0.01883191 -0.02807102  0.11209091  0.088317
 -0.03744561 -0.36917481 -0.11564785 -0.12054285  0.05318811 -0.03828301
 -0.05842916  0.06182918 -0.17175896 -0.09899475  0.04076911  0.06749037
 -0.03385444 -0.06386774  0.23092668 -0.01520544 -0.12830381 -0.03407384
  0.01365735  0.22745514  0.24845926  0.03877532  0.02498515 -0.06943518
  0.03988188 -0.151087    0.01229637  0.10810822  0.05061951  0.04901827
  0.03193851 -0.1121999   0.0179408   0.04722661 -0.16354166 -0.06806504
  0.01873329 -0.13830325 -0.10595286 -0.06387568  0.20021863  0.12738447
 -0.09075084 -0.07802268  0.13448684 -0.11631087 -0.00493167  0.03661472
 -0.1758583  -0.13117333 -0.29377356  0.04466369  0.38656232  0.07620785
 -0.2091292  -0.00394818 -0.05630283  0.00574141  0.1038658   0.07169053
 -0.10466471  0.01169455 -0.08117949  0.02470551  0.11587343 -0.03950251
 -0.02787389  0.19779126 -0.05602127  0.09424727  0.06795286 -0.03354418
  0.04600699  0.00309844 -0.11847398  0.01672882  0.08310433 -0.07954211
  0.02735213  0.06657778 -0.18529657  0.02760843  0.05737718  0.01538953
  0.03563561 -0.03004896 -0.08703927 -0.05013465  0.13459814 -0.20900276
  0.20149921  0.21203268 -0.03115205  0.08995195  0.05747233  0.09196373
 -0.04182226 -0.00249773 -0.12846564  0.0153092   0.13356256  0.03873583
  0.07214842 -0.01787608]