[-0.22620726  0.09949507  0.07521682 -0.04801353 -0.05845938 -0.08848684
  0.03638281 -0.1006723   0.10404854  0.03312372  0.22013159 -0.05821828
 -0.26172313 -0.05297929 -0.03919707  0.10749755 -0.14878753 -0.06435501
 -0.042201   -0.09459535  0.11159326  0.01434029  0.06761491  0.03726446
 -0.14463294 -0.27733642 -0.08109174 -0.08802537 -0.0226587  -0.1032735
  0.00313596  0.04845078 -0.17100413 -0.08470884  0.00184162  0.06323089
 -0.06838647 -0.09588244  0.14300381  0.01368129 -0.12837413  0.02506735
  0.06940208  0.28987584  0.18644527  0.05957597  0.02183123 -0.0635347
  0.10894809 -0.20288645  0.08387157  0.09760704  0.12800096  0.0095472
  0.11500999 -0.16509335  0.03498363  0.0621076  -0.11849163  0.05704874
  0.10585602 -0.05769194  0.0136769  -0.0564592   0.14526699  0.06232608
 -0.11706662 -0.04959525  0.10315229 -0.04809773 -0.04131452  0.0696945
 -0.12631872 -0.19671457 -0.23466256  0.09773161  0.36724934  0.0806552
 -0.18232778 -0.02343527 -0.07314824  0.03311518  0.08828704  0.0802336
 -0.0881779  -0.04762954 -0.18111056 -0.01739     0.15507729 -0.03300024
 -0.09135106  0.2081456   0.02376665 -0.0096054   0.03653025  0.06058551
 -0.16201098  0.05116114 -0.08033752 -0.02277197  0.08081298 -0.11800361
 -0.0620528   0.09706003 -0.15210865  0.10613203  0.01084856  0.01423685
 -0.0657523  -0.05806194 -0.10547023  0.02657175  0.03855857 -0.24863863
  0.17135222  0.1689347  -0.00552468  0.14495824  0.07486003  0.03108388
  0.02918459  0.04271572 -0.09653862 -0.08367788  0.08877917  0.03073667
  0.05311855  0.037827  ]