[-0.18356389  0.06893982  0.05997464 -0.08228605 -0.06188202 -0.11011805
  0.03864935 -0.0299695   0.10556684  0.06701314  0.1862675  -0.0713219
 -0.21737352 -0.03004485 -0.01501875  0.10774945 -0.1421731  -0.05053583
 -0.0981211  -0.12090421  0.02635924 -0.00898242  0.07189526  0.05701956
 -0.14040211 -0.28382757 -0.07418298 -0.09745503 -0.00961154 -0.08190683
  0.00125466  0.05454112 -0.18706582 -0.09684838 -0.01347013  0.06049631
 -0.05809699 -0.08684939  0.16341403  0.03546351 -0.10118049  0.01565211
  0.06337645  0.29187647  0.2147564   0.03818246  0.02731588 -0.02301462
  0.09483746 -0.22949003  0.08956002  0.0978393   0.07554964  0.02901556
  0.132542   -0.11679703  0.0512686   0.09733103 -0.106673    0.04692797
  0.08840938 -0.03241805  0.00193364 -0.11100825  0.15190081  0.0712886
 -0.09158678 -0.04434006  0.0760667  -0.0671546  -0.02536319  0.03613631
 -0.10722952 -0.15466967 -0.2972239   0.11384135  0.32290214  0.12481105
 -0.17799096 -0.02632396 -0.08634143  0.01691334  0.09857668  0.00468939
 -0.11131859 -0.05195255 -0.17397088 -0.01508251  0.14731593 -0.02103093
 -0.05258935  0.15931201  0.00726445 -0.02062492  0.02262277  0.05685538
 -0.17227519  0.04031025 -0.09863067  0.03073619  0.08006985 -0.13694751
 -0.05030581  0.08429328 -0.1716971   0.07236551  0.01049809 -0.0298384
 -0.07478146 -0.01029932 -0.1221467  -0.01005007  0.08052563 -0.2155232
  0.14611034  0.19380581 -0.03319467  0.1294401   0.07543712  0.05311216
 -0.04611452  0.07150163 -0.0660806  -0.05924169  0.05973318  0.05766847
  0.03406538  0.07095625]