[-0.11219496  0.13398282  0.04800361 -0.06243869  0.00521599 -0.07807615
  0.00194057 -0.17064695  0.16062234 -0.07397956  0.29606745 -0.01613381
 -0.21132767 -0.16737151 -0.00235825  0.14448975 -0.19536112 -0.11016726
 -0.01733617  0.00471096  0.02275438 -0.01004531  0.05707984  0.06920346
 -0.04879675 -0.30941039 -0.10107984 -0.16705589  0.10579151 -0.03280469
 -0.05523273 -0.01916576 -0.19219865 -0.05714972 -0.02581261  0.07127067
 -0.02445978 -0.05061814  0.18754111 -0.01748227 -0.20455618 -0.08595952
 -0.01627248  0.23084898  0.19218867  0.00211689  0.07329232 -0.14702293
  0.07552    -0.1121686   0.03914762  0.09468769  0.11893161  0.04758509
 -0.03758756 -0.22395444  0.00071669  0.05852119 -0.16657491 -0.00828732
  0.05512731 -0.03383749 -0.02615295  0.01145955  0.27263901  0.04877161
 -0.14532976 -0.14689402  0.16357504 -0.16466722 -0.01678179  0.10197093
 -0.14710827 -0.17792793 -0.2933543   0.02587428  0.38427112  0.07221936
 -0.15203603  0.03652952 -0.16418989 -0.04097699  0.09442853  0.15449731
 -0.03141938  0.07894198 -0.12384844 -0.00755272  0.17961501 -0.09480749
 -0.02346214  0.17158256 -0.0482969   0.09306234 -0.01094395  0.02708686
 -0.04862837  0.08181354 -0.08667836 -0.00619339  0.0186703  -0.04007673
 -0.00436411  0.09336203 -0.17458433  0.11682888  0.08262791  0.01336995
  0.01361453 -0.04238534 -0.07315595 -0.09716418  0.1589499  -0.22858322
  0.2371984   0.19291177  0.0711846   0.15237278  0.09878545  0.07877793
 -0.00524256 -0.06874692 -0.19804215  0.03629889  0.07544651 -0.04214994
  0.09515033 -0.0019414 ]