[-0.1518884   0.11940946  0.09225015 -0.04956364 -0.09440801 -0.08362864
  0.00444568 -0.07650663  0.07093245  0.03993977  0.25934362 -0.0779536
 -0.19089667 -0.0583438  -0.04059975  0.13779192 -0.16697846 -0.05626632
 -0.05956634 -0.0528662   0.11944417 -0.040543    0.0502617   0.03854416
 -0.14490913 -0.26087114 -0.05639539 -0.10823341  0.00622    -0.06324981
 -0.01466508  0.04447954 -0.18635975 -0.09841878 -0.00321789  0.04867319
 -0.02704334 -0.059879    0.1558309   0.01289733 -0.15372807  0.08139782
  0.06167683  0.28550985  0.22110525  0.02367537  0.04889389 -0.0455882
  0.0794821  -0.2177985   0.08307806  0.09183437  0.13695821  0.03279512
  0.10252483 -0.15328971  0.01142495  0.08520498 -0.13598371  0.04352252
  0.10317353  0.02935261  0.03103003 -0.10801758  0.16120008  0.11283483
 -0.09690188 -0.0959113   0.08482865 -0.05622232 -0.0397215   0.07457336
 -0.15368672 -0.15011339 -0.26974994  0.05765593  0.29923141  0.09009205
 -0.22395955 -0.08091481 -0.08948932  0.02258932  0.08174935 -0.00200917
 -0.03980024 -0.01284289 -0.14085454 -0.00606301  0.17010543 -0.07317383
 -0.04266441  0.22659127  0.02768436 -0.06697801  0.00310553  0.0420688
 -0.12196437  0.05294253 -0.1469941  -0.00551339  0.0087504  -0.0984537
 -0.04354913  0.09196185 -0.20048879  0.05248361 -0.01141586  0.00522985
 -0.11777072 -0.04583346 -0.13284056  0.0318599   0.11245652 -0.19342054
  0.18373555  0.19494639  0.01338852  0.06008776  0.08876694 -0.01252779
 -0.00228779  0.0106923  -0.08372611 -0.03692031  0.06447268 -0.01183569
  0.02675998  0.04217507]