[-0.15788932  0.09895775  0.09523403 -0.05777077 -0.09117957 -0.08680658
  0.0080116  -0.06282976  0.06726952  0.03724372  0.26357099 -0.08488371
 -0.19825715 -0.08352932 -0.04227097  0.14447019 -0.17227648 -0.06991595
 -0.0320859  -0.06711432  0.11265384 -0.05280092  0.051314    0.04457729
 -0.15502308 -0.2647886  -0.0443969  -0.12398379 -0.00913548 -0.05862229
 -0.0242167   0.07293618 -0.18557134 -0.08804832  0.00142794  0.07550686
 -0.01580061 -0.05205436  0.16185248  0.00073179 -0.14348917  0.05954924
  0.058392    0.28344151  0.19725114  0.02186586  0.04266069 -0.02832061
  0.0751618  -0.19510005  0.06199514  0.10883176  0.13702686  0.02682192
  0.08174962 -0.1365981   0.03092567  0.08324578 -0.14167468  0.02191145
  0.08536684  0.00344235  0.02420666 -0.10669037  0.17535912  0.10481363
 -0.09263148 -0.08571379  0.09197371 -0.04216111 -0.04816787  0.06940978
 -0.16830905 -0.14390454 -0.2511017   0.05276212  0.30584544  0.08941478
 -0.21349144 -0.05614701 -0.08699172  0.01474337  0.08861434  0.0059484
 -0.04673671  0.0046749  -0.13918409  0.00797659  0.15561293 -0.07371021
 -0.04084742  0.19491409  0.02195248 -0.03988873  0.0048574   0.01425651
 -0.09922122  0.07480337 -0.13675945 -0.00132394  0.02118819 -0.10316149
 -0.03262384  0.07996505 -0.19730507  0.0267768  -0.00055942  0.00430804
 -0.11007752 -0.02733813 -0.12243202  0.02155882  0.09970928 -0.2063881
  0.18738978  0.20381115  0.00896442  0.06798985  0.08938979 -0.01071761
 -0.00326909 -0.00613551 -0.08919468 -0.03445735  0.08423888 -0.00384248
  0.05057681  0.03695476]