[-1.73539400e-01  1.05329506e-01  1.23211518e-01 -1.43462094e-02
 -8.33539851e-03 -1.53171763e-01  3.92221287e-02 -1.55013755e-01
  6.34950697e-02 -1.19877765e-02  3.44894230e-01 -9.94586796e-02
 -1.84708551e-01 -1.85811788e-01  4.36453708e-02  1.61611885e-01
 -1.27264380e-01 -4.46097553e-02 -1.07799530e-01 -1.62907671e-02
  2.34237130e-04 -2.64220536e-02  9.84371379e-02  5.55314682e-02
 -1.40149519e-02 -3.41875881e-01 -1.29874170e-01 -9.79467928e-02
  3.34456638e-02 -2.69859489e-02 -7.13366941e-02  3.76031958e-02
 -1.93178669e-01 -1.37083277e-01  1.35597668e-03  6.42137751e-02
  8.43016710e-03 -4.92132641e-02  1.89644814e-01 -1.88268814e-02
 -1.53353259e-01 -1.89346522e-02  2.59633400e-02  2.04597428e-01
  2.25595757e-01  3.16948891e-02  2.66047614e-03 -4.95756343e-02
  7.21217319e-02 -1.75910428e-01  1.37454215e-02  8.85675400e-02
  8.73819515e-02  1.16926981e-02  2.90936269e-02 -8.45037028e-02
 -7.51102064e-03  5.41385487e-02 -1.53129920e-01 -7.45222420e-02
  4.36055213e-02 -1.00637056e-01 -9.47911292e-02 -7.61408955e-02
  2.04783842e-01  1.41219139e-01 -9.72443521e-02 -1.06579676e-01
  1.39427587e-01 -1.02162741e-01 -1.64153241e-02  5.43746911e-02
 -1.71592578e-01 -1.21352769e-01 -3.15723985e-01  9.31727961e-02
  3.56893778e-01  5.21802306e-02 -2.00040534e-01 -3.83793609e-03
 -1.14933729e-01  2.81465091e-02  8.31697658e-02  6.57896921e-02
 -2.02136952e-02  2.08262242e-02 -1.10825494e-01 -2.13520769e-02
  1.01355188e-01 -8.05800110e-02 -3.15755196e-02  1.88554838e-01
 -5.01289181e-02  9.59784761e-02  4.94676493e-02 -7.01562327e-04
  1.01204757e-02  2.05067545e-03 -1.27469137e-01  3.93146761e-02
  8.29424560e-02 -4.93366607e-02 -2.23233551e-03  6.46363795e-02
 -1.46209031e-01  1.91459451e-02  2.57204827e-02  1.41786458e-02
  2.75571831e-02 -4.35920060e-02 -5.92223182e-02 -7.46660233e-02
  8.29362869e-02 -2.10799649e-01  2.04442531e-01  1.77948579e-01
 -8.56577978e-02  9.50200930e-02  6.47376180e-02  9.91637930e-02
 -3.96541283e-02  1.17758438e-02 -9.92381945e-02 -3.65879908e-02
  1.17913723e-01  2.82661077e-02  4.65642102e-02 -1.46200480e-02]