[-0.19687344  0.1126905   0.04522343 -0.06382177 -0.06789716 -0.09126406
  0.04612463 -0.05734346  0.12229216  0.03138045  0.22850119 -0.08854984
 -0.22818899 -0.03062289 -0.00908311  0.11524288 -0.15785109 -0.08445507
 -0.04342799 -0.10957815  0.06736775 -0.02355563  0.03776551  0.09343676
 -0.16640262 -0.25415754 -0.07384662 -0.11023998 -0.00544214 -0.08734372
  0.0030022   0.07439222 -0.1604923  -0.0825844   0.0086604   0.0493008
 -0.02761796 -0.05392797  0.16653998  0.02017893 -0.11927567  0.01516037
  0.05280491  0.33201781  0.1620412   0.03154445  0.03364211 -0.03527398
  0.08354662 -0.17140107  0.06292237  0.11371397  0.12247216  0.01268897
  0.08872958 -0.14156516  0.05507163  0.09336924 -0.12014824  0.06277133
  0.12244555 -0.06330732  0.00552024 -0.0705407   0.17228742  0.04592471
 -0.09638846 -0.05582784  0.08403803 -0.03333254 -0.0363882   0.06884834
 -0.13243559 -0.18576685 -0.22970346  0.10164902  0.36273083  0.11527975
 -0.19289225  0.012406   -0.07847794  0.03686931  0.122523    0.03821921
 -0.10682347 -0.03561315 -0.17828251  0.00601919  0.14778972 -0.02620768
 -0.05657588  0.16254278  0.01606432 -0.0303756   0.03665587  0.02593821
 -0.13973619  0.05631728 -0.08569592 -0.00230343  0.06158478 -0.1288341
 -0.05125758  0.05524256 -0.19326635  0.0823167   0.03551017 -0.00464607
 -0.09476104  0.01126279 -0.10963406  0.01300295  0.07642732 -0.25610948
  0.14810212  0.17711531 -0.00988911  0.1430051   0.0761384   0.03856796
 -0.00630984  0.03065157 -0.06648844 -0.05892357  0.10354338  0.02950427
  0.08386064  0.03489929]