[-0.11825959  0.12838921  0.03485949 -0.04007504  0.04709419 -0.10699983
  0.05867645 -0.21137272  0.19049563 -0.09754016  0.30617687 -0.02466268
 -0.18228661 -0.15914205 -0.00287311  0.10238122 -0.22074933 -0.09438492
 -0.0302675  -0.03010271  0.03225603 -0.00055728  0.07514133  0.05570436
 -0.0800821  -0.31485772 -0.13562615 -0.16407695  0.12566669 -0.0096615
 -0.00518589  0.03182684 -0.21454099 -0.07967692 -0.01962898  0.04597839
 -0.01365938 -0.05436701  0.19102596  0.01773438 -0.1556541  -0.06898868
 -0.04222205  0.26382223  0.17112015 -0.02178043  0.04038215 -0.11624324
  0.08363951 -0.14536139  0.00299231  0.08178192  0.12312675  0.04415333
  0.00393908 -0.20271707  0.01413458  0.03656893 -0.18667756 -0.03143004
  0.01668891 -0.03980318 -0.00931212  0.0403094   0.23691212  0.07636525
 -0.1242371  -0.07853318  0.17568563 -0.14409427  0.03212772  0.08567817
 -0.1192616  -0.17140746 -0.25922152  0.01935737  0.41565004  0.0495858
 -0.14315794  0.02578248 -0.18831527 -0.02606216  0.09914161  0.11364851
 -0.0645257   0.06328368 -0.10249104  0.00578914  0.15826587 -0.06838861
 -0.06432038  0.19481722 -0.06499453  0.06875974  0.03416511 -0.00198917
 -0.05156175  0.04566993 -0.08119345  0.01342653  0.00859926 -0.06946501
 -0.04039371  0.089613   -0.20500877  0.11765265  0.09584386 -0.02760079
  0.01029362 -0.05821244 -0.0665608  -0.05004933  0.12412179 -0.28337476
  0.22848113  0.18514501 -0.01127988  0.20550016  0.03259298  0.03478851
 -0.0266179  -0.06042286 -0.14981218 -0.01288483  0.07505113 -0.0193817
  0.048208   -0.05062588]