[-0.08424651  0.15305696  0.03011137 -0.03279453 -0.10960096 -0.02439519
 -0.08577194 -0.14968775  0.08685561 -0.05044674  0.20858689 -0.02212108
 -0.17113321 -0.18748796  0.00527343  0.14464921 -0.14990363 -0.2008024
 -0.04640657 -0.00047867  0.07335676 -0.01380613  0.01624236  0.0268717
 -0.08643436 -0.37383577 -0.0721672  -0.05495707  0.08736479 -0.04259703
 -0.11080652  0.06567948 -0.18261534 -0.098892    0.03440027  0.17737879
 -0.03454193 -0.0291499   0.12354417 -0.01012363 -0.24103363  0.06880568
  0.01589636  0.25191382  0.26202819  0.06877884  0.05646869 -0.13037418
  0.12744617 -0.16474603  0.08310089  0.16904901  0.09392963  0.08486904
  0.02258678 -0.17794311  0.00616645  0.09143431 -0.1307728  -0.01045712
  0.0264926  -0.09388062  0.02652547 -0.09919538  0.19855778  0.08640426
 -0.07475483 -0.14747031  0.1438558  -0.13966778 -0.10644155  0.03691693
 -0.13419239 -0.13448967 -0.32057539  0.03447337  0.40183407  0.11050927
 -0.22347896  0.04904367 -0.00558618 -0.02496752  0.12945551  0.155013
 -0.04008082  0.0359342  -0.12359369 -0.02174227  0.23113096 -0.05502357
 -0.01914715  0.19724602  0.00570924  0.15244515  0.09231966  0.07198697
 -0.04397492  0.07465702 -0.14505123 -0.02386537  0.02317262 -0.09581415
 -0.01366649  0.09282202 -0.11198296  0.13925819  0.03218637  0.10937949
 -0.01612164 -0.04214382 -0.03018598 -0.05357877  0.12995641 -0.21519084
  0.25246415  0.22049959  0.03989534  0.14757173  0.14643711  0.0819579
  0.0112824  -0.07491769 -0.18047909 -0.02110281  0.07748231 -0.02765425
  0.04136394  0.07523342]