[-2.16919646e-01  8.88284445e-02  6.32787272e-02 -7.09756985e-02
 -1.05272926e-01 -6.41891360e-02  4.15558219e-02 -6.17461465e-02
  1.19146876e-01  4.35410216e-02  1.90729693e-01 -8.12014192e-02
 -2.37439349e-01 -2.64850892e-02  4.22516459e-04  1.29901290e-01
 -1.33891717e-01 -6.60173446e-02 -9.06056315e-02 -1.37302399e-01
  2.57245153e-02  2.18263920e-02  2.11396571e-02  6.01776503e-02
 -1.79488987e-01 -2.53904104e-01 -6.33228198e-02 -9.13337693e-02
 -2.05611999e-04 -1.25277355e-01 -1.19820330e-02  8.10904726e-02
 -1.50078937e-01 -1.07908979e-01  3.30774076e-02  1.09975077e-01
 -7.07585737e-02 -9.23830792e-02  1.57895803e-01  8.31168145e-03
 -9.84308124e-02  7.99629558e-03  6.90592453e-02  3.38019341e-01
  1.51910767e-01  1.35599123e-02  4.96722050e-02 -2.39103660e-02
  1.45489380e-01 -2.43787318e-01  4.83219698e-02  8.67575407e-02
  8.21550563e-02  3.24984193e-02  1.60359845e-01 -1.25037327e-01
  3.49212810e-02  1.40493229e-01 -1.38149127e-01  1.07435063e-01
  1.03994623e-01 -6.86853155e-02  4.55815624e-03 -1.11914016e-01
  1.52691111e-01  7.34176263e-02 -1.05514787e-01 -5.47030456e-02
  8.96317139e-02 -4.50008474e-02 -4.50159423e-02  6.37186393e-02
 -1.04423545e-01 -1.88804910e-01 -2.89238870e-01  1.07872762e-01
  3.51939261e-01  1.27006084e-01 -1.92325518e-01 -4.52476256e-02
 -1.06556769e-02  1.02278152e-02  1.10141955e-01  5.02735153e-02
 -9.66525897e-02 -2.65473183e-02 -1.57642990e-01  3.07141133e-02
  1.91356763e-01 -2.38690544e-02 -3.53715941e-02  1.81599066e-01
  3.42606418e-02 -3.11365668e-02  1.09580718e-02  7.92737305e-02
 -1.67977333e-01  1.20730773e-02 -9.45818573e-02  2.59000249e-02
  1.07816152e-01 -1.31353900e-01 -1.95878297e-02  9.92857963e-02
 -1.46808296e-01  1.05654076e-01 -3.80531698e-03 -2.04761904e-02
 -1.26248464e-01 -4.04849723e-02 -1.07450448e-01  4.50294316e-02
  9.83548760e-02 -2.43494734e-01  1.41734228e-01  1.95637748e-01
 -4.79574390e-02  1.15307748e-01  3.71506214e-02  2.83626514e-03
  1.70506467e-03  5.26161008e-02 -4.64356355e-02 -1.01235084e-01
  7.59863108e-02  2.55803224e-02  2.92160269e-02  4.31481302e-02]