[-0.13652988  0.14513452  0.06494018  0.00699462  0.03184242 -0.08981817
  0.06328934 -0.18072607  0.19926818 -0.08429855  0.2871885  -0.01574485
 -0.20350821 -0.14581536  0.00555633  0.14660218 -0.21496902 -0.13764416
 -0.02479343 -0.01814894  0.03661834  0.00517287  0.04075155  0.08852468
 -0.06319902 -0.26613924 -0.09619039 -0.16456196  0.13834642 -0.03063503
 -0.08175299  0.04422575 -0.18380515 -0.09142771 -0.01568031  0.03533014
 -0.03008156 -0.05028566  0.17225264 -0.0305548  -0.1581732  -0.08970001
  0.00098253  0.29199269  0.2336134  -0.01933125  0.00966954 -0.09656788
  0.09109297 -0.15243556 -0.00687043  0.08422157  0.15031309  0.08579286
 -0.02183248 -0.21513365 -0.01197287  0.03305574 -0.20578802  0.00823865
  0.02439325 -0.07377565 -0.02298624  0.01538555  0.25287017  0.05820546
 -0.10532802 -0.14320515  0.19231459 -0.19029057 -0.0075121   0.09861475
 -0.13808917 -0.14781961 -0.25920749 -0.0250024   0.3285585   0.04814477
 -0.12368128  0.06570721 -0.15776511 -0.02904725  0.03616484  0.0856614
 -0.06289535  0.06183936 -0.12753229 -0.02960673  0.18465604 -0.06630137
 -0.0307996   0.20900369 -0.04378545 -0.01830021  0.05478258  0.0025217
 -0.02796154  0.02584172 -0.1340982  -0.05230209 -0.01693325 -0.09891503
 -0.0161901   0.08099208 -0.21263082  0.11229791  0.07809924  0.05680981
  0.01276771 -0.05902977 -0.11980408 -0.06326012  0.16248605 -0.24237101
  0.21722439  0.15862004  0.06237065  0.14261429  0.01508046  0.05792065
 -0.0477183  -0.05561619 -0.13858518  0.00521258  0.10750865 -0.04706649
  0.06465315  0.01003284]