[-1.34355143e-01  1.25043765e-01  7.48799369e-02 -8.11661482e-02
 -5.65893911e-02 -2.25133452e-04 -4.48261499e-02 -8.45515653e-02
  1.32423237e-01 -9.74469855e-02  2.46570587e-01 -4.87557352e-02
 -2.50911295e-01 -5.79754300e-02 -3.43327709e-02  2.26199850e-01
 -1.25100374e-01 -1.71266824e-01 -8.44792575e-02 -5.18253222e-02
  6.95246086e-02  1.38160111e-02 -6.53114393e-02  3.25586461e-02
 -8.29760358e-02 -3.81696671e-01 -9.41829681e-02 -6.62288070e-02
 -1.81763750e-02 -9.56451446e-02 -1.01195216e-01 -2.84966119e-02
 -1.24939181e-01 -2.64964886e-02 -7.55769713e-03  5.61143346e-02
 -2.39524245e-02 -8.47110748e-02  1.66794717e-01  9.14298818e-02
 -2.19228908e-01  5.14079295e-02  9.85855684e-02  2.96826661e-01
  1.88891575e-01  2.70052683e-02  5.71417883e-02 -6.79969713e-02
  1.22538984e-01 -2.80075163e-01  7.75130019e-02  9.98917818e-02
  1.25981852e-01  1.10930219e-01  9.05406997e-02 -1.70303509e-01
 -3.58371325e-02  1.19791828e-01 -1.69641092e-01  8.93236548e-02
  6.07534610e-02 -4.86688204e-02 -3.75721641e-02 -1.05458789e-01
  2.40132600e-01  2.00650126e-01 -1.48792893e-01 -1.32254824e-01
  1.35595992e-01 -1.20164335e-01 -9.51294526e-02 -1.09200059e-02
 -1.33541927e-01 -1.51987895e-01 -3.09988767e-01  7.70319030e-02
  3.86437893e-01  1.30400628e-01 -2.11807728e-01 -1.74072366e-02
 -4.27445956e-02 -1.16009368e-02  1.03363328e-01  9.48152989e-02
 -4.73454408e-02  1.28027825e-02 -8.29874203e-02 -7.60669587e-03
  2.34431893e-01 -7.57573545e-03 -1.28292535e-02  2.22013399e-01
 -1.93579681e-02  8.23888108e-02  9.34230443e-03  1.21442690e-01
 -1.08261846e-01 -1.43652679e-02 -1.15200870e-01 -1.35351866e-02
 -1.63709503e-02 -9.04724821e-02 -2.72519956e-03  9.95294005e-02
 -1.78327233e-01  1.44772172e-01  5.33160707e-03  3.98585610e-02
 -4.63806726e-02  6.71837553e-02 -5.29491305e-02 -6.25273818e-03
  1.00652538e-01 -1.99249730e-01  1.90513119e-01  2.13330135e-01
  3.39667015e-02  9.40851495e-02  9.32935849e-02  3.16170827e-02
 -3.14311986e-03 -3.75109576e-02 -1.79327324e-01 -5.25383614e-02
  3.33507843e-02 -4.08265693e-03  2.44074445e-02  7.86337778e-02]