[-1.02916978e-01  1.09526314e-01  5.14996462e-02  6.36168581e-04
 -1.38675300e-02 -4.20109518e-02  3.96225974e-02 -1.53165892e-01
  1.49677262e-01 -4.05143611e-02  2.88060039e-01 -4.74992034e-04
 -1.97074592e-01 -2.02094153e-01  5.60812727e-02  1.31556004e-01
 -1.78822786e-01 -1.53131813e-01  9.85805970e-03 -2.36986615e-02
  2.48998608e-02  1.16736805e-02  6.43925518e-02  5.13815843e-02
 -1.11378394e-01 -3.32922339e-01 -8.50962475e-02 -1.75833344e-01
  1.05475999e-01 -5.26896380e-02 -6.34655133e-02  6.15912154e-02
 -1.98220402e-01 -7.92447627e-02 -1.00767687e-02  6.71844855e-02
 -2.74762046e-02 -3.32681946e-02  2.07680374e-01  2.01498307e-02
 -1.68536678e-01 -9.64923725e-02 -1.77802034e-02  2.60927618e-01
  1.73797727e-01 -4.51827422e-03  6.07586466e-02 -1.08445488e-01
  1.04959356e-02 -1.04326919e-01  5.62941320e-02  1.13759898e-01
  1.17186688e-01  6.69105574e-02 -2.39136126e-02 -2.22990751e-01
  1.38845239e-02 -3.01367491e-02 -1.90390572e-01 -1.77540909e-02
  2.24409979e-02 -4.35758196e-02 -1.00989444e-02  7.03480234e-03
  2.61056900e-01  2.27635317e-02 -5.66247515e-02 -1.36930510e-01
  1.56880304e-01 -1.34590030e-01 -5.66135533e-02  9.55311209e-02
 -1.58864409e-01 -1.65799513e-01 -3.05251449e-01  2.20321454e-02
  3.72288465e-01  6.93821982e-02 -1.85996458e-01  5.65017425e-02
 -1.21662430e-01 -8.23892653e-02  1.00673907e-01  1.18675880e-01
 -4.23367657e-02  9.02504995e-02 -1.15507461e-01  2.60299239e-02
  1.54446945e-01 -6.55800179e-02 -6.13454245e-02  1.50373802e-01
 -2.91391462e-02  6.72584772e-02  8.04853365e-02  9.51343682e-03
  2.16484812e-04  9.22813714e-02 -1.08736657e-01 -3.56010012e-02
  3.67690884e-02 -7.19991401e-02  7.35051045e-03  1.07724607e-01
 -1.94011196e-01  1.24224804e-01  9.04768854e-02 -2.51630936e-02
 -1.33065870e-02 -3.89586128e-02 -1.13472879e-01 -7.00912252e-02
  1.63143337e-01 -2.54332840e-01  2.27991447e-01  1.96638376e-01
  3.51155475e-02  1.70046210e-01  5.67285791e-02  8.53517801e-02
 -5.35396338e-02 -5.50729036e-02 -1.83601901e-01  3.39158922e-02
  9.34320688e-02 -3.15873735e-02  9.54961181e-02  4.01280373e-02]