[-0.13534915  0.11638357  0.08018833 -0.04357983 -0.09364715 -0.08828055
  0.0017022  -0.06565171  0.07604373  0.05352071  0.24990681 -0.09280004
 -0.19965968 -0.03832087 -0.05509206  0.13553187 -0.17450671 -0.0313871
 -0.07127029 -0.06626023  0.14031218 -0.01794046  0.05363693  0.02493593
 -0.14082156 -0.26519653 -0.05723971 -0.10679569  0.01899623 -0.06346148
 -0.01213165  0.04715762 -0.19222662 -0.10210967 -0.01028688  0.03466781
 -0.0217561  -0.05565786  0.14881472  0.01693063 -0.15719549  0.10388196
  0.0624894   0.27153888  0.23510428  0.02374775  0.04697102 -0.05289745
  0.06559739 -0.21130748  0.07880413  0.10238519  0.12509666  0.03909672
  0.09640487 -0.15375677  0.00364579  0.09155232 -0.14367259  0.04735525
  0.11392432  0.02490836  0.04676078 -0.09249696  0.13702916  0.09939238
 -0.08408319 -0.11460253  0.08048927 -0.07012448 -0.03431141  0.07889812
 -0.15631133 -0.14929457 -0.29051602  0.06051213  0.31296077  0.08398131
 -0.20359679 -0.06418344 -0.09573194  0.01415392  0.08795276 -0.01135999
 -0.0321285  -0.02695539 -0.14968559  0.00960857  0.16461524 -0.07999965
 -0.0537171   0.22391804  0.02061019 -0.06472141 -0.0032679   0.06048371
 -0.14043839  0.05226699 -0.13451026 -0.00635166  0.00436609 -0.10181439
 -0.04314837  0.09780884 -0.18636882  0.05754701 -0.02151816  0.00093229
 -0.13030227 -0.04704822 -0.11918422  0.04636949  0.11897522 -0.18595456
  0.19249952  0.19319993  0.01466364  0.06366754  0.08145506 -0.00959518
 -0.00904242  0.01705951 -0.09620643 -0.03508313  0.04403515  0.00182756
  0.03157542  0.05298419]