[-6.48985878e-02  1.28865957e-01 -1.54787116e-03 -1.80797577e-02
 -1.55649725e-02 -9.53124538e-02  2.28933986e-05 -1.53752550e-01
  1.08760133e-01 -1.77573655e-02  2.55096287e-01 -4.72472496e-02
 -1.77593827e-01 -1.77320629e-01  1.75130256e-02  1.29420862e-01
 -1.56237766e-01 -8.53160694e-02 -1.17218293e-01 -4.52012718e-02
 -1.30325509e-02 -4.80630137e-02  1.12272911e-01  6.79624230e-02
 -9.52059552e-02 -3.21351647e-01 -9.78053734e-02 -1.12036876e-01
  6.27062842e-02 -9.84356999e-02 -3.20710056e-02  1.67375356e-02
 -2.02784494e-01 -1.13897286e-01  1.48889842e-02  4.13670130e-02
 -5.89871220e-02 -7.39889070e-02  2.41109997e-01  4.34233947e-03
 -1.36450663e-01  5.00965416e-02 -9.16523207e-03  2.60217398e-01
  2.61478007e-01 -2.70437542e-02  1.90673675e-02 -9.66873616e-02
  1.07171573e-01 -1.71432689e-01  2.16938313e-02  1.35950476e-01
  5.07905968e-02  2.60777008e-02  1.84054244e-02 -3.93050015e-02
 -6.04113936e-03  9.82343629e-02 -1.81260929e-01 -3.06632109e-02
  5.30269556e-02 -6.86839446e-02 -8.73611346e-02 -6.83146045e-02
  1.56851217e-01  1.30159259e-01 -7.76347071e-02 -1.18729711e-01
  1.41749963e-01 -1.50204122e-01  6.60330057e-04  4.35023680e-02
 -1.29051134e-01 -1.54093102e-01 -2.72239298e-01  4.42252234e-02
  3.74465495e-01  1.32504374e-01 -1.55844435e-01  1.47466455e-02
 -1.14651971e-01 -6.44529937e-03  7.30794966e-02  4.04397808e-02
 -7.30565116e-02 -2.64111906e-03 -6.73015490e-02  7.62549862e-02
  1.40542910e-01 -3.74461971e-02 -5.55418916e-02  1.85983136e-01
 -2.61551533e-02  5.87325357e-02  6.78492188e-02 -2.28930190e-02
 -5.33034466e-02  7.02055544e-03 -1.39558494e-01  1.66342116e-03
  6.19686209e-02 -7.76007399e-02  6.31582364e-02  9.44707841e-02
 -1.24697447e-01  8.62080306e-02  4.06076796e-02  7.11097708e-03
  6.02874532e-02  2.21275575e-02 -8.09997916e-02 -8.08189884e-02
  1.21922873e-01 -2.03539446e-01  2.22043619e-01  1.58054680e-01
 -3.87344300e-03  6.98713884e-02  6.67456239e-02  8.27016905e-02
 -5.15773967e-02  1.13665434e-02 -1.13889419e-01 -7.58179743e-03
  5.23712523e-02  5.42149208e-02  1.04635715e-01 -2.56680977e-02]