[-0.10169499  0.110921    0.06057272  0.01781896 -0.01477438 -0.04232115
  0.05129406 -0.14390495  0.14948794 -0.03151486  0.29314929 -0.04864937
 -0.22922878 -0.1695236   0.04068341  0.14290228 -0.21282141 -0.14020629
 -0.0284256  -0.04856465  0.04018449  0.00232259  0.00848814  0.02655319
 -0.07980055 -0.35355595 -0.07376247 -0.14779419  0.11160059 -0.04707551
 -0.04366849  0.05958607 -0.19711092 -0.08712655 -0.01044482  0.02812431
  0.008255   -0.02311398  0.17381193  0.00910927 -0.18105793 -0.089756
 -0.00245966  0.25412589  0.1284177   0.01455501  0.03572772 -0.09247794
 -0.02248137 -0.13597536  0.04050904  0.15795369  0.1230436   0.07447567
 -0.0328237  -0.2040036  -0.03408259 -0.03087714 -0.17074889 -0.01199306
  0.06640649 -0.04047203 -0.04817355 -0.03686047  0.23553471  0.03765666
 -0.08865768 -0.14520663  0.11758717 -0.13469547 -0.06299344  0.05496222
 -0.14068036 -0.16451633 -0.30731115  0.04245457  0.37817851  0.04830217
 -0.20944493  0.03067676 -0.15189438 -0.05896652  0.10870447  0.11307485
 -0.01454179  0.09444906 -0.09149367  0.01765058  0.12066717 -0.08679392
 -0.04165438  0.16559114 -0.04014667  0.04117927  0.03844042  0.03130648
  0.00838093  0.07213538 -0.08893549 -0.02610569  0.06096775 -0.05228152
  0.00106091  0.08262976 -0.1845091   0.11937439  0.0990905  -0.00898788
  0.03186897 -0.02272614 -0.093782   -0.10329682  0.16868673 -0.26024744
  0.21555534  0.22084813  0.00365701  0.15871032  0.03968622  0.1039947
 -0.03973942 -0.0479124  -0.16816692  0.00127269  0.07179955 -0.01918969
  0.015171    0.01095952]