[-0.09508432  0.16447054  0.08533657 -0.03469158 -0.07684004  0.03903504
 -0.04670113 -0.12798154  0.13182457 -0.10254727  0.25976989  0.02683354
 -0.21080256 -0.22250573 -0.02281586  0.16195275 -0.10267276 -0.15876991
 -0.06342676 -0.00781881  0.09923547 -0.01170976  0.00619142  0.0030215
 -0.12183479 -0.37618086 -0.09375403  0.00318557  0.03318964 -0.07362214
 -0.10117055  0.05693145 -0.19165638 -0.09540731  0.02472815  0.18419699
 -0.01902596 -0.00442491  0.09834874  0.01973163 -0.21218275  0.05124993
  0.0345186   0.28790051  0.24761382  0.05182871  0.05421737 -0.05639655
  0.14455228 -0.21007681  0.07897879  0.13275433  0.1490019   0.08353546
  0.07490843 -0.14521562 -0.0107197   0.14146571 -0.09314368 -0.01249998
  0.01932387 -0.11425101 -0.00531491 -0.06151273  0.18384136  0.0770956
 -0.11263015 -0.14528185  0.13791338 -0.12077679 -0.05414125  0.05054131
 -0.15418838 -0.1178567  -0.35070699  0.06598058  0.43588254  0.15011689
 -0.21731551  0.01196211 -0.04800385  0.05103722  0.10612841  0.12608291
 -0.03245003  0.06553824 -0.11286706  0.00232614  0.19807553 -0.01405043
 -0.04449135  0.23987912  0.02309105  0.12933289  0.05136758  0.01689776
 -0.02880986  0.01587541 -0.13268493 -0.0160847  -0.01180772 -0.08284079
  0.00512642  0.10144287 -0.162733    0.14169033  0.01559637  0.13132285
  0.01166731 -0.00920269 -0.07556323 -0.03258046  0.09221672 -0.28412578
  0.1769952   0.22783287  0.00072348  0.1173793   0.15077965  0.06456842
  0.03357325 -0.07343137 -0.12182122 -0.05302381  0.06942748 -0.07206997
  0.06083068  0.01984262]