[-7.56351426e-02  1.73915431e-01  8.07057247e-02 -1.93941817e-02
 -8.06509182e-02  4.33916226e-02 -7.54751042e-02 -1.12768643e-01
  1.23421945e-01 -8.87689963e-02  2.40737393e-01  1.26532493e-02
 -2.24795267e-01 -1.73110291e-01 -2.59144641e-02  1.62802070e-01
 -1.18198924e-01 -1.50145605e-01 -6.27748147e-02  4.52823951e-05
  8.61582384e-02  1.50869628e-02  2.47717509e-03 -5.79205202e-03
 -1.12022914e-01 -3.97220850e-01 -7.75940344e-02  1.90561786e-02
  3.87376957e-02 -4.55600433e-02 -1.14523031e-01  3.98348272e-02
 -2.04433084e-01 -8.31592008e-02  5.21507673e-02  1.73679560e-01
 -1.96173806e-02 -2.68490054e-02  1.09458230e-01  2.44432837e-02
 -2.17678294e-01  6.17759526e-02  3.35104056e-02  2.82715201e-01
  2.20890984e-01  7.12916702e-02  4.65635806e-02 -7.40470886e-02
  1.29586682e-01 -1.83031559e-01  6.16864562e-02  1.59188032e-01
  1.27007112e-01  8.58824849e-02  3.60913426e-02 -1.49278343e-01
 -1.03992047e-02  1.38314202e-01 -9.58162621e-02 -4.69706170e-02
  2.11909786e-02 -9.74058285e-02  2.02770764e-03 -8.41230378e-02
  2.04761907e-01  6.64856657e-02 -1.16748169e-01 -1.61946610e-01
  1.19627200e-01 -1.23285115e-01 -6.79552034e-02  1.83451753e-02
 -1.38972446e-01 -1.12490512e-01 -3.35622013e-01  5.93217686e-02
  4.25137490e-01  1.23204194e-01 -2.24365905e-01  2.85329409e-02
 -4.19495516e-02  1.77021008e-02  1.00642003e-01  1.38096064e-01
 -3.37724388e-02  6.98168874e-02 -9.44405720e-02 -8.15336406e-03
  2.34803632e-01 -2.48081777e-02 -2.93668844e-02  2.20019326e-01
  2.25535501e-02  1.20586276e-01  4.96947095e-02  1.31006017e-02
 -4.65973094e-02  3.04311719e-02 -1.32485211e-01 -1.00412080e-02
 -9.99721605e-03 -7.90870562e-02 -1.60021114e-03  1.12865940e-01
 -1.91643581e-01  1.53564498e-01  2.82777138e-02  9.97921005e-02
  4.18354124e-02  1.43592397e-03 -7.96849430e-02 -5.81438802e-02
  1.02728270e-01 -2.90288359e-01  1.97070643e-01  2.26465508e-01
  3.18785459e-02  1.32654563e-01  1.49723142e-01  7.32672140e-02
  3.58228460e-02 -3.80899869e-02 -1.50038391e-01 -8.35646316e-02
  7.46829584e-02 -6.62240908e-02  5.94533458e-02  2.22251751e-02]