[-1.39361605e-01  1.41584530e-01  8.81797299e-02 -7.49822184e-02
 -7.51703903e-02  9.32388753e-03 -4.43526246e-02 -8.17993209e-02
  1.32079467e-01 -7.79591352e-02  2.63539284e-01 -3.32222395e-02
 -2.46917769e-01 -7.82508329e-02 -1.10345958e-02  2.18281582e-01
 -1.23008005e-01 -1.74240991e-01 -7.84325674e-02 -6.41356334e-02
  5.78924417e-02  1.04591968e-02 -5.33093773e-02  2.30291486e-02
 -1.08411632e-01 -3.90662938e-01 -9.74704102e-02 -5.69077507e-02
  6.00458682e-03 -9.47196782e-02 -9.24210101e-02 -1.46539006e-02
 -1.23165511e-01 -2.01162323e-02 -1.30914454e-03  5.25805131e-02
 -3.91303413e-02 -8.65370408e-02  1.80313110e-01  9.93041769e-02
 -2.21126795e-01  5.84147386e-02  7.83196911e-02  3.16915125e-01
  1.92944363e-01  1.84348263e-02  6.47887811e-02 -5.06268516e-02
  1.22825168e-01 -2.63412654e-01  8.42640251e-02  1.21759586e-01
  1.34783983e-01  1.04785614e-01  8.07975531e-02 -1.53136715e-01
 -4.84297611e-02  1.25618726e-01 -2.02656791e-01  7.49976188e-02
  5.89995161e-02 -6.92255348e-02 -5.49729131e-02 -1.25624388e-01
  2.38287717e-01  2.16688514e-01 -1.63729712e-01 -1.38630182e-01
  1.32318661e-01 -1.12781838e-01 -8.66809711e-02  1.68458407e-03
 -1.42517731e-01 -1.52440369e-01 -3.13389927e-01  9.95043144e-02
  3.85880053e-01  1.31939724e-01 -2.22711757e-01 -3.40829194e-02
 -3.21948901e-02 -1.10528022e-02  8.79052654e-02  1.17053866e-01
 -5.78272119e-02  1.36392713e-02 -7.31617659e-02 -9.09516681e-03
  2.08073452e-01 -1.10071590e-02 -2.41339337e-02  2.34958395e-01
  1.48090345e-04  8.21617618e-02  7.66771799e-03  1.23887971e-01
 -1.05964042e-01 -2.63585337e-02 -1.03137925e-01 -1.40105402e-02
 -2.40457561e-02 -8.95386487e-02  7.31195742e-03  9.31207687e-02
 -1.63221315e-01  1.67887732e-01  1.83386169e-02  4.63815406e-02
 -5.23977280e-02  5.47419265e-02 -4.02344875e-02 -2.52691712e-02
  8.83312747e-02 -2.30501771e-01  1.81855604e-01  2.10680321e-01
  2.74279546e-02  1.06626667e-01  9.10658017e-02  3.45744900e-02
 -7.10733375e-03 -3.62331197e-02 -1.48023501e-01 -5.37826493e-02
  3.27423736e-02 -1.03816325e-02  2.82873213e-02  7.44639635e-02]