[-0.13518843  0.13605511  0.06781437 -0.02500834  0.02265231 -0.08637341
  0.03311693 -0.14648962  0.10212344  0.0146849   0.31666896 -0.08554711
 -0.22203545 -0.17701249  0.04774288  0.1655886  -0.16382849 -0.07104751
 -0.08153901 -0.01527999  0.03875767 -0.02517674  0.08638649  0.06567976
 -0.04342856 -0.36356539 -0.13229138 -0.0924112   0.03989538 -0.03136755
 -0.05013625  0.06020672 -0.17578331 -0.08803538  0.02913494  0.04169735
 -0.03195344 -0.07201342  0.22567518 -0.00237841 -0.12589607 -0.03141972
  0.02300445  0.22556143  0.24749315  0.05639614  0.01070318 -0.06481661
  0.04491701 -0.16624044  0.01647692  0.12672457  0.04833899  0.04060761
  0.00757171 -0.13072483 -0.00889289  0.06696537 -0.15327485 -0.05696961
  0.0078244  -0.15455902 -0.09502088 -0.06486356  0.20596042  0.14103429
 -0.08782858 -0.11961084  0.14573662 -0.10597404 -0.02626222  0.03535994
 -0.18840496 -0.13366491 -0.29597378  0.05823642  0.36616346  0.05318094
 -0.17136936  0.02112492 -0.05005749  0.01499545  0.10210663  0.08915179
 -0.09199539 -0.01479312 -0.09417702  0.01454183  0.13423383 -0.04997431
 -0.04440492  0.2035992  -0.08270164  0.104795    0.05733979 -0.03092776
  0.04494889  0.02701227 -0.10655437  0.0091997   0.10083969 -0.0778523
  0.02624333  0.10160506 -0.17198898  0.00929886  0.03591511  0.03848859
  0.05110324 -0.04529616 -0.08380785 -0.04745134  0.12556893 -0.21713443
  0.21596177  0.19406901 -0.04109054  0.08803933  0.07303248  0.10531133
 -0.03374213 -0.00768977 -0.16667473  0.0239135   0.13178697  0.04779571
  0.07142118 -0.01563722]