[-0.10147094  0.13575111  0.08338764 -0.03877724 -0.09472593  0.01059125
 -0.08327202 -0.16401778  0.10280557 -0.06574027  0.2783452  -0.01464133
 -0.1932687  -0.13759327 -0.01892283  0.19176003 -0.12551448 -0.20445605
 -0.03687744 -0.02605755  0.06804264 -0.01555499 -0.0281388   0.01526124
 -0.13334601 -0.36652371 -0.10159449 -0.06146462  0.04778836 -0.08707335
 -0.14113367  0.0280626  -0.17489724 -0.04460418  0.03367415  0.1084061
 -0.00406426 -0.04862696  0.14999005  0.01932963 -0.20996697  0.10481792
  0.0478224   0.26966831  0.25746551  0.03076828  0.06009292 -0.07075083
  0.10719109 -0.18993597  0.07788815  0.13308288  0.1510655   0.0648367
  0.01107843 -0.15771712 -0.07716999  0.10865919 -0.16976178  0.05788918
  0.05617044 -0.11232423 -0.06774183 -0.11776145  0.21691358  0.18479985
 -0.14090745 -0.16122185  0.13312048 -0.12210454 -0.09516099 -0.0294951
 -0.18388799 -0.13220935 -0.31650886  0.04942061  0.38333246  0.08831038
 -0.27194664  0.0377746  -0.00300832  0.04111862  0.08900969  0.11025073
 -0.0267873   0.02808802 -0.08309855  0.00439721  0.22590593 -0.03572276
 -0.02225487  0.20509659 -0.05250853  0.11390354  0.04885432  0.09296726
 -0.03676805 -0.00559997 -0.11092594 -0.0121071  -0.02476168 -0.06626409
  0.01722223  0.1060735  -0.13417839  0.14417879  0.00368989  0.10956295
 -0.01634096  0.0090175  -0.04425172 -0.03139837  0.11751022 -0.23835693
  0.25164723  0.20406993  0.00167661  0.10135648  0.11063963  0.05391468
  0.01062319 -0.01169721 -0.17476699 -0.04986807  0.05638771 -0.05590409
  0.07735116  0.06692386]