[-0.1957195   0.1362807   0.05025188 -0.04698541 -0.05827848 -0.08247446
  0.04317889 -0.07932891  0.11621237  0.03170435  0.2396514  -0.09022319
 -0.24513736 -0.02893096 -0.00483056  0.12247641 -0.16244642 -0.08731737
 -0.02954787 -0.07868066  0.08143037 -0.03043953  0.04306278  0.09309915
 -0.16924541 -0.25481543 -0.07101327 -0.102449   -0.03476894 -0.07688931
 -0.01068191  0.07965183 -0.16332619 -0.07938453  0.01800642  0.05888415
 -0.01575187 -0.04642435  0.17685716  0.01449948 -0.12412795 -0.00589804
  0.04697879  0.32384014  0.15156318  0.02205127  0.0287556  -0.04125839
  0.07312464 -0.1676759   0.04618903  0.11936157  0.12475369  0.02110262
  0.07438578 -0.16342472  0.05538579  0.08797829 -0.11452018  0.04317822
  0.11014586 -0.07643925  0.01204812 -0.07307287  0.18706098  0.04386651
 -0.11007028 -0.05253067  0.06567878 -0.01381532 -0.03326435  0.06904601
 -0.14361233 -0.20054172 -0.24041705  0.08836427  0.34611067  0.09968966
 -0.22153838  0.00277138 -0.07462752  0.03677534  0.12606274  0.05719456
 -0.08845969 -0.01062927 -0.18054928  0.00345613  0.14274339 -0.03880938
 -0.05581179  0.17634878 -0.0010183  -0.0163963   0.04028454  0.03713964
 -0.12411914  0.05987732 -0.08933518  0.00734695  0.05916943 -0.12612836
 -0.05593088  0.06475736 -0.19720006  0.05833267  0.0327281   0.00436748
 -0.09668116 -0.01116324 -0.11519181  0.00500296  0.07985231 -0.27338478
  0.14668758  0.1791608  -0.04523689  0.14196204  0.07058939  0.04388695
 -0.00989753  0.03020735 -0.07548092 -0.05070638  0.12066658  0.03009012
  0.07871726  0.01742192]