[-0.08122522  0.18243462  0.12206002  0.00580042 -0.07118519  0.04168518
 -0.0743198  -0.11445647  0.10871885 -0.09839875  0.26489395  0.00372644
 -0.148313   -0.14561118  0.00759934  0.11781873 -0.12434316 -0.1356426
 -0.08465853 -0.02049455  0.03940755  0.01538617  0.01938283 -0.01575131
 -0.12266278 -0.39841452 -0.08939169 -0.05545     0.0975953  -0.07485659
 -0.11674243  0.01413163 -0.17885463 -0.05819801  0.01493609  0.17197147
 -0.03372382 -0.03363431  0.10388654 -0.02395434 -0.18126738  0.05991586
  0.03086085  0.25124395  0.24599035  0.04459416  0.04419611 -0.05093871
  0.12572968 -0.2212123   0.13741405  0.10148039  0.10761716  0.10284475
  0.14305292 -0.13728413 -0.02807032  0.11227856 -0.0515217   0.02319541
  0.02260065 -0.05330368 -0.01025538 -0.0790066   0.18181901  0.14247972
 -0.04632588 -0.18362321  0.14469242 -0.14637053 -0.09408198  0.0665904
 -0.10530885 -0.07714763 -0.30974686  0.0604978   0.44726831  0.15521196
 -0.22444282  0.01176178 -0.02374492 -0.01472069  0.12177253  0.07910163
 -0.04663934  0.02386068 -0.11312217  0.00845632  0.24743533  0.00419769
 -0.04578471  0.1906555  -0.0155775   0.10937975  0.06718063 -0.01542936
 -0.0353233   0.02147397 -0.13974456 -0.0336443   0.03396473 -0.07550365
 -0.05464189  0.12348552 -0.18336461  0.14749606  0.004462    0.09059107
  0.06743209  0.03073183 -0.08312526  0.00575727  0.1530074  -0.27665922
  0.21287115  0.18520869  0.00730564  0.10264243  0.11403818  0.06931137
  0.03531476 -0.03802437 -0.18337257 -0.07723685  0.03106895 -0.07296618
 -0.00552886  0.05474632]