[-0.20836715  0.09470212  0.05477142 -0.07183792 -0.11363073 -0.07220741
  0.04665868 -0.07248856  0.11138125  0.04947621  0.20118287 -0.07143967
 -0.23896968 -0.0285526  -0.00630646  0.11960854 -0.11635373 -0.06035294
 -0.10070699 -0.1412742   0.0136145   0.02748114  0.03531863  0.04784616
 -0.16905782 -0.24552356 -0.0587042  -0.09460409  0.00521116 -0.12419152
  0.02106263  0.07050603 -0.16646551 -0.12045143  0.0214344   0.08776437
 -0.08065298 -0.10234331  0.18204968  0.01669043 -0.10331986  0.00877493
  0.05556263  0.32177347  0.15091304 -0.00378269  0.05962063 -0.03255998
  0.15448372 -0.23018375  0.05098222  0.087268    0.10174916  0.01565199
  0.14708671 -0.11855455  0.03687287  0.14741117 -0.15020075  0.09563383
  0.1155042  -0.04123212  0.00145566 -0.10211458  0.15291673  0.06579936
 -0.10063864 -0.05549269  0.11999454 -0.03369472 -0.03906226  0.07435105
 -0.10018224 -0.1937912  -0.27387017  0.12826382  0.34648019  0.12644269
 -0.18875267 -0.05007585 -0.04007139  0.01532076  0.08220824  0.0297637
 -0.10072603 -0.03424978 -0.15789144  0.01031461  0.18665695 -0.01770187
 -0.05397151  0.19200265  0.04042287 -0.03800866  0.02350665  0.07781058
 -0.18554543  0.01224239 -0.09258121  0.01601635  0.11552984 -0.13802166
 -0.01266783  0.11294694 -0.1385698   0.12559719 -0.02041965 -0.0137381
 -0.11840067 -0.03498631 -0.09948575  0.03445634  0.10056805 -0.22224455
  0.14954726  0.16476204 -0.05258407  0.11479741  0.06123074  0.01362858
 -0.00118928  0.05877783 -0.05652807 -0.11754858  0.07358101  0.02522296
  0.04034173  0.05222543]