[-0.13552035  0.08333221  0.06825927 -0.04038079  0.00676404 -0.14638357
  0.02497287 -0.14809042  0.08118907 -0.0326447   0.34885898 -0.06893101
 -0.19475716 -0.19942196  0.03713429  0.14824443 -0.11488926 -0.04778829
 -0.12495279 -0.02057481 -0.02715736 -0.04573358  0.09639505  0.05622253
 -0.02380057 -0.33277145 -0.1279128  -0.07897648  0.03242519 -0.06128741
 -0.06218927  0.07114952 -0.17514594 -0.11869532  0.02523603  0.07227219
 -0.00424911 -0.0415885   0.21784694 -0.00501694 -0.15491913 -0.00804731
  0.0247866   0.22209322  0.25141197  0.01119494  0.00954246 -0.06115353
  0.09279815 -0.16442679  0.02905158  0.08310413  0.10473654  0.00413163
  0.0315933  -0.09779658 -0.03043594  0.09039596 -0.15299438 -0.06631293
  0.00919335 -0.12302893 -0.11091349 -0.05984804  0.17266259  0.1394031
 -0.1081629  -0.1065674   0.17670368 -0.10439058  0.01440622  0.07617489
 -0.17230846 -0.1450316  -0.28881994  0.09670364  0.36606917  0.07153063
 -0.17505288 -0.00268136 -0.08896613 -0.00561132  0.05475732  0.06373435
 -0.05402156  0.00220303 -0.08752783  0.0139292   0.11982228 -0.05484013
 -0.0463191   0.17123073 -0.05817369  0.09105466  0.04793508 -0.00821257
  0.00546022 -0.00479582 -0.1454612   0.00944773  0.07786661 -0.08648103
  0.01421042  0.0737065  -0.14186467  0.02484599  0.03681068  0.00185559
  0.0366243  -0.01451054 -0.0406788  -0.0769739   0.0863832  -0.21295419
  0.20828311  0.17735732 -0.02647107  0.09638236  0.06612148  0.08445215
 -0.00995634 -0.01019059 -0.08925144 -0.02933541  0.09359591  0.05539946
  0.08223161 -0.02746168]