[-0.1746822   0.10350353  0.06345015 -0.05908348 -0.05793704 -0.08452169
  0.01935378 -0.07574484  0.11234277  0.02455897  0.23165314 -0.09365635
 -0.20796739 -0.06672516 -0.01558913  0.12057715 -0.14024737 -0.05728388
 -0.05331295 -0.09594885  0.07072739  0.01923356  0.06713805  0.04080795
 -0.13963675 -0.31101593 -0.08026376 -0.0939727  -0.0238352  -0.11427349
  0.00182254  0.06609519 -0.19114485 -0.09336482 -0.01614444  0.06300586
 -0.03888747 -0.06497531  0.15691067  0.04756984 -0.12717125  0.02758327
  0.04979178  0.29552206  0.18390398  0.01378618  0.01058118 -0.02647405
  0.09077936 -0.17987655  0.05306806  0.10904958  0.12169645  0.01352573
  0.10209874 -0.08734741  0.0209568   0.0815401  -0.11741062  0.04089657
  0.11051597 -0.04438341  0.00453993 -0.07839941  0.14794154  0.05769827
 -0.08631776 -0.06848611  0.08290444 -0.02559323 -0.05243785  0.04448878
 -0.12722705 -0.18173163 -0.26180249  0.11087818  0.32912412  0.08856776
 -0.19963527 -0.00584277 -0.09847454  0.01809169  0.08718859  0.02447007
 -0.05609341 -0.02470114 -0.15866897  0.00054616  0.14489304 -0.04407106
 -0.06722023  0.18615563 -0.01727728  0.0083795   0.02165496  0.03872127
 -0.14700784  0.07064032 -0.09917223  0.00254492  0.07310706 -0.11965171
 -0.04512715  0.08688992 -0.17352526  0.09874109  0.02599372 -0.00356949
 -0.05263744  0.00895323 -0.12181407 -0.00230663  0.07391407 -0.23791341
  0.17098001  0.17447105 -0.03168631  0.13142283  0.09052028  0.04927066
 -0.00598961  0.04602025 -0.08675619 -0.07775261  0.07802596  0.06003852
  0.03241371  0.04825305]