[-0.09300422  0.1618529   0.08156696 -0.03400141 -0.09103404  0.03357028
 -0.06293129 -0.12467247  0.11524671 -0.09199655  0.25337541  0.02314304
 -0.2182966  -0.19722036 -0.01979397  0.15629803 -0.10633468 -0.16486517
 -0.06560144 -0.01212416  0.08476837  0.00530157 -0.00665385  0.00263449
 -0.12663981 -0.38407493 -0.08522519  0.02422673  0.03817987 -0.06684317
 -0.10412174  0.06629516 -0.20210131 -0.08511675  0.04562524  0.18851815
 -0.0152644  -0.02227174  0.10400112  0.02615715 -0.22119418  0.06090834
  0.03962995  0.29077125  0.2422308   0.05766248  0.04624819 -0.05775869
  0.14370887 -0.19574083  0.06933241  0.15792929  0.12994692  0.083226
  0.05669917 -0.14786728 -0.01458135  0.14342365 -0.09298965 -0.04180798
  0.01779574 -0.11338361  0.00387872 -0.09200507  0.17867024  0.06682052
 -0.11303645 -0.14870837  0.13165788 -0.1225114  -0.06633295  0.03631645
 -0.15047622 -0.11151958 -0.34205207  0.0722509   0.42455503  0.13648652
 -0.21494365  0.0227553  -0.03097408  0.02880485  0.09835313  0.12158912
 -0.03116553  0.05565302 -0.10001508 -0.00143241  0.22918808 -0.00591991
 -0.02925978  0.22394685  0.01966388  0.11504715  0.05770478  0.02679387
 -0.03952822  0.02315506 -0.12643878 -0.00208334 -0.01496272 -0.09672938
  0.00042812  0.11233137 -0.17867647  0.15065849  0.02304176  0.11553776
  0.01910261 -0.00586112 -0.07277249 -0.04225535  0.09151977 -0.29251418
  0.19640778  0.22969322  0.01214157  0.1258229   0.14420825  0.06867646
  0.02687411 -0.05748963 -0.1267644  -0.08468598  0.07234135 -0.07064125
  0.05703256  0.02180926]