[-8.78365636e-02  1.00887172e-01  4.34475541e-02  1.33265182e-02
 -2.70659034e-03 -5.27418628e-02  3.78523916e-02 -1.48714364e-01
  1.64361879e-01 -3.19874547e-02  2.86827385e-01 -3.55371051e-02
 -2.14242727e-01 -1.77683517e-01  5.57297133e-02  1.46317348e-01
 -2.25081906e-01 -1.34685427e-01 -2.16178037e-02 -4.79160994e-02
  1.60059016e-02 -4.01677703e-03  1.57376882e-02  4.29122820e-02
 -7.88013637e-02 -3.54042232e-01 -7.70147666e-02 -1.67987645e-01
  1.26581624e-01 -3.63052599e-02 -4.14440185e-02  6.48956224e-02
 -1.98034704e-01 -7.63395354e-02 -6.76310062e-03  1.16435252e-02
  4.74187965e-03 -2.68285256e-02  1.90670624e-01  1.17567265e-02
 -1.94354057e-01 -1.02787070e-01 -2.05888096e-02  2.51244754e-01
  1.40773356e-01  1.37488348e-02  4.78044041e-02 -8.93397853e-02
  7.02179922e-03 -1.21399477e-01  3.97701338e-02  1.53520912e-01
  1.32904023e-01  5.37518151e-02 -3.86825874e-02 -2.04034284e-01
 -3.31205912e-02 -3.93776447e-02 -1.80067316e-01 -1.16116134e-02
  7.25488290e-02 -4.75788675e-02 -5.69952317e-02 -3.20795402e-02
  2.50685364e-01  3.58923785e-02 -9.63009298e-02 -1.43242896e-01
  1.36604756e-01 -1.39020413e-01 -5.07095456e-02  6.27884194e-02
 -1.46108478e-01 -1.72419295e-01 -3.16801399e-01  3.60406004e-02
  3.80696952e-01  5.02480157e-02 -1.96249560e-01  4.16964665e-02
 -1.52834401e-01 -4.95107472e-02  1.07000507e-01  1.26024574e-01
 -2.95753535e-02  9.24990103e-02 -8.01945850e-02  9.11355950e-03
  1.30284488e-01 -8.65828693e-02 -4.83080111e-02  1.56674713e-01
 -5.54514416e-02  4.59724329e-02  2.35459302e-02  1.93189997e-02
  1.63049884e-02  6.73650652e-02 -7.33334422e-02 -1.88957304e-02
  7.15782270e-02 -4.58391979e-02  1.56089161e-02  8.67477879e-02
 -1.88950017e-01  1.21517777e-01  1.01232164e-01  3.44877888e-04
  4.85463366e-02 -2.40429933e-03 -1.04648821e-01 -1.17903344e-01
  1.69273898e-01 -2.61372805e-01  2.25151896e-01  2.05950290e-01
  1.52895972e-02  1.56263918e-01  3.41331735e-02  1.12177230e-01
 -5.18200509e-02 -5.06896041e-02 -1.74612686e-01 -1.63220611e-04
  8.22880045e-02 -1.65233668e-02  3.38699333e-02  7.75781786e-03]