[-0.09152643  0.15196006  0.07434403 -0.00359362  0.00880708 -0.04076007
  0.00445492 -0.13244258  0.15550756 -0.02285323  0.30733243  0.03993109
 -0.24044256 -0.2078656   0.05876039  0.11515899 -0.17665453 -0.12773263
 -0.03312863  0.00729177  0.02907997  0.01782178  0.05203632 -0.00289706
 -0.11047389 -0.32452548 -0.07134535 -0.14720003  0.09650787 -0.05032682
 -0.06861254  0.00209889 -0.19911049 -0.10323911  0.00802154  0.06235063
 -0.02212284 -0.03839713  0.15124807 -0.00692377 -0.19330272 -0.04478016
 -0.0333467   0.23398307  0.1598472  -0.00605525  0.07155298 -0.13326862
  0.04723328 -0.11634471  0.05614275  0.14133377  0.14798275  0.04603779
  0.04286852 -0.19659716 -0.00651687  0.04096284 -0.16557725 -0.01537295
  0.05180435  0.0099649  -0.02448498 -0.04848436  0.19312601  0.00362662
 -0.11244503 -0.141837    0.10772752 -0.09480258 -0.0474304   0.10668235
 -0.14929982 -0.19503444 -0.29440388  0.05401706  0.37671843  0.08635281
 -0.20152156  0.063059   -0.13351217 -0.05734178  0.0688831   0.1061697
 -0.02809306  0.09629659 -0.1004951   0.0143203   0.13252901 -0.06439088
 -0.02580884  0.15676932 -0.05148     0.07147671  0.02389983  0.01084754
 -0.0318966   0.08670667 -0.07499468 -0.02652549  0.06078774 -0.07992388
  0.00557361  0.08733856 -0.16746728  0.10847267  0.09057043  0.0322412
  0.05566898 -0.01529863 -0.07476073 -0.08051166  0.13614053 -0.28894511
  0.25508937  0.19005157 -0.00132312  0.12592277  0.06912203  0.08404393
 -0.03132975 -0.02723322 -0.17489855 -0.02416865  0.06773471 -0.03941564
  0.07233375 -0.00570002]