[-0.10794208  0.13211243  0.05749252  0.03169897 -0.00323939 -0.07208989
  0.06947964 -0.16443065  0.17333536 -0.08297443  0.34258553 -0.02257872
 -0.22850798 -0.12986074 -0.0178616   0.13749312 -0.20870256 -0.12141271
 -0.03331397  0.00704783  0.03264315 -0.01147597  0.02455437  0.03156079
 -0.03274382 -0.29649192 -0.09102064 -0.13722573  0.13135082 -0.05283188
 -0.10439356  0.02624275 -0.16993819 -0.10869248 -0.00847819  0.03453169
 -0.0201098  -0.0525247   0.18759528 -0.03773198 -0.17387468 -0.06691879
 -0.00322919  0.28698358  0.17735794 -0.00218061 -0.00105682 -0.08530828
  0.06527247 -0.14646588  0.00949693  0.08665835  0.17168956  0.07362305
 -0.01802169 -0.18756278 -0.03726939  0.05513446 -0.17643638  0.00887815
  0.06011881 -0.0953277   0.00420971 -0.0428681   0.25399107  0.06657932
 -0.0997115  -0.13807918  0.1714586  -0.16643374 -0.05599517  0.04922989
 -0.11789606 -0.14400713 -0.27217254 -0.00813107  0.32261679  0.06989865
 -0.14301449  0.03539632 -0.13430387 -0.03884339  0.06226549  0.08627623
 -0.03378382  0.07759491 -0.1421607  -0.04339034  0.19398794 -0.071727
 -0.04391384  0.1761184  -0.08204116  0.0119238   0.0527478   0.00255605
 -0.02937401  0.03906998 -0.12210555 -0.0150758  -0.00515258 -0.12547871
 -0.01490704  0.08832824 -0.1840928   0.07830027  0.04134092  0.06176957
  0.03097592 -0.05337707 -0.09093793 -0.0465863   0.15565562 -0.25678837
  0.26424164  0.15977535  0.04870892  0.13467453  0.0310562   0.04879811
 -0.04492561 -0.05488709 -0.17890368 -0.04540752  0.07592268 -0.03972581
  0.08824697  0.01956864]