[-0.11911561  0.13770108  0.05435567  0.02304261  0.01430473 -0.10599981
  0.07421289 -0.18069468  0.18552111 -0.0753596   0.32763264 -0.02123348
 -0.23383784 -0.14065601  0.0067687   0.14109983 -0.20980783 -0.10537052
 -0.04864234 -0.02455411  0.02481955  0.01088145  0.05113566  0.07248462
 -0.03866987 -0.29567033 -0.11132761 -0.14824603  0.16209167 -0.04803273
 -0.11193015  0.05425549 -0.17484115 -0.12827109 -0.00749133  0.00867364
 -0.02511876 -0.0554871   0.19382247 -0.02148678 -0.15702458 -0.07492838
 -0.0068798   0.28284696  0.2023664  -0.01491984  0.02816808 -0.10093826
  0.08227073 -0.13718939  0.00408129  0.09218901  0.17892088  0.06736817
 -0.01388571 -0.19671252 -0.0401386   0.04233827 -0.21056955  0.01396793
  0.05549088 -0.08580121 -0.01215995 -0.00780592  0.23368005  0.06205907
 -0.09453604 -0.13524403  0.20544875 -0.17905404 -0.01163595  0.07706087
 -0.13207856 -0.15201099 -0.26853654 -0.00227884  0.32316908  0.06200437
 -0.10791736  0.05636448 -0.15192258 -0.05431059  0.03113641  0.08455861
 -0.07060932  0.06655355 -0.11972824  0.00125339  0.17072268 -0.06438036
 -0.03166953  0.20823541 -0.05652601  0.01604588  0.05983427  0.01509931
 -0.04138624  0.02122355 -0.10970944 -0.00508008 -0.00391375 -0.11791426
  0.00578923  0.08411217 -0.17677107  0.09069908  0.04610536  0.05087297
  0.01105589 -0.05993006 -0.09440593 -0.06385469  0.14454255 -0.24500532
  0.23224202  0.15131108  0.04100109  0.1314836  -0.0003656   0.05052852
 -0.03792351 -0.06878728 -0.15551379 -0.0185283   0.10790411 -0.05031425
  0.07152589  0.01106794]