[-0.21964632  0.09876951  0.06104996 -0.06728203 -0.11177661 -0.07399658
  0.0342413  -0.08064324  0.1088022   0.04969779  0.21667457 -0.07270551
 -0.25174162 -0.03007088 -0.01207734  0.12900154 -0.12615687 -0.06943712
 -0.07871737 -0.12638617  0.02205619  0.02089707  0.03078319  0.05088381
 -0.15559177 -0.25681019 -0.06646407 -0.07894726  0.01302085 -0.11881574
  0.01416168  0.07535513 -0.163517   -0.11511681  0.02150053  0.09629866
 -0.05790694 -0.1070421   0.18495664  0.02268166 -0.10804242  0.00695747
  0.05347535  0.32820579  0.14177905  0.00756546  0.06182728 -0.03904908
  0.14384611 -0.2157075   0.06235319  0.09036052  0.1151157   0.00920584
  0.13096157 -0.13319023  0.03207261  0.15065293 -0.15429243  0.0937387
  0.12079376 -0.04257975  0.01502709 -0.10668679  0.16142821  0.06978822
 -0.10069834 -0.05770766  0.12935786 -0.02380803 -0.04825455  0.06768548
 -0.10791736 -0.19133294 -0.2774584   0.12758306  0.35253084  0.12245587
 -0.19748616 -0.04918851 -0.03281511  0.00759727  0.09191252  0.04597099
 -0.09282965 -0.03966771 -0.1651099  -0.00135548  0.19113344 -0.00629694
 -0.05846683  0.19189759  0.04421494 -0.0297867   0.02392137  0.08029813
 -0.17180432  0.02121296 -0.09409421  0.01099705  0.09568135 -0.12734845
 -0.01637359  0.11460885 -0.13607781  0.11461945 -0.0064851  -0.00804198
 -0.11622909 -0.02804987 -0.09460666  0.02551526  0.09396413 -0.23330581
  0.14938647  0.16806372 -0.03913748  0.12093662  0.06095973  0.02697298
  0.01081365  0.0452016  -0.06060319 -0.11458806  0.0771213   0.02153665
  0.04848036  0.06453673]