[-2.14520723e-01  8.87683630e-02  7.66336098e-02 -4.66936566e-02
 -4.50301245e-02 -9.29247737e-02  4.68068793e-02 -9.56441090e-02
  1.28781766e-01  1.63425189e-02  2.19222173e-01 -7.26483241e-02
 -2.51920521e-01 -3.84644531e-02 -3.20547782e-02  1.25312909e-01
 -1.51962802e-01 -6.99050650e-02 -4.09583561e-02 -1.14008687e-01
  1.19012594e-01  2.19348911e-02  7.76503906e-02  3.85242179e-02
 -1.61400884e-01 -2.85862744e-01 -8.37953016e-02 -8.45506415e-02
 -1.40539324e-02 -9.33720395e-02  4.63221222e-05  7.94230923e-02
 -1.72870934e-01 -9.00823250e-02  1.80276688e-02  6.90918565e-02
 -5.63650727e-02 -9.32939872e-02  1.54906765e-01  3.78257595e-02
 -1.36113927e-01  2.71131527e-02  5.63854575e-02  3.08089644e-01
  1.71518490e-01  5.02563231e-02  2.21357234e-02 -6.57249391e-02
  1.05934791e-01 -2.01038912e-01  7.12477416e-02  9.74942073e-02
  1.17389418e-01  2.32638735e-02  1.10315420e-01 -1.68032795e-01
  3.80530246e-02  6.74477741e-02 -1.15776472e-01  5.22100925e-02
  1.08394705e-01 -7.43709356e-02  2.65838113e-02 -6.98605999e-02
  1.40749976e-01  5.24627380e-02 -1.15821533e-01 -4.64342982e-02
  8.69922116e-02 -3.32163274e-02 -3.19330432e-02  6.58642948e-02
 -1.34724468e-01 -1.93541273e-01 -2.45731756e-01  8.97344127e-02
  3.50332141e-01  6.77660480e-02 -1.85812682e-01 -2.35554669e-02
 -6.24934435e-02  4.94520664e-02  9.85017866e-02  9.35269520e-02
 -8.12846646e-02 -3.25147510e-02 -1.61294460e-01 -2.27196869e-02
  1.51441410e-01 -4.31039967e-02 -9.70195904e-02  2.06941471e-01
  6.69293432e-03 -3.04812891e-03  3.53812724e-02  6.42177910e-02
 -1.68357775e-01  4.98770960e-02 -8.50995779e-02 -1.21834343e-02
  6.01911023e-02 -1.20577395e-01 -6.74053803e-02  8.98084119e-02
 -1.72737822e-01  1.06613293e-01  5.75164100e-03  2.63116416e-03
 -7.79022127e-02 -4.93687205e-02 -1.04307175e-01  2.71048993e-02
  3.72502580e-02 -2.60139495e-01  1.64441809e-01  2.01414093e-01
 -1.56286042e-02  1.64012790e-01  6.92921802e-02  2.96652671e-02
  1.59298293e-02  5.64355366e-02 -9.11500081e-02 -7.78936371e-02
  9.70907137e-02  4.31549661e-02  3.50446478e-02  2.68192720e-02]