[-7.13221878e-02  1.56931594e-01  4.27994318e-02 -5.64810000e-02
 -9.60940272e-02 -2.27749161e-02 -8.78058076e-02 -1.48865893e-01
  1.14948414e-01 -9.71419960e-02  2.61915207e-01 -2.26887967e-02
 -1.70345426e-01 -1.59999654e-01 -3.38705853e-02  1.72360629e-01
 -1.90140426e-01 -1.68533981e-01 -5.39113395e-03  9.07614920e-03
  8.53738338e-02 -5.83636668e-03  4.90327878e-03 -2.88954191e-03
 -8.15002620e-02 -3.66307497e-01 -9.31614190e-02 -4.56870608e-02
  6.73645213e-02 -6.57522902e-02 -1.14741996e-01  5.79890385e-02
 -1.94273680e-01 -9.05354321e-02  4.44848016e-02  1.57313541e-01
 -5.94631620e-02 -3.38901281e-02  1.24614768e-01 -5.11330878e-03
 -2.16715604e-01  7.05033690e-02  1.41657598e-03  2.55324364e-01
  2.37899780e-01  5.27932905e-02  4.34869081e-02 -1.64274350e-01
  1.21459201e-01 -1.56784430e-01  7.03209713e-02  1.43990919e-01
  7.89772794e-02  8.58297870e-02 -3.54279438e-03 -1.58695474e-01
  1.67488310e-04  9.56286788e-02 -1.41586244e-01  1.17811409e-03
  7.50496313e-02 -1.21179216e-01  8.60557426e-03 -8.71036202e-02
  2.13334590e-01  9.55212116e-02 -9.65080187e-02 -1.95715979e-01
  1.54432848e-01 -1.33380249e-01 -9.79973078e-02  3.49567793e-02
 -1.24913745e-01 -1.58534691e-01 -3.07624519e-01  4.18216512e-02
  3.83685142e-01  1.14087276e-01 -1.93034142e-01  5.80072887e-02
 -5.42767625e-03 -1.68626513e-02  1.46724090e-01  1.83782041e-01
 -1.69202462e-02  5.99162877e-02 -1.04446627e-01  1.17141788e-03
  2.25284085e-01 -6.98056147e-02 -4.81847525e-02  2.14631036e-01
 -3.65643799e-02  1.68622613e-01  8.13984871e-02  4.77622412e-02
 -4.29955423e-02  8.36144686e-02 -1.47612453e-01 -9.87538230e-03
  1.13627482e-02 -8.24982896e-02 -1.86886936e-02  1.29923508e-01
 -7.31415525e-02  1.32229239e-01 -8.67817923e-03  1.12596646e-01
 -1.30560789e-02 -5.21156378e-02 -4.58390974e-02 -6.40716106e-02
  1.13613509e-01 -2.38635734e-01  2.61665672e-01  2.01438710e-01
  6.08895235e-02  1.36716574e-01  1.60625711e-01  7.09208846e-02
  3.40636373e-02 -7.59735927e-02 -2.24768162e-01  2.19486654e-03
  7.73012862e-02 -2.13751290e-02  6.92975819e-02  3.79356518e-02]