[-1.67951345e-01  7.57813230e-02  7.44070634e-02 -5.28074093e-02
 -7.32907802e-02 -8.07941109e-02  5.72715811e-02 -6.24325089e-02
  9.92565677e-02  1.52884321e-02  2.22237110e-01 -8.67267251e-02
 -2.27315649e-01 -9.54067148e-03 -2.60840598e-02  1.61764637e-01
 -1.72665238e-01 -5.46297207e-02 -5.15097491e-02 -7.68276230e-02
  8.31895247e-02 -1.03081008e-02  3.89222912e-02  4.60672751e-02
 -1.45609409e-01 -2.72805095e-01 -6.64716661e-02 -1.15412645e-01
 -2.00023707e-02 -6.25799820e-02  1.03307636e-02  7.36125931e-02
 -1.79589376e-01 -7.91333169e-02  2.15906408e-02  3.62913720e-02
 -4.60318401e-02 -6.98230490e-02  1.68140233e-01  5.15353084e-02
 -1.43601105e-01  5.45631424e-02  6.24377020e-02  3.13615769e-01
  1.59896135e-01  2.57628653e-02  1.66067779e-02 -6.23697154e-02
  7.71315545e-02 -2.01490790e-01  5.41179888e-02  8.08890983e-02
  8.56710449e-02  5.03618121e-02  9.50371400e-02 -1.44013837e-01
  7.71356747e-02  7.26027042e-02 -1.70964450e-01  5.01425751e-02
  1.29247889e-01 -1.74735934e-02  3.36119533e-02 -7.97702894e-02
  1.66307420e-01  6.06347807e-02 -1.08185984e-01 -6.14315569e-02
  6.55204058e-02 -4.80568670e-02 -2.61703264e-02  4.40791994e-02
 -1.41045421e-01 -1.83490157e-01 -2.65532017e-01  8.94064233e-02
  3.19719642e-01  1.19763516e-01 -2.05257848e-01 -5.69878221e-02
 -5.07560484e-02  1.79384109e-02  1.39451876e-01  5.57146743e-02
 -5.54727428e-02 -3.11281662e-02 -1.23956755e-01 -4.70233196e-03
  1.38129994e-01 -3.91221568e-02 -5.65214418e-02  2.10409626e-01
  6.56016544e-03 -6.47062361e-02  1.16236657e-02  4.43614051e-02
 -1.59167737e-01  4.16829847e-02 -1.38406262e-01 -1.82893425e-02
  2.39010770e-02 -1.05348885e-01 -4.07151245e-02  1.06633984e-01
 -1.94459975e-01  8.39268491e-02 -6.88400259e-03 -3.66088860e-02
 -1.09243847e-01 -1.84185989e-02 -1.29507452e-01  2.84522474e-02
  7.03211799e-02 -2.08171636e-01  1.74649701e-01  2.01587126e-01
  3.40375607e-03  9.26031619e-02  7.38404915e-02 -6.82625905e-05
 -3.16677317e-02  4.34463695e-02 -1.02782562e-01 -4.79370505e-02
  1.00100495e-01  2.53849309e-02  5.90816401e-02  1.25069907e-02]