[-1.50926352e-01  9.67559665e-02  1.16849206e-01 -3.49929146e-02
  3.66707146e-03 -1.41073257e-01  3.60541344e-02 -1.44119561e-01
  6.99543133e-02 -7.96651747e-03  3.52164477e-01 -7.82256499e-02
 -1.89087495e-01 -1.95356056e-01  4.34835516e-02  1.42444372e-01
 -1.17265783e-01 -2.87895091e-02 -1.13802135e-01 -1.15799997e-02
  1.70646911e-03 -2.20493190e-02  1.14865296e-01  3.39730941e-02
 -2.63626613e-02 -3.33245128e-01 -1.20396890e-01 -8.37039575e-02
  2.49277335e-02 -3.76418307e-02 -6.32212758e-02  4.60914336e-02
 -1.98325619e-01 -1.44333899e-01  7.31180981e-03  7.37659559e-02
 -9.47918929e-03 -5.49743734e-02  1.94776326e-01 -2.10058223e-02
 -1.51268855e-01 -2.92672752e-03  1.78946648e-02  2.04895958e-01
  2.23193154e-01  1.28453868e-02 -2.94482405e-03 -6.87547624e-02
  7.72369429e-02 -1.79461554e-01  2.50530243e-02  8.91084597e-02
  8.23516473e-02  1.23227183e-02  2.84622107e-02 -7.58487582e-02
  2.61619245e-03  7.20195398e-02 -1.59249619e-01 -7.90299997e-02
  3.29778008e-02 -9.92732272e-02 -9.57063958e-02 -8.09100047e-02
  1.89778030e-01  1.43990695e-01 -1.05989479e-01 -1.02362059e-01
  1.29868895e-01 -8.01721737e-02 -8.37464165e-03  6.29624054e-02
 -1.74684450e-01 -1.31916568e-01 -3.09274673e-01  9.86797884e-02
  3.49982888e-01  5.09033799e-02 -2.06488013e-01 -4.95630596e-03
 -1.16305016e-01  2.30628848e-02  7.56168962e-02  6.94061816e-02
 -3.23390067e-02  3.10160406e-02 -9.33042467e-02 -8.21840425e-04
  9.91034433e-02 -7.65463635e-02 -5.04428744e-02  1.94595441e-01
 -4.24390472e-02  1.02972403e-01  6.25196919e-02 -1.25665218e-04
  8.99423566e-03 -4.94854175e-04 -1.50313064e-01  3.57700996e-02
  9.61055681e-02 -6.84975311e-02  3.40833532e-04  7.88368583e-02
 -1.46505967e-01  3.47315967e-02  3.59800570e-02  7.64107704e-03
  5.42452745e-02 -5.40301986e-02 -4.42881733e-02 -7.64612034e-02
  8.14801082e-02 -2.16381654e-01  2.13190198e-01  1.71968177e-01
 -5.88994138e-02  9.93255302e-02  7.51005858e-02  9.12314653e-02
 -3.46436612e-02  1.72051694e-02 -9.89327729e-02 -2.51538288e-02
  1.15086876e-01  4.25432101e-02  6.40164912e-02 -2.06695851e-02]