[-0.20884767  0.13441837  0.06318301 -0.08482911 -0.06175381 -0.06087581
  0.01647108 -0.06160426  0.12773988  0.02414514  0.25926772 -0.08375183
 -0.21404326 -0.06997395  0.01522619  0.12670684 -0.14894085 -0.06148769
 -0.04366339 -0.07526771  0.06981937  0.0021774   0.06107033  0.06641933
 -0.16473407 -0.31939691 -0.0816793  -0.09305079 -0.0252267  -0.1107676
 -0.0208887   0.07235483 -0.1585454  -0.09297131 -0.00199535  0.0813407
 -0.03305935 -0.05586512  0.16837743  0.03492255 -0.12413358  0.02752226
  0.04806224  0.32144713  0.17868012  0.01094483  0.03661326 -0.02789121
  0.08646422 -0.17320368  0.06907856  0.09200151  0.11360013  0.01931063
  0.105533   -0.12028165  0.0213326   0.09129114 -0.11721563  0.04599085
  0.10250948 -0.06463376  0.00240298 -0.07650995  0.17224975  0.07770585
 -0.0994232  -0.09098934  0.0573285  -0.00888408 -0.04316636  0.06865957
 -0.14435308 -0.17876904 -0.26384738  0.11109691  0.31241387  0.09185933
 -0.22671889 -0.01688673 -0.08380882  0.01747463  0.11486273  0.04463201
 -0.05977783 -0.02657317 -0.16901734 -0.00033484  0.15363161 -0.03491638
 -0.06728726  0.19637811  0.01000628  0.01114578  0.03091743  0.04716744
 -0.13930304  0.05853407 -0.10017319  0.00632657  0.06917728 -0.1117933
 -0.05491472  0.07938153 -0.19087248  0.09217429  0.03290832  0.01062636
 -0.0714848  -0.00330865 -0.12121554 -0.00289419  0.07909287 -0.26561633
  0.14697599  0.18573743 -0.02142564  0.13838167  0.09733374  0.02985302
  0.00233465  0.04882008 -0.07238337 -0.04350727  0.09767991  0.05111187
  0.05322077  0.04227813]