[-1.88526988e-01  1.00048557e-01  7.59424940e-02 -6.75958320e-02
 -8.84213224e-02 -7.88178593e-02  5.93610220e-02 -6.43491074e-02
  1.06750727e-01  3.44114937e-02  2.26649195e-01 -1.02624118e-01
 -2.44122624e-01 -2.80052256e-02 -1.54184001e-02  1.72444120e-01
 -1.75123617e-01 -5.43235317e-02 -5.17689772e-02 -7.33566210e-02
  8.50015059e-02 -1.83835477e-02  5.23668788e-02  5.10289073e-02
 -1.39487445e-01 -2.95970231e-01 -6.94524348e-02 -1.31014615e-01
 -2.53607687e-02 -4.93275113e-02  1.19795948e-02  7.28121474e-02
 -1.61879465e-01 -8.69392157e-02  1.93840470e-02  3.70533951e-02
 -4.11424711e-02 -7.78986439e-02  1.58642873e-01  2.20975634e-02
 -1.40986189e-01  4.19125557e-02  5.73615506e-02  3.05543393e-01
  1.50566369e-01  1.96268354e-02  4.59264815e-02 -4.99411523e-02
  5.71356900e-02 -1.87973425e-01  5.08133657e-02  8.13586637e-02
  7.93570951e-02  3.69244441e-02  9.09125432e-02 -1.39645681e-01
  6.84774891e-02  8.49495679e-02 -1.83380395e-01  4.49135266e-02
  1.36573225e-01 -1.34441229e-02  1.49900457e-02 -7.70900771e-02
  1.86542198e-01  9.31575149e-02 -1.16352774e-01 -6.35745972e-02
  7.97144547e-02 -3.95266116e-02 -1.81417353e-02  2.72554550e-02
 -1.69068828e-01 -1.77636191e-01 -2.57778525e-01  8.36030617e-02
  3.25481087e-01  1.06106214e-01 -2.04101250e-01 -6.89369440e-02
 -6.61783516e-02  4.38255258e-02  1.28121153e-01  5.38846664e-02
 -6.48176521e-02 -3.11278850e-02 -1.27524778e-01  3.59057053e-03
  1.26221344e-01 -5.17689846e-02 -5.88732027e-02  2.18327984e-01
  2.21137609e-02 -6.79053292e-02  9.55571793e-03  3.81036811e-02
 -1.29207060e-01  3.52957360e-02 -1.26652464e-01  1.46497783e-04
  3.26352194e-02 -1.13608338e-01 -3.72758359e-02  9.86899361e-02
 -1.88091829e-01  6.11093454e-02  4.94986260e-03 -1.74584072e-02
 -1.12885736e-01 -1.40001597e-02 -1.20902911e-01  1.42898625e-02
  8.16122890e-02 -2.00373799e-01  1.71655551e-01  2.09468603e-01
 -5.74255362e-04  9.48556215e-02  6.34440929e-02  4.16108966e-03
 -1.75862964e-02  3.19407843e-02 -8.98821279e-02 -3.63567248e-02
  1.04447916e-01  3.19498666e-02  5.24060912e-02  2.68477648e-02]