[-1.31167501e-01  7.05764815e-02  7.35431463e-02 -3.80369686e-02
  1.46719208e-02 -1.46505699e-01  4.89149615e-02 -1.30310535e-01
  8.35435539e-02 -2.08711848e-02  3.58451039e-01 -7.70243406e-02
 -2.05130219e-01 -2.00362548e-01  5.06847166e-02  1.46213546e-01
 -1.07816480e-01 -3.25422175e-02 -1.44565403e-01 -3.65414098e-02
 -3.80751751e-02 -3.94845046e-02  1.02161326e-01  5.27905039e-02
 -1.46773523e-02 -3.33507776e-01 -1.17840610e-01 -9.61025953e-02
  3.69585156e-02 -6.36362731e-02 -5.30345142e-02  6.83098361e-02
 -1.69592172e-01 -1.13446377e-01  4.41187108e-03  5.74649274e-02
 -4.76527232e-04 -4.62992042e-02  2.22796425e-01  4.16769693e-03
 -1.43528044e-01 -3.23541723e-02  1.92442667e-02  2.15382844e-01
  2.54361331e-01 -3.49138374e-03 -3.46912071e-03 -4.30224724e-02
  8.50627720e-02 -1.81728825e-01  2.52084136e-02  7.34706670e-02
  1.21343687e-01 -1.75630522e-03  4.45982814e-02 -7.81536922e-02
 -1.88602451e-02  8.03713202e-02 -1.75172970e-01 -5.88646643e-02
  7.25353602e-03 -1.32623747e-01 -1.22027747e-01 -5.58817051e-02
  1.73548177e-01  1.46931991e-01 -9.18713063e-02 -9.92409214e-02
  1.85637876e-01 -1.03721283e-01  8.50899518e-03  7.22218528e-02
 -1.66516855e-01 -1.37994766e-01 -2.96977133e-01  9.77239758e-02
  3.58389527e-01  7.98591077e-02 -1.78464353e-01 -3.82641191e-03
 -1.03424013e-01 -1.36544472e-02  4.89920340e-02  4.10614721e-02
 -6.38176575e-02 -1.04694469e-02 -1.04607761e-01  1.96578912e-02
  9.94211063e-02 -6.38112351e-02 -4.14845534e-02  1.77207872e-01
 -6.68429956e-02  8.50970149e-02  4.28434238e-02 -1.79684963e-02
  2.09303363e-03 -2.28489938e-04 -1.36069268e-01  2.76885927e-03
  1.06221236e-01 -9.61016044e-02  3.13249305e-02  6.73017949e-02
 -1.50843844e-01  1.77367106e-02  3.14988233e-02 -7.66934408e-03
  5.83097525e-02 -1.93049721e-02 -3.82592529e-02 -7.30251297e-02
  9.95328873e-02 -1.97649434e-01  1.99821517e-01  1.67724639e-01
 -3.62334922e-02  8.68473053e-02  5.40972240e-02  8.86469185e-02
 -2.47287638e-02 -1.27232624e-02 -9.70731899e-02 -2.10655015e-02
  8.24732110e-02  5.75342067e-02  7.00614080e-02 -1.02092540e-02]