[-0.12936136  0.13027798  0.05226755  0.01744934  0.01171357 -0.08676471
  0.05668503 -0.18235521  0.18658762 -0.09124427  0.33198434 -0.02294209
 -0.21307464 -0.12682183 -0.03034928  0.15903576 -0.21370149 -0.13219312
 -0.02156815 -0.01891076  0.04059043 -0.00973525  0.0155669   0.05918244
 -0.05200181 -0.29554147 -0.10192596 -0.13020115  0.13734108 -0.02439729
 -0.10147362  0.04861436 -0.19996898 -0.11974235  0.00407981  0.03578676
 -0.03250512 -0.04291296  0.18816958 -0.02441623 -0.16963546 -0.06425676
  0.02832965  0.29455385  0.19743513  0.01413841  0.00407402 -0.09646749
  0.07681137 -0.14890626  0.00199818  0.09392308  0.16182332  0.08820629
 -0.0242472  -0.20766886 -0.03403168  0.05487952 -0.17716992  0.01267948
  0.04178197 -0.09607278  0.00758815 -0.02666182  0.27049306  0.06411379
 -0.10407137 -0.13429479  0.19223966 -0.16694193 -0.02716233  0.06215925
 -0.12400839 -0.14896233 -0.2795817  -0.00600848  0.33019164  0.05737693
 -0.11355459  0.06255507 -0.12941207 -0.04254385  0.05981625  0.09689137
 -0.0406979   0.06498512 -0.11653484 -0.03914179  0.20723096 -0.05800689
 -0.03327462  0.19650449 -0.08292454  0.0134314   0.04828708  0.0169238
 -0.05582569  0.02956592 -0.12589984 -0.03230292 -0.02230757 -0.0958485
 -0.00152984  0.09957682 -0.18786687  0.07874157  0.03972043  0.07048201
  0.01504198 -0.04545679 -0.09203415 -0.06419108  0.13486022 -0.24439159
  0.25792965  0.15519597  0.04428231  0.13838054  0.04290427  0.04151779
 -0.03778778 -0.05477704 -0.17225295 -0.02191667  0.09815875 -0.05686405
  0.09008932  0.01172704]