[-0.20771436  0.06764126  0.06969365 -0.05297307 -0.05151076 -0.09677515
  0.06143617 -0.08376426  0.11486935  0.0365035   0.20759062 -0.0796022
 -0.24608259 -0.05379366 -0.04537813  0.12135511 -0.14882027 -0.0589092
 -0.03999494 -0.11453481  0.11556206  0.01990847  0.07832443  0.03531753
 -0.14399557 -0.27813786 -0.06696188 -0.10633311 -0.01636892 -0.09030547
  0.00748171  0.07892639 -0.17197827 -0.09339051  0.01064949  0.06587838
 -0.05213475 -0.08198484  0.14398201  0.02645162 -0.1202245   0.02640814
  0.0699296   0.28827745  0.17809275  0.05884445  0.01482934 -0.06139521
  0.10512071 -0.2114152   0.06459972  0.084284    0.11280572  0.02107829
  0.1237428  -0.14792059  0.04237462  0.046669   -0.11988827  0.06005249
  0.09901636 -0.05118309  0.03359563 -0.06999742  0.13936453  0.03802155
 -0.10119966 -0.03415633  0.09859523 -0.04736633 -0.04259382  0.05864158
 -0.11619794 -0.18077348 -0.23334923  0.08959918  0.34325558  0.08303666
 -0.17752565 -0.02453653 -0.07470168  0.03277321  0.09287165  0.05665316
 -0.07355807 -0.04240727 -0.1682996  -0.0286935   0.15320502 -0.05328163
 -0.07955841  0.20549043  0.00690846 -0.00490152  0.02777912  0.05703739
 -0.16898218  0.07091864 -0.09048857 -0.01475741  0.07258967 -0.1283423
 -0.04752073  0.084409   -0.16806392  0.09064323 -0.00543509 -0.00704465
 -0.07753228 -0.04155051 -0.10994722  0.03542501  0.04350866 -0.23488763
  0.18242297  0.19207333 -0.00901401  0.14610521  0.06507798  0.02472774
  0.0156281   0.04472411 -0.08121777 -0.08510468  0.08774536  0.0408562
  0.0279251   0.04199216]