[-0.10887273  0.13788714  0.04459314  0.03423914  0.02091388 -0.08471634
  0.06050483 -0.185845    0.17368181 -0.07797401  0.34436128 -0.01777131
 -0.22435091 -0.14334428 -0.00672388  0.13439961 -0.20942438 -0.11146005
 -0.03615274  0.00231694  0.02419705  0.006387    0.05105174  0.04988391
 -0.03886504 -0.29455677 -0.10742724 -0.13843273  0.15356499 -0.05213276
 -0.11938486  0.05117451 -0.17250094 -0.11992331  0.00896973  0.0301365
 -0.03003788 -0.05192242  0.20006476 -0.02511397 -0.1530959  -0.05243176
  0.00172633  0.29413655  0.19363384 -0.00876416  0.01192596 -0.10483678
  0.07455246 -0.13765012  0.02007677  0.09050623  0.17943254  0.07485475
 -0.00957822 -0.19587468 -0.03626378  0.04311255 -0.19028793  0.01839099
  0.05339744 -0.08379012  0.00210049 -0.01407038  0.23822811  0.06392059
 -0.09977286 -0.13795102  0.18488045 -0.16420218 -0.03459237  0.06816975
 -0.12741962 -0.1527441  -0.27408639 -0.00683107  0.32153735  0.06014442
 -0.12877308  0.05760593 -0.12766843 -0.06244252  0.04710905  0.09708025
 -0.05414261  0.06148328 -0.12697016 -0.01579282  0.18667196 -0.05885525
 -0.05009779  0.19330409 -0.07036102  0.02076211  0.06551787  0.01769084
 -0.0333063   0.0225738  -0.12447164 -0.0128688  -0.01175949 -0.11812927
 -0.01439656  0.09736487 -0.17671819  0.08706354  0.04805472  0.053618
  0.02531069 -0.06028846 -0.09216014 -0.04727962  0.13673691 -0.26799127
  0.25493476  0.1469623   0.0554438   0.13038366  0.01752095  0.04153888
 -0.02784153 -0.05460814 -0.17013459 -0.03868369  0.08787743 -0.03962009
  0.07925219  0.01639734]