[-0.12919235  0.1403019   0.07255475 -0.06387327 -0.09666432  0.00662706
 -0.08738378 -0.12350184  0.11707314 -0.0663745   0.273579    0.00878109
 -0.1822062  -0.19025542 -0.0109368   0.19477926 -0.13107616 -0.18044592
 -0.02153616 -0.02365413  0.09216582 -0.0178597  -0.00723873  0.01251219
 -0.13834055 -0.38406691 -0.1154824  -0.06530081  0.04539877 -0.09980205
 -0.13705154 -0.01163636 -0.18447322 -0.07073164  0.00865843  0.13309754
 -0.0144062  -0.0766274   0.12053933  0.01967905 -0.20719199  0.066544
  0.04991215  0.2563203   0.26794106  0.02757775  0.06494204 -0.0649456
  0.13980936 -0.18715023  0.08419324  0.09164628  0.13247529  0.06553037
  0.0424345  -0.14106655 -0.05160063  0.13650776 -0.17740889  0.00938041
  0.01160082 -0.08817408 -0.06524684 -0.11143763  0.2048924   0.18413334
 -0.12148074 -0.17477863  0.1587446  -0.12155022 -0.08328714 -0.0035596
 -0.16326728 -0.12923779 -0.34436318  0.05942459  0.38856673  0.11325917
 -0.23400496  0.02993313 -0.00784405  0.02437918  0.07984024  0.11047127
 -0.03078784  0.05542944 -0.10332197  0.00573717  0.20937429 -0.03009947
 -0.02283973  0.19897151 -0.02957148  0.13667648  0.05844346  0.09184121
 -0.05941289  0.01866297 -0.1163088  -0.01853145  0.00617269 -0.07445569
  0.01037707  0.11425281 -0.13062     0.13743405  0.01709446  0.09564092
 -0.03370013 -0.01127217 -0.04721007 -0.02292678  0.09388997 -0.23472117
  0.22316583  0.20852569  0.00470902  0.1257087   0.1254174   0.04565306
  0.00220976 -0.04701293 -0.17845261 -0.03363009  0.05061055 -0.05057529
  0.07971466  0.06720719]