[-0.21398003  0.11289781  0.05162588 -0.08627839 -0.06018418 -0.06830793
  0.02385748 -0.06664923  0.12405765  0.02167754  0.25633821 -0.05530294
 -0.21454132 -0.06144721  0.00982491  0.11942565 -0.14929378 -0.05753153
 -0.05087237 -0.10369747  0.07131068  0.00357756  0.06637149  0.06186319
 -0.18076213 -0.28796312 -0.08197147 -0.08942531 -0.03389695 -0.10578047
 -0.01628839  0.06876797 -0.16676718 -0.08493932 -0.00325398  0.06032473
 -0.03659025 -0.05264402  0.16740897  0.01769502 -0.11572655  0.02864185
  0.06387307  0.30662793  0.18957749  0.00571569  0.02647238 -0.02841017
  0.09817047 -0.18405886  0.07129177  0.07550233  0.11336125  0.01463028
  0.10742109 -0.12500402  0.01444919  0.09975787 -0.11113992  0.05126035
  0.08709375 -0.06972163 -0.01387545 -0.08358111  0.15671265  0.0730914
 -0.11196275 -0.08701422  0.05702245 -0.01485667 -0.03641721  0.07943092
 -0.13603057 -0.20046413 -0.26573974  0.12187655  0.32151496  0.10606571
 -0.21149039 -0.00433187 -0.06845396  0.02019516  0.10918126  0.03815313
 -0.0753574  -0.02127104 -0.16698645  0.01703202  0.14769851 -0.02762063
 -0.0778129   0.21068779  0.0079059   0.02293088  0.02912056  0.06905321
 -0.14080851  0.05721552 -0.09901369  0.01746767  0.08313614 -0.11112245
 -0.04333384  0.07931741 -0.16779402  0.09647799  0.01891599  0.02202148
 -0.08018046 -0.00572775 -0.11675074  0.00345109  0.05836914 -0.27034423
  0.13797067  0.17859134 -0.02694017  0.14614996  0.09328558  0.01932439
  0.00509366  0.05352539 -0.08328848 -0.03914434  0.10668887  0.03886526
  0.06921057  0.04923118]