[-9.89855453e-02  1.18890479e-01  6.75205216e-02 -7.58165901e-04
 -1.34820836e-02 -5.19563369e-02  3.00481748e-02 -1.60967425e-01
  1.40508726e-01 -4.13571894e-02  2.89381057e-01  3.91384307e-03
 -2.06575826e-01 -1.97122276e-01  4.95358519e-02  1.41494781e-01
 -1.83421269e-01 -1.46885440e-01 -1.09683154e-02 -1.16721978e-02
  2.90471204e-02  1.92168485e-02  7.10474476e-02  3.33478078e-02
 -8.40235725e-02 -3.49047899e-01 -9.74187776e-02 -1.54356897e-01
  1.44453660e-01 -2.96441801e-02 -7.72348791e-02  3.90722901e-02
 -2.13615805e-01 -9.24700126e-02  6.72625785e-04  6.98492676e-02
 -1.87972803e-02 -4.29926775e-02  1.88597277e-01  2.09939070e-02
 -1.86146274e-01 -8.81454572e-02 -2.17907261e-02  2.45457917e-01
  1.54767349e-01  1.28121367e-02  7.97611549e-02 -1.13638461e-01
 -2.86611554e-04 -1.02426589e-01  6.39432222e-02  1.19601607e-01
  1.34492546e-01  6.34489879e-02 -3.26217748e-02 -2.20223576e-01
  6.74332818e-03 -1.90399326e-02 -1.76327765e-01 -1.67617984e-02
  5.26687168e-02 -2.90489234e-02 -1.11514544e-02  2.24358821e-03
  2.53649265e-01  1.42389564e-02 -7.48896971e-02 -1.45980716e-01
  1.51815116e-01 -1.33416563e-01 -4.62747552e-02  7.80055672e-02
 -1.54933363e-01 -1.50639117e-01 -3.06673229e-01  2.98762973e-02
  3.80942553e-01  6.13457374e-02 -1.82963043e-01  4.60641645e-02
 -1.42865211e-01 -7.26446807e-02  8.27696249e-02  1.24999844e-01
 -4.12129834e-02  1.05078459e-01 -1.18508995e-01  2.01360043e-02
  1.58678517e-01 -8.53602216e-02 -3.80691066e-02  1.62374586e-01
 -2.65129190e-02  7.94152617e-02  5.24370968e-02  1.85670294e-02
 -1.17742410e-02  8.59147832e-02 -9.29522738e-02 -2.60122474e-02
  3.97137217e-02 -5.91016673e-02  5.18019730e-03  1.13401271e-01
 -1.85295492e-01  1.23423718e-01  8.31144676e-02 -1.75645500e-02
  1.34388534e-02 -3.29206698e-02 -1.07750140e-01 -1.08022623e-01
  1.51653901e-01 -2.34574154e-01  2.27227435e-01  2.22597986e-01
  3.50649543e-02  1.51606143e-01  7.32747763e-02  9.39993709e-02
 -3.07913516e-02 -4.95995395e-02 -1.87493607e-01  1.34117967e-02
  9.14763585e-02 -4.68808226e-02  6.45431206e-02  3.20336707e-02]