[-1.92716867e-01  1.13829471e-01  7.75728673e-02 -4.54201214e-02
 -6.75986707e-02 -9.40546021e-02  5.18033281e-02 -8.81908163e-02
  1.07462816e-01  2.39133742e-02  2.45798156e-01 -8.45537931e-02
 -2.22321779e-01 -5.03178239e-02 -1.61540601e-02  1.56159371e-01
 -1.86262280e-01 -3.95105071e-02 -5.03922887e-02 -7.15188906e-02
  1.00931384e-01 -2.37111896e-02  7.50105307e-02  5.54470606e-02
 -1.41414404e-01 -2.78877556e-01 -7.68935904e-02 -1.21980064e-01
 -1.07287271e-02 -5.90667091e-02  4.29989258e-03  5.90403788e-02
 -1.62456900e-01 -9.22032744e-02  9.43619292e-03  2.62898840e-02
 -3.83795835e-02 -6.78358749e-02  1.57831669e-01  2.46290173e-02
 -1.27317712e-01  4.17053476e-02  5.69551103e-02  3.00554186e-01
  1.75298870e-01  2.13167556e-02  3.42252813e-02 -4.79392223e-02
  5.95143549e-02 -1.86906919e-01  4.36843522e-02  7.74079189e-02
  9.66312811e-02  2.86459979e-02  1.00505486e-01 -1.55046076e-01
  5.55360094e-02  7.10164681e-02 -1.67799816e-01  5.71598299e-02
  1.21344544e-01 -1.45706655e-02  2.72779819e-02 -4.54564430e-02
  1.69037536e-01  9.33244899e-02 -1.10619240e-01 -7.11011663e-02
  8.54856297e-02 -4.38986607e-02 -1.30159631e-02  4.39541303e-02
 -1.54957339e-01 -1.90098464e-01 -2.49277949e-01  6.42479286e-02
  3.28714788e-01  1.07198134e-01 -2.06973001e-01 -7.16772974e-02
 -8.68835077e-02  2.41691079e-02  1.14226125e-01  4.56490330e-02
 -6.66421428e-02 -3.40379477e-02 -1.49761915e-01 -4.10250528e-03
  1.24588303e-01 -4.11109440e-02 -6.70062751e-02  2.39840105e-01
  2.34256443e-02 -6.26602098e-02  1.34796379e-02  2.77352091e-02
 -1.42921731e-01  4.67074923e-02 -1.34910926e-01 -1.63386595e-02
  1.65787265e-02 -1.20314479e-01 -4.03937511e-02  9.36134458e-02
 -1.87901258e-01  6.70714676e-02  1.22982496e-02 -9.97512508e-03
 -1.21287182e-01 -1.53838024e-02 -1.40751287e-01  2.97942590e-02
  7.64792785e-02 -2.04977155e-01  1.75848767e-01  2.09808946e-01
  2.00734623e-02  1.00578122e-01  7.32211694e-02 -3.46191297e-03
  1.96184974e-05  3.11823133e-02 -7.13210925e-02 -3.49174999e-02
  7.61884078e-02  1.01258419e-02  5.31343184e-02  2.96074878e-02]