[-0.1595846   0.09324516  0.07768296 -0.04297948 -0.08609654 -0.09275845
  0.00812584 -0.0698111   0.10741421  0.03646284  0.26542258 -0.07430959
 -0.19440302 -0.07147399 -0.02885045  0.1443575  -0.18497489 -0.05200559
 -0.06380575 -0.06279143  0.13131653 -0.04095205  0.04590325  0.04499999
 -0.1479377  -0.27349684 -0.05704435 -0.11954627  0.01755571 -0.08144458
 -0.02269149  0.03963282 -0.17494528 -0.11591233 -0.00541503  0.03340079
 -0.00996011 -0.05579249  0.14778595  0.00592984 -0.15730268  0.08906866
  0.05716364  0.2854774   0.2183069   0.04936815  0.04694869 -0.0557566
  0.08863299 -0.20819835  0.09457182  0.07993558  0.13825862  0.02619199
  0.10838164 -0.1551462  -0.0123427   0.08894785 -0.13588879  0.04891508
  0.10867959  0.036124    0.03031016 -0.11208421  0.15467168  0.10039105
 -0.09216024 -0.09974407  0.0664221  -0.05706581 -0.04820291  0.0710382
 -0.16450849 -0.15421712 -0.28064007  0.05992696  0.32654437  0.08482354
 -0.21057199 -0.07213833 -0.09091355  0.01970392  0.08768833 -0.00216114
 -0.03010841 -0.02290896 -0.13022903  0.00182907  0.15978581 -0.06910031
 -0.04625598  0.21250167  0.02403627 -0.06016354 -0.01940584  0.03152571
 -0.12085136  0.06872167 -0.12630482 -0.01854691  0.0190475  -0.06343915
 -0.02044457  0.07786701 -0.19793187  0.05397132  0.00074369  0.01331432
 -0.09765401 -0.0183633  -0.12946281  0.02499853  0.0991092  -0.20653473
  0.18663773  0.20323391  0.03665175  0.06913555  0.05867605 -0.01098225
  0.00061092  0.0323032  -0.08912122 -0.02062986  0.07230938  0.00271181
  0.04467706  0.04403244]