[-0.12065538  0.14260338  0.03320631 -0.05914124 -0.06996073 -0.03654827
 -0.08144901 -0.14762878  0.10814591 -0.08997881  0.26280612 -0.0416933
 -0.18232985 -0.17060064 -0.00480616  0.16555838 -0.13587745 -0.16597125
 -0.01733122  0.01236759  0.11330523  0.00251321 -0.01157279  0.02288956
 -0.11119331 -0.3720496  -0.11459519 -0.03690722  0.00939698 -0.07531777
 -0.1054519   0.01100885 -0.20838177 -0.10318216  0.0351171   0.16860877
 -0.06327685 -0.06690317  0.14538497  0.0142166  -0.21948075  0.05301584
  0.03212623  0.27044228  0.22962148  0.05212922  0.04043677 -0.14368674
  0.10131692 -0.13810273  0.07887268  0.1448976   0.08490308  0.09717362
  0.00836122 -0.12704605  0.00747088  0.09880359 -0.16414315 -0.03699622
  0.07402157 -0.07191133 -0.0131074  -0.11256216  0.21278964  0.11344937
 -0.10286037 -0.19005308  0.14443932 -0.15010455 -0.11819098  0.03857075
 -0.14152214 -0.18607597 -0.31250367  0.04636202  0.38618913  0.1368804
 -0.21050112  0.05062154 -0.00739033 -0.03472237  0.16197608  0.16272165
  0.03056846  0.07802023 -0.07250147  0.01203639  0.24426642 -0.03315891
 -0.05526718  0.20618001 -0.00555239  0.1279106   0.08383576  0.03788668
 -0.01807744  0.08152072 -0.13919254  0.00220333  0.00335698 -0.05937434
 -0.00896405  0.12245579 -0.10851415  0.17076527  0.03949562  0.09136953
 -0.02527403 -0.03277782 -0.07828012 -0.04862862  0.10099347 -0.25776553
  0.23456292  0.19023524  0.04630673  0.12943739  0.13981998  0.08329891
  0.03229218 -0.05387292 -0.24507813 -0.01737078  0.0755237  -0.00395398
  0.11353246  0.04639906]