[-0.10251357  0.12753247  0.04315856 -0.07834289 -0.0767736   0.00511434
 -0.09797858 -0.14346816  0.09627485 -0.10836682  0.22696684 -0.02392679
 -0.17710979 -0.13886032 -0.01469221  0.17665103 -0.1751924  -0.18358433
 -0.0350342   0.01248803  0.05116733 -0.02947909  0.00153888  0.00432065
 -0.07874291 -0.35451218 -0.11364987 -0.03494935  0.01004044 -0.01831277
 -0.0937451   0.03651662 -0.20066409 -0.07459962  0.0386656   0.15778874
 -0.02592999 -0.0379157   0.14768846 -0.00268774 -0.22751966  0.09531953
  0.02562441  0.24269615  0.20457795  0.0486448   0.05265063 -0.13729031
  0.11668086 -0.11862886  0.08536603  0.16821174  0.10477128  0.08276102
 -0.00879944 -0.16890891  0.04028839  0.0855343  -0.10434835 -0.02037425
  0.08241346 -0.07506899  0.01252651 -0.09301809  0.19164096  0.09977092
 -0.09947301 -0.23465104  0.12527679 -0.10300082 -0.08775695  0.03531483
 -0.18234843 -0.15640274 -0.31728086  0.04633613  0.36564514  0.1074072
 -0.20856185  0.0578233  -0.01889203 -0.01510281  0.1291313   0.18772219
 -0.01227322  0.0739828  -0.08117029 -0.00975065  0.22020923 -0.04043316
 -0.06511419  0.1837136  -0.00686653  0.12676838  0.07106195  0.05101312
 -0.01898743  0.07721987 -0.14209136  0.02348938 -0.00480437 -0.07331588
 -0.03069309  0.11048954 -0.11493528  0.14594017 -0.00423089  0.11074882
 -0.04114974 -0.0006438  -0.06621002 -0.0498388   0.11893761 -0.24110992
  0.22543243  0.22292323  0.04340602  0.1158381   0.18026514  0.10149658
  0.01713632 -0.01430357 -0.23236616 -0.02759128  0.06811316 -0.00564801
  0.08604952  0.07209424]