[-0.187084    0.10510466  0.08008438 -0.05506925 -0.06905238 -0.08675566
  0.05430485 -0.08474348  0.10826249  0.02765419  0.2374249  -0.08428957
 -0.24105786 -0.03375327 -0.01584597  0.15081355 -0.17076696 -0.04654332
 -0.05001841 -0.06884069  0.10860461 -0.02276857  0.07654122  0.04635751
 -0.13791431 -0.27927566 -0.07851899 -0.11277699 -0.00880409 -0.05092698
 -0.00270775  0.05150228 -0.17137723 -0.09021344  0.01321584  0.03047215
 -0.04810102 -0.08517881  0.16691349  0.02550526 -0.1314349   0.04045386
  0.05143732  0.29045045  0.1659362   0.02515298  0.04179145 -0.06869543
  0.05899854 -0.18561399  0.06328375  0.08362333  0.09486515  0.03933567
  0.09293711 -0.16146609  0.06131022  0.0757807  -0.1642697   0.05129267
  0.12974091 -0.01425093  0.02620426 -0.07137729  0.17152381  0.08873986
 -0.11328762 -0.07455263  0.07708127 -0.03867666 -0.0160089   0.04477115
 -0.16048561 -0.18511833 -0.24862228  0.07647671  0.32724759  0.10703428
 -0.20637539 -0.07319694 -0.08625302  0.0281592   0.11586951  0.05134204
 -0.06584463 -0.03213156 -0.14359166 -0.0052627   0.13119829 -0.05336667
 -0.0686582   0.22965014  0.02476899 -0.05411481  0.01150422  0.03882185
 -0.14697777  0.0506403  -0.12818009 -0.00988404  0.01857203 -0.11865152
 -0.03978488  0.0990165  -0.18938021  0.06952846  0.00632145 -0.01781636
 -0.11174377 -0.03011892 -0.13405843  0.01967301  0.06962463 -0.21166702
  0.17478743  0.20858601  0.02153857  0.10532669  0.07150497  0.01295309
 -0.00267807  0.03970172 -0.08686225 -0.03180203  0.08868103  0.0295503
  0.05215896  0.03199067]