[-1.97227523e-01  8.43112394e-02  3.95594984e-02 -4.51165028e-02
 -9.25979465e-02 -6.36237636e-02  6.68770298e-02 -7.75529146e-02
  1.30362377e-01  5.53515144e-02  1.63253829e-01 -8.91991034e-02
 -2.28075057e-01 -2.52618138e-02 -2.12171562e-02  1.41041473e-01
 -1.16957203e-01 -6.23797178e-02 -1.02424264e-01 -1.43355846e-01
  2.11376678e-02  3.10009848e-02  4.36855741e-02  4.41321731e-02
 -1.69717655e-01 -2.69456744e-01 -6.24106899e-02 -1.01801254e-01
  1.05477823e-02 -1.17729060e-01  5.78733580e-03  8.16371664e-02
 -1.72250882e-01 -1.20396748e-01  3.26506905e-02  8.22746009e-02
 -6.83576018e-02 -9.74594280e-02  1.69364423e-01  4.30560596e-02
 -9.44969282e-02  9.63426288e-03  7.42986426e-02  3.25179935e-01
  1.49428830e-01  3.31037119e-03  5.77014387e-02 -3.61271799e-02
  1.32666841e-01 -2.26308420e-01  4.18038368e-02  7.11210519e-02
  7.50988275e-02  5.03484420e-02  1.49416789e-01 -1.03328489e-01
  4.35605608e-02  1.28133014e-01 -1.42156556e-01  1.06184535e-01
  1.14434317e-01 -4.66339476e-02  8.01458955e-05 -7.94389397e-02
  1.41593277e-01  5.31390123e-02 -7.44317770e-02 -5.88349886e-02
  1.08883560e-01 -6.13553114e-02 -4.35301177e-02  3.56143229e-02
 -8.30024928e-02 -1.80676758e-01 -2.99077809e-01  1.16804175e-01
  3.36368620e-01  1.34757072e-01 -1.83362111e-01 -3.78833525e-02
 -2.95429863e-02  1.92626417e-02  1.03581369e-01  3.74367237e-02
 -8.73650163e-02 -3.16921175e-02 -1.42706096e-01 -6.59399142e-04
  1.93905935e-01 -1.96041223e-02 -4.68648486e-02  1.87000036e-01
  2.97821946e-02 -5.05228750e-02  1.82876643e-02  7.49799609e-02
 -1.83075964e-01  1.37637304e-02 -9.44636762e-02  6.92262128e-03
  1.00236036e-01 -1.29635930e-01 -9.12997685e-03  1.09590985e-01
 -1.67519867e-01  1.13454439e-01 -1.88910123e-02 -4.08603512e-02
 -1.10316455e-01 -2.14580223e-02 -1.06391370e-01  3.45672742e-02
  9.08089429e-02 -2.22584754e-01  1.53295279e-01  1.99886516e-01
 -4.95753177e-02  1.16843931e-01  4.06031087e-02  1.78063009e-02
  2.02444801e-03  7.75177777e-02 -4.10922170e-02 -1.17465019e-01
  6.60154074e-02  4.01697867e-02 -4.44978854e-04  5.26111089e-02]