[-0.1101163   0.12836869  0.07101446 -0.04732488 -0.00722558 -0.07257088
 -0.0006613  -0.15921153  0.15289518 -0.08222424  0.30137435 -0.02214692
 -0.20512393 -0.16148834  0.00694224  0.13830517 -0.19716625 -0.10900604
 -0.00445736  0.00164765  0.03624263 -0.00599382  0.04593206  0.04528551
 -0.05906814 -0.30570436 -0.0887081  -0.16908267  0.11196309 -0.03007497
 -0.06722705 -0.03772107 -0.1870397  -0.06998417 -0.03074024  0.07490581
 -0.00786223 -0.05449913  0.18157788 -0.02725956 -0.20587066 -0.07114009
 -0.01044205  0.22268438  0.18165962  0.00262186  0.06168393 -0.1504788
  0.06179683 -0.12183751  0.05493755  0.085386    0.12570043  0.05375782
 -0.0277892  -0.22389352  0.0048276   0.05036433 -0.16922238  0.00093774
  0.06239837 -0.01372845 -0.00624303  0.01419942  0.27434906  0.04969417
 -0.12938856 -0.1481436   0.14171918 -0.15583161 -0.04286334  0.09437163
 -0.13911229 -0.17175405 -0.29681331  0.03227999  0.3906084   0.07610897
 -0.1822852   0.03473428 -0.15674882 -0.05543882  0.12231421  0.15167464
 -0.00734886  0.07293329 -0.12259904 -0.00847393  0.18181652 -0.09853122
 -0.03060035  0.16543952 -0.03910276  0.08895075 -0.00251721  0.03198573
 -0.04809071  0.09535479 -0.09404719 -0.01745807  0.03894744 -0.03442314
 -0.00796934  0.09955018 -0.18967208  0.11879957  0.08034229 -0.00322333
  0.02348437 -0.04596866 -0.06714501 -0.07774966  0.16540949 -0.23061247
  0.24816923  0.19796126  0.06721138  0.15935497  0.09808845  0.06815932
  0.0078138  -0.05936287 -0.2005655   0.02817049  0.06251367 -0.04746377
  0.10087299  0.01514502]