[-0.10152407  0.15985805  0.05574341 -0.0541042  -0.06409586 -0.01754165
 -0.06762513 -0.16418879  0.09312036 -0.03643383  0.26125619  0.01774796
 -0.20021725 -0.20366982 -0.02517047  0.17826127 -0.14297496 -0.16153957
 -0.03599786  0.01937728  0.0897019   0.01879626  0.03164105  0.02588492
 -0.07652119 -0.36454755 -0.08529519 -0.03478453  0.03689281 -0.03406552
 -0.12425881  0.02976658 -0.21340135 -0.08974083  0.07060954  0.18962787
 -0.01427851 -0.04421832  0.0966927  -0.00498596 -0.20863119  0.05844555
  0.05090557  0.2563909   0.21126032  0.05387725  0.0733714  -0.12589392
  0.11914086 -0.12599351  0.10313313  0.1203381   0.14128602  0.05179174
  0.01952599 -0.16406934 -0.01251322  0.14490235 -0.11482061  0.00559218
  0.04177785 -0.09341412 -0.03846158 -0.10038668  0.183283    0.08162808
 -0.12717862 -0.18576542  0.09407306 -0.11791568 -0.10459244  0.03053249
 -0.17137681 -0.13943134 -0.35696593  0.0549014   0.38176325  0.08447602
 -0.23998295  0.03865404 -0.00314004  0.03847991  0.12397064  0.16904576
 -0.01348443  0.0697073  -0.13094573 -0.01845967  0.22370397 -0.05813959
 -0.04566635  0.20273088 -0.0321906   0.12882592  0.02979802  0.0532738
 -0.02007798  0.06229615 -0.11538403 -0.01802372  0.02384124 -0.06623646
 -0.02877726  0.10767513 -0.14694026  0.07086398  0.02124853  0.11126947
  0.03857487 -0.03726895 -0.07620311 -0.09749228  0.09122892 -0.25257406
  0.24793075  0.23980728  0.02177189  0.11185626  0.14159141  0.08022847
  0.04746247 -0.04314791 -0.17294891 -0.03558664  0.10842858 -0.03231723
  0.06591791  0.017028  ]