[-0.11868498  0.10887875  0.06036625 -0.00279183 -0.01881636 -0.05936115
  0.04675679 -0.1523046   0.14692141 -0.02517692  0.28039357  0.0399899
 -0.19291304 -0.22548445  0.07457937  0.11897977 -0.1751965  -0.14723448
 -0.02316255 -0.02341799  0.02321782  0.01320804  0.08306407  0.05041535
 -0.11612393 -0.3411479  -0.09962466 -0.16643797  0.15900207 -0.04538853
 -0.06078274  0.06179957 -0.20307969 -0.0870107   0.00053118  0.06704932
 -0.02177395 -0.04909521  0.18995281  0.01383822 -0.19322389 -0.10558709
 -0.02297214  0.2440394   0.18105185 -0.02358869  0.08969933 -0.09193236
  0.01324204 -0.12094567  0.05916296  0.11870637  0.12731606  0.06132214
 -0.00424248 -0.21869066 -0.0052788  -0.00853201 -0.18505295 -0.02049242
  0.01986601 -0.03970395 -0.02955485 -0.00158076  0.23270753  0.02853599
 -0.08291887 -0.13782969  0.16782838 -0.13994436 -0.01949665  0.1127758
 -0.14798474 -0.15984119 -0.27948585  0.03993043  0.38458475  0.08702859
 -0.17918997  0.04814891 -0.16709851 -0.07562934  0.04876094  0.11463851
 -0.05523468  0.10780225 -0.11289199  0.03215341  0.13923571 -0.06291845
 -0.02045323  0.18413685 -0.00924243  0.06967963  0.06204867  0.0162976
 -0.01986351  0.06923228 -0.0844151  -0.03693096  0.04731831 -0.07702707
  0.02591099  0.10421218 -0.17836833  0.13901494  0.09286113 -0.00956384
  0.01499304 -0.04066164 -0.088198   -0.10043009  0.14015876 -0.24885607
  0.21652046  0.20443764  0.02347319  0.16552429  0.05602349  0.0946277
 -0.04048867 -0.07134986 -0.1484293   0.03143591  0.09136093 -0.06127576
  0.04963109  0.01790724]