[-0.10051711  0.14300868  0.09160643 -0.03480956 -0.05958458 -0.0112301
 -0.07647564 -0.15030171  0.11450409 -0.05696522  0.2783553  -0.0146109
 -0.19174084 -0.16662262 -0.04325087  0.17856811 -0.14263277 -0.15820324
 -0.02426499  0.02148876  0.11491825  0.02172416 -0.00295976  0.01529295
 -0.0992897  -0.33650392 -0.09647253 -0.03227414  0.04155117 -0.07812826
 -0.1158573   0.00574365 -0.18826336 -0.08169062  0.04631365  0.16348808
 -0.0205149  -0.04842397  0.1199372   0.01281056 -0.22648056  0.04172441
  0.04496972  0.26103178  0.20797785  0.05073683  0.04458154 -0.13266286
  0.11584871 -0.13845097  0.07134011  0.13517265  0.12730193  0.07708203
  0.00679911 -0.16487707 -0.03376357  0.11878103 -0.09918977  0.00986856
  0.05552661 -0.08164107 -0.02805991 -0.09617823  0.18764649  0.05760796
 -0.13196048 -0.19571321  0.10601206 -0.11752607 -0.1089519   0.06012417
 -0.15768437 -0.13847105 -0.33707124  0.03306986  0.39526984  0.03647098
 -0.24782586  0.03029424 -0.02722832  0.00675366  0.10303213  0.16431098
  0.00945063  0.09763541 -0.11992346 -0.03558545  0.23885337 -0.0679683
 -0.0151914   0.20812617 -0.01794572  0.12288845  0.04789572  0.06331313
 -0.02865426  0.0540037  -0.12464934 -0.03441687  0.01455534 -0.05987106
 -0.02843321  0.10321151 -0.14922307  0.12910914  0.04583867  0.0998077
  0.02486372 -0.03291353 -0.09375443 -0.08329461  0.1371967  -0.24850622
  0.20723544  0.21958335  0.05369014  0.0958385   0.14584358  0.09089593
  0.01972094 -0.02154333 -0.17698693 -0.0208192   0.07048186 -0.05121447
  0.04668003  0.01590099]