[-0.08606022  0.16418184  0.08467665 -0.03229366 -0.08824617  0.03807804
 -0.05217095 -0.11759653  0.12046356 -0.10879753  0.25269261  0.01680695
 -0.21111555 -0.18786585 -0.01261021  0.15294003 -0.10396627 -0.1525635
 -0.08142643 -0.01661091  0.0861432   0.01044167 -0.0066976  -0.00404432
 -0.12506451 -0.37104902 -0.08307972  0.0235587   0.04381311 -0.07081445
 -0.1190384   0.05094568 -0.19748376 -0.10211201  0.05062116  0.1874499
 -0.01900066 -0.02140836  0.10267065  0.01672028 -0.21515504  0.06267778
  0.04969012  0.29073527  0.24520364  0.0457634   0.0389361  -0.07127535
  0.15392523 -0.20205815  0.07287147  0.14348602  0.13562296  0.09159099
  0.07582219 -0.14327586 -0.0067812   0.13829425 -0.08278882 -0.02942427
  0.03309212 -0.10430645  0.00688955 -0.08151475  0.1757241   0.05975247
 -0.10481085 -0.15989119  0.13181584 -0.12034319 -0.06316957  0.04354227
 -0.14592209 -0.11004545 -0.34440532  0.06456282  0.43534443  0.14859758
 -0.21844827  0.02234104 -0.04168116  0.02819689  0.11331908  0.11766809
 -0.0308878   0.06410553 -0.10027499  0.01698993  0.23172572 -0.01145717
 -0.03867512  0.22229977  0.02839815  0.11309584  0.06736827  0.02211808
 -0.04682869  0.01521209 -0.14891176 -0.00642528 -0.00602463 -0.1012217
  0.00322379  0.12137534 -0.18122755  0.15268318  0.01895758  0.11197866
  0.01903286 -0.00460651 -0.08128121 -0.02899326  0.09557583 -0.28722063
  0.1852648   0.22164531  0.01483543  0.11612411  0.14644526  0.06252225
  0.03456924 -0.05189302 -0.12637343 -0.08047424  0.06193949 -0.06370976
  0.0642959   0.02350781]