[-0.08941779  0.16157074  0.08776706 -0.03395328 -0.08209588  0.04180077
 -0.06451385 -0.11792091  0.12105157 -0.10401645  0.25287867  0.01642677
 -0.21367459 -0.19268671 -0.02497244  0.15768509 -0.10396135 -0.15509069
 -0.06602456 -0.01086771  0.09843772  0.00808027 -0.00718326 -0.0065792
 -0.13216974 -0.38120657 -0.09532402  0.01959163  0.02949114 -0.06147267
 -0.10840105  0.04708324 -0.19716704 -0.09173496  0.03612462  0.16700031
 -0.02160448 -0.02108775  0.09935725  0.02111308 -0.21707235  0.06619391
  0.0385364   0.28895766  0.24017112  0.05990992  0.04120466 -0.06086249
  0.13329102 -0.19708504  0.06797174  0.14941691  0.13562466  0.09137755
  0.05338997 -0.13520096 -0.01117713  0.13454722 -0.0932237  -0.04273251
  0.01414506 -0.10631605  0.0039534  -0.07639315  0.18295854  0.07195465
 -0.11291327 -0.15342121  0.12925111 -0.11932959 -0.06238264  0.02899777
 -0.15246566 -0.11716469 -0.34116006  0.07041829  0.43461037  0.14029077
 -0.22211061  0.02666988 -0.0434472   0.03429852  0.10641374  0.12274145
 -0.02946954  0.06304216 -0.09370919  0.00738899  0.21936713 -0.02401548
 -0.04197245  0.22772872  0.03026622  0.11793315  0.06361666  0.02422334
 -0.03737155  0.02417541 -0.13218801 -0.00257808 -0.00488288 -0.07752764
  0.00550035  0.11500981 -0.17028712  0.16413626  0.02951341  0.11141664
  0.02265829  0.00141478 -0.07789289 -0.04689279  0.08915659 -0.28385508
  0.18029068  0.2229065   0.01166499  0.12969603  0.15096025  0.0674492
  0.03076784 -0.04758382 -0.13089399 -0.0766603   0.07639167 -0.06008689
  0.06708929  0.02381538]