[-0.22227359  0.09475274  0.0543584  -0.04742021 -0.09476963 -0.06134948
  0.05995394 -0.08676239  0.11637373  0.05013032  0.17312834 -0.0904564
 -0.22908555 -0.01715816 -0.03150852  0.13699351 -0.13093756 -0.06194444
 -0.08935969 -0.14407952  0.02589155  0.03061889  0.02812676  0.05350243
 -0.16447836 -0.24170625 -0.05872957 -0.0901927   0.01743245 -0.11167955
  0.00688981  0.07804799 -0.16420566 -0.1095469   0.02246159  0.09824494
 -0.06693313 -0.098058    0.16892673  0.01907714 -0.09712394  0.00932924
  0.08019374  0.33315057  0.15283653  0.00295883  0.04075485 -0.03035115
  0.14509617 -0.23503172  0.04426445  0.07250629  0.09418212  0.03837332
  0.13984139 -0.12253958  0.04047282  0.13433659 -0.13494173  0.10804
  0.1066625  -0.06681981  0.01962846 -0.080453    0.13766792  0.06135782
 -0.07713463 -0.05203903  0.11044057 -0.05700872 -0.04324479  0.04934569
 -0.07959348 -0.18060818 -0.29659924  0.11074819  0.35656187  0.13400574
 -0.18188643 -0.03157112 -0.01936092  0.01508873  0.11331999  0.05270867
 -0.09799779 -0.03652266 -0.15961309 -0.00047925  0.19436942 -0.01655719
 -0.05206586  0.18769388  0.03949175 -0.04578794  0.02213314  0.07318398
 -0.17783898  0.01306224 -0.09137901  0.00294185  0.09553608 -0.12875983
 -0.00885226  0.10987351 -0.15990601  0.11514186 -0.00922502 -0.02129547
 -0.10993244 -0.02770447 -0.09510121  0.04437418  0.09505506 -0.2230871
  0.13844024  0.18442197 -0.0575969   0.12846819  0.0521021   0.0217892
  0.00728053  0.06877813 -0.03945423 -0.11152935  0.07389443  0.02764146
  0.02620999  0.06197619]