[-0.11711565  0.15412921  0.03899407 -0.06258082 -0.06669437 -0.03902789
 -0.07925148 -0.14576273  0.11777572 -0.09071176  0.27633902 -0.03020434
 -0.17908596 -0.17291558 -0.01752634  0.16904347 -0.138843   -0.15401
 -0.02281329  0.00210351  0.12277078  0.01333986  0.0043209   0.01414511
 -0.10079981 -0.36830637 -0.11515985 -0.03903124  0.01833562 -0.07896917
 -0.09654012  0.00668562 -0.20861299 -0.11241062  0.03771449  0.16116719
 -0.0584409  -0.06221116  0.14304017  0.01056706 -0.20588449  0.04646785
  0.03673855  0.274349    0.22888379  0.05470166  0.04740245 -0.15025374
  0.09099166 -0.11720709  0.08135483  0.13611685  0.09279206  0.0971511
  0.00728983 -0.13452654  0.01083897  0.10239917 -0.14913802 -0.04634786
  0.08563711 -0.0612806  -0.01715067 -0.09330414  0.22396992  0.1007266
 -0.10651511 -0.18797423  0.14797531 -0.13470441 -0.10911383  0.03069491
 -0.15438287 -0.17118515 -0.30170107  0.04385025  0.39095047  0.11791771
 -0.20650533  0.0483046  -0.01943495 -0.0209279   0.15639825  0.16003023
  0.01756034  0.08047967 -0.07230749  0.01926947  0.23004691 -0.03618633
 -0.05911249  0.20051503 -0.00315753  0.12225713  0.08465036  0.02795076
 -0.01874024  0.09066367 -0.14210187  0.00599282 -0.00251923 -0.0593713
 -0.01288536  0.1235214  -0.11008241  0.16159384  0.04356215  0.09418281
 -0.0242087  -0.03135104 -0.0811184  -0.05599122  0.10135696 -0.24760352
  0.23528957  0.1933821   0.04995024  0.13315192  0.14699724  0.09176474
  0.04180082 -0.04887912 -0.24436417 -0.00692345  0.07377494 -0.01031838
  0.11585339  0.04292006]