[-1.00774527e-01  1.50168791e-01  4.54425178e-02 -7.92965218e-02
 -7.33573437e-02 -5.09658158e-02 -1.05135620e-01 -1.58974543e-01
  1.07365035e-01 -8.83048996e-02  2.37006903e-01 -3.81193236e-02
 -1.67727277e-01 -1.83743700e-01 -2.64070425e-02  1.82838440e-01
 -1.82625577e-01 -1.69574723e-01  7.64670828e-03 -1.56995449e-02
  8.39754343e-02 -7.16803083e-03  6.21727109e-03  1.17115155e-02
 -1.08120643e-01 -3.72053653e-01 -9.56108570e-02 -6.90892339e-02
 -2.16820389e-02 -1.78664122e-02 -9.61631611e-02  4.22801189e-02
 -2.08084181e-01 -1.04491010e-01  5.70672415e-02  1.66193321e-01
 -4.76655811e-02 -2.00839248e-02  1.15909390e-01  3.62604274e-03
 -2.00439557e-01  6.03340752e-02  6.56725168e-02  2.62413293e-01
  2.15298697e-01  5.66711538e-02  5.09059839e-02 -1.41057655e-01
  1.25888750e-01 -1.05235077e-01  5.28411530e-02  1.32376239e-01
  1.04011752e-01  7.29511231e-02  2.25229319e-02 -1.32644996e-01
  3.78827192e-02  9.73922089e-02 -1.57489464e-01 -9.78146587e-03
  8.03667903e-02 -1.00574873e-01 -3.08185648e-02 -7.65346512e-02
  2.39519581e-01  1.04214348e-01 -1.04577422e-01 -1.98853910e-01
  1.35979921e-01 -1.12067007e-01 -1.16977647e-01  3.84787172e-02
 -1.56555027e-01 -1.55238390e-01 -3.34212840e-01  2.46049687e-02
  3.81964356e-01  9.51095447e-02 -2.06123695e-01  4.55198213e-02
  3.55201599e-04 -4.96244943e-03  1.65645927e-01  1.77509010e-01
 -5.17744245e-03  7.25152418e-02 -9.03735310e-02 -2.79103196e-03
  2.18290493e-01 -4.85150479e-02 -7.23669678e-02  1.71330377e-01
 -2.21381057e-02  1.45526692e-01  5.92505597e-02  2.58938260e-02
 -5.15699573e-02  8.30372572e-02 -1.63880646e-01 -1.84036084e-02
  1.10115120e-02 -5.17257154e-02 -2.58934144e-02  1.13693930e-01
 -1.00376107e-01  1.03877939e-01  2.11119093e-02  8.29807222e-02
 -4.71193530e-02 -1.92785580e-02 -7.07922950e-02 -6.01803437e-02
  8.97191167e-02 -2.38796636e-01  2.43556499e-01  2.02685386e-01
  4.99362834e-02  1.21901356e-01  1.50323004e-01  4.37751338e-02
  1.91292223e-02 -5.15965335e-02 -2.15032980e-01 -2.00310629e-02
  8.17910954e-02 -1.26342420e-02  1.20896332e-01  2.71700509e-02]