[-0.09674807  0.15631332  0.06796949 -0.05090062 -0.08391991 -0.03473022
 -0.08720186 -0.14642823  0.10910984 -0.07450484  0.24988954 -0.04377138
 -0.17225797 -0.17297852 -0.03287957  0.1905425  -0.17056195 -0.15595439
 -0.00600622  0.00512446  0.09482819 -0.00699393  0.01949207  0.00559879
 -0.07707875 -0.39018127 -0.10107715 -0.06060068  0.02951199 -0.04754282
 -0.10437726  0.02213963 -0.19692232 -0.11281005  0.04413297  0.14960791
 -0.05620876 -0.03380187  0.11535571  0.00339897 -0.20670526  0.08298437
  0.0424551   0.27062416  0.22831324  0.08645242  0.06799763 -0.15010527
  0.11773811 -0.11855002  0.06329383  0.1253904   0.11117718  0.07806404
  0.01746992 -0.14443387  0.0064449   0.09642324 -0.14678246  0.0077231
  0.08412074 -0.06417071 -0.00793046 -0.0839914   0.24275802  0.08856838
 -0.11990976 -0.18202503  0.13563965 -0.11936074 -0.09986283  0.02573389
 -0.153675   -0.15432148 -0.31181109  0.03923574  0.39729449  0.08611814
 -0.21452966  0.03136779 -0.01162291  0.00277388  0.13905682  0.19328865
 -0.0024267   0.0666433  -0.08778345 -0.02115742  0.20969296 -0.06540588
 -0.05265132  0.19703023 -0.01506847  0.1416366   0.04906681  0.03514866
 -0.05447182  0.0910153  -0.14876258 -0.0228824  -0.00374818 -0.05387935
 -0.01765271  0.10067687 -0.10264603  0.13572484  0.01390632  0.10591567
 -0.02755421 -0.02133052 -0.0671469  -0.05559388  0.10119988 -0.24663894
  0.24677674  0.21810488  0.05138306  0.12188099  0.15151243  0.06953304
  0.04268837 -0.03516774 -0.20699804 -0.01487854  0.07497343 -0.02858019
  0.09149561  0.03652827]