[-0.13453792  0.08014268  0.07966808 -0.02738419 -0.00174987 -0.15261288
  0.02311008 -0.13014765  0.07518887 -0.0238729   0.34491473 -0.06555243
 -0.20377503 -0.19866082  0.0377146   0.13440947 -0.10463758 -0.04237084
 -0.12272252 -0.01447775 -0.02318805 -0.05088164  0.10905804  0.03841532
 -0.02402446 -0.33219418 -0.12386974 -0.08106115  0.0330261  -0.0735452
 -0.06104812  0.06017859 -0.17147218 -0.12148621  0.01652514  0.08039141
 -0.01028813 -0.04422418  0.21387351 -0.00231188 -0.1519112  -0.02027507
  0.01438745  0.21750379  0.25105247  0.01079156 -0.00325923 -0.04963254
  0.08537775 -0.17965408  0.029312    0.09237244  0.11396682  0.00518259
  0.04788861 -0.07924975 -0.01557138  0.09255874 -0.15783067 -0.06445595
  0.00870684 -0.11607104 -0.10486697 -0.06447827  0.16744386  0.1364768
 -0.10112981 -0.09136935  0.17689429 -0.10159028  0.00643014  0.07519634
 -0.16651385 -0.14544336 -0.2841984   0.08890709  0.3553066   0.08473139
 -0.17099367 -0.00997644 -0.09704029 -0.01405122  0.0319286   0.0484614
 -0.05939452  0.0039465  -0.09730931  0.01513252  0.10477992 -0.06034491
 -0.03631179  0.17106347 -0.0577017   0.09729492  0.04474422 -0.02045368
  0.00197525 -0.00513444 -0.14444438  0.00041634  0.08842815 -0.10533012
  0.01760606  0.07409886 -0.14482519  0.01513642  0.03597391 -0.00191031
  0.0473131  -0.01760432 -0.03965402 -0.07242956  0.09014245 -0.20945378
  0.2139865   0.18417461 -0.02761596  0.08257453  0.06430526  0.0776763
 -0.01424232 -0.01500333 -0.08576124 -0.03338432  0.07081639  0.05156063
  0.06518478 -0.01924344]