[-0.1782396   0.08999645  0.07298591 -0.04933104 -0.06367896 -0.08215895
  0.01726502 -0.07475957  0.11661773  0.01959071  0.2095532  -0.09292246
 -0.23157816 -0.06301839 -0.01643497  0.1291986  -0.14068498 -0.0691189
 -0.06051693 -0.1008317   0.07363539  0.02600621  0.067507    0.03462812
 -0.14772527 -0.31676087 -0.07803395 -0.07384197 -0.02222778 -0.11452267
 -0.01309211  0.07766943 -0.1890453  -0.11426393 -0.00646283  0.05961761
 -0.03821816 -0.07146299  0.14693676  0.04712252 -0.13042946  0.02349787
  0.06425793  0.29781246  0.17881252  0.02455227  0.01745091 -0.04533069
  0.09323344 -0.20135024  0.0638391   0.11220664  0.11522471  0.02106477
  0.11068811 -0.09598675  0.01974768  0.08744761 -0.09593439  0.05792282
  0.13169038 -0.04782321  0.00537468 -0.09850467  0.1183932   0.02742604
 -0.07297537 -0.08253231  0.06568321 -0.02677296 -0.06657226  0.03771867
 -0.12738612 -0.18290235 -0.29541573  0.10713474  0.30990824  0.09720688
 -0.1827855   0.00154861 -0.08484023  0.03029514  0.0835248   0.01580699
 -0.05855368 -0.03368765 -0.15302856  0.00332679  0.1526459  -0.04363749
 -0.06428648  0.17712961 -0.00656534  0.00312288  0.01932915  0.0462249
 -0.15266396  0.07523065 -0.11204169  0.01553986  0.07847407 -0.1134848
 -0.03524173  0.08595313 -0.17968796  0.09734855  0.01758538 -0.00986655
 -0.04386434 -0.00173476 -0.15001293 -0.00034143  0.07488271 -0.23460753
  0.16218001  0.20285664 -0.00391616  0.1268591   0.09901679  0.04472189
 -0.00474753  0.06520697 -0.08575711 -0.08129229  0.09537522  0.05468551
  0.01498843  0.05455598]