[-0.21350904  0.09795503  0.0655797  -0.05586701 -0.09698088 -0.07368674
  0.04158707 -0.08553235  0.11373778  0.03827626  0.19718039 -0.08009304
 -0.24286588 -0.02864992 -0.00846877  0.133811   -0.12793903 -0.07342713
 -0.09398153 -0.12896496  0.02671985  0.02171535  0.01323097  0.05702537
 -0.16480736 -0.25592181 -0.07246128 -0.07866456  0.00134084 -0.1271655
 -0.00455827  0.07119644 -0.15948157 -0.11542946  0.02687668  0.09836977
 -0.06250278 -0.1029938   0.16810346  0.01644503 -0.11362668  0.02641136
  0.06725379  0.33281329  0.14963882  0.01197436  0.05646849 -0.04345069
  0.14771987 -0.21844649  0.04697305  0.08968425  0.10794504  0.02366591
  0.14154777 -0.12683521  0.02054189  0.14686875 -0.14395136  0.09866866
  0.11271216 -0.06706785  0.01436821 -0.10234058  0.14592744  0.06968013
 -0.10411312 -0.05188662  0.11097653 -0.0440657  -0.04548127  0.0571829
 -0.09831815 -0.18890776 -0.29371366  0.11460475  0.35822806  0.11890667
 -0.19416831 -0.04343732 -0.02805272  0.0139768   0.09865592  0.06071037
 -0.09482899 -0.03174089 -0.15502614  0.01942453  0.19607608 -0.00932122
 -0.04032966  0.18281764  0.0364223  -0.03755177  0.01207343  0.08244257
 -0.17737292  0.00892359 -0.08567693  0.01284004  0.09505553 -0.12035316
 -0.01093783  0.11300496 -0.14621921  0.11018828 -0.0040377  -0.01559105
 -0.11359042 -0.02786626 -0.08874734  0.03330804  0.08637258 -0.24078713
  0.13904266  0.18077084 -0.0582134   0.11528218  0.0432037   0.02023338
  0.00127816  0.04662836 -0.05704982 -0.11010047  0.07895855  0.03424897
  0.04713739  0.04711663]