[-0.08754521  0.09862804  0.05432336 -0.00533445  0.04085544 -0.10674172
  0.03772711 -0.11953624  0.12287474 -0.01936927  0.31103548 -0.04447669
 -0.22705083 -0.10454985  0.00391926  0.15517472 -0.13999633 -0.02407396
 -0.16161631 -0.06823384  0.0040554   0.02981817  0.09277016  0.07563692
 -0.03551009 -0.33245438 -0.09722645 -0.11107409  0.06050852 -0.06830489
 -0.01355699  0.04733745 -0.13726535 -0.07743257  0.03758172 -0.0104727
 -0.03173967 -0.06163878  0.23885743  0.0614193  -0.13961211 -0.02648601
 -0.0069006   0.28746617  0.25439796  0.0232412  -0.00076625 -0.04917985
  0.05067277 -0.26532993  0.01562373  0.10855903  0.0591444   0.01520977
  0.07349487 -0.13281927 -0.02474851  0.07054826 -0.18399374 -0.02284591
 -0.00114976 -0.10315157 -0.06046179 -0.01373773  0.19541131  0.16029631
 -0.11632645 -0.05453451  0.16055195 -0.13811816  0.02087382  0.02262714
 -0.14956115 -0.15023993 -0.27920702  0.03450971  0.41422519  0.08213341
 -0.16587262  0.00616216 -0.11517181  0.01643605  0.09878134  0.02974522
 -0.10438959 -0.04623417 -0.06717612  0.02793718  0.11785533 -0.0416881
 -0.07530416  0.20480537 -0.08769139  0.02128172  0.06718272 -0.01188474
 -0.03157967 -0.03424068 -0.12747468 -0.01199329  0.05751998 -0.08644944
  0.04960277  0.08916501 -0.19152908  0.04685397  0.04100998 -0.02621117
  0.07221182  0.0182446  -0.10683598 -0.04528673  0.1449946  -0.19770677
  0.2356385   0.18088159 -0.02995959  0.10249832  0.042113    0.05737756
 -0.0381268   0.00161916 -0.09226155 -0.02769745  0.06014217  0.0464805
  0.06052076 -0.04251785]