[-0.14026824  0.11683785  0.10058818 -0.00596173  0.01960162 -0.11974871
  0.03721995 -0.15015185  0.08842131  0.01862633  0.310444   -0.06781898
 -0.17053908 -0.17248732  0.01783396  0.14804493 -0.14939173 -0.05859476
 -0.0913125  -0.01094876  0.05392608 -0.01578661  0.08688957  0.05880484
 -0.03447575 -0.34185842 -0.12432547 -0.10196412  0.04908055 -0.01126787
 -0.03773617  0.062376   -0.15602063 -0.10156021  0.04646772  0.0724333
 -0.03379736 -0.06412948  0.21119879 -0.03517623 -0.13165985 -0.02686845
  0.05063308  0.22608967  0.24377804  0.04965381 -0.00801094 -0.04407604
  0.0410615  -0.17480199  0.00125753  0.10721508  0.07328524  0.06803182
  0.04475139 -0.11989266  0.03239269  0.05236137 -0.16361076 -0.06972308
 -0.01359447 -0.14124952 -0.05935037 -0.03432613  0.20316331  0.12869836
 -0.09613516 -0.07110194  0.12794174 -0.11905556 -0.0153423   0.044239
 -0.16914126 -0.12875785 -0.27822149  0.03739808  0.41085172  0.06985214
 -0.19339406  0.00475684 -0.05533085  0.00617519  0.10972928  0.06541613
 -0.09585688  0.00404598 -0.10167326 -0.00093904  0.12282785 -0.03971838
 -0.04651642  0.19831647 -0.05271625  0.09198248  0.07160991 -0.03223228
  0.05483905  0.01661232 -0.12773739  0.00731205  0.08097187 -0.0828916
  0.01838176  0.07778501 -0.17432673  0.01103753  0.05942354  0.02742176
  0.03821185 -0.02899068 -0.09377597 -0.03717899  0.1236552  -0.21373239
  0.2167145   0.19479653 -0.04609177  0.1035429   0.06529831  0.07886886
 -0.03628988 -0.02838479 -0.10879795  0.00363532  0.11363029  0.02867519
  0.08122259 -0.01734757]