[-0.20097791  0.11236899  0.07917975 -0.04287287 -0.06550846 -0.07977151
  0.04581439 -0.08784501  0.09544666  0.03660814  0.23651405 -0.08473059
 -0.23118488 -0.0493507  -0.03161838  0.14166072 -0.17725645 -0.0460902
 -0.04839638 -0.05719699  0.10417149 -0.01923468  0.08096952  0.03783026
 -0.14400637 -0.28315216 -0.07157774 -0.11365552 -0.01457101 -0.05730792
 -0.00571184  0.06409242 -0.17618763 -0.0930772   0.01354943  0.03975156
 -0.05636706 -0.06320434  0.15671812  0.02140423 -0.12995894  0.04836042
  0.06290489  0.29876289  0.17840964  0.02838922  0.02533377 -0.07184342
  0.05596757 -0.1980736   0.05973589  0.09193862  0.10031611  0.04263251
  0.09111198 -0.1705841   0.06227968  0.05436785 -0.15170354  0.05182738
  0.12799832 -0.01248971  0.0308063  -0.05993268  0.16475008  0.07936417
 -0.1159874  -0.07731371  0.07543768 -0.03698215 -0.00545571  0.0534803
 -0.1453902  -0.19676857 -0.25105092  0.07528847  0.31426874  0.10435959
 -0.20782553 -0.06923971 -0.10164114  0.02353073  0.10159484  0.04174649
 -0.07466117 -0.03256559 -0.15444921 -0.01338759  0.12903722 -0.04969667
 -0.06573591  0.23449187  0.03124902 -0.05095064  0.02218406  0.04085778
 -0.15377228  0.05455704 -0.14598791 -0.00538555  0.00889114 -0.13028076
 -0.04745314  0.09836213 -0.18522859  0.08084329  0.01352412 -0.01284352
 -0.11244821 -0.04405216 -0.14603509  0.02815348  0.07355841 -0.22021042
  0.18241709  0.20378903  0.04218262  0.11361108  0.10016107  0.00311246
 -0.00301282  0.04149919 -0.08459673 -0.03097014  0.0854592   0.01194031
  0.03699108  0.03715948]