[-0.19855648  0.09055721  0.04667265 -0.03798915 -0.10864246 -0.06121201
  0.06623966 -0.08809031  0.14462617  0.04275427  0.15512437 -0.07208622
 -0.21480845 -0.00347861 -0.03559839  0.12181812 -0.13359372 -0.07152635
 -0.07242095 -0.15149377  0.02692849  0.06053786  0.04536886  0.05066523
 -0.16938208 -0.25528714 -0.06564553 -0.08329331  0.03490511 -0.13214019
  0.0157802   0.0861688  -0.18447444 -0.10282343  0.0121697   0.08341341
 -0.07302783 -0.10431224  0.18783464  0.04230127 -0.11229666  0.01779307
  0.08087698  0.33612224  0.16695176 -0.01308556  0.03011102 -0.02883019
  0.14109384 -0.22654329  0.06520519  0.07923236  0.09345793  0.02954851
  0.12420519 -0.14415367  0.0135149   0.1327223  -0.1328041   0.11972252
  0.11818089 -0.0611502   0.02206632 -0.05614624  0.12813948  0.05302462
 -0.07090151 -0.07320311  0.11594572 -0.07609724 -0.04205043  0.05452594
 -0.08357312 -0.17807911 -0.31421515  0.11753278  0.34212524  0.11186761
 -0.16287269 -0.03021102 -0.02708983  0.02924632  0.09494745  0.05794382
 -0.10381259 -0.04913628 -0.16860251  0.0051226   0.19016947  0.00340584
 -0.08282193  0.19286495  0.03373669 -0.03956798  0.02053783  0.09113715
 -0.18986581  0.01263316 -0.10205401  0.01091492  0.08217104 -0.12428951
 -0.02473092  0.15061216 -0.16754252  0.12742953 -0.01422699 -0.03385242
 -0.11128896 -0.02426919 -0.11294933  0.03907396  0.09139169 -0.23024674
  0.14911476  0.17852032 -0.04296522  0.14300138  0.05474857  0.01629863
  0.01105657  0.0700867  -0.06133881 -0.09978344  0.05759181  0.02286183
  0.01558722  0.08026894]