[-0.12339161  0.1415814   0.05464623  0.02591567  0.02599819 -0.08061095
  0.07611214 -0.18590818  0.18445687 -0.075178    0.33755714 -0.02274216
 -0.21900539 -0.14116168 -0.0067729   0.1440644  -0.21965002 -0.11624994
 -0.04207238 -0.00459906  0.01726325  0.0020444   0.03879279  0.06275378
 -0.04802678 -0.28349575 -0.09745343 -0.1495017   0.15794463 -0.04432616
 -0.11341615  0.04701864 -0.17825745 -0.11549675 -0.00542346  0.03090084
 -0.01477467 -0.05246669  0.19032435 -0.02878406 -0.16073516 -0.05581846
  0.00256962  0.29351613  0.1946014  -0.01558068  0.00565592 -0.09565001
  0.08226553 -0.15077488  0.00721447  0.0864206   0.16432446  0.07456548
 -0.02505651 -0.20550473 -0.03275339  0.04873295 -0.20192526  0.02245875
  0.05541874 -0.0814776   0.00098372 -0.00779893  0.23653701  0.07376736
 -0.09902189 -0.13825868  0.18923238 -0.1747219  -0.01801047  0.06646054
 -0.12627324 -0.15047763 -0.27257022 -0.00373479  0.32231551  0.06636164
 -0.13038257  0.04998308 -0.14315329 -0.04762628  0.05010289  0.09013995
 -0.0528315   0.06245881 -0.13329104 -0.02857266  0.1902597  -0.04906039
 -0.03276862  0.20680542 -0.06203808  0.0010588   0.05800873  0.01443973
 -0.04139291  0.01755469 -0.12827472 -0.01643898 -0.0234505  -0.11388829
 -0.0113198   0.09774226 -0.18955825  0.09678899  0.05171255  0.05469313
  0.02207148 -0.05443137 -0.08127835 -0.05392543  0.14992355 -0.24484198
  0.24339683  0.15446998  0.05949596  0.1324427   0.0163512   0.04771219
 -0.0391938  -0.04795869 -0.16396673 -0.02818158  0.0891877  -0.06088585
  0.0739442   0.01778057]