[-0.08068192  0.14789718  0.03653079 -0.02810981 -0.09331165 -0.02084019
 -0.10266554 -0.15811642  0.0897878  -0.05091777  0.2147914  -0.0251856
 -0.15260711 -0.17372136 -0.00718558  0.14964674 -0.16153897 -0.19674967
 -0.04221964 -0.00667971  0.07968104 -0.00981109  0.01345765  0.01311701
 -0.0970686  -0.3641918  -0.07203874 -0.04882291  0.09278619 -0.04444799
 -0.12792356  0.06186124 -0.2046902  -0.09666349  0.05008638  0.20340331
 -0.02346767 -0.03867871  0.11326428 -0.01648154 -0.23311758  0.07721124
  0.02393873  0.24566276  0.27188963  0.05898643  0.0456023  -0.1365658
  0.13171534 -0.15539128  0.07944265  0.16224304  0.10122024  0.09503445
  0.01693829 -0.17122196  0.00178519  0.09412992 -0.12485943 -0.02160162
  0.03871503 -0.08396363  0.03251742 -0.0999779   0.20420817  0.09796613
 -0.08358862 -0.16091679  0.13043559 -0.13490719 -0.09553996  0.03837813
 -0.12868971 -0.13117878 -0.31699973  0.02912845  0.41076493  0.0944731
 -0.23530285  0.05277513 -0.00765734 -0.02477326  0.13923919  0.15276986
 -0.0302686   0.06063521 -0.11974458 -0.01824751  0.2501215  -0.05300705
 -0.02230897  0.1890773  -0.0118694   0.14467661  0.09649607  0.0810798
 -0.046364    0.07219894 -0.14922206 -0.03143725  0.00951068 -0.08657537
 -0.01774088  0.10222622 -0.10328903  0.13193619  0.02595716  0.11259925
 -0.01087939 -0.04455594 -0.0294261  -0.05981059  0.12603211 -0.23466741
  0.24423242  0.20675044  0.02446025  0.14719251  0.14002281  0.09722453
  0.01185824 -0.05984873 -0.17706616 -0.02208711  0.06657767 -0.01752725
  0.04930469  0.06483644]