[-2.31217727e-01  1.12407446e-01  5.58476932e-02 -6.28683046e-02
 -1.05958156e-01 -5.15450612e-02  4.87851799e-02 -6.43664747e-02
  1.11900032e-01  6.35025427e-02  1.93352923e-01 -7.31574073e-02
 -2.50414938e-01 -2.58044433e-02  6.38800673e-04  1.28427744e-01
 -1.13940038e-01 -5.14640994e-02 -9.86607298e-02 -1.34767935e-01
  1.75253619e-02  2.09022760e-02  1.66265015e-02  5.85639365e-02
 -1.64654657e-01 -2.54676074e-01 -5.96277528e-02 -9.01139751e-02
 -4.27035149e-03 -1.32095620e-01 -3.04814253e-04  6.51738048e-02
 -1.54650494e-01 -1.19431891e-01  2.00611111e-02  1.00756504e-01
 -7.93338642e-02 -9.45478827e-02  1.54274836e-01  1.59769226e-02
 -8.98062587e-02  1.05652865e-02  7.25052059e-02  3.22797954e-01
  1.59039959e-01  2.33354582e-03  5.40578365e-02 -3.09680402e-02
  1.59568965e-01 -2.38371685e-01  4.29808609e-02  7.15534762e-02
  1.06739752e-01  3.08604818e-02  1.49816200e-01 -1.21744692e-01
  3.35783288e-02  1.31053254e-01 -1.53699875e-01  1.04126945e-01
  1.00714080e-01 -5.61015122e-02 -1.75393689e-02 -9.71414745e-02
  1.44781262e-01  7.90515542e-02 -9.52383205e-02 -7.42567256e-02
  1.08482100e-01 -4.68909815e-02 -3.46777216e-02  8.09176117e-02
 -8.91676694e-02 -1.95391953e-01 -2.72011966e-01  1.33603215e-01
  3.49276721e-01  1.27221957e-01 -1.94552824e-01 -4.43793498e-02
 -3.35026048e-02  1.76052749e-03  8.81146193e-02  3.68424319e-02
 -8.88241157e-02 -4.21710722e-02 -1.59897372e-01  1.00363037e-02
  1.91899016e-01 -2.10343990e-02 -3.73774879e-02  1.98946342e-01
  4.79806699e-02 -2.42156070e-02  2.01346483e-02  8.26994404e-02
 -1.80713415e-01  1.47388279e-02 -8.65728855e-02  3.68131488e-03
  1.11792125e-01 -1.37629196e-01 -1.23153217e-02  9.02303383e-02
 -1.44438699e-01  1.25392824e-01 -7.67711131e-03 -2.13252388e-05
 -1.06245175e-01 -4.17024866e-02 -1.05753265e-01  3.81382927e-02
  1.06107526e-01 -2.40493447e-01  1.39642969e-01  1.70259342e-01
 -6.02459386e-02  1.04969680e-01  5.07102981e-02  1.56933684e-02
  1.34319691e-02  5.86127825e-02 -4.91642840e-02 -1.01463974e-01
  7.83740804e-02  1.16604762e-02  1.23444786e-02  4.44809906e-02]