[-0.20458041  0.11031387  0.04628565 -0.05317571 -0.06173704 -0.09076559
  0.05066661 -0.06842639  0.11288822  0.03959436  0.22297731 -0.08639785
 -0.23230286 -0.02646331 -0.01818963  0.1173507  -0.15763852 -0.08742307
 -0.03232336 -0.09689584  0.06434061 -0.02857463  0.05121399  0.08978362
 -0.16866975 -0.25767836 -0.07065052 -0.11530947 -0.01580096 -0.07998952
  0.00643372  0.08068827 -0.16148531 -0.07361174  0.01047592  0.05171471
 -0.02007911 -0.04991584  0.18078108  0.03245805 -0.12152769  0.00073079
  0.05395406  0.34084243  0.1542255   0.03398881  0.02669609 -0.03491868
  0.08024807 -0.17253372  0.06952731  0.10606696  0.11657287  0.01713541
  0.08271334 -0.15059178  0.06560978  0.07903125 -0.12614579  0.05345874
  0.11979131 -0.05900608  0.00881324 -0.0746135   0.17501758  0.04314656
 -0.09599635 -0.04421032  0.07685923 -0.03153327 -0.0285728   0.06276023
 -0.13020125 -0.18709341 -0.23449306  0.10395197  0.34659564  0.11874779
 -0.19516063 -0.00161043 -0.06918256  0.030761    0.12248804  0.04455859
 -0.10496306 -0.02688232 -0.17506978 -0.00922094  0.13534169 -0.02581834
 -0.05430068  0.16776919  0.01049922 -0.03701833  0.03862762  0.03422209
 -0.14719206  0.06474615 -0.08953074 -0.00218936  0.05818908 -0.12876919
 -0.04469341  0.06258019 -0.20302658  0.07298116  0.02888134 -0.01448108
 -0.08965679  0.00606126 -0.11192985 -0.00227538  0.07040852 -0.25526497
  0.13927567  0.18283866 -0.01814277  0.14585511  0.07356209  0.04546396
 -0.01479887  0.04481152 -0.06699441 -0.05470427  0.10974578  0.03142679
  0.0705099   0.03356787]