[-0.15122139  0.12224229  0.08868986 -0.04168002 -0.08617995 -0.08977605
 -0.00465436 -0.08012074  0.08128746  0.03826685  0.26252955 -0.09128674
 -0.19618839 -0.0439131  -0.05605147  0.14795929 -0.17521302 -0.04234364
 -0.06415144 -0.06532217  0.13416927 -0.01995455  0.05399412  0.04077439
 -0.14795411 -0.26161179 -0.05137294 -0.10387111  0.02118411 -0.06146664
 -0.02674719  0.0459704  -0.19068971 -0.10550199  0.00316526  0.04972343
 -0.01591866 -0.05525461  0.15150167  0.02501771 -0.15614985  0.08935557
  0.05980041  0.2935445   0.21511911  0.03937943  0.04471738 -0.06049157
  0.0687514  -0.21662474  0.0799515   0.09114029  0.12693429  0.02927608
  0.10137171 -0.16263722  0.00587209  0.0817716  -0.13582209  0.0412567
  0.11932172  0.02503296  0.03870443 -0.11007609  0.16413322  0.09794337
 -0.10461598 -0.09287851  0.07001558 -0.05870802 -0.03843306  0.07274659
 -0.14363965 -0.1470384  -0.29776943  0.05777081  0.32865545  0.09078108
 -0.21786018 -0.06667387 -0.08776914  0.02367592  0.10317539  0.01263991
 -0.03459629 -0.01077396 -0.13703708 -0.00527261  0.1569984  -0.07329134
 -0.04998593  0.22293559  0.0222411  -0.0548557  -0.00745371  0.05164504
 -0.14053349  0.05072492 -0.13161922 -0.00131923 -0.00146025 -0.07991965
 -0.03612163  0.09448858 -0.19391717  0.05022277 -0.01028377 -0.00204935
 -0.11093082 -0.03139583 -0.12974504  0.02244389  0.10035031 -0.21366389
  0.17271189  0.2021617   0.014593    0.07174723  0.09153394 -0.00512414
  0.001327    0.03183469 -0.08916343 -0.04151989  0.0608893  -0.01190373
  0.03421729  0.04214852]