[-0.11795773  0.13631798  0.08183908 -0.04366887 -0.0862477  -0.00201216
 -0.08652099 -0.16288456  0.11864597 -0.06293595  0.28128618 -0.01699895
 -0.18243356 -0.16516054 -0.01339826  0.20280981 -0.14375478 -0.18685268
 -0.01807102 -0.01741977  0.07298265 -0.02403575 -0.01120744  0.00623551
 -0.12754835 -0.37640592 -0.11176621 -0.06300258  0.03945156 -0.07498524
 -0.13635367  0.03201475 -0.17892921 -0.06146553  0.03239931  0.1240342
  0.00287581 -0.04828209  0.14335935  0.01093602 -0.21712525  0.0855021
  0.07171966  0.26730642  0.24695323  0.01851689  0.05642166 -0.08009849
  0.09891088 -0.15383722  0.05058699  0.12061626  0.14342517  0.07003023
  0.00686353 -0.15158665 -0.04786506  0.09254657 -0.16055685  0.01991057
  0.06219148 -0.10205881 -0.07308603 -0.097562    0.22210379  0.16525064
 -0.13283961 -0.17921139  0.12120606 -0.10848977 -0.09117424 -0.01032019
 -0.18511279 -0.13570032 -0.32447287  0.03615152  0.39884377  0.0803864
 -0.27251241  0.04265093 -0.02010284  0.01786819  0.09990968  0.13054268
 -0.01570035  0.06282756 -0.09566303  0.00191201  0.21584998 -0.04380029
 -0.01313549  0.19437128 -0.02458008  0.1268879   0.044701    0.08445034
 -0.03684288  0.0177483  -0.13560785 -0.02963862 -0.01364258 -0.05792579
  0.01447889  0.10198945 -0.14667642  0.14595799  0.04282248  0.09642728
 -0.01809367  0.01169796 -0.03494434 -0.03690095  0.1064195  -0.24133149
  0.22614701  0.21288423  0.0145918   0.11342809  0.12144394  0.06393459
  0.00062841 -0.01525738 -0.16651322 -0.03193196  0.04374009 -0.04796125
  0.08379809  0.06133884]