[-1.59844264e-01  1.04811072e-01  8.51420686e-02 -4.36408333e-02
 -9.18338746e-02 -9.53719839e-02  7.16358796e-03 -7.45526850e-02
  6.53830990e-02  3.59392799e-02  2.63893425e-01 -9.16442275e-02
 -1.90988258e-01 -6.21174946e-02 -4.42929156e-02  1.44291475e-01
 -1.80984005e-01 -5.26393428e-02 -5.66264689e-02 -6.17477186e-02
  1.27455965e-01 -4.01114263e-02  4.92086075e-02  4.38676737e-02
 -1.50407717e-01 -2.60788500e-01 -5.84040061e-02 -1.04437850e-01
  8.05235002e-03 -6.68468624e-02 -1.40785277e-02  5.76752611e-02
 -1.86832279e-01 -1.00176446e-01 -2.38830969e-03  5.49821630e-02
 -1.68411266e-02 -5.48512004e-02  1.52717903e-01  1.75698046e-02
 -1.53323457e-01  8.15064237e-02  6.21451214e-02  2.89883107e-01
  2.19840050e-01  3.50766256e-02  4.37329933e-02 -4.67079394e-02
  6.69834241e-02 -2.05367953e-01  7.34676272e-02  9.61247534e-02
  1.31615639e-01  3.29336971e-02  8.73058513e-02 -1.43610984e-01
  1.39039000e-02  8.63486156e-02 -1.32313296e-01  3.12834047e-02
  1.05121903e-01  1.12910513e-02  4.05622572e-02 -1.03128754e-01
  1.55507877e-01  9.99262184e-02 -8.71252641e-02 -9.70387980e-02
  8.59072730e-02 -6.11209571e-02 -5.33180609e-02  7.31785297e-02
 -1.52977228e-01 -1.45592034e-01 -2.80172825e-01  5.18211536e-02
  3.11656207e-01  8.96368250e-02 -2.11508259e-01 -6.88022748e-02
 -8.51236805e-02  1.60142817e-02  9.34859142e-02  1.17207859e-02
 -3.40055376e-02 -1.62104964e-02 -1.40725896e-01 -7.30317843e-04
  1.63522005e-01 -7.09301829e-02 -4.51429188e-02  2.11536959e-01
  2.98736729e-02 -6.53779656e-02  5.65611711e-03  3.38618122e-02
 -1.19421840e-01  6.21246099e-02 -1.31796584e-01 -1.20013533e-02
  6.27667969e-03 -8.96628425e-02 -3.67588662e-02  9.17256922e-02
 -1.94592118e-01  5.32750972e-02 -1.07642841e-02  1.97493850e-04
 -1.15368322e-01 -3.69466543e-02 -1.17288612e-01  2.95239333e-02
  9.94417593e-02 -2.00007543e-01  1.73837110e-01  2.07666084e-01
  1.27331987e-02  6.71358109e-02  8.17727968e-02 -7.46914360e-04
 -7.79512664e-03  1.78048611e-02 -8.98955092e-02 -3.48180346e-02
  6.46385401e-02 -3.72553035e-03  4.04018909e-02  3.99093851e-02]