[-0.21136616  0.08670246  0.07019114 -0.05906909 -0.05902109 -0.0908848
  0.05368067 -0.07821568  0.11929867  0.03673365  0.22371626 -0.07321163
 -0.25126544 -0.03767106 -0.02054245  0.11197247 -0.14525613 -0.05754979
 -0.04381965 -0.11164122  0.1193434   0.00565211  0.07233981  0.04901842
 -0.15803753 -0.2818262  -0.08244799 -0.10619568 -0.01705637 -0.09689583
 -0.00109187  0.0681768  -0.15623794 -0.0934733   0.00961338  0.06040975
 -0.06029673 -0.09368893  0.13723844  0.01511116 -0.11641332  0.03153487
  0.05597259  0.29211852  0.17951931  0.06345688  0.02714164 -0.04942113
  0.1042126  -0.22070503  0.07301077  0.08490715  0.11149724  0.01741523
  0.12718688 -0.15981479  0.04183609  0.0536588  -0.13095167  0.0636466
  0.09580406 -0.05065645  0.01628068 -0.07463553  0.15372549  0.06532634
 -0.12621666 -0.03276721  0.0881707  -0.03762238 -0.03242455  0.06571212
 -0.13562888 -0.19868064 -0.22210947  0.10415184  0.36989897  0.08458998
 -0.19248615 -0.02979561 -0.07297836  0.04274205  0.09242591  0.06461614
 -0.07957572 -0.05114652 -0.17621319 -0.0162565   0.143326   -0.05192992
 -0.0883      0.21847796  0.01034652  0.00712046  0.02987611  0.07558111
 -0.16652462  0.05629665 -0.07858365 -0.00815691  0.08620131 -0.12314222
 -0.06723546  0.08259573 -0.15808408  0.10403144 -0.00039109  0.01119571
 -0.08048188 -0.04685081 -0.11279295  0.03362277  0.04444593 -0.25797117
  0.16320165  0.19227396 -0.01779479  0.14841716  0.05961929  0.01644463
  0.02796695  0.04402728 -0.09374727 -0.07851728  0.09257308  0.03464358
  0.02341901  0.03468996]