[-0.15630923  0.10714865  0.092597   -0.04641271 -0.08478767 -0.10453606
 -0.00495826 -0.08488005  0.07716437  0.02582807  0.27813679 -0.08304743
 -0.18090256 -0.07406237 -0.04477841  0.13954583 -0.17837667 -0.04923351
 -0.0501122  -0.0601485   0.13413535 -0.03448228  0.05261216  0.03632681
 -0.15140435 -0.2601603  -0.05714272 -0.10402542  0.01752212 -0.05449725
 -0.03192559  0.04898257 -0.19640867 -0.11143757 -0.00258966  0.0621087
 -0.0258096  -0.05373335  0.15676489  0.00792852 -0.14600873  0.08557374
  0.05151265  0.28545797  0.22615445  0.03080556  0.05019168 -0.05679538
  0.08184693 -0.20534864  0.07685349  0.09227931  0.14414017  0.03033836
  0.1006164  -0.14378756  0.0075406   0.0904683  -0.12540419  0.0478028
  0.10675148  0.0060449   0.04076974 -0.11293177  0.16309713  0.09007119
 -0.09939811 -0.09238852  0.07655303 -0.05474532 -0.05669479  0.07558981
 -0.15083459 -0.15277107 -0.30060074  0.05396236  0.31738707  0.09700919
 -0.22403769 -0.0616758  -0.08031699  0.01844738  0.10302892  0.01765354
 -0.03126822 -0.00504652 -0.1481705  -0.00154083  0.16837309 -0.07454695
 -0.05479882  0.21891277  0.01826046 -0.03865976 -0.00384245  0.03699322
 -0.12276965  0.0574899  -0.12967981 -0.00330021  0.01674752 -0.08625912
 -0.03567899  0.09386128 -0.1822286   0.05107359 -0.01744955  0.01688457
 -0.11286356 -0.04285512 -0.12541771  0.03149713  0.09409552 -0.20432261
  0.18337195  0.19854251  0.01485217  0.07422028  0.09338799 -0.01079189
 -0.00525814  0.02122886 -0.09218935 -0.03991633  0.06063078 -0.00059106
  0.06086021  0.04640939]