[-1.16120219e-01  1.44107640e-01  5.45846894e-02  3.62935066e-02
 -1.85045693e-02 -5.89446127e-02 -1.74467023e-02 -8.58663544e-02
  9.85723063e-02  1.36361439e-02  2.93362141e-01 -3.92977111e-02
 -2.19318867e-01 -1.16881147e-01 -1.58785644e-03  1.52943730e-01
 -1.34030566e-01 -3.89956795e-02 -1.62363723e-01 -1.83203928e-02
  4.65163589e-02  1.50411017e-03  1.01443641e-01  6.21514022e-02
 -5.65696321e-02 -3.81869525e-01 -1.15130566e-01 -6.60994872e-02
  9.60078686e-02 -8.95225778e-02 -1.70018133e-02  3.54728214e-02
 -1.51432797e-01 -8.99039656e-02  5.77047579e-02  4.50272076e-02
 -3.18101756e-02 -5.98335266e-02  2.59192765e-01  2.58174278e-02
 -1.51774272e-01  1.36943189e-02  1.42817739e-02  2.65395135e-01
  2.80127406e-01  8.65385756e-02  1.50832459e-02 -1.02145158e-01
  6.81629330e-02 -2.30006918e-01  4.31894325e-02  1.54180691e-01
  5.11194579e-02  4.49553020e-02  5.75187802e-02 -1.05285980e-01
  2.33666487e-02  8.19488242e-02 -1.87311396e-01 -3.51911150e-02
  2.26994064e-02 -1.41878635e-01 -7.28306547e-02 -4.44714129e-02
  1.49282187e-01  1.31438047e-01 -7.43025467e-02 -1.25265673e-01
  1.64130554e-01 -1.62626103e-01  1.19918585e-03  7.31415451e-02
 -1.30675361e-01 -1.37941405e-01 -3.33364725e-01  1.91170648e-02
  4.56184596e-01  1.34020597e-01 -1.66047990e-01  4.66150930e-03
 -4.85210232e-02 -1.96746569e-02  8.56119171e-02  6.61158338e-02
 -1.42387420e-01 -7.39186183e-02 -9.38008279e-02  6.34137690e-02
  1.38522655e-01 -1.76032074e-04 -4.58103232e-02  2.01104596e-01
 -1.59372371e-02  7.46213868e-02  7.43372440e-02  1.10628130e-02
 -3.30910459e-02 -3.24769244e-02 -1.16930477e-01 -2.42649671e-02
  8.02487135e-02 -5.68707399e-02  6.79652691e-02  9.99498889e-02
 -1.68052480e-01  7.26342723e-02  7.91228551e-04 -3.57876153e-04
  6.62999451e-02 -1.60428472e-02 -9.91417095e-02 -1.22827124e-02
  1.58786938e-01 -2.03784496e-01  1.99859962e-01  1.82280719e-01
 -1.87653136e-02  7.25993142e-02  9.86387506e-02  1.06730282e-01
 -4.71511707e-02 -1.55502856e-02 -1.49929449e-01 -2.02946868e-02
  4.81582172e-02  6.23134524e-03  9.48466882e-02 -2.62833424e-02]