[-0.15898751  0.102943    0.08312124 -0.04495879 -0.09629808 -0.09529454
  0.00617024 -0.06367338  0.07764544  0.04191934  0.2509478  -0.06683078
 -0.18460931 -0.05388709 -0.04746995  0.14243382 -0.16436468 -0.05953624
 -0.07855821 -0.06161054  0.12281012 -0.02914343  0.05112975  0.04138945
 -0.15342858 -0.25873506 -0.05062462 -0.10387047  0.01770931 -0.08229534
 -0.02535736  0.04128086 -0.19009955 -0.10853791  0.00191675  0.05346849
 -0.02846479 -0.06415991  0.16434224  0.02697953 -0.15376475  0.10141342
  0.06134209  0.29805201  0.21485892  0.03361344  0.04532212 -0.04761956
  0.0774204  -0.22966586  0.1000374   0.08462487  0.13420729  0.03636524
  0.1141934  -0.15479626  0.00434468  0.08761363 -0.13254692  0.0413985
  0.10101886  0.03176541  0.03032146 -0.12785016  0.15274714  0.10772788
 -0.08760398 -0.09221015  0.07117567 -0.0550881  -0.0442313   0.06840599
 -0.14296322 -0.14177923 -0.27476928  0.06746298  0.3095232   0.1041168
 -0.21446143 -0.06850516 -0.08564338  0.01406165  0.08009305 -0.01346213
 -0.03823564 -0.01377371 -0.12865703  0.00823527  0.16178425 -0.06659584
 -0.04333915  0.20805244  0.03418688 -0.06132063 -0.00579273  0.02624403
 -0.13175015  0.06006697 -0.1342068   0.00047684  0.00789258 -0.08028936
 -0.02863503  0.08523241 -0.19293509  0.05169724 -0.00715805 -0.00844225
 -0.11078467 -0.02410096 -0.13914064  0.02769499  0.09314907 -0.20621343
  0.19555941  0.20354867  0.01798172  0.06391082  0.08447011 -0.01613252
  0.00208195  0.03722079 -0.08646998 -0.03548459  0.07579555 -0.0058247
  0.03685799  0.05106471]