[-0.14683829  0.09683573  0.08055478 -0.05355787 -0.08774579 -0.00813919
 -0.06689455 -0.18769644  0.11131877 -0.07638538  0.27727777 -0.04736116
 -0.18235889 -0.11119747 -0.02717241  0.20953858 -0.13140719 -0.21827045
 -0.02083664 -0.03886429  0.03560129 -0.04377281 -0.0595444   0.0493423
 -0.12496579 -0.35520634 -0.10074715 -0.06998372  0.00164341 -0.06410768
 -0.10221837  0.04857046 -0.19036077 -0.03239327  0.02817862  0.11556869
 -0.00224235 -0.05942894  0.14449064  0.00125202 -0.22438626  0.07994773
  0.10243858  0.26649249  0.24525447  0.0198705   0.02716713 -0.09612852
  0.10165828 -0.17847167  0.04756609  0.12236013  0.14308421  0.07044386
  0.00581211 -0.14715859 -0.03271151  0.06030869 -0.16248754  0.03758677
  0.04998253 -0.11617058 -0.0523703  -0.11327463  0.25121737  0.17622715
 -0.13853966 -0.1518451   0.11823329 -0.12982821 -0.11190169 -0.01471286
 -0.17607063 -0.15278651 -0.34536943  0.04573875  0.38080114  0.07647572
 -0.27082354  0.06703281 -0.00256538  0.01294707  0.10280725  0.15440443
 -0.00772039  0.01796114 -0.07902254 -0.01487056  0.25240162 -0.03576918
 -0.01502829  0.19535749 -0.05884564  0.07743426  0.03679578  0.11097833
 -0.05000657  0.00127341 -0.1191659  -0.04324679 -0.00905652 -0.01778812
  0.01574151  0.10621595 -0.16974637  0.13207185  0.01516197  0.07896366
 -0.01045459  0.00506847 -0.02748536 -0.04297403  0.10308542 -0.23708244
  0.23636182  0.18376853  0.00978045  0.10509379  0.10701235  0.0506014
 -0.00664793 -0.00048488 -0.15632512 -0.02920913  0.06417155 -0.04826153
  0.08561426  0.06549658]