[-0.12222937  0.13755019  0.09887396 -0.08093105 -0.06053164 -0.00105313
 -0.04082191 -0.10208422  0.13003905 -0.09193798  0.26468226 -0.03335847
 -0.24140482 -0.07882555 -0.01340166  0.22227411 -0.12898657 -0.1679717
 -0.07110883 -0.03618185  0.07185864  0.00113113 -0.0556442   0.02199854
 -0.09319896 -0.38013324 -0.11216673 -0.05409011 -0.02584573 -0.07588754
 -0.10144416 -0.02615002 -0.12878935 -0.03523609 -0.00136064  0.05939949
 -0.03768087 -0.09088009  0.16125825  0.06842557 -0.2256453   0.0591485
  0.09990388  0.2888827   0.18566702  0.02511534  0.06830101 -0.07908609
  0.12156117 -0.24362221  0.08234184  0.09791788  0.13117042  0.11447972
  0.0688762  -0.16226156 -0.03472075  0.12067208 -0.1851812   0.0681824
  0.06737573 -0.07699006 -0.04477186 -0.11340287  0.23357491  0.2106947
 -0.15442578 -0.15005772  0.13011548 -0.11466657 -0.10426121 -0.01105531
 -0.14935368 -0.15119822 -0.33262262  0.07260776  0.37724817  0.1214589
 -0.22735658 -0.0342983  -0.04029925  0.00134713  0.10353859  0.12284621
 -0.03372065  0.02649564 -0.08998228 -0.00608707  0.22946702 -0.02841711
 -0.02351266  0.22106361 -0.00330082  0.08513328  0.0062521   0.1262507
 -0.09994163 -0.00677643 -0.13404728 -0.00790285 -0.02367779 -0.06632143
 -0.00567508  0.10464738 -0.16812414  0.15636744  0.02319503  0.03942782
 -0.05443615  0.03818439 -0.050912   -0.02209283  0.08947272 -0.20729892
  0.18524198  0.21018521  0.03444052  0.10255766  0.09504899  0.03788989
 -0.01105659 -0.05248445 -0.1784914  -0.04452623  0.04492451  0.00487981
  0.04752041  0.07428757]