[-1.09005056e-01  1.15553536e-01  8.92728195e-02  2.87604537e-02
  1.85935048e-03 -4.39712778e-02  5.38747795e-02 -1.12802081e-01
  1.49095565e-01 -1.88744050e-02  3.02002519e-01 -5.27067743e-02
 -2.32339248e-01 -1.61007747e-01  4.80909422e-02  1.40521094e-01
 -2.08576307e-01 -1.46841720e-01 -4.28478867e-02 -6.90973923e-02
  2.77595576e-02  1.79441012e-02 -1.17663266e-02  3.51090543e-02
 -1.02550261e-01 -3.41750324e-01 -5.55696003e-02 -1.67715847e-01
  1.04041807e-01 -5.46373427e-02 -2.75585353e-02  5.54821566e-02
 -2.04618692e-01 -6.96675628e-02 -1.43354926e-02  2.83121206e-02
  2.06923429e-02 -2.57238541e-02  1.64770633e-01  1.90282557e-02
 -1.71040088e-01 -9.43700299e-02 -1.94793232e-02  2.71909207e-01
  1.52227208e-01 -5.54835284e-03  2.63812300e-02 -6.20290749e-02
 -2.17232984e-02 -1.51906878e-01  1.32004796e-02  1.69354305e-01
  1.41008601e-01  8.10764059e-02 -4.02416065e-02 -1.85977608e-01
 -3.53876129e-02 -3.55371237e-02 -1.60417244e-01 -9.82083287e-03
  5.52063361e-02 -5.97893782e-02 -4.87789996e-02 -2.72287875e-02
  2.37235501e-01  1.78723615e-02 -9.94487256e-02 -1.23246491e-01
  1.12979010e-01 -1.38858408e-01 -6.19679354e-02  5.87986819e-02
 -1.46111071e-01 -1.53918743e-01 -3.06660742e-01  4.97077666e-02
  3.89331341e-01  3.82376313e-02 -2.32969090e-01  3.95790599e-02
 -1.70400843e-01 -3.35230753e-02  9.22331437e-02  1.04804657e-01
 -1.82645787e-02  8.54048580e-02 -9.70571786e-02  2.01014020e-02
  1.39128417e-01 -8.73754174e-02 -3.33006866e-02  1.60875708e-01
 -4.94434051e-02  2.48748641e-02  3.94650213e-02  7.24955415e-03
  2.89110132e-02  4.68533486e-02 -6.51048049e-02 -2.50439793e-02
  5.08463793e-02 -5.79366870e-02 -6.31280616e-03  6.60647675e-02
 -1.98636398e-01  1.17545858e-01  1.15014210e-01 -6.54596929e-03
  4.41442318e-02 -1.48013537e-03 -9.51704159e-02 -1.06535457e-01
  1.87475100e-01 -2.58296251e-01  2.14323595e-01  2.22585320e-01
 -7.66469259e-03  1.54418215e-01  3.05748768e-02  1.09807990e-01
 -6.08074553e-02 -3.57780121e-02 -1.39161348e-01 -1.22245150e-02
  6.20706566e-02 -1.25193149e-02  1.44822123e-02 -4.29525971e-05]