[-0.1514788   0.08426418  0.06207497 -0.06524282 -0.07443696 -0.08392494
  0.03331384 -0.05185204  0.12542813  0.06423055  0.19157237 -0.09883126
 -0.25295582 -0.00111622 -0.01885292  0.10092425 -0.14202391 -0.05936308
 -0.09166828 -0.13030462  0.02284659  0.02676258  0.0610881   0.06201593
 -0.14170682 -0.30006239 -0.06504721 -0.09844771  0.03753686 -0.08678754
 -0.01078356  0.06322664 -0.17657702 -0.09893111 -0.00806077  0.06026589
 -0.04267116 -0.10700848  0.16864793  0.04466464 -0.11415144  0.03212116
  0.055962    0.30415624  0.18839061  0.04460725  0.0495935  -0.05685961
  0.0983367  -0.2348024   0.10023898  0.11275464  0.08775741  0.01610645
  0.11994463 -0.15027903  0.01627993  0.10674869 -0.10864948  0.08053647
  0.13694493  0.00214853  0.01507876 -0.12642047  0.17471968  0.06693392
 -0.09732368 -0.04069174  0.07770821 -0.07434662 -0.04433005  0.04025908
 -0.10951646 -0.14372304 -0.28883755  0.12543724  0.35786438  0.1095529
 -0.17720544 -0.02356231 -0.08637606  0.03307727  0.10262509  0.01458738
 -0.12228464 -0.06303864 -0.16457851 -0.01354751  0.17756252 -0.01246551
 -0.04948392  0.16587465  0.00845459 -0.00977939  0.02062319  0.06402786
 -0.18607061  0.03273584 -0.08832692  0.02951769  0.07947572 -0.12870365
 -0.03701511  0.09911272 -0.18798281  0.09817411  0.00327411 -0.03604116
 -0.03163655 -0.00068706 -0.10708842 -0.00199233  0.1180557  -0.23428114
  0.14603101  0.17475894 -0.00355378  0.13257305  0.0680728   0.07079546
 -0.03457944  0.07890164 -0.09070242 -0.07298315  0.06604417  0.02567749
  0.02454427  0.07173622]