[-0.18361522  0.08862839  0.04755625 -0.08746316 -0.06137965 -0.09293543
  0.04858293 -0.04164929  0.12527142  0.07916015  0.20538054 -0.07681983
 -0.218135   -0.01924071 -0.02419855  0.08666068 -0.14931734 -0.0514691
 -0.08363198 -0.13630147  0.0248843  -0.00530696  0.059584    0.06060981
 -0.14296982 -0.27214468 -0.05795028 -0.10837841  0.01163095 -0.09111046
  0.02152645  0.06213068 -0.18857093 -0.09625137 -0.02272119  0.05887455
 -0.05579776 -0.08851503  0.17727362  0.01890425 -0.09180309  0.02695418
  0.05407783  0.29895672  0.20440255  0.01877714  0.03394066 -0.03124473
  0.0998063  -0.22618492  0.09766615  0.10127125  0.09380413  0.02943232
  0.11217704 -0.1358854   0.02168671  0.09641457 -0.09995603  0.06188698
  0.10144245 -0.01703333 -0.0011171  -0.11593244  0.16368173  0.08028606
 -0.10190494 -0.04612985  0.08063177 -0.05623959 -0.03244036  0.05577077
 -0.10158404 -0.15999915 -0.2623564   0.13631725  0.3315514   0.11583499
 -0.19270885 -0.02629948 -0.10447617  0.02665094  0.09957647  0.0089954
 -0.09915907 -0.05728839 -0.16703151 -0.01825506  0.15777297 -0.01497796
 -0.07985314  0.16401765  0.01110428 -0.00988     0.02076203  0.06409201
 -0.16130698  0.0491042  -0.0933222   0.03440833  0.0790484  -0.1225372
 -0.05900301  0.07949691 -0.16649322  0.10494365  0.02090718 -0.01098552
 -0.06562125 -0.01281316 -0.09526466  0.01063248  0.09912778 -0.24306066
  0.16742282  0.16420107 -0.02781188  0.15219131  0.07122143  0.05114463
 -0.01910408  0.0639795  -0.0748085  -0.06373306  0.05815399  0.04973207
  0.03525901  0.07566597]