[-0.16120529  0.12146638  0.04380696 -0.07745122 -0.0527312  -0.07066575
  0.01916743 -0.0869191   0.14000092  0.00803642  0.28612944 -0.0698571
 -0.19868593 -0.07821854  0.01606737  0.11951279 -0.14512509 -0.0766895
 -0.02355138 -0.0707405   0.04923378 -0.02967695  0.08466057  0.07499851
 -0.16467085 -0.30743369 -0.0930542  -0.08674984 -0.02015643 -0.07707536
 -0.0360408   0.1104175  -0.15836743 -0.0804345   0.00771423  0.07874068
 -0.02464067 -0.05786734  0.19759305  0.01944883 -0.11391348  0.02220734
  0.03992539  0.31071946  0.18363099 -0.00564393  0.04729616 -0.06040027
  0.06960476 -0.14845076  0.08694644  0.0989467   0.10006075  0.01977692
  0.07905485 -0.12479454  0.01734652  0.0711024  -0.09149609  0.01055791
  0.08360958 -0.04505892 -0.00465161 -0.09965833  0.19670467  0.08977947
 -0.09014529 -0.08651862  0.08273014 -0.00683212 -0.05382133  0.0690254
 -0.16936894 -0.17102167 -0.25626132  0.09786095  0.34130386  0.09211653
 -0.21211652  0.00933326 -0.09269636 -0.00178076  0.10999622  0.04533775
 -0.06961206 -0.01967411 -0.15515055  0.02531832  0.17276746 -0.04090962
 -0.08637879  0.17969805  0.00375564  0.03501017  0.04498751  0.03695966
 -0.09106322  0.08012    -0.12522416  0.01439404  0.06611206 -0.10731094
 -0.04987666  0.09156277 -0.20513724  0.07364475  0.05201313  0.00770889
 -0.03935843  0.01669825 -0.11852383 -0.01997425  0.08075263 -0.27908617
  0.14930181  0.16247639  0.00810028  0.14242929  0.08467872  0.05405856
 -0.00139703  0.02283533 -0.08893296 -0.01652218  0.10046551  0.06375071
  0.06772226  0.06180817]