[-0.1206419   0.12469562  0.07423922 -0.00162229  0.02987429 -0.09474944
  0.06069266 -0.14788173  0.13514353 -0.01273332  0.29726109 -0.05001301
 -0.23344155 -0.13769774  0.03807474  0.17040287 -0.15747213 -0.03385353
 -0.15294267 -0.02028244  0.0068639   0.02173097  0.11979079  0.09205024
 -0.03317269 -0.34425539 -0.09883998 -0.12594585  0.05033249 -0.05330511
 -0.02047387  0.05059339 -0.14794429 -0.09497775  0.0347076   0.00210809
 -0.01973022 -0.04698268  0.23848338  0.02418054 -0.17287189 -0.01710365
  0.00945458  0.253741    0.26410359  0.02184159  0.00448255 -0.0633119
  0.05176213 -0.23160744  0.00782526  0.09882259  0.06625006  0.00348419
  0.03680175 -0.14274311 -0.04127933  0.08003456 -0.18128185 -0.03165031
  0.00922477 -0.12023965 -0.09340206  0.01579197  0.18870956  0.15790385
 -0.11843989 -0.07261998  0.17228989 -0.12763003  0.0136533   0.0373602
 -0.18155465 -0.13299954 -0.2932125   0.00602658  0.41641685  0.04292463
 -0.17760876 -0.00653623 -0.14366262  0.05508614  0.06433681  0.07226529
 -0.09196856 -0.04882705 -0.05977437  0.03033943  0.09281874 -0.03996096
 -0.06043254  0.22359256 -0.04710764  0.03389804  0.04766926 -0.02286555
  0.0105207  -0.05204741 -0.14381853 -0.0366176   0.05562994 -0.04712346
  0.05454126  0.10921723 -0.22485058  0.04523638  0.06502403 -0.00108983
  0.10364077  0.01728525 -0.07045609 -0.05409054  0.13425753 -0.20084465
  0.21814366  0.19458513 -0.04893117  0.0860258   0.0321104   0.06888508
 -0.0273346   0.00285041 -0.11524528 -0.0033575   0.09683929  0.04185962
  0.06339067 -0.03791992]