[-0.14150916  0.07092215  0.08317003 -0.0300771   0.00326506 -0.15016854
  0.03097976 -0.15361266  0.08425733 -0.04794827  0.34993985 -0.07578153
 -0.20296215 -0.19480421  0.03533178  0.14973651 -0.11196988 -0.04978045
 -0.12767313 -0.01452947 -0.01298226 -0.05149827  0.10735831  0.04173109
 -0.01993306 -0.33309725 -0.13131543 -0.06531706  0.03652262 -0.05762373
 -0.06572538  0.05322408 -0.18476705 -0.11973014  0.01264157  0.07585665
 -0.01317081 -0.05540757  0.21596172 -0.01048128 -0.16153398 -0.02180272
  0.02767942  0.21170108  0.24863043  0.01060763 -0.00204247 -0.06482952
  0.08593229 -0.17367192  0.02728609  0.07925221  0.1153127   0.00271006
  0.04425363 -0.09669035 -0.02119468  0.09400181 -0.14612325 -0.06396661
  0.0154909  -0.11161417 -0.09684467 -0.06117308  0.1735221   0.14080977
 -0.1041401  -0.10120597  0.17550014 -0.09930946  0.01402271  0.07532811
 -0.17160073 -0.14431    -0.30098829  0.07057592  0.37089276  0.06372375
 -0.16952051 -0.01915443 -0.0942111  -0.00413458  0.05091485  0.05516064
 -0.06217355  0.00596888 -0.10542572  0.01816136  0.11933805 -0.05959728
 -0.04779601  0.17132124 -0.05573852  0.08466672  0.04196143 -0.00856058
 -0.00169044 -0.00362383 -0.15292713  0.00134552  0.08072942 -0.09112433
  0.01617755  0.08264353 -0.14566199  0.01801341  0.03763407  0.00183976
  0.04075391 -0.02188428 -0.0534413  -0.06605615  0.08009768 -0.20551573
  0.20022359  0.17995971 -0.02521328  0.08650272  0.06614683  0.08008153
 -0.01923192 -0.00632701 -0.09500461 -0.02572725  0.0757633   0.05407481
  0.08564845 -0.01523192]