[-0.13107342  0.14896108  0.02385233  0.0097374   0.03007568 -0.08326551
  0.04378317 -0.18844663  0.18902908 -0.09124903  0.29862213 -0.03708182
 -0.24212065 -0.12432986 -0.00778851  0.13820241 -0.22095621 -0.14246269
 -0.0460935   0.0032644   0.01687318 -0.00046868  0.05700718  0.069756
 -0.05935733 -0.28434658 -0.09344319 -0.12693682  0.1203419  -0.04505445
 -0.13190612  0.03976078 -0.19180997 -0.1095915  -0.00183607  0.04809656
 -0.02651695 -0.04895003  0.19511424 -0.00406599 -0.17319106 -0.06588011
 -0.00209789  0.30291423  0.21082389 -0.00667568  0.01243721 -0.12057133
  0.08784349 -0.12890373  0.00819731  0.10685865  0.17287555  0.06237356
 -0.01732389 -0.19728312 -0.02472556  0.07182228 -0.15898876  0.01884166
  0.0717499  -0.08407371  0.00611981 -0.01345797  0.24555452  0.04186929
 -0.10625631 -0.13204937  0.17051376 -0.14740451 -0.02430814  0.09617734
 -0.12597959 -0.1692194  -0.26846907 -0.00990258  0.32032797  0.05140976
 -0.11502283  0.050463   -0.12028249 -0.05325046  0.05224106  0.11385139
 -0.08366729  0.07099317 -0.14374799 -0.01072232  0.20770268 -0.0450755
 -0.03986436  0.17917083 -0.06455462 -0.00239966  0.05821365  0.03073441
 -0.05769436  0.02810206 -0.1212123  -0.0316626   0.00737833 -0.12267675
 -0.02700521  0.0976161  -0.17763743  0.07270359  0.0392364   0.04631257
  0.01519218 -0.06726287 -0.0731909  -0.06004133  0.12932457 -0.25634724
  0.20519547  0.15536389  0.05468785  0.12562896  0.01675378  0.05454379
 -0.0423022  -0.02549735 -0.16722438 -0.03139772  0.1043421  -0.01732244
  0.10852939  0.00402899]