[-8.43738839e-02  1.61096498e-01  8.47280547e-02 -2.92097181e-02
 -7.83312768e-02  3.86973917e-02 -6.66954741e-02 -1.19376116e-01
  1.14581384e-01 -1.03667989e-01  2.53955394e-01  1.28810555e-02
 -2.14071825e-01 -1.96297273e-01 -2.55403947e-02  1.56625018e-01
 -1.01474620e-01 -1.54358730e-01 -6.84410781e-02 -1.12228384e-02
  9.88829881e-02  8.65963660e-03 -5.27316518e-03 -9.61843226e-03
 -1.33447528e-01 -3.77454728e-01 -9.20614377e-02  2.08694469e-02
  3.13717835e-02 -6.44232109e-02 -1.10042505e-01  4.82574999e-02
 -2.00616121e-01 -9.05900151e-02  4.16580141e-02  1.71741873e-01
 -1.76685601e-02 -1.88139305e-02  1.01641357e-01  2.40224171e-02
 -2.17319757e-01  6.84463382e-02  3.69206853e-02  2.90815324e-01
  2.39197835e-01  5.89138567e-02  3.97022963e-02 -6.64636716e-02
  1.36511013e-01 -1.94843814e-01  7.00631291e-02  1.51131555e-01
  1.33294567e-01  9.19455886e-02  5.20835929e-02 -1.36668876e-01
 -4.94045718e-03  1.34414762e-01 -9.30859819e-02 -4.01400253e-02
  2.03299262e-02 -1.07583597e-01  4.79079131e-03 -7.26641342e-02
  1.83767915e-01  6.67663440e-02 -1.12853996e-01 -1.54772684e-01
  1.29024923e-01 -1.19015053e-01 -5.79131357e-02  3.54468897e-02
 -1.51206255e-01 -1.15804590e-01 -3.42330098e-01  6.97314665e-02
  4.38612223e-01  1.38264656e-01 -2.24099785e-01  2.63476614e-02
 -4.26454507e-02  3.42282690e-02  1.14385881e-01  1.26157746e-01
 -2.78699994e-02  6.37930855e-02 -9.48665515e-02  1.02227041e-02
  2.23076150e-01 -2.20987424e-02 -4.37766872e-02  2.28013873e-01
  2.90051848e-02  1.19682766e-01  6.55299947e-02  2.27401853e-02
 -3.74857858e-02  2.18136068e-02 -1.28872201e-01 -2.13803956e-03
 -5.00948820e-03 -8.34555328e-02  4.54299292e-03  1.17277399e-01
 -1.68607280e-01  1.61713913e-01  2.76503954e-02  1.13451675e-01
  2.52089389e-02 -6.84816405e-05 -7.43064657e-02 -4.66003977e-02
  8.68718177e-02 -2.88306355e-01  1.84167251e-01  2.21545443e-01
  1.50142582e-02  1.24951363e-01  1.49565712e-01  7.02523813e-02
  3.15239131e-02 -4.77057882e-02 -1.32512361e-01 -7.59950057e-02
  7.11095557e-02 -6.01181351e-02  6.79830164e-02  2.05355436e-02]