[-0.0786599   0.13099711  0.04248291 -0.05972491 -0.0713914   0.01401702
 -0.11310197 -0.13177244  0.10318293 -0.1107286   0.22686508 -0.03680374
 -0.19100386 -0.12664478 -0.01500654  0.18744206 -0.16229935 -0.17269441
 -0.04193741  0.0251211   0.05502043 -0.01640666  0.00910838  0.00498482
 -0.07901355 -0.36823878 -0.10584324 -0.03862219 -0.00037933 -0.0274224
 -0.12013755  0.03786932 -0.1828278  -0.06838454  0.04619418  0.15555345
 -0.02936617 -0.04808217  0.14103299 -0.00436338 -0.22505076  0.08472756
  0.02569031  0.23845802  0.19789551  0.05396987  0.06633589 -0.15289059
  0.11123139 -0.12322631  0.0754137   0.16613598  0.10334282  0.08690119
 -0.0073278  -0.1562077   0.03473222  0.10863178 -0.11031044 -0.01143319
  0.08442328 -0.06810366  0.00380029 -0.09578457  0.21408677  0.10996284
 -0.11203643 -0.22842287  0.11170819 -0.10923868 -0.0988098   0.02555983
 -0.17656246 -0.16399536 -0.31618237  0.02667609  0.36441606  0.09860486
 -0.21973872  0.05713598 -0.01991818 -0.01658212  0.13159803  0.19253084
 -0.01207109  0.06152363 -0.08402908 -0.01660351  0.23723081 -0.05328289
 -0.04646261  0.17820941 -0.0092306   0.11653155  0.05886806  0.05499802
 -0.03045722  0.07229629 -0.13289939  0.01263371 -0.00774421 -0.07244952
 -0.03549092  0.10588538 -0.12414048  0.14189199 -0.00712926  0.1033287
 -0.00526702 -0.00352814 -0.06439995 -0.06492233  0.1241117  -0.24707393
  0.20697188  0.21418603  0.0510415   0.11727618  0.16443844  0.12348842
  0.01476331 -0.01042366 -0.24273251 -0.029332    0.07282215  0.00291196
  0.0729406   0.05859749]