[-0.10853422  0.09071837  0.03504047 -0.06498376 -0.04194075 -0.10277225
  0.04262952 -0.05381116  0.12313483  0.06065256  0.1863386  -0.09849732
 -0.23407173 -0.01727442 -0.04406032  0.07772423 -0.16726831 -0.06921
 -0.07510526 -0.13217515  0.06833393  0.00736718  0.03231261  0.04574497
 -0.15989166 -0.24020052 -0.04338834 -0.14102001  0.02557602 -0.14425427
  0.01440898  0.0556258  -0.20959698 -0.09463073 -0.02483376  0.04515502
 -0.04800437 -0.0893627   0.16596283  0.02937355 -0.0892176   0.01911036
  0.03007664  0.29334235  0.20275818  0.00969835  0.02111146 -0.0818718
  0.09683009 -0.24505548  0.06470456  0.11923196  0.08320947  0.06220832
  0.1093693  -0.14349046  0.04133401  0.07823703 -0.14383616  0.09878319
  0.11437552  0.00128096  0.00429252 -0.09903813  0.14065957  0.02063085
 -0.08933134 -0.04776617  0.07567482 -0.09547908 -0.05026602  0.08128517
 -0.0814631  -0.19772846 -0.2717849   0.11064527  0.34428909  0.1465389
 -0.18509583 -0.00392137 -0.09093262  0.00241029  0.12569398 -0.0081116
 -0.08652341 -0.0250508  -0.15343547  0.04526989  0.16520059 -0.03844187
 -0.07132047  0.16142383 -0.0313629  -0.00503939  0.0070758   0.06324547
 -0.15383641  0.07638253 -0.0949198   0.0257539   0.10528781 -0.12423833
 -0.04967665  0.09841052 -0.14757252  0.09066239  0.00749529 -0.05055414
 -0.08032912 -0.03810854 -0.12316499  0.03502036  0.13498335 -0.25369239
  0.19761863  0.19037381 -0.01602894  0.11418497  0.04687443  0.0289173
 -0.01687837  0.02266126 -0.11668508 -0.05892025  0.05866646  0.05435855
  0.0284964   0.02940832]