[-0.18537566  0.1494839   0.09060657 -0.02635095 -0.0586818  -0.07788087
  0.03482091 -0.10325994  0.10767865  0.0217488   0.25480387 -0.10906368
 -0.23772867 -0.04801309 -0.01802529  0.15234818 -0.17638823 -0.04348351
 -0.05328185 -0.04092547  0.10464846 -0.01139017  0.07491131  0.0449527
 -0.13281055 -0.30100277 -0.07196179 -0.1031359  -0.00565035 -0.06677716
 -0.02382102  0.04457596 -0.16907822 -0.09887029  0.0068927   0.03375424
 -0.05730109 -0.06574012  0.14613082  0.0177852  -0.14178151  0.04856601
  0.04577072  0.2979672   0.17071126  0.02530879  0.02697223 -0.07855649
  0.04692672 -0.19158997  0.06158316  0.0951907   0.10565539  0.04001629
  0.1021502  -0.15993148  0.05078426  0.06601986 -0.1621002   0.06108813
  0.14819737 -0.01364804  0.04295762 -0.04962149  0.16539633  0.08468226
 -0.10921931 -0.07792302  0.06360115 -0.04015336 -0.00812958  0.05180852
 -0.13987891 -0.20879486 -0.27002311  0.07430638  0.33329916  0.11941119
 -0.21320312 -0.06475524 -0.08663104  0.02289254  0.11853051  0.05551611
 -0.06952014 -0.02577578 -0.15886115  0.00146327  0.11818369 -0.04541808
 -0.07079182  0.24703108  0.01725454 -0.04784583  0.0177952   0.03268966
 -0.14774393  0.04523482 -0.13295372 -0.01443395  0.01160192 -0.11390822
 -0.04394738  0.09941334 -0.17751813  0.0800508   0.01630293 -0.00041332
 -0.09821019 -0.02408477 -0.13586424  0.01923377  0.07658356 -0.22430949
  0.17152226  0.19145866  0.03533174  0.10543828  0.08615952  0.00828162
  0.00626773  0.03443737 -0.0805281  -0.03018096  0.08025239  0.01503016
  0.05370055  0.03644203]