[-0.10374755  0.10470106  0.06386927 -0.02150233  0.04629008 -0.09368604
  0.06986431 -0.12712646  0.12909685 -0.02239581  0.3055875  -0.05400764
 -0.22842395 -0.14362644  0.06299185  0.15975074 -0.14761041 -0.04241949
 -0.148531   -0.04943096 -0.01638856  0.00054713  0.09158298  0.10382676
 -0.05196546 -0.32566819 -0.09228303 -0.13796595  0.03586102 -0.03709983
 -0.0018835   0.07750376 -0.14580622 -0.08184122  0.01817255 -0.01055106
 -0.01013382 -0.04331949  0.24585314  0.04931056 -0.15093891 -0.03298996
 -0.01247842  0.26165679  0.26149529 -0.01302814  0.01675283 -0.02626175
  0.05788379 -0.24320094 -0.01944694  0.09784108  0.06651502  0.01028201
  0.03294377 -0.15027522 -0.04023154  0.07182422 -0.18397556 -0.02669316
 -0.02285519 -0.13728242 -0.09794966 -0.00458141  0.19984816  0.15084486
 -0.11402748 -0.07461116  0.20132816 -0.10258154  0.02228548  0.05099391
 -0.19257224 -0.13488869 -0.28019786  0.03950505  0.39469832  0.05584609
 -0.17064008  0.00716343 -0.16477995  0.05136581  0.05469619  0.04980393
 -0.06297534 -0.0579691  -0.04604562  0.02757557  0.08909626 -0.04517221
 -0.06581412  0.21040499 -0.06746843  0.03682407  0.04331155 -0.0369261
  0.01386713 -0.03220051 -0.1348494  -0.00885029  0.04324298 -0.07031538
  0.06305924  0.09120069 -0.22021198  0.0432345   0.06800326 -0.0045481
  0.07986076  0.03584579 -0.07802954 -0.0458266   0.14152518 -0.22223602
  0.21768907  0.19710012 -0.04296206  0.0962417   0.02766268  0.06410033
 -0.03569068 -0.00668568 -0.11367494 -0.0019642   0.08886624  0.05487155
  0.03574646 -0.0293609 ]