[-1.18551470e-01  1.20792769e-01  3.92870754e-02  1.99994948e-02
 -9.15386993e-03 -7.79021755e-02  2.60008313e-03 -1.02070384e-01
  1.14511751e-01 -1.11353425e-02  2.96038359e-01 -3.05636115e-02
 -2.16223150e-01 -1.54687494e-01  8.68690945e-03  1.56749442e-01
 -1.07866779e-01 -4.13396135e-02 -1.67235449e-01 -1.49072204e-02
  5.12572788e-02  1.26996925e-02  1.15315013e-01  8.26950818e-02
 -3.86785902e-02 -3.69557947e-01 -1.02823019e-01 -5.30531071e-02
  7.46705979e-02 -9.11254138e-02 -2.25140527e-02  5.36594279e-02
 -1.51234016e-01 -9.64210629e-02  5.44050820e-02  5.53819500e-02
 -3.98120582e-02 -5.49277551e-02  2.57424384e-01  2.84997802e-02
 -1.55823261e-01  3.63841583e-03  1.43444790e-02  2.66054809e-01
  2.80473113e-01  7.29243085e-02 -1.46200880e-03 -8.78940001e-02
  8.09938163e-02 -2.48515055e-01  5.33576608e-02  1.35376185e-01
  5.27687371e-02  2.48168912e-02  7.92999193e-02 -1.01541616e-01
  1.62755083e-02  8.39711875e-02 -1.85033187e-01 -3.28630358e-02
  9.15062334e-03 -1.35239229e-01 -8.19371268e-02 -4.34470885e-02
  1.42268196e-01  1.37951016e-01 -8.19557384e-02 -9.98525843e-02
  1.49920329e-01 -1.69917792e-01  3.98553180e-04  7.10277483e-02
 -1.37083337e-01 -1.47963688e-01 -3.26165676e-01  1.92715507e-02
  4.40642923e-01  1.36429504e-01 -1.66047215e-01  2.38120905e-03
 -2.65491810e-02 -6.84739370e-03  9.79836285e-02  6.10298589e-02
 -1.32061929e-01 -6.90727010e-02 -8.75676796e-02  5.83157912e-02
  1.27421424e-01  1.00197401e-02 -6.37581348e-02  2.29942665e-01
 -1.57888681e-02  7.33739138e-02  7.63314143e-02 -6.58288319e-03
  5.32263541e-04 -3.62811983e-02 -1.29619420e-01 -1.20552322e-02
  8.19735453e-02 -6.90903813e-02  6.43328950e-02  8.48563462e-02
 -1.67311296e-01  6.14402965e-02  7.33284513e-03  1.61544774e-02
  7.64138401e-02 -9.52971913e-03 -1.21959440e-01 -1.80704203e-02
  1.31168917e-01 -1.93848804e-01  2.07110569e-01  1.74116567e-01
 -8.35597049e-03  7.41875321e-02  8.99549872e-02  9.47271958e-02
 -2.45679487e-02 -1.79588441e-02 -1.22391842e-01 -2.03396473e-02
  6.84725270e-02  1.09533835e-02  1.05658352e-01 -2.56131180e-02]