[-0.09369762  0.16318342  0.08557045 -0.03400986 -0.0780227   0.04248489
 -0.05444229 -0.12220871  0.13748439 -0.11598446  0.26307118  0.023322
 -0.20929544 -0.19835751 -0.02772555  0.16634807 -0.10432949 -0.16089912
 -0.06228739 -0.00150157  0.09972685 -0.00755305 -0.01075121  0.00230736
 -0.13337436 -0.36768684 -0.09620582  0.0174687   0.03105476 -0.06510339
 -0.1053555   0.06237167 -0.1962624  -0.09079205  0.02917616  0.18015198
 -0.01391281 -0.01258546  0.10409047  0.02305191 -0.22772804  0.05394943
  0.0317029   0.28948534  0.23502417  0.03894407  0.04879555 -0.06108367
  0.13539602 -0.20035625  0.06512663  0.14572385  0.14953409  0.0890213
  0.05639052 -0.14268084 -0.00699191  0.14641601 -0.09321833 -0.03476455
  0.0208087  -0.11333086  0.00440643 -0.06914683  0.18027817  0.07351832
 -0.11399058 -0.15369214  0.14316909 -0.11471494 -0.05433728  0.04661391
 -0.15643822 -0.12390999 -0.35434109  0.06695999  0.43550006  0.14391075
 -0.21267839  0.02777166 -0.04621583  0.0405824   0.09985768  0.13037589
 -0.03104577  0.07038199 -0.09420232  0.007331    0.21209989 -0.01235658
 -0.03830453  0.22757064  0.02658623  0.11243508  0.05566895  0.02127665
 -0.02237225  0.01648849 -0.12953438  0.00174612 -0.0231821  -0.08809521
  0.00197712  0.11389887 -0.17622392  0.14779945  0.02394886  0.11700852
  0.01466719  0.0045843  -0.07598083 -0.0422565   0.09220659 -0.29116088
  0.17112952  0.22646473  0.00565993  0.12103527  0.15144481  0.07209849
  0.02987765 -0.06273937 -0.12962648 -0.06407019  0.07448121 -0.07321848
  0.06154294  0.02032411]