[-0.13251214  0.12025388  0.06720818 -0.07551189 -0.06030344  0.00461544
 -0.04562429 -0.09329369  0.12212663 -0.09042519  0.25935841 -0.03721065
 -0.23834041 -0.07964575 -0.03454811  0.22630768 -0.12331601 -0.17911433
 -0.06822785 -0.03696205  0.08362621  0.01394332 -0.05925132  0.03104699
 -0.09842183 -0.36723807 -0.09239894 -0.05766827 -0.0247279  -0.09424639
 -0.09687895 -0.01749158 -0.13397893 -0.0244803   0.00672311  0.08003013
 -0.0143292  -0.0773126   0.16641919  0.0915124  -0.22663033  0.05813454
  0.09512254  0.29982543  0.17228599  0.02856858  0.05968269 -0.0713123
  0.1050682  -0.24796043  0.07261518  0.1055262   0.1206697   0.10915101
  0.05334606 -0.15596063 -0.04113582  0.10918112 -0.16104124  0.05974114
  0.06241528 -0.05786283 -0.04213916 -0.11737683  0.24552689  0.18769833
 -0.15099958 -0.14200464  0.13178386 -0.11529721 -0.11928345 -0.01057961
 -0.14171045 -0.13917722 -0.30746081  0.07258406  0.37844473  0.11162056
 -0.21750379 -0.00654917 -0.0446655  -0.00593962  0.08920483  0.11318733
 -0.02375946  0.04924099 -0.07469988 -0.00799785  0.24270849 -0.02002206
 -0.00882277  0.21943019 -0.00625194  0.0843425   0.0204783   0.11072604
 -0.07973563 -0.00814504 -0.11448161 -0.01692885 -0.02243522 -0.07866128
  0.00649593  0.10094843 -0.17789666  0.1490242   0.01481854  0.04111173
 -0.03501397  0.07043423 -0.048662   -0.0306898   0.09156227 -0.20907579
  0.19196932  0.21520452  0.04402972  0.09117462  0.1014853   0.05112449
 -0.00570926 -0.02983773 -0.17747355 -0.05347356  0.04153222 -0.00221198
  0.03616626  0.07470483]