[-1.89600408e-01  1.14799216e-01  7.56481811e-02 -5.24275303e-02
 -7.44448453e-02 -9.40138474e-02  4.83334586e-02 -8.89747217e-02
  1.08379856e-01  2.14855969e-02  2.46987849e-01 -8.66889507e-02
 -2.35349894e-01 -4.79704924e-02 -2.10632421e-02  1.57408029e-01
 -1.86050728e-01 -4.75413613e-02 -4.00914811e-02 -7.17254728e-02
  1.04320548e-01 -2.44946536e-02  7.54335597e-02  4.59533632e-02
 -1.48930877e-01 -2.88186312e-01 -7.58541599e-02 -1.16505139e-01
 -1.63958445e-02 -4.74752076e-02 -7.57591042e-04  6.84006736e-02
 -1.66477665e-01 -9.31265727e-02  1.70752835e-02  3.28622013e-02
 -3.87347825e-02 -6.34295046e-02  1.65417045e-01  2.55933404e-02
 -1.32474378e-01  4.52747308e-02  5.17762899e-02  3.03244144e-01
  1.68709382e-01  2.34487709e-02  4.68279421e-02 -7.34491497e-02
  5.90800010e-02 -1.78043187e-01  4.81132716e-02  8.68352130e-02
  8.79225358e-02  2.88051199e-02  8.57610106e-02 -1.59817755e-01
  5.41899018e-02  7.36839026e-02 -1.71787173e-01  4.78040837e-02
  1.29945815e-01 -1.37075009e-02  2.07702350e-02 -6.07554018e-02
  1.76234171e-01  9.61382985e-02 -1.12500630e-01 -7.99772739e-02
  9.16628167e-02 -4.29579578e-02 -1.72989536e-02  4.43741344e-02
 -1.59483984e-01 -1.86320081e-01 -2.53925830e-01  6.09672554e-02
  3.27726573e-01  1.00780264e-01 -2.03300104e-01 -7.15601072e-02
 -8.72653127e-02  2.84613073e-02  1.20963052e-01  4.96792160e-02
 -7.50358626e-02 -2.40341034e-02 -1.43360347e-01  3.05315480e-03
  1.32322773e-01 -4.63440046e-02 -7.08811730e-02  2.31796905e-01
  2.86951642e-02 -5.07277958e-02  2.18482930e-02  3.79433334e-02
 -1.45714924e-01  5.00052236e-02 -1.41211465e-01 -1.36771025e-02
  2.07849871e-02 -1.24724664e-01 -3.43516804e-02  1.02817528e-01
 -1.89517245e-01  7.04537779e-02  5.76411886e-03 -1.04874801e-02
 -1.19874358e-01 -2.27767732e-02 -1.29483417e-01  2.52629649e-02
  7.66486973e-02 -2.07296759e-01  1.77777454e-01  2.08956704e-01
  2.18826588e-02  1.06506862e-01  7.82302096e-02  1.61037970e-04
 -1.05558755e-02  2.75337752e-02 -8.58826712e-02 -2.93712560e-02
  8.15364346e-02  1.85171105e-02  6.46509752e-02  2.89635789e-02]