[-0.17451327  0.0718743   0.047391   -0.07000899 -0.05638966 -0.10781913
  0.03800471 -0.05442083  0.10399294  0.06636107  0.17805758 -0.09107447
 -0.23768918 -0.02342768 -0.02619405  0.09931625 -0.14225832 -0.06204927
 -0.08659141 -0.12788305  0.03267071  0.00200075  0.06995116  0.0523337
 -0.15139656 -0.29102638 -0.07311296 -0.09204535  0.00364089 -0.07265246
  0.00424376  0.07426866 -0.18754344 -0.09276827 -0.01081953  0.06591064
 -0.0610184  -0.09004571  0.16623585  0.04355051 -0.10258418  0.00294123
  0.0646297   0.29554695  0.2071487   0.0350451   0.03711662 -0.03679772
  0.09651526 -0.23051882  0.10241623  0.10573595  0.0959623   0.03373998
  0.12910065 -0.12670474  0.03926814  0.09435    -0.097138    0.05902678
  0.10141092 -0.02373207  0.01004388 -0.11061992  0.14903721  0.06565313
 -0.08266892 -0.04268439  0.09006536 -0.07161995 -0.04181422  0.03943918
 -0.10141098 -0.15304868 -0.30029386  0.10715836  0.31993333  0.11509114
 -0.17112765 -0.02237946 -0.07701214  0.01882144  0.10502177  0.00766161
 -0.11547313 -0.05758091 -0.17461936 -0.01880379  0.16732264 -0.0256858
 -0.07160012  0.15475436  0.0024258  -0.01129599  0.03098538  0.06077098
 -0.17677628  0.04453828 -0.09228169  0.02350119  0.08831446 -0.13056466
 -0.05350201  0.09403303 -0.16476697  0.08849584  0.00918717 -0.02354576
 -0.05874742 -0.01892985 -0.12124238 -0.00460538  0.08804338 -0.21629754
  0.14739263  0.17792289 -0.03066385  0.13160321  0.07371762  0.05317454
 -0.0360877   0.06986536 -0.0808024  -0.06863567  0.067179    0.05319314
  0.02042954  0.07226338]