[-0.14392315  0.09635941  0.09329554 -0.05459482 -0.1040046  -0.09935886
  0.01366724 -0.06848604  0.06938583  0.03864679  0.26065001 -0.08975017
 -0.20400038 -0.06384255 -0.05514058  0.14453322 -0.17072667 -0.04460105
 -0.0493631  -0.0472467   0.12181523 -0.03992977  0.05570979  0.04398631
 -0.12164917 -0.27426347 -0.0555735  -0.09884238  0.02023712 -0.06281431
 -0.03006379  0.055023   -0.17846067 -0.10061085 -0.00241166  0.06711548
 -0.03051771 -0.07219623  0.14230238  0.01470444 -0.15088344  0.07569157
  0.05253544  0.27946839  0.21792975  0.02664341  0.04708394 -0.06001597
  0.07457348 -0.22503577  0.07630427  0.10043558  0.12898277  0.01921215
  0.10991734 -0.13825685  0.0192601   0.09784823 -0.15228821  0.04230987
  0.09631533  0.04294439  0.03633588 -0.10849464  0.14731205  0.11728393
 -0.09169503 -0.07641879  0.10888133 -0.06560389 -0.04089482  0.06215523
 -0.14926322 -0.15801588 -0.25619292  0.04501315  0.30869177  0.10488711
 -0.21471904 -0.07718193 -0.08328682  0.0188334   0.09821326 -0.00506112
 -0.0464453  -0.0172956  -0.15307131  0.00582552  0.15302192 -0.07448684
 -0.0329055   0.22568014  0.03218489 -0.06024619  0.01233677  0.04357269
 -0.11855056  0.06265654 -0.15912132 -0.01860826  0.03021462 -0.11358525
 -0.03618733  0.0921881  -0.19241185  0.03957153 -0.00709115 -0.00398138
 -0.09847286 -0.05235709 -0.12089243  0.03625871  0.10979263 -0.18294226
  0.19030827  0.19953389  0.01169796  0.05892094  0.07667872 -0.01309027
  0.00061377 -0.02728291 -0.0782525  -0.03696318  0.05224195 -0.00901331
  0.02546072  0.03722636]