[-1.40607893e-01  1.60021052e-01  8.75881314e-02  7.34236836e-03
 -3.33256014e-02 -6.53424039e-02  3.96754585e-05 -1.16181269e-01
  1.05363242e-01  8.24627653e-03  3.07119966e-01 -6.52514324e-02
 -2.28674173e-01 -1.57056049e-01  1.57467127e-02  1.56957999e-01
 -1.21046521e-01 -7.81331062e-02 -1.37724444e-01 -3.21073388e-03
  5.13990931e-02 -3.64260152e-02  8.26109797e-02  8.04010481e-02
 -4.95289825e-02 -3.90298426e-01 -8.91525969e-02 -6.82329908e-02
  5.99841364e-02 -7.67664462e-02 -3.57866064e-02  5.39138913e-02
 -1.68468103e-01 -9.57245007e-02  3.31571773e-02  7.59850070e-02
 -7.75384903e-03 -5.11114411e-02  2.35168219e-01 -1.35684554e-02
 -1.74244359e-01 -1.64776891e-02  7.10789859e-03  2.36197948e-01
  2.86902875e-01  8.97258148e-02  2.83020344e-02 -6.21926673e-02
  7.60635510e-02 -2.15986654e-01  2.08926480e-02  1.55767784e-01
  6.29438758e-02  1.49475364e-02  5.04745729e-02 -1.33524477e-01
 -8.65813252e-03  6.88015297e-02 -1.60946533e-01 -7.42807984e-02
 -6.86204759e-03 -1.33147046e-01 -7.10868239e-02 -5.80871776e-02
  1.93913296e-01  1.28461257e-01 -8.10709819e-02 -1.10610418e-01
  1.68532833e-01 -1.47937939e-01 -1.21579161e-02  6.11138828e-02
 -1.70530394e-01 -1.19285427e-01 -3.27341348e-01  2.39732359e-02
  4.42754507e-01  9.20365676e-02 -1.85803533e-01  1.32834231e-02
 -6.52934611e-02  9.93511640e-03  6.75979927e-02  6.69598356e-02
 -1.14202850e-01 -2.73269266e-02 -1.00895420e-01  2.54544560e-02
  1.46187142e-01 -1.69369411e-02 -4.08134833e-02  2.00373158e-01
 -3.11585609e-02  7.42151961e-02  6.09875433e-02 -2.31686868e-02
  1.22336699e-02 -1.10410079e-02 -1.12121463e-01 -1.79265458e-02
  8.08446035e-02 -4.69235852e-02  5.02906255e-02  9.46940929e-02
 -2.01553583e-01  2.86584590e-02  1.07514393e-03  3.97816822e-02
  4.57845591e-02 -2.05934141e-02 -9.51672941e-02 -3.32035013e-02
  1.50188968e-01 -2.21200109e-01  1.94556817e-01  1.98102072e-01
 -4.46103327e-02  7.38709122e-02  9.42207202e-02  8.97796080e-02
 -1.02568557e-02 -8.44355859e-03 -1.25259459e-01 -2.40584295e-02
  9.11484361e-02 -1.57289207e-04  9.11770761e-02 -1.54588912e-02]