[-0.126149    0.11670845  0.04837526 -0.04117426  0.04248902 -0.1211938
  0.04796953 -0.20024614  0.1804089  -0.0971738   0.30243883 -0.01334579
 -0.17374119 -0.15432195  0.01457731  0.09526011 -0.20976023 -0.08970863
 -0.02324018 -0.04065821  0.02006491  0.00457956  0.07532956  0.05638171
 -0.08460455 -0.29835761 -0.13567819 -0.17315583  0.13265382 -0.00645371
 -0.00116378  0.03948787 -0.20896256 -0.06573247 -0.03092665  0.0554009
 -0.00749246 -0.05779299  0.17809746  0.02181619 -0.15532945 -0.09130865
 -0.05299571  0.25495163  0.18266834 -0.03529255  0.05668362 -0.10577414
  0.08935102 -0.14292435 -0.00520706  0.07632372  0.13011591  0.04834022
  0.00677504 -0.20390253  0.01622509  0.04107827 -0.18550979 -0.03187028
  0.00793535 -0.02729425 -0.00644185  0.03750009  0.24655581  0.07686087
 -0.12874226 -0.06986162  0.18367712 -0.14759688  0.02434264  0.10204222
 -0.12246299 -0.16853808 -0.25461471  0.01787651  0.38961586  0.04949412
 -0.13815095  0.03087021 -0.19736354 -0.02490855  0.08047773  0.10968752
 -0.06340689  0.07164729 -0.10017514 -0.0068283   0.16501096 -0.07255488
 -0.04709036  0.19274744 -0.06401386  0.06329441  0.02885543  0.00432595
 -0.04656644  0.0386845  -0.06704514  0.00647055  0.00680553 -0.08386742
 -0.04077083  0.0795286  -0.21355848  0.12559076  0.09548653 -0.01940068
  0.00555137 -0.06078978 -0.05588287 -0.04696525  0.13079108 -0.28250164
  0.22349401  0.18558915 -0.02176071  0.20945524  0.02503303  0.0472553
 -0.04336093 -0.07226053 -0.13222058 -0.01304289  0.06774207 -0.02199374
  0.03055643 -0.04244582]