[-1.58201009e-01  8.91413465e-02  1.11809745e-01 -2.37801727e-02
 -9.32633920e-05 -1.41351923e-01  3.66543867e-02 -1.26344278e-01
  8.54593143e-02 -1.65121760e-02  3.33085895e-01 -8.61375555e-02
 -1.89394638e-01 -1.76487088e-01  5.72022274e-02  1.64741084e-01
 -1.19374149e-01 -3.12182903e-02 -1.13230504e-01 -2.10302714e-02
  1.63293633e-04 -3.50759588e-02  9.46029127e-02  6.56081513e-02
 -3.33887078e-02 -3.33708376e-01 -1.18971169e-01 -9.97001454e-02
  9.83741041e-03 -2.15366725e-02 -7.35423639e-02  4.22166027e-02
 -1.81985453e-01 -1.38032019e-01 -7.12628895e-03  7.16255680e-02
  2.21536006e-03 -5.39703444e-02  1.80979431e-01 -2.11461596e-02
 -1.52503967e-01 -1.01577761e-02  2.48213913e-02  2.01952860e-01
  2.18883187e-01  3.88243534e-02  6.06000936e-03 -3.54825221e-02
  8.33840221e-02 -1.93033829e-01  1.70048159e-02  7.28025958e-02
  7.52834901e-02  1.46145821e-02  2.88975593e-02 -9.75790694e-02
 -1.18692312e-02  8.17628354e-02 -1.57549113e-01 -6.97542429e-02
  1.52937016e-02 -8.74959752e-02 -9.59454775e-02 -8.18666741e-02
  2.04226211e-01  1.59075469e-01 -1.00605063e-01 -8.84030387e-02
  1.33328900e-01 -9.15282220e-02  2.39968304e-05  5.50728515e-02
 -1.83394834e-01 -1.39673337e-01 -2.98987806e-01  1.03779748e-01
  3.45836312e-01  5.28573506e-02 -1.87343150e-01 -1.56199532e-02
 -1.05819941e-01  3.63187157e-02  7.91558549e-02  4.68358919e-02
 -1.49824498e-02  5.85395424e-03 -9.75406617e-02 -1.48781212e-02
  1.10921063e-01 -8.31263736e-02 -2.49456242e-02  1.91826537e-01
 -4.39372323e-02  8.11822787e-02  3.23525332e-02 -3.20502906e-03
  1.00006852e-02  1.25740832e-02 -1.39932588e-01  3.92408744e-02
  9.65666994e-02 -5.78552745e-02  1.37926417e-03  4.83772717e-02
 -1.63900435e-01  1.04231089e-02  3.79058719e-02  9.63145681e-03
  4.56622802e-02 -2.44407319e-02 -7.62327090e-02 -8.00658390e-02
  9.79666412e-02 -2.02495605e-01  2.04148456e-01  1.89409465e-01
 -6.98334947e-02  1.02946572e-01  5.88557310e-02  9.74811763e-02
 -3.47923711e-02  1.05289407e-02 -9.97427106e-02 -2.41901428e-02
  1.32792696e-01  4.00351360e-02  4.54062000e-02 -1.36591420e-02]