[-0.11518884  0.15366045  0.07448847 -0.04873644 -0.01141087 -0.06532599
  0.01918454 -0.16167895  0.1614372  -0.07934965  0.29866591 -0.01807099
 -0.22674537 -0.14115834  0.01039639  0.15585585 -0.19779997 -0.11784345
 -0.02022737  0.00241979  0.02917659 -0.01395965  0.05467514  0.0620023
 -0.04608688 -0.31404901 -0.09430585 -0.16728465  0.12284338 -0.02128254
 -0.06169397 -0.05260519 -0.19663481 -0.06081315 -0.03594263  0.04697761
 -0.02022297 -0.06317029  0.19132593 -0.01660979 -0.2032433  -0.07791536
 -0.009155    0.21385311  0.16091125  0.00139743  0.08661802 -0.15056112
  0.04973159 -0.13278611  0.04884018  0.09301052  0.11252741  0.05998597
 -0.03500025 -0.24299641 -0.00132982  0.05844221 -0.16848247  0.01842455
  0.06758927 -0.01508683 -0.03313835  0.0066901   0.28869137  0.05428014
 -0.14038984 -0.15657464  0.14434205 -0.15739165 -0.02228394  0.09430892
 -0.1398081  -0.17069946 -0.28743285  0.04432521  0.38510448  0.08097137
 -0.16540818  0.03663813 -0.1810026  -0.0377293   0.0904178   0.15579826
 -0.01881118  0.07731771 -0.12412398 -0.01312828  0.16361678 -0.10165509
 -0.01071169  0.19060361 -0.0365357   0.08679657 -0.01902338  0.03026405
 -0.06429973  0.06971814 -0.07909794 -0.01973489  0.02036636 -0.03492355
 -0.00901646  0.0856856  -0.19589177  0.11002244  0.06671041 -0.00087649
  0.01940356 -0.03472882 -0.06758031 -0.10007399  0.15799426 -0.23374473
  0.2392195   0.20983516  0.05647044  0.15364781  0.10125542  0.08305629
  0.00471959 -0.05232808 -0.1930521   0.03601824  0.07310052 -0.0572339
  0.07287806  0.00763253]