[-0.1004707   0.12937714  0.04434497 -0.03963928  0.01936784 -0.10428502
  0.03618724 -0.12041567  0.11984791 -0.01463294  0.30795443 -0.03199527
 -0.22634876 -0.11615951 -0.01268107  0.16000721 -0.14160246 -0.0206398
 -0.1580011  -0.00875342 -0.00376132  0.0412448   0.11239648  0.06654507
 -0.01164135 -0.34276474 -0.11463572 -0.07813863  0.02550521 -0.04820428
 -0.00217726  0.03043606 -0.161819   -0.12264261  0.05342318 -0.01267614
 -0.03917129 -0.05561826  0.23850654  0.07510938 -0.1620736   0.01837048
  0.03724105  0.30284879  0.23725811  0.02677953  0.01063651 -0.07249555
  0.05902861 -0.21930841  0.02188353  0.0932176   0.06749257 -0.0037649
  0.09041043 -0.10169739 -0.01439489  0.0975822  -0.1761288  -0.0227249
  0.02452716 -0.08543613 -0.07232758 -0.04281653  0.16742142  0.1431845
 -0.11332744 -0.09852954  0.13210972 -0.1232722  -0.00684058  0.04190921
 -0.14628074 -0.14005224 -0.30260462  0.02876323  0.38023755  0.09016386
 -0.15832216  0.01366058 -0.08409318  0.02075729  0.09580993  0.06942035
 -0.07880531 -0.01730864 -0.05301209  0.01430163  0.10527175 -0.02597134
 -0.09398798  0.2020777  -0.07226826  0.01491071  0.06494047 -0.00926193
 -0.04193286 -0.03255697 -0.15364102 -0.00807005  0.05599576 -0.07299724
  0.0381268   0.08434622 -0.18378073  0.02791883  0.02913662 -0.0161139
  0.06262492  0.01486259 -0.08954041 -0.03442873  0.10683381 -0.21138147
  0.24465697  0.16515684 -0.06432192  0.07647045  0.07646812  0.04715244
 -0.03245761  0.02562209 -0.08036858 -0.06403712  0.06910731  0.05110188
  0.12060501 -0.05721427]