[-0.07650574  0.10360531  0.00439393 -0.02039462 -0.0347787  -0.03120093
  0.02189704 -0.14934868  0.1618195  -0.0608548   0.29144546  0.0198311
 -0.25050482 -0.19468762  0.03532517  0.12518996 -0.2037742  -0.17869972
 -0.05608093 -0.05179498  0.02073471  0.0199839   0.04652024  0.0500899
 -0.12800875 -0.36666399 -0.08575093 -0.14357805  0.11190663 -0.07883188
 -0.03357905  0.04666968 -0.17006074 -0.04181625  0.01971276  0.04732476
 -0.03401369 -0.05041021  0.20657837  0.00895976 -0.21682452 -0.05968571
  0.00715984  0.26522657  0.18078946 -0.00812971  0.04793643 -0.09509566
  0.03937502 -0.15090351  0.08511128  0.16559705  0.12536249  0.05201525
  0.00792041 -0.19739144 -0.06778659  0.10025364 -0.18930566 -0.01142322
  0.03434468 -0.05392976 -0.05999643 -0.03981764  0.20887087  0.08918524
 -0.14186367 -0.13074103  0.14519195 -0.163519   -0.04946708  0.06946245
 -0.13110341 -0.18108892 -0.25330999  0.03008635  0.37919441  0.0703934
 -0.17670295  0.02474211 -0.11093726 -0.04721096  0.07705821  0.0978277
 -0.07176504  0.04089111 -0.10066342  0.03028408  0.14300369 -0.0317146
 -0.02692413  0.18648021 -0.04694631  0.04886684  0.05956709  0.05117957
 -0.04677259  0.05226329 -0.08673614 -0.02450637  0.03610357 -0.08476936
  0.0057439   0.06742253 -0.1472525   0.14467058  0.09354411  0.01729042
  0.04879412 -0.02828497 -0.06930756 -0.08946848  0.14907353 -0.27725962
  0.24585846  0.17541455  0.02890846  0.18074499  0.06209501  0.07653342
 -0.03591451 -0.09680989 -0.19107163 -0.00413267  0.07437842 -0.04179479
  0.07029305 -0.01165396]