[-0.11314534  0.16211966  0.05683419 -0.04409811 -0.05971047 -0.01967682
 -0.05711973 -0.16779101  0.10032071 -0.04052919  0.26495275  0.0032957
 -0.19605608 -0.20564337 -0.02760357  0.18333147 -0.13998014 -0.16071332
 -0.03708129  0.01731939  0.09507187  0.0021736   0.02254284  0.02835224
 -0.0808868  -0.3649624  -0.0914577  -0.03953136  0.03170534 -0.04295184
 -0.11887665  0.03118508 -0.20784345 -0.09744034  0.0639373   0.18639672
 -0.01840467 -0.04363424  0.10324138 -0.0173113  -0.20636967  0.05570295
  0.05340349  0.25767639  0.21038471  0.05183157  0.07057489 -0.1243178
  0.12064695 -0.12286067  0.08832625  0.11495401  0.141075    0.05887541
  0.02321765 -0.16215704 -0.01083535  0.13665828 -0.11118136  0.0024572
  0.039583   -0.10902493 -0.03872932 -0.09221521  0.18687682  0.07351668
 -0.12491589 -0.18267387  0.09773973 -0.11431184 -0.08900511  0.03328505
 -0.16356722 -0.14791372 -0.35180238  0.0641674   0.38740551  0.08496433
 -0.24224234  0.0448069  -0.00774333  0.03550213  0.12424292  0.17290466
 -0.0087245   0.07161018 -0.13630059 -0.02219675  0.21694045 -0.06301344
 -0.03735365  0.20504275 -0.03420388  0.12471099  0.03184959  0.0492434
 -0.03107605  0.06652649 -0.10881849 -0.02142326  0.03663666 -0.06466316
 -0.02354947  0.09892848 -0.14213811  0.07226108  0.01713794  0.11624142
  0.0322199  -0.04162876 -0.07716587 -0.09338673  0.09280562 -0.25611451
  0.23617779  0.23182438  0.00934355  0.11782465  0.14743941  0.08503478
  0.04757281 -0.0378888  -0.16956778 -0.02729604  0.11230316 -0.02726383
  0.06569119  0.01239866]