[-1.65793061e-01  9.12607312e-02  9.74493846e-02 -3.39579917e-02
 -1.05176633e-02 -1.57516912e-01  3.70919220e-02 -1.24474898e-01
  9.36338529e-02 -1.48368031e-02  3.31653208e-01 -6.52572885e-02
 -1.97997361e-01 -1.89735040e-01  5.44512682e-02  1.56069025e-01
 -1.21735394e-01 -3.01436838e-02 -1.23460449e-01 -1.22827729e-02
  1.87050388e-03 -4.13056277e-02  1.08520046e-01  4.57634293e-02
 -3.49119417e-02 -3.54916513e-01 -1.18697837e-01 -8.09410736e-02
  1.20835211e-02 -2.05119513e-02 -5.49635403e-02  3.99881601e-02
 -1.95340231e-01 -1.61776349e-01  7.10961223e-03  7.56442323e-02
 -1.02850143e-02 -4.80816551e-02  1.87562525e-01 -1.66246984e-02
 -1.59952626e-01 -2.68565537e-03  2.24674046e-02  1.97026268e-01
  2.31642351e-01  2.88663786e-02  1.37473298e-02 -7.11491555e-02
  1.00424230e-01 -1.99423715e-01  2.02411860e-02  8.78071338e-02
  6.26777261e-02  1.92214344e-02  4.58027981e-02 -7.68608972e-02
  9.99774318e-03  8.86039808e-02 -1.68565154e-01 -8.52325112e-02
  2.88429614e-02 -8.31290781e-02 -9.67944488e-02 -7.82563761e-02
  1.77330971e-01  1.51420519e-01 -9.33739170e-02 -1.06547810e-01
  1.40793025e-01 -9.31539461e-02 -1.25578794e-04  5.37943952e-02
 -1.72813103e-01 -1.38420299e-01 -3.19915682e-01  9.96313021e-02
  3.46047699e-01  6.49294555e-02 -1.72514811e-01 -1.10037215e-02
 -1.17813341e-01  2.51343343e-02  6.55699149e-02  3.81153822e-02
 -2.90014502e-02 -2.27959314e-03 -9.57897678e-02 -1.46711140e-03
  1.04762435e-01 -6.93498179e-02 -2.86775511e-02  1.87108204e-01
 -3.24904397e-02  9.29808840e-02  5.01103513e-02  1.48372529e-02
 -2.33146418e-02  9.86357685e-03 -1.50735676e-01  3.27238366e-02
  1.07376233e-01 -6.67814314e-02  1.79193094e-02  6.71766624e-02
 -1.58009186e-01  3.06979921e-02  2.20587049e-02  1.00226169e-02
  4.81568016e-02 -3.47684175e-02 -5.60516715e-02 -7.43255541e-02
  7.41959363e-02 -1.89427063e-01  2.30478287e-01  1.83920830e-01
 -6.72416463e-02  9.78511497e-02  6.74518719e-02  8.21542293e-02
 -4.72274050e-02  1.77660827e-02 -9.33694094e-02 -3.11113652e-02
  1.01542607e-01  4.91153821e-02  5.21262959e-02 -1.94843989e-02]