[-1.13616623e-01  1.21008925e-01  5.00446856e-02 -3.22753750e-02
  4.42119129e-02 -1.21293426e-01  4.46229279e-02 -1.99111104e-01
  1.79947540e-01 -1.05177715e-01  3.09449852e-01 -2.12598331e-02
 -1.74759015e-01 -1.49986371e-01  1.44436760e-02  9.83019397e-02
 -2.13132665e-01 -8.33836719e-02 -1.34164393e-02 -3.00646313e-02
  3.37984823e-02  9.80398618e-04  7.10876659e-02  5.02585433e-02
 -9.29410979e-02 -3.00422907e-01 -1.35596797e-01 -1.65560022e-01
  1.31028041e-01 -1.16420984e-02 -9.63171106e-03  2.87636165e-02
 -2.12960482e-01 -7.94252083e-02 -2.44150516e-02  4.81295250e-02
 -7.34724803e-03 -6.17635138e-02  1.83281466e-01  1.46224247e-02
 -1.61675140e-01 -7.49794170e-02 -5.42759486e-02  2.58032262e-01
  1.59882873e-01 -2.70807426e-02  5.36858030e-02 -1.19935088e-01
  8.22939202e-02 -1.34928361e-01  6.81403279e-03  7.05432594e-02
  1.20537356e-01  4.90206517e-02 -6.47051027e-03 -2.06028581e-01
  1.65965315e-02  4.06179316e-02 -1.85129121e-01 -3.16374786e-02
  2.59808339e-02 -2.08982602e-02  2.95531008e-05  3.85970548e-02
  2.51253664e-01  7.67803416e-02 -1.23967506e-01 -8.39691907e-02
  1.73189774e-01 -1.38929203e-01  1.79969426e-02  9.28088203e-02
 -1.20804429e-01 -1.66719064e-01 -2.60197610e-01  1.82529278e-02
  3.92186761e-01  4.67340164e-02 -1.43242136e-01  3.17504443e-02
 -1.99064031e-01 -2.20086370e-02  9.99523699e-02  1.14395633e-01
 -4.95933294e-02  7.62259588e-02 -9.09961462e-02  3.69124929e-03
  1.71195135e-01 -7.40725920e-02 -6.26502410e-02  1.87499151e-01
 -6.14024661e-02  6.77491501e-02  2.92917788e-02 -5.58673358e-03
 -5.06797843e-02  4.84543741e-02 -7.49016553e-02  9.22729168e-03
  1.73366293e-02 -6.53878003e-02 -3.82407717e-02  1.00238703e-01
 -2.18415484e-01  1.31039441e-01  9.84790847e-02 -2.21112575e-02
  2.15417705e-02 -4.78480048e-02 -6.83036223e-02 -5.00741713e-02
  1.23765402e-01 -2.86854029e-01  2.37015009e-01  1.82743996e-01
 -2.08906503e-03  2.01726824e-01  3.54964435e-02  3.69090699e-02
 -2.88946368e-02 -6.22084104e-02 -1.55462399e-01 -9.27720685e-03
  7.84167573e-02 -2.03625951e-02  4.94839214e-02 -4.40247320e-02]