[-1.17105424e-01  1.18568853e-01  4.85043190e-02 -1.26849292e-02
  1.12453254e-03 -7.24525899e-02  2.29317527e-02 -1.51713416e-01
  1.16345026e-01 -1.96440797e-02  3.24724644e-01 -9.28467214e-02
 -2.23102525e-01 -1.73470959e-01  1.32740457e-02  1.86941028e-01
 -1.61837712e-01 -4.16138582e-02 -1.00534178e-01  1.68457218e-02
  6.58050701e-02 -2.71714665e-02  8.53266492e-02  6.08815067e-02
 -1.73203554e-02 -3.99371862e-01 -1.23465173e-01 -8.04962292e-02
  3.63670290e-02 -4.81868945e-02 -5.71944974e-02  5.66260591e-02
 -1.50267944e-01 -8.48289281e-02  1.39646679e-02  6.00044616e-02
 -4.15388308e-02 -7.49534890e-02  2.10473090e-01 -2.29608621e-02
 -1.48103222e-01 -1.21631017e-02  3.04375030e-02  2.20531583e-01
  2.50514090e-01  4.65109348e-02  1.76226981e-02 -9.89396796e-02
  6.75706416e-02 -1.60922751e-01  2.43288348e-03  1.01967148e-01
  5.68094626e-02  3.53483036e-02  1.87333804e-02 -8.54479969e-02
 -1.71968350e-04  7.11487159e-02 -1.68126971e-01 -6.26814365e-02
  3.53122763e-02 -1.31676257e-01 -1.07061282e-01 -5.14792874e-02
  1.88902617e-01  1.38895467e-01 -8.11852738e-02 -1.35426834e-01
  1.48545831e-01 -1.40267015e-01 -3.41699310e-02  2.13352125e-02
 -1.83364391e-01 -1.52446985e-01 -3.04374814e-01  2.64649279e-02
  3.87224913e-01  6.79315850e-02 -1.67787120e-01  2.40425747e-02
 -3.66439186e-02  7.89818913e-03  1.37169316e-01  9.28652883e-02
 -6.32309243e-02 -1.83678176e-02 -1.07298039e-01  3.64180207e-02
  1.39896795e-01 -6.92216083e-02 -3.55941020e-02  2.19280526e-01
 -4.71036695e-02  9.32159126e-02  5.31791151e-02 -2.67097894e-02
  3.97110246e-02  4.40298505e-02 -1.33221671e-01  1.38230179e-03
  1.13074951e-01 -5.14168143e-02  4.28232737e-02  7.70849138e-02
 -1.50530353e-01  2.97305286e-02  3.39231454e-02  6.00838438e-02
  1.00068055e-01 -4.98925224e-02 -1.10222809e-01 -5.69769107e-02
  1.33473337e-01 -1.94260225e-01  1.91162437e-01  1.74120486e-01
 -5.36146993e-03  6.86832890e-02  8.16649124e-02  1.07840680e-01
 -1.78431179e-02 -1.76107548e-02 -1.92647845e-01  3.70610468e-02
  1.17994837e-01  4.57661785e-02  6.88728020e-02 -2.51202676e-02]