[-9.62693915e-02  1.16905093e-01  5.10843284e-02 -6.56430423e-02
 -6.24297671e-02  3.93191054e-02 -5.23392074e-02 -1.20352700e-01
  1.39669627e-01 -9.19225961e-02  2.71168679e-01 -2.10728273e-02
 -1.49043635e-01 -1.84491560e-01 -2.04149783e-02  1.79561004e-01
 -2.01155230e-01 -1.73476994e-01 -3.76593433e-02  4.17331569e-02
  4.28420715e-02 -1.16992630e-02  9.27197468e-03  2.90205367e-02
 -1.14905708e-01 -3.93501282e-01 -7.32675120e-02 -7.84443393e-02
  4.48599607e-02 -9.81139839e-02 -7.91132003e-02  5.93465641e-02
 -1.84730887e-01 -3.53909843e-02  2.07192022e-02  1.30382299e-01
 -1.06191244e-02 -2.07812991e-02  1.47632703e-01  1.59387775e-02
 -2.62798637e-01  8.91363472e-02  1.40822027e-02  2.58220941e-01
  2.24694639e-01  2.33968105e-02  4.20136414e-02 -1.31381080e-01
  1.40871570e-01 -1.27059922e-01  3.67081128e-02  1.40494376e-01
  8.98680836e-02  2.74852216e-02 -2.43212525e-02 -1.45879209e-01
 -3.96496914e-02  1.38050124e-01 -1.24196343e-01  4.05645967e-02
  5.58588989e-02 -8.39830041e-02 -3.17381956e-02 -4.05131690e-02
  1.68852270e-01  1.19331315e-01 -1.16124749e-01 -2.47137100e-01
  1.46774665e-01 -1.22506164e-01 -7.76888952e-02  7.36084729e-02
 -1.57817632e-01 -1.52813882e-01 -2.85370231e-01  1.32859675e-02
  3.52635771e-01  3.18654068e-02 -2.38281921e-01 -4.33101226e-03
 -4.41016927e-02  2.15072986e-02  1.18119121e-01  1.77191690e-01
 -4.20736074e-02  2.49599069e-02 -1.18366815e-01 -4.05395329e-02
  2.44254902e-01 -9.19420290e-06 -2.75146794e-02  1.99763998e-01
 -2.24304423e-02  8.21627527e-02  4.50495295e-02  4.58496884e-02
 -5.79253733e-02  6.66957498e-02 -1.59125730e-01 -5.57988398e-02
  7.17143575e-03 -6.06366359e-02 -3.40650566e-02  1.40181497e-01
 -1.45661712e-01  1.55607864e-01  1.87515211e-03  1.02203183e-01
  4.44277190e-02  2.95997714e-03 -4.27526608e-02 -5.43477535e-02
  1.37995601e-01 -2.08649069e-01  2.20258430e-01  2.08732128e-01
  9.28435326e-02  8.53628144e-02  1.68765172e-01  7.21716061e-02
 -3.80745763e-03 -1.45210018e-02 -2.29918286e-01  6.79452578e-03
  6.21108674e-02 -5.67371845e-02  5.92645518e-02 -1.28795970e-02]