[-0.20558731  0.08512384  0.05876705 -0.0667908  -0.07245839 -0.1075679
  0.04217174 -0.06288595  0.1147854   0.03533221  0.20819931 -0.05234248
 -0.25920776 -0.05727967 -0.00202212  0.10466959 -0.12586682 -0.03902459
 -0.05471387 -0.12909602  0.10133647  0.00104356  0.07733891  0.05656852
 -0.14340338 -0.26192814 -0.07576641 -0.1081967  -0.02962468 -0.12347689
 -0.00812368  0.0453918  -0.1710953  -0.10547089 -0.00093555  0.06060548
 -0.08276725 -0.10234499  0.11836662  0.00381786 -0.09271187  0.00592533
  0.02796397  0.2776939   0.18211822  0.04822152  0.02914101 -0.05302764
  0.1208486  -0.22080775  0.05602468  0.08717033  0.09657963  0.00262455
  0.13758866 -0.13903822  0.05249469  0.06876139 -0.14093514  0.04726482
  0.08810249 -0.03437451 -0.01632249 -0.09370305  0.16319586  0.07667324
 -0.12515011 -0.0441384   0.10089808 -0.04363185 -0.02538738  0.07358225
 -0.12152246 -0.20686148 -0.19865832  0.10324521  0.35375717  0.10241032
 -0.18858798 -0.0347207  -0.09983157  0.03211345  0.07570001  0.03330617
 -0.08187438 -0.040374   -0.17521551  0.00470315  0.13623886 -0.05860993
 -0.07016983  0.20721519  0.01638429  0.0038498   0.02597548  0.05354872
 -0.17823818  0.06606159 -0.07865186 -0.00682659  0.11062342 -0.14771108
 -0.05839835  0.07780396 -0.14317964  0.11527353  0.00254127  0.00913912
 -0.08144251 -0.06003946 -0.12953351  0.03424164  0.04998014 -0.25273731
  0.18335339  0.17645243 -0.01787887  0.13746668  0.04287454  0.02455908
  0.01452366  0.0251436  -0.09412511 -0.08070166  0.09046607  0.02852886
  0.0243982   0.02043803]