[-0.20527664  0.11916154  0.0445204  -0.05295888 -0.07236056 -0.09502102
  0.05678355 -0.05165988  0.1155578   0.04662582  0.2134974  -0.08707526
 -0.22421709 -0.02251906 -0.01254586  0.11483514 -0.14685749 -0.07307336
 -0.04211211 -0.10531805  0.05613398 -0.01802233  0.03600021  0.10048898
 -0.15610883 -0.24436073 -0.06230814 -0.11522227 -0.02376333 -0.07999579
  0.00768959  0.08963348 -0.16065328 -0.08447203  0.01710416  0.05486513
 -0.0310748  -0.03747519  0.17003216  0.02194929 -0.10119263 -0.00752793
  0.0513773   0.34322894  0.14644273  0.03081292  0.03322194 -0.03224764
  0.0923058  -0.18746415  0.05030925  0.11106388  0.10732569  0.01683599
  0.09509614 -0.14606975  0.07362974  0.083648   -0.1338255   0.06888144
  0.1143622  -0.06672382 -0.00374826 -0.07422552  0.18438728  0.04345503
 -0.09333812 -0.04737541  0.08745816 -0.03136015 -0.02134089  0.07697891
 -0.12329393 -0.19696914 -0.22664575  0.11167325  0.35920241  0.12616278
 -0.18804593  0.00414848 -0.07208134  0.02890631  0.12344636  0.03662807
 -0.10623689 -0.03210964 -0.17615196  0.01318632  0.13820098 -0.02987203
 -0.04579334  0.16652949  0.01744818 -0.03558153  0.02854949  0.02680979
 -0.13779747  0.06340083 -0.08720929  0.0133276   0.0711787  -0.13767576
 -0.04176683  0.05584714 -0.19329952  0.06892414  0.02244838 -0.01369039
 -0.10732947 -0.00433421 -0.11696561  0.01381868  0.0789439  -0.25646383
  0.14985389  0.16902141 -0.03144166  0.14228855  0.05500037  0.04079722
 -0.00706604  0.02491699 -0.05829371 -0.05811095  0.11216094  0.0256511
  0.0612172   0.0268205 ]