[-0.08305081  0.15182441  0.0422315  -0.04426927 -0.08643381 -0.01999613
 -0.1001632  -0.15987636  0.09551964 -0.06346931  0.20864029 -0.02274404
 -0.15048186 -0.16658418 -0.01005322  0.1549596  -0.16556577 -0.20061801
 -0.03865137 -0.02861464  0.0744498  -0.00143771  0.00234489  0.0039002
 -0.10298028 -0.34665886 -0.07778665 -0.04838337  0.07030958 -0.03437221
 -0.10066614  0.0515005  -0.19775856 -0.08392543  0.04440344  0.18704899
 -0.02711471 -0.04346511  0.12163354 -0.01882557 -0.21988268  0.05023408
  0.029942    0.25795275  0.26280195  0.04115015  0.03770522 -0.12412257
  0.13222854 -0.15708321  0.07288742  0.15216057  0.09227709  0.10135436
  0.00572899 -0.15339719  0.01890855  0.10056305 -0.12742512 -0.02276356
  0.04476582 -0.11558469  0.02289753 -0.09029185  0.21616101  0.10362343
 -0.07833141 -0.17042683  0.12695706 -0.12996209 -0.1055234   0.02997667
 -0.1348775  -0.1193461  -0.33126733  0.01691398  0.41915736  0.09427454
 -0.21910091  0.05283307 -0.01218105 -0.01776737  0.1511033   0.15018156
 -0.03545409  0.05909417 -0.11849959 -0.00076161  0.25957337 -0.05863303
 -0.04540604  0.17936631 -0.01478745  0.14397581  0.08753383  0.06690165
 -0.03330914  0.07305422 -0.14010012 -0.02286505  0.01666543 -0.0743975
 -0.00742051  0.1137585  -0.10563906  0.14013194  0.03544899  0.11515279
 -0.01396762 -0.0427774  -0.03499868 -0.05831061  0.13390286 -0.21661465
  0.2310942   0.20177899  0.02877886  0.14715509  0.13695167  0.08759284
 -0.00095867 -0.0609278  -0.18622902 -0.00830585  0.06546223 -0.00564347
  0.07395359  0.07409821]