[-1.06280997e-01  1.03580371e-01  6.49163052e-02  9.38104559e-03
 -1.91388559e-02 -3.75129767e-02  3.81986015e-02 -1.28764480e-01
  1.56314597e-01 -3.26273032e-02  3.15860957e-01 -1.84524953e-02
 -2.53224462e-01 -1.51281938e-01  4.08466123e-02  1.31047964e-01
 -2.18197092e-01 -1.07811406e-01 -4.58053239e-02 -3.08025833e-02
  2.49043014e-02  1.29483445e-02  3.94102633e-02  3.50898281e-02
 -8.64659920e-02 -3.53170872e-01 -8.06971416e-02 -1.28197968e-01
  1.18132554e-01 -2.45566368e-02 -3.67863439e-02  3.27880345e-02
 -2.00391605e-01 -9.61147174e-02  4.74125240e-03  4.03694771e-02
 -1.00384606e-02 -3.11154481e-02  1.88527361e-01  3.47992231e-04
 -1.92331895e-01 -7.80815780e-02 -7.51932431e-03  2.45879441e-01
  1.75198242e-01  1.30677326e-02  3.66487466e-02 -8.74546841e-02
 -3.02394517e-02 -1.77642390e-01  3.65754329e-02  1.70895785e-01
  1.28901333e-01  6.16952144e-02 -3.54994647e-02 -1.99851990e-01
 -3.97678800e-02  4.49782535e-02 -1.62997738e-01 -3.30644213e-02
  7.16723353e-02 -2.70688478e-02 -8.24361574e-03  1.42050837e-03
  2.51136512e-01  4.19116318e-02 -1.43322513e-01 -1.14865758e-01
  1.02986053e-01 -1.31755695e-01 -2.37345304e-02  7.11124763e-02
 -1.34552345e-01 -1.82273433e-01 -2.84350634e-01  4.67635207e-02
  4.05502290e-01  4.42506783e-02 -2.03964069e-01  1.40872840e-02
 -2.01857477e-01 -4.18851636e-02  9.31447670e-02  8.15082416e-02
 -2.48726662e-02  4.25413474e-02 -1.09182119e-01  7.56087666e-03
  1.31562665e-01 -6.51298910e-02 -1.95904281e-02  1.89943612e-01
 -2.66507007e-02  2.34820582e-02  4.81941961e-02  6.42698482e-02
 -1.61535162e-02  4.67775129e-02 -8.80254358e-02 -1.90613996e-02
  3.81154604e-02 -6.44153804e-02  1.26912519e-02  7.88188130e-02
 -2.00839549e-01  1.38452917e-01  9.36099216e-02 -7.25094229e-03
  6.50356635e-02 -4.49280217e-02 -8.31720307e-02 -9.04184580e-02
  1.77698478e-01 -2.83317953e-01  2.19447687e-01  2.00216681e-01
 -1.06945476e-02  1.79453731e-01  5.78579791e-02  1.01836257e-01
 -5.27582280e-02 -5.64236753e-02 -1.48746446e-01 -1.17834825e-02
  5.06960861e-02 -3.77061069e-02  6.17016740e-02 -9.78113711e-03]