[-0.10650344  0.11427812  0.06097083  0.01637341 -0.00398866 -0.04079607
  0.05479209 -0.15131891  0.14756887 -0.03139504  0.29365185 -0.05775923
 -0.21929829 -0.17388238  0.04061657  0.15379928 -0.2281606  -0.14431353
 -0.03596487 -0.04693019  0.03662192  0.00120019  0.00460427  0.03207077
 -0.08662876 -0.35955665 -0.07128217 -0.15315044  0.12097427 -0.03977133
 -0.04933587  0.05458506 -0.20537114 -0.086425   -0.00956877  0.02264642
  0.00811742 -0.0248916   0.17498828  0.01101659 -0.18127023 -0.07283037
  0.00613546  0.25668597  0.13448048  0.02009458  0.03690959 -0.0929305
 -0.01519292 -0.13457663  0.03983185  0.1526102   0.12701109  0.08147206
 -0.03235517 -0.20735006 -0.03636285 -0.03481452 -0.17224711 -0.00567046
  0.0654403  -0.03766268 -0.04359826 -0.03605844  0.24047151  0.03463652
 -0.09057225 -0.14405863  0.11559486 -0.13210721 -0.05558394  0.04885983
 -0.14177595 -0.16360527 -0.31378853  0.05031095  0.37726533  0.05224094
 -0.21010327  0.03603356 -0.1453694  -0.05540152  0.11319063  0.1225299
 -0.01485934  0.09226613 -0.0820519   0.01760155  0.12031934 -0.08369364
 -0.04113344  0.16945608 -0.04463935  0.03691549  0.03073303  0.02266766
  0.00227747  0.07213476 -0.08219927 -0.02417071  0.05764977 -0.03760223
  0.00773634  0.08329514 -0.18086666  0.11882734  0.09621792 -0.00525734
  0.03319372 -0.01232685 -0.09101794 -0.10664826  0.15840867 -0.26196191
  0.22085622  0.22320317  0.00371402  0.15549915  0.04069078  0.1020959
 -0.03653117 -0.0281849  -0.16759287  0.00431237  0.08350807 -0.02212192
  0.02310706  0.01113751]