[-0.07913891  0.15090981  0.04172329 -0.04072472 -0.08878668 -0.02531764
 -0.10881218 -0.15958291  0.09607252 -0.07306557  0.21353345 -0.01936276
 -0.1599983  -0.1706821  -0.01495513  0.15510002 -0.16165495 -0.19965747
 -0.0459748   0.00137414  0.06936301 -0.01313814  0.01252289  0.01129085
 -0.08350077 -0.36245963 -0.07882606 -0.04186102  0.07585406 -0.03548524
 -0.11490992  0.05826395 -0.19699733 -0.09694327  0.03736166  0.18327844
 -0.0275516  -0.04136259  0.11672655 -0.02556276 -0.23609464  0.06080112
  0.01895004  0.23913722  0.26631361  0.06027769  0.04989611 -0.15030877
  0.1325891  -0.16354714  0.07243899  0.1593771   0.08773626  0.09541805
  0.00696875 -0.17840417  0.01361918  0.11103556 -0.11498117 -0.016825
  0.03218755 -0.09054454  0.03207591 -0.08961003  0.21657363  0.1018876
 -0.08498473 -0.17137225  0.1439961  -0.13165455 -0.10030309  0.03286464
 -0.1321436  -0.13444817 -0.32411385  0.02109595  0.39560005  0.09571978
 -0.2207524   0.0554004  -0.01853922 -0.01693545  0.13179144  0.15756993
 -0.04442621  0.04804654 -0.11949978 -0.02446953  0.25551462 -0.04979394
 -0.02712858  0.19659661 -0.0135928   0.1499911   0.08982537  0.07723185
 -0.04728657  0.08190306 -0.15284887 -0.02364345  0.02786331 -0.07941891
 -0.01434451  0.11947667 -0.10401449  0.13373551  0.0155767   0.12602918
  0.00458252 -0.04364175 -0.02944131 -0.06673583  0.13381507 -0.21053167
  0.24480577  0.20894869  0.04336832  0.14437698  0.16042213  0.09567919
  0.01224384 -0.06354751 -0.20063858 -0.00669025  0.07692111 -0.02193884
  0.05019354  0.07240796]