[-8.86158273e-02  1.08832419e-01  5.74759915e-02 -2.73570549e-02
  2.42593046e-02 -9.71094370e-02  6.66162744e-02 -1.31363317e-01
  1.18269421e-01  7.84573611e-03  3.08058619e-01 -5.77557497e-02
 -2.22475454e-01 -1.60575151e-01  4.11332324e-02  1.62282303e-01
 -1.50464162e-01 -2.78848317e-02 -1.36872560e-01 -2.80019194e-02
 -1.47441449e-02  1.41679225e-02  1.07586287e-01  1.03400864e-01
 -3.15476470e-02 -3.36404800e-01 -9.33786631e-02 -1.39794737e-01
  4.54785787e-02 -6.74864352e-02 -2.68073287e-02  7.61052966e-02
 -1.55457869e-01 -8.95717666e-02  4.31600697e-02 -8.76327883e-03
 -1.70130488e-02 -5.12778461e-02  2.32138380e-01  3.71587649e-02
 -1.45729840e-01 -4.07754555e-02  1.36294682e-02  2.39912018e-01
  2.83525646e-01 -7.56323105e-03  9.97247081e-03 -5.60959652e-02
  6.14675358e-02 -2.44271621e-01 -9.79216956e-03  9.09360051e-02
  5.19518517e-02  1.61682293e-02  4.70281355e-02 -1.36914343e-01
 -3.53261344e-02  6.80145994e-02 -1.83816269e-01 -4.24792692e-02
 -1.23579940e-02 -1.16746806e-01 -1.06132962e-01 -1.31819351e-02
  2.03254342e-01  1.40439108e-01 -1.26959115e-01 -8.14270675e-02
  1.50362477e-01 -1.40435100e-01  2.46860385e-02  6.80766702e-02
 -1.60526738e-01 -1.26157194e-01 -2.79677927e-01  2.96274722e-02
  3.83066982e-01  5.73396347e-02 -1.92459807e-01 -5.67388907e-03
 -1.48799583e-01  3.09147425e-02  6.63624406e-02  5.04676588e-02
 -6.93247318e-02 -4.36659716e-02 -6.03511110e-02  1.05124498e-02
  9.56981108e-02 -4.69941497e-02 -3.66344228e-02  2.21051440e-01
 -7.93679580e-02  4.40901890e-02  5.34359105e-02 -1.06289303e-02
 -2.03475361e-06 -4.05239239e-02 -1.17342353e-01 -1.40606910e-02
  4.72299717e-02 -8.05589184e-02  4.11213897e-02  9.38394591e-02
 -2.20479608e-01  4.23966162e-02  3.79507355e-02 -1.45891756e-02
  7.92545751e-02 -2.85522528e-02 -5.87990060e-02 -3.95117812e-02
  1.38804331e-01 -2.32090592e-01  2.18091801e-01  1.72568500e-01
 -6.21009432e-02  9.01095197e-02  8.59887153e-03  7.22936988e-02
 -5.87172396e-02 -2.01830361e-02 -9.20341015e-02  6.92764705e-04
  9.11552906e-02  2.19133105e-02  3.93085442e-02 -7.30792060e-02]