[-1.46030530e-01  9.75059494e-02  3.75700928e-02 -8.81594196e-02
 -8.43051448e-02 -6.65110946e-02  3.35253105e-02 -4.15479951e-02
  1.06529631e-01  3.03779054e-03  2.06948623e-01 -1.04378477e-01
 -2.12105557e-01 -3.03374622e-02 -2.72157323e-02  1.16282426e-01
 -1.25981137e-01 -1.28716245e-01 -5.32076843e-02 -1.00409739e-01
  2.98961401e-02 -1.26219494e-02  5.02863191e-02  7.97893405e-02
 -1.65843382e-01 -2.60659188e-01 -7.75461718e-02 -9.11999270e-02
 -2.54711043e-02 -5.78638725e-02 -2.64325470e-04  1.14687257e-01
 -1.52165458e-01 -5.28555810e-02  1.54844522e-02  7.10071176e-02
 -2.94606742e-02 -6.46052882e-02  1.72862783e-01  2.99808327e-02
 -1.02085911e-01 -1.19996374e-03  4.79423217e-02  3.39492202e-01
  1.66830152e-01  5.51820034e-03  2.30675992e-02 -3.98716442e-02
  9.14743692e-02 -2.29150966e-01  7.58068040e-02  1.31152973e-01
  9.53565016e-02  2.95166168e-02  1.16967797e-01 -8.53393823e-02
  6.63378909e-02  9.26824585e-02 -9.85927507e-02  4.32029404e-02
  5.98539226e-02 -2.30478942e-02 -1.52165992e-02 -1.65094659e-01
  1.79772720e-01  7.57001489e-02 -7.41045028e-02 -8.26598778e-02
  1.15183465e-01 -3.55208479e-02 -1.01012282e-01  5.14200740e-02
 -1.39500186e-01 -1.53456569e-01 -2.50162929e-01  8.52521285e-02
  3.36714000e-01  1.46738395e-01 -1.86699733e-01  4.55502681e-02
 -5.76377697e-02  1.48581862e-02  7.39946291e-02 -1.24391913e-03
 -1.23244286e-01 -2.47520637e-02 -1.60267353e-01  1.67847369e-02
  1.79244339e-01 -6.49871528e-02 -7.48977661e-02  1.44237816e-01
 -4.58995067e-03 -2.09001685e-03  5.29821999e-02  1.70464348e-02
 -1.06837869e-01  7.55332708e-02 -1.40105084e-01  1.31783774e-02
  1.02131784e-01 -1.35404706e-01 -5.77563308e-02  7.93604031e-02
 -1.97165519e-01  8.44312161e-02  1.45126879e-02 -2.36364212e-02
 -6.35928735e-02  2.27969773e-02 -1.44845322e-01  1.86196994e-02
  1.11734785e-01 -2.40074232e-01  1.50773406e-01  1.62952527e-01
  2.65986356e-03  1.20831564e-01  1.01593733e-01  4.47877906e-02
 -1.89225022e-02  2.82949749e-02 -8.05006623e-02 -8.56956244e-02
  1.15477860e-01  4.74579148e-02  2.61085518e-02  7.40375444e-02]