[-8.82399455e-02  1.26009285e-01  4.65217344e-02 -5.73646985e-02
 -7.06513450e-02 -1.69763342e-04 -1.12601303e-01 -1.38593614e-01
  9.19290185e-02 -1.13406397e-01  2.24592671e-01 -3.51482816e-02
 -1.76301271e-01 -1.25288948e-01 -1.80122964e-02  1.85634464e-01
 -1.67531416e-01 -1.68379799e-01 -4.46429960e-02  2.80835237e-02
  5.92881106e-02 -1.19795864e-02  1.00810500e-02  4.99736925e-04
 -5.27916811e-02 -3.64036918e-01 -1.08387969e-01 -4.26229239e-02
  1.22949928e-02 -2.46282611e-02 -1.17213272e-01  1.88654959e-02
 -1.87196657e-01 -7.25640208e-02  3.59448157e-02  1.51309356e-01
 -2.90290955e-02 -5.31278811e-02  1.33299395e-01 -2.53108586e-03
 -2.15723976e-01  7.83192441e-02  2.04516985e-02  2.35325679e-01
  2.13713408e-01  6.05543032e-02  6.02317341e-02 -1.49450630e-01
  1.05252028e-01 -1.37319610e-01  6.77344650e-02  1.51283234e-01
  1.04986146e-01  8.44871178e-02 -9.89148673e-03 -1.51168361e-01
  2.51860265e-02  1.06287479e-01 -1.09342232e-01 -9.75021254e-03
  8.83411840e-02 -5.17232232e-02  1.31217844e-03 -1.02403007e-01
  2.35329345e-01  1.15460925e-01 -1.22932673e-01 -2.03668281e-01
  1.16995513e-01 -1.12298444e-01 -9.51653421e-02  9.66121722e-03
 -1.63119167e-01 -1.61045834e-01 -2.88649857e-01  2.82863267e-02
  3.68157357e-01  9.57060233e-02 -2.19641954e-01  4.75500859e-02
 -3.72308753e-02 -1.12351617e-02  1.27784252e-01  1.78465500e-01
 -1.03928242e-02  6.35758564e-02 -7.75139555e-02 -2.76986789e-02
  2.34017685e-01 -5.44102564e-02 -3.13695930e-02  1.91341326e-01
 -1.69747230e-02  1.11670986e-01  6.19692802e-02  4.95797358e-02
 -2.00976375e-02  7.37085268e-02 -1.33143574e-01  1.05308471e-02
 -1.14512863e-02 -8.65622908e-02 -2.88791656e-02  9.82646719e-02
 -1.17558621e-01  1.39955759e-01 -8.58595874e-03  1.12765990e-01
  8.44391994e-03 -1.11926720e-02 -6.64269179e-02 -6.70216307e-02
  1.28902748e-01 -2.36840248e-01  2.08820626e-01  2.12170482e-01
  4.11224663e-02  1.24035418e-01  1.61266208e-01  1.38386548e-01
  1.24327280e-02 -1.23575032e-02 -2.41780192e-01 -2.45677885e-02
  7.24475011e-02  3.19304015e-03  6.50079474e-02  6.08396716e-02]