[-0.05781588  0.10689802  0.05708915 -0.0767704  -0.13764833 -0.01411783
 -0.10132442 -0.09974849  0.13663587 -0.07719165  0.23876145 -0.05634471
 -0.17960778 -0.14145751 -0.05616134  0.19600326 -0.24371384 -0.14346872
  0.02973804  0.01269741  0.10381937 -0.0071573  -0.00629142  0.05825954
 -0.14270478 -0.3756004  -0.0711348  -0.0704423   0.05171915 -0.06338743
 -0.14041321  0.06390035 -0.18724455 -0.08886039  0.04839648  0.10688044
  0.01722555 -0.08244818  0.10948991  0.01192775 -0.27206311  0.07965527
  0.05942357  0.21680322  0.23803203  0.06381172  0.03901966 -0.1411244
  0.16539335 -0.13742889  0.02031093  0.15112945  0.11991208  0.02545568
  0.00230315 -0.13157521 -0.02309665  0.12070763 -0.13950539 -0.04191143
  0.04481757 -0.06601197  0.06656667 -0.11047938  0.18245135  0.05877496
 -0.07890632 -0.16886993  0.14162515 -0.14726627 -0.10765793  0.03774264
 -0.12303805 -0.14302987 -0.30582759 -0.01582431  0.35188103  0.10891268
 -0.20550194  0.05712673 -0.03567857 -0.02073072  0.11881334  0.17130116
  0.00203992  0.04917682 -0.08418321 -0.04897205  0.26715168 -0.07395862
  0.03327813  0.21097474  0.00798906  0.09541745  0.05269204  0.01403436
 -0.09506921  0.08427204 -0.11704537 -0.01750873 -0.03427444 -0.04657245
 -0.0029885   0.11460566 -0.18590331  0.07657981  0.00189595  0.02703154
 -0.00306198 -0.01597482 -0.03022297 -0.08818849  0.10597747 -0.24301676
  0.18668163  0.20665443  0.06814621  0.13706289  0.11070853  0.06333306
 -0.00186653 -0.07260262 -0.15205485 -0.03314672  0.10764243 -0.08232737
  0.07757756 -0.00830554]