[-0.09308545  0.09979463  0.08341687 -0.05404745 -0.09469002 -0.02545408
 -0.0910776  -0.09120911  0.11022853 -0.06297249  0.22698866 -0.0643876
 -0.16697061 -0.12456188 -0.05514538  0.20634465 -0.24223661 -0.13390097
 -0.00696504  0.01828883  0.09569167  0.00914999 -0.01235988  0.03698885
 -0.10984277 -0.34237516 -0.06397738 -0.07228801  0.05382383 -0.04907485
 -0.12582624  0.02442211 -0.20496145 -0.06838553  0.04174165  0.08716815
  0.00040032 -0.08768693  0.13429438 -0.01067326 -0.2528753   0.07582921
  0.08218111  0.21809104  0.21117555  0.05162507  0.02065127 -0.13573673
  0.14196245 -0.13172811  0.01745164  0.15949909  0.11406472  0.04794095
 -0.00631963 -0.15309617 -0.01799421  0.13656709 -0.1064994  -0.00687745
  0.04561922 -0.03864389  0.05696766 -0.09871538  0.21706097  0.05226518
 -0.09652176 -0.17986295  0.12841979 -0.09728123 -0.07898629  0.03706058
 -0.14525509 -0.15106545 -0.26621082 -0.0032941   0.36266589  0.06246621
 -0.21953598  0.0667375  -0.07529386 -0.03665297  0.12351485  0.16633786
  0.01066742  0.04062996 -0.08121961 -0.04216542  0.2767413  -0.07822033
  0.03644537  0.19129543  0.00736469  0.05974275  0.01326773 -0.03350775
 -0.07914209  0.08600856 -0.1286798  -0.03277151 -0.03679846 -0.03977343
 -0.0130235   0.11415823 -0.16965544  0.06935882  0.0528221   0.04186293
  0.0136485   0.00736025 -0.05950613 -0.0905669   0.10670972 -0.2200321
  0.22915398  0.18666059  0.08756328  0.11656296  0.12483706  0.08846422
  0.01464387 -0.01972911 -0.16539387 -0.00206023  0.12446842 -0.05641897
  0.08226835  0.0078799 ]