[-0.07769535  0.10094447  0.07608726 -0.07780131 -0.10015585 -0.04076945
 -0.08812525 -0.09640651  0.10728085 -0.08278159  0.23086405 -0.06910715
 -0.17927474 -0.10739022 -0.07691853  0.21240321 -0.19751759 -0.14059302
 -0.05821555  0.01416173  0.097471    0.00706741 -0.00200003  0.03784921
 -0.11353115 -0.33787316 -0.06238363 -0.05684919  0.01852044 -0.03696672
 -0.10760545  0.03103182 -0.23535223 -0.08163792  0.02456771  0.08394074
  0.0199981  -0.08821315  0.13572383 -0.00731941 -0.26712665  0.08579968
  0.09505814  0.20757139  0.20999663  0.0579595   0.02983629 -0.13699028
  0.11765818 -0.14437173  0.04575989  0.11962431  0.11222946  0.02566011
  0.02373804 -0.14592139 -0.0009483   0.14973985 -0.1167217  -0.02407988
  0.0551116  -0.02123405  0.04289424 -0.11168619  0.23331968  0.07771705
 -0.08448864 -0.16156782  0.1525313  -0.10479315 -0.07013156  0.03454356
 -0.13082097 -0.12852947 -0.29939368 -0.00332647  0.35399356  0.08690439
 -0.21748237  0.05967324 -0.05786178 -0.01268385  0.13594837  0.13200699
 -0.00331161  0.04531879 -0.08314712 -0.01822734  0.27654344 -0.05507705
  0.01839011  0.21252349  0.00921728  0.02838999  0.01460477 -0.02956714
 -0.08776464  0.07189637 -0.1429853  -0.00595006 -0.01254589 -0.00767649
 -0.01768538  0.13048784 -0.15736111  0.02377276  0.00740994  0.02932731
  0.00547203  0.00842498 -0.06209907 -0.10102703  0.09156448 -0.19744174
  0.19367419  0.16143608  0.05408183  0.08845996  0.14226027  0.07713611
  0.02527101 -0.02602506 -0.20037019 -0.0090504   0.15155506 -0.06787886
  0.11705825  0.02865743]