[-0.1421711   0.09241876  0.10453751 -0.03006906 -0.13172293 -0.08494931
 -0.04044564 -0.08818439  0.07254975 -0.04329383  0.22601457 -0.06520971
 -0.20519803 -0.09739091 -0.05212354  0.2062654  -0.15375447 -0.14661387
 -0.04895392 -0.02372211  0.11661277 -0.00209394  0.01908608  0.03845823
 -0.12844035 -0.38139543 -0.06240561 -0.04809369  0.01346727 -0.06957502
 -0.10454705  0.03976777 -0.21358036 -0.09197508  0.04301153  0.13345663
  0.0170377  -0.05552448  0.14508405 -0.03451128 -0.26316717  0.07153866
  0.1111208   0.23271881  0.19027485  0.08230119  0.03978882 -0.11176164
  0.10892934 -0.15331291  0.02632025  0.10112336  0.12007055 -0.00173091
  0.04329048 -0.13705848 -0.0046631   0.14531897 -0.19098282 -0.03854265
  0.04807752 -0.08716782  0.03172441 -0.13139795  0.21605723  0.06453468
 -0.06315214 -0.10689133  0.15680505 -0.13901563 -0.00308362  0.06057727
 -0.11349394 -0.15753372 -0.28586     0.00285425  0.36988318  0.10526855
 -0.1738749   0.05071353 -0.02406195  0.01011787  0.13238922  0.08834621
 -0.01792456  0.06673788 -0.11858483  0.02011724  0.23403136 -0.06044455
  0.04637595  0.17611012  0.03243917  0.05035738  0.04003302 -0.02018953
 -0.1064829   0.04595242 -0.13464959  0.00624639 -0.06196072 -0.04596477
  0.02526051  0.07142918 -0.14271158 -0.00581235 -0.01152661 -0.00331148
 -0.06266978 -0.00501588 -0.03759213 -0.11168014  0.06562717 -0.23685169
  0.16407833  0.20548753 -0.0330425   0.12740059  0.06539876  0.06553924
 -0.01230315 -0.04257243 -0.15729125  0.01085078  0.15050161 -0.08208817
  0.13376065  0.00932247]