[-0.12650935  0.08530855  0.08835266 -0.05955952 -0.12541309 -0.07825798
 -0.06891371 -0.11761179  0.0906148  -0.04547666  0.195363   -0.05069119
 -0.16928302 -0.09519916 -0.03654106  0.19054599 -0.17471202 -0.11836585
 -0.01047766 -0.02479567  0.07243812  0.01893369 -0.00791839  0.03349627
 -0.12416875 -0.33613595 -0.05560714 -0.03660327  0.00695443 -0.03500974
 -0.10454451  0.07788466 -0.1939615  -0.11686126  0.07720652  0.16942322
 -0.01072558 -0.03946966  0.12354838 -0.04628065 -0.2424877   0.05460873
  0.11883023  0.23370472  0.2052321   0.0821344   0.02501531 -0.13025388
  0.13600396 -0.15904179  0.04454152  0.08388317  0.09244727  0.02323325
  0.03335179 -0.1508244   0.01479073  0.14798799 -0.18214269 -0.02560618
  0.07274071 -0.10320866  0.0282853  -0.09451703  0.21517904  0.08458736
 -0.05990137 -0.12211396  0.15516613 -0.12234218 -0.05165143  0.05639742
 -0.09550188 -0.15488027 -0.29550299 -0.00507015  0.37125382  0.11889964
 -0.17935149  0.04550239 -0.00164636  0.00635014  0.17592254  0.10483223
 -0.01113202  0.04523226 -0.08756848  0.00614338  0.2420821  -0.03366234
  0.01334162  0.17084025  0.03675206  0.0652374   0.04932778  0.00978937
 -0.08489522  0.06269675 -0.16732903 -0.03223678  0.01042237 -0.02867252
  0.04878012  0.13004975 -0.1617444   0.06884127  0.00502387  0.02836646
 -0.01280073 -0.01786239 -0.01233198 -0.07403689  0.09027161 -0.22806446
  0.1817054   0.1760882  -0.0145797   0.14155154  0.0682897   0.05507634
  0.00321612 -0.06353561 -0.16984634 -0.00198704  0.13452224 -0.0617761
  0.15177292  0.03389265]