[-0.12680428  0.08033282  0.10779484 -0.02218887 -0.12515847 -0.07154318
 -0.06274401 -0.09382012  0.09027853 -0.05999402  0.22876249 -0.06406368
 -0.19773467 -0.09581538 -0.05914173  0.20791595 -0.17577371 -0.13483348
 -0.03404079 -0.00697693  0.10150164  0.01870187  0.01385868  0.02962672
 -0.10900438 -0.39481917 -0.05782741 -0.05476639  0.02985324 -0.04842913
 -0.11108204  0.04816052 -0.20439132 -0.09245703  0.05378061  0.12740192
  0.02333225 -0.05355633  0.13590333 -0.03725884 -0.2744315   0.07115653
  0.11464874  0.2212342   0.18610612  0.09255035  0.03502844 -0.11703396
  0.10552929 -0.15680061  0.03034492  0.10367191  0.13127337 -0.0070272
  0.03327363 -0.16684538 -0.03066741  0.12524341 -0.16346481 -0.0351916
  0.04988129 -0.07036626  0.03841062 -0.12740715  0.22547989  0.0527455
 -0.07992268 -0.12095211  0.14752136 -0.14369677 -0.01287376  0.05183909
 -0.11537936 -0.15366542 -0.28445503 -0.00965782  0.36604887  0.08678263
 -0.18616498  0.05944839 -0.03781591 -0.00321106  0.1119879   0.12433622
  0.01542767  0.06006987 -0.1011604  -0.01982336  0.23734188 -0.07030553
  0.0482103   0.17705727  0.02108942  0.05508883  0.02007727 -0.03126002
 -0.11193188  0.04356481 -0.13490002 -0.00978081 -0.07842813 -0.01856155
  0.01148164  0.08015882 -0.15822141  0.02547879 -0.00592268 -0.00098195
 -0.02281531 -0.00197213 -0.02745876 -0.11733653  0.08305617 -0.23376587
  0.17164181  0.19836254  0.00517166  0.14954582  0.07402734  0.07287309
  0.00337088 -0.02191121 -0.17637776 -0.00532102  0.13026522 -0.10587557
  0.10986074  0.0096721 ]