[-5.70904315e-02  1.00943446e-01  7.20125660e-02 -6.23315834e-02
 -1.43223807e-01 -1.94556043e-02 -8.70289579e-02 -8.63606110e-02
  1.25028715e-01 -6.05787225e-02  2.30821088e-01 -3.50321904e-02
 -1.78095832e-01 -1.70526206e-01 -2.83526387e-02  1.84264883e-01
 -2.15935513e-01 -1.44242525e-01  1.17441909e-02  1.46216517e-02
  1.01900652e-01 -1.07272090e-02 -3.38061317e-03  6.87103495e-02
 -1.49993882e-01 -3.75855476e-01 -6.73631132e-02 -7.49104768e-02
  5.63658737e-02 -8.57465193e-02 -1.54293224e-01  5.17883077e-02
 -1.81322083e-01 -1.02528684e-01  4.55311649e-02  1.17427245e-01
  5.21072373e-03 -7.88355097e-02  1.00816622e-01  2.06020009e-02
 -2.68243283e-01  7.47851804e-02  4.38011773e-02  2.17621043e-01
  2.55503207e-01  8.96461606e-02  4.73224595e-02 -1.27686769e-01
  1.80921808e-01 -1.69343159e-01  4.91467975e-02  1.46429941e-01
  1.22761823e-01  2.36931574e-02  3.09102423e-02 -1.31575942e-01
 -2.45372821e-02  1.34381771e-01 -1.69785187e-01 -2.33070310e-02
  2.50775870e-02 -7.00390562e-02  6.29196912e-02 -1.06074147e-01
  1.79960683e-01  6.75187632e-02 -7.64889047e-02 -1.39140561e-01
  1.61052138e-01 -1.61743358e-01 -1.01696707e-01  4.22608741e-02
 -1.11577950e-01 -1.51584119e-01 -3.12703580e-01  2.92528351e-03
  3.56403947e-01  1.36432767e-01 -2.18242317e-01  3.57412435e-02
 -3.40448543e-02 -9.57657117e-03  1.20735161e-01  1.57303095e-01
  2.83371279e-04  3.44901495e-02 -9.08375978e-02 -5.47371805e-02
  2.54493713e-01 -6.17061742e-02  4.57504876e-02  2.26411864e-01
  2.47478969e-02  8.86563286e-02  5.89064248e-02  1.08053191e-02
 -8.93586278e-02  7.32255727e-02 -1.14647113e-01 -2.19467860e-02
 -2.62385756e-02 -5.34988046e-02  7.02993292e-03  1.05776131e-01
 -1.85297772e-01  7.62452185e-02 -3.94572882e-04  1.98423807e-02
 -7.16835028e-03 -3.43870260e-02 -3.93371470e-02 -9.10190567e-02
  1.01878822e-01 -2.56454557e-01  1.91275015e-01  2.17488393e-01
  5.35287932e-02  1.35549814e-01  8.88127908e-02  6.21208325e-02
  5.26232971e-03 -9.89091992e-02 -1.34559229e-01 -3.38274650e-02
  1.16602235e-01 -9.15357992e-02  6.73662573e-02 -4.58116084e-03]