[-0.12859444  0.10496863  0.06148281 -0.07529992 -0.14342213 -0.07951375
 -0.06014131 -0.05794865  0.10732412 -0.01135059  0.20818233 -0.05386958
 -0.18280208 -0.10508144 -0.04842341  0.20699464 -0.16417608 -0.13035648
 -0.01824086 -0.03222252  0.10646415 -0.00766358 -0.01948845  0.06009373
 -0.12840275 -0.36505425 -0.03961945 -0.03693828  0.03695745 -0.04678046
 -0.10817255  0.0825503  -0.20814215 -0.12508793  0.07973852  0.16638362
  0.01164674 -0.03850821  0.1381599  -0.02262009 -0.24586625  0.07156222
  0.11685915  0.2502175   0.20724466  0.07336641  0.04395553 -0.10769676
  0.1469264  -0.19306731  0.02188119  0.11241533  0.11605369  0.02258125
  0.02536085 -0.15132473  0.00754121  0.17021899 -0.22673741 -0.02214683
  0.03864405 -0.09904628  0.00899559 -0.13043718  0.21498501  0.08630506
 -0.08261491 -0.11449233  0.1513698  -0.12205336 -0.00037113  0.07204715
 -0.09758264 -0.16560927 -0.28654912  0.01412926  0.35729593  0.13968892
 -0.17958713  0.05242363 -0.02773318  0.01075683  0.13708979  0.07026607
 -0.01352806  0.04673473 -0.10152153  0.01978837  0.23446015 -0.04881929
  0.04925488  0.19211005  0.04350737  0.09241054  0.01517704  0.02683714
 -0.10839714  0.04248591 -0.15167499 -0.01386309 -0.02815559 -0.04391078
  0.04938118  0.08348324 -0.1718616   0.03436449  0.00304686  0.02525404
 -0.05967801 -0.02188387 -0.00680145 -0.07731067  0.08383257 -0.23515284
  0.1941741   0.20215011 -0.0168715   0.14210592  0.07910087  0.01667307
  0.008728   -0.10809769 -0.1364589   0.00815121  0.12864101 -0.08691753
  0.12598586  0.01232514]