[-0.13925561  0.09357843  0.05734557 -0.07323511 -0.14023946 -0.09056509
 -0.06412212 -0.06378647  0.10766201 -0.01893556  0.20291245 -0.06283178
 -0.17491405 -0.11050673 -0.05210144  0.20355499 -0.16300504 -0.1203646
 -0.01567669 -0.03497184  0.11020934 -0.00986648 -0.01138948  0.05883056
 -0.12397742 -0.36764801 -0.04165813 -0.04310319  0.04353703 -0.04194214
 -0.10881986  0.08018577 -0.20775156 -0.13383815  0.07683452  0.16802254
  0.01016072 -0.04250497  0.13548787 -0.02622703 -0.23531428  0.06364796
  0.11545476  0.24589376  0.20325251  0.07937624  0.04087265 -0.11581709
  0.14619432 -0.19394997  0.02600571  0.10789543  0.1019761   0.02745588
  0.03290812 -0.14327191  0.01718286  0.16297682 -0.23043776 -0.01831052
  0.04233448 -0.08693196  0.00060627 -0.12695709  0.22709492  0.09589349
 -0.0840285  -0.10789508  0.16217332 -0.11782563 -0.00119176  0.06371637
 -0.09482189 -0.16292079 -0.28255829  0.01775537  0.35668904  0.14266533
 -0.17742291  0.04933861 -0.0333449   0.00953431  0.14118217  0.07241777
 -0.01184281  0.04007858 -0.09092265  0.01824213  0.22122355 -0.04492923
  0.04313674  0.1929162   0.04662271  0.08644148  0.02022983  0.03240738
 -0.11719824  0.03978886 -0.15643844 -0.02247933 -0.00137941 -0.04148425
  0.05348275  0.09170835 -0.16630439  0.0391565   0.000663    0.02049649
 -0.04393912 -0.02431042 -0.0075404  -0.07587101  0.07560968 -0.22788015
  0.2024982   0.19411838 -0.00703076  0.14713685  0.07728113  0.02112362
  0.01337774 -0.10168158 -0.1332482   0.00274192  0.12389821 -0.07690104
  0.11904793  0.01513066]