[-1.00291550e-01  9.70355794e-02  6.04851805e-02 -6.00133128e-02
 -1.16556957e-01 -8.47290978e-02 -7.51372874e-02 -8.22215900e-02
  7.20462427e-02 -9.41007212e-03  2.42959768e-01 -5.33718541e-02
 -1.79002509e-01 -1.56361088e-01 -5.79971448e-02  1.88837618e-01
 -1.53262302e-01 -1.09650984e-01 -1.50853200e-02 -1.59594044e-02
  9.98600125e-02  2.11078525e-02 -1.42653650e-02  3.08631305e-02
 -1.12137727e-01 -3.56177539e-01 -4.20907326e-02 -7.37755895e-02
  1.41490763e-02 -6.16659187e-02 -7.30472878e-02  8.42669755e-02
 -1.87303051e-01 -1.12867676e-01  7.91368708e-02  1.22530378e-01
  6.60653133e-03  4.35143197e-03  1.36952266e-01 -3.48883681e-02
 -2.38639787e-01  4.39420752e-02  1.10123418e-01  2.44631156e-01
  1.90452993e-01  8.54315683e-02  4.73327823e-02 -1.21593177e-01
  1.11782312e-01 -1.77487701e-01  3.72973755e-02  9.75527540e-02
  1.40351161e-01  1.09456452e-02  1.15928752e-02 -1.34378165e-01
 -3.49953654e-03  1.53283402e-01 -2.10112080e-01 -6.05138426e-04
  5.33988290e-02 -9.67960507e-02 -8.82180687e-03 -9.03254077e-02
  2.26478606e-01  4.21903022e-02 -1.01318382e-01 -9.79074389e-02
  1.36895224e-01 -1.31870270e-01 -2.99980473e-02  8.32237154e-02
 -8.93547013e-02 -1.79167926e-01 -3.04249495e-01  1.41269593e-02
  3.60313684e-01  1.06960490e-01 -1.96694300e-01  3.14788036e-02
 -3.52193452e-02  2.20529805e-03  1.38450742e-01  6.30835369e-02
 -2.29757056e-02  3.07375696e-02 -8.90552923e-02  5.21490211e-03
  2.44807646e-01 -6.76167160e-02  3.95537764e-02  1.90351471e-01
  2.37087794e-02  9.10384506e-02  3.54174711e-03  7.13818846e-03
 -5.43055423e-02  4.61930558e-02 -1.23557054e-01 -1.91356245e-04
 -1.30635547e-02 -5.28510585e-02  3.49849761e-02  8.97214264e-02
 -1.76609084e-01  4.89848368e-02  1.19335204e-02  1.19659994e-02
 -1.98177099e-02 -2.93579902e-02 -2.76384540e-02 -9.44612548e-02
  1.16420150e-01 -2.21805096e-01  2.01651573e-01  2.01287791e-01
  3.36109288e-02  1.34349331e-01  8.93255547e-02  1.89305320e-02
  6.33790856e-03 -1.17388062e-01 -1.62172943e-01  6.70130644e-03
  1.47743031e-01 -9.94261131e-02  1.21412151e-01 -8.71896558e-03]