[-1.51172355e-01  1.10093787e-01  6.16200566e-02 -5.70006482e-02
 -1.26327872e-01 -8.05506632e-02 -8.33363608e-02 -9.84618589e-02
  1.02258518e-01 -4.63263690e-02  2.36612365e-01 -8.38986263e-02
 -1.82385266e-01 -1.39172181e-01 -4.85134125e-02  1.98605940e-01
 -1.94775939e-01 -1.25140071e-01 -1.72447786e-02  7.88234826e-03
  1.26580268e-01 -3.93463811e-03  1.06723316e-03  6.06108569e-02
 -1.15257673e-01 -4.00284350e-01 -7.14239925e-02 -6.21596277e-02
  1.25077311e-02 -5.57293557e-02 -8.57959986e-02  4.85839956e-02
 -2.17613325e-01 -1.23721063e-01  5.60482629e-02  1.55593932e-01
  1.30695133e-02 -4.15932797e-02  1.18234716e-01 -3.71303372e-02
 -2.51308531e-01  4.54030633e-02  1.04398847e-01  2.39432558e-01
  1.80684343e-01  7.75432810e-02  4.40700650e-02 -1.16854407e-01
  1.17237985e-01 -1.68623865e-01  3.16564962e-02  1.17912449e-01
  1.16935648e-01 -5.15911449e-03  4.13489603e-02 -1.56465009e-01
 -2.04164460e-02  1.57359228e-01 -1.68261811e-01 -2.75794696e-02
  3.95605415e-02 -6.70373663e-02  2.04378292e-02 -1.24158107e-01
  2.09726810e-01  7.76884556e-02 -8.04928690e-02 -1.46054432e-01
  1.44018874e-01 -1.24991432e-01 -2.69211475e-02  4.96570729e-02
 -1.22761704e-01 -1.72089264e-01 -3.33124399e-01 -1.35244345e-02
  3.73015106e-01  8.84102210e-02 -1.70232758e-01  5.79078011e-02
 -5.70694916e-02 -1.14264684e-02  9.89195332e-02  1.14267640e-01
  1.14095500e-02  6.36025816e-02 -1.01463191e-01  1.62914824e-02
  2.22065195e-01 -7.32065514e-02  5.21151125e-02  1.90907806e-01
  1.02194967e-02  7.82091394e-02  4.00810782e-03 -2.92342249e-02
 -1.01583265e-01  5.69270253e-02 -1.30830035e-01  1.61239514e-04
 -5.36819100e-02 -2.50060391e-02  1.72323287e-02  9.78800207e-02
 -1.77347779e-01  1.03774844e-02  2.04819776e-02  1.22787552e-02
 -3.88774537e-02 -1.24414489e-02 -5.15752099e-02 -1.10534929e-01
  9.18455049e-02 -2.36050680e-01  1.74978644e-01  2.15613648e-01
  2.37473845e-02  1.46611944e-01  9.80547890e-02  3.75840627e-02
  2.60620117e-02 -5.56801520e-02 -1.78928673e-01  2.48179268e-02
  1.13267496e-01 -7.47198462e-02  6.67709038e-02  6.26512757e-03]