[-0.12043905  0.11775293  0.07248911 -0.06296267 -0.13894354 -0.07551758
 -0.05110708 -0.07962588  0.07984494 -0.00777789  0.22897534 -0.06057072
 -0.19394113 -0.13097511 -0.03204412  0.1940133  -0.14207684 -0.13939446
 -0.03318634  0.00323572  0.12562825 -0.02396707 -0.00888648  0.05382295
 -0.11346825 -0.37981865 -0.06842469 -0.05640321  0.03595798 -0.05918832
 -0.08948897  0.05426285 -0.2164032  -0.12389342  0.04697614  0.11700934
 -0.00402013 -0.04834526  0.14314377 -0.03992713 -0.25382963  0.06738701
  0.09626774  0.2171735   0.19156019  0.08279613  0.07154919 -0.11837659
  0.11107232 -0.16446216  0.02715471  0.12621081  0.10836995  0.0267387
  0.01482543 -0.14026345  0.01661636  0.16213821 -0.22569509 -0.02449377
  0.04458167 -0.08925489 -0.00341788 -0.11932762  0.21750739  0.08154102
 -0.0729367  -0.12904075  0.16054142 -0.12847824 -0.02120891  0.06049015
 -0.124013   -0.1588894  -0.30848256  0.02356543  0.35768715  0.11884979
 -0.18496539  0.05279161 -0.04348811  0.02370522  0.12463119  0.0722731
 -0.02136249  0.0342052  -0.10428008  0.01146608  0.21923034 -0.05759563
  0.05330552  0.18540172  0.04187449  0.08106481  0.02556204  0.01809704
 -0.08506129  0.03994844 -0.12526748  0.00885953 -0.02795127 -0.03900247
  0.03239782  0.0986495  -0.15842324  0.0315915  -0.0018853   0.02157395
 -0.05551182 -0.02393304 -0.02012483 -0.10010296  0.07500266 -0.22281881
  0.1962301   0.20649432 -0.01662846  0.11497865  0.08844642  0.04835346
 -0.00753089 -0.08881664 -0.17434852  0.01288977  0.15322594 -0.07612548
  0.10199094  0.00603023]