[-0.08644956  0.11938109  0.07848894 -0.04858816 -0.13419901 -0.02210513
 -0.07780182 -0.09677865  0.13758716 -0.09976204  0.25431424 -0.03958211
 -0.16251689 -0.16472922 -0.03913385  0.19817896 -0.20823447 -0.15071364
  0.00967027 -0.00169294  0.08481001 -0.02969832 -0.02800339  0.05760182
 -0.10636502 -0.37303558 -0.08163901 -0.09964453  0.0412321  -0.10471641
 -0.13473605  0.04624903 -0.15118587 -0.09507189  0.01147022  0.07765739
  0.01297672 -0.04321777  0.13776968  0.00841162 -0.2503725   0.0563934
  0.06851061  0.23722826  0.23937662  0.06515681  0.02824925 -0.10789219
  0.16388577 -0.12789029  0.01795992  0.13029747  0.15517834  0.02966358
  0.0241637  -0.11585023 -0.0101014   0.10535449 -0.153716   -0.01795253
  0.05317696 -0.10485343  0.0203301  -0.07130773  0.21099448  0.05983178
 -0.05879725 -0.14236315  0.17395575 -0.14776282 -0.10333031  0.03115951
 -0.12515526 -0.13509414 -0.28955823 -0.00319541  0.38555637  0.12502997
 -0.21047814  0.0479054  -0.04307229 -0.03992483  0.12720716  0.15826941
 -0.01353709  0.01863651 -0.08279456 -0.04781123  0.2305837  -0.03829378
  0.04850749  0.18668279  0.02698717  0.09487328  0.04852291 -0.03278564
 -0.06443644  0.06628104 -0.11756265 -0.02329196 -0.06137083 -0.06200602
 -0.00295479  0.08530407 -0.19032611  0.07753184  0.02433397  0.03278225
 -0.02079447  0.00885592 -0.03208239 -0.07571685  0.11103528 -0.22908178
  0.16562855  0.20567958  0.06113124  0.12471654  0.09479427  0.06917455
 -0.00485907 -0.08743974 -0.16962858 -0.0128765   0.1081918  -0.10296573
  0.08472873  0.00690819]