[-0.05520207  0.14676158  0.05852598 -0.04487568 -0.11659451 -0.02995211
 -0.08175258 -0.09491279  0.14069216 -0.08469336  0.22763684 -0.04351386
 -0.18749855 -0.14721106 -0.06164404  0.1883413  -0.19633697 -0.14721611
  0.01550318  0.0312844   0.10982805 -0.02092933 -0.02339839  0.05258257
 -0.08585631 -0.34522271 -0.06697135 -0.08545626  0.06835067 -0.08907916
 -0.14830329  0.04093079 -0.17760864 -0.10431846  0.02599998  0.06954225
 -0.00356684 -0.049724    0.12765837  0.03129134 -0.2710579   0.04474257
  0.04487642  0.24106     0.22753055  0.06702724  0.02034837 -0.13923129
  0.14422016 -0.15712976  0.0083192   0.15761442  0.13542929  0.04505906
  0.0082826  -0.14748971 -0.00580613  0.09503553 -0.17106304 -0.01260341
  0.04322421 -0.07723425  0.03258898 -0.08675225  0.20847113  0.05620279
 -0.07190172 -0.14915101  0.15592071 -0.15980425 -0.0716319   0.07520507
 -0.10823206 -0.15202156 -0.2658883  -0.01213865  0.37498492  0.13337801
 -0.18694961  0.04202459 -0.06851572 -0.04640944  0.12221541  0.148028
 -0.00096589  0.03851916 -0.07225881 -0.05271883  0.24241967 -0.07824849
  0.03964836  0.19187026  0.00697276  0.08513024  0.02558331 -0.01753963
 -0.07787886  0.06405108 -0.12312235 -0.04921523 -0.06060806 -0.07958448
 -0.00832883  0.09712899 -0.18755616  0.0547252   0.0337804   0.01737824
 -0.00840693 -0.01145726 -0.04096924 -0.09022976  0.11414587 -0.2261955
  0.21653317  0.2057571   0.06932001  0.10488833  0.09520209  0.06183325
  0.00190418 -0.10862032 -0.13780969 -0.02409085  0.11039215 -0.08720828
  0.07045724 -0.03787339]