[-1.04201213e-01  1.04491286e-01  8.43835175e-02 -6.99829981e-02
 -8.81033540e-02 -2.82060858e-02 -8.71246681e-02 -1.11928537e-01
  1.16964497e-01 -7.61325881e-02  2.25826412e-01 -6.68629929e-02
 -1.70211539e-01 -1.36532366e-01 -6.86971396e-02  2.24509761e-01
 -2.42074966e-01 -1.29519686e-01 -2.69169863e-02  2.06939615e-02
  8.94073248e-02  1.37600454e-03 -2.50916015e-02  4.10759747e-02
 -1.04086153e-01 -3.48050177e-01 -7.41213039e-02 -7.79288709e-02
  3.57588977e-02 -5.32738343e-02 -1.29922599e-01  1.64148342e-02
 -2.03886420e-01 -6.98056370e-02  1.94380134e-02  9.28157493e-02
 -6.33829180e-03 -8.49893391e-02  1.24173842e-01 -9.49293375e-03
 -2.50517040e-01  7.47322217e-02  8.60266909e-02  2.18100384e-01
  2.26069018e-01  5.94402514e-02  1.59629174e-02 -1.35872468e-01
  1.41758874e-01 -1.42927513e-01  2.75843795e-02  1.32355884e-01
  1.06852733e-01  4.88858037e-02  1.70553960e-02 -1.52778909e-01
 -1.27975494e-02  1.43359065e-01 -1.19692020e-01  1.97561248e-03
  4.63470556e-02 -6.87316582e-02  3.19799595e-02 -8.68818313e-02
  2.27205828e-01  8.02615806e-02 -9.91934761e-02 -1.54831752e-01
  1.51031524e-01 -9.99869704e-02 -6.82041571e-02  1.55654801e-02
 -1.30718395e-01 -1.48645341e-01 -2.89237648e-01 -2.74321437e-03
  3.58690232e-01  7.79720694e-02 -2.38345891e-01  4.72642444e-02
 -6.13531582e-02 -1.86169483e-02  1.62486434e-01  1.67584211e-01
  1.29871359e-02  2.15320997e-02 -9.09974799e-02 -3.90762165e-02
  2.57118344e-01 -6.89339414e-02  4.11869250e-02  2.04504877e-01
  1.28870644e-03  4.55417186e-02  8.71002860e-03 -2.25669648e-02
 -8.73128325e-02  7.54591823e-02 -1.29718736e-01 -3.13401408e-02
  2.73526850e-04 -2.59142946e-02 -1.69414878e-02  1.13671675e-01
 -1.50056615e-01  5.87781556e-02  5.30785099e-02  4.47549485e-02
  1.90295409e-02 -2.08200496e-02 -5.65081015e-02 -8.27203989e-02
  1.11399844e-01 -2.05888495e-01  2.30189845e-01  1.78603724e-01
  4.99206185e-02  1.15384080e-01  1.24749474e-01  8.77155215e-02
  6.30272692e-03 -4.32317518e-02 -1.81058630e-01  3.07898386e-03
  1.36755213e-01 -5.71262054e-02  9.84877273e-02  9.30815190e-03]