[-0.08919736  0.12264023  0.06314987 -0.06282524 -0.14643174 -0.04195624
 -0.0819812  -0.08724635  0.14569712 -0.07266655  0.22549732 -0.06570224
 -0.15764116 -0.11785576 -0.03153677  0.20000248 -0.21716702 -0.11702623
  0.01710269  0.03011896  0.10605281 -0.03148001 -0.0277625   0.08437257
 -0.12649964 -0.3373138  -0.07715061 -0.10110573  0.02076494 -0.09785395
 -0.1473223   0.04426011 -0.17445101 -0.11631465  0.0191543   0.07318019
 -0.01621898 -0.06394594  0.12585615  0.02702518 -0.26745647  0.03191342
  0.07139714  0.23165114  0.22281618  0.05031575  0.02985532 -0.1181195
  0.15110557 -0.12434532  0.01861799  0.13047539  0.12040751  0.0491932
  0.01460855 -0.16153793  0.00392928  0.11135305 -0.14298934 -0.01608013
  0.06089563 -0.06402604  0.03836779 -0.0721437   0.23302619  0.07466255
 -0.05879583 -0.15848814  0.15248513 -0.10578825 -0.09242631  0.04562091
 -0.14592035 -0.15791458 -0.28229448 -0.01762374  0.36585486  0.10396256
 -0.22134209  0.0348959  -0.08269183 -0.04539687  0.13145712  0.15875161
  0.02168491  0.04844245 -0.07729651 -0.04652441  0.23743208 -0.07340404
  0.04545126  0.18670641  0.02958928  0.05793329  0.03838599 -0.04110764
 -0.09972822  0.0738622  -0.14342676 -0.05904261 -0.04863913 -0.05463359
 -0.01912165  0.11311214 -0.20756936  0.07623062  0.06510807  0.01570926
 -0.04490968 -0.00153155 -0.06629293 -0.08166182  0.1139515  -0.21155964
  0.19291408  0.18649688  0.07944192  0.1172676   0.09869312  0.05973444
 -0.00047693 -0.06300608 -0.14791812  0.01781863  0.1291447  -0.07057985
  0.08095791 -0.00333319]