[-8.95021334e-02  1.20820701e-01  8.54637474e-02 -7.73316696e-02
 -1.12826638e-01 -6.27827421e-02 -1.05980076e-01 -1.25905171e-01
  1.12462059e-01 -7.34706521e-02  2.53190100e-01 -5.16313575e-02
 -1.53890833e-01 -1.32900938e-01 -6.23740815e-02  2.02485710e-01
 -2.15481997e-01 -1.16396882e-01 -3.31106111e-02  2.28735786e-02
  8.20871741e-02 -3.85018741e-03  3.08002555e-03  5.18329144e-02
 -9.67626795e-02 -3.47690970e-01 -6.78540394e-02 -7.88741186e-02
  3.08281910e-02 -5.41631281e-02 -1.21787786e-01  3.25870961e-02
 -2.01416567e-01 -8.36730748e-02  1.99539717e-02  1.05322815e-01
  1.04566040e-02 -7.39182532e-02  1.19973540e-01 -1.12811951e-02
 -2.62084991e-01  5.94943874e-02  9.37876627e-02  2.17702299e-01
  2.32330322e-01  3.81030440e-02  4.85541187e-02 -1.42216027e-01
  1.29528180e-01 -1.09123267e-01  3.16575281e-02  1.12993859e-01
  1.37705132e-01  1.94688104e-02  3.99037935e-02 -1.51911646e-01
 -1.06442692e-02  1.55831650e-01 -1.21546201e-01 -1.21025695e-02
  6.60178885e-02 -3.48439179e-02  2.79813167e-02 -9.58803967e-02
  2.45438680e-01  9.72662494e-02 -9.04254988e-02 -1.58890679e-01
  1.49197474e-01 -1.03148066e-01 -8.89636651e-02  3.86090465e-02
 -1.42210513e-01 -1.36413231e-01 -2.95035928e-01 -2.54200194e-02
  3.52848291e-01  7.39489943e-02 -2.35661820e-01  3.52532230e-02
 -7.15333372e-02 -2.71075219e-02  1.44023135e-01  1.43512532e-01
  4.68625454e-03  3.27616148e-02 -9.23848748e-02 -3.42519023e-02
  2.64072984e-01 -6.12916462e-02  4.17585112e-02  1.86011091e-01
  3.26690800e-03  3.14655788e-02  2.62240326e-04 -3.50416787e-02
 -9.41435844e-02  9.23448130e-02 -1.41718373e-01 -2.74135657e-02
 -2.98691783e-02 -3.56479511e-02 -1.88453514e-02  1.07829824e-01
 -1.79456308e-01  2.84514707e-02  4.86639850e-02  3.45040411e-02
  1.24148577e-02 -9.90358461e-03 -5.58939353e-02 -9.36406702e-02
  1.17604509e-01 -2.09686399e-01  2.23533183e-01  1.74811795e-01
  6.26056045e-02  1.02036074e-01  1.19446687e-01  7.87660405e-02
  1.60794761e-02 -5.14945947e-02 -1.67895257e-01  1.20118875e-02
  1.20352410e-01 -8.42274502e-02  1.00176923e-01  1.03952447e-02]