[-0.08831654  0.14261965  0.08693179 -0.04287102 -0.13961454 -0.03142915
 -0.07848237 -0.07872772  0.11630004 -0.06029728  0.26383832 -0.04385995
 -0.1876606  -0.14684854 -0.02643856  0.21427973 -0.21672161 -0.13631113
 -0.00058809  0.02641104  0.12691715 -0.02165478 -0.03963215  0.06806269
 -0.13011366 -0.35048786 -0.04988451 -0.07357308  0.03258586 -0.08948285
 -0.15902333  0.0348916  -0.20623942 -0.11387458  0.03297376  0.085137
  0.00196344 -0.07308125  0.1123087  -0.00457853 -0.26374185  0.05866115
  0.05923362  0.22170781  0.24830468  0.0458138   0.03484464 -0.12217691
  0.1541459  -0.15724364  0.02350274  0.13415991  0.15172641  0.04425034
  0.00679756 -0.16362996 -0.03499115  0.13561682 -0.14196494 -0.03890696
  0.03208709 -0.08666693  0.03675182 -0.13242112  0.21288656  0.06176419
 -0.07544758 -0.15693401  0.1482615  -0.11537917 -0.08062177  0.04822279
 -0.1441083  -0.15228711 -0.30890357  0.00393962  0.34732354  0.11237881
 -0.24907528  0.03153005 -0.054887   -0.00632137  0.11907973  0.15389705
  0.04000353  0.03494532 -0.0822118  -0.03377071  0.24707463 -0.08366169
  0.04707688  0.20079754  0.0159493   0.06485304  0.03353111 -0.03766907
 -0.07255115  0.0621443  -0.12117498 -0.02289884 -0.07402308 -0.04409183
 -0.01497011  0.11388679 -0.17642711  0.04603674  0.02805857  0.04349062
 -0.02694528 -0.02992423 -0.04289901 -0.09710091  0.09628733 -0.22844505
  0.20693481  0.19630629  0.03646623  0.11743947  0.07597742  0.07226517
 -0.00488455 -0.06926089 -0.16360728  0.00620438  0.14856061 -0.09283486
  0.08201033 -0.02182472]