[-0.06114119  0.11055441  0.08006445 -0.04366682 -0.15115619 -0.02524917
 -0.09912165 -0.09652977  0.14632562 -0.06104549  0.22484122  0.00547602
 -0.17757212 -0.14309488 -0.04430309  0.18353043 -0.19001421 -0.15009733
  0.02508624  0.03530469  0.10409903  0.00111898  0.01211434  0.0571327
 -0.13970445 -0.36075065 -0.08319771 -0.07554679  0.02076517 -0.10051836
 -0.14897364  0.03197963 -0.17944925 -0.09332611  0.04198487  0.10617428
 -0.02022008 -0.08114281  0.11418297  0.00973895 -0.27204296  0.04846807
  0.04852082  0.21648197  0.25051245  0.06887489  0.04704516 -0.13953516
  0.17200609 -0.1550993   0.06409923  0.12624727  0.13850242  0.03298862
  0.0484963  -0.14400594 -0.02797141  0.15741205 -0.13729522 -0.0218572
  0.01678062 -0.05154936  0.06722165 -0.10298486  0.19245575  0.07728603
 -0.06844511 -0.14219213  0.14690423 -0.15476117 -0.11222942  0.05597834
 -0.11613982 -0.16501957 -0.30228075 -0.02456723  0.35313478  0.11692051
 -0.23081091  0.01492267 -0.02743303 -0.01643614  0.10976956  0.14087342
 -0.00507925  0.0383196  -0.10794032 -0.06442194  0.28342757 -0.06483256
  0.03993899  0.20824268  0.01993027  0.08329705  0.05322016  0.00411266
 -0.07900181  0.0817323  -0.12901659 -0.03422667 -0.04957994 -0.04972841
 -0.01859093  0.1138271  -0.18893881  0.06723037  0.0173424   0.02190378
 -0.02064636 -0.03149609 -0.0621646  -0.0878365   0.11211243 -0.24140063
  0.20665446  0.19175945  0.04002995  0.1329277   0.07048781  0.06768543
 -0.01363017 -0.1002831  -0.14344808 -0.01526233  0.12462217 -0.08901896
  0.07673401 -0.00260656]