[-0.08448586  0.1308447   0.06283853 -0.05723606 -0.12834668 -0.03556773
 -0.07675918 -0.09627109  0.14529526 -0.07394403  0.26679465 -0.03994592
 -0.17330894 -0.16596214 -0.06177698  0.21697433 -0.20720243 -0.12680024
  0.01311643  0.02333779  0.1044286  -0.02745586 -0.00793768  0.07452523
 -0.1034009  -0.36025515 -0.05783099 -0.08592989  0.03765331 -0.09415506
 -0.14950667  0.08955493 -0.16479881 -0.11344842  0.01464041  0.07933449
 -0.00834454 -0.0388508   0.1207487   0.02002647 -0.27461585  0.05005681
  0.06329937  0.23920813  0.24006109  0.05846606  0.03911282 -0.1422119
  0.14051113 -0.14147095  0.02147521  0.13094819  0.11819525  0.03906056
  0.01076049 -0.16302684 -0.0176981   0.09436641 -0.13317476 -0.02230475
  0.02536914 -0.09659391  0.02733012 -0.09001382  0.21130896  0.07212456
 -0.06150977 -0.16082804  0.15380761 -0.12721354 -0.10876644  0.05733916
 -0.12990962 -0.14197032 -0.3158522  -0.02073898  0.35080847  0.10710718
 -0.22017236  0.05698282 -0.06330442 -0.03763998  0.12429162  0.17478232
  0.00340812  0.03957995 -0.09171732 -0.07240574  0.22354269 -0.06969203
  0.02216326  0.20220104  0.01693371  0.0878959   0.05012817 -0.00445164
 -0.09697159  0.07110252 -0.14201938 -0.07653195 -0.03303157 -0.05892814
 -0.01751278  0.09882542 -0.19645517  0.07716018  0.03248823  0.05357061
 -0.00169429 -0.01049206 -0.03093289 -0.08100539  0.10480914 -0.20832518
  0.20832549  0.19811688  0.08089815  0.12897585  0.13186333  0.06347349
 -0.0132592  -0.08295585 -0.14242469  0.00748058  0.13113485 -0.08596689
  0.08437274 -0.00272514]