[-0.10218427  0.10424425  0.05649641 -0.00597788 -0.14008808 -0.030006
 -0.08878563 -0.09006663  0.11870346 -0.05046111  0.23176582 -0.02357911
 -0.16331315 -0.17779353 -0.04423505  0.20042045 -0.19618398 -0.14334817
  0.00997715  0.00481972  0.07627703 -0.00534643  0.00406392  0.01596211
 -0.11373333 -0.36894605 -0.06143013 -0.0872281   0.04179273 -0.06930953
 -0.12915683  0.04919887 -0.17641763 -0.12137663  0.07215857  0.12331275
 -0.00363634 -0.03614801  0.10649475 -0.04795155 -0.25481874  0.05957642
  0.08650217  0.22455357  0.23476122  0.08818833  0.02192029 -0.14340332
  0.14337999 -0.13457438  0.03630598  0.13163771  0.12447208  0.03775232
  0.01503144 -0.11000883 -0.00952909  0.12405554 -0.14532053 -0.03467677
  0.05890872 -0.06858659  0.02886201 -0.1056033   0.2108608   0.05105405
 -0.07949601 -0.16399799  0.12961985 -0.16898078 -0.09181706  0.05542995
 -0.10272526 -0.16060667 -0.3063685  -0.01598486  0.37070829  0.11269653
 -0.20546757  0.04469668 -0.03098672 -0.01672678  0.12734796  0.14722298
  0.01063357  0.01921847 -0.08893188 -0.07954224  0.26432255 -0.06256735
  0.02844024  0.17064585  0.01937311  0.07734369  0.04683803  0.00232603
 -0.05889129  0.06404009 -0.11752804 -0.0372059  -0.04417313 -0.06779768
  0.00131674  0.08835349 -0.16282912  0.07809758  0.00885525  0.06436773
  0.01711787 -0.01602871 -0.03044602 -0.08967503  0.11303645 -0.24338184
  0.22597896  0.19526814  0.04318618  0.14186122  0.09465557  0.09643372
 -0.02199283 -0.06296864 -0.1532665  -0.03333419  0.09369598 -0.09887848
  0.09601057  0.00258543]