[-0.10529047  0.11647465  0.07730363 -0.07649644 -0.10652999 -0.0599919
 -0.10113286 -0.11364813  0.11175426 -0.06917747  0.25887331 -0.05185149
 -0.15883796 -0.13484281 -0.04912105  0.1924486  -0.21476026 -0.1157726
 -0.02148632  0.03996908  0.0721947   0.00258388 -0.00425385  0.05302251
 -0.11271507 -0.36075056 -0.08274239 -0.08277831  0.02198081 -0.06898184
 -0.11872311  0.02849551 -0.19771235 -0.08174063  0.01288561  0.09675529
 -0.00157042 -0.07706351  0.12303146  0.01480642 -0.28368798  0.06918513
  0.07756916  0.24302028  0.22996493  0.02053699  0.03367427 -0.1194303
  0.12254043 -0.10961546  0.0348092   0.12723829  0.12543969  0.03589773
  0.01628963 -0.12156036 -0.00981128  0.14859414 -0.13060467 -0.02337859
  0.05529921 -0.03954516  0.04073063 -0.08776993  0.21589024  0.09325862
 -0.08673717 -0.16583709  0.12358794 -0.11832918 -0.09896188  0.05233095
 -0.15476093 -0.15140326 -0.30149636 -0.01261598  0.35327679  0.08172318
 -0.21917127  0.04386346 -0.07277651 -0.05613953  0.12911193  0.16469672
  0.02720286  0.0494727  -0.07275546 -0.0249116   0.27261493 -0.05550055
  0.02660848  0.19547611  0.00484465  0.03810822  0.01052232 -0.03050299
 -0.07154192  0.07141124 -0.12219641 -0.0368847  -0.03416041 -0.03992692
 -0.02958705  0.11039467 -0.19767445  0.07447045  0.0752137   0.03761748
  0.01870842  0.00115281 -0.03361795 -0.08890815  0.11381209 -0.21451266
  0.22864698  0.18710636  0.08166184  0.09681698  0.10496924  0.04878325
  0.000897   -0.04440492 -0.16238475  0.00623516  0.1126964  -0.06957325
  0.10794543  0.00432326]