[-5.53120039e-02  1.15237333e-01  6.16357401e-02 -3.42215002e-02
 -1.29932821e-01 -2.86479779e-02 -7.84082636e-02 -8.59189779e-02
  1.53629392e-01 -7.41599500e-02  2.45638043e-01 -3.88287716e-02
 -1.74689949e-01 -1.12117611e-01 -4.78370376e-02  1.97209150e-01
 -2.11199999e-01 -1.50183201e-01 -1.59640815e-02  2.39706226e-02
  1.26083538e-01 -4.25910810e-03 -3.56077999e-02  5.21387048e-02
 -1.21716201e-01 -3.39470536e-01 -7.73162246e-02 -7.37881213e-02
  8.18935260e-02 -9.30413306e-02 -1.75425306e-01  3.17954980e-02
 -1.86656952e-01 -1.17514804e-01  5.20071983e-02  7.54011497e-02
  3.45147040e-04 -6.12863116e-02  1.40665919e-01  2.77295019e-02
 -2.81743854e-01  7.63069764e-02  6.84989095e-02  2.30903611e-01
  2.39979416e-01  5.77433705e-02  2.73480564e-02 -1.38512611e-01
  1.32108122e-01 -1.28655329e-01  2.63289846e-02  1.66610122e-01
  1.63379431e-01  6.25676587e-02  4.29956941e-03 -1.52648479e-01
 -2.23417524e-02  1.19892158e-01 -1.34725735e-01 -1.66165326e-02
  7.46933967e-02 -6.44912496e-02  4.84871976e-02 -7.65746981e-02
  1.98688433e-01  3.66779231e-02 -7.08261058e-02 -1.81398973e-01
  1.39543802e-01 -1.45402670e-01 -9.76613536e-02  5.15491255e-02
 -1.41656831e-01 -1.40791699e-01 -2.90154427e-01 -1.99257005e-02
  3.95116180e-01  8.70516822e-02 -2.30561331e-01  5.55977523e-02
 -6.08979538e-02 -4.77533229e-02  1.29772916e-01  1.50993109e-01
  1.05363149e-02  4.31073792e-02 -8.68314654e-02 -4.16232944e-02
  2.67004818e-01 -7.04094172e-02  5.43226860e-02  1.82236418e-01
  2.87928823e-02  7.20291734e-02  4.66366634e-02 -8.03098362e-03
 -7.79421180e-02  5.59470914e-02 -1.22721151e-01 -4.00326885e-02
 -7.86352381e-02 -4.76540029e-02 -1.81294363e-02  1.16785124e-01
 -1.82059512e-01  7.35986456e-02  3.68362702e-02  2.48003192e-02
 -2.36342158e-02  1.75185618e-03 -4.81313728e-02 -1.04256682e-01
  1.08790293e-01 -2.25187927e-01  1.89820960e-01  2.05059126e-01
  6.61107227e-02  8.91709700e-02  8.63885954e-02  7.16459081e-02
  2.57796608e-03 -4.60890941e-02 -1.72597602e-01 -8.10993370e-03
  1.01683117e-01 -9.38909426e-02  7.43251964e-02 -1.43852113e-02]