[-0.11312374  0.09921805  0.07391804 -0.06664788 -0.11106312 -0.051202
 -0.06217002 -0.08578783  0.08387551 -0.03137879  0.26757097 -0.07774923
 -0.2018365  -0.11478602 -0.05628302  0.20126772 -0.14252867 -0.12862663
 -0.03621331  0.00523356  0.09801843 -0.03630042  0.00270457  0.03944754
 -0.09707176 -0.36269477 -0.06799755 -0.06592351  0.02367142 -0.05990653
 -0.10358719  0.04932278 -0.22503924 -0.11575168  0.04288945  0.10410803
 -0.01664117 -0.05958695  0.15063472 -0.04367415 -0.23306063  0.05342806
  0.09969293  0.21365178  0.15824322  0.08890519  0.0530269  -0.14272043
  0.09608363 -0.1582543   0.05767332  0.11815707  0.1137106   0.02427373
  0.0115968  -0.14251462  0.01069647  0.1483326  -0.16914317 -0.01406645
  0.04482535 -0.05634522 -0.01481719 -0.1421787   0.24800543  0.09525793
 -0.07963818 -0.13561027  0.1698065  -0.08573056 -0.03703409  0.05395496
 -0.13541403 -0.15788266 -0.29951802  0.02145443  0.35204431  0.09062364
 -0.1841162   0.06067792 -0.0589219   0.00125887  0.10547409  0.09667626
 -0.01899824  0.04296205 -0.07999802  0.00166066  0.23109925 -0.07810471
  0.03540237  0.17628564  0.01152488  0.06962927  0.01621297 -0.0042563
 -0.07745039  0.04387029 -0.14192982 -0.01174012 -0.01091786 -0.02695785
  0.00894568  0.11213865 -0.17141901  0.00948378  0.00699147  0.016891
  0.00050659 -0.0097541  -0.0305586  -0.12087083  0.08105855 -0.22778945
  0.19543408  0.18738812  0.03312783  0.09936171  0.11504028  0.06341245
  0.01820198 -0.05728468 -0.20694278  0.01543306  0.15914044 -0.05619621
  0.08055403  0.01781409]