[-0.10577994  0.12260699  0.07602079 -0.08328503 -0.11847873 -0.03873974
 -0.1048805  -0.11162964  0.10740934 -0.08751664  0.21208389 -0.07350802
 -0.1697138  -0.12150767 -0.06098145  0.21211953 -0.21167822 -0.14837959
 -0.01192926  0.01834426  0.10230579  0.00897796 -0.00394653  0.06506605
 -0.12224535 -0.35133678 -0.07042521 -0.07302435  0.02018085 -0.05731378
 -0.10295469  0.04650872 -0.21498092 -0.0749935   0.00918266  0.11527788
  0.02362297 -0.07981967  0.1346391   0.01108806 -0.26770455  0.06560851
  0.07480162  0.23079105  0.20207766  0.03324529  0.05063507 -0.14084108
  0.12084005 -0.12468078  0.02496954  0.12450222  0.12063103  0.02356392
  0.00280623 -0.15338795 -0.00344279  0.1211675  -0.11854815 -0.01436456
  0.06125383 -0.05177695  0.03683598 -0.11461788  0.2405659   0.06762539
 -0.08186626 -0.15692453  0.1615475  -0.1033392  -0.08666564  0.04466808
 -0.13486022 -0.12934265 -0.30414289 -0.01439172  0.34354243  0.08671428
 -0.2357085   0.05147769 -0.06905141 -0.0165582   0.12219036  0.17708795
  0.01167873  0.06188242 -0.07959159 -0.0184978   0.2666603  -0.0646299
  0.03107877  0.20381308  0.03561779  0.06107893  0.02487093 -0.03103758
 -0.08532085  0.06470909 -0.13614941 -0.00993479 -0.03813788 -0.02570922
 -0.02273638  0.12415139 -0.16594893  0.06240067  0.03660466  0.0136678
 -0.01402363  0.0093326  -0.05590261 -0.10440286  0.11709719 -0.19946173
  0.17812775  0.18820162  0.05854012  0.11571264  0.13428168  0.0993741
  0.00362315 -0.0378013  -0.18320517  0.00572383  0.14316222 -0.07784843
  0.0921634   0.02445748]