[-0.07547996  0.14410667  0.04624541 -0.05391268 -0.12313733 -0.02985217
 -0.07310809 -0.08171331  0.16346632 -0.08754601  0.23652399 -0.02170307
 -0.18749861 -0.17533192 -0.02315725  0.17837875 -0.18635394 -0.13121776
  0.00639657  0.0059448   0.09731598 -0.03817118 -0.00780579  0.07639931
 -0.08221694 -0.36670166 -0.06649438 -0.11377414  0.06225678 -0.11675737
 -0.15480112  0.02855395 -0.17743194 -0.12948817 -0.0039803   0.04869822
 -0.01576432 -0.04122678  0.12018859  0.04547459 -0.23723257  0.01039275
  0.02085998  0.23319523  0.22611904  0.07165791  0.03964774 -0.12246251
  0.15664317 -0.1550899   0.02506929  0.13535798  0.13671549  0.03341406
  0.03695894 -0.1478927  -0.0031182   0.0818119  -0.18016112 -0.00165605
  0.0285611  -0.08341771 -0.00533018 -0.06837692  0.22453411  0.07729747
 -0.04999219 -0.14124197  0.17023598 -0.14245026 -0.07140457  0.06256524
 -0.10361662 -0.15001374 -0.27243891  0.00161924  0.35462409  0.14493908
 -0.19418447  0.03538964 -0.09644294 -0.0443147   0.10852164  0.12808309
 -0.02169263  0.04285849 -0.0805646  -0.04767716  0.19621198 -0.06282061
  0.04018175  0.20029591  0.01314623  0.08558359  0.04802962 -0.02019405
 -0.10107464  0.05278903 -0.11922717 -0.07050866 -0.02012995 -0.08863537
 -0.00297723  0.07438701 -0.20534833  0.06024271  0.02835754  0.01347947
 -0.01603871 -0.01992634 -0.05249006 -0.08718952  0.1050586  -0.2254409
  0.20553172  0.2024713   0.06495231  0.12936667  0.0844894   0.05336353
 -0.01162622 -0.11768961 -0.1250324  -0.01495538  0.11442949 -0.07072561
  0.05948002 -0.02620562]