[-0.06914269  0.10888848  0.1141413  -0.04743899 -0.12008315 -0.01740766
 -0.07258028 -0.08925263  0.10780859 -0.05791018  0.21867661 -0.07977276
 -0.17397213 -0.06746014 -0.03832532  0.19934194 -0.19294479 -0.12820907
  0.00130741  0.03683006  0.1003296  -0.01728704  0.00448742  0.0541675
 -0.12803376 -0.35081688 -0.06674341 -0.03004445  0.03252424 -0.04676268
 -0.12785913  0.02720183 -0.19746779 -0.06716134  0.05714796  0.11878534
 -0.00063825 -0.09623791  0.10836875 -0.00530181 -0.28222769  0.07744825
  0.07927271  0.21074592  0.22563434  0.05649824  0.02662031 -0.13695902
  0.11135149 -0.165473    0.03749474  0.12118792  0.10419392  0.02358886
  0.03084853 -0.17204334 -0.02201248  0.13765626 -0.12523726 -0.0352959
  0.02695004 -0.02501722  0.07940435 -0.12717877  0.20101789  0.08772628
 -0.07697331 -0.18120857  0.13427794 -0.11699491 -0.06013092  0.05602942
 -0.12929164 -0.15206321 -0.28041014 -0.02389693  0.36178768  0.09374405
 -0.21660756  0.05574532 -0.05339508 -0.01248928  0.09987228  0.16161942
  0.02696083  0.06078769 -0.07849409 -0.0344989   0.24749051 -0.08577746
  0.03390345  0.20144294 -0.00168128  0.04720209  0.02044502 -0.02766793
 -0.10374495  0.09528627 -0.15286618 -0.05916771 -0.06371637 -0.01601782
  0.00918545  0.13537501 -0.22444378  0.06399526  0.01518997  0.01400548
  0.00783733  0.00144039 -0.03700556 -0.0750283   0.10794272 -0.26664826
  0.17372866  0.20083812  0.04672865  0.10692649  0.09495277  0.06423467
  0.04121061 -0.02363164 -0.16289122  0.02518581  0.09382033 -0.09291569
  0.05773815  0.01658533]