[-0.09174529  0.05914803  0.08215208 -0.08641027 -0.09597393 -0.0343972
 -0.10548002 -0.09478738  0.10979227 -0.08083475  0.20412087 -0.06742191
 -0.16598737 -0.11796478 -0.07726415  0.21334116 -0.20851608 -0.13929249
 -0.03823156  0.03263156  0.09182756  0.00907899 -0.01234923  0.03700556
 -0.09242818 -0.33948982 -0.06459413 -0.06789605  0.01968616 -0.04063208
 -0.12681605  0.0175544  -0.22094195 -0.06383743  0.0319806   0.10937785
 -0.00720187 -0.09205413  0.13180318 -0.00966564 -0.26935071  0.06229809
  0.09049415  0.19410618  0.23119247  0.07175124  0.01190185 -0.13613151
  0.13770013 -0.15662992  0.04483739  0.126358    0.11915085  0.03677191
  0.03522629 -0.14828101  0.00534932  0.1455804  -0.09970108 -0.00821474
  0.04960815 -0.05005689  0.04657525 -0.10650096  0.24620114  0.06683399
 -0.0891207  -0.16598308  0.16229926 -0.10335252 -0.07670602  0.04100954
 -0.12695792 -0.13655014 -0.28222591 -0.01778769  0.34469002  0.08270478
 -0.23208876  0.05409727 -0.06729255 -0.00860174  0.14757487  0.13902192
  0.01760337  0.0302714  -0.09333412 -0.06146792  0.28385639 -0.07339721
  0.04111305  0.19640015  0.00674961  0.03677876  0.00878091 -0.0438788
 -0.07439319  0.08159845 -0.13858028 -0.02675288 -0.00455636 -0.01403079
 -0.00805415  0.12503307 -0.15637004  0.03427611  0.02134544  0.03440765
  0.02799198 -0.00908463 -0.07108934 -0.10204124  0.10417085 -0.21059501
  0.21397483  0.16481663  0.07183091  0.09660567  0.12827335  0.09896028
  0.01112074 -0.03125109 -0.19777337 -0.0004467   0.13893078 -0.04948787
  0.0953576   0.03081249]