[-6.80168197e-02  1.19016528e-01  7.12638870e-02 -6.09161519e-02
 -1.16965234e-01 -4.59077694e-02 -1.00251272e-01 -9.73375961e-02
  1.47961617e-01 -8.50953832e-02  2.36370638e-01 -5.89105003e-02
 -1.80683106e-01 -1.27240673e-01 -8.27759132e-02  2.19821841e-01
 -2.12296367e-01 -1.34581551e-01  1.92553997e-02  3.91998701e-02
  1.01174332e-01 -1.71741657e-03 -2.13680770e-02  4.41304594e-02
 -8.55729207e-02 -3.59433591e-01 -5.99959008e-02 -6.89941198e-02
  4.24362086e-02 -6.88199326e-02 -1.50511906e-01  8.79861787e-02
 -1.71397790e-01 -9.99835953e-02  4.78426106e-02  1.00950137e-01
  2.15581595e-03 -5.47382794e-02  1.15275145e-01  1.74553748e-02
 -2.87340730e-01  3.38224210e-02  6.85523897e-02  2.23148018e-01
  2.28287533e-01  5.50476015e-02  2.44984962e-02 -1.50703624e-01
  1.24573007e-01 -1.48585841e-01  5.75294206e-03  1.41957268e-01
  1.20224431e-01  4.98263948e-02  3.19089362e-04 -1.64476082e-01
 -2.66450364e-03  8.85150433e-02 -1.29906818e-01 -2.81138811e-02
  6.32467270e-02 -9.58963856e-02  3.83212268e-02 -8.73247460e-02
  2.13550523e-01  5.74159324e-02 -7.85761252e-02 -1.70228601e-01
  1.50018245e-01 -1.35670647e-01 -9.50053483e-02  5.20430766e-02
 -1.20279014e-01 -1.36580124e-01 -2.96086460e-01 -4.17349525e-02
  3.61671627e-01  9.65131819e-02 -2.01701075e-01  5.97864985e-02
 -6.27127811e-02 -3.86747979e-02  1.19530074e-01  1.67479321e-01
  1.04553020e-02  4.40391600e-02 -8.03122595e-02 -6.90276399e-02
  2.54061341e-01 -7.74021372e-02  2.81187054e-02  1.76457047e-01
 -8.95953085e-03  9.23969299e-02  2.97180545e-02 -5.91703644e-03
 -8.09011310e-02  7.40203261e-02 -1.29255027e-01 -5.28011434e-02
 -4.39365804e-02 -6.69100210e-02 -1.84503514e-02  1.20405450e-01
 -1.87251836e-01  7.00943694e-02  2.79287044e-02  4.34757061e-02
  1.74073968e-02 -8.70324322e-04 -3.41802500e-02 -8.76946822e-02
  1.17940001e-01 -2.03608871e-01  2.21264839e-01  1.97468087e-01
  8.72621462e-02  1.16261594e-01  1.21241286e-01  7.52544925e-02
 -2.82544829e-03 -7.84747005e-02 -1.59664184e-01 -1.76701192e-02
  1.02157168e-01 -8.19292814e-02  7.70088211e-02 -7.23069021e-03]