[-1.04626134e-01  1.04160540e-01  9.35743302e-02 -6.15975372e-02
 -1.23890460e-01 -1.97935682e-02 -8.35245848e-02 -8.25343952e-02
  1.26469925e-01 -5.40017970e-02  2.24677369e-01 -5.64684942e-02
 -1.52079031e-01 -9.43729505e-02 -4.14793454e-02  1.94792360e-01
 -2.02178523e-01 -1.26648098e-01  1.86686311e-02  2.74881013e-02
  1.04156651e-01 -1.56210158e-02 -9.11869138e-05  4.22692969e-02
 -1.38255656e-01 -3.67454857e-01 -7.26801604e-02 -4.80049551e-02
  1.59470197e-02 -6.12107925e-02 -1.11756586e-01  3.21081989e-02
 -1.92258880e-01 -7.68302679e-02  4.21410315e-02  1.24550760e-01
 -3.32009234e-03 -8.85266662e-02  1.09788477e-01 -8.16305913e-03
 -2.74876684e-01  6.05267547e-02  8.22705999e-02  2.16121539e-01
  2.16922760e-01  5.76772466e-02  2.47858837e-02 -1.25510558e-01
  1.30794376e-01 -1.57166258e-01  3.84631641e-02  1.08722143e-01
  9.08041373e-02  1.95534583e-02  3.72852571e-02 -1.54547036e-01
 -1.53668914e-02  1.37366727e-01 -1.47110865e-01 -4.28990461e-02
  1.95897706e-02 -4.19000164e-02  8.00429583e-02 -1.22151189e-01
  1.82463601e-01  1.00677669e-01 -5.34594655e-02 -1.79685444e-01
  1.36964247e-01 -1.11982323e-01 -5.85882626e-02  6.37718961e-02
 -1.26230225e-01 -1.71358660e-01 -2.99875617e-01 -2.05707978e-02
  3.60929310e-01  1.09215990e-01 -1.76065519e-01  4.23389636e-02
 -4.18442339e-02 -3.08729056e-02  1.09651007e-01  1.37546301e-01
  2.24280395e-02  5.22550456e-02 -8.80657360e-02 -2.18591392e-02
  2.55036294e-01 -6.74438924e-02  2.04117410e-02  1.81612864e-01
 -1.45673461e-03  5.89675419e-02  1.18927890e-02 -1.18803531e-02
 -1.02214180e-01  1.08768597e-01 -1.46406174e-01 -4.30950373e-02
 -6.12340830e-02 -1.37301153e-02  1.52288554e-02  1.33624017e-01
 -2.05280110e-01  5.16589880e-02  2.33298484e-02  1.01207588e-02
 -2.66856588e-02 -3.27757373e-03 -4.00355048e-02 -6.68647289e-02
  9.79307070e-02 -2.46681407e-01  1.75667599e-01  2.01054677e-01
  5.28787784e-02  1.30783677e-01  9.18416604e-02  4.12969887e-02
  1.82766356e-02 -5.07404283e-02 -1.68323398e-01  2.98347529e-02
  8.94220024e-02 -6.81311488e-02  7.67946914e-02  2.58604828e-02]