[-0.14845423  0.09260001  0.09996786 -0.015805   -0.08876499 -0.0570295
 -0.07600885 -0.1223855   0.13836037 -0.06469148  0.21103652 -0.04873109
 -0.17458862 -0.08133212 -0.06735927  0.20164485 -0.17316781 -0.12983218
 -0.02244615 -0.02821431  0.04050485  0.00676152  0.01790737  0.03157974
 -0.12098237 -0.38702512 -0.06111484 -0.06519488  0.01241803 -0.00447016
 -0.09754815  0.0364336  -0.20217708 -0.08934902  0.05516246  0.12811594
 -0.00255484 -0.04794672  0.15392761 -0.02605945 -0.25986195  0.01172423
  0.0955193   0.22441438  0.22207148  0.11929438  0.00289117 -0.13347176
  0.13641366 -0.18798444  0.03018339  0.09527496  0.07519219  0.00604297
  0.01542283 -0.13707666 -0.02375174  0.12453568 -0.1758745  -0.0508185
  0.01095377 -0.09795433  0.00869106 -0.10442995  0.26113713  0.11786437
 -0.08167872 -0.11091252  0.16723964 -0.17557435 -0.0251661   0.05491154
 -0.0771042  -0.17092691 -0.31753615 -0.00677966  0.4064129   0.10188586
 -0.15381983  0.04634736 -0.02188422 -0.01439401  0.13813837  0.15282229
 -0.02283568  0.03665347 -0.05831014 -0.05996931  0.27081862 -0.04598112
  0.00435682  0.18367155 -0.01216793  0.07194742  0.02218357 -0.0016959
 -0.09465592  0.0372402  -0.14045674 -0.05336341 -0.00516176  0.02426038
  0.04616638  0.10605773 -0.1862669   0.03960836 -0.0068494   0.00475461
  0.04799787 -0.01448222 -0.01747152 -0.13009985  0.11419728 -0.22901146
  0.16911741  0.17614739 -0.00747187  0.17111813  0.08384561  0.07042829
 -0.00104317 -0.01533747 -0.167272   -0.00398176  0.1307172  -0.08338709
  0.12991767  0.00474703]