[-0.13097118  0.07690702  0.1063078  -0.03138803 -0.1273239  -0.07699602
 -0.05509766 -0.08887057  0.08583748 -0.05686048  0.23039971 -0.0596088
 -0.19832554 -0.10387357 -0.05591239  0.20763837 -0.1721196  -0.14156248
 -0.03408341 -0.02270309  0.10997894  0.00695321  0.01835212  0.03172497
 -0.13193901 -0.39502296 -0.06948067 -0.03596489  0.02092913 -0.05821459
 -0.08996205  0.04434725 -0.21214934 -0.0812966   0.0448098   0.13619202
  0.02573103 -0.06343859  0.13842975 -0.02466335 -0.2665301   0.06410123
  0.10881386  0.22475122  0.17862016  0.08622054  0.04198739 -0.11852238
  0.1193577  -0.15421006  0.02208419  0.1044503   0.11775371 -0.01389384
  0.04419624 -0.14006196 -0.0134593   0.15824956 -0.18721461 -0.03955552
  0.03630313 -0.08349638  0.04129736 -0.13323484  0.20649599  0.06359222
 -0.06366657 -0.11822248  0.16076833 -0.14267233 -0.00484447  0.06348814
 -0.10293319 -0.16121013 -0.29860851 -0.01045941  0.35994455  0.09673037
 -0.16976833  0.05177102 -0.02175401  0.00710192  0.12953125  0.10661496
 -0.00627495  0.06242141 -0.12008067 -0.00089321  0.23868756 -0.0589572
  0.05247394  0.18112122  0.02821586  0.05402633  0.03010008 -0.02092894
 -0.12035652  0.05124953 -0.12751105  0.00096732 -0.06888783 -0.0280251
  0.02483737  0.07253037 -0.14690657  0.00414293 -0.01279124 -0.01160147
 -0.04532875 -0.01070539 -0.02794011 -0.11891554  0.06963202 -0.24582532
  0.15095553  0.20474815 -0.02717047  0.14846894  0.06581889  0.07551371
 -0.01975604 -0.04765819 -0.15959273  0.00861857  0.12753133 -0.09557163
  0.11574395  0.00141223]