[-0.12582268  0.12691404  0.10238266 -0.04869088 -0.16163632 -0.07587186
 -0.07933596 -0.09242461  0.07377028 -0.02881155  0.21661325 -0.06266551
 -0.19554734 -0.13609904 -0.03359677  0.20148735 -0.14775713 -0.13247594
 -0.00129987  0.01835773  0.13029981  0.0008469   0.02584183  0.04483344
 -0.1158368  -0.38288274 -0.07105309 -0.0514565   0.0038206  -0.07393605
 -0.08209181  0.02677461 -0.20079473 -0.10137104  0.03514804  0.13025877
  0.00659916 -0.05854103  0.13468851 -0.02825192 -0.26695845  0.04556483
  0.08558881  0.22135249  0.18867713  0.08066084  0.06027557 -0.09333213
  0.11357863 -0.16626249  0.03907873  0.1072902   0.11662652 -0.01057563
  0.03660893 -0.13409133 -0.00430011  0.15770902 -0.18705072 -0.01982466
  0.05605571 -0.07167538  0.03441883 -0.12081286  0.22066565  0.06918483
 -0.06480046 -0.12347104  0.14738454 -0.13461065 -0.04148137  0.05973818
 -0.12457749 -0.15511315 -0.3092899  -0.00638981  0.34236819  0.11191676
 -0.19928086  0.01155012 -0.03871117  0.025299    0.10705723  0.09129225
  0.01360138  0.04604561 -0.126863   -0.0189229   0.23823929 -0.08316173
  0.04888117  0.21252286  0.04806307  0.07345302  0.01212695 -0.02675188
 -0.08292234  0.05013288 -0.12032741  0.00465751 -0.05336604 -0.04452386
  0.01724944  0.10634831 -0.17112626  0.0211794  -0.0033876   0.01194481
 -0.05763952 -0.00563965 -0.05738315 -0.11834897  0.0939669  -0.20842496
  0.17427735  0.21932106 -0.00587351  0.11614241  0.08131239  0.0665132
  0.00145135 -0.06935676 -0.14504948  0.00270181  0.12818204 -0.09161517
  0.08784164  0.02092094]