[-1.06371917e-01  1.07109524e-01  8.63595083e-02 -4.35856543e-02
 -1.31739542e-01 -8.07550922e-02 -8.64157304e-02 -1.03738248e-01
  9.27666724e-02 -2.56541763e-02  1.97431669e-01 -6.95189387e-02
 -1.86694250e-01 -1.04645215e-01 -4.85569797e-02  1.79863289e-01
 -1.70768723e-01 -9.68181789e-02 -2.02963203e-02 -6.40699128e-03
  9.12380442e-02  3.77207771e-02  1.17983362e-02  2.60459241e-02
 -9.78082642e-02 -3.75124872e-01 -6.11799061e-02 -5.07083237e-02
  1.19003914e-02 -4.48377542e-02 -1.13180868e-01  5.90705834e-02
 -1.82155535e-01 -1.29221797e-01  6.68169260e-02  1.47749588e-01
 -2.03591585e-02 -4.20094840e-02  1.18689202e-01 -4.73073795e-02
 -2.53502548e-01  5.80610447e-02  1.13286041e-01  2.21789405e-01
  2.12684080e-01  1.09347604e-01  3.25725116e-02 -1.37073934e-01
  1.16315208e-01 -1.62495643e-01  5.39467819e-02  9.54621509e-02
  1.08926594e-01  1.42756077e-02  3.54766138e-02 -1.48482740e-01
 -1.37929199e-02  1.41257331e-01 -1.73306733e-01 -2.39702165e-02
  7.86440820e-02 -8.98232460e-02  3.12592946e-02 -9.61233526e-02
  2.37474591e-01  7.23250732e-02 -7.38098249e-02 -1.15688406e-01
  1.48128405e-01 -1.41180858e-01 -5.52291386e-02  6.09380789e-02
 -8.22302923e-02 -1.62069410e-01 -2.91554064e-01 -2.26655463e-03
  3.79027158e-01  1.08775079e-01 -1.89156368e-01  3.55395898e-02
 -4.11437340e-02 -2.48974236e-03  1.58728227e-01  1.06731810e-01
 -1.87621452e-03  3.74478810e-02 -1.03120208e-01 -1.81375351e-02
  2.52588093e-01 -6.66283518e-02  1.82304159e-02  1.92610815e-01
  4.25887406e-02  9.10026953e-02  3.23203020e-02 -7.95762707e-03
 -8.66990685e-02  6.39895499e-02 -1.56665280e-01 -2.33586505e-02
  4.39893594e-03 -2.53913738e-02  2.52522230e-02  1.08311012e-01
 -1.56308919e-01  6.17115907e-02  1.69928279e-02  2.08434574e-02
  3.64393624e-03 -3.63583602e-02 -3.14306840e-02 -9.12243649e-02
  1.16373099e-01 -2.38081291e-01  1.85465202e-01  1.71559900e-01
  1.91858746e-02  1.53949961e-01  8.64329860e-02  5.84609620e-02
  2.23503206e-02 -8.29945430e-02 -1.82045147e-01  9.57928642e-05
  1.44336760e-01 -6.85656443e-02  1.29944876e-01  3.31755839e-02]