[-0.09002628  0.09254397  0.08364682 -0.07398863 -0.09266987 -0.03156427
 -0.09858333 -0.09703668  0.11965781 -0.07249098  0.23245588 -0.06098152
 -0.16862519 -0.13128553 -0.06736862  0.20598321 -0.23688331 -0.1273247
 -0.03282707  0.02180984  0.08863618  0.0009966  -0.02024521  0.02803394
 -0.10285473 -0.34514439 -0.0649328  -0.06232495  0.04302783 -0.06050694
 -0.12212425  0.01728801 -0.21800657 -0.0849542   0.03253565  0.10708117
 -0.00980934 -0.08021666  0.12296261 -0.0193187  -0.25318465  0.07579662
  0.08394714  0.21599422  0.21512292  0.0745836   0.00944846 -0.13715123
  0.14329742 -0.14598981  0.03588463  0.14119956  0.1073084   0.05472488
  0.02078215 -0.15040784 -0.00547056  0.1586512  -0.11014547 -0.01395681
  0.05610724 -0.05372353  0.04871091 -0.09916016  0.2250537   0.06712727
 -0.09609476 -0.15648149  0.13185249 -0.09100737 -0.06891628  0.02916885
 -0.12321023 -0.14449979 -0.28170797 -0.0020799   0.35968512  0.08079014
 -0.22587274  0.04503324 -0.06347664 -0.01811603  0.15514624  0.14358974
  0.00996181  0.03706909 -0.08728097 -0.03539459  0.2588366  -0.06488459
  0.04250393  0.18795596  0.00378199  0.05011593  0.00915798 -0.02834556
 -0.08791736  0.08557662 -0.13882945 -0.02509029 -0.00575859 -0.01824511
 -0.00867098  0.11013988 -0.14880934  0.05979598  0.05178121  0.04267221
  0.02192172 -0.01105825 -0.0498237  -0.08918965  0.10192706 -0.22506933
  0.23499487  0.17757253  0.06077759  0.11842678  0.12469115  0.08580285
  0.00637219 -0.03941195 -0.17570198 -0.00655675  0.12776171 -0.04631195
  0.10619296  0.00652814]