[-0.06528267  0.1172936   0.06782977 -0.04252069 -0.13273816 -0.03155634
 -0.0797365  -0.09592998  0.14749467 -0.08807784  0.23171563 -0.06319016
 -0.17194991 -0.11359715 -0.02100624  0.20214307 -0.23197868 -0.1261048
  0.00869469  0.03722752  0.09939007 -0.0329357  -0.03569907  0.06290116
 -0.13025741 -0.34823906 -0.08370582 -0.09264212  0.04970367 -0.06115745
 -0.15409739  0.04721627 -0.16525537 -0.11098514  0.03781087  0.05980816
 -0.00777489 -0.06696382  0.1256146   0.0146884  -0.27462226  0.05619408
  0.06274475  0.22770922  0.20876992  0.04987003  0.03406348 -0.1271171
  0.13374054 -0.13316269  0.02118938  0.14977676  0.1268529   0.05878397
  0.00341926 -0.17417727 -0.00776255  0.10746507 -0.13587551 -0.01487685
  0.070291   -0.05306388  0.04162835 -0.07646532  0.22261421  0.06495487
 -0.07878207 -0.16313373  0.13354178 -0.10690796 -0.07235128  0.0327819
 -0.16011252 -0.15882884 -0.27562794 -0.01259219  0.3773385   0.09567647
 -0.2217346   0.04103843 -0.09374423 -0.03446551  0.13131861  0.15763117
  0.0293879   0.02873593 -0.06374945 -0.04494017  0.23527412 -0.08964198
  0.05086723  0.19130304  0.02309479  0.05506527  0.02559642 -0.03755027
 -0.088797    0.0663657  -0.12779258 -0.04574869 -0.05030014 -0.05430741
 -0.01252497  0.1116057  -0.20996027  0.0803221   0.07036358  0.02883074
  0.0027435   0.01375689 -0.06849492 -0.10188927  0.11996397 -0.22446254
  0.20192765  0.2004303   0.08124861  0.11477996  0.09582814  0.06928387
 -0.00125643 -0.04896677 -0.15462659  0.01105044  0.11942979 -0.07288105
  0.05612642 -0.01312613]