[-1.08328894e-01  1.33859560e-01  4.01284099e-02 -4.14960757e-02
 -1.30050212e-01 -2.29846071e-02 -6.15354851e-02 -6.98641166e-02
  1.20788455e-01 -4.16370966e-02  2.45283008e-01 -1.57181211e-02
 -1.86498016e-01 -1.90941259e-01 -2.21906547e-02  1.94800138e-01
 -2.07685947e-01 -1.47118136e-01  5.41544845e-03  2.47645751e-02
  1.30077392e-01 -1.20385392e-02 -2.33581271e-02  6.89153373e-02
 -1.25129104e-01 -3.66960555e-01 -5.91630116e-02 -8.28349218e-02
  6.96839020e-02 -8.95011723e-02 -1.51972622e-01  4.60920408e-02
 -2.01184854e-01 -1.24587022e-01  4.42798324e-02  1.03323363e-01
 -4.14964231e-03 -4.69383858e-02  1.26457199e-01  6.29961491e-03
 -2.55323201e-01  6.26841411e-02  5.16212396e-02  2.50641376e-01
  2.46288776e-01  7.35616833e-02  4.58054952e-02 -1.13803484e-01
  1.47485524e-01 -1.54439002e-01  3.80608775e-02  1.50140926e-01
  1.29450470e-01  3.66366357e-02  1.02770617e-02 -1.52439132e-01
 -2.94137094e-02  1.26093835e-01 -1.73058555e-01 -2.07075812e-02
  3.00916024e-02 -1.01582371e-01  3.06998547e-02 -1.11785851e-01
  1.96037337e-01  3.94959487e-02 -6.99063241e-02 -1.56457320e-01
  1.67049721e-01 -1.45253137e-01 -6.34963140e-02  6.17408529e-02
 -1.25621021e-01 -1.63225502e-01 -2.96685994e-01  2.90864464e-02
  3.49038273e-01  1.37252718e-01 -1.99438676e-01  6.02048822e-02
 -3.85474302e-02 -2.19833627e-02  1.23819344e-01  1.44347832e-01
  1.73849426e-02  3.61652039e-02 -9.14497524e-02 -2.58060284e-02
  2.39806220e-01 -5.79593778e-02  5.13377078e-02  2.06251979e-01
  2.41743587e-02  6.84815794e-02  5.44234104e-02 -1.13124512e-02
 -6.43022358e-02  6.07265532e-02 -1.12848058e-01 -1.51258707e-02
 -4.85047363e-02 -8.24909359e-02  8.61230213e-03  9.69805121e-02
 -1.61433011e-01  5.00570647e-02  1.43824099e-02  4.34278511e-02
 -3.76656055e-02 -4.39567231e-02 -4.91605513e-02 -8.63532200e-02
  9.15731564e-02 -2.37934381e-01  2.29243755e-01  2.06881672e-01
  4.48598489e-02  1.29390582e-01  8.86657014e-02  6.78282604e-02
  3.02340832e-05 -9.53172073e-02 -1.57725200e-01 -1.06157940e-02
  1.40851498e-01 -8.93220231e-02  9.38289985e-02 -1.55557571e-02]