[-0.09909161  0.12080294  0.04556918 -0.0364039  -0.12875547 -0.01570138
 -0.06496226 -0.0721275   0.12126132 -0.04343119  0.25598416 -0.02453937
 -0.18827541 -0.17599921 -0.02223346  0.1865211  -0.2080677  -0.1385784
  0.00244111  0.02650548  0.13082798 -0.00632699 -0.02149528  0.04897039
 -0.11147278 -0.36154303 -0.05800307 -0.07768993  0.07673312 -0.08613374
 -0.14773226  0.03768857 -0.21423602 -0.12235137  0.04197929  0.10024027
  0.00145123 -0.04897304  0.12216649 -0.00257349 -0.24983434  0.06391492
  0.05466128  0.23331559  0.23865043  0.06891482  0.03834447 -0.12587418
  0.12882684 -0.13077137  0.04005968  0.15900071  0.13246332  0.0345851
  0.00255514 -0.1526465  -0.03436601  0.12051135 -0.13474721 -0.02614439
  0.05732169 -0.06908248  0.02774848 -0.12038728  0.18850729  0.019651
 -0.06930538 -0.17327701  0.1452384  -0.13391688 -0.07590991  0.05222261
 -0.13813098 -0.15016375 -0.2846342   0.0193858   0.35644951  0.09564617
 -0.21148458  0.06305392 -0.05031545 -0.03270208  0.12527655  0.13816848
  0.0349188   0.02849642 -0.08902223 -0.03205671  0.24713576 -0.06669442
  0.06328646  0.18588237  0.01474346  0.05774274  0.0479265  -0.01629371
 -0.05732013  0.08028544 -0.10850435 -0.00893131 -0.06183783 -0.09054687
 -0.0096842   0.09490008 -0.17316063  0.05782519  0.02856349  0.04920857
 -0.01106892 -0.03928247 -0.05636999 -0.08882552  0.10340696 -0.23790507
  0.23085065  0.20386639  0.0513281   0.120887    0.08986878  0.09709209
  0.00140916 -0.0590711  -0.18143296 -0.01306123  0.11544772 -0.08996032
  0.06966837 -0.01173747]