[-9.82785299e-02  1.06967606e-01  8.15804675e-02 -6.24479651e-02
 -1.27957687e-01 -2.59087980e-02 -9.26983505e-02 -3.57713774e-02
  1.31185219e-01 -5.86697124e-02  2.35267118e-01 -6.09473474e-02
 -1.99490264e-01 -8.62499774e-02 -5.52403443e-02  1.45327926e-01
 -1.69373244e-01 -1.01414859e-01  7.20974943e-03  9.75606963e-03
  8.51381645e-02  1.50242075e-02  1.98598951e-03  4.52180505e-02
 -1.00410417e-01 -3.88588220e-01 -8.67131352e-02 -4.10738848e-02
  9.14908852e-03 -8.56589302e-02 -9.80154648e-02  5.80569170e-02
 -1.65762410e-01 -9.91369411e-02  5.92479184e-02  1.62918106e-01
 -1.67201348e-02 -5.90843670e-02  1.10429935e-01 -1.24165034e-02
 -2.09537983e-01  1.24933645e-02  8.81937668e-02  2.55849421e-01
  1.92687660e-01  9.80889052e-02  7.22556561e-03 -7.78526142e-02
  1.31362960e-01 -2.04444155e-01  3.72699909e-02  1.45110011e-01
  1.02632955e-01  2.46306360e-02  7.53138661e-02 -1.42917305e-01
 -1.43830804e-02  1.65364727e-01 -1.52389795e-01 -4.94481735e-02
 -1.87261067e-02 -5.78378849e-02  4.05182838e-02 -1.25884295e-01
  2.11518124e-01  9.84757096e-02 -6.62394762e-02 -1.25599399e-01
  1.65227488e-01 -1.34955347e-01 -4.29456271e-02  6.21080287e-02
 -1.17474370e-01 -1.65207312e-01 -2.52304167e-01  2.80413398e-04
  3.68233144e-01  1.32691339e-01 -1.28387615e-01  7.86835179e-02
 -3.50346975e-02 -3.79430279e-02  5.66996932e-02  1.03310667e-01
 -2.25793719e-02  7.55309016e-02 -8.24943408e-02  3.85355554e-03
  2.08688453e-01 -6.11445569e-02  4.67059724e-02  1.77302584e-01
 -9.57751647e-04  8.70005786e-02  5.43638542e-02 -5.18531464e-02
 -8.12709630e-02  4.80922498e-02 -1.61864981e-01 -2.88310051e-02
 -4.04600017e-02 -6.95376322e-02  7.15092896e-03  8.82953480e-02
 -2.03800842e-01  2.68946234e-02  2.18454432e-02 -1.24384407e-02
 -1.16377352e-02 -1.08063649e-02 -3.12357526e-02 -7.79077634e-02
  1.26476094e-01 -2.87437975e-01  1.54377863e-01  1.83128923e-01
  2.07748618e-02  1.72749385e-01  7.37150535e-02  5.68892621e-02
  2.82941516e-02 -8.85683894e-02 -1.34299517e-01 -1.67614203e-02
  7.62759969e-02 -5.11992089e-02  4.60781977e-02 -1.54674647e-03]