[-0.10937382  0.09210709  0.08218654 -0.09103407 -0.11412429 -0.01961472
 -0.12140294 -0.09652113  0.11313324 -0.08153155  0.24711643 -0.04448402
 -0.15221106 -0.09997898 -0.05996121  0.2168664  -0.23708296 -0.14152133
  0.00440834  0.02278863  0.08139382 -0.01125323 -0.02808903  0.0369685
 -0.1277003  -0.33595306 -0.06633154 -0.0782388   0.04951353 -0.05117896
 -0.12791343  0.01212822 -0.20621713 -0.06561279  0.02869508  0.08916857
 -0.01369305 -0.08669997  0.13826415  0.00164539 -0.25828359  0.0771564
  0.08354938  0.21722655  0.20108986  0.05858809  0.02509233 -0.14441811
  0.13041781 -0.14720048  0.04898331  0.1281399   0.11938631  0.05149716
  0.0158091  -0.14916477  0.00432034  0.13455573 -0.12726958  0.00624137
  0.0416607  -0.02024757  0.05333525 -0.10848212  0.22492377  0.07836019
 -0.08779175 -0.15128459  0.14881264 -0.07056379 -0.09847402  0.03266407
 -0.13194409 -0.16705729 -0.29070607 -0.00626083  0.34415996  0.09478251
 -0.22795148  0.04714074 -0.03742434 -0.05846674  0.13310541  0.14629269
  0.00594132  0.02144389 -0.06127787 -0.02822648  0.27948555 -0.06622998
  0.04310767  0.1948505   0.01547425  0.05157731  0.00454414  0.01298339
 -0.08099115  0.08194775 -0.14331342 -0.03864985 -0.0106802  -0.01399096
 -0.01333728  0.13550101 -0.18650597  0.06848639  0.05426254  0.01371615
  0.00270184  0.01759773 -0.05359061 -0.08929637  0.10384656 -0.20557395
  0.2258447   0.20615354  0.09122526  0.10232512  0.12880225  0.04180739
  0.0174357  -0.04451936 -0.18743363 -0.00943498  0.12214511 -0.06635243
  0.08280626  0.03838752]