[-8.00700486e-02  1.08835340e-01  6.91899955e-02 -3.76994014e-02
 -1.36566982e-01 -2.00360399e-02 -8.38264450e-02 -9.32238773e-02
  1.00397639e-01 -6.66185468e-02  2.44771242e-01 -5.70325330e-02
 -1.76202521e-01 -1.47106633e-01 -6.64112717e-02  2.01207832e-01
 -2.19851330e-01 -1.57112837e-01  3.12306744e-04  2.73790117e-02
  1.03584781e-01  1.30899372e-02 -1.89083796e-02  3.27298790e-02
 -1.22430138e-01 -3.69689852e-01 -6.11315183e-02 -7.87301138e-02
  4.85381223e-02 -7.94145986e-02 -1.29792586e-01  4.99590188e-02
 -1.68419257e-01 -9.31408554e-02  5.59052899e-02  1.02700971e-01
  7.12288916e-03 -5.39432839e-02  1.27768815e-01 -1.55318379e-02
 -2.84466654e-01  9.15190801e-02  8.55083913e-02  2.60243952e-01
  2.26923451e-01  6.68373480e-02  2.77738068e-02 -1.38534009e-01
  1.41068116e-01 -1.44400194e-01  3.55059057e-02  1.52080998e-01
  1.29635066e-01  4.17295545e-02  1.12914471e-02 -1.22573614e-01
 -2.10756194e-02  1.30929485e-01 -1.35166019e-01 -2.13793758e-02
  5.89816049e-02 -4.45450805e-02  7.20910057e-02 -1.03846662e-01
  1.80987149e-01  2.85654701e-02 -9.02887210e-02 -1.59123287e-01
  1.16128683e-01 -1.57978162e-01 -1.13556579e-01  4.08551693e-02
 -1.26641259e-01 -1.52843565e-01 -3.15596461e-01 -2.72208210e-02
  3.67802113e-01  9.68093723e-02 -2.15919569e-01  5.23065813e-02
 -2.37684362e-02 -3.64417695e-02  1.40802294e-01  1.62983030e-01
  1.33976312e-02  4.07890230e-02 -9.07805786e-02 -4.27635722e-02
  2.76123136e-01 -7.01473728e-02  3.51268910e-02  1.95071355e-01
  2.48259287e-02  6.39946982e-02  4.20366749e-02  1.94361191e-02
 -6.37924001e-02  7.64142200e-02 -1.26931906e-01 -9.83687583e-03
 -5.54654188e-02 -4.97659296e-02 -1.45261632e-02  1.08337954e-01
 -1.82035238e-01  9.07836482e-02  2.65951958e-02  5.13468161e-02
 -8.12727399e-03 -1.45211397e-02 -3.75128351e-02 -7.49343708e-02
  1.15349367e-01 -2.30789348e-01  1.98707446e-01  2.15476319e-01
  6.88793659e-02  1.12132348e-01  1.12236634e-01  4.41396832e-02
 -6.93798473e-04 -6.58533424e-02 -1.79027200e-01 -3.05010173e-02
  1.04044914e-01 -9.00877044e-02  8.41706619e-02  7.09803915e-03]