[-1.60906121e-01  1.44235522e-01  8.99066031e-02 -3.57782096e-02
 -1.10906243e-01 -8.83547738e-02 -5.40794209e-02 -1.33627981e-01
  1.32016599e-01 -2.96443906e-02  2.42132902e-01 -2.67406050e-02
 -1.81102619e-01 -1.55262426e-01  2.35723741e-02  1.34380028e-01
 -1.74971908e-01 -7.93010220e-02 -5.77051600e-04  2.22323220e-02
  1.01148404e-01 -4.15530801e-03  1.04846552e-01  7.24105388e-02
 -1.20914236e-01 -3.75673383e-01 -1.17196195e-01 -1.79315239e-01
  4.33760993e-02 -4.41802964e-02 -9.66004059e-02 -2.86037009e-02
 -1.52971342e-01 -1.28100112e-01  3.36278160e-03  9.97125283e-02
 -2.08423026e-02 -4.59305309e-02  1.46713108e-01  2.51847096e-02
 -1.95510179e-01 -1.19774202e-02 -2.80144960e-02  2.75809526e-01
  2.32759550e-01  2.67482288e-02  8.89042467e-02 -9.27236229e-02
  1.13012485e-01 -1.81042492e-01  9.02577341e-02  9.55178365e-02
  1.01231113e-01 -1.68072488e-02  1.19119085e-01 -1.36154607e-01
  7.82086886e-03  1.13423467e-01 -2.01433733e-01  1.49260778e-02
  5.02637215e-02  8.24664067e-03 -2.14399118e-03 -4.47719917e-02
  2.21910223e-01  1.00909747e-01 -8.25450569e-02 -6.42730445e-02
  1.65543482e-01 -1.05481863e-01 -1.92379113e-02  4.40099798e-02
 -1.81136921e-01 -1.86722860e-01 -3.02936316e-01  9.21692606e-03
  4.03923243e-01  1.11044362e-01 -2.08619907e-01  3.19203355e-05
 -1.17857926e-01 -7.80007755e-03  8.56370777e-02  9.67070833e-02
 -1.89934745e-02  6.95262775e-02 -1.12390451e-01  2.01237500e-02
  1.27370775e-01 -9.59287062e-02  3.50445025e-02  2.58916587e-01
  2.33658738e-02  3.79778333e-02  6.94191456e-02 -7.24730873e-03
 -6.99344724e-02  1.13865575e-02 -1.40112758e-01 -3.67081203e-02
  2.32021157e-02 -9.66013893e-02  4.19431925e-03  8.15096125e-02
 -2.43448809e-01  3.99996042e-02  5.31609468e-02 -2.27387995e-02
 -4.27473076e-02 -7.26809800e-02 -9.51839387e-02 -6.82018697e-02
  1.55190662e-01 -2.21910387e-01  1.58347234e-01  2.22202286e-01
  8.42035923e-04  1.47249162e-01  3.09630837e-02  1.12646548e-02
 -1.20995296e-02 -6.32498935e-02 -1.10960223e-01  2.78306659e-02
  7.01185986e-02 -2.54787933e-02  1.04975728e-02  2.19793692e-02]