[-1.32496685e-01  1.51631549e-01  6.87014982e-02 -4.50119786e-02
 -7.90768191e-02 -7.06337020e-02 -4.06089351e-02 -1.29848316e-01
  1.05842613e-01 -7.56853968e-02  2.02350453e-01 -3.58012132e-02
 -2.13092998e-01 -1.54935926e-01 -1.52684571e-02  1.67565927e-01
 -2.45277405e-01 -1.18718080e-01  4.01802966e-03  2.33895071e-02
  1.36513740e-01  3.17514837e-02  1.94167774e-02  2.63336431e-02
 -1.19655035e-01 -3.65141451e-01 -4.37793657e-02 -7.37741143e-02
 -1.12118537e-03  1.23102190e-02 -9.40398201e-02  5.97084574e-02
 -2.06500798e-01 -1.11304104e-01  2.77805682e-02  1.11533336e-01
 -1.12615330e-02 -4.96646576e-02  1.55113325e-01 -1.68618467e-02
 -2.46347949e-01  3.79757769e-02  4.68799509e-02  2.69661695e-01
  2.36416653e-01  9.89103341e-04  3.49449627e-02 -1.02757946e-01
  1.53609231e-01 -1.71447396e-01  2.95580109e-03  1.20419361e-01
  7.55860806e-02  2.95599401e-02  1.87159553e-02 -1.76354542e-01
  1.03553094e-03  8.97214115e-02 -1.34453654e-01 -3.37347053e-02
  3.59341428e-02 -1.40590101e-01  2.09754556e-02 -6.33996427e-02
  1.88727081e-01  1.87059809e-02 -7.13303238e-02 -1.74919650e-01
  1.35981008e-01 -1.08959220e-01 -8.09276104e-02  5.48275299e-02
 -1.65947020e-01 -1.41206279e-01 -3.63881797e-01  4.06745542e-03
  3.53991002e-01  8.30225125e-02 -1.82473332e-01  6.93338811e-02
 -6.13317601e-02  1.49641922e-02  1.61883712e-01  1.75327316e-01
  3.08555216e-02  6.66233674e-02 -1.21748284e-01  1.60518717e-02
  2.14212343e-01 -8.31877440e-02 -7.08885938e-02  2.12704927e-01
  1.81113202e-02  7.69260079e-02  5.78404851e-02 -7.79726123e-03
 -6.41220436e-02  5.54091744e-02 -1.70558065e-01 -1.14883427e-02
  6.39556870e-02 -6.17105328e-02 -5.74676646e-03  1.68184340e-01
 -1.76266715e-01  4.83033843e-02  1.72561873e-02  6.35441467e-02
  2.29110685e-03 -6.47115186e-02 -8.34840983e-02 -5.52240796e-02
  8.00441802e-02 -2.11823583e-01  2.14177802e-01  2.06048280e-01
  2.30642688e-02  1.38388023e-01  1.03912652e-01 -5.47669842e-05
 -4.24503488e-03 -2.08074171e-02 -1.94678009e-01 -2.17815544e-02
  1.35659963e-01  2.43252348e-02  1.08198702e-01  8.84605944e-03]