[-1.19012944e-01  1.58754990e-01  9.38377008e-02 -2.12162491e-02
 -4.59409319e-02 -4.53572981e-02  2.52242666e-02 -1.15428209e-01
  1.19957589e-01 -3.39948647e-02  2.60579735e-01 -5.19486144e-02
 -2.25542411e-01 -1.67314619e-01  6.37087226e-02  1.69568926e-01
 -2.04104498e-01 -6.78087026e-02 -2.11991239e-02 -7.35564483e-03
  8.90945643e-02  1.91784035e-02  1.83700339e-03  6.71614707e-02
 -1.06554978e-01 -3.42870593e-01 -7.40348175e-02 -1.25362098e-01
  2.36119162e-02 -6.61531165e-02 -6.73103556e-02  4.61457185e-02
 -1.82292297e-01 -1.04213238e-01  1.80392973e-02  5.79594150e-02
  7.34356791e-03 -7.13066533e-02  1.41283229e-01  2.40398031e-02
 -1.75297856e-01 -5.24634719e-02  3.57118919e-02  2.47220233e-01
  1.65100932e-01 -3.25677614e-03  3.62871811e-02 -2.51804478e-02
  8.78408626e-02 -1.59065872e-01 -2.04794686e-02  1.00724317e-01
  8.23113471e-02  2.75213923e-02  5.99133559e-02 -1.95827946e-01
 -2.24096552e-02  4.87859212e-02 -1.73561111e-01 -7.50454003e-03
  1.97435524e-02 -8.34199488e-02 -3.49153876e-02 -5.10737970e-02
  1.96250364e-01  5.45459948e-02 -7.16322139e-02 -1.43964812e-01
  1.82395488e-01 -9.37441215e-02 -6.90826997e-02  2.55657434e-02
 -1.54371470e-01 -1.41232938e-01 -3.11732531e-01 -3.22087493e-04
  3.18304926e-01  8.80404264e-02 -2.24673942e-01  2.40623523e-02
 -1.30902126e-01 -1.89113375e-02  7.97163770e-02  9.79581252e-02
  3.24883051e-02  8.75369459e-02 -9.08345506e-02 -1.40001846e-03
  1.63140699e-01 -4.88535576e-02  2.61635869e-03  2.44938612e-01
 -2.45781131e-02  1.67662408e-02  3.21551226e-02 -6.65105432e-02
 -4.14475948e-02  2.03968771e-02 -1.45170733e-01 -4.01548110e-02
  3.77159230e-02 -1.13452554e-01 -6.43027341e-03  1.44800693e-01
 -2.75816828e-01  6.37173578e-02  7.58446977e-02  8.07517953e-03
 -1.99031737e-02 -1.27531709e-02 -1.47177473e-01 -1.61771160e-02
  1.52923256e-01 -2.46968314e-01  2.05877453e-01  2.27463171e-01
  7.50180194e-03  1.00271069e-01  5.76541238e-02  2.10390836e-02
 -1.17408263e-03 -6.90642297e-02 -1.63811952e-01 -5.01439385e-02
  9.30529088e-02 -3.80253904e-02  3.95183871e-03  6.80799736e-03]