[-1.59466222e-01  1.50414377e-01  7.91931078e-02 -1.78674236e-02
 -1.09718971e-01 -6.71164468e-02 -2.04393473e-02 -1.17443122e-01
  1.11561850e-01 -8.11770782e-02  1.99310035e-01 -7.61192366e-02
 -2.15578794e-01 -1.47507086e-01 -1.10039031e-02  1.90674290e-01
 -2.28626803e-01 -9.10664499e-02  2.77150626e-04  1.28740566e-02
  1.26793608e-01  1.68587845e-02  1.19740590e-02  2.65044924e-02
 -7.16928616e-02 -3.91823024e-01 -2.75815260e-02 -8.72846171e-02
  3.72952595e-02 -4.58147898e-02 -1.15206540e-01  3.38900611e-02
 -1.89598158e-01 -1.17771648e-01  1.81241264e-03  9.91803929e-02
 -3.61953042e-02 -3.39208618e-02  1.43773198e-01 -2.71017244e-03
 -2.35238194e-01 -1.65111776e-02  3.63095291e-02  2.62345910e-01
  2.12538287e-01  5.64333983e-02  1.85975041e-02 -1.09572887e-01
  1.42909452e-01 -1.84105828e-01  7.31869042e-03  9.79209095e-02
  9.35196206e-02  1.79083887e-02  3.63490731e-02 -1.67597696e-01
 -9.60840564e-03  5.78329377e-02 -1.53011218e-01  1.26216924e-02
  6.33373782e-02 -1.17614128e-01  5.78045985e-03 -6.16371892e-02
  2.30536327e-01  1.68429893e-02 -6.10476322e-02 -1.30853623e-01
  1.59975931e-01 -1.18180655e-01 -7.89494738e-02  2.62136310e-02
 -1.12426482e-01 -1.63364008e-01 -3.36059004e-01 -3.20018455e-03
  3.56571972e-01  9.83759090e-02 -1.83429480e-01  2.36553978e-02
 -6.93252161e-02 -2.53931135e-02  1.67067677e-01  1.68283895e-01
  1.36830751e-02  4.88007739e-02 -1.05808653e-01 -5.77035220e-03
  2.02516481e-01 -1.00247718e-01 -2.85252929e-02  2.21928030e-01
  1.28235957e-02  7.68431276e-02  1.66479535e-02 -4.02550288e-02
 -7.81694800e-02  7.34778941e-02 -1.52480289e-01 -4.92104441e-02
  7.62837306e-02 -9.17497203e-02  1.01579269e-02  1.43543914e-01
 -2.05850869e-01  5.94534464e-02  2.52395514e-02  4.94675040e-02
  2.01958958e-02 -5.89598902e-02 -1.20115675e-01 -5.57359159e-02
  1.09084822e-01 -1.99649647e-01  2.26712331e-01  2.35298157e-01
  4.53312360e-02  1.31562084e-01  1.03038147e-01  5.97257446e-03
  3.74272577e-02 -3.65147293e-02 -1.88557252e-01 -1.12347202e-02
  1.38046414e-01 -1.86560191e-02  6.62672371e-02  2.18448471e-02]