[-0.10657728  0.18386322  0.09604205 -0.0392414  -0.10250056  0.00382901
 -0.01926951 -0.11560526  0.15127055 -0.08482021  0.27022913 -0.05520547
 -0.2125254  -0.12701659  0.02553211  0.18353777 -0.21884823 -0.13285843
 -0.01430947  0.05522391  0.0608556  -0.00634566  0.01145313  0.03527889
 -0.14633732 -0.42780432 -0.07119399 -0.10986421  0.00133066 -0.05388301
 -0.1014519   0.0025042  -0.1869653  -0.1015566   0.00788393  0.07599523
 -0.0345807  -0.09078773  0.15160298  0.00754202 -0.2304931   0.06454124
  0.016071    0.31059375  0.17317264 -0.0129916   0.05616691 -0.09230447
  0.1219404  -0.16105826  0.04373903  0.09173565  0.07932716  0.04425438
  0.03620299 -0.14125489 -0.00096119  0.1095135  -0.17719141  0.00503714
  0.06824341 -0.04288177  0.02599244 -0.07442432  0.21914552  0.06776693
 -0.07657455 -0.1431583   0.09725364 -0.07392129 -0.03520339  0.02743807
 -0.18614657 -0.1729034  -0.32144102  0.03537802  0.36652943  0.09622299
 -0.20636211 -0.0211352  -0.08802874 -0.00783011  0.11541488  0.12777573
  0.02727265  0.03525698 -0.105014    0.05735997  0.22661643 -0.07025065
 -0.02350391  0.24182121  0.00510062  0.00240797  0.01739262 -0.01016412
 -0.07982317  0.05372272 -0.14708523 -0.01099028  0.02902265 -0.06428853
 -0.02075475  0.14827964 -0.25744686  0.07426231  0.05350189  0.02110959
  0.02551329 -0.02350749 -0.10663625 -0.06539379  0.13341132 -0.24539773
  0.19070935  0.22162156  0.06585689  0.11125185  0.05300841 -0.02806504
 -0.0156778  -0.03060908 -0.18560725  0.00101877  0.1089918   0.00263654
  0.07037682  0.01134983]