[-0.0999468   0.18223618  0.10166112 -0.03203648 -0.11069717  0.00103291
 -0.02990512 -0.12224247  0.14504465 -0.09595624  0.25712124 -0.04129638
 -0.21148963 -0.13697807  0.04624357  0.18243553 -0.21186602 -0.1290959
 -0.02621207  0.05865241  0.08072332  0.00682742  0.01931402  0.03451036
 -0.15418947 -0.44297582 -0.0778582  -0.0934934   0.01646785 -0.05135629
 -0.12042654 -0.00471904 -0.17910896 -0.10152336  0.01514253  0.08412614
 -0.03457999 -0.09997427  0.13727827  0.00788777 -0.23089516  0.06725634
  0.00285299  0.30381703  0.1939256  -0.00954967  0.07903156 -0.10458123
  0.12928246 -0.16377099  0.05087804  0.08444387  0.06844238  0.04352044
  0.05430358 -0.14392541 -0.01093596  0.11141139 -0.17942719  0.01361089
  0.06721108 -0.04929469  0.02021597 -0.0725038   0.20161466  0.0657244
 -0.07402819 -0.1514623   0.10535955 -0.07932121 -0.03354914  0.02544549
 -0.18981333 -0.17035343 -0.32919845  0.01970511  0.37191153  0.10630923
 -0.22026244 -0.0332138  -0.08809029  0.006176    0.13017094  0.11760227
  0.03622531  0.02611532 -0.12149347  0.08130618  0.23142909 -0.07757753
 -0.02259909  0.25455016  0.0208907   0.00167983  0.02156671  0.01068589
 -0.09124079  0.05209662 -0.15173136 -0.02232723  0.05639946 -0.05588221
 -0.00637662  0.15625976 -0.24562936  0.09072458  0.04954367  0.03000573
  0.03179459 -0.04160937 -0.12570108 -0.05738241  0.13064574 -0.23524247
  0.18508904  0.22698997  0.06128264  0.11064208  0.04200798 -0.02781504
 -0.0171944  -0.04830275 -0.18412904 -0.00091394  0.10068045  0.01573299
  0.0690562   0.01271299]