[-1.60875723e-01  1.37904912e-01  9.27573442e-02 -4.50456701e-02
 -9.92573202e-02 -7.34897107e-02 -5.56159504e-02 -1.51305303e-01
  1.26563236e-01 -3.59849371e-02  2.58691639e-01 -4.45091315e-02
 -1.84011921e-01 -1.33983850e-01  1.51550490e-02  1.61753580e-01
 -2.04803020e-01 -8.01318213e-02  1.39433360e-02  1.90465059e-02
  8.00985396e-02 -1.15720229e-02  8.39528739e-02  6.88541010e-02
 -1.16057329e-01 -3.62733066e-01 -1.09764829e-01 -1.56231597e-01
  2.23876871e-02 -1.76875181e-02 -9.52685326e-02 -5.63926250e-03
 -1.61942929e-01 -1.15570448e-01  1.59057248e-02  9.76652652e-02
 -5.05246244e-05 -6.06190935e-02  1.42246529e-01  1.07902186e-02
 -1.92738950e-01 -4.82945528e-04  1.11567229e-03  2.76189774e-01
  2.32273921e-01  1.77118164e-02  6.96833357e-02 -1.00668527e-01
  9.86818224e-02 -1.72508717e-01  7.09859878e-02  8.63204151e-02
  8.26481581e-02 -2.04422325e-02  8.49819332e-02 -1.63199946e-01
  1.12951025e-02  1.11220814e-01 -1.81025773e-01  6.64447341e-03
  5.68922162e-02 -2.10090750e-03  1.70754716e-02 -4.82398197e-02
  2.28803977e-01  1.04218617e-01 -8.88964981e-02 -8.24068934e-02
  1.41391680e-01 -8.61042514e-02 -2.04119775e-02  3.21058072e-02
 -1.97080180e-01 -1.92385063e-01 -3.22974563e-01 -2.77854130e-03
  3.89638901e-01  9.60044414e-02 -2.23589897e-01  1.04530051e-03
 -9.99377891e-02  2.78458674e-03  1.22532032e-01  1.18374899e-01
  2.88905506e-03  4.89836298e-02 -1.18496709e-01  6.08441699e-03
  1.52045339e-01 -8.50339606e-02  1.10472236e-02  2.56910414e-01
  2.45332089e-03  1.32368347e-02  5.83958142e-02  1.16685070e-02
 -6.41724393e-02  2.06173770e-02 -1.55953929e-01 -4.27129157e-02
  1.53457168e-02 -7.78086334e-02 -5.22801280e-03  1.11769415e-01
 -2.56982863e-01  2.74862051e-02  4.99195606e-02 -8.42587557e-03
 -3.57732773e-02 -7.78310820e-02 -8.11386555e-02 -5.51723726e-02
  1.57184288e-01 -2.21613750e-01  1.52637929e-01  2.26438388e-01
  5.92322042e-03  1.49628624e-01  3.99017148e-02  1.18331341e-02
 -1.82813853e-02 -4.85343598e-02 -1.26031205e-01  3.31589840e-02
  6.48635626e-02 -2.27713734e-02  3.75195108e-02  2.82238107e-02]