[-0.13427125  0.1899143   0.07512778 -0.01397197 -0.04631614 -0.03054868
 -0.03803645 -0.14892988  0.10502521 -0.05524342  0.2751101  -0.0802092
 -0.2660282  -0.13597438  0.0218434   0.17078401 -0.19273053 -0.11393502
 -0.06299694  0.04512322  0.09364594 -0.01070378  0.03132804  0.03715141
 -0.1018433  -0.38010046 -0.07303707 -0.0947079   0.02950384 -0.05532486
 -0.12362128 -0.07759874 -0.23330593 -0.14404444  0.01147357  0.03473244
 -0.02390754 -0.06708544  0.16282442 -0.01971452 -0.21708666  0.01805148
  0.03578214  0.25903374  0.16081977  0.05064576  0.04464496 -0.11908323
  0.09794383 -0.14950958  0.07246657  0.10436099  0.13799635  0.04965335
  0.03835389 -0.17253344 -0.00132139  0.12877606 -0.16280447  0.04236726
  0.09808109 -0.04097129  0.00174478 -0.07130291  0.22281674  0.0325214
 -0.09382557 -0.14307679  0.10947964 -0.0685366  -0.02395204  0.05025107
 -0.15911499 -0.20226263 -0.36066589  0.03738553  0.32600757  0.10249259
 -0.21918987 -0.01369866 -0.06970056  0.01570795  0.12307068  0.11828776
  0.00609997  0.06515058 -0.09611584  0.04167011  0.1893715  -0.06556125
 -0.03156714  0.23721819 -0.01404239  0.01547304  0.01938152  0.01899381
 -0.067853    0.01790752 -0.12751578  0.01267941  0.0538412  -0.04601841
 -0.00423685  0.12909655 -0.2015568   0.04064401  0.03137681  0.0307649
 -0.00139956 -0.04251127 -0.10187776 -0.07615683  0.10758066 -0.25280446
  0.21560533  0.22549203  0.03911025  0.08415724  0.05450875  0.00142368
  0.01545872 -0.00496258 -0.20071907 -0.03163807  0.13140999 -0.01621131
  0.09871665  0.01010875]