[-0.13819347  0.15506051  0.07991045 -0.03948794 -0.07448704 -0.06789211
 -0.02445772 -0.12282014  0.10611516 -0.08377506  0.20405303 -0.05215647
 -0.2200104  -0.15396063 -0.00685543  0.16541283 -0.21752334 -0.11294409
 -0.00799284  0.02881366  0.14063345  0.02605154  0.022218    0.02982147
 -0.10210269 -0.38146558 -0.03815131 -0.0714773   0.01712502  0.00497016
 -0.10652938  0.05436391 -0.19978099 -0.10886265  0.02096899  0.11577409
 -0.00342642 -0.03963972  0.14768456 -0.01125809 -0.25439438  0.03417124
  0.01697837  0.2750273   0.22311762  0.01133367  0.04669222 -0.11594439
  0.15386176 -0.16506484  0.01542709  0.11375319  0.09287139  0.02326501
  0.01590976 -0.17251138 -0.00475859  0.07186321 -0.12840553 -0.03162717
  0.04575574 -0.12822048  0.01785633 -0.06751461  0.19969182  0.01629618
 -0.07383753 -0.16618477  0.15221909 -0.10529623 -0.07368639  0.0448048
 -0.1651094  -0.12879817 -0.34955677  0.00994024  0.35936391  0.08191139
 -0.20075642  0.05717402 -0.08987411  0.02782748  0.16010788  0.18348883
  0.02749289  0.07369422 -0.11380718  0.01341926  0.2123992  -0.10023868
 -0.06984573  0.20957029  0.03019503  0.08661707  0.04973955 -0.0249224
 -0.0642452   0.05655074 -0.16702017 -0.01699713  0.06021192 -0.0572727
 -0.00423446  0.16433792 -0.19479682  0.0712136   0.02502173  0.06552731
  0.02320126 -0.05048526 -0.08089838 -0.06507846  0.07545565 -0.21062541
  0.2126644   0.21386448  0.03987663  0.1356564   0.10251413  0.00625424
  0.0194457  -0.01755068 -0.19361062 -0.01948925  0.1466291   0.02330047
  0.0862319   0.01064901]