[-0.16657533  0.16010028  0.07060143 -0.02569643 -0.10187187 -0.06505202
 -0.0071304  -0.12169286  0.11278013 -0.06134329  0.19815472 -0.0698245
 -0.2263011  -0.14724182  0.00793403  0.19359596 -0.22013728 -0.09816977
 -0.00773365  0.01376378  0.12236364  0.01388493  0.00924164  0.03540501
 -0.07987531 -0.39051136 -0.03135528 -0.09154847  0.03926481 -0.03662881
 -0.11305684  0.03748047 -0.20705925 -0.1104027   0.01793225  0.10104387
 -0.03745165 -0.03331345  0.15782902  0.00166549 -0.23462851 -0.01413327
  0.04141494  0.26357934  0.22135977  0.03998796  0.02884168 -0.1009712
  0.14847669 -0.17666079  0.01418938  0.11518162  0.08759583  0.02568411
  0.03311163 -0.18310449 -0.00712374  0.05122364 -0.14625154  0.00931488
  0.06910333 -0.11659006 -0.01103485 -0.05581716  0.2243477   0.00721316
 -0.06276622 -0.14848694  0.16380493 -0.11091834 -0.0643967   0.0236832
 -0.14749132 -0.1633407  -0.33866534  0.0148099   0.35486895  0.09829781
 -0.19073498  0.04396932 -0.07894179 -0.01282443  0.1609879   0.16282845
  0.02256359  0.05168172 -0.1099185   0.00546171  0.20805232 -0.10486231
 -0.02426469  0.22563732  0.00858703  0.07556464  0.01304541 -0.04735537
 -0.07498314  0.05542817 -0.15821728 -0.05389235  0.07177394 -0.08554616
  0.01063312  0.15777901 -0.21636866  0.05880364  0.0341244   0.05892221
  0.00538059 -0.050178   -0.12667774 -0.06355342  0.1010518  -0.18999964
  0.24483521  0.23305134  0.03812872  0.11381064  0.10690097  0.00623222
  0.04233858 -0.02017746 -0.18609449 -0.00851595  0.14179181 -0.00352474
  0.05718114  0.01990378]