[-1.25225827e-01  1.64424986e-01  8.71888921e-02 -4.42826897e-02
 -7.65825585e-02 -6.20188788e-02 -3.10896821e-02 -1.29719317e-01
  1.10904291e-01 -9.01881605e-02  1.94144130e-01 -5.51317148e-02
 -2.23713115e-01 -1.61225066e-01 -8.77708226e-05  1.63085446e-01
 -2.17143923e-01 -1.10961102e-01 -4.21204278e-03  3.69562246e-02
  1.38369530e-01  2.41640247e-02  1.86436884e-02  2.19994877e-02
 -8.70784223e-02 -3.87373894e-01 -4.19124626e-02 -6.37997761e-02
  1.59847867e-02  5.58882765e-03 -1.10979021e-01  4.46415506e-02
 -1.91439167e-01 -1.02796756e-01  1.82175767e-02  1.09248780e-01
 -3.91951529e-03 -4.54310514e-02  1.48220345e-01 -1.63948424e-02
 -2.58065104e-01  3.75330709e-02  1.09486505e-02  2.62990057e-01
  2.28443980e-01  9.79428552e-03  4.73667495e-02 -1.21343352e-01
  1.69414788e-01 -1.60085663e-01  2.05575116e-02  1.23589538e-01
  9.55449417e-02  1.91870481e-02  2.16282140e-02 -1.75825357e-01
 -7.70113943e-03  8.00003484e-02 -1.35701209e-01 -2.56722867e-02
  5.54824434e-02 -1.29822299e-01  1.53703634e-02 -6.68998584e-02
  1.90304771e-01  2.67992504e-02 -7.48193264e-02 -1.76814228e-01
  1.52047068e-01 -1.09888732e-01 -7.10048005e-02  3.74730118e-02
 -1.71986312e-01 -1.30612537e-01 -3.49908739e-01  8.05778895e-03
  3.53770882e-01  8.86600167e-02 -2.03712970e-01  4.66839261e-02
 -8.64586756e-02  3.46483141e-02  1.66742608e-01  1.86978981e-01
  2.48371903e-02  6.36568889e-02 -1.09015003e-01  9.23826918e-03
  2.08439186e-01 -9.74657908e-02 -7.31284097e-02  2.11552486e-01
  2.75254827e-02  8.97647962e-02  3.81825641e-02 -3.22194509e-02
 -5.69299646e-02  5.93352690e-02 -1.64474949e-01 -8.46537016e-03
  5.69527112e-02 -6.75675943e-02 -1.62099826e-03  1.68215349e-01
 -2.00180575e-01  7.38448352e-02  2.48024296e-02  7.34800398e-02
  2.39915140e-02 -5.48819602e-02 -8.12486410e-02 -5.53134941e-02
  8.24779645e-02 -2.11690292e-01  2.22299650e-01  2.12316230e-01
  4.36143987e-02  1.34150460e-01  9.77361500e-02  1.27748614e-02
  2.51753964e-02 -2.77788024e-02 -1.92026928e-01 -2.10284106e-02
  1.37646228e-01  2.66852826e-02  8.70647654e-02  1.37150167e-02]