[-1.62057936e-01  1.56765163e-01  7.10835606e-02 -4.19517420e-02
 -1.22195877e-01 -8.15791488e-02 -2.27455348e-02 -1.25444099e-01
  1.09874062e-01 -6.86754957e-02  1.94933534e-01 -6.91013709e-02
 -2.08338931e-01 -1.55471459e-01 -1.08934417e-02  1.90906316e-01
 -2.26958230e-01 -9.35798287e-02  8.34414386e-04  4.07415396e-03
  1.16580129e-01  1.77807193e-02  2.24070959e-02  2.62712892e-02
 -6.90231994e-02 -3.86208832e-01 -3.78670171e-02 -8.38067159e-02
  4.16711792e-02 -3.65068130e-02 -9.60544050e-02  4.91647236e-02
 -1.97879359e-01 -1.20479576e-01  1.25421910e-02  1.05714001e-01
 -3.31149660e-02 -2.43442282e-02  1.53515384e-01  3.10413918e-04
 -2.24116519e-01 -1.06706722e-02  3.90969105e-02  2.76588768e-01
  2.23257810e-01  4.40629572e-02  3.03424541e-02 -1.02790430e-01
  1.44938037e-01 -1.65802583e-01  1.35941599e-02  1.11531019e-01
  8.17898512e-02  1.52367223e-02  2.75470018e-02 -1.65006325e-01
 -3.64245963e-03  5.64726293e-02 -1.48765549e-01  6.80992985e-03
  7.92194530e-02 -1.12596072e-01 -1.32908821e-02 -6.50896206e-02
  2.37941608e-01  1.27551574e-02 -6.60261586e-02 -1.48930445e-01
  1.65272161e-01 -1.13377348e-01 -7.51440525e-02  1.48174912e-02
 -1.44979283e-01 -1.44420668e-01 -3.33987564e-01  5.41352574e-03
  3.47906321e-01  9.14527103e-02 -1.88133106e-01  3.44888456e-02
 -7.75235966e-02 -1.59215871e-02  1.55059904e-01  1.66106671e-01
  1.75810475e-02  5.57754412e-02 -1.06466107e-01 -1.97307952e-03
  1.97094843e-01 -1.08677506e-01 -3.23006772e-02  2.24400878e-01
  2.10960526e-02  7.86852837e-02  1.97312515e-02 -4.96963598e-02
 -7.94211254e-02  6.35554269e-02 -1.66245565e-01 -4.74806018e-02
  7.08452463e-02 -9.29924175e-02  8.65043607e-03  1.53462172e-01
 -1.96490154e-01  7.29128271e-02  2.95931082e-02  6.16469160e-02
 -1.42309628e-03 -5.41359261e-02 -1.21016107e-01 -7.19920620e-02
  1.12120092e-01 -1.75556913e-01  2.40799055e-01  2.33195648e-01
  4.82491069e-02  1.23466149e-01  1.14913419e-01  1.53982509e-02
  3.73376198e-02 -1.60736144e-02 -1.70206726e-01 -7.02457502e-03
  1.28569216e-01 -1.57131087e-02  6.66949153e-02  2.91443598e-02]