[-0.08872112  0.16609459  0.09751442 -0.04570161 -0.10561413  0.02448599
 -0.01711278 -0.10807176  0.15364379 -0.10972735  0.28769597 -0.04374036
 -0.22480686 -0.12364395  0.02937397  0.1876934  -0.20296673 -0.1328554
 -0.00973132  0.05127845  0.06081462 -0.01061186  0.0018989   0.02752949
 -0.15732485 -0.4271085  -0.07465561 -0.09995645  0.01697801 -0.06833335
 -0.11803019 -0.0017495  -0.18083304 -0.08454491  0.00659684  0.07718758
 -0.05247693 -0.10394593  0.15882783  0.00829661 -0.22912054  0.06003851
  0.00770754  0.29672804  0.16543861 -0.01778905  0.06941482 -0.09909336
  0.1329924  -0.17335141  0.05609063  0.08429806  0.09021686  0.04791781
  0.03251291 -0.14890735 -0.0142803   0.12568541 -0.17975454  0.02123338
  0.0639983  -0.04201639  0.02175107 -0.07902753  0.21034844  0.06758891
 -0.08255757 -0.14068985  0.12272912 -0.07321084 -0.02121533  0.03405787
 -0.18477519 -0.18846892 -0.30286819  0.03732286  0.36549145  0.11353882
 -0.19030975 -0.02587435 -0.08733812 -0.00877092  0.10934981  0.1139939
  0.02969566  0.02521939 -0.10000868  0.07420688  0.24139725 -0.07478484
 -0.01431512  0.24796729  0.0043008   0.01696165  0.00719132 -0.00476538
 -0.0816716   0.05324331 -0.13770984 -0.0077003   0.02181107 -0.07560429
 -0.00848564  0.15263151 -0.25629655  0.09318272  0.04753898  0.0274842
  0.03813293 -0.01989652 -0.11183757 -0.06149939  0.13453953 -0.25142533
  0.18637736  0.22296862  0.08215943  0.10926887  0.05572297 -0.03087812
 -0.00409631 -0.05878998 -0.21089752  0.00484068  0.10366478 -0.00740198
  0.06679066  0.01410501]