[-0.16566277  0.14042456  0.05888383 -0.04538551 -0.11172781 -0.07257027
 -0.02648826 -0.11004007  0.10850687 -0.06870478  0.19218361 -0.06066402
 -0.20668614 -0.16062759 -0.00832114  0.18828456 -0.23712607 -0.11001284
  0.00755474  0.01179367  0.13172926  0.01458744  0.00754566  0.03540979
 -0.09753043 -0.38340658 -0.02597574 -0.08799513  0.02079705 -0.03508566
 -0.09919726  0.04741099 -0.20521258 -0.11021196  0.01680792  0.11558657
 -0.02276042 -0.03195721  0.15698254  0.00390831 -0.22870627 -0.00964179
  0.04283971  0.2693561   0.22996561  0.03304487  0.02061594 -0.09226234
  0.15661111 -0.18438929  0.0115786   0.1076684   0.09283606  0.01667646
  0.02868339 -0.17088696  0.00372011  0.07321563 -0.1624905   0.0118388
  0.04589712 -0.13817571  0.0021129  -0.06129417  0.21927266  0.01791605
 -0.05658903 -0.14781474  0.16465978 -0.11359181 -0.07817554  0.02017816
 -0.14033084 -0.15957895 -0.35439432 -0.00218933  0.33301553  0.10516381
 -0.19293486  0.04249379 -0.05164547 -0.0129665   0.15960614  0.16412322
  0.01403794  0.05361464 -0.11531848  0.00687441  0.20902529 -0.08950399
 -0.03754889  0.22292677  0.01038071  0.0779192   0.03183036 -0.04654317
 -0.07247665  0.05891883 -0.16089527 -0.04265169  0.06872606 -0.09277789
  0.01252527  0.16033274 -0.19837497  0.04679346  0.01464974  0.05080223
 -0.0146842  -0.06129149 -0.11474538 -0.05883347  0.10251027 -0.1775655
  0.23750594  0.23572274  0.0463741   0.13142504  0.10736039 -0.0065898
  0.02727667 -0.02511756 -0.18241051 -0.00143921  0.13139977 -0.00914246
  0.08622722  0.02828554]