[-0.13720712  0.15335304  0.06074435 -0.02328795 -0.10790519 -0.04496372
 -0.0146162  -0.11073128  0.11351371 -0.0733697   0.20390294 -0.0684185
 -0.23350902 -0.14660197  0.01034585  0.17943335 -0.22784987 -0.09421215
 -0.00426821  0.02198385  0.12952794  0.01092827  0.00217706  0.03672468
 -0.08373611 -0.39695999 -0.01653745 -0.07244323  0.04078817 -0.04390588
 -0.12678127  0.03305531 -0.19776936 -0.1092568   0.01900051  0.1140053
 -0.03874075 -0.04048858  0.14421692 -0.00101787 -0.23209779 -0.0068816
  0.02626987  0.26173803  0.20861712  0.04652775  0.02588034 -0.10411163
  0.15832034 -0.17924128  0.01495138  0.11360021  0.09746914  0.02133313
  0.03673644 -0.17812456 -0.01459642  0.06931212 -0.15316926  0.00410009
  0.05962248 -0.11916931  0.0068008  -0.07419766  0.21710446  0.01083883
 -0.06236541 -0.14323542  0.16050465 -0.1096036  -0.08009133  0.01569509
 -0.12712051 -0.16380881 -0.34100699  0.00715521  0.34405547  0.11029507
 -0.19629215  0.02985485 -0.06259745 -0.00955122  0.16745679  0.15816386
  0.01749843  0.05820904 -0.11524981  0.00813524  0.20506418 -0.09593353
 -0.03137372  0.21766351  0.01265903  0.07526503  0.02856839 -0.04139927
 -0.08160162  0.06445133 -0.166319   -0.04678478  0.07321692 -0.09545176
  0.01503469  0.15375403 -0.21240143  0.06321865  0.02725002  0.050877
  0.01840002 -0.05306453 -0.1282839  -0.05599261  0.09995555 -0.217007
  0.23518406  0.22913189  0.05527476  0.12794523  0.09637994  0.00069219
  0.03795142 -0.03611404 -0.18977255 -0.02561559  0.13350621 -0.0004386
  0.06780028  0.01765623]