[-0.11902622  0.14761306  0.10845342 -0.04681762 -0.08472782 -0.0554368
 -0.03169806 -0.12310761  0.10777644 -0.09808543  0.19117963 -0.04941773
 -0.21513641 -0.13833034  0.00231659  0.14708677 -0.20573382 -0.09648808
 -0.00262038  0.02948019  0.14164455  0.03446853  0.02344215  0.02074136
 -0.08201831 -0.36810941 -0.03931449 -0.06171023  0.02350186 -0.00767604
 -0.11668062  0.0382705  -0.18725106 -0.10343383 -0.00384756  0.11642213
 -0.01273648 -0.04415817  0.13615088 -0.0126982  -0.25561485  0.04765088
 -0.00630097  0.25364289  0.22607341  0.01999811  0.03757222 -0.12078142
  0.15059853 -0.19047964  0.02302679  0.10828865  0.08907092  0.00483841
  0.02780484 -0.17490819 -0.02774856  0.07661427 -0.12579916 -0.01438928
  0.05137572 -0.11645848  0.02960702 -0.0804667   0.18721025  0.0372436
 -0.07645889 -0.14664648  0.13799883 -0.11053854 -0.08097446  0.04356331
 -0.14420438 -0.12946919 -0.32950968  0.01129474  0.36683154  0.08454054
 -0.2101976   0.02788498 -0.09765     0.0280948   0.16968827  0.16749303
  0.02496718  0.06061136 -0.10598703  0.00675198  0.20639162 -0.10352639
 -0.05878105  0.21623234  0.03498877  0.09770473  0.03795349 -0.0209672
 -0.05702944  0.06606729 -0.17597008 -0.00820231  0.05126882 -0.07207814
 -0.00421677  0.15977    -0.20409258  0.08286432  0.02730837  0.04629695
  0.03537284 -0.05635903 -0.08966789 -0.0480106   0.0979766  -0.21888311
  0.20148754  0.22199412  0.03520597  0.14335088  0.10045991  0.01633265
  0.02519715 -0.03173961 -0.19155827 -0.01967298  0.14168422  0.02049137
  0.07264234  0.01795454]