[-1.11053087e-01  1.74725235e-01  8.72809589e-02 -4.27440330e-02
 -1.09471321e-01 -3.83225619e-03 -1.91733316e-02 -1.07770853e-01
  1.50368378e-01 -8.65850002e-02  2.67175049e-01 -4.56033163e-02
 -2.14191824e-01 -1.28436789e-01  3.40871401e-02  1.78710252e-01
 -2.15951875e-01 -1.21326521e-01 -6.97375555e-03  5.80484159e-02
  7.70299658e-02 -1.99028710e-03  1.80676263e-02  3.64000015e-02
 -1.43493816e-01 -4.46692526e-01 -7.44745061e-02 -1.07436836e-01
  1.49736796e-02 -4.93360125e-02 -1.03592277e-01 -2.15341896e-03
 -1.66295514e-01 -9.67585444e-02  1.26525564e-02  8.30638558e-02
 -3.55200246e-02 -9.52587798e-02  1.50838524e-01  5.93839819e-03
 -2.32865244e-01  5.44360355e-02  8.22617766e-03  3.14664483e-01
  1.95214257e-01 -7.91318901e-03  7.08615780e-02 -1.00110449e-01
  1.27886757e-01 -1.68916509e-01  5.45716882e-02  7.57030547e-02
  8.00822154e-02  3.67045216e-02  5.37223406e-02 -1.37599871e-01
 -9.51325055e-03  1.19776748e-01 -1.97260156e-01  8.86777788e-03
  6.26159534e-02 -4.24889401e-02  3.36756743e-02 -7.88200572e-02
  2.20235422e-01  6.41071573e-02 -8.54569599e-02 -1.30051330e-01
  1.16636112e-01 -8.21654722e-02 -3.09239868e-02  2.80130040e-02
 -1.83300272e-01 -1.85250506e-01 -3.23924720e-01  3.23301740e-02
  3.68307382e-01  1.18461631e-01 -1.92827776e-01 -2.74148975e-02
 -8.82277712e-02 -6.15610322e-03  1.21374123e-01  1.14844635e-01
  2.67705116e-02  1.84972975e-02 -1.10900559e-01  6.82195425e-02
  2.28896976e-01 -7.24148080e-02 -2.78586391e-02  2.47554183e-01
  5.08681405e-03  3.96354869e-03  1.31907826e-02  9.78473015e-03
 -8.61021951e-02  5.99146187e-02 -1.48537755e-01 -1.72575023e-02
  4.23095785e-02 -7.56578371e-02  3.88761604e-04  1.53777346e-01
 -2.63225168e-01  7.78792724e-02  4.71480675e-02  2.38067117e-02
  2.98462100e-02 -3.70676182e-02 -1.16182223e-01 -5.06026149e-02
  1.35924906e-01 -2.48935625e-01  1.93807766e-01  2.25587368e-01
  7.66765252e-02  1.23091891e-01  4.35540080e-02 -4.28289138e-02
 -1.08725531e-02 -6.28274232e-02 -1.89233899e-01  8.00288469e-03
  1.00364529e-01  1.20122246e-02  7.94517994e-02  2.16266382e-02]