[-1.36309549e-01  1.52893305e-01  8.30449089e-02 -3.82214449e-02
 -7.55150691e-02 -7.09456652e-02 -2.20652875e-02 -1.30588993e-01
  1.03248455e-01 -7.97509104e-02  2.02885509e-01 -4.16476429e-02
 -2.12005839e-01 -1.63347900e-01 -9.29252431e-03  1.67264894e-01
 -2.23726198e-01 -1.14539579e-01 -3.31842597e-03  3.23656276e-02
  1.34109259e-01  1.87971760e-02  1.87707916e-02  3.11386772e-02
 -9.83169004e-02 -3.80853564e-01 -3.70739512e-02 -7.20913410e-02
  1.60873067e-02  7.24457204e-03 -1.00969695e-01  5.48377894e-02
 -2.01237202e-01 -1.05153397e-01  2.65621729e-02  1.15586497e-01
 -4.41940594e-03 -4.27409187e-02  1.53348312e-01 -1.78549197e-02
 -2.53123045e-01  3.28108780e-02  2.80499104e-02  2.69395322e-01
  2.27967411e-01  2.51527061e-03  4.90833484e-02 -1.12972021e-01
  1.71548188e-01 -1.75500512e-01  2.02855784e-02  1.15568243e-01
  8.85554105e-02  2.55059544e-02  1.91801284e-02 -1.82966456e-01
 -5.73019311e-03  7.94005319e-02 -1.33412585e-01 -1.67375840e-02
  4.25101332e-02 -1.29222929e-01  8.80484376e-03 -5.86690120e-02
  1.94241688e-01  2.69629247e-02 -8.15081820e-02 -1.72127530e-01
  1.56531855e-01 -1.09888248e-01 -6.97187334e-02  3.69853266e-02
 -1.68132111e-01 -1.36212066e-01 -3.58191013e-01  1.42512610e-02
  3.54432732e-01  8.89944211e-02 -2.05349788e-01  5.68110310e-02
 -8.73729140e-02  3.68840918e-02  1.60263658e-01  1.89568743e-01
  2.83346567e-02  7.29779229e-02 -1.16069652e-01  8.63267947e-03
  2.06715927e-01 -8.86608809e-02 -7.26297647e-02  2.21437976e-01
  2.46953014e-02  8.81607160e-02  4.72051464e-02 -1.88011173e-02
 -6.49676844e-02  4.93231080e-02 -1.76961005e-01 -1.79222580e-02
  6.39626235e-02 -5.62162958e-02 -4.96789835e-05  1.72105476e-01
 -1.93545058e-01  6.89039081e-02  1.90111753e-02  7.66230747e-02
  2.12745424e-02 -5.52691482e-02 -8.36029947e-02 -6.05793595e-02
  7.24411309e-02 -2.05651551e-01  2.27863058e-01  2.09674001e-01
  3.98340598e-02  1.36090726e-01  1.10242046e-01  1.76961345e-04
  2.70462986e-02 -2.67766919e-02 -1.86461002e-01 -1.69625487e-02
  1.37572169e-01  2.02664752e-02  8.11895505e-02  1.09075671e-02]