[-0.15923505  0.15548685  0.06619208 -0.03406443 -0.11867469 -0.07003015
 -0.02135365 -0.1161402   0.10514341 -0.06764286  0.18684207 -0.077741
 -0.21897648 -0.1494935  -0.00820222  0.19395085 -0.22662394 -0.09387745
 -0.00404794  0.01585642  0.1247458   0.01798447  0.0157416   0.02249646
 -0.0665122  -0.38938823 -0.03191872 -0.07841834  0.04055018 -0.04201756
 -0.10458795  0.03724638 -0.20331708 -0.11978793  0.01319457  0.10470003
 -0.04057568 -0.03850519  0.15315549  0.00065485 -0.22937725 -0.0078771
  0.03729596  0.26451525  0.22414885  0.04735014  0.02601598 -0.1057118
  0.1474185  -0.1813155   0.01533902  0.10991213  0.07989565  0.02474465
  0.03317175 -0.16861127 -0.00070796  0.06075258 -0.14942384  0.00834809
  0.07099584 -0.10711596  0.00081056 -0.06243597  0.22410409  0.00912349
 -0.0568653  -0.15344924  0.16418205 -0.11605217 -0.07527066  0.02289088
 -0.13197428 -0.15569639 -0.33713031  0.00349941  0.35089961  0.10461559
 -0.18544383  0.0329533  -0.07140087 -0.02129433  0.16405478  0.16124009
  0.02428393  0.04950909 -0.10913306 -0.00139207  0.20719469 -0.10587382
 -0.03791351  0.22733712  0.02076427  0.07683612  0.01956265 -0.04547012
 -0.07292487  0.06614594 -0.16039062 -0.05139233  0.07683954 -0.09340262
  0.00798524  0.15903379 -0.19825032  0.06870875  0.02400548  0.06216741
  0.0007334  -0.05594986 -0.12363221 -0.05646411  0.10684692 -0.1872828
  0.24138694  0.23546539  0.04324621  0.11838303  0.11057931  0.0098885
  0.04388326 -0.02445226 -0.18196531 -0.01582159  0.12881039 -0.00047856
  0.0650393   0.03221706]