[-0.15286535  0.14889731  0.07025196 -0.03287362 -0.11835265 -0.06656654
 -0.01598304 -0.11723896  0.10852581 -0.06742372  0.19959979 -0.08099024
 -0.21864806 -0.14922531 -0.00491775  0.19743818 -0.22791579 -0.09374952
 -0.00748506  0.01603375  0.12625128  0.01098489  0.00822865  0.02983776
 -0.06896245 -0.39039239 -0.02876441 -0.08022121  0.04387854 -0.04276142
 -0.10747045  0.03915375 -0.20912829 -0.11949786  0.01201051  0.10253751
 -0.03962599 -0.03694337  0.15338421 -0.00505685 -0.23682629  0.00410693
  0.03595114  0.25628003  0.22614005  0.05497478  0.025543   -0.11015367
  0.15160446 -0.17991684  0.01261986  0.11268443  0.08799216  0.02348571
  0.02506512 -0.1755434  -0.00952245  0.06163832 -0.144568    0.00299444
  0.07215115 -0.10761821  0.00768231 -0.06511782  0.22587287  0.00677027
 -0.06104403 -0.14627938  0.16238947 -0.11527725 -0.07181843  0.01901191
 -0.13595141 -0.15878059 -0.3357695   0.01055293  0.34680176  0.09960272
 -0.19615035  0.02950892 -0.07029913 -0.00930094  0.16838333  0.16517106
  0.02925843  0.0441457  -0.10878717 -0.00491044  0.20858765 -0.11158168
 -0.02379885  0.23146844  0.01934892  0.08043846  0.01249462 -0.04786603
 -0.0757328   0.07119058 -0.16042119 -0.04433214  0.06834736 -0.07341667
  0.01284437  0.155948   -0.19662742  0.06744742  0.02113298  0.06261312
  0.00161402 -0.05721886 -0.11617117 -0.06290404  0.1024588  -0.1854738
  0.24303181  0.23361459  0.04086347  0.11815958  0.11238626  0.01247277
  0.04446464 -0.02399355 -0.19030045 -0.00766798  0.14028989 -0.00828253
  0.0633124   0.02369003]