[-0.11477447  0.1933921   0.04490944 -0.01464368 -0.07072099 -0.0177333
 -0.00138042 -0.16781938  0.12948935 -0.06953224  0.28799888 -0.06509099
 -0.26739439 -0.16715065  0.06041334  0.17819189 -0.20174897 -0.14838706
 -0.05917111  0.01734005  0.07532723 -0.01163374  0.03131789  0.05976303
 -0.10249471 -0.43680793 -0.07370288 -0.11539783  0.06484639 -0.06698345
 -0.12142088 -0.01776247 -0.22071896 -0.13298438  0.01365629  0.04230608
 -0.01532445 -0.07064757  0.18874764  0.02174213 -0.21987167  0.02184805
  0.02577898  0.29839748  0.17182969  0.02829287  0.08011582 -0.08917861
  0.08015291 -0.13608184  0.07813036  0.1189183   0.14121705  0.01204647
  0.03529049 -0.20537336 -0.0414752   0.09144143 -0.19840018  0.05335709
  0.10730819 -0.07526461 -0.03249254 -0.07290204  0.2453125   0.06876717
 -0.07674686 -0.15623741  0.14548491 -0.09857678 -0.03090009  0.01117357
 -0.19546033 -0.17468293 -0.35606727  0.03447952  0.30860648  0.09659735
 -0.21753107 -0.00153133 -0.07316237  0.02417162  0.11285847  0.1357493
  0.00137111  0.05468775 -0.1055942   0.04741278  0.17511143 -0.05017462
 -0.03646628  0.24318217 -0.0330182  -0.01159682  0.03819665 -0.00733501
 -0.08623084 -0.00292243 -0.13213275 -0.01710749  0.03437814 -0.08102965
  0.00279289  0.14162773 -0.23164344  0.03697053  0.00773916  0.02313681
 -0.00370299 -0.04751038 -0.10546694 -0.0830993   0.12667502 -0.24027133
  0.22450395  0.23954828  0.03955096  0.10180719  0.05128787  0.00909704
  0.0060215  -0.01416993 -0.21421586 -0.01972886  0.1098786  -0.0247475
  0.08314876  0.01463886]