[-0.12324363  0.17105529  0.08808877 -0.04417892 -0.0773343  -0.02899786
 -0.03139619 -0.12017212  0.16590391 -0.07125276  0.24421524 -0.04170672
 -0.21077983 -0.1725636   0.07120018  0.14801678 -0.23159972 -0.05892506
 -0.01646546  0.05750645  0.09403135  0.00257826  0.06166028  0.0367781
 -0.1167803  -0.42313606 -0.09437189 -0.14724182  0.00115362 -0.08155169
 -0.06539231 -0.01290809 -0.13800962 -0.10696109 -0.01829865  0.02069577
 -0.00595273 -0.05666727  0.13655987 -0.00326625 -0.22723185  0.00190335
  0.01065782  0.2384233   0.198301    0.00722543  0.06612355 -0.10492571
  0.12850313 -0.10834713  0.04297652  0.07646291  0.08497551 -0.00187927
  0.11804545 -0.133007   -0.00286831  0.08806245 -0.19460003  0.02982395
  0.09990197 -0.03009987 -0.01055653 -0.02770048  0.19101602  0.07883112
 -0.05954131 -0.16999072  0.13505299 -0.08946794 -0.0572844   0.05857457
 -0.17215678 -0.18264206 -0.29739687 -0.01918601  0.32415614  0.11494469
 -0.23148814 -0.02213206 -0.10483737 -0.01551791  0.13816297  0.12905239
  0.01515881  0.04946378 -0.09538058  0.01432913  0.15288159 -0.03420946
 -0.02645106  0.25111452  0.01465358  0.00157081  0.03790703 -0.05882766
 -0.08219545  0.04470906 -0.16012028 -0.05794249  0.05486853 -0.07160784
 -0.00690885  0.11541045 -0.22473653  0.09410014  0.05475084  0.02663714
 -0.00088195 -0.02866177 -0.1121363  -0.01519592  0.1460592  -0.2279322
  0.19141744  0.17687303  0.05614662  0.10310455  0.03596727  0.02008793
 -0.02070916 -0.04009397 -0.16403307  0.00844592  0.08781194 -0.02058559
  0.09114121 -0.00497902]