[-0.13721071  0.18275851  0.09879764 -0.01639102 -0.05567688 -0.03799634
 -0.0249765  -0.16292317  0.10795398 -0.06156404  0.29892346 -0.04891247
 -0.25167373 -0.15484636  0.04976159  0.16654064 -0.21007328 -0.11483609
 -0.03464553  0.0451427   0.09718364 -0.00513575  0.03779274  0.03686897
 -0.10089575 -0.4043265  -0.07748302 -0.1180016   0.05791906 -0.05531039
 -0.11165553 -0.04670778 -0.21303491 -0.1285098  -0.00925299  0.0384002
 -0.01273056 -0.06152691  0.16859588  0.00611135 -0.21936655  0.02836266
  0.02723618  0.28261003  0.18621162  0.04323276  0.06873768 -0.07778664
  0.07430276 -0.17302066  0.07520051  0.09379111  0.15782367  0.0225117
  0.04583896 -0.20838121 -0.03270554  0.07702259 -0.18612181  0.06135985
  0.10445841 -0.03373232  0.00149545 -0.05311124  0.24451302  0.06595604
 -0.09537793 -0.13458519  0.11274755 -0.09068372 -0.03901508  0.02645973
 -0.19515912 -0.18246718 -0.35205579  0.04038809  0.30126849  0.09971138
 -0.22872634 -0.01725911 -0.08180758  0.03053201  0.10941046  0.11948761
  0.01692871  0.05814436 -0.10502812  0.02647446  0.16503905 -0.06968464
 -0.02820018  0.26002306 -0.0166834   0.00261372  0.015753   -0.00243182
 -0.06878789  0.01223301 -0.13690108 -0.00993225  0.03451214 -0.04835523
  0.01190666  0.1473629  -0.22355974  0.0453148   0.01291419  0.02767942
  0.00417637 -0.03371529 -0.11227015 -0.08299687  0.116212   -0.22930561
  0.22430947  0.24896696  0.03226564  0.08573637  0.05865583  0.00137626
  0.01352697  0.01149139 -0.18846004 -0.01596402  0.10535426 -0.03539381
  0.07371721  0.01841592]