[-1.01439536e-01  1.58440396e-01  7.95641541e-02 -4.08792756e-02
 -6.99426159e-02 -2.24425457e-04 -3.72559689e-02 -1.31818146e-01
  1.65660322e-01 -9.26999748e-02  2.43062004e-01 -5.56902774e-02
 -2.00128227e-01 -1.38263807e-01  4.99732792e-02  1.57476872e-01
 -2.43955716e-01 -6.83041960e-02 -1.93439536e-02  5.72147481e-02
  7.54078254e-02  1.04514537e-02  4.44227159e-02  2.83216722e-02
 -1.29766256e-01 -3.93306494e-01 -9.24169123e-02 -1.35019496e-01
 -1.20575186e-02 -8.13852102e-02 -8.52714106e-02 -1.73452795e-02
 -1.59532696e-01 -1.00038864e-01 -1.93730742e-02  4.37032841e-02
 -1.19912885e-02 -5.09425774e-02  1.31940648e-01 -9.93228238e-03
 -2.26828560e-01  5.02850413e-02  2.27863546e-02  2.45405868e-01
  1.86225668e-01  2.33428460e-02  2.88098045e-02 -1.20293431e-01
  1.21382408e-01 -1.06196702e-01  5.19176126e-02  7.34845921e-02
  6.43230677e-02  1.56939924e-02  7.32236430e-02 -1.30915329e-01
 -1.01771746e-02  8.79806206e-02 -1.65562734e-01  4.13726903e-02
  1.15061417e-01 -2.77917217e-02  1.05282990e-02 -3.67386974e-02
  1.90329328e-01  8.02669451e-02 -5.79795614e-02 -1.83864191e-01
  1.07490771e-01 -1.02677189e-01 -7.69650713e-02  4.91936952e-02
 -1.65840119e-01 -1.83288470e-01 -3.06078851e-01 -1.79693382e-02
  3.38115513e-01  9.99906287e-02 -2.35181436e-01 -2.33377255e-02
 -7.79486001e-02 -2.34118197e-02  1.74671665e-01  1.48164213e-01
  4.52912785e-02  4.25053202e-02 -9.13737416e-02  1.61536708e-02
  2.00216323e-01 -4.11916971e-02 -3.89118977e-02  2.43487239e-01
  8.49022996e-03  6.79448340e-03  3.30173336e-02 -4.62778732e-02
 -7.18979165e-02  5.66188395e-02 -1.77457184e-01 -4.37057354e-02
  3.68578546e-02 -4.81454395e-02 -2.78507303e-02  1.29987642e-01
 -2.03921795e-01  1.08512007e-01  6.02775589e-02  2.65091062e-02
  1.77616756e-02 -6.40006829e-03 -1.19545810e-01 -3.20954435e-02
  1.61052808e-01 -2.28730589e-01  1.96485713e-01  1.81428477e-01
  6.65317699e-02  9.13579836e-02  4.98398654e-02  3.94806564e-02
 -1.70718171e-02 -1.81736052e-03 -2.04880267e-01  3.98969976e-03
  9.11101922e-02 -1.76810380e-02  1.08907118e-01  7.11508421e-03]