[-1.05950356e-01  1.47374868e-01  8.39959607e-02 -3.40321660e-02
 -3.57847139e-02 -1.84861887e-02  2.18074899e-02 -9.69734713e-02
  1.24229386e-01 -5.01053520e-02  2.68845260e-01 -7.24888667e-02
 -2.27947667e-01 -1.30773038e-01  4.12282608e-02  1.64582565e-01
 -1.76897362e-01 -5.92442714e-02 -3.03862374e-02 -6.67812256e-03
  5.75570725e-02  3.93367698e-03 -1.19551383e-02  6.48066476e-02
 -1.06615722e-01 -3.15692186e-01 -6.55014217e-02 -1.10794798e-01
  6.51612738e-03 -7.13882670e-02 -6.19791709e-02  5.37879132e-02
 -1.52510375e-01 -6.23566173e-02 -9.76026087e-08  6.81247339e-02
 -1.01897484e-02 -7.22454712e-02  1.41593993e-01  1.75085273e-02
 -1.54906839e-01 -5.01775146e-02  2.97921002e-02  2.61795372e-01
  1.61198124e-01 -5.38969738e-03  2.67895460e-02 -1.08944047e-02
  8.60580429e-02 -1.76362380e-01  4.29752190e-03  8.08827430e-02
  1.18340589e-01  3.01436316e-02  6.90399557e-02 -1.65287942e-01
 -3.51345018e-02  5.68067916e-02 -1.54226586e-01 -9.44789406e-03
  2.01119296e-02 -5.58830276e-02 -3.86603288e-02 -8.70180055e-02
  2.23293409e-01  9.53838080e-02 -8.71609375e-02 -1.12192981e-01
  1.87760070e-01 -8.48334208e-02 -6.96303025e-02  2.18257941e-02
 -1.42740533e-01 -1.31965399e-01 -2.69449115e-01  1.61990914e-02
  2.98974484e-01  9.52926800e-02 -2.14098170e-01  2.92795757e-03
 -1.07979119e-01 -1.87506713e-02  5.69372773e-02  6.69240728e-02
  8.84139910e-04  6.28595203e-02 -7.38732442e-02 -3.44328140e-03
  1.82313249e-01 -5.77330664e-02 -7.42807379e-03  2.10838661e-01
 -2.90562864e-02 -2.07343325e-02  1.89296808e-02 -8.41310620e-02
 -2.61106286e-02  1.98086239e-02 -1.36993095e-01 -3.43105607e-02
  4.13640477e-02 -1.29146799e-01 -1.35894064e-02  1.26225084e-01
 -2.73236603e-01  8.17484632e-02  7.18941167e-02  2.49251537e-03
  1.65659618e-02  1.49662541e-02 -1.52406022e-01 -7.75715429e-03
  1.72523379e-01 -2.46562153e-01  1.88990176e-01  1.77772552e-01
  2.27504186e-02  8.99490044e-02  4.72191535e-02  4.87504415e-02
 -1.30851753e-03 -4.80009690e-02 -1.45903260e-01 -6.79738745e-02
  9.87873599e-02 -3.01875062e-02  2.09696852e-02  1.87774003e-02]