[-0.10085719  0.14676729  0.08237725 -0.04469965 -0.04789281  0.00475076
 -0.03859713 -0.11122303  0.19386332 -0.10085138  0.27386892 -0.04746487
 -0.19527109 -0.14502482  0.03332479  0.16681598 -0.22658344 -0.06706244
 -0.03010752  0.0073607   0.09099569 -0.00868266  0.01729568  0.01919771
 -0.16444233 -0.37603256 -0.09652811 -0.16172011 -0.00377919 -0.10448977
 -0.08982326 -0.01404513 -0.15020612 -0.08919811 -0.0409618   0.0134337
  0.00068489 -0.02153196  0.13365398  0.01937463 -0.2160739   0.05129377
  0.012005    0.2500529   0.20125039  0.01703978  0.02347095 -0.0916579
  0.11323787 -0.10819804  0.02577995  0.08089455  0.0842688   0.0304785
  0.07911208 -0.13475019 -0.0174111   0.06361935 -0.18089756  0.03853035
  0.09132017 -0.03849125 -0.01332419 -0.01403973  0.18640539  0.0869303
 -0.05432032 -0.17668013  0.13918327 -0.10440453 -0.04715707  0.05355955
 -0.17264883 -0.18344443 -0.29948029 -0.0138588   0.35195392  0.11561008
 -0.24000077 -0.00720657 -0.10390005 -0.02585648  0.1578242   0.10040484
  0.02203966  0.06889257 -0.08489635  0.01232178  0.17862928 -0.03641339
 -0.02327586  0.24719985  0.00570153  0.01106792  0.04153002 -0.05579653
 -0.08507731  0.0235421  -0.1718688  -0.07180869  0.01183345 -0.06331044
 -0.01183933  0.10570621 -0.21101241  0.12331741  0.0692609   0.02411497
 -0.02749323  0.03627345 -0.11149994 -0.02542432  0.17224082 -0.21570642
  0.17338079  0.192663    0.07698029  0.0898406   0.06305515  0.02476895
 -0.04709702 -0.00615824 -0.18290077  0.01026809  0.06031159 -0.03308163
  0.10918792  0.01022884]