[-1.57976583e-01  1.59904167e-01  7.81618282e-02 -1.87664386e-02
 -1.14114754e-01 -6.36162162e-02 -1.71720590e-02 -1.07090607e-01
  1.15140438e-01 -6.94477186e-02  1.99261263e-01 -6.92262501e-02
 -2.19982147e-01 -1.58378646e-01 -4.62066382e-04  2.00693280e-01
 -2.22976133e-01 -9.08923000e-02 -1.44501152e-02  8.94863624e-03
  1.34505540e-01  2.71608960e-02  2.65557468e-02  3.26022245e-02
 -7.27109239e-02 -4.05104727e-01 -1.90191157e-02 -7.49134421e-02
  3.95762622e-02 -3.62555794e-02 -1.15106992e-01  4.12842333e-02
 -2.00124577e-01 -1.19097017e-01  2.04308536e-02  9.94482934e-02
 -4.05215025e-02 -2.77287494e-02  1.43430948e-01 -3.71432863e-03
 -2.38120750e-01 -7.81143829e-03  4.84680161e-02  2.65408367e-01
  2.22494006e-01  5.24097048e-02  2.33849771e-02 -1.13711707e-01
  1.40459508e-01 -1.86255500e-01  9.69537359e-04  1.09152995e-01
  8.44539180e-02  2.50874553e-02  4.58289944e-02 -1.80133894e-01
  8.21854919e-05  5.91662191e-02 -1.58077881e-01  1.14615662e-02
  5.92743829e-02 -1.25774100e-01  5.31262532e-03 -6.16069697e-02
  2.27822348e-01  1.07413428e-02 -6.40145913e-02 -1.49805307e-01
  1.48526624e-01 -1.17386617e-01 -6.22849166e-02  3.99386846e-02
 -1.26186118e-01 -1.65610686e-01 -3.51939231e-01 -7.25291017e-03
  3.54444414e-01  1.07913159e-01 -1.96174130e-01  2.01745722e-02
 -6.57276884e-02 -7.49819865e-03  1.71451315e-01  1.67626068e-01
  1.01200761e-02  4.51487564e-02 -1.20812275e-01  3.13183176e-03
  1.93879917e-01 -1.00227915e-01 -3.55736539e-02  2.33494282e-01
  2.69483682e-02  7.93019161e-02  1.62889604e-02 -3.41848284e-02
 -8.94201472e-02  6.25805035e-02 -1.70926496e-01 -4.97769825e-02
  5.89040518e-02 -8.66504386e-02  1.56991463e-02  1.42792508e-01
 -1.98058084e-01  5.77021614e-02  2.31778529e-02  5.19053638e-02
 -4.80534835e-03 -5.73869720e-02 -1.23130061e-01 -5.32878228e-02
  9.36853886e-02 -1.98356062e-01  2.37815902e-01  2.40021944e-01
  5.15522733e-02  1.33434579e-01  1.05231665e-01  4.11884580e-03
  2.86146533e-02 -3.67950276e-02 -1.66848466e-01 -4.73741582e-03
  1.30485684e-01 -2.00182907e-02  7.43467808e-02  1.80940032e-02]