[-0.12375068  0.14590804  0.08680891 -0.0289086  -0.06295474 -0.0484963
  0.02662091 -0.13497642  0.12298615 -0.04677992  0.24527167 -0.07293945
 -0.23815897 -0.14879194  0.05437738  0.18441606 -0.2155652  -0.07777014
 -0.00689399 -0.01320414  0.08225011  0.00872791 -0.00763339  0.06748436
 -0.11728885 -0.33922437 -0.07696768 -0.12291151  0.00492785 -0.038911
 -0.07929168  0.05776323 -0.17169066 -0.09829698  0.02640799  0.06361108
 -0.00545277 -0.07792135  0.13788661  0.00871057 -0.17598246 -0.04935235
  0.05652941  0.23471788  0.15319358 -0.01614885  0.03648052 -0.03438964
  0.09977902 -0.16835211 -0.02267461  0.09531024  0.0826439   0.03276229
  0.06582079 -0.19344567 -0.02350782  0.06898662 -0.17918418  0.01063988
  0.02206111 -0.08793791 -0.0336499  -0.05809978  0.1999957   0.07629943
 -0.07497587 -0.1414603   0.18303795 -0.08971631 -0.07876542  0.01354836
 -0.15671775 -0.15686332 -0.318331   -0.00847293  0.32059285  0.09433205
 -0.21583922  0.02653757 -0.1112887  -0.0154939   0.09619687  0.10147019
  0.03377876  0.07845222 -0.09018124  0.00083818  0.17213203 -0.06140272
 -0.00725163  0.24730721 -0.02534928  0.02759114  0.02679886 -0.05669224
 -0.04506146  0.01395347 -0.15461375 -0.04430019  0.04425877 -0.10959754
 -0.00259387  0.14229344 -0.26113743  0.05127708  0.07412767  0.01356062
 -0.02906675 -0.01270581 -0.14540625 -0.00846101  0.14619222 -0.2474819
  0.20864482  0.218208    0.00393762  0.10414662  0.05339593 -0.00106889
  0.00542488 -0.07544265 -0.15651898 -0.04767999  0.10628407 -0.02711409
  0.01159102  0.01677499]