[-0.13439858  0.1576471   0.08524165 -0.03558745 -0.06552394 -0.07776355
 -0.02021961 -0.13397664  0.10141336 -0.0834408   0.2083174  -0.04427861
 -0.20985861 -0.16676202  0.01366459  0.1614648  -0.22637653 -0.1048041
 -0.0065891   0.03053968  0.13247631  0.03016003  0.02935108  0.0349451
 -0.08833482 -0.38924316 -0.03708692 -0.0675225   0.02923793  0.00626859
 -0.10426839  0.04886764 -0.19711106 -0.10412008  0.02169631  0.12112156
  0.00239344 -0.04891966  0.15674071 -0.0053575  -0.24566773  0.04676864
  0.00501108  0.2744219   0.23554218 -0.00818263  0.04888136 -0.1165212
  0.174731   -0.16542944  0.02241956  0.11209672  0.08591611  0.01631464
  0.02044748 -0.17622501 -0.0110444   0.06458018 -0.13678515 -0.01884609
  0.05480979 -0.1246264   0.01308476 -0.06567032  0.17906025  0.02398359
 -0.07811698 -0.16551141  0.14577581 -0.10977691 -0.06635236  0.03479021
 -0.17291336 -0.12724186 -0.3529101   0.01968839  0.36221868  0.08278982
 -0.21041881  0.04652844 -0.08289316  0.03171868  0.16778202  0.19071676
  0.02803668  0.06640575 -0.11218908  0.02214969  0.1999723  -0.07941373
 -0.08027446  0.22479203  0.0229128   0.09602161  0.05772728 -0.01992463
 -0.05644302  0.0494481  -0.16922973 -0.00771306  0.0607967  -0.07935081
  0.00086471  0.16701452 -0.19541688  0.07890786  0.02431512  0.07920431
  0.03445053 -0.04286713 -0.08922555 -0.05569082  0.0766782  -0.20509647
  0.22546354  0.21273747  0.03864067  0.13578276  0.09416883  0.01550016
  0.01639909 -0.01469371 -0.18216665 -0.0173512   0.12394663  0.03383706
  0.08552944  0.01422149]