[-0.12580431  0.17376362  0.07076284 -0.00695758 -0.03775324 -0.01717099
 -0.0089403  -0.14682698  0.10826369 -0.0631948   0.30455354 -0.07093308
 -0.25325483 -0.15578316  0.02856675  0.17678118 -0.21861625 -0.11329237
 -0.05093556  0.0500258   0.08490664 -0.0305431   0.01226512  0.04048207
 -0.11204797 -0.37808499 -0.0751429  -0.1139869   0.04296279 -0.05674874
 -0.11568131 -0.05101609 -0.20327897 -0.1287834  -0.00402628  0.03068661
 -0.01552785 -0.05959288  0.17553526 -0.02080313 -0.22170317  0.03237126
  0.04146465  0.29294547  0.17763916  0.0445196   0.05102418 -0.07975171
  0.08936859 -0.16246481  0.07381511  0.08773829  0.15731061  0.04042264
  0.03132872 -0.19755027 -0.02947379  0.11146762 -0.16781585  0.05245247
  0.08771405 -0.04629763  0.01865399 -0.05832299  0.23940849  0.05499693
 -0.09799368 -0.14275995  0.12391221 -0.09058816 -0.02854495  0.03065421
 -0.1744139  -0.19015323 -0.36057505  0.0317117   0.31496409  0.10184993
 -0.22303887 -0.01105795 -0.07570966  0.01728599  0.12790965  0.12594435
  0.01782415  0.05780814 -0.10791885  0.01468383  0.1917253  -0.06365047
 -0.03355775  0.2383993  -0.01898255 -0.0219726   0.02234009 -0.00573938
 -0.06313407  0.01935074 -0.13076754  0.00118972  0.03065779 -0.06269286
  0.00375136  0.13597548 -0.22081338  0.05460706  0.02727032  0.04650087
  0.00572888 -0.02843768 -0.10423378 -0.06542667  0.12752341 -0.24990061
  0.21431692  0.22657852  0.04531464  0.08836498  0.06066802  0.00808083
  0.00492668  0.00502521 -0.20643277 -0.02008039  0.11033791 -0.03316259
  0.10785016  0.02321431]