[-0.13941538  0.13901156  0.0462904  -0.03459805 -0.0321586  -0.05864537
 -0.03593009 -0.09664151  0.14944629 -0.09428126  0.28151059 -0.0266178
 -0.20387755 -0.14703625 -0.01374572  0.18296139 -0.17245165 -0.13140599
 -0.04094586 -0.00068451  0.09112298  0.01617087 -0.03405667  0.03774785
 -0.14648764 -0.37109527 -0.07686978 -0.12915802  0.02617396 -0.0965971
 -0.07731447 -0.0128466  -0.20236674 -0.10832649 -0.02420048  0.08477635
  0.00438329 -0.00641408  0.14188239  0.10381599 -0.22322802  0.02606044
 -0.00844959  0.3339645   0.18507521  0.04558785  0.04735814 -0.05445087
  0.0587672  -0.20584129  0.05392919  0.09196455  0.11352702  0.03447154
  0.06083512 -0.17787462 -0.01984563  0.09042834 -0.219365    0.04602727
  0.05634486 -0.02062816 -0.02744714 -0.02174939  0.23976694  0.09820404
 -0.08352452 -0.10487761  0.21292393 -0.12676506 -0.03874968  0.02677714
 -0.12997884 -0.18495058 -0.33076766  0.0565994   0.34792918  0.13294318
 -0.20214167  0.02431113 -0.0733588   0.01140691  0.12348755  0.06993803
 -0.00286319  0.08320977 -0.0819375   0.01163729  0.16380188  0.0015873
 -0.01399724  0.22424415 -0.02806042 -0.01037876  0.064848    0.00218959
 -0.07712722 -0.00773337 -0.13188006 -0.05837286  0.04704586 -0.09664706
  0.00386567  0.14698602 -0.2056369   0.09482431  0.0202922   0.00275201
 -0.01641866  0.05606173 -0.08234488 -0.06802197  0.13806589 -0.20227309
  0.22107764  0.23709612  0.0067184   0.10262127  0.07908239  0.01657496
 -0.02762709 -0.02514761 -0.19866234 -0.04473593  0.04112565 -0.04569669
  0.07618894  0.02469675]