[-0.07171332  0.16375965  0.06821045 -0.00434666 -0.02384313 -0.02371515
 -0.00228397 -0.11190967  0.21138337 -0.12562995  0.29377118 -0.04300894
 -0.22149472 -0.12195321  0.00277029  0.13735817 -0.21755309 -0.04269991
 -0.08706751  0.01193164  0.08292826  0.01006395  0.06160156  0.03921164
 -0.12988736 -0.35674676 -0.08716544 -0.11667694  0.04542953 -0.09319674
 -0.1095212  -0.04978623 -0.15836842 -0.12328447 -0.03863955 -0.0140539
  0.0006194  -0.0300779   0.14303412 -0.00073112 -0.2156353  -0.00598603
 -0.008049    0.26763406  0.17319219  0.02666374  0.01549582 -0.12908652
  0.11369115 -0.15656529  0.03633238  0.06195518  0.07902294  0.03420063
  0.07328482 -0.14389384 -0.04074088  0.12655286 -0.16242814  0.03801524
  0.08751848 -0.04110505 -0.02338995 -0.05877728  0.18442677  0.09120995
 -0.08611294 -0.18390439  0.10310548 -0.15097418 -0.03256568  0.07924512
 -0.09394779 -0.18073086 -0.31804654 -0.03121916  0.36955246  0.13498293
 -0.19836871 -0.0232976  -0.12541224 -0.01809839  0.15464291  0.10047282
 -0.00911231  0.09498832 -0.09744184  0.01741667  0.15844023 -0.03977434
 -0.04529515  0.23528342 -0.01827072  0.02038329  0.03426803 -0.02459464
 -0.12327074  0.04717926 -0.15346526 -0.01110935  0.02860529 -0.06114313
 -0.00391567  0.06649727 -0.19421385  0.1355087   0.04834158  0.02328791
  0.03856368 -0.00866892 -0.11433863 -0.02685508  0.16456527 -0.2675916
  0.17323607  0.17048998  0.07086056  0.13386217  0.04912461  0.03775285
 -0.03926861 -0.00431422 -0.18584482 -0.00973688  0.06849355 -0.06910603
  0.12522687 -0.02883651]