[-0.11412918  0.17621292  0.07520082 -0.0222072  -0.06631929 -0.01797547
 -0.0168295  -0.15430115  0.11054418 -0.07137983  0.29616636 -0.03993156
 -0.25117421 -0.16204895  0.05480747  0.15734702 -0.2135886  -0.13647704
 -0.04545135  0.01700799  0.09806954  0.00563383  0.01859351  0.02032965
 -0.12958835 -0.37399778 -0.06291739 -0.11148739  0.05088326 -0.05899028
 -0.07988711 -0.02754619 -0.21173112 -0.1288517   0.01886797  0.05007956
 -0.03130275 -0.05706464  0.17434452 -0.01236417 -0.21954434  0.02234311
  0.04480049  0.28526577  0.18302186  0.03911395  0.05040686 -0.08218437
  0.07642959 -0.17325217  0.07179971  0.102388    0.1527468   0.05273753
  0.0566474  -0.21363929 -0.02068244  0.09003529 -0.17847595  0.03197038
  0.0703284  -0.06192464  0.0252168  -0.05309153  0.23834597  0.0539192
 -0.07322676 -0.13607125  0.12948012 -0.08998657 -0.06865864  0.04012511
 -0.17952424 -0.1691173  -0.35883304  0.00877556  0.30672699  0.09869297
 -0.22529502 -0.00845998 -0.05591453  0.02661393  0.12085368  0.11089219
  0.00841433  0.05596158 -0.09090206  0.03448572  0.18880664 -0.07343911
 -0.05098758  0.23236004 -0.00779392 -0.00845459  0.05040192 -0.0127671
 -0.04875455  0.00993052 -0.14898461 -0.01778558  0.0310927  -0.05981975
  0.01293673  0.15194646 -0.22460051  0.05418545  0.02842506  0.0175981
 -0.02040584 -0.03446271 -0.09511739 -0.05540649  0.12387177 -0.25163889
  0.24757038  0.24412504  0.01862038  0.10867629  0.05144584 -0.00738465
 -0.00259492 -0.01417882 -0.1834681  -0.03565395  0.09897804 -0.01587627
  0.09902872  0.02318105]