[-1.24060653e-01  1.47258148e-01  9.47945267e-02 -3.00846994e-02
 -4.41002846e-02 -5.04260324e-02  2.52128746e-02 -1.33702457e-01
  1.34719655e-01 -5.40343225e-02  2.46613190e-01 -6.64480552e-02
 -2.19213173e-01 -1.61917776e-01  5.01904190e-02  1.78141519e-01
 -2.23316342e-01 -9.73272249e-02 -1.20791635e-02  2.17348716e-04
  9.10029784e-02  2.12857290e-03 -1.52697358e-02  6.55426756e-02
 -1.20405100e-01 -3.38335723e-01 -9.02996585e-02 -1.19831719e-01
  2.45640147e-02 -5.57312481e-02 -6.16241470e-02  2.49620695e-02
 -1.79269418e-01 -1.00651599e-01  1.36904242e-02  5.69720641e-02
  1.40796667e-02 -8.88398662e-02  1.24073744e-01  1.93137676e-04
 -1.80359706e-01 -4.06337567e-02  4.51969020e-02  2.42797121e-01
  1.41667351e-01  1.58529810e-03  3.77895832e-02 -3.28638852e-02
  8.39432701e-02 -1.58739433e-01 -2.46770680e-03  8.32503214e-02
  9.24172327e-02  2.33372096e-02  6.70633242e-02 -1.89020500e-01
 -2.55963989e-02  7.61298165e-02 -1.71068102e-01  1.38896676e-02
  3.16134542e-02 -6.83154762e-02 -2.59243846e-02 -4.95371893e-02
  2.02067167e-01  7.00276792e-02 -7.80905783e-02 -1.39560416e-01
  1.80889919e-01 -9.39642787e-02 -7.05430955e-02  2.66570342e-03
 -1.47080898e-01 -1.40977785e-01 -3.19009036e-01 -1.65026716e-03
  3.26617986e-01  8.37832838e-02 -2.22831294e-01  2.29894277e-02
 -1.11391544e-01  5.46570076e-03  9.01808366e-02  1.04976498e-01
  2.19400693e-02  8.20675120e-02 -9.55706760e-02 -3.53920646e-03
  1.70152381e-01 -4.31836359e-02 -2.92082340e-03  2.34013706e-01
 -2.43784022e-02  2.25210373e-04  2.32027434e-02 -7.20691010e-02
 -3.80212702e-02  1.94740947e-02 -1.34254351e-01 -3.33658829e-02
  4.66982648e-02 -8.36560428e-02 -1.38548380e-02  1.53575778e-01
 -2.53656834e-01  5.12493439e-02  7.71579370e-02  3.84092750e-03
 -1.28904050e-02  5.73850004e-03 -1.43453702e-01 -3.37545127e-02
  1.40154973e-01 -2.45434552e-01  1.93074465e-01  2.24576816e-01
  1.11293392e-02  9.91012380e-02  4.61613983e-02  1.77240949e-02
  1.07531045e-02 -5.33900037e-02 -1.61539495e-01 -4.32402492e-02
  1.00492515e-01 -4.20256816e-02  1.56931188e-02  1.40161691e-02]