[-0.12180535  0.13082416  0.08359013 -0.04685295 -0.05321066 -0.00806035
 -0.02587988 -0.1083187   0.18402745 -0.10230207  0.2654036  -0.04822512
 -0.18359576 -0.13543728  0.02746197  0.17226054 -0.24417308 -0.06172989
 -0.02450898  0.02823725  0.06978386 -0.0073293   0.01820225  0.03697953
 -0.13319515 -0.38815805 -0.10046049 -0.16014913 -0.00947162 -0.08489782
 -0.08097982 -0.01703881 -0.15880065 -0.09068707 -0.03576257  0.02052234
 -0.00314935 -0.01668967  0.13658002  0.01409562 -0.2181733   0.03946368
  0.01433172  0.26341638  0.19588973  0.02208985  0.02429738 -0.09068305
  0.10735786 -0.09577313  0.01889483  0.0709264   0.0788241   0.01622742
  0.06327002 -0.13440512 -0.01720208  0.0664153  -0.16947626  0.03310269
  0.09498019 -0.04847747 -0.01634617 -0.0226262   0.20272027  0.07498866
 -0.06422553 -0.18082589  0.14155708 -0.10733652 -0.04336334  0.04089973
 -0.17084874 -0.17968792 -0.30091351 -0.01608928  0.34917364  0.1049451
 -0.22975107 -0.00110536 -0.10796819 -0.02042626  0.15592407  0.1273199
  0.02893325  0.07837944 -0.08327542  0.0085661   0.16515432 -0.03300527
 -0.01925313  0.22468007 -0.0044212  -0.00189737  0.04075676 -0.06679535
 -0.08130316  0.03362748 -0.17668276 -0.06132489  0.00858403 -0.05869633
 -0.00894855  0.10270929 -0.21229616  0.12170643  0.06654479  0.02213013
 -0.01741858  0.02959036 -0.11582073 -0.02968559  0.17002855 -0.21643813
  0.18078417  0.18906353  0.07028869  0.10271993  0.06151816  0.03516959
 -0.05594322  0.00651034 -0.19435285  0.01553376  0.0687108  -0.03251788
  0.12772654  0.0042043 ]