[-1.61977559e-01  1.42669067e-01  8.35066736e-02 -4.43097986e-02
 -9.88399610e-02 -7.74975345e-02 -5.46210073e-02 -1.38080612e-01
  1.52920946e-01 -3.47370766e-02  2.38808036e-01 -3.35834436e-02
 -1.73247159e-01 -1.42531127e-01  6.66160835e-03  1.49923950e-01
 -2.06200004e-01 -9.74785760e-02  1.20649701e-02  2.65832543e-02
  9.33928341e-02 -1.21746855e-02  8.33785310e-02  7.35143945e-02
 -1.41562924e-01 -3.62125486e-01 -1.06788240e-01 -1.55347973e-01
  2.96125542e-02 -2.30242964e-02 -1.11056678e-01 -4.83493833e-03
 -1.78847775e-01 -1.36304483e-01  1.47769926e-02  1.18414536e-01
  1.70192870e-04 -4.59209792e-02  1.45644099e-01  3.50862741e-03
 -2.09962279e-01 -1.28471374e-03  1.26337935e-03  2.80128777e-01
  2.34258249e-01  2.38055717e-02  6.25786111e-02 -1.15440123e-01
  1.15189113e-01 -1.68094322e-01  7.99709186e-02  1.01563431e-01
  7.78048560e-02 -4.41022450e-03  8.75918493e-02 -1.36701897e-01
  1.79008748e-02  1.19694784e-01 -1.77689478e-01  5.17673371e-03
  5.90630546e-02 -1.26201985e-02  2.22760737e-02 -5.63276969e-02
  2.19518170e-01  8.12028274e-02 -7.30124041e-02 -8.40096101e-02
  1.44954190e-01 -1.02706708e-01 -3.06743570e-02  4.42677848e-02
 -1.71141654e-01 -1.93962917e-01 -3.32768291e-01  2.30369391e-03
  4.00124758e-01  1.14535287e-01 -2.15817332e-01  2.67986692e-02
 -9.33700427e-02 -1.59543343e-02  1.27255216e-01  1.21122263e-01
 -1.08712269e-02  8.47127140e-02 -1.18727885e-01  1.97641943e-02
  1.74306259e-01 -7.66793936e-02  2.68242545e-02  2.54457653e-01
  1.75827760e-02  2.88239866e-02  7.61436746e-02  9.93685704e-03
 -6.49634525e-02  2.68203299e-02 -1.69187650e-01 -3.58757824e-02
  3.72534730e-02 -7.58970603e-02 -2.06673890e-03  1.03952587e-01
 -2.45878339e-01  2.67362949e-02  5.34616672e-02 -1.48696695e-02
 -3.39296460e-02 -7.54613355e-02 -8.52168798e-02 -7.49645308e-02
  1.57377347e-01 -2.19938383e-01  1.52837515e-01  2.15283021e-01
  7.79377902e-03  1.52058870e-01  4.88058329e-02  1.98464636e-02
 -1.97732672e-02 -5.33471070e-02 -1.19824491e-01  3.44145112e-02
  9.06512514e-02 -2.46140696e-02  6.01676293e-02  2.73009222e-02]