[-0.12513     0.10877514  0.10429879 -0.09371867 -0.14826563 -0.06490486
 -0.08882926 -0.13032745  0.14103799 -0.12928915  0.16403502 -0.0449565
 -0.21636029 -0.04993366 -0.05167416  0.23845401 -0.15354176 -0.2023458
 -0.06557505  0.00625915  0.0225776   0.0015648   0.04177749  0.02455818
 -0.14107065 -0.34523281 -0.0545051  -0.02402488 -0.00493749 -0.04904136
 -0.09501582  0.0474159  -0.22166176 -0.0564082   0.04371525  0.1040129
 -0.02878952 -0.09601449  0.15388514 -0.00624918 -0.31154707  0.00553703
  0.05745108  0.21823612  0.23566604  0.03610469  0.05919026 -0.18625204
  0.15708862 -0.19741844  0.02038058  0.1339989  -0.00315756  0.03619133
  0.00054822 -0.16355775  0.04008985  0.10877308 -0.10593139 -0.04984102
  0.12014227 -0.00781533 -0.02355792 -0.13592403  0.2371407   0.07442077
 -0.11582533 -0.18952623  0.15345728 -0.13982184 -0.06403299  0.0228321
 -0.15489277 -0.14084496 -0.29938835 -0.07238946  0.34790644  0.09991892
 -0.14738277  0.07629809 -0.05974923  0.01969828  0.06720827  0.16426386
 -0.03095947  0.08710889 -0.04685086  0.00901044  0.27583298 -0.05907355
  0.0209924   0.21300693  0.01992424  0.0782871   0.00845082  0.01970854
 -0.11425737  0.06626724 -0.14980832 -0.00037212  0.009082    0.01066469
  0.03127743  0.16264831 -0.1660087   0.16736244 -0.01628189  0.10876483
  0.01661739  0.00622803 -0.04609127 -0.09665477  0.08658114 -0.15960869
  0.18363087  0.19802468  0.06427923  0.06718552  0.15406638  0.06087101
  0.01360308  0.0504869  -0.23083083  0.00364568  0.10626002 -0.10067993
  0.08835328  0.06060782]