[-0.15773951  0.11197298  0.02500756 -0.0277133  -0.11774681  0.02717333
  0.01311625 -0.09366295  0.17931245 -0.03332048  0.21199265 -0.01046364
 -0.20249008 -0.06011888  0.03056185  0.23165214 -0.21426825 -0.13743062
 -0.11326309 -0.04013686  0.00716481 -0.00067407  0.02961192  0.1356971
 -0.17339134 -0.34285828 -0.05115722 -0.1343482  -0.00245618 -0.10493558
 -0.05103782  0.07429954 -0.16838948 -0.07229704  0.06118036  0.06851614
 -0.03148379 -0.05932275  0.17885548  0.04483105 -0.20994917  0.01709996
  0.13535726  0.30120549  0.29637268  0.01930381  0.02490439 -0.03579889
  0.15516561 -0.29112247 -0.02152896  0.10043084  0.01951484  0.04864236
  0.1090949  -0.17152642 -0.00320768  0.06955183 -0.20502813  0.03511947
  0.03326767 -0.05341657 -0.05787208 -0.04079539  0.19719152  0.12731598
 -0.10170785 -0.10715169  0.1668299  -0.13434021 -0.01016853  0.06512375
 -0.1652585  -0.21638052 -0.27553192 -0.02144329  0.43890443  0.13144472
 -0.18142077  0.03529298 -0.01948658 -0.00736222  0.07647166  0.10123491
 -0.00930241 -0.01134329 -0.08196718  0.06567166  0.18689547  0.00490986
  0.03402543  0.25757024  0.01949236 -0.0617595   0.07378221  0.09079142
 -0.09819501 -0.0379423  -0.22044401 -0.07522574 -0.01304093 -0.03007317
  0.04107576  0.05529899 -0.18792339  0.10756143  0.02448287  0.00136601
 -0.08674224 -0.01080366 -0.09977768  0.02851399  0.13459019 -0.22831832
  0.16064247  0.17726301 -0.05568625  0.09862871  0.01708955  0.03264758
 -0.02994234 -0.00705212 -0.09076687 -0.04992474  0.05057185 -0.05301236
  0.06293064 -0.00662298]