[-1.23337649e-01  7.17272684e-02  1.15153685e-01 -8.13853890e-02
 -1.72853678e-01 -6.04047291e-02 -6.67451918e-02 -1.15403853e-01
  1.05928838e-01 -1.34437129e-01  1.45391464e-01 -8.21809843e-02
 -2.17646673e-01 -4.79393937e-02 -2.69111879e-02  2.30629310e-01
 -1.23962738e-01 -1.97612390e-01 -7.11030811e-02 -9.90970898e-03
  3.70230451e-02  4.61849377e-05  1.73928030e-02  1.31174298e-02
 -1.64848655e-01 -3.46736729e-01 -7.54786953e-02 -1.73481982e-02
  9.37567465e-03 -3.74406241e-02 -1.03889562e-01  7.75970444e-02
 -2.13588700e-01 -8.30081031e-02  5.12715355e-02  1.24669328e-01
 -1.75080393e-02 -8.44452903e-02  1.32523999e-01 -3.83296423e-02
 -3.19727808e-01  3.95673998e-02  6.35780916e-02  2.32027128e-01
  2.11708382e-01  3.48750502e-02  5.55590801e-02 -1.31659403e-01
  1.35774881e-01 -1.75443307e-01  6.33548712e-03  1.23393416e-01
  3.61354053e-02  3.72291692e-02 -7.25675095e-03 -1.29607394e-01
  6.46840036e-02  8.52124020e-02 -1.54557824e-01 -4.36616205e-02
  1.20659687e-01 -6.09275363e-02  3.48541304e-03 -1.18547238e-01
  2.22336531e-01  2.95706280e-02 -1.02686547e-01 -1.80380777e-01
  1.51684776e-01 -1.50128886e-01 -2.18554214e-02  2.84806788e-02
 -1.64195016e-01 -1.38664961e-01 -3.10775131e-01 -5.63510768e-02
  3.66206050e-01  1.08644284e-01 -1.58709735e-01  1.08498417e-01
 -5.29201999e-02  2.51978040e-02  7.57563636e-02  1.56075880e-01
 -4.15952830e-03  1.15671769e-01 -5.90441786e-02  3.23740393e-02
  2.61325449e-01 -9.39491615e-02  1.51599115e-02  2.19624445e-01
  5.24642058e-02  5.25424443e-02  4.47084121e-02  2.87506320e-02
 -1.02874257e-01  2.31060777e-02 -1.28183290e-01  1.42840026e-02
  2.07703169e-02 -3.13872062e-02  3.94498110e-02  1.36977121e-01
 -1.55493006e-01  1.88506916e-01 -2.34132726e-02  1.07889012e-01
 -1.33221466e-02  1.21965203e-02 -5.39805293e-02 -1.10209286e-01
  9.27067399e-02 -1.90550014e-01  1.36808425e-01  2.12407023e-01
  2.44717188e-02  7.95819908e-02  1.33146569e-01  5.97968809e-02
  4.13636630e-03  5.08796237e-02 -1.90886185e-01 -2.73466650e-02
  1.16854943e-01 -9.18498486e-02  1.14819922e-01  8.07690769e-02]