[-0.13515455  0.07033712  0.06218147 -0.06380156 -0.13523874 -0.0174708
 -0.06282715 -0.13051458  0.10949206 -0.15650742  0.26342353 -0.03920979
 -0.16731144 -0.05120891 -0.02405774  0.14026335 -0.12535851 -0.14415158
 -0.03068271  0.01302257  0.00826249 -0.01463181 -0.01385498  0.03276729
 -0.09520213 -0.34391078 -0.11273308 -0.07903662  0.00932797  0.00047436
 -0.08010216  0.04066386 -0.15065743 -0.01405233  0.01612304  0.14138471
 -0.07126988 -0.0780817   0.18625699 -0.01507782 -0.2275198  -0.05897324
  0.06329636  0.23911713  0.18077935  0.02021909  0.04697626 -0.07096579
  0.12076139 -0.23780024  0.08927023  0.13378945  0.08716305  0.07003916
  0.08071324 -0.12514465  0.03778446  0.08389691 -0.09648024  0.01320251
  0.05586035 -0.03157945 -0.01371597 -0.10665294  0.26876426  0.17714831
 -0.08090281 -0.14476     0.16784897 -0.17009674 -0.12285848  0.05590209
 -0.15449022 -0.19269137 -0.2512362   0.01157978  0.39798358  0.17224759
 -0.15836315  0.04241279 -0.00575679 -0.06522374  0.15466551  0.12982395
 -0.00109644  0.04103139 -0.08590481 -0.00168546  0.30466539 -0.07756272
 -0.02064764  0.18981148 -0.01689605  0.04923024  0.05304793  0.00596652
 -0.00317078  0.03184029 -0.13802873  0.005882    0.06435855 -0.06772912
 -0.03389513  0.09129301 -0.17774968  0.11529683 -0.01017086  0.03612684
  0.0136633  -0.04039061 -0.10361116 -0.0259337   0.15993682 -0.18876931
  0.21428549  0.13226426  0.01556899  0.12735818  0.12021073  0.06744307
  0.02458541 -0.05980661 -0.18574071 -0.06811129  0.06269571 -0.03510962
  0.05167333  0.03673207]