[-0.13869558  0.09198464  0.10663738 -0.0867836  -0.17287497 -0.05497875
 -0.06775949 -0.11472404  0.09744268 -0.13883929  0.15083306 -0.03598871
 -0.20030501 -0.07206172 -0.0274535   0.23747782 -0.12899797 -0.20232163
 -0.04235756 -0.00742056  0.01389291  0.0104498   0.04119397  0.04019348
 -0.16086094 -0.36011767 -0.0639877  -0.02954939  0.00400922 -0.02780507
 -0.11027046  0.06382687 -0.19729282 -0.04396382  0.04814032  0.11548405
 -0.01927403 -0.0745746   0.15913604 -0.00271311 -0.27819774  0.02517458
  0.05568778  0.23747952  0.25066528  0.04062713  0.08449968 -0.14673431
  0.14246856 -0.20694371  0.02004543  0.10339147 -0.00610548  0.01719456
  0.01231481 -0.16083156  0.03691256  0.06756658 -0.13383792 -0.02908499
  0.07253798 -0.03425672 -0.01334118 -0.12339925  0.24728452  0.05710781
 -0.10261698 -0.19213676  0.17476538 -0.1805954  -0.0510224   0.01934556
 -0.15061669 -0.12242126 -0.31537163 -0.04715641  0.34583291  0.14006038
 -0.15758951  0.09035988 -0.03621477  0.00921016  0.07986151  0.15822484
 -0.02089353  0.05959217 -0.0688648   0.00935242  0.27069137 -0.06227386
  0.00902018  0.2167242   0.04247126  0.08082023  0.03798756  0.0280454
 -0.12529473  0.04991446 -0.13032149  0.01184847  0.00935359 -0.0226846
  0.0493731   0.17576757 -0.16475882  0.17908478 -0.06678316  0.08550169
 -0.01859332  0.01868046 -0.0748914  -0.08934364  0.08433503 -0.16389376
  0.16179661  0.21554616  0.03275017  0.08310522  0.14741147  0.0575274
  0.00516171  0.06345212 -0.20368843 -0.01521414  0.09718876 -0.12510709
  0.10440165  0.08325706]