[-0.08664221  0.11395057  0.10583267 -0.03243388 -0.05976347 -0.03083329
 -0.06005216 -0.11162412  0.16059096 -0.07122498  0.2785297  -0.01533785
 -0.18892321 -0.1098341   0.03767333  0.1936156  -0.21994238 -0.10601562
 -0.07530101  0.0100187   0.0166001  -0.0232822   0.08910289  0.007734
 -0.1374353  -0.40807515 -0.05681071 -0.06435607  0.008839   -0.04177574
 -0.06903264  0.08611842 -0.19008157 -0.07243931  0.04191549  0.09717226
  0.01997778 -0.03980682  0.14372854 -0.00997745 -0.25420895  0.0231822
  0.04417415  0.23647271  0.29489681  0.02284228  0.03673733 -0.11271223
  0.09091312 -0.21542124  0.01068633  0.11135565  0.0275684   0.02020003
  0.05116221 -0.11009172 -0.01365473  0.10966867 -0.10395916 -0.05227444
  0.07615476 -0.0512515  -0.00169294 -0.0593966   0.21425174  0.08878919
 -0.09659336 -0.13625884  0.11116439 -0.08131856 -0.05377856  0.04314857
 -0.18076234 -0.17258531 -0.32812658 -0.01110561  0.41173592  0.08232152
 -0.2069103   0.03139648 -0.0980514   0.01805254  0.10984907  0.10416178
 -0.01233273  0.00892713 -0.09259722  0.02461991  0.22875097 -0.04989116
 -0.00864379  0.20875096 -0.02316597  0.02419175  0.02952715  0.02755953
 -0.05164521  0.04684573 -0.22058396 -0.0747235   0.03113385 -0.00945356
  0.02295028  0.1386546  -0.2234561   0.07214862  0.02850444  0.03208727
  0.09356781  0.02022955 -0.04238163 -0.08935642  0.11683448 -0.22743812
  0.16621247  0.22775462  0.02752349  0.1065064   0.07828605  0.07924857
 -0.02409151  0.01894358 -0.13564338  0.00331567  0.05707321  0.01591898
  0.06248739  0.0019271 ]