[-0.13890311  0.09559234  0.11061282 -0.08420582 -0.16819811 -0.04750077
 -0.07893558 -0.11541223  0.09493504 -0.14694193  0.15099247 -0.0367685
 -0.19275683 -0.05392651 -0.03632272  0.22825269 -0.13717768 -0.19687176
 -0.03535698 -0.0052685   0.02639329  0.01589498  0.03327598  0.03199577
 -0.15562065 -0.35276437 -0.07167814 -0.02626031  0.01318814 -0.02507514
 -0.11595825  0.05705592 -0.19121303 -0.03458221  0.04373432  0.10847348
 -0.0239096  -0.07611611  0.15908886 -0.01502074 -0.27293697  0.03407793
  0.04929946  0.23595253  0.24960807  0.03971609  0.07486314 -0.15263258
  0.13556214 -0.20714684  0.02189646  0.10888556 -0.00323685  0.02355104
  0.01114553 -0.15637849  0.03466688  0.06868425 -0.12633239 -0.02526039
  0.06886978 -0.03543398 -0.00699693 -0.1177591   0.24720691  0.06011692
 -0.10801075 -0.1940078   0.17317483 -0.17245841 -0.05302984  0.02388385
 -0.14398126 -0.12692484 -0.30330828 -0.04604147  0.35632619  0.1319467
 -0.16117595  0.09764864 -0.04013052  0.00089653  0.09086555  0.15704027
 -0.02749484  0.05223449 -0.06908172  0.01644417  0.27433357 -0.06554534
  0.00361809  0.2200173   0.04400257  0.08306243  0.04104665  0.04282317
 -0.11419666  0.0510903  -0.12862414  0.01367411  0.02320334 -0.02317728
  0.03766686  0.18368275 -0.16226752  0.18210475 -0.06149958  0.09007806
 -0.00732985  0.01251922 -0.07845293 -0.0826602   0.08825329 -0.17837279
  0.15611695  0.20765872  0.03066636  0.08594393  0.1479523   0.05383189
  0.01184189  0.05173035 -0.2174418  -0.01492654  0.10253497 -0.11466616
  0.0964046   0.0863222 ]