[-1.32628337e-01  1.09572284e-01  3.03597283e-02 -7.79891312e-02
 -1.76343009e-01 -6.82707056e-02 -2.22167820e-02 -1.25753611e-01
  1.34284794e-01 -4.10382561e-02  2.14182928e-01 -1.43771442e-02
 -2.00829506e-01 -6.48816153e-02  2.69601345e-02  1.98912904e-01
 -2.59851545e-01 -1.27206072e-01 -8.49723145e-02 -4.07279804e-02
  3.20031159e-02  2.86557915e-04  3.56097221e-02  1.13332868e-01
 -1.56978816e-01 -3.45459908e-01 -4.79878187e-02 -1.18259408e-01
  3.24792229e-02 -7.51560405e-02 -1.82980821e-02  7.19459727e-02
 -1.81626424e-01 -6.90497085e-02  5.66251539e-02  7.94353932e-02
 -2.46629454e-02 -9.41470340e-02  1.88510180e-01  2.93465350e-02
 -2.18240142e-01 -4.30938235e-04  1.01531982e-01  2.79994905e-01
  2.96937764e-01 -1.93429831e-02  5.52328788e-02 -4.70242538e-02
  1.42699555e-01 -3.00452620e-01 -2.71459576e-02  1.12295292e-01
  1.48289828e-02  2.74206828e-02  9.46212038e-02 -1.32322237e-01
  2.79197848e-04  9.57021341e-02 -2.22563133e-01 -8.23242217e-03
  6.38672337e-02 -4.49241176e-02 -6.27652332e-02 -6.28823936e-02
  2.18982294e-01  1.24726728e-01 -1.23333231e-01 -6.98357671e-02
  1.32774770e-01 -1.45188257e-01 -6.42413720e-02  3.50978933e-02
 -1.52065739e-01 -1.89314201e-01 -2.82921433e-01 -3.40921246e-02
  4.09132242e-01  1.37578234e-01 -1.88566431e-01  2.03983374e-02
 -4.02353369e-02 -8.28559231e-03  1.12044550e-01  8.43767151e-02
  3.74921272e-03  8.77255294e-03 -8.34134594e-02  1.13756850e-01
  1.89019293e-01 -5.30132912e-02  3.83441113e-02  2.70821810e-01
  3.72771807e-02 -2.09804308e-02  4.46705036e-02  8.44684690e-02
 -7.42187947e-02 -2.36924049e-02 -2.01503620e-01 -3.60551141e-02
  5.81141822e-02  4.44726739e-03  4.45222370e-02  7.64773563e-02
 -1.73739776e-01  7.92598799e-02  3.37422788e-02 -2.46407874e-02
 -7.07246810e-02 -8.04297850e-02 -8.26543048e-02 -2.76920735e-03
  1.19212866e-01 -2.10205391e-01  1.88522026e-01  1.99228212e-01
 -6.76095635e-02  1.02798544e-01  1.51714562e-02 -3.71010900e-02
 -1.30109861e-02 -6.95101246e-02 -7.54898041e-02 -4.57400605e-02
  6.24676421e-02 -2.33373251e-02  6.40145764e-02 -3.18643413e-02]