[-0.1844447   0.0658127   0.01970299 -0.03205867 -0.09820151 -0.06262227
  0.03861764 -0.14063382  0.14834164 -0.05543518  0.22647777 -0.01399193
 -0.16761011 -0.10528642  0.07209781  0.17982759 -0.20381796 -0.14762782
 -0.07183098 -0.02586379  0.05650035  0.00257991  0.0347716   0.0562292
 -0.18986551 -0.38378015 -0.08650209 -0.1219563   0.06894384 -0.07716867
 -0.03568918  0.08048695 -0.18660788 -0.079007    0.04856334  0.06714468
 -0.00123146 -0.05348237  0.19098988  0.06424046 -0.24089836  0.02735448
  0.05124306  0.30074281  0.24488531  0.01188097  0.04561419 -0.0780751
  0.11793866 -0.21792845  0.01531348  0.07226264  0.01965206  0.01799881
  0.1061051  -0.10516433  0.01157984  0.03685629 -0.23923409  0.02084837
  0.0844259  -0.04925072 -0.0424826  -0.06264994  0.16441453  0.08690695
 -0.08140713 -0.09441285  0.12619297 -0.14758779 -0.06765673  0.03094349
 -0.13718884 -0.19798513 -0.3335146  -0.01675174  0.39362535  0.14261922
 -0.20497142  0.04674067  0.00322688 -0.01609398  0.18767956  0.11843588
  0.00103143  0.03386031 -0.06961886  0.05413371  0.1950337   0.00555485
 -0.01941217  0.24186814  0.00063212  0.00411089  0.06568082  0.07601626
 -0.07137096 -0.02348745 -0.15918806 -0.06058423  0.05216328 -0.0049714
  0.0390588   0.1178172  -0.17971063  0.13802274  0.02036999  0.01149413
 -0.0530589  -0.02954491 -0.06985489  0.01008842  0.05531672 -0.23067585
  0.1804484   0.21975911 -0.06704953  0.09258201  0.02398328 -0.03564408
 -0.03741519  0.01938745 -0.15070286 -0.04217891  0.07168939 -0.01854045
  0.08553761 -0.00376485]