[-0.12072439  0.06954888  0.07953906 -0.09116236 -0.13604632 -0.06351902
 -0.08794545 -0.12716906  0.10781702 -0.15249912  0.14625423 -0.05788281
 -0.19294773 -0.03850277 -0.03663617  0.22215381 -0.11988512 -0.18880168
 -0.0895827   0.01988831  0.01158176 -0.00766515  0.0119288   0.02519005
 -0.12242458 -0.30772337 -0.07331236 -0.02580335 -0.00978954 -0.03498735
 -0.10650952  0.04480896 -0.20484133 -0.0678818   0.0518357   0.11259551
 -0.04274051 -0.08429696  0.15139969 -0.01040058 -0.30155739  0.03460055
  0.05679746  0.21524142  0.22360353  0.04931839  0.04668423 -0.17371045
  0.16115862 -0.20090626  0.01924421  0.11629182  0.04382484  0.03177428
  0.00864555 -0.14371431  0.06048188  0.1039199  -0.12551744 -0.021069
  0.10801011 -0.01362159 -0.03081741 -0.12013581  0.23185837  0.08325838
 -0.1252315  -0.18449877  0.1538936  -0.13973512 -0.05678899  0.03969462
 -0.14620358 -0.15632065 -0.28753313 -0.06705778  0.35304362  0.10279194
 -0.15886097  0.07424381 -0.05924425  0.01604077  0.08569118  0.14307944
 -0.02593502  0.0536124  -0.03883444 -0.00605682  0.2808643  -0.07051
  0.00719281  0.19143032  0.02393412  0.05733741  0.00518899  0.02973515
 -0.0969423   0.0403494  -0.13739055 -0.007727    0.03499375 -0.01273432
  0.0241463   0.15441464 -0.16336721  0.16839968 -0.02584042  0.10588328
  0.03335357  0.01455086 -0.07598426 -0.08673876  0.09023663 -0.1751823
  0.17053781  0.19230875  0.03702338  0.0451029   0.1612462   0.05861976
  0.01825213  0.05483457 -0.23705983 -0.03090372  0.11667489 -0.07030126
  0.09339697  0.0545219 ]