[-0.14047419  0.13315064  0.02727197 -0.06710698 -0.11332643 -0.01871357
  0.02602564 -0.12335797  0.1707391  -0.01472689  0.18989508  0.01295425
 -0.16915211 -0.07270943  0.06133036  0.19526227 -0.21430342 -0.13603771
 -0.12775294 -0.05354608 -0.00120883  0.01850276  0.02474697  0.13467945
 -0.17019503 -0.33311051 -0.06075835 -0.11354196  0.04077942 -0.05683571
  0.00430009  0.07973188 -0.19477813 -0.04264114  0.05536496  0.05028094
 -0.04663531 -0.07560021  0.1706301   0.0461684  -0.22456913  0.0067765
  0.07225199  0.28892279  0.30370402 -0.00795048  0.0553829  -0.03653455
  0.15749757 -0.27561209 -0.00261164  0.11369868 -0.00300572  0.01293757
  0.0892196  -0.12761998 -0.00274103  0.09365781 -0.24150252  0.0167235
  0.06697682 -0.09185194 -0.08431929 -0.06266504  0.17659567  0.15357076
 -0.10645445 -0.11613818  0.14930713 -0.16407926 -0.01246084  0.06745328
 -0.14775594 -0.19080174 -0.28503487 -0.00468053  0.46142325  0.15251906
 -0.16363685  0.02832807 -0.04262997  0.02702573  0.11772225  0.09115771
 -0.04023606 -0.02577938 -0.08136656  0.08397066  0.19508795  0.00741654
  0.00235076  0.25988123  0.00751912 -0.054857    0.0321927   0.05336941
 -0.07863054 -0.03441311 -0.1548112  -0.05505993  0.01089502  0.00217863
  0.05463966  0.08159749 -0.16553922  0.14060615  0.0293621   0.0251743
 -0.04905003 -0.03299315 -0.08614346 -0.00462094  0.11505079 -0.20683005
  0.1658002   0.14801577 -0.07435721  0.09698858  0.01006842  0.03282474
 -0.04417281 -0.03057817 -0.09454804 -0.03006175  0.08574036 -0.04078655
  0.09777481 -0.03028311]