[-1.35712609e-01  1.02202497e-01  9.63574275e-02 -8.95830244e-02
 -1.65275156e-01 -5.12165204e-02 -6.87497631e-02 -1.26585037e-01
  1.05409041e-01 -1.29558370e-01  1.71196684e-01 -5.91480508e-02
 -2.12250993e-01 -6.58258721e-02 -3.93922292e-02  2.43149921e-01
 -1.42291099e-01 -2.10816249e-01 -4.28207777e-02 -5.34921698e-03
  2.82695182e-02 -6.27970044e-03  3.14654410e-02  3.64132226e-02
 -1.61503583e-01 -3.50620031e-01 -5.92319965e-02 -8.77691247e-03
  1.74849462e-02 -4.95719090e-02 -1.02244698e-01  6.13681935e-02
 -2.21207291e-01 -4.89644669e-02  4.62191142e-02  1.18342593e-01
 -1.59508493e-02 -8.37703273e-02  1.57039016e-01 -1.17651476e-02
 -2.97822863e-01  3.42172980e-02  7.20221773e-02  2.34351113e-01
  2.30422407e-01  3.05350367e-02  5.97043149e-02 -1.66090533e-01
  1.45443961e-01 -1.85076222e-01  4.26414749e-03  1.18684523e-01
  6.38824049e-03  2.80221235e-02 -6.56973431e-03 -1.48391530e-01
  4.34023067e-02  8.09836164e-02 -1.34698018e-01 -4.50242348e-02
  9.78097618e-02 -2.24606879e-02 -8.81860871e-03 -1.38640568e-01
  2.35658169e-01  4.44851518e-02 -1.06332578e-01 -2.00660273e-01
  1.52702048e-01 -1.59512028e-01 -5.10947108e-02  3.94470990e-02
 -1.37102529e-01 -1.30630910e-01 -3.11984658e-01 -5.78274019e-02
  3.44775409e-01  1.16937362e-01 -1.57248080e-01  1.01654723e-01
 -4.43114676e-02  6.82016788e-03  8.49755406e-02  1.47829339e-01
 -2.05116346e-02  8.55086371e-02 -6.95608407e-02  9.02895909e-03
  2.78488278e-01 -5.95817827e-02  1.56211136e-02  2.18979031e-01
  4.12254594e-02  8.39758664e-02  3.70404124e-02  4.09607552e-02
 -1.23773389e-01  5.49491458e-02 -1.37810141e-01  3.17478995e-03
 -8.73630692e-04 -1.99259464e-02  4.28159796e-02  1.57014236e-01
 -1.66404888e-01  1.79491639e-01 -3.25977765e-02  1.04853168e-01
 -8.13589059e-03  2.67535150e-02 -6.62601590e-02 -9.44949314e-02
  7.54282773e-02 -2.00596914e-01  1.62775978e-01  2.07232818e-01
  3.99397500e-02  6.83800951e-02  1.59674034e-01  5.76334856e-02
  3.17148137e-04  5.37931919e-02 -1.98623985e-01 -1.19961454e-02
  1.04449227e-01 -1.22942738e-01  1.09826885e-01  7.27943853e-02]