[-0.12866588  0.06480109  0.09661782 -0.08319426 -0.16717596 -0.04683756
 -0.06825056 -0.10624981  0.12011524 -0.12853983  0.12429408 -0.06739669
 -0.20267533 -0.05988492 -0.04563751  0.23866467 -0.12805259 -0.19943796
 -0.06063047 -0.02561307  0.03566621  0.03674385  0.03567087  0.03113626
 -0.16401504 -0.35818002 -0.06198121 -0.0322764   0.03295963 -0.0543828
 -0.09215645  0.08065523 -0.20230615 -0.05166836  0.05168339  0.12134737
 -0.01502666 -0.07799096  0.15809512 -0.01166172 -0.31479004  0.02636189
  0.0779724   0.22951713  0.22730577  0.02739744  0.04656922 -0.14247374
  0.12809902 -0.17507014  0.01197211  0.11132818  0.02144678  0.03046772
  0.02066841 -0.12712966  0.04675717  0.06571908 -0.16664706 -0.0550848
  0.07606784 -0.05059372 -0.00843079 -0.10661282  0.21335848  0.03344423
 -0.07574715 -0.19464336  0.18017665 -0.17672746 -0.03422188  0.04944317
 -0.12779941 -0.11184236 -0.30327553 -0.06889333  0.38622585  0.11170625
 -0.13955961  0.13616279 -0.03236834 -0.02241609  0.07166108  0.15182488
 -0.02600556  0.0987459  -0.03748656  0.03803816  0.24270451 -0.06894606
  0.01505875  0.19659378  0.05698339  0.06427845  0.05870964  0.02216884
 -0.10934096  0.04270855 -0.12087523 -0.01135907  0.01866396 -0.01928193
  0.06784939  0.13822861 -0.16048849  0.19104269 -0.01648251  0.06494257
  0.00164348  0.04680636 -0.05236481 -0.09996901  0.09127387 -0.20233659
  0.14196102  0.19098102  0.0194181   0.08977632  0.11954252  0.074481
  0.00392532  0.05258765 -0.18455659 -0.01825668  0.10818949 -0.10734657
  0.11631733  0.08783983]