[-0.18602912  0.1496882   0.00714929 -0.04537427 -0.13944174 -0.04005067
 -0.03089565 -0.13469318  0.13984732 -0.04126644  0.21922469 -0.03657025
 -0.19467579 -0.0699316   0.03081787  0.19211607 -0.17296709 -0.13645969
 -0.07931499 -0.04942548  0.06269868 -0.00194795 -0.00779221  0.07990736
 -0.14397159 -0.35288769 -0.07092502 -0.11718749  0.03615379 -0.0719647
 -0.03442639  0.02843755 -0.15673922 -0.09563731  0.04939331  0.07591645
 -0.00910599 -0.01565458  0.15039213  0.04680212 -0.23123164  0.02829304
  0.11571079  0.31663182  0.2400295   0.04296596  0.06871589 -0.069528
  0.11803104 -0.23708344  0.02360137  0.08373154  0.08091456  0.03815301
  0.11765033 -0.13696089  0.0013174   0.08133421 -0.20093027  0.05611639
  0.12055371 -0.04258612 -0.06672832 -0.0655522   0.25506824  0.13317327
 -0.11133277 -0.09494396  0.11470731 -0.12532023 -0.09009621  0.0395118
 -0.14087205 -0.17454426 -0.31833047  0.01480722  0.44268131  0.14020656
 -0.19504236  0.03757582 -0.01047851  0.01153084  0.14340687  0.10862227
 -0.02326802  0.01607358 -0.06285731  0.0502171   0.1960402  -0.02162345
  0.01392976  0.21929446  0.01396974  0.01633761  0.02960657  0.08249821
 -0.09769963 -0.0427983  -0.14312012 -0.07985842  0.03497289 -0.01895762
  0.0541651   0.07448706 -0.19327985  0.1220328   0.01925728  0.03080247
 -0.06639951  0.00655399 -0.03461575  0.01992789  0.09722214 -0.2158718
  0.19949554  0.19098942 -0.05119137  0.0870527   0.05161909 -0.01077064
 -0.0028368   0.00176024 -0.10617218 -0.05265057  0.05292108 -0.05450739
  0.08368577  0.00639569]