[-0.08453071  0.09693697  0.09164831 -0.03788739 -0.03836275 -0.04041154
 -0.00418457 -0.11846759  0.13095936  0.00853413  0.27256677 -0.0040631
 -0.19211173 -0.1134656   0.06912498  0.15513854 -0.15236442 -0.09313312
 -0.09995046 -0.04342962 -0.02634551 -0.0436924   0.08499086  0.04747479
 -0.11111522 -0.34514305 -0.08861466 -0.09597087  0.01899039 -0.13883539
 -0.03479692  0.0410745  -0.22178526 -0.04402473  0.00409281  0.02113495
 -0.03275963 -0.07633831  0.22644067  0.02941431 -0.16524594 -0.01723329
  0.00915886  0.22850445  0.23903595 -0.02978198  0.06343884 -0.0371634
  0.05541861 -0.23868755  0.04615152  0.10328195  0.09505693  0.02183883
  0.00747955 -0.08518047 -0.06522752  0.06464294 -0.14022984  0.03125857
  0.05739033 -0.09938902 -0.11997583 -0.07074755  0.2359428   0.16497715
 -0.11310833 -0.12732261  0.12222379 -0.08562713 -0.06930972  0.02044025
 -0.15252066 -0.16094297 -0.32835311  0.0610121   0.4128235   0.07448613
 -0.23717384  0.00657974 -0.17469369  0.01493803  0.0050824   0.05086118
 -0.08287016  0.05039167 -0.05525019  0.07814606  0.20687643 -0.05807979
 -0.05386064  0.18524751 -0.03366059  0.05952481  0.00913677 -0.00180238
  0.03171363 -0.02582721 -0.14052497 -0.02422964  0.04858591 -0.05275859
  0.04725787  0.12567942 -0.23471542  0.10524898  0.06339769 -0.04365777
  0.06288145  0.06988952 -0.11677054 -0.09407053  0.12927847 -0.27670947
  0.20752139  0.22209513  0.01334993  0.08490592  0.03886735  0.09673146
 -0.01182021  0.03035029 -0.07261237 -0.01543039  0.08119459  0.07123788
  0.051339    0.03297568]