[-0.1140411   0.06275343  0.07916447 -0.09445611 -0.13569282 -0.06104043
 -0.08027687 -0.12265908  0.1138749  -0.15632831  0.1445574  -0.06617334
 -0.19736718 -0.03526898 -0.03298536  0.2335486  -0.12504019 -0.20046337
 -0.08988072  0.01581836  0.00759613 -0.01097199  0.00234044  0.03086377
 -0.11837041 -0.31929952 -0.07722377 -0.0261615  -0.00667735 -0.03289073
 -0.10465427  0.05440729 -0.19888459 -0.06513853  0.05625704  0.10427439
 -0.03481319 -0.09065236  0.15780048 -0.0035787  -0.29748005  0.03807471
  0.05001172  0.21881704  0.21993545  0.05008643  0.05954977 -0.1706848
  0.16433702 -0.19359802  0.01956265  0.12333237  0.04438519  0.03854328
  0.00761231 -0.14292185  0.05909161  0.09467888 -0.13013606 -0.02243568
  0.10813214 -0.01315561 -0.0198074  -0.12250348  0.23791765  0.07928757
 -0.12095357 -0.19256829  0.15746397 -0.14369415 -0.05717691  0.02277011
 -0.15270968 -0.14352773 -0.28086904 -0.06711822  0.34575108  0.09882485
 -0.16209255  0.08829048 -0.06202935  0.01002132  0.08078285  0.14855517
 -0.02188464  0.0597188  -0.03444802 -0.01365494  0.2832728  -0.07124361
  0.01025297  0.19435225  0.01875268  0.04720979  0.01642159  0.02514776
 -0.10034732  0.0404484  -0.12168262 -0.00849124  0.02761411 -0.01506216
  0.02844147  0.14515936 -0.16517948  0.17753634 -0.03954703  0.11566553
  0.02421111  0.02366141 -0.07464808 -0.09110653  0.09182359 -0.17543124
  0.16777268  0.18689819  0.02936122  0.04773786  0.15099023  0.07279136
  0.0119778   0.06213796 -0.22815107 -0.03397886  0.11566129 -0.06049564
  0.09362662  0.06194039]