[-0.10733598  0.14744703  0.05106921 -0.0627402  -0.11287737  0.02453002
  0.03160757 -0.12167402  0.18263836 -0.03911303  0.18083368 -0.00797413
 -0.1925956  -0.03491154  0.05809191  0.20695964 -0.19889846 -0.13360539
 -0.14655517 -0.03813558 -0.03002504  0.04111224  0.01644018  0.10201363
 -0.16921516 -0.35945639 -0.06372292 -0.10036582  0.04177679 -0.06405004
 -0.02541833  0.05571185 -0.19287242 -0.04620872  0.0543229   0.03298
 -0.09482402 -0.10246667  0.15917961  0.04797769 -0.25040066  0.00101101
  0.08228951  0.28034422  0.29928467  0.00252473  0.05344952 -0.05480665
  0.13539803 -0.29367289  0.02577955  0.10245918 -0.0161733   0.05189606
  0.08713023 -0.14348193 -0.01700735  0.09823229 -0.21955135  0.01597854
  0.0957647  -0.0664679  -0.07645413 -0.04336798  0.18909161  0.16409336
 -0.10904288 -0.13370895  0.16061111 -0.16828096 -0.00728629  0.05061698
 -0.13662559 -0.19447844 -0.2832391   0.01656386  0.44645402  0.14551847
 -0.15296642 -0.00614228 -0.04221645  0.04336616  0.12498616  0.0995546
 -0.03372039 -0.05105745 -0.05937371  0.07537312  0.21007304 -0.01225699
 -0.00648793  0.25214547  0.00178423 -0.08324888  0.02827509  0.08228886
 -0.09843713 -0.01649693 -0.16677304 -0.04392664  0.03744664  0.01386468
  0.04301675  0.13125315 -0.17292015  0.17496455  0.02340377  0.01006097
  0.00216063 -0.03783127 -0.09045803 -0.02400617  0.12705716 -0.20637918
  0.16782185  0.14978097 -0.06762721  0.09204289  0.01803538  0.04495769
 -0.0181645  -0.01514758 -0.13750535 -0.04186532  0.0904684  -0.03296122
  0.05857248 -0.02543589]