[-0.13897325  0.13081285  0.03362313 -0.06867068 -0.10696322 -0.00056872
  0.05025801 -0.10614818  0.17909215 -0.02509815  0.18584764 -0.01929456
 -0.1978635  -0.07198054  0.08440607  0.19816923 -0.1926984  -0.11882365
 -0.13834623 -0.05049852  0.00124369  0.01252524  0.01574716  0.12796055
 -0.16355355 -0.34379265 -0.06940179 -0.1070678   0.02338608 -0.07178
  0.00179908  0.06332795 -0.18880029 -0.06370729  0.04155601  0.03550062
 -0.07734269 -0.08928493  0.18005161  0.03237596 -0.21659882 -0.00457439
  0.08008773  0.28071904  0.2762585   0.00220911  0.05330079 -0.03582799
  0.17189546 -0.28769195  0.0082584   0.09612515  0.00938351  0.03227061
  0.10724448 -0.12479009 -0.00069487  0.09944921 -0.24683717  0.03216314
  0.07644676 -0.08375745 -0.08384299 -0.06592571  0.18289226  0.16043505
 -0.09983533 -0.12282431  0.16421568 -0.15743361 -0.00443225  0.07051748
 -0.1386036  -0.19990093 -0.28559405  0.01447092  0.42521325  0.1489114
 -0.16370109 -0.00791648 -0.03139079  0.03153066  0.12226021  0.08387135
 -0.03775715 -0.03760311 -0.0694036   0.08070652  0.20374632 -0.0050646
 -0.00263999  0.2645877   0.02398281 -0.06172414  0.03023184  0.04800601
 -0.07798056 -0.02972392 -0.16693687 -0.02174469  0.03237957 -0.01092082
  0.04875318  0.08518659 -0.16593952  0.15446649  0.02406557  0.0126861
 -0.05793387 -0.04172012 -0.11728185  0.00927846  0.12192042 -0.21138048
  0.16446826  0.14032869 -0.0723184   0.08521729  0.0007758   0.03528239
 -0.02939021 -0.02852851 -0.111401   -0.03748927  0.10850274 -0.03108383
  0.07963946 -0.02604919]