[-0.10134842  0.10615563  0.03016739 -0.07800008 -0.14848787 -0.03140077
 -0.05707907 -0.15796922  0.1407107  -0.12803105  0.17895882 -0.11241034
 -0.205222   -0.02230375 -0.09362472  0.24333119 -0.16391797 -0.19182602
 -0.02429548  0.03179401  0.0280973   0.03647963  0.00125622  0.06515019
 -0.11450396 -0.33652481 -0.09169043 -0.06620906  0.00240381 -0.04192249
 -0.07398873  0.04335058 -0.16383246 -0.03330281  0.068308    0.13267757
 -0.03389404 -0.10374512  0.15295111  0.03523481 -0.31347525  0.0203933
  0.09297178  0.2755219   0.19654165  0.00581635  0.01689349 -0.1887691
  0.13305965 -0.16278277  0.01737168  0.1181372   0.02278171  0.06370949
  0.01009588 -0.10098521  0.04968739  0.09315815 -0.15586816 -0.03676433
  0.13161446 -0.00154786  0.03068424 -0.12246453  0.25370225  0.09975653
 -0.08015411 -0.2044163   0.15304592 -0.20386603 -0.11855781  0.05039327
 -0.13159059 -0.13802555 -0.27087671 -0.08649833  0.3767578   0.12952253
 -0.12072356  0.1008902  -0.03085699 -0.03084145  0.12215576  0.17612533
  0.0236567   0.09729923 -0.05188683 -0.01355789  0.31286016 -0.08363342
  0.00438632  0.21843997 -0.01204692  0.05007391  0.05636291 -0.0058648
 -0.09354782  0.04984295 -0.14201663 -0.06480374 -0.0204488  -0.00862808
  0.03875684  0.12460883 -0.17547503  0.15687582  0.00289747  0.07488029
  0.02379524  0.01937637 -0.05151134 -0.06015668  0.15276054 -0.1821609
  0.20394979  0.12173622  0.06913032  0.05108954  0.12903289  0.06476453
 -0.01948706 -0.00868599 -0.20070909  0.00071505  0.08744096 -0.08519832
  0.1182564   0.03370696]