[-1.90169409e-01  1.30824074e-01  3.51776704e-02 -5.23466468e-02
 -1.61009341e-01 -3.88482283e-03 -1.17211444e-02 -1.03133835e-01
  1.43491969e-01 -4.84483652e-02  2.48356342e-01 -2.03704368e-02
 -2.23564178e-01 -4.80038747e-02  2.50426363e-02  2.29932472e-01
 -1.84293956e-01 -1.20483868e-01 -9.16560143e-02 -3.26082967e-02
  1.54526355e-02  4.27346415e-04  9.61306691e-03  6.89809173e-02
 -1.34536937e-01 -3.83603811e-01 -6.49021417e-02 -1.12833478e-01
 -1.06092403e-02 -7.54531249e-02 -7.35762576e-03  4.46239151e-02
 -1.56154528e-01 -8.20006654e-02  6.14540093e-02  5.96106909e-02
 -3.58296447e-02 -6.17912821e-02  1.57436669e-01  4.47925292e-02
 -2.47429594e-01  2.82142311e-02  1.27805829e-01  3.15283060e-01
  2.34752089e-01  1.40204253e-02  6.96838722e-02 -6.18756190e-02
  1.11723982e-01 -2.40844831e-01 -2.33361255e-02  8.36322382e-02
  4.56666499e-02  1.13599552e-02  9.98305976e-02 -1.29104644e-01
  5.05206082e-03  8.92112479e-02 -2.03981787e-01  1.80526115e-02
  9.81005281e-02 -1.36144375e-02 -5.60321696e-02 -6.36938661e-02
  2.40882784e-01  1.37831554e-01 -1.31368563e-01 -9.72076878e-02
  1.28572598e-01 -1.17680959e-01 -5.62507808e-02  3.48974988e-02
 -1.85538843e-01 -2.09879592e-01 -3.08156192e-01 -1.52757084e-02
  4.42187518e-01  1.17728196e-01 -1.70010433e-01  1.29267965e-02
 -2.24800687e-02  1.90830287e-02  1.12603225e-01  1.33217022e-01
 -8.97222757e-03  1.38045161e-03 -4.51112948e-02  5.32929301e-02
  2.11389974e-01 -1.70734953e-02 -4.78241313e-03  2.31317118e-01
  2.16595642e-02 -3.48539725e-02  3.03992685e-02  7.44785443e-02
 -7.75285885e-02 -6.14618324e-02 -1.83325395e-01 -7.19931871e-02
 -1.79544836e-02 -2.91756187e-02  3.79124805e-02  8.41558799e-02
 -2.06902489e-01  9.71347317e-02  3.21153589e-02  2.43415460e-02
 -6.33008406e-02  1.29492199e-02 -5.91608845e-02  1.22847101e-02
  1.06051996e-01 -2.10334644e-01  1.83387443e-01  2.11486533e-01
 -3.85631323e-02  7.66840652e-02  6.55666590e-02 -2.62497496e-02
 -1.32729588e-02  1.49505737e-03 -1.03205122e-01 -5.58566861e-02
  3.86534780e-02 -4.81579229e-02  8.91320184e-02 -1.69606972e-02]