[-0.20759617  0.12218062  0.06496888 -0.06529945 -0.16300271 -0.03006461
 -0.05883295 -0.12702419  0.14666009 -0.04594615  0.24536061 -0.00432697
 -0.17213231 -0.05706014  0.04621122  0.19867998 -0.17743734 -0.12480519
 -0.05565677 -0.01905615 -0.00375183 -0.0180977   0.00553409  0.06922871
 -0.16146854 -0.36106896 -0.06271105 -0.09890079 -0.02185545 -0.06766291
 -0.04677209  0.06410433 -0.17238288 -0.08836792  0.05872418  0.12950616
 -0.01236687 -0.02366184  0.14928564  0.0268913  -0.23382735  0.01291822
  0.11409219  0.29493123  0.27130249  0.01369751  0.05659555 -0.05106864
  0.14706433 -0.2159566  -0.01432164  0.08977675  0.07506875  0.01356395
  0.114589   -0.1413572   0.0151942   0.07962077 -0.1596605  -0.00109451
  0.09493484 -0.04175166 -0.04164698 -0.0778312   0.25071084  0.12933002
 -0.10943358 -0.09336183  0.10757058 -0.07319372 -0.08055241  0.02449872
 -0.19052748 -0.18931241 -0.32189786 -0.02660271  0.40098301  0.12075104
 -0.22628343  0.04336536 -0.02414488  0.01230226  0.11335026  0.11148088
  0.00944293  0.03032659 -0.07105935  0.03487997  0.2081842  -0.0174179
  0.03081625  0.19035868  0.0027461   0.0123733   0.03130337  0.06085279
 -0.09654819 -0.02597992 -0.18864594 -0.07974524  0.00386098 -0.00288449
  0.05248162  0.08800551 -0.22327729  0.11796501  0.03891407  0.05164727
 -0.06774314  0.00114284 -0.0369531   0.02069946  0.10474851 -0.22021198
  0.19818698  0.18526813 -0.08332497  0.10022783  0.06815405 -0.008546
 -0.03373552  0.03173816 -0.08765914 -0.05273625  0.02866421 -0.05055688
  0.10725158  0.01785127]