[-0.15747963  0.12815714  0.02735678 -0.02887568 -0.12601636  0.02673239
  0.01088981 -0.09770604  0.17028672 -0.026933    0.24269621  0.00233815
 -0.20013463 -0.07476386  0.02462888  0.23403513 -0.2397224  -0.11914267
 -0.11629725 -0.0501215  -0.00317188  0.01818882  0.02937805  0.11627807
 -0.16602646 -0.3461082  -0.04638782 -0.13858727 -0.00134215 -0.10339905
 -0.03630737  0.07365789 -0.15679504 -0.06862243  0.0675936   0.06205384
 -0.03661694 -0.05458754  0.17742364  0.04859646 -0.20087448  0.02683176
  0.13211943  0.32328999  0.29019263  0.01220298  0.02131878 -0.04044233
  0.15537417 -0.27887937 -0.03107038  0.10411276  0.02645964  0.05218065
  0.09671453 -0.15608831  0.00189599  0.07086115 -0.20993641  0.01560157
  0.04645259 -0.06888837 -0.05188088 -0.04311887  0.19989912  0.12110503
 -0.10497637 -0.11029591  0.1467493  -0.13129619 -0.03081563  0.05472194
 -0.16294475 -0.21153128 -0.28373075 -0.01808903  0.4419646   0.13470809
 -0.18014799  0.02519115 -0.0331885  -0.01669702  0.08003312  0.10241979
 -0.01362869 -0.01459575 -0.08345122  0.06436177  0.18895297 -0.00934219
  0.03472781  0.26554829  0.02543336 -0.06013025  0.06615438  0.07375126
 -0.09370231 -0.02394865 -0.20382297 -0.06673857 -0.01987725 -0.0458478
  0.05140108  0.04848594 -0.20281307  0.11910125  0.03626968  0.00594893
 -0.07261469 -0.01752464 -0.090198    0.02530605  0.14327665 -0.23800619
  0.17663048  0.18905418 -0.0367978   0.11276939  0.02310256  0.02778628
 -0.04799706 -0.01423756 -0.08598545 -0.05148139  0.0440721  -0.05088767
  0.0673626  -0.00734955]