[-0.12491572  0.06992721  0.11740553 -0.07708909 -0.17120112 -0.06567502
 -0.06752616 -0.11944064  0.1008447  -0.13815209  0.14396273 -0.08116712
 -0.21528819 -0.05193395 -0.01907138  0.22622447 -0.11418479 -0.20309031
 -0.07291096 -0.00819755  0.03705777  0.00132944  0.02310662  0.00953153
 -0.16184883 -0.3443456  -0.07195349 -0.01575775  0.01461565 -0.03359969
 -0.10363455  0.07912567 -0.21629524 -0.07371028  0.04345415  0.12964463
 -0.01873093 -0.08577303  0.12923907 -0.04348734 -0.32591814  0.04134227
  0.05631359  0.22582269  0.21358295  0.03239724  0.05248097 -0.13164923
  0.13316189 -0.18339144  0.00474065  0.12246215  0.0302268   0.03443654
 -0.00615331 -0.12951849  0.06703972  0.08053045 -0.1559868  -0.04185776
  0.11267557 -0.05867673  0.00312964 -0.12329489  0.22537962  0.02849514
 -0.10737139 -0.16997078  0.14522772 -0.15512636 -0.02307867  0.0369561
 -0.16179483 -0.14300895 -0.31463239 -0.05374357  0.36613452  0.10677619
 -0.16050096  0.11096455 -0.04712676  0.0254251   0.07523371  0.15811597
 -0.00587091  0.11346822 -0.06475037  0.02829073  0.26702449 -0.09650062
  0.01365384  0.22691166  0.05251     0.05827649  0.03957831  0.03559188
 -0.09342844  0.01539465 -0.12663852  0.01418834  0.02568516 -0.03725725
  0.02876032  0.13472237 -0.15527359  0.1886823  -0.02188433  0.10994022
 -0.00816703  0.0085907  -0.05193359 -0.10964613  0.08882303 -0.19227491
  0.13959834  0.21713693  0.0286176   0.08088162  0.13354164  0.05746115
  0.00247721  0.04981839 -0.18930742 -0.03010476  0.11909997 -0.09189487
  0.10788933  0.08616041]