[-1.20124400e-01  6.52789995e-02  8.57394487e-02 -8.76984820e-02
 -1.32433847e-01 -5.35674207e-02 -7.66418800e-02 -1.27118707e-01
  1.12420239e-01 -1.51612058e-01  1.44355237e-01 -5.41703701e-02
 -1.86581373e-01 -3.85592021e-02 -3.99674848e-02  2.32159689e-01
 -1.35491058e-01 -2.02338651e-01 -7.68172219e-02  1.15208793e-02
  6.39123982e-03 -6.51989458e-03  4.77300119e-03  2.82198247e-02
 -1.25068188e-01 -3.07347506e-01 -7.43124709e-02 -3.09587568e-02
 -2.31472845e-03 -3.19820307e-02 -1.09041147e-01  4.44396399e-02
 -2.03674629e-01 -5.49410991e-02  5.77515848e-02  1.13484740e-01
 -4.12379056e-02 -9.39908624e-02  1.50854662e-01  2.56235158e-04
 -2.89374501e-01  3.59473638e-02  5.03078401e-02  2.19813466e-01
  2.30819821e-01  3.96246426e-02  4.99054119e-02 -1.67432040e-01
  1.66150734e-01 -1.91472396e-01  2.23041382e-02  1.19172432e-01
  4.56701443e-02  3.80291268e-02  9.51886084e-03 -1.44150883e-01
  4.89956997e-02  9.05430391e-02 -1.18747555e-01 -1.75824929e-02
  1.06688820e-01 -1.58749260e-02 -2.35859621e-02 -1.25894383e-01
  2.31835231e-01  8.30161124e-02 -1.22169271e-01 -2.00530276e-01
  1.64936915e-01 -1.41027078e-01 -6.44257367e-02  2.81308237e-02
 -1.52999207e-01 -1.40813649e-01 -2.81067669e-01 -6.44042343e-02
  3.48962814e-01  1.00700259e-01 -1.60957113e-01  8.07140544e-02
 -5.79367280e-02  2.03032251e-02  8.11013430e-02  1.54729560e-01
 -1.82105973e-02  6.07032739e-02 -3.91237997e-02 -1.50870411e-02
  2.78274715e-01 -6.63869306e-02 -6.28420850e-03  1.84063122e-01
  8.08268320e-03  5.08292913e-02  1.68245267e-02  2.08356511e-02
 -9.67445001e-02  4.39218692e-02 -1.30880177e-01 -1.79249216e-02
  2.27694325e-02 -1.16810631e-02  2.62781028e-02  1.55922174e-01
 -1.50729969e-01  1.70920685e-01 -3.65139768e-02  1.16536789e-01
  2.32324284e-02  2.14746762e-02 -8.50699097e-02 -7.88677335e-02
  9.06701460e-02 -1.78721651e-01  1.80097908e-01  1.82057858e-01
  3.12567316e-02  4.35301699e-02  1.54803723e-01  6.93562552e-02
  1.12829776e-02  6.26634359e-02 -2.27899194e-01 -3.29057686e-02
  1.07004605e-01 -6.59542009e-02  9.77637097e-02  5.94269596e-02]