[-0.21542835  0.12857078  0.0514571  -0.02070001 -0.15152323 -0.00170324
 -0.01710321 -0.14035031  0.12404209 -0.04548559  0.21915081 -0.02916929
 -0.20820539 -0.08130695  0.02391201  0.19512713 -0.12846132 -0.13641925
 -0.08722109 -0.10059636  0.02473536  0.05814388 -0.0311286   0.0563805
 -0.1325511  -0.36598393 -0.06459793 -0.12406414  0.0269906  -0.13055342
 -0.01875093  0.0270379  -0.12416247 -0.05762541  0.02131973  0.07249263
  0.00586406 -0.02489295  0.15735766  0.04988401 -0.19394568  0.0323847
  0.12646519  0.31990036  0.20220609  0.00213063  0.07262716 -0.04578304
  0.10594807 -0.20938329  0.0208464   0.07557596  0.10898006  0.04078081
  0.09702557 -0.1417052  -0.04108169  0.07666808 -0.21972623  0.08313909
  0.11282784 -0.01802543 -0.07909859 -0.03734268  0.22462773  0.12530361
 -0.11506326 -0.11116724  0.07713438 -0.14411342 -0.07190455  0.05181903
 -0.15373068 -0.16515283 -0.29760525  0.04177203  0.44598293  0.11565727
 -0.18671428 -0.0094368  -0.04082907 -0.03177854  0.09082028  0.071351
 -0.0314899  -0.00690536 -0.05569388  0.08184422  0.18717031  0.0231162
  0.01150969  0.22294064  0.03539124  0.00142848 -0.01278142  0.09894098
 -0.09715538 -0.04611456 -0.07533676 -0.08197623  0.00592459 -0.03578266
  0.0800457   0.0694969  -0.21610515  0.18501195  0.02081468  0.03544708
 -0.06308946  0.02624982 -0.04237811  0.04639273  0.13875048 -0.21558629
  0.15904634  0.19569166 -0.03278807  0.09377148  0.02417728 -0.00971005
 -0.01840551  0.00267514 -0.10145327 -0.04117626  0.02458746 -0.08251425
  0.07797786  0.03817342]