[-0.14282185  0.1069231   0.01919093 -0.06886917 -0.10291771 -0.01596536
  0.0038892  -0.14145134  0.15336077 -0.05104388  0.27111515  0.00837469
 -0.19349015 -0.10090261  0.05225919  0.19509247 -0.23581551 -0.09793362
 -0.12928174 -0.0164371   0.00797569 -0.02304967  0.05692426  0.07482352
 -0.14952491 -0.38124654 -0.0739124  -0.10904574  0.05061038 -0.05107119
 -0.02985376  0.04420677 -0.19504334 -0.07555689  0.03672799  0.06455054
 -0.03014669 -0.06126172  0.16786957  0.0376696  -0.21926723  0.04598894
  0.06974032  0.27177104  0.29023665  0.01038922  0.07651789 -0.06075449
  0.14359544 -0.27643225  0.00355797  0.07784448  0.00672776  0.005087
  0.10563455 -0.1383305  -0.02096755  0.09668554 -0.20118068  0.01243151
  0.06605075 -0.01604993 -0.0674855  -0.05082848  0.18458419  0.15386468
 -0.12109294 -0.11301916  0.13832508 -0.13296218 -0.01917972  0.03453425
 -0.16493145 -0.20397651 -0.31125411 -0.00662177  0.43237939  0.12397643
 -0.18340074  0.01300315 -0.04661597  0.00706579  0.1356407   0.08494557
  0.00062066  0.00430297 -0.08825413  0.06932694  0.19873767 -0.02153735
  0.00621849  0.26833338  0.00349061 -0.02427925  0.04429039  0.08653217
 -0.0880143  -0.03120976 -0.20456472 -0.04716892  0.02750788 -0.00556087
  0.03378937  0.07242456 -0.17217214  0.12105657  0.02121448  0.02158285
 -0.03758509 -0.04852314 -0.07550409  0.0107863   0.10584539 -0.21722685
  0.19093584  0.20361292 -0.04692447  0.09201536  0.05005826 -0.01876969
 -0.0192313   0.00446676 -0.11910876 -0.05075559  0.03285044 -0.02965303
  0.07017511 -0.02655138]