[-0.15360682  0.12514929  0.03110452 -0.03061035 -0.10692554  0.01044669
  0.01552061 -0.10266373  0.16776559 -0.03693476  0.22121087 -0.00429149
 -0.1962999  -0.06600782  0.02913657  0.22293226 -0.21615128 -0.11629279
 -0.12019195 -0.04455828  0.00545284  0.01331859  0.02080038  0.11654208
 -0.17646967 -0.33355093 -0.054845   -0.13385858 -0.01451309 -0.09814111
 -0.03886107  0.06849882 -0.16569914 -0.06839422  0.05654893  0.05518886
 -0.03028143 -0.05439262  0.16409507  0.05375443 -0.20723732  0.01819763
  0.11591299  0.31030643  0.28934228  0.01710454  0.02190408 -0.04252606
  0.15606688 -0.28781959 -0.03264428  0.08527711  0.01675211  0.04639698
  0.11094314 -0.15279479  0.00156992  0.06769271 -0.21484454  0.01748518
  0.03853842 -0.06019931 -0.05418214 -0.04887873  0.19135825  0.13302065
 -0.10041553 -0.09937935  0.15792431 -0.14819892 -0.01755399  0.06125074
 -0.1451132  -0.21797025 -0.28436565 -0.01361289  0.42607281  0.15012924
 -0.18008502  0.0131955  -0.02102025 -0.00205464  0.10165512  0.09180718
 -0.01310675 -0.00728884 -0.06964617  0.06171852  0.19961296 -0.00538914
  0.03005441  0.26497334  0.01355079 -0.06432133  0.05983977  0.06732857
 -0.09084318 -0.02427615 -0.20023349 -0.05050924 -0.00704241 -0.03756639
  0.04731509  0.06463559 -0.19213107  0.10692257  0.02259076 -0.00596902
 -0.07728219 -0.016567   -0.09944404  0.02159244  0.13449425 -0.2285829
  0.16711782  0.18596855 -0.06357224  0.09698266  0.01065943  0.02478266
 -0.04256706 -0.01211477 -0.09198039 -0.05354889  0.06363656 -0.05407519
  0.06207807 -0.02551405]