[-0.20976906  0.12103882  0.07405619 -0.06078272 -0.17286895 -0.03834831
 -0.07092351 -0.13749522  0.14511728 -0.05633938  0.25319636 -0.02204882
 -0.16723767 -0.0539585   0.0276421   0.21354567 -0.18729806 -0.13022776
 -0.04005914 -0.02408748 -0.00557516 -0.01422498  0.01186234  0.07098655
 -0.15610024 -0.36799735 -0.07196544 -0.10056486 -0.01882833 -0.05845124
 -0.06001544  0.06335842 -0.15866196 -0.0812168   0.06211453  0.13412027
 -0.0032638  -0.04741687  0.14567465  0.0163178  -0.24212031  0.01689693
  0.12041719  0.2918328   0.27512103  0.00300321  0.05535704 -0.06507489
  0.15042368 -0.20432054 -0.02769405  0.08939801  0.06004806  0.00689991
  0.10601993 -0.13946511  0.00672599  0.08259196 -0.15182559 -0.01420598
  0.09572747 -0.04241451 -0.03390833 -0.0954105   0.24949251  0.13625176
 -0.11546852 -0.09998883  0.11098154 -0.08149803 -0.08112608  0.02393539
 -0.19722138 -0.18890209 -0.32425165 -0.03691241  0.40935707  0.11329141
 -0.21405466  0.04724914 -0.0153668   0.01491091  0.11435143  0.13363005
  0.01936098  0.03017436 -0.07705595  0.02849513  0.21509902 -0.02781863
  0.02964864  0.1878051  -0.00617171  0.02507407  0.0316467   0.07381875
 -0.09934906 -0.01791576 -0.18639781 -0.06586062 -0.00709049 -0.00177586
  0.04666409  0.08339518 -0.21089445  0.10341566  0.03844307  0.05444834
 -0.07109775 -0.00770681 -0.02709434  0.02516561  0.10913254 -0.22036147
  0.19116561  0.18477236 -0.07129759  0.11358323  0.07271818 -0.00575477
 -0.03862555  0.01992497 -0.09097257 -0.04710054  0.01828235 -0.05535382
  0.10507621  0.02081616]