[-2.08392486e-01  1.29083753e-01  4.90696244e-02 -3.67521644e-02
 -1.63937494e-01 -2.92601474e-02 -5.49403988e-02 -1.52375042e-01
  1.30939573e-01 -4.75625992e-02  2.41820529e-01 -2.45066341e-02
 -2.05623314e-01 -6.36501238e-02  3.43587063e-02  2.23700956e-01
 -1.66778132e-01 -1.48067072e-01 -8.23291168e-02 -3.88450176e-02
  1.41305942e-02 -3.98879386e-02  2.97916364e-02  8.69202092e-02
 -1.61207646e-01 -3.67244273e-01 -7.40965456e-02 -1.17139302e-01
 -5.75768435e-03 -8.81381705e-02 -4.13817652e-02  2.91323364e-02
 -1.60392269e-01 -7.28065893e-02  5.15729263e-02  8.28511417e-02
  8.67659971e-03 -4.45059687e-02  1.75899193e-01  1.57647990e-02
 -2.48134598e-01  1.22099789e-02  1.16799645e-01  2.79680103e-01
  2.53722996e-01 -8.71400721e-03  7.68545195e-02 -5.19477613e-02
  1.18653372e-01 -2.34595731e-01 -3.09297326e-03  7.71741718e-02
  9.44332480e-02  1.37514798e-02  8.30903277e-02 -1.44079208e-01
 -1.56597423e-04  9.36306044e-02 -2.00033054e-01  1.81677025e-02
  1.05178110e-01 -4.04998027e-02 -7.73517638e-02 -5.94484992e-02
  2.37017825e-01  1.58646524e-01 -1.25159577e-01 -1.19452551e-01
  1.07846834e-01 -1.15555599e-01 -4.39769998e-02  4.20884751e-02
 -1.79776490e-01 -2.00960502e-01 -3.27450693e-01 -1.72841512e-02
  4.29348141e-01  1.24107055e-01 -2.20836148e-01  8.15247651e-03
 -3.84816937e-02  1.32825244e-02  6.34913594e-02  9.38494429e-02
 -2.16492321e-02  2.79370733e-02 -7.44911060e-02  5.01533523e-02
  1.95650086e-01 -1.95586253e-02  2.95052882e-02  2.23515302e-01
  2.60681510e-02 -2.17024656e-03  2.97231525e-02  9.73049328e-02
 -9.34138000e-02 -5.94476648e-02 -1.56870991e-01 -6.74829707e-02
 -2.19592936e-02 -1.37145938e-02  6.04218058e-02  6.81333169e-02
 -2.20745966e-01  1.25605524e-01  1.16949603e-02  1.98088009e-02
 -8.72474685e-02  1.51870316e-02 -4.13385257e-02 -4.77063673e-04
  1.16736628e-01 -2.14374691e-01  1.53489202e-01  2.18065888e-01
 -4.00434844e-02  9.25216302e-02  4.84099947e-02 -5.77339390e-03
 -2.53393110e-02  2.70992815e-02 -8.45241696e-02 -4.11011688e-02
  2.96099018e-02 -7.83662647e-02  8.21246132e-02  1.70710292e-02]