[-0.11026793  0.13571014  0.14178652 -0.07980841 -0.11158832 -0.05527357
 -0.08639142 -0.15071285  0.14141582 -0.13526779  0.1744702  -0.05586708
 -0.18342838  0.01532115 -0.07307442  0.25743005 -0.15927124 -0.16926996
 -0.09343334 -0.0087604   0.00326389  0.06849449  0.01785603  0.05046274
 -0.11040369 -0.33608302 -0.05376873  0.00309878  0.02435683 -0.02424493
 -0.11492728  0.05439826 -0.19391394 -0.03548632  0.04368203  0.11953582
 -0.01381002 -0.0966533   0.15081944  0.00951884 -0.31662366  0.06225638
  0.09679794  0.225335    0.2581977   0.00741689  0.0297442  -0.18673609
  0.14003776 -0.22619069  0.01292647  0.11608201  0.032831    0.05723421
  0.01997342 -0.15977864  0.01850881  0.10991067 -0.11964359 -0.04816182
  0.09963062 -0.02663044  0.02107363 -0.11971603  0.2092499   0.09999999
 -0.09791324 -0.17786224  0.12474449 -0.16942991 -0.07553792  0.02461596
 -0.11712718 -0.1298351  -0.31913939 -0.05316985  0.37355646  0.12995625
 -0.15610498  0.12321489 -0.03105915 -0.01832089  0.07931262  0.16890574
 -0.04206888  0.07434165 -0.03051822  0.01857401  0.27159402 -0.03126455
  0.0296777   0.23549922  0.00859533  0.07952481  0.01161052  0.03287578
 -0.121111    0.04667801 -0.1522526  -0.02182293 -0.02015911  0.03689661
  0.0499526   0.15625909 -0.20763622  0.18981461 -0.02613937  0.07908542
  0.0552072   0.04034229 -0.00644408 -0.07071351  0.11918262 -0.16531099
  0.15200861  0.17585742  0.022641    0.08112204  0.14328188  0.07191087
  0.01218853  0.05349948 -0.21101336  0.00716998  0.11528273 -0.13158071
  0.10353633  0.0793789 ]