[-0.14265162  0.09265516  0.01665015 -0.06236237 -0.12199501 -0.07190587
 -0.03669146 -0.15372719  0.16302074 -0.06867794  0.23516198 -0.05251496
 -0.20446678 -0.0564816   0.01451214  0.2225946  -0.18681775 -0.14626627
 -0.09959152 -0.04948015  0.03980783 -0.04839229  0.03360848  0.10957985
 -0.14497034 -0.3576605  -0.0846317  -0.10455523  0.01410554 -0.06432345
 -0.01626105  0.0750889  -0.19050163 -0.0806902   0.03471212  0.04797633
  0.01384688 -0.05604616  0.18744521  0.03488398 -0.25488535  0.02537849
  0.09978595  0.276604    0.24734719  0.0274209   0.08757991 -0.07301049
  0.10851096 -0.247613   -0.009334    0.11448988  0.03619581  0.00622712
  0.08772568 -0.13799696 -0.02016883  0.11050383 -0.18214102  0.02055349
  0.08890364 -0.01438749 -0.06406104 -0.08146097  0.25414595  0.14706403
 -0.13581896 -0.06682664  0.14859845 -0.11821266 -0.0465625   0.02550988
 -0.19231105 -0.19774669 -0.33248851 -0.01777102  0.41814223  0.09909112
 -0.18176234  0.04474099 -0.04032187  0.04681326  0.10430397  0.11107685
 -0.01016548  0.02068659 -0.04401376  0.05644091  0.19944081 -0.03110901
  0.01681755  0.2304862   0.00081923 -0.02824583  0.01498697  0.09736416
 -0.07741529 -0.067986   -0.18199015 -0.04609399  0.0071534   0.02550855
  0.03563254  0.07614059 -0.19045103  0.06665008  0.0180884  -0.00347951
 -0.07167836  0.02360458 -0.04193361 -0.03589271  0.08753001 -0.20686117
  0.17166705  0.21370192 -0.05591093  0.08469667  0.03389509  0.01621021
 -0.01782636  0.00184965 -0.08540977 -0.04906827  0.06250603 -0.01635602
  0.06706252 -0.01305875]