[-0.12657164  0.06355672  0.108941   -0.07879149 -0.13336791 -0.04323995
 -0.09098306 -0.11457731  0.11292376 -0.12215419  0.15235154 -0.05636406
 -0.21311985 -0.06349377 -0.05348041  0.22417402 -0.11440891 -0.17470334
 -0.06976329  0.01747731  0.02375601  0.01940614  0.02780137 -0.00352535
 -0.12384402 -0.35295823 -0.06342115 -0.02362414 -0.02334795 -0.0339394
 -0.08985465  0.06787242 -0.1946272  -0.05393019  0.06180158  0.12173431
 -0.02759474 -0.08034598  0.1428788  -0.02722755 -0.30725893  0.01606667
  0.0665897   0.23439436  0.20662327  0.04733203  0.03710828 -0.15085626
  0.14248906 -0.18064733  0.02460976  0.13307761  0.00403063  0.03958663
  0.0216731  -0.13597532  0.05706161  0.09882005 -0.11831675 -0.03981818
  0.08921053 -0.04432125 -0.01475332 -0.13497442  0.23213661  0.05293554
 -0.11485716 -0.17582826  0.15614149 -0.12782635 -0.03894874  0.02221157
 -0.17012127 -0.14845374 -0.28755662 -0.05717376  0.35316277  0.09044472
 -0.1717606   0.09385238 -0.04346145  0.01077677  0.08896358  0.17169115
  0.01257578  0.08308136 -0.03210448 -0.01304247  0.27113101 -0.07992234
  0.01136694  0.2030541   0.02268857  0.03577513  0.02821257  0.00888522
 -0.08164686  0.04043073 -0.1472448  -0.00265656  0.02401761 -0.03558362
  0.02558203  0.1368826  -0.17002329  0.1659683   0.00542616  0.10354028
  0.04378306  0.00713866 -0.05414416 -0.10392746  0.10327636 -0.18741661
  0.1951268   0.1908749   0.05994901  0.08752107  0.12961574  0.08668943
  0.01149842  0.05549739 -0.19725022 -0.03241754  0.10233983 -0.06631132
  0.08258626  0.06458785]