[-1.09685056e-01  8.60146508e-02  8.04129615e-02 -8.67141411e-02
 -1.31005600e-01 -5.89168444e-02 -7.74550885e-02 -1.50827855e-01
  1.19166128e-01 -1.49135396e-01  1.46990597e-01 -6.49258792e-02
 -2.02241734e-01 -4.15625982e-02 -2.80912966e-02  2.33771905e-01
 -1.27818063e-01 -2.10042939e-01 -8.80699679e-02  8.85883719e-03
 -5.01201907e-03 -1.95009299e-02  1.63314212e-02  3.45594920e-02
 -1.37738287e-01 -3.02056581e-01 -7.63050541e-02 -2.56284066e-02
  9.14171990e-03 -4.06305790e-02 -1.19437814e-01  5.61199784e-02
 -2.12783813e-01 -6.95272610e-02  5.18676639e-02  1.14926733e-01
 -4.30422574e-02 -9.39376429e-02  1.52664572e-01 -1.41561134e-02
 -2.92886406e-01  4.57001738e-02  4.36692908e-02  2.18000934e-01
  2.32612953e-01  2.44089086e-02  5.11188582e-02 -1.68741018e-01
  1.49187073e-01 -1.83454975e-01  1.20909885e-02  1.19921587e-01
  3.94204073e-02  4.67778519e-02 -2.30025507e-05 -1.49825796e-01
  5.07459603e-02  9.75718647e-02 -1.25449464e-01 -2.11113878e-02
  1.13877691e-01 -2.63102408e-02 -1.60483401e-02 -1.26722887e-01
  2.25995287e-01  7.51115605e-02 -1.17417373e-01 -1.92182660e-01
  1.49128065e-01 -1.43013164e-01 -4.83563431e-02  2.94238925e-02
 -1.47492453e-01 -1.43559143e-01 -2.89387554e-01 -6.84168488e-02
  3.40025812e-01  1.10597566e-01 -1.67986989e-01  8.52978751e-02
 -5.95333576e-02  1.24715781e-02  7.19393045e-02  1.38682276e-01
 -2.25648154e-02  6.72627389e-02 -4.47679013e-02 -6.67885179e-03
  2.78758615e-01 -6.52551129e-02  5.20556327e-03  1.97767422e-01
  1.04729310e-02  5.24841510e-02  2.00830381e-02  2.65241750e-02
 -1.06706217e-01  3.36097591e-02 -1.31816074e-01 -1.26190139e-02
  1.08961342e-02 -2.45990641e-02  2.64284797e-02  1.50502011e-01
 -1.52317390e-01  1.81508824e-01 -2.50947662e-02  1.19963765e-01
  1.42990937e-02  2.93395817e-02 -7.53118992e-02 -8.73735473e-02
  1.00291632e-01 -1.85342416e-01  1.75452262e-01  1.93772420e-01
  3.19620967e-02  4.27767411e-02  1.52120054e-01  6.82069436e-02
  2.36007990e-03  6.85365871e-02 -2.14997336e-01 -3.08802966e-02
  1.13435805e-01 -7.51292333e-02  1.07423320e-01  6.88860714e-02]