[-1.70582712e-01  1.31565556e-01  6.13658726e-02 -6.06725290e-02
 -1.26596674e-01 -5.34481108e-02 -7.73460716e-02 -1.29262149e-01
  9.56170112e-02 -1.96436904e-02  2.28393421e-01 -2.04227697e-02
 -2.46469215e-01 -1.20620906e-01  2.79521048e-02  1.98855594e-01
 -1.34380326e-01 -1.55119494e-01 -9.14516374e-02 -2.61852331e-02
  2.37407628e-02 -4.92803659e-03  3.27105895e-02  4.96922545e-02
 -1.74809322e-01 -3.43841225e-01 -5.61519451e-02 -7.88719282e-02
 -2.97016781e-02 -1.23816133e-01 -3.01874261e-02  4.37515862e-02
 -2.11545691e-01 -6.85826689e-02  4.23757844e-02  9.05906856e-02
  1.00929020e-02 -3.88200022e-02  1.42747864e-01 -1.60715543e-04
 -2.73721606e-01 -6.09035185e-03  7.56085217e-02  2.69195706e-01
  2.31706291e-01 -2.26960867e-03  7.94675648e-02 -7.26227760e-02
  9.89343897e-02 -2.17101291e-01  7.89955072e-03  8.53311643e-02
  9.86935645e-02 -3.72947007e-03  4.26856093e-02 -1.55415133e-01
 -7.79138459e-03  1.32734045e-01 -1.70379713e-01 -1.71184558e-02
  9.98617336e-02 -6.40363991e-02 -8.42437595e-02 -9.04383287e-02
  2.21035272e-01  7.91744441e-02 -1.46494463e-01 -1.26615807e-01
  1.10868432e-01 -9.94506702e-02 -4.27574813e-02  7.56790638e-02
 -1.54382423e-01 -1.96913570e-01 -3.85000080e-01  2.10805405e-02
  3.90114427e-01  1.14525877e-01 -2.20328808e-01  2.15824973e-02
 -5.65566197e-02  6.78430945e-02  3.82848270e-02  8.16485360e-02
 -6.03743494e-02  8.02290961e-02 -8.60204548e-02  5.60711920e-02
  1.99981332e-01 -3.02430000e-02  1.13660395e-02  1.92581564e-01
  2.51528565e-02  3.55801210e-02  6.89064711e-03  6.52526692e-02
 -6.12181686e-02 -3.50002311e-02 -1.32074580e-01 -9.50688496e-03
  1.17958514e-02 -2.52698306e-02  5.17695136e-02  1.27731487e-01
 -1.87074468e-01  1.24233358e-01  3.09498254e-02  1.62127148e-02
 -5.22980280e-02  3.01538296e-02 -3.65648642e-02 -6.82179928e-02
  8.67686197e-02 -2.52731115e-01  1.46548316e-01  2.39149123e-01
  2.05319328e-03  9.11186486e-02  8.10353905e-02  2.52356417e-02
 -3.02053876e-02  2.46909764e-02 -1.22736491e-01 -4.09330130e-02
  9.58358869e-02 -5.90206794e-02  9.55437422e-02  1.71777606e-02]