[-0.15907155  0.08237923  0.0035896  -0.07304563 -0.14173739 -0.04335606
  0.03182032 -0.11184982  0.16369237 -0.01471823  0.24589625 -0.01972612
 -0.18423088 -0.08630908  0.0762809   0.1762993  -0.22380602 -0.1174885
 -0.09694778 -0.0335508   0.04237973 -0.02279825  0.03177304  0.11001673
 -0.19823427 -0.34746027 -0.07690953 -0.12792182  0.07720034 -0.09283393
 -0.0114386   0.08327702 -0.19217889 -0.09201142  0.05669924  0.07811706
 -0.01866896 -0.08535317  0.18169709  0.03159411 -0.20725222  0.0286325
  0.07963561  0.29838917  0.25534511 -0.01451088  0.06600825 -0.05262133
  0.14337659 -0.25510168 -0.01746725  0.09483668  0.02756634  0.01826726
  0.11002004 -0.11027782  0.02672794  0.09333154 -0.25457904  0.02680456
  0.0758115  -0.02192018 -0.05373056 -0.06505352  0.17917012  0.12060551
 -0.09929674 -0.10036328  0.13060294 -0.13318454 -0.05287519  0.03855925
 -0.16319017 -0.19743679 -0.3097212  -0.02292806  0.40415898  0.12604152
 -0.20443156  0.04331066 -0.02934358 -0.00924091  0.12593096  0.06732606
 -0.01673211  0.00560593 -0.09171564  0.09199648  0.21033163 -0.02309554
  0.04123902  0.25520641  0.03601216 -0.04149218  0.05610749  0.07580149
 -0.08616407 -0.03174493 -0.18225716 -0.03602843  0.04024253 -0.0268398
  0.04165054  0.08495232 -0.20662354  0.12112303  0.04442483 -0.01700571
 -0.07853531 -0.0481248  -0.09342378  0.01824393  0.10324746 -0.23777483
  0.18890055  0.20698202 -0.04825833  0.07726967  0.01311679 -0.03641586
 -0.02720321 -0.00187052 -0.09020516 -0.04579364  0.05270889 -0.04001709
  0.0507468  -0.02082475]