[-1.46209762e-01  9.27004814e-02  2.76665222e-02 -7.53447041e-02
 -1.73524395e-01  3.06628346e-02 -4.42963652e-02 -6.08403645e-02
  1.82022020e-01 -4.23320606e-02  2.48747751e-01 -5.99296810e-03
 -1.88787073e-01 -7.87616372e-02  6.91114366e-02  1.95043355e-01
 -2.11087868e-01 -1.06186725e-01 -6.56397864e-02 -1.41762299e-02
  6.13689655e-03  2.81826331e-04 -1.74191501e-02  8.42018500e-02
 -1.75670862e-01 -4.38391417e-01 -3.54836993e-02 -1.04725085e-01
  8.85878690e-03 -1.24278955e-01 -5.88283725e-02  9.62124988e-02
 -1.74950704e-01 -1.00343935e-01  6.03874885e-02  1.07017808e-01
 -5.42714186e-02 -3.85121368e-02  1.56953335e-01  7.01299906e-02
 -2.23436639e-01  2.60220524e-02  9.98756140e-02  3.16431969e-01
  2.34920308e-01  1.23685999e-02  5.35941236e-02 -2.59089656e-02
  1.60791859e-01 -2.83616036e-01  5.95559948e-04  1.12040043e-01
  5.07752113e-02  2.24356614e-02  1.23587407e-01 -1.08484268e-01
 -9.19248350e-03  9.17787999e-02 -2.31755763e-01  4.63309661e-02
  8.42150971e-02 -3.41137163e-02 -4.64348719e-02 -7.86905587e-02
  2.14885399e-01  1.31701127e-01 -8.99334699e-02 -9.90471467e-02
  1.00934565e-01 -9.56072956e-02 -5.74616380e-02  2.57123802e-02
 -1.51918158e-01 -2.24399492e-01 -3.02447319e-01 -2.07127188e-03
  4.14917529e-01  1.56194493e-01 -2.00153813e-01  2.05407273e-02
 -3.22982408e-02 -5.16099297e-02  1.14521228e-01  7.12551698e-02
  5.73805859e-03  2.16637887e-02 -5.09200171e-02  8.99932608e-02
  2.12588862e-01  9.03450884e-03  5.32378219e-02  2.51172423e-01
  3.01369429e-02 -2.71733548e-03  4.30925190e-02  4.94621918e-02
 -1.04194395e-01 -3.92046906e-02 -2.11578056e-01 -8.21963176e-02
 -1.72438438e-03 -3.58858816e-02  6.58045709e-02  7.96175525e-02
 -2.32690170e-01  1.42357558e-01  4.73381989e-02  4.06912062e-03
 -3.35620232e-02  1.03932796e-02 -9.08808112e-02 -9.77363903e-03
  1.22133210e-01 -2.40158677e-01  1.65590212e-01  1.90975502e-01
  5.49529586e-03  1.04023136e-01  4.05623391e-02 -4.22368385e-02
 -2.34937463e-02 -2.57059187e-02 -9.53845605e-02 -4.08638380e-02
  3.59424353e-02 -3.49819027e-02  5.96463047e-02 -9.32378601e-03]