[-0.11994016  0.11277475  0.04094829 -0.01682458 -0.0870216   0.0179128
 -0.00144843 -0.12221553  0.17184155 -0.05135401  0.23683579 -0.03306412
 -0.21738051 -0.04871592  0.02382901  0.24366918 -0.22344995 -0.11777592
 -0.11848336 -0.01059614  0.00427467 -0.00758971  0.02812979  0.11926705
 -0.16091773 -0.35682189 -0.06870953 -0.14366007  0.01414892 -0.08975553
 -0.06935792  0.02848727 -0.16562685 -0.06866938  0.06398183  0.03532425
 -0.03282466 -0.0853373   0.15698071  0.04289677 -0.23191361  0.01090602
  0.11677311  0.27255312  0.28093413  0.03789048  0.0327138  -0.06711853
  0.12359291 -0.28438026 -0.01726241  0.08051064  0.0189383   0.05764047
  0.10259622 -0.17952195 -0.00677556  0.07974032 -0.19926633  0.01619223
  0.04542265 -0.01904004 -0.03470654 -0.0292169   0.20718448  0.13266014
 -0.10908704 -0.10752272  0.16664211 -0.15554054 -0.01097499  0.02953848
 -0.14648649 -0.21543054 -0.2866579  -0.03959974  0.41766712  0.13101923
 -0.18881805  0.02124149 -0.03908131 -0.00509361  0.07928747  0.10482522
  0.00445694 -0.00840373 -0.06413395  0.02837091  0.197134   -0.02387326
  0.06861946  0.26934323 -0.01345021 -0.08192375  0.0539069   0.07365137
 -0.11915465 -0.02396083 -0.19264221 -0.08100007 -0.01634503 -0.00696895
  0.04700957  0.08676412 -0.22636564  0.11007907  0.01750168 -0.01769179
 -0.02786839 -0.00356855 -0.08051322 -0.00967489  0.14215143 -0.22295558
  0.15854274  0.20084782 -0.0304947   0.0842973   0.01036764  0.03548654
 -0.02705249  0.00431606 -0.13364296 -0.04501602  0.04230288 -0.07004862
  0.02214997 -0.02396719]