[-0.19271585  0.13127159  0.02298708 -0.04614767 -0.11603136  0.02559018
  0.02749384 -0.10517801  0.17985798 -0.01365284  0.2225195  -0.0185113
 -0.21219969 -0.0656661   0.03234579  0.21820498 -0.21408133 -0.11644831
 -0.11114252 -0.07238557 -0.00597279  0.00534107  0.00954261  0.1358857
 -0.15951033 -0.33820429 -0.04489996 -0.15389003 -0.00503874 -0.08375075
 -0.02678527  0.07182588 -0.15853977 -0.0667628   0.04012836  0.05793235
 -0.05158499 -0.05772224  0.17278226  0.03728397 -0.19074319  0.03321642
  0.12028307  0.31778061  0.27980098 -0.00391973  0.02433257 -0.03099605
  0.14978293 -0.27747247 -0.00731982  0.11616081  0.02229654  0.05419261
  0.10574424 -0.15119117 -0.00342368  0.05560925 -0.21314183  0.03340182
  0.0645433  -0.04711935 -0.05798863 -0.05971835  0.20052409  0.15793787
 -0.10071959 -0.11440573  0.14426635 -0.13428155 -0.01813152  0.06570034
 -0.16836968 -0.2081496  -0.24266866  0.02086322  0.4398087   0.14832112
 -0.16621657  0.02273375 -0.05816599 -0.02975628  0.08380591  0.08532654
 -0.00656683 -0.03320462 -0.06467428  0.06762726  0.18499604  0.00673188
  0.02604599  0.27865988  0.02707966 -0.0715782   0.04918205  0.06282311
 -0.09788477 -0.01937324 -0.17711724 -0.06966857 -0.00833263 -0.04818366
  0.05771693  0.03830319 -0.20126143  0.14108454  0.0394249   0.03444176
 -0.06704386 -0.00752197 -0.0870535   0.04287516  0.14942636 -0.22186248
  0.19069804  0.14842521 -0.02838276  0.09759163  0.01489797  0.02490371
 -0.03278713 -0.01365467 -0.08784077 -0.03532821  0.05712271 -0.05128249
  0.06434571  0.01099725]