[-0.12837653  0.09001656  0.11173578 -0.09386562 -0.1716167  -0.04404281
 -0.07431338 -0.11346474  0.10064743 -0.15250915  0.15586305 -0.04595422
 -0.20086329 -0.0671459  -0.03249499  0.23445117 -0.13569944 -0.20150195
 -0.04279796 -0.00417819  0.0131064   0.01565543  0.03897607  0.02773624
 -0.15070236 -0.35979554 -0.06542158 -0.02497086 -0.00124667 -0.02359731
 -0.10367697  0.06566453 -0.18794186 -0.03534133  0.04506059  0.11345817
 -0.01958183 -0.07959353  0.15149455 -0.01105743 -0.27420932  0.02281348
  0.04599727  0.23493485  0.23828018  0.02918648  0.07545668 -0.15508536
  0.1441514  -0.20136063  0.01334427  0.11019235 -0.0085521   0.023049
  0.01420994 -0.1481453   0.04586501  0.07155436 -0.12679563 -0.03571232
  0.07327677 -0.03020418 -0.00379946 -0.12928608  0.2446744   0.05416064
 -0.10216299 -0.20058735  0.16701911 -0.16438758 -0.05426592  0.02109129
 -0.15577923 -0.11992966 -0.30488685 -0.05247198  0.34914133  0.12818299
 -0.15320399  0.09083609 -0.04378643  0.00202039  0.07575693  0.15483229
 -0.0249781   0.06266399 -0.06817155  0.01616913  0.26808074 -0.07325038
  0.00643485  0.21852186  0.03759463  0.07951467  0.0403648   0.02670315
 -0.11716294  0.06270736 -0.12903649  0.01663591  0.0176356  -0.03343059
  0.04609678  0.17079946 -0.16296749  0.18000433 -0.06214752  0.09380131
 -0.004727    0.01680894 -0.07611512 -0.08826733  0.09435178 -0.17062499
  0.15351743  0.20701972  0.04517725  0.08513597  0.14623599  0.06307112
 -0.00133613  0.05736473 -0.20472701 -0.01079856  0.09398314 -0.10798936
  0.09257542  0.0863549 ]