[-0.12716268  0.08286448  0.08551911 -0.07659768 -0.13083296 -0.07207051
 -0.07802683 -0.13615364  0.11375284 -0.14453864  0.13723652 -0.04917759
 -0.18726313 -0.06481633 -0.02704266  0.22339337 -0.12213039 -0.19355328
 -0.08928526  0.01704977  0.01040968 -0.01128137  0.02478452  0.02425772
 -0.12038594 -0.31043121 -0.06981187 -0.04152307  0.00231363 -0.03088772
 -0.10499585  0.03400781 -0.20539975 -0.07504443  0.04693053  0.11647966
 -0.03843488 -0.08227623  0.15353699 -0.01753042 -0.30055529  0.03572287
  0.04826657  0.21195643  0.23905532  0.04427364  0.05049776 -0.17198756
  0.17320925 -0.19297116  0.02962561  0.10625025  0.0426081   0.0279332
  0.01772658 -0.14689524  0.05265807  0.09681912 -0.14073305 -0.02717375
  0.11061569 -0.01643488 -0.03718586 -0.1157482   0.22679804  0.09213432
 -0.11468146 -0.18921155  0.1664187  -0.15412727 -0.04412184  0.03960837
 -0.14005846 -0.1372266  -0.28853264 -0.06694999  0.3576735   0.10249235
 -0.15719025  0.06620935 -0.06596033  0.01953516  0.08155759  0.14002874
 -0.02245463  0.05093065 -0.04281528 -0.016721    0.26656276 -0.06457785
  0.00505984  0.18668143  0.02606885  0.05075013  0.01081289  0.0156141
 -0.10248446  0.04067521 -0.13522281 -0.01342969  0.02234623 -0.01814086
  0.03047524  0.1449829  -0.15709096  0.16727522 -0.02456836  0.11170229
  0.028859    0.012754   -0.07522319 -0.08406611  0.09087974 -0.17026162
  0.18258928  0.18054415  0.0267846   0.05127034  0.14849074  0.07198945
  0.0097776   0.05611144 -0.22675335 -0.02829434  0.10944775 -0.07273801
  0.10095065  0.06083436]