[-0.13914827  0.13149755  0.10910243 -0.08257272 -0.16669594 -0.04804456
 -0.08620107 -0.13218847  0.09839206 -0.13251317  0.17105214 -0.05838975
 -0.19444644 -0.0508549  -0.03643917  0.23702745 -0.13135122 -0.2090183
 -0.05377062  0.00533474  0.02452805  0.01959062  0.0388622   0.02540038
 -0.14850697 -0.35710752 -0.0714035  -0.01683847  0.03274009 -0.0301444
 -0.08913389  0.04380007 -0.20819914 -0.05184347  0.04634537  0.11569407
 -0.02304672 -0.08725155  0.14854729 -0.0117046  -0.31491408  0.04426255
  0.06870754  0.25060421  0.23068754  0.02296422  0.06771772 -0.16920364
  0.12482237 -0.16738753 -0.00075436  0.11799313  0.00376888  0.03368172
  0.00189271 -0.12786542  0.05314567  0.08625029 -0.13920628 -0.04780896
  0.10750566 -0.01456069  0.00476598 -0.13000455  0.24406414  0.04470192
 -0.10318691 -0.20435278  0.15005118 -0.15308562 -0.057625    0.05401761
 -0.14299822 -0.12502487 -0.30374843 -0.06082774  0.35454515  0.10722343
 -0.1441644   0.10811567 -0.04707967 -0.0015166   0.07547604  0.15720692
 -0.0168791   0.08257921 -0.06206468  0.01621541  0.28684226 -0.06999831
  0.01866917  0.22324979  0.04081838  0.06561506  0.03393584  0.05031906
 -0.12190934  0.05265591 -0.13789164 -0.00753061  0.00645195 -0.01320958
  0.03874009  0.15459026 -0.17381097  0.1843874  -0.02335845  0.10687553
  0.00358894  0.01933347 -0.05397881 -0.08792608  0.09542716 -0.18799073
  0.16416804  0.20226029  0.04299381  0.06058938  0.16887422  0.04629544
  0.00044284  0.04370717 -0.20501994 -0.01411839  0.10097554 -0.12206244
  0.10396637  0.07695539]