[-0.16117512  0.10142761  0.02579071 -0.07963628 -0.15643805  0.02511194
 -0.03463294 -0.05443403  0.18832977 -0.04809747  0.23562017  0.01071637
 -0.17775118 -0.11295217  0.07678906  0.18942924 -0.21646392 -0.10555126
 -0.05722404 -0.00409037  0.02946418  0.01808371 -0.01080873  0.08554024
 -0.16322893 -0.43889737 -0.03717771 -0.10378385  0.02731144 -0.12596083
 -0.04552184  0.07687198 -0.17387854 -0.09226767  0.05422226  0.11948588
 -0.05595609 -0.03861675  0.15240972  0.07346496 -0.21284008  0.00657225
  0.09948632  0.31091347  0.23936193  0.00935581  0.0608681  -0.02506321
  0.1630138  -0.28444639 -0.00810558  0.09795395  0.06102882  0.02222804
  0.13739519 -0.12336127 -0.00957867  0.09856061 -0.22548492  0.05610296
  0.0535718  -0.03967661 -0.05267761 -0.05415896  0.21667671  0.10601983
 -0.09304313 -0.09404012  0.1116637  -0.10403375 -0.05400036  0.03797076
 -0.13605848 -0.21983199 -0.29698008 -0.00150992  0.4238711   0.15735798
 -0.19798909  0.03002019 -0.03496058 -0.05268634  0.1007651   0.08466754
 -0.01406233  0.03150256 -0.0619568   0.0835997   0.20362841  0.01829331
  0.0610566   0.25435886  0.0399648   0.0130308   0.04113511  0.02004172
 -0.09404325 -0.04286032 -0.1988152  -0.09980135  0.00242202 -0.0602743
  0.06213248  0.08057017 -0.24293156  0.14355078  0.05580867 -0.00475818
 -0.0297906   0.0130367  -0.09222537 -0.00273258  0.11747091 -0.23978694
  0.16297224  0.20538461  0.01006614  0.12454628  0.0447062  -0.02868873
 -0.01609927 -0.02851123 -0.08126537 -0.03174116  0.03060261 -0.04037784
  0.05905681 -0.01503553]