[-1.56099513e-01  4.77828234e-02  8.49561840e-02 -8.24811012e-02
 -1.31541222e-01 -5.57306670e-02 -5.43222018e-02 -1.14673257e-01
  1.00307368e-01 -1.24489583e-01  1.65188178e-01 -9.39707980e-02
 -2.02046037e-01 -6.37887642e-02 -2.15581395e-02  2.23948389e-01
 -1.38248309e-01 -1.70998588e-01 -6.08110614e-02  3.74046387e-03
  3.33174840e-02  4.05883929e-03 -2.05346686e-03  1.38482293e-02
 -1.14142179e-01 -3.67713511e-01 -7.77651221e-02 -4.52976823e-02
 -2.69805193e-02 -4.43420885e-03 -6.33502230e-02  6.72515035e-02
 -1.95128664e-01 -7.50630349e-02  6.16742969e-02  1.18739419e-01
 -2.06811354e-04 -8.85008499e-02  1.38850003e-01 -2.04636175e-02
 -2.91110456e-01  1.33601753e-02  8.32201391e-02  2.42237881e-01
  1.90352678e-01  4.31096405e-02  4.06634547e-02 -1.11679316e-01
  1.48368821e-01 -1.54262826e-01 -9.82209202e-03  1.04418278e-01
  2.32814942e-02  2.79600751e-02  2.57321447e-02 -1.32282451e-01
  6.68959171e-02  7.03985319e-02 -1.38719976e-01 -5.18626682e-02
  9.94319841e-02 -4.43298109e-02 -3.73299280e-03 -1.30260840e-01
  2.49646261e-01  4.80710529e-02 -1.12426721e-01 -1.70519695e-01
  1.53862432e-01 -1.18653871e-01 -4.26608175e-02  5.92842652e-03
 -1.84678048e-01 -1.40210733e-01 -2.97542602e-01 -3.84061821e-02
  3.62177581e-01  8.83259922e-02 -1.68428272e-01  9.48320180e-02
 -3.31114754e-02  2.23256256e-02  1.13531843e-01  1.82113230e-01
  2.88758632e-02  1.02767423e-01 -4.16652970e-02 -1.89334210e-02
  2.51179367e-01 -6.43739551e-02 -1.21689886e-02  1.89787939e-01
  2.31433823e-03  3.14342380e-02  4.70405445e-02  4.21623886e-03
 -8.64086300e-02  2.62492727e-02 -1.41927704e-01 -3.19036859e-04
  2.55898591e-02 -3.26964371e-02  2.66125482e-02  1.29116789e-01
 -1.58651680e-01  1.48007601e-01 -1.49414381e-02  1.04935624e-01
 -1.13763316e-02  1.03865257e-02 -5.61069660e-02 -6.66621700e-02
  8.27691928e-02 -1.84979588e-01  1.67706236e-01  1.80003911e-01
  2.30411217e-02  9.65192392e-02  1.27127722e-01  6.39849827e-02
 -5.82724297e-03  6.87937811e-02 -2.01514825e-01 -4.89866547e-02
  9.83006954e-02 -4.26596142e-02  1.12356603e-01  5.53698540e-02]