[-0.14919131  0.09360588  0.01158527 -0.06336673 -0.14419824 -0.03293684
  0.01777015 -0.12416804  0.16396508 -0.01352456  0.24935965  0.00206301
 -0.18784188 -0.08083814  0.08529271  0.1770269  -0.2252119  -0.11373629
 -0.11149501 -0.03777744  0.01754033 -0.00900589  0.04406921  0.10253137
 -0.1997254  -0.36403301 -0.08384518 -0.12231907  0.07553585 -0.08234069
 -0.01850364  0.08102063 -0.18419115 -0.08550063  0.06171389  0.06827313
 -0.02748455 -0.08141136  0.1811658   0.03131722 -0.21413343  0.03918495
  0.08360014  0.29009268  0.27422166 -0.01393229  0.07194716 -0.05997536
  0.14387374 -0.25871295 -0.0070402   0.09116139  0.0253051   0.01298556
  0.11575687 -0.11999563  0.0005287   0.10245424 -0.2538383   0.02642838
  0.07193121 -0.0219557  -0.06409533 -0.06778306  0.17315625  0.14423905
 -0.10780793 -0.11181458  0.13147314 -0.13886446 -0.04657525  0.04840756
 -0.16057049 -0.20021395 -0.31869715 -0.02091728  0.42335835  0.11704989
 -0.20472133  0.02045796 -0.03106917 -0.01228706  0.11670848  0.05565481
 -0.03182952 -0.01848931 -0.09312938  0.09004038  0.2161938  -0.01300885
  0.03402434  0.25779352  0.03296791 -0.03535859  0.05603396  0.10289792
 -0.09697725 -0.03708963 -0.1905902  -0.03954501  0.0351251  -0.02892829
  0.04378769  0.08968364 -0.19983917  0.13327861  0.0445812  -0.01361637
 -0.06210022 -0.0411548  -0.09783082  0.01398791  0.11722907 -0.24263708
  0.18709646  0.19926067 -0.0536673   0.08242189  0.01099867 -0.02734445
 -0.04347572 -0.00440252 -0.09630282 -0.04837111  0.04785183 -0.04683804
  0.05159163 -0.01740054]