[-0.11621102  0.05697634  0.0798462  -0.08713166 -0.1396639  -0.06031
 -0.07155357 -0.11812554  0.10879295 -0.15518333  0.13880078 -0.05993593
 -0.19938169 -0.03622261 -0.02529223  0.22865163 -0.12218751 -0.20129657
 -0.09035367  0.0147634   0.00213883 -0.0112149   0.00964326  0.03145424
 -0.12128003 -0.31129393 -0.07313999 -0.02646174 -0.00373452 -0.03355914
 -0.10869121  0.04998844 -0.19848931 -0.06349634  0.05480686  0.10718619
 -0.03457873 -0.09016456  0.15575798 -0.00375084 -0.29572535  0.0403337
  0.03756732  0.22005458  0.22619097  0.0472687   0.05654792 -0.17070466
  0.16240004 -0.20274127  0.02196364  0.12165996  0.03426803  0.03236673
  0.00222291 -0.14566462  0.05460079  0.09299736 -0.12878163 -0.02023131
  0.10309962 -0.01438521 -0.01956407 -0.12649386  0.23383777  0.07945224
 -0.12126241 -0.19337662  0.15461685 -0.1503315  -0.05461726  0.02362334
 -0.15115725 -0.1430615  -0.27841148 -0.06582915  0.34518877  0.10161304
 -0.16163898  0.08895823 -0.06775098  0.01586973  0.07831426  0.15017252
 -0.01838644  0.05909294 -0.03821511 -0.01246441  0.27767557 -0.07487226
  0.00789786  0.19585691  0.01937482  0.04766011  0.02228786  0.02556163
 -0.09933912  0.03998041 -0.12027188 -0.00996336  0.02970982 -0.02342022
  0.03387664  0.1441174  -0.16418616  0.18147646 -0.04353771  0.11813159
  0.0302146   0.01824237 -0.07356276 -0.0880024   0.09326205 -0.17908096
  0.17229497  0.19078694  0.0262682   0.05135006  0.1480677   0.07581259
  0.00832934  0.0693564  -0.22486177 -0.02982395  0.1099002  -0.0611028
  0.09388305  0.06550627]