[-0.13662507  0.06702789  0.1012883  -0.08206569 -0.1268131  -0.04020212
 -0.07748923 -0.10878395  0.11569741 -0.11536337  0.15898779 -0.05467752
 -0.21535459 -0.07297677 -0.05127366  0.23377438 -0.11827558 -0.17863515
 -0.06804106  0.01827565  0.02638438  0.01689049  0.02894161  0.00661327
 -0.12170508 -0.35899103 -0.06020671 -0.03042409 -0.01922285 -0.04011294
 -0.09550986  0.07187875 -0.19417028 -0.05198068  0.06464636  0.12309581
 -0.01766678 -0.08597455  0.14556511 -0.02968634 -0.30634922  0.02171829
  0.07739027  0.23929726  0.2087491   0.04300879  0.03533757 -0.15741657
  0.15375386 -0.1736048   0.02579663  0.12860668  0.00891868  0.03617024
  0.01996804 -0.13656078  0.05971253  0.08994463 -0.12086204 -0.03980492
  0.08473682 -0.04175937 -0.01293787 -0.1333676   0.23064664  0.04967121
 -0.11616261 -0.17508848  0.16086717 -0.12477984 -0.03616407  0.01659264
 -0.17684628 -0.14753293 -0.28854382 -0.05387117  0.35267258  0.09001195
 -0.1772707   0.10293849 -0.04730109  0.01088478  0.09408056  0.17999171
  0.01115802  0.0724625  -0.04177354 -0.01397426  0.27926621 -0.07755749
  0.01061448  0.20256244  0.02422907  0.03979648  0.02795981  0.01259342
 -0.08724856  0.04191063 -0.15092599 -0.00441051  0.01723957 -0.03580692
  0.02066783  0.14107953 -0.17318317  0.15501875  0.01288289  0.10722705
  0.0457733   0.0154452  -0.05518137 -0.10902154  0.08926    -0.18246542
  0.20167635  0.18882205  0.06359365  0.08481939  0.13413443  0.08925538
  0.0167457   0.05349971 -0.19630519 -0.02780903  0.11095001 -0.06251162
  0.08325689  0.06520671]