[-0.1508393   0.05331763  0.09405167 -0.08380025 -0.13949263 -0.05209839
 -0.06206785 -0.10878568  0.09950809 -0.13415568  0.16644321 -0.08008196
 -0.2003202  -0.0600181  -0.02804588  0.22184582 -0.1236243  -0.16804926
 -0.06821261  0.00239902  0.02733473  0.00728266  0.00832936  0.00706645
 -0.10719749 -0.36506942 -0.07209741 -0.03482775 -0.02136959 -0.01140362
 -0.07085814  0.0646889  -0.19419071 -0.07602479  0.06302839  0.11430893
 -0.0087953  -0.08155956  0.14214002 -0.02502861 -0.29023784  0.01393484
  0.06985941  0.24935162  0.19866955  0.04794054  0.04065259 -0.11618354
  0.1502994  -0.16653368 -0.00103794  0.10453701  0.01845498  0.02266501
  0.02535642 -0.13061655  0.06280822  0.07401809 -0.13894987 -0.05747485
  0.09704351 -0.04004805 -0.00302401 -0.13482776  0.2514233   0.05239255
 -0.11529564 -0.17046487  0.16006033 -0.12272928 -0.02883087  0.00426741
 -0.18318856 -0.13844302 -0.29157382 -0.03866228  0.36093631  0.09788761
 -0.16050324  0.08649018 -0.03588171  0.0235594   0.10361929  0.17355679
  0.0184619   0.09883431 -0.03311639 -0.01070604  0.24850598 -0.06916248
 -0.01434636  0.19186746  0.0105892   0.02860134  0.04527365  0.00501764
 -0.08908137  0.02734067 -0.15186839  0.00977609  0.01375391 -0.03235548
  0.03499889  0.1383899  -0.1563655   0.1546583  -0.0239327   0.10474115
 -0.01000024  0.01053503 -0.05882528 -0.078551    0.07987925 -0.17850095
  0.16483423  0.18294652  0.03420969  0.09634446  0.12864546  0.06076868
  0.00433379  0.06983302 -0.19867745 -0.0476981   0.09792253 -0.04889492
  0.11045953  0.05865214]