[-0.13004249  0.08514096  0.01216194 -0.08771261 -0.14855967  0.03180329
 -0.04548656 -0.06975103  0.19703899 -0.05071709  0.25878981 -0.00331052
 -0.17258766 -0.08360541  0.05216829  0.19837512 -0.21926391 -0.10597792
 -0.04972742 -0.00659312  0.00789759 -0.01534379 -0.0313742   0.08233129
 -0.16939367 -0.41760564 -0.04397109 -0.12203287  0.00871465 -0.11813092
 -0.06529644  0.09236983 -0.1803741  -0.09269284  0.04688933  0.09618645
 -0.06004425 -0.0341631   0.14741005  0.07813111 -0.2197579   0.03888246
  0.09406397  0.31090811  0.24662395  0.01132783  0.04400532 -0.03570079
  0.16186248 -0.26077947  0.00348568  0.10661315  0.07331552  0.0284866
  0.11190967 -0.1167945  -0.00479684  0.07537671 -0.22751534  0.04719883
  0.07823214 -0.02676391 -0.04539633 -0.0636273   0.22050409  0.13270244
 -0.09123146 -0.09558186  0.10984959 -0.0837897  -0.05003161  0.02106243
 -0.16705933 -0.22844087 -0.29310969  0.00625086  0.39915273  0.14173464
 -0.19279359  0.03266359 -0.03348795 -0.04829316  0.11058459  0.07210225
  0.00255063  0.01467676 -0.0465291   0.08249647  0.20635395 -0.00481665
  0.05067191  0.23688965 -0.00249782 -0.01227307  0.03191578  0.04869034
 -0.10509477 -0.02268039 -0.20229928 -0.09734406  0.01037869 -0.03980907
  0.05853732  0.08521677 -0.23599868  0.13012691  0.04887464  0.00927358
 -0.02306882  0.01074921 -0.08809666 -0.00869954  0.12375177 -0.22528902
  0.18904702  0.17843781  0.01305236  0.09528898  0.04722526 -0.03975386
 -0.03118013 -0.02664333 -0.10786473 -0.02758361  0.03803545 -0.02459277
  0.06795621 -0.01357498]