[-0.14309785  0.13408008  0.02611378 -0.06732193 -0.12221631  0.00571756
  0.03769681 -0.10222923  0.17496574 -0.02370601  0.20910946 -0.0035664
 -0.19782075 -0.07542341  0.07576121  0.19902624 -0.20788519 -0.11653172
 -0.13359827 -0.05386628 -0.0045745   0.02358888  0.00464183  0.11448105
 -0.15689729 -0.363664   -0.05551785 -0.11128765  0.02928211 -0.06705137
  0.00943551  0.07673895 -0.18658029 -0.06565303  0.04904705  0.04524047
 -0.05893704 -0.07827948  0.15950374  0.04579249 -0.21009269  0.01452302
  0.08408492  0.29685149  0.28700325 -0.00158386  0.05643136 -0.03374088
  0.15970723 -0.27897197 -0.00627329  0.10053762  0.01044242  0.02116752
  0.10678005 -0.13922565  0.00185835  0.0796368  -0.24989899  0.02684467
  0.08374595 -0.06743722 -0.07867235 -0.05644796  0.18348154  0.13981654
 -0.10749439 -0.11878359  0.15538114 -0.14639944 -0.00672012  0.05731202
 -0.15871559 -0.20536287 -0.28757837  0.02137709  0.44510284  0.1527534
 -0.16521466  0.00774118 -0.0330621   0.02406942  0.12403496  0.08310457
 -0.02224498 -0.04881283 -0.07751703  0.08965874  0.19269502  0.00888675
 -0.00889868  0.26246065  0.01350615 -0.06353561  0.03155381  0.05833898
 -0.08667    -0.02637986 -0.17268345 -0.03651719  0.01972932 -0.01803008
  0.047457    0.08194269 -0.16450225  0.15322268  0.02841576  0.02556978
 -0.06044846 -0.03959213 -0.10992827  0.02604214  0.12592667 -0.20935197
  0.18346645  0.1502436  -0.05349301  0.09475534  0.01834228  0.01260025
 -0.02784273 -0.0291721  -0.11290999 -0.04856103  0.07126097 -0.04284915
  0.0863178  -0.02162102]