[-1.63006321e-01  1.14391759e-01  2.84473393e-02 -3.99941690e-02
 -1.61506400e-01 -4.31670633e-04 -2.56172251e-02 -1.36508748e-01
  1.32879317e-01 -6.09188564e-02  1.90614745e-01 -6.82213083e-02
 -2.04787180e-01 -3.19104902e-02  2.79173441e-02  2.07276151e-01
 -1.42018974e-01 -1.62217364e-01 -7.92642757e-02 -8.42937902e-02
  3.68023403e-02  8.93514790e-03 -4.58593220e-02  8.39468092e-02
 -1.55715868e-01 -3.37106347e-01 -7.00426027e-02 -1.08959258e-01
  2.85044145e-02 -7.64127001e-02 -9.01065022e-02  4.93855253e-02
 -1.44897550e-01 -8.10547397e-02  4.45240438e-02  9.45550054e-02
 -1.11918002e-02 -4.63314503e-02  1.42046034e-01  5.41424528e-02
 -2.11745575e-01  3.97115164e-02  1.20997570e-01  3.18996429e-01
  2.13608488e-01  3.19508873e-02  7.08774328e-02 -3.89528163e-02
  1.18186153e-01 -2.52269238e-01  3.91215011e-02  8.60431567e-02
  8.20720792e-02  6.05834387e-02  9.62352529e-02 -1.40732795e-01
 -1.16217937e-02  6.47315085e-02 -1.76244423e-01  8.09950158e-02
  1.42494619e-01 -4.47852798e-02 -5.94237521e-02 -8.15323144e-02
  2.60120124e-01  1.56045884e-01 -9.27946940e-02 -1.05685093e-01
  1.16301015e-01 -1.26182184e-01 -1.18787281e-01 -8.55356455e-03
 -1.61384091e-01 -1.44002020e-01 -3.17989856e-01  3.64219919e-02
  4.47108954e-01  1.35803044e-01 -2.01248959e-01  3.15980092e-02
  9.46734508e-04  2.10606307e-02  1.52879134e-01  8.86829421e-02
 -1.27677796e-02  1.05481315e-02 -6.33486956e-02  6.15346134e-02
  2.37199262e-01 -3.10378801e-02  9.22125671e-03  1.96816638e-01
  2.50510108e-02  9.90595203e-03  3.63037996e-02  9.60132182e-02
 -8.09075534e-02 -4.02196310e-02 -1.43788025e-01 -4.35636751e-02
  3.21086422e-02 -2.38016434e-02  5.20988367e-02  8.94743800e-02
 -1.95758045e-01  1.43120006e-01  1.31554399e-02  1.98165420e-02
 -7.31050894e-02  2.81798691e-02 -7.57508278e-02  2.55919639e-02
  1.17701881e-01 -2.05165252e-01  1.75686702e-01  1.94387779e-01
 -2.83237398e-02  7.45354593e-02  4.38936055e-02  5.74886799e-04
  8.51421990e-03  1.72441956e-02 -1.18853152e-01 -7.88773522e-02
  6.54262602e-02 -4.28543799e-02  5.19220121e-02  5.71197160e-02]