[-0.11461526  0.06434653  0.09284143 -0.0803548  -0.12648368 -0.06267548
 -0.08244312 -0.1245892   0.1055297  -0.14989884  0.13902794 -0.0634787
 -0.19508968 -0.03230212 -0.035316    0.2259513  -0.11928421 -0.1885512
 -0.0884667   0.01923236  0.00662079 -0.00291623  0.0100523   0.02254274
 -0.11043786 -0.31265312 -0.07609969 -0.02271956 -0.00423986 -0.02781008
 -0.11377392  0.04737703 -0.19347908 -0.05411149  0.0594372   0.11174683
 -0.03848691 -0.08694164  0.14714362 -0.01244318 -0.29127541  0.03633026
  0.04568619  0.21350713  0.22503524  0.05257168  0.05424045 -0.17056122
  0.15492629 -0.20015042  0.01840604  0.11873183  0.04104681  0.0309461
  0.01073514 -0.15077016  0.0513581   0.09767059 -0.12327164 -0.01321112
  0.10373022 -0.01636428 -0.02777231 -0.11712126  0.23716274  0.08255473
 -0.13115279 -0.19099382  0.15735425 -0.14779708 -0.05065639  0.02801343
 -0.14712724 -0.14980157 -0.27744004 -0.06642067  0.35943756  0.09597123
 -0.16737108  0.08389388 -0.06385726  0.01921984  0.08412998  0.14867111
 -0.02823336  0.05671057 -0.0434916  -0.01838541  0.2798295  -0.07161462
  0.00429996  0.18966562  0.01555173  0.05283818  0.00940084  0.01945223
 -0.08993838  0.03656623 -0.12841056 -0.01311004  0.02730941 -0.02331978
  0.02170237  0.14945634 -0.1639158   0.17423151 -0.0332059   0.11254988
  0.03580554  0.01992391 -0.08109326 -0.08335624  0.09742657 -0.18683833
  0.1695414   0.1911893   0.03700564  0.05115936  0.15030859  0.07407559
  0.02126497  0.06313757 -0.22809911 -0.03354991  0.10929171 -0.06604733
  0.08774782  0.06122101]