[-1.40640661e-01  5.14482334e-02  9.09999087e-02 -8.35483298e-02
 -1.38256565e-01 -5.26072271e-02 -5.98879121e-02 -1.15532212e-01
  9.78958011e-02 -1.27799287e-01  1.72708988e-01 -9.15273428e-02
 -2.08590508e-01 -5.37113436e-02 -2.86719147e-02  2.21021101e-01
 -1.18472897e-01 -1.74790740e-01 -7.85671994e-02  6.94360910e-03
  3.38535868e-02  5.69297140e-03  9.15982760e-03  1.25086606e-02
 -1.10130124e-01 -3.52814823e-01 -7.41934702e-02 -3.17102931e-02
 -4.85810218e-03 -2.22765468e-02 -8.51145983e-02  5.58001772e-02
 -2.03570589e-01 -7.69973621e-02  7.22982287e-02  1.13690808e-01
 -9.09090322e-03 -8.89412686e-02  1.48643032e-01 -2.48117875e-02
 -2.98757255e-01  2.57746037e-02  7.26719350e-02  2.41563439e-01
  1.93794593e-01  5.95176592e-02  3.57422642e-02 -1.32100269e-01
  1.46141991e-01 -1.60766289e-01  1.18779372e-02  1.16742730e-01
  2.26339493e-02  2.81377621e-02  1.43656628e-02 -1.35797232e-01
  5.08202575e-02  8.56960639e-02 -1.29910961e-01 -4.92373668e-02
  1.01948217e-01 -3.03538181e-02 -1.19615458e-02 -1.42015696e-01
  2.49530360e-01  4.79733162e-02 -1.25806049e-01 -1.71234518e-01
  1.56181052e-01 -1.20502472e-01 -3.49284820e-02  1.19529115e-02
 -1.81336328e-01 -1.35218486e-01 -2.78231561e-01 -3.99738662e-02
  3.67383242e-01  7.77835399e-02 -1.80626690e-01  8.33562389e-02
 -4.63845171e-02  2.53861137e-02  1.02553748e-01  1.71057194e-01
  2.35094260e-02  9.43980739e-02 -3.43888961e-02 -2.12339070e-02
  2.62502283e-01 -8.09717104e-02  1.44801670e-04  1.98671132e-01
  1.39735285e-02  2.62403972e-02  4.17576842e-02  1.58296786e-02
 -8.95996764e-02  2.04181969e-02 -1.47472233e-01 -5.11407992e-03
  2.09953841e-02 -3.04757264e-02  2.22653747e-02  1.36933491e-01
 -1.67114481e-01  1.55483723e-01 -1.02476990e-02  1.02270961e-01
  9.95955709e-03  1.25967255e-02 -5.52582555e-02 -9.59503278e-02
  8.10693428e-02 -1.92744493e-01  1.71497613e-01  1.87857062e-01
  3.50665860e-02  8.53706896e-02  1.28290161e-01  7.42250308e-02
  1.43300220e-02  7.25988895e-02 -1.99054703e-01 -5.52433804e-02
  1.06430762e-01 -4.27514277e-02  9.73108858e-02  5.17686382e-02]