[-0.15288882  0.0860282   0.04500098 -0.06310158 -0.15891975  0.03079364
 -0.02702257 -0.06280806  0.17222589 -0.0611317   0.23086976 -0.03006698
 -0.1896732  -0.09190375  0.0789621   0.18527441 -0.1761702  -0.10851617
 -0.05127953 -0.00919044  0.03049721 -0.0027107  -0.02157071  0.08222108
 -0.1724257  -0.42138854 -0.04419669 -0.09627819  0.00491359 -0.13156687
 -0.08818819  0.07515226 -0.1671309  -0.09435711  0.03777174  0.12989895
 -0.05146992 -0.04571324  0.14016922  0.05691084 -0.21418469  0.01706076
  0.10119239  0.30378309  0.23257773  0.01814406  0.06104234 -0.03584921
  0.16499746 -0.28024551  0.02109726  0.08982563  0.05305675  0.02838085
  0.14125571 -0.11179812 -0.01907591  0.09093005 -0.19106057  0.06805366
  0.08805058 -0.02332321 -0.03615176 -0.07633367  0.22596967  0.12511501
 -0.07881503 -0.10005432  0.10884708 -0.09798022 -0.07912775  0.02676334
 -0.14782198 -0.20467821 -0.30532393  0.0220486   0.42996225  0.1578223
 -0.20083272  0.0247812  -0.0354373  -0.03664346  0.13381952  0.07376367
  0.00444606  0.02552881 -0.07259768  0.08421052  0.23136793  0.00266851
  0.04769224  0.22384535  0.03292808  0.00824728  0.04301259  0.03468977
 -0.10217345 -0.02414962 -0.20864819 -0.09146234  0.02346818 -0.05234563
  0.06099129  0.09824383 -0.23707972  0.13985515  0.0412201  -0.00090001
 -0.02278947  0.02142078 -0.1079134   0.01056721  0.10889377 -0.23883973
  0.15611945  0.17890756  0.01168868  0.09921158  0.04749524 -0.00914364
 -0.00670843 -0.01157214 -0.09339076 -0.03880159  0.04738319 -0.01121049
  0.06275274  0.00904072]