[-1.53402910e-01  8.29816461e-02  2.66229641e-02 -9.40078869e-02
 -1.62513778e-01  1.80437248e-02 -4.05944958e-02 -4.98511605e-02
  1.82437748e-01 -4.04475890e-02  2.22632959e-01 -4.85659158e-03
 -1.67666048e-01 -7.05091730e-02  5.79727702e-02  1.79629236e-01
 -2.12437674e-01 -1.12953246e-01 -3.87409702e-02 -1.68451294e-02
  5.47832716e-03 -8.67489725e-05 -2.05722116e-02  9.66561660e-02
 -1.85809284e-01 -4.00141209e-01 -4.00234833e-02 -1.05111659e-01
 -3.84288430e-02 -1.01257443e-01 -3.63630541e-02  1.13983192e-01
 -1.77561551e-01 -7.16847330e-02  4.92940359e-02  1.17756501e-01
 -5.22810221e-02 -3.44408527e-02  1.57752216e-01  7.76579902e-02
 -2.08569989e-01  2.17849202e-02  1.01513140e-01  3.24137807e-01
  2.48224407e-01 -1.16731236e-02  3.03882360e-02 -1.14115523e-02
  1.90677479e-01 -2.80172020e-01 -2.08808873e-02  1.28155872e-01
  4.14406471e-02  1.81844737e-02  1.24142960e-01 -8.55963677e-02
  1.37026459e-02  8.15570503e-02 -2.24553108e-01  2.70166285e-02
  6.00394309e-02 -4.28421162e-02 -4.74660359e-02 -1.02674127e-01
  1.98782712e-01  1.36927187e-01 -8.28459635e-02 -9.95588675e-02
  1.07097283e-01 -9.17626917e-02 -7.25109205e-02  3.35712619e-02
 -1.67743787e-01 -2.21907377e-01 -2.91108906e-01 -1.16619095e-03
  3.95927608e-01  1.48510262e-01 -1.78073242e-01  4.57036719e-02
 -1.35488305e-02 -5.49841821e-02  9.72094163e-02  7.22944066e-02
 -3.25441360e-03  3.01563144e-02 -4.98073772e-02  9.59685221e-02
  2.17480808e-01  6.42822077e-03  4.64535803e-02  2.25903869e-01
  1.87255330e-02 -2.58811517e-03  4.84112799e-02  3.17619257e-02
 -8.62846076e-02 -1.79238934e-02 -2.25519180e-01 -5.57554774e-02
 -8.36440176e-03 -5.69124334e-02  4.99335751e-02  6.90369457e-02
 -2.32517034e-01  1.33209825e-01  5.29229231e-02 -7.35982647e-03
 -6.69234470e-02  2.23350339e-03 -1.04177251e-01  2.10211240e-02
  1.20103098e-01 -2.30308965e-01  1.71984941e-01  1.62629709e-01
 -2.27283989e-03  1.05601542e-01  3.45492177e-02 -3.69476192e-02
 -4.67070751e-02 -1.99522674e-02 -8.30469653e-02 -4.50167917e-02
  4.25080620e-02 -2.02140566e-02  6.77399412e-02 -7.89857376e-03]