[-0.1437494   0.06120969  0.09850072 -0.08770044 -0.14648776 -0.04545028
 -0.07347782 -0.11007829  0.09720819 -0.12969619  0.16999754 -0.08417109
 -0.20820859 -0.04722627 -0.03219522  0.22569148 -0.11883252 -0.17129816
 -0.08232269  0.01120383  0.02998291  0.01205287  0.00308645  0.01499872
 -0.10332679 -0.36179218 -0.06489428 -0.0249224  -0.01673378 -0.02110554
 -0.08284634  0.05766831 -0.20714632 -0.08386991  0.06998581  0.11879002
 -0.00971285 -0.0807771   0.137987   -0.02850804 -0.29496059  0.0321408
  0.06994265  0.24333301  0.19967251  0.06152751  0.03919498 -0.12658225
  0.13609956 -0.17984085  0.00139666  0.11559284  0.02460754  0.02214395
  0.01748618 -0.14205681  0.04861791  0.08662538 -0.13302347 -0.05194551
  0.0971139  -0.02816056 -0.00823111 -0.14321503  0.25994739  0.05360557
 -0.12830868 -0.16546296  0.15900131 -0.11394479 -0.02869019  0.00205911
 -0.1795105  -0.14103778 -0.27925414 -0.03663278  0.36561701  0.08709206
 -0.18386872  0.08577978 -0.04892674  0.03166092  0.09012834  0.1613338
  0.02269792  0.09064163 -0.02614652 -0.00917946  0.25320441 -0.07436424
  0.00581562  0.20324242  0.01679711  0.02357253  0.04092833  0.01307742
 -0.08690722  0.02284803 -0.15594909  0.00639594  0.01413016 -0.02540126
  0.03331863  0.14134632 -0.16590008  0.15531607 -0.01991274  0.10097133
  0.00871925  0.01748713 -0.05679312 -0.09425199  0.08938855 -0.19071519
  0.17297773  0.19187056  0.02919212  0.08976448  0.13022362  0.07008993
  0.02001028  0.07342895 -0.20235085 -0.05502203  0.10705569 -0.05705574
  0.09676284  0.05780707]