[-1.41301557e-01  1.06535688e-01  1.50270602e-02 -4.60158847e-02
 -1.15751959e-01 -2.52036820e-03  9.74138081e-03 -9.16452631e-02
  1.63605586e-01 -3.28085013e-02  2.15385675e-01 -3.17142578e-03
 -1.86278537e-01 -7.96718225e-02  4.30383198e-02  2.15345532e-01
 -2.30201319e-01 -1.20683193e-01 -1.18367195e-01 -4.58143540e-02
 -7.46915117e-03  5.33366669e-03  2.47925017e-02  1.28345042e-01
 -1.69263557e-01 -3.18362564e-01 -4.48598266e-02 -1.41030699e-01
 -8.39322247e-03 -8.10997263e-02 -3.48920636e-02  8.27184692e-02
 -1.59775600e-01 -6.79626912e-02  6.22825883e-02  6.69293851e-02
 -2.89554540e-02 -4.52981219e-02  1.87051564e-01  4.88149300e-02
 -1.98653564e-01  1.93158239e-02  1.06392257e-01  3.09884697e-01
  3.00075144e-01  1.34184062e-02  2.04475280e-02 -1.81681421e-02
  1.78401828e-01 -2.81203985e-01 -2.81442832e-02  9.51606184e-02
  1.91149656e-02  2.95332726e-02  1.14737548e-01 -1.51020437e-01
  3.44543159e-03  8.37462246e-02 -2.17859730e-01  7.11046299e-03
  1.66534763e-02 -6.31717220e-02 -6.34426698e-02 -5.58229461e-02
  1.91614643e-01  1.25068814e-01 -9.48355645e-02 -1.01154067e-01
  1.61002502e-01 -1.41559035e-01 -3.14310193e-02  6.31168410e-02
 -1.62210137e-01 -1.98917359e-01 -2.87020504e-01 -2.44514793e-02
  4.22603905e-01  1.35021597e-01 -1.81372777e-01  3.24216560e-02
  5.89662232e-04 -1.62392836e-02  1.00319915e-01  8.72492343e-02
 -1.76585168e-02 -7.75515859e-04 -7.45799318e-02  5.61813228e-02
  1.85373619e-01 -5.30045060e-03  2.44479626e-02  2.48428211e-01
  1.82260517e-02 -5.78801222e-02  7.12251440e-02  4.55192737e-02
 -6.84187785e-02 -3.27167884e-02 -2.13785440e-01 -5.54846823e-02
  3.59931146e-03 -4.22487184e-02  3.91284041e-02  4.89778630e-02
 -1.91047981e-01  9.56983119e-02  2.84523405e-02  1.49950953e-04
 -9.37096775e-02 -1.81254335e-02 -1.03024699e-01  2.78398376e-02
  1.41648486e-01 -2.27041170e-01  1.63485423e-01  1.78438187e-01
 -6.20282888e-02  9.59066451e-02  9.16654617e-03  1.03468746e-02
 -4.82918024e-02 -6.60110265e-03 -8.97300988e-02 -5.95760345e-02
  6.58928081e-02 -3.87779847e-02  8.19489509e-02 -1.39899971e-02]