[-1.29479632e-01  8.51658061e-02  1.06797412e-01 -8.77684578e-02
 -1.63264945e-01 -3.72721739e-02 -7.13826120e-02 -1.09527409e-01
  1.03430532e-01 -1.45663261e-01  1.52193651e-01 -4.00236733e-02
 -2.01556444e-01 -5.85827306e-02 -2.85505503e-02  2.34158352e-01
 -1.30432874e-01 -2.04426751e-01 -3.87253575e-02 -2.17590117e-04
  1.76846795e-02  1.17336735e-02  3.74420062e-02  3.66551913e-02
 -1.55227706e-01 -3.57392043e-01 -7.01182485e-02 -2.39932016e-02
  1.13078661e-03 -2.31742691e-02 -1.10325746e-01  6.32351413e-02
 -1.91349193e-01 -3.48196439e-02  4.71044555e-02  1.08839348e-01
 -1.94376856e-02 -7.97666982e-02  1.59853816e-01 -2.89501389e-03
 -2.77344078e-01  2.88978312e-02  5.28993718e-02  2.35561728e-01
  2.44235754e-01  3.75776663e-02  7.22087845e-02 -1.51934132e-01
  1.36732951e-01 -2.03884840e-01  1.74593329e-02  1.12896219e-01
 -6.79929694e-03  2.69879978e-02  8.87904316e-03 -1.59285828e-01
  4.06069942e-02  6.67869225e-02 -1.25337765e-01 -2.54973359e-02
  6.82255849e-02 -3.41669992e-02 -2.85695377e-03 -1.28356546e-01
  2.49744937e-01  5.71019463e-02 -1.04918264e-01 -2.00673819e-01
  1.72479495e-01 -1.64231777e-01 -5.28446995e-02  2.15369817e-02
 -1.58526704e-01 -1.25213265e-01 -3.02886367e-01 -4.57292087e-02
  3.45666975e-01  1.30713448e-01 -1.57296702e-01  9.99755189e-02
 -4.18923572e-02  6.88204169e-03  7.43029639e-02  1.59939766e-01
 -2.24909130e-02  5.88391498e-02 -6.45850822e-02  8.61995108e-03
  2.70146310e-01 -6.39903322e-02  6.74381619e-03  2.21193358e-01
  3.36034708e-02  8.08692276e-02  4.53598201e-02  3.44458632e-02
 -1.17820285e-01  5.64000383e-02 -1.34720877e-01  9.81607195e-03
  1.35998456e-02 -3.13848108e-02  5.13967834e-02  1.76323056e-01
 -1.66319177e-01  1.78468093e-01 -6.31763935e-02  9.31805000e-02
 -2.33274791e-03  2.71825921e-02 -7.94173628e-02 -8.81848931e-02
  9.14418250e-02 -1.75357208e-01  1.60473630e-01  2.05784991e-01
  4.33464497e-02  8.16187933e-02  1.50768146e-01  7.14645162e-02
  4.82483971e-04  6.42111525e-02 -2.09701374e-01 -8.31026770e-03
  9.58754718e-02 -1.10336684e-01  9.60703194e-02  9.05300006e-02]