[-0.10996789  0.1377949   0.00746667 -0.06917562 -0.15210664 -0.03347982
 -0.01383613 -0.15777899  0.15323803 -0.05929345  0.24034321 -0.0246678
 -0.21358727 -0.06934538  0.02982582  0.2054276  -0.29855993 -0.13735971
 -0.09487797 -0.04782634  0.01086995  0.00992398  0.0276584   0.08566903
 -0.15814708 -0.38798892 -0.06932902 -0.09803727  0.06451382 -0.07643111
 -0.02140081  0.06987128 -0.18130453 -0.06413369  0.06928547  0.06158311
 -0.04574142 -0.09858656  0.188004    0.03181852 -0.23169367  0.02245129
  0.08707769  0.28927884  0.28185302 -0.01640047  0.0351488  -0.07537391
  0.12384534 -0.25801799 -0.03144212  0.11971571  0.02315774  0.02270218
  0.08281972 -0.12787323 -0.00872041  0.08652072 -0.23492837 -0.03907127
  0.07571854 -0.07824561 -0.04454451 -0.05937458  0.17712717  0.09014918
 -0.10828781 -0.10340776  0.13122611 -0.15720835 -0.04350313  0.04399034
 -0.11942672 -0.21381    -0.30670306 -0.0329309   0.44969082  0.1361271
 -0.16809884  0.02553894 -0.02116325 -0.04410163  0.13756426  0.09905284
 -0.01850247 -0.00673572 -0.08916073  0.10824773  0.19121876 -0.04321598
  0.0103984   0.26227242  0.0143271  -0.01148105  0.05707717  0.08892556
 -0.0831905  -0.00187604 -0.17470846 -0.02694124  0.03606476 -0.0175953
  0.02802438  0.08646842 -0.16967319  0.10634329  0.04748429 -0.0287368
 -0.04890462 -0.07046153 -0.08081894 -0.02157161  0.12966265 -0.27407432
  0.1561354   0.22405653 -0.05629018  0.12853424  0.01506892 -0.03309562
 -0.02659335 -0.06763916 -0.12558328 -0.0520171   0.05665383 -0.02949696
  0.06843597 -0.03863444]