[-0.19709186  0.14779764  0.02538678 -0.04704229 -0.17503856 -0.02484016
 -0.04219247 -0.14015399  0.12284168 -0.05255029  0.21466675 -0.03592537
 -0.18684185 -0.05995889  0.03227438  0.20177391 -0.16458799 -0.15494446
 -0.07586177 -0.05571962  0.04533541 -0.00044374 -0.00215542  0.09511315
 -0.1518821  -0.35156718 -0.06160001 -0.12270701  0.03890284 -0.07218433
 -0.04110554  0.03578542 -0.15513541 -0.0803949   0.04601414  0.07996248
 -0.00584699 -0.0378162   0.14495769  0.02346311 -0.22808345  0.03275701
  0.11526239  0.3039844   0.24867602  0.0197827   0.07422523 -0.05017318
  0.11226075 -0.24520595  0.00670522  0.08359452  0.0690175   0.02717806
  0.11616576 -0.14452587  0.00112484  0.08037873 -0.19336084  0.06137583
  0.09397797 -0.04282796 -0.06109805 -0.07548638  0.24721253  0.14218488
 -0.10535943 -0.09207179  0.12022656 -0.12052218 -0.08866969  0.02956774
 -0.16171557 -0.17242895 -0.31214273 -0.00666065  0.43478203  0.15302704
 -0.20314912  0.0469213  -0.0024059   0.02578554  0.11955024  0.10459822
 -0.0161453  -0.00055614 -0.06710469  0.06445544  0.19164585 -0.02079128
  0.01470817  0.22728506  0.01603639  0.00768999  0.03290422  0.09138908
 -0.09200252 -0.05204325 -0.13937981 -0.07296205  0.0271228  -0.01668405
  0.05738175  0.07969332 -0.19533677  0.11714549  0.00959884  0.04445829
 -0.07602192  0.01517681 -0.03385809  0.03483802  0.10432223 -0.20525287
  0.19883199  0.20249076 -0.06304257  0.09113631  0.05388946 -0.02341701
 -0.00150216 -0.00137889 -0.09812268 -0.06225904  0.04448764 -0.07074184
  0.07688981  0.02980227]