[-0.13687445  0.08951624  0.10219089 -0.0848503  -0.16642724 -0.04999882
 -0.06946679 -0.11411808  0.09977604 -0.1396161   0.15058792 -0.03324781
 -0.20046592 -0.06338122 -0.0280346   0.23598114 -0.1357087  -0.20543833
 -0.03975    -0.00189103  0.01432837  0.00856119  0.03613047  0.03950707
 -0.15766975 -0.36284408 -0.06806263 -0.02838325 -0.00261737 -0.02502722
 -0.10731292  0.06324577 -0.19254038 -0.0385911   0.04603455  0.10655911
 -0.02160287 -0.07160597  0.16307992 -0.00665944 -0.28321704  0.03047986
  0.06449236  0.24029653  0.25136322  0.03909667  0.07311165 -0.14776915
  0.13685605 -0.20868348  0.01853294  0.10758898 -0.00631661  0.02169308
  0.01481321 -0.1569584   0.03868188  0.0602701  -0.13415526 -0.02868381
  0.07086329 -0.03513163 -0.01146163 -0.12344836  0.24544337  0.05783309
 -0.10051385 -0.19510384  0.17477295 -0.17899381 -0.05478505  0.02071035
 -0.14967796 -0.13183604 -0.31399336 -0.04890219  0.34459567  0.14171456
 -0.15580331  0.10250678 -0.03393372  0.00465272  0.08504512  0.15453558
 -0.02155296  0.05893129 -0.06879826  0.01224239  0.26922467 -0.05894761
  0.00714736  0.21961716  0.04158456  0.07952718  0.04577654  0.03627851
 -0.11712315  0.05187378 -0.14383917  0.01093867  0.01479961 -0.02105546
  0.05178789  0.17510526 -0.16370888  0.17626506 -0.05927103  0.08840815
 -0.01102781  0.02807531 -0.07941287 -0.09045733  0.08542692 -0.17109881
  0.16128753  0.20878451  0.03336911  0.07992975  0.14766258  0.0575402
 -0.00065632  0.05797265 -0.21123992 -0.0105384   0.09786738 -0.11668898
  0.10402658  0.0893446 ]