[-0.0954062   0.10691883  0.07239073 -0.06887608 -0.08881783 -0.04230101
 -0.0375497  -0.12762478  0.16283259 -0.07405016  0.26883751 -0.09244712
 -0.24003446 -0.07972192 -0.08762052  0.25377008 -0.20303932 -0.12275294
 -0.01349835  0.06990315  0.08522312 -0.01466847  0.05803217  0.04501849
 -0.13444011 -0.38399193 -0.11030415 -0.07461757 -0.02598341 -0.03623863
 -0.04584787  0.0333927  -0.20367692 -0.06324746  0.05023048  0.072366
 -0.03077163 -0.15244369  0.14674978  0.01516065 -0.29238015  0.03436252
  0.05053356  0.23621957  0.14604412  0.01505066  0.08585542 -0.22789641
  0.13767593 -0.15035568  0.00405024  0.11618587  0.00945327  0.02851211
 -0.00199672 -0.10143188  0.02774782  0.15280564 -0.14802209 -0.01738902
  0.11478664  0.00058382  0.00935307 -0.16771828  0.18859467  0.06356056
 -0.14154138 -0.15924899  0.12905605 -0.11394489 -0.03313132  0.07354173
 -0.16611584 -0.23187268 -0.29321301 -0.02709806  0.38342461  0.0864011
 -0.14170384  0.03314845 -0.06386276  0.01878984  0.0982114   0.22418621
  0.05830915  0.07268976 -0.06307383 -0.00646486  0.28081089 -0.11547013
  0.01830713  0.25255308 -0.03138205  0.04129545 -0.01927914  0.018771
 -0.09752226  0.07954895 -0.11023962  0.00895362 -0.02717272 -0.01330947
 -0.01402428  0.08168503 -0.15732868  0.07698505  0.02265245  0.04071729
  0.04102689 -0.04151022 -0.05730199 -0.09352867  0.1085667  -0.22350016
  0.19535372  0.17948258  0.07499687  0.09112517  0.10702002  0.09366471
 -0.01657813 -0.02897236 -0.19732024  0.01540515  0.11285608 -0.04182358
  0.07125688 -0.05755441]