[-0.14231472  0.08734588  0.03374128 -0.13207467 -0.0550628  -0.05612316
  0.00712884 -0.16995923  0.16038184 -0.06949984  0.27091968 -0.09548599
 -0.22451584 -0.11591883 -0.06192675  0.23883386 -0.21936961 -0.12684064
 -0.02636687  0.03659613  0.08471181 -0.04443771  0.01557583  0.07324948
 -0.07738722 -0.3608261  -0.13320485 -0.05793096 -0.00797737 -0.03178833
  0.00144435  0.1034773  -0.19456659 -0.05829443  0.03006469  0.06320485
  0.00465657 -0.10136317  0.13478652 -0.01264548 -0.26935521  0.01246038
  0.1197012   0.25134405  0.21347988  0.00849515  0.0378135  -0.1400357
  0.13624381 -0.1620236  -0.08140814  0.11967977  0.0681664   0.03291772
 -0.02232545 -0.14388955  0.05756285  0.05707108 -0.17087652 -0.04583035
  0.0876009  -0.0650842  -0.00820058 -0.09212336  0.18582901  0.05436219
 -0.1491704  -0.1779646   0.1258218  -0.14727785 -0.0083032   0.04801852
 -0.21809609 -0.21885513 -0.30781484 -0.03743846  0.31982741  0.08851995
 -0.12794863  0.09643804 -0.07141301  0.04291201  0.07539826  0.19493835
  0.02120301  0.08237875 -0.09061883 -0.01299323  0.22301161 -0.10985126
  0.02418333  0.27696043 -0.03201702  0.05362808 -0.02079313  0.03281724
 -0.06657922  0.06482994 -0.13542894  0.02463386 -0.03687157 -0.00763602
  0.03025265  0.09216933 -0.17181444  0.10302397  0.01872795  0.09440974
 -0.02922146 -0.04842513 -0.03956075 -0.07429644  0.08565666 -0.1977459
  0.16262822  0.21828388  0.04896594  0.07881821  0.12363746  0.06040395
 -0.0100932  -0.00977609 -0.16071789  0.03705642  0.09247916 -0.0640052
  0.04486276 -0.03805509]