[-0.07130678  0.09902632  0.04626001 -0.09217233 -0.08175506 -0.0604147
 -0.02816913 -0.13777152  0.17629616 -0.06380506  0.3052848  -0.09044298
 -0.21309964 -0.10705441 -0.07440628  0.24573322 -0.24063317 -0.12092527
 -0.02744902  0.06286559  0.10332012 -0.05186937  0.02914173  0.06312692
 -0.11176475 -0.37225935 -0.1236704  -0.06985012  0.02691677 -0.04060883
 -0.03560475  0.03352633 -0.19772616 -0.09556788  0.04901464  0.03487949
 -0.00486148 -0.15511766  0.17541821  0.00550382 -0.28772196  0.04240749
  0.06667792  0.22495258  0.17623204  0.0154157   0.08721852 -0.22722714
  0.17448926 -0.14993238 -0.0259581   0.13594921  0.04772412  0.02350837
 -0.00530185 -0.10478625  0.03134772  0.14467879 -0.16333988 -0.02394767
  0.10393472 -0.00645259  0.0135537  -0.1486076   0.17862952  0.04938577
 -0.13348894 -0.16727886  0.12782297 -0.11714764 -0.03390213  0.06931203
 -0.17598869 -0.22290222 -0.31601244 -0.05285272  0.38955101  0.07847339
 -0.16054229  0.06116514 -0.08739698  0.01622031  0.11794879  0.20401068
  0.0421203   0.07446323 -0.08122193 -0.01702182  0.27375779 -0.11596905
  0.03653705  0.26816049 -0.02238186  0.06266689 -0.00664665  0.03171089
 -0.0913846   0.06853756 -0.10868347  0.00917416 -0.0163825   0.00682237
  0.01373705  0.07391868 -0.1683629   0.06456035  0.0251729   0.06720283
  0.02538364 -0.05325297 -0.04005507 -0.09895822  0.10841637 -0.21872306
  0.1690706   0.18221872  0.05142174  0.07800543  0.11164055  0.08062442
 -0.03410595 -0.0483153  -0.17839903  0.03677037  0.09193869 -0.04127667
  0.07348353 -0.06913921]