[-1.09165125e-01  6.02071099e-02  9.75482985e-02 -6.01174049e-02
 -6.93299919e-02 -5.97291179e-02 -6.91701993e-02 -1.74401030e-01
  1.48697868e-01 -1.42583057e-01  2.47141913e-01 -1.13027275e-01
 -2.07936645e-01 -3.47240902e-02 -8.17651451e-02  2.23004535e-01
 -2.14139178e-01 -1.20326377e-01  3.16382162e-02  2.48816442e-02
  9.75374058e-02 -1.93539094e-02 -6.43202011e-03  1.60841495e-02
 -5.88823669e-02 -3.12253714e-01 -1.33899868e-01 -6.69157058e-02
  7.50951841e-03 -4.97801155e-02 -8.30431506e-02  3.07550374e-02
 -1.67421088e-01 -3.06580570e-02  2.07943153e-02  1.09322898e-01
 -1.57582406e-02 -1.20110415e-01  1.71778604e-01 -5.28868549e-02
 -2.49144241e-01  2.97447350e-02  6.48445264e-02  1.92937180e-01
  1.54571518e-01  3.56804430e-02 -7.50952226e-04 -1.78990394e-01
  7.40841627e-02 -1.53634652e-01 -2.08350420e-02  1.08633719e-01
  1.98332053e-02  4.05656248e-02  7.73495820e-04 -1.62430406e-01
  1.26053458e-02  7.80771226e-02 -1.16077915e-01 -8.30895826e-03
  1.10673569e-01 -1.19976141e-01  8.60152207e-03 -8.54695141e-02
  2.22346231e-01  5.72873615e-02 -1.36300668e-01 -1.66294217e-01
  9.18487310e-02 -1.21640824e-01 -6.23321719e-02  5.69778979e-02
 -1.38535276e-01 -1.98744938e-01 -2.97907412e-01 -1.51348335e-03
  3.87646645e-01  5.01088575e-02 -1.44164622e-01  9.93531495e-02
 -2.43815295e-02 -1.98284518e-02  1.71916351e-01  2.07871303e-01
  6.47362173e-02  4.68992256e-02 -9.53309461e-02 -8.29294731e-04
  2.23563239e-01 -1.27833560e-01  1.31297885e-02  1.83624282e-01
 -7.93612301e-02  8.87828320e-02 -3.42108198e-02  6.28360882e-02
 -4.60115001e-02  8.56223926e-02 -1.05584778e-01  1.61567573e-02
  5.79238907e-02 -2.09934267e-04 -1.35126179e-02  1.06247507e-01
 -1.43371150e-01  2.21618153e-02  6.85115298e-03  5.05233184e-03
  1.96984988e-02 -6.27180859e-02 -8.42613950e-02 -4.51525263e-02
  1.20966293e-01 -2.80331224e-01  1.97187155e-01  2.02345327e-01
  1.87840909e-02  1.14812903e-01  1.22565605e-01  7.92294070e-02
  2.13230141e-02 -3.36458050e-02 -2.29071543e-01  4.14239755e-03
  8.97817537e-02  2.28946712e-02  7.17825815e-02 -7.38073234e-03]