[-0.11415203  0.11841011  0.06484684 -0.05354682 -0.0856069  -0.07048487
  0.02091793 -0.14619328  0.16132198 -0.05968189  0.28234321 -0.07950237
 -0.22206683 -0.12861192 -0.05800451  0.26418111 -0.24173115 -0.13380945
 -0.01530113  0.06028337  0.1223207  -0.03301863  0.02823916  0.06896514
 -0.09400904 -0.37241319 -0.12418808 -0.08566074  0.01395435 -0.03879879
 -0.02726144  0.05361694 -0.18577054 -0.06923652  0.05351137  0.06819869
 -0.00519429 -0.10358433  0.1481877  -0.01574307 -0.29306188  0.00805369
  0.11334037  0.22171238  0.18911114  0.03669726  0.05746216 -0.18241046
  0.12748155 -0.14000808 -0.00262269  0.11212527  0.04504366  0.06157935
  0.03614822 -0.14396468  0.01328675  0.09591575 -0.13523008 -0.03667637
  0.0977967  -0.05648924  0.02101949 -0.12964611  0.17248033  0.02302921
 -0.10461187 -0.17345528  0.15987603 -0.15844429 -0.05811806  0.07342836
 -0.16726775 -0.18770027 -0.32149488 -0.04599717  0.36978751  0.10285212
 -0.13518158  0.05403804 -0.05172355  0.00498035  0.10383766  0.2098985
  0.07404497  0.07045921 -0.10174743 -0.023384    0.23743694 -0.11469622
  0.05311685  0.25880671 -0.03190438  0.05336915 -0.02101402 -0.00904845
 -0.06626474  0.08382626 -0.12214615 -0.00775669 -0.05578532 -0.00095704
  0.00218151  0.075064   -0.15880248  0.04002434  0.02830008  0.06512862
 -0.02909759 -0.03263779 -0.06170455 -0.07335285  0.09430385 -0.21045451
  0.21233034  0.19788566  0.02663127  0.07120158  0.08485916  0.09893529
 -0.01967544 -0.07978468 -0.18239948  0.03544046  0.10090953 -0.0655003
  0.04595568 -0.0393631 ]