[-0.13123448  0.05105497  0.07443439 -0.06057751 -0.06478938 -0.05153249
 -0.06221211 -0.17252512  0.15114066 -0.14212184  0.24539939 -0.1003949
 -0.20786114 -0.05533693 -0.09279651  0.22207355 -0.20357619 -0.13394307
  0.0329006   0.01757116  0.09965551 -0.02351106 -0.01231982  0.01682652
 -0.06879672 -0.31335557 -0.14042358 -0.076404    0.00051214 -0.04067916
 -0.07163976  0.03455915 -0.17287034 -0.03700806  0.02978637  0.13118817
 -0.0045798  -0.11587391  0.19147439 -0.05242552 -0.22606741  0.02030319
  0.07486443  0.20300309  0.13754597  0.03830315  0.00358375 -0.17281885
  0.08614802 -0.14413908 -0.02292018  0.11075751  0.03443435  0.05136452
 -0.00559175 -0.15438209  0.04062534  0.08206394 -0.12973419 -0.02326008
  0.10098715 -0.12965947 -0.00175518 -0.07611289  0.24117915  0.05906386
 -0.13269444 -0.15955333  0.10595015 -0.11855463 -0.06113438  0.04226006
 -0.14501603 -0.19311726 -0.30358726  0.01326003  0.38543573  0.07061827
 -0.14274454  0.11265049 -0.0148758  -0.0121054   0.1760833   0.20307696
  0.04691095  0.05612784 -0.0973512   0.00298924  0.22404955 -0.10918162
  0.0082495   0.16614501 -0.06770676  0.09958102 -0.0168994   0.0517165
 -0.04180584  0.07328146 -0.10522898  0.02774406  0.06415808  0.01057708
  0.00086478  0.10399182 -0.13123265  0.01526781 -0.00401422 -0.00474553
 -0.00046314 -0.06950757 -0.08490293 -0.03786717  0.11069035 -0.27173823
  0.20148121  0.1880886   0.00668946  0.1284283   0.13932064  0.08195428
  0.01052581 -0.03150028 -0.23283099 -0.00615292  0.10530245  0.02393156
  0.10160762 -0.01097166]