[-9.45464000e-02  7.43561909e-02  8.05942565e-02 -4.40770909e-02
 -7.38311633e-02 -2.33549830e-02 -7.29877427e-02 -1.56240955e-01
  1.75767928e-01 -1.14312552e-01  2.23476872e-01 -1.15930319e-01
 -2.39371732e-01 -1.06040249e-02 -7.69441500e-02  2.03286886e-01
 -2.00376704e-01 -1.33247718e-01  6.07179105e-02  2.61442997e-02
  1.00794435e-01  2.06450783e-02 -1.40403705e-02  2.03376077e-02
 -8.32898617e-02 -3.33485574e-01 -1.14946321e-01 -6.77646399e-02
 -4.09089122e-03 -4.82598133e-02 -6.69836849e-02  7.58300051e-02
 -1.77710786e-01 -1.64527055e-02  4.18680720e-02  1.14709258e-01
 -1.83459427e-02 -1.04901828e-01  1.71760842e-01 -3.25925834e-02
 -2.31229782e-01  1.00337593e-02  6.45695627e-02  2.05324754e-01
  1.34215221e-01  2.02916414e-02 -6.28387276e-03 -1.74832031e-01
  5.33123575e-02 -1.56666756e-01 -3.14249992e-02  1.52408525e-01
  1.34934727e-02  4.41405401e-02  1.27552301e-02 -1.66091308e-01
  1.02267312e-02  6.03640564e-02 -1.23174243e-01 -5.89450402e-03
  1.04512848e-01 -9.37854275e-02  1.42344804e-02 -8.71204138e-02
  2.28961781e-01  3.71198468e-02 -1.17601596e-01 -1.60039723e-01
  7.84891695e-02 -1.17161565e-01 -6.62034005e-02  5.95615394e-02
 -1.46451861e-01 -2.05648899e-01 -2.79262871e-01  2.50085304e-03
  3.72484088e-01  3.99449617e-02 -1.34421423e-01  1.42703161e-01
 -2.54340470e-03 -3.25499475e-02  1.49208501e-01  1.86942086e-01
  3.63757424e-02  5.95573746e-02 -7.80868530e-02  2.97592264e-02
  2.25121364e-01 -1.08907841e-01  2.31550019e-02  1.90979794e-01
 -9.34265256e-02  8.54427144e-02 -6.69248262e-03  4.46457081e-02
 -3.45787890e-02  7.15979561e-02 -1.10437430e-01  3.69855389e-03
  5.93641214e-02 -1.36289392e-02 -1.45883867e-04  1.18317999e-01
 -1.60995394e-01  9.05448478e-03  5.02261799e-03 -7.22475490e-03
  3.02414838e-02 -4.97679338e-02 -1.00055568e-01 -4.49066162e-02
  1.40352592e-01 -2.91843623e-01  1.99567914e-01  1.57167852e-01
  6.61592325e-03  1.13364898e-01  1.05538003e-01  8.42485204e-02
  1.10607957e-02 -2.57154610e-02 -2.13873774e-01  6.51365658e-03
  1.01760387e-01  1.86812561e-02  5.34395091e-02 -1.86076760e-02]