[-0.12350332  0.11761838  0.0426352  -0.07923096 -0.0811148  -0.04049349
 -0.01498799 -0.09828622  0.17547378 -0.07575154  0.26394844 -0.04879984
 -0.23636177 -0.10423825 -0.04045126  0.24099071 -0.21296878 -0.10541909
 -0.03491337  0.0771272   0.13939427 -0.02259464  0.05477419  0.07354332
 -0.14835447 -0.36503232 -0.12136483 -0.04836798  0.00919044 -0.05686391
 -0.0346385  -0.01007092 -0.2091167  -0.07418387  0.02646624  0.07057889
 -0.03443134 -0.1465878   0.15833694  0.01384648 -0.29754466  0.01106677
  0.0524357   0.21322501  0.17102604  0.03219616  0.07573424 -0.18708561
  0.14241634 -0.19331087  0.02606953  0.12572743  0.01781204  0.05041684
  0.01025265 -0.0997118   0.02387793  0.18608056 -0.18481018 -0.02973603
  0.07987905  0.01180341  0.027243   -0.13545375  0.13184826  0.06935149
 -0.13532464 -0.15907981  0.11240321 -0.14756469 -0.0170745   0.1019431
 -0.14571171 -0.26100579 -0.29241797 -0.02187656  0.3885226   0.14543398
 -0.11423282  0.01373239 -0.06450216 -0.02707931  0.09356955  0.17889859
  0.05671692  0.05991772 -0.0752987   0.03046356  0.25846678 -0.08669524
  0.03989735  0.29033443  0.00725831  0.03650413 -0.03618452  0.0476216
 -0.095052    0.0791081  -0.08929457  0.00052437 -0.0236636  -0.00258401
  0.00704955  0.07444672 -0.15962999  0.11393587  0.02799165  0.04097715
  0.00277106 -0.04567177 -0.07581095 -0.07667755  0.08992925 -0.20165376
  0.17214037  0.20028916  0.03394993  0.09006489  0.09349179  0.08829986
 -0.00351327 -0.06756645 -0.18424255  0.02007878  0.10894879 -0.05300505
  0.09546966 -0.06314126]