[-0.11717721  0.11184814  0.07750171 -0.07844084 -0.06480691 -0.02309327
 -0.04344711 -0.13974681  0.16000937 -0.10291423  0.24453293 -0.07279024
 -0.21467741 -0.05235508 -0.05770597  0.20172885 -0.22525278 -0.10003322
  0.05480779 -0.00336329  0.14941445  0.00360918  0.0178935   0.06174609
 -0.13850796 -0.34239727 -0.12410139 -0.0599224   0.02272673 -0.05678629
 -0.0366728   0.08530379 -0.18396842 -0.02555319  0.04218314  0.109561
  0.02679958 -0.11908568  0.17627135  0.01090862 -0.22203255  0.0345261
  0.05797182  0.22283791  0.15297465  0.00046159  0.03516755 -0.13772069
  0.12618993 -0.17789796 -0.00579994  0.14468183 -0.00312701  0.03217594
  0.01378898 -0.18306611  0.00393139  0.07457679 -0.14396417  0.0020664
  0.068193   -0.08785959  0.033839   -0.07608467  0.13853562  0.08107898
 -0.10174596 -0.18453823  0.1215265  -0.1069208  -0.03535929  0.0528769
 -0.18889321 -0.19704506 -0.28442454  0.0333587   0.35718271  0.10617938
 -0.12382026  0.09800883 -0.02121446 -0.01223371  0.11312473  0.18986605
  0.02409867  0.06963298 -0.07451266  0.06791288  0.21906988 -0.07050618
 -0.01658009  0.25439319 -0.06918643  0.10009491  0.00553624  0.04308558
 -0.10170533  0.05806202 -0.1433785  -0.00381882  0.02978091 -0.01513354
  0.00963391  0.15671197 -0.17771509  0.04683464 -0.02704809 -0.00920776
 -0.04702911 -0.03014532 -0.11053568 -0.00787854  0.11155837 -0.20311098
  0.20774963  0.19930553  0.036558    0.11288086  0.14773045  0.0401683
  0.04691485 -0.04354838 -0.1678832   0.00243295  0.09982298 -0.01022727
  0.05096259 -0.04362927]