[-0.12280709  0.12433868  0.0928963  -0.08371253 -0.09000087 -0.03792239
  0.00507308 -0.15244943  0.15397708 -0.09014158  0.27887976 -0.07991993
 -0.23517786 -0.13276021 -0.02971303  0.2318211  -0.20635097 -0.13607652
 -0.04849908  0.02175508  0.09647942 -0.0307153   0.00212525  0.06638327
 -0.08805357 -0.37491015 -0.12190662 -0.07053843 -0.00135386 -0.04536143
 -0.05821198  0.05156092 -0.18466602 -0.08405111  0.02726499  0.07424625
 -0.02099068 -0.09232192  0.13880691 -0.01959771 -0.25619116  0.02151355
  0.08526488  0.22112055  0.19026874  0.01309668  0.04743945 -0.1333365
  0.13373174 -0.14161967 -0.03190656  0.16189452  0.07944654  0.0698553
  0.00275556 -0.13829689  0.02375307  0.07418229 -0.14989121 -0.02521723
  0.10472671 -0.09031457 -0.02262342 -0.11043227  0.16092589  0.04957239
 -0.115442   -0.22286907  0.12504862 -0.16008522 -0.04183577  0.06471366
 -0.21312849 -0.18385445 -0.29580098 -0.0181278   0.32938811  0.10520674
 -0.1688561   0.03163415 -0.09341843  0.01290041  0.07320688  0.17569911
  0.05788777  0.0793205  -0.10320816 -0.00913782  0.2071425  -0.10651424
  0.03834924  0.28319371 -0.00228595  0.06040397 -0.00763715 -0.00215001
 -0.07480978  0.05552063 -0.12287728  0.01148223 -0.03863943 -0.02514882
  0.00382741  0.07056651 -0.15816763  0.10636306  0.00366094  0.09658296
 -0.03724511 -0.04974025 -0.08596871 -0.08672154  0.12891325 -0.19004701
  0.17053464  0.2236212   0.04648334  0.06072353  0.11055541  0.08086338
 -0.02094897 -0.0412554  -0.17853349  0.02061717  0.08940215 -0.07563686
  0.02786064 -0.0364734 ]