[-0.0823206   0.09428183  0.05426013 -0.08467441 -0.06567273 -0.05735164
 -0.03741607 -0.13868295  0.17342973 -0.08708074  0.28912053 -0.09668316
 -0.21248631 -0.0790918  -0.07143121  0.25027174 -0.23032534 -0.13249221
 -0.02754804  0.06992452  0.10129648 -0.04906636  0.02411847  0.06836895
 -0.1183234  -0.36905417 -0.12247973 -0.05891351  0.00412516 -0.03728139
 -0.0371925   0.02916986 -0.20697771 -0.07943444  0.04734452  0.06345864
 -0.00296156 -0.16814616  0.16310106  0.00773502 -0.2906945   0.04982117
  0.04081113  0.22507849  0.14523946  0.00887755  0.0939898  -0.22428508
  0.14333728 -0.13588504 -0.00576564  0.1167074   0.03859983  0.02881104
  0.00773244 -0.11913285  0.03419636  0.14906751 -0.1476417  -0.02846986
  0.10051943 -0.01683833  0.03308784 -0.1658031   0.18125199  0.05761081
 -0.12810141 -0.16981266  0.13822594 -0.09266965 -0.03542202  0.06629268
 -0.16284841 -0.21839419 -0.31086704 -0.0310771   0.39677757  0.08015168
 -0.16331005  0.06600745 -0.0658612   0.00778541  0.106075    0.22539039
  0.05705277  0.08338575 -0.06521141 -0.00741502  0.26577464 -0.09312893
  0.01685517  0.23481369 -0.04223689  0.03138016 -0.00072665  0.02342059
 -0.09209897  0.08302499 -0.08972041  0.01514664 -0.02041713 -0.00245889
 -0.00741683  0.08230796 -0.16357191  0.06827175  0.01374009  0.04260965
  0.02359364 -0.02201178 -0.04046897 -0.08619593  0.0970364  -0.2510488
  0.17525274  0.18193276  0.04979451  0.09620631  0.08934544  0.10465866
 -0.02151228 -0.02339085 -0.19979312  0.01365694  0.09644886 -0.01995463
  0.08285727 -0.04722294]