[-0.08151376  0.1220119   0.03304413 -0.11598869 -0.08130942 -0.05286685
 -0.03644453 -0.13608821  0.19086035 -0.09325705  0.32046872 -0.06939949
 -0.22883318 -0.08772098 -0.07472692  0.24903905 -0.25800702 -0.1169276
 -0.00255516  0.0544876   0.12373543 -0.02585083  0.05859346  0.05321622
 -0.10642876 -0.34886071 -0.13727434 -0.04372391  0.03081101 -0.04580175
 -0.00237376  0.03211258 -0.1928256  -0.06728886  0.07367092  0.05604035
  0.00658677 -0.16253097  0.1890987   0.00341558 -0.27515283  0.01070468
  0.09312126  0.22750393  0.15991405 -0.00855631  0.05948383 -0.22035833
  0.16229399 -0.13396844 -0.02582603  0.13210677  0.03529831  0.03152551
  0.00298167 -0.10827029  0.05143578  0.17417464 -0.15028667 -0.04080972
  0.11140507 -0.00842159  0.02422277 -0.12968732  0.16768801  0.04462518
 -0.13979484 -0.19744541  0.11767449 -0.10747705 -0.044421    0.09365556
 -0.18249445 -0.21057637 -0.27990443 -0.06939644  0.38043275  0.06966823
 -0.12878452  0.06049484 -0.050931   -0.01951195  0.092347    0.20888095
  0.02648763  0.07702397 -0.08981528  0.00060457  0.28111282 -0.09886549
  0.03224315  0.2829057  -0.03259689  0.06452598 -0.00140363  0.03516177
 -0.09495127  0.06895041 -0.12548073 -0.00939976 -0.03522703 -0.02892894
 -0.01241029  0.09671769 -0.17974113  0.05710308  0.01675852  0.05562158
  0.00321842 -0.04215386 -0.04180781 -0.08172493  0.10428543 -0.20886174
  0.16775557  0.18489961  0.06653202  0.07384705  0.11868364  0.08580082
 -0.01348337 -0.05483394 -0.17408969  0.02587522  0.06486733 -0.05077014
  0.07899242 -0.07935521]