[-1.28051594e-01  3.37092616e-02  6.41858578e-02 -7.32522607e-02
 -8.05185065e-02 -7.37124160e-02 -5.83600476e-02 -1.68417305e-01
  1.50871992e-01 -1.31394580e-01  2.47967273e-01 -1.12472311e-01
 -1.89854711e-01 -4.08368520e-02 -1.02557376e-01  2.39415884e-01
 -2.17351064e-01 -1.38801247e-01  1.94342285e-02 -3.65341461e-04
  9.44553837e-02 -1.00236004e-02 -1.01239113e-02  3.99880558e-02
 -7.13036284e-02 -3.02604407e-01 -1.17698960e-01 -5.81322126e-02
 -8.56981985e-03 -3.32468674e-02 -6.53688982e-02  7.32864588e-02
 -1.82753131e-01 -3.79917622e-02  4.83395271e-02  1.39551982e-01
  1.48971500e-02 -1.32294819e-01  1.67054102e-01 -4.84008752e-02
 -2.25440532e-01  3.01536620e-02  1.01350904e-01  2.14684173e-01
  1.57706544e-01  3.14778020e-03 -8.87669157e-03 -1.74085066e-01
  8.90269279e-02 -1.48426086e-01 -4.63901572e-02  9.34190676e-02
  1.89578291e-02  4.47463132e-02  5.35410456e-03 -1.54533848e-01
  5.00851683e-02  8.07604343e-02 -1.32925436e-01 -2.07937546e-02
  9.93043557e-02 -1.52243823e-01  1.07926102e-02 -1.15440167e-01
  2.32650951e-01  5.53628914e-02 -1.18248522e-01 -1.68829948e-01
  1.11149184e-01 -1.06022172e-01 -6.81456253e-02  4.12905663e-02
 -1.48333818e-01 -1.89467311e-01 -3.18415314e-01 -5.71754621e-03
  3.68749350e-01  8.86607766e-02 -1.48962513e-01  1.36676192e-01
  6.63336227e-03 -1.45646115e-03  1.62435949e-01  2.07002923e-01
  6.23515360e-02  6.87557310e-02 -1.15717411e-01  1.94031093e-02
  2.23912030e-01 -9.86105949e-02 -2.90472107e-03  1.78747430e-01
 -7.76396021e-02  7.72462413e-02  1.07908994e-03  5.07954843e-02
 -6.31871372e-02  7.19966516e-02 -1.38507277e-01  1.70938950e-02
  4.31902930e-02  8.54981784e-03  8.97692610e-03  9.83491987e-02
 -1.09086096e-01  4.30107489e-03 -1.50959669e-02 -4.92156891e-04
 -3.13949548e-02 -7.07294792e-02 -6.22737892e-02 -1.80491060e-02
  9.77983400e-02 -2.55553871e-01  2.04059109e-01  1.68476641e-01
  4.11081612e-02  1.39616668e-01  1.20955229e-01  7.33197853e-02
 -5.71115455e-03 -2.88389511e-02 -2.04060912e-01  3.73277976e-03
  8.58749673e-02  1.82143226e-02  1.22186221e-01  1.41881499e-02]