[-0.13330349  0.12017515  0.04761544 -0.11185598 -0.0693321  -0.05712724
  0.01072294 -0.15606526  0.16606329 -0.07520995  0.26551029 -0.09808717
 -0.23317216 -0.10527815 -0.04439829  0.23582505 -0.20065896 -0.12089413
 -0.03127364  0.05095977  0.11258487 -0.0261631   0.0233048   0.07173294
 -0.06758972 -0.36899164 -0.13268787 -0.04003243  0.02624374 -0.0385682
 -0.02430748  0.07712315 -0.18478777 -0.07084118  0.04281612  0.05205535
 -0.0151236  -0.11806897  0.13432428 -0.01256549 -0.28928059  0.02362465
  0.09980293  0.24667692  0.20545208  0.02497567  0.04154548 -0.15772977
  0.13674594 -0.1575164  -0.0415205   0.13088425  0.06809589  0.03829869
 -0.00487865 -0.15521206  0.04296076  0.07859903 -0.17196335 -0.03139708
  0.0955809  -0.05713045  0.00652041 -0.08865608  0.1671658   0.05431001
 -0.14795096 -0.18130033  0.12275711 -0.14283991 -0.00613892  0.05041263
 -0.20713149 -0.22060278 -0.28378758 -0.02045099  0.33656248  0.09391643
 -0.14081991  0.08005421 -0.06247437  0.03723492  0.08264881  0.21270917
  0.0187572   0.05816254 -0.09374771 -0.01733455  0.21580926 -0.11812814
  0.02064567  0.2961069  -0.02331041  0.04947805 -0.02243019  0.03861774
 -0.08985781  0.06776019 -0.12294995 -0.00077272 -0.01635139 -0.02049766
  0.01372436  0.10510787 -0.17842287  0.11285825  0.01931171  0.10116298
 -0.01019301 -0.04740008 -0.04198341 -0.0792506   0.07056257 -0.19173966
  0.18053254  0.21181969  0.04933534  0.08528335  0.12664664  0.06758967
  0.03087679 -0.02313886 -0.1546807   0.02426696  0.10390236 -0.05098828
  0.03638185 -0.03963155]