[-1.01928703e-01  1.41015664e-01  5.13835214e-02 -6.63431510e-02
 -7.62913078e-02 -6.15073629e-02  6.87649986e-03 -1.57614008e-01
  1.48165226e-01 -6.16021231e-02  2.76292562e-01 -1.00134708e-01
 -2.24878982e-01 -1.12757914e-01 -8.01175460e-02  2.36099482e-01
 -2.37197742e-01 -1.51406229e-01 -2.41214167e-02  3.59622352e-02
  1.20028637e-01 -1.84131879e-02  2.28398442e-02  6.12166226e-02
 -9.11278650e-02 -3.48780364e-01 -1.30319580e-01 -7.40863234e-02
  1.04995314e-02 -5.40494807e-02 -2.68493779e-04  6.39218315e-02
 -2.02172518e-01 -5.19169830e-02  4.71470281e-02  5.13169654e-02
 -4.75495326e-04 -1.13344386e-01  1.55168310e-01 -2.05056053e-02
 -2.68928587e-01  2.00672951e-02  1.11750059e-01  2.48994872e-01
  1.87341139e-01  2.77203508e-02  3.77573632e-02 -1.61657944e-01
  1.14704788e-01 -1.00105405e-01 -3.35074626e-02  1.55326590e-01
  3.72896381e-02  5.65425046e-02  1.63786709e-02 -1.51537478e-01
  8.87440145e-03  9.41369608e-02 -1.22923784e-01 -5.06211407e-02
  9.97839645e-02 -4.35708240e-02  6.62741391e-03 -1.61183938e-01
  1.73143610e-01  1.52687868e-02 -1.25358269e-01 -1.84358105e-01
  1.46748796e-01 -1.60304308e-01 -4.64580804e-02  7.56477639e-02
 -1.88291326e-01 -1.84826553e-01 -2.79137194e-01 -5.62233590e-02
  3.22506428e-01  8.48314092e-02 -1.40171409e-01  6.85415789e-02
 -3.56480703e-02  2.21049692e-02  9.17625353e-02  2.04497963e-01
  5.61570525e-02  1.03485361e-01 -9.34445560e-02 -2.78105419e-02
  2.34489679e-01 -9.53979716e-02  2.65241060e-02  2.55146235e-01
 -5.19826412e-02  1.95578691e-02 -2.24087620e-03 -2.16922816e-02
 -5.95271476e-02  6.61165118e-02 -1.31774709e-01  1.71701089e-02
 -7.69854337e-02 -3.07153370e-02 -3.91642116e-02  6.60928711e-02
 -1.34425655e-01  5.25338314e-02  3.03340591e-02  8.67679119e-02
 -7.35584125e-02 -4.95685115e-02 -7.04119280e-02 -5.06375805e-02
  1.18530981e-01 -2.24708155e-01  2.08067641e-01  1.83566436e-01
  2.25140266e-02  7.46212006e-02  1.04076207e-01  1.07011095e-01
 -3.37986164e-02 -5.80941699e-02 -1.86438382e-01  4.14392073e-03
  9.53313857e-02 -7.03507885e-02  6.52794689e-02 -5.30214123e-02]