[-0.12377723  0.0624577   0.11807678 -0.0577465  -0.0852238  -0.06578293
 -0.09505471 -0.17123601  0.11627886 -0.09790246  0.22781359 -0.12562399
 -0.2367945   0.005193   -0.06329821  0.22976552 -0.16043156 -0.12208704
  0.01266313  0.01189455  0.05609544 -0.0093426   0.00957353  0.03431867
 -0.08363958 -0.34045753 -0.16441554 -0.05176745 -0.02544216 -0.01701763
 -0.08080652  0.06280559 -0.18325962 -0.03742425  0.04896608  0.12711716
  0.00308701 -0.13831277  0.14452708 -0.05688474 -0.24344246  0.04680628
  0.09717535  0.20853917  0.17297463  0.04658595  0.03197948 -0.1321637
  0.04487315 -0.14937107 -0.00999977  0.09919848  0.0231405   0.03271994
  0.00404363 -0.16741724  0.03329936  0.0972314  -0.14412606 -0.02495151
  0.09232564 -0.10935601  0.01493434 -0.08696653  0.25433907  0.09013245
 -0.13630566 -0.1356561   0.09947962 -0.12013759 -0.0189804   0.03652332
 -0.18967089 -0.19645378 -0.32179478  0.02069344  0.36648861  0.0513413
 -0.15072463  0.12585072  0.01297729  0.02261108  0.12014172  0.18568665
  0.02755321  0.06142748 -0.09123733  0.02237798  0.24629898 -0.11022957
  0.01488728  0.19890817 -0.07757511  0.03915949  0.0052413   0.08048441
 -0.04296936  0.0076063  -0.12221072  0.01460323  0.05799617 -0.00455793
 -0.01673811  0.10982112 -0.17308858  0.00882544 -0.01444784 -0.01307813
 -0.01934942 -0.06303532 -0.06818647 -0.04619092  0.13702965 -0.26951373
  0.17446104  0.19440404 -0.01420392  0.11969753  0.10112777  0.07517139
  0.00091843 -0.0154878  -0.17651138 -0.01879396  0.121674    0.00964474
  0.10431333  0.01575673]