[-0.13324568  0.13145344  0.10545353 -0.0897224  -0.08139117 -0.0449862
 -0.01322494 -0.1532803   0.14436649 -0.11710566  0.28065619 -0.08832594
 -0.20210905 -0.13107109 -0.03666511  0.21989036 -0.21435781 -0.13209543
 -0.00576812  0.03617188  0.15092377 -0.0155079   0.00041102  0.04718276
 -0.10263734 -0.38360628 -0.12609641 -0.06438281  0.02225097 -0.02564378
 -0.02445269  0.06222737 -0.17458259 -0.05107827 -0.00454093  0.07790925
  0.00459019 -0.09115257  0.1128723  -0.0204768  -0.28846169  0.05789077
  0.05013803  0.21828651  0.20595503  0.00309395  0.06979673 -0.15121102
  0.12838997 -0.1249456  -0.05806313  0.13256246  0.07725756  0.04756067
  0.01121004 -0.12513462  0.01967308  0.05316675 -0.1622421  -0.03684205
  0.0909514  -0.09571516  0.03427857 -0.10591878  0.14006728  0.03680533
 -0.10260841 -0.20989056  0.14688306 -0.16895254 -0.04866314  0.08328857
 -0.19286463 -0.17625864 -0.30615318 -0.02123806  0.32561201  0.10685122
 -0.15102433  0.06269676 -0.05741713  0.03016238  0.09524391  0.21751802
  0.06324603  0.07773253 -0.09750047 -0.01064114  0.20751229 -0.1133825
  0.02407687  0.28645697 -0.00223365  0.07040057 -0.00162104  0.01179585
 -0.07581816  0.07632095 -0.09264278  0.02440393 -0.05231956 -0.01679155
  0.00958226  0.0867868  -0.13775688  0.11438634 -0.02496369  0.09859577
 -0.04704622 -0.04010954 -0.03460408 -0.06134397  0.0935965  -0.19511189
  0.14908712  0.22039698  0.02625888  0.08723003  0.1119379   0.08232878
 -0.02095376 -0.04482764 -0.18410374  0.02337823  0.07801231 -0.06959634
  0.03215171 -0.03048964]