[-0.07144607  0.13847756  0.05067478 -0.03476183 -0.08041991 -0.05258724
 -0.04637266 -0.10165992  0.17897616 -0.03255029  0.30589858 -0.08483174
 -0.21657752 -0.09729346 -0.06201006  0.23925014 -0.24721503 -0.09417494
 -0.00345988  0.05958845  0.13567275 -0.01964443  0.0548246   0.07239191
 -0.12027347 -0.39557773 -0.11108285 -0.07860741  0.01169168 -0.05624437
 -0.04657248  0.0463365  -0.19125636 -0.08166966  0.0428545   0.02923294
 -0.00540526 -0.11449742  0.1626839  -0.00999123 -0.27591512  0.04657828
  0.05740936  0.22046807  0.17336546  0.01708511  0.07425388 -0.19378105
  0.10127268 -0.13112429 -0.0092665   0.15379493  0.01381348  0.03228474
  0.0068982  -0.11651025 -0.02294971  0.1431638  -0.14906716 -0.03758162
  0.08067055 -0.01324199  0.02925076 -0.15087537  0.15846048  0.05782719
 -0.10337186 -0.19740355  0.10411586 -0.12254337 -0.03315441  0.10174421
 -0.16970947 -0.22744231 -0.3027471  -0.02702039  0.39402178  0.07626633
 -0.14261256  0.06217593 -0.06628918 -0.02993428  0.09333787  0.17905927
  0.05483696  0.07177381 -0.09390905  0.01876938  0.23149422 -0.10034318
  0.02791729  0.2526705  -0.03784657  0.05454048 -0.00126785  0.02249482
 -0.08753288  0.08730873 -0.11724842 -0.00797173 -0.04565261 -0.00247864
 -0.00573966  0.06842282 -0.14277798  0.04083313  0.02638024  0.04248926
 -0.00666006 -0.01276932 -0.05987222 -0.08804294  0.11768102 -0.22939947
  0.18286809  0.16098906  0.05342269  0.0973852   0.0763417   0.10306019
 -0.04060961 -0.05759646 -0.17875798  0.05053808  0.09290853 -0.03215168
  0.07398897 -0.06177286]