[-0.11770432  0.11490529  0.07103478 -0.04987058 -0.08520114 -0.07516442
  0.01941972 -0.15633781  0.16010672 -0.06488147  0.29942068 -0.08629449
 -0.21718912 -0.11703885 -0.06600984  0.26165977 -0.25498256 -0.13224213
 -0.0031337   0.05457235  0.12167601 -0.01138043  0.02879786  0.06320114
 -0.09355313 -0.36324677 -0.12720445 -0.08265491  0.02713515 -0.03769581
 -0.01899067  0.06832147 -0.17321241 -0.04704975  0.05061827  0.05569115
  0.01327447 -0.10101509  0.14616485 -0.01163427 -0.2986733   0.01020486
  0.1171267   0.22823067  0.18056063  0.03782053  0.04408213 -0.17651123
  0.11635833 -0.12445424 -0.01676802  0.11251636  0.04156676  0.05112813
  0.01926648 -0.15664554 -0.00295668  0.07442888 -0.12264546 -0.04238613
  0.10438776 -0.05504952  0.02854451 -0.13125652  0.16324762  0.01100773
 -0.11365191 -0.16561668  0.14715028 -0.15600243 -0.06485562  0.0748522
 -0.17448457 -0.17790037 -0.31499761 -0.056529    0.38426635  0.07684856
 -0.11998989  0.06066192 -0.04733948  0.00443648  0.0969592   0.21348141
  0.0672801   0.06965246 -0.10399304 -0.02571729  0.23367269 -0.11524487
  0.05015493  0.25592208 -0.04195373  0.06229938 -0.02834586  0.00159848
 -0.0559688   0.08927178 -0.10216993  0.00316151 -0.06770562 -0.00886095
  0.00054957  0.07372219 -0.16155852  0.04699379  0.04527354  0.07535838
 -0.02036077 -0.00768032 -0.05441616 -0.07130392  0.09038905 -0.21875744
  0.20504232  0.19936444  0.03215153  0.08120307  0.08315764  0.10714507
 -0.02990607 -0.06855749 -0.17793658  0.02587519  0.08726449 -0.06845205
  0.04414751 -0.02952488]