[-0.08688032  0.12767117  0.00908079 -0.08047107 -0.05883377 -0.06146353
 -0.01039825 -0.13419187  0.15831812 -0.05431775  0.29152521 -0.07354499
 -0.20963085 -0.13317341 -0.0476995   0.22771418 -0.2500532  -0.12641522
 -0.03334114  0.0619586   0.10503238 -0.03280801  0.03178003  0.05086933
 -0.11854923 -0.35008916 -0.12260854 -0.08285163  0.03471374 -0.04380849
 -0.03157468  0.01536196 -0.22364883 -0.10501474  0.04104567  0.02528587
  0.00133765 -0.11809375  0.18183018  0.01955743 -0.2595354   0.01444138
  0.05998464  0.23860231  0.1719812   0.01546052  0.06494173 -0.18903935
  0.13103262 -0.13243891 -0.02672265  0.12144697  0.03449249  0.0395228
 -0.0349158  -0.13227795  0.02071122  0.12651709 -0.16446425 -0.02310464
  0.0928872  -0.02101365 -0.0152667  -0.12456753  0.18683138  0.04276273
 -0.13054107 -0.18715684  0.11682367 -0.12320596 -0.0272191   0.06585862
 -0.14886287 -0.19980145 -0.30297503 -0.0572632   0.35680419  0.05949822
 -0.16428453  0.04929064 -0.0954017  -0.01018285  0.11707822  0.1756563
  0.03923597  0.09743549 -0.09133565 -0.00984147  0.25728095 -0.09727379
  0.03019059  0.26071686 -0.04383657  0.06228553  0.01023633  0.03216198
 -0.08634987  0.0715268  -0.09541764  0.01268161 -0.00198675 -0.03935113
 -0.00268815  0.0863808  -0.15409592  0.08269081  0.03657744  0.08109518
  0.00464717 -0.05823998 -0.05951991 -0.08604871  0.11917011 -0.20605163
  0.19553345  0.18602239  0.01752651  0.08096548  0.11903822  0.08374094
 -0.05113353 -0.03104966 -0.21401589  0.02799319  0.08512757 -0.04966736
  0.09107376 -0.06099639]