[-0.12749641  0.12906006  0.04310856 -0.06028409 -0.08896589 -0.06066862
  0.0104246  -0.12797187  0.18445578 -0.09240212  0.28152663 -0.12573229
 -0.22251146 -0.10157671 -0.07320719  0.25467712 -0.24489449 -0.12084025
 -0.02170719  0.01943276  0.1301754  -0.01268562 -0.00124387  0.07218616
 -0.08644841 -0.34591231 -0.11146795 -0.07365578  0.02543456 -0.08150277
 -0.00927726  0.05703962 -0.18076545 -0.07993166  0.03254674  0.03357621
 -0.00486984 -0.10781705  0.13813676 -0.04060317 -0.26653183  0.02417579
  0.09995071  0.24919677  0.17169873  0.04407485  0.01014816 -0.19085778
  0.11822128 -0.1191316  -0.05009438  0.12589204  0.01901876  0.02636835
  0.03016229 -0.14337443  0.0059339   0.08281974 -0.13139357 -0.0431659
  0.09119635 -0.05250531 -0.010461   -0.1485938   0.17415962  0.01131372
 -0.11681296 -0.1820375   0.1306003  -0.1514228  -0.04889226  0.06843306
 -0.14983529 -0.19071536 -0.29174897 -0.04814097  0.36688104  0.05688045
 -0.14617746  0.10115907 -0.01367807 -0.00159678  0.11944836  0.22330932
  0.0408953   0.05957941 -0.08109714 -0.02227794  0.20782883 -0.1040796
  0.03289638  0.23311713 -0.047817    0.0138637   0.00444569 -0.01160944
 -0.08866411  0.07604178 -0.1094517  -0.00945352 -0.00348701 -0.03583051
 -0.03383165  0.06385645 -0.15310459  0.07147375  0.03125234  0.06815387
 -0.01788656 -0.03690328 -0.06926455 -0.04174583  0.11704475 -0.2257459
  0.1994047   0.17359444  0.02144072  0.10033902  0.10541564  0.10892691
 -0.01973929 -0.01110226 -0.18637204  0.0053782   0.10368915 -0.07402589
  0.07323217 -0.06106766]