[-0.10367172  0.14581273  0.03694039 -0.06336017 -0.07791703 -0.03200695
  0.02201993 -0.12962016  0.17686711 -0.06642909  0.2853733  -0.11114235
 -0.26448008 -0.10021865 -0.07400262  0.26947299 -0.23456612 -0.13773811
 -0.04522133  0.04158292  0.12115413 -0.00189972  0.01613551  0.08647399
 -0.10413456 -0.33900228 -0.10257335 -0.07273114 -0.01875779 -0.08630802
 -0.03996888  0.04330687 -0.18784033 -0.05876357  0.0345634   0.0267869
 -0.01955414 -0.12582299  0.15945165 -0.01970356 -0.2863442   0.02774934
  0.11126476  0.24885607  0.19452833  0.02561951  0.01815022 -0.18187778
  0.12757413 -0.14632483 -0.03052282  0.13919036  0.03018159  0.02209469
  0.01375365 -0.15911692 -0.01049767  0.10814176 -0.10961465 -0.05811143
  0.0890209  -0.05459049 -0.0033017  -0.14435171  0.18595169  0.02587737
 -0.13263559 -0.17212793  0.12222731 -0.14199887 -0.0544652   0.0513329
 -0.17951037 -0.19837764 -0.30972332 -0.04426597  0.35639828  0.04872275
 -0.16459733  0.10139024 -0.02590219  0.02997602  0.11621817  0.22799824
  0.03790278  0.06734677 -0.11454888 -0.01968221  0.23567508 -0.11818635
  0.03232752  0.24483405 -0.04518411  0.02174597  0.01324906 -0.01146967
 -0.08458191  0.06066693 -0.1264787   0.01032844 -0.03316123 -0.01220582
 -0.04343827  0.07696634 -0.14478128  0.05317438  0.03860344  0.06742356
 -0.02579313 -0.05847644 -0.07175659 -0.05906606  0.10469293 -0.21191899
  0.1897376   0.1505432   0.0151797   0.08230677  0.11925049  0.1085211
 -0.02626243 -0.00449206 -0.2081389   0.02004754  0.14157088 -0.06608729
  0.09195507 -0.06028633]