[-0.07644471  0.12798613  0.05900863 -0.09606685 -0.08807566 -0.04540933
 -0.03442713 -0.11877847  0.17002259 -0.05966723  0.31492969 -0.09040019
 -0.21493034 -0.06846397 -0.07576301  0.25404736 -0.26489899 -0.10261635
 -0.00421292  0.06567051  0.12500644 -0.00121503  0.02376934  0.06752478
 -0.11840091 -0.36976215 -0.11565702 -0.06308911  0.03154519 -0.05340511
 -0.03712281  0.01540899 -0.19583039 -0.06464262  0.05457587  0.03683775
 -0.0058222  -0.15640426  0.16471481  0.02436857 -0.27933064  0.03603348
  0.06522492  0.22105217  0.17396918  0.0067409   0.07367941 -0.21447341
  0.12732674 -0.15743175 -0.017519    0.13176501  0.00097126  0.03962284
 -0.02574283 -0.12335338  0.00377455  0.15294866 -0.17052637 -0.02033032
  0.11880638 -0.02098244  0.02914387 -0.13853471  0.16709822  0.06082531
 -0.13651566 -0.18919185  0.10496593 -0.12182595 -0.03780637  0.06881384
 -0.15592273 -0.21135774 -0.28096849 -0.04375325  0.39140511  0.07102393
 -0.1385956   0.05397096 -0.07694977 -0.02084262  0.10932517  0.19595185
  0.06329917  0.06616186 -0.08168724  0.0179633   0.26478291 -0.10034119
  0.05422861  0.28298539 -0.05274692  0.05748297 -0.006731    0.0514708
 -0.10821851  0.08857587 -0.08209799  0.00548535 -0.04116465 -0.01184182
  0.00955197  0.0901401  -0.1656491   0.08828066  0.01388935  0.05467105
  0.01397017 -0.05603685 -0.03507558 -0.07316366  0.12375759 -0.2076118
  0.18559441  0.17103164  0.05473034  0.09105142  0.09935872  0.08633139
 -0.02810802 -0.05839157 -0.20355216  0.0479012   0.07048713 -0.05787847
  0.08354931 -0.06499193]