[-0.11693044  0.10990775  0.07297262 -0.07899559 -0.06215631 -0.05048419
 -0.00974362 -0.16074847  0.16781293 -0.10947876  0.26321813 -0.12415417
 -0.23757799 -0.05800481 -0.04790473  0.22808801 -0.20352732 -0.13308077
 -0.0616609   0.04331488  0.10510752 -0.00743381  0.01147451  0.07880943
 -0.10945537 -0.36217353 -0.14159879 -0.04684046  0.03779233 -0.05831863
 -0.06005042  0.03175179 -0.18373933 -0.08846568  0.06182418  0.0594262
 -0.01163303 -0.1391073   0.13844438 -0.03019092 -0.30041179  0.05330947
  0.06751803  0.23989952  0.17307197  0.02995082  0.03110265 -0.15648216
  0.1255355  -0.15335074 -0.0110019   0.139687    0.06505995  0.05610616
  0.00156183 -0.15390331  0.01667726  0.13257973 -0.14068213 -0.02709424
  0.11570346 -0.04642501  0.03492601 -0.10379855  0.1415125   0.0403457
 -0.15380839 -0.20457755  0.09206149 -0.14128451 -0.00537822  0.06378241
 -0.199788   -0.20518576 -0.28816447 -0.01483927  0.36924565  0.0771092
 -0.14264464  0.06207389 -0.06752912  0.03603686  0.06432721  0.18821482
  0.03304583  0.05896459 -0.07003202 -0.0064277   0.22381993 -0.09060428
  0.01014632  0.2609044  -0.049877    0.02666214 -0.01421687  0.03742363
 -0.10811678  0.05136353 -0.08028004  0.01944376 -0.01688822 -0.0051706
 -0.00825511  0.11702841 -0.18677983  0.13748831 -0.00209377  0.08664139
  0.0136553  -0.01191287 -0.06642734 -0.07185904  0.10552764 -0.23725767
  0.16986223  0.22308083  0.05616681  0.07355843  0.10151494  0.05629928
  0.02062264  0.02574119 -0.20076334 -0.01132559  0.11113578 -0.06294489
  0.04835191 -0.04935537]