[-1.26235202e-01  4.97610532e-02  8.27204064e-02 -6.32766560e-02
 -6.89661652e-02 -5.60796261e-02 -6.98143169e-02 -1.74621880e-01
  1.48339197e-01 -1.40478596e-01  2.48299122e-01 -1.03821240e-01
 -2.06558987e-01 -4.95623462e-02 -9.50252414e-02  2.26053908e-01
 -2.16998294e-01 -1.23733126e-01  3.43559682e-02  1.93476602e-02
  1.01055376e-01 -1.95170622e-02 -1.28206285e-02  1.48694804e-02
 -6.93047792e-02 -3.12498808e-01 -1.35415286e-01 -7.35057071e-02
  3.11592291e-03 -4.55266051e-02 -7.64213279e-02  3.53569947e-02
 -1.70088649e-01 -2.99129914e-02  2.70548817e-02  1.27244428e-01
 -7.84125458e-03 -1.16915345e-01  1.80202708e-01 -5.25725745e-02
 -2.34671712e-01  2.61946470e-02  7.24771917e-02  2.01477513e-01
  1.56858861e-01  3.66761237e-02 -2.44531478e-03 -1.75933689e-01
  8.67281035e-02 -1.49222568e-01 -2.64741518e-02  1.06791317e-01
  3.10810897e-02  4.58157361e-02 -1.55377015e-03 -1.55778870e-01
  2.38660127e-02  7.97327980e-02 -1.26287267e-01 -2.25609783e-02
  9.71030965e-02 -1.27523497e-01  3.43959825e-03 -8.38492736e-02
  2.33125716e-01  5.51150106e-02 -1.38479143e-01 -1.52651966e-01
  1.03945039e-01 -1.20459341e-01 -5.73371165e-02  4.83042821e-02
 -1.43029004e-01 -1.99555725e-01 -3.00934702e-01  3.27263214e-03
  3.86664599e-01  6.30535930e-02 -1.47797436e-01  1.06022656e-01
 -1.32121025e-02 -1.66663378e-02  1.78116515e-01  2.05451608e-01
  5.90665042e-02  5.34955673e-02 -9.40140262e-02  4.39607864e-03
  2.26368308e-01 -1.22345507e-01  1.31761106e-02  1.76621243e-01
 -7.21190870e-02  9.19228122e-02 -2.29450557e-02  5.59429042e-02
 -4.07289676e-02  7.57119060e-02 -1.07326321e-01  1.84561685e-02
  6.27843365e-02  6.14590803e-03 -1.35411543e-03  1.00462094e-01
 -1.30960062e-01  1.69228110e-02  6.38412824e-03 -2.80554406e-04
  6.96721766e-03 -7.41902590e-02 -8.28784034e-02 -3.98752727e-02
  1.19248845e-01 -2.74974525e-01  2.02759981e-01  1.92737579e-01
  7.88689684e-03  1.27037510e-01  1.26847953e-01  7.93850198e-02
  9.48697608e-03 -3.59462276e-02 -2.22410828e-01 -7.31886190e-04
  9.87728760e-02  2.33483873e-02  9.73327011e-02 -1.37960380e-02]