[-0.12266465  0.09930307  0.08047845 -0.08972592 -0.05242139 -0.03075978
 -0.02697334 -0.13871597  0.16621929 -0.1043159   0.23761466 -0.08947905
 -0.20711604 -0.05178456 -0.06350382  0.20966697 -0.22726677 -0.10428254
  0.08283786 -0.00535249  0.13718084  0.00985935 -0.00397713  0.0688547
 -0.14608905 -0.32475084 -0.12986718 -0.05972195 -0.00231586 -0.02938466
 -0.03663575  0.0985183  -0.18775041 -0.0197796   0.03318091  0.13608988
  0.02127603 -0.12300926  0.16312586  0.01299769 -0.22133052  0.02574032
  0.06974153  0.2377611   0.16824046 -0.02825608  0.00993672 -0.10681045
  0.11041658 -0.18276191 -0.03704434  0.12408664  0.00227233  0.03263032
 -0.00454138 -0.14630383  0.01150014  0.07183244 -0.17411189 -0.03059927
  0.07336723 -0.12931104  0.03017817 -0.07906444  0.14949408  0.0878866
 -0.10374875 -0.16865599  0.14544295 -0.12307256 -0.03962858  0.04361933
 -0.16842827 -0.18975034 -0.29277334  0.0458356   0.34894642  0.11262603
 -0.10551599  0.11804543 -0.00288181 -0.00531729  0.11657425  0.19089554
  0.04372199  0.07812475 -0.07991519  0.06787156  0.21357544 -0.07018419
 -0.00718482  0.23489526 -0.07299301  0.08675494  0.01806015  0.04408471
 -0.08010172  0.06272831 -0.15536712  0.02254858  0.01620252 -0.01977289
  0.01468691  0.1576972  -0.16706458  0.05173326 -0.01671999 -0.03567594
 -0.05582662 -0.04683752 -0.09212419  0.00187321  0.10720982 -0.21336229
  0.18096219  0.17331466  0.01964128  0.1269003   0.12583451  0.04089236
  0.02456698 -0.06064826 -0.17887671 -0.00649387  0.09942582 -0.01380418
  0.07634094 -0.03213723]