[-8.91486928e-02  1.17488064e-01  5.13015166e-02 -5.95503412e-02
 -7.29441568e-02 -6.95598274e-02 -2.79230811e-02 -1.16785459e-01
  1.68877885e-01 -3.60427760e-02  3.05105120e-01 -7.26938844e-02
 -2.02766776e-01 -1.04573242e-01 -6.03320487e-02  2.52764612e-01
 -2.74175078e-01 -1.22960806e-01 -9.91861057e-03  6.00503795e-02
  1.34886026e-01 -1.42744379e-02  3.35422531e-02  5.45761473e-02
 -1.36501983e-01 -3.85233670e-01 -1.08098663e-01 -6.65214807e-02
  3.15154046e-02 -3.87436263e-02 -2.95974407e-02  1.92868225e-02
 -2.13170320e-01 -8.06491002e-02  5.75858466e-02  3.45393792e-02
 -8.70207883e-03 -1.61501661e-01  1.67661399e-01  2.05560476e-02
 -2.81509250e-01  2.42143963e-02  6.80487230e-02  2.20745161e-01
  1.77905977e-01  7.26796716e-05  8.76584277e-02 -2.01306537e-01
  1.38721332e-01 -1.50788769e-01 -4.30747569e-02  1.43726155e-01
  1.38110146e-02  4.63028811e-02 -2.56376266e-02 -1.23748660e-01
  6.29677949e-03  1.22308485e-01 -1.76764235e-01 -2.59453803e-02
  1.00731447e-01 -3.46952081e-02  3.09034735e-02 -1.48939937e-01
  1.66885540e-01  4.24029045e-02 -1.25209063e-01 -1.90276429e-01
  1.19735077e-01 -1.22482650e-01 -3.07403095e-02  6.25025854e-02
 -1.58635676e-01 -2.27339059e-01 -3.11612248e-01 -5.65857999e-02
  3.82055193e-01  6.82704523e-02 -1.34045795e-01  7.55841509e-02
 -8.91336575e-02 -6.94764266e-03  8.73640552e-02  2.02018782e-01
  6.56808242e-02  1.03706717e-01 -9.72207785e-02  7.03859329e-03
  2.66589016e-01 -1.05795972e-01  3.70757729e-02  2.71844536e-01
 -4.64730263e-02  6.24872819e-02  1.13482485e-02  3.76215689e-02
 -1.04199968e-01  8.20429102e-02 -8.48382041e-02  1.28549179e-02
 -5.05396612e-02 -1.95120182e-02  2.72933077e-02  7.08860084e-02
 -1.30991265e-01  7.36792386e-02  2.39033606e-02  7.36366361e-02
 -7.21942633e-03 -4.30440195e-02 -5.21034598e-02 -9.47605371e-02
  9.77995172e-02 -2.10102305e-01  1.98942736e-01  1.75280482e-01
  5.11382483e-02  1.09474652e-01  9.59281847e-02  9.88718197e-02
 -5.53682223e-02 -3.84795330e-02 -1.76551133e-01  4.50144671e-02
  5.39995022e-02 -3.51402238e-02  8.58743340e-02 -4.88768630e-02]