[-0.10934738  0.13671707  0.04955681 -0.06315369 -0.06878384 -0.06805736
  0.00947875 -0.15500848  0.14817148 -0.06440704  0.28683075 -0.1036255
 -0.2174363  -0.13234721 -0.06571648  0.2380044  -0.24414742 -0.14327817
 -0.01832127  0.04217772  0.12464037 -0.01373071  0.03257251  0.06757538
 -0.09514462 -0.36323595 -0.13253339 -0.08399209  0.0159582  -0.04692947
 -0.00045686  0.05438462 -0.19987909 -0.05778034  0.04614535  0.04691945
  0.00494692 -0.11181086  0.1650577  -0.01622755 -0.27239621  0.01000882
  0.09991761  0.2494732   0.18471453  0.02812221  0.04173507 -0.15622012
  0.12168276 -0.09670909 -0.02020564  0.15045056  0.03803948  0.04759631
  0.01503056 -0.14202212  0.00279094  0.1070524  -0.12407696 -0.05072773
  0.09977681 -0.0420703   0.00987606 -0.14600767  0.17237417  0.01902209
 -0.12264419 -0.18715376  0.15159118 -0.14991072 -0.04726342  0.07030428
 -0.19284849 -0.1813973  -0.28458044 -0.05034773  0.32590455  0.0705537
 -0.14391221  0.05945358 -0.04536209  0.0245039   0.10345043  0.20553792
  0.06600598  0.08547248 -0.09753225 -0.03258624  0.22917981 -0.09806314
  0.02402005  0.25363693 -0.05513112  0.0205988  -0.00126384 -0.02139524
 -0.06315329  0.07826035 -0.11967174  0.02035481 -0.06155464 -0.0235565
 -0.03543321  0.07347422 -0.14043349  0.0541579   0.03388014  0.08815881
 -0.0534378  -0.04538685 -0.07414816 -0.06119636  0.10991166 -0.21523733
  0.21369696  0.17896514  0.01816902  0.08189886  0.10112256  0.11072939
 -0.03089303 -0.05515859 -0.19484502  0.00712767  0.09880679 -0.05878419
  0.06105459 -0.05564796]