[-1.07777551e-01  1.01998381e-01  4.57541049e-02 -8.49317238e-02
 -5.45088910e-02 -4.68948819e-02 -1.36652356e-02 -1.07717268e-01
  1.83523774e-01 -8.02763626e-02  2.59989709e-01 -6.84790835e-02
 -2.45461687e-01 -8.55626091e-02 -5.34350462e-02  2.51133829e-01
 -2.26914480e-01 -1.21982671e-01 -2.57229954e-02  6.99985698e-02
  1.21989183e-01 -1.37340324e-02  4.50674929e-02  7.52077997e-02
 -1.70080021e-01 -3.55546325e-01 -1.21751882e-01 -5.10883518e-02
 -1.03750331e-02 -5.31042777e-02 -3.19349729e-02  1.93283055e-02
 -2.16717765e-01 -6.85753599e-02  3.69374268e-02  8.93168077e-02
 -1.89575739e-02 -1.63594589e-01  1.67855367e-01  7.98962917e-03
 -3.03177267e-01  2.74269339e-02  6.57061264e-02  2.29912117e-01
  1.74669757e-01  7.76720932e-03  5.83917499e-02 -1.92600489e-01
  1.45112559e-01 -1.92290768e-01  3.59547150e-04  1.25126883e-01
  5.55623835e-03  6.17310964e-02 -6.37757266e-03 -9.92471501e-02
  3.98339108e-02  1.74131453e-01 -1.81467921e-01 -4.99938987e-02
  9.07522365e-02  1.56809890e-03  5.10690808e-02 -1.33825243e-01
  1.40961438e-01  6.25028014e-02 -1.36577010e-01 -1.56120613e-01
  1.14935115e-01 -1.55591115e-01 -1.83265638e-02  9.34568569e-02
 -1.49329692e-01 -2.47269347e-01 -2.99193382e-01 -4.25289832e-02
  3.61631900e-01  1.23097278e-01 -1.22913733e-01  4.28686775e-02
 -5.30544221e-02 -1.26396185e-02  1.12569407e-01  1.92776352e-01
  7.32459426e-02  7.14179873e-02 -7.33272433e-02  2.94849463e-02
  2.91246086e-01 -7.99585506e-02  3.62644717e-02  2.79961884e-01
 -2.62258505e-03  3.17601040e-02 -1.17888795e-02  5.03063500e-02
 -9.02377591e-02  7.61274248e-02 -1.06817700e-01  3.14674415e-02
 -3.64914350e-02  1.24000115e-02 -2.84232572e-03  9.13306624e-02
 -1.54691890e-01  1.16375230e-01  3.15893367e-02  3.74697037e-02
  5.94137004e-03 -4.45597097e-02 -5.96441291e-02 -7.39878193e-02
  9.67701003e-02 -2.13305458e-01  1.72715425e-01  1.85780361e-01
  2.20324323e-02  8.32293630e-02  8.05824101e-02  9.02035683e-02
 -2.63366103e-02 -5.22177480e-02 -2.07037076e-01  1.79963410e-02
  1.09412365e-01 -5.46090081e-02  1.06973700e-01 -6.32210970e-02]