[-0.078036    0.10029515  0.07273425 -0.06400204 -0.09527668 -0.04206617
 -0.03923678 -0.12033784  0.14815794 -0.08380718  0.26134154 -0.09935635
 -0.23931456 -0.05779207 -0.09216426  0.24832721 -0.19538079 -0.11118068
 -0.01597335  0.07676386  0.0912361   0.00284819  0.05582569  0.03937757
 -0.12327006 -0.35810849 -0.1030314  -0.06334358 -0.02233726 -0.03601735
 -0.06426544  0.01891395 -0.1988744  -0.0605108   0.04354637  0.05781562
 -0.03145638 -0.14069377  0.14448944  0.02080259 -0.30402952  0.03953122
  0.0533976   0.23196903  0.16239341  0.02648904  0.05284904 -0.23223428
  0.12716801 -0.1749109   0.0256815   0.09891065  0.01445698  0.02374375
 -0.00800806 -0.09554942  0.02309125  0.15772647 -0.1503921  -0.0162716
  0.11338778  0.0068963   0.01662541 -0.1543202   0.18089025  0.06123596
 -0.13510035 -0.1484926   0.11499549 -0.12601666 -0.04821981  0.08005526
 -0.14140473 -0.22854845 -0.30041793 -0.03542178  0.3865113   0.0863175
 -0.14807253  0.02799923 -0.05163863  0.00896757  0.12578069  0.20565836
  0.05708248  0.05515658 -0.06810066 -0.00644294  0.28388968 -0.12653975
  0.01275606  0.26126114 -0.02452469  0.0397457  -0.01482554  0.03974399
 -0.08432845  0.07835057 -0.12464686 -0.00410995 -0.008465   -0.00739663
 -0.0221252   0.09332398 -0.17474759  0.08228564  0.02573075  0.02766233
  0.06065375 -0.05691025 -0.05848273 -0.08515684  0.11283147 -0.2175236
  0.18029273  0.17347454  0.07367273  0.08357843  0.10640762  0.07364687
 -0.00921515 -0.04293223 -0.21272905  0.01431866  0.12605979 -0.04383593
  0.08138364 -0.04623548]