[-0.12233829  0.11569295  0.08478109 -0.08273505 -0.0585335  -0.02158001
 -0.04144759 -0.15467134  0.16574501 -0.11501075  0.23638283 -0.08556552
 -0.21353436 -0.0506587  -0.06332943  0.20683537 -0.22159909 -0.1156885
  0.06683465  0.00686271  0.14602862  0.00726864  0.00979709  0.06308299
 -0.12777273 -0.32879445 -0.13741539 -0.05269928  0.02230788 -0.03651904
 -0.05037492  0.06848734 -0.18443373 -0.02681485  0.03757542  0.12500148
  0.02198994 -0.13295305  0.16258211 -0.00694582 -0.24391198  0.03944372
  0.07156049  0.2286932   0.17425552 -0.01189721  0.0128386  -0.14197332
  0.11979005 -0.16930598 -0.01960556  0.1359074   0.00951048  0.03086711
 -0.00739703 -0.15878199  0.00956111  0.07681543 -0.16400002 -0.01439605
  0.08585799 -0.11636133  0.0383259  -0.07848308  0.14117585  0.0840127
 -0.10450213 -0.20043831  0.13270029 -0.13761869 -0.03440509  0.06405056
 -0.18076991 -0.19601192 -0.28873989  0.03276903  0.35973224  0.10922232
 -0.10485766  0.11398748 -0.00857848 -0.00535974  0.11183735  0.21143563
  0.0380142   0.07301631 -0.08359511  0.05896605  0.2308342  -0.08240248
 -0.00855381  0.25217944 -0.06505454  0.08617385  0.01132999  0.05428218
 -0.08916723  0.06235354 -0.15151657  0.00553714  0.01480833 -0.01382993
  0.01595056  0.1591814  -0.16784753  0.04903993 -0.0266066  -0.01288936
 -0.03806135 -0.0508625  -0.08885267 -0.01975405  0.11420093 -0.206972
  0.18233763  0.18635714  0.04395572  0.11180224  0.13862011  0.05465958
  0.04285204 -0.05048697 -0.1803302   0.00640608  0.09698989 -0.01969377
  0.07048804 -0.03470102]