[-1.26408890e-01  5.40832877e-02  6.99334070e-02 -4.33451906e-02
 -7.84885511e-02 -7.16354623e-02 -5.94481193e-02 -1.66675016e-01
  1.51988983e-01 -1.23867631e-01  2.56280035e-01 -9.84729752e-02
 -2.00502619e-01 -2.73542944e-02 -9.85129401e-02  2.36935839e-01
 -2.02141404e-01 -1.09218113e-01  2.55666710e-02  5.16148657e-03
  1.06158368e-01 -1.31826317e-02 -1.85352386e-04  2.82930378e-02
 -4.17853706e-02 -3.20314288e-01 -1.21849075e-01 -6.46011233e-02
  1.97473597e-02 -4.59491424e-02 -7.49395117e-02  3.40701602e-02
 -1.70794502e-01 -4.16346379e-02  3.58060263e-02  1.18251085e-01
 -9.72454995e-03 -1.31677479e-01  1.78101704e-01 -3.36659886e-02
 -2.28698090e-01  2.00094860e-02  7.98079893e-02  2.06944704e-01
  1.47439048e-01  3.43191624e-02  1.81274046e-03 -1.81580067e-01
  7.99318105e-02 -1.50109991e-01 -1.97199937e-02  8.95099267e-02
  2.16989461e-02  4.13676612e-02  1.18750334e-02 -1.61288217e-01
  3.74321789e-02  7.48597011e-02 -1.39438212e-01 -1.79356989e-02
  1.03438608e-01 -1.09020472e-01  1.64582413e-02 -9.03158337e-02
  2.37670660e-01  6.18142188e-02 -1.17081635e-01 -1.45293817e-01
  1.03864960e-01 -1.21631078e-01 -5.92158437e-02  3.98891680e-02
 -1.31708905e-01 -2.05264404e-01 -3.01758498e-01  5.74246747e-03
  4.08575118e-01  8.63681361e-02 -1.42628580e-01  1.07214585e-01
 -2.88146269e-03 -3.18302773e-02  1.87185884e-01  2.02605173e-01
  5.78579381e-02  4.90654185e-02 -1.06610619e-01 -4.57986584e-03
  2.25185275e-01 -1.02061175e-01 -3.57311661e-03  1.83663204e-01
 -7.18717277e-02  8.58122632e-02 -1.21103320e-02  5.47089539e-02
 -6.42996505e-02  7.24146366e-02 -1.21897914e-01 -1.03223054e-02
  3.49426866e-02  7.74572778e-04 -2.52320617e-03  9.49873552e-02
 -1.34757742e-01  1.02211824e-02  1.22778490e-03 -6.17575226e-03
 -7.31484452e-03 -5.64716123e-02 -8.30867663e-02 -3.38744931e-02
  1.02993168e-01 -2.54782736e-01  2.06192330e-01  1.84390217e-01
  3.46332751e-02  1.36132643e-01  1.20237552e-01  7.49884695e-02
  1.66595187e-02 -3.79119627e-02 -2.09313542e-01  2.77063414e-03
  8.30469504e-02  1.72359124e-02  1.00320719e-01  1.28519686e-03]