[-0.09935894  0.09988236  0.04641164 -0.08768394 -0.06639534 -0.04345142
 -0.00832524 -0.12135714  0.15925458 -0.088346    0.29489052 -0.08570261
 -0.21494587 -0.10405996 -0.06065277  0.23897707 -0.22733669 -0.11452635
 -0.03023177  0.06124945  0.10026646 -0.04387634  0.01682573  0.06131415
 -0.10457888 -0.36324987 -0.13034268 -0.06273799  0.02702842 -0.04004185
 -0.0380842   0.00297589 -0.20322244 -0.09204656  0.02872639  0.01989379
 -0.00599918 -0.13312297  0.16528687  0.01504108 -0.25493321  0.03970962
  0.05271032  0.23054715  0.17054866  0.03149435  0.06664617 -0.20075408
  0.12651011 -0.1607171  -0.02183896  0.11043396  0.03403154  0.03975564
 -0.01451796 -0.1051024   0.03076331  0.13465033 -0.17329194 -0.00094215
  0.08629574 -0.01307832  0.01180592 -0.13105588  0.17703925  0.0423743
 -0.14185721 -0.16064745  0.12597595 -0.12506396 -0.01997846  0.06352723
 -0.14741777 -0.22259191 -0.30178529 -0.02420638  0.39835873  0.11137382
 -0.15383841  0.03793423 -0.08443674 -0.01055103  0.11694997  0.18333703
  0.03812756  0.0502356  -0.06644955  0.00041242  0.24785021 -0.07543518
  0.0206465   0.26831326 -0.02952165  0.05057451 -0.0075432   0.04730074
 -0.08383096  0.06669743 -0.08947854  0.01277311 -0.01501209 -0.02826383
  0.01259966  0.08680494 -0.16691637  0.10143476  0.01451068  0.0557739
  0.01552891 -0.02976877 -0.05831833 -0.0620405   0.10754646 -0.22219215
  0.17130767  0.20313482  0.04805385  0.08388331  0.10577839  0.07621744
 -0.03005281 -0.03951785 -0.19466726  0.01350843  0.08259273 -0.05461639
  0.10463496 -0.05035359]