[-0.09747731  0.06316138  0.08234878 -0.03156971 -0.07619559 -0.0281833
 -0.06457486 -0.16062818  0.16350995 -0.11779231  0.22116552 -0.12773873
 -0.24757293 -0.02164742 -0.09073145  0.22052968 -0.19486886 -0.13917623
  0.04702648  0.01979738  0.09947138  0.02113735 -0.01306933  0.02671224
 -0.08409262 -0.34751901 -0.11547072 -0.06647613 -0.00065722 -0.0288405
 -0.08128484  0.07903602 -0.17601997 -0.02193443  0.04304096  0.12272225
 -0.01998575 -0.10321534  0.16894047 -0.03566496 -0.2458808   0.01277277
  0.0778537   0.20510326  0.13395534  0.03394194  0.00463842 -0.17559403
  0.05079098 -0.15753332 -0.03345761  0.14549236  0.0220398   0.04717062
  0.01345805 -0.17130901  0.00664354  0.06201745 -0.11814054 -0.00402828
  0.10035151 -0.11474179  0.02815731 -0.09004384  0.2312814   0.02382126
 -0.1129889  -0.14274584  0.10174727 -0.12889484 -0.05216266  0.06093328
 -0.13736114 -0.21108845 -0.29404831  0.00493786  0.38149166  0.06467437
 -0.12840159  0.13872044  0.00811822 -0.01724326  0.16373768  0.19691326
  0.03913088  0.06773601 -0.09485503  0.02753347  0.22769919 -0.116149
  0.02616934  0.19336921 -0.08307368  0.09221315 -0.00113657  0.04721278
 -0.04565699  0.06625488 -0.11460854  0.00967204  0.05870688 -0.0038628
  0.01462861  0.10071854 -0.13218491  0.00073873 -0.00329074 -0.00901879
  0.01570878 -0.05117523 -0.09154953 -0.04709036  0.13560055 -0.27557239
  0.1922686   0.15881185  0.00392399  0.12599294  0.11542453  0.08861319
  0.00100809 -0.04656509 -0.21118434  0.00280452  0.11370259  0.00985433
  0.07801058 -0.01263094]