[-1.21704400e-01  1.29274890e-01  9.05608460e-02 -9.66009721e-02
 -9.39441174e-02 -4.11683843e-02  3.79698165e-03 -1.58705175e-01
  1.49895892e-01 -9.28606391e-02  2.72116750e-01 -7.35895485e-02
 -2.34005004e-01 -1.27267301e-01 -4.14936505e-02  2.21555665e-01
 -2.01938704e-01 -1.34022638e-01 -3.78900282e-02  1.88071113e-02
  1.09802686e-01 -3.55587564e-02 -3.66590242e-03  6.05806522e-02
 -9.07755345e-02 -3.55909556e-01 -1.22738197e-01 -5.02317511e-02
 -1.17082214e-02 -4.59211841e-02 -4.26525995e-02  6.78279176e-02
 -1.93245277e-01 -7.83709809e-02  1.87312495e-02  8.17673206e-02
 -2.22988985e-02 -8.83139074e-02  1.35331675e-01 -2.41683405e-02
 -2.45462924e-01  2.56053116e-02  9.77578312e-02  2.20829517e-01
  1.90287992e-01 -1.60144793e-03  5.10798208e-02 -1.36506647e-01
  1.26648888e-01 -1.33778855e-01 -4.18338291e-02  1.62271455e-01
  8.99985358e-02  7.16392994e-02 -5.54310018e-03 -1.38091251e-01
  3.07295211e-02  5.89347892e-02 -1.44339070e-01 -3.34752537e-02
  1.08289078e-01 -9.48514417e-02 -3.26167494e-02 -1.16252854e-01
  1.54996321e-01  4.56289463e-02 -1.16572894e-01 -2.22812459e-01
  1.20625906e-01 -1.60633951e-01 -4.67757210e-02  6.62820935e-02
 -2.11772397e-01 -1.73956797e-01 -2.95814514e-01 -2.04177257e-02
  3.20294738e-01  1.02479413e-01 -1.64703473e-01  3.94609682e-02
 -8.75168666e-02  7.92401191e-03  5.67639843e-02  1.76409721e-01
  4.42670248e-02  9.38010439e-02 -9.95623395e-02  1.09266518e-02
  2.04423621e-01 -1.04063861e-01  3.53516527e-02  2.75462538e-01
  1.14457719e-02  5.84333651e-02 -5.83388004e-03  1.78382543e-04
 -7.36055002e-02  5.31929806e-02 -1.26788110e-01  1.63168553e-02
 -4.13210578e-02 -3.75243537e-02  8.50688666e-04  7.92671964e-02
 -1.57967597e-01  1.18332267e-01 -1.28580825e-04  8.97968188e-02
 -4.86146770e-02 -5.52264713e-02 -8.20368528e-02 -7.83862174e-02
  1.22791700e-01 -1.83864489e-01  1.55794889e-01  2.16197118e-01
  4.26994450e-02  5.81656881e-02  1.14107370e-01  8.76157805e-02
 -2.41859164e-02 -3.44567448e-02 -1.69960633e-01  1.90188102e-02
  8.37839544e-02 -8.03579167e-02  3.90433334e-02 -3.62441652e-02]