[-0.09760579  0.06649771  0.06932873 -0.03948945 -0.08214339 -0.03139656
 -0.06734434 -0.16452919  0.17205879 -0.11372042  0.22215913 -0.11947297
 -0.24543405 -0.03726433 -0.08687022  0.22382577 -0.19814618 -0.14057973
  0.05325742  0.01479717  0.09469391  0.01579055 -0.00825271  0.03629434
 -0.09126868 -0.33815244 -0.11028387 -0.07176745 -0.00844107 -0.04346077
 -0.06796104  0.0986376  -0.18734477 -0.03446831  0.04675735  0.12450285
 -0.01059113 -0.09587362  0.18311714 -0.03421487 -0.2427166   0.0123797
  0.07093774  0.21342516  0.12671392  0.02346318  0.00442798 -0.17001671
  0.05923445 -0.1423157  -0.03946104  0.14968696  0.02228967  0.03622179
 -0.00527813 -0.17215654  0.01372174  0.06410723 -0.12002263 -0.01071568
  0.10602649 -0.13238263  0.01546058 -0.08560607  0.2274562   0.01250031
 -0.10633802 -0.15301327  0.09878962 -0.11264354 -0.05259538  0.06357126
 -0.14998987 -0.20568199 -0.29849038  0.00402259  0.37113041  0.05306709
 -0.13317576  0.14402865 -0.00039432 -0.01419641  0.15220284  0.19618894
  0.04763209  0.06443283 -0.08931968  0.03290707  0.22380911 -0.11432131
  0.02274688  0.18802682 -0.08087552  0.09178324 -0.00647826  0.03537564
 -0.04252039  0.07220753 -0.11081473  0.01501137  0.0607154  -0.0024405
  0.01586421  0.10499027 -0.14501838  0.00177471  0.00183509 -0.00761397
  0.01358443 -0.04763903 -0.0962383  -0.0531393   0.13824175 -0.27661109
  0.20474127  0.16535512  0.00675845  0.12464564  0.11840689  0.08793706
  0.00153543 -0.03991753 -0.21266821  0.00145031  0.12423606  0.00948588
  0.08349773 -0.01717233]