[-0.09861767  0.0758725   0.0682437  -0.04384115 -0.08450127 -0.02882815
 -0.06268363 -0.16762781  0.16838573 -0.11424773  0.22769287 -0.12557064
 -0.25942171 -0.03457996 -0.0883423   0.22735241 -0.19856794 -0.14201431
  0.05011956  0.01726873  0.08851647  0.00459187 -0.01080219  0.03436666
 -0.07944723 -0.3347052  -0.11230811 -0.06184798 -0.01249799 -0.04343588
 -0.07336853  0.09397738 -0.18152566 -0.02766467  0.04851965  0.12390544
 -0.01233193 -0.10738044  0.1813906  -0.04432966 -0.23483419  0.01020932
  0.0729837   0.20716642  0.12167659  0.01571546  0.00536672 -0.16984011
  0.05521908 -0.14381389 -0.04115033  0.15695183  0.02355246  0.03889311
 -0.00510576 -0.1752449   0.01749782  0.0654823  -0.11350518 -0.02238437
  0.10698701 -0.12769778  0.00766443 -0.09665009  0.22755313  0.02275479
 -0.10911973 -0.16371076  0.09662022 -0.11538831 -0.05456363  0.0561267
 -0.15471725 -0.20493685 -0.28860128  0.00378147  0.35640985  0.05974054
 -0.13701725  0.14474541  0.00091079 -0.01605942  0.14301564  0.19643965
  0.04618179  0.06768166 -0.09434229  0.02830388  0.22315399 -0.11899191
  0.02450291  0.18669543 -0.07845972  0.08647678 -0.00653924  0.02663696
 -0.03638155  0.06864902 -0.10915641  0.01983025  0.05668661 -0.01192264
  0.00257006  0.10223003 -0.14914033  0.00292605 -0.00229875 -0.00591875
  0.00665156 -0.05893713 -0.08842653 -0.04495138  0.13978879 -0.27991849
  0.20567897  0.16740511  0.01044614  0.12096445  0.11360389  0.08939168
  0.00634278 -0.03814651 -0.2109971  -0.0053036   0.11830034  0.00287315
  0.07480972 -0.01747832]