[-0.13580273  0.10415117  0.05904352 -0.11206716 -0.06574471 -0.06096401
  0.02572498 -0.16000414  0.15143168 -0.06456339  0.26517981 -0.09970944
 -0.23570991 -0.09690216 -0.03820496  0.24604701 -0.19231819 -0.12935816
 -0.04035749  0.07286119  0.13381861 -0.01070198  0.01703305  0.07876786
 -0.07546519 -0.34947029 -0.15101318 -0.03250178  0.01740352 -0.05029618
 -0.02186018  0.05551987 -0.1721314  -0.06450818  0.07190167  0.07751779
 -0.01255604 -0.14040358  0.14814602  0.00171942 -0.30095357  0.04680439
  0.10665305  0.24752012  0.20392454  0.01630517  0.04437311 -0.17516296
  0.13855857 -0.16822195 -0.03304867  0.13005801  0.07919525  0.0501577
  0.0032117  -0.14151196  0.0592163   0.0873713  -0.18496354 -0.04276623
  0.11581711 -0.04759574  0.01169479 -0.09264722  0.1326171   0.04539992
 -0.15036641 -0.19776426  0.11140641 -0.15888587 -0.03003319  0.06482176
 -0.21089776 -0.21598731 -0.28696489 -0.03707538  0.34916425  0.1001754
 -0.16152377  0.07581168 -0.05859974  0.04504956  0.08175503  0.20767871
  0.03775228  0.07021109 -0.09922278 -0.01349132  0.22422938 -0.11725871
  0.04010772  0.30465862  0.00225647  0.04989842 -0.01315408  0.03837711
 -0.06587119  0.05924736 -0.11433176 -0.00192188 -0.03361183 -0.001637
  0.02449796  0.11030026 -0.19718938  0.13567747  0.01434998  0.08712517
 -0.01869317 -0.05473495 -0.04090676 -0.05897084  0.07211251 -0.20931292
  0.15412763  0.22384122  0.03241104  0.05219736  0.10915885  0.07191634
  0.01919561 -0.02269903 -0.17375982  0.02548498  0.09453909 -0.05060618
  0.0322493  -0.0449993 ]