[-0.09236307  0.15108877  0.04908425 -0.11287209 -0.07754971 -0.06392348
 -0.03317622 -0.14581609  0.17063089 -0.08890621  0.30748093 -0.09275861
 -0.20985758 -0.11031198 -0.07393111  0.24665534 -0.24295567 -0.11052703
 -0.04465493  0.04427267  0.11854116 -0.03246772  0.02742557  0.04963393
 -0.09283992 -0.37429258 -0.12891723 -0.0555521   0.04418042 -0.05616387
 -0.01651444  0.01476076 -0.19001681 -0.08271836  0.03598186  0.04677771
 -0.01093285 -0.13509919  0.16369    -0.01814278 -0.28392085  0.05523556
  0.06890517  0.22632085  0.18132198  0.022963    0.07991802 -0.21653667
  0.16193609 -0.11453266 -0.0176903   0.11671638  0.0441156   0.03759292
  0.01005527 -0.11401951  0.03311887  0.14307275 -0.15564758 -0.04231282
  0.11374193 -0.04447464  0.0153147  -0.12428504  0.1626808   0.02450707
 -0.1338138  -0.16155742  0.13656622 -0.11571071 -0.01830879  0.06723547
 -0.15212679 -0.20263086 -0.30218053 -0.03258887  0.3979291   0.08950936
 -0.14760365  0.06080863 -0.06000325 -0.00202127  0.11383035  0.19985193
  0.01557546  0.07404568 -0.08771328  0.00490317  0.25550613 -0.10040481
  0.03204327  0.26518199 -0.021659    0.064215   -0.00530633  0.03120276
 -0.10300686  0.06610488 -0.09692358  0.01486332 -0.01347336 -0.03449391
 -0.01638897  0.06571738 -0.1638158   0.10054727  0.03081327  0.0715121
 -0.01443484 -0.03959591 -0.03141951 -0.06600136  0.11202264 -0.20949617
  0.17981257  0.19650029  0.05435063  0.10397531  0.13070668  0.07859042
 -0.01635412 -0.0618485  -0.18117736  0.00858174  0.09190901 -0.04263777
  0.10815132 -0.048316  ]