[-1.35417238e-01  1.37742087e-01  5.44575863e-02 -5.61069213e-02
 -4.27984744e-02 -4.29575555e-02  1.12430211e-02 -1.58579037e-01
  1.73354909e-01 -8.87022763e-02  3.10832232e-01 -1.03313401e-01
 -2.37471059e-01 -1.37444511e-01 -6.26643300e-02  2.49757797e-01
 -2.46786624e-01 -1.33485064e-01 -3.94374840e-02  2.26195399e-02
  8.03527534e-02 -1.84798129e-02  4.98190187e-02  7.41363764e-02
 -9.25622135e-02 -3.71480197e-01 -8.91223252e-02 -9.43666101e-02
 -2.17930507e-02 -4.62007634e-02 -1.16497455e-02  6.38574734e-02
 -1.77601680e-01 -4.32407707e-02  1.10368924e-02  2.02163123e-02
 -1.04165664e-02 -9.04826894e-02  1.75602064e-01 -1.82614606e-02
 -2.60575980e-01  7.88678881e-03  6.25915155e-02  2.70672888e-01
  1.99684307e-01 -7.24126771e-03  2.74394993e-02 -1.69570729e-01
  1.06260814e-01 -1.24294080e-01 -3.49430740e-02  1.49213776e-01
  2.79343482e-02  2.01747064e-02 -1.13130431e-03 -1.34680331e-01
 -3.36816604e-03  7.28215799e-02 -1.04367949e-01 -6.54461309e-02
  8.14950466e-02 -4.14002202e-02 -2.86560189e-02 -1.13913976e-01
  1.90475792e-01  5.10949083e-02 -1.25586316e-01 -1.83160782e-01
  1.22204363e-01 -1.25854045e-01 -3.62850092e-02  7.22694844e-02
 -2.09466740e-01 -2.02847749e-01 -2.78989553e-01 -4.11829464e-02
  3.50714296e-01  3.96467932e-02 -1.71552435e-01  6.82558268e-02
 -6.28114268e-02  2.66045276e-02  1.26897305e-01  2.22505212e-01
  3.87060568e-02  6.01060502e-02 -8.82020891e-02 -1.90715585e-02
  1.93463549e-01 -1.00219324e-01 -2.30586249e-02  2.46571645e-01
 -3.37676220e-02  5.39042994e-05  2.76608523e-02 -2.17759795e-02
 -4.03319336e-02  7.77860433e-02 -1.33675084e-01 -4.35529975e-03
 -1.50885554e-02 -9.62702930e-03 -3.30123566e-02  5.17437346e-02
 -1.51943222e-01  7.99325854e-02  5.29608130e-02  9.40417275e-02
  1.99343842e-02 -3.82325612e-02 -6.01986647e-02 -7.44853020e-02
  1.16518699e-01 -2.11794645e-01  1.85753748e-01  1.66440547e-01
  3.85432690e-02  1.03380762e-01  9.73944589e-02  1.08225100e-01
 -3.92406881e-02  9.32541955e-03 -1.77840143e-01  3.58209088e-02
  1.07800566e-01 -3.53460573e-02  7.73740187e-02 -6.03020862e-02]