[-0.09739973  0.11891254  0.02717955 -0.09286359 -0.05422419 -0.02997305
 -0.00966683 -0.10852263  0.17472184 -0.07068903  0.29274151 -0.07126269
 -0.2388186  -0.08061747 -0.07421173  0.23670828 -0.22257061 -0.12468953
 -0.03233607  0.08939428  0.11417045 -0.02534033  0.05107224  0.05576708
 -0.11185427 -0.35188955 -0.11489208 -0.04669153  0.00825755 -0.0425618
 -0.00479607 -0.00153771 -0.23151162 -0.06117868  0.03139679  0.03105973
  0.00835011 -0.15014476  0.17125385  0.01787354 -0.29774389  0.02285444
  0.05734046  0.23133698  0.17019224  0.01001966  0.0510757  -0.21508637
  0.13698834 -0.17273499 -0.01083223  0.12166347 -0.0099986   0.03869439
 -0.03493328 -0.11820477  0.0354295   0.17468706 -0.15166692 -0.03703408
  0.08113086  0.0229336   0.03666548 -0.13869153  0.17212483  0.04411251
 -0.14781429 -0.17530446  0.10869602 -0.12348564 -0.00634501  0.09817077
 -0.16005538 -0.23381102 -0.28864691 -0.03307755  0.37590405  0.083721
 -0.1334486   0.0488259  -0.08524366  0.00299902  0.10404783  0.19810624
  0.05770794  0.07333373 -0.08727657 -0.01231953  0.29380926 -0.08310399
  0.02089141  0.28926975 -0.03479109  0.03095737 -0.00673354  0.06012813
 -0.08738565  0.06488934 -0.11823314  0.00352318 -0.0489072  -0.01041161
 -0.02315986  0.09648991 -0.17198591  0.08809965  0.02714023  0.06097266
  0.01765985 -0.05044474 -0.02739212 -0.08164443  0.09518571 -0.20698412
  0.18195684  0.17556177  0.06186067  0.08591019  0.10992485  0.09198384
 -0.03041273 -0.0331954  -0.19803341  0.02859701  0.08709351 -0.04315006
  0.09179685 -0.06763315]