[-1.26724869e-01  5.04812971e-02  8.03273991e-02 -6.54149279e-02
 -6.65870234e-02 -5.84998019e-02 -6.60909936e-02 -1.71327516e-01
  1.57592162e-01 -1.38083026e-01  2.45808840e-01 -1.08139992e-01
 -1.97869048e-01 -5.22770286e-02 -9.77751687e-02  2.30379418e-01
 -2.16983318e-01 -1.25686973e-01  4.35647741e-02  1.69525556e-02
  1.03684366e-01 -2.36306936e-02 -1.48468977e-02  2.02548560e-02
 -6.98496625e-02 -3.06107610e-01 -1.37447268e-01 -7.44396225e-02
  6.04947424e-03 -3.87540422e-02 -7.22451061e-02  4.45926562e-02
 -1.78506374e-01 -3.55494432e-02  2.95343995e-02  1.32256493e-01
 -5.99934487e-03 -1.17773950e-01  1.75171837e-01 -5.43179698e-02
 -2.33862311e-01  2.84175314e-02  7.23738223e-02  2.01455116e-01
  1.49656788e-01  3.09609864e-02 -2.47509638e-03 -1.75137147e-01
  8.56674835e-02 -1.45126373e-01 -3.82102281e-02  1.10111140e-01
  2.88076755e-02  4.77819480e-02 -8.33070278e-03 -1.55482396e-01
  3.60807553e-02  7.83888251e-02 -1.31835341e-01 -2.29511689e-02
  9.78122056e-02 -1.34698376e-01  7.19362963e-03 -8.08211267e-02
  2.39832029e-01  5.31895235e-02 -1.35155246e-01 -1.60362691e-01
  1.08299568e-01 -1.17045574e-01 -4.95783463e-02  5.69581389e-02
 -1.43235192e-01 -2.00911522e-01 -2.99643278e-01  6.90144254e-03
  3.82095844e-01  6.67566210e-02 -1.43584833e-01  1.20371893e-01
 -1.97012536e-02 -7.98455719e-03  1.72661901e-01  2.11756989e-01
  6.26442432e-02  6.33757636e-02 -9.80488211e-02 -7.07941130e-04
  2.24720225e-01 -1.23054802e-01  1.29376156e-02  1.79279968e-01
 -7.20897168e-02  9.30044875e-02 -2.33471151e-02  4.89451364e-02
 -4.25497778e-02  7.22788945e-02 -1.08727790e-01  1.46872196e-02
  5.79668768e-02  8.52068420e-03 -2.84138625e-03  9.97951180e-02
 -1.30427912e-01  1.48623753e-02  1.75194163e-03 -2.65961600e-04
 -4.57426533e-03 -7.49124661e-02 -7.48527870e-02 -3.66691910e-02
  1.15652278e-01 -2.77646273e-01  2.05859050e-01  1.87892407e-01
  1.15100751e-02  1.30916625e-01  1.30590305e-01  8.04715306e-02
  6.76649390e-03 -4.15744856e-02 -2.15143114e-01  2.73363362e-03
  9.95252803e-02  1.82024501e-02  9.93213281e-02 -1.50086852e-02]