[-0.12982447  0.04885968  0.08207851 -0.0631407  -0.05935661 -0.05347511
 -0.06423553 -0.18121244  0.15362963 -0.14443015  0.25106809 -0.10176176
 -0.20731151 -0.06046016 -0.09014817  0.22513464 -0.21100894 -0.12725089
  0.03510124  0.01332712  0.08758574 -0.02371421 -0.00635811  0.01846229
 -0.07327454 -0.32006723 -0.13693674 -0.080824   -0.00968048 -0.03275942
 -0.07463656  0.04318165 -0.17101865 -0.02960803  0.02233929  0.12985206
 -0.00493391 -0.11364865  0.18577053 -0.05074875 -0.22370873  0.01866718
  0.07131038  0.20174864  0.1509103   0.02385273  0.00373319 -0.16752273
  0.08297562 -0.13901453 -0.03097443  0.1029526   0.03410286  0.04005984
  0.00228026 -0.1519282   0.02583575  0.08163404 -0.12037628 -0.02280743
  0.09185285 -0.13330023 -0.01104722 -0.0824029   0.24200426  0.0621376
 -0.13672861 -0.15181187  0.11126746 -0.11140361 -0.06102615  0.04043102
 -0.15125577 -0.19682859 -0.30691907  0.0096673   0.38232115  0.06437036
 -0.1565233   0.10988174 -0.01320153 -0.00762104  0.18214594  0.20805006
  0.05578996  0.0543472  -0.09443874 -0.00100024  0.21855755 -0.10974306
  0.00057504  0.16691682 -0.07671054  0.09653519 -0.01676488  0.04275169
 -0.0360826   0.07237748 -0.11614262  0.02286695  0.06445269  0.0076575
 -0.00575541  0.09799593 -0.12957852  0.0103091   0.00850635 -0.00308711
  0.00911986 -0.06715169 -0.08753587 -0.0369988   0.11891502 -0.27647316
  0.20066276  0.18767694  0.00457047  0.13279794  0.13346003  0.08021094
  0.00533287 -0.02731395 -0.22654636 -0.00297674  0.10455146  0.02286659
  0.1035985  -0.01245955]