[-0.09506809  0.06766951  0.06899396 -0.04260007 -0.07907393 -0.03130736
 -0.07183077 -0.163001    0.1768022  -0.12595251  0.2245243  -0.12405526
 -0.24547243 -0.03400873 -0.09106016  0.2240082  -0.19493793 -0.14217865
  0.0528097   0.02027503  0.10080618  0.01620231 -0.0131209   0.03536994
 -0.09072372 -0.34274882 -0.11789224 -0.06572729 -0.01511693 -0.03916107
 -0.06880211  0.09650339 -0.17963995 -0.02983293  0.04319444  0.12195978
 -0.00552212 -0.10098621  0.17088872 -0.03522871 -0.24767302  0.009369
  0.07018992  0.21455963  0.12863696  0.02092189  0.00272982 -0.16433756
  0.05821012 -0.15532894 -0.04159059  0.14757697  0.01783835  0.03684137
  0.00436734 -0.16278689  0.01035743  0.06890976 -0.11872382 -0.01743543
  0.1060968  -0.12374047  0.01665366 -0.09486418  0.22567211  0.02682928
 -0.1123541  -0.15287919  0.09890553 -0.11901565 -0.05485709  0.05716409
 -0.15190217 -0.20882741 -0.29843003  0.00680216  0.37180409  0.06690921
 -0.12536566  0.14478007  0.00720717 -0.00751889  0.14915225  0.19455986
  0.04806531  0.0702279  -0.08809754  0.03672547  0.22164352 -0.11316921
  0.02153601  0.1921415  -0.08794981  0.0916019  -0.00819444  0.03776068
 -0.04158045  0.07029983 -0.11508314  0.02243723  0.06081444  0.00639073
  0.01473808  0.10912582 -0.13421892  0.00327795 -0.00589348 -0.00578527
  0.01210773 -0.04579853 -0.0923292  -0.04824978  0.13208596 -0.26832044
  0.192816    0.15721495  0.00994374  0.12345134  0.11768629  0.0843046
  0.0037792  -0.04363406 -0.21533585 -0.00251088  0.12112563  0.00830997
  0.07912736 -0.02114088]