[-0.13820517  0.1328246   0.09203251 -0.03579466 -0.07430354 -0.0861409
  0.0408304  -0.1532657   0.12911855 -0.05572809  0.30157638 -0.1003413
 -0.24050359 -0.11432786 -0.07740007  0.2645312  -0.22470735 -0.13199715
 -0.03668545  0.04508238  0.11357587 -0.02130217  0.02766695  0.05695566
 -0.08201753 -0.34419009 -0.11688798 -0.10208084 -0.00268679 -0.03448462
 -0.01673518  0.02156233 -0.17918848 -0.0593049   0.03711209  0.0293146
  0.01023423 -0.10409514  0.15826915 -0.03642273 -0.28070936 -0.00193382
  0.11749914  0.23299503  0.18734854  0.04156017  0.04377925 -0.17278311
  0.0983151  -0.13972275 -0.02362227  0.10027111  0.04356188  0.04698904
  0.00127472 -0.15282464 -0.00274546  0.08965136 -0.13787705 -0.03930259
  0.09061275 -0.04839742 -0.00358103 -0.12122782  0.19536467  0.01619606
 -0.14259644 -0.13718461  0.15974784 -0.16882262 -0.04629611  0.04938364
 -0.17131545 -0.19509584 -0.31729218 -0.0402397   0.37363049  0.07512952
 -0.15544799  0.04420947 -0.06453731  0.03123691  0.10409264  0.20434928
  0.06145484  0.06992027 -0.10565104 -0.03980763  0.23721997 -0.12745057
  0.03799471  0.25864515 -0.03477314  0.02280462 -0.01826289  0.00145018
 -0.04252211  0.05884014 -0.12325349  0.01724143 -0.05876849 -0.01653725
 -0.02205601  0.06293097 -0.16327244  0.03156672  0.04517474  0.05727446
 -0.04011561 -0.0445553  -0.07069281 -0.07532095  0.11192634 -0.19720367
  0.2068316   0.21118736  0.01972937  0.08658586  0.10052358  0.09203779
 -0.01522932 -0.05600653 -0.17807846  0.01223296  0.11355086 -0.06917444
  0.06778511 -0.03417649]