[-0.1122296   0.05306078  0.09730872 -0.05592571 -0.07015832 -0.05740603
 -0.06953914 -0.17255327  0.15143688 -0.14635764  0.24309745 -0.10904179
 -0.20600782 -0.03253475 -0.07982185  0.22350387 -0.2092026  -0.11852136
  0.03381526  0.02518543  0.09916268 -0.02011686 -0.00469175  0.01492091
 -0.06256341 -0.31345174 -0.13758089 -0.06673786  0.00480014 -0.0405402
 -0.08298896  0.03091947 -0.1675843  -0.02990969  0.02114314  0.11175954
 -0.0207792  -0.12134724  0.17108797 -0.0552931  -0.24626927  0.02625679
  0.06125002  0.19228795  0.15194643  0.03207913  0.00053047 -0.177551
  0.07158203 -0.1528843  -0.0181831   0.10749295  0.01851859  0.04610159
  0.001642   -0.15813272  0.02120177  0.07943898 -0.11365902 -0.00996068
  0.11154099 -0.12081503  0.00732856 -0.08356797  0.22882247  0.05913424
 -0.13565831 -0.16572081  0.09263006 -0.117546   -0.05987883  0.05241578
 -0.14372627 -0.20241676 -0.29633018  0.00269792  0.3840774   0.05565291
 -0.14795671  0.10249063 -0.02167663 -0.01317739  0.17681885  0.21071091
  0.06720453  0.04894372 -0.09464722  0.00123316  0.22045772 -0.12951891
  0.01097256  0.186213   -0.07513277  0.08726984 -0.02866512  0.0591988
 -0.04298745  0.08314649 -0.1096859   0.01622784  0.06539658  0.00511477
 -0.01150304  0.10529156 -0.13835655  0.02748601  0.00584243  0.00771016
  0.02233622 -0.06735101 -0.089073   -0.04429397  0.11964958 -0.2753379
  0.19812804  0.19494055  0.01995301  0.11878761  0.12433783  0.08170677
  0.01857544 -0.03149469 -0.23117256  0.00895935  0.09467532  0.02351802
  0.07366344 -0.00601874]