[-0.14464365  0.09711837  0.09583034 -0.03873656 -0.0975851  -0.08144306
  0.03212986 -0.1412119   0.13117905 -0.0626075   0.28496891 -0.09613363
 -0.22638321 -0.08171988 -0.10040127  0.25709829 -0.1937733  -0.14019135
 -0.02339398  0.04173281  0.10958077  0.00252493  0.01544965  0.05301697
 -0.11369226 -0.32532331 -0.12609814 -0.08069464 -0.00541029 -0.04553014
 -0.00983696  0.04948763 -0.1673625  -0.03126281  0.03225546  0.06005692
  0.01869672 -0.1084545   0.13746373  0.00549269 -0.29892644 -0.01205559
  0.10221725  0.27422842  0.19627848  0.03430849  0.01965272 -0.14960448
  0.07939886 -0.14335059 -0.01797584  0.09576967  0.01611801  0.04647473
  0.01208991 -0.14031221  0.00947652  0.08693333 -0.14491825 -0.04601034
  0.07361459 -0.0354409   0.01883461 -0.14081647  0.20390832  0.02509369
 -0.14874789 -0.11305409  0.15725808 -0.17208108 -0.0510904   0.0587315
 -0.18195879 -0.18745802 -0.3127602  -0.0400377   0.4036904   0.08498663
 -0.15630677  0.04771689 -0.02026298  0.01546653  0.1118985   0.22439221
  0.0620127   0.09724884 -0.09912728 -0.03046974  0.23353982 -0.10642027
  0.02376792  0.26112065 -0.04477454  0.00425087  0.0027544   0.02185026
 -0.04836931  0.04967562 -0.11590254 -0.01780611 -0.03596567 -0.02377187
 -0.01541348  0.08450682 -0.14382255  0.0675816   0.04972952  0.06361725
 -0.03882168 -0.03823349 -0.05414232 -0.06092264  0.11988367 -0.1894971
  0.18613406  0.18744569  0.01077947  0.08107523  0.08956891  0.09526529
 -0.03888966 -0.03892076 -0.15576406  0.01461889  0.08961278 -0.08970764
  0.0960817  -0.02254328]