[-0.10421858  0.1084437   0.06206797 -0.09502149 -0.08240071 -0.08547842
 -0.01101574 -0.12491097  0.16823024 -0.04952791  0.30288181 -0.08815598
 -0.21362589 -0.11350333 -0.04375622  0.23483585 -0.24237786 -0.09454014
 -0.03882574  0.04775248  0.13448516 -0.00701531  0.03955089  0.06945702
 -0.10816399 -0.40007311 -0.12106844 -0.07070974  0.02432291 -0.02749844
 -0.02406559  0.02574809 -0.19853413 -0.09586989  0.05674794  0.03706723
 -0.01219166 -0.13135505  0.16830535 -0.01025427 -0.28748298  0.04600973
  0.0766484   0.20464444  0.17072007  0.028789    0.08861068 -0.20775597
  0.13896319 -0.15003294 -0.02118352  0.12448776  0.04385457  0.01519495
 -0.00641344 -0.11496817  0.00928156  0.13474555 -0.19523336 -0.02421343
  0.10851752 -0.05686293 -0.02351004 -0.11116888  0.15747061  0.06003312
 -0.14090255 -0.17938448  0.1196083  -0.12789278 -0.01191881  0.09672918
 -0.16433226 -0.21974364 -0.30241108 -0.02422186  0.41161165  0.0506884
 -0.14961819  0.03417183 -0.09031237  0.02925333  0.11771684  0.17951834
  0.03394092  0.04488855 -0.09611141  0.0276736   0.23506521 -0.11565211
  0.03145076  0.27032328 -0.00504147  0.07438433 -0.01683017  0.0560271
 -0.08312599  0.07226107 -0.0848133   0.0308942   0.0169257   0.00419262
  0.0161145   0.06721984 -0.15891987  0.06712762  0.02128562  0.03921381
  0.02059946 -0.05872646 -0.04527886 -0.09717321  0.09110742 -0.22262183
  0.17995174  0.19383155  0.02555764  0.10345902  0.08152598  0.0705562
 -0.02068023 -0.06651213 -0.18545462  0.03540932  0.10284328 -0.02840392
  0.07934932 -0.07846189]