[-1.09336056e-01  8.97661150e-02  4.36666161e-02 -8.79013687e-02
 -6.08473681e-02 -6.45084679e-02 -3.25755998e-02 -1.10887170e-01
  1.88432395e-01 -6.93460703e-02  2.74853498e-01 -9.93624851e-02
 -2.38243386e-01 -8.04883391e-02 -6.37998655e-02  2.55438000e-01
 -2.13906154e-01 -1.11668192e-01 -1.70065146e-02  4.99884039e-02
  1.18223168e-01 -1.26590347e-02  5.67797534e-02  8.29948038e-02
 -1.23987816e-01 -3.84445876e-01 -1.23343699e-01 -7.35670477e-02
  1.68792047e-02 -3.61951515e-02 -2.10426413e-02  3.95325422e-02
 -2.12160930e-01 -9.23445299e-02  4.48605008e-02  7.19217062e-02
  1.34535674e-02 -1.46392748e-01  1.52221158e-01  8.50837503e-04
 -3.13002765e-01  2.01394595e-02  7.22967908e-02  2.28874877e-01
  1.46027356e-01  4.14598249e-02  6.76916167e-02 -2.01427922e-01
  1.22822240e-01 -1.58072338e-01  4.43388894e-03  1.07696317e-01
  1.62828714e-04  3.51237431e-02  1.04571751e-03 -1.26051888e-01
  3.97833288e-02  1.56064779e-01 -1.76960662e-01 -4.15273681e-02
  8.81223902e-02  1.19424826e-02  4.94251028e-02 -1.36307940e-01
  1.77694201e-01  4.68727499e-02 -1.42299443e-01 -1.44349799e-01
  1.04049407e-01 -1.30360648e-01 -5.17467270e-03  1.03758983e-01
 -1.63799956e-01 -2.27708772e-01 -3.23184222e-01 -3.08674909e-02
  3.90038162e-01  7.33125806e-02 -1.17500417e-01  5.80508485e-02
 -4.60329130e-02 -5.68267796e-03  1.09474853e-01  2.09863856e-01
  5.97972684e-02  7.56311342e-02 -6.20714240e-02  8.59667547e-04
  2.64857531e-01 -8.65567625e-02  2.35574860e-02  2.60554940e-01
 -3.83196138e-02  4.42823321e-02 -1.81303266e-02  8.13033953e-02
 -9.87379774e-02  6.45961687e-02 -1.01027504e-01  1.61368456e-02
 -2.10994910e-02  1.32740140e-02 -1.81240141e-02  7.22273216e-02
 -1.79319814e-01  7.60223642e-02  3.00899576e-02  2.77283918e-02
  5.25271380e-03 -2.81157531e-02 -4.09546718e-02 -8.14373717e-02
  1.02744937e-01 -2.23423675e-01  1.80685803e-01  2.00958893e-01
  4.76728119e-02  1.05388306e-01  8.76232386e-02  7.65705779e-02
 -2.15290394e-02 -5.13521433e-02 -1.89259708e-01  1.57585442e-02
  1.13514341e-01 -5.39648831e-02  9.01414379e-02 -5.85791431e-02]