[-1.26974925e-01  1.26100391e-01  6.60534278e-02 -1.17702484e-01
 -7.29116648e-02 -6.56668842e-02  2.20549461e-02 -1.63171768e-01
  1.48872659e-01 -8.06805864e-02  2.93491930e-01 -9.82424244e-02
 -2.07213923e-01 -9.82856005e-02 -5.26966825e-02  2.45667323e-01
 -2.21393585e-01 -1.34969100e-01 -6.43201545e-02  5.27941063e-02
  1.18620612e-01 -2.68508345e-02  1.83757413e-02  5.69094718e-02
 -8.17639977e-02 -3.67299795e-01 -1.36947662e-01 -3.68105285e-02
  3.00296098e-02 -4.22368608e-02 -1.29830008e-02  4.91179749e-02
 -1.88811898e-01 -7.26870820e-02  6.92633167e-02  6.66852295e-02
 -2.01598369e-02 -1.45942599e-01  1.39780998e-01 -2.91103125e-02
 -2.64455169e-01  6.33234903e-02  1.18656330e-01  2.39645317e-01
  1.97799534e-01 -9.17316694e-03  5.66065423e-02 -1.69636831e-01
  1.51339456e-01 -1.67463839e-01 -3.98133509e-02  1.14234999e-01
  9.17392746e-02  6.01897426e-02  1.93849187e-02 -1.11521147e-01
  4.38044481e-02  1.12331189e-01 -1.71756074e-01 -2.03148033e-02
  1.20218389e-01 -3.94854210e-02 -1.80790424e-02 -1.17045902e-01
  1.48159593e-01  6.75506964e-02 -1.61226019e-01 -2.14333043e-01
  1.01447403e-01 -1.32300869e-01 -3.25887576e-02  4.09593470e-02
 -2.00794742e-01 -2.01338008e-01 -2.76404679e-01 -1.77481584e-02
  3.36474419e-01  9.73868892e-02 -1.61490679e-01  6.49983212e-02
 -6.54129535e-02  4.90442291e-02  5.67857288e-02  1.80755854e-01
  1.69362724e-02  6.62816018e-02 -1.00115336e-01  7.62195233e-03
  2.21968934e-01 -1.15200140e-01  2.29597688e-02  2.99509674e-01
 -2.74539888e-02  4.63517793e-02 -2.73401476e-02  2.56994814e-02
 -9.88557190e-02  6.52719066e-02 -1.23915516e-01  4.83659422e-03
 -1.12910438e-02 -4.39330943e-05  1.16949417e-02  1.04095556e-01
 -1.57990307e-01  1.11840524e-01 -1.77883431e-02  1.08119227e-01
 -3.89198377e-03 -4.70729358e-02 -5.84060140e-02 -6.69048727e-02
  6.58581853e-02 -1.96489215e-01  1.74341708e-01  2.07782865e-01
  4.04801480e-02  4.83656339e-02  1.36046872e-01  4.69674878e-02
  3.36308070e-02 -1.28477812e-04 -1.68960676e-01  1.89471692e-02
  9.79415551e-02 -4.80521731e-02  3.03284060e-02 -5.41996919e-02]