[-1.08620659e-01  1.41882569e-01  2.88180839e-02 -8.36703181e-02
 -6.92802444e-02 -3.37083600e-02  2.58382093e-02 -1.26696676e-01
  1.81809470e-01 -7.07821772e-02  2.81061500e-01 -1.14340030e-01
 -2.55651385e-01 -1.00658409e-01 -7.31399357e-02  2.58205175e-01
 -2.40624502e-01 -1.33724600e-01 -4.31341901e-02  4.54615615e-02
  1.32601306e-01 -2.06984114e-02  1.67541243e-02  9.00403634e-02
 -9.99015346e-02 -3.38593394e-01 -1.11224629e-01 -6.25882223e-02
 -9.35784366e-04 -8.31311569e-02 -2.58508809e-02  3.99413817e-02
 -1.97019741e-01 -5.85129932e-02  2.40699835e-02  3.37983109e-02
 -1.27790272e-02 -1.26254439e-01  1.68291867e-01 -1.90433655e-02
 -2.85606980e-01  3.34614180e-02  1.04714178e-01  2.46087357e-01
  1.85826600e-01  3.48826423e-02  1.97915938e-02 -1.79404646e-01
  1.41199872e-01 -1.36241302e-01 -2.39548851e-02  1.43291131e-01
  3.73185240e-02  1.85575839e-02  1.43096866e-02 -1.52228653e-01
  1.39730430e-04  1.10508263e-01 -1.15784161e-01 -5.96581474e-02
  8.72154385e-02 -4.53517921e-02  8.18811008e-04 -1.46964177e-01
  1.71257526e-01  2.59694494e-02 -1.27474710e-01 -1.74581349e-01
  1.29160389e-01 -1.34518996e-01 -4.32602763e-02  5.87917045e-02
 -1.77601933e-01 -1.94366917e-01 -2.95801938e-01 -3.93380523e-02
  3.57614815e-01  5.57973981e-02 -1.54681250e-01  1.00185074e-01
 -2.83245388e-02  1.88363902e-02  1.15326524e-01  2.24301681e-01
  2.87734177e-02  7.44236633e-02 -1.11591555e-01 -1.30654071e-02
  2.29693756e-01 -1.11813426e-01  3.21428254e-02  2.42517069e-01
 -3.76554392e-02  2.45982725e-02  4.49904380e-03 -1.36134019e-02
 -9.23489258e-02  7.06481934e-02 -1.25766158e-01  7.46531505e-03
 -2.28378642e-02 -8.84800125e-03 -4.20488603e-02  7.49095827e-02
 -1.48969039e-01  6.16705902e-02  3.86647917e-02  6.51362389e-02
 -3.04499175e-02 -5.03357649e-02 -6.91153333e-02 -5.65396622e-02
  9.63635892e-02 -2.10514382e-01  1.81418359e-01  1.53760776e-01
  1.15447668e-02  7.86758885e-02  1.24539271e-01  1.10845111e-01
 -1.58351194e-02 -5.71353221e-03 -2.06276610e-01  1.63355749e-02
  1.40882581e-01 -5.76080196e-02  9.76607427e-02 -6.27227053e-02]