[-0.14289828  0.11424505  0.05393292 -0.11737461 -0.06317724 -0.05528111
  0.01341385 -0.15188487  0.15896514 -0.06877127  0.27371451 -0.0952293
 -0.23286784 -0.11366933 -0.03921406  0.22905378 -0.19783549 -0.12250272
 -0.02234031  0.05965948  0.11141886 -0.02637114  0.01963274  0.06142662
 -0.0640942  -0.36415669 -0.14170361 -0.04811833  0.02130988 -0.03550476
 -0.01533532  0.07215222 -0.17469975 -0.06611202  0.0425509   0.0557535
 -0.00231892 -0.1175611   0.1261251  -0.01481566 -0.28181788  0.01644457
  0.10160398  0.24243176  0.21534367  0.02369905  0.04099226 -0.15454201
  0.12471198 -0.16455372 -0.05637431  0.12630276  0.05485748  0.04261735
 -0.01017328 -0.14870934  0.04756097  0.06245812 -0.17418416 -0.04130038
  0.09377601 -0.05301049  0.00211114 -0.08520506  0.1734601   0.05201101
 -0.15565634 -0.1877297   0.12170389 -0.1496181  -0.01437736  0.05552612
 -0.21477973 -0.21139525 -0.27960667 -0.018236    0.34094381  0.08977152
 -0.13488042  0.084937   -0.07586332  0.03686882  0.07156706  0.20584355
  0.02982922  0.05791985 -0.09690751 -0.02226677  0.21776755 -0.1209382
  0.02906952  0.29051211 -0.02677087  0.0573949  -0.02026047  0.0482297
 -0.07399037  0.06822619 -0.11936738  0.00156496 -0.01774819 -0.01970716
  0.02016479  0.10913789 -0.17702977  0.11534504  0.01740698  0.09971952
 -0.01092502 -0.05621771 -0.03060692 -0.06857454  0.07466817 -0.19391777
  0.17612769  0.21486287  0.05014415  0.0779322   0.12413462  0.07016508
  0.02045038 -0.02109533 -0.15572277  0.0250306   0.08390091 -0.05020937
  0.02776185 -0.04022117]