[-8.34574327e-02  1.19939603e-01  6.36861622e-02 -8.54480937e-02
 -8.34176540e-02 -6.94443285e-02 -2.74341255e-02 -1.39117643e-01
  1.93033859e-01 -7.34812617e-02  3.01257670e-01 -1.02455772e-01
 -2.11000443e-01 -7.39647225e-02 -6.78168014e-02  2.53381282e-01
 -2.38523945e-01 -1.01571515e-01 -2.93376055e-02  6.54865727e-02
  8.01668391e-02 -1.84255745e-02  3.50323692e-02  6.14903569e-02
 -1.01043880e-01 -3.87190223e-01 -1.34609357e-01 -5.81258424e-02
  2.58942484e-03 -6.83147237e-02 -5.34686707e-02  3.04062255e-02
 -2.01956674e-01 -1.02568865e-01  4.53253426e-02  3.86757217e-02
 -1.43832853e-02 -1.67989299e-01  1.35448858e-01 -6.57006726e-03
 -2.92487115e-01  3.69269401e-02  6.87173456e-02  2.23989591e-01
  1.63860366e-01  1.67430472e-02  5.97969964e-02 -2.07556278e-01
  1.35690317e-01 -1.24702170e-01 -9.08282585e-03  9.58952233e-02
  9.95061081e-03  3.51128913e-02 -7.85159506e-03 -1.21910550e-01
 -2.78898340e-04  1.59264207e-01 -1.42510742e-01 -2.07619127e-02
  1.07942402e-01 -2.90686544e-02  1.73191130e-02 -1.48150250e-01
  1.75211117e-01  6.69060126e-02 -1.40739709e-01 -1.61157086e-01
  1.10277750e-01 -1.09070554e-01 -2.22858582e-02  5.55857420e-02
 -1.60323963e-01 -2.30122969e-01 -2.99661875e-01 -3.04836910e-02
  3.85898560e-01  5.97690307e-02 -1.59624815e-01  3.18664908e-02
 -6.10141456e-02  6.25221198e-03  1.02181904e-01  2.23624751e-01
  6.10678084e-02  7.52587467e-02 -7.38011152e-02 -1.01066232e-02
  2.73268789e-01 -9.33475718e-02  1.61281545e-02  2.66310632e-01
 -6.59678280e-02  4.05163430e-02 -1.06072770e-02  4.66379486e-02
 -9.53135639e-02  7.27357790e-02 -1.02836564e-01  1.09699769e-02
 -6.17580814e-03 -2.69056894e-02 -4.05721851e-02  8.71003866e-02
 -1.65387288e-01  8.11356455e-02  4.27617915e-02  6.38644844e-02
  2.96544265e-02 -3.87763046e-02 -3.52535509e-02 -8.77784044e-02
  1.19008146e-01 -2.25212574e-01  2.00543314e-01  1.85356617e-01
  5.34557886e-02  1.12433575e-01  7.88154528e-02  8.92419815e-02
 -1.72927026e-02 -4.17586453e-02 -1.82116374e-01  1.67456437e-02
  9.84298214e-02 -3.38764414e-02  8.82971510e-02 -5.33737242e-02]