[-1.13721132e-01  6.40955120e-02  7.60314465e-02 -3.42448875e-02
 -9.01403949e-02 -3.41157131e-02 -6.86006695e-02 -1.54159829e-01
  1.67699486e-01 -1.12369798e-01  2.12686211e-01 -1.24134779e-01
 -2.49542907e-01 -3.00126262e-02 -9.26571712e-02  2.18797803e-01
 -1.94553584e-01 -1.45353988e-01  5.75869754e-02  1.31603843e-02
  1.06120847e-01  1.47500588e-02 -9.11744032e-03  3.34187336e-02
 -9.34133008e-02 -3.42179716e-01 -1.04914598e-01 -6.88084960e-02
 -1.04580997e-02 -3.71456034e-02 -7.38408491e-02  9.01711509e-02
 -1.81117132e-01 -2.45724861e-02  3.88206616e-02  1.29644707e-01
 -7.69972662e-03 -1.00609414e-01  1.81415573e-01 -3.50853316e-02
 -2.47090206e-01  4.66225017e-03  7.88884982e-02  2.11666152e-01
  1.32253617e-01  2.63447054e-02  2.62570544e-03 -1.57682583e-01
  5.96741624e-02 -1.57727033e-01 -3.13454196e-02  1.53945282e-01
  2.30631642e-02  2.91231815e-02  1.39853926e-02 -1.74868494e-01
  5.09869866e-03  6.42503798e-02 -1.14236809e-01 -5.97611815e-03
  1.00860119e-01 -1.18567422e-01  1.89461168e-02 -9.53485146e-02
  2.35473514e-01  2.90637910e-02 -1.08095109e-01 -1.46665975e-01
  1.05007172e-01 -1.18100218e-01 -5.61549962e-02  6.17122836e-02
 -1.46778211e-01 -2.02022314e-01 -2.90546983e-01  5.36917988e-03
  3.76162022e-01  5.23972176e-02 -1.32830203e-01  1.40830621e-01
  6.84671849e-03 -1.78351402e-02  1.55503720e-01  1.94194824e-01
  4.18955311e-02  6.43286332e-02 -9.92933065e-02  2.34071668e-02
  2.28206024e-01 -1.09289311e-01  2.08888762e-02  1.83425769e-01
 -7.60486647e-02  8.38661417e-02 -3.36460391e-04  3.62226479e-02
 -4.82296012e-02  6.66995049e-02 -1.15329564e-01  1.12281907e-02
  6.17988408e-02 -1.32867610e-02  6.15716679e-03  1.01620577e-01
 -1.38086393e-01 -1.05452333e-02 -2.73463759e-03 -1.01900101e-02
  4.28465614e-03 -5.02146073e-02 -1.00576542e-01 -4.41489182e-02
  1.33194193e-01 -2.69592702e-01  2.02170298e-01  1.53607503e-01
  3.07220663e-03  1.27783120e-01  1.18341163e-01  8.83063227e-02
  7.45066395e-03 -3.46718319e-02 -2.01000646e-01 -5.82454680e-03
  1.15922593e-01  5.27468557e-03  8.15979168e-02 -9.16681718e-03]