[-0.13069761  0.05573694  0.0843884  -0.05271973 -0.06290642 -0.0583122
 -0.07083388 -0.16885082  0.14749597 -0.13794789  0.24458711 -0.09862732
 -0.20498131 -0.05552999 -0.09403136  0.22237849 -0.2053614  -0.12858081
  0.0387735   0.02574464  0.09664329 -0.02410984 -0.01086414  0.01648091
 -0.06829654 -0.32047442 -0.14209539 -0.07019608 -0.00530046 -0.04678522
 -0.08150687  0.03476452 -0.17434156 -0.03826218  0.02878955  0.14003712
 -0.00761195 -0.11399936  0.17611013 -0.05357696 -0.22849722  0.02812666
  0.07096361  0.2084363   0.1459211   0.03557993  0.00652287 -0.17377275
  0.08248292 -0.14501877 -0.01815082  0.10881509  0.03668166  0.05242153
 -0.00309968 -0.15137392  0.02898366  0.08898976 -0.12862459 -0.02128238
  0.09476395 -0.12407197  0.00262864 -0.07887205  0.23914082  0.06316372
 -0.14011972 -0.15267943  0.10360672 -0.1192369  -0.05597056  0.04212255
 -0.13910575 -0.20256154 -0.30506662  0.01628377  0.38670695  0.06725235
 -0.14955555  0.11411714 -0.01939065 -0.01446627  0.16966064  0.20711914
  0.05237475  0.06458931 -0.09529229  0.00454657  0.22537629 -0.10885326
  0.00775213  0.16470526 -0.0697889   0.09338155 -0.01282914  0.0559123
 -0.03775043  0.06930611 -0.11184783  0.02189196  0.0556502  -0.00184642
 -0.01173244  0.09549534 -0.13393211  0.01945642  0.00920616 -0.0050975
  0.00306836 -0.06856114 -0.08570585 -0.03814314  0.11328503 -0.28813717
  0.20869856  0.18972054  0.00630631  0.13869154  0.1307703   0.08443888
  0.01192887 -0.04027416 -0.2147754  -0.00806216  0.10324042  0.02858439
  0.1027598  -0.01095707]