[-1.10184446e-01  1.00084163e-01  5.53433970e-02 -9.75074098e-02
 -6.43712953e-02 -7.26844221e-02 -2.71358974e-02 -1.48354456e-01
  1.82838634e-01 -7.63851777e-02  3.08863372e-01 -9.61252600e-02
 -2.20164686e-01 -9.11147594e-02 -7.05389306e-02  2.60516137e-01
 -2.73035169e-01 -9.69269201e-02 -2.13380307e-02  3.85836214e-02
  1.03716314e-01 -2.77778544e-02  6.67727962e-02  6.58914819e-02
 -1.28727838e-01 -3.91780853e-01 -1.27438426e-01 -7.89117441e-02
 -3.52064904e-04 -1.80343874e-02 -2.09710654e-02  3.09750177e-02
 -2.02638149e-01 -8.69709775e-02  5.29676378e-02  5.81658557e-02
 -1.92904081e-02 -1.44323304e-01  1.47675335e-01 -3.06302961e-02
 -2.91993111e-01  3.14915143e-02  1.01375654e-01  2.23677546e-01
  1.56736061e-01  2.03538314e-02  7.40738437e-02 -2.14011893e-01
  1.36778221e-01 -1.53815553e-01 -4.91046114e-03  9.29665267e-02
  2.05689967e-02  1.98839754e-02  1.17066447e-02 -1.02847613e-01
  5.48502570e-03  1.75603986e-01 -1.34515867e-01 -2.97287498e-02
  1.12846069e-01 -2.33807210e-02  1.27475960e-02 -1.41460001e-01
  1.83747396e-01  6.63820207e-02 -1.56739458e-01 -1.54578552e-01
  1.10606149e-01 -9.84711424e-02 -2.40127649e-02  7.88485333e-02
 -1.62550047e-01 -2.37538442e-01 -3.12548429e-01 -2.86823269e-02
  4.07487482e-01  5.37508093e-02 -1.25646994e-01  4.37817574e-02
 -6.84176162e-02  1.81085207e-02  1.15875028e-01  2.20491320e-01
  5.53840771e-02  6.23210929e-02 -8.11125562e-02  9.79516283e-03
  2.58886129e-01 -1.23575643e-01  2.68081911e-02  2.59759605e-01
 -4.10678573e-02  5.31663969e-02 -3.00860442e-02  4.90451716e-02
 -1.10682726e-01  8.61599594e-02 -1.25319645e-01  1.38695864e-02
 -7.29555357e-03  2.63438709e-02 -1.28324693e-02  7.02229217e-02
 -1.52243763e-01  5.41207306e-02  3.91445309e-02  3.47501896e-02
  3.99734788e-02 -3.92134450e-02 -3.71817015e-02 -1.08874418e-01
  8.82424116e-02 -2.28708655e-01  1.72171190e-01  1.93818450e-01
  5.46227582e-02  1.15431190e-01  9.66374055e-02  7.30114356e-02
 -8.21153726e-03 -3.81038859e-02 -1.94689378e-01  4.03399877e-02
  1.16464138e-01 -3.23107839e-02  7.37647340e-02 -7.49514326e-02]