[-1.19855903e-01  1.20810509e-01  5.61594553e-02 -8.97492319e-02
 -5.79424165e-02 -7.33243823e-02 -2.87516303e-02 -1.29401356e-01
  1.60478443e-01 -9.36200842e-02  2.84776002e-01 -9.21022445e-02
 -2.17816353e-01 -7.49976262e-02 -8.58607888e-02  2.42260814e-01
 -2.09812313e-01 -9.75959972e-02 -1.31550049e-02  4.15502936e-02
  1.12403773e-01 -1.63940694e-02  3.77037898e-02  7.63131380e-02
 -1.33484393e-01 -3.50752503e-01 -1.10151999e-01 -7.36441538e-02
 -2.39265133e-02 -1.75992977e-02 -2.33912542e-02  2.36492250e-02
 -1.99130446e-01 -6.06260709e-02  3.60591374e-02  4.23197933e-02
  1.85901336e-02 -1.31297216e-01  1.62971616e-01  1.81574915e-02
 -2.86372572e-01  1.76667478e-02  6.34823367e-02  2.50161022e-01
  1.77016363e-01 -5.18180423e-05  4.38408405e-02 -1.82794318e-01
  1.30411163e-01 -1.48636624e-01 -6.71434356e-03  9.64153484e-02
  7.90796708e-03  2.72566415e-02  1.00339891e-03 -9.50265601e-02
  2.97101140e-02  1.59600362e-01 -1.64605901e-01 -6.79847300e-02
  7.61576220e-02 -1.11770621e-02  3.22576314e-02 -1.31739348e-01
  2.02675968e-01  7.69509152e-02 -1.43911123e-01 -1.35866463e-01
  1.18036307e-01 -1.17254533e-01 -1.65697988e-02  6.96908459e-02
 -1.63073704e-01 -2.02641368e-01 -2.90865660e-01 -1.30579835e-02
  3.95740867e-01  1.03111558e-01 -1.35973036e-01  4.94028516e-02
 -8.07374045e-02 -6.60401443e-03  1.31485373e-01  1.90128937e-01
  5.72426617e-02  5.71320653e-02 -4.19770777e-02 -1.81029586e-03
  2.59674162e-01 -7.84776434e-02 -1.46539847e-03  2.57638603e-01
 -4.76352423e-02  1.59472581e-02 -1.22507242e-02  1.51131423e-02
 -1.05116405e-01  6.65542409e-02 -1.01345710e-01 -3.86836752e-03
 -3.42415012e-02 -1.29637343e-03 -2.28483463e-03  1.01014473e-01
 -1.99019894e-01  6.38979897e-02  3.26766185e-02  3.29870954e-02
  2.50294097e-02 -1.59858521e-02 -4.32783775e-02 -7.99457505e-02
  8.51429105e-02 -2.10510641e-01  1.81578323e-01  1.57407403e-01
  4.88263480e-02  1.03693143e-01  9.66666043e-02  5.96632361e-02
 -1.55605376e-02 -3.40981781e-02 -1.67885602e-01  1.96232051e-02
  1.28022999e-01 -4.06162739e-02  1.27446234e-01 -6.92624226e-02]