[-0.11067951  0.15068476  0.03027197 -0.0675709  -0.05607879 -0.03289646
  0.03138234 -0.1376829   0.18244255 -0.06367109  0.28660369 -0.1002418
 -0.25604302 -0.1170686  -0.07157587  0.25217813 -0.23189807 -0.13336273
 -0.05910888  0.03537573  0.12023178 -0.00580629  0.01951622  0.08031597
 -0.10891564 -0.33336025 -0.10024901 -0.07300387 -0.00536113 -0.08204901
 -0.03524683  0.03905559 -0.20016459 -0.06837936  0.03695172  0.03898708
 -0.03043115 -0.1098771   0.16898377 -0.01877212 -0.27691832  0.03326768
  0.10782238  0.25752839  0.199728    0.02974769  0.02035204 -0.17911898
  0.13827659 -0.14370812 -0.02963815  0.15003298  0.04336042  0.02207592
  0.02208435 -0.15399186 -0.0100701   0.11868298 -0.11466917 -0.05298123
  0.09095838 -0.05591891 -0.01494849 -0.13402544  0.16459864  0.02418177
 -0.13296585 -0.17282802  0.12386011 -0.14381754 -0.04318931  0.0619453
 -0.17319797 -0.20715716 -0.29998174 -0.04048453  0.3530263   0.05861668
 -0.16063616  0.09513199 -0.02809635  0.02745222  0.12187519  0.21319282
  0.02783497  0.070164   -0.11325723 -0.01536949  0.23244797 -0.10660128
  0.03138271  0.23481654 -0.04278713  0.01271013  0.00391468 -0.0185264
 -0.09278429  0.06202751 -0.13601434  0.00362076 -0.03023026 -0.01112636
 -0.04040178  0.0701609  -0.14906275  0.06695809  0.04023847  0.06339139
 -0.03246672 -0.07224377 -0.06897231 -0.0431454   0.10341245 -0.21107271
  0.197246    0.15691948  0.00810534  0.08175689  0.12617512  0.09376504
 -0.01856275 -0.00190216 -0.20892823  0.00553793  0.13519278 -0.06460749
  0.10344162 -0.07682588]