[-0.13963652  0.10200941  0.03040962 -0.08950513 -0.06215124 -0.06353269
 -0.00580066 -0.14131588  0.15024856 -0.06806459  0.28740299 -0.08257977
 -0.20200932 -0.14048053 -0.08468198  0.24684215 -0.24141665 -0.12309381
 -0.01252046  0.06806357  0.0997863  -0.03612299  0.04004085  0.06256431
 -0.12110686 -0.36503223 -0.13763724 -0.08239182 -0.02158766 -0.03087173
 -0.02475961  0.0229055  -0.21539389 -0.07845755  0.02096115  0.06174043
  0.00492125 -0.10570722  0.15249255  0.01051847 -0.27038193  0.00689644
  0.09127979  0.25615305  0.19062628  0.02804271  0.04157355 -0.16055693
  0.12804918 -0.14577316 -0.03322206  0.1004471   0.02214601  0.03221249
 -0.01629476 -0.10114957  0.02948743  0.14660786 -0.16742292 -0.04091041
  0.06082655 -0.02716647  0.00345793 -0.11892887  0.20220783  0.07849466
 -0.13492393 -0.16694717  0.1415264  -0.13968422 -0.03243408  0.05881629
 -0.16333771 -0.21328281 -0.32269809 -0.05109987  0.36001265  0.08030927
 -0.14088875  0.04647758 -0.07594406  0.01286398  0.12694229  0.18157376
  0.05198362  0.08745369 -0.10052631 -0.02899402  0.25477099 -0.0893739
  0.01734829  0.24990211 -0.04321373  0.03413652  0.00678536  0.03121838
 -0.07616285  0.07819034 -0.12332059  0.00959617 -0.02103561 -0.02510907
 -0.00457867  0.08293017 -0.15536731  0.06485228  0.03904444  0.06474017
 -0.01248786 -0.0514543  -0.05912112 -0.07161617  0.10142503 -0.21170163
  0.19992386  0.19000678  0.00882706  0.09874832  0.11406328  0.07950369
 -0.05642715 -0.03889454 -0.18340735  0.02135786  0.09679338 -0.05271971
  0.11337277 -0.05175361]