[-0.12159853  0.14468937  0.07833309 -0.1150327  -0.08131735 -0.03455298
  0.00510542 -0.15459798  0.17101465 -0.12570964  0.2740216  -0.06600416
 -0.21337222 -0.1094257  -0.04676838  0.22262545 -0.21237619 -0.13549373
 -0.03571191  0.02674298  0.10791405 -0.01649276 -0.00041457  0.04940739
 -0.08477286 -0.38037977 -0.13385187 -0.06234888 -0.00918809 -0.05642921
 -0.01034912  0.05695995 -0.17920999 -0.04659827 -0.00109323  0.04619299
 -0.02023198 -0.10456982  0.12641053 -0.01381566 -0.26844534  0.04276323
  0.07286429  0.23759547  0.19835651 -0.03303866  0.06037989 -0.15921138
  0.13341948 -0.11400447 -0.05536969  0.12610695  0.06420449  0.05298275
  0.01662092 -0.12671801  0.01533905  0.05812865 -0.11738535 -0.03480744
  0.1105904  -0.07316441 -0.02735172 -0.12681845  0.16031316  0.03921492
 -0.12610926 -0.21516679  0.1480075  -0.14858356 -0.04023345  0.06170588
 -0.20935674 -0.18439047 -0.26865104 -0.01181902  0.31981847  0.10629356
 -0.16198485  0.05302807 -0.07880207  0.04000173  0.08079716  0.21444908
  0.04659639  0.08594985 -0.07929828  0.00736411  0.2142134  -0.09499776
  0.00886695  0.27768502 -0.01128208  0.06224535 -0.00261583 -0.01649084
 -0.07474246  0.0614582  -0.13370745  0.03047849 -0.05014457 -0.03282359
 -0.02431353  0.09736408 -0.13301983  0.12797919  0.00827547  0.10377894
 -0.03276847 -0.02388576 -0.06192489 -0.06873756  0.10699649 -0.18254982
  0.16205104  0.20083204  0.05110271  0.07209712  0.12149294  0.08642905
 -0.01933651 -0.02553098 -0.20143445  0.03391839  0.08930513 -0.0702694
  0.03024237 -0.04870784]