[-0.11702114  0.14715536  0.0902021  -0.07642353 -0.06547252 -0.07431553
  0.00422873 -0.19233094  0.1493884  -0.08375449  0.2646884  -0.09410431
 -0.2441815  -0.12036213 -0.04911685  0.22736321 -0.22086601 -0.12564324
 -0.01329489  0.03916245  0.10887811 -0.02283257  0.01671869  0.07818545
 -0.09862888 -0.33559293 -0.13025172 -0.07440378 -0.00434566 -0.02509881
 -0.02868158  0.05367939 -0.19684033 -0.06286748  0.03331124  0.06636731
  0.00045956 -0.11285482  0.14376867 -0.02244101 -0.27557713  0.01121527
  0.08051168  0.21614563  0.19708465  0.01245166  0.03918127 -0.16068721
  0.14176917 -0.12876832 -0.03273253  0.15454911  0.04973039  0.04673662
  0.00686375 -0.15776809  0.02285867  0.07364386 -0.13902378 -0.05266014
  0.11572758 -0.07229548  0.01472145 -0.11740734  0.1621875   0.0352502
 -0.11858022 -0.18102263  0.14740829 -0.17159437 -0.03429196  0.06565165
 -0.1933461  -0.18230055 -0.28285623 -0.03825701  0.31807232  0.10660445
 -0.14382009  0.06185063 -0.0886988   0.02754142  0.09036893  0.19905525
  0.0738314   0.08044703 -0.08147838 -0.02536883  0.22971316 -0.10881384
  0.04708238  0.29691288 -0.03534214  0.04159006 -0.01693024 -0.03735727
 -0.07236951  0.06889245 -0.10126384  0.02600675 -0.05030759 -0.02084041
  0.0049163   0.08883569 -0.18102662  0.07549782  0.01788463  0.09275778
 -0.02191754 -0.0568017  -0.0728069  -0.0728206   0.12149457 -0.20634592
  0.2046641   0.18676487  0.01762625  0.06517851  0.09999238  0.09946416
 -0.01109664 -0.05679914 -0.1760134   0.01389308  0.11174659 -0.08677345
  0.04594325 -0.05122546]