[-0.09496446  0.1267857   0.05980207 -0.07645591 -0.06247857 -0.08101539
 -0.04025004 -0.14717159  0.17263933 -0.08741701  0.30686441 -0.0732886
 -0.20839076 -0.10818394 -0.05389435  0.24328409 -0.23890546 -0.13460062
 -0.03528627  0.06291487  0.13105845 -0.0488392   0.04793547  0.0723998
 -0.14481437 -0.35634983 -0.11277049 -0.05941675  0.01549639 -0.02851119
 -0.03785436 -0.00111302 -0.21806657 -0.07970963  0.04010912  0.06003657
  0.00880672 -0.15068963  0.18144004 -0.00409789 -0.30095884  0.03036135
  0.04802858  0.22724135  0.14924385  0.00129097  0.09104594 -0.20532604
  0.1579093  -0.13009273 -0.00290468  0.1217618   0.05758336  0.02274003
 -0.00879894 -0.1129865   0.00973561  0.18280593 -0.14639603 -0.03087836
  0.08993474 -0.03379075  0.00698481 -0.15750328  0.18450508  0.06722496
 -0.13837133 -0.17711471  0.11542331 -0.09704315 -0.04295285  0.06912389
 -0.16994493 -0.20928493 -0.31892973 -0.03925903  0.37579027  0.05727348
 -0.17586766  0.05074444 -0.07488377  0.0150112   0.09839101  0.21849804
  0.05229602  0.10158002 -0.08622338 -0.00096873  0.27158588 -0.12114689
  0.03346903  0.25684279 -0.02815622  0.04339732 -0.02023788  0.01086804
 -0.1050693   0.07932334 -0.09692097  0.00934239 -0.00994085  0.01664799
 -0.00288027  0.07024115 -0.16687943  0.04733999  0.03152347  0.05031794
  0.02981074 -0.0282058  -0.05442917 -0.13421147  0.08563693 -0.21537137
  0.17993735  0.19187133  0.0459617   0.09450883  0.10819694  0.0930115
 -0.00945374 -0.01199179 -0.17816745  0.0310957   0.11727976 -0.02919409
  0.08803926 -0.06773584]