[-9.04068574e-02  1.05132692e-01  6.33712932e-02 -1.06008127e-01
 -8.06426480e-02 -6.99229315e-02 -1.15287201e-02 -1.14013113e-01
  1.63109884e-01 -5.15688322e-02  3.15206796e-01 -8.68013799e-02
 -2.17001304e-01 -8.04660767e-02 -4.47670631e-02  2.31684685e-01
 -2.40255818e-01 -9.44324657e-02 -3.25112864e-02  7.93103874e-02
  1.03933252e-01 -2.79881060e-02  3.81917171e-02  4.84183356e-02
 -1.02664374e-01 -3.74031872e-01 -1.25530317e-01 -6.33301660e-02
  2.32267994e-02 -4.83479686e-02 -9.47120413e-03  1.83254038e-03
 -2.09525466e-01 -8.82683471e-02  5.22125363e-02  2.11197268e-02
 -4.08931300e-02 -1.58277646e-01  1.72903612e-01 -2.94870697e-04
 -2.73883343e-01  9.22652148e-03  6.49619624e-02  2.11178377e-01
  1.52358949e-01  2.85998341e-02  7.84097686e-02 -2.03037739e-01
  1.41392156e-01 -1.67949140e-01 -5.97054511e-03  1.14477299e-01
  1.46773281e-02  4.00972776e-02 -1.54503277e-02 -9.79259983e-02
  3.43701802e-02  1.63085699e-01 -1.89124271e-01 -1.15759438e-02
  1.16452239e-01 -1.58396140e-02  4.63032350e-03 -1.26474187e-01
  1.92463785e-01  6.31899834e-02 -1.39605179e-01 -1.75410315e-01
  1.18505873e-01 -1.03725091e-01 -2.05293167e-02  7.74839818e-02
 -1.58719957e-01 -2.21768737e-01 -2.71601915e-01 -2.92641260e-02
  3.91143680e-01  5.03010154e-02 -1.23045482e-01  3.05304676e-02
 -1.03397250e-01 -1.15302876e-02  8.49353895e-02  1.69233546e-01
  4.25723270e-02  5.33040836e-02 -7.81791732e-02  8.53333995e-03
  2.72530526e-01 -1.18735567e-01  4.81846556e-02  2.75482953e-01
 -3.63856256e-02  3.66576165e-02 -1.93261113e-02  3.46140862e-02
 -9.40004215e-02  8.08213875e-02 -8.30364451e-02  7.09725311e-03
  1.37664005e-03 -2.09814757e-02  8.94380547e-03  9.09437537e-02
 -1.76616997e-01  8.59050974e-02  2.21709814e-02  5.11280186e-02
  4.24252860e-02 -5.73283844e-02 -4.79996763e-02 -1.11457668e-01
  1.00158632e-01 -2.14110017e-01  1.93336695e-01  1.76432297e-01
  6.04762398e-02  7.80033171e-02  7.90513605e-02  8.02733749e-02
 -1.74724869e-02 -3.83629836e-02 -1.90792918e-01  3.88645567e-02
  9.23638195e-02 -2.10263208e-02  6.66561723e-02 -6.69648722e-02]