[-0.13594984  0.11726945  0.05881333 -0.1075747  -0.06973159 -0.06074665
  0.01502987 -0.1615154   0.15563984 -0.09036256  0.26655954 -0.08798444
 -0.22312081 -0.08757406 -0.04988449  0.23813164 -0.22140971 -0.13308382
 -0.05819948  0.04015436  0.11031448 -0.00824488  0.01440664  0.04419918
 -0.08592367 -0.35818958 -0.12240541 -0.02920657  0.02536941 -0.03424372
 -0.01418013  0.05911959 -0.18343197 -0.06942978  0.06510724  0.07810554
 -0.02796602 -0.13738467  0.13937812 -0.02122588 -0.26774287  0.04602547
  0.1043785   0.24801548  0.19280149 -0.01583854  0.05115835 -0.17096874
  0.15107878 -0.16498952 -0.04582579  0.12188073  0.09151608  0.06341936
  0.01587432 -0.12395214  0.04167336  0.11005416 -0.15778112 -0.0226756
  0.11747634 -0.04015909 -0.00648545 -0.11420083  0.14192975  0.0474036
 -0.15647922 -0.21265352  0.09428781 -0.12825148 -0.04317659  0.0493332
 -0.19820432 -0.21418448 -0.27738595 -0.02048406  0.33767599  0.10360754
 -0.1496506   0.07080616 -0.05609623  0.03304802  0.06903014  0.19461255
  0.01934164  0.07406332 -0.08829405  0.01191822  0.22124766 -0.11082297
  0.00167546  0.28255859 -0.02237603  0.05355977 -0.03071038  0.02363678
 -0.09585914  0.07683558 -0.12315356 -0.00704163  0.00314187 -0.00232155
  0.02198842  0.10785778 -0.15008637  0.13413203 -0.00568823  0.1165494
  0.00471156 -0.04252083 -0.05870875 -0.05535814  0.07220985 -0.19768071
  0.17668734  0.21108131  0.04256335  0.06171258  0.13584284  0.04435897
  0.03432165  0.01213282 -0.17630936  0.01326902  0.09787697 -0.03894565
  0.04444342 -0.04585692]