[-0.12854324  0.08128577  0.058465   -0.10634259 -0.04619636 -0.04450819
  0.00250851 -0.15243421  0.16154891 -0.08392804  0.26486239 -0.11552322
 -0.2380269  -0.08255392 -0.0627337   0.23633265 -0.21778087 -0.10578346
 -0.03316843  0.04849309  0.09884445 -0.02642412  0.01473872  0.06604783
 -0.06943154 -0.35101023 -0.13061623 -0.05075599  0.01866145 -0.02577416
 -0.04272008  0.06241351 -0.18297198 -0.05860087  0.03484304  0.05797076
 -0.01074748 -0.128242    0.12416133 -0.0149294  -0.26835284  0.02271764
  0.09273807  0.22759283  0.18853295  0.03753451  0.02196168 -0.16176794
  0.12507617 -0.17622128 -0.04502816  0.12486877  0.06357726  0.04211676
 -0.01365432 -0.15088885  0.03549482  0.09461974 -0.1555939  -0.0213743
  0.08393215 -0.03673481  0.00939544 -0.09998187  0.17917995  0.06691154
 -0.15914735 -0.1720009   0.12289893 -0.13246976 -0.01381305  0.04408597
 -0.19380966 -0.22289474 -0.26801741 -0.02846832  0.34022927  0.07749611
 -0.14159974  0.07447193 -0.08260538  0.02532071  0.08747093  0.19880997
  0.032262    0.05075482 -0.07858837 -0.02885843  0.22591594 -0.12033477
  0.03221383  0.28695339 -0.03658449  0.04385317 -0.03601847  0.02867822
 -0.07626184  0.07832412 -0.11745925  0.00091825 -0.0081828  -0.01048155
  0.01081985  0.09566946 -0.18515627  0.10552784  0.02833904  0.08658826
  0.03251911 -0.049463   -0.05255575 -0.07198723  0.09655251 -0.21774116
  0.17435153  0.21427956  0.06465968  0.08138493  0.11675488  0.07127552
  0.0297667  -0.01364231 -0.18633364  0.02441422  0.1070201  -0.05632804
  0.01911755 -0.03642947]