[-1.16294578e-01  1.07978664e-01  7.83572122e-02 -5.32125346e-02
 -5.21583930e-02 -3.64989862e-02 -6.06373549e-02 -1.25082597e-01
  1.52767107e-01 -9.49768052e-02  2.00500950e-01 -6.21936508e-02
 -2.12684751e-01 -1.46427127e-02 -4.53419201e-02  1.83499306e-01
 -2.19936997e-01 -1.15422264e-01  3.98504362e-02  9.90306586e-03
  1.32684097e-01 -1.46380514e-02  5.15900329e-02  4.28033844e-02
 -1.23592928e-01 -3.34165335e-01 -1.36032060e-01 -7.27523565e-02
  3.88268009e-02 -3.26897651e-02 -6.38862029e-02  6.90978691e-02
 -1.71418890e-01 -1.02460748e-02  5.12614734e-02  1.10419273e-01
  8.45740642e-03 -1.24558188e-01  2.05502912e-01  1.29031008e-02
 -2.12204024e-01  1.36482185e-02  4.50804643e-02  2.31929466e-01
  1.67255521e-01  6.98430697e-03  3.05075645e-02 -1.21593289e-01
  1.20484784e-01 -1.92406923e-01  2.86231423e-03  1.61926255e-01
  1.21285394e-02  4.89667431e-02  3.12037170e-02 -1.56416118e-01
  4.57530282e-02  9.32140574e-02 -1.54785782e-01  1.81947427e-03
  6.33211136e-02 -9.54903588e-02  2.46899221e-02 -7.07820281e-02
  1.70697480e-01  8.22997242e-02 -1.04494266e-01 -1.69621855e-01
  9.80224237e-02 -1.05856776e-01 -3.57437171e-02  5.10020517e-02
 -1.85337767e-01 -1.96043655e-01 -2.81487107e-01  9.72691365e-03
  3.53756040e-01  1.09622441e-01 -1.11930326e-01  1.23048067e-01
 -3.46181691e-02 -3.25715728e-02  1.04184762e-01  1.75603166e-01
 -1.81249008e-02  7.14401603e-02 -8.87614042e-02  4.63251695e-02
  2.18616053e-01 -8.82236063e-02 -7.23414961e-03  2.27103949e-01
 -6.34067282e-02  8.60011950e-02  2.29266283e-04  3.42569947e-02
 -8.74449015e-02  2.63752770e-02 -1.49247900e-01 -2.58448962e-02
  2.87776385e-02 -3.12508382e-02 -1.23198228e-02  1.34564862e-01
 -2.07620531e-01  9.13653523e-03 -1.92667786e-02 -2.63756216e-02
 -3.59620564e-02 -5.31586185e-02 -1.26042813e-01 -2.48734038e-02
  1.05951510e-01 -2.42366344e-01  1.74381003e-01  2.17982247e-01
  2.91172024e-02  1.09135166e-01  1.36107236e-01  3.23395282e-02
  3.33212726e-02 -2.90838480e-02 -1.61578521e-01 -7.00531935e-04
  1.12868622e-01  3.82479765e-02  2.80974954e-02 -3.12502049e-02]