[-0.0898617   0.12411429  0.05142559 -0.06868932 -0.08489978 -0.06973647
 -0.03384296 -0.11385687  0.17381111 -0.0344387   0.3049663  -0.08819511
 -0.21282652 -0.08332157 -0.06514044  0.25723392 -0.27106315 -0.11033741
 -0.00238445  0.07038368  0.13903764 -0.00394937  0.03524732  0.06998818
 -0.12088107 -0.38896248 -0.11405964 -0.06349266  0.03699449 -0.047737
 -0.03575763  0.02178819 -0.20423929 -0.08655427  0.06309434  0.03990066
 -0.00780951 -0.16580141  0.16880764  0.01806952 -0.29237944  0.0276642
  0.08127882  0.22457998  0.17362882  0.01719744  0.07869954 -0.20831656
  0.13290434 -0.15273869 -0.0230878   0.13700244  0.00967773  0.04475129
 -0.01628311 -0.11716124  0.00789644  0.14360118 -0.18977273 -0.02429651
  0.11642003 -0.02727461  0.04254341 -0.15065171  0.16663715  0.04904566
 -0.12734529 -0.18143031  0.10542993 -0.12761898 -0.04036783  0.07349999
 -0.15039663 -0.22472696 -0.30846688 -0.04884303  0.39296007  0.07360564
 -0.12283824  0.06631185 -0.06485392 -0.02805247  0.09505471  0.20440607
  0.06269201  0.08187775 -0.08983397  0.01221266  0.2679452  -0.09618226
  0.04883129  0.27561632 -0.04776103  0.05454973 -0.00206399  0.05723661
 -0.10946571  0.08481558 -0.08440008  0.00546457 -0.04404591 -0.01203087
  0.0197887   0.07769585 -0.15079093  0.06879309  0.01959428  0.0543904
 -0.00074859 -0.04883268 -0.0431199  -0.08415532  0.10115211 -0.21422313
  0.19338122  0.16939043  0.05379324  0.10141815  0.08482631  0.09279165
 -0.03971144 -0.05757776 -0.18298219  0.03850655  0.07295474 -0.040108
  0.09479816 -0.05408206]