[-0.0743828   0.0926206   0.0604804  -0.06680263 -0.07644167 -0.06184125
 -0.03521782 -0.12503533  0.18028711 -0.07356166  0.28645632 -0.06770054
 -0.20709281 -0.0846807  -0.06187105  0.24681459 -0.20666543 -0.12643419
 -0.05036476  0.07495867  0.10249499 -0.04028751  0.03910563  0.06611286
 -0.11018596 -0.36656818 -0.11994953 -0.05715564  0.02909048 -0.0319287
 -0.05787142  0.00403388 -0.20903745 -0.09027322  0.05559406  0.0377522
 -0.01644354 -0.16644762  0.15500584  0.00303902 -0.2996529   0.03476709
  0.02808159  0.20327154  0.14878008  0.02578052  0.1020563  -0.23784149
  0.13504426 -0.13787295  0.02531202  0.11362064  0.0496976   0.03337947
  0.01642945 -0.12773338  0.02210326  0.16044934 -0.14371151 -0.02407725
  0.07912277 -0.00245071  0.02342595 -0.16740085  0.18224786  0.06258066
 -0.12160832 -0.1735725   0.14184412 -0.0994838  -0.02810675  0.07139158
 -0.15293978 -0.21963802 -0.30869552 -0.03816408  0.3974205   0.08563136
 -0.1785689   0.05391936 -0.08487518  0.01322885  0.09314992  0.20876658
  0.04428276  0.08092665 -0.06642756 -0.01964055  0.26270309 -0.1113072
  0.02551188  0.24672477 -0.02981932  0.02808187 -0.00469112  0.02030973
 -0.08997215  0.07901201 -0.07912045 -0.00536788 -0.00601933  0.00648347
  0.00253185  0.07505304 -0.17167334  0.0671953   0.0213777   0.04868373
  0.04691793 -0.02386321 -0.04479285 -0.11406747  0.09511143 -0.24043441
  0.19140331  0.1786146   0.05238595  0.10140558  0.07930886  0.11290734
 -0.01877228 -0.0351939  -0.18264635  0.02616408  0.10819914 -0.02947548
  0.07206445 -0.0406609 ]