[-0.11669753  0.13456941  0.08563656 -0.09371992 -0.05352775 -0.05854163
  0.00140204 -0.18373387  0.15543349 -0.08822643  0.27193758 -0.09805252
 -0.24839726 -0.12079231 -0.05486527  0.22781287 -0.225142   -0.12171429
 -0.01026427  0.03760083  0.11943661 -0.01305651  0.00863766  0.06581291
 -0.08986543 -0.33501437 -0.12633401 -0.0679299  -0.00141307 -0.02808244
 -0.0294894   0.04644219 -0.19873047 -0.06148577  0.03074362  0.07050799
 -0.00865759 -0.11624088  0.13675231 -0.02092677 -0.26192006  0.01585458
  0.07793356  0.20816691  0.19209261  0.02012012  0.03521873 -0.17383081
  0.13470086 -0.13359293 -0.03063583  0.15198     0.04043078  0.05619753
  0.00497598 -0.15403445  0.01800644  0.07368302 -0.13827032 -0.04467778
  0.11496995 -0.06724723  0.01317767 -0.12693875  0.15431826  0.0380585
 -0.12096573 -0.19923586  0.1418505  -0.1685224  -0.05048341  0.06868214
 -0.1851671  -0.17594552 -0.28149125 -0.04065621  0.31376812  0.09893008
 -0.14037149  0.05656812 -0.08318432  0.01592559  0.09266614  0.19299492
  0.07700056  0.07644399 -0.07940362 -0.02742911  0.23191123 -0.10450526
  0.03896388  0.29052666 -0.04053512  0.0465735  -0.01764966 -0.01893254
 -0.07470544  0.07693441 -0.1009146   0.0158929  -0.04351376 -0.0206073
  0.00449873  0.09698353 -0.17082761  0.09425084  0.00821008  0.09388675
 -0.01593262 -0.06059731 -0.06739705 -0.05781807  0.12200228 -0.20483413
  0.20342961  0.18664162  0.0339022   0.06290953  0.10172959  0.10133662
 -0.01512663 -0.05020709 -0.19638261  0.00838057  0.09551527 -0.07249457
  0.04882056 -0.04542476]