[-1.32145748e-01  9.50811952e-02  8.22206959e-02 -7.69294351e-02
 -4.79423963e-02 -4.35154065e-02 -4.04933542e-02 -1.41567498e-01
  1.62776113e-01 -9.63155255e-02  2.61605442e-01 -6.75101802e-02
 -2.04231814e-01 -6.48559555e-02 -5.07339016e-02  1.83407977e-01
 -2.37901673e-01 -8.99142846e-02  7.60281011e-02  5.07173827e-03
  1.47225603e-01 -2.24008355e-02  2.63943058e-02  5.51148430e-02
 -1.36351213e-01 -3.43362659e-01 -1.35585189e-01 -8.65566358e-02
  3.08038741e-02 -5.13725765e-02 -3.73445414e-02  7.08035752e-02
 -1.70440674e-01 -1.41637344e-02  2.59445440e-02  1.11151151e-01
  2.09559090e-02 -1.20035388e-01  1.80742875e-01  3.57106188e-03
 -2.19784141e-01  1.80016700e-02  4.95930351e-02  2.26060659e-01
  1.70078099e-01 -9.79485363e-03  3.19728293e-02 -1.18353605e-01
  1.12580173e-01 -1.79194450e-01 -2.35593561e-02  1.42255455e-01
  1.14844741e-04  2.82410327e-02  2.28728559e-02 -1.70830622e-01
  3.91147193e-03  6.65373877e-02 -1.53836802e-01 -5.36818465e-04
  5.58078364e-02 -8.85998830e-02  3.48242112e-02 -6.75965175e-02
  1.55984774e-01  9.11251232e-02 -1.19359635e-01 -1.58340245e-01
  1.16222560e-01 -1.22753821e-01 -2.31500100e-02  6.21694624e-02
 -1.93192437e-01 -2.11762413e-01 -2.74997622e-01  3.10726352e-02
  3.63297671e-01  1.04463629e-01 -1.17580332e-01  9.33830217e-02
 -3.11284307e-02 -2.40691006e-02  1.19401239e-01  1.98919967e-01
  3.00590824e-02  7.67463371e-02 -8.08123648e-02  4.97920737e-02
  2.07193777e-01 -7.84615874e-02 -3.40975681e-03  2.43478730e-01
 -7.85526484e-02  9.50514972e-02  4.05003870e-04  3.93121131e-02
 -8.66024718e-02  4.87969890e-02 -1.34269789e-01 -5.33047831e-03
  1.60432663e-02 -3.61221023e-02  5.75746549e-03  1.42100111e-01
 -1.79261237e-01  2.39057131e-02 -9.40349232e-03 -2.26857197e-02
 -4.58759107e-02 -3.87951322e-02 -9.12755355e-02 -1.70534775e-02
  1.07811831e-01 -2.22626835e-01  2.01351121e-01  2.13230968e-01
  3.20903473e-02  1.20906308e-01  1.21037178e-01  3.70392837e-02
  2.84504686e-02 -4.25739661e-02 -1.45507187e-01  1.68440957e-02
  6.49628043e-02 -9.02526081e-05  4.39934842e-02 -5.90322576e-02]