[-0.11626829  0.10965704  0.08055416 -0.07402284 -0.05076822 -0.02623061
 -0.03772862 -0.14736377  0.16563891 -0.10229865  0.24614422 -0.08339684
 -0.2149276  -0.05414845 -0.06336397  0.20364843 -0.23441891 -0.0969499
  0.06772054  0.01320835  0.14822023 -0.00392485  0.01785226  0.06359985
 -0.13496999 -0.33696312 -0.12591238 -0.07033449  0.01655542 -0.04928142
 -0.04455597  0.08401828 -0.18071346 -0.02349744  0.03944553  0.11864755
  0.02522673 -0.11584163  0.17530847  0.01048658 -0.22505064  0.03426187
  0.05936605  0.22179244  0.16165046 -0.00411105  0.0281354  -0.14087422
  0.12878615 -0.18512578 -0.01322841  0.13681939  0.00594366  0.03603392
  0.00831562 -0.1782739   0.00347249  0.06419227 -0.14551002 -0.00296628
  0.07721762 -0.08743633  0.03222222 -0.06441563  0.13676536  0.08163209
 -0.10522329 -0.17695217  0.12701379 -0.11432632 -0.03517171  0.05636759
 -0.18371131 -0.20056652 -0.28351367  0.0350344   0.36221874  0.10316318
 -0.12233672  0.09375373 -0.0232283  -0.00673508  0.11526193  0.19159058
  0.03084161  0.07058232 -0.07941891  0.05925205  0.21760379 -0.08024988
 -0.0094135   0.24667259 -0.06782292  0.1008084   0.00590273  0.04381319
 -0.08929075  0.06074272 -0.15619321 -0.00231395  0.02391281 -0.01152504
  0.00718186  0.15419553 -0.17993009  0.04217749 -0.01955666 -0.02402782
 -0.04035346 -0.03320439 -0.10770537 -0.00727192  0.11118591 -0.20747256
  0.19996983  0.19524376  0.03693772  0.11070249  0.13878697  0.04434113
  0.04401886 -0.04552658 -0.16594444 -0.00053384  0.0975136  -0.00042983
  0.04484304 -0.05166436]