[-0.09577587  0.06189309  0.07261311 -0.05575321 -0.08221701 -0.02966046
 -0.0677577  -0.15493996  0.17234081 -0.11604049  0.21202849 -0.11838394
 -0.24202569 -0.0333677  -0.08252989  0.21916528 -0.19805287 -0.1487969
  0.05686122  0.01799686  0.08921764  0.01228037 -0.02319965  0.03324731
 -0.09635421 -0.3289344  -0.11284023 -0.06176974 -0.01953434 -0.03318264
 -0.06013359  0.11282146 -0.19144808 -0.02924003  0.04994043  0.13957767
 -0.00889074 -0.10121353  0.16434574 -0.03678018 -0.23981667  0.01135409
  0.08057722  0.21462384  0.13591664  0.01545603  0.00084156 -0.15558869
  0.05568102 -0.14874105 -0.0449369   0.14661455  0.02686381  0.04345342
  0.00356079 -0.17340395  0.02458421  0.05529975 -0.12501784 -0.01518556
  0.09769089 -0.13945493  0.01635479 -0.09405764  0.22996365  0.02210728
 -0.10310669 -0.16354404  0.11295426 -0.11584728 -0.05826464  0.06279847
 -0.15504311 -0.19870299 -0.29831704  0.00540989  0.34970731  0.0648604
 -0.1283804   0.15758851  0.01493119 -0.01008408  0.13510709  0.19928503
  0.04770334  0.07711259 -0.08436291  0.03995726  0.22737344 -0.11216822
  0.01934306  0.18403085 -0.08466224  0.07772493 -0.00127666  0.02395211
 -0.03155514  0.07016757 -0.12400641  0.01680348  0.06439796 -0.00768215
  0.01416504  0.11348388 -0.13978457 -0.001515   -0.00598588 -0.01083179
 -0.00099477 -0.05198417 -0.09246556 -0.04157814  0.13920063 -0.2761806
  0.20822755  0.15947658  0.00891601  0.11848239  0.11503725  0.08532
  0.00636289 -0.04170744 -0.20406726 -0.00466824  0.11690617  0.00698241
  0.085466   -0.00817043]