[-0.15248889  0.05541268  0.1129842  -0.06213831 -0.08745902 -0.04894455
 -0.08175772 -0.15462114  0.13282552 -0.09333206  0.2297627  -0.10603579
 -0.23688863 -0.01237944 -0.04102854  0.21080069 -0.17831098 -0.12619495
  0.01619186  0.00341611  0.05205678 -0.00709584  0.01243725  0.02307687
 -0.11121714 -0.35722935 -0.14012861 -0.06555183 -0.03962771 -0.00913809
 -0.06404168  0.08692908 -0.18180816 -0.02593899  0.04065029  0.14798658
 -0.00336891 -0.10816371  0.15409423 -0.06757687 -0.23959307  0.03123775
  0.09778916  0.21701495  0.18204065  0.02405271  0.0244023  -0.11173727
  0.0469606  -0.14164118 -0.02811855  0.11813351  0.0213943   0.03653044
  0.02796382 -0.15296361  0.02945739  0.08303576 -0.13439998 -0.04940394
  0.07468172 -0.1224981   0.00727311 -0.0911014   0.24539696  0.06980997
 -0.12125685 -0.13834439  0.0998113  -0.09919076 -0.03285651  0.05062484
 -0.20343404 -0.19732389 -0.32569334  0.01730956  0.33181444  0.04339078
 -0.13809553  0.14013234  0.01252605  0.01301304  0.11080609  0.16555189
  0.02518929  0.07187664 -0.09219186  0.04839943  0.22653146 -0.10776696
  0.01887219  0.17917605 -0.06894799  0.02620691  0.01126403  0.07501193
 -0.03197997  0.0191726  -0.14379127  0.01307016  0.08614703 -0.0078845
 -0.00096708  0.09822818 -0.18478478 -0.00051925 -0.00312657 -0.01306617
 -0.02361186 -0.07512703 -0.07213181 -0.02623461  0.13727741 -0.28565961
  0.18340282  0.19132327 -0.02915112  0.12807433  0.0934412   0.05059797
 -0.02430778 -0.01275051 -0.17097202 -0.0166908   0.11755151  0.03293004
  0.10202754  0.02058021]