[-0.05250748  0.08041498  0.09736706 -0.06227341 -0.07920461 -0.01351773
 -0.12023898 -0.11248163  0.07831218 -0.14240798  0.255431   -0.0774459
 -0.2321658  -0.06919269 -0.03835239  0.22349648 -0.12159232 -0.14110456
 -0.0084112   0.02667269  0.03572768  0.02017111  0.02134602  0.05465836
 -0.12990394 -0.32851765 -0.11826952 -0.0038744  -0.0712012  -0.09646371
 -0.11449277  0.05366923 -0.14450584 -0.01333214  0.07851321  0.12574437
  0.00242933 -0.1171392   0.19114392  0.02360225 -0.23612089  0.03470708
  0.06663983  0.24451904  0.17624316  0.04438627  0.01883866 -0.15502696
  0.13110389 -0.1832139   0.03866918  0.13708706  0.02908083  0.01849816
 -0.02309835 -0.13108939  0.01592783  0.13267063 -0.11052705 -0.04143981
  0.06882208 -0.0739213   0.00655774 -0.11020489  0.21233332  0.0898316
 -0.13819945 -0.16287549  0.10733449 -0.11318747 -0.07784952  0.02439859
 -0.17297399 -0.18414764 -0.29488784  0.01182737  0.36176744  0.10996562
 -0.19286628  0.0728219  -0.00285452 -0.00919349  0.10625221  0.17396505
 -0.01330617  0.04989509 -0.0770694   0.02461205  0.2758598  -0.0599858
  0.00262753  0.20752446 -0.02671648  0.11123321  0.05219778  0.02452973
 -0.07260502  0.03927587 -0.1575443   0.00676346  0.01092871 -0.02040304
  0.01548198  0.16152088 -0.17299756  0.10437211 -0.01306305  0.00130594
  0.03981751  0.02212083 -0.10682406 -0.0970351   0.11446577 -0.21276474
  0.11831744  0.16814095  0.08209084  0.09393574  0.18067764  0.11686444
  0.01121263 -0.00791821 -0.20566045 -0.01727165  0.12372067 -0.01176446
  0.12530266 -0.00333397]