[-0.10829337  0.11378187  0.06026493 -0.05908626 -0.0923455  -0.02579659
 -0.07302743 -0.13841577  0.10244711 -0.127525    0.22126327 -0.07933468
 -0.25944266 -0.05467019 -0.05356359  0.22044609 -0.16833751 -0.14169763
 -0.02837261 -0.02946791  0.04771527  0.02125526  0.04723502  0.0649152
 -0.12340365 -0.32956517 -0.09264284 -0.03733425 -0.03776361 -0.06986555
 -0.04987615  0.07012501 -0.13199608 -0.00175271  0.03252117  0.13433877
 -0.03798647 -0.10777996  0.22074214 -0.01742739 -0.23703361  0.00889593
  0.09068269  0.29633567  0.19101544  0.0181037  -0.00100128 -0.09849848
  0.11147076 -0.15952036  0.03375224  0.13442343  0.02026848  0.00726476
  0.03911415 -0.13815588  0.02226154  0.13638084 -0.10081214 -0.05567995
  0.05552842 -0.11442124 -0.00597428 -0.10068772  0.22389606  0.06776125
 -0.11629839 -0.11405805  0.12965612 -0.11185864 -0.08114194  0.0253162
 -0.1873607  -0.16888757 -0.31437778  0.0024307   0.36999208  0.10554104
 -0.16100107  0.10076793  0.06616884 -0.00217715  0.16534542  0.20742331
 -0.03052904  0.03769832 -0.11193021  0.03401737  0.20643663 -0.06173339
 -0.05286414  0.18371363 -0.00939611  0.05220303  0.06508612  0.00390363
 -0.07879589  0.01662097 -0.19216491 -0.02449266  0.06755923 -0.02084077
 -0.01893791  0.12996396 -0.13053656  0.06205421  0.03318403  0.01750662
  0.01133612  0.00364854 -0.11194222 -0.07450099  0.12235826 -0.19786941
  0.131301    0.1630296   0.0195511   0.11208668  0.17253539  0.08437917
  0.00345573  0.01143255 -0.19707295 -0.022562    0.14068009  0.00989689
  0.15688282  0.01384824]