[-0.05106434  0.08084174  0.09895857 -0.07101578 -0.07298576 -0.01828027
 -0.11709721 -0.12162956  0.09075808 -0.13117836  0.27485132 -0.05994359
 -0.23235075 -0.08021785 -0.04369682  0.2280753  -0.13267738 -0.13846155
 -0.00220959  0.03277879  0.03516081  0.01321316  0.02952717  0.05341867
 -0.11411545 -0.32832265 -0.11484321  0.00793984 -0.06380416 -0.09793691
 -0.11874596  0.04287901 -0.1707236  -0.01661753  0.07213499  0.12485951
 -0.00125792 -0.11728121  0.18858424  0.02824256 -0.22797397  0.0297193
  0.05734957  0.23141459  0.16957894  0.04182     0.02324567 -0.17386009
  0.12173541 -0.17211926  0.04437449  0.13658492  0.02541911  0.01860522
 -0.0386703  -0.14017245  0.01016894  0.13000596 -0.10691484 -0.0386453
  0.06728029 -0.07112381 -0.00884573 -0.11763649  0.20670858  0.09178959
 -0.13658816 -0.18162973  0.09705799 -0.10689266 -0.08017387  0.03416417
 -0.16795446 -0.18310256 -0.3059797   0.00776001  0.36234543  0.09347913
 -0.20071442  0.06355222 -0.01590235 -0.01438117  0.10391953  0.1689208
 -0.00837752  0.06328224 -0.08884601  0.02392665  0.27237114 -0.05968649
 -0.00245795  0.20587699 -0.03255664  0.11916371  0.04559828  0.04045282
 -0.06521907  0.0519303  -0.1542308  -0.00202824  0.01426335 -0.02060503
  0.01038438  0.15675567 -0.17549884  0.10283116 -0.0042314   0.00363388
  0.04861595  0.01748799 -0.10599262 -0.10772149  0.11097032 -0.22305326
  0.13860439  0.17667779  0.08409344  0.09395751  0.16922148  0.12699847
 -0.00109328 -0.01146876 -0.19896184 -0.01035233  0.10886087 -0.00724947
  0.13028063 -0.00307698]