[-1.47489861e-01  1.58527240e-01  3.18953469e-02 -6.56669810e-02
  1.77100301e-05 -9.87930745e-02 -2.87167728e-02 -6.08266108e-02
  1.34357795e-01 -5.08740544e-03  2.91709244e-01 -3.85340191e-02
 -2.49750525e-01 -1.37639865e-01 -2.07318272e-02  1.35515466e-01
 -2.31538400e-01 -1.10914387e-01 -1.94533151e-02 -8.06692988e-02
  1.03796542e-01 -1.35951804e-03 -1.06395474e-02  7.72778913e-02
 -1.04132555e-01 -2.75630385e-01 -7.16896206e-02 -1.27268687e-01
 -7.48685235e-03 -9.41698477e-02 -5.79279773e-02  5.74622862e-02
 -1.66861311e-01 -5.93408421e-02  3.75443250e-02  2.17949394e-02
  2.78461725e-02 -2.10900791e-02  1.64110824e-01 -1.00065051e-02
 -8.48380253e-02 -5.94171360e-02  5.79658113e-02  2.72168547e-01
  1.70586988e-01  2.89926883e-02 -2.76722405e-02 -1.78942513e-02
  6.15092628e-02 -1.96413726e-01  4.01317589e-02  1.67112887e-01
  1.24941461e-01  5.09671830e-02  1.04529537e-01 -2.03332946e-01
 -3.76823023e-02  6.23620935e-02 -1.36659965e-01  2.13633198e-02
 -3.25000994e-02 -9.88898724e-02 -8.55807438e-02 -1.21907309e-01
  1.92058161e-01  1.02618121e-01 -1.19502857e-01 -1.32949412e-01
  1.56266168e-01 -7.78799504e-02 -7.95694366e-02  4.80349474e-02
 -1.31386638e-01 -1.67645618e-01 -2.50911146e-01  3.81549969e-02
  2.78476864e-01  1.09648369e-01 -2.22676992e-01  7.15242997e-02
 -5.04398122e-02 -5.48437349e-02  4.92726378e-02  3.01083233e-02
 -8.21104199e-02  6.89575896e-02 -1.10003285e-01  2.51359828e-02
  1.24484614e-01 -2.86667347e-02 -3.99199538e-02  1.91758722e-01
 -8.87348950e-02  5.86662181e-02  4.79221605e-02 -3.09195165e-02
 -1.30321896e-02  1.91562790e-02 -1.32203072e-01  1.07658217e-02
  6.52639046e-02 -1.42645672e-01 -7.51655027e-02  7.00677037e-02
 -1.57740757e-01 -2.62710880e-02  6.17853515e-02  2.40446161e-03
 -1.06250226e-01  1.37791010e-02 -1.41568750e-01 -8.02034885e-03
  1.26871735e-01 -2.72404045e-01  2.70771444e-01  1.84430942e-01
  1.32891685e-02  1.27059147e-01  4.68007028e-02  1.27073107e-02
  1.55438324e-02 -8.37110057e-02 -1.13493040e-01 -7.43592307e-02
  9.66048390e-02 -4.78934078e-03  3.55972685e-02  8.93231388e-03]