[-1.55480266e-01  1.64748773e-01  4.28435989e-02 -4.17803489e-02
  1.13279242e-02 -6.75059557e-02 -1.73445176e-02 -4.64691296e-02
  1.49152085e-01  2.00117196e-04  2.95200795e-01 -3.63740698e-02
 -2.49033928e-01 -1.44677296e-01 -2.03219261e-02  1.37875691e-01
 -2.33049348e-01 -1.18672840e-01 -2.25540008e-02 -7.74835870e-02
  1.10090159e-01 -2.00223783e-03 -1.91571768e-02  8.10213089e-02
 -1.11370042e-01 -2.76601821e-01 -6.05962984e-02 -1.49460077e-01
  1.49004336e-03 -1.18068732e-01 -4.68240567e-02  3.38082314e-02
 -1.77571520e-01 -7.13414773e-02  1.35062980e-02  1.83690339e-03
  4.58921306e-02 -1.48907155e-02  1.58446983e-01  6.23910874e-03
 -9.43126529e-02 -5.64474463e-02  4.49836068e-02  2.84322113e-01
  1.70681834e-01  4.35210727e-02 -4.60436083e-02 -1.77330710e-02
  6.00994937e-02 -2.24913880e-01  2.95652449e-02  1.60826653e-01
  1.22264676e-01  4.31377590e-02  9.75095257e-02 -1.87810257e-01
 -5.65741919e-02  4.63785902e-02 -1.47429094e-01  4.08648886e-02
 -2.78751608e-02 -8.49630758e-02 -8.28765854e-02 -1.31980523e-01
  1.95673063e-01  1.00690179e-01 -1.21943235e-01 -1.23296045e-01
  1.56710133e-01 -8.69495198e-02 -7.78291747e-02  5.90480566e-02
 -1.03692390e-01 -1.64462432e-01 -2.54254371e-01  4.46418747e-02
  2.93089867e-01  1.00242533e-01 -2.25811943e-01  5.39199673e-02
 -7.49511346e-02 -5.19292653e-02  3.53704281e-02  2.95197424e-02
 -7.13499412e-02  6.34402856e-02 -9.34709460e-02  9.77444556e-03
  1.29033074e-01 -1.57155730e-02 -1.90567859e-02  2.11573601e-01
 -9.39066559e-02  4.33103405e-02  4.32246104e-02 -2.00440791e-02
 -1.38464319e-02  1.84418056e-02 -1.26777574e-01  9.16985702e-03
  5.14380746e-02 -1.35300711e-01 -5.95717803e-02  6.17524199e-02
 -1.68193176e-01 -2.56310012e-02  5.92626333e-02 -2.89434940e-03
 -7.81933591e-02  2.21004058e-02 -1.50249884e-01 -1.20606665e-02
  1.46359056e-01 -2.79296041e-01  2.59624928e-01  1.85366929e-01
  1.05361864e-02  1.11338191e-01  4.62413393e-02  2.84662191e-02
  2.95159011e-03 -7.68999010e-02 -1.20706692e-01 -7.37910867e-02
  9.38305184e-02 -3.16522270e-02  1.26003688e-02 -7.04341393e-04]