[-0.14070396  0.13717683  0.06207586 -0.08640362 -0.04698713 -0.08262852
 -0.03136932 -0.1108176   0.09996712 -0.02022292  0.26250821 -0.04675199
 -0.21391563 -0.15692155 -0.05446647  0.16167621 -0.21534765 -0.10313145
 -0.0400928  -0.05457173  0.1385974   0.01030513 -0.02103999  0.07660579
 -0.08679382 -0.29634628 -0.08217477 -0.11022145  0.02897918 -0.06361078
 -0.02162963  0.07532469 -0.19699953 -0.07781401  0.00655012  0.07255327
  0.03539562 -0.01368521  0.10029948 -0.00930156 -0.1237279   0.06043443
  0.07992781  0.24856639  0.22332385  0.07329834  0.01088716 -0.02528798
  0.09657355 -0.20097394 -0.00772165  0.12312185  0.13037649  0.03501895
  0.08336719 -0.19377662 -0.04556691  0.07359789 -0.16223502  0.05726891
 -0.02087264 -0.06429659 -0.03979713 -0.10310924  0.17760025  0.10953057
 -0.12471403 -0.12060671  0.16579521 -0.12802617 -0.0806481   0.0399839
 -0.16545795 -0.11313204 -0.27903649  0.02324571  0.31530637  0.08807179
 -0.20290215  0.02501278 -0.02777909  0.01356202  0.0493777   0.03452955
 -0.05512726  0.02342607 -0.09550609  0.01593352  0.16787301 -0.02386592
 -0.02174121  0.23965447 -0.05719435  0.07176216 -0.00033949 -0.02142982
 -0.03344131  0.01085407 -0.14164174 -0.00240744  0.01539949 -0.08970149
 -0.02994039  0.08782394 -0.12388983  0.01082406  0.00907781  0.05533047
 -0.10633609  0.02502739 -0.14089181  0.02725402  0.13956378 -0.18668197
  0.29185367  0.21630056  0.00591078  0.05386673  0.09801997 -0.00376412
  0.01652725 -0.06015475 -0.1183522  -0.07401276  0.10615194 -0.08096695
  0.05727482 -0.00139832]