[-1.18807457e-01  9.55122933e-02  7.64083639e-02 -6.68587685e-02
 -1.10999122e-01 -3.30154449e-02 -6.67499229e-02 -1.22477315e-01
  1.00114718e-01 -1.53346688e-01  2.18902230e-01 -4.59799767e-02
 -2.12841734e-01 -7.73854852e-02 -2.61574984e-02  2.23506525e-01
 -1.59658119e-01 -1.71458989e-01 -5.06811105e-02 -5.02756201e-02
  5.44074066e-02  3.95433679e-02  4.82195579e-02  7.88224265e-02
 -1.58305630e-01 -3.22082520e-01 -5.21005802e-02 -2.44059656e-02
 -4.39233072e-02 -6.43097907e-02 -7.54383430e-02  1.25995502e-01
 -1.33570209e-01  6.58665970e-03  6.21048324e-02  1.48992524e-01
 -2.22997721e-02 -9.61355492e-02  2.13771924e-01  1.98569465e-02
 -2.35433340e-01  9.61398985e-03  5.00231981e-02  3.22655648e-01
  2.23115668e-01 -5.35431318e-02  2.28224508e-03 -8.45895037e-02
  1.66968495e-01 -2.04587415e-01  5.21139754e-03  1.54468685e-01
  3.39152515e-02 -4.82937461e-03  7.34187588e-02 -1.10489897e-01
  3.26495282e-02  1.18561029e-01 -1.12682901e-01 -6.67745322e-02
  4.68848161e-02 -1.46734923e-01 -6.27021817e-03 -1.50314540e-01
  1.80953220e-01  5.33396415e-02 -1.24128699e-01 -1.13853328e-01
  1.27154723e-01 -6.13924861e-02 -6.65054396e-02  2.63284929e-02
 -2.10548952e-01 -1.64172828e-01 -3.21194142e-01 -5.20955015e-04
  3.70414108e-01  1.37281030e-01 -1.65593281e-01  1.00499533e-01
  3.91510054e-02  3.92197073e-03  1.05462573e-01  1.89745113e-01
 -4.34797108e-02  5.12945019e-02 -1.02325521e-01  9.50197577e-02
  1.63804755e-01 -4.99142930e-02 -4.14463095e-02  2.06423044e-01
 -9.20869689e-03  5.69544993e-02  6.09411597e-02  1.22673055e-02
 -1.05029486e-01  2.00457256e-02 -1.87457874e-01 -3.60380131e-04
  3.41791920e-02 -3.94521020e-02  2.91713774e-02  1.47832438e-01
 -1.28637150e-01  7.71813020e-02 -9.33547784e-03  4.24571782e-02
 -1.60285626e-02 -4.97770403e-03 -1.08007208e-01 -5.83475232e-02
  6.23445325e-02 -1.89974755e-01  8.65123197e-02  1.59906566e-01
  3.38316225e-02  1.10693596e-01  1.47530019e-01  4.30154763e-02
 -1.70980245e-02  9.54842567e-03 -1.74382210e-01 -1.27103301e-02
  1.28865167e-01  1.60533339e-02  1.15478352e-01  2.18661614e-02]