[-0.07215054  0.10189247  0.06691801 -0.0869694  -0.11418503  0.01271378
 -0.06781561 -0.14508469  0.08408582 -0.12358874  0.23704468 -0.07044172
 -0.21890955 -0.06467878 -0.081034    0.24583411 -0.12172285 -0.14782178
 -0.03132198  0.00752769  0.03170706  0.03975137  0.03522285  0.08245542
 -0.1585944  -0.33652034 -0.10732182 -0.02159844 -0.05603566 -0.0538684
 -0.05461027  0.0732559  -0.15447803  0.02880166  0.05333836  0.12265085
  0.00453302 -0.10925674  0.17318217  0.04695701 -0.2686384   0.02667497
  0.07976343  0.28586432  0.20628266  0.00455198  0.05286918 -0.12724571
  0.13844727 -0.20677927  0.01050631  0.0939508  -0.01876811 -0.01084062
  0.00697486 -0.10424367  0.015966    0.13686982 -0.10573976 -0.06197811
  0.05022056 -0.05462167 -0.01188607 -0.13510589  0.19443469  0.07731085
 -0.13095191 -0.1367335   0.11964352 -0.16063477 -0.07149842  0.05263717
 -0.17846443 -0.16788828 -0.35554916 -0.00841506  0.43272057  0.16283806
 -0.15736857  0.06778773  0.03261048  0.04593273  0.15118358  0.1843053
 -0.0098346   0.07107084 -0.09877339  0.04345752  0.27359223 -0.0606873
 -0.02481721  0.2289753  -0.00997265  0.09131376  0.02959871  0.04004685
 -0.07124857  0.01087763 -0.15318567  0.0022792  -0.00068066  0.03346685
  0.02670014  0.15998738 -0.16525581  0.12348016 -0.01483465  0.01641043
  0.00788931  0.01425739 -0.07694095 -0.05925451  0.11295614 -0.18243717
  0.06393307  0.16978741  0.02636328  0.0788993   0.17135482  0.07124828
 -0.03374469 -0.0135672  -0.19369176 -0.01837442  0.12178434 -0.06530874
  0.14102468 -0.02209238]