[-0.09306507  0.06201382  0.09253193 -0.05378724 -0.12822931  0.00365208
 -0.11183047 -0.10384468  0.07005274 -0.167524    0.21636772 -0.0532901
 -0.20705576 -0.02916514 -0.04304013  0.19126175 -0.10658097 -0.12562886
 -0.02296385  0.00091622  0.0320074   0.0274999   0.04325832  0.06452057
 -0.10611442 -0.33507413 -0.12903415 -0.00945267 -0.04393635 -0.06942802
 -0.1028088   0.06058914 -0.12469079 -0.00150574  0.05142135  0.12822799
 -0.02272664 -0.1205313   0.19141653  0.04993001 -0.21156688  0.03987153
  0.03391337  0.27654025  0.18144369  0.02727496  0.03762984 -0.14087614
  0.1472251  -0.21205631  0.02958134  0.15442152  0.01230684  0.01099315
  0.0078076  -0.1014585   0.04309949  0.12331312 -0.11442132 -0.02540275
  0.05645132 -0.07058401  0.01758685 -0.1265433   0.2106664   0.12357689
 -0.11561996 -0.15206727  0.11154777 -0.12551291 -0.07968134  0.01856527
 -0.19192229 -0.18116818 -0.28282428  0.02150932  0.39071161  0.15764892
 -0.13799708  0.07853026 -0.01749669 -0.01558401  0.09849667  0.18846063
 -0.04556612  0.03935943 -0.0624317   0.05659664  0.24179418 -0.06033171
 -0.01016516  0.21626447  0.00984076  0.09713074  0.06501924  0.02181783
 -0.08657806  0.01640779 -0.15945096  0.00940214 -0.0040999  -0.04281929
  0.04156202  0.13745201 -0.17471816  0.11051466 -0.04277255 -0.00876514
  0.01883183 -0.00617971 -0.1144912  -0.06005527  0.10669323 -0.20420866
  0.09154668  0.17278419  0.08034863  0.11855236  0.18014367  0.10242716
 -0.00269725 -0.0018895  -0.17139159 -0.01043164  0.10998438  0.00750299
  0.08806206  0.00763176]