[-9.05878022e-02  1.12914898e-01  8.18144307e-02 -6.94872960e-02
 -1.15690015e-01  7.33993202e-03 -3.32126357e-02 -1.25470087e-01
  1.30524606e-01 -1.31582707e-01  2.30990842e-01 -5.42779267e-02
 -2.13093624e-01 -7.36762136e-02  2.57337210e-03  2.11243138e-01
 -1.17123105e-01 -1.64534748e-01 -3.31459381e-02 -4.49589007e-02
  3.47312689e-02  3.95576879e-02  4.89802174e-02  9.41548944e-02
 -1.89560995e-01 -3.05994660e-01 -6.21258579e-02 -1.43281491e-02
 -4.32723463e-02 -8.60225484e-02 -3.39228921e-02  1.29302055e-01
 -1.64514601e-01  2.70892313e-04  4.13002074e-02  1.55617192e-01
 -5.19838221e-02 -1.21262111e-01  1.97068900e-01  2.83298839e-04
 -2.54792899e-01  5.89922210e-03  5.36080860e-02  3.06598216e-01
  2.31416032e-01 -3.46986726e-02  1.18655395e-02 -6.37791306e-02
  1.74712554e-01 -2.32266650e-01  4.25796919e-02  1.22776084e-01
 -1.15510412e-02 -4.06827359e-03  7.54410774e-02 -1.09876409e-01
  2.12024222e-03  1.41382903e-01 -1.23263337e-01 -5.98443411e-02
  3.74583155e-02 -1.04246847e-01  3.02729066e-02 -1.54952496e-01
  1.86186403e-01  6.13879748e-02 -1.14106357e-01 -1.05443917e-01
  1.47354290e-01 -1.02414347e-01 -5.80304265e-02  9.03298482e-02
 -1.95050821e-01 -1.80273190e-01 -3.39749068e-01  4.79331054e-02
  3.94535482e-01  1.44250557e-01 -1.23240091e-01  7.34775588e-02
  7.26411641e-02  1.42164519e-02  8.08764696e-02  1.94453523e-01
 -9.52567160e-03  3.54921222e-02 -9.43100080e-02  7.82385394e-02
  2.24275813e-01 -3.13769840e-02 -6.23773336e-02  2.46076107e-01
 -1.65985264e-02  2.01608129e-02  4.59651388e-02  4.01504003e-02
 -8.64428654e-02  9.10384487e-03 -1.79711282e-01 -3.58012621e-03
  2.83436719e-02 -1.74054205e-02  8.21225252e-03  1.84959218e-01
 -1.46662563e-01  1.17496446e-01 -3.17136757e-02  3.55312303e-02
 -2.49430779e-02 -7.10043777e-03 -9.57258418e-02 -4.52575870e-02
  8.36679637e-02 -2.15169340e-01  7.18251467e-02  1.25121951e-01
  2.20347866e-02  1.02045298e-01  1.10925354e-01  6.42015338e-02
  1.97718828e-03 -7.06328824e-03 -1.66239128e-01 -3.29368263e-02
  1.33157790e-01 -1.26993209e-02  1.21379308e-01  2.99329553e-02]