[-0.07447255  0.06679765  0.09231649 -0.06779524 -0.10247038 -0.03785468
 -0.09754289 -0.12100341  0.07918976 -0.14605066  0.22813368 -0.0702379
 -0.23206067 -0.07640366 -0.04157393  0.22158945 -0.13991776 -0.12838376
 -0.02002411  0.01854057  0.04058968  0.01079126  0.0437681   0.03598147
 -0.1228148  -0.33313924 -0.1239517  -0.02486554 -0.04810548 -0.06979728
 -0.08404899  0.06569811 -0.13147569 -0.01626713  0.06342467  0.12084235
 -0.00145924 -0.12530333  0.20241462  0.01589527 -0.25317618  0.01287551
  0.05681589  0.25114828  0.19268213  0.02654647  0.03874757 -0.13843219
  0.16027737 -0.20197649  0.0112705   0.11604855  0.02366156  0.0065872
 -0.01269976 -0.11503557  0.06141619  0.10958757 -0.14159863 -0.06262603
  0.08629558 -0.10516056 -0.00081165 -0.08584699  0.21578227  0.08024546
 -0.12990932 -0.16007252  0.10664167 -0.14639607 -0.05546815  0.0380577
 -0.17904991 -0.16491131 -0.32242259 -0.01379775  0.38298586  0.11916826
 -0.1499799   0.07477692 -0.01188279  0.00371212  0.12236489  0.19798186
 -0.02161376  0.06094845 -0.09225023  0.02740798  0.256376   -0.09197799
 -0.00708226  0.21358855  0.00425556  0.11142864  0.04300013  0.01669063
 -0.07478481  0.02250919 -0.12698542  0.02674047  0.03072092 -0.01700383
  0.03335897  0.14799517 -0.16351971  0.1054212  -0.0371425   0.01295654
  0.02661991 -0.03257158 -0.08802915 -0.08865622  0.10097366 -0.20196407
  0.08588143  0.1818416   0.05390288  0.09497622  0.16561989  0.09148928
 -0.01239842  0.00098544 -0.19769524 -0.00704825  0.11566764 -0.01464575
  0.12085512 -0.01445736]