[-6.64107129e-02  7.66564012e-02  7.43070021e-02 -7.44705573e-02
 -1.24738671e-01  1.47622107e-02 -6.76828772e-02 -9.72029790e-02
  1.49588928e-01 -1.58889487e-01  2.00295493e-01 -2.77862530e-02
 -2.21723065e-01 -2.40747221e-02 -5.09995036e-02  1.96599305e-01
 -1.24209702e-01 -1.14207007e-01 -3.84642221e-02 -1.71853956e-02
  5.19851223e-02  4.69109677e-02  7.22489282e-02  4.74227965e-02
 -9.40207019e-02 -3.59375060e-01 -1.01006106e-01 -2.33927574e-02
 -2.40218919e-02 -7.87285268e-02 -9.77017954e-02  1.04153149e-01
 -1.31693780e-01 -2.04857765e-03  1.17692696e-02  1.10600591e-01
 -5.93447872e-02 -1.01622894e-01  1.95795700e-01  4.41100784e-02
 -2.25087360e-01  8.58183950e-04  1.02636050e-02  2.90296793e-01
  1.94317684e-01 -5.54393220e-04  2.01348308e-02 -1.05639987e-01
  1.16244473e-01 -2.45366886e-01  6.17739558e-02  1.31543145e-01
 -1.21048959e-02 -1.60483103e-02  6.15183376e-02 -9.96343419e-02
  4.60585579e-03  1.20270550e-01 -1.07891612e-01  5.33769792e-03
  5.24935499e-02 -1.09999441e-01 -1.47622442e-02 -1.36811182e-01
  1.91787109e-01  1.06610969e-01 -1.04199626e-01 -1.14235960e-01
  1.03158474e-01 -1.22083247e-01 -6.21190257e-02  1.81694366e-02
 -1.84372395e-01 -1.93314180e-01 -3.17915559e-01  1.28253642e-02
  4.07497883e-01  1.58923835e-01 -1.35218978e-01  6.74396530e-02
  1.59171429e-02 -1.86004769e-02  1.43762320e-01  1.87314704e-01
 -4.96643186e-02  4.74384651e-02 -9.71148759e-02  8.13674778e-02
  2.02935204e-01 -7.75027797e-02 -5.67699932e-02  2.44054899e-01
 -1.86393112e-02  8.66767392e-02  3.51681001e-02  2.77127381e-02
 -7.11221993e-02  2.42954353e-03 -1.97534516e-01 -1.03714019e-02
  4.64647524e-02 -4.80879582e-02 -7.33139832e-03  1.47813067e-01
 -1.45550162e-01  6.92333132e-02 -2.19996888e-02 -3.89573921e-04
  3.34604084e-02 -2.95239836e-02 -1.46506593e-01 -8.52462947e-02
  1.25135362e-01 -1.71699345e-01  7.04069659e-02  1.79947957e-01
  5.68650477e-02  1.20713547e-01  1.56563789e-01  6.88037127e-02
  7.21239066e-03 -2.34172102e-02 -1.89899236e-01  1.57782231e-02
  1.31300002e-01  3.24170664e-02  7.76603818e-02  1.75469890e-02]