[-0.15459172  0.17965131  0.0408348  -0.05919233  0.00305724 -0.06499672
 -0.02029602 -0.0722857   0.14784394 -0.01179354  0.30643517 -0.0415614
 -0.24579063 -0.14747603 -0.03168976  0.13927059 -0.25456449 -0.11620029
 -0.0211509  -0.07917195  0.10034561  0.00417452 -0.00771228  0.0770356
 -0.08513258 -0.28742006 -0.07027563 -0.14268667 -0.0064253  -0.09600256
 -0.04751815  0.04673523 -0.18351823 -0.06083355  0.01447731 -0.00524261
  0.05060867 -0.00405333  0.15712392 -0.01286274 -0.08038173 -0.0298066
  0.05837265  0.27557409  0.16959599  0.02835149 -0.05227452 -0.01479096
  0.05435985 -0.1822955   0.02787356  0.15792523  0.1518719   0.03114189
  0.07418211 -0.18691912 -0.07378247  0.04174579 -0.13476823  0.0374234
 -0.02084916 -0.10273415 -0.09871861 -0.12169424  0.19632743  0.10563672
 -0.12980448 -0.14296597  0.14658223 -0.07603791 -0.06579869  0.05810473
 -0.11958577 -0.15636683 -0.22511832  0.0437771   0.28660986  0.0831596
 -0.23599608  0.0468418  -0.08785015 -0.05394275  0.02003848  0.0338756
 -0.07889052  0.07127688 -0.10929115  0.02364664  0.12286194 -0.02471918
 -0.03598852  0.23704806 -0.08844572  0.05519656  0.03594996 -0.03454096
 -0.0028379   0.01382162 -0.13784936  0.00369392  0.0415442  -0.13356869
 -0.07951627  0.04837404 -0.15587053 -0.02952448  0.06169054  0.01799621
 -0.0862468   0.01733562 -0.14358051 -0.01869275  0.14738604 -0.27360091
  0.25016516  0.16858837  0.0242818   0.12210508  0.0537375   0.02078301
  0.01400092 -0.09086579 -0.11741815 -0.06743719  0.10817768 -0.02484365
  0.03725856  0.0057714 ]