[-5.84471636e-02  7.65542686e-02  8.12122151e-02 -5.74809574e-02
 -1.34693906e-01 -2.27945065e-03 -8.26890990e-02 -9.04972777e-02
  1.45674005e-01 -1.51860476e-01  1.81603134e-01 -5.16749136e-02
 -2.33715340e-01 -3.98492105e-02 -5.30375801e-02  2.34580278e-01
 -1.41903549e-01 -1.30649045e-01 -1.65083241e-02 -1.74822323e-02
  5.53544424e-02  5.51061146e-02  5.14699481e-02  8.46662968e-02
 -1.26545683e-01 -3.42691094e-01 -8.73230770e-02  2.14119253e-04
 -7.08348453e-02 -9.92989466e-02 -1.11538187e-01  1.29455701e-01
 -1.41516477e-01 -4.87516681e-03  3.65784615e-02  1.42334431e-01
 -3.24996822e-02 -1.26002118e-01  1.71998218e-01  4.61338870e-02
 -2.30057791e-01 -8.31596740e-03  3.12617086e-02  2.90043175e-01
  2.14172706e-01 -7.75617827e-03 -2.74432870e-03 -9.23605189e-02
  1.32138848e-01 -2.46733934e-01  1.91274881e-02  1.40087351e-01
 -2.85894610e-02 -1.05819991e-02  4.13114280e-02 -1.12697557e-01
  1.73170567e-02  1.24116935e-01 -1.14855841e-01 -5.40825911e-02
  4.84565459e-02 -1.43972024e-01 -2.58700922e-04 -1.40442654e-01
  1.99406922e-01  8.78026336e-02 -1.05457917e-01 -1.25870615e-01
  1.08076826e-01 -1.19961143e-01 -6.89573064e-02  5.87284938e-03
 -1.79563761e-01 -1.78900361e-01 -3.35730702e-01  4.02421458e-03
  3.90594870e-01  1.53085038e-01 -1.42274737e-01  1.00553147e-01
  3.21217887e-02 -2.70188204e-03  1.18021503e-01  2.04201609e-01
 -1.70636922e-02  5.73279373e-02 -1.09736018e-01  8.84401724e-02
  1.90872356e-01 -6.49159178e-02 -2.87053827e-02  2.32271418e-01
 -2.16955543e-02  8.00618753e-02  4.95974012e-02  1.28710968e-02
 -8.69567245e-02  3.13329510e-02 -1.83856547e-01  7.25307921e-03
  4.06693518e-02 -2.39338260e-02  1.20388884e-02  1.57791063e-01
 -1.35450527e-01  7.41641745e-02 -2.51295567e-02 -2.13490124e-03
  1.39407618e-02 -3.95076163e-02 -1.41473547e-01 -7.05205873e-02
  1.06048062e-01 -2.00034425e-01  6.68586865e-02  1.53330758e-01
  4.41473648e-02  1.28898636e-01  1.34976581e-01  9.19129476e-02
 -6.59706770e-03 -2.56119911e-02 -1.88455790e-01  8.52460507e-03
  1.39361978e-01  3.74035980e-03  1.00653552e-01  1.65209267e-02]