[-1.03857733e-01  1.24552749e-01  7.72024170e-02 -7.25407004e-02
 -1.18262984e-01 -3.84511473e-03 -5.10742627e-02 -1.24006405e-01
  1.10473834e-01 -1.58396289e-01  2.22025737e-01 -6.56801462e-02
 -2.17737660e-01 -5.79994023e-02 -3.01688761e-02  2.31865272e-01
 -1.50652364e-01 -1.45558789e-01  2.36278889e-03 -3.64994295e-02
  6.87531605e-02  4.70557958e-02  5.40597811e-02  7.94079378e-02
 -1.74510419e-01 -3.02769631e-01 -9.85132903e-02 -3.42683797e-03
 -3.99175808e-02 -9.70311835e-02 -5.88177405e-02  1.08305983e-01
 -1.36350244e-01  1.41999200e-02  2.84368936e-02  1.56357154e-01
 -6.14154413e-02 -1.24011971e-01  2.04821497e-01  2.21266095e-02
 -2.19550610e-01  1.19137915e-03  5.85557781e-02  3.24355066e-01
  2.13863418e-01 -2.55647935e-02  4.55948059e-03 -8.60912502e-02
  1.29680559e-01 -2.30733082e-01  4.21278626e-02  1.30797252e-01
 -2.12198514e-02  1.69223975e-02  5.56922927e-02 -1.05571687e-01
  1.99974608e-02  1.31656393e-01 -1.12714641e-01 -5.33686876e-02
  4.87449765e-02 -1.12274885e-01  3.44107710e-02 -1.25933021e-01
  1.98204398e-01  8.02548677e-02 -1.06859975e-01 -1.13820411e-01
  1.32880673e-01 -1.07400410e-01 -8.49966630e-02  3.63742895e-02
 -1.87584803e-01 -1.73841134e-01 -3.41467857e-01  2.01140437e-02
  3.51598471e-01  1.55431002e-01 -1.16229586e-01  8.79113823e-02
  6.42154887e-02 -2.64629791e-03  1.19099252e-01  2.01940656e-01
 -2.61907969e-02  3.48521806e-02 -1.10874824e-01  9.60235819e-02
  2.03146562e-01 -6.80451542e-02 -5.15857339e-02  2.40703329e-01
 -5.05657494e-03  4.66831364e-02  5.39192930e-02  3.46147381e-02
 -9.73923132e-02  2.18118951e-02 -1.78914964e-01 -7.57182389e-03
  4.98858728e-02 -2.98599899e-02  6.94626896e-03  2.04793006e-01
 -1.43296525e-01  1.02715410e-01 -2.43386216e-02  1.13824904e-02
 -2.32914109e-02 -2.06781868e-02 -1.27314001e-01 -5.05739450e-02
  8.77569392e-02 -1.87375024e-01  7.42091313e-02  1.58442646e-01
  8.66875239e-03  1.04710914e-01  1.55920014e-01  7.41944537e-02
 -1.91680796e-03 -1.45739038e-02 -1.78126514e-01  9.18209553e-05
  1.30209580e-01  1.00347241e-02  1.12250879e-01  3.27367447e-02]