[-1.46276280e-01  1.55270815e-01  9.13549066e-02 -7.19497502e-02
 -5.16644381e-02 -7.11466223e-02 -7.00213462e-02 -1.13362573e-01
  7.56761208e-02  9.72791051e-04  2.59920120e-01 -1.01335302e-01
 -2.07730293e-01 -1.12592578e-01 -7.31230602e-02  1.56277403e-01
 -1.97340101e-01 -1.45045742e-01 -1.73336659e-02 -4.91963662e-02
  1.08937383e-01  1.52932871e-02 -5.87416589e-02  6.54655173e-02
 -1.54706270e-01 -3.07909340e-01 -8.81362930e-02 -1.06089354e-01
 -3.49339694e-02 -4.42031398e-02 -1.10386414e-02  3.41099314e-02
 -1.72300205e-01 -4.78029959e-02  3.34504358e-02  9.58784148e-02
  2.74780523e-02 -2.26437096e-02  1.24399081e-01 -3.06144892e-03
 -1.67493150e-01  9.31046903e-02  1.00419439e-01  2.90275156e-01
  2.35696748e-01  7.03353211e-02  4.41622501e-03 -6.10950552e-02
  1.01189308e-01 -1.86391905e-01  2.59509627e-02  1.66716084e-01
  1.12560980e-01  4.04293761e-02  9.09670815e-02 -1.38201818e-01
 -3.75966169e-02  9.84499231e-02 -1.75108418e-01  3.97211351e-02
  4.31547314e-03 -6.79498836e-02  2.01032870e-02 -1.01196885e-01
  2.08950549e-01  1.14016309e-01 -1.54883981e-01 -9.80952978e-02
  1.55414850e-01 -1.25874817e-01 -1.03129581e-01  1.99499521e-02
 -1.38907060e-01 -1.29762694e-01 -3.29938233e-01  6.29026368e-02
  3.96033973e-01  5.29740229e-02 -2.37628922e-01  5.55368438e-02
  1.07275171e-03 -2.22831964e-02  8.82363543e-02  1.09342217e-01
 -5.12601398e-02  1.06927415e-03 -9.80011821e-02  1.12776084e-04
  2.09513187e-01 -2.17755139e-02 -8.71113036e-03  2.11818457e-01
 -6.22219034e-02  4.62544151e-02  4.29310352e-02  5.26848324e-02
 -8.30531344e-02  1.71646252e-02 -1.03554927e-01  1.02181677e-02
  1.54597731e-02 -7.26464391e-02 -2.41342932e-02  1.11216977e-01
 -1.24828577e-01  3.40671316e-02  1.97746921e-02  2.29983293e-02
 -9.80988517e-02  2.95730662e-02 -7.63242766e-02 -1.39313107e-02
  1.34492293e-01 -2.32709244e-01  2.42157295e-01  1.51838675e-01
 -2.86533181e-02  8.48725215e-02  1.02336265e-01  2.51600351e-02
  8.85499641e-03 -2.22306047e-02 -1.08279131e-01 -7.67081827e-02
  6.08027838e-02 -4.29520085e-02  8.96119401e-02  3.04333474e-02]