[-0.12692349  0.14675997  0.07862725 -0.08169062 -0.03416939 -0.06928045
 -0.02173894 -0.10028905  0.10778451 -0.03416494  0.26792556 -0.02151524
 -0.21507823 -0.16547309 -0.04289228  0.14601751 -0.19933997 -0.10763277
 -0.02002614 -0.05686742  0.16360731  0.0206545  -0.03504665  0.07702621
 -0.11373259 -0.29862532 -0.0817709  -0.10539255  0.01121471 -0.07209312
 -0.01557911  0.09158799 -0.16736749 -0.06479967  0.00420163  0.07562494
  0.04706083  0.00251184  0.08546405 -0.00150215 -0.12425842  0.06339654
  0.07823306  0.2553632   0.22391646  0.06592479  0.01260711 -0.014217
  0.10996788 -0.21771586  0.00053694  0.12505116  0.13066588  0.04927998
  0.08246187 -0.18753226 -0.04710716  0.08153911 -0.19058628  0.07408624
 -0.02804903 -0.08976839 -0.04066635 -0.07549683  0.15435342  0.12260001
 -0.12329276 -0.13003556  0.16462828 -0.14582336 -0.10022141  0.03498508
 -0.17125756 -0.12007179 -0.27125299  0.0442536   0.31531563  0.11461081
 -0.19909829  0.04434917 -0.02830201  0.03045232  0.05670932  0.02962737
 -0.0501437   0.01483129 -0.09379842  0.014872    0.15996088 -0.00456297
 -0.03593033  0.25910094 -0.05389342  0.08910789  0.01737726 -0.02246582
 -0.03157827  0.01488541 -0.1494507  -0.01055579 -0.00046343 -0.0938979
 -0.02032627  0.08517664 -0.13114361  0.03672838  0.00402354  0.06999168
 -0.09241783  0.04212597 -0.14764245  0.02627715  0.13234244 -0.19347334
  0.2893081   0.21339238  0.02105801  0.06810234  0.10911836 -0.00585616
  0.03585102 -0.0795466  -0.10949156 -0.06683417  0.11318135 -0.08504815
  0.05110073 -0.00653906]