[-1.00274518e-01  6.44966438e-02  1.06731750e-01 -7.43414983e-02
 -1.06990412e-01 -3.50828879e-02 -8.87316093e-02 -8.93363506e-02
  9.27759632e-02 -1.32576302e-01  1.94933623e-01 -5.32718785e-02
 -2.30872706e-01 -3.77278700e-02 -3.85959633e-02  2.26928160e-01
 -1.31666556e-01 -1.17641270e-01 -1.34238717e-03 -1.55693144e-02
  4.26038653e-02  2.28054561e-02  4.63250689e-02  9.20386389e-02
 -1.20762326e-01 -3.40331256e-01 -1.17161833e-01 -2.48405500e-03
 -2.76236814e-02 -7.92896673e-02 -7.23909438e-02  7.22148046e-02
 -1.31288618e-01  1.23691438e-02  4.24145535e-02  1.26584649e-01
 -3.27818580e-02 -1.31548956e-01  1.94362506e-01  6.32956848e-02
 -2.36369401e-01 -2.10156143e-02  3.99811231e-02  2.65515089e-01
  2.07683519e-01  6.47617951e-02  3.84377427e-02 -9.58638489e-02
  1.43628016e-01 -2.39485741e-01  1.59564689e-02  1.25457332e-01
 -6.96805259e-03 -2.32041534e-02  3.51679511e-02 -1.30553648e-01
  2.09516287e-02  1.42602324e-01 -1.44545302e-01 -4.75937091e-02
  1.70631297e-02 -1.09952085e-01  9.35937371e-03 -1.14902236e-01
  2.06222773e-01  1.03643313e-01 -1.22932434e-01 -7.59668872e-02
  1.66552067e-01 -1.39092490e-01 -5.08521497e-02  1.31118689e-02
 -1.48276731e-01 -1.83280393e-01 -3.05829227e-01 -5.74621418e-03
  3.80893886e-01  1.62586480e-01 -1.23997666e-01  8.23176503e-02
  3.54483463e-02  1.73144713e-02  1.21706478e-01  1.99302599e-01
 -5.85311763e-02  4.04922627e-02 -7.18665719e-02  2.42764987e-02
  2.02598050e-01 -4.48989570e-02  2.86326162e-03  2.08882734e-01
 -7.53881177e-03  9.67364386e-02  4.63903546e-02  8.35591368e-03
 -9.14202332e-02  4.54772264e-03 -1.51499033e-01 -1.35728782e-02
  1.20785851e-02 -1.47911105e-02  4.32102941e-02  1.39684319e-01
 -1.69639841e-01  8.75600874e-02 -1.38280196e-02 -2.66406890e-02
 -2.82336783e-04  3.51531501e-03 -9.95539725e-02 -6.91271573e-02
  8.63220319e-02 -2.04772025e-01  7.50658661e-02  1.97313860e-01
  1.85624848e-03  1.34858847e-01  1.54982567e-01  9.53760520e-02
 -1.59587455e-03 -3.78874466e-02 -1.56275153e-01 -1.82384308e-02
  1.29385337e-01 -1.83789134e-02  1.18094064e-01 -7.54920393e-03]