[-1.30749807e-01  1.69925198e-01  5.79665713e-02 -6.96011111e-02
  9.11732018e-03 -9.81924087e-02 -1.70698818e-02 -1.03461854e-01
  1.05378620e-01 -9.87182558e-03  2.82731116e-01 -4.92164344e-02
 -2.36380562e-01 -1.68755502e-01 -5.56577444e-02  1.73177570e-01
 -2.26002932e-01 -1.09871052e-01 -1.63285863e-02 -6.18594401e-02
  1.11758165e-01  1.47771211e-02 -4.60954104e-03  6.13864772e-02
 -9.33184326e-02 -2.74399012e-01 -8.97804797e-02 -1.09698825e-01
 -2.51013637e-02 -6.26835153e-02 -3.99901830e-02  5.61869033e-02
 -1.67222723e-01 -5.47362231e-02  3.80929820e-02  1.48444027e-02
  3.63172852e-02 -4.91314661e-03  1.58033267e-01  1.35849509e-02
 -1.17901362e-01 -4.74031636e-04  8.13985467e-02  2.78342336e-01
  2.07705498e-01  6.53036386e-02 -2.05064397e-02 -6.50688261e-02
  8.78344402e-02 -1.65278673e-01  3.41733471e-02  1.40940413e-01
  1.11684918e-01  3.93424109e-02  5.88708036e-02 -1.98831007e-01
 -2.75410712e-02  8.46590921e-02 -1.64091855e-01  1.45489695e-02
 -2.59958114e-02 -1.12822369e-01 -5.55418618e-02 -6.35609850e-02
  2.00373083e-01  9.89628881e-02 -1.24093108e-01 -1.23844661e-01
  1.92798764e-01 -9.38623920e-02 -7.46371970e-02  3.82264443e-02
 -1.43794164e-01 -1.41469464e-01 -2.87828982e-01  2.37714034e-02
  3.15012187e-01  8.31737444e-02 -2.22340092e-01  4.80011404e-02
 -4.93869297e-02 -9.16863512e-03  9.66771320e-02  7.56564364e-02
 -8.45026970e-02  3.63410078e-02 -1.13517120e-01 -8.50996468e-03
  1.54227585e-01 -2.32068207e-02 -6.02772124e-02  2.18182087e-01
 -6.14586137e-02  6.80833459e-02  4.37645130e-02 -2.71009393e-02
 -2.28419062e-02  1.63216926e-02 -1.54422984e-01 -2.47710180e-02
  2.75658127e-02 -1.01241969e-01 -5.72799109e-02  1.09708987e-01
 -1.59174249e-01  1.44152343e-03  6.06740117e-02  1.98718701e-02
 -1.09252594e-01  2.56057829e-05 -9.93222371e-02 -7.53802655e-04
  1.12541631e-01 -2.26874352e-01  2.65563935e-01  1.81658700e-01
  1.98580679e-02  1.10195629e-01  8.38103667e-02  1.28945587e-02
  5.77835552e-03 -1.00559533e-01 -1.29626319e-01 -4.86479551e-02
  1.22102849e-01 -2.37218477e-02  1.03293516e-01  8.82730167e-03]