[-0.09360281  0.08751964  0.08550034 -0.0814964  -0.10075269 -0.03610969
 -0.0870477  -0.11543552  0.10821032 -0.15252905  0.22279611 -0.05619598
 -0.22409773 -0.07896816 -0.06205953  0.21895085 -0.15675418 -0.13217403
 -0.01838087 -0.02753437  0.05998582  0.0508325   0.0468147   0.05989562
 -0.14580014 -0.33652425 -0.08136175 -0.01476844 -0.066257   -0.07305234
 -0.07092654  0.11937539 -0.13382845 -0.00073474  0.05424427  0.14462779
 -0.0239814  -0.10050402  0.19199494  0.02028824 -0.22189136  0.01354429
  0.04953543  0.30336237  0.19756775  0.00131866  0.0102583  -0.10667037
  0.17070037 -0.20665418  0.01287647  0.1377202   0.000563   -0.01103911
  0.05484846 -0.10789844  0.02931213  0.12894    -0.11150902 -0.05752245
  0.04605685 -0.133103   -0.00769419 -0.13400924  0.19291742  0.05836223
 -0.1232029  -0.11002541  0.14000833 -0.08490909 -0.06194644  0.02687941
 -0.1863877  -0.17711638 -0.29783157  0.01671722  0.38117304  0.14062963
 -0.15669085  0.09657549  0.03903837  0.00854904  0.13238527  0.19309315
 -0.02466366  0.05298478 -0.10361484  0.06613878  0.20071928 -0.06317622
 -0.0378071   0.21698304 -0.00739624  0.08521707  0.05766344 -0.00606165
 -0.10248972  0.03447552 -0.18533488  0.00391478  0.0579281  -0.02660676
  0.00925374  0.14814655 -0.11713167  0.09022733 -0.01140023  0.01870878
  0.00804925 -0.01272973 -0.10581726 -0.07263043  0.07977315 -0.19028969
  0.09923109  0.1484375   0.04602085  0.13174513  0.15416598  0.07323324
 -0.00165967 -0.00777973 -0.178901   -0.02792156  0.14287996  0.01161139
  0.12761188 -0.00519521]