[-0.10517293  0.06693199  0.09418021 -0.06252518 -0.10576572  0.00759342
 -0.06850593 -0.11460855  0.12039091 -0.16250269  0.24134384 -0.04294176
 -0.23710549 -0.06026079 -0.01597338  0.21310847 -0.13823837 -0.1423599
 -0.03692399 -0.01780312  0.05298898  0.04314923  0.05196419  0.05566901
 -0.13948336 -0.35638461 -0.08714774 -0.03299702 -0.03933211 -0.06271348
 -0.09974671  0.08579334 -0.12802427 -0.00726099  0.03552672  0.13095652
 -0.01766454 -0.09913754  0.19368021  0.03039761 -0.23196058  0.00599408
  0.05190717  0.28871796  0.19927818  0.01177564  0.01019196 -0.09806443
  0.1305449  -0.21824531  0.04413356  0.13532732  0.01969993 -0.01237808
  0.07993671 -0.12168487  0.0049475   0.10561513 -0.09953009 -0.0175716
  0.05229498 -0.07576529 -0.00212652 -0.14098582  0.18469198  0.06912451
 -0.12694049 -0.09277803  0.10226009 -0.08993467 -0.07830357  0.00165032
 -0.21259899 -0.19385901 -0.32191834  0.00600151  0.3796373   0.13799638
 -0.17835534  0.08110883  0.04837468 -0.00475247  0.14282769  0.18629877
 -0.02018722  0.04936074 -0.09191267  0.0647012   0.18882059 -0.05696384
 -0.02087587  0.23954742 -0.02643721  0.0682314   0.05625719  0.04168385
 -0.08078831  0.01488065 -0.19430575 -0.00719354  0.05685573 -0.03503957
  0.01868464  0.13272326 -0.15450454  0.06859312 -0.00709833  0.02733222
  0.03071718 -0.00119606 -0.14023727 -0.07187045  0.10559386 -0.18034302
  0.08200844  0.18343161  0.02008413  0.10945766  0.16564254  0.07261832
 -0.00134408  0.01487774 -0.18791704 -0.01956285  0.11522613  0.00855976
  0.09733579  0.02340421]