[-0.07540061  0.06233811  0.09329735 -0.07084507 -0.0988391  -0.02904044
 -0.08954395 -0.11552808  0.08298056 -0.15194009  0.23079173 -0.07170337
 -0.23279308 -0.0689164  -0.04440836  0.22326456 -0.13340868 -0.13347799
 -0.02461099  0.02033253  0.04191271  0.01255182  0.03409836  0.03108748
 -0.12646656 -0.3310672  -0.12077896 -0.01991117 -0.04951192 -0.07306307
 -0.08960038  0.06833766 -0.13428681 -0.01113629  0.06099944  0.11767836
 -0.00535106 -0.11907568  0.19937204  0.02141012 -0.25040317  0.01426244
  0.05748541  0.25131649  0.1890512   0.03720738  0.03190808 -0.14212179
  0.15291916 -0.21023171  0.01167257  0.11354899  0.02046041  0.01523932
 -0.00669029 -0.11920901  0.05982105  0.09404079 -0.13558045 -0.06351729
  0.0791475  -0.10232722 -0.00193733 -0.09757353  0.21736518  0.07561824
 -0.12847972 -0.15426128  0.10763373 -0.14229284 -0.06019979  0.03253239
 -0.17298971 -0.16377586 -0.32216141 -0.01030733  0.37990651  0.12581104
 -0.1501444   0.08040353 -0.00411948  0.00078268  0.1228314   0.1919107
 -0.02419594  0.06280916 -0.08520678  0.03064321  0.25429535 -0.09405507
 -0.0044489   0.20720612 -0.00196351  0.11406838  0.04008342  0.01794161
 -0.07474363  0.02825372 -0.12675914  0.02884445  0.03497802 -0.01221245
  0.03632812  0.15134196 -0.1624624   0.11005308 -0.03937139  0.00887625
  0.02664821 -0.02544571 -0.08995364 -0.08337793  0.09340629 -0.20601456
  0.08956709  0.182372    0.04834582  0.09281116  0.16726379  0.09134775
 -0.01271383  0.01076918 -0.20456341 -0.01254098  0.12042098 -0.01368765
  0.11910202 -0.00943613]