[-0.16057518  0.18326028  0.07822271 -0.08989944 -0.02712004 -0.11471146
 -0.05383255 -0.09963798  0.0641323   0.02772978  0.23309462 -0.07635825
 -0.20525351 -0.16710626 -0.07045645  0.15671709 -0.20757718 -0.09176361
 -0.02350061 -0.03062909  0.15897708 -0.00694236  0.00222382  0.0498005
 -0.13340853 -0.30601323 -0.06002752 -0.10580998 -0.06103228 -0.04586969
  0.01277507  0.03714333 -0.18082651 -0.06662399  0.02441092  0.08665142
  0.0189487  -0.01742751  0.12330854 -0.00773054 -0.15667325  0.06057861
  0.09775195  0.27071252  0.24137929  0.0862619   0.01816429 -0.05155341
  0.13040636 -0.19898668  0.00535805  0.1284887   0.09805825  0.02751965
  0.09782886 -0.14418019 -0.00363204  0.09904871 -0.18567942  0.00949653
  0.00178913 -0.04652237 -0.01986812 -0.096767    0.19619091  0.10806167
 -0.16776809 -0.05745007  0.15315305 -0.10499661 -0.06704426  0.03501808
 -0.13621174 -0.15102604 -0.30236849  0.04261434  0.36043781  0.09705504
 -0.21775524 -0.01322254 -0.02525849  0.02455528  0.09315138  0.07590555
 -0.07760477  0.02770172 -0.08910225 -0.00772557  0.17874108 -0.01641572
 -0.04404316  0.23132439 -0.02287906  0.06508509  0.0004561  -0.00836615
 -0.05626875  0.02708541 -0.1425827   0.0133997   0.02135868 -0.09866873
 -0.03116376  0.1106872  -0.13594387  0.00847983  0.03580095  0.03585633
 -0.11176626  0.0250557  -0.11011584  0.00059912  0.09368998 -0.20207465
  0.24777608  0.20227861 -0.00228598  0.07662052  0.11817099 -0.00285876
  0.0277237  -0.04765808 -0.09276605 -0.0713812   0.10228075 -0.02654974
  0.10368677 -0.00561205]