[-0.14212742  0.15629843  0.07302977 -0.12407575 -0.05109189 -0.08080261
 -0.06466463 -0.08715218  0.07243578 -0.00182248  0.21161108 -0.08203788
 -0.21948051 -0.15089647 -0.07662044  0.14399271 -0.2087055  -0.14069514
 -0.00989006 -0.03853241  0.12987877  0.02222058 -0.02172387  0.04056764
 -0.1286902  -0.32998079 -0.07918475 -0.06803036 -0.03333862 -0.03503593
 -0.00504742  0.07233553 -0.16627491 -0.04457801  0.04419671  0.1243422
  0.04970511 -0.01177662  0.11409855  0.03876688 -0.16425341  0.04922062
  0.05549019  0.31745991  0.22874971  0.07578412  0.01559899 -0.05546452
  0.13631985 -0.19111545  0.01804313  0.17453025  0.07918946  0.03133717
  0.06940943 -0.14357369  0.00302979  0.12622187 -0.1901425  -0.00139024
 -0.01494075 -0.09828395  0.01753399 -0.11688194  0.20194657  0.08855953
 -0.1453702  -0.1042796   0.16515018 -0.09344579 -0.0710374   0.02764769
 -0.16489595 -0.1067176  -0.30846149  0.05402185  0.38017368  0.09055736
 -0.19191949  0.03050176 -0.03463047  0.00197754  0.07561103  0.10113305
 -0.08904132  0.05619928 -0.10396061  0.01036784  0.17944893 -0.0262846
 -0.04006653  0.20642798 -0.03856368  0.08445566  0.03905854  0.00681352
 -0.08314367  0.02919463 -0.12581517 -0.01188648  0.01899433 -0.11608236
 -0.00811238  0.1354994  -0.13846381  0.04247877  0.01618724  0.02823065
 -0.1117085   0.00268823 -0.04745406 -0.02159498  0.10971711 -0.21775313
  0.21516378  0.20584197  0.02050899  0.11313155  0.09827222  0.01330762
 -0.00700024 -0.04913973 -0.08533318 -0.0552007   0.08194657 -0.00123297
  0.09696098  0.01325856]