[-0.16551267  0.17929436  0.04802738 -0.08907136 -0.03101148 -0.02974632
 -0.04656358 -0.04256115  0.07883933  0.01624741  0.24064317 -0.08891721
 -0.26392838 -0.08423766 -0.11668066  0.1803835  -0.17632322 -0.11008673
 -0.10786361 -0.09093148  0.09815736  0.05564939 -0.05893558  0.06487697
 -0.11150553 -0.29542118 -0.03186661 -0.09084333 -0.05207221 -0.11987501
 -0.04622979  0.00404326 -0.17675123 -0.03871984  0.04467892  0.06010623
 -0.01492078 -0.05774179  0.14216755  0.04240976 -0.11334804  0.04558438
  0.1178288   0.31400189  0.1864811   0.07063767 -0.03774238 -0.022411
  0.12530404 -0.27266073  0.05881102  0.16447501  0.11194243  0.08131121
  0.12633528 -0.16710967 -0.01291677  0.08978468 -0.15978275  0.01496058
 -0.01703401 -0.07242935 -0.04626255 -0.13609856  0.15564126  0.1355193
 -0.1244562  -0.09841319  0.13371612 -0.09690928 -0.04900147  0.00666965
 -0.09786344 -0.13907504 -0.27445897  0.09673008  0.35377604  0.136785
 -0.18595777  0.02773244 -0.01100623 -0.02999852  0.04899766  0.00301767
 -0.1164012   0.0110376  -0.08199922  0.0414755   0.167897   -0.01822268
 -0.02228923  0.19159441 -0.05642918  0.00106349  0.03413128  0.01460793
 -0.10032407  0.00750605 -0.08667345  0.0340365   0.04648869 -0.14525677
 -0.02599828  0.07413519 -0.16677307  0.01650584  0.01892575 -0.01908867
 -0.09099058  0.04114826 -0.12851085  0.00887734  0.11499212 -0.2288097
  0.25827575  0.17205246 -0.00262065  0.10356443  0.09464857  0.01654165
  0.01849326 -0.02144544 -0.08393206 -0.13762562  0.09550745  0.01429198
  0.05082251  0.02121204]