[-0.06287366  0.09205338  0.06798046 -0.06489508 -0.11172339 -0.00956892
 -0.10505374 -0.12954821  0.06734364 -0.16299404  0.21922496 -0.07348286
 -0.23290026 -0.04535282 -0.03517571  0.19982062 -0.10965563 -0.13855559
 -0.02227196 -0.00109395  0.0479358   0.0192828   0.03805008  0.05597835
 -0.13663851 -0.3014349  -0.11314251  0.00138167 -0.04852534 -0.07426824
 -0.1082136   0.0700989  -0.13233167 -0.00126439  0.03943546  0.13509624
 -0.01395143 -0.12485796  0.19794202  0.03018027 -0.21857718  0.02936814
  0.03803665  0.26328459  0.18183373  0.02037918  0.03871754 -0.13614494
  0.128474   -0.18279655  0.03335733  0.13197429  0.02181897  0.00644708
 -0.01981339 -0.13264666  0.04183645  0.12040245 -0.11103749 -0.04373403
  0.07836811 -0.08990028 -0.01213181 -0.11237662  0.2098937   0.10092161
 -0.11975527 -0.14672105  0.11642229 -0.11093799 -0.09082444  0.01425115
 -0.18462896 -0.16812752 -0.29857895  0.00817844  0.36444888  0.13592517
 -0.16697747  0.07983813  0.01427778  0.00879709  0.13332409  0.1774658
 -0.03769143  0.04033281 -0.10028841  0.05876075  0.2413007  -0.07173878
 -0.03188408  0.20112732  0.00637857  0.10192871  0.05998963  0.03888489
 -0.08153506  0.04027906 -0.14765532  0.0191636   0.06002518 -0.03891516
  0.01597428  0.16255818 -0.15424703  0.12010858 -0.026075    0.01688373
  0.02870065 -0.01445652 -0.11421038 -0.06286463  0.10907049 -0.19572534
  0.08508844  0.16971152  0.05084639  0.10251043  0.19372827  0.10618404
  0.0091322   0.00241478 -0.22600678 -0.02635692  0.1245585   0.00341215
  0.12443288  0.02575467]