[-0.17095228  0.17627588  0.0842647  -0.08593746 -0.03055425 -0.09630477
 -0.05875539 -0.09672075  0.068073    0.00673871  0.2388505  -0.11040529
 -0.20636843 -0.15885732 -0.09255254  0.16570644 -0.21317557 -0.1221404
 -0.01755617 -0.03013357  0.14626394 -0.00670908 -0.02218615  0.03901812
 -0.12417146 -0.30046511 -0.05596764 -0.08760501 -0.03731277 -0.06280927
 -0.00403784  0.0380682  -0.20537944 -0.06476799  0.01973568  0.09922444
  0.01542246 -0.01482286  0.1161968  -0.03394786 -0.16236141  0.06734619
  0.09432295  0.26541582  0.21988903  0.09588394 -0.01147857 -0.08399789
  0.0948868  -0.16929121 -0.00700838  0.15421794  0.08130654  0.03730504
  0.05892612 -0.13692775  0.00268767  0.08599429 -0.16406785  0.01265701
  0.00956076 -0.08891537 -0.01033941 -0.10166363  0.19751282  0.06152672
 -0.15225482 -0.08404732  0.15378718 -0.10375511 -0.06919202  0.04021195
 -0.11039545 -0.14917073 -0.3084642   0.04475012  0.3705146   0.0774563
 -0.20621967  0.04547715 -0.01178785 -0.00414807  0.09552789  0.11437943
 -0.07587519  0.03684507 -0.0915366   0.00641423  0.1836382  -0.02358997
 -0.02861206  0.20592056 -0.03710235  0.06703138  0.01184897 -0.00220411
 -0.04780395  0.04250231 -0.11810813  0.01570565  0.03745704 -0.10148461
 -0.03762823  0.10603195 -0.11651472  0.00999688  0.03817856  0.03558407
 -0.0925736   0.01872107 -0.08247831 -0.01463802  0.09797117 -0.22948769
  0.25172818  0.2033031   0.01379423  0.09148692  0.13698302  0.02597774
  0.03462914 -0.03386613 -0.11300142 -0.06687111  0.10148498 -0.02687201
  0.1209931   0.01397382]