[-0.16525364  0.1776039   0.06813621 -0.08295488 -0.02632649 -0.09794828
 -0.05885609 -0.10429195  0.0713441   0.01964286  0.22581029 -0.09397494
 -0.21566139 -0.15448827 -0.08467778  0.16559207 -0.21294554 -0.1094512
 -0.01831328 -0.02886204  0.15819965  0.00852577 -0.02095208  0.03625548
 -0.13495892 -0.30200991 -0.05485393 -0.10433394 -0.0608824  -0.04043488
  0.00752336  0.05029321 -0.18187857 -0.0582802   0.03893595  0.08519872
  0.02910979 -0.01146868  0.12708367 -0.01652609 -0.15914093  0.06549142
  0.11713316  0.27375722  0.24115293  0.0840302   0.00601741 -0.07160699
  0.11898009 -0.18668082 -0.00161599  0.1389495   0.09391937  0.04021833
  0.08632854 -0.1498823  -0.00937962  0.08504181 -0.1733088   0.01376439
  0.01411819 -0.05392334 -0.02027129 -0.09485029  0.20019396  0.08388294
 -0.16675325 -0.08072324  0.14469829 -0.11401599 -0.08068182  0.03239759
 -0.13482389 -0.14805983 -0.30770457  0.03330632  0.36574122  0.08820404
 -0.22343348  0.02242569 -0.00915302  0.0076437   0.10997295  0.09881919
 -0.06046428  0.02500654 -0.08228509 -0.00887359  0.19702335 -0.01919632
 -0.04235481  0.22263399 -0.02806198  0.05889447  0.00131869 -0.00368724
 -0.04971449  0.02419533 -0.13749471  0.0025345   0.01790944 -0.08047019
 -0.02957749  0.11703022 -0.12576072  0.01438759  0.03541753  0.04522549
 -0.10685301  0.02033693 -0.09407942  0.0047855   0.09526427 -0.20806642
  0.24540754  0.18320756  0.00211242  0.07810002  0.12173159  0.00765104
  0.03462493 -0.02759096 -0.10926656 -0.07484514  0.09804852 -0.02053807
  0.1140187   0.00165214]