[-7.58797601e-02  1.11448169e-01  1.00916408e-01 -5.56258373e-02
 -1.25903592e-01 -1.70127698e-03 -7.83395246e-02 -1.25223517e-01
  8.73596519e-02 -1.30460784e-01  2.15880111e-01 -3.28714587e-02
 -2.21755505e-01 -8.01433250e-02 -3.64032835e-02  1.63135946e-01
 -1.22869805e-01 -1.30732194e-01 -2.38456037e-02 -5.44359200e-02
  8.30181614e-02  3.88729163e-02  8.46328288e-02  4.06121723e-02
 -1.34696707e-01 -3.46662581e-01 -1.06624089e-01 -1.25758490e-02
  1.23398760e-02 -8.39357004e-02 -4.89983670e-02  9.83470604e-02
 -1.26073092e-01  1.92877632e-02  8.42831563e-03  1.19727708e-01
 -5.09859622e-02 -1.10244468e-01  2.30366334e-01 -1.51650254e-02
 -1.93342730e-01 -3.17688286e-02  2.07543802e-02  2.91004598e-01
  1.97067022e-01 -1.10837808e-02  3.57384197e-02 -7.20914155e-02
  1.36709407e-01 -2.43867502e-01  7.61617497e-02  1.62405655e-01
 -2.24292278e-04 -8.15067906e-03  7.17452615e-02 -9.86777544e-02
  6.14274293e-04  1.74669504e-01 -1.18962310e-01  1.11143561e-02
  2.92530954e-02 -1.42195359e-01 -1.80474650e-02 -1.42396271e-01
  1.65353760e-01  1.03634916e-01 -1.03057407e-01 -1.20339550e-01
  1.19567409e-01 -1.19759157e-01 -6.53778836e-02  4.90540899e-02
 -1.87687516e-01 -1.75374076e-01 -3.42328429e-01  1.27380071e-02
  3.90298665e-01  1.62605867e-01 -1.53129622e-01  3.18151228e-02
  3.65202017e-02  8.96599423e-03  1.58408433e-01  1.46740034e-01
 -6.73358738e-02  4.71858075e-03 -1.46387175e-01  8.78847912e-02
  1.94234520e-01 -7.13372156e-02 -7.69868270e-02  2.31830597e-01
  4.48661437e-03  9.61737260e-02  3.38033251e-02  4.40800376e-02
 -7.63149485e-02  6.50140969e-03 -1.80961132e-01  2.27210075e-02
  6.16762899e-02 -3.80212069e-02 -8.18027183e-03  1.64542168e-01
 -1.08270727e-01  7.67170638e-02 -1.54358996e-02  1.51083199e-02
 -3.32467421e-03 -6.23982511e-02 -1.57968685e-01 -7.08857477e-02
  1.26589850e-01 -1.81207687e-01  6.90030158e-02  1.80650219e-01
  1.91330612e-02  1.31539091e-01  1.56997159e-01  7.10743144e-02
 -3.63972795e-04 -6.44986778e-02 -1.77901939e-01  5.43236732e-04
  1.26131818e-01  1.82842556e-02  6.84933290e-02  1.29303336e-02]