[-0.14942233  0.18236427  0.05594376 -0.04082755  0.00434563 -0.0376054
 -0.04335916 -0.07125149  0.1134851  -0.02212668  0.25096345 -0.06407821
 -0.25144112 -0.14897989 -0.06575121  0.16817929 -0.20983295 -0.13721396
 -0.03532692 -0.06360132  0.11429878  0.0282665   0.0013347   0.01818624
 -0.108476   -0.29332557 -0.07913134 -0.08828658 -0.02386335 -0.05992448
 -0.03400238  0.04823591 -0.16698752 -0.0544191   0.05186459  0.02345481
  0.02872261 -0.00060191  0.14669499 -0.02846139 -0.12346397  0.00915438
  0.10946502  0.30845588  0.20091151  0.06689966 -0.05261379 -0.059415
  0.07962137 -0.13224885  0.03577989  0.1731057   0.08891717  0.07831343
  0.06835391 -0.16119589  0.00923028  0.07221291 -0.13759944 -0.01218244
  0.01265971 -0.08760866 -0.042432   -0.07731956  0.18698008  0.0684224
 -0.10890136 -0.19965807  0.13992108 -0.10172384 -0.06843259  0.04640529
 -0.16213824 -0.11362975 -0.29877785  0.01470841  0.32179648  0.07905027
 -0.19104023  0.08239997 -0.02057256 -0.01282803  0.09424348  0.06651197
 -0.10604816  0.05097748 -0.11108775 -0.01123428  0.15468818 -0.00588582
 -0.09208678  0.17903361 -0.03980187  0.01695552  0.08308318 -0.0192325
 -0.03578064  0.0090429  -0.17575364 -0.02730219  0.01448286 -0.11492751
 -0.05402065  0.10597038 -0.13280089  0.02625651  0.05481663  0.06640227
 -0.09266686  0.04553605 -0.13807616 -0.01540375  0.10733291 -0.23961203
  0.22945526  0.15208913  0.05395479  0.09460461  0.12129934  0.05513188
 -0.01893466 -0.01036238 -0.11610246 -0.07373957  0.09785979  0.00621125
  0.12121733  0.03047874]