[-0.10247152  0.11156573  0.10542373 -0.04567964 -0.10199871 -0.03979044
 -0.06593689 -0.12323941  0.1131497  -0.12931022  0.23762444 -0.05501236
 -0.23396261 -0.10599866 -0.02941325  0.21457329 -0.14843448 -0.11932275
 -0.03320801 -0.0199094   0.0931677   0.04015831  0.07841145  0.06653646
 -0.143198   -0.36112043 -0.09924412 -0.0331883  -0.03522937 -0.10190985
 -0.06843435  0.07789723 -0.11969828 -0.019764    0.03483373  0.11992656
 -0.04893469 -0.11851193  0.21042156 -0.01622127 -0.2267047  -0.01265644
  0.05228788  0.28229842  0.19254847  0.0077059   0.01569241 -0.09864321
  0.15376571 -0.20632707  0.04981772  0.13925073 -0.00420871 -0.00568895
  0.08819773 -0.10717602  0.01241462  0.14825878 -0.13991788 -0.03463913
  0.04500458 -0.12760034 -0.02271634 -0.12625492  0.1566072   0.07979665
 -0.10534668 -0.10431761  0.1435504  -0.10078754 -0.05079855  0.02496273
 -0.18944919 -0.1992325  -0.31111464  0.00645991  0.39604142  0.15126561
 -0.16098371  0.06647149  0.05325294 -0.00395924  0.13004649  0.18076019
 -0.03695851  0.0473165  -0.1183053   0.08846096  0.15851472 -0.05961043
 -0.02816567  0.24262543  0.00106007  0.07558598  0.06248287 -0.00338378
 -0.09740002  0.02766234 -0.19373004 -0.00316306  0.07407591 -0.03088245
  0.01370233  0.13328187 -0.11030294  0.08296145  0.01278916  0.01762532
  0.00250574 -0.02382487 -0.13754873 -0.07188248  0.09790929 -0.16829813
  0.09755481  0.15552221  0.03418317  0.12868373  0.14217982  0.08262118
  0.00733133 -0.03470314 -0.18323582 -0.00088212  0.14352803  0.00839925
  0.11625761  0.00207338]