[-0.11134972  0.10952677  0.0599247  -0.05937144 -0.09329669 -0.03073197
 -0.08041083 -0.13833223  0.0871167  -0.12887828  0.22555612 -0.08689883
 -0.25674832 -0.07542739 -0.04376152  0.21954672 -0.16335987 -0.14933451
 -0.01679982 -0.02912816  0.03956374  0.02084273  0.02981038  0.08051139
 -0.12988488 -0.34151372 -0.09569927 -0.03399127 -0.04738183 -0.07473534
 -0.04391009  0.08019053 -0.1324988   0.00047057  0.04051835  0.13817374
 -0.02748118 -0.0988644   0.21443072 -0.00855303 -0.23448272 -0.00541775
  0.08900762  0.3036733   0.19175112  0.01058117  0.00690084 -0.08877957
  0.12669186 -0.16355591  0.02667435  0.14299379  0.00709532  0.00413099
  0.03943673 -0.14077015  0.01705793  0.14541054 -0.10080697 -0.05335134
  0.0435292  -0.12110593 -0.00746172 -0.09870882  0.21412773  0.05992902
 -0.11011165 -0.12312343  0.14470491 -0.10983592 -0.07357492  0.03420094
 -0.19412985 -0.16988873 -0.32236183  0.00992859  0.37669572  0.10732575
 -0.15765078  0.10207474  0.06248645  0.00131512  0.16340256  0.19456556
 -0.0197365   0.03233832 -0.11542081  0.03969746  0.20866354 -0.04688923
 -0.0465944   0.17370312 -0.01752625  0.05542833  0.07680332  0.0055542
 -0.08303202  0.01168554 -0.19094376 -0.0252821   0.05843459 -0.02637476
 -0.01287315  0.1361476  -0.13154459  0.07215738  0.03574469  0.01782713
 -0.00299015  0.01144018 -0.11024573 -0.06798315  0.12093057 -0.19594431
  0.1313438   0.15725707  0.02378034  0.11755633  0.1628083   0.0818762
 -0.01148821 -0.0058908  -0.18567716 -0.02639197  0.13115644  0.01024394
  0.15055349  0.00135463]