[-0.03874985  0.08305869  0.06805693 -0.06171241 -0.10180683  0.00468367
 -0.10345986 -0.11898979  0.08847224 -0.16493665  0.22767508 -0.08077803
 -0.24411359 -0.04637907 -0.0310739   0.23663218 -0.13175945 -0.16607182
 -0.02722839  0.02695078  0.03997104 -0.00851193  0.01081262  0.0578132
 -0.13478255 -0.32186696 -0.0984345  -0.0011054  -0.05586874 -0.07175864
 -0.11146015  0.06959749 -0.13770875 -0.00324497  0.06437267  0.12487012
 -0.00776083 -0.13300805  0.2048382   0.02874002 -0.24683467  0.03103607
  0.05830177  0.24316728  0.17322531  0.02201581  0.04237704 -0.15078627
  0.14084189 -0.20127009  0.02367328  0.13207965  0.05132379  0.01851342
 -0.00431062 -0.15595675  0.04135412  0.12154933 -0.11838622 -0.03770804
  0.06660118 -0.06957976  0.00900173 -0.11236038  0.20903103  0.08953707
 -0.12194973 -0.15052132  0.12210765 -0.10357469 -0.07848919  0.00983146
 -0.17759222 -0.19001876 -0.31021991 -0.0163974   0.35486293  0.13412617
 -0.18976919  0.07440416  0.0281459  -0.0024551   0.1234563   0.1878324
 -0.02497637  0.04100063 -0.08936068  0.0430204   0.25747234 -0.07455253
 -0.00442743  0.20494114 -0.00793807  0.09432716  0.03981572  0.03201569
 -0.08098524  0.04575848 -0.15790351  0.01066799  0.02857137 -0.01061045
  0.02199783  0.15932649 -0.16412382  0.09043045 -0.02959851  0.01107974
  0.0197394   0.00686105 -0.10846194 -0.07538749  0.10563936 -0.19820051
  0.08850621  0.18035762  0.05107564  0.08293062  0.18252806  0.09383997
  0.01991356 -0.00941988 -0.23117915 -0.0180611   0.11783637 -0.00860178
  0.10679778  0.01396355]