[-0.16121146  0.19176206  0.08491337 -0.07101591 -0.0267732  -0.08238923
 -0.058184   -0.09931145  0.08224994  0.00734295  0.26090512 -0.10802551
 -0.20657757 -0.15323624 -0.07550981  0.17715923 -0.21495517 -0.09975204
 -0.02320099 -0.02007597  0.17876486 -0.0019867  -0.00356926  0.04891877
 -0.11772094 -0.3095288  -0.07084429 -0.09086575 -0.00429045 -0.04846469
 -0.04010422  0.00606526 -0.18512081 -0.06344657  0.0243065   0.06879195
  0.02085882 -0.04487258  0.10581663 -0.01732921 -0.16446242  0.08683209
  0.0766032   0.26566529  0.23142305  0.09252816  0.00381384 -0.09754235
  0.08721783 -0.18882652  0.00432361  0.15264253  0.08298039  0.02767038
  0.06328168 -0.15580681 -0.02953629  0.0996507  -0.152467    0.02937952
  0.0081286  -0.04965841 -0.02331164 -0.12212662  0.19715206  0.09790643
 -0.18317829 -0.0958146   0.12222361 -0.10024061 -0.07084536  0.02334023
 -0.13593622 -0.16098098 -0.30445918  0.03731903  0.37552142  0.07527167
 -0.25056204  0.02484804 -0.04446431  0.02582896  0.10124924  0.12366187
 -0.05833859  0.02137936 -0.10224765 -0.02419007  0.18159932 -0.05386813
 -0.02389161  0.25226438 -0.03680597  0.06692613 -0.00835001  0.00964115
 -0.06170724  0.0238584  -0.11983597 -0.01185447  0.02473324 -0.09504405
 -0.05312769  0.10566705 -0.1537579   0.0199389   0.04898417  0.04903614
 -0.06235332  0.00342466 -0.09689849 -0.00956252  0.10517827 -0.22677968
  0.24324532  0.22303355  0.03589896  0.09585547  0.14818585  0.02542964
  0.0438597  -0.02513925 -0.11321135 -0.0523666   0.09034264 -0.03344434
  0.0724043   0.00117293]