[-0.10276721  0.08315786  0.09406443 -0.05631591 -0.10939419 -0.03209237
 -0.06910072 -0.1232721   0.10900138 -0.14254396  0.23260155 -0.05346563
 -0.23207715 -0.08495209 -0.02469896  0.22934817 -0.1469299  -0.12597832
 -0.04629237 -0.02550302  0.06509179  0.04293565  0.05634489  0.05788612
 -0.13405395 -0.34804028 -0.09576159 -0.0161899  -0.03199043 -0.0830676
 -0.08190472  0.10149665 -0.11956438 -0.02138954  0.04911039  0.13288735
 -0.04237055 -0.1232816   0.19344212 -0.00803593 -0.2323577  -0.00536322
  0.06104537  0.28612277  0.20126574 -0.00148675  0.01648252 -0.09561174
  0.15100954 -0.2047296   0.02795436  0.12744667 -0.00621872 -0.00184379
  0.08004864 -0.10700607  0.02050379  0.14011043 -0.11831626 -0.04070793
  0.06085497 -0.13776802 -0.01837715 -0.13737813  0.16795406  0.06259846
 -0.11204091 -0.11748628  0.1377487  -0.09320493 -0.06401829  0.01601692
 -0.19593537 -0.18549185 -0.32955822  0.00174027  0.37641716  0.14546359
 -0.15721385  0.08678224  0.05696283  0.00913709  0.13616313  0.18411969
 -0.02031419  0.04750771 -0.11783624  0.06886644  0.18131021 -0.06046237
 -0.02526255  0.23241301 -0.00551559  0.06067535  0.06300538  0.01914505
 -0.09360291  0.01284221 -0.19465365 -0.00628488  0.07774535 -0.03541621
  0.01903825  0.1430919  -0.11240577  0.08626577 -0.00207768  0.0414083
  0.01379989 -0.02311125 -0.12973377 -0.07048097  0.09357411 -0.17205036
  0.08629868  0.16329828  0.03715264  0.11304766  0.15176742  0.08109654
 -0.0095858  -0.01363754 -0.18760444 -0.01773622  0.13109644  0.01560041
  0.11006188  0.01810226]