[-8.35197270e-02  1.00129150e-01  1.08380735e-01 -6.54671714e-02
 -1.17486298e-01 -1.30558610e-02 -8.39176327e-02 -1.24348059e-01
  1.06484413e-01 -1.55429706e-01  2.06004664e-01 -5.70857823e-02
 -2.31549129e-01 -3.10905874e-02 -3.67976390e-02  1.65364578e-01
 -1.13828875e-01 -1.22224644e-01 -1.55953709e-02 -4.16980237e-02
  8.72578993e-02  4.58371304e-02  7.09014982e-02  4.68150228e-02
 -1.18809357e-01 -3.24559391e-01 -1.13306403e-01 -3.69569962e-03
  1.38775231e-02 -6.47738799e-02 -5.99465482e-02  7.98301846e-02
 -1.19622923e-01  2.17832476e-02  1.42605684e-03  1.13594927e-01
 -5.14063910e-02 -1.23531818e-01  2.25427896e-01  7.26266718e-03
 -2.13974118e-01 -4.65009473e-02  2.54420098e-02  2.73861170e-01
  1.99910969e-01  1.49439729e-03  2.52979752e-02 -9.16143060e-02
  1.11433223e-01 -2.43750647e-01  6.97842464e-02  1.62678212e-01
  9.40857106e-04  5.76969190e-03  7.05129132e-02 -1.29188105e-01
  5.68080787e-03  1.48363546e-01 -1.00648068e-01 -9.30167735e-05
  4.03789543e-02 -1.05333231e-01  7.66111258e-03 -1.29239887e-01
  1.80735067e-01  1.01416446e-01 -1.05927527e-01 -1.06896363e-01
  1.24059342e-01 -1.26075462e-01 -8.20001438e-02  4.13305722e-02
 -1.91369757e-01 -1.78560674e-01 -3.35463375e-01 -3.43737745e-04
  3.74529481e-01  1.58139169e-01 -1.42885715e-01  4.42750677e-02
  3.66889201e-02  8.73287034e-04  1.55880272e-01  1.62814394e-01
 -6.07659891e-02  1.03163151e-02 -1.17666684e-01  6.72516525e-02
  2.01327607e-01 -7.98485652e-02 -6.85117170e-02  2.22582534e-01
  1.76768901e-03  8.26572925e-02  3.08634024e-02  4.76893969e-02
 -7.22560138e-02  2.89136614e-03 -1.88101351e-01  8.59136041e-03
  5.58855236e-02 -3.08479555e-02 -1.10747097e-02  1.73188671e-01
 -1.44759908e-01  8.22655410e-02 -2.32964009e-03 -1.24828210e-02
 -6.75595179e-03 -4.75595333e-02 -1.53080508e-01 -5.70259206e-02
  1.31517798e-01 -1.66588113e-01  7.25619122e-02  1.86466396e-01
  3.24770473e-02  1.31953806e-01  1.64292246e-01  7.52495527e-02
  1.33471629e-02 -4.45420556e-02 -1.70136645e-01 -7.87245389e-03
  1.10368825e-01  2.47959290e-02  6.79427162e-02  2.72396933e-02]