[-0.09459014  0.11164023  0.04410032 -0.07337688 -0.09290599 -0.02166064
 -0.07987361 -0.13302246  0.10347239 -0.15572758  0.25155234 -0.05687172
 -0.22451846 -0.10039889 -0.05893585  0.21221785 -0.18487319 -0.13162683
 -0.01114039 -0.02284803  0.078213    0.02447813  0.0601214   0.05189384
 -0.16434136 -0.31001979 -0.08881811 -0.01487194 -0.028641   -0.09843963
 -0.03798474  0.08461399 -0.1350438   0.00864837  0.0335867   0.12883769
 -0.03450845 -0.10396824  0.2172914   0.00834912 -0.21873997 -0.01371792
  0.07122465  0.30224419  0.19164288 -0.01241091  0.00572445 -0.10569932
  0.15122162 -0.20882307  0.02524931  0.13032664 -0.01194729  0.00160642
  0.04343511 -0.1161558   0.02877424  0.15786499 -0.10120072 -0.03667371
  0.04966876 -0.12795608 -0.00714013 -0.10495868  0.18478535  0.0608633
 -0.10893521 -0.13530807  0.14271571 -0.0965962  -0.08125064  0.04713987
 -0.17027299 -0.17945221 -0.33220425 -0.00341045  0.38527822  0.14059927
 -0.12927179  0.08973266  0.05022699 -0.01357434  0.13418721  0.18907504
 -0.03915999  0.04127207 -0.13003483  0.06314669  0.21065684 -0.05311086
 -0.04950359  0.20949471 -0.00554068  0.06987306  0.06489028  0.00518209
 -0.11022134  0.01975657 -0.18408313 -0.02553393  0.05591686 -0.05091059
 -0.00167748  0.17328589 -0.12262128  0.09972601  0.0004326   0.00981639
  0.00315412 -0.00559601 -0.10177324 -0.06150838  0.08955865 -0.1772709
  0.09923631  0.16135977  0.07361721  0.12215438  0.1761959   0.07984943
 -0.01065163  0.0043302  -0.1855021  -0.01916623  0.09578332  0.00233115
  0.13412629 -0.00102568]