[-0.18172474  0.16586471  0.04192699 -0.06383903 -0.02662281 -0.05072732
 -0.04046458 -0.08211168  0.08962736  0.02220195  0.24140941 -0.07645328
 -0.23217201 -0.15534152 -0.08401167  0.17771102 -0.20491043 -0.13517116
 -0.03493127 -0.06112679  0.13733879 -0.00478522 -0.03558213  0.06402958
 -0.16151528 -0.29337129 -0.05873457 -0.10204382 -0.03999915 -0.07550462
 -0.00680947  0.03301162 -0.19519608 -0.0625745   0.04407492  0.07621694
  0.02935233 -0.03055075  0.12723656 -0.00760762 -0.12253536  0.00851551
  0.14727347  0.28263092  0.18333741  0.06918088 -0.00257521 -0.04593681
  0.1056202  -0.19593966 -0.0058407   0.15129416  0.0815179   0.07482892
  0.09765138 -0.1721646  -0.01562165  0.11081987 -0.15385808  0.02852641
 -0.04865593 -0.03982277 -0.04938442 -0.11968668  0.17858087  0.10602976
 -0.13003536 -0.12131603  0.16098483 -0.09849003 -0.08116716  0.03151849
 -0.13489719 -0.14655915 -0.32610521  0.02297528  0.32514834  0.09572712
 -0.19783477  0.02970325  0.00700718 -0.0095742   0.05429003  0.05599014
 -0.0905611   0.05671529 -0.08500705  0.02078986  0.18336785  0.00385414
 -0.01823981  0.19213665 -0.04437638  0.02803253  0.02389951  0.01973957
 -0.07498793  0.00791809 -0.15016189 -0.01675765  0.04040483 -0.0894398
 -0.0135867   0.11302536 -0.14590548 -0.00920411  0.04242413  0.0119109
 -0.1267942   0.04020361 -0.11991103  0.01559927  0.10908383 -0.20519193
  0.2502051   0.20053537  0.00179827  0.07314551  0.11271133  0.00109854
  0.00248312 -0.02929489 -0.08950273 -0.08342333  0.07962932 -0.04048689
  0.06947496 -0.00279084]