[-0.08822469  0.08682425  0.10223053 -0.06240112 -0.09997293 -0.01546943
 -0.06304902 -0.108789    0.12699512 -0.1506356   0.2438937  -0.04464868
 -0.23940897 -0.07642405 -0.02988946  0.22366345 -0.14960846 -0.1241039
 -0.03558236 -0.01545862  0.0776494   0.06037537  0.06467869  0.05111225
 -0.1402092  -0.35207692 -0.08186419 -0.02439296 -0.02346551 -0.08963955
 -0.07873341  0.09053988 -0.11916327 -0.00774208  0.03830033  0.12462517
 -0.03588605 -0.12107527  0.2151393   0.01483315 -0.24053811 -0.00696858
  0.04240044  0.28856468  0.19191189  0.00310261  0.01248392 -0.1102272
  0.14538595 -0.21107911  0.04542811  0.1274941   0.00452381 -0.0148596
  0.07420839 -0.12538818  0.00286622  0.13134846 -0.12406715 -0.03732691
  0.05249264 -0.11226673 -0.00708109 -0.14221555  0.16279003  0.05441606
 -0.11532655 -0.09958545  0.13805322 -0.0903753  -0.05888326  0.02040909
 -0.19558455 -0.18852447 -0.31543398 -0.00081991  0.38351545  0.13758974
 -0.16163062  0.07012209  0.05714915 -0.00742612  0.13493927  0.19276564
 -0.02070318  0.04199571 -0.10178969  0.07357442  0.17842086 -0.06552944
 -0.02617872  0.2326591  -0.00930838  0.06915894  0.04963739  0.01009836
 -0.09447151  0.03124169 -0.19066358 -0.00116831  0.05660226 -0.03288292
  0.01740444  0.15145014 -0.12917623  0.08473526  0.00588913  0.01373958
  0.02988829 -0.0113894  -0.13080917 -0.08348771  0.10452588 -0.16593306
  0.08345088  0.17022671  0.04115412  0.12116134  0.14939336  0.08836632
  0.00193681 -0.00547547 -0.20780757 -0.00708329  0.12795638  0.00657911
  0.11022127  0.01302727]