[-0.08213224  0.09930467  0.05989335 -0.08095645 -0.10952925 -0.02664055
 -0.07614974 -0.14477019  0.12758844 -0.15173666  0.21333328 -0.05016388
 -0.22176842 -0.08043554 -0.07459622  0.23219638 -0.15961929 -0.14231308
 -0.03248423 -0.01869611  0.04897399  0.04384732  0.05789043  0.07179644
 -0.13964143 -0.34044498 -0.07049879 -0.02333506 -0.09008139 -0.06685399
 -0.05490532  0.10840346 -0.1516854  -0.00336536  0.04012289  0.13968803
 -0.04664537 -0.10260747  0.19021271  0.02086555 -0.23560758  0.02877941
  0.05303517  0.30116299  0.20627248 -0.01594356  0.02429171 -0.12930894
  0.1731806  -0.20247884  0.01125314  0.12753117 -0.00353763 -0.01880611
  0.05204192 -0.09976326  0.02622069  0.13722233 -0.10716712 -0.06528195
  0.07203167 -0.09844218 -0.01996032 -0.13514574  0.20332752  0.07140458
 -0.11464151 -0.12830637  0.13897948 -0.09526788 -0.0683903   0.0384152
 -0.18969415 -0.18814366 -0.29918176  0.0147049   0.38447648  0.13637492
 -0.14579104  0.07535551  0.02787827  0.029115    0.1352213   0.18253581
 -0.00916579  0.03944501 -0.11116552  0.06686231  0.21019085 -0.06457803
 -0.0473121   0.21873951  0.00192129  0.05604286  0.04168568 -0.00752539
 -0.10887212  0.05998539 -0.19969487 -0.00079056  0.05190785  0.00644848
  0.01268342  0.1484887  -0.10938094  0.09448662 -0.02164104  0.02352622
  0.01767433 -0.01941413 -0.1131947  -0.07534259  0.08482909 -0.1786595
  0.10383254  0.12905759  0.05133712  0.11106155  0.14513052  0.07493363
 -0.01165396  0.00066744 -0.20572932 -0.01063489  0.14887063  0.00404951
  0.12945363 -0.01172344]