[-0.13721161  0.19694692  0.07640519 -0.06740971 -0.03865141 -0.03741904
 -0.05691358 -0.10637435  0.1060155  -0.01920236  0.27204528 -0.04520002
 -0.24378152 -0.13877547 -0.04276447  0.15931842 -0.1915839  -0.10414159
 -0.04964162 -0.05355242  0.1108732   0.00201359 -0.00727039  0.06681692
 -0.12133171 -0.28010929 -0.07582197 -0.10278749 -0.06565022 -0.08122187
 -0.0789336   0.08438057 -0.1552925  -0.06390523  0.00989205  0.03819329
  0.03899827 -0.01452764  0.09506936 -0.03493906 -0.12106724  0.04986224
  0.1120894   0.24500091  0.2366623   0.04296868  0.00753279 -0.0618121
  0.106801   -0.17035925  0.03421826  0.13515793  0.12570544  0.05903473
  0.08286235 -0.21700309 -0.03864064  0.05474439 -0.10568191  0.02451793
 -0.01678835 -0.07393592 -0.06258691 -0.08855225  0.16883732  0.13280176
 -0.11663128 -0.15630777  0.12702826 -0.08027709 -0.08938748  0.05083296
 -0.19746213 -0.14637895 -0.29066008  0.03961347  0.32117316  0.09983148
 -0.23846649  0.051196   -0.04561588  0.00405185  0.05329184  0.06520056
 -0.07826725  0.03348302 -0.11191857  0.032986    0.16860843 -0.0313619
 -0.06153535  0.23148756 -0.03260799  0.0617558   0.0365811   0.00648164
 -0.03430759  0.01691986 -0.16868705 -0.01733439  0.03740888 -0.09135639
 -0.06577373  0.08305687 -0.151274    0.01432107  0.04240198  0.07198242
 -0.10074715  0.01108728 -0.12418232  0.02473997  0.12906657 -0.21804468
  0.2320267   0.16587679  0.02868361  0.09040695  0.11740811  0.02733939
  0.0277814  -0.05385513 -0.10057393 -0.05409081  0.13551444 -0.02205996
  0.07578443  0.02946048]