[-1.11120082e-01  8.77595767e-02  8.62409100e-02 -5.64356335e-02
 -1.03298061e-01 -1.28761157e-02 -8.18647519e-02 -1.21448517e-01
  1.06091909e-01 -1.49489507e-01  2.30506226e-01 -5.82009256e-02
 -2.31378794e-01 -7.76788965e-02 -2.94348355e-02  2.21874475e-01
 -1.40299901e-01 -1.55982152e-01 -2.92269643e-02 -1.94492098e-02
  6.80351853e-02  4.04595099e-02  4.68778722e-02  6.15012608e-02
 -1.57578036e-01 -3.39826077e-01 -8.72754753e-02 -2.44988892e-02
 -4.80082780e-02 -6.77669644e-02 -7.75501654e-02  9.56467018e-02
 -1.20420836e-01 -9.16003832e-04  5.60254268e-02  1.35860071e-01
 -1.56609360e-02 -9.29765627e-02  1.95805043e-01  1.42301023e-02
 -2.42192820e-01  1.03908647e-02  5.93787543e-02  3.07257950e-01
  1.98718667e-01 -2.07703793e-03  1.09293973e-02 -9.99981165e-02
  1.43714234e-01 -1.95993751e-01  3.44712287e-02  1.40372112e-01
  1.90633833e-02 -3.75974108e-03  7.73173347e-02 -1.15998425e-01
  1.90237854e-02  1.24727249e-01 -1.04592793e-01 -3.37151103e-02
  5.44857867e-02 -1.13795593e-01 -4.05833591e-03 -1.37906834e-01
  1.81440294e-01  5.41628972e-02 -1.26125783e-01 -1.17045812e-01
  1.21076860e-01 -7.38435909e-02 -7.53784105e-02  2.34392490e-02
 -2.09277377e-01 -1.79038882e-01 -3.33402246e-01  4.57287952e-03
  3.84111732e-01  1.30641565e-01 -1.74031228e-01  9.89801213e-02
  5.55140264e-02  1.36973727e-02  1.25913829e-01  1.89230666e-01
 -2.92565916e-02  5.33092022e-02 -1.04765795e-01  6.57911822e-02
  1.81557715e-01 -5.71768396e-02 -3.34544294e-02  2.17522219e-01
 -1.77349299e-02  6.46980330e-02  6.50339350e-02  3.15785371e-02
 -9.29531455e-02  1.40113030e-02 -1.86576545e-01 -1.61116514e-02
  6.12075217e-02 -3.28863487e-02  2.46346463e-02  1.42640740e-01
 -1.36566356e-01  8.31110328e-02 -9.35031130e-05  4.01018672e-02
  8.52487050e-03  1.19687533e-02 -1.24155343e-01 -6.25878796e-02
  8.83915648e-02 -1.92463577e-01  9.15348157e-02  1.61731914e-01
  3.69079076e-02  1.08396702e-01  1.65319890e-01  7.06855282e-02
 -1.17329424e-02  1.14526246e-02 -1.75046071e-01 -2.35689785e-02
  1.21541739e-01  1.52321681e-02  1.18594006e-01  2.44539939e-02]