[-0.12383118  0.1930342   0.06934234 -0.02553453 -0.01229755 -0.03927509
 -0.02795224 -0.10603821  0.11811226  0.01168285  0.27115983 -0.06535717
 -0.23823813 -0.13527492 -0.04916399  0.16809593 -0.22475265 -0.10074499
 -0.03673163 -0.05270284  0.11902135  0.00489463 -0.01142322  0.06388904
 -0.12204863 -0.25922808 -0.07931562 -0.12470168  0.0222267  -0.05984787
 -0.07895415  0.02554228 -0.17223339 -0.05577582  0.01585576 -0.00968461
  0.01974166 -0.03269937  0.12514955 -0.02812807 -0.10269503  0.00942829
  0.09329513  0.24471541  0.21052597  0.07476862 -0.01737418 -0.05695313
  0.06662422 -0.17967133  0.01712177  0.15237294  0.10298385  0.05325367
  0.07258043 -0.21706255 -0.04493187  0.04832274 -0.13438104  0.030642
 -0.02596363 -0.03889042 -0.06582164 -0.0885446   0.18811746  0.1130689
 -0.10409904 -0.14754806  0.14864404 -0.12271883 -0.07331393  0.02622199
 -0.14817436 -0.1413758  -0.2887702  -0.00840486  0.30736202  0.07678025
 -0.22719379  0.06744551 -0.03688093 -0.01189813  0.08461384  0.04146864
 -0.08775104  0.03921478 -0.10844462 -0.00611423  0.17251262 -0.05335729
 -0.01533412  0.23163645 -0.04898113  0.0273006   0.03160208 -0.03635841
 -0.01335373  0.01464181 -0.14107887 -0.00978993  0.03567318 -0.08696876
 -0.05140558  0.08186615 -0.17547129 -0.00690093  0.07329638  0.04017483
 -0.08015353 -0.00288319 -0.16528176  0.00537734  0.1636229  -0.22757271
  0.24972065  0.17710659  0.01568284  0.07051595  0.09497285  0.0273124
  0.0104343  -0.03875395 -0.12271468 -0.04892874  0.11566533 -0.07965147
  0.04229581  0.01836869]