[-0.11881961  0.17043945  0.05185243 -0.06999     0.0110887  -0.08950721
 -0.01851389 -0.09741735  0.10292196 -0.02234091  0.27636307 -0.05867881
 -0.23888396 -0.15893079 -0.05301911  0.16277964 -0.23803695 -0.10586362
 -0.02203721 -0.04940657  0.11889049  0.01342229 -0.01498758  0.05838594
 -0.10069221 -0.28158021 -0.09378588 -0.10696769 -0.01361363 -0.05291441
 -0.04900543  0.04663813 -0.16215816 -0.05045849  0.03396872  0.00694494
  0.03404846 -0.0193047   0.15208636  0.02050899 -0.12537175  0.00871583
  0.07098027  0.27718088  0.22295956  0.06425047 -0.01848915 -0.0722735
  0.09822839 -0.16927356  0.02888409  0.14718078  0.10872477  0.03563427
  0.07095979 -0.19514896 -0.0300769   0.08761438 -0.16366823  0.00612107
 -0.035144   -0.10572167 -0.04141935 -0.07238884  0.18768738  0.09649947
 -0.11965201 -0.12940517  0.20013587 -0.10979785 -0.07534482  0.03026487
 -0.13826953 -0.13946588 -0.29162896  0.0119284   0.31172377  0.08923938
 -0.21804921  0.06240206 -0.04513601 -0.0182271   0.11187555  0.09101651
 -0.07655201  0.02907448 -0.10675459 -0.01483453  0.16166902 -0.02943458
 -0.05318157  0.21725343 -0.06536512  0.05516538  0.05220954 -0.03762754
 -0.03566898  0.0173994  -0.14481816 -0.01879482  0.02153589 -0.10646959
 -0.06276446  0.11385721 -0.16282131  0.00121386  0.05607414  0.01863349
 -0.097757   -0.01761535 -0.09511582  0.00349964  0.11367563 -0.23677909
  0.2510682   0.17762078  0.0131555   0.10997089  0.08177178  0.01120784
  0.00602936 -0.09030487 -0.14640415 -0.05112474  0.11317205 -0.02442874
  0.0902705  -0.00164768]