[-0.0661789   0.07510824  0.09873853 -0.06701142 -0.10790552 -0.03556731
 -0.09882919 -0.12062275  0.08045384 -0.1385228   0.237987   -0.07992337
 -0.24324778 -0.07059622 -0.03104951  0.22586982 -0.12599689 -0.13346671
 -0.01957363  0.02368361  0.03534333  0.01487475  0.04154521  0.03823317
 -0.10918271 -0.34317806 -0.12571774 -0.01558957 -0.04317511 -0.07811815
 -0.09192842  0.06286156 -0.12573799 -0.02205213  0.0790294   0.1149525
 -0.00192616 -0.12712894  0.20723751  0.01747065 -0.2543951   0.01032803
  0.06413305  0.24499491  0.18974452  0.03575371  0.03295789 -0.15144335
  0.15950985 -0.19745901  0.02319464  0.12362435  0.02242153  0.01111226
 -0.0049411  -0.11618628  0.05195483  0.11296266 -0.14201476 -0.06502391
  0.09172811 -0.10031169 -0.0059246  -0.10456043  0.22004934  0.07925727
 -0.12597241 -0.16095074  0.10564871 -0.13893907 -0.06591793  0.02809011
 -0.17865956 -0.15703808 -0.31754434 -0.0120209   0.3699244   0.11729858
 -0.16209057  0.08276418 -0.00767164  0.00520612  0.11292236  0.18546875
 -0.02522703  0.06083648 -0.08430547  0.01384387  0.25369769 -0.09138983
  0.00570827  0.21684705 -0.00638376  0.11947036  0.05639333  0.01472257
 -0.07679076  0.01166412 -0.13910705  0.00963036  0.02754286 -0.02184849
  0.03937263  0.14617883 -0.18007462  0.10365424 -0.03409133  0.01518214
  0.03594309 -0.02279483 -0.0850177  -0.09451807  0.10565776 -0.20626341
  0.09591286  0.17076106  0.05484724  0.09293809  0.16811648  0.10252642
 -0.01555572 -0.00177747 -0.18705271 -0.00921701  0.12226509 -0.00853302
  0.11655089 -0.0095902 ]