[-1.44637957e-01  1.76609814e-01  4.49827462e-02 -8.16462561e-02
 -2.95886230e-02  1.36271492e-03 -3.80143039e-02 -2.86851134e-02
  9.20053124e-02 -2.46142456e-03  2.36340955e-01 -9.57897902e-02
 -2.73929983e-01 -4.28450964e-02 -1.38773829e-01  1.63590252e-01
 -1.59041539e-01 -9.81208682e-02 -1.32756785e-01 -1.04672633e-01
  9.12159905e-02  5.64733855e-02 -6.17413819e-02  5.52902110e-02
 -1.10869907e-01 -2.76552618e-01 -2.87017357e-02 -6.69909120e-02
 -3.06274798e-02 -1.35328472e-01 -3.48166414e-02  4.68499074e-03
 -1.80091485e-01 -3.76806147e-02  4.57149297e-02  3.93394344e-02
 -2.80684531e-02 -5.84313236e-02  1.47404179e-01  3.21019404e-02
 -1.09228157e-01  5.18746488e-02  1.32021770e-01  3.15138280e-01
  1.84754297e-01  7.33831450e-02 -5.25433831e-02 -3.84756848e-02
  1.37477383e-01 -2.82007247e-01  4.72614579e-02  1.77764237e-01
  1.13389663e-01  1.13295339e-01  1.31314501e-01 -1.61860198e-01
 -1.40159717e-02  8.44980404e-02 -1.03597179e-01  2.81043928e-02
 -9.94320773e-03 -7.24811554e-02 -2.78692003e-02 -1.49408922e-01
  1.41553089e-01  9.30795297e-02 -1.21228032e-01 -1.04458146e-01
  1.29243910e-01 -9.55503806e-02 -3.03579010e-02  3.17703597e-02
 -7.79569149e-02 -1.35544702e-01 -2.33697161e-01  1.06562249e-01
  3.56732339e-01  1.52302250e-01 -1.70789763e-01  3.69464569e-02
 -2.98029222e-02 -3.29338200e-02  2.74096522e-02  2.94577330e-04
 -1.13136411e-01 -9.72797745e-04 -6.84331134e-02  4.00380455e-02
  1.87457711e-01 -3.39371227e-02 -8.62045493e-03  1.95115313e-01
 -5.22801839e-02 -1.01742065e-02  3.24657261e-02  1.82908382e-02
 -1.37791023e-01  1.05993394e-02 -8.30386281e-02  3.14816870e-02
  4.53429744e-02 -1.55474752e-01 -1.53199062e-02  6.20614961e-02
 -1.66892618e-01  4.92573939e-02  4.94034402e-03 -1.07468581e-02
 -5.96160889e-02  5.96068166e-02 -1.17533758e-01  1.00237671e-02
  1.21717587e-01 -2.38454685e-01  2.54028648e-01  1.52703285e-01
  1.88199268e-03  1.03850856e-01  1.02800094e-01  5.41397296e-02
  2.27695312e-02  4.09372849e-03 -5.95836639e-02 -1.58555672e-01
  7.87753537e-02  1.42347412e-02  2.94770692e-02  5.62684564e-03]