[-1.12966716e-01  1.03855945e-01  7.13277161e-02 -5.92774563e-02
 -1.00001849e-01 -3.50681432e-02 -7.40011334e-02 -1.47383496e-01
  9.56526697e-02 -1.52091041e-01  2.45693311e-01 -6.04076460e-02
 -2.24561438e-01 -1.00512110e-01 -3.69927920e-02  2.24867865e-01
 -1.51337177e-01 -1.56074047e-01 -3.07515264e-02 -3.00267432e-02
  7.60332048e-02  3.14599834e-02  5.99332117e-02  7.83132985e-02
 -1.44709527e-01 -3.30870837e-01 -7.53884837e-02 -1.57215148e-02
 -3.67643312e-02 -7.35353529e-02 -6.86648786e-02  1.02341019e-01
 -1.41748846e-01 -1.15257688e-02  5.36061786e-02  1.37466297e-01
 -1.52046354e-02 -9.11829844e-02  2.09760472e-01  1.32086398e-02
 -2.28020892e-01  1.46520082e-02  6.47027642e-02  3.11036885e-01
  2.05094576e-01 -1.76686887e-02  7.23762903e-03 -1.12342969e-01
  1.51605919e-01 -1.96753725e-01  2.40844693e-02  1.41732171e-01
  2.58054025e-02 -1.30262589e-02  6.50043860e-02 -1.26098812e-01
  2.18357090e-02  1.25586212e-01 -1.02593541e-01 -4.07563597e-02
  5.50022237e-02 -1.12000778e-01 -5.75411506e-03 -1.31175488e-01
  1.79288030e-01  5.33736721e-02 -1.20972946e-01 -1.15467601e-01
  1.25016674e-01 -6.94927648e-02 -7.05342442e-02  2.30115727e-02
 -2.04102620e-01 -1.77736267e-01 -3.29425335e-01  4.21623094e-03
  3.82279962e-01  1.32698342e-01 -1.79066077e-01  9.22020227e-02
  4.57369462e-02  1.08176153e-02  1.29848465e-01  1.84345692e-01
 -3.34499441e-02  4.14410122e-02 -1.16883196e-01  7.48788640e-02
  1.73721507e-01 -5.08393049e-02 -4.01587337e-02  2.24771649e-01
 -1.01393601e-02  7.51784667e-02  6.51500374e-02  1.96126606e-02
 -1.09746210e-01  2.75877304e-02 -2.02447221e-01 -1.56075303e-02
  4.26836573e-02 -2.79455818e-02  2.41698697e-02  1.52660951e-01
 -1.28851697e-01  7.95037672e-02  6.30503564e-05  3.67774442e-02
 -2.83059268e-03  7.13329855e-03 -1.21034324e-01 -6.47875294e-02
  6.85663745e-02 -1.75530314e-01  1.02155112e-01  1.62743539e-01
  4.67003919e-02  1.10614195e-01  1.75388128e-01  6.38393983e-02
  1.19234552e-03  9.29415133e-03 -1.73922464e-01 -1.26510607e-02
  1.24113970e-01  4.32056887e-03  1.20623432e-01  1.34204328e-02]