[-0.16152935  0.16710728  0.04028992 -0.05404828 -0.01530542 -0.03405308
 -0.03861888 -0.09219469  0.09537383  0.01691166  0.25631097 -0.07101429
 -0.24521931 -0.14404337 -0.08607971  0.18293023 -0.22108893 -0.12675755
 -0.03601563 -0.03969872  0.13405612  0.01002214 -0.02630385  0.0551033
 -0.13025975 -0.29339507 -0.06165491 -0.10658886 -0.02619733 -0.05912079
 -0.01820618  0.02169653 -0.17764726 -0.0355618   0.05019285  0.03702017
  0.04395353 -0.0282167   0.13275605  0.00405716 -0.13156854  0.02693888
  0.13512345  0.26868725  0.18773396  0.08400865 -0.01995528 -0.07093627
  0.08756708 -0.19976263  0.00567926  0.15972541  0.08755598  0.05910886
  0.08947718 -0.17812161 -0.0202974   0.07802662 -0.15368505  0.02743358
 -0.03506216 -0.03597854 -0.04529021 -0.10814165  0.18220904  0.10220995
 -0.14022122 -0.13019226  0.13607585 -0.10796552 -0.08986838  0.02698358
 -0.1383186  -0.14774583 -0.31537813  0.02211241  0.33663198  0.0855285
 -0.20869558  0.04640719 -0.00200248 -0.0193499   0.06920443  0.07215839
 -0.08416948  0.02454082 -0.08470423 -0.00110532  0.18317865 -0.01876797
 -0.0173548   0.21178928 -0.05939091  0.02975437  0.01075753  0.01712297
 -0.05222124  0.01415835 -0.12742254 -0.01939705  0.03538848 -0.07918741
 -0.01852159  0.10360749 -0.16496858 -0.01989162  0.03944923  0.00647849
 -0.08402169  0.0308631  -0.11945162  0.00852312  0.11220739 -0.22304563
  0.26760852  0.19457796  0.01721228  0.0655232   0.10690596  0.01384399
  0.0105364  -0.02053631 -0.09872147 -0.08394038  0.0830998  -0.04668691
  0.05823162 -0.0070779 ]