[-0.06548288  0.08290686  0.09788992 -0.08622804 -0.11957718  0.00222845
 -0.08450463 -0.10478433  0.05801603 -0.13248526  0.19299404 -0.07033601
 -0.23888902 -0.00794613 -0.0387604   0.22510774 -0.12534349 -0.12322962
 -0.04308205 -0.01674612  0.02560752  0.04134357  0.02515388  0.05854529
 -0.1448556  -0.32086265 -0.1083048  -0.00100096 -0.04934293 -0.05252291
 -0.09256694  0.07948793 -0.12730402  0.03060264  0.04775523  0.11414607
 -0.02455913 -0.14575122  0.18531005  0.06342053 -0.2345109   0.00724316
  0.03929417  0.26495448  0.19442113  0.02127859  0.05123842 -0.08794972
  0.13126473 -0.22108348  0.0021651   0.12441643 -0.02442922  0.00401735
 -0.00080135 -0.13278811  0.03202762  0.1378987  -0.11605328 -0.05933537
  0.04239356 -0.10649951 -0.00242383 -0.12664731  0.20190874  0.09196761
 -0.13265695 -0.10751839  0.12258752 -0.11205452 -0.05554912  0.0061125
 -0.18189035 -0.16662531 -0.30086026  0.00071853  0.38514501  0.15127768
 -0.15176021  0.06189493  0.0110181   0.02572702  0.14700501  0.17920893
 -0.02942172  0.04860549 -0.08852518  0.04826584  0.23950158 -0.07562138
 -0.01280568  0.22075441 -0.00422482  0.08680546  0.03404542  0.03614308
 -0.08668483  0.01075816 -0.1290897   0.016043    0.03828843 -0.02293714
  0.02188878  0.16045225 -0.16395423  0.11355302 -0.01522784  0.01216462
  0.0091397  -0.0201161  -0.09691043 -0.06360576  0.1108942  -0.19386779
  0.04734594  0.19926319  0.00066593  0.10487324  0.16745564  0.07806858
 -0.01753346 -0.01644668 -0.20509842 -0.0275026   0.1346706  -0.00189089
  0.10278008  0.00414729]