[-0.06802382  0.0916778   0.07574525 -0.06774767 -0.11499077 -0.01294984
 -0.10591388 -0.12437772  0.06155533 -0.15890031  0.22063433 -0.07964499
 -0.23606022 -0.04032306 -0.03728649  0.20147939 -0.11322709 -0.14174846
 -0.01940225  0.00664531  0.04657913  0.01313024  0.02972686  0.05470765
 -0.13409522 -0.3020283  -0.11460676 -0.00181408 -0.05141841 -0.06895354
 -0.10692706  0.06444941 -0.13522831 -0.00412181  0.0441449   0.13790098
 -0.01188721 -0.12799697  0.19611441  0.02794948 -0.22345431  0.03664184
  0.0428487   0.25856429  0.17956717  0.02504185  0.03891364 -0.14053473
  0.12994324 -0.18276021  0.03479869  0.13616574  0.03059777  0.00761123
 -0.02517147 -0.13357292  0.05226208  0.11934296 -0.12303384 -0.04484215
  0.08640271 -0.0883259  -0.00878145 -0.10961884  0.20490764  0.09830716
 -0.12139577 -0.14741094  0.11650296 -0.11391433 -0.08663081  0.01350011
 -0.18106495 -0.17164975 -0.29543927  0.00960747  0.36705291  0.13956924
 -0.16538951  0.085415    0.0086664   0.00459494  0.12534708  0.17755251
 -0.03882506  0.04182945 -0.09982508  0.05510611  0.24089189 -0.07115232
 -0.01949509  0.20382586  0.00849464  0.09776401  0.06027042  0.03790864
 -0.08226761  0.03915016 -0.14170955  0.01864902  0.05258989 -0.0446316
  0.01622388  0.15531601 -0.16558592  0.11832148 -0.02891158  0.01478098
  0.02530748 -0.01759369 -0.10711666 -0.06216836  0.11035895 -0.1999632
  0.08275222  0.17184626  0.05174464  0.10343051  0.19911702  0.10492101
  0.01094666 -0.0039579  -0.22738078 -0.02909298  0.1219785   0.00214506
  0.12712939  0.02879938]