[-1.27379060e-01  1.70056403e-01  5.38713410e-02 -7.74762854e-02
  1.10615613e-02 -8.75417963e-02 -1.03340438e-02 -8.92172158e-02
  1.11162640e-01 -1.34079549e-02  2.75833994e-01 -7.27824494e-02
 -2.40702197e-01 -1.43280730e-01 -6.25888929e-02  1.62105829e-01
 -2.41965637e-01 -1.01457976e-01 -2.15867851e-02 -5.89492209e-02
  1.18291155e-01  1.02986358e-02 -2.87666209e-02  6.97084069e-02
 -9.49063301e-02 -2.81057358e-01 -8.47096741e-02 -1.20337509e-01
 -3.32652517e-02 -5.46491407e-02 -3.91707644e-02  4.92141806e-02
 -1.64217785e-01 -5.30578792e-02  3.14284377e-02  1.76609773e-02
  2.89210957e-02 -1.51107563e-02  1.46344557e-01  1.85112916e-02
 -9.85202119e-02 -8.73882789e-03  6.77606016e-02  2.87123829e-01
  2.00053796e-01  5.68793416e-02 -2.47936863e-02 -5.49685620e-02
  9.41128656e-02 -1.88350230e-01  1.46133052e-02  1.52646258e-01
  1.19615100e-01  5.32261431e-02  6.95686787e-02 -1.82425886e-01
 -2.00767405e-02  8.35658312e-02 -1.74540237e-01  1.54194804e-02
 -3.19938213e-02 -9.93113741e-02 -5.49259894e-02 -8.23124945e-02
  2.02823788e-01  1.10487394e-01 -1.31449029e-01 -1.10893965e-01
  1.87572867e-01 -9.54608172e-02 -7.32255876e-02  2.52846722e-02
 -1.39474645e-01 -1.51310116e-01 -2.69037813e-01  2.29819603e-02
  3.17701817e-01  9.53034610e-02 -2.28284717e-01  3.63634713e-02
 -5.88457845e-02 -1.45806940e-02  1.01729967e-01  6.45332262e-02
 -7.87800476e-02  4.02440652e-02 -1.03690624e-01  3.36584984e-03
  1.50368497e-01 -3.49230506e-02 -5.32477796e-02  2.14169577e-01
 -6.84998408e-02  5.11835292e-02  4.35284600e-02 -3.56412418e-02
 -2.38584317e-02  1.95151288e-02 -1.49862334e-01 -9.97166801e-03
  3.07865776e-02 -1.10071175e-01 -6.55016825e-02  9.40307081e-02
 -1.61041036e-01  3.26729356e-03  6.19764142e-02  6.81498228e-03
 -1.08565949e-01 -1.53097576e-02 -1.12614349e-01  1.11258347e-02
  1.32721633e-01 -2.35669896e-01  2.55406946e-01  1.78100124e-01
  5.46855619e-03  1.13563478e-01  6.13396131e-02  4.73702280e-03
  5.66914678e-05 -1.02190293e-01 -1.29902318e-01 -6.01294301e-02
  1.17380857e-01 -1.21714165e-02  7.96282813e-02 -1.32057285e-02]