[-0.10735051  0.14997636  0.07330433 -0.06980432 -0.0334181  -0.02940497
 -0.02530197 -0.1066025   0.1385576  -0.01963787  0.28066179 -0.05124769
 -0.20105056 -0.16758275 -0.01186433  0.16413805 -0.20948692 -0.11685397
 -0.01653558 -0.04876551  0.13093056 -0.00197781  0.00414928  0.04739162
 -0.10729619 -0.32699046 -0.11231246 -0.11509402  0.03499871 -0.07772575
 -0.03736294  0.06714017 -0.17389551 -0.08219811  0.02312626  0.02855865
  0.01943772 -0.03298631  0.13960084 -0.01438771 -0.14368968  0.07515281
  0.06361008  0.26874673  0.20312281  0.05178298  0.01021702 -0.03961454
  0.08454072 -0.13699359  0.00998037  0.14411534  0.10692096  0.02821452
  0.06729969 -0.15301687 -0.05349457  0.06160144 -0.15599088  0.04403497
  0.01376313 -0.09334863 -0.05274218 -0.11270779  0.16544537  0.0955509
 -0.10960584 -0.17771207  0.13509779 -0.09140258 -0.07443454  0.04494944
 -0.19683121 -0.12571433 -0.2685909   0.02812951  0.32704845  0.06012431
 -0.22993174  0.05036406 -0.03040588  0.00668372  0.06915897  0.08859935
 -0.02987541  0.04919176 -0.08952623  0.00515387  0.16257074 -0.0485643
 -0.04165454  0.23232313 -0.05851837  0.06653021  0.02582377 -0.02436216
 -0.02731729  0.01842856 -0.16137499 -0.02322109  0.0134197  -0.07558326
 -0.03827389  0.08695749 -0.1415932   0.04363689  0.03784616  0.05572038
 -0.08715578  0.01746158 -0.13001893  0.00363383  0.14326181 -0.22384599
  0.24471135  0.20225297  0.03220023  0.06703739  0.10169076  0.02253488
  0.00632481 -0.03288579 -0.13762084 -0.04552767  0.10206278 -0.03830067
  0.06372268 -0.00319087]