[-0.14489953  0.17109391  0.05178139 -0.04519604  0.0145932  -0.06704833
 -0.01873491 -0.05789056  0.14156668 -0.00307662  0.30627987 -0.0466885
 -0.24434812 -0.15121244 -0.02013833  0.14048201 -0.23697758 -0.12177694
 -0.0239676  -0.07172523  0.10969403  0.00846322 -0.02432839  0.07406326
 -0.10311889 -0.28258836 -0.05931577 -0.15348536  0.01294742 -0.10101018
 -0.05007205  0.04008272 -0.17847714 -0.05948075  0.00936341  0.0005967
  0.05505229 -0.01304395  0.15176749  0.00239704 -0.0966075  -0.04888209
  0.04333329  0.27803928  0.17696224  0.03274389 -0.04195907 -0.00890366
  0.04718604 -0.20790482  0.02387466  0.16184793  0.13186415  0.03791701
  0.08870115 -0.19051552 -0.06520542  0.03840778 -0.14554738  0.03273129
 -0.02732432 -0.08225404 -0.09055005 -0.12501924  0.19906823  0.09341085
 -0.12302174 -0.12187751  0.15738292 -0.087056   -0.07180079  0.05431619
 -0.12347187 -0.15015005 -0.24982162  0.04595625  0.29529548  0.08201334
 -0.2332584   0.06125302 -0.06883493 -0.04537842  0.03698329  0.03094049
 -0.06792945  0.06686379 -0.09676438  0.01334282  0.12357848 -0.02483938
 -0.01563309  0.21372502 -0.10009807  0.03671975  0.04243234 -0.03090548
  0.00498365  0.00999954 -0.12024518  0.00797758  0.05036834 -0.13529836
 -0.07009808  0.0635609  -0.16590415 -0.0333767   0.06277176  0.00493981
 -0.06890603  0.02106339 -0.1388766  -0.02337869  0.15341859 -0.2648184
  0.24990916  0.1814037   0.006357    0.10585314  0.04161076  0.03340485
 -0.00044852 -0.07237814 -0.1250973  -0.07110082  0.09471663 -0.03454821
  0.01098128 -0.00217056]