[-7.39615485e-02  8.46527889e-02  6.58975765e-02 -8.45826268e-02
 -1.46550670e-01  5.15720388e-03 -7.66355321e-02 -9.22254845e-02
  1.36368886e-01 -1.43539980e-01  1.88915402e-01 -3.54570523e-02
 -2.09710672e-01 -2.55152415e-02 -5.62372319e-02  1.98096603e-01
 -1.28344417e-01 -1.21854141e-01 -3.09081711e-02 -2.76934206e-02
  4.95489798e-02  3.77945825e-02  7.20241889e-02  7.43713751e-02
 -9.84721333e-02 -3.52578282e-01 -9.37564448e-02 -4.35469626e-03
 -3.91341820e-02 -1.04863003e-01 -8.27345252e-02  1.13401249e-01
 -1.42177626e-01  7.10231951e-03  1.41647952e-02  1.13920502e-01
 -6.79652616e-02 -1.06752895e-01  2.01751873e-01  3.52592543e-02
 -2.15444759e-01 -1.31410183e-02  3.51302512e-02  2.95810282e-01
  2.08565578e-01 -1.36056868e-02  2.12201867e-02 -9.44684148e-02
  1.41326174e-01 -2.52024412e-01  5.66531010e-02  1.43687189e-01
 -2.16410812e-02 -1.24796918e-02  6.28781244e-02 -8.04680064e-02
  6.95727253e-03  1.45469546e-01 -1.02926590e-01 -2.06108182e-03
  4.83177118e-02 -1.23457864e-01 -1.71561688e-02 -1.46453455e-01
  2.02478558e-01  1.05597153e-01 -1.00935720e-01 -1.16959453e-01
  1.24364011e-01 -1.11467443e-01 -7.71964937e-02  1.62587184e-02
 -1.74006864e-01 -1.88897535e-01 -3.32382530e-01  1.50734829e-02
  4.01018053e-01  1.69895187e-01 -1.22287147e-01  8.54229480e-02
  8.56821891e-03 -1.36196120e-02  1.12843990e-01  1.78563461e-01
 -6.66196123e-02  5.22092357e-02 -1.08134761e-01  9.66786593e-02
  2.03385159e-01 -5.89616559e-02 -5.19220047e-02  2.39013419e-01
  1.38822943e-05  8.35291743e-02  4.55942862e-02  3.11261546e-02
 -8.16228092e-02 -6.29400928e-03 -2.13307247e-01 -1.00780446e-02
  3.29519771e-02 -4.49071489e-02  4.30653250e-04  1.60271198e-01
 -1.45928487e-01  8.01427290e-02 -1.96977165e-02 -2.64175050e-03
  1.35446084e-03 -2.17495654e-02 -1.39196441e-01 -7.99790844e-02
  9.86694545e-02 -1.86196789e-01  5.80886491e-02  1.56854182e-01
  7.18407407e-02  1.28915355e-01  1.50069878e-01  6.97987005e-02
  5.04217623e-03 -4.14266102e-02 -1.63684353e-01  1.43627143e-02
  1.33011565e-01  4.37297337e-02  8.17191452e-02  3.71489115e-02]