[-8.40266570e-02  1.14136629e-01  9.60862935e-02 -5.71515076e-02
 -1.37269303e-01 -1.66788958e-02 -8.12832639e-02 -1.40798867e-01
  9.39046219e-02 -1.42110452e-01  2.07540825e-01 -4.76088710e-02
 -2.20636770e-01 -6.58970699e-02 -4.18730490e-02  1.73454747e-01
 -1.25236690e-01 -1.40094832e-01 -1.73668656e-02 -5.59201054e-02
  8.12176615e-02  5.06960526e-02  7.64027610e-02  5.61837666e-02
 -1.29842326e-01 -3.37087601e-01 -1.01168774e-01 -5.22726495e-03
  1.26875369e-02 -7.18426257e-02 -4.04124632e-02  9.78422835e-02
 -1.38238385e-01  1.78344827e-02  1.45122530e-02  1.26227021e-01
 -3.86375301e-02 -1.12192333e-01  2.23821625e-01 -4.58569312e-03
 -2.21081495e-01 -3.22033465e-02  2.90419757e-02  2.88675457e-01
  2.03971907e-01 -1.45322112e-02  2.40307599e-02 -8.72223973e-02
  1.46317363e-01 -2.30913356e-01  5.58479503e-02  1.60694703e-01
 -7.94633105e-03 -1.83821432e-02  7.13812560e-02 -1.08805515e-01
  1.34324550e-03  1.71110436e-01 -1.13461234e-01 -1.52834272e-02
  3.43619995e-02 -1.31861895e-01  2.68206233e-03 -1.45083398e-01
  1.82548136e-01  8.30772296e-02 -1.00982867e-01 -1.17236890e-01
  1.30037099e-01 -1.23607956e-01 -6.62108511e-02  6.85980469e-02
 -1.89713717e-01 -1.67048842e-01 -3.51275206e-01  1.28339222e-02
  3.98138463e-01  1.50650531e-01 -1.36990950e-01  4.39495444e-02
  4.96808663e-02  1.38178682e-02  1.56204611e-01  1.73599288e-01
 -5.34114428e-02  1.18996566e-02 -1.34780452e-01  8.08075666e-02
  1.98341087e-01 -6.76967055e-02 -7.26186410e-02  2.31390148e-01
  1.68105224e-04  9.53143910e-02  3.24805379e-02  4.17859852e-02
 -8.82790685e-02  1.02355040e-03 -1.81197673e-01  1.17570534e-02
  5.05125783e-02 -1.17526660e-02 -1.43627974e-03  1.79839045e-01
 -1.06949523e-01  6.51781783e-02 -2.26758905e-02  8.17808788e-03
 -1.65769551e-02 -5.83776720e-02 -1.30760431e-01 -7.28110448e-02
  1.12268887e-01 -1.78425819e-01  6.67307526e-02  1.64748847e-01
  1.39967874e-02  1.25368848e-01  1.46826804e-01  6.59456775e-02
 -4.69094096e-03 -5.49510606e-02 -1.72875315e-01  3.23077454e-03
  1.30365446e-01  7.78965696e-05  7.96472281e-02  2.92583718e-03]