[-1.16307139e-01  1.36293828e-01  7.12011829e-02 -8.81921872e-02
 -2.88969334e-02 -3.91896106e-02 -3.15242149e-02 -9.10152569e-02
  1.24020651e-01 -2.43426841e-02  2.73785323e-01 -4.20097820e-02
 -2.09692121e-01 -1.78553984e-01 -1.04239771e-04  1.56928807e-01
 -2.06638649e-01 -1.00153349e-01 -2.07518227e-02 -6.55338392e-02
  1.41023681e-01 -5.18509513e-03  1.05343303e-02  7.11183622e-02
 -1.38196290e-01 -3.17943543e-01 -9.77391601e-02 -1.23941146e-01
  1.69141795e-02 -9.89733338e-02 -1.67476535e-02  8.04443508e-02
 -1.59851879e-01 -6.70449436e-02  6.90896157e-03  5.19276932e-02
  3.63184139e-02 -2.89866664e-02  1.30309507e-01 -2.09950153e-02
 -1.37980580e-01  6.67014346e-02  6.88561574e-02  2.57643074e-01
  2.18293786e-01  4.65201996e-02  3.57694179e-03  4.28895885e-03
  1.19191587e-01 -1.68311387e-01  5.22491056e-03  1.14305094e-01
  1.21293545e-01  1.87742840e-02  8.35469291e-02 -1.64335340e-01
 -5.44283688e-02  8.10892805e-02 -1.84299648e-01  5.42605706e-02
 -2.54976489e-02 -1.01776697e-01 -5.49854822e-02 -1.05515502e-01
  1.50121570e-01  1.13962926e-01 -1.22747891e-01 -1.44721016e-01
  1.54887587e-01 -9.44278762e-02 -6.28063828e-02  4.38178778e-02
 -1.97405070e-01 -1.31495893e-01 -2.60895371e-01  3.27511542e-02
  3.06597322e-01  8.22752714e-02 -2.25350887e-01  4.21124063e-02
 -1.08169755e-02  1.47259403e-02  3.77514251e-02  6.35317191e-02
 -4.61721718e-02  4.44502831e-02 -8.06315765e-02  2.01586336e-02
  1.44140482e-01 -2.55492013e-02 -4.35229130e-02  2.52925396e-01
 -6.05171621e-02  8.47131237e-02  2.80855745e-02 -3.53664272e-02
 -4.01587896e-02  1.08588142e-02 -1.66411206e-01 -1.28776906e-02
  1.79546382e-02 -9.93843824e-02 -2.42729392e-02  7.40623772e-02
 -1.35044903e-01  5.27282245e-02  3.18425000e-02  6.23770356e-02
 -9.62073579e-02  4.78155054e-02 -1.50021389e-01  2.02171542e-02
  1.49169028e-01 -2.12477595e-01  2.49084398e-01  2.10853741e-01
  3.69294733e-02  7.34658167e-02  1.10065758e-01  5.60703548e-03
  2.36133914e-02 -3.69570516e-02 -1.24500990e-01 -5.01485281e-02
  1.16817474e-01 -6.46054894e-02  7.35896453e-02  2.34739413e-03]