[-0.11595384  0.09499563  0.07597959 -0.06487621 -0.10901769 -0.02133987
 -0.06437392 -0.1350809   0.09885313 -0.15486763  0.24042726 -0.0599868
 -0.23232825 -0.09084333 -0.02552774  0.21797839 -0.14257003 -0.15221611
 -0.03759609 -0.02733996  0.07001044  0.03243167  0.05495787  0.07746399
 -0.1509863  -0.33459252 -0.07890707 -0.01308258 -0.05143214 -0.07306875
 -0.06817659  0.10299479 -0.14066991 -0.00618654  0.04635961  0.14238806
 -0.01346922 -0.0850367   0.20122805  0.01646636 -0.23018284  0.00823785
  0.07070725  0.30762401  0.20059775 -0.00873022  0.00382109 -0.10070314
  0.15435822 -0.20969839  0.0293351   0.14482825  0.01277597 -0.0112193
  0.07712653 -0.11851295  0.02435119  0.12839265 -0.09461351 -0.03548319
  0.05122486 -0.10671245 -0.00568343 -0.13272619  0.18164654  0.05367053
 -0.1181246  -0.11053228  0.11866637 -0.07198232 -0.07633438  0.02590773
 -0.21018438 -0.17792957 -0.33419272  0.01119982  0.38711357  0.13542977
 -0.17526661  0.08999225  0.04176373  0.01071747  0.13417989  0.17786466
 -0.02840819  0.04128818 -0.12106612  0.07793123  0.1825085  -0.05240715
 -0.02929674  0.23250158 -0.00558453  0.06860302  0.06205556  0.02446525
 -0.1058818   0.0181724  -0.20406127 -0.01787506  0.05678866 -0.0318005
  0.02005915  0.15076993 -0.14454511  0.07623135 -0.00131369  0.03251624
  0.00206273  0.00608932 -0.12568505 -0.065204    0.07325175 -0.17997974
  0.09172329  0.16444778  0.03239513  0.10466077  0.16918337  0.06768541
 -0.00487309  0.00952742 -0.16611493 -0.01776653  0.12517107  0.01068699
  0.10947575  0.01444437]