[-9.82146189e-02  7.29492828e-02  9.03861150e-02 -7.52340183e-02
 -1.00989543e-01 -2.90248692e-02 -9.19279009e-02 -9.05243754e-02
  8.94910395e-02 -1.26132041e-01  1.90757394e-01 -5.30418456e-02
 -2.28488117e-01 -3.31269763e-02 -4.21544276e-02  2.21421704e-01
 -1.40084818e-01 -1.15478195e-01  1.93259609e-03 -1.11045046e-02
  4.59138788e-02  2.60843281e-02  4.35630269e-02  8.77298266e-02
 -1.23702981e-01 -3.39339584e-01 -1.18632965e-01 -2.83005531e-03
 -1.78320576e-02 -8.00751671e-02 -6.52723014e-02  6.75959811e-02
 -1.26771793e-01  1.82067901e-02  4.27069329e-02  1.32760748e-01
 -2.64173038e-02 -1.32459313e-01  1.94616780e-01  6.03092983e-02
 -2.35913739e-01 -1.59527622e-02  4.15321700e-02  2.71145165e-01
  2.04490647e-01  6.09999895e-02  3.65166515e-02 -9.68797728e-02
  1.37940273e-01 -2.38289937e-01  1.69670526e-02  1.20772138e-01
 -1.56851616e-02 -1.96287539e-02  3.01312096e-02 -1.31505638e-01
  1.93186235e-02  1.43723324e-01 -1.51015416e-01 -4.74642180e-02
  1.79178435e-02 -9.97382328e-02  1.38717312e-02 -1.12602524e-01
  2.05126569e-01  1.12273932e-01 -1.22838415e-01 -8.29140246e-02
  1.63619518e-01 -1.45093396e-01 -5.15386835e-02  1.40190693e-02
 -1.40746996e-01 -1.83478758e-01 -3.01376671e-01 -7.55067496e-03
  3.80907446e-01  1.66736037e-01 -1.20666087e-01  8.43786523e-02
  3.96789871e-02  1.20758330e-02  1.35610864e-01  1.93449900e-01
 -5.69379404e-02  4.20018286e-02 -7.40560964e-02  2.96084583e-02
  2.11276412e-01 -4.07863371e-02 -5.76728070e-03  2.04942569e-01
 -1.00515150e-02  1.00549154e-01  4.94139455e-02  1.70583483e-02
 -9.08764154e-02  8.60101171e-03 -1.54637739e-01 -1.31700831e-02
  1.79271959e-02 -1.31876292e-02  4.39916737e-02  1.46742225e-01
 -1.59236595e-01  9.26258788e-02 -7.85926450e-03 -2.40088459e-02
  3.59376636e-03  8.11677147e-03 -9.95048508e-02 -6.31496459e-02
  9.51917171e-02 -2.05054671e-01  8.37689042e-02  1.92588612e-01
 -1.43456084e-04  1.32633016e-01  1.59640476e-01  9.32756364e-02
  2.32324004e-04 -3.98059972e-02 -1.64702579e-01 -1.68264005e-02
  1.23184852e-01 -1.82930883e-02  1.23278074e-01 -7.81977084e-03]