[-6.64733276e-02  8.61663371e-02  9.64486301e-02 -7.45939538e-02
 -1.18381917e-01 -9.15337540e-03 -8.35397169e-02 -1.13908529e-01
  5.91035001e-02 -1.28337562e-01  2.05079868e-01 -6.92055672e-02
 -2.40313768e-01 -2.80190092e-02 -5.10029308e-02  2.28614599e-01
 -1.22824326e-01 -1.24034502e-01 -3.90716419e-02 -2.04947889e-02
  3.28862593e-02  2.39111725e-02  4.31127436e-02  5.65199740e-02
 -1.51508167e-01 -3.23454082e-01 -1.01119854e-01 -6.22215122e-03
 -6.28119782e-02 -5.67169972e-02 -8.83050188e-02  8.21645781e-02
 -1.30383521e-01  2.67781746e-02  4.51159291e-02  1.04958728e-01
 -1.38253020e-02 -1.37215748e-01  1.90871343e-01  5.88978119e-02
 -2.37451553e-01 -1.41963735e-03  4.03412357e-02  2.61510670e-01
  1.89135343e-01  2.67866198e-02  5.75652979e-02 -1.00723386e-01
  1.38761148e-01 -2.13557109e-01  5.27267996e-03  1.17776923e-01
 -2.71274783e-02 -3.98167921e-03 -6.72661606e-03 -1.28212497e-01
  3.23415324e-02  1.35900557e-01 -1.13596730e-01 -6.17083982e-02
  4.44621742e-02 -1.10680953e-01 -1.62214283e-02 -1.24282815e-01
  2.05481321e-01  9.77734551e-02 -1.28908455e-01 -1.08717099e-01
  1.25930712e-01 -1.11296393e-01 -5.91257475e-02  1.04999533e-02
 -1.76868752e-01 -1.68033808e-01 -3.12252909e-01 -4.18925611e-03
  3.87073666e-01  1.49635702e-01 -1.50860563e-01  5.50120249e-02
  4.73462883e-03  3.78151610e-02  1.47591025e-01  1.83035135e-01
 -3.64227258e-02  6.02060556e-02 -9.39544812e-02  4.32633050e-02
  2.36310750e-01 -7.81807154e-02 -2.30554380e-02  2.25924537e-01
 -2.51086429e-03  9.49006900e-02  3.33010405e-02  3.47979441e-02
 -8.85451064e-02  2.02791598e-02 -1.29554138e-01  1.20994095e-02
  5.00927679e-02 -1.41990110e-02  3.07810195e-02  1.52310088e-01
 -1.65111244e-01  9.72099006e-02 -2.24349853e-02  1.82754230e-02
  1.49348769e-02 -1.98498368e-02 -9.22978446e-02 -7.25982413e-02
  9.74146649e-02 -1.94963381e-01  4.96131554e-02  1.98373124e-01
  1.02770552e-02  1.07104197e-01  1.74091920e-01  7.71664530e-02
 -1.44568300e-02 -2.16808990e-02 -1.96853310e-01 -2.04051267e-02
  1.38855055e-01 -6.93596885e-05  1.08807303e-01  9.30318260e-04]