[-0.14604811  0.17753306  0.04711962 -0.0477364   0.00268841 -0.06542536
 -0.02563287 -0.06786271  0.14002137 -0.01546404  0.31110281 -0.0434637
 -0.24934879 -0.13922964 -0.03313355  0.1473805  -0.23836318 -0.11673385
 -0.02022783 -0.06718578  0.10948998  0.01356391 -0.01641042  0.06754414
 -0.08940393 -0.28984132 -0.06096036 -0.1372968  -0.00259502 -0.09504038
 -0.05635209  0.05457824 -0.16897562 -0.05122547  0.0218451   0.00347176
  0.04123498 -0.00435177  0.16451657 -0.00262647 -0.09721046 -0.04161822
  0.05773334  0.28220478  0.17705514  0.02826974 -0.04694564 -0.02137166
  0.05097945 -0.19467354  0.02418235  0.16485171  0.13914244  0.04444145
  0.08259719 -0.19129205 -0.06143454  0.04365465 -0.14294969  0.02960987
 -0.0205161  -0.10238536 -0.09010807 -0.12123175  0.20090166  0.09755903
 -0.12559861 -0.13527371  0.15039276 -0.08321541 -0.07722431  0.05316731
 -0.13026558 -0.16115062 -0.24228196  0.03994546  0.28802228  0.08746491
 -0.23102474  0.06037966 -0.05524352 -0.05640228  0.04445625  0.04268177
 -0.07054484  0.06156794 -0.09934761  0.01740864  0.12737076 -0.03065743
 -0.02984498  0.2205776  -0.09404176  0.04905275  0.04153438 -0.03054124
  0.00268557  0.01596023 -0.1380416   0.00494532  0.03776188 -0.13761567
 -0.07218747  0.06098188 -0.15932718 -0.03086817  0.05840069  0.01473869
 -0.07798781  0.01377546 -0.14124501 -0.019902    0.14581004 -0.26558527
  0.25782758  0.17498456  0.02121613  0.11396796  0.05418471  0.02501769
  0.01179728 -0.07955828 -0.12774566 -0.06620322  0.10439717 -0.02585394
  0.02808018  0.00058929]