[-9.88471732e-02  1.01275660e-01  9.51553062e-02 -7.54839554e-02
 -9.84642059e-02 -3.72520015e-02 -8.54768082e-02 -1.07060984e-01
  8.97737145e-02 -1.34433016e-01  2.15987444e-01 -7.09372684e-02
 -2.27736995e-01 -6.68129101e-02 -3.71426456e-02  1.95856482e-01
 -1.38121203e-01 -1.34680137e-01 -2.42875721e-02 -2.10926812e-02
  6.94304407e-02  6.81314394e-02  2.71859374e-02  5.10024801e-02
 -1.26935959e-01 -3.30289036e-01 -8.10456797e-02 -1.17020551e-02
 -4.39530946e-02 -5.94196916e-02 -6.28393665e-02  1.00006990e-01
 -1.41236037e-01 -1.35942372e-02  6.18634522e-02  1.45789325e-01
 -2.14979853e-02 -1.06680177e-01  1.93034992e-01 -2.66398164e-03
 -2.20107540e-01  1.72596481e-02  7.04930574e-02  2.95229256e-01
  1.93023801e-01  9.27547459e-03  4.76653827e-03 -1.03873551e-01
  1.62486821e-01 -2.11813003e-01  3.98668833e-02  1.42891452e-01
  3.17954947e-03  2.21028482e-03  7.84563646e-02 -1.09014705e-01
  2.15321425e-02  1.32813990e-01 -1.06154583e-01 -4.74299416e-02
  4.84871715e-02 -1.07727230e-01 -2.99327832e-04 -1.48384795e-01
  1.98709115e-01  4.06831279e-02 -1.19224750e-01 -1.09879352e-01
  1.31771654e-01 -7.80159906e-02 -8.22656006e-02  4.34089676e-02
 -1.86163858e-01 -1.61229610e-01 -3.03963363e-01  4.27951403e-02
  4.01694685e-01  1.32526383e-01 -1.65015832e-01  1.10535644e-01
  4.26380895e-02 -7.25986389e-03  1.41494036e-01  1.75036669e-01
 -7.25537119e-03  3.34268957e-02 -9.92547423e-02  6.46746829e-02
  2.23365903e-01 -6.05408438e-02 -4.52876166e-02  1.98401213e-01
 -5.57150738e-03  7.64024034e-02  5.46109974e-02  1.97194214e-03
 -8.28915387e-02  1.31211700e-02 -1.98258758e-01 -6.60651922e-03
  6.77528158e-02 -1.94288027e-02 -1.37606058e-02  1.60141513e-01
 -1.27707407e-01  8.24821368e-02  9.32925101e-03  6.86172629e-03
  8.31439253e-03 -1.13292532e-02 -1.12349249e-01 -5.75547107e-02
  8.32888260e-02 -1.99676886e-01  1.17111973e-01  1.28073975e-01
  4.04661410e-02  1.21646784e-01  1.46999761e-01  6.97510913e-02
  1.66102033e-02 -9.74374544e-03 -1.76669225e-01 -5.62684201e-02
  1.52830929e-01  3.55686732e-02  1.24048136e-01  7.78181944e-03]