[-9.13175866e-02  8.63261893e-02  1.02689944e-01 -6.03632890e-02
 -9.67152342e-02 -3.01099326e-02 -7.96168000e-02 -1.09969400e-01
  1.34090364e-01 -1.52268991e-01  2.13678718e-01 -4.80636619e-02
 -2.29291603e-01 -5.77995293e-02 -4.80766483e-02  2.10136205e-01
 -1.30102798e-01 -1.06907323e-01 -2.94880159e-02 -2.75309421e-02
  6.89165369e-02  6.01669513e-02  5.83329909e-02  4.99368086e-02
 -1.33494377e-01 -3.43910456e-01 -8.45259652e-02 -3.03990133e-02
 -6.65194318e-02 -7.57812411e-02 -9.07549709e-02  9.33754146e-02
 -1.36228979e-01 -2.35793386e-02  3.25796567e-02  1.44614279e-01
 -3.39175425e-02 -1.06831029e-01  1.90606043e-01  2.42236312e-02
 -2.22615674e-01  1.82411429e-02  3.31758447e-02  2.82671064e-01
  1.81011051e-01  1.82898231e-02  1.90944932e-02 -1.19564988e-01
  1.51043907e-01 -2.00569585e-01  3.32249105e-02  1.25909999e-01
  8.76263902e-03 -7.04431906e-03  5.48231713e-02 -1.19860232e-01
  1.42788468e-02  1.26491413e-01 -1.10465623e-01 -4.05430496e-02
  5.58567420e-02 -1.08045660e-01 -1.46711413e-02 -1.27508730e-01
  1.99695826e-01  7.71110430e-02 -1.19957745e-01 -8.74736086e-02
  1.24218963e-01 -9.27159041e-02 -5.80952168e-02  1.84992906e-02
 -1.84686348e-01 -1.89393044e-01 -2.86472738e-01  2.53690388e-02
  3.88109893e-01  1.27674103e-01 -1.71336755e-01  6.77702203e-02
  2.18794476e-02  6.51984802e-03  1.41315117e-01  2.00662047e-01
 -1.12183169e-02  5.17457128e-02 -8.22732970e-02  6.01229556e-02
  2.01525360e-01 -7.11841062e-02 -2.83026937e-02  2.27928445e-01
  9.65728599e-04  8.30987543e-02  3.93647365e-02 -6.80937385e-03
 -9.22918543e-02  3.52352224e-02 -1.76745877e-01  4.04924015e-03
  6.32096007e-02 -3.06153782e-02  5.61500376e-04  1.32276699e-01
 -1.45472556e-01  8.39452073e-02 -7.33128225e-04  3.54224676e-03
  3.86404507e-02 -1.61247104e-02 -1.16193473e-01 -8.44065174e-02
  1.05296366e-01 -1.88033193e-01  1.00877896e-01  1.65962726e-01
  2.71306783e-02  1.41869068e-01  1.41543776e-01  9.67674032e-02
  1.35447429e-02 -4.77936876e-04 -1.96116939e-01 -1.64050013e-02
  1.48344964e-01  1.82004776e-02  1.07055388e-01  1.45226722e-05]