[-0.16254354  0.18345623  0.05560726 -0.07206778 -0.03631201 -0.00898548
 -0.04467151 -0.04829163  0.08088341  0.00341586  0.23295455 -0.07871347
 -0.26563165 -0.07824404 -0.11130019  0.18004186 -0.16110761 -0.12892739
 -0.11970037 -0.09017707  0.09719761  0.05303035 -0.05722008  0.06742959
 -0.13037018 -0.29495665 -0.02418718 -0.08378135 -0.06650647 -0.13219872
 -0.04639646  0.0070552  -0.18260138 -0.03326794  0.04664669  0.07014056
 -0.01540119 -0.0603903   0.14362825  0.04088819 -0.12573899  0.04670551
  0.12062937  0.31243044  0.17387667  0.05879567 -0.03480197 -0.02871451
  0.12656623 -0.28091225  0.04994858  0.1718123   0.10260226  0.0952877
  0.125881   -0.16603976 -0.00837211  0.07341953 -0.1322429   0.01667738
 -0.01366652 -0.08781251 -0.04312881 -0.14577393  0.13962546  0.12198635
 -0.11441312 -0.09997436  0.12196056 -0.09345259 -0.05413318  0.02006594
 -0.09500656 -0.14372748 -0.27287203  0.09195947  0.36841443  0.14723894
 -0.19857299  0.01739986 -0.01447293 -0.02587261  0.04231315  0.0126882
 -0.09952985  0.01619479 -0.08547311  0.05641611  0.18661349 -0.02045663
 -0.01719935  0.18681064 -0.04226455  0.00205816  0.03635706  0.02271554
 -0.10595522  0.00675768 -0.093842    0.03755561  0.03532053 -0.13285579
 -0.02790886  0.06819122 -0.16405888  0.03005438  0.02011276 -0.03118249
 -0.09069355  0.05006972 -0.13093328  0.00890613  0.11218145 -0.22725995
  0.24966994  0.17984925 -0.0050797   0.10373931  0.09201581  0.03105462
  0.01031551 -0.01624367 -0.0780054  -0.15000796  0.09196969  0.01610152
  0.03937306  0.01080954]