[-7.43398294e-02  1.20928578e-01  1.07642435e-01 -7.13273883e-02
 -1.13644756e-01 -3.08425128e-02 -1.45070916e-02 -8.60685334e-02
  1.91562891e-01 -1.32034421e-01  2.23857388e-01 -4.32482846e-02
 -1.89888448e-01 -3.07221413e-02 -9.65798125e-02  2.20754176e-01
 -1.73707694e-01 -1.62816212e-01 -5.23539893e-02 -2.72797793e-02
 -8.27407837e-03  3.29172276e-02 -1.56431589e-02  1.51621895e-02
 -7.12642074e-02 -3.21133465e-01 -8.62187520e-02 -1.77204814e-02
  8.26083422e-02 -1.10899601e-02 -9.66234282e-02  6.83249757e-02
 -1.45699278e-01 -4.39947508e-02  9.80717167e-02  5.97035363e-02
 -5.81959672e-02 -8.25796276e-02  2.21984074e-01 -5.96794125e-04
 -2.15261817e-01 -7.79575144e-04  7.43008479e-02  2.35890776e-01
  2.21611604e-01  5.04184887e-03  1.25959832e-02 -1.63546667e-01
  1.34264335e-01 -1.92206889e-01  4.30558622e-03  1.93425640e-01
  6.62726462e-02  1.01990357e-01  3.07383966e-02 -1.37276426e-01
 -2.68016849e-02  1.37841463e-01 -1.27427056e-01 -2.02430524e-02
  3.76356877e-02 -7.66950101e-02 -2.00532805e-02 -1.01991989e-01
  1.82413667e-01  9.11061019e-02 -1.04702212e-01 -2.01152727e-01
  2.11548194e-01 -1.42101929e-01 -5.17135262e-02  2.82162111e-02
 -1.16328932e-01 -1.38106436e-01 -2.18298435e-01 -1.25528472e-02
  3.62002343e-01  1.53826356e-01 -1.44588992e-01  5.98354340e-02
 -7.44847581e-02 -2.96980087e-02  6.10582307e-02  7.30368495e-02
 -8.69740322e-02  1.70687027e-03 -6.29584417e-02 -1.68442260e-02
  2.39666820e-01 -6.52791485e-02 -1.51435314e-02  1.51059896e-01
 -2.30953526e-02  4.54653576e-02  3.02109178e-02  2.40111556e-02
 -1.05718307e-01  3.31401937e-02 -1.94175020e-01 -6.78263828e-02
  2.09877938e-02 -6.46681339e-02  3.37376297e-02  1.34774476e-01
 -1.74675554e-01  1.28452033e-01 -5.45203693e-05  1.71438586e-02
 -4.09543235e-03  2.71502137e-02 -7.73672760e-02 -2.75416672e-02
  1.52211800e-01 -1.62447035e-01  2.58493513e-01  1.35602444e-01
  2.43135002e-02  1.34314343e-01  1.50593236e-01  7.40537867e-02
 -1.07176034e-02 -6.99880645e-02 -8.48869905e-02 -8.63958821e-02
  6.46813288e-02 -3.97005025e-03  1.24008849e-01  1.34394197e-02]