[-0.15579873  0.10864421  0.10243948 -0.02314004 -0.13498025 -0.10078629
 -0.07362641 -0.12232716  0.12373384 -0.09360876  0.1954314  -0.08061943
 -0.17866683 -0.05005269 -0.08696449  0.23494919 -0.18809651 -0.14250116
 -0.03195349 -0.01173526  0.05710531 -0.04250117  0.00441975  0.0254049
 -0.02002669 -0.35402    -0.11313736 -0.06469493  0.05765218 -0.02160613
 -0.04192808  0.05865068 -0.11553047 -0.07549598  0.05725037  0.08243231
 -0.0420673  -0.10412016  0.19819912 -0.07059281 -0.24691121 -0.01675056
  0.12894921  0.21385394  0.24061735  0.05577552  0.0350392  -0.14881779
  0.15335006 -0.14769579 -0.03985367  0.15002005  0.0620271   0.06729879
  0.04433393 -0.13484506  0.03006877  0.12716012 -0.12619124 -0.05581291
  0.0649613  -0.08278649 -0.02480785 -0.09411775  0.23304032  0.10327816
 -0.08288603 -0.17770761  0.21990405 -0.14112292 -0.06320405  0.02569816
 -0.15971883 -0.12191062 -0.24320455 -0.05823232  0.38803074  0.07153077
 -0.09106839  0.080536   -0.04049624 -0.02878645  0.0627427   0.14505281
 -0.05919672 -0.02079339 -0.06713598 -0.054563    0.21755631 -0.07513571
  0.04359802  0.13135329 -0.00225794  0.05489581  0.01156272 -0.00913842
 -0.1000116   0.05663404 -0.16721778 -0.07312893  0.01223495 -0.03395595
  0.04223034  0.10332131 -0.15166374  0.04587654  0.00569496  0.08326913
  0.00474355 -0.00167154 -0.05219161 -0.04722874  0.12787329 -0.13656762
  0.20174551  0.16207825  0.02343492  0.08836806  0.14876571  0.09630197
 -0.00213635 -0.03783426 -0.17071243  0.00238707  0.07847913 -0.02420479
  0.04606019  0.0159929 ]