[-0.14352995  0.10184257  0.11734378 -0.07786037 -0.14331651 -0.08062757
 -0.05726764 -0.12920345  0.13921605 -0.08986609  0.19862171 -0.04834637
 -0.19230841 -0.01320378 -0.08076547  0.23388331 -0.20395915 -0.13665062
 -0.05521082 -0.01909018  0.00932652 -0.04003026  0.01041073  0.03392128
 -0.01731723 -0.32077226 -0.12016767 -0.04566719  0.09655035 -0.0127418
 -0.04988306  0.0678012  -0.1404797  -0.07283964  0.06260145  0.11535615
 -0.05438333 -0.10502476  0.18721884 -0.06801871 -0.2411633  -0.00214008
  0.10037406  0.19307013  0.28151143  0.05248925  0.04122294 -0.15728235
  0.15805541 -0.16674818 -0.04237603  0.14921559  0.06254043  0.07000156
  0.0192955  -0.15384166  0.02611325  0.15594028 -0.14685278 -0.05244805
  0.03609175 -0.09731356  0.01423118 -0.0621625   0.20882364  0.10646907
 -0.09697168 -0.18299502  0.22910677 -0.15529765 -0.03274021  0.05872728
 -0.1637872  -0.11141171 -0.25771797 -0.06575866  0.42370126  0.06310164
 -0.08727839  0.04834012 -0.07194337 -0.03911566  0.04807083  0.12031813
 -0.0766271  -0.05504399 -0.09263315 -0.05218555  0.24607582 -0.08440668
  0.0354536   0.12837797  0.00252401  0.04832416  0.00461533  0.05765417
 -0.11518247  0.03092486 -0.16792083 -0.09860104 -0.01804807 -0.04106296
  0.03271691  0.13005325 -0.15313911  0.06530438 -0.00044981  0.06267843
 -0.01732616 -0.00810746 -0.03258304 -0.06640885  0.15369396 -0.14427629
  0.19723716  0.19988096 -0.02189087  0.0826745   0.12454813  0.09879042
 -0.023224   -0.04692768 -0.12203721 -0.0165302   0.05780554 -0.01041836
  0.06979876  0.01181608]