[-1.04955018e-01  1.47626221e-01  1.53457820e-01 -8.13254938e-02
 -1.65457904e-01 -4.39034738e-02 -4.84431088e-02 -7.92632699e-02
  1.60851672e-01 -2.52851937e-02  2.66254961e-01 -9.56741571e-02
 -2.60294199e-01  4.68270667e-02 -6.65506795e-02  2.03891560e-01
 -2.02295095e-01 -1.07915759e-01 -4.24926393e-02 -1.62855908e-02
 -2.84393430e-02 -3.08208819e-02  2.07722764e-02  6.62654713e-02
 -5.85672669e-02 -3.67979527e-01 -7.70449787e-02 -4.75218445e-02
  6.01643436e-02  5.09343436e-03 -1.10014848e-01  1.58565231e-02
 -1.63045183e-01 -6.96748346e-02  8.29305649e-02  1.03292942e-01
 -5.63311093e-02 -1.21129334e-01  1.36961862e-01 -3.84338833e-02
 -2.24305585e-01  2.22592037e-02  7.47712702e-02  2.11023018e-01
  2.43092656e-01  3.43157314e-02  7.01355040e-02 -1.21126704e-01
  9.81888399e-02 -2.14440823e-01  2.60011256e-02  1.76776022e-01
  7.59451985e-02  4.79198061e-02  4.65556793e-02 -2.22187907e-01
 -5.76339439e-02  1.85381964e-01 -1.14662662e-01  1.06424093e-02
  6.56039789e-02 -2.19190195e-02  3.32213640e-02 -1.26947567e-01
  2.45984599e-01  1.28049970e-01 -1.76849902e-01 -1.37977168e-01
  1.75610796e-01 -1.01556242e-01  2.67278845e-03  3.05857044e-02
 -1.77388966e-01 -1.84705958e-01 -2.54774421e-01  3.68986875e-02
  4.04294640e-01  1.14833750e-01 -1.73881426e-01  1.07450169e-02
 -1.04152225e-01  3.15857120e-02  5.22560254e-03  1.35685667e-01
 -3.67884450e-02  1.51011813e-02 -1.23006187e-01 -3.51009481e-02
  1.91485196e-01 -9.32772383e-02  1.60713103e-02  1.99071795e-01
 -4.21388261e-02  4.38115001e-02 -1.97060406e-04  7.68645778e-02
 -1.52791470e-01 -8.44887085e-03 -1.89132497e-01 -5.79873100e-02
 -4.96905297e-02 -5.34590259e-02 -1.26093356e-02  9.69461948e-02
 -1.78734466e-01  4.81102355e-02  3.83926602e-03  1.87872835e-02
 -6.09997883e-02 -6.73550507e-03 -7.37034669e-03 -5.46669140e-02
  1.67669788e-01 -2.41792783e-01  2.20857069e-01  1.89831242e-01
  3.09791323e-02  1.54008582e-01  1.01927556e-01  3.75954881e-02
  3.64207923e-02 -5.28442860e-02 -5.13045304e-02 -4.54104282e-02
 -1.84512627e-03 -3.32110152e-02  5.72587848e-02  3.73506956e-02]