[-0.14532003  0.11589307  0.10176212 -0.06001483 -0.14943087 -0.11337344
 -0.08996687 -0.11587297  0.12681365 -0.08463407  0.19651979 -0.09302234
 -0.18881339 -0.03941721 -0.06903367  0.2383786  -0.19999418 -0.14299771
 -0.03321176 -0.02676481  0.03778855 -0.02058171  0.00982296  0.01640821
 -0.03440543 -0.35141507 -0.11151629 -0.06249758  0.07675623 -0.03169097
 -0.02392397  0.06540691 -0.12585115 -0.0689062   0.07110408  0.0994209
 -0.03056904 -0.11329251  0.19690655 -0.08264192 -0.25327715 -0.02349296
  0.11931358  0.19950818  0.24455361  0.03142851  0.04137725 -0.1508978
  0.15324412 -0.14047651 -0.04920695  0.13405365  0.04499753  0.06322147
  0.03556291 -0.13065778  0.03458757  0.15201961 -0.13915449 -0.06575313
  0.07361223 -0.1098133  -0.01521354 -0.08572661  0.23868997  0.08637451
 -0.08404658 -0.19020955  0.2081378  -0.14049225 -0.05533784  0.04934734
 -0.14413594 -0.09292861 -0.26385447 -0.07190918  0.38775143  0.04738153
 -0.09485114  0.08581074 -0.04318571 -0.02992518  0.05597368  0.12807086
 -0.06828247 -0.01772414 -0.08770673 -0.04522437  0.24551211 -0.08744691
  0.05030338  0.12638287 -0.00888963  0.07519167  0.01506746  0.00878694
 -0.11052715  0.03049012 -0.14092252 -0.07262647  0.01951084 -0.04727853
  0.03340186  0.11933056 -0.1519445   0.05577897  0.0039953   0.07465187
 -0.00684115  0.00260595 -0.01777923 -0.06022061  0.14347772 -0.14504492
  0.19757627  0.1653163   0.00854567  0.094235    0.13242729  0.09333485
 -0.03054421 -0.03877488 -0.15351003 -0.00132668  0.0640192  -0.01350322
  0.0649528   0.02170179]