[-0.15329349  0.11481001  0.10688126 -0.04934939 -0.14249371 -0.11010294
 -0.09192749 -0.10929296  0.11901531 -0.0695863   0.1954454  -0.10115542
 -0.19576918 -0.04032721 -0.0688185   0.24218147 -0.18843995 -0.13660131
 -0.02619638 -0.02262968  0.03793504 -0.00958016  0.01860499  0.02674049
 -0.04128417 -0.35911164 -0.10826575 -0.06000243  0.06811832 -0.04005747
 -0.03823935  0.05915231 -0.13310216 -0.06848025  0.07911127  0.10580027
 -0.03104764 -0.11630189  0.20145074 -0.06912965 -0.25621    -0.02610009
  0.12219417  0.20832971  0.23816185  0.03917334  0.0495817  -0.1452985
  0.14297794 -0.13321905 -0.03752189  0.14103106  0.03661608  0.05705025
  0.02888077 -0.13026379  0.02226151  0.1443982  -0.11971914 -0.06102264
  0.07882627 -0.09157401 -0.0171208  -0.08284415  0.23947926  0.07759979
 -0.08595207 -0.19778901  0.20744422 -0.14339857 -0.0613092   0.05494722
 -0.15281126 -0.09728307 -0.26413259 -0.06253921  0.39344391  0.03799115
 -0.10129473  0.08708791 -0.03778758 -0.03248959  0.0579365   0.14971934
 -0.05240178 -0.00247745 -0.08100113 -0.04336477  0.25760898 -0.08229782
  0.04352614  0.12578867 -0.00236282  0.07316318  0.01759037  0.00589814
 -0.09950832  0.03037572 -0.13856119 -0.07310238  0.02339683 -0.03686449
  0.02824347  0.12932062 -0.15954861  0.06127375  0.00838411  0.06825036
 -0.00082091  0.01583749 -0.0256238  -0.06765934  0.13894378 -0.14899509
  0.1950074   0.17024647  0.01775748  0.0815717   0.12883611  0.09961555
 -0.00973337 -0.01987828 -0.15471379 -0.00882263  0.06306067 -0.01753183
  0.06288933  0.01970985]