[-1.46100104e-01  1.13567308e-01  1.10776775e-01 -5.06348386e-02
 -1.51394486e-01 -1.18588760e-01 -9.19535086e-02 -1.17799871e-01
  1.13879286e-01 -8.09419975e-02  1.94843054e-01 -9.73149985e-02
 -1.91741273e-01 -3.77883650e-02 -7.63413012e-02  2.40774035e-01
 -1.93427369e-01 -1.40566662e-01 -3.31480168e-02 -2.43448783e-02
  3.44438963e-02 -2.16611382e-02  1.53472200e-02  2.36584917e-02
 -2.71858722e-02 -3.56212944e-01 -1.08021609e-01 -5.95715903e-02
  7.05368966e-02 -3.10766492e-02 -2.96376944e-02  5.98744228e-02
 -1.26009151e-01 -6.44209459e-02  7.24540725e-02  9.69778672e-02
 -3.38180475e-02 -1.18293025e-01  1.98841289e-01 -8.64805505e-02
 -2.54476696e-01 -2.37544831e-02  1.19752109e-01  2.01579332e-01
  2.43652418e-01  3.67724560e-02  5.02256751e-02 -1.51947901e-01
  1.52249560e-01 -1.41166642e-01 -3.81847546e-02  1.36380106e-01
  4.70541380e-02  5.63664697e-02  3.19608226e-02 -1.30004928e-01
  2.25597639e-02  1.53855830e-01 -1.29096672e-01 -5.80316558e-02
  7.09157214e-02 -9.73645151e-02 -1.65928639e-02 -8.99479985e-02
  2.41164476e-01  8.73585567e-02 -9.23830196e-02 -1.84376687e-01
  2.11714342e-01 -1.48121923e-01 -5.46074808e-02  4.57157567e-02
 -1.47353202e-01 -1.00193813e-01 -2.61944652e-01 -6.68001547e-02
  3.90704691e-01  4.43461724e-02 -1.00336328e-01  7.63627589e-02
 -4.08797413e-02 -2.68206988e-02  5.40912822e-02  1.41533718e-01
 -6.44346178e-02 -1.76127069e-02 -8.36450085e-02 -4.60497104e-02
  2.51670271e-01 -9.07876641e-02  4.43565361e-02  1.30369380e-01
 -3.89485876e-03  6.57995716e-02  1.13863265e-02  9.46208369e-03
 -1.02655806e-01  3.03706080e-02 -1.41320705e-01 -6.81797937e-02
  1.97086334e-02 -4.35478166e-02  2.81787273e-02  1.18465699e-01
 -1.52360708e-01  5.17779775e-02  2.78343819e-03  7.30748102e-02
  1.95574015e-04  4.98561701e-03 -2.64939461e-02 -7.19919801e-02
  1.42589420e-01 -1.42452195e-01  1.96911782e-01  1.68700576e-01
  1.61953475e-02  9.25318673e-02  1.27897367e-01  9.76490304e-02
 -1.37219653e-02 -3.82993333e-02 -1.46407649e-01 -4.78654588e-03
  6.85994253e-02 -1.36076035e-02  6.05711751e-02  2.07173582e-02]