[-0.14810035  0.09992226  0.11093169 -0.07928446 -0.12609433 -0.0745463
 -0.06893085 -0.12983061  0.14704935 -0.09345272  0.18355127 -0.05438457
 -0.19081204 -0.02321167 -0.06929635  0.23573008 -0.20233718 -0.13913645
 -0.04700318 -0.01580213  0.00371865 -0.04354898  0.01415468  0.02811078
 -0.01929861 -0.33090201 -0.1197372  -0.05790249  0.07710626 -0.0170256
 -0.04260347  0.06960826 -0.13705604 -0.06894801  0.05130188  0.1172009
 -0.04885389 -0.10390607  0.18671826 -0.06200593 -0.23954161 -0.01501848
  0.10348304  0.19228034  0.28508553  0.05219358  0.03402449 -0.14721413
  0.15908754 -0.16579603 -0.05704033  0.1385553   0.06584274  0.06359626
  0.02892651 -0.13931008  0.03848233  0.14101911 -0.15798691 -0.05266149
  0.03928563 -0.1063717   0.00420391 -0.0598106   0.22833943  0.11000846
 -0.09320425 -0.17771088  0.22790746 -0.14992194 -0.03924461  0.0499734
 -0.16022794 -0.11778169 -0.26149341 -0.06907361  0.40063936  0.06821074
 -0.08601981  0.0683094  -0.06099825 -0.04100494  0.04848772  0.13496128
 -0.07094612 -0.04827888 -0.07839569 -0.05960653  0.23838516 -0.08086632
  0.03787118  0.12483519 -0.01136348  0.05395038 -0.00160306  0.03746848
 -0.11010245  0.03720061 -0.1671187  -0.09778897 -0.00959731 -0.03183875
  0.04394224  0.12427354 -0.1512702   0.0581466  -0.00242911  0.06147118
 -0.00618345 -0.007481   -0.03088441 -0.06505237  0.1524923  -0.15184139
  0.18993679  0.19476686 -0.02550396  0.0812036   0.12758827  0.10482762
 -0.01990988 -0.02985344 -0.13595259 -0.00959485  0.06260904 -0.00956195
  0.06932658  0.0162752 ]