[-1.47176132e-01  1.04516067e-01  1.11514390e-01 -2.78948005e-02
 -1.28582761e-01 -1.06851652e-01 -8.17239881e-02 -1.15035474e-01
  1.22697785e-01 -8.69293287e-02  1.96218714e-01 -8.17104131e-02
 -1.76717460e-01 -4.67092507e-02 -8.06786343e-02  2.37948686e-01
 -1.86677232e-01 -1.39686987e-01 -3.80270183e-02 -1.14742080e-02
  4.97147180e-02 -3.80305462e-02  7.40723265e-03  2.19969731e-02
 -1.21722501e-02 -3.60840172e-01 -1.13791503e-01 -6.32467121e-02
  5.71578257e-02 -2.46552806e-02 -4.31147665e-02  5.72782531e-02
 -1.21531367e-01 -7.15775490e-02  6.06614314e-02  8.31457898e-02
 -3.72395031e-02 -1.01665698e-01  1.94873080e-01 -6.49014339e-02
 -2.50700563e-01 -1.39345108e-02  1.21368669e-01  2.08467886e-01
  2.48262450e-01  5.41652404e-02  3.95982489e-02 -1.47256777e-01
  1.52633950e-01 -1.46524653e-01 -4.18231823e-02  1.50598273e-01
  6.96544573e-02  5.89937754e-02  4.58523110e-02 -1.26051724e-01
  2.74268631e-02  1.27905443e-01 -1.26402602e-01 -5.93056157e-02
  6.82623759e-02 -8.06639791e-02 -3.05848606e-02 -9.53684673e-02
  2.32454583e-01  9.94648561e-02 -8.64697173e-02 -1.86544359e-01
  2.13052630e-01 -1.41429931e-01 -6.43550381e-02  2.73682363e-02
 -1.58779576e-01 -1.17136776e-01 -2.48795673e-01 -6.35636821e-02
  3.86860311e-01  5.57946265e-02 -1.00784175e-01  9.07671228e-02
 -4.75740321e-02 -3.07580065e-02  5.45701757e-02  1.41405970e-01
 -5.92636168e-02 -1.03898812e-02 -6.69637918e-02 -5.72912060e-02
  2.22473770e-01 -8.06768686e-02  5.00405841e-02  1.26015976e-01
 -1.15091568e-02  6.04556687e-02  6.59644743e-03 -1.28087997e-02
 -9.30764079e-02  5.48796132e-02 -1.62694782e-01 -7.34001473e-02
  6.78140391e-03 -3.16618644e-02  3.57195996e-02  9.60021988e-02
 -1.61743447e-01  5.02636209e-02  5.15730865e-03  8.23551044e-02
  7.57642090e-03 -1.81324776e-05 -5.08839749e-02 -5.02738245e-02
  1.33339345e-01 -1.46259651e-01  1.98731989e-01  1.67368039e-01
  1.96520239e-02  8.11168551e-02  1.44170597e-01  9.63415727e-02
 -4.05375846e-03 -3.20260450e-02 -1.73579767e-01  1.73952058e-03
  7.47768804e-02 -2.43399795e-02  4.02188413e-02  1.58459544e-02]