[-0.14678295  0.11314376  0.11202975 -0.05527083 -0.14690547 -0.11498211
 -0.09446702 -0.10537112  0.12269908 -0.0708161   0.19324557 -0.09412257
 -0.19228719 -0.03679321 -0.06458924  0.24082009 -0.19149671 -0.14161645
 -0.023951   -0.02312087  0.03751234 -0.01700554  0.01147349  0.02119369
 -0.03879618 -0.35986176 -0.10906669 -0.06650295  0.06539577 -0.03503068
 -0.02740441  0.0644809  -0.12311722 -0.06220455  0.07214079  0.10456444
 -0.0376348  -0.11640172  0.19541758 -0.07609214 -0.25988978 -0.02452271
  0.12003987  0.20157488  0.24819474  0.03153412  0.0511285  -0.14764889
  0.14783543 -0.13198216 -0.04587078  0.13708781  0.04975562  0.06526714
  0.03458373 -0.12729338  0.03149289  0.14349818 -0.13448286 -0.06180863
  0.0760505  -0.10341839 -0.01186565 -0.08451308  0.2407708   0.07637016
 -0.09022091 -0.18685035  0.20593822 -0.14536646 -0.06265309  0.05145898
 -0.14977817 -0.10139924 -0.26728499 -0.06480341  0.37843212  0.04159021
 -0.10192981  0.08676829 -0.03386071 -0.03104013  0.05107315  0.14625719
 -0.06254943 -0.00878602 -0.0846571  -0.04863811  0.25177339 -0.08922573
  0.05284647  0.12881014 -0.00598395  0.077202    0.0139121   0.01143182
 -0.10182399  0.03344129 -0.13872428 -0.06958546  0.01767892 -0.04602191
  0.029728    0.11627185 -0.15432267  0.05748782  0.00790691  0.07390479
 -0.00848404  0.00860807 -0.02480336 -0.06810636  0.14474936 -0.14598811
  0.19485019  0.17065831  0.01731597  0.08728979  0.13269894  0.09543312
 -0.02321932 -0.03659342 -0.15177144  0.00346584  0.06398841 -0.01407266
  0.05917222  0.02551155]