[-0.13525204  0.11279853  0.12086917 -0.08518118 -0.1246584  -0.08060695
 -0.06629545 -0.1300357   0.14784661 -0.08207047  0.19364466 -0.05467856
 -0.19736047 -0.02291388 -0.07564564  0.23581897 -0.1974764  -0.13349219
 -0.05301806 -0.01218697  0.01628828 -0.04940958  0.0180253   0.03238819
 -0.02152053 -0.32697943 -0.12170195 -0.04962001  0.08835985 -0.02625944
 -0.05762063  0.0648573  -0.14405565 -0.07658558  0.05389198  0.130898
 -0.04956783 -0.11246115  0.17506595 -0.05676922 -0.2398448  -0.002346
  0.0916525   0.19224438  0.28730127  0.050606    0.04915432 -0.15577956
  0.15894572 -0.16332375 -0.04951783  0.14488827  0.06607162  0.06910469
  0.02515675 -0.14616136  0.0346127   0.15214714 -0.15093274 -0.05372293
  0.04418421 -0.09414419  0.00458363 -0.06236398  0.21324359  0.11166445
 -0.09587847 -0.18197866  0.22968617 -0.14909966 -0.0340323   0.05499929
 -0.16843151 -0.10989294 -0.25681737 -0.0676775   0.40846252  0.06229357
 -0.09520202  0.05455894 -0.07723906 -0.03072696  0.04244318  0.12444067
 -0.06864595 -0.03778053 -0.090211   -0.05447044  0.24659994 -0.08926822
  0.04394789  0.12859772 -0.00419491  0.05491119 -0.0031851   0.04211052
 -0.11436426  0.03781068 -0.16930579 -0.10203528 -0.01430448 -0.04041281
  0.02934964  0.12632366 -0.16126183  0.0603031   0.00501416  0.06174259
 -0.00805638 -0.0099902  -0.03152994 -0.06914213  0.15878865 -0.15131593
  0.1940556   0.21237183 -0.01908787  0.06708916  0.12475155  0.10381474
 -0.01369468 -0.04034194 -0.12706791 -0.01077402  0.05545884 -0.01047337
  0.05485883  0.00739816]