[-0.15302439  0.10967697  0.10026127 -0.0514899  -0.13771722 -0.10824621
 -0.09202861 -0.1006524   0.12432929 -0.06643549  0.18643127 -0.09518259
 -0.19397448 -0.04029096 -0.06607559  0.24019527 -0.18903188 -0.1396486
 -0.02715718 -0.02998279  0.04049693 -0.00866235  0.01394595  0.03107106
 -0.03915644 -0.35686371 -0.1029582  -0.06221756  0.07081776 -0.04063607
 -0.03612263  0.05957223 -0.14007106 -0.0737144   0.08017697  0.11444335
 -0.02887372 -0.11222168  0.20063519 -0.06701025 -0.24767509 -0.02759142
  0.12252253  0.2094233   0.23929349  0.03409177  0.04757784 -0.14277028
  0.1456482  -0.13233776 -0.04700954  0.13743867  0.04991632  0.06000645
  0.02564133 -0.12985229  0.0291702   0.14397514 -0.1327379  -0.05910894
  0.07647228 -0.10418327 -0.02113522 -0.08217757  0.23880999  0.07100072
 -0.08466742 -0.20173292  0.20156632 -0.14583336 -0.05570747  0.0582189
 -0.14517389 -0.09459849 -0.26964685 -0.06188899  0.38817307  0.03707446
 -0.09961762  0.09177566 -0.03636727 -0.03382703  0.05257261  0.1418341
 -0.05974212  0.00138247 -0.08202492 -0.03791603  0.25181887 -0.07725235
  0.04649543  0.11412019 -0.00389755  0.07647876  0.0193643   0.00881576
 -0.10307261  0.03032434 -0.13895869 -0.06803008  0.01357373 -0.04292773
  0.03456989  0.1187756  -0.15685761  0.05730703  0.0045494   0.05999134
 -0.00982083  0.01337256 -0.03278214 -0.06647529  0.14173369 -0.15418625
  0.19130747  0.17307046  0.01650452  0.08661547  0.12655206  0.09986354
 -0.01863798 -0.01871162 -0.15385596 -0.00526705  0.06238697 -0.0175361
  0.06855398  0.01732043]