[-0.11304671  0.1614757   0.07178882 -0.08494498 -0.14991586 -0.06957895
 -0.05858928 -0.1096698   0.15293364 -0.11581506  0.22552001 -0.04049328
 -0.20090882 -0.01531999 -0.09986601  0.21849076 -0.19323294 -0.14731114
 -0.03011824 -0.02517208  0.07121193 -0.01071826 -0.01441502  0.01497573
 -0.02751283 -0.30509666 -0.10358085 -0.02608627  0.10464016  0.00052122
 -0.04421476  0.00413984 -0.14626276 -0.05664974  0.08459922  0.07825306
 -0.07139815 -0.10514522  0.21174932 -0.05124154 -0.24469717  0.02129765
  0.08291373  0.22272503  0.22413848  0.02076215  0.03405912 -0.17909978
  0.12930112 -0.14668161 -0.00456528  0.16575298  0.07182892  0.06241352
  0.03506437 -0.14038351  0.03744832  0.14678957 -0.17202297 -0.07319871
  0.08023389 -0.08143283 -0.01882789 -0.08949511  0.23413821  0.106292
 -0.0925075  -0.24409126  0.23517087 -0.16022739 -0.05550516  0.08096739
 -0.12097686 -0.10450526 -0.21790636 -0.04173936  0.42116562  0.10360002
 -0.09720411  0.0867912  -0.06190694 -0.0407362   0.08986944  0.10358423
 -0.06789111 -0.01236361 -0.08862106 -0.03246855  0.24185847 -0.08210225
 -0.01286614  0.14226973  0.02005675  0.04418589  0.03986685  0.01072279
 -0.10625716  0.03443136 -0.15461302 -0.07919683 -0.00272362 -0.06716903
  0.01208871  0.13577281 -0.16066778  0.08726251 -0.01284332  0.05091212
 -0.02921215 -0.00533417 -0.04842805 -0.03771306  0.13388517 -0.19408333
  0.23770903  0.13787688  0.02932695  0.08711705  0.13995267  0.05901463
  0.00535448 -0.07586797 -0.16800289 -0.04390903  0.04583355 -0.04335231
  0.11889219  0.0110332 ]