[-0.12933402  0.10501845  0.10707795 -0.07780173 -0.12730217 -0.08289915
 -0.05506418 -0.11962092  0.1444356  -0.08062477  0.18534091 -0.04471281
 -0.1932801  -0.02151388 -0.07418591  0.22711976 -0.19063681 -0.11938852
 -0.05368258 -0.01772236  0.01721856 -0.04512279  0.02016395  0.02164798
 -0.026622   -0.31558955 -0.12261778 -0.05809032  0.08807414 -0.01876711
 -0.05352082  0.05579943 -0.14715564 -0.07662626  0.0625697   0.11669879
 -0.05889137 -0.10970789  0.18294607 -0.05648816 -0.22260423 -0.00977512
  0.09056882  0.18877716  0.27185634  0.04909358  0.05243386 -0.16142122
  0.15784049 -0.1644858  -0.04628938  0.13553767  0.05159515  0.07283964
  0.02163889 -0.13945612  0.0385683   0.15290396 -0.15798774 -0.04777263
  0.04569962 -0.08891318 -0.01551171 -0.06426236  0.22500037  0.11408283
 -0.09676652 -0.18250702  0.22982278 -0.15640128 -0.02654544  0.05265955
 -0.1556455  -0.11177399 -0.24158262 -0.06461126  0.4058992   0.06988505
 -0.08482488  0.05284522 -0.08765204 -0.03363401  0.05028714  0.11050371
 -0.07116043 -0.03256445 -0.07689031 -0.04333629  0.25508684 -0.09566576
  0.04415871  0.12886241 -0.00269928  0.0531853  -0.00463155  0.02535409
 -0.11050142  0.03154343 -0.16482496 -0.09565055 -0.0035339  -0.05508117
  0.03649472  0.12304231 -0.16520447  0.05963729  0.00228244  0.05143941
 -0.00369079 -0.02148694 -0.04720865 -0.06157475  0.16127507 -0.15141927
  0.21112923  0.19952512 -0.01393041  0.0704973   0.12292872  0.09847312
 -0.01639131 -0.04448749 -0.13182992 -0.00792156  0.06237921 -0.01055641
  0.06245701 -0.00236723]