[-1.57777220e-01  1.04199670e-01  1.04814887e-01 -3.78040522e-02
 -1.34832308e-01 -1.07353859e-01 -7.70068988e-02 -1.18418470e-01
  1.28637582e-01 -8.38437527e-02  1.92877457e-01 -8.61205384e-02
 -1.88049436e-01 -4.52096201e-02 -8.64472911e-02  2.37545490e-01
 -1.85760140e-01 -1.40011981e-01 -2.92521026e-02 -2.10664328e-02
  4.03038561e-02 -3.36242057e-02  1.18148802e-02  1.98373552e-02
 -1.51603436e-02 -3.66225362e-01 -1.07812643e-01 -6.38991147e-02
  5.15085347e-02 -2.16390844e-02 -3.62983011e-02  6.91500306e-02
 -1.18624680e-01 -6.83766007e-02  5.93800321e-02  8.69636312e-02
 -3.79384682e-02 -9.60941538e-02  1.94282874e-01 -6.04584403e-02
 -2.49148637e-01 -2.95350533e-02  1.25321493e-01  2.11144134e-01
  2.31743097e-01  4.89596091e-02  4.74909060e-02 -1.47126839e-01
  1.42812222e-01 -1.40767261e-01 -3.84467430e-02  1.47284970e-01
  6.27689958e-02  5.91750853e-02  4.49211001e-02 -1.31554708e-01
  2.88271140e-02  1.17502764e-01 -1.18882991e-01 -4.73775752e-02
  8.22279751e-02 -8.62114355e-02 -3.69609110e-02 -9.55112725e-02
  2.45288014e-01  9.53384712e-02 -8.95777941e-02 -1.88538626e-01
  2.11905792e-01 -1.39312342e-01 -7.38650113e-02  2.59776711e-02
 -1.56268075e-01 -1.15064800e-01 -2.57670313e-01 -5.48686869e-02
  3.75743270e-01  5.82621880e-02 -9.20959041e-02  9.28500965e-02
 -4.45006900e-02 -2.54270267e-02  5.52005544e-02  1.53855279e-01
 -6.50018081e-02  3.69611022e-04 -6.40391856e-02 -6.00198917e-02
  2.16978669e-01 -7.70156085e-02  3.48684974e-02  1.27711818e-01
 -1.39253531e-02  7.20691532e-02  6.29841397e-03 -7.74398819e-03
 -9.37730521e-02  5.49415648e-02 -1.52381301e-01 -6.50904700e-02
  2.30607595e-02 -4.12213132e-02  4.00920622e-02  9.83567163e-02
 -1.57235488e-01  5.03029004e-02 -1.68121851e-03  8.72583538e-02
  9.49368160e-03  8.70036054e-03 -4.85991426e-02 -5.41428588e-02
  1.31575510e-01 -1.52040750e-01  2.07039356e-01  1.70482039e-01
  2.79357731e-02  8.67143422e-02  1.51999384e-01  9.46260467e-02
  2.38505937e-03 -2.34096777e-02 -1.64041743e-01  9.08949994e-04
  7.18127489e-02 -2.77240705e-02  4.06657048e-02  2.75302138e-02]