[-1.37398303e-01  1.10726826e-01  1.22267880e-01 -7.92656094e-02
 -1.28752381e-01 -8.14270228e-02 -6.22557960e-02 -1.18464425e-01
  1.42665505e-01 -9.01359469e-02  1.83694825e-01 -5.55339344e-02
 -1.91796258e-01 -9.20088310e-03 -8.06908235e-02  2.36072943e-01
 -1.95860311e-01 -1.36949047e-01 -5.76232933e-02 -1.76275689e-02
  1.52420243e-02 -3.65441032e-02  8.39095097e-03  2.26405747e-02
 -2.14735474e-02 -3.20933074e-01 -1.17580488e-01 -4.08608466e-02
  9.36312899e-02 -2.21594311e-02 -5.39595596e-02  6.95011094e-02
 -1.42427966e-01 -6.99354634e-02  6.17228933e-02  1.22170292e-01
 -4.82746586e-02 -1.07954375e-01  1.81327835e-01 -6.19230047e-02
 -2.40593553e-01 -8.68491828e-04  9.48296934e-02  1.97456270e-01
  2.76334971e-01  4.89913672e-02  4.25526090e-02 -1.65228695e-01
  1.58987150e-01 -1.66841596e-01 -3.96072567e-02  1.48537487e-01
  5.13885990e-02  8.20170268e-02  2.08632182e-02 -1.47309288e-01
  3.71322110e-02  1.52142838e-01 -1.51032612e-01 -4.63480279e-02
  4.60268408e-02 -9.26275626e-02  1.13862781e-02 -6.54489025e-02
  2.13732705e-01  1.07937098e-01 -9.59064588e-02 -1.92289159e-01
  2.25612208e-01 -1.53172165e-01 -3.11929919e-02  5.78919128e-02
 -1.58340886e-01 -1.05359852e-01 -2.54501551e-01 -6.67152479e-02
  4.10049289e-01  6.39620870e-02 -8.80710706e-02  5.74082248e-02
 -7.71595240e-02 -4.39861864e-02  4.98292558e-02  1.23608105e-01
 -7.55462199e-02 -4.04186249e-02 -8.18535313e-02 -4.51915264e-02
  2.59194970e-01 -8.27121958e-02  3.35595086e-02  1.28971860e-01
 -1.24366290e-03  4.95306365e-02 -2.25982233e-03  4.86937650e-02
 -1.15529142e-01  3.33098061e-02 -1.66737959e-01 -9.91401672e-02
 -1.13457264e-02 -4.72426675e-02  2.65422259e-02  1.35419086e-01
 -1.58707976e-01  7.34872743e-02  2.01166607e-04  6.76034391e-02
 -1.04048382e-02 -6.75762026e-03 -3.55477333e-02 -6.22530654e-02
  1.58042416e-01 -1.46040305e-01  2.04024076e-01  2.00548887e-01
 -1.02846846e-02  7.05348998e-02  1.27109915e-01  1.01388611e-01
 -1.38681624e-02 -4.29653637e-02 -1.28520459e-01 -1.06521538e-02
  6.03557527e-02 -8.15966260e-03  6.39487058e-02  1.61380600e-02]