[-0.12479191  0.13124141  0.10644454 -0.04885969 -0.14375715 -0.10494673
 -0.08246859 -0.11703229  0.12223405 -0.07403818  0.20249926 -0.13092038
 -0.18144594 -0.02484351 -0.07004001  0.25443271 -0.18333292 -0.14807165
 -0.0418467  -0.02021089  0.04559861 -0.00427422  0.00291706  0.04142927
 -0.03883979 -0.35100162 -0.10719609 -0.05417373  0.07859202 -0.04754873
 -0.0464477   0.06583452 -0.12743902 -0.06646326  0.07879752  0.10354922
 -0.02870722 -0.12990479  0.19491677 -0.08021315 -0.27114692  0.00228208
  0.12510698  0.20561984  0.23470943  0.03371539  0.04175567 -0.16508545
  0.13146549 -0.12667164 -0.04169425  0.14498149  0.02298461  0.06509674
  0.01849949 -0.13094351  0.01876305  0.15023759 -0.12311529 -0.06273367
  0.08874604 -0.09051025 -0.00652485 -0.09863948  0.23682116  0.07826549
 -0.08915401 -0.19254804  0.19331449 -0.14803474 -0.06603409  0.04833291
 -0.14587478 -0.09659863 -0.26553163 -0.06394387  0.40075856  0.03391499
 -0.12347364  0.0914791  -0.03015668 -0.0245076   0.07484449  0.15372936
 -0.05115805 -0.0103129  -0.09077978 -0.04505973  0.26531845 -0.08506833
  0.053389    0.13849942 -0.00802352  0.06563662  0.01875748  0.02070258
 -0.10546745  0.03015281 -0.14161275 -0.07079847  0.01642506 -0.03274279
  0.00851948  0.13259773 -0.16040495  0.06961861  0.01126968  0.07136176
  0.00183095  0.01659619 -0.01780273 -0.06898351  0.15282294 -0.14360975
  0.17860149  0.16271536  0.01885766  0.08138379  0.13847719  0.11346938
 -0.01531273 -0.03080487 -0.1717668   0.00255756  0.07748923 -0.02139511
  0.0608645   0.02350174]