[-0.14117768  0.1111327   0.11485022 -0.04888221 -0.15496907 -0.1212541
 -0.08077583 -0.10897384  0.12468376 -0.07966651  0.19518283 -0.08385802
 -0.19176875 -0.03620133 -0.06522284  0.23627339 -0.19418405 -0.13808876
 -0.03358422 -0.02215027  0.03830626 -0.02892643  0.0191668   0.01298347
 -0.02884717 -0.3572506  -0.11556446 -0.05907041  0.08672383 -0.02596048
 -0.024533    0.05147236 -0.12893741 -0.07091872  0.07156815  0.09691311
 -0.05066982 -0.11713864  0.2032607  -0.08124588 -0.24879733 -0.02969303
  0.11115694  0.19548212  0.24727233  0.04571579  0.04947083 -0.15469618
  0.14811523 -0.14861535 -0.04227085  0.13086332  0.05141986  0.05814755
  0.04143479 -0.1193563   0.02948068  0.15660116 -0.15534668 -0.06651991
  0.06565176 -0.09756156 -0.02404059 -0.08903299  0.23802935  0.0880842
 -0.08775381 -0.17620854  0.21675713 -0.15694942 -0.04832108  0.05137733
 -0.12802497 -0.0967014  -0.260023   -0.07840404  0.39574787  0.0455192
 -0.08809369  0.06698855 -0.04458499 -0.03878975  0.04779633  0.11741938
 -0.0809769  -0.02093971 -0.08708038 -0.04507132  0.24303459 -0.09501888
  0.06159098  0.12990735  0.00218423  0.06644411  0.00947066  0.00928896
 -0.10666068  0.02888197 -0.14300178 -0.08022275  0.02098733 -0.05142054
  0.03683157  0.11154526 -0.16246235  0.04980657  0.00411563  0.0594083
  0.00119965 -0.0078891  -0.03584043 -0.0711582   0.14559633 -0.15139335
  0.18510751  0.17409657 -0.00209216  0.0887936   0.12217162  0.09003708
 -0.03032662 -0.05279306 -0.1494308  -0.00111724  0.0629097  -0.01446037
  0.05921989  0.01541929]