[-7.82435611e-02  1.09734908e-01  1.09134100e-01 -6.69095442e-02
 -1.07367553e-01 -5.58705106e-02 -2.25956943e-02 -1.04792677e-01
  1.92112416e-01 -1.19488828e-01  2.18123272e-01 -6.99442625e-02
 -2.05997303e-01 -6.28782213e-02 -7.26198852e-02  2.28657246e-01
 -1.93072408e-01 -1.69645786e-01 -3.78822722e-02 -1.53013272e-02
  2.32647490e-02  4.98464052e-03  2.64794882e-02  3.04720402e-02
 -7.46584088e-02 -3.54256600e-01 -1.10828020e-01 -3.27122654e-03
  9.51011032e-02 -4.26783264e-02 -7.58158192e-02  7.19756708e-02
 -1.68744668e-01 -4.98208217e-02  8.86515006e-02  8.67668316e-02
 -3.64778303e-02 -1.11453712e-01  2.03198582e-01  1.12775457e-03
 -2.38695219e-01 -7.09065376e-03  8.03247839e-02  2.18893364e-01
  2.33496770e-01  3.13932449e-02  1.43703939e-02 -1.55618444e-01
  1.37749702e-01 -1.59491509e-01 -5.53957978e-03  1.87702298e-01
  6.76685497e-02  7.92898461e-02  2.78448109e-02 -1.53998300e-01
 -3.34026925e-02  1.49402618e-01 -1.18578725e-01 -5.10213636e-02
  3.41153033e-02 -7.76390657e-02 -1.03748543e-02 -1.06569424e-01
  1.73077837e-01  9.45402831e-02 -9.86943170e-02 -1.93973511e-01
  2.16636181e-01 -1.34113282e-01 -4.80355583e-02  1.76347978e-02
 -1.45036772e-01 -1.06638663e-01 -2.46278480e-01 -5.10177724e-02
  3.46182525e-01  8.81526470e-02 -1.30553201e-01  5.22398166e-02
 -6.12630360e-02  1.14522371e-02  2.12009307e-02  1.01000167e-01
 -9.65465382e-02  1.55654326e-02 -7.03105852e-02 -2.52465401e-02
  2.14817882e-01 -6.65804669e-02 -2.18257541e-03  1.31662920e-01
 -3.85394320e-02  5.65855019e-02  3.19973454e-02  5.32339700e-03
 -1.14827231e-01  3.59185785e-02 -1.88708797e-01 -7.86850825e-02
  2.11170199e-03 -6.16754889e-02  2.87605021e-02  1.35535568e-01
 -1.85052246e-01  1.00777723e-01  2.10050028e-02  1.50206005e-02
 -4.33928326e-05  3.90343107e-02 -6.95438981e-02 -3.88616696e-02
  1.25934422e-01 -1.82598859e-01  2.56141961e-01  1.73551098e-01
  1.20889749e-02  1.29638389e-01  1.35051236e-01  1.07843094e-01
 -2.32278313e-02 -4.37503569e-02 -7.50338957e-02 -6.89952672e-02
  5.61137199e-02  3.27515602e-03  1.03122972e-01  4.34096903e-04]