[-0.10835772  0.13506266  0.15863426 -0.08555453 -0.1462391  -0.04237894
 -0.05075425 -0.08027603  0.16307637 -0.0242044   0.28383872 -0.09091377
 -0.25303727  0.02766027 -0.06201667  0.20923808 -0.19654793 -0.10297526
 -0.04016885 -0.00217752 -0.03297113 -0.03824159  0.02419539  0.0603439
 -0.05393596 -0.37542972 -0.09167173 -0.05902676  0.04766674  0.00860234
 -0.11386754  0.01118961 -0.15296119 -0.06918073  0.07727274  0.0923949
 -0.0522365  -0.11762171  0.14487915 -0.04513011 -0.23291491  0.024014
  0.0733836   0.20583852  0.2405695   0.02881172  0.06598506 -0.12629879
  0.09599101 -0.19738606  0.02841804  0.1689444   0.08236346  0.05437417
  0.03365214 -0.20616375 -0.05379208  0.18988463 -0.11885407 -0.01063908
  0.04654111 -0.03417629  0.02471906 -0.12015676  0.24719392  0.13627709
 -0.17431472 -0.1460551   0.16755413 -0.09071431  0.00969499  0.03531113
 -0.18948944 -0.18583564 -0.25091967  0.03737447  0.3974902   0.09966254
 -0.18469523  0.02243965 -0.1207024   0.02337513  0.0078684   0.14390858
 -0.0177323   0.01794919 -0.11483993 -0.0457233   0.18336116 -0.11161577
  0.02897239  0.19705702 -0.04109477  0.05249566 -0.00183125  0.07289495
 -0.13879526  0.00167982 -0.17907616 -0.06245667 -0.04732192 -0.03212106
 -0.00543596  0.08196473 -0.18859708  0.05201457  0.02471828  0.0244721
 -0.03402244 -0.01268258  0.02084015 -0.07621313  0.16241157 -0.24875896
  0.21339051  0.18400967  0.0252252   0.16112202  0.09332253  0.04771073
  0.02333117 -0.05451348 -0.06198136 -0.01788297  0.01208689 -0.01866633
  0.05407221  0.03230198]