[-0.11547291  0.13752511  0.09767564 -0.05857044 -0.15569903 -0.02995031
 -0.04182235 -0.11667266  0.14189699 -0.11584886  0.21400748 -0.02951592
 -0.18935989 -0.00393119 -0.05273148  0.17338285 -0.14245805 -0.16614185
 -0.00384097  0.00412482 -0.00349932 -0.03071935 -0.01081964  0.0347732
 -0.04947744 -0.30496165 -0.1211938  -0.0461136   0.0907723   0.02668676
 -0.05086079  0.02413156 -0.13120347 -0.04428346  0.07502221  0.09598804
 -0.08981406 -0.09363582  0.24010091 -0.0235111  -0.20783667 -0.01527357
  0.0494422   0.24540715  0.20086515  0.02524799  0.04388378 -0.10750556
  0.09980052 -0.18230684  0.0073314   0.16042924  0.10018577  0.05355173
  0.04406824 -0.14242378  0.04149452  0.11722511 -0.16546534 -0.05937971
  0.02599241 -0.06394057 -0.00507036 -0.0651332   0.26252016  0.15070356
 -0.06284989 -0.18122709  0.23148394 -0.14391245 -0.07485555  0.04964326
 -0.13183482 -0.09438091 -0.20729773 -0.04233581  0.40789253  0.11764912
 -0.11402496  0.06668083 -0.05851537 -0.04255696  0.05941962  0.05666152
 -0.11110115 -0.01573983 -0.0799051  -0.02995691  0.2437007  -0.07015919
 -0.00996817  0.10697084  0.01689991  0.03126234  0.0631947  -0.01881291
 -0.0570182   0.01397241 -0.17079316 -0.08559112  0.02070412 -0.06131717
  0.03508474  0.1417353  -0.23878813  0.0900344   0.00237119 -0.0065677
 -0.01644466  0.00742013 -0.08840605 -0.00168443  0.16763787 -0.20275234
  0.22324185  0.13454089 -0.01662881  0.09406354  0.132278    0.02565633
 -0.01431528 -0.06805995 -0.12836881 -0.07854533  0.06056723 -0.03083937
  0.11591522  0.02932078]