[-0.14951675  0.11219566  0.11056989 -0.07472207 -0.1172443  -0.08716644
 -0.0605452  -0.12205627  0.14303938 -0.07784367  0.190282   -0.06369632
 -0.1967749  -0.02229324 -0.07562102  0.23498535 -0.19216467 -0.13245536
 -0.0576281  -0.01781691  0.01434247 -0.04555244  0.01470613  0.02830343
 -0.02793191 -0.32976228 -0.11591251 -0.06230484  0.07251449 -0.02445016
 -0.04479245  0.06507179 -0.13909768 -0.07509702  0.05774173  0.11693563
 -0.04602813 -0.1108306   0.18927096 -0.05629943 -0.24402116 -0.0065377
  0.09950878  0.20017205  0.27633569  0.04980036  0.04604412 -0.1581424
  0.16460821 -0.15176013 -0.05254541  0.14217471  0.04979873  0.07399482
  0.02212386 -0.14042768  0.03969238  0.1419585  -0.14576094 -0.05481073
  0.05268804 -0.09538969  0.00086374 -0.06722541  0.22143686  0.1049683
 -0.09592036 -0.1803537   0.22692914 -0.15164867 -0.03907529  0.05071152
 -0.16763403 -0.11594661 -0.25893721 -0.0583556   0.39941391  0.06680171
 -0.08607314  0.06273544 -0.06625357 -0.0318328   0.05551234  0.14163433
 -0.06915674 -0.02891464 -0.07165038 -0.05648112  0.25808534 -0.07864492
  0.03140437  0.12828223 -0.00998274  0.05846691 -0.00043953  0.02637461
 -0.1075091   0.03515706 -0.16594683 -0.08677044 -0.00840726 -0.04029202
  0.03355183  0.12283597 -0.15541755  0.0545291   0.00429782  0.07028464
 -0.01267397 -0.00188457 -0.03476032 -0.062205    0.15272678 -0.14300822
  0.20642178  0.20105755 -0.00278784  0.06717976  0.1398699   0.09646678
 -0.00997176 -0.02620285 -0.13796321 -0.00653491  0.06908417 -0.0042131
  0.06863263  0.00838097]