[-0.13584615  0.12161966  0.10482799 -0.04966477 -0.14336431 -0.11489294
 -0.09199562 -0.10688303  0.12357268 -0.0726937   0.19217722 -0.10025219
 -0.18405047 -0.03361763 -0.0724012   0.24182634 -0.20043667 -0.14446473
 -0.032479   -0.02374081  0.04974187 -0.01962476  0.00778317  0.02644499
 -0.03404146 -0.35438949 -0.10887312 -0.05685317  0.07909881 -0.03748481
 -0.03021315  0.05640956 -0.1284515  -0.06623121  0.07444445  0.10109842
 -0.02963801 -0.12448467  0.1942638  -0.08261294 -0.25714466 -0.01300425
  0.12170104  0.20124903  0.23800845  0.03814131  0.04082322 -0.15278196
  0.15238047 -0.13999878 -0.04406765  0.14076714  0.04168897  0.06801533
  0.0307116  -0.13249652  0.03134856  0.1533085  -0.13652234 -0.06299764
  0.0713338  -0.1008509  -0.00788182 -0.0960668   0.23170216  0.08493114
 -0.08663461 -0.19305691  0.19652574 -0.1452816  -0.05798526  0.05018962
 -0.14006905 -0.09705821 -0.26715493 -0.06851315  0.39103666  0.04820554
 -0.10254508  0.08152387 -0.03619998 -0.03006453  0.05557665  0.13572578
 -0.06770603 -0.00996318 -0.09521205 -0.04331288  0.25174865 -0.08472698
  0.04857493  0.12724146 -0.00802184  0.07854348  0.00904565  0.01349249
 -0.11412956  0.03501814 -0.1432008  -0.07226449  0.01675584 -0.03681588
  0.02329498  0.12068595 -0.15117328  0.05701447  0.00689416  0.0699234
 -0.01064547  0.0095209  -0.02591365 -0.06102389  0.14245336 -0.14309888
  0.19476382  0.16896148  0.02153013  0.09015922  0.13305758  0.09426619
 -0.02585881 -0.04255201 -0.15803848  0.00042806  0.06604731 -0.01498124
  0.06264009  0.02022884]