[-0.14543279  0.12056541  0.10587837 -0.04999429 -0.1571012  -0.11422589
 -0.08237307 -0.10695419  0.13109079 -0.08376541  0.19376798 -0.08025192
 -0.18879448 -0.03827293 -0.07181539  0.23420994 -0.19487302 -0.14287922
 -0.0319251  -0.0266507   0.05073215 -0.02187195  0.01242171  0.02182907
 -0.03276838 -0.35082197 -0.11518868 -0.05888689  0.08731201 -0.03400502
 -0.02364934  0.04627054 -0.1321926  -0.07214922  0.06909492  0.10123406
 -0.04399074 -0.11449311  0.19675855 -0.08023056 -0.25035465 -0.02667663
  0.11132461  0.20247327  0.23920515  0.04585209  0.04281608 -0.15776029
  0.15876997 -0.14643717 -0.04120635  0.14051645  0.04803754  0.0657213
  0.039402   -0.12188571  0.03423915  0.15483193 -0.15013304 -0.07038423
  0.05993664 -0.09646856 -0.01814797 -0.08806735  0.23509829  0.08780553
 -0.08251457 -0.184084    0.21510918 -0.15634206 -0.05344902  0.05829542
 -0.13308509 -0.09341833 -0.26276416 -0.07310044  0.39784953  0.04526013
 -0.08732592  0.07092496 -0.04356255 -0.03378462  0.04956193  0.12204879
 -0.07914194 -0.01590145 -0.09130739 -0.0378962   0.24596424 -0.09574246
  0.05698864  0.12833074  0.00714502  0.0700126   0.01574219  0.01810891
 -0.11174186  0.02802379 -0.14265855 -0.07793086  0.02593847 -0.04429242
  0.02969163  0.11394077 -0.1585838   0.05337914  0.0057555   0.05808857
 -0.0092846  -0.0075951  -0.03442667 -0.06787816  0.1427453  -0.14641945
  0.19577356  0.16933961 -0.00291085  0.09176087  0.1214386   0.0909383
 -0.03422537 -0.05755148 -0.14417508 -0.00618352  0.06684065 -0.01570915
  0.05687777  0.00841879]