[-8.46242830e-02  1.04977034e-01  1.01732574e-01 -5.66903837e-02
 -9.97504145e-02 -5.31860255e-02 -3.65562253e-02 -1.10227600e-01
  1.85125753e-01 -1.18900850e-01  2.06195876e-01 -6.39455020e-02
 -1.85988069e-01 -7.23605305e-02 -7.65984282e-02  2.23597154e-01
 -1.92172229e-01 -1.69986635e-01 -3.92850377e-02 -1.13540990e-02
  1.36649981e-02 -8.17149319e-03  9.70449328e-05  1.75314005e-02
 -7.23741129e-02 -3.40866983e-01 -1.13529816e-01 -2.00851858e-02
  8.96898881e-02 -1.74176078e-02 -8.29332769e-02  5.95145784e-02
 -1.62308380e-01 -6.32981211e-02  9.48594362e-02  8.07875395e-02
 -4.23792489e-02 -9.53293294e-02  2.03417137e-01 -1.63957439e-02
 -2.29847595e-01  3.75776063e-03  8.00312981e-02  2.08197698e-01
  2.30247259e-01  3.76635045e-02  1.61292236e-02 -1.56256214e-01
  1.47847936e-01 -1.64736435e-01 -5.68326283e-03  1.88314870e-01
  7.22756982e-02  9.04025137e-02  3.13195251e-02 -1.48503765e-01
 -2.65144594e-02  1.51877642e-01 -1.15993552e-01 -3.80569696e-02
  2.78994441e-02 -8.19383189e-02 -2.15470996e-02 -9.22576338e-02
  1.70652568e-01  9.79581103e-02 -9.40368026e-02 -2.06113502e-01
  2.23804280e-01 -1.33707270e-01 -4.31148037e-02  2.67667864e-02
 -1.29632756e-01 -1.18603386e-01 -2.39852741e-01 -4.11183126e-02
  3.48555505e-01  9.96207818e-02 -1.40749440e-01  5.04946113e-02
 -6.61379546e-02 -1.70217085e-04  3.65916602e-02  8.84237289e-02
 -8.12668428e-02  2.80829729e-03 -6.85473830e-02 -4.35417928e-02
  2.28650674e-01 -6.66566864e-02  8.56735837e-03  1.30855784e-01
 -3.04624140e-02  5.36712781e-02  2.44162213e-02  9.64398962e-03
 -1.06160343e-01  3.27361301e-02 -1.85022548e-01 -8.44855607e-02
  2.66185291e-02 -4.83353697e-02  2.96647251e-02  1.33359954e-01
 -1.78459331e-01  1.05183743e-01  1.33560868e-02  2.53703240e-02
 -4.23097255e-04  2.37619095e-02 -6.14989772e-02 -2.91245580e-02
  1.38384208e-01 -1.71148509e-01  2.59260505e-01  1.63908228e-01
  1.06907925e-02  1.22661293e-01  1.37757108e-01  8.94158632e-02
 -2.19167043e-02 -5.68770245e-02 -9.46040079e-02 -7.81001374e-02
  5.31587303e-02  1.75531057e-03  9.20144990e-02  6.10187300e-04]