[-0.08051746  0.10242359  0.11018088 -0.05657739 -0.09720945 -0.04432765
 -0.01258867 -0.10019263  0.20460753 -0.11419928  0.2064352  -0.06312235
 -0.20943379 -0.04767887 -0.06690186  0.22334705 -0.18852432 -0.17196636
 -0.04023063 -0.01351996  0.00629632  0.00055166  0.03490865  0.03430066
 -0.09700511 -0.35682473 -0.10237873 -0.01492203  0.06936484 -0.02352927
 -0.09116354  0.09831267 -0.17222406 -0.04566587  0.09594355  0.08259415
 -0.05095392 -0.10033175  0.2215621   0.01490754 -0.23312385 -0.02513412
  0.0819407   0.21841565  0.24381189  0.0296034   0.00511602 -0.13187498
  0.13966678 -0.19266675  0.00090105  0.20671323  0.07383699  0.09737357
  0.03295655 -0.15823202 -0.03247581  0.14872648 -0.11638536 -0.044868
  0.02055283 -0.08155329 -0.01006629 -0.1044002   0.1781002   0.10554165
 -0.10563397 -0.16596723  0.21640289 -0.11664306 -0.03426353  0.01789669
 -0.15548758 -0.13740532 -0.22817193 -0.03753995  0.35392264  0.11294036
 -0.13109182  0.04106599 -0.07696658  0.00446936  0.01018829  0.08694708
 -0.09600966 -0.0016713  -0.05649336 -0.02881914  0.21004784 -0.05988212
 -0.0082362   0.13914903 -0.04645423  0.04962352  0.02293139  0.00483225
 -0.11045849  0.03299229 -0.19673541 -0.08180811 -0.00690198 -0.06546003
  0.02971015  0.13504045 -0.19863024  0.09971842  0.02261178  0.01001381
  0.00531203  0.0435572  -0.07700401 -0.03931275  0.12096865 -0.19308197
  0.25459266  0.16795842 -0.00436762  0.14499198  0.12130147  0.10853332
 -0.0201718  -0.04256832 -0.06764112 -0.08000463  0.07321057  0.02067303
  0.09326186  0.00120459]