[-6.53787404e-02  1.08285569e-01  1.19521417e-01 -9.19578075e-02
 -8.02122876e-02 -4.42014895e-02  8.28455028e-04 -6.65079281e-02
  2.23140702e-01 -1.20815866e-01  2.04780966e-01 -4.61673811e-02
 -2.18306378e-01 -8.15321226e-03 -3.30029353e-02  2.07865700e-01
 -1.85782000e-01 -1.67323261e-01 -7.39562511e-02 -8.28253105e-05
 -1.36513636e-02  1.63802877e-02  3.58640216e-02  4.28987704e-02
 -7.06617683e-02 -3.69643509e-01 -9.29390043e-02 -2.22353265e-02
  4.28546406e-02 -1.78755801e-02 -9.12592337e-02  5.63723519e-02
 -1.74122438e-01 -3.71790938e-02  1.07019298e-01  8.74464810e-02
 -5.91340363e-02 -8.70805830e-02  1.79389790e-01 -6.86277915e-03
 -2.38108993e-01 -3.00274920e-02  8.04164708e-02  2.17410445e-01
  2.51223683e-01  2.69934982e-02 -9.84129217e-03 -1.55741721e-01
  1.27550870e-01 -2.26591349e-01  1.10537848e-02  1.78557202e-01
  7.69009963e-02  1.25475720e-01  2.44965162e-02 -1.62540182e-01
 -1.64744109e-02  1.51774734e-01 -1.26372561e-01 -2.82308888e-02
  1.56264305e-02 -7.36502111e-02 -2.62658838e-02 -8.85180533e-02
  2.09871173e-01  1.16166592e-01 -1.50230616e-01 -1.75264239e-01
  1.69318527e-01 -1.43768072e-01 -2.58659311e-02  2.77310051e-02
 -1.54864371e-01 -1.61780939e-01 -2.22471818e-01 -2.57216990e-02
  3.70498985e-01  1.26426771e-01 -1.70737773e-01  1.56843234e-02
 -1.16431527e-01  3.68201546e-02  1.44224707e-02  9.53564122e-02
 -9.88557935e-02  6.93225116e-03 -7.13468492e-02 -1.34558668e-02
  2.14155987e-01 -9.11541060e-02 -1.57057978e-02  1.59097791e-01
 -4.11482453e-02  7.28692636e-02  1.08084641e-02  2.88074762e-02
 -1.02111220e-01  2.07211729e-02 -2.30526552e-01 -8.72157589e-02
 -1.40781840e-02 -4.60578129e-02  8.86234175e-03  1.34317979e-01
 -2.05420882e-01  1.16867639e-01  3.92950773e-02 -2.59559066e-03
  3.87852676e-02  6.64447919e-02 -6.13036230e-02 -1.02787912e-01
  1.22679792e-01 -2.02301502e-01  2.48236701e-01  1.98455393e-01
  1.78104285e-02  1.59803018e-01  9.21460018e-02  1.10827148e-01
 -1.03966752e-02 -3.87977026e-02 -6.01097941e-02 -4.26507704e-02
  6.60122409e-02  5.31548038e-02  7.23517761e-02 -1.52720064e-02]