[-0.1445078   0.09629392  0.10913683 -0.07022863 -0.10841038 -0.09212489
 -0.04303289 -0.11729009  0.14479652 -0.07341244  0.18579732 -0.05555936
 -0.19768034 -0.02002306 -0.06918424  0.22548226 -0.19204281 -0.11958325
 -0.06249855 -0.02045187  0.0213671  -0.05287943  0.01405963  0.02016956
 -0.02780839 -0.32711414 -0.12410742 -0.06090362  0.08554115 -0.01552959
 -0.04923219  0.0536835  -0.1536016  -0.07929923  0.05999131  0.12022939
 -0.06242923 -0.10504495  0.18216281 -0.05178612 -0.22507243 -0.00283371
  0.0852228   0.19112574  0.27310514  0.05856299  0.05219249 -0.16692638
  0.16255723 -0.16180317 -0.04800319  0.13920134  0.04597778  0.08029672
  0.02243348 -0.13584481  0.03699955  0.14873931 -0.15522799 -0.04583031
  0.04280769 -0.09224926 -0.01465673 -0.06230405  0.21328405  0.10450792
 -0.09558082 -0.17742141  0.23273233 -0.15954898 -0.02182167  0.05442505
 -0.1554222  -0.12126952 -0.24955411 -0.05308575  0.4184339   0.06219045
 -0.08089853  0.05750201 -0.0863147  -0.03395195  0.06187928  0.12152415
 -0.06815045 -0.02838795 -0.07297675 -0.0468069   0.25745058 -0.09156168
  0.04106533  0.12627596 -0.00565154  0.05862365 -0.00252212  0.02337678
 -0.10558198  0.02844052 -0.16418999 -0.10026329 -0.00491825 -0.0509552
  0.0327309   0.11240873 -0.1612276   0.05906213  0.01107936  0.05613998
 -0.00451981 -0.01556372 -0.04296442 -0.06486198  0.15193222 -0.15837485
  0.20982447  0.21079162 -0.01467978  0.07050376  0.11977543  0.09646655
 -0.01507501 -0.03281135 -0.13567518 -0.00238095  0.06416804  0.01075104
  0.05500549 -0.00630319]