[-0.14702804  0.11057649  0.10595553 -0.05573274 -0.14660667 -0.11376337
 -0.0908325  -0.11617231  0.12182136 -0.07692555  0.19478622 -0.09561081
 -0.1926309  -0.03506294 -0.06870168  0.23724222 -0.19441903 -0.13894106
 -0.03112275 -0.02560876  0.03252014 -0.01591509  0.01370882  0.02547573
 -0.02841234 -0.35394382 -0.10674476 -0.06242183  0.06988946 -0.03621957
 -0.03219794  0.07015035 -0.1244117  -0.06923979  0.07751806  0.1092172
 -0.03022737 -0.11285757  0.20054062 -0.08290812 -0.25549659 -0.02212646
  0.1259191   0.19983566  0.2443109   0.03777749  0.0403609  -0.14877473
  0.1494621  -0.13778858 -0.04289588  0.13538387  0.0528576   0.0578743
  0.03411359 -0.13501711  0.02671944  0.14122771 -0.13186131 -0.06584597
  0.07944133 -0.10625985 -0.01162588 -0.08735123  0.23612325  0.08358398
 -0.08758447 -0.18339035  0.20336504 -0.1464245  -0.05874743  0.05010661
 -0.14521538 -0.09663042 -0.26195294 -0.06721028  0.38476449  0.04763035
 -0.09962881  0.07908129 -0.03418601 -0.03163559  0.05357827  0.13681924
 -0.06829172 -0.01310597 -0.08362311 -0.04525836  0.2463237  -0.08140761
  0.04901943  0.12325784 -0.00689364  0.07578816  0.01546097  0.01121162
 -0.10426784  0.03027896 -0.14696693 -0.06796469  0.01523398 -0.04280734
  0.03427774  0.12112033 -0.15453449  0.05170182  0.00064495  0.06543707
 -0.00575983  0.00912778 -0.02196215 -0.06436313  0.14346211 -0.14515188
  0.1916564   0.16734268  0.0115024   0.09133851  0.12971503  0.09848624
 -0.02141534 -0.0352071  -0.15201692 -0.00650316  0.06802979 -0.01380052
  0.06809372  0.02104839]