[-0.14232215  0.11432435  0.10023391 -0.05018125 -0.15091161 -0.10520188
 -0.08680284 -0.10743322  0.12211591 -0.07206974  0.1950862  -0.08677643
 -0.18838681 -0.03412817 -0.06778755  0.24124311 -0.19422297 -0.13669786
 -0.03182679 -0.02679189  0.03358103 -0.00950463  0.01010252  0.02292821
 -0.03355432 -0.34964249 -0.10635974 -0.05904447  0.08028858 -0.03448097
 -0.04042019  0.05770751 -0.12788562 -0.06688123  0.08367784  0.10408385
 -0.03896953 -0.11684533  0.20141847 -0.06773965 -0.25144303 -0.01468947
  0.12144157  0.20250116  0.24317269  0.036787    0.04754245 -0.15703027
  0.15376577 -0.13321006 -0.04519853  0.14052698  0.0460657   0.06064199
  0.02738202 -0.13251564  0.02188008  0.1476897  -0.13410114 -0.06263898
  0.07351189 -0.10020001 -0.01972137 -0.08722261  0.2341771   0.0817065
 -0.08854707 -0.19596969  0.20602714 -0.14673971 -0.06098333  0.05320872
 -0.14133824 -0.09692734 -0.26096722 -0.06378037  0.38924     0.04180478
 -0.10141575  0.07952227 -0.0383964  -0.03417934  0.0562916   0.13954669
 -0.0658816  -0.01471567 -0.08725834 -0.04758747  0.25475946 -0.08693803
  0.05248635  0.12246442 -0.00123973  0.07319276  0.01585178  0.01997232
 -0.1132244   0.02708118 -0.14221933 -0.08131512  0.01949471 -0.0468493
  0.03290957  0.12330508 -0.15818667  0.06003315  0.00221078  0.06247979
 -0.00493245  0.00218476 -0.02346437 -0.06215779  0.14189987 -0.14666395
  0.19736822  0.16656949  0.01009625  0.08925638  0.13224219  0.09811108
 -0.02725363 -0.0350606  -0.15098169 -0.01054346  0.0604516  -0.01271431
  0.06526092  0.01456376]