[-1.48587853e-01  1.10686891e-01  1.12595379e-01 -4.89002839e-02
 -1.56780198e-01 -1.07768551e-01 -9.61656347e-02 -9.46793929e-02
  1.26289412e-01 -7.64947459e-02  1.91691399e-01 -9.88976657e-02
 -1.93153784e-01 -2.89254431e-02 -6.22883923e-02  2.43314311e-01
 -1.97648525e-01 -1.35379627e-01 -2.77034380e-02 -2.60864254e-02
  3.76265459e-02 -5.70079358e-03  1.19556738e-02  2.61267219e-02
 -4.64386269e-02 -3.64878148e-01 -1.09268546e-01 -6.76744580e-02
  8.76637995e-02 -3.83381583e-02 -4.40685041e-02  5.80568202e-02
 -1.23581402e-01 -6.93375021e-02  8.31886008e-02  1.00029550e-01
 -3.66812684e-02 -1.19593553e-01  1.98005199e-01 -7.47519955e-02
 -2.54748076e-01 -2.48784553e-02  1.15208320e-01  1.98548585e-01
  2.47605190e-01  4.08035778e-02  4.89626043e-02 -1.48210585e-01
  1.46720141e-01 -1.40995234e-01 -3.67001146e-02  1.43786415e-01
  3.90740633e-02  6.79683313e-02  3.91496420e-02 -1.27750248e-01
  2.36250088e-02  1.52650520e-01 -1.40101790e-01 -5.46502657e-02
  7.39476457e-02 -9.83271599e-02 -9.79397725e-03 -8.06529149e-02
  2.32362896e-01  8.69215950e-02 -8.15853402e-02 -1.97296232e-01
  2.16274887e-01 -1.52511701e-01 -5.62739372e-02  5.34904376e-02
 -1.45009324e-01 -9.12251100e-02 -2.61624873e-01 -7.58355558e-02
  3.88987511e-01  4.77569290e-02 -1.00645356e-01  7.71015286e-02
 -3.48541550e-02 -3.69182788e-02  5.41589223e-02  1.36986539e-01
 -6.29712716e-02 -2.56711990e-02 -7.98574165e-02 -4.02405486e-02
  2.49471933e-01 -8.17479417e-02  5.52756079e-02  1.25543460e-01
 -3.20595514e-04  6.62912354e-02  2.24184152e-02  1.79940742e-02
 -1.14325516e-01  1.86780225e-02 -1.31507993e-01 -8.04690868e-02
  2.15708762e-02 -4.36507724e-02  3.35744992e-02  1.30871743e-01
 -1.55750722e-01  6.63230568e-02 -1.72667881e-03  6.49587512e-02
 -3.83134256e-03  1.36331785e-02 -1.90574434e-02 -6.23073056e-02
  1.46381959e-01 -1.40989050e-01  1.97099820e-01  1.66271552e-01
  6.36720145e-03  8.72459933e-02  1.13874197e-01  9.89877582e-02
 -2.79125702e-02 -3.60361747e-02 -1.50697634e-01 -1.13765942e-02
  5.23682535e-02 -1.82600375e-02  6.08284362e-02  1.99213307e-02]