[-0.15359341  0.11345891  0.11958208 -0.0318105  -0.13713622 -0.10180416
 -0.07752628 -0.11723508  0.13041992 -0.09909112  0.1917816  -0.07082724
 -0.1813539  -0.04267401 -0.08549815  0.23822606 -0.18555866 -0.14731753
 -0.04180024 -0.02128123  0.05148093 -0.03966066  0.00476542  0.01039939
 -0.02274955 -0.35196388 -0.11718624 -0.06573959  0.06411507 -0.01434222
 -0.04375887  0.04952046 -0.11838111 -0.07757562  0.0568943   0.08323203
 -0.04728885 -0.10542253  0.19725987 -0.06991448 -0.24773414 -0.01008825
  0.12183575  0.20231795  0.25123915  0.05250287  0.04215726 -0.14724553
  0.15538827 -0.15366814 -0.04206764  0.15486182  0.06974066  0.07273859
  0.05101458 -0.12550895  0.03372459  0.12648545 -0.13326423 -0.0548381
  0.07096319 -0.08609718 -0.0277584  -0.08952515  0.22592132  0.10307425
 -0.08372839 -0.18432797  0.22619633 -0.14816137 -0.05902159  0.02965075
 -0.15775186 -0.11563702 -0.2401562  -0.06226085  0.39120385  0.07476442
 -0.08942484  0.08188733 -0.04995258 -0.03076163  0.05182013  0.13387755
 -0.06131661 -0.01977192 -0.06585213 -0.05586795  0.22428933 -0.08205049
  0.04704162  0.1344797   0.00161641  0.05949775  0.00876543 -0.0064913
 -0.09982025  0.04626251 -0.16195659 -0.07175931  0.00618578 -0.03793603
  0.03856977  0.09503148 -0.14786838  0.05251249 -0.0024202   0.08593845
 -0.00562692 -0.00167412 -0.05198593 -0.04756601  0.13724945 -0.13223754
  0.20164204  0.17116421  0.0093792   0.08045321  0.15159893  0.09282428
 -0.00423345 -0.03969087 -0.16579941 -0.00956681  0.06779169 -0.02781516
  0.04634631  0.02149008]