[-9.27047729e-02  1.10480838e-01  9.30009708e-02 -5.52610159e-02
 -1.11890890e-01 -5.69155775e-02 -1.52165117e-02 -1.02500714e-01
  2.04755336e-01 -1.17943548e-01  2.03214318e-01 -2.58101523e-02
 -2.04994231e-01 -5.39047532e-02 -5.17099760e-02  2.00549632e-01
 -1.85568735e-01 -1.62031010e-01 -5.55202141e-02 -2.54147183e-02
  8.04198254e-03 -1.00306710e-02  1.74281802e-02  3.73881534e-02
 -5.92235737e-02 -3.25230867e-01 -1.13308571e-01 -2.27278937e-02
  1.05145924e-01 -7.49942614e-03 -8.21897462e-02  3.44544724e-02
 -1.70147344e-01 -6.60095140e-02  9.58630741e-02  6.29416630e-02
 -7.36795291e-02 -9.64724049e-02  2.27975085e-01 -1.22482970e-03
 -2.14024112e-01 -1.09144440e-02  6.05695657e-02  2.00742841e-01
  2.42967948e-01  3.07601746e-02  1.07240211e-02 -1.45724908e-01
  1.51982978e-01 -1.87174648e-01  1.38462400e-02  2.05277607e-01
  1.06880479e-01  9.48535129e-02  5.16046174e-02 -1.66886076e-01
 -2.48542279e-02  1.46202996e-01 -1.31749198e-01 -4.76186685e-02
  3.76322190e-03 -7.75785521e-02 -3.29708867e-02 -7.52410963e-02
  1.63544863e-01  1.14932023e-01 -9.84599590e-02 -1.90332696e-01
  2.26246789e-01 -1.37611240e-01 -3.64228599e-02  3.20008323e-02
 -1.29176557e-01 -1.26965836e-01 -2.29774743e-01 -2.69917734e-02
  3.53091925e-01  1.14581041e-01 -1.43041372e-01  3.10027339e-02
 -8.22832584e-02 -9.15271975e-03  2.25691800e-03  6.74823225e-02
 -1.21220760e-01 -1.30563332e-02 -7.01054707e-02 -2.86327284e-02
  1.88918114e-01 -7.03303739e-02 -3.09892021e-05  1.39634296e-01
 -1.23461550e-02  4.73366044e-02  3.35438401e-02  2.27163080e-02
 -1.12036906e-01  8.77104420e-03 -1.90292701e-01 -9.58301425e-02
  3.46121006e-02 -6.05807491e-02  3.15203927e-02  1.23379946e-01
 -2.04550937e-01  1.04477845e-01  1.47120357e-02 -9.14700609e-03
 -2.12148968e-02  1.14822090e-02 -7.96420574e-02 -2.02060100e-02
  1.25486657e-01 -1.81790695e-01  2.72629112e-01  1.62884265e-01
 -1.45918997e-02  1.40452206e-01  1.17596924e-01  6.99729025e-02
 -2.10346710e-02 -6.92834631e-02 -5.86853586e-02 -9.72741470e-02
  5.07605486e-02  2.18600184e-02  8.77978280e-02 -2.51830812e-03]