[-0.08696485  0.09417953  0.10883838 -0.08552368 -0.10500022 -0.06216861
  0.0064238  -0.10814067  0.22459602 -0.12714319  0.18612964 -0.05019988
 -0.22511902 -0.02487725 -0.03597461  0.22160204 -0.18444259 -0.1819298
 -0.06919196 -0.02923132 -0.02145654  0.01359664  0.03768794  0.07039227
 -0.06604051 -0.337865   -0.08375343 -0.0293154   0.05254859 -0.03283974
 -0.06833213  0.07161162 -0.18015218 -0.04366158  0.10628402  0.10139964
 -0.07660132 -0.0934692   0.18955629 -0.01744009 -0.24693649 -0.04428621
  0.07877168  0.20651384  0.24732168  0.03796017 -0.00963389 -0.16182166
  0.13166362 -0.21059747 -0.00299522  0.18016876  0.05658641  0.10020278
  0.02394815 -0.18857263 -0.01063479  0.12903254 -0.11862158 -0.0543953
  0.04042436 -0.08180165 -0.03258504 -0.07109072  0.20463596  0.11070309
 -0.12721457 -0.16183771  0.19734891 -0.16043536 -0.03550167  0.02731188
 -0.13890982 -0.13906485 -0.2112937  -0.05208535  0.37704816  0.10192849
 -0.14573316  0.02024931 -0.09386772  0.05292239  0.01951955  0.09000088
 -0.11926376  0.00131133 -0.06598093 -0.02166993  0.19796006 -0.07260263
  0.00111125  0.1471207  -0.02335606  0.05091282  0.03559236  0.01474334
 -0.09674181  0.0297483  -0.2162739  -0.08682694  0.00410329 -0.04772579
  0.03516032  0.12595691 -0.20598869  0.1230505   0.03618548  0.00057751
  0.02607457  0.06501063 -0.07324532 -0.08123716  0.1240389  -0.19365121
  0.25689054  0.18910815 -0.00061343  0.15695636  0.09714981  0.12490433
 -0.02155019 -0.04067511 -0.06053354 -0.05566207  0.07607113  0.03134939
  0.08678184 -0.00961469]