[-0.06779071  0.11976433  0.09063978 -0.04347296 -0.07969236 -0.03862022
 -0.02912929 -0.1045317   0.21262847 -0.11968499  0.22324479 -0.05896406
 -0.20037334 -0.08342882 -0.0580583   0.22058503 -0.19249511 -0.16326186
 -0.04456785 -0.01046212  0.03387086 -0.01404469  0.01979084  0.00779402
 -0.08206263 -0.33796957 -0.11367738 -0.02620116  0.08017483 -0.03056326
 -0.08434563  0.03328237 -0.16609244 -0.07356288  0.07829454  0.07425707
 -0.03464555 -0.10307335  0.19897114 -0.02746741 -0.21753512  0.00578812
  0.07347989  0.19130819  0.22223485  0.05505637  0.0124283  -0.1622083
  0.1396455  -0.14999758 -0.00453867  0.17209606  0.08806296  0.08949461
  0.03097357 -0.15218194 -0.02298247  0.15119936 -0.1193432  -0.0372643
  0.02825396 -0.06948876 -0.00719172 -0.08489727  0.19264488  0.08779435
 -0.10011747 -0.19730079  0.20287013 -0.13200419 -0.04699994  0.03182208
 -0.13300441 -0.13203423 -0.25450322 -0.03494401  0.35361996  0.08898386
 -0.14898668  0.0371284  -0.05726164 -0.00090313  0.03309077  0.09852014
 -0.08446943  0.00112484 -0.08407777 -0.05059363  0.2413898  -0.06894366
 -0.00727538  0.1379526  -0.03618702  0.06146823  0.01334491  0.00335548
 -0.09922134  0.04193106 -0.17050539 -0.07175402  0.02221842 -0.05432335
  0.01082561  0.12708922 -0.17336498  0.08657903  0.00779817  0.01839462
 -0.00307235  0.02837577 -0.07741909 -0.03647166  0.14308138 -0.18793344
  0.25402424  0.173191    0.02004596  0.12326812  0.12758724  0.10974466
 -0.01756526 -0.03261488 -0.10821667 -0.07474618  0.05271566 -0.00441602
  0.11034196  0.00544835]