[-0.11761969  0.12000833  0.12174932 -0.04183602 -0.16603397 -0.04282125
 -0.04023212 -0.11032017  0.14135161 -0.11674875  0.2245035  -0.01745065
 -0.19857381  0.00904819 -0.06092978  0.17880689 -0.13698988 -0.15559612
 -0.01443032  0.00068639  0.00409565 -0.04190236 -0.00945194  0.02685563
 -0.04590074 -0.30685693 -0.13264607 -0.04429647  0.11906338  0.00632411
 -0.07368388 -0.00102036 -0.12568623 -0.04759015  0.08073123  0.07208648
 -0.10719971 -0.11155265  0.25063977 -0.02173805 -0.20921326 -0.00659241
  0.03319306  0.23289497  0.22119823  0.02862917  0.05687933 -0.12790275
  0.12543786 -0.18678223  0.01955791  0.17400065  0.08824201  0.07213076
  0.04938288 -0.15688093  0.01491992  0.13182805 -0.15085432 -0.04448048
  0.01906619 -0.04807062 -0.00682594 -0.06807698  0.22336808  0.13622843
 -0.07582486 -0.1868013   0.25337926 -0.14984289 -0.04248627  0.05144204
 -0.14720775 -0.10542681 -0.19014454 -0.03207136  0.42783251  0.11060251
 -0.11245761  0.03726785 -0.0745345  -0.05177889  0.04030874  0.06055248
 -0.09191388 -0.03977072 -0.07472759 -0.03135487  0.23626614 -0.08506791
  0.01408131  0.11867695  0.02460194  0.029676    0.05299813  0.01249177
 -0.08713106  0.00967848 -0.16088244 -0.09233492  0.00416901 -0.06665014
  0.03861137  0.14542972 -0.22279878  0.10428224  0.00375469  0.00496202
 -0.02213678  0.00534252 -0.08401224 -0.0180754   0.15542631 -0.18910885
  0.22821979  0.15257467 -0.00974269  0.08669448  0.10999627  0.03315799
 -0.0064081  -0.06659402 -0.11853392 -0.0740267   0.02731785 -0.01654489
  0.06946023  0.01798052]