[-8.85788128e-02  1.37353003e-01  1.62693128e-01 -7.91778415e-02
 -1.57390103e-01 -3.31255198e-02 -4.13919054e-02 -7.25868344e-02
  1.56269297e-01 -2.35638320e-02  2.78395563e-01 -8.12915713e-02
 -2.63965428e-01  3.01835965e-02 -4.92711999e-02  2.08597377e-01
 -1.98249340e-01 -1.19726114e-01 -4.49734069e-02 -1.08988499e-02
 -4.59891669e-02 -1.98427122e-02  3.62930298e-02  5.30678406e-02
 -6.82724342e-02 -3.83714557e-01 -8.90683234e-02 -4.85116355e-02
  6.10305183e-02  1.39557971e-02 -1.06718890e-01  2.22352520e-02
 -1.53037801e-01 -5.76828495e-02  9.86177325e-02  9.68445092e-02
 -6.73845038e-02 -1.20895915e-01  1.68061540e-01 -2.72323228e-02
 -2.32180357e-01  2.71168780e-02  7.58305117e-02  2.11627945e-01
  2.53325850e-01  3.16234417e-02  6.33943677e-02 -1.04674689e-01
  9.99712348e-02 -2.18572482e-01  3.66418175e-02  1.83616236e-01
  8.45577344e-02  5.90705462e-02  4.06972691e-02 -2.05228284e-01
 -6.36110231e-02  2.09391192e-01 -1.23169340e-01 -1.44606801e-02
  2.89603714e-02 -3.44462842e-02  2.91772280e-02 -1.12814523e-01
  2.37406895e-01  1.29981443e-01 -1.76153064e-01 -1.33190140e-01
  1.74795628e-01 -9.90744904e-02  5.63962990e-03  4.37782481e-02
 -1.90690562e-01 -1.73387542e-01 -2.47169539e-01  3.16422880e-02
  4.09435421e-01  9.44467932e-02 -1.76608264e-01  5.31698950e-03
 -9.95592102e-02  2.68107001e-02 -2.03087926e-03  1.29663333e-01
 -3.82324643e-02 -3.65675357e-03 -1.14823475e-01 -4.56038192e-02
  1.90294892e-01 -1.00620545e-01  1.64121166e-02  2.01404676e-01
 -3.52607220e-02  5.94896078e-02  9.46237147e-03  7.45045096e-02
 -1.24589339e-01 -2.14487910e-02 -1.82871848e-01 -6.93002567e-02
 -5.70186153e-02 -4.58436981e-02 -1.36905108e-02  9.44816470e-02
 -1.96032763e-01  5.39762639e-02  2.08721366e-02  1.84596535e-02
 -3.55975218e-02 -1.86665950e-03  1.52439177e-02 -7.22446069e-02
  1.62797123e-01 -2.59565890e-01  2.10311487e-01  1.96718946e-01
  3.51891300e-04  1.55653834e-01  8.49962384e-02  3.64571176e-02
  1.72886848e-02 -6.33309707e-02 -5.44313602e-02 -4.31526303e-02
  7.39719579e-03 -1.64525844e-02  5.25623560e-02  2.84628924e-02]