[-0.08835133  0.11469263  0.10289481 -0.06424492 -0.09922108 -0.04283088
 -0.02560932 -0.11051895  0.19460709 -0.11766781  0.21575983 -0.06214219
 -0.20512198 -0.06515513 -0.06420883  0.21623723 -0.19804309 -0.16691504
 -0.03422219 -0.00797086  0.01560616  0.00072322  0.02025783  0.03431053
 -0.08345802 -0.34528264 -0.10485651 -0.00666515  0.0917022  -0.0308775
 -0.08186664  0.07698908 -0.16587253 -0.05304743  0.08760992  0.09107057
 -0.03931358 -0.09482967  0.21290119  0.00247577 -0.23178153 -0.01098371
  0.07234494  0.21843636  0.2393343   0.03089427  0.00411057 -0.13755818
  0.14149697 -0.17158866 -0.00469122  0.19778319  0.07844129  0.08126344
  0.03207756 -0.15785845 -0.03226487  0.14308122 -0.12063269 -0.04843901
  0.0317308  -0.0870887   0.0036281  -0.09695803  0.1703002   0.09618584
 -0.0961706  -0.18696208  0.21595465 -0.12471644 -0.04308224  0.0234968
 -0.14041412 -0.11367696 -0.24093246 -0.04427039  0.34987563  0.10315429
 -0.13324232  0.04497376 -0.06667577 -0.00635304  0.02194556  0.08692848
 -0.09535473  0.00118853 -0.06933044 -0.03222746  0.2111374  -0.04980208
 -0.00425595  0.1335936  -0.0366919   0.05491328  0.03518056  0.004746
 -0.11384638  0.03346379 -0.18564562 -0.07631713 -0.00520271 -0.06698824
  0.03648439  0.14030612 -0.18442957  0.10886147  0.01901732  0.01906113
 -0.0039543   0.04220092 -0.07401916 -0.02988532  0.1296083  -0.18708377
  0.25320294  0.16106151  0.00509908  0.1309645   0.13134134  0.1039582
 -0.02592801 -0.03877295 -0.07279788 -0.08200049  0.05521647 -0.00092721
  0.11178275  0.00571368]