[-0.09913817  0.15101096  0.16499758 -0.09084281 -0.16413775 -0.04803731
 -0.04822771 -0.07800356  0.16295245 -0.0352373   0.26298529 -0.08833583
 -0.26468807  0.03007554 -0.03884745  0.19566332 -0.19696163 -0.10597253
 -0.07253622 -0.0282074  -0.02976075 -0.01676341  0.02051309  0.05682873
 -0.07785758 -0.36073405 -0.08496604 -0.03912302  0.04432701  0.00684766
 -0.09981724  0.01300964 -0.16114375 -0.08421252  0.09232944  0.09801841
 -0.07111676 -0.12126265  0.12771724 -0.0779366  -0.22528438  0.03145107
  0.0701985   0.21141422  0.23079844  0.0182434   0.06265486 -0.11891353
  0.10170026 -0.20490547  0.02253652  0.18520555  0.0720763   0.04687386
  0.05245982 -0.19169001 -0.04335597  0.22202609 -0.12025696 -0.00883843
  0.06559116 -0.06747217  0.01393954 -0.12650095  0.22678049  0.1236238
 -0.16688107 -0.16400777  0.16802457 -0.08457284  0.00920601  0.03669772
 -0.18739268 -0.17666833 -0.2496337   0.03137191  0.41332537  0.10049578
 -0.18438189  0.02283428 -0.1223337   0.04188899  0.00382572  0.12365442
 -0.02808923 -0.00251606 -0.1292095  -0.00378432  0.18129838 -0.11618954
  0.02726498  0.19268663 -0.0170245   0.02908186 -0.00042259  0.04987899
 -0.15810978 -0.00229123 -0.18039124 -0.04591043 -0.0254477  -0.03812062
 -0.00853742  0.09807038 -0.17069931  0.07134195  0.02398187  0.0231071
 -0.03346058 -0.01784688  0.00881932 -0.08000574  0.16133077 -0.24901496
  0.2070999   0.18110491  0.02062004  0.15943822  0.07691929  0.04417811
  0.02814635 -0.0449792  -0.07071877 -0.03627163  0.01967145 -0.02068295
  0.05714339  0.02761686]