[-8.71502832e-02  9.96381417e-02  5.88724725e-02 -5.82739674e-02
 -1.04580477e-01 -7.24849254e-02 -4.79737744e-02 -1.85692906e-01
  1.57875180e-01 -1.13321327e-01  2.27958307e-01 -6.92302063e-02
 -2.01416135e-01 -1.25872120e-01 -4.16133851e-02  2.23298579e-01
 -1.44797266e-01 -1.65930912e-01 -1.07490206e-02  2.02355683e-02
  1.12972915e-01 -1.27155604e-02  1.95470955e-02  4.60037366e-02
 -6.57294914e-02 -3.55633855e-01 -1.20912887e-01 -7.76667818e-02
 -3.41653801e-03 -2.51813736e-02 -7.44643360e-02  7.89288878e-02
 -1.44596219e-01 -7.69633502e-02  4.93761152e-02  2.03341544e-02
 -1.05081489e-02 -6.56678602e-02  1.69575527e-01  1.71699058e-02
 -2.72154778e-01  8.87475610e-02  6.44577220e-02  2.23841906e-01
  1.89686731e-01  3.71285342e-02  6.51047453e-02 -1.65861502e-01
  1.33306250e-01 -1.70613751e-01 -1.82413985e-03  1.23520993e-01
  1.00659601e-01  7.67074293e-03  4.91212420e-02 -1.43979803e-01
  3.49176320e-04  9.94312987e-02 -1.69825360e-01  2.66672727e-02
  9.24367234e-02 -8.18682387e-02 -6.15609996e-02 -9.16349888e-02
  1.97808266e-01  1.03561521e-01 -1.05069853e-01 -1.81890234e-01
  1.43679187e-01 -1.17383592e-01 -1.00579672e-01  5.62354513e-02
 -1.92773819e-01 -1.84983060e-01 -2.84082294e-01  5.30156353e-03
  3.79155487e-01  1.17635205e-01 -2.09805712e-01  6.16999753e-02
 -3.10963579e-02  6.83624670e-02  1.21594749e-01  1.70789763e-01
  1.69498883e-02  1.53361040e-03 -8.05263221e-02 -5.37206344e-02
  1.80790991e-01 -9.26614106e-02 -2.17978805e-02  2.46853635e-01
  9.72623192e-03  1.11560248e-01 -2.08130889e-02  2.08655233e-03
 -6.14602678e-02  3.25629115e-02 -1.52816445e-01 -5.81901371e-02
  2.63037137e-03  4.45007049e-02  1.69602502e-02  1.16627172e-01
 -1.51474029e-01  8.16320702e-02 -2.32062079e-02  4.97616045e-02
 -2.02603228e-02 -6.11566764e-04 -1.85644310e-02 -4.50256839e-02
  4.07407694e-02 -2.04044446e-01  1.84105068e-01  1.90796301e-01
  5.32271154e-02  8.24446008e-02  1.02056444e-01  2.64008343e-02
  2.91507542e-02 -3.46426107e-02 -1.91202551e-01 -1.61266010e-02
  1.32827833e-01 -2.37020683e-02  3.87492962e-02 -1.60808172e-02]