[-7.05888197e-02  1.23545647e-01  6.59825429e-02 -4.56127189e-02
 -9.99134555e-02 -4.95389588e-02 -4.79676127e-02 -1.71455026e-01
  1.69476882e-01 -1.04738593e-01  2.12549970e-01 -7.28297681e-02
 -2.22571731e-01 -1.06707729e-01 -3.71844955e-02  2.26992354e-01
 -1.48434669e-01 -1.77307054e-01 -1.40072182e-02  3.50799039e-02
  1.16430305e-01  9.31870844e-03  1.72390193e-02  4.42125164e-02
 -7.23431855e-02 -3.61991882e-01 -1.12311147e-01 -7.28190765e-02
  4.95897233e-03 -2.51134094e-02 -9.44304392e-02  5.45010939e-02
 -1.55021146e-01 -7.19764009e-02  7.27460906e-02  3.24725471e-02
 -1.41419312e-02 -7.04301447e-02  1.79629549e-01  2.34040003e-02
 -2.70826340e-01  9.32483003e-02  5.91411479e-02  2.29928568e-01
  1.76929638e-01  5.10575287e-02  5.50119840e-02 -1.73401818e-01
  1.24411069e-01 -1.70796484e-01  2.06824895e-02  1.43237233e-01
  9.63762850e-02  2.04768460e-02  4.18078974e-02 -1.60833344e-01
 -1.43533144e-02  1.13205157e-01 -1.69201478e-01  3.26409601e-02
  1.02504611e-01 -7.35623762e-02 -6.32485747e-02 -1.00379147e-01
  2.18021154e-01  9.62314010e-02 -1.25204518e-01 -1.91259459e-01
  1.22410648e-01 -1.18126206e-01 -8.96178558e-02  4.97754887e-02
 -1.84208021e-01 -1.70053422e-01 -2.63268441e-01  8.96686036e-03
  3.83478612e-01  9.39272866e-02 -2.30083972e-01  5.52448593e-02
 -3.51128280e-02  5.86620569e-02  1.14490487e-01  1.78633958e-01
  1.93127468e-02  7.93053117e-03 -7.77654126e-02 -5.36421835e-02
  1.91684559e-01 -9.48156044e-02 -3.64848832e-03  2.53744632e-01
 -7.80170783e-04  1.05527259e-01 -2.43057199e-02 -5.29329805e-03
 -7.26830512e-02  2.62877103e-02 -1.42031640e-01 -6.51385412e-02
  3.32526484e-04  3.72498147e-02  4.87193186e-03  1.21614553e-01
 -1.63786128e-01  8.30315873e-02 -1.97417866e-02  4.72133532e-02
  4.29716706e-03 -4.47253464e-03 -3.61398458e-02 -6.35628700e-02
  6.22540712e-02 -2.21560821e-01  1.97989091e-01  1.78053424e-01
  4.57143709e-02  7.64376298e-02  9.68049988e-02  4.78758290e-02
  3.75403315e-02 -1.78878773e-02 -2.05263302e-01 -1.88170541e-02
  1.39487118e-01 -3.16460915e-02  3.99808884e-02 -2.45695617e-02]