[-0.09458301  0.15127453  0.11080723 -0.04543136 -0.08949532 -0.08402734
 -0.02385758 -0.19154325  0.13633411 -0.11632236  0.27731761 -0.07138696
 -0.23920861 -0.11035135 -0.00586066  0.20937414 -0.15148655 -0.1440617
  0.00635362  0.04889517  0.12456232 -0.04516416  0.05172556  0.07139894
 -0.10302534 -0.35973132 -0.14079222 -0.07405846 -0.01982111 -0.03899562
 -0.07300971  0.06554417 -0.15408167 -0.06277367  0.0235896   0.01046069
  0.01448137 -0.07855596  0.16600007  0.0276016  -0.26953667  0.09072321
  0.02446133  0.22250326  0.20435165  0.01076184  0.07634809 -0.13538532
  0.10357773 -0.139834    0.00688085  0.11769462  0.10339639 -0.01025202
  0.04352797 -0.14729543 -0.01596141  0.07463879 -0.17291461  0.00264582
  0.10954355 -0.10041201 -0.03324536 -0.10354475  0.18034358  0.0961981
 -0.10652911 -0.15900178  0.16884236 -0.11489643 -0.0554451   0.05538305
 -0.21580763 -0.17038237 -0.25195634  0.01642349  0.33686957  0.12503195
 -0.21432634  0.05187866 -0.06546926  0.07175509  0.06743769  0.18263313
  0.05433482  0.02156365 -0.07763123 -0.03857911  0.15496249 -0.084338
 -0.00511675  0.29034349 -0.00979912  0.06716611  0.01596276 -0.04408412
 -0.07491194  0.00867761 -0.13148469 -0.03500681 -0.07050525 -0.01400594
 -0.00952109  0.10355315 -0.17517804  0.06561609 -0.0291111   0.04793797
 -0.0331878   0.00964074 -0.03165297 -0.06577455  0.04531248 -0.23069592
  0.17027389  0.18713228  0.02713644  0.06886539  0.06927051  0.06431583
  0.02051893 -0.02149068 -0.15971224 -0.01534083  0.12557152 -0.05292909
  0.04787219 -0.0300718 ]