[-0.0926731   0.16904369  0.07868224 -0.08665241 -0.13277581 -0.03660474
 -0.05225961 -0.12677343  0.15219121 -0.08761805  0.27672687 -0.08000091
 -0.24272256 -0.07909005 -0.03477315  0.26587826 -0.18976007 -0.14521377
  0.01656361  0.03515439  0.1390195   0.01522283 -0.0027891   0.08762668
 -0.10569496 -0.35150284 -0.09120275 -0.03484815  0.00993793 -0.06103506
 -0.05657671  0.03791393 -0.18698274 -0.08155045  0.06870069  0.06819463
 -0.01180527 -0.12383407  0.20275091  0.05921369 -0.27506274  0.09550087
  0.05571643  0.25422761  0.18501921  0.01210083  0.07113217 -0.20176244
  0.14724322 -0.18804619 -0.00293111  0.15197042  0.05834241  0.01359109
  0.01195059 -0.15212017  0.02156228  0.14267939 -0.22945078 -0.01043003
  0.11760829 -0.08219818  0.03303357 -0.12606047  0.18467022  0.07420383
 -0.11170681 -0.16760223  0.12185536 -0.1141585  -0.06428888  0.07606112
 -0.15627909 -0.18772113 -0.30798239 -0.00480329  0.38304558  0.13467565
 -0.20704933  0.05217714 -0.01350735  0.00223936  0.13372515  0.21589242
  0.0565383   0.00945463 -0.08463936  0.00154638  0.22047041 -0.0650862
  0.03143857  0.2891908   0.02173148  0.08235129  0.01198458  0.03811662
 -0.12710665  0.01762077 -0.11893951 -0.03687256 -0.09266685  0.01265999
  0.0213311   0.12738626 -0.17650846  0.09862816 -0.03053895  0.01294867
 -0.07736175 -0.04578498  0.00303268 -0.03692843  0.06976625 -0.20795155
  0.16194658  0.16805719  0.00852502  0.09446609  0.09972489  0.05906494
 -0.00919412 -0.07020061 -0.18134384 -0.00062084  0.09272266 -0.06041104
  0.12160218 -0.03900364]