[-0.10708451  0.0928621   0.05378233 -0.04803006 -0.0799292  -0.0886912
 -0.03779126 -0.15994142  0.1410744  -0.08497006  0.26313993 -0.06391124
 -0.18643339 -0.1592132  -0.0375923   0.23027726 -0.20226216 -0.13868302
 -0.01512993  0.0142684   0.13554256 -0.02049876  0.0191057   0.04005415
 -0.07778945 -0.35314319 -0.10827976 -0.08881942  0.03292357 -0.03680456
 -0.06662684  0.07666226 -0.17337371 -0.09198451  0.0717559   0.05116976
 -0.00461645 -0.08323505  0.17921819 -0.00640265 -0.24231215  0.05903801
  0.06829578  0.21709965  0.17082693  0.0161212   0.05529517 -0.14571713
  0.12379304 -0.13746536 -0.00724027  0.13612303  0.11723705  0.04475593
  0.03097512 -0.14520924  0.02435683  0.10233436 -0.15650894 -0.00484027
  0.09012766 -0.09989127 -0.0344858  -0.08148449  0.20237957  0.05635599
 -0.11432409 -0.18506111  0.12193155 -0.08809982 -0.06273486  0.0555253
 -0.18384992 -0.17320071 -0.26732114  0.00299364  0.36005738  0.08417215
 -0.21898241  0.0644009  -0.07300507  0.02217387  0.11273544  0.1716096
  0.03768222  0.02854802 -0.08528251 -0.04322287  0.17797165 -0.09613768
  0.00601856  0.24556188 -0.00456654  0.08825406 -0.01156734 -0.03151284
 -0.06200691  0.04850175 -0.09906135 -0.03738749 -0.0036956  -0.00657938
  0.00283065  0.09588228 -0.15195517  0.0581872  -0.00201386  0.06906123
 -0.00629813 -0.02204307 -0.04528309 -0.0736096   0.04751099 -0.2296305
  0.21258128  0.19972685  0.04646155  0.09767481  0.09919625  0.05746811
  0.01852459 -0.03515604 -0.17947483  0.0052326   0.12643795 -0.02489037
  0.03391482 -0.03736746]