[-0.08963975  0.18486905  0.07555679 -0.09572553 -0.14081022 -0.03202112
 -0.06665162 -0.12278397  0.1623337  -0.0908495   0.27272373 -0.07276757
 -0.24301448 -0.08982213 -0.02865595  0.26673111 -0.18113896 -0.14376469
  0.01279057  0.03619251  0.13946153 -0.01025171  0.01466277  0.09725777
 -0.11283802 -0.34862086 -0.09684782 -0.03302909 -0.00529733 -0.0845594
 -0.07117275  0.02133253 -0.19686124 -0.08381744  0.05531619  0.07699086
 -0.0217595  -0.12794678  0.19135493  0.05359722 -0.26508734  0.07874197
  0.06018688  0.23417102  0.20283829  0.01444387  0.08129322 -0.19580066
  0.15643375 -0.18125801  0.01742751  0.14306438  0.06689434  0.00945887
  0.03430124 -0.15333167  0.00702471  0.17204008 -0.21700504 -0.01159645
  0.10654368 -0.0601364   0.00676385 -0.13611065  0.18977773  0.10582294
 -0.11039894 -0.17513537  0.13694313 -0.10820551 -0.0572382   0.08619595
 -0.15588422 -0.18989617 -0.29347718 -0.01264789  0.37347221  0.13605538
 -0.20863262  0.03234116 -0.01813226  0.00098413  0.11123528  0.19679148
  0.0494021   0.01434688 -0.08572077  0.00249822  0.21684806 -0.06095993
  0.03859753  0.2814641   0.02075185  0.07005918  0.00656877  0.02537884
 -0.13301609  0.02105495 -0.1306517  -0.05251671 -0.09971417 -0.00072694
  0.00062278  0.11198901 -0.17773709  0.0822745  -0.02422915  0.01288516
 -0.09054437 -0.04741615 -0.01522629 -0.03655749  0.0751229  -0.21799605
  0.15593737  0.1619983  -0.00089739  0.09002094  0.09622919  0.07636428
  0.00360972 -0.08228778 -0.16944723  0.00417349  0.09381144 -0.06357025
  0.11931312 -0.0417722 ]