[-0.07265341  0.10244296  0.04636098 -0.02876335 -0.11495149 -0.05669107
 -0.03289399 -0.1632714   0.13904436 -0.08587649  0.24897812 -0.06407767
 -0.19626543 -0.12995195 -0.04259263  0.2150756  -0.14687382 -0.13113096
 -0.02219904  0.0341633   0.12752812  0.01513111  0.0337429   0.02668943
 -0.04997472 -0.35664436 -0.09798396 -0.07587563  0.03473114 -0.03072644
 -0.08463558  0.07882859 -0.14950953 -0.09520367  0.08578744  0.04467869
 -0.01895538 -0.0637958   0.16827138  0.00815912 -0.26061782  0.07950436
  0.05275562  0.22315522  0.16980486  0.05222303  0.0603719  -0.18414477
  0.10822853 -0.15997958  0.03203348  0.12014832  0.1063071   0.0259571
  0.03412019 -0.14956483  0.00098003  0.10448652 -0.16092396  0.01508849
  0.10655075 -0.07425608 -0.02946155 -0.09559187  0.21074931  0.07411524
 -0.11554476 -0.17294976  0.10329499 -0.11321451 -0.0911834   0.05433816
 -0.16320512 -0.1739407  -0.26559547  0.01159204  0.39250857  0.09700264
 -0.21902955  0.04078644 -0.05001013  0.0338227   0.12848485  0.17310962
  0.0249163   0.00058428 -0.07451044 -0.0577861   0.19205968 -0.10995984
 -0.00930357  0.25583145 -0.00416622  0.09767261 -0.01426077 -0.00058566
 -0.0572343   0.05397877 -0.10619145 -0.05225505  0.00153053 -0.01082374
  0.01522423  0.10721093 -0.17486209  0.0802786  -0.02968512  0.06163186
  0.03019036 -0.03566883 -0.03324321 -0.05628637  0.06327124 -0.23054436
  0.21760046  0.18524294  0.05633106  0.10367958  0.10456773  0.05901809
  0.04117883 -0.04045057 -0.19300644 -0.01056772  0.13455057 -0.02967747
  0.03204623 -0.02351263]