[-0.06687521  0.10805837  0.04299253 -0.03188151 -0.0989791  -0.05415139
 -0.03871299 -0.15565251  0.14685448 -0.07677821  0.24222112 -0.04975808
 -0.19942148 -0.12306265 -0.03980238  0.21400431 -0.16819905 -0.13111655
 -0.02649388  0.03318694  0.12640686  0.01704986  0.02660577  0.02589102
 -0.0542811  -0.35888088 -0.09975073 -0.06748559  0.04518208 -0.02201613
 -0.08200715  0.07461938 -0.16290067 -0.08852515  0.09354269  0.04174965
 -0.01755035 -0.07720604  0.16681248  0.00985617 -0.24888292  0.08910649
  0.05164628  0.22767578  0.17565498  0.03633308  0.07058381 -0.17972781
  0.12726244 -0.14695248  0.01943601  0.13612659  0.10820315  0.03263605
  0.0320244  -0.16352132  0.0040239   0.10595515 -0.15393452  0.02400051
  0.10310052 -0.069671   -0.03458564 -0.09955333  0.20751007  0.06118874
 -0.12060709 -0.20586975  0.10948222 -0.10419323 -0.07593899  0.05993989
 -0.18599041 -0.17226556 -0.25863332  0.00961301  0.38372424  0.08361195
 -0.22236191  0.06070699 -0.05872861  0.03671001  0.11538855  0.17809847
  0.02983551  0.01188995 -0.08162706 -0.05215237  0.20699938 -0.1024797
 -0.01951012  0.25238284 -0.00902275  0.09019464 -0.01258753 -0.01312073
 -0.06659432  0.04535761 -0.11053812 -0.05638905 -0.00125627 -0.0167688
  0.00322364  0.11074392 -0.16378032  0.09007367 -0.02569635  0.08257989
  0.02484547 -0.0314831  -0.04834805 -0.0525244   0.07031793 -0.23360705
  0.23659173  0.17768835  0.0692342   0.09134131  0.09809231  0.06221053
  0.03370072 -0.01901561 -0.19362879 -0.01351167  0.12103652 -0.03325787
  0.03432801 -0.03050421]