[-0.09494872  0.17707059  0.0823353  -0.09180973 -0.13723497 -0.04330258
 -0.07148024 -0.13458093  0.14873402 -0.09392696  0.26774046 -0.07970106
 -0.2336797  -0.09524738 -0.02361432  0.26233241 -0.17762214 -0.14345929
  0.01091821  0.03950102  0.12218823 -0.00713456  0.021997    0.09358399
 -0.11006464 -0.35676727 -0.09941109 -0.03684975 -0.00493017 -0.06479701
 -0.06392821  0.02045464 -0.18720101 -0.08205549  0.05507359  0.07699113
 -0.01324935 -0.12642239  0.18987091  0.03853434 -0.2871078   0.07776355
  0.06133757  0.23624881  0.20514885  0.01612389  0.08073135 -0.19715677
  0.15350172 -0.17821421  0.01647345  0.13538979  0.05492052  0.00988945
  0.03010373 -0.15341242  0.00949868  0.17298973 -0.20401059 -0.02185647
  0.10156516 -0.05340136  0.02841873 -0.12916273  0.19988239  0.09918822
 -0.11825743 -0.16063376  0.13254789 -0.11056142 -0.05259782  0.09028586
 -0.1592626  -0.19293949 -0.30343157 -0.0076669   0.37568456  0.13368194
 -0.20993817  0.02067658 -0.01966843  0.01106921  0.12479128  0.21137534
  0.05584187  0.00763563 -0.08123462 -0.00830049  0.22610562 -0.06596468
  0.03303803  0.28164977  0.02395402  0.07323895  0.00086558  0.04084465
 -0.12719434  0.02722478 -0.1306458  -0.03849469 -0.0850576   0.01330128
  0.00609269  0.12256018 -0.18024789  0.08837876 -0.01582704  0.0157722
 -0.07498305 -0.04168798  0.0049431  -0.04511525  0.07447488 -0.21172714
  0.15990078  0.17143208  0.00330206  0.09952883  0.09498196  0.07126767
  0.00068791 -0.08292785 -0.16633181  0.00692097  0.09599947 -0.06267013
  0.11634741 -0.0366613 ]