[-9.95768160e-02  1.71897829e-01  5.76386563e-02 -9.29690227e-02
 -1.18784703e-01 -4.79817763e-02 -7.66764209e-02 -1.34681821e-01
  1.50566921e-01 -8.04357901e-02  2.60827750e-01 -9.53698754e-02
 -2.35302195e-01 -9.28762779e-02 -6.29023835e-02  2.70422727e-01
 -2.12390468e-01 -1.71397328e-01  1.73013452e-02  2.97336169e-02
  1.36126786e-01  7.25606829e-03 -6.97511807e-03  9.09116715e-02
 -1.20463006e-01 -3.55397969e-01 -9.50779468e-02 -3.99669483e-02
 -1.98948737e-02 -6.63647279e-02 -5.28989136e-02  6.45557642e-02
 -1.86446190e-01 -6.55974373e-02  7.09674880e-02  9.01078507e-02
  1.28771067e-02 -1.13627486e-01  1.88302383e-01  5.45476452e-02
 -2.78028250e-01  8.22143480e-02  8.24948475e-02  2.65310317e-01
  2.08113715e-01  4.59696073e-03  5.69913685e-02 -1.86031222e-01
  1.49281368e-01 -1.57600775e-01 -1.08227134e-02  1.63440526e-01
  6.57096133e-02  2.02350356e-02  1.94380935e-02 -1.37976721e-01
  2.39648800e-02  1.47279784e-01 -1.99221879e-01 -3.61617319e-02
  1.15648702e-01 -1.01578869e-01  2.95708012e-02 -1.34276256e-01
  1.88465133e-01  7.52278194e-02 -1.04432881e-01 -1.79519743e-01
  1.33353040e-01 -1.09613851e-01 -7.86036476e-02  7.15886876e-02
 -1.66352630e-01 -1.67154416e-01 -3.16340119e-01 -2.63034087e-02
  3.73523653e-01  1.12192668e-01 -1.95151553e-01  7.67978206e-02
  5.05478529e-04  1.33886305e-03  1.31480262e-01  2.14564160e-01
  4.93668169e-02  1.86953526e-02 -9.27335620e-02 -1.17227517e-03
  2.33603835e-01 -5.34600616e-02  2.58260909e-02  2.45211959e-01
 -3.49935819e-03  7.44539127e-02  2.18520351e-02  2.05889698e-02
 -1.15252987e-01  3.57287489e-02 -1.16617523e-01 -2.44637374e-02
 -1.02377191e-01  7.96758849e-03 -1.00224468e-04  1.14643514e-01
 -1.50002003e-01  6.42465428e-02 -1.22633455e-02  2.93381512e-02
 -8.86401683e-02 -3.55947316e-02  2.27734004e-03 -3.99034806e-02
  7.14226887e-02 -2.17307568e-01  1.66104719e-01  1.53726250e-01
  6.31482759e-03  8.89016166e-02  9.73705649e-02  7.55803734e-02
 -2.22897734e-02 -6.63657710e-02 -1.82001978e-01  1.13759644e-03
  9.63063389e-02 -5.34097254e-02  1.27647117e-01 -3.60309593e-02]