[-0.07288675  0.14643884  0.09348082 -0.06870228 -0.1218152  -0.05407794
 -0.09476922 -0.19322988  0.1298745  -0.07161028  0.27151164 -0.06350428
 -0.23804286 -0.1111476  -0.0885444   0.27408081 -0.20490296 -0.19124377
  0.02587534  0.00775358  0.10408665  0.00345239 -0.00351086  0.05414186
 -0.10735567 -0.31955668 -0.13884941 -0.06316929 -0.04547524 -0.06448116
 -0.06783115  0.05546006 -0.15896364 -0.03414452  0.08743323  0.06256019
  0.00602734 -0.11318652  0.18450227  0.01888341 -0.26675019  0.09339046
  0.1220681   0.22758918  0.18696696 -0.00535298  0.04447151 -0.18855686
  0.13460626 -0.14084546  0.02351136  0.17393743  0.08913407  0.02790549
  0.01475815 -0.14157456 -0.01319545  0.14546968 -0.18051425  0.00058667
  0.11705836 -0.13331762 -0.04603974 -0.14295261  0.16682576  0.10409153
 -0.12606774 -0.20334423  0.11470909 -0.1223402  -0.10421764  0.06207341
 -0.18286367 -0.1840563  -0.30897683 -0.00238953  0.37455004  0.09656768
 -0.22606464  0.08253935  0.00544016  0.0088397   0.08620085  0.20210782
  0.03499793  0.05295355 -0.10626467 -0.02537605  0.22075169 -0.09188548
  0.04001806  0.26417038 -0.02743988  0.0894694   0.01837562  0.03026139
 -0.07901604  0.00198607 -0.13546878 -0.05638803 -0.06678464 -0.00308354
 -0.01356817  0.07818151 -0.13450566  0.04461945 -0.00333943  0.01745683
 -0.07845763 -0.05000569 -0.01644318 -0.06467462  0.11035365 -0.21673253
  0.18351601  0.15191041  0.02799368  0.09198043  0.11604495  0.09550419
 -0.0355458  -0.09259517 -0.15022223 -0.00487131  0.11306483 -0.04754354
  0.10544244 -0.03050016]