[-8.03457275e-02  1.90984994e-01  6.57103211e-02 -9.36922058e-02
 -1.36692673e-01 -4.74619567e-02 -6.06582537e-02 -1.35236144e-01
  1.63292199e-01 -8.40207338e-02  2.55711883e-01 -7.67605528e-02
 -2.38640711e-01 -8.39386508e-02 -5.17014042e-02  2.70978183e-01
 -1.87145129e-01 -1.46706522e-01  6.07975340e-03  3.18874121e-02
  1.35780856e-01 -4.37731869e-05  1.85791738e-02  9.57437232e-02
 -1.08391441e-01 -3.49848121e-01 -9.82907787e-02 -3.50075550e-02
 -1.21736294e-02 -6.68273196e-02 -4.07583229e-02  4.60325889e-02
 -1.74880967e-01 -7.50853866e-02  5.97919822e-02  7.07841963e-02
 -1.27919512e-02 -1.30245075e-01  1.97855681e-01  4.78837751e-02
 -2.75147349e-01  7.42918104e-02  7.87664801e-02  2.48193413e-01
  2.10920215e-01  6.18331600e-03  7.67365471e-02 -1.95739642e-01
  1.64051995e-01 -1.94968358e-01 -3.19877500e-03  1.37614265e-01
  5.14447987e-02  1.45614138e-02  4.08881009e-02 -1.41478583e-01
  1.81269106e-02  1.74772248e-01 -2.17254594e-01 -2.43719611e-02
  1.01899423e-01 -6.95139095e-02  1.08428337e-02 -1.36597276e-01
  1.95110932e-01  1.03351906e-01 -1.13805048e-01 -1.54249087e-01
  1.43025622e-01 -1.19397812e-01 -6.27984554e-02  8.06554183e-02
 -1.50737509e-01 -1.83666855e-01 -2.96617717e-01 -2.19585262e-02
  3.78489226e-01  1.40118942e-01 -1.94957033e-01  3.67641263e-02
 -8.65667220e-03  1.35415820e-02  1.21051766e-01  1.98306933e-01
  4.13443707e-02 -1.37955416e-03 -8.81962404e-02 -5.05286036e-03
  2.27053925e-01 -6.43951669e-02  3.31980698e-02  2.85937279e-01
  2.02260651e-02  7.53832608e-02  5.77874482e-04  2.88829990e-02
 -1.31465241e-01  2.72008665e-02 -1.38873339e-01 -3.89142223e-02
 -8.62106904e-02  1.19862612e-02  5.67190209e-03  1.14893310e-01
 -1.68221340e-01  7.61731789e-02 -2.08797008e-02  1.83747411e-02
 -7.78444782e-02 -5.00713848e-02 -4.81165061e-03 -3.29261832e-02
  8.21177587e-02 -2.00019822e-01  1.56972870e-01  1.53413936e-01
 -8.50552414e-03  9.01669785e-02  9.69342589e-02  7.00417310e-02
 -4.65347013e-03 -9.45774466e-02 -1.69065654e-01  6.06336957e-03
  1.04291700e-01 -6.87478036e-02  1.09790258e-01 -4.69211899e-02]