[-0.085022    0.1578404   0.09818933 -0.04014173 -0.11624195 -0.09667721
 -0.04672042 -0.19664766  0.13984555 -0.0758906   0.24571645 -0.05776199
 -0.23547868 -0.10817187 -0.03747747  0.23068333 -0.1528603  -0.13283104
 -0.01864882  0.02769407  0.12014971 -0.03554234  0.07310966  0.08507513
 -0.10625801 -0.35590625 -0.11631677 -0.07507741 -0.03105704 -0.01915562
 -0.09956633  0.0748501  -0.15211336 -0.07763261  0.04677349  0.04231856
 -0.01456384 -0.09015455  0.16493891  0.02465455 -0.26011345  0.08485451
  0.05510266  0.2353369   0.22071019  0.00704607  0.09747592 -0.13347903
  0.12120563 -0.16824858  0.0063973   0.11878631  0.09725898  0.00930134
  0.04172136 -0.16225843 -0.02059685  0.10587022 -0.15577035 -0.00689695
  0.10224766 -0.0848582  -0.06986003 -0.11410328  0.20574322  0.13535385
 -0.1258624  -0.1507604   0.13469081 -0.11047095 -0.06028527  0.04324969
 -0.22336106 -0.16311753 -0.267795    0.00331367  0.34806803  0.10462492
 -0.22441702  0.01130769 -0.07292066  0.09892595  0.07082532  0.15038334
  0.03010365  0.02544794 -0.09620072 -0.02985557  0.16986667 -0.11701136
 -0.0014948   0.28400645  0.02091649  0.07130492 -0.00668115 -0.01698181
 -0.08619478  0.01756221 -0.1611921  -0.03539208 -0.02940932  0.00314137
  0.00195913  0.08525983 -0.17836931  0.04354803 -0.00663163  0.04871824
 -0.02041606 -0.01842365 -0.07306998 -0.07712058  0.0661774  -0.20734273
  0.18491499  0.19744425  0.03290605  0.07160757  0.08600134  0.04387225
  0.01635613 -0.03202859 -0.12764739 -0.00355869  0.14678407 -0.03996301
  0.03198905 -0.03593365]