[-7.14180842e-02  1.47397578e-01  1.02929369e-01 -6.65863082e-02
 -1.28899932e-01 -5.09485267e-02 -1.03613935e-01 -1.93973601e-01
  1.24008872e-01 -8.64269957e-02  2.65896022e-01 -6.61849901e-02
 -2.48127773e-01 -9.83631089e-02 -1.02175668e-01  2.82065451e-01
 -2.03944668e-01 -1.95356756e-01  2.42985338e-02  1.07245771e-02
  9.32049528e-02  3.61550669e-03  1.08683668e-02  4.18135487e-02
 -9.60935876e-02 -3.31853360e-01 -1.46483958e-01 -5.93188405e-02
 -5.06730787e-02 -5.55159114e-02 -8.35275650e-02  5.90432063e-02
 -1.51205659e-01 -2.95681152e-02  8.84667560e-02  6.66510984e-02
 -2.15263362e-03 -1.15775816e-01  1.80936247e-01  1.94033962e-02
 -2.59044290e-01  9.33718681e-02  1.33306250e-01  2.31325790e-01
  1.91003308e-01 -2.41167101e-04  4.91544716e-02 -1.88788459e-01
  1.25723869e-01 -1.50239632e-01  3.99086587e-02  1.68365121e-01
  9.83111784e-02  3.72749567e-02  2.76167002e-02 -1.44763499e-01
 -1.23796286e-02  1.56645223e-01 -1.72092244e-01  5.16581489e-03
  1.16801523e-01 -1.17127277e-01 -4.32231426e-02 -1.44738615e-01
  1.82086021e-01  1.20884851e-01 -1.27369687e-01 -1.96968913e-01
  1.23360477e-01 -1.20421842e-01 -1.02128364e-01  5.26392572e-02
 -1.90722540e-01 -1.82180405e-01 -2.99357176e-01 -5.26684290e-03
  3.72272879e-01  1.09547652e-01 -2.16760352e-01  7.36924112e-02
  1.13887927e-02  6.80960855e-03  7.80324265e-02  2.01000378e-01
  2.31978148e-02  4.88769002e-02 -1.04339875e-01 -2.57979911e-02
  2.17386171e-01 -9.45496187e-02  3.18197124e-02  2.60607541e-01
 -2.32206695e-02  8.39461237e-02  2.03132834e-02  2.39818078e-02
 -8.00119266e-02 -6.37444109e-03 -1.55822799e-01 -6.58250749e-02
 -8.24304447e-02 -8.51566624e-03 -2.66355220e-02  7.81069174e-02
 -1.28025025e-01  3.41519900e-02 -9.80733987e-03  1.16410377e-02
 -8.22849423e-02 -4.86515351e-02 -1.52959442e-02 -6.41656592e-02
  1.08212948e-01 -2.13693663e-01  1.76401973e-01  1.54773578e-01
  3.37021314e-02  9.62122977e-02  1.16047181e-01  9.74574983e-02
 -2.78479438e-02 -9.55689996e-02 -1.46691605e-01 -8.07754323e-03
  1.16245545e-01 -4.24080081e-02  1.02538966e-01 -2.06991527e-02]