[-0.08924707  0.149828    0.10820913 -0.03435721 -0.10895838 -0.10319626
 -0.03511875 -0.1794875   0.13467443 -0.06632095  0.24743949 -0.05129625
 -0.22700687 -0.11155683 -0.01278294  0.23302536 -0.14710949 -0.1182511
 -0.02474939  0.0370066   0.12476732 -0.04536477  0.06261972  0.08874299
 -0.09644479 -0.35615495 -0.11287259 -0.07730099 -0.02122918 -0.02176067
 -0.10413118  0.06740802 -0.14748691 -0.08236232  0.04642743  0.0449917
 -0.00208056 -0.09186415  0.1601743   0.0200536  -0.2695429   0.08903717
  0.0484878   0.22340618  0.22286311  0.00926752  0.09850138 -0.12190838
  0.13422157 -0.18097675  0.00733148  0.10640843  0.09424673  0.01034364
  0.05649066 -0.16591263 -0.01440164  0.10669575 -0.16773303 -0.0062211
  0.09178775 -0.08313087 -0.05161353 -0.1066721   0.19123     0.13150126
 -0.12359224 -0.14220229  0.12169397 -0.10987389 -0.0438807   0.05123342
 -0.21905287 -0.16771699 -0.27087283  0.01306089  0.35025823  0.11666794
 -0.2388296   0.00045725 -0.07502545  0.08925828  0.08671905  0.1487013
  0.05217251  0.01730802 -0.1052627  -0.03641885  0.16891791 -0.11345537
  0.01471467  0.28990406  0.02081603  0.06997605 -0.02369813 -0.00743952
 -0.09260373  0.01403752 -0.15368997 -0.04319493 -0.03040016  0.0126627
  0.00160559  0.084275   -0.1883585   0.04205408 -0.00983684  0.0496341
 -0.02961465 -0.02296179 -0.06030716 -0.0658355   0.05470356 -0.20018812
  0.18390261  0.20443515  0.01460977  0.06429309  0.06851996  0.03364891
  0.01652942 -0.04548599 -0.1216416  -0.00137785  0.14215645 -0.03799928
  0.02417754 -0.04370104]