[-0.07979014  0.10493683  0.04062813 -0.03474417 -0.10717016 -0.06206064
 -0.02569021 -0.16860788  0.14654037 -0.08082481  0.2559863  -0.05863608
 -0.2033021  -0.12742285 -0.03254925  0.21887985 -0.14490874 -0.13180606
 -0.01613443  0.0347279   0.12789202  0.00702986  0.02837352  0.04440187
 -0.05180646 -0.34479597 -0.10873481 -0.06699327  0.0309301  -0.03720299
 -0.08044674  0.08254033 -0.15314731 -0.09405007  0.08677901  0.04849425
 -0.01959866 -0.06807967  0.17818266  0.00945978 -0.25669974  0.08552014
  0.05507673  0.22697806  0.16537179  0.04132907  0.06371634 -0.18340673
  0.11524575 -0.16004084  0.02505281  0.12698756  0.10713867  0.02440474
  0.02544818 -0.15777192 -0.0028006   0.10993174 -0.16520725  0.02272125
  0.10671414 -0.07644975 -0.03249602 -0.09847116  0.19822162  0.0774959
 -0.12172061 -0.17815469  0.09697115 -0.11468186 -0.08297863  0.065919
 -0.17606066 -0.18857799 -0.26673675  0.01672881  0.38851959  0.0981769
 -0.21751416  0.04332126 -0.04840265  0.03730507  0.12567747  0.17258589
  0.03031152 -0.0006755  -0.07989758 -0.05006073  0.19762817 -0.1040078
 -0.00770252  0.26225314 -0.00129917  0.10602599 -0.02218098  0.00564501
 -0.0521578   0.04384198 -0.1085343  -0.04711246 -0.01406147 -0.00781898
  0.01488218  0.10581779 -0.17278387  0.08068504 -0.02162146  0.06503969
  0.01304096 -0.02626305 -0.04027609 -0.056138    0.05984283 -0.23310459
  0.21747385  0.18799841  0.04860961  0.09459163  0.10032542  0.06167385
  0.03811018 -0.04255747 -0.18348746 -0.00359379  0.1354147  -0.02728006
  0.03702869 -0.03228519]