[-0.13047138  0.12585257  0.07858285 -0.07692537 -0.11207493 -0.09177305
 -0.03019292 -0.18835105  0.10123332 -0.09820578  0.26350018 -0.07232665
 -0.22348917 -0.11677299 -0.00869239  0.21511169 -0.17557147 -0.15787511
  0.01199721  0.0102686   0.09849873 -0.05044112  0.04522597  0.07992716
 -0.12279085 -0.34021881 -0.12572704 -0.07079888 -0.04168146 -0.01032307
 -0.05915932  0.09956711 -0.15848325 -0.04775596  0.0402409   0.03074515
  0.03222244 -0.06839281  0.17213517  0.02707464 -0.24688263  0.06931084
  0.05638179  0.23859981  0.21423781 -0.01325096  0.07445855 -0.09472547
  0.09972437 -0.14095557 -0.0175505   0.11770821  0.09158705 -0.01753487
  0.02606252 -0.13328159 -0.00179641  0.07701056 -0.16943614 -0.02457069
  0.09898224 -0.11507642 -0.04694582 -0.12560648  0.19248597  0.10342802
 -0.11191129 -0.15630893  0.17053998 -0.09711897 -0.06865908  0.04441031
 -0.22373556 -0.1637302  -0.26271984  0.0150172   0.32947418  0.13593176
 -0.20119038  0.05666344 -0.043101    0.06437599  0.07129125  0.1637648
  0.03613943  0.03699165 -0.07725291 -0.01718584  0.15661648 -0.06650425
 -0.01700329  0.26309529  0.00210953  0.06320524  0.03155481 -0.02370252
 -0.05335128  0.0084465  -0.14157534 -0.00800836 -0.06892955 -0.03039292
  0.00644684  0.10454575 -0.15770048  0.0593389  -0.03010243  0.04299754
 -0.08703202  0.00683408 -0.0194973  -0.04582095  0.03228367 -0.22386925
  0.15001145  0.19673322  0.02217907  0.08351016  0.06918459  0.04171486
 -0.00070875 -0.01857174 -0.14250718 -0.02716688  0.12079885 -0.05050597
  0.07608156 -0.00681828]