[-8.90918747e-02  1.04961969e-01  3.16198133e-02 -3.42101194e-02
 -9.51660499e-02 -7.59114623e-02 -3.08704171e-02 -1.71016321e-01
  1.51969478e-01 -6.84828237e-02  2.41487250e-01 -5.23122959e-02
 -2.01316357e-01 -1.28977522e-01 -2.84469482e-02  1.91278979e-01
 -1.53383151e-01 -1.36044100e-01 -2.05216743e-02  2.16858052e-02
  1.36664078e-01 -3.35190824e-04  1.61799882e-02  3.42104807e-02
 -7.11569786e-02 -3.45392078e-01 -1.15950100e-01 -7.55808055e-02
  4.43811454e-02 -2.71818247e-02 -6.86940104e-02  8.48844722e-02
 -1.68511853e-01 -1.03408508e-01  7.54235163e-02  5.19110560e-02
 -1.98070128e-02 -6.70726597e-02  1.77501485e-01  5.64182783e-03
 -2.44696528e-01  8.39202777e-02  6.21439479e-02  2.31387496e-01
  1.77747518e-01  3.33252847e-02  6.90192953e-02 -1.73970446e-01
  1.32076785e-01 -1.25763044e-01  2.17007510e-02  1.36433467e-01
  1.31256938e-01  3.73643525e-02  3.64635400e-02 -1.56193942e-01
  1.61136519e-02  1.01672366e-01 -1.80079654e-01  2.61118896e-02
  1.12264276e-01 -8.50642920e-02 -3.35329287e-02 -8.17167684e-02
  1.87753886e-01  6.39147386e-02 -9.94776934e-02 -1.89539805e-01
  1.18647769e-01 -1.12606429e-01 -7.68943354e-02  7.29387328e-02
 -1.87057644e-01 -1.81318283e-01 -2.74138749e-01  1.55513538e-02
  3.79513532e-01  9.53466967e-02 -2.04842493e-01  6.21539056e-02
 -4.51679230e-02  2.40346771e-02  1.29280120e-01  1.59134969e-01
  1.83576755e-02  5.51779242e-03 -9.24620926e-02 -3.03218719e-02
  2.04024792e-01 -8.96887258e-02 -1.71423387e-02  2.40202338e-01
  5.46931475e-03  9.45573077e-02 -1.25036510e-02 -3.61625734e-03
 -6.89830706e-02  4.37235795e-02 -1.14763677e-01 -5.09121902e-02
 -2.29485711e-04 -4.04571975e-03  1.41674625e-02  1.03988588e-01
 -1.50026157e-01  7.91729540e-02 -7.54139433e-03  7.13514835e-02
 -1.32765565e-02 -3.91672216e-02 -4.77672033e-02 -4.68165092e-02
  5.80793098e-02 -2.24031448e-01  2.23263383e-01  1.66769803e-01
  5.16568534e-02  8.69284496e-02  9.46694165e-02  4.55876365e-02
  2.91588604e-02 -3.87640446e-02 -1.90220296e-01 -4.18163696e-03
  1.28503188e-01 -1.74593460e-02  5.52898347e-02 -2.46351901e-02]