[-0.10829473  0.11932083  0.06005568 -0.03455571 -0.13042036 -0.06172322
 -0.02435922 -0.19285993  0.15820411 -0.10212668  0.27505085 -0.05432872
 -0.19445761 -0.17120543 -0.00844169  0.22954059 -0.16206364 -0.1727235
  0.01243781  0.01979954  0.09914436 -0.00993131  0.03501111  0.07865319
 -0.10550155 -0.35610774 -0.11597456 -0.09228338 -0.02751494 -0.0775604
 -0.06603565  0.06863234 -0.11914682 -0.08632652  0.06000692  0.07377081
 -0.03174227 -0.07355481  0.18202138 -0.02938393 -0.2580471   0.08371677
  0.08748995  0.2400389   0.1888793   0.00826128  0.05224018 -0.17467272
  0.16170286 -0.16164945  0.04511448  0.10858259  0.09730463  0.02599058
  0.05651435 -0.11380943 -0.02434355  0.15482192 -0.19763926  0.00532613
  0.09540638 -0.07889675 -0.05634494 -0.12438678  0.16247328  0.12838553
 -0.11111647 -0.18199149  0.10314626 -0.13910666 -0.14509569  0.05380202
 -0.17248052 -0.20136078 -0.29764673  0.02371931  0.35917059  0.11406534
 -0.21384723  0.03074908  0.03292064  0.01624919  0.08560735  0.17661467
  0.02012935 -0.0049602  -0.08426572 -0.02683757  0.17283544 -0.0613164
  0.00802075  0.24517916  0.0042308   0.09414367  0.01345656  0.03244408
 -0.06873792  0.06748515 -0.15663078 -0.03852052 -0.01005701  0.00913057
  0.01048752  0.08048768 -0.1652609   0.13222066 -0.0200619   0.04007547
 -0.03283024 -0.04398404 -0.02970201 -0.00297175  0.07437576 -0.22022429
  0.20465259  0.16150185  0.05438844  0.11912838  0.08063149  0.04102068
  0.0088327  -0.05470337 -0.19375284 -0.0061069   0.14197169 -0.05804715
  0.07349412 -0.01297075]