[-0.09535035  0.15549286  0.10477158 -0.04078157 -0.12366972 -0.10479597
 -0.0370908  -0.18994337  0.13561967 -0.0752494   0.25443301 -0.05599792
 -0.22944498 -0.11976466 -0.01949809  0.23673044 -0.15415652 -0.12616441
 -0.02167093  0.02735637  0.11404399 -0.04555008  0.07259559  0.09240698
 -0.09766984 -0.35924864 -0.11231037 -0.08318567 -0.02295925 -0.02539949
 -0.10034609  0.06892001 -0.15064222 -0.08242077  0.04075934  0.04272669
 -0.01239617 -0.09004328  0.16234432  0.01830399 -0.26492944  0.07611632
  0.05648148  0.22789685  0.21554975  0.0057467   0.0999976  -0.11502365
  0.12887302 -0.17638467  0.00215663  0.10950865  0.09955818  0.0043171
  0.05166423 -0.16405001 -0.02274198  0.10173722 -0.15627703 -0.00892404
  0.09293456 -0.07775661 -0.07260858 -0.11207598  0.20394062  0.1386984
 -0.12467178 -0.13937207  0.13024239 -0.10666492 -0.05231672  0.04645988
 -0.22636931 -0.16230164 -0.26466331  0.00582051  0.34844604  0.10291182
 -0.22452496 -0.00126278 -0.07412658  0.0954598   0.0663936   0.14826497
  0.03872383  0.02613252 -0.09683367 -0.02643353  0.1587586  -0.1239593
  0.01301037  0.28335035  0.02173305  0.07328152 -0.02031043 -0.01722715
 -0.08346161  0.0154797  -0.15381324 -0.03429302 -0.02254855  0.00345398
  0.00144569  0.07582816 -0.18635643  0.03568195 -0.0020129   0.0483516
 -0.02529421 -0.01323682 -0.06764095 -0.0757091   0.058373   -0.19899619
  0.18982795  0.21008587  0.01425319  0.06701508  0.07391365  0.03485434
  0.01807038 -0.03964856 -0.11371624 -0.00592972  0.14414597 -0.0444262
  0.01876539 -0.04329737]