[-0.07638942  0.09863024  0.03373275 -0.02463108 -0.10237063 -0.05870267
 -0.02000699 -0.15982811  0.14006041 -0.07302192  0.25109524 -0.06481443
 -0.19690453 -0.13375126 -0.03625185  0.21037129 -0.15209174 -0.1204152
 -0.01536966  0.03602523  0.13327625 -0.00122588  0.03324538  0.02483648
 -0.04935085 -0.35522082 -0.10904749 -0.08411558  0.03917101 -0.0321801
 -0.08772772  0.07426383 -0.16232954 -0.10226556  0.07616045  0.04165675
 -0.01137439 -0.06501684  0.15912078  0.01280342 -0.23705888  0.07787597
  0.04736428  0.2253419   0.17282087  0.05398531  0.06058343 -0.16818531
  0.10822137 -0.15964548  0.03548824  0.10708431  0.11245649  0.02173006
  0.03257187 -0.1519669   0.00661294  0.09046789 -0.16406856  0.02748333
  0.10389141 -0.05799465 -0.04019177 -0.08608624  0.21544099  0.07588666
 -0.11308753 -0.17296825  0.11165684 -0.11047721 -0.07803299  0.04886097
 -0.1740136  -0.1764466  -0.26691371  0.01654156  0.3904216   0.09061421
 -0.22737454  0.03887666 -0.05737056  0.03637527  0.13177492  0.16440377
  0.03286981  0.00401349 -0.09092702 -0.05773261  0.19593984 -0.10947992
 -0.020112    0.25975659 -0.01087749  0.09366527 -0.0126827  -0.0030271
 -0.05077801  0.04289575 -0.1093846  -0.05973883  0.01121916 -0.01978876
 -0.00683659  0.11521699 -0.17523754  0.07668484 -0.02811452  0.06727027
  0.02090199 -0.04511998 -0.04784554 -0.0468975   0.06564362 -0.22751947
  0.218262    0.18725984  0.05053402  0.08979109  0.09084142  0.05202384
  0.04189594 -0.03330458 -0.20146222 -0.01197676  0.12471558 -0.03205687
  0.02190839 -0.02359001]