[-0.10991263  0.14748202  0.10670978 -0.04955336 -0.10161602 -0.0781887
 -0.03147209 -0.1901134   0.12112069 -0.10321223  0.28469473 -0.06220193
 -0.22597952 -0.11831367 -0.00281801  0.21004923 -0.14674954 -0.14684795
  0.00811129  0.05385026  0.11958466 -0.0390855   0.06551702  0.0736881
 -0.11017718 -0.37713227 -0.14858525 -0.07886272 -0.02007095 -0.03582595
 -0.07866861  0.06115012 -0.15243195 -0.05765625  0.03238949  0.01309554
  0.00847001 -0.0722065   0.17432547  0.03519955 -0.26649943  0.08642285
  0.02110799  0.23277126  0.21116696  0.01014188  0.08970223 -0.12594168
  0.0840174  -0.13833395  0.02137478  0.11753669  0.09684391 -0.01044556
  0.03297283 -0.13448952 -0.02229327  0.0785163  -0.18084736 -0.00054393
  0.11037561 -0.10066582 -0.04473431 -0.10838252  0.18582106  0.10866034
 -0.11292764 -0.17023744  0.1663955  -0.11192507 -0.05378909  0.05435153
 -0.22370255 -0.17495303 -0.2523168   0.0251664   0.33907676  0.1267563
 -0.21389234  0.03911998 -0.06936779  0.06686477  0.0575528   0.17019282
  0.0536076   0.02078251 -0.07819714 -0.02629888  0.15005705 -0.08551856
 -0.00366768  0.29057387 -0.006156    0.06589188  0.02135181 -0.02180713
 -0.06717771  0.01570291 -0.12523316 -0.02363339 -0.07197175 -0.01391998
  0.00193252  0.1058595  -0.1721606   0.07764556 -0.03437253  0.04326788
 -0.04051254  0.0005696  -0.03700471 -0.07225892  0.04630647 -0.23214464
  0.16604115  0.19516586  0.03242669  0.07534858  0.06870529  0.06063845
  0.01557406 -0.02315836 -0.1656111  -0.0070879   0.12340821 -0.05250784
  0.04668051 -0.02092676]