[-1.07978821e-01  9.82397124e-02  4.56047356e-02 -6.13672808e-02
 -8.95584077e-02 -7.49424845e-02 -4.03309055e-02 -1.60674781e-01
  1.37403339e-01 -7.87368491e-02  2.53692746e-01 -6.67303130e-02
 -1.87133342e-01 -1.56986460e-01 -4.22533564e-02  2.35252142e-01
 -1.94026485e-01 -1.48886278e-01 -4.69021220e-03  1.88371930e-02
  1.41343057e-01 -1.20515293e-02  2.71713044e-02  4.42354046e-02
 -9.20162052e-02 -3.44307601e-01 -1.07040428e-01 -8.94657969e-02
  9.67560988e-03 -3.93481217e-02 -6.16641603e-02  7.92393312e-02
 -1.73636779e-01 -8.14849809e-02  6.95259497e-02  5.14777713e-02
  2.58119823e-03 -8.10938999e-02  1.85239136e-01  4.66968538e-03
 -2.48448417e-01  5.50938547e-02  7.03821182e-02  2.23615766e-01
  1.66259006e-01  6.88495487e-03  5.26923314e-02 -1.43657446e-01
  1.14063561e-01 -1.47389889e-01  7.39893352e-04  1.29898563e-01
  1.05553523e-01  3.33530642e-02  2.27351729e-02 -1.40668407e-01
  3.18729244e-02  9.13863108e-02 -1.56398490e-01 -1.01502356e-03
  9.32592526e-02 -1.04952030e-01 -4.09207605e-02 -8.87539908e-02
  2.00110629e-01  6.01844750e-02 -1.09090224e-01 -1.92582756e-01
  1.14591695e-01 -8.29814374e-02 -7.73353204e-02  5.86913489e-02
 -1.83584973e-01 -1.76184222e-01 -2.75879055e-01 -1.31107948e-03
  3.65326971e-01  9.16411653e-02 -2.35111400e-01  6.63826391e-02
 -6.17657714e-02  2.08816510e-02  1.16336964e-01  1.78260311e-01
  4.26876694e-02  4.04726975e-02 -9.70601812e-02 -3.53281423e-02
  1.84040874e-01 -1.03870988e-01 -2.81627732e-03  2.56133825e-01
  1.94745138e-03  9.91958529e-02 -4.47585201e-03 -1.92819014e-02
 -5.68194687e-02  5.45482300e-02 -1.04777865e-01 -3.44554298e-02
  5.48128923e-03  3.24462366e-04 -5.57362277e-04  1.06528215e-01
 -1.51197061e-01  7.10461065e-02 -6.22745929e-03  5.83358370e-02
 -2.06780657e-02 -2.68681794e-02 -4.41275910e-02 -6.79590330e-02
  5.31433485e-02 -2.15380952e-01  1.95396945e-01  1.96802855e-01
  4.67381813e-02  9.63870808e-02  1.08643070e-01  5.69361635e-02
  1.89839005e-02 -3.04813385e-02 -1.90968663e-01  7.56541640e-03
  1.30008921e-01 -3.12180817e-02  4.20393422e-02 -2.32400168e-02]