[-1.05609789e-01  9.67556238e-02  3.74215953e-02 -4.44744043e-02
 -7.59100839e-02 -7.58139715e-02 -4.30093408e-02 -1.57225698e-01
  1.52562380e-01 -8.17963108e-02  2.48818800e-01 -5.55035435e-02
 -1.83708981e-01 -1.60490051e-01 -3.25483270e-02  2.20170572e-01
 -1.95849508e-01 -1.35827005e-01 -4.87901131e-03  1.70429852e-02
  1.40531644e-01 -2.14478914e-02  1.78393964e-02  4.48138900e-02
 -8.53635520e-02 -3.48559409e-01 -1.13660716e-01 -9.37971175e-02
  3.09553239e-02 -4.37074937e-02 -6.25506341e-02  7.80681521e-02
 -1.68296263e-01 -8.93280283e-02  6.39484674e-02  5.31114005e-02
  4.34188545e-03 -8.12124237e-02  1.83686122e-01 -3.76744266e-03
 -2.36733943e-01  6.68981597e-02  6.38173372e-02  2.29886934e-01
  1.69417605e-01  4.86893579e-03  5.24122827e-02 -1.38652444e-01
  1.26390427e-01 -1.31155714e-01 -5.69686294e-04  1.35134399e-01
  1.20396771e-01  3.78541313e-02  3.10180318e-02 -1.51463866e-01
  3.02958731e-02  9.57467332e-02 -1.61037907e-01  8.00820813e-03
  8.57587382e-02 -1.02031901e-01 -3.86056267e-02 -7.10957795e-02
  1.99548647e-01  5.75636327e-02 -1.09664775e-01 -1.87924281e-01
  1.18771158e-01 -8.51543322e-02 -5.53343780e-02  5.45399673e-02
 -1.92509994e-01 -1.77692518e-01 -2.71128178e-01  6.20550150e-03
  3.58426005e-01  8.58612433e-02 -2.30249748e-01  7.78718144e-02
 -6.96128979e-02  1.90178938e-02  1.13426305e-01  1.78986058e-01
  3.87250334e-02  2.68592220e-02 -9.00607258e-02 -3.45317461e-02
  1.77661926e-01 -8.83893296e-02  1.25424747e-04  2.49529079e-01
  5.74521720e-04  8.53640959e-02 -7.89860077e-03 -3.11125498e-02
 -6.14835024e-02  3.99814658e-02 -1.01307683e-01 -4.10966612e-02
  5.92698529e-03 -1.54152540e-02 -1.92742050e-03  1.01164535e-01
 -1.64442226e-01  6.72824010e-02  7.94508960e-03  6.76522702e-02
 -5.07557625e-03 -2.19096616e-02 -5.17431572e-02 -6.23969547e-02
  6.11387454e-02 -2.28907734e-01  2.11971521e-01  1.91906840e-01
  5.35308234e-02  1.00582555e-01  9.85104814e-02  5.79229668e-02
  1.95623171e-02 -3.03060561e-02 -1.83152840e-01  1.06713800e-02
  1.18008636e-01 -2.81140860e-02  3.56571563e-02 -2.78703906e-02]