[-7.65330717e-02  1.30866140e-01  6.67612851e-02 -3.84964906e-02
 -1.08533397e-01 -5.77120669e-02 -4.50184681e-02 -1.89888820e-01
  1.64440647e-01 -1.19227640e-01  2.43500933e-01 -7.60816634e-02
 -2.15562344e-01 -1.10025838e-01 -3.84635963e-02  2.27472708e-01
 -1.33553520e-01 -1.51981026e-01 -2.51864940e-02  1.64053030e-02
  1.28090933e-01 -5.36858430e-03  2.63517983e-02  5.56275360e-02
 -5.91447614e-02 -3.47542495e-01 -1.10932998e-01 -7.15774819e-02
  2.16270520e-04 -4.52010073e-02 -1.11790754e-01  5.49665987e-02
 -1.44146532e-01 -9.54086185e-02  5.23817725e-02  2.58134101e-02
 -2.42604949e-02 -6.41589537e-02  1.71363264e-01  1.46502806e-02
 -2.59645700e-01  9.92886424e-02  5.29692248e-02  2.26198062e-01
  1.78833410e-01  5.92960902e-02  5.77136949e-02 -1.82312205e-01
  1.25631973e-01 -1.75840423e-01  3.10812443e-02  1.24811254e-01
  1.07007086e-01  1.71875823e-02  4.46820073e-02 -1.62371442e-01
 -1.94447376e-02  1.01574294e-01 -1.55142874e-01  2.42887102e-02
  1.09189488e-01 -7.54365176e-02 -6.35850057e-02 -9.71912965e-02
  2.04096317e-01  1.23458408e-01 -1.07415915e-01 -1.76246613e-01
  1.14984252e-01 -1.15369514e-01 -1.06086530e-01  3.84484828e-02
 -1.80811569e-01 -1.74943730e-01 -2.73286194e-01  1.14105735e-02
  3.88892740e-01  1.08427644e-01 -2.34049395e-01  3.57475691e-02
 -3.70318368e-02  6.58716932e-02  1.29295692e-01  1.68536693e-01
  1.42836515e-02 -3.07689246e-04 -8.04682001e-02 -4.93651591e-02
  1.70717582e-01 -1.06048517e-01 -1.43100992e-02  2.58516431e-01
  1.28374351e-02  1.09853439e-01 -1.51714832e-02  5.86157013e-03
 -7.79257715e-02  3.71789634e-02 -1.47581473e-01 -6.30964935e-02
  3.88182956e-03  4.09307480e-02  8.06370657e-03  1.10826790e-01
 -1.72247961e-01  8.82307887e-02 -2.70562116e-02  4.90865149e-02
  3.26547219e-04 -8.13663192e-03 -3.44324149e-02 -5.45236841e-02
  5.05913869e-02 -2.09386066e-01  1.81598827e-01  1.88403398e-01
  4.08482961e-02  8.97300020e-02  1.04764402e-01  4.71808761e-02
  4.69964594e-02 -2.45253574e-02 -2.00822815e-01 -1.73241924e-02
  1.47621498e-01 -1.97781622e-02  3.32143195e-02 -1.82003584e-02]