[-8.88535157e-02  1.82676136e-01  8.67989585e-02 -8.47859681e-02
 -1.37947246e-01 -3.85125242e-02 -6.44767061e-02 -1.34945258e-01
  1.62104398e-01 -9.05994624e-02  2.66921878e-01 -8.28963667e-02
 -2.42120534e-01 -8.33664611e-02 -3.45522985e-02  2.70434648e-01
 -1.91025883e-01 -1.52105018e-01  7.25751510e-03  3.59109528e-02
  1.35626197e-01  1.95156634e-02  5.84449293e-03  9.51696262e-02
 -1.19102657e-01 -3.56682867e-01 -9.10581872e-02 -3.28336135e-02
 -2.75738002e-03 -6.53741360e-02 -7.78227076e-02  4.16123942e-02
 -1.79730803e-01 -7.77273849e-02  6.24001138e-02  7.79838786e-02
  3.23751173e-03 -1.26548395e-01  1.84067681e-01  4.34952974e-02
 -2.87103593e-01  9.50326696e-02  7.11177513e-02  2.44786024e-01
  2.06640288e-01  7.59995589e-03  7.14618564e-02 -1.97905779e-01
  1.46556929e-01 -1.83232322e-01  7.04467064e-03  1.42918214e-01
  5.53097986e-02  6.61584223e-03  3.16780657e-02 -1.56584382e-01
 -5.80978906e-03  1.55140519e-01 -2.03542933e-01 -2.00374760e-02
  1.13937996e-01 -7.70794675e-02  2.19811723e-02 -1.44813284e-01
  1.87094405e-01  9.21591371e-02 -1.12208508e-01 -1.74280271e-01
  1.18711032e-01 -1.21337704e-01 -7.57887438e-02  7.35504553e-02
 -1.60442099e-01 -1.71232551e-01 -3.16804767e-01 -1.70263778e-02
  3.78458798e-01  1.24560133e-01 -2.17362747e-01  5.22416010e-02
 -5.75430784e-03  8.69252812e-03  1.26428887e-01  2.15231374e-01
  5.99920340e-02  1.15904612e-02 -8.93529281e-02  1.17967767e-03
  2.29542181e-01 -6.33091778e-02  3.80560383e-02  2.80662984e-01
  1.67033970e-02  7.64958188e-02  5.76891704e-03  3.09503879e-02
 -1.28107846e-01  2.26160046e-02 -1.26078203e-01 -3.25896405e-02
 -8.98104534e-02  2.18581837e-02  5.32103330e-03  1.23867147e-01
 -1.74543381e-01  8.55443478e-02 -2.20944118e-02  1.82789844e-02
 -6.78843260e-02 -4.46462594e-02  6.82964965e-05 -3.73521410e-02
  8.07280317e-02 -2.09747985e-01  1.56684622e-01  1.58092871e-01
  3.38383205e-03  9.18484107e-02  9.11880583e-02  7.07927793e-02
 -5.61727677e-03 -6.26537427e-02 -1.80537000e-01  3.14758415e-03
  1.03014469e-01 -7.86267295e-02  1.20221198e-01 -3.19403782e-02]