[-0.08092882  0.14645843  0.09375122 -0.04248583 -0.11913144 -0.09098236
 -0.03901197 -0.18239422  0.14311285 -0.07232746  0.24778219 -0.05273402
 -0.23630272 -0.11270546 -0.02846636  0.2319151  -0.15722536 -0.12013101
 -0.01698458  0.03242472  0.11443851 -0.03332102  0.07023882  0.08776005
 -0.09479421 -0.37272286 -0.11106002 -0.07865045 -0.03418722 -0.01461169
 -0.09841327  0.08156297 -0.14163665 -0.0752712   0.05093862  0.03561988
 -0.00858297 -0.08180822  0.1638346   0.02721275 -0.27037752  0.08670191
  0.05006063  0.23410423  0.22102995  0.00981404  0.09309728 -0.13180856
  0.13075151 -0.17570832  0.00597653  0.11804378  0.09137924 -0.00317559
  0.04176628 -0.15651689 -0.02332647  0.10370139 -0.16942841 -0.01195051
  0.09916367 -0.0869749  -0.06807473 -0.11430524  0.19766608  0.1343212
 -0.12989582 -0.15278035  0.12536606 -0.11724714 -0.05335527  0.04559574
 -0.223204   -0.17362094 -0.26959988  0.00993485  0.35484192  0.11227399
 -0.2246381   0.0080567  -0.07766787  0.09531488  0.08573736  0.1519182
  0.03967458  0.01631344 -0.09480749 -0.03623001  0.16492903 -0.11700777
 -0.00196423  0.2889283   0.01902382  0.07816359 -0.01290753 -0.01315233
 -0.08315675  0.0213338  -0.16337878 -0.033648   -0.03299273  0.00409463
  0.00765808  0.07811844 -0.18709233  0.04694536 -0.00663525  0.04857264
 -0.01173178 -0.02018114 -0.07204171 -0.07674637  0.06646417 -0.2115562
  0.18631716  0.19810782  0.03829823  0.07814083  0.08131405  0.0359179
  0.01313307 -0.04506313 -0.12890874  0.0005575   0.14874719 -0.03988641
  0.03132349 -0.04519949]