[-0.08404211  0.11266251  0.04613909 -0.02554168 -0.12455877 -0.04348886
 -0.04977008 -0.19723089  0.15728608 -0.11371819  0.24594252 -0.08623024
 -0.18939912 -0.12759434 -0.02433002  0.24312451 -0.17992878 -0.17901288
  0.01833153  0.02283109  0.09138161  0.03065175  0.01951129  0.07487669
 -0.12260275 -0.34244379 -0.1140125  -0.08417141 -0.03357552 -0.05060754
 -0.07947363  0.08178779 -0.1284934  -0.07341868  0.09657304  0.07478788
 -0.00143888 -0.07523049  0.18053673 -0.00956661 -0.27304962  0.08986273
  0.09995135  0.25538775  0.17071402 -0.00591277  0.02526349 -0.16914479
  0.13376613 -0.14039283  0.02188126  0.12623583  0.09110835  0.02077023
  0.03025505 -0.11647284 -0.01350716  0.12855406 -0.16093759  0.00263162
  0.12438549 -0.09124448 -0.02389875 -0.10954362  0.17384814  0.08405578
 -0.11105376 -0.21354298  0.0710872  -0.12876357 -0.15161027  0.04028052
 -0.18345694 -0.18667424 -0.31914222 -0.00587664  0.36511454  0.08829617
 -0.22766791  0.07308847  0.02991883  0.01221888  0.10639378  0.20718573
  0.05280251  0.01052842 -0.08363092 -0.02293826  0.20739388 -0.08045109
 -0.00103122  0.23707131 -0.02001135  0.08654376  0.00812434  0.02233678
 -0.07228368  0.06180019 -0.14050558 -0.03129609 -0.01274871  0.03379577
  0.0081119   0.1189061  -0.17592141  0.1240259  -0.01842376  0.03494814
 -0.01463769 -0.01949981 -0.04631454 -0.02219364  0.08989944 -0.22053698
  0.18950991  0.1550042   0.06254072  0.10006364  0.09480249  0.04171851
  0.01097603 -0.0075418  -0.21454413 -0.01840962  0.12865478 -0.06255586
  0.07622916 -0.00804161]