[-7.94404075e-02  1.98140264e-01  7.59476051e-02 -8.79986808e-02
 -1.40775084e-01 -2.75120884e-02 -6.36212751e-02 -1.31882831e-01
  1.64399669e-01 -9.69573036e-02  2.55770385e-01 -8.73987749e-02
 -2.39488289e-01 -8.41689780e-02 -4.29322682e-02  2.71741658e-01
 -1.82417661e-01 -1.63814589e-01  8.57204385e-03  2.61913333e-02
  1.16045848e-01  1.30069777e-02 -1.01621682e-02  9.59698334e-02
 -1.14169434e-01 -3.60526890e-01 -9.34294984e-02 -2.81592496e-02
 -1.52397454e-02 -7.47691914e-02 -7.12775812e-02  4.79728654e-02
 -1.80770174e-01 -7.93887526e-02  6.32657036e-02  7.37787783e-02
 -1.09357787e-02 -1.19093180e-01  1.89732924e-01  6.60205856e-02
 -2.67661273e-01  9.76758972e-02  6.55330345e-02  2.63360381e-01
  2.06540301e-01  8.87471903e-03  6.80345073e-02 -1.96319416e-01
  1.61908373e-01 -1.91996425e-01  1.49523246e-03  1.52343825e-01
  5.82212210e-02  2.13564318e-02  2.36504469e-02 -1.52911186e-01
  1.22593751e-03  1.54213294e-01 -2.13105634e-01 -1.79250762e-02
  1.02330022e-01 -8.16331804e-02  1.08220233e-02 -1.38907328e-01
  1.92683622e-01  1.01152733e-01 -1.09443881e-01 -1.71514481e-01
  1.29683971e-01 -1.22730590e-01 -6.63673207e-02  6.92992881e-02
 -1.49624512e-01 -1.75843447e-01 -3.05026054e-01  5.28629113e-04
  3.78805041e-01  1.43248543e-01 -2.16629371e-01  3.70810069e-02
 -5.26585570e-03  6.26608077e-03  1.20329358e-01  2.13546783e-01
  4.37631272e-02  3.01461970e-03 -8.15336779e-02  2.58913642e-04
  2.24216938e-01 -5.52014597e-02  3.00501566e-02  2.82083184e-01
  1.91784147e-02  8.66916031e-02  9.43485182e-03  2.93044448e-02
 -1.38006553e-01  1.92668829e-02 -1.29613757e-01 -4.05797102e-02
 -9.33168381e-02  1.59822684e-02  4.24585724e-03  1.28602073e-01
 -1.70895204e-01  1.03394173e-01 -2.84259822e-02  1.52063742e-02
 -8.26041698e-02 -4.22361083e-02  7.69536523e-03 -3.49310674e-02
  8.26327577e-02 -2.06822902e-01  1.49369702e-01  1.55344397e-01
 -4.05792240e-03  9.92402062e-02  9.55909416e-02  6.81589246e-02
 -7.84069579e-03 -7.59800896e-02 -1.73799932e-01 -2.29063630e-03
  1.00366414e-01 -6.99335337e-02  1.12799846e-01 -4.02563922e-02]