[-0.10783577  0.1259795   0.0915929  -0.07384527 -0.0954019  -0.09723431
 -0.02356835 -0.17916058  0.12328797 -0.10973521  0.25822017 -0.06599925
 -0.22346835 -0.11140422 -0.00506656  0.2086699  -0.17963126 -0.15430878
  0.01289416  0.01474279  0.09643153 -0.04581632  0.03608904  0.07750496
 -0.12209411 -0.3380608  -0.13159159 -0.07812657 -0.05171108 -0.0162058
 -0.0673819   0.11202921 -0.14926837 -0.04610675  0.03164736  0.02921112
  0.02559139 -0.05398529  0.16081667  0.03399302 -0.24346741  0.07234024
  0.05170725  0.23295103  0.22215347 -0.01103802  0.06388299 -0.0975126
  0.10287555 -0.14432645 -0.0201021   0.12191113  0.10174575 -0.00367841
  0.04446897 -0.13818373 -0.00521017  0.06509877 -0.16841447 -0.01204474
  0.0906954  -0.12358224 -0.04769332 -0.11825608  0.1902265   0.10021162
 -0.11037242 -0.1576371   0.17096272 -0.11402508 -0.07973496  0.04809509
 -0.2207512  -0.16164981 -0.26754329  0.01194651  0.31579921  0.13800141
 -0.20456345  0.06634231 -0.04467634  0.05797031  0.06580675  0.16819894
  0.03066188  0.04212788 -0.07526775 -0.02777405  0.14924584 -0.06530412
 -0.0151725   0.26302874 -0.01205095  0.07495626  0.02897731 -0.04555462
 -0.05293273  0.00265402 -0.15052621 -0.0179132  -0.07328671 -0.03872109
 -0.01021515  0.10186453 -0.15821792  0.0560133  -0.03061059  0.04112781
 -0.0819773   0.01745518 -0.03252154 -0.04802609  0.04536835 -0.22977877
  0.15597211  0.19354948  0.01925948  0.07501854  0.06487333  0.04829834
 -0.01007371 -0.01962045 -0.14315854 -0.02032329  0.12301212 -0.05237926
  0.06633956 -0.01359294]