[-1.02696121e-01  9.74476486e-02  3.61920595e-02 -4.39813435e-02
 -7.53239915e-02 -7.97057524e-02 -3.66136543e-02 -1.55520320e-01
  1.42893121e-01 -7.21893087e-02  2.58926719e-01 -6.24503866e-02
 -1.88256726e-01 -1.60265028e-01 -3.38608436e-02  2.22590670e-01
 -1.99737594e-01 -1.36793956e-01 -2.99834646e-03  1.46518396e-02
  1.41302615e-01 -1.75776873e-02  2.01521032e-02  3.90362106e-02
 -8.12984109e-02 -3.43132257e-01 -1.10552691e-01 -9.42916498e-02
  3.77986133e-02 -3.99795249e-02 -5.99907897e-02  8.07343796e-02
 -1.71951234e-01 -9.24282074e-02  6.71449527e-02  3.96884829e-02
  7.39868870e-03 -8.17089304e-02  1.94517717e-01  4.89115482e-03
 -2.31983468e-01  5.88029586e-02  5.80003634e-02  2.26342678e-01
  1.59954712e-01  1.33973835e-02  5.79828806e-02 -1.43239170e-01
  1.18304923e-01 -1.32992968e-01 -1.68039056e-03  1.34976804e-01
  1.21979259e-01  3.75933610e-02  1.31089119e-02 -1.46657929e-01
  2.23316997e-02  9.06493589e-02 -1.61542058e-01  6.87142415e-03
  9.39013362e-02 -9.85437557e-02 -3.93798724e-02 -7.84479976e-02
  2.03228384e-01  5.70734739e-02 -1.09515287e-01 -1.84861347e-01
  1.22686639e-01 -7.91115388e-02 -6.90366477e-02  5.54694496e-02
 -1.83537841e-01 -1.71793625e-01 -2.65978307e-01  5.80697134e-03
  3.59847635e-01  8.09234902e-02 -2.27181911e-01  6.45162240e-02
 -7.46035874e-02  1.80424936e-02  1.16040520e-01  1.72572538e-01
  3.47033814e-02  2.72823777e-02 -8.76752883e-02 -3.62311490e-02
  1.84555218e-01 -9.55301523e-02 -6.35140855e-03  2.47110799e-01
  3.15998506e-04  9.93479341e-02 -1.07298652e-02 -2.44363621e-02
 -4.99410741e-02  4.87633757e-02 -9.36905071e-02 -3.40029076e-02
  9.09453072e-03 -6.75981445e-03  4.43582749e-03  1.05224825e-01
 -1.52520418e-01  6.54118657e-02  3.71912308e-03  6.64287433e-02
 -6.99815992e-03 -2.12921593e-02 -4.65740561e-02 -6.46605417e-02
  5.48387952e-02 -2.23047048e-01  2.11005971e-01  1.91521913e-01
  4.70819287e-02  9.55654606e-02  1.00208342e-01  5.99272437e-02
  2.01911684e-02 -3.73965614e-02 -1.91083819e-01  3.22139799e-03
  1.26804397e-01 -1.97471343e-02  3.87697853e-02 -2.79405061e-02]