[-0.07524758  0.09714121  0.03370813 -0.03676398 -0.10832538 -0.06191207
 -0.02982477 -0.15496893  0.14018326 -0.07440837  0.24505763 -0.05535305
 -0.19587447 -0.13157831 -0.03842947  0.21000104 -0.15186279 -0.12356219
 -0.02093013  0.03402271  0.13518558  0.01089659  0.03359359  0.02180457
 -0.05303953 -0.35112345 -0.10060777 -0.07314839  0.03101863 -0.0328763
 -0.08317398  0.07167719 -0.1587293  -0.09620869  0.08493662  0.05195119
 -0.01791537 -0.07672255  0.16171151  0.01071762 -0.24180308  0.07675042
  0.05629078  0.22131269  0.17784466  0.04472279  0.06003939 -0.17864679
  0.12056217 -0.16636692  0.03079892  0.11248533  0.10786567  0.02722508
  0.03772756 -0.15039438  0.01192176  0.09908184 -0.16317642  0.01014984
  0.10289887 -0.0554364  -0.04290902 -0.10075285  0.2150759   0.07793622
 -0.11937952 -0.17678133  0.09970886 -0.10894644 -0.0836263   0.05399511
 -0.1716615  -0.17515709 -0.25742611  0.01077576  0.38565916  0.0928129
 -0.22433682  0.04282612 -0.05788972  0.03742798  0.12888031  0.15902577
  0.03169899  0.00584803 -0.08586805 -0.05372047  0.20011957 -0.11204777
 -0.01527299  0.25464359 -0.00220545  0.09871896 -0.01243105 -0.00422259
 -0.05605853  0.05181572 -0.10830144 -0.05317349  0.01134091 -0.01780449
  0.00318917  0.10938444 -0.17100613  0.08232068 -0.02504482  0.06912858
  0.0287703  -0.05002643 -0.04475023 -0.04925553  0.06067782 -0.23184846
  0.22095899  0.17864296  0.05033666  0.09731237  0.09421945  0.05854778
  0.03605133 -0.03103032 -0.19597967 -0.00798574  0.12483933 -0.02701321
  0.02823    -0.02750941]