[-0.08218376  0.10973426  0.04662215 -0.03878731 -0.11826872 -0.03947116
 -0.04777359 -0.18738201  0.15513484 -0.11413391  0.25171816 -0.0693261
 -0.18638735 -0.14550528 -0.01981075  0.24197137 -0.19101994 -0.18349004
  0.00533973  0.01682807  0.08136991  0.01874794  0.03498233  0.07436433
 -0.13701859 -0.336014   -0.10730984 -0.08363543 -0.03558983 -0.05662662
 -0.0808719   0.08353591 -0.13348012 -0.07493735  0.09493294  0.08641518
 -0.01056192 -0.08049857  0.17793655 -0.0092874  -0.26479977  0.0984753
  0.09920575  0.25491849  0.18449056 -0.00462     0.02714931 -0.16982727
  0.16494222 -0.14973311  0.03340515  0.11796474  0.10125587  0.02190623
  0.04675757 -0.11293902 -0.01513337  0.15384802 -0.15623941 -0.00039047
  0.09620154 -0.0824047  -0.01784649 -0.12924547  0.17123115  0.09824909
 -0.10946967 -0.20846759  0.08623722 -0.11316132 -0.15363719  0.04951152
 -0.18357657 -0.18358709 -0.30968082 -0.00469209  0.35480413  0.09786092
 -0.22287993  0.06532609  0.03520582  0.00827225  0.08537196  0.20793186
  0.03337678  0.01865411 -0.07799129 -0.02314256  0.2104166  -0.07394533
 -0.00693546  0.23859954 -0.01689148  0.09315716  0.01421193 -0.00095282
 -0.08234823  0.06650605 -0.1588054  -0.04440822 -0.01887288  0.03027632
  0.00708473  0.1114208  -0.16226843  0.11926627 -0.02186437  0.04120864
 -0.01884278 -0.01890691 -0.03793101 -0.01861543  0.08011778 -0.22392432
  0.19276445  0.15307693  0.07070815  0.09909002  0.10051198  0.03766006
  0.01268439 -0.00515768 -0.2070788  -0.01119428  0.14530239 -0.06357526
  0.08760097 -0.00920907]