[-0.06248173  0.11949833  0.06371341 -0.04782235 -0.09613115 -0.06374283
 -0.04575797 -0.19025345  0.1737939  -0.10911109  0.22594486 -0.07026754
 -0.21804805 -0.10046653 -0.03640779  0.22570467 -0.15692011 -0.15940933
 -0.0213552   0.0315911   0.11672755  0.00343672  0.0235182   0.05141648
 -0.07487583 -0.34991178 -0.11764245 -0.06784185  0.00307062 -0.03038025
 -0.10172983  0.05621198 -0.15799801 -0.07619249  0.06746737  0.03746556
 -0.02188697 -0.07518556  0.17181519  0.02125268 -0.27108961  0.09938408
  0.0633745   0.21950613  0.1841893   0.05326894  0.05473539 -0.18907766
  0.13449188 -0.16356708  0.02866882  0.12487429  0.09833867  0.02665282
  0.04338481 -0.17353208 -0.01605966  0.108687   -0.16334008  0.02590831
  0.1104224  -0.07381916 -0.0591825  -0.09680529  0.20251451  0.10637676
 -0.12050766 -0.18710031  0.11021938 -0.12565704 -0.09105449  0.05745241
 -0.17865752 -0.17605983 -0.27543566  0.00182727  0.38234782  0.09745555
 -0.22696351  0.03909688 -0.02975996  0.06089807  0.1305636   0.17671281
  0.02079333  0.0120105  -0.08479603 -0.04657103  0.1914084  -0.09978455
 -0.00856143  0.25905904 -0.00068816  0.10968311 -0.02790463  0.00475644
 -0.08089869  0.03603837 -0.14461567 -0.06437005  0.0045404   0.04805237
  0.00455178  0.11437172 -0.16168751  0.0843999  -0.01532524  0.04777277
  0.00365475 -0.01228446 -0.03941288 -0.06133115  0.05705926 -0.22616442
  0.19437191  0.17786193  0.04087554  0.07971709  0.09129225  0.0486474
  0.03148962 -0.02506397 -0.20257297 -0.00884944  0.1413734  -0.02214227
  0.0493454  -0.0289552 ]