[-0.11011361  0.08475699  0.04329494 -0.03839805 -0.09637592 -0.10997778
 -0.03407644 -0.15567067  0.1308108  -0.08386448  0.25907111 -0.03652141
 -0.18884759 -0.15490167 -0.02773814  0.22651576 -0.17579097 -0.12332994
 -0.03328513  0.02193602  0.11588361 -0.01701833  0.02002275  0.03068252
 -0.05367718 -0.35108849 -0.09806392 -0.09280072  0.02416018 -0.015451
 -0.05592712  0.06421474 -0.16761301 -0.10468241  0.07786219  0.05014401
 -0.01626137 -0.06933149  0.19016777  0.00433951 -0.24364951  0.06696968
  0.06306311  0.22572067  0.1752862   0.02261622  0.06831574 -0.1569114
  0.12561247 -0.17012383  0.0054718   0.1062782   0.11407609  0.03142901
  0.04337434 -0.15125474  0.02058095  0.09491614 -0.17464738  0.0054473
  0.09205933 -0.08169196 -0.06245991 -0.09643033  0.24054316  0.07586817
 -0.12985837 -0.16043101  0.13453433 -0.10579865 -0.07326608  0.04331386
 -0.16667847 -0.17448018 -0.27829131  0.01528998  0.36492109  0.10336379
 -0.23493718  0.04740175 -0.0761404   0.0270811   0.11535229  0.16384792
  0.04044503  0.02342363 -0.0705102  -0.05856444  0.18994449 -0.09623074
  0.00120941  0.25712457  0.01238282  0.09051018 -0.01114225 -0.03797451
 -0.05566635  0.01472534 -0.12878402 -0.04856296  0.00733866 -0.01586661
  0.01463993  0.09541231 -0.16203038  0.06654748 -0.00952791  0.05703888
  0.00631779 -0.02402865 -0.0527464  -0.06735207  0.05631588 -0.21016763
  0.24399307  0.19112673  0.05877913  0.09764633  0.10746767  0.04136197
  0.01586212 -0.03119287 -0.17885196 -0.00749109  0.12301834 -0.03027492
  0.04728565 -0.02680848]