[-1.12699784e-01  9.34111774e-02  4.67736274e-02 -5.45934997e-02
 -7.87570104e-02 -7.39455596e-02 -4.24531065e-02 -1.65148929e-01
  1.45049915e-01 -8.33630338e-02  2.65190512e-01 -5.89440055e-02
 -1.86974496e-01 -1.64614126e-01 -4.14278470e-02  2.29105666e-01
 -1.98039368e-01 -1.40500695e-01  2.84658489e-03  8.46272334e-03
  1.34942725e-01 -1.88405886e-02  2.43814681e-02  4.52703573e-02
 -9.00876671e-02 -3.49069715e-01 -1.07223332e-01 -9.60394293e-02
  2.58098487e-02 -4.09903787e-02 -6.41347393e-02  8.07448253e-02
 -1.73343003e-01 -8.68527442e-02  7.15416670e-02  5.76771274e-02
  2.37405533e-03 -7.65800402e-02  1.88469678e-01  3.29576811e-04
 -2.33001500e-01  5.89124076e-02  7.13987648e-02  2.26309299e-01
  1.69257373e-01  7.78468419e-03  5.32258637e-02 -1.42727003e-01
  1.27034500e-01 -1.37701556e-01  8.00517213e-04  1.30415842e-01
  1.24832213e-01  3.79103795e-02  2.44027730e-02 -1.44214436e-01
  2.58587003e-02  1.01252295e-01 -1.60160825e-01  3.41904513e-03
  8.77645984e-02 -1.01998292e-01 -4.00033146e-02 -7.12275356e-02
  2.02393770e-01  6.12573586e-02 -1.15146779e-01 -1.84507087e-01
  1.19717717e-01 -8.12927261e-02 -6.61931857e-02  5.72823174e-02
 -1.86771855e-01 -1.74352437e-01 -2.70391315e-01  5.93976676e-03
  3.58040422e-01  8.56525525e-02 -2.30078980e-01  6.45087063e-02
 -6.66402131e-02  1.98864006e-02  1.12251334e-01  1.76433802e-01
  3.74074057e-02  2.58764625e-02 -8.67055058e-02 -3.92143242e-02
  1.77620992e-01 -8.97308514e-02  3.88169283e-04  2.51428813e-01
 -5.35904604e-04  9.72162709e-02 -8.71956721e-03 -2.02162471e-02
 -6.44477233e-02  4.57790866e-02 -1.03373967e-01 -4.36510965e-02
 -3.72088514e-03  1.19754975e-03  5.08791208e-03  1.04035497e-01
 -1.63151577e-01  6.88876659e-02 -3.07956059e-03  6.14205264e-02
 -9.28610656e-03 -2.49267500e-02 -3.86980064e-02 -6.57200441e-02
  4.97038811e-02 -2.28049189e-01  2.03832075e-01  1.96257338e-01
  5.02444878e-02  1.01710908e-01  1.03038624e-01  4.81300950e-02
  2.39362251e-02 -3.50401886e-02 -1.83301002e-01  6.27543870e-03
  1.23293772e-01 -3.34854424e-02  3.86469848e-02 -3.33565250e-02]