[-0.11217695  0.09877026  0.0347518  -0.05717997 -0.08110775 -0.08809407
 -0.03975542 -0.15081523  0.14451335 -0.07588138  0.25649807 -0.05602622
 -0.18123204 -0.17557102 -0.03306796  0.22310618 -0.19899574 -0.13733976
 -0.00905567  0.01852864  0.1420878  -0.0177791   0.02734922  0.03818842
 -0.08338598 -0.35635176 -0.11158121 -0.09340683  0.02755654 -0.03959989
 -0.05715308  0.07065165 -0.17115472 -0.09501361  0.06912828  0.04767127
  0.00300763 -0.07501515  0.18507692 -0.00431596 -0.24126117  0.05332474
  0.07257199  0.22658272  0.16660553  0.01702656  0.05875282 -0.14652324
  0.11939982 -0.13631107  0.00203351  0.12939838  0.11065836  0.03439901
  0.02993991 -0.14278422  0.02746589  0.10420141 -0.16754712  0.00108618
  0.08678059 -0.09273808 -0.04981848 -0.08045612  0.20680347  0.06308597
 -0.11343457 -0.19214873  0.12453953 -0.08675649 -0.06389054  0.06390728
 -0.18199089 -0.17865326 -0.27191722  0.00080266  0.36275259  0.09129075
 -0.22164957  0.05982462 -0.07645248  0.01837849  0.11609723  0.16543995
  0.0322592   0.03098    -0.09293214 -0.03308575  0.18104938 -0.09254594
 -0.00283975  0.24327114  0.00727379  0.09545726 -0.01478161 -0.02578793
 -0.05962907  0.05137935 -0.10761716 -0.0386525   0.01183338 -0.00833623
  0.00268681  0.10450734 -0.15490155  0.06543175  0.00785784  0.05913857
 -0.0135151  -0.02367437 -0.04419229 -0.0666494   0.05108736 -0.2210331
  0.21459277  0.19893081  0.05697802  0.10232425  0.10214107  0.05114488
  0.01830917 -0.04386283 -0.18729119  0.01046383  0.12053005 -0.02694545
  0.0469519  -0.03067839]