[-0.10001886  0.09328197  0.04844847 -0.03907423 -0.07375789 -0.07525154
 -0.03480689 -0.15475848  0.1429268  -0.07516941  0.24974985 -0.0691117
 -0.18957166 -0.14468332 -0.03752003  0.22618592 -0.19932729 -0.13426641
  0.0007061   0.01761257  0.1358557  -0.01450878  0.01451036  0.0419054
 -0.08245938 -0.34858871 -0.10715665 -0.10123974  0.03462904 -0.03437506
 -0.06598171  0.07079553 -0.16380376 -0.07514257  0.06648742  0.03723406
  0.00334458 -0.09046552  0.19114876  0.00646572 -0.23983955  0.05872035
  0.05653369  0.22346802  0.16834278  0.00824476  0.05779187 -0.14384948
  0.12333123 -0.13635969 -0.01567094  0.1371185   0.1089759   0.03667266
  0.012119   -0.15092972  0.01704182  0.08501422 -0.16549437  0.00891053
  0.08929249 -0.09657832 -0.03898885 -0.07734167  0.20835486  0.05761918
 -0.11805453 -0.18794525  0.12418753 -0.09663036 -0.05809961  0.05063291
 -0.18722963 -0.17552722 -0.25949502  0.00445393  0.36099178  0.07653031
 -0.22291835  0.07104434 -0.0797799   0.02350664  0.11574958  0.18333003
  0.04330488  0.02669353 -0.08252232 -0.04791826  0.1866546  -0.10303626
  0.00408413  0.24945278 -0.00923616  0.08831514 -0.01337594 -0.02714471
 -0.06060084  0.04648228 -0.08671927 -0.03676827  0.00083183 -0.01433038
  0.01113897  0.10478643 -0.16310723  0.0654531  -0.00108946  0.06624826
  0.00645336 -0.01815765 -0.0498229  -0.07318342  0.06408963 -0.22691296
  0.2091966   0.19233006  0.0484818   0.09610473  0.09529305  0.06711438
  0.01607798 -0.02278844 -0.18736382  0.00972238  0.11593204 -0.02328449
  0.02620191 -0.03457549]