[-0.10178677  0.15663116  0.11185306 -0.05249665 -0.10674923 -0.06610167
 -0.0349356  -0.18717837  0.12676875 -0.12291589  0.27856565 -0.080446
 -0.24662054 -0.10359215 -0.00732761  0.21056309 -0.15869659 -0.13570113
  0.01089904  0.05370449  0.1219179  -0.02893798  0.06087294  0.06241235
 -0.0938529  -0.38042924 -0.13844194 -0.06378628 -0.004313   -0.02311352
 -0.08610624  0.05150813 -0.15449977 -0.05550977  0.03046598  0.02060624
  0.01145681 -0.08491109  0.16546331  0.03950783 -0.27146435  0.09009489
  0.01630775  0.23244356  0.21101688  0.01215006  0.07272703 -0.13291988
  0.09428649 -0.14428991  0.01396682  0.12465801  0.10581463 -0.01876674
  0.03606297 -0.14112328 -0.02030553  0.08073055 -0.17288868 -0.00333126
  0.12048936 -0.09326516 -0.02296173 -0.1116574   0.18671976  0.09541535
 -0.11781111 -0.16113624  0.16036703 -0.11487506 -0.04804737  0.04668815
 -0.21703394 -0.17099807 -0.24523495  0.01954486  0.3477309   0.13106413
 -0.21574239  0.03592072 -0.06720455  0.06316502  0.07639486  0.19312795
  0.06144996  0.01105494 -0.0750462  -0.03779363  0.15547147 -0.09666813
 -0.0040617   0.30191681 -0.0050205   0.06681087  0.01296103 -0.03808559
 -0.07720046  0.01367612 -0.12342358 -0.02658512 -0.08175664 -0.03003383
 -0.0063299   0.10740375 -0.18374217  0.07310697 -0.02942449  0.04440982
 -0.01948186 -0.00369333 -0.03118841 -0.07176847  0.05184951 -0.23805471
  0.16219722  0.19943815  0.0348103   0.08309912  0.07473668  0.06681222
  0.03236584 -0.01824627 -0.16055569 -0.02159756  0.11001704 -0.05678024
  0.0422104  -0.02585826]