[-0.07974757  0.14465789  0.09927221 -0.04481177 -0.09845351 -0.09463122
 -0.04204631 -0.17551292  0.15079407 -0.0630958   0.23589514 -0.05113397
 -0.23125231 -0.10428961 -0.02429971  0.23523787 -0.16227786 -0.12804583
 -0.01634172  0.02746151  0.11789926 -0.01402624  0.05511782  0.08607816
 -0.10263349 -0.35689926 -0.10833831 -0.07291478 -0.03227213 -0.00985069
 -0.10673944  0.08553632 -0.15011515 -0.07448389  0.0551935   0.0464699
  0.00129119 -0.08795882  0.15558116  0.01733838 -0.2656354   0.09325881
  0.06978701  0.23066147  0.21995179  0.01418274  0.08258543 -0.12419394
  0.11262339 -0.16953345  0.01287368  0.11923786  0.08461016  0.0156926
  0.04735376 -0.17311788 -0.02314377  0.10255908 -0.15329449 -0.00566615
  0.09948216 -0.08719632 -0.05492137 -0.1193553   0.20000215  0.11899062
 -0.12959574 -0.15932225  0.1045194  -0.11818476 -0.06664366  0.04052971
 -0.22086528 -0.15901391 -0.28167203  0.01487212  0.33434415  0.09884816
 -0.22952743  0.03024133 -0.05788955  0.08625722  0.08947762  0.15149271
  0.04455405  0.01473244 -0.09569498 -0.04056333  0.17922591 -0.10100738
  0.00670447  0.28009638  0.00436608  0.06544238 -0.02261934 -0.00672887
 -0.07814013  0.02922968 -0.14856695 -0.02204159 -0.02177367  0.00219383
 -0.00497116  0.09345976 -0.19269224  0.03858185 -0.0066434   0.05337582
 -0.00537338 -0.00828379 -0.0764923  -0.07675325  0.07005558 -0.21499141
  0.19717298  0.19994344  0.03023822  0.07122086  0.07441283  0.05264139
  0.01180348 -0.0239549  -0.14178152 -0.00246189  0.15103325 -0.04518858
  0.0331392  -0.02495114]