[-0.11468538  0.09069737  0.04466964 -0.04803973 -0.08122988 -0.10705777
 -0.01720137 -0.15054002  0.14293338 -0.07395036  0.27898043 -0.05715201
 -0.18111645 -0.16746648 -0.02500202  0.21390033 -0.18581311 -0.10821608
 -0.00558428  0.02038962  0.1473147  -0.0340395   0.0329011   0.04205969
 -0.07006321 -0.3632977  -0.11984976 -0.10324337  0.02969452 -0.04320491
 -0.06069538  0.06078236 -0.16045192 -0.10879268  0.05687324  0.03806636
 -0.00793012 -0.06109854  0.18305252  0.00694713 -0.23678969  0.04333875
  0.05483053  0.22046533  0.16522332  0.04298011  0.06521189 -0.14679006
  0.10964723 -0.13887888  0.02207817  0.10378146  0.11563355  0.03741063
  0.02817828 -0.13544698  0.02247852  0.09714565 -0.19228151  0.00204111
  0.09095559 -0.09924968 -0.05055263 -0.06240822  0.21398568  0.0809105
 -0.11092041 -0.16547976  0.1303717  -0.10383407 -0.06611694  0.05547039
 -0.1669976  -0.18437214 -0.27201208  0.01987766  0.36946458  0.10414403
 -0.21748887  0.03240893 -0.08093448  0.01415762  0.131173    0.16803542
  0.03886602  0.02740657 -0.08620987 -0.04459711  0.15700628 -0.09956244
 -0.00574923  0.25157306  0.00572949  0.10148475 -0.01269035 -0.02013465
 -0.06275941  0.0521145  -0.10139342 -0.05031827  0.01112546 -0.00056534
  0.00798292  0.09186032 -0.16341178  0.07083532 -0.00150172  0.04368561
 -0.01348209 -0.03560456 -0.03376778 -0.07384216  0.04038437 -0.22280434
  0.21028395  0.2061853   0.04765521  0.1139491   0.08592572  0.04250515
  0.02912798 -0.05845735 -0.18276766  0.01893784  0.12510039 -0.01869749
  0.04716037 -0.03831904]