[-0.09881894  0.07325359  0.05052687 -0.04301887 -0.09502872 -0.09344058
 -0.01155306 -0.17165713  0.14812635 -0.07763446  0.26849312 -0.03218926
 -0.20134346 -0.15759985 -0.0225479   0.22603276 -0.17196932 -0.13820288
 -0.00797471  0.02625272  0.10410191 -0.02285157  0.02803208  0.0413432
 -0.06587925 -0.361554   -0.09428748 -0.09851716  0.01286577 -0.01835498
 -0.06765818  0.09067056 -0.16745338 -0.09658746  0.08163374  0.05133542
 -0.01310315 -0.05129465  0.1926602   0.00506084 -0.25672144  0.05529815
  0.07105109  0.21692573  0.16469039  0.01657429  0.06125871 -0.15366967
  0.10551491 -0.16175552  0.00944868  0.10188884  0.11489493  0.01463225
  0.0343191  -0.155414    0.00767297  0.0810947  -0.17422567  0.00690239
  0.0947363  -0.10008996 -0.06676006 -0.08391473  0.22477491  0.07041571
 -0.1178711  -0.16162942  0.11863209 -0.11034538 -0.07816271  0.05303884
 -0.17330901 -0.17566438 -0.28641903  0.01424715  0.37670785  0.0947571
 -0.23221479  0.04772367 -0.06311036  0.03084348  0.12225588  0.15767269
  0.03168942  0.02981549 -0.0813076  -0.05699924  0.17994307 -0.08797564
 -0.00212759  0.24260549 -0.00210563  0.10514563 -0.00481247 -0.02894628
 -0.04551563  0.02164295 -0.14070717 -0.0601663  -0.00328626 -0.00569636
  0.02078109  0.10468133 -0.17781255  0.05226417 -0.0088393   0.03640766
  0.01505123 -0.00742251 -0.04809858 -0.08423235  0.05140739 -0.21783181
  0.22554207  0.19754909  0.05618419  0.09127931  0.09443308  0.03307659
  0.00671109 -0.03014326 -0.17582844  0.00568688  0.13509861 -0.03962845
  0.05727673 -0.03808367]