[-1.01928644e-01  9.32413638e-02  4.25748937e-02 -4.21781018e-02
 -7.49846771e-02 -9.00036842e-02 -4.06250022e-02 -1.57970056e-01
  1.47520378e-01 -8.18592906e-02  2.61651129e-01 -6.12856522e-02
 -1.82365805e-01 -1.56571448e-01 -3.69235873e-02  2.22811341e-01
 -2.00034365e-01 -1.36457607e-01 -1.58072531e-03  1.27129899e-02
  1.42360613e-01 -2.16967650e-02  2.19784565e-02  4.42092828e-02
 -8.62451792e-02 -3.50654572e-01 -1.10536687e-01 -9.61315259e-02
  3.29544134e-02 -3.41742188e-02 -6.07352220e-02  7.99016505e-02
 -1.73239499e-01 -9.26749334e-02  6.88379407e-02  4.09493744e-02
  5.21250255e-03 -7.72576556e-02  1.91961527e-01  9.36409738e-03
 -2.33024865e-01  5.45189045e-02  5.45668490e-02  2.25457504e-01
  1.64726183e-01  1.67764314e-02  5.97631708e-02 -1.44894555e-01
  1.18584566e-01 -1.32811263e-01 -1.15481322e-03  1.34788409e-01
  1.20907247e-01  4.10678610e-02  1.68914385e-02 -1.44028530e-01
  2.42797043e-02  8.84617642e-02 -1.62946269e-01 -3.71776521e-04
  9.21810567e-02 -9.71385762e-02 -4.35101390e-02 -7.60079548e-02
  2.09644914e-01  5.91299422e-02 -1.10709563e-01 -1.82801902e-01
  1.25917315e-01 -8.47977921e-02 -6.62959740e-02  5.40642217e-02
 -1.83822975e-01 -1.71692714e-01 -2.62017101e-01  5.30086458e-03
  3.61227959e-01  8.13799202e-02 -2.25856096e-01  6.44038245e-02
 -7.80501589e-02  1.88304577e-02  1.13159500e-01  1.71905950e-01
  3.92433181e-02  2.94052213e-02 -7.97040537e-02 -3.91310751e-02
  1.77836835e-01 -9.56553444e-02 -3.69995763e-03  2.47144610e-01
 -2.33789883e-03  9.48244035e-02 -7.01817079e-03 -3.10636107e-02
 -5.66323102e-02  5.13537526e-02 -9.42286775e-02 -3.84332463e-02
  5.21200011e-03 -1.30046901e-04  4.99616284e-03  9.83660147e-02
 -1.58129662e-01  6.76477849e-02 -3.61569226e-04  6.20592833e-02
 -2.21447507e-03 -1.88646242e-02 -5.00825532e-02 -7.45858178e-02
  5.26820496e-02 -2.25721717e-01  2.10525155e-01  1.92433819e-01
  5.01547530e-02  1.01060584e-01  9.45864245e-02  5.86682819e-02
  2.00176369e-02 -3.34674418e-02 -1.87037751e-01  6.43874332e-03
  1.25173792e-01 -2.40056850e-02  3.51785943e-02 -3.58224772e-02]