[-0.03467568  0.12994938  0.06245298 -0.03776055 -0.05215321  0.01120412
 -0.05846861 -0.06205955  0.13182406 -0.04992486  0.19650033 -0.05744597
 -0.2160496  -0.13150196 -0.08369825  0.15257852 -0.20789459 -0.11806387
 -0.00694254 -0.00766636  0.09054379  0.05998068 -0.00416427  0.01596872
 -0.07826816 -0.32845327 -0.05312786 -0.12087072  0.01673374 -0.06459562
 -0.07807007  0.09743363 -0.16010933 -0.07427758  0.03564166  0.04941083
 -0.01790902  0.02741539  0.11431992  0.01326465 -0.16649701  0.07874876
  0.03860536  0.29011142  0.20702787  0.09170457 -0.00353792 -0.14843895
  0.07352721 -0.16337977  0.02852941  0.18670911  0.06931261  0.05486555
  0.01607016 -0.13215666 -0.00481676  0.04223761 -0.126995    0.02739
  0.06039836 -0.03474698  0.01757365 -0.04051488  0.19581325  0.00274908
 -0.09258981 -0.15831397  0.12268799 -0.14010112 -0.10159586  0.04620453
 -0.13294463 -0.11995818 -0.26673013  0.01296888  0.43377462  0.07509329
 -0.17458989  0.07472616 -0.0963723  -0.05957202  0.12475301  0.09839939
 -0.06929404  0.00274989 -0.07873593  0.01346974  0.20726287 -0.05788651
 -0.02618277  0.16750893  0.00533935  0.06947166  0.04264131 -0.02545589
 -0.03978793  0.07446446 -0.18127689 -0.04646723 -0.02065196 -0.08045406
 -0.02643915  0.12527338 -0.15913717  0.09846172  0.05870379  0.00590445
  0.01490964  0.03644572 -0.12837625 -0.04975116  0.16128491 -0.21445051
  0.20718093  0.17131679  0.13280442  0.08663274  0.1297475   0.06733551
 -0.00464087 -0.04859885 -0.18139692 -0.03186801  0.11455544 -0.01152893
  0.07123698  0.00385619]