[-0.03192027  0.11431395  0.00444936 -0.0276862  -0.00927887 -0.00173621
 -0.0465545  -0.06916092  0.1597247  -0.05291008  0.24206917 -0.03503201
 -0.23972848 -0.16100295 -0.06103959  0.14957541 -0.19906342 -0.12193201
 -0.02230561  0.0225662   0.080639    0.03994171  0.02428054  0.02632471
 -0.07358172 -0.32020816 -0.07903744 -0.12403502  0.03662542 -0.0890113
 -0.07388242  0.08506533 -0.17744766 -0.11231178  0.0527649   0.02236954
  0.00454096  0.00783117  0.18184204  0.0429307  -0.17505895  0.07273339
  0.00940719  0.29807201  0.18846665  0.08087259  0.01012767 -0.15709017
  0.08476638 -0.15223345  0.04355532  0.19250849  0.08942212  0.02656209
  0.01879654 -0.13837297 -0.0268643   0.0882171  -0.13499968  0.03002298
  0.06107798 -0.00064969  0.01497312 -0.04766498  0.15919083 -0.00362699
 -0.10050742 -0.16719972  0.12204857 -0.1316679  -0.07129066  0.07731553
 -0.15191273 -0.16489477 -0.27101493  0.02283267  0.37528747  0.08006673
 -0.15378371  0.07617467 -0.07043827 -0.06270669  0.11010337  0.10676694
 -0.04953603  0.0131227  -0.05579944  0.00690373  0.20266505 -0.02974542
 -0.03187254  0.17905822 -0.03412936  0.0568041   0.0357608  -0.01695942
 -0.02226049  0.05436127 -0.1648459  -0.02012886 -0.02211345 -0.06543926
 -0.01808106  0.1239555  -0.14612345  0.04409018  0.02994945  0.00519864
  0.00636064  0.02344452 -0.11726258 -0.05565481  0.13945746 -0.22649236
  0.21865924  0.17243843  0.10111721  0.05749479  0.12075015  0.06054119
  0.00538906 -0.03594942 -0.20096675 -0.04285536  0.11164162  0.00524173
  0.0832869  -0.04179218]