[-0.0732286   0.10653649  0.07439434 -0.0489902  -0.06486189  0.00084288
 -0.0556474  -0.05931857  0.13525845 -0.08112731  0.22843039 -0.04377122
 -0.19420429 -0.11057651 -0.09552514  0.15967453 -0.17890254 -0.12074599
  0.00875989 -0.01514059  0.08608624  0.07313497 -0.02083875  0.06154
 -0.1046923  -0.30250037 -0.0585419  -0.12343978 -0.00359014 -0.06748775
 -0.08300494  0.1156924  -0.14002357 -0.05047531  0.03018565  0.06959049
  0.00157152  0.03024369  0.13442725  0.03499627 -0.18027809  0.08623509
  0.04666553  0.31158     0.18519585  0.06461852 -0.01023061 -0.12016644
  0.10538071 -0.18199305  0.02622068  0.17434947  0.08191296  0.04835989
  0.01253924 -0.14031108 -0.00674554  0.06381261 -0.13071546  0.04402479
  0.02395694 -0.05110497  0.03526595 -0.03939275  0.19160359  0.03566809
 -0.09415976 -0.13178308  0.12116065 -0.1387511  -0.0930983   0.075002
 -0.15046141 -0.12775718 -0.24558735  0.03005345  0.43118984  0.08732737
 -0.173214    0.07048389 -0.07976411 -0.06086483  0.10600175  0.09568001
 -0.06973382  0.00362953 -0.08361589  0.01054633  0.2276769  -0.03456384
 -0.00845433  0.19454758  0.01399853  0.0686215   0.05220291 -0.0134867
 -0.05523622  0.03633697 -0.16631329 -0.0545527  -0.03997236 -0.09144576
 -0.02552564  0.11334669 -0.19083636  0.10384721  0.04087653 -0.00229322
 -0.0044428   0.06655768 -0.10591115 -0.04196686  0.15416498 -0.18359201
  0.19455487  0.15275972  0.12730718  0.10424925  0.12457456  0.05466656
 -0.02902381 -0.0565808  -0.13802968 -0.03477014  0.12793297 -0.03375072
  0.09264148 -0.00452891]