[-7.38753900e-02  9.05009657e-02  5.82228117e-02 -3.51522677e-02
 -2.20006313e-02  1.65356174e-02 -5.30167595e-02 -4.42414992e-02
  1.47246465e-01 -6.40858784e-02  1.79647461e-01 -4.74204309e-02
 -1.88081652e-01 -6.29023835e-02 -7.31970817e-02  1.65775880e-01
 -1.64547950e-01 -1.17064573e-01 -3.00383810e-02 -3.58489715e-02
  8.49521384e-02  4.75866534e-02 -7.92981219e-03  2.51221601e-02
 -1.28768519e-01 -3.14782500e-01 -9.13591757e-02 -1.48178816e-01
 -1.01790021e-04 -9.67500135e-02 -7.58596286e-02  1.66589860e-02
 -1.46861449e-01 -6.11127913e-02  4.29931246e-02  5.41184507e-02
  7.60123599e-03 -2.00182069e-02  1.53963909e-01  4.61239330e-02
 -1.59735620e-01  6.09541424e-02  6.23666905e-02  2.90380448e-01
  1.69353709e-01  8.32783282e-02  4.94693988e-04 -1.14252210e-01
  9.64176580e-02 -1.72279716e-01  5.73878251e-02  1.28596574e-01
  5.72017245e-02  8.36767927e-02  5.30837290e-02 -1.27716169e-01
 -3.51188704e-04  7.93412328e-02 -1.18605532e-01  3.22865695e-02
  4.37871478e-02  3.30204256e-02  7.44953891e-03 -4.48796675e-02
  2.09663793e-01  7.21165165e-02 -9.58914086e-02 -1.44828185e-01
  1.16838291e-01 -1.21556044e-01 -7.68376216e-02  1.51405847e-02
 -1.55549735e-01 -1.14631869e-01 -2.55435556e-01  3.41774486e-02
  4.20368969e-01  7.93661922e-02 -1.57591283e-01  4.47615869e-02
 -7.28039667e-02 -4.38562445e-02  1.01324551e-01  6.89400956e-02
 -8.41902420e-02  3.77803817e-02 -2.11426020e-02  3.28635983e-02
  2.22651243e-01 -1.93235632e-02 -1.59755908e-02  1.33239225e-01
 -3.38059925e-02  5.59536181e-02  3.29630114e-02 -9.65645909e-03
 -7.57150650e-02  4.10561636e-02 -1.60640970e-01 -4.43386175e-02
  5.50727942e-04 -4.68867198e-02  5.85922739e-03  1.56611785e-01
 -2.00816676e-01  8.43049064e-02  3.04604825e-02 -3.47349159e-02
  8.70097836e-04  1.06914140e-01 -1.42334804e-01 -3.52280028e-02
  1.56748876e-01 -1.82910472e-01  1.89906642e-01  1.85489550e-01
  8.12269673e-02  5.39596938e-02  1.13197722e-01  5.37834652e-02
 -1.09029850e-02  2.89171524e-02 -1.98153183e-01 -1.89198982e-02
  1.02925442e-01 -1.09184009e-03  6.05461113e-02 -3.23041831e-03]