[-7.57718310e-02  1.00466564e-01  5.28737493e-02 -5.93432300e-02
 -2.97764372e-02  1.49408877e-02 -4.63155769e-02 -7.13933408e-02
  1.47834212e-01 -7.85310492e-02  2.15828702e-01 -4.56935130e-02
 -1.99978396e-01 -9.13428292e-02 -6.57169372e-02  1.73387349e-01
 -2.14245483e-01 -1.43401250e-01  3.72242561e-04  1.38067454e-02
  7.04462752e-02  1.74116921e-02  9.41844657e-03  2.73667071e-02
 -9.58071500e-02 -3.22329313e-01 -8.17131102e-02 -1.38457671e-01
  1.59501433e-02 -4.02698442e-02 -7.27472529e-02  3.97717021e-02
 -1.62975565e-01 -7.21678212e-02  4.68528531e-02  6.20788001e-02
 -2.44863820e-03 -7.58792972e-03  1.61246166e-01 -1.98642979e-03
 -1.80560634e-01  7.45991319e-02  6.65247068e-02  2.87234664e-01
  1.78454354e-01  1.00174621e-01  4.98719094e-03 -1.42193750e-01
  1.06806479e-01 -1.73936188e-01  6.94159418e-02  1.22971378e-01
  8.32640901e-02  3.74389254e-02  5.03492132e-02 -1.45322397e-01
  1.08593134e-02  8.39993656e-02 -1.20834254e-01  3.85339931e-02
  5.51427081e-02  2.86829155e-02  3.81276198e-02 -5.62455915e-02
  2.07958266e-01  4.45483550e-02 -9.01997834e-02 -1.56665757e-01
  1.23236157e-01 -1.14959598e-01 -9.16511118e-02  4.43797521e-02
 -1.59289524e-01 -1.32691547e-01 -2.82264918e-01  2.50510429e-03
  4.09683317e-01  8.61003101e-02 -1.46378547e-01  6.27144277e-02
 -3.80306914e-02 -4.16583717e-02  1.25086814e-01  9.35350284e-02
 -8.24172497e-02  1.46699194e-02 -7.22325966e-02  5.25446935e-03
  2.34009549e-01 -3.22275944e-02 -3.57344858e-02  1.41761944e-01
 -3.00439801e-02  5.58280721e-02  2.53254920e-02 -1.15715871e-02
 -5.33477366e-02  6.17531501e-02 -2.03935966e-01 -5.08450456e-02
 -9.46620852e-03 -2.23487895e-02 -1.74025055e-02  1.59401178e-01
 -1.89416707e-01  4.75150160e-02  1.33035993e-02 -7.89941382e-03
 -3.32012470e-03  7.22602382e-02 -1.29506513e-01 -3.51277106e-02
  1.37439281e-01 -1.89473256e-01  1.87041700e-01  1.81529328e-01
  9.80852172e-02  5.18524647e-02  1.34373918e-01  2.56520491e-02
 -3.71824572e-04  3.08602909e-03 -2.27532625e-01 -2.52442900e-02
  1.22992635e-01 -7.70665798e-03  1.05878189e-01  9.74953733e-03]