[-0.05792237  0.11959346  0.05990543 -0.01263338 -0.0404238  -0.00675614
 -0.04191783 -0.08812945  0.13040811 -0.05354865  0.24080239 -0.06166486
 -0.21988051 -0.15933947 -0.07430886  0.19192627 -0.2259322  -0.13746636
  0.01991891  0.01995384  0.05639545 -0.0036826   0.03159794  0.02626199
 -0.0588073  -0.32615596 -0.06433287 -0.1313844   0.02726153 -0.03904673
 -0.07935787  0.08263563 -0.16189227 -0.07067572  0.0393266   0.02888848
  0.01119096 -0.00498903  0.17956011 -0.01278195 -0.17322344  0.0575855
  0.02921223  0.27962229  0.15561453  0.08482686  0.00683619 -0.14491047
  0.12509799 -0.14344099  0.04307241  0.16429344  0.08865152  0.01272025
  0.00617497 -0.15225458 -0.00240589  0.07513777 -0.11807474  0.01422954
  0.03185191 -0.00549469  0.02427017 -0.08013578  0.19850364  0.01423524
 -0.07788149 -0.16601191  0.13291495 -0.09894045 -0.0824981   0.05169063
 -0.17105682 -0.13277636 -0.29853943 -0.00623564  0.38514513  0.06403645
 -0.16517267  0.06186108 -0.0661355  -0.04617235  0.10759566  0.11975332
 -0.05844153  0.00932704 -0.09743294 -0.03643346  0.21091652 -0.07037363
 -0.04552493  0.15016036 -0.01752936  0.07708611  0.00529482 -0.05645783
 -0.02419081  0.07116526 -0.18419981 -0.03984743 -0.03217698 -0.03663781
 -0.03716047  0.12245686 -0.18152283  0.02825917  0.04719672  0.01867783
 -0.00324832  0.04229457 -0.12583017 -0.05267113  0.13220726 -0.20987263
  0.21596403  0.17962629  0.12696868  0.07356041  0.12389471  0.04452598
 -0.01409725 -0.03296517 -0.19124714 -0.03195013  0.1425631  -0.01318639
  0.07857403  0.00498587]