[-5.20667247e-02  1.08179830e-01  3.40540372e-02 -3.05740181e-02
 -2.59230863e-02 -3.23094763e-02 -5.78363100e-03 -6.44013211e-02
  1.50356293e-01 -6.36887401e-02  2.53452212e-01 -4.99065109e-02
 -2.47011170e-01 -1.27475932e-01 -7.26395175e-02  1.46181419e-01
 -1.90394923e-01 -9.92890373e-02 -1.98512822e-02  7.30230985e-03
  1.09621905e-01  2.62670256e-02  1.90215427e-02  2.00398862e-02
 -6.86366633e-02 -2.97315061e-01 -6.69776574e-02 -1.10178173e-01
  7.22488984e-02 -1.08777776e-01 -7.53782913e-02  5.87042682e-02
 -1.59119383e-01 -1.18737996e-01  2.63858177e-02  2.07502134e-02
 -6.33824198e-03 -5.09944698e-03  1.73396498e-01  2.54238993e-02
 -1.83046624e-01  4.59958389e-02 -6.80180639e-03  3.07910591e-01
  1.82869866e-01  8.81884322e-02  1.46942481e-03 -1.65430203e-01
  8.34821090e-02 -1.87845275e-01  6.35499209e-02  1.51095763e-01
  9.69401225e-02  2.57717166e-02  4.07144539e-02 -1.56882986e-01
 -2.39144769e-02  8.32813308e-02 -1.56817123e-01  5.02047613e-02
  7.29402825e-02  1.48607627e-03  2.57345121e-02 -7.84206316e-02
  1.54304132e-01 -9.54170537e-04 -1.02368072e-01 -1.36177942e-01
  1.46450996e-01 -1.34823799e-01 -7.53386319e-02  5.69924973e-02
 -1.23987317e-01 -1.73398167e-01 -2.76434988e-01  2.22720951e-02
  3.53121758e-01  1.22734301e-01 -1.51248977e-01  6.04156554e-02
 -5.31321056e-02 -4.48677689e-02  1.23543978e-01  1.06719650e-01
 -5.42653687e-02  3.16745825e-02 -5.70610054e-02  1.68848317e-02
  1.57372713e-01 -5.12924604e-02 -4.52653281e-02  1.87532932e-01
 -4.19611745e-02  5.61325252e-02  2.85645779e-02 -3.86618613e-03
 -5.49813770e-02  8.30589756e-02 -1.67287216e-01 -1.72061585e-02
  2.56687403e-02 -7.61836991e-02  7.82453176e-03  1.38187006e-01
 -1.49732903e-01  7.37258121e-02  8.42502248e-03  1.34106195e-02
  5.75171923e-03  1.74477333e-04 -1.13488056e-01 -2.11146995e-02
  1.38770029e-01 -2.18472913e-01  2.33715683e-01  1.95315689e-01
  9.16021988e-02  6.57899156e-02  1.21036910e-01  2.88259815e-02
  3.65114473e-02 -3.97842824e-02 -2.15412766e-01 -3.08533404e-02
  1.07246064e-01 -2.72332318e-02  8.53029117e-02 -1.37216691e-02]