[-5.64551651e-02  1.43379152e-01  4.77530994e-02 -5.40872179e-02
 -7.34286830e-02  2.42297727e-04 -7.22928271e-02 -6.86091632e-02
  1.35971099e-01 -5.41841686e-02  1.95967317e-01 -4.53197174e-02
 -2.15099603e-01 -1.34793267e-01 -8.18268880e-02  1.49322063e-01
 -2.07487151e-01 -1.22585081e-01  5.53582888e-03 -1.65659394e-02
  7.52473697e-02  4.74118926e-02  6.20192150e-03  4.12507020e-02
 -8.02858695e-02 -3.29844087e-01 -5.46679981e-02 -1.21350206e-01
  1.84421241e-02 -5.99715970e-02 -8.41234252e-02  1.01305798e-01
 -1.59046099e-01 -8.00487995e-02  3.74694578e-02  5.82848191e-02
 -3.44095309e-03  3.22670117e-02  1.38230279e-01  3.22709978e-03
 -1.68120906e-01  6.97940513e-02  5.01305833e-02  2.94074088e-01
  2.20255643e-01  8.76708254e-02 -2.92777619e-03 -1.33173853e-01
  1.19937040e-01 -1.52413309e-01  4.48135920e-02  1.82410315e-01
  7.49333873e-02  3.25606279e-02  2.31201444e-02 -1.48057804e-01
 -5.94665203e-03  6.37320504e-02 -1.25836894e-01  2.31032204e-02
  3.90297212e-02 -3.98147069e-02  1.67559721e-02 -4.41366695e-02
  1.89945295e-01  1.10900681e-02 -7.62456208e-02 -1.57649443e-01
  1.42874166e-01 -1.43358678e-01 -8.93173963e-02  5.85181229e-02
 -1.48045361e-01 -1.16785966e-01 -2.75835127e-01  4.55393363e-03
  4.12561893e-01  9.65373442e-02 -1.65332794e-01  7.31357634e-02
 -6.91853389e-02 -6.70970529e-02  1.13862805e-01  9.72766504e-02
 -8.73074755e-02  7.63153145e-03 -9.19254944e-02  1.28633706e-02
  2.17360780e-01 -3.42760012e-02 -3.23496237e-02  1.78966999e-01
  1.50799751e-02  8.48051235e-02  5.18431440e-02 -2.56874710e-02
 -5.69939986e-02  4.54760119e-02 -2.03513026e-01 -5.73140047e-02
 -2.01120004e-02 -7.78492615e-02 -3.31721269e-02  1.34209827e-01
 -1.74922913e-01  8.50742236e-02  4.54875007e-02  1.65758152e-02
 -2.53395829e-02  3.33128944e-02 -1.13335885e-01 -4.03133482e-02
  1.62623182e-01 -1.82025760e-01  1.97567746e-01  1.61285564e-01
  1.35169104e-01  9.33156833e-02  1.33662626e-01  3.48642655e-02
 -5.71864145e-03 -6.56423494e-02 -1.71238244e-01 -3.50619331e-02
  1.22353904e-01 -3.04944515e-02  1.02264561e-01  1.33187091e-02]