[-6.79780692e-02  1.40302062e-01  4.63052094e-02 -5.06062470e-02
 -7.34040663e-02 -2.73167086e-03 -6.72402307e-02 -7.88666531e-02
  1.34094700e-01 -5.96528612e-02  2.03363895e-01 -4.49265279e-02
 -2.13648111e-01 -1.34562567e-01 -8.61820206e-02  1.56683400e-01
 -2.07949549e-01 -1.30054742e-01  7.19159422e-03 -1.44583089e-02
  9.01111662e-02  5.19026183e-02 -2.50460673e-03  4.96897362e-02
 -8.01436082e-02 -3.24456275e-01 -5.34542575e-02 -1.23331778e-01
  2.66338475e-02 -5.13725542e-02 -8.15162286e-02  9.94921476e-02
 -1.64536998e-01 -8.27388093e-02  4.35656942e-02  6.28286451e-02
 -1.97594124e-03  2.50416249e-02  1.43805951e-01 -8.30097124e-04
 -1.74716517e-01  7.30492473e-02  6.35115430e-02  2.88411826e-01
  2.02307209e-01  8.29632506e-02  2.87787057e-04 -1.40389040e-01
  1.10914849e-01 -1.48849592e-01  3.76492403e-02  1.83056638e-01
  8.82393643e-02  4.14330848e-02  6.37666602e-03 -1.53234467e-01
 -1.40268810e-03  5.83415627e-02 -1.28388211e-01  2.87124366e-02
  4.86444160e-02 -4.73163687e-02  1.53769916e-02 -3.60148847e-02
  1.97093800e-01  1.30724106e-02 -7.81648010e-02 -1.64389834e-01
  1.47199512e-01 -1.45610690e-01 -1.00684397e-01  5.74541576e-02
 -1.46658599e-01 -1.13578372e-01 -2.68299609e-01  2.56775925e-03
  4.18246478e-01  9.19855535e-02 -1.70880958e-01  7.94153437e-02
 -8.07863697e-02 -6.13718219e-02  1.15383387e-01  1.03906848e-01
 -7.53095374e-02  2.26581958e-03 -9.02507231e-02  7.20353005e-03
  2.28124022e-01 -3.57811265e-02 -2.64720600e-02  1.84380397e-01
  2.86329146e-02  8.67386311e-02  5.18341474e-02 -2.81300005e-02
 -5.33959083e-02  4.44493107e-02 -1.96099788e-01 -5.67121990e-02
 -3.00982725e-02 -6.66772723e-02 -2.64286678e-02  1.34386703e-01
 -1.74458236e-01  8.59602243e-02  4.92063165e-02  1.68760940e-02
 -1.29110655e-02  4.59619910e-02 -1.14850007e-01 -5.35713434e-02
  1.52765512e-01 -1.77613169e-01  2.07727104e-01  1.61140606e-01
  1.42067239e-01  9.26113650e-02  1.43068254e-01  4.40406054e-02
  3.78909335e-03 -6.48335740e-02 -1.77686498e-01 -3.65957059e-02
  1.30012497e-01 -3.71529236e-02  9.83111337e-02  1.19738905e-02]