[-0.02116504  0.12467768  0.00209471 -0.03179583 -0.01203611  0.0076214
 -0.04656052 -0.06422617  0.16425106 -0.06368001  0.22913866 -0.02012271
 -0.249626   -0.14728045 -0.06769234  0.15505774 -0.18798865 -0.12411167
 -0.02874581  0.01614922  0.07093865  0.02894785  0.0180307   0.02797891
 -0.07584815 -0.31465697 -0.08228271 -0.1250125   0.0290027  -0.09505188
 -0.08232923  0.08902046 -0.16113631 -0.11617911  0.0514221   0.00909787
  0.00138324  0.01812083  0.18671604  0.04625193 -0.16722216  0.07035257
  0.00988983  0.31045711  0.17900865  0.074909    0.01608585 -0.13634717
  0.08091556 -0.16997658  0.0427512   0.18227677  0.09410381  0.03024321
  0.03264936 -0.13950402 -0.02198445  0.09076976 -0.14555579  0.04098007
  0.06406958 -0.00883008  0.00095267 -0.04488925  0.1625866   0.01724991
 -0.09905931 -0.16837685  0.13505135 -0.12710765 -0.06488663  0.05839606
 -0.14721727 -0.15623806 -0.26248333  0.02376879  0.37156722  0.10420223
 -0.14794545  0.07192601 -0.07029969 -0.0615754   0.1022222   0.077241
 -0.06739955  0.01034591 -0.0469474   0.01798389  0.1890665  -0.01907064
 -0.03496659  0.16574709 -0.03463694  0.05379281  0.03771582 -0.01621054
 -0.03564733  0.04987932 -0.17981592 -0.00860553 -0.02347374 -0.07714637
 -0.00914838  0.12945762 -0.14382991  0.049221    0.02063096 -0.00075825
 -0.00536866  0.04735119 -0.13792063 -0.04471844  0.14518659 -0.21764617
  0.22093935  0.17500813  0.09690843  0.04225634  0.12517124  0.04337009
  0.00942224 -0.0386878  -0.20499671 -0.05814959  0.11840015 -0.01040113
  0.08472552 -0.03823867]