[-0.05406026  0.09750187  0.05662842 -0.03633922 -0.01501549  0.01171145
 -0.02918505 -0.04999558  0.15448949 -0.08130902  0.21090341 -0.03818816
 -0.21187103 -0.12316526 -0.06470076  0.17928863 -0.20038271 -0.13653019
  0.00997046  0.00480961  0.06816977  0.03562612 -0.00433242 -0.01171525
 -0.08313476 -0.30790883 -0.07029119 -0.11489177  0.01114178 -0.05372061
 -0.07601516  0.05265824 -0.15630606 -0.0753819   0.05729265  0.03791747
 -0.01134751  0.00391638  0.16002408  0.02273225 -0.16410568  0.06148663
  0.02733055  0.2954255   0.16951726  0.08493786  0.01209068 -0.16540216
  0.09418716 -0.15321295  0.05078393  0.1494502   0.08066837  0.04243069
  0.0297155  -0.14200953  0.00546867  0.07137016 -0.11420994  0.02770878
  0.05922859  0.01570794  0.02095963 -0.03606782  0.20761199 -0.00164521
 -0.09597191 -0.18455726  0.12382432 -0.10969026 -0.07868441  0.05093333
 -0.14724123 -0.14049385 -0.25803909  0.02071833  0.39390969  0.06694365
 -0.16006218  0.08594323 -0.06835964 -0.04215153  0.13905285  0.1224936
 -0.05822373  0.02379127 -0.0608885  -0.01590649  0.20985341 -0.05288393
 -0.04670417  0.13618909 -0.02486674  0.0491001   0.03067909 -0.03646315
 -0.03692669  0.08426486 -0.15931025 -0.05988574  0.00648831 -0.05495651
 -0.01117452  0.15478793 -0.17660961  0.07592761  0.01352439  0.0170707
  0.02285256  0.05066005 -0.11156833 -0.05074844  0.12547593 -0.22374336
  0.19609627  0.17411007  0.08249278  0.06758075  0.1213994   0.06679443
  0.00389378  0.0108777  -0.210567   -0.01927906  0.10205563  0.00884163
  0.09229251 -0.00689262]