[-6.40336052e-02  9.57533270e-02  5.98780103e-02 -4.13904414e-02
 -3.82024050e-02  3.29533108e-02 -5.06981425e-02 -6.81672245e-02
  1.53511524e-01 -9.37608331e-02  2.15515852e-01 -3.71208899e-02
 -2.09219739e-01 -9.49329287e-02 -6.56560585e-02  1.79492176e-01
 -2.00002074e-01 -1.44130901e-01 -4.73686494e-03  2.54374836e-02
  7.39860535e-02  3.38981003e-02  2.11873092e-02  5.47881145e-03
 -9.74230617e-02 -3.42998624e-01 -8.61749724e-02 -1.36945918e-01
  3.65992519e-03 -4.02554087e-02 -8.60531703e-02  4.92865480e-02
 -1.52471304e-01 -6.89612776e-02  5.08556552e-02  7.24963769e-02
 -2.03170138e-03 -7.19091250e-03  1.50905311e-01  3.87616875e-03
 -1.86006665e-01  7.71230087e-02  5.92501871e-02  2.79384375e-01
  1.71080187e-01  8.73182788e-02  1.32977283e-02 -1.37222990e-01
  9.16081220e-02 -1.76699132e-01  6.17696010e-02  1.25340447e-01
  7.54024461e-02  4.76536565e-02  6.50093034e-02 -1.29925430e-01
  9.26304050e-03  7.71837756e-02 -1.02602996e-01  3.07182427e-02
  6.22294806e-02  3.48281674e-02  3.89511772e-02 -5.30011840e-02
  2.08473593e-01  3.58441658e-02 -8.79776701e-02 -1.59444138e-01
  1.13923185e-01 -1.10385232e-01 -9.53314826e-02  4.28755134e-02
 -1.68832421e-01 -1.33794650e-01 -2.65202850e-01  4.22912976e-03
  4.25046027e-01  8.70988294e-02 -1.50325164e-01  7.02958107e-02
 -4.51289788e-02 -4.18958701e-02  1.24791645e-01  8.97848830e-02
 -5.71810976e-02  2.65566353e-02 -7.20954090e-02  9.89761949e-03
  2.37854168e-01 -4.32272814e-02 -3.18632424e-02  1.48493320e-01
 -2.82007903e-02  6.33836538e-02  3.67096327e-02 -1.82739925e-02
 -3.54180895e-02  6.11382127e-02 -2.02963337e-01 -4.60559428e-02
 -1.13659548e-02 -3.44048999e-02 -2.29230169e-02  1.40591443e-01
 -1.76246598e-01  4.81982864e-02  1.20832892e-02  5.41673980e-05
  1.23258177e-02  7.64626116e-02 -1.41359195e-01 -3.19636613e-02
  1.42202228e-01 -2.00928926e-01  1.89852044e-01  1.77878961e-01
  8.89177620e-02  5.21616302e-02  1.33194759e-01  4.14808281e-02
 -2.60579819e-03  2.88121030e-03 -2.22901255e-01 -3.84265855e-02
  1.18425824e-01 -1.41825748e-03  8.94007310e-02  6.15452323e-03]