[-0.07623193  0.13525304  0.0478809  -0.0355635  -0.06449047 -0.01809146
 -0.0506213  -0.0748483   0.13433106 -0.04786378  0.18471366 -0.03390231
 -0.20770593 -0.13962041 -0.0869344   0.14720529 -0.21184547 -0.12532662
  0.00907046 -0.02465236  0.09111693  0.05545866 -0.00473934  0.04827502
 -0.07858854 -0.30480081 -0.0587475  -0.1303881   0.0308752  -0.04948042
 -0.0697212   0.09528628 -0.15721859 -0.08668129  0.04023786  0.04932012
 -0.00689015  0.02213126  0.14862598 -0.00736741 -0.15815262  0.06368785
  0.06472979  0.30234784  0.19719027  0.07864516 -0.00638902 -0.12368444
  0.11132552 -0.14544451  0.02790134  0.17338459  0.09164473  0.04589448
  0.00351859 -0.15977     0.0063567   0.04950684 -0.15080458  0.0268444
  0.03405552 -0.06321941  0.00845564 -0.02185502  0.19391534  0.01621894
 -0.06977265 -0.1665289   0.14443363 -0.16046198 -0.08517887  0.06100004
 -0.13579933 -0.1059536  -0.26038012 -0.00298468  0.41982824  0.08925176
 -0.15986986  0.08090536 -0.08715496 -0.0641451   0.11166789  0.09013322
 -0.0919923   0.01215942 -0.09839806  0.00628944  0.21401477 -0.03358466
 -0.03653025  0.16886027  0.03997942  0.06602746  0.06189039 -0.0429795
 -0.05226419  0.04097387 -0.1897981  -0.05966843 -0.02565436 -0.08253454
 -0.01917094  0.1210852  -0.1731535   0.09206352  0.06152847  0.00811363
 -0.02685618  0.03861511 -0.12750483 -0.0431562   0.15559618 -0.18088782
  0.20874129  0.1519918   0.13435009  0.10841896  0.1234417   0.04507392
 -0.01764029 -0.06137799 -0.15441476 -0.03675511  0.13066709 -0.03037566
  0.11914475  0.01125548]