[-0.06700281  0.11406963  0.07311874 -0.00586085 -0.03575687 -0.01575915
 -0.05122897 -0.07878789  0.13640939 -0.0680095   0.24175254 -0.04242456
 -0.20897882 -0.16612843 -0.06704169  0.18313342 -0.21675216 -0.13517068
  0.02466558  0.01601746  0.05301237  0.00311748  0.03665137  0.01578248
 -0.06526198 -0.32908589 -0.07427011 -0.13386878  0.01797756 -0.03528005
 -0.07916435  0.09152301 -0.14568715 -0.07487471  0.04030719  0.03995787
  0.01957182  0.00482415  0.16826367 -0.00442227 -0.1690952   0.05193079
  0.02030616  0.29302129  0.16598053  0.07216407  0.00158941 -0.12433217
  0.11929519 -0.13866094  0.03658966  0.16610043  0.0921991   0.01568767
  0.02104253 -0.14075212  0.00800493  0.07094245 -0.12136035 -0.00438068
  0.02724292  0.00204798  0.02274202 -0.06373849  0.19386293  0.02149543
 -0.07830303 -0.16691484  0.13460751 -0.10117151 -0.077213    0.05084912
 -0.18314803 -0.12881093 -0.28023681 -0.01028982  0.3792496   0.06723239
 -0.16819027  0.06684332 -0.07464528 -0.04927585  0.09913751  0.11042222
 -0.05378566  0.01982949 -0.09380087 -0.04485357  0.19324152 -0.0564051
 -0.04593224  0.14974952 -0.00954394  0.0664479   0.02716473 -0.06620093
 -0.01916472  0.06338715 -0.19654773 -0.04849856 -0.04390202 -0.05127466
 -0.04496172  0.11352365 -0.18491971  0.04156226  0.05482438  0.02640827
 -0.00569187  0.04854098 -0.12697485 -0.05045778  0.13410863 -0.20880859
  0.20276116  0.17902443  0.12294433  0.08158325  0.12110334  0.04410534
 -0.02372409 -0.03174662 -0.17632072 -0.03689932  0.12158334 -0.01764886
  0.07046898  0.00360372]