[-0.07050843  0.10427382  0.06483462 -0.04163831 -0.03139234  0.00316539
 -0.02716739 -0.06810946  0.14189354 -0.06141701  0.22358795 -0.04504194
 -0.2033689  -0.1068413  -0.06582637  0.16751531 -0.20324074 -0.11603842
 -0.01633744  0.0243241   0.07452544  0.02212143  0.03207321  0.03744863
 -0.08498468 -0.33180341 -0.08469596 -0.15670954  0.0173368  -0.06363235
 -0.07913759  0.03552078 -0.15377373 -0.08164275  0.02293587  0.04352707
 -0.00139276 -0.01360404  0.15910059  0.01654758 -0.16612171  0.06622146
  0.0452318   0.29858992  0.19191615  0.09543552  0.01238754 -0.1208901
  0.09203073 -0.18046407  0.06484423  0.10259422  0.09231047  0.02723095
  0.0600547  -0.14902441 -0.00365391  0.07231241 -0.13644457  0.03325605
  0.04689048  0.04706045  0.02885507 -0.04841278  0.21913861  0.05947282
 -0.08725759 -0.12664394  0.13519056 -0.12422734 -0.06936641  0.02825524
 -0.15636238 -0.12729204 -0.2599484   0.00411258  0.39494121  0.09597132
 -0.17071989  0.03248871 -0.07476219 -0.0265302   0.11373349  0.06190464
 -0.08705043  0.03019916 -0.08509801 -0.00309312  0.20348464 -0.03725066
 -0.02404318  0.16725057 -0.01562994  0.02839058  0.04410102 -0.0433099
 -0.05560646  0.05528959 -0.21398401 -0.05241795 -0.01447266 -0.04583469
 -0.0120407   0.14049721 -0.19474573  0.04421399  0.0242425  -0.02055787
 -0.00208954  0.06199549 -0.15472302 -0.0396636   0.15452503 -0.18239887
  0.1771457   0.17434846  0.09033898  0.06009432  0.12194462  0.041113
 -0.01750789 -0.00275943 -0.19847727 -0.01617896  0.13116005 -0.01033695
  0.09747692  0.00484562]