[-6.84582517e-02  9.90259126e-02  5.49412146e-02 -4.90027107e-02
 -3.32024395e-02  1.89821425e-04 -4.40524593e-02 -7.02488199e-02
  1.49098307e-01 -5.82358949e-02  2.15107679e-01 -3.64807211e-02
 -1.96521416e-01 -9.55339894e-02 -6.10872470e-02  1.76638335e-01
 -2.01248288e-01 -1.39940843e-01 -1.72376111e-02  1.11453217e-02
  6.45486787e-02  1.30687850e-02  3.28642577e-02  3.03345658e-02
 -8.58007595e-02 -3.32528025e-01 -8.63798186e-02 -1.40971527e-01
  3.23356502e-02 -3.64457145e-02 -8.25981274e-02  3.83908972e-02
 -1.60442993e-01 -8.29230770e-02  5.40273599e-02  6.48462772e-02
  7.68313941e-04 -1.47862379e-02  1.65591881e-01  2.25569191e-03
 -1.75952896e-01  8.35786462e-02  6.83186054e-02  2.90776700e-01
  1.74039423e-01  1.08303584e-01  3.00154984e-02 -1.36185274e-01
  9.63977203e-02 -1.66112766e-01  8.47483501e-02  1.20016478e-01
  8.88393670e-02  3.05519532e-02  6.82135224e-02 -1.53395817e-01
  1.35849565e-02  7.61576146e-02 -1.18306063e-01  4.19489481e-02
  6.07152358e-02  4.89886478e-02  2.49138381e-02 -6.35765418e-02
  2.19959170e-01  5.12468629e-02 -8.80981609e-02 -1.57010540e-01
  1.18410707e-01 -1.15993418e-01 -8.93187374e-02  3.41153853e-02
 -1.71908587e-01 -1.18421271e-01 -2.89275050e-01  1.36338023e-03
  4.08794314e-01  8.16881955e-02 -1.57662019e-01  6.72177002e-02
 -4.20907848e-02 -3.23018841e-02  1.14501379e-01  8.90610814e-02
 -8.94108340e-02  2.88342480e-02 -8.28291699e-02 -1.49976276e-03
  2.23964602e-01 -3.72007936e-02 -3.42881642e-02  1.37867317e-01
 -2.08347663e-02  5.06825820e-02  2.35999282e-02 -1.91543102e-02
 -5.59961013e-02  5.34431823e-02 -2.04784378e-01 -5.08337021e-02
 -2.81888619e-03 -2.03376506e-02 -2.02619489e-02  1.44082651e-01
 -1.97018191e-01  3.41760740e-02  1.17168399e-02 -1.11226235e-02
 -4.59939940e-03  7.89677724e-02 -1.40873849e-01 -4.35882919e-02
  1.36984393e-01 -1.93050727e-01  1.92763403e-01  1.92467257e-01
  9.64845195e-02  4.41026501e-02  1.31725162e-01  3.16999964e-02
  2.28644209e-03  1.93836782e-02 -2.11795956e-01 -2.81821080e-02
  1.15208261e-01 -1.30404830e-02  9.49551240e-02  2.21391227e-02]