[-0.08487737  0.12170956  0.06776514 -0.04396876 -0.02734387  0.00276956
 -0.05884544 -0.07499225  0.14978667 -0.07138413  0.2138954  -0.04866618
 -0.22744165 -0.09583576 -0.07162524  0.17031839 -0.20663004 -0.12334444
 -0.01177109  0.01091442  0.08569924  0.02826167  0.02922379  0.02513685
 -0.09793426 -0.34494326 -0.07313235 -0.14173102  0.01603495 -0.04140791
 -0.09896699  0.01493087 -0.15453403 -0.07306974  0.03468161  0.07905907
  0.0185903   0.00260486  0.1463521   0.00247154 -0.18677279  0.08381309
  0.05092731  0.28726321  0.17985059  0.10965645  0.01692834 -0.13707939
  0.10416361 -0.17684421  0.08482268  0.12049592  0.09689303  0.02054429
  0.07210062 -0.15286273 -0.01994926  0.08698618 -0.11720949  0.04171753
  0.08033919  0.04335338  0.01653313 -0.07330851  0.21074259  0.04481979
 -0.11075238 -0.13502108  0.13495567 -0.11596786 -0.07327247  0.03727563
 -0.15360163 -0.13345234 -0.27290472  0.02435239  0.41037852  0.09811232
 -0.16024975  0.04584649 -0.06011586 -0.01776632  0.11385617  0.07846688
 -0.06973818  0.03282267 -0.07772157  0.00788349  0.20875029 -0.03701771
 -0.0178971   0.16390309 -0.01903552  0.06445635  0.01259141 -0.01635156
 -0.06506997  0.05726038 -0.19952397 -0.03198376  0.0011809  -0.03817548
 -0.01227214  0.13156927 -0.18938465  0.04037235  0.01918645 -0.00541677
  0.01664141  0.08220543 -0.13902985 -0.0454364   0.14895837 -0.2097826
  0.19113754  0.19100478  0.09950619  0.05827161  0.12545966  0.03749035
  0.01680882  0.00091361 -0.2213155  -0.04154976  0.11637767 -0.02582129
  0.0861076   0.0197619 ]