[-5.57759516e-02  9.09775347e-02  5.44041693e-02 -3.00527718e-02
 -2.71544214e-02  9.48465802e-03 -3.42283621e-02 -4.01477478e-02
  1.45105124e-01 -7.44538009e-02  2.22393975e-01 -3.93698514e-02
 -2.17653468e-01 -1.22999124e-01 -6.08905666e-02  1.89740226e-01
 -2.05564603e-01 -1.36531666e-01  1.49257826e-02  8.45144596e-03
  6.63665831e-02  3.10299676e-02  2.89597688e-03 -5.94298681e-03
 -8.36978480e-02 -3.20295423e-01 -7.53934830e-02 -1.18581854e-01
  1.36551922e-02 -6.27629980e-02 -8.30824673e-02  5.88057302e-02
 -1.57006130e-01 -8.15293491e-02  7.30161890e-02  3.41046676e-02
 -9.07634944e-03  3.29393684e-03  1.75916955e-01  1.82650276e-02
 -1.70885131e-01  6.25261739e-02  3.86684015e-02  2.99149126e-01
  1.51005372e-01  8.66018832e-02  2.14905255e-02 -1.61659107e-01
  9.15125012e-02 -1.40917033e-01  6.96078613e-02  1.51648879e-01
  8.92314240e-02  3.33461389e-02  2.89132725e-02 -1.41890153e-01
  1.40732154e-04  7.60555491e-02 -1.11726426e-01  3.87723707e-02
  7.00240135e-02  7.46206194e-03  1.76769048e-02 -4.70772572e-02
  2.08071098e-01 -1.08694658e-02 -9.85294580e-02 -1.88964769e-01
  1.28060713e-01 -9.50031430e-02 -7.73460940e-02  5.16490825e-02
 -1.55204728e-01 -1.42388031e-01 -2.67742306e-01  1.67546626e-02
  4.00502592e-01  5.68137243e-02 -1.60995439e-01  9.39991176e-02
 -6.35524392e-02 -5.45959733e-02  1.28202662e-01  1.36679083e-01
 -5.23104556e-02  3.10986768e-02 -5.79435937e-02 -4.31375951e-03
  2.10369334e-01 -5.23672514e-02 -4.63925190e-02  1.29536271e-01
 -2.62975302e-02  5.34688719e-02  3.41000892e-02 -3.44236270e-02
 -3.36541794e-02  7.00434297e-02 -1.58213794e-01 -5.26353084e-02
 -4.85033076e-03 -6.22808598e-02 -2.08602995e-02  1.48733839e-01
 -1.77235708e-01  6.53413385e-02  1.78304818e-02  1.40387481e-02
  1.32188201e-02  6.01299182e-02 -1.19413495e-01 -5.55703454e-02
  1.20668210e-01 -2.35069230e-01  2.00844526e-01  1.74563006e-01
  9.15029496e-02  6.55397996e-02  1.21031903e-01  6.45318255e-02
  9.69655346e-03  3.27152177e-03 -2.17775747e-01 -2.40145475e-02
  1.08300976e-01  6.54029706e-03  1.00450218e-01 -9.76429903e-04]