[-6.90579563e-02  1.02983430e-01  7.03690276e-02 -4.53956537e-02
 -3.30307744e-02  1.64179094e-02 -4.67423461e-02 -5.88476658e-02
  1.49649724e-01 -7.41068125e-02  2.17684790e-01 -3.50288711e-02
 -2.00007245e-01 -9.79683623e-02 -6.61358386e-02  1.68882236e-01
 -1.99583933e-01 -1.39504626e-01 -5.18796174e-03  2.27036458e-02
  7.07789585e-02  1.72778834e-02  2.29445193e-02  2.10931320e-02
 -9.38682482e-02 -3.33088666e-01 -8.43647867e-02 -1.34992987e-01
  1.19570447e-02 -4.74293344e-02 -8.21924955e-02  3.58984061e-02
 -1.57433346e-01 -7.15743229e-02  3.93961854e-02  6.95371702e-02
  2.83989328e-04 -7.81683659e-04  1.50979474e-01  4.40548826e-03
 -1.75290301e-01  8.17748308e-02  5.48795722e-02  2.97619969e-01
  1.76215291e-01  1.03896990e-01  8.28341302e-03 -1.30397141e-01
  9.91375074e-02 -1.89346343e-01  8.04707706e-02  1.24015652e-01
  7.72253573e-02  4.13459800e-02  6.84379265e-02 -1.37080804e-01
  7.47694960e-03  8.25546309e-02 -1.14867546e-01  4.07341719e-02
  5.07144444e-02  4.47699204e-02  3.25663649e-02 -6.87774196e-02
  2.15545058e-01  5.73818795e-02 -9.25213546e-02 -1.51109517e-01
  1.12465672e-01 -1.16751529e-01 -9.30414647e-02  3.80814485e-02
 -1.62592128e-01 -1.21301234e-01 -2.81607121e-01  8.95560905e-03
  4.08101052e-01  9.01472643e-02 -1.58979103e-01  5.44400997e-02
 -4.67182957e-02 -3.35758291e-02  1.13955498e-01  8.12727809e-02
 -8.12828764e-02  3.06085106e-02 -7.84013271e-02  5.15440945e-03
  2.22961381e-01 -3.45749930e-02 -3.03064883e-02  1.47758678e-01
 -2.28555948e-02  5.70447221e-02  2.83529516e-02 -2.07570102e-02
 -4.69311774e-02  5.52933924e-02 -2.15708241e-01 -4.70986553e-02
 -1.00260815e-02 -2.82443743e-02 -2.42898073e-02  1.44334853e-01
 -1.92807063e-01  4.79359739e-02  1.67247821e-02 -9.85264778e-03
  2.58800411e-03  7.56184310e-02 -1.42995238e-01 -3.25491354e-02
  1.42114326e-01 -1.99309975e-01  1.94255218e-01  1.83726713e-01
  9.93856415e-02  4.73540835e-02  1.28891394e-01  2.95834895e-02
 -7.49717234e-03  5.37048047e-03 -2.07425505e-01 -2.82633547e-02
  1.16372250e-01 -1.38704870e-02  8.97972807e-02  1.31887412e-02]