[-0.04007668  0.11870097  0.06788517 -0.03897014 -0.03784376  0.01351332
 -0.06384565 -0.06030345  0.14227723 -0.06051777  0.2001956  -0.04791705
 -0.20718062 -0.13604961 -0.07792222  0.15045485 -0.19482923 -0.12198249
 -0.0037261  -0.00359193  0.09016646  0.06097555 -0.01046615  0.01742098
 -0.09339573 -0.33181521 -0.06596285 -0.12952471  0.01412209 -0.06557624
 -0.087753    0.08878119 -0.15945822 -0.07860996  0.04138746  0.05826527
 -0.01664915  0.02512584  0.11469501  0.01689582 -0.16238144  0.07617349
  0.03747805  0.28985208  0.20511241  0.09101536  0.00076579 -0.14519793
  0.08202727 -0.15735704  0.02825332  0.17752208  0.06906749  0.06311954
  0.02831439 -0.13187416 -0.00685015  0.05336487 -0.12624247  0.03149015
  0.04466112 -0.0247718   0.01807201 -0.03293521  0.19214104  0.00431692
 -0.09475619 -0.15457527  0.1276212  -0.13797329 -0.08947974  0.0481906
 -0.13736202 -0.12449129 -0.25643066  0.01435143  0.43319774  0.07464579
 -0.17722578  0.07473074 -0.09158447 -0.06505062  0.12205338  0.08884092
 -0.06589871  0.011337   -0.06999398  0.01385527  0.2186168  -0.04524767
 -0.01142638  0.16602843 -0.00359384  0.06966817  0.04675819 -0.02542911
 -0.04466166  0.06890552 -0.18340282 -0.05155142 -0.02128051 -0.07747418
 -0.02364457  0.12587051 -0.16512476  0.0989775   0.06150426  0.00306334
  0.01233023  0.04424147 -0.13441832 -0.04757316  0.16370538 -0.21006243
  0.20286004  0.16924046  0.12887155  0.0851809   0.12805398  0.06008551
 -0.00775603 -0.04812262 -0.183988   -0.03116764  0.11387061 -0.01161548
  0.07306213 -0.00604942]