[-0.05996908  0.14580396  0.04349615 -0.04009404 -0.06299478 -0.00732592
 -0.06479302 -0.07360106  0.1380647  -0.05359251  0.20632644 -0.03839508
 -0.20813203 -0.14833955 -0.08436275  0.15483755 -0.21496089 -0.12957899
  0.01120854 -0.01328843  0.08436467  0.04720954  0.01047588  0.0430495
 -0.08436238 -0.32353741 -0.0594433  -0.12374898  0.02866045 -0.06303161
 -0.07983156  0.10429738 -0.15903929 -0.07923315  0.04017683  0.05126402
  0.00295259  0.03234426  0.15110552  0.00167507 -0.16604081  0.07055113
  0.05843435  0.30244285  0.20382026  0.08475135 -0.00234276 -0.13549869
  0.11334425 -0.14253584  0.03773546  0.18000887  0.08907106  0.03447285
  0.01765506 -0.14922138 -0.00168139  0.05417394 -0.13442627  0.02895789
  0.03318154 -0.04780981  0.02085997 -0.03745197  0.19178154  0.00127473
 -0.07346254 -0.15676017  0.14107676 -0.14583853 -0.08602624  0.06875715
 -0.14067304 -0.12003537 -0.27707872 -0.00446369  0.4121823   0.09260732
 -0.1633848   0.08219675 -0.067703   -0.07876524  0.10810752  0.10558603
 -0.09121049  0.01531459 -0.09904384  0.01459476  0.22134493 -0.03477192
 -0.02896908  0.18209235  0.02200451  0.08361157  0.04931482 -0.03248033
 -0.05140338  0.0446445  -0.19165586 -0.05481122 -0.03009653 -0.07903721
 -0.03209384  0.12648578 -0.17315435  0.07533885  0.0513362   0.01061018
 -0.02980953  0.04087942 -0.11512484 -0.04866583  0.15282165 -0.18977688
  0.19739601  0.16252011  0.13531576  0.09472739  0.12706085  0.04089537
 -0.0105748  -0.06857807 -0.16306923 -0.03170008  0.12438281 -0.03844825
  0.10908623  0.01100309]