[-0.0873934   0.08107167  0.0608126  -0.02135802 -0.0474253  -0.00227343
 -0.03474131 -0.02095629  0.10891604 -0.03883161  0.194374   -0.04340155
 -0.21353339 -0.07126242 -0.02814981  0.12869865 -0.14177318 -0.11721098
 -0.05232151 -0.04105864  0.04029614  0.06057342 -0.00284343 -0.00674866
 -0.09714626 -0.29787007 -0.05996482 -0.1338603  -0.01845815 -0.08551757
 -0.05760826  0.05518359 -0.16732736 -0.07082967  0.03462007  0.05030493
 -0.02022028 -0.01583227  0.15931015  0.0272651  -0.13780983 -0.00111178
  0.04204985  0.30129781  0.14936201  0.04957816  0.00174629 -0.07856063
  0.05635506 -0.20532694  0.07401097  0.14596328  0.09592287  0.07491212
  0.05758074 -0.1289359   0.00801377  0.04999956 -0.11123604  0.03596843
  0.05933117  0.00363413 -0.02660376 -0.10080832  0.23445594  0.07476263
 -0.07393645 -0.14470103  0.12741199 -0.09482878 -0.10011905  0.04181659
 -0.1499493  -0.13100517 -0.24952249  0.04619546  0.35925138  0.08949498
 -0.1767069   0.04152292 -0.08684732 -0.03530768  0.07863273  0.0432554
 -0.07124069  0.04940655 -0.0416556   0.03787242  0.21013907 -0.05590488
 -0.0475922   0.11382377 -0.01990454  0.00940833  0.05633463 -0.03684061
 -0.00567738  0.03415832 -0.16125613 -0.00973867  0.03807856 -0.11153307
 -0.01513035  0.13203695 -0.18209688  0.07604486  0.03123314 -0.03147934
  0.00736738  0.05363907 -0.13683264 -0.03843296  0.16416453 -0.21339634
  0.21683438  0.16063015  0.05088751  0.08514852  0.06911793  0.09181196
 -0.03087492  0.0169096  -0.17865472 -0.0573152   0.09935321  0.04057157
  0.03852239  0.0349621 ]