[-0.03489139  0.13843003  0.06105785 -0.04407115 -0.06862651  0.0132947
 -0.07608879 -0.07144027  0.13921188 -0.06648425  0.19747166 -0.04910703
 -0.20190282 -0.11751466 -0.08705901  0.15032914 -0.20505176 -0.13077925
  0.00562307 -0.00679223  0.06816363  0.0542337  -0.01050419  0.03203867
 -0.08565035 -0.32962164 -0.05752054 -0.11681576  0.02032514 -0.06291313
 -0.10092693  0.09207258 -0.15975219 -0.06961118  0.04254706  0.06139379
  0.00153206  0.02794054  0.12888072  0.00531036 -0.16807622  0.09327222
  0.04710197  0.30050293  0.20725957  0.08932071 -0.00390618 -0.14512169
  0.11430227 -0.15441553  0.03672739  0.18349612  0.06686322  0.03751999
  0.01931101 -0.14368944 -0.00525796  0.05814127 -0.12374903  0.0419349
  0.04735095 -0.03492432  0.01885501 -0.04583514  0.18974434  0.0045524
 -0.08146091 -0.16581386  0.12386214 -0.14779346 -0.09657931  0.05093824
 -0.14493641 -0.12147474 -0.28402549  0.0036012   0.42586777  0.09180557
 -0.17866114  0.08125263 -0.0652044  -0.06321075  0.12843879  0.10005856
 -0.07499003  0.00807834 -0.09656394  0.02036702  0.23767924 -0.03894207
 -0.02548131  0.16815452  0.00413778  0.07918692  0.03860586 -0.0124083
 -0.0560618   0.05028692 -0.20055829 -0.04986418 -0.01677504 -0.0677344
 -0.03980326  0.14098869 -0.18610132  0.09156689  0.04391154  0.00356669
 -0.01042879  0.03739329 -0.12046621 -0.03591227  0.17083897 -0.20016681
  0.20061028  0.17163642  0.13957982  0.08543506  0.12718323  0.03136243
 -0.00794868 -0.05546204 -0.18293343 -0.0463903   0.1076982  -0.03135595
  0.09460317  0.01049757]