[-5.85766993e-02  1.02931380e-01  4.74663675e-02 -4.99641076e-02
 -3.22927833e-02  1.91990118e-02 -4.98097502e-02 -7.51952901e-02
  1.42019376e-01 -8.01910758e-02  2.13893563e-01 -5.73639870e-02
 -2.17334270e-01 -8.59953240e-02 -7.30052143e-02  1.75980672e-01
 -2.07757905e-01 -1.27039179e-01 -1.75654422e-02  2.10136604e-02
  8.26101527e-02  3.32070552e-02  6.22966513e-03  2.26164758e-02
 -9.15843248e-02 -3.28929782e-01 -8.44986588e-02 -1.37219712e-01
  3.09842639e-03 -3.98559086e-02 -8.97007138e-02  4.40142862e-02
 -1.52555630e-01 -7.24063516e-02  4.74874265e-02  5.88911436e-02
 -7.66709587e-03 -7.91696366e-03  1.59137055e-01  6.98680012e-03
 -1.75751477e-01  7.95534179e-02  7.33269528e-02  2.73558766e-01
  1.80830017e-01  9.86770615e-02  1.08758518e-02 -1.46170422e-01
  1.01767875e-01 -1.73551306e-01  5.89124635e-02  1.28731743e-01
  8.77545476e-02  5.89576662e-02  5.46835959e-02 -1.54607043e-01
  7.01544434e-03  8.06897804e-02 -1.15236841e-01  3.00048534e-02
  5.57181500e-02  2.83314344e-02  3.03297471e-02 -4.93180752e-02
  2.16185078e-01  4.55969162e-02 -9.40357819e-02 -1.57723397e-01
  1.20255403e-01 -1.18200995e-01 -9.55239534e-02  3.55733074e-02
 -1.63285553e-01 -1.29866749e-01 -2.72799522e-01  6.90875575e-03
  4.09961790e-01  8.19567516e-02 -1.60550505e-01  6.35858774e-02
 -4.60466631e-02 -4.60028350e-02  1.29389063e-01  8.56141225e-02
 -7.23762512e-02  1.75199676e-02 -7.13063776e-02  4.37040208e-03
  2.30940461e-01 -4.66709919e-02 -2.43273620e-02  1.49871156e-01
 -2.41160728e-02  6.20902739e-02  3.64562497e-02 -1.63631346e-02
 -5.65651134e-02  5.89769073e-02 -1.98561445e-01 -4.33710366e-02
 -4.70096711e-03 -3.62287536e-02 -1.96282305e-02  1.44335359e-01
 -1.79191753e-01  5.40914424e-02  1.34137664e-02 -8.37897416e-03
  1.74350484e-04  6.14912473e-02 -1.38667494e-01 -2.97408830e-02
  1.48004368e-01 -1.93592906e-01  1.93459183e-01  1.67483568e-01
  8.89245048e-02  5.48946038e-02  1.34306774e-01  4.45111394e-02
 -5.19752642e-03  7.31640449e-03 -2.29578137e-01 -3.24679725e-02
  1.30906776e-01 -1.93840719e-03  9.51905772e-02  2.73714145e-03]