[-5.59892952e-02  1.32899031e-01  4.83275987e-02 -4.28742766e-02
 -5.65826595e-02 -6.66912226e-03 -6.87668249e-02 -8.03218260e-02
  1.43763945e-01 -6.48458526e-02  1.97041959e-01 -4.03571874e-02
 -2.06559822e-01 -1.44088939e-01 -8.52883086e-02  1.53057024e-01
 -2.00740010e-01 -1.29316911e-01  1.12479748e-02 -1.30171897e-02
  9.02684107e-02  5.16266897e-02  3.07178427e-03  3.69992554e-02
 -7.77493268e-02 -3.21474940e-01 -6.19778708e-02 -1.22013949e-01
  2.22730860e-02 -5.22760041e-02 -8.22251290e-02  9.33556557e-02
 -1.54417142e-01 -7.23716617e-02  4.22336571e-02  5.28795384e-02
 -2.36924109e-03  2.32832488e-02  1.38655692e-01 -1.08206840e-02
 -1.71177655e-01  6.78833500e-02  5.79656027e-02  2.83973455e-01
  2.05313921e-01  8.35526660e-02 -8.37498251e-03 -1.48514703e-01
  1.21666469e-01 -1.50276408e-01  4.07144167e-02  1.73430592e-01
  8.39386806e-02  3.63041461e-02  2.27092374e-02 -1.47293344e-01
 -2.43222504e-03  6.52860329e-02 -1.37993082e-01  2.45605223e-02
  3.10572777e-02 -4.41006348e-02  9.65492334e-03 -3.98775563e-02
  1.83223516e-01  1.29462881e-02 -7.64861330e-02 -1.64355040e-01
  1.35469303e-01 -1.50822908e-01 -8.21744725e-02  6.83730021e-02
 -1.39585972e-01 -1.27605230e-01 -2.65734971e-01  2.17641893e-04
  4.14131731e-01  9.25186127e-02 -1.60249472e-01  8.32451731e-02
 -6.75987229e-02 -6.64030984e-02  1.14093758e-01  9.20419320e-02
 -8.52278620e-02  3.73865408e-03 -9.57419872e-02  9.61681176e-03
  2.21735463e-01 -4.46415208e-02 -2.38541886e-02  1.79511979e-01
  1.23167448e-02  8.19303095e-02  3.92170846e-02 -2.74697002e-02
 -5.50729707e-02  5.57083674e-02 -1.92490011e-01 -6.28556088e-02
 -1.47334365e-02 -6.64143115e-02 -2.45710947e-02  1.25110567e-01
 -1.77223191e-01  8.09042603e-02  4.77986746e-02  1.14966622e-02
 -7.55060790e-03  2.83615533e-02 -1.15213409e-01 -4.56317440e-02
  1.53180465e-01 -1.84298888e-01  1.98070526e-01  1.51869535e-01
  1.40920147e-01  1.01636149e-01  1.25917360e-01  4.12442125e-02
 -6.13784278e-03 -7.33887553e-02 -1.74925402e-01 -2.55735461e-02
  1.31175235e-01 -2.86139902e-02  9.90573391e-02  3.92922107e-03]