[-0.03961738  0.13969611  0.0628286  -0.02465545 -0.06948971  0.02139419
 -0.05086854 -0.06544384  0.13378842 -0.05673673  0.20728539 -0.04642756
 -0.22105554 -0.13046746 -0.07637598  0.14514959 -0.19759563 -0.11939905
 -0.01643415 -0.01347933  0.08217762  0.05046843 -0.00287053  0.0296036
 -0.07780727 -0.34326825 -0.05018496 -0.13057856  0.0412255  -0.06446844
 -0.0820083   0.07406706 -0.16745779 -0.08629777  0.03268617  0.03443261
 -0.00615728  0.02889769  0.13384505  0.01088203 -0.16032168  0.07639249
  0.03141908  0.29140565  0.18683155  0.09896202  0.00086861 -0.13419485
  0.08695689 -0.15420298  0.02441534  0.18257202  0.09018834  0.03842993
  0.01434095 -0.14570169 -0.01464672  0.04541811 -0.13895778  0.03207105
  0.0352372  -0.02582225  0.00327185 -0.04911761  0.21619062  0.00592249
 -0.08680238 -0.14611629  0.13651924 -0.14665204 -0.08242692  0.03670846
 -0.1344194  -0.11183818 -0.25606251  0.00559634  0.42361236  0.08368092
 -0.2010618   0.06266308 -0.1009948  -0.05363007  0.11291701  0.09403168
 -0.07576642  0.01908911 -0.07158235  0.00286339  0.20370619 -0.04977778
 -0.01784135  0.18296871  0.01749505  0.07054029  0.05479072 -0.05076038
 -0.05533509  0.03680236 -0.18785127 -0.05599339 -0.029425   -0.07477535
 -0.02326072  0.11418014 -0.18091646  0.09645979  0.05367805 -0.00068918
  0.01003431  0.04205026 -0.13001131 -0.06023657  0.17638199 -0.20715284
  0.20820656  0.1740129   0.12146387  0.09433733  0.1262362   0.05177478
 -0.01019966 -0.03965934 -0.17328413 -0.0436023   0.12337478 -0.05322829
  0.07945744 -0.00997259]