[-0.05784675  0.13570508  0.05897063 -0.02087188 -0.04054669 -0.02737374
 -0.03865385 -0.0876981   0.13750941 -0.05797127  0.23040545 -0.07029251
 -0.22093768 -0.14906098 -0.07867844  0.17321037 -0.21821442 -0.11371757
 -0.00909743  0.01728955  0.0592661   0.00451211  0.03421962  0.01919407
 -0.05569791 -0.3138347  -0.05956147 -0.1242825   0.01921474 -0.03342934
 -0.06715959  0.08213804 -0.15118515 -0.07616384  0.03250882  0.03757149
  0.00446616  0.00831719  0.15926938 -0.01597204 -0.16831474  0.04368897
  0.02216667  0.27716839  0.17377441  0.09305435 -0.00248352 -0.13516824
  0.12075398 -0.16530345  0.03090237  0.15577056  0.08783861  0.01654282
  0.03650634 -0.14714606  0.00449284  0.08410716 -0.12071892 -0.01496973
  0.03385636  0.00682421  0.01758533 -0.07191221  0.2084434   0.0298928
 -0.08584439 -0.14010806  0.12915459 -0.11185497 -0.07590686  0.05323153
 -0.14982741 -0.12261824 -0.28509989 -0.01015162  0.3848075   0.07156664
 -0.15489063  0.04161277 -0.07807226 -0.03380821  0.10609343  0.0749798
 -0.08712649  0.00737718 -0.0954055  -0.03989849  0.19837855 -0.0728038
 -0.03991685  0.14783864 -0.01240291  0.0574467   0.00312458 -0.07456654
 -0.02531421  0.0683316  -0.18332158 -0.03288343 -0.01171055 -0.05730534
 -0.04093135  0.11178525 -0.19415887  0.02967274  0.04727294  0.01078664
  0.00087088  0.02957671 -0.13239707 -0.03644586  0.14527929 -0.21494138
  0.21288852  0.17324454  0.10632775  0.07824029  0.1174498   0.03719132
 -0.0183309  -0.03217388 -0.16640453 -0.04783631  0.143591   -0.01483747
  0.075681   -0.00721115]