[-0.05400066  0.11751401  0.06403794 -0.02218071 -0.02694605  0.01916508
 -0.03329727 -0.04968471  0.14430742 -0.06531918  0.21104498 -0.04851925
 -0.22613354 -0.10835512 -0.06148064  0.16859405 -0.19386095 -0.12247484
 -0.00074538 -0.00664208  0.07248369  0.03715353  0.00144237 -0.01242092
 -0.0763239  -0.30100581 -0.05774469 -0.11232648  0.02108066 -0.07210112
 -0.07704151  0.04048153 -0.15752719 -0.08000467  0.05062168  0.02431507
 -0.02001423  0.0017601   0.16204186  0.01601146 -0.15786462  0.04098788
  0.015386    0.28833696  0.15317611  0.07920291  0.00329672 -0.14949414
  0.08781608 -0.16427498  0.05154426  0.15601395  0.09028155  0.0484678
  0.035363   -0.14645511 -0.00687466  0.07982231 -0.10590837  0.03599898
  0.0592798   0.00639577  0.01669148 -0.05841659  0.19883715  0.00763829
 -0.08898596 -0.18104063  0.11380183 -0.09852085 -0.08241344  0.05430856
 -0.13277887 -0.14092214 -0.25697997  0.01889862  0.37735993  0.07172492
 -0.17221157  0.05902203 -0.06747063 -0.03990836  0.12452827  0.10650368
 -0.06610005  0.03560157 -0.05327699 -0.01598022  0.19523536 -0.0613715
 -0.04930044  0.14177546 -0.02821896  0.05342701  0.03014684 -0.04108038
 -0.03247374  0.0754698  -0.15462352 -0.04865123  0.00611584 -0.07313678
 -0.01259763  0.1442228  -0.17927344  0.07437523  0.01785245  0.01597236
  0.01594278  0.04863813 -0.11936088 -0.04341618  0.14293198 -0.23234594
  0.20459552  0.18297498  0.07661892  0.0680468   0.11171357  0.06284126
  0.00636328  0.00831303 -0.1969658  -0.03118457  0.10572743  0.00182412
  0.06617156 -0.00637739]