[-0.04743171  0.1009059   0.07429945 -0.04186631 -0.05328888  0.01353305
 -0.05566776 -0.05689053  0.12606041 -0.08965059  0.19092047 -0.0362711
 -0.20220898 -0.08324011 -0.07783964  0.1600863  -0.19053911 -0.12780468
 -0.01121904 -0.01496816  0.03812649  0.04854863  0.00527591  0.03176161
 -0.09933824 -0.30150768 -0.07280245 -0.1204389   0.00550694 -0.06022235
 -0.05661094  0.08580212 -0.11290231 -0.02592473  0.03857706  0.03576633
 -0.01176323 -0.00702622  0.17904937  0.05042774 -0.17730211  0.06734386
  0.02424616  0.30839491  0.18543664  0.06547456 -0.00207989 -0.12213036
  0.13329352 -0.18287498  0.05433173  0.17926909  0.06552935  0.0375332
  0.05397063 -0.1147759   0.00812247  0.0699498  -0.12066766  0.02115386
  0.03573542 -0.00174534  0.04070435 -0.06839935  0.16593321  0.04595788
 -0.07384849 -0.13499746  0.15718701 -0.12611419 -0.10037831  0.04460033
 -0.15754126 -0.11539316 -0.24627332 -0.00206877  0.40832576  0.10755413
 -0.14150181  0.05139573 -0.06121395 -0.0659873   0.1049539   0.08753001
 -0.09177025 -0.01867802 -0.0423715  -0.00119585  0.22445396 -0.02826623
 -0.04080299  0.1448162   0.0045637   0.04011026  0.04779836 -0.04698998
 -0.04605163  0.04332621 -0.1829714  -0.04141368 -0.04191788 -0.08065245
 -0.01768401  0.13465326 -0.19734167  0.10019417  0.04398721 -0.01842159
  0.00211493  0.09063859 -0.13894497 -0.0253047   0.16247319 -0.18345082
  0.18809113  0.16124198  0.11229183  0.06528386  0.11601694  0.05612255
 -0.03299409 -0.02889923 -0.1614297  -0.06053805  0.10923177 -0.00551323
  0.07494348  0.00838676]