[-0.06709661  0.13896768  0.04523509 -0.0416281  -0.06766808 -0.00470621
 -0.06128434 -0.07912564  0.13070653 -0.04593883  0.20585488 -0.03038124
 -0.21177149 -0.14866309 -0.08729886  0.15530001 -0.21407001 -0.12746358
  0.01302573 -0.0088619   0.08470609  0.04874393  0.01034877  0.03921784
 -0.08499175 -0.31850228 -0.05505179 -0.12394786  0.02365505 -0.04944047
 -0.07026577  0.1070252  -0.1587784  -0.08012369  0.04104931  0.05810457
 -0.0078527   0.03190215  0.15417515  0.00098885 -0.16999237  0.06967776
  0.06455451  0.29741976  0.20084123  0.07797249  0.00116523 -0.13976945
  0.10443138 -0.15107952  0.03380729  0.18153575  0.08920206  0.03899276
  0.00500326 -0.14595976  0.00299456  0.05513207 -0.13863342  0.02651876
  0.04270961 -0.0515857   0.01580942 -0.03698115  0.1968625   0.01311922
 -0.07804461 -0.16039895  0.13960849 -0.14823978 -0.10099258  0.06294357
 -0.13779417 -0.11544504 -0.27842522 -0.00656473  0.41099676  0.08875515
 -0.16854545  0.0767855  -0.08086973 -0.07152607  0.11144453  0.10331055
 -0.08526214  0.00686593 -0.09730776 -0.00057323  0.22259481 -0.0369531
 -0.02692384  0.18173976  0.03633852  0.08333444  0.05523571 -0.02888368
 -0.05011637  0.04472956 -0.19690856 -0.05685622 -0.03679952 -0.07738228
 -0.02098768  0.12859504 -0.17062151  0.08712938  0.05458746  0.0123526
 -0.0126282   0.03860908 -0.11506357 -0.05616678  0.15337598 -0.18301125
  0.20319019  0.15875058  0.13608983  0.09447085  0.14097412  0.05101221
 -0.01892538 -0.06109519 -0.16649884 -0.02967769  0.12476002 -0.0404405
  0.10603578  0.01245957]