[-0.06507557  0.11948438  0.05085652 -0.02617653 -0.03895448 -0.01794501
 -0.05067433 -0.0852285   0.14882173 -0.05457619  0.23453024 -0.05691936
 -0.21506281 -0.1667233  -0.07300964  0.18788736 -0.23160456 -0.13494323
  0.02450972  0.00614357  0.04740071 -0.00054156  0.02482555  0.02966726
 -0.0711927  -0.3203657  -0.05708906 -0.13415083  0.00548357 -0.03268604
 -0.05448188  0.10887833 -0.1641975  -0.05770698  0.04031239  0.02249915
  0.01645502  0.01009708  0.18319444 -0.00829435 -0.16723609  0.0351036
  0.01678619  0.27153856  0.16017209  0.06892338  0.00175191 -0.13046084
  0.12527055 -0.13699888  0.02796239  0.17226702  0.09470479  0.00636673
 -0.00126107 -0.14979626 -0.00515543  0.07682665 -0.12577246 -0.00363254
  0.01764044 -0.03078086  0.00201537 -0.07335877  0.1996752   0.02341297
 -0.07622375 -0.16592076  0.15355362 -0.09763107 -0.07746047  0.05728896
 -0.16962624 -0.1341626  -0.2953234  -0.01346705  0.36891508  0.05430778
 -0.16319881  0.06047791 -0.07297599 -0.04091405  0.08972899  0.10416152
 -0.07085402 -0.0007407  -0.07579079 -0.04100925  0.21140762 -0.06186383
 -0.05397813  0.14447799 -0.0167529   0.06921371  0.00247583 -0.08539074
  0.00701585  0.06406968 -0.16965099 -0.0247845  -0.04228674 -0.05346168
 -0.04226134  0.11536082 -0.1957797   0.0262224   0.06112454  0.01182574
 -0.01028882  0.05264868 -0.12866242 -0.05748224  0.14305459 -0.21979892
  0.22643371  0.17715323  0.13086338  0.09220415  0.10537497  0.04602167
 -0.02047977 -0.04080654 -0.17288275 -0.03630619  0.14621024 -0.01420008
  0.07606243  0.00378393]