[-0.03347044  0.13062583  0.0597105  -0.04133346 -0.02588269  0.02578562
 -0.05532406 -0.05218542  0.13855274 -0.05319105  0.20393924 -0.02703204
 -0.20835543 -0.11870308 -0.07561094  0.1471604  -0.1816297  -0.10172977
 -0.0274548   0.00304929  0.03686687  0.03754246  0.01305094  0.01992751
 -0.06329397 -0.31474611 -0.06252374 -0.12907229  0.02094224 -0.05812342
 -0.0892036   0.0748222  -0.14506726 -0.07287759  0.03035144  0.04459789
 -0.00919444  0.00548547  0.13309039  0.02554445 -0.13269205  0.06132575
  0.03174119  0.28878602  0.21430866  0.08717566 -0.00144063 -0.11855032
  0.11085951 -0.17966606  0.04414253  0.14830449  0.07934357  0.05324789
  0.0437857  -0.14492866  0.00625874  0.05885121 -0.12197007  0.03016247
  0.0231867   0.01724829  0.00698608 -0.04694867  0.20372298  0.04886128
 -0.08619628 -0.14733461  0.15309742 -0.13016497 -0.06895182  0.03907371
 -0.15251885 -0.11180513 -0.24516009  0.02447295  0.38987714  0.10741533
 -0.16139872  0.04017658 -0.08222467 -0.05313517  0.08992588  0.06010421
 -0.09820072 -0.00891751 -0.06477733 -0.0130222   0.21647997 -0.02373129
 -0.03516164  0.16230182 -0.01299066  0.05175887  0.03951519 -0.04433969
 -0.04074483  0.05209342 -0.20557106 -0.04566438 -0.01681749 -0.09568218
 -0.02581726  0.14299381 -0.18330251  0.07211181  0.03649591  0.00771933
  0.02554128  0.06235052 -0.14542964 -0.03892494  0.17970535 -0.18087393
  0.20716658  0.16456746  0.13167748  0.05438993  0.12528697  0.06206867
 -0.00761004 -0.0242198  -0.1735134  -0.04764394  0.10328754 -0.02623684
  0.05783784  0.00778959]