[-0.05564033  0.1396482   0.05209002 -0.04837888 -0.06093928 -0.00119803
 -0.0659484  -0.07611488  0.13577117 -0.06067076  0.20731716 -0.04469151
 -0.20771419 -0.14097658 -0.08984963  0.1498902  -0.19560032 -0.12992176
  0.01318076 -0.01045189  0.07930916  0.0417051   0.00528801  0.04007958
 -0.07664508 -0.31911296 -0.06103896 -0.12636964  0.02276062 -0.05597127
 -0.08397497  0.09805405 -0.15709077 -0.0755249   0.03556719  0.05206115
 -0.00108905  0.02921933  0.13828538 -0.00294181 -0.16449474  0.06649459
  0.05238428  0.29173005  0.2060716   0.08510776 -0.00577041 -0.13829203
  0.10881408 -0.14813463  0.04253147  0.17336479  0.08659047  0.03592938
  0.01820067 -0.15288872 -0.00266324  0.05927774 -0.12891006  0.02669685
  0.02602986 -0.03159192  0.0115374  -0.04285266  0.19343935  0.01445685
 -0.07906208 -0.15690176  0.14339887 -0.14418133 -0.08459958  0.06351317
 -0.14618926 -0.12131267 -0.26542491  0.00327872  0.40509519  0.09690916
 -0.1658925   0.07919826 -0.0728883  -0.06295889  0.10578283  0.09212812
 -0.08959854  0.01253965 -0.09122442  0.00250801  0.21354847 -0.04007645
 -0.0301542   0.18063611  0.00848214  0.08357022  0.0460619  -0.03118463
 -0.04867065  0.05085373 -0.19953938 -0.06097876 -0.02308851 -0.07536106
 -0.03270212  0.12994264 -0.18213029  0.07612288  0.04839582  0.01605542
 -0.01520351  0.03858406 -0.11584824 -0.04584158  0.15987359 -0.18659416
  0.19749983  0.16157538  0.14045714  0.09351895  0.14022216  0.03568944
 -0.00159957 -0.07049694 -0.17188452 -0.02815785  0.12756214 -0.03738672
  0.09430543  0.01131939]