[-0.05747643  0.10191911  0.05354277 -0.05133943 -0.03393465  0.00454995
 -0.04392202 -0.08254633  0.14325634 -0.07740554  0.22341721 -0.04517357
 -0.1999644  -0.09524115 -0.06686889  0.18280038 -0.21978195 -0.13935314
 -0.01355683  0.02378168  0.06814586  0.01392899  0.02393892  0.028103
 -0.08221103 -0.32997409 -0.09344425 -0.13341732  0.01805132 -0.02931277
 -0.0914246   0.04169748 -0.15509139 -0.0787182   0.05029219  0.05679275
 -0.00125103 -0.00942236  0.17009474  0.0036823  -0.19154578  0.08296707
  0.07276188  0.28360596  0.17224813  0.10343182  0.02333087 -0.14248101
  0.10226621 -0.16542895  0.08013021  0.12949352  0.09622058  0.03928647
  0.04693666 -0.14354761  0.0091385   0.08257737 -0.1110245   0.04049337
  0.07380315  0.02620956  0.03570024 -0.05759323  0.21870725  0.04758524
 -0.09344818 -0.16499682  0.12248019 -0.11630707 -0.1072516   0.03529136
 -0.17013068 -0.12716739 -0.29498258 -0.00301146  0.41908985  0.08128103
 -0.15610866  0.06413458 -0.05372144 -0.04185946  0.12698841  0.10686433
 -0.07232634  0.02893735 -0.08345623 -0.00599345  0.23934822 -0.04654016
 -0.03937699  0.14634413 -0.01863743  0.06416431  0.02510965 -0.01462297
 -0.04353499  0.05827096 -0.20463257 -0.03961706 -0.01569745 -0.02332256
 -0.02972855  0.14509793 -0.18870106  0.04768559  0.01595972 -0.00393723
 -0.00245474  0.07302599 -0.13744271 -0.04657086  0.13805412 -0.19693674
  0.18895566  0.18823603  0.10320027  0.04664242  0.13648321  0.03885135
  0.0015692   0.00108581 -0.22793542 -0.03267294  0.12675093 -0.00912112
  0.10349393  0.02022105]