[-0.07636486  0.09736144  0.04242923 -0.05813815 -0.03164509  0.00878405
 -0.04760396 -0.08419224  0.145852   -0.06557854  0.21776478 -0.04424806
 -0.20082889 -0.10194849 -0.06313097  0.18278983 -0.22763537 -0.1431475
 -0.00380664  0.02468075  0.0747681   0.01928422  0.01498168  0.03492971
 -0.09187956 -0.33799911 -0.08823073 -0.13924621  0.01667582 -0.02716005
 -0.0774602   0.04271616 -0.15964022 -0.07227936  0.05676674  0.06935295
 -0.00215213 -0.00929662  0.16414437  0.00264868 -0.1856889   0.08014648
  0.07259311  0.28594831  0.17345773  0.10191905  0.02116818 -0.13695669
  0.10339405 -0.16837834  0.06353104  0.1314528   0.09059471  0.03982522
  0.04263746 -0.14407091  0.01249781  0.07712444 -0.12160674  0.0345218
  0.06649964  0.02554783  0.03775353 -0.04971897  0.22275494  0.04434695
 -0.09735687 -0.16243203  0.11686917 -0.1149111  -0.10085762  0.03264464
 -0.17019422 -0.1318713  -0.2856088  -0.00144066  0.41957489  0.0761332
 -0.15705603  0.06876641 -0.05501649 -0.03899634  0.12511705  0.09546795
 -0.07207485  0.02480821 -0.08698515 -0.00286917  0.24313989 -0.04339207
 -0.02844027  0.14969577 -0.01767063  0.0650085   0.02733291 -0.01484033
 -0.04674047  0.06022614 -0.19672452 -0.04641903 -0.0123328  -0.01653139
 -0.01345838  0.14627227 -0.18554978  0.05441059  0.02183726 -0.00121829
 -0.00158206  0.07570219 -0.13939254 -0.04862151  0.13595986 -0.19400224
  0.19553952  0.18437104  0.10394752  0.05191616  0.13329099  0.03400018
 -0.00603239  0.00812778 -0.22090173 -0.02779624  0.12560467 -0.0060615
  0.10327106  0.01292239]