[-7.38651603e-02  9.65831429e-02  5.79773374e-02 -4.61933650e-02
 -3.18871886e-02  1.89825017e-02 -4.06266451e-02 -7.14052171e-02
  1.51355699e-01 -7.89857507e-02  2.19821483e-01 -3.48508656e-02
 -1.94088027e-01 -1.02112964e-01 -6.82847723e-02  1.79416999e-01
 -2.16607213e-01 -1.38737798e-01  1.25657022e-03  2.48552319e-02
  7.25531653e-02  1.79447234e-02  2.06386987e-02  2.89326739e-02
 -9.39876884e-02 -3.36807936e-01 -9.05828327e-02 -1.35847971e-01
  1.13328174e-02 -3.51215526e-02 -8.49230215e-02  4.92528863e-02
 -1.59154445e-01 -7.72513002e-02  4.63923030e-02  7.16493875e-02
 -1.00571255e-03 -4.69301362e-03  1.52936578e-01  1.32416813e-02
 -1.71450302e-01  8.01857337e-02  6.39247373e-02  3.00042540e-01
  1.72999308e-01  1.00057773e-01  1.08427182e-02 -1.34259045e-01
  9.77225825e-02 -1.79077849e-01  6.63104281e-02  1.22681692e-01
  8.66624191e-02  4.54946235e-02  5.27982116e-02 -1.35194138e-01
  1.62141379e-02  7.01695383e-02 -1.21329568e-01  4.13326398e-02
  5.66324107e-02  3.38327549e-02  3.82380895e-02 -5.84784932e-02
  2.17815235e-01  5.38506024e-02 -9.11821276e-02 -1.59877941e-01
  1.11703210e-01 -1.14792228e-01 -9.59952027e-02  3.80590558e-02
 -1.64113343e-01 -1.31025270e-01 -2.75407583e-01  4.86408186e-04
  4.17460829e-01  9.56159160e-02 -1.56885996e-01  5.77698424e-02
 -5.75879700e-02 -4.60669324e-02  1.22731082e-01  9.33917314e-02
 -6.82215989e-02  2.96014752e-02 -8.15729126e-02  4.82960418e-03
  2.29004338e-01 -3.58293578e-02 -3.45508046e-02  1.56814396e-01
 -1.98986530e-02  5.98556586e-02  2.87113842e-02 -2.04753261e-02
 -5.01947291e-02  6.83619529e-02 -2.09547639e-01 -5.51376641e-02
 -1.51146250e-02 -2.30700076e-02 -1.48852048e-02  1.41358182e-01
 -1.86772913e-01  5.63101135e-02  1.68892667e-02 -1.80005678e-03
  5.12989750e-03  7.14479312e-02 -1.49368271e-01 -3.40587050e-02
  1.39082283e-01 -1.99344113e-01  1.88881069e-01  1.82124227e-01
  9.94077921e-02  5.16730659e-02  1.33437157e-01  3.49343978e-02
 -8.34637787e-03 -1.68988860e-04 -2.13744208e-01 -2.38930304e-02
  1.20463811e-01 -1.44582586e-02  1.00521006e-01  9.42919403e-03]