[-0.07156209  0.08115896  0.04878991 -0.04302647 -0.02601858  0.00566379
 -0.01961611 -0.06332064  0.15048447 -0.07411245  0.23355746 -0.05896559
 -0.22321105 -0.14104824 -0.05875531  0.20633514 -0.20218085 -0.13553032
  0.00446861 -0.00197549  0.0436356   0.02211048 -0.0170651   0.00333776
 -0.06978317 -0.31262782 -0.07050989 -0.11395257 -0.00388908 -0.05860889
 -0.0665346   0.09025034 -0.16215318 -0.08256958  0.06686395  0.03784235
 -0.00358997  0.00908295  0.17139281  0.00692104 -0.16304104  0.04593877
  0.05495065  0.27479947  0.1590731   0.07374676  0.00718696 -0.15042323
  0.08841223 -0.14554875  0.02506978  0.14110632  0.096019    0.02026748
  0.01716667 -0.14675273 -0.00778641  0.07582788 -0.12114694  0.02236285
  0.06114089 -0.0175872  -0.01103688 -0.04128857  0.2029753   0.0021642
 -0.0929406  -0.1899219   0.14843144 -0.09392062 -0.06873497  0.0599169
 -0.15122025 -0.14583237 -0.26724485  0.0118047   0.39231923  0.05124909
 -0.16620769  0.07662161 -0.06659087 -0.04236666  0.12262231  0.1028553
 -0.05170869  0.00209193 -0.0678344  -0.02051319  0.20699041 -0.04205723
 -0.03611759  0.12591487 -0.02819273  0.04748397  0.01926026 -0.04233181
 -0.02126105  0.06678136 -0.16572919 -0.06138251 -0.00501933 -0.054492
 -0.00967954  0.14915572 -0.17261975  0.06059201  0.01917594  0.01336603
  0.0068677   0.05613415 -0.10775441 -0.04301647  0.12974076 -0.21972473
  0.18800114  0.16765226  0.07553224  0.06302126  0.11698079  0.06819722
 -0.00683354 -0.00720607 -0.21506257 -0.02900907  0.11371596 -0.00285457
  0.10185092 -0.00875476]