[-0.05535736  0.12011006  0.06715678 -0.0121342  -0.01944861  0.00578415
 -0.04820919 -0.0352222   0.14357853 -0.05375664  0.16183758 -0.03100526
 -0.19981711 -0.05969012 -0.06667256  0.14038737 -0.16676344 -0.1215195
 -0.0339607  -0.04550367  0.05701352  0.04981811 -0.00103508  0.00251172
 -0.09587651 -0.2917982  -0.0641327  -0.12334736  0.03210714 -0.09781933
 -0.07515247  0.01020097 -0.12900943 -0.06308729  0.05145166  0.03691823
  0.00933461 -0.0068109   0.1726948   0.02409968 -0.14927673  0.05395794
  0.04386372  0.31181836  0.1532627   0.0654201  -0.01163207 -0.1107097
  0.10826872 -0.16796011  0.07112728  0.14678435  0.1097443   0.07631617
  0.06298659 -0.14341137 -0.00749198  0.0691151  -0.11966654  0.04214224
  0.0563389   0.01896041  0.00154893 -0.07390486  0.18259677  0.04423257
 -0.09645406 -0.15898699  0.09812953 -0.11972477 -0.06453096  0.02324424
 -0.12526689 -0.10830583 -0.24308026  0.03220118  0.37155247  0.09628809
 -0.16780119  0.04227307 -0.06731455 -0.05008805  0.07133495  0.06781011
 -0.10731124  0.04849571 -0.0264514   0.02260943  0.17895618 -0.03015063
 -0.03322459  0.10892584 -0.02663768  0.05087794  0.02051804 -0.01915441
 -0.08046464  0.05460959 -0.15170412 -0.02007677  0.00136067 -0.08421829
  0.01081751  0.13530959 -0.20099311  0.09912007  0.03045517 -0.02070989
  0.00901196  0.10789929 -0.13157481 -0.03732492  0.16176669 -0.2135006
  0.20425752  0.18539445  0.07437607  0.06953857  0.08915773  0.06159595
 -0.00213625  0.03647828 -0.16688362 -0.04762585  0.07373712 -0.0106012
  0.05015687  0.01600134]