[-1.44248948e-01  1.03902832e-01  1.17356651e-01 -8.28943476e-02
 -1.18737295e-01 -5.83861843e-02 -4.60473783e-02 -1.09848276e-01
  1.72761098e-01 -7.34245777e-02  2.49028087e-01 -6.40597418e-02
 -2.45773152e-01 -5.63121811e-02 -5.73708788e-02  2.48958737e-01
 -1.72258973e-01 -1.12876371e-01 -6.14828169e-02 -1.21781231e-04
  7.62247369e-02  7.47349439e-03  7.43118748e-02 -2.14467454e-03
 -8.89876634e-02 -4.04372603e-01 -6.31183237e-02 -3.32728773e-02
 -2.77277473e-02 -8.78740754e-03 -6.18207417e-02  9.48812738e-02
 -1.91871434e-01 -8.00716728e-02  6.34342358e-02  1.28270581e-01
 -4.95575219e-02 -1.30998239e-01  1.96904644e-01 -3.77058536e-02
 -2.80127347e-01 -3.74461301e-02  8.06178376e-02  2.27256939e-01
  1.86052740e-01 -1.61776841e-02  4.71300371e-02 -1.63708612e-01
  1.34543002e-01 -1.71883017e-01  1.81502979e-02  1.20052494e-01
  4.52237837e-02  1.29665015e-02  8.08597282e-02 -1.16979040e-01
  3.88706923e-02  1.52262747e-01 -1.43236890e-01 -9.55335945e-02
  8.95767063e-02 -9.58390087e-02 -2.80007962e-02 -1.75502509e-01
  2.25795895e-01  9.19261426e-02 -1.01675287e-01 -1.46235749e-01
  1.59602270e-01 -3.19452882e-02 -1.53659685e-02  5.90251088e-02
 -1.82377502e-01 -1.83437273e-01 -2.95284241e-01 -3.87448967e-02
  3.71867746e-01  6.32229969e-02 -1.63882852e-01  5.27461171e-02
 -4.06267345e-02 -1.29350750e-02  1.10799074e-01  1.74820244e-01
  1.28504289e-02  7.59966820e-02 -8.44585672e-02  3.14078294e-02
  2.13782534e-01 -1.14519894e-01 -5.38550550e-03  2.08946377e-01
 -7.37613672e-03  3.63862179e-02  4.81943274e-03  5.39534539e-03
 -9.46221575e-02  6.80270717e-02 -1.92617729e-01 -1.95705406e-02
  4.58900221e-02 -9.04915296e-03  4.83387057e-03  9.77093503e-02
 -1.59183726e-01  2.20327508e-02  2.19246447e-02  4.83379811e-02
  2.29630154e-02 -1.05297543e-01 -4.67925593e-02 -8.18872377e-02
  9.65185463e-02 -2.07949832e-01  1.56636804e-01  1.43983126e-01
 -9.46811575e-04  1.27220795e-01  9.98998135e-02  5.91069572e-02
  6.07850030e-03 -4.08609919e-02 -2.04471588e-01  2.77692620e-02
  1.39650613e-01  9.13595874e-03  8.30871612e-02  9.96621232e-03]