[-1.50043920e-01  1.06128953e-01  1.03582554e-01 -8.48027244e-02
 -1.12450019e-01 -8.50596055e-02 -4.77489457e-02 -1.57437161e-01
  1.17849112e-01 -5.62266074e-02  2.56870359e-01 -7.01005384e-02
 -2.33881667e-01 -4.82592247e-02 -9.44279432e-02  2.63794571e-01
 -1.82991847e-01 -1.03676856e-01 -5.24788275e-02  3.28741558e-02
  6.83385581e-02 -3.67869362e-02  8.17225352e-02  4.45555001e-02
 -4.79323864e-02 -3.59594077e-01 -7.44751319e-02 -3.67875509e-02
 -3.39580588e-02 -9.93221533e-03 -5.95590249e-02  8.41315091e-02
 -1.94948182e-01 -8.61307234e-02  5.53867631e-02  1.25710905e-01
 -5.40057309e-02 -1.10007048e-01  1.85261399e-01 -5.85526116e-02
 -2.89259553e-01 -7.81807490e-03  1.15180366e-01  2.27019981e-01
  2.05480576e-01  6.38018129e-03  5.30128889e-02 -1.60298541e-01
  1.04307093e-01 -1.91975445e-01  3.75628099e-02  7.53358528e-02
  7.48522282e-02 -9.08346497e-04  4.17457521e-02 -1.31801397e-01
  3.01769320e-02  1.48053333e-01 -1.24923848e-01 -6.41584322e-02
  1.17526494e-01 -9.08266008e-02 -2.75274217e-02 -1.49073541e-01
  2.29029611e-01  1.14855088e-01 -1.06544413e-01 -1.44394174e-01
  1.60703078e-01 -6.48629591e-02 -2.69841608e-02  6.54572397e-02
 -1.60594746e-01 -1.90185353e-01 -2.89516181e-01 -3.33738141e-02
  3.64793032e-01  8.64012763e-02 -1.60918981e-01  4.43884507e-02
 -4.93159406e-02  2.28745919e-02  1.08364880e-01  1.50508866e-01
  1.41542358e-02  6.88286647e-02 -1.05422758e-01 -5.11636632e-03
  2.17977285e-01 -1.17878318e-01 -8.38938542e-03  2.15467885e-01
 -1.39922282e-04  1.50843607e-02  1.26607213e-02  1.00118285e-02
 -7.48888850e-02  6.34550229e-02 -2.25748777e-01 -4.15622592e-02
  1.81242991e-02  4.80249990e-03  5.26487455e-03  9.02966410e-02
 -1.57399788e-01  1.18970023e-02  3.50703835e-03  4.81602624e-02
  2.77311187e-02 -7.39719272e-02 -6.41026497e-02 -9.81095433e-02
  1.00727677e-01 -1.85835227e-01  1.61177084e-01  1.59019947e-01
  2.08325721e-02  9.40036774e-02  1.34606391e-01  6.79711029e-02
  2.57789381e-02 -4.43733819e-02 -1.86139777e-01  3.08185872e-02
  1.71067700e-01 -1.29319159e-02  1.05885200e-01  7.16040656e-03]