[-0.06212659  0.05937251  0.03289932 -0.01292532 -0.08095181 -0.0887076
  0.02971245 -0.16385069  0.1645654  -0.11042668  0.22747533 -0.07260763
 -0.20902975 -0.13159867 -0.00219828  0.21670583 -0.16415553 -0.1768613
 -0.0676792   0.00479596  0.07117071 -0.0340152   0.02398718  0.03408475
 -0.12304782 -0.36109287 -0.1023581  -0.08410894 -0.02622093 -0.02339569
 -0.06131827  0.09849913 -0.16083689 -0.09562024  0.07754319  0.03906472
 -0.00215111 -0.07780577  0.22466026 -0.0093793  -0.29921162  0.0217632
  0.10304164  0.23535454  0.15236667 -0.0137671   0.04358902 -0.13357562
  0.18493466 -0.12821905 -0.01051647  0.12798586  0.09997268  0.06287143
  0.02028446 -0.10091367  0.0145251   0.11132427 -0.13749047 -0.02222237
  0.10736302 -0.08064931 -0.05872924 -0.0927506   0.16417181  0.04136549
 -0.10745414 -0.17200816  0.10598486 -0.14405426 -0.07399607  0.0479908
 -0.18864582 -0.19064389 -0.29649106 -0.02655313  0.35655063  0.07978473
 -0.18799503  0.03561017 -0.03617926  0.0303659   0.13840832  0.18899058
  0.03688456  0.08938973 -0.07039983 -0.01603341  0.22886705 -0.09378572
 -0.00480816  0.24696694  0.00438608  0.0896085  -0.0023375   0.00202412
 -0.04430091  0.0474346  -0.14292349  0.00889495  0.03619254  0.00983018
  0.02398668  0.08039458 -0.1586384   0.07491436  0.01276072  0.10060395
  0.02202419  0.00546935 -0.05456273 -0.11127465  0.04972949 -0.20028484
  0.14724235  0.18420185  0.00194241  0.0634064   0.07700854  0.04570931
 -0.00178955 -0.02037621 -0.20353441 -0.00046333  0.13296637  0.00773011
  0.03679125 -0.0406627 ]