[-0.14740086  0.1328443   0.05984777 -0.05283483 -0.14886902 -0.00180244
 -0.00525874 -0.07201951  0.16335826 -0.01680626  0.16670841  0.00294401
 -0.24957421 -0.09904549  0.01349217  0.15039003 -0.13032445 -0.11747664
 -0.03971123 -0.11924962  0.06578051  0.10260891  0.00176904  0.06469216
 -0.14602102 -0.29008338 -0.07506996 -0.06504712  0.03088283 -0.08318675
 -0.01422707  0.04566258 -0.08369486 -0.03327119  0.08745791  0.08042178
 -0.09851184 -0.06918894  0.16423683 -0.02228014 -0.16676229  0.00833035
  0.0807524   0.28762257  0.18972395  0.02772682  0.04454112 -0.09333441
  0.17227954 -0.15236387  0.0918598   0.16446114  0.15090016  0.05461347
  0.07173384 -0.15946119 -0.01978948  0.19269547 -0.17058584  0.05180022
  0.08806205 -0.12522915 -0.05091522 -0.08078727  0.15934317  0.07961653
 -0.13388918 -0.1711657   0.11257223 -0.13249224 -0.11291786  0.05477422
 -0.16715443 -0.16734834 -0.25907159  0.06970751  0.39327472  0.137422
 -0.17779428  0.00635714  0.00157785  0.05223609  0.0753934   0.11852743
 -0.13383229 -0.07233246 -0.09606456  0.01328304  0.17197227 -0.03260176
 -0.06083032  0.17793234  0.0699043   0.07641483  0.00130603 -0.01973581
 -0.08564247  0.03490767 -0.07602313 -0.02343565  0.01888388 -0.08472348
  0.04902289  0.08735204 -0.15820418  0.21256708  0.05414847  0.05915171
 -0.04053923  0.00640519 -0.11760832  0.01424825  0.13198981 -0.23607163
  0.22677727  0.14564398  0.07784347  0.17211285  0.09592699  0.06957691
  0.02566997 -0.02948941 -0.10514066 -0.03154412  0.12926941 -0.05505831
  0.12193675  0.04129988]