[-0.07064705  0.07134707  0.02219036 -0.00701665 -0.08789785 -0.0750454
 -0.01971838 -0.17259292  0.17523484 -0.13546941  0.19794025  0.0028742
 -0.1855175  -0.10501105  0.02312289  0.19874115 -0.17810996 -0.1489027
 -0.08191507  0.0139481   0.08658371  0.03529705  0.05062585  0.03800116
 -0.14733787 -0.36060494 -0.10897831 -0.04716133  0.00378931 -0.01175725
 -0.11396044  0.09163275 -0.14133365 -0.10123972  0.05994996  0.06167567
 -0.02853096 -0.05607126  0.19479617  0.02096686 -0.30903912  0.09612014
  0.04545557  0.25474921  0.23862246 -0.02750818  0.05218749 -0.14652005
  0.18051445 -0.20953909 -0.00422087  0.10885378  0.05075177  0.05386322
  0.03242426 -0.12755983 -0.03026388  0.14372453 -0.13489556 -0.01423523
  0.08093123 -0.08404401 -0.02011621 -0.06811202  0.13843375  0.10369495
 -0.09868713 -0.19773768  0.08567932 -0.16897678 -0.08872476  0.06358889
 -0.17818077 -0.19393511 -0.3260715  -0.03730641  0.37369013  0.09615821
 -0.20352791  0.0330875  -0.03506854  0.05286178  0.18941019  0.15710752
  0.0442058   0.03435518 -0.09673277 -0.00685113  0.2452523  -0.06974791
 -0.04173261  0.26661876  0.05522457  0.12390149  0.04850745  0.0632416
 -0.06629025  0.01793858 -0.19492918 -0.00390444  0.01015187  0.03710987
  0.02511479  0.12563398 -0.1139088   0.16101561  0.00563317  0.10708036
  0.02653079 -0.00984065 -0.05219569 -0.07180318  0.05130366 -0.1911739
  0.1517673   0.18852127 -0.00651087  0.09360047  0.06825683  0.01921043
 -0.04104408  0.01326143 -0.22095942  0.01292988  0.12345544 -0.00219899
  0.04866895 -0.02545953]