[-2.29419023e-01  8.15573558e-02  4.54990007e-02 -9.29343328e-02
 -8.38413611e-02 -1.00478671e-01 -3.67171504e-02 -1.57589838e-01
  1.33169919e-01 -9.79424566e-02  2.35982522e-01 -1.08410157e-01
 -2.03388840e-01 -1.07394710e-01 -5.79948723e-02  2.68319875e-01
 -2.36706063e-01 -1.64518937e-01 -3.67623977e-02 -1.17494427e-02
  8.98127854e-02 -1.22603327e-02  3.75058353e-02  5.59267998e-02
 -1.25492856e-01 -3.63253534e-01 -7.65907317e-02 -5.63136414e-02
 -3.71703282e-02 -1.65645611e-02 -9.91842151e-03  9.71139967e-02
 -1.98936507e-01 -6.66191727e-02  6.37521893e-02  1.49846300e-01
 -3.33721600e-02 -1.11351311e-01  1.83048397e-01 -6.11513220e-02
 -2.85701632e-01 -2.80360281e-02  1.43376037e-01  2.42708877e-01
  1.96922719e-01 -1.59745123e-02  2.29349080e-02 -1.76009074e-01
  1.27604574e-01 -1.52103305e-01  1.13384677e-02  9.35210884e-02
  5.51367365e-02  1.66066438e-02  6.02004901e-02 -1.74407050e-01
  4.25926000e-02  1.30533680e-01 -1.22805230e-01 -9.26032811e-02
  6.60588890e-02 -8.10230002e-02 -3.37267034e-02 -1.22526072e-01
  1.80205747e-01  1.08107582e-01 -8.61728713e-02 -1.80525422e-01
  1.90916657e-01 -5.74750565e-02 -3.75014246e-02  8.35719854e-02
 -1.63812697e-01 -1.93909153e-01 -3.14380169e-01 -8.76450539e-02
  3.50122869e-01  3.76064330e-02 -1.54565290e-01  7.27115273e-02
 -6.97305426e-04  1.46744847e-02  1.37802511e-01  1.80547476e-01
 -2.67529930e-03  4.23254855e-02 -1.02798656e-01  2.07081269e-02
  1.96240067e-01 -6.70411736e-02 -3.73202935e-02  1.49320230e-01
  2.33930725e-04  5.64757688e-03  4.75276932e-02  2.32441965e-02
 -9.36354622e-02  8.04667398e-02 -1.88962489e-01 -5.12453616e-02
  4.97622564e-02  9.59898997e-03 -1.61217283e-02  1.15078427e-01
 -1.37258843e-01  6.27470538e-02  5.02098463e-02  5.74614182e-02
 -2.51397584e-02 -5.79838045e-02 -3.00064329e-02 -2.53798962e-02
  6.32631183e-02 -1.88397720e-01  1.71917126e-01  1.55185863e-01
 -1.99153852e-02  1.50964484e-01  1.20186843e-01  6.05324991e-02
 -1.72191057e-02 -2.07171012e-02 -2.30489120e-01  3.14648710e-02
  1.21389166e-01  8.47943686e-03  1.14927553e-01  1.24143856e-02]