[-0.11505353  0.03967306  0.09659755 -0.02684669 -0.10460305 -0.11037065
  0.02037646 -0.15503971  0.11855006 -0.1205188   0.21027258 -0.11067434
 -0.22409144 -0.06964616 -0.02879647  0.23904867 -0.11804261 -0.10780289
 -0.07768553 -0.00328059  0.02856472 -0.0067421   0.03236715  0.05517226
 -0.08300408 -0.3496111  -0.10725557 -0.0772284  -0.07777037  0.00225819
 -0.09420158  0.10671208 -0.12733398 -0.08504547  0.04570547  0.05410693
 -0.01748006 -0.07923424  0.17904346  0.00135693 -0.28334817  0.02318469
  0.09712479  0.23360832  0.20172839  0.00099631  0.0366324  -0.12256159
  0.1475047  -0.14924012 -0.01793059  0.07376068  0.07792767  0.02388263
  0.02283128 -0.111207    0.00703779  0.10586841 -0.11810579 -0.03700064
  0.09222732 -0.08373697 -0.07679307 -0.09880264  0.21332245  0.08833358
 -0.13442977 -0.10264545  0.16742598 -0.12731095 -0.058594    0.02035048
 -0.21322155 -0.16187386 -0.3008711  -0.01761583  0.37346074  0.05152362
 -0.20047513 -0.00271127 -0.05046364  0.07581294  0.13354808  0.18377447
  0.0255146   0.01860184 -0.04631836 -0.04292127  0.21011224 -0.08812877
 -0.02927041  0.20966597  0.01959933  0.04724393  0.0174383   0.00672987
 -0.03272491 -0.00536793 -0.17154355  0.00316375  0.03192292 -0.04350577
 -0.01502447  0.10082551 -0.19549766  0.0898528   0.02795446  0.06444471
  0.04237852  0.00041746 -0.06371007 -0.06340277  0.08831932 -0.17489718
  0.1411628   0.18559384  0.0014447   0.07650246  0.06706567  0.05732538
 -0.0243906   0.00455343 -0.1888106  -0.02573583  0.1545624  -0.01248186
  0.06059132 -0.00820173]