[-0.17097075  0.05508899  0.1017009  -0.12214559 -0.13887836 -0.045024
 -0.01451181 -0.12212278  0.12921226 -0.10401718  0.22771458 -0.13010263
 -0.23540044 -0.04822528 -0.04962439  0.24316978 -0.21119511 -0.17191528
 -0.00272269 -0.04432633  0.07829411 -0.00404081  0.05174641  0.06155597
 -0.05636114 -0.35148558 -0.08836959 -0.04938417  0.0127025  -0.02227322
 -0.02398115  0.09689739 -0.14800301 -0.01264925  0.03691697  0.10410281
 -0.06168615 -0.17964369  0.17203186 -0.04905964 -0.24063008 -0.02911948
  0.0901037   0.22706254  0.20869303  0.01304055  0.00675142 -0.15078679
  0.12295127 -0.21262176  0.02427035  0.12407793  0.06326141 -0.02069278
  0.07827825 -0.14265493  0.03408724  0.13705929 -0.20308788 -0.03376967
  0.05190613 -0.08100566  0.00302831 -0.16952485  0.20594636  0.17093806
 -0.10280035 -0.14796321  0.20541239 -0.06810474 -0.05525687  0.07972532
 -0.1775817  -0.18589872 -0.23648678 -0.05580305  0.33490515  0.07010582
 -0.11605922  0.03111527  0.02165217  0.02515059  0.08961128  0.15840469
 -0.07665621 -0.02051928 -0.12366278  0.01712154  0.16229196 -0.09219065
 -0.05200441  0.20225437 -0.02666201 -0.01203907  0.03622708  0.06528098
 -0.08678196  0.07829788 -0.18784954 -0.06692556  0.06407209 -0.03715543
 -0.00193042  0.11253851 -0.13301802  0.02966703 -0.0333859   0.02139785
 -0.04601559 -0.12689221 -0.04304017  0.02283264  0.09324432 -0.20307134
  0.13950013  0.1407513   0.01044891  0.1414116   0.08642313  0.04744889
 -0.00456201 -0.10820468 -0.18780909  0.01646393  0.12682295  0.02141694
  0.09013295  0.04006995]