[-0.08250172  0.17089716  0.11361376 -0.02257709 -0.06501166 -0.06730979
 -0.00658826 -0.10249151  0.17213711 -0.0985512   0.28127372 -0.0475654
 -0.19316216 -0.11521242  0.00242084  0.15260886 -0.16950701 -0.06837198
 -0.03007694 -0.00897942  0.09446964  0.02009529  0.02542342  0.02975916
 -0.06312069 -0.31411958 -0.12249553 -0.05831381  0.08349197 -0.04014203
 -0.08240762 -0.00201801 -0.13817516 -0.13067509  0.02632424  0.04182505
 -0.0365208  -0.05838117  0.14108513  0.0020114  -0.1945321   0.01034155
 -0.0178354   0.24848925  0.20406608  0.03556006 -0.00422535 -0.12869792
  0.08176144 -0.12960069  0.00682935  0.16627793  0.08192541  0.07715201
 -0.00279463 -0.14276825 -0.00517793  0.10956474 -0.13191234 -0.03793424
  0.07324914 -0.07020967  0.00755568 -0.062317    0.16665161  0.05489672
 -0.10143888 -0.19624908  0.11528217 -0.12531704 -0.06860352  0.04081524
 -0.18697737 -0.14161065 -0.27405497  0.03558297  0.39209101  0.11158223
 -0.16001748  0.00787473 -0.13676167  0.00394747  0.0779      0.11239141
 -0.02057968  0.00493813 -0.07250625 -0.01872431  0.13454001 -0.08959737
 -0.04369385  0.20204993 -0.02507625  0.10704185  0.00870938 -0.04163117
 -0.06761095  0.08342972 -0.12359919 -0.02845809  0.00939406 -0.08285119
  0.01953062  0.13871816 -0.20111649  0.1316314   0.05901871  0.06544268
  0.04325244  0.02843016 -0.11709318 -0.06282412  0.15510099 -0.19753979
  0.23357721  0.22708483  0.0772212   0.11060835  0.13622625  0.07718785
  0.00352896 -0.01732342 -0.14945211  0.00472092  0.06156909 -0.02983794
  0.05498531 -0.00964371]