[-6.90132007e-02  1.02200985e-01  3.01157739e-02 -4.88458239e-02
 -6.35545701e-02 -1.00045882e-01 -3.21285836e-02 -1.53914928e-01
  1.69888124e-01 -1.09816983e-01  1.72181293e-01 -1.81903820e-02
 -1.90104961e-01 -8.74680430e-02 -8.60056933e-03  2.17952371e-01
 -2.20270187e-01 -1.48293510e-01 -6.40372038e-02  2.27939691e-02
  1.06589667e-01  2.76946314e-02  3.80053297e-02  4.12574783e-02
 -1.36388034e-01 -3.38459462e-01 -9.58102047e-02 -5.30253649e-02
 -1.57234166e-02 -1.77520011e-02 -9.49361473e-02  7.41968155e-02
 -1.70174286e-01 -9.82809216e-02  6.04571700e-02  6.93328083e-02
 -5.85189722e-02 -1.05768144e-01  1.73789904e-01  1.32691953e-02
 -2.88051695e-01  7.14889988e-02  6.06954470e-02  2.31214836e-01
  2.22600207e-01 -1.31866215e-02  4.78603840e-02 -1.49527714e-01
  1.78970993e-01 -2.04953775e-01 -1.06953038e-02  9.70227122e-02
  4.56621237e-02  8.08939561e-02  1.95655581e-02 -1.47501752e-01
  4.43152105e-03  1.41019285e-01 -1.32480219e-01 -2.42289007e-02
  7.80176148e-02 -7.90791735e-02 -2.70815641e-02 -8.25133547e-02
  1.67943716e-01  9.90394354e-02 -1.08597159e-01 -1.83110654e-01
  1.23545408e-01 -1.30408287e-01 -9.12494510e-02  6.14758991e-02
 -1.60661608e-01 -1.87109336e-01 -2.78603166e-01 -4.08410616e-02
  3.53579909e-01  7.90328756e-02 -1.81822091e-01  2.42439192e-02
 -3.72830443e-02  4.60627787e-02  1.51812777e-01  1.60866857e-01
  3.08602061e-02  4.44736071e-02 -8.00518095e-02 -4.67229588e-03
  2.67401189e-01 -7.34419674e-02 -5.34923971e-02  2.42514402e-01
  3.64336632e-02  1.18716173e-01  2.63312589e-02  1.59593541e-02
 -5.45962527e-02  5.18301800e-02 -1.91232517e-01 -2.84549606e-04
  2.84989718e-02  1.90290660e-02 -2.76313722e-02  1.40805528e-01
 -1.01932429e-01  1.37419626e-01  3.15114595e-02  9.25398692e-02
  1.59894284e-02 -1.11478930e-02 -7.81503171e-02 -6.47896156e-02
  5.89737073e-02 -1.80186644e-01  1.99944109e-01  1.94817856e-01
  3.28603201e-02  7.79012814e-02  7.21414611e-02  1.57291926e-02
 -6.41666492e-03 -9.20590572e-03 -2.50939816e-01  4.52361861e-03
  1.61558732e-01 -4.56745940e-04  5.49207106e-02 -2.73434557e-02]