[-0.18370692  0.14437139  0.12912844 -0.09572224 -0.12990175 -0.02386999
 -0.04689167 -0.12433086  0.12191156 -0.08319508  0.2326134  -0.08595947
 -0.23351634 -0.093291   -0.00506739  0.2369386  -0.186524   -0.17708872
 -0.01201812 -0.0172146   0.09924489  0.02760871  0.04255089  0.05261962
 -0.16272229 -0.37342635 -0.04918427 -0.04106867 -0.04340921 -0.03019249
 -0.05055801  0.13382925 -0.17990254 -0.02459201  0.03304476  0.13372836
 -0.05460387 -0.13118488  0.15137075 -0.05890654 -0.29562518 -0.05005513
  0.1081875   0.24871841  0.21902354 -0.03690619  0.03739163 -0.10902639
  0.11941345 -0.20162535  0.02375017  0.14599404  0.04863811  0.01178173
  0.08248512 -0.13220893  0.01484755  0.14453697 -0.15630783 -0.06723718
  0.0470595  -0.14956971  0.01609903 -0.18004398  0.18573079  0.11661984
 -0.06790463 -0.1373228   0.1678334  -0.05068209 -0.05987259  0.0924188
 -0.18991959 -0.19381224 -0.30772659 -0.04090686  0.31855616  0.09823444
 -0.14272736  0.07301442  0.01554812  0.01369665  0.08712602  0.17604037
 -0.01698603  0.03680099 -0.10760421  0.05295562  0.2150939  -0.09503274
 -0.00692398  0.21512532 -0.00310861 -0.03375247  0.04144512  0.02541816
 -0.08548372  0.05267208 -0.17052974 -0.04391856  0.02341415 -0.04802865
 -0.00416082  0.12956481 -0.17096458  0.03915211  0.01159276  0.04161435
 -0.02681227 -0.09878509 -0.02086499 -0.05423988  0.07925235 -0.19176583
  0.12076155  0.14313951 -0.02211053  0.15880106  0.07932941  0.08148151
 -0.02740293 -0.07790277 -0.15700167  0.01616364  0.1745259   0.01212473
  0.09113178  0.03024058]