[-0.13191871  0.07820626  0.04370897 -0.09312505 -0.0851485  -0.05507373
 -0.03172612 -0.17267202  0.11180262 -0.1121657   0.21241628 -0.08154055
 -0.23170987 -0.07965457 -0.0582512   0.25603709 -0.22206274 -0.16734259
 -0.0350337  -0.00197158  0.06722124 -0.00209046  0.05375392  0.03635586
 -0.08964355 -0.3587403  -0.08294327 -0.03696463 -0.02767949 -0.00723625
 -0.02391252  0.10738643 -0.20104861 -0.00741011  0.05718132  0.11538203
 -0.04038558 -0.15338896  0.17845301 -0.03274225 -0.2780906  -0.01166096
  0.11081658  0.20595396  0.19557683 -0.02219473  0.00920481 -0.16135989
  0.12633733 -0.16943197  0.04423354  0.09141835  0.02425021  0.01752532
  0.06224272 -0.15798296  0.02983612  0.13008137 -0.11049192 -0.07562093
  0.07096182 -0.08479267 -0.01761226 -0.17396532  0.19411401  0.11362463
 -0.09506879 -0.17736368  0.18364574 -0.08093357 -0.07157785  0.05883956
 -0.16040327 -0.17277016 -0.29680535 -0.04802121  0.29560876  0.09815105
 -0.15259461  0.05641766  0.02719928  0.02279934  0.14348118  0.19116917
  0.01028045  0.03729907 -0.09275184 -0.00986388  0.22855397 -0.05852534
 -0.0732052   0.21205404 -0.05013341  0.02912788  0.02940245 -0.00543833
 -0.07156792  0.05834434 -0.20697932 -0.04428954  0.03713361  0.00714374
 -0.04459865  0.15351926 -0.10833278  0.03864217 -0.0053098   0.06157033
  0.00351561 -0.07426952 -0.07014944 -0.02741259  0.06942363 -0.19150959
  0.19278048  0.13482678  0.03235399  0.10005375  0.13308664  0.05622917
 -0.00396994 -0.05470049 -0.26529121  0.01110757  0.16999553 -0.00678011
  0.09463821  0.011666  ]