[-0.0761473   0.06674965  0.0136693  -0.04665722 -0.06681889 -0.07490808
 -0.00511121 -0.1572291   0.17816907 -0.11413735  0.17107579 -0.02964674
 -0.21182795 -0.07917366  0.00214396  0.22762318 -0.21226437 -0.12722972
 -0.04761355  0.01751127  0.11812025  0.01846092  0.04590196  0.0451669
 -0.12664704 -0.32642335 -0.11522108 -0.06022641  0.00900137 -0.02340556
 -0.0939222   0.07520375 -0.14776586 -0.08782211  0.05237498  0.05069299
 -0.04423434 -0.1134003   0.19561081  0.00738058 -0.2899971   0.06378403
  0.06016557  0.22121254  0.21466051 -0.00686672  0.03891246 -0.16254406
  0.16783352 -0.20518945 -0.01719283  0.09012463  0.04446358  0.05565386
  0.0090475  -0.15280108  0.00280145  0.11663492 -0.16627485 -0.02041302
  0.07744016 -0.07648554 -0.01775971 -0.07536345  0.17165095  0.10348652
 -0.10566359 -0.17532846  0.14534369 -0.15106218 -0.06592711  0.04986669
 -0.16268489 -0.20442085 -0.26817018 -0.05530414  0.35914493  0.10027628
 -0.18724588  0.05094826 -0.04798512  0.04133407  0.17154463  0.18243518
  0.03956069  0.04761459 -0.07638248 -0.01919878  0.24107067 -0.0956575
 -0.03330654  0.27323297  0.05503203  0.11249461  0.04296366  0.02256365
 -0.0622079   0.03146246 -0.18716803 -0.02380823  0.01877936  0.01297692
  0.02028069  0.1440752  -0.11065465  0.14986163  0.02371218  0.08190711
  0.02365555 -0.00863761 -0.05645674 -0.07812724  0.06196379 -0.18516515
  0.15691784  0.18504834  0.00398329  0.0932992   0.06423664  0.06575136
 -0.01416809 -0.00121095 -0.24453631  0.02794539  0.14850114 -0.00068243
  0.05767962 -0.01574836]