[-0.13627997  0.13530333  0.06946652 -0.02935394 -0.13470671 -0.01942714
 -0.03540375 -0.10492305  0.14608239 -0.03051431  0.21266468 -0.04863314
 -0.22572367 -0.06262874 -0.01683207  0.14571141 -0.12980944 -0.11128119
 -0.03324489 -0.072108    0.06715621  0.05182803  0.04561877  0.04964603
 -0.14717473 -0.26402768 -0.10025574 -0.07594407  0.0583927  -0.09450161
 -0.04272354  0.00120537 -0.11793502 -0.09139003  0.07930592  0.06464803
 -0.04653523 -0.07113863  0.21703294 -0.02411466 -0.19721441  0.02606508
  0.08798931  0.30160323  0.18966149  0.01730475  0.01529266 -0.12662607
  0.16045818 -0.10698199  0.10768733  0.14942543  0.14877875  0.06347045
  0.03459593 -0.13410199  0.00781229  0.19129837 -0.13094364  0.04232609
  0.13627471 -0.05647261 -0.01506609 -0.07354143  0.15905188  0.04998663
 -0.11125847 -0.19041047  0.08425589 -0.09356045 -0.11454874  0.06285252
 -0.19420578 -0.14994366 -0.29338676  0.02886716  0.39115101  0.08817713
 -0.2064023   0.01879389 -0.01535335  0.02065795  0.09646848  0.12622236
 -0.07633173 -0.0246703  -0.0756559   0.00125023  0.19807465 -0.05306207
 -0.07118521  0.15583454  0.04986752  0.06305461  0.03535589  0.02003472
 -0.0885606   0.03490817 -0.13679233 -0.02276923  0.00732353 -0.0523373
  0.01888774  0.09798004 -0.20105174  0.1892354   0.07814918  0.04557673
 -0.03525198  0.00734881 -0.11659644  0.00890001  0.15393235 -0.2323817
  0.2226917   0.15897469  0.08834931  0.12202354  0.13069959  0.0498214
  0.03403629  0.0355042  -0.11965995 -0.03608386  0.10533589 -0.04688553
  0.13595209  0.04545302]