[-1.78736031e-01  1.13012873e-01  9.19869319e-02 -1.28967568e-01
 -9.39088091e-02 -4.91220467e-02 -5.10158800e-02 -1.42296597e-01
  1.57076821e-01 -1.26495048e-01  2.59902775e-01 -8.98854882e-02
 -2.29583606e-01 -6.55694604e-02 -5.58366664e-02  2.57944852e-01
 -2.44665146e-01 -1.07146680e-01 -8.99845734e-04  1.18292531e-03
  1.08861677e-01  2.30040755e-02  6.41301200e-02  2.01802552e-02
 -7.06255287e-02 -3.78230184e-01 -7.76908025e-02 -4.34394181e-02
 -1.31800845e-02 -2.72100326e-02 -1.54747218e-02  7.21524283e-02
 -1.76865518e-01 -2.91548818e-02 -2.11356743e-03  8.64268765e-02
 -5.82030006e-02 -1.31106630e-01  1.72950611e-01 -3.55317704e-02
 -2.58305073e-01 -1.14526786e-02  8.61443207e-02  2.11209342e-01
  1.91783413e-01  1.25155244e-02  2.35859137e-02 -2.00176388e-01
  1.21042073e-01 -1.84269771e-01 -4.50172313e-02  9.03736725e-02
 -5.20267943e-03  7.54544837e-03  3.78563292e-02 -1.32941291e-01
  4.00797129e-02  1.35868013e-01 -1.58814549e-01 -6.03511296e-02
  7.52576813e-02 -1.02823891e-01  1.26376571e-02 -1.24852531e-01
  2.44838148e-01  1.16808228e-01 -9.09656808e-02 -1.43250242e-01
  1.67510852e-01 -5.04852235e-02 -5.21284416e-02  8.25053975e-02
 -1.51777849e-01 -1.89498961e-01 -2.52697259e-01 -5.77170923e-02
  3.43293995e-01  5.51117919e-02 -1.13610819e-01  5.03982715e-02
 -2.85406169e-02  3.62405065e-03  1.62718698e-01  1.88750491e-01
  3.74594703e-04 -1.35319559e-02 -9.50985849e-02  7.86039885e-03
  2.17258647e-01 -1.03503004e-01 -7.56272813e-03  2.21744493e-01
  7.62491662e-04  5.33688031e-02  3.97505565e-03  2.18036771e-02
 -1.08006872e-01  9.77700800e-02 -1.70205876e-01 -4.30024341e-02
  2.44135186e-02 -1.86912122e-03  8.94395169e-03  1.25398651e-01
 -1.25073224e-01  5.14607728e-02  1.17696375e-02  3.58431451e-02
  2.23968364e-02 -7.81681910e-02  8.83794564e-04 -4.91648391e-02
  6.27698749e-02 -1.89371362e-01  1.68138757e-01  1.57804877e-01
  7.71679590e-03  1.48809716e-01  9.93257761e-02  9.08718333e-02
 -3.04413419e-02 -4.02982011e-02 -2.22802803e-01  5.38758896e-02
  1.42931923e-01  1.72303077e-02  9.95000899e-02 -9.42265615e-03]