[-0.07127561  0.09806333  0.05466297 -0.02021123 -0.07451867 -0.08180102
  0.03318467 -0.17168191  0.1950217  -0.11585822  0.21107045 -0.06319066
 -0.24089506 -0.11878904  0.01350195  0.23054433 -0.15274575 -0.17741489
 -0.04797791 -0.01396672  0.06135894 -0.0193102   0.03591545  0.05252973
 -0.12682301 -0.35533792 -0.10800588 -0.07395243 -0.01674022 -0.03582561
 -0.07815736  0.09772084 -0.14336161 -0.09409142  0.07250355  0.0509211
 -0.01797589 -0.08614655  0.21411863 -0.01099206 -0.29077938  0.01256915
  0.09803653  0.25005284  0.17580253 -0.03252378  0.02387641 -0.10017004
  0.16907728 -0.14382207 -0.03050526  0.12880237  0.08205732  0.07519114
  0.02183101 -0.09718413  0.00797693  0.11189621 -0.14931643 -0.02963771
  0.10253693 -0.10268443 -0.06024072 -0.06585139  0.16056475  0.05210301
 -0.1192684  -0.15383941  0.09203585 -0.15318464 -0.05993081  0.04777307
 -0.20302092 -0.17676437 -0.27696776 -0.02980158  0.35452935  0.08138915
 -0.17609821  0.03041098 -0.02699471  0.04230264  0.13028026  0.17824724
  0.03982349  0.06059944 -0.06783324 -0.00242161  0.21286283 -0.08755872
 -0.01536153  0.25257775  0.00624119  0.10221215 -0.00677926  0.02160907
 -0.04018046  0.02401173 -0.15102971 -0.00188332  0.02816172  0.00855613
  0.01748953  0.08771833 -0.16506664  0.09375473  0.04421828  0.10714342
  0.02572039  0.02470527 -0.0628966  -0.10080494  0.05789749 -0.19958457
  0.15774842  0.20210706 -0.02178039  0.04960625  0.05272077  0.02496215
  0.00365685 -0.02872222 -0.16520755 -0.01346722  0.13187844 -0.00751761
  0.04474645 -0.04856099]