[-9.21376124e-02  5.48113361e-02  5.67062274e-02 -2.76349373e-02
 -1.09905861e-01 -8.15502107e-02 -2.05656863e-03 -1.49969280e-01
  1.20180383e-01 -1.11287512e-01  2.20919773e-01 -8.70878398e-02
 -2.20126197e-01 -9.61359367e-02 -4.48265299e-02  2.28287771e-01
 -1.15629390e-01 -1.64403126e-01 -6.33686706e-02 -8.03382718e-04
  9.34719369e-02 -3.89020890e-03  1.68790575e-02  4.80703376e-02
 -1.28650486e-01 -3.30618143e-01 -7.65789896e-02 -4.25663255e-02
 -5.15686274e-02 -4.64391969e-02 -8.25187787e-02  6.60876259e-02
 -1.81484237e-01 -7.23046809e-02  8.36816132e-02  7.44677112e-02
 -8.05441011e-03 -8.26218277e-02  2.09342703e-01 -3.70791717e-03
 -2.78788388e-01  3.47667150e-02  8.81211907e-02  2.56018490e-01
  1.76102176e-01  6.65199896e-03  2.81962510e-02 -1.38020918e-01
  1.78807229e-01 -1.91530436e-01 -8.71587452e-03  1.20540671e-01
  8.10884908e-02  4.75454926e-02 -9.96143837e-03 -1.12964250e-01
  2.81613711e-02  1.26498014e-01 -1.11103140e-01 -2.80066561e-02
  9.54898745e-02 -7.86442831e-02 -4.83683087e-02 -1.00387648e-01
  1.92376316e-01  3.11858449e-02 -1.37541667e-01 -1.40055120e-01
  8.70081112e-02 -1.40909284e-01 -6.39330149e-02  2.85972543e-02
 -1.88078031e-01 -1.85916170e-01 -3.14765573e-01 -2.52826810e-02
  3.70073885e-01  8.13705251e-02 -2.18220666e-01  2.93362923e-02
 -3.97821814e-02  8.63301903e-02  1.48957059e-01  1.64573014e-01
  3.95600460e-02  5.88163026e-02 -8.42621550e-02 -1.37120520e-03
  2.56413728e-01 -1.12027362e-01 -4.66598524e-03  2.53602684e-01
  3.02176457e-02  9.91991982e-02 -6.66933833e-03  2.04979964e-02
 -3.86012383e-02  3.16513143e-02 -1.23048507e-01  4.11195420e-02
  2.19400916e-02  1.72969792e-02  2.79020723e-02  1.17185332e-01
 -1.93125173e-01  1.02753244e-01 -3.19311599e-04  9.28533301e-02
  2.58081015e-02 -1.19330660e-02 -6.82915673e-02 -9.94665995e-02
  4.36898395e-02 -2.05497339e-01  1.45973310e-01  2.13054404e-01
  1.39048491e-02  7.05173612e-02  9.08035785e-02  2.69861519e-02
  1.55037288e-02  9.42996051e-03 -2.02066764e-01 -9.03334375e-03
  1.30866244e-01 -1.82483252e-02  4.24816944e-02 -2.38821637e-02]