[-0.19719699  0.09204008  0.09175869 -0.08184199 -0.10278668 -0.04346601
 -0.05130455 -0.19085844  0.14676236 -0.09521461  0.26546198 -0.09052082
 -0.22719054 -0.07132728 -0.02769533  0.2593098  -0.22603682 -0.15936048
 -0.04755188  0.00794898  0.05970109  0.00412219  0.02585911 -0.00141059
 -0.08378141 -0.35973197 -0.0920184  -0.01907165 -0.02082725 -0.02205837
 -0.04983966  0.10620704 -0.18949609 -0.01874934  0.04516369  0.15108322
 -0.0170694  -0.1489405   0.10387289 -0.07776553 -0.28078762  0.00261823
  0.10038543  0.21525586  0.2182989  -0.00706856 -0.02959755 -0.14927697
  0.08757963 -0.16216384 -0.01295822  0.09796868  0.04275216  0.01198993
  0.05268734 -0.19083376  0.02270426  0.07216834 -0.12849225 -0.09177827
  0.06747826 -0.12577361  0.00630788 -0.17532958  0.17158493  0.1033869
 -0.0994968  -0.16618149  0.15095253 -0.0572333  -0.02752757  0.05684749
 -0.20001583 -0.22656398 -0.31142017 -0.05803069  0.33166713  0.07070272
 -0.19511822  0.04731696  0.0246569   0.01206232  0.10712647  0.20201755
  0.06049342  0.02241595 -0.15090163 -0.00047623  0.21690507 -0.12347763
 -0.01333732  0.23496921 -0.03724998 -0.0038379  -0.01181642  0.04610593
 -0.05910259  0.07267366 -0.1806083  -0.04529976  0.01882948  0.00473741
 -0.03751101  0.12918007 -0.10687175  0.04641327  0.04930736  0.07450061
 -0.02087887 -0.10652423 -0.00595087 -0.05533701  0.08842927 -0.21231537
  0.1610609   0.19281074  0.0117181   0.14954145  0.06416182  0.08721609
 -0.01204871 -0.02434199 -0.21117547  0.01178127  0.07817808  0.00696779
  0.03953134  0.05866671]