[-0.11600603  0.08261873  0.01588581 -0.08536573 -0.10239384 -0.08122546
 -0.0215693  -0.13545287  0.12223162 -0.07074405  0.20607178 -0.1273448
 -0.23128036 -0.10750321 -0.04374429  0.2190098  -0.19752081 -0.13502479
 -0.03839633  0.01670856  0.09213328  0.00674755 -0.01082344  0.04077974
 -0.11419827 -0.36744222 -0.07025089 -0.06192875 -0.05151039 -0.0515397
 -0.05047543  0.08660702 -0.18602967 -0.08920208  0.06947849  0.08865433
 -0.02220302 -0.06211092  0.17627816  0.00723446 -0.24750674  0.0039058
  0.09135453  0.24574672  0.17977402  0.00143147  0.02870002 -0.14246476
  0.13084576 -0.16983429 -0.02708626  0.13131225  0.05273448  0.05310557
 -0.00619416 -0.11619645  0.04720646  0.10433082 -0.15063769 -0.0368164
  0.13333693 -0.09327416 -0.04470746 -0.08162587  0.21177195  0.02317148
 -0.11703715 -0.14574361  0.11160529 -0.11486428 -0.05578332  0.01958454
 -0.15704009 -0.17906027 -0.3101531  -0.02886005  0.37112942  0.07665049
 -0.18133496  0.05558021 -0.06516748  0.02987519  0.16116817  0.14049371
  0.02007616  0.06083871 -0.07253442  0.02227385  0.21402851 -0.07450806
  0.0019165   0.21577819  0.01134053  0.09228256  0.03446258 -0.00712885
 -0.04066229  0.03913594 -0.10818117  0.03359774  0.01883196 -0.05238458
  0.02442675  0.12283508 -0.15864003  0.10701432  0.03074699  0.07665184
  0.00722796 -0.01849723 -0.0506145  -0.08414327  0.08126286 -0.21806203
  0.15805016  0.18668018  0.02232981  0.09462561  0.08135684  0.05094829
 -0.02158216 -0.00102626 -0.21257912  0.01618572  0.10761466 -0.00084345
  0.07454628 -0.01233283]