[-1.65252134e-01  1.35086909e-01  9.37903523e-02 -6.93095773e-02
 -1.42219394e-01 -7.64554888e-02 -6.02636412e-02 -1.30003840e-01
  1.45575255e-01 -7.43835941e-02  2.84836948e-01 -7.20602795e-02
 -2.23610505e-01 -8.21730644e-02 -4.93634939e-02  2.53943622e-01
 -1.89775422e-01 -1.21906064e-01 -3.59974466e-02  2.89537013e-04
  9.22662765e-02  1.49959791e-02  7.80356675e-02  2.96655502e-02
 -1.17062092e-01 -3.91403526e-01 -6.37240186e-02 -2.87405010e-02
 -2.17511933e-02 -1.04554323e-02 -4.94750738e-02  1.32042453e-01
 -1.77385777e-01 -8.91594812e-02  7.30526075e-02  1.51419744e-01
 -5.89235500e-02 -9.41697136e-02  1.94195136e-01 -4.66836803e-02
 -2.87863374e-01 -1.28200799e-02  1.01122342e-01  2.69372344e-01
  2.03789115e-01 -9.44740884e-03  5.19012474e-02 -1.53712898e-01
  1.28410533e-01 -1.75258756e-01  2.68656593e-02  1.20552100e-01
  4.83887717e-02  3.96189699e-03  8.27799141e-02 -1.34331331e-01
  2.24326160e-02  1.65377185e-01 -1.47257730e-01 -1.07275389e-01
  8.53623226e-02 -1.04927622e-01 -9.48549423e-04 -1.75531983e-01
  2.07787871e-01  1.00335792e-01 -8.04063007e-02 -1.50844246e-01
  1.63300991e-01 -3.87554541e-02 -4.19517756e-02  8.96098316e-02
 -1.86389178e-01 -1.85354784e-01 -3.22512507e-01 -4.53730822e-02
  3.81887347e-01  6.73622862e-02 -1.36574164e-01  6.39185086e-02
  7.00129149e-03 -1.38963554e-02  1.11117221e-01  1.64333865e-01
  1.08232321e-02  4.47269380e-02 -1.08854689e-01  3.71089466e-02
  1.99206412e-01 -1.09338775e-01 -1.15607809e-02  1.95625186e-01
  9.71033704e-03  2.85194796e-02  3.22865210e-02  1.73399281e-02
 -1.04211904e-01  7.43368864e-02 -2.04124048e-01 -2.85728164e-02
  6.28314028e-03 -1.24061238e-02  3.25225154e-03  1.00579873e-01
 -1.47243172e-01  3.56364958e-02  2.18263455e-02  5.53621240e-02
 -2.09978670e-02 -8.62842649e-02 -3.27073932e-02 -6.31547272e-02
  7.84421936e-02 -2.08697632e-01  1.51934713e-01  1.37588814e-01
 -8.13094713e-03  1.48730785e-01  1.07388735e-01  5.58499098e-02
 -1.07091730e-02 -4.79145460e-02 -1.94402680e-01  2.26201061e-02
  1.39272287e-01 -1.80634856e-03  1.01501845e-01  1.78024769e-02]