[-2.34553814e-01  1.28358543e-01  9.86913592e-02 -1.02164090e-01
 -1.15296058e-01 -5.19697070e-02 -2.41943374e-02 -1.52672112e-01
  1.54711992e-01 -1.18314818e-01  2.68171817e-01 -8.56105909e-02
 -2.52439708e-01 -8.80619138e-02 -7.72092640e-02  2.64401644e-01
 -2.21619248e-01 -1.24174394e-01 -8.40502232e-03  2.74975784e-03
  9.85936746e-02  2.75038270e-04  6.95181340e-02  6.41837418e-02
 -6.68431446e-02 -3.83845568e-01 -7.84412548e-02 -3.86406630e-02
 -3.58042158e-02 -7.01950565e-02 -3.59388180e-02  3.86584662e-02
 -1.92647368e-01 -3.48545425e-02 -4.02997015e-03  1.31043777e-01
 -9.86615866e-02 -9.88380685e-02  1.83248818e-01 -2.92097684e-02
 -2.77104437e-01 -6.09385446e-02  1.06482647e-01  2.41386920e-01
  2.05787972e-01  3.09249349e-02  1.20076863e-02 -1.49071917e-01
  1.15404479e-01 -2.05149755e-01  1.03046531e-02  1.04516320e-01
  3.66118513e-02  6.90384349e-03  5.50656989e-02 -1.64298505e-01
 -9.21634305e-03  1.50693521e-01 -1.40250266e-01 -4.36249040e-02
  5.80637865e-02 -1.30490512e-01  6.82429364e-03 -1.06584810e-01
  2.27238342e-01  1.32588863e-01 -8.63186419e-02 -1.45605013e-01
  1.98639899e-01 -1.02216236e-01 -3.08705308e-02  1.02055527e-01
 -1.38869792e-01 -2.19279438e-01 -2.79360473e-01 -5.36318384e-02
  3.54062021e-01  8.75233561e-02 -8.80236253e-02  1.62996203e-02
 -2.87670083e-02  8.89400428e-04  1.17945097e-01  1.89170361e-01
 -3.00681591e-03  3.86991613e-02 -1.22572437e-01  8.00412800e-03
  1.89550117e-01 -9.48554501e-02 -1.49992993e-02  2.27424845e-01
  5.80188993e-04  2.54258700e-02  1.49723887e-02  3.18815187e-03
 -1.02930382e-01  6.94914684e-02 -1.81892172e-01 -6.81924596e-02
 -1.65682584e-02 -2.38094311e-02  1.16231218e-02  8.96791443e-02
 -1.37885466e-01  3.31198312e-02  1.79189835e-02  3.17334980e-02
 -4.07620035e-02 -7.49385580e-02 -4.42651920e-02 -5.81030734e-02
  7.42691308e-02 -2.06822678e-01  1.75425693e-01  1.77937075e-01
 -3.82196973e-03  1.64977983e-01  1.07930817e-01  7.92539716e-02
  1.47691777e-03 -7.39644691e-02 -1.61819339e-01  4.82454151e-02
  1.27493218e-01  4.37169755e-03  1.23923324e-01  1.34162826e-03]