[-1.71620920e-01  9.52586532e-02  9.41686928e-02 -1.24010280e-01
 -1.26190171e-01 -6.76779076e-02 -1.99709125e-02 -1.26474485e-01
  1.60365030e-01 -1.04481474e-01  2.54213542e-01 -1.19698763e-01
 -2.14473948e-01 -9.77180526e-02 -1.29781235e-02  2.47615337e-01
 -2.19159126e-01 -1.74125060e-01 -1.64752062e-02 -1.11261820e-02
  1.29302084e-01 -1.08594941e-02  5.76362424e-02  6.12926483e-02
 -1.32854730e-01 -3.83962542e-01 -7.95773119e-02 -3.62992361e-02
  1.45696048e-02 -2.53849905e-02 -4.06127982e-02  1.19625978e-01
 -2.03201577e-01 -6.04298003e-02  2.31872275e-02  1.42865226e-01
 -2.87545454e-02 -1.51537165e-01  1.74694091e-01 -6.64080009e-02
 -2.96445549e-01  2.58085871e-04  8.62225294e-02  2.16813728e-01
  1.90970704e-01 -1.45540468e-03  3.58564369e-02 -1.29682824e-01
  1.10344410e-01 -1.53292879e-01  2.57253349e-02  1.22780554e-01
  5.60058542e-02 -1.60039794e-02  5.52686714e-02 -1.45084545e-01
  1.42019605e-02  1.62911057e-01 -1.64839610e-01 -7.68135265e-02
  7.23675415e-02 -1.11401752e-01  8.34289193e-03 -1.69989824e-01
  1.98440269e-01  1.31226674e-01 -8.58596489e-02 -1.43355593e-01
  1.85139701e-01 -3.91723327e-02 -4.35960740e-02  6.60407990e-02
 -1.94183156e-01 -1.61247611e-01 -2.74630725e-01 -4.98714708e-02
  3.37976843e-01  4.02756445e-02 -1.64364353e-01  5.27103432e-02
  2.03164108e-02  3.16219553e-02  1.18218414e-01  1.96251750e-01
 -9.98398103e-03  2.89948080e-02 -1.24673657e-01  3.68138365e-02
  1.79275304e-01 -8.39455798e-02 -1.58946123e-02  2.02313974e-01
  3.19535669e-04  1.33747552e-02  3.09505071e-02  2.22449396e-02
 -9.97254550e-02  8.00024197e-02 -1.68216616e-01 -2.55934130e-02
  4.10899371e-02 -3.67384404e-04 -3.26491073e-02  1.28365606e-01
 -1.15495697e-01  3.80382501e-02  7.42850313e-03  4.85160351e-02
 -3.39608788e-02 -8.20008665e-02 -8.27629119e-04 -5.51826842e-02
  4.80962358e-02 -1.83380932e-01  1.31880969e-01  1.50313914e-01
 -3.24697793e-02  1.51413366e-01  9.07414779e-02  8.51825029e-02
  2.71220738e-03 -4.90656868e-02 -2.24291161e-01  3.13023180e-02
  1.58442646e-01  8.70244985e-04  1.13979749e-01  2.61043105e-02]