[-1.68521389e-01  8.23509991e-02  1.04040138e-01 -8.43761116e-02
 -9.67931896e-02 -2.99439188e-02 -6.97530434e-02 -1.91933110e-01
  1.29380375e-01 -1.22185908e-01  2.49424770e-01 -1.31756827e-01
 -2.27416545e-01 -4.46700752e-02 -1.48138897e-02  2.52084702e-01
 -2.20927939e-01 -1.47670418e-01 -3.53811905e-02  2.27690097e-02
  6.42255470e-02  1.06966570e-02  1.98738910e-02  5.08768670e-03
 -8.23968649e-02 -3.49532813e-01 -1.02289833e-01 -1.70212071e-02
 -2.20848899e-02 -2.71690693e-02 -7.31911287e-02  6.47233054e-02
 -1.90558434e-01 -8.72641336e-03  2.83595454e-02  1.30532190e-01
 -2.15147045e-02 -1.53635442e-01  9.98166949e-02 -7.17013702e-02
 -2.80544490e-01  1.70988832e-02  9.35633779e-02  2.04074070e-01
  2.12114319e-01  2.79256026e-03 -3.15318368e-02 -1.56507492e-01
  8.73907730e-02 -1.71339214e-01 -8.22260976e-03  8.72541666e-02
  1.58265270e-02  1.55524286e-02  5.13575077e-02 -1.90528259e-01
  1.29527180e-02  8.42473134e-02 -1.03552423e-01 -5.40740266e-02
  7.74006173e-02 -9.59398374e-02  1.61748044e-02 -1.68651477e-01
  1.80728406e-01  9.52944383e-02 -9.59229022e-02 -1.85772687e-01
  1.19577959e-01 -6.19569831e-02 -3.68358456e-02  6.93501085e-02
 -1.96154505e-01 -2.18788862e-01 -3.03249359e-01 -6.14075474e-02
  3.36417347e-01  5.30157574e-02 -1.95666224e-01  5.42387664e-02
  2.81156749e-02  7.67016876e-03  1.34876952e-01  2.05709457e-01
  8.48725364e-02  2.82044299e-02 -1.37305006e-01  9.45814885e-03
  2.28583381e-01 -1.38322219e-01 -2.38975146e-04  2.42572814e-01
 -4.94859628e-02  4.26907791e-03 -1.68674551e-02  4.78348508e-02
 -6.23104572e-02  7.91684091e-02 -1.69126287e-01 -4.69650589e-02
  4.00046483e-02  1.23621160e-02 -3.65583859e-02  1.35590315e-01
 -1.27200499e-01  6.56755492e-02  3.96305956e-02  7.15916157e-02
  2.25866144e-03 -9.68845785e-02 -1.33590149e-02 -3.94103192e-02
  1.02537468e-01 -2.27802381e-01  1.42779931e-01  1.91104144e-01
  1.67181734e-02  1.25229314e-01  5.58981299e-02  8.76602083e-02
 -5.33123966e-03  3.04816081e-03 -2.34405980e-01  2.27948073e-02
  7.48567805e-02  1.26994029e-02  3.17273848e-02  5.47265373e-02]