[-0.07543322  0.16630156  0.11153974 -0.01600775 -0.04870532 -0.08255791
  0.00403975 -0.1057418   0.16622528 -0.10788988  0.27047285 -0.06042423
 -0.20379546 -0.13485526  0.00289575  0.16303653 -0.16780764 -0.07558803
 -0.02500793 -0.00437966  0.08580988  0.00122219  0.01265263  0.02319347
 -0.055556   -0.30802521 -0.11856087 -0.06026686  0.07417946 -0.03638999
 -0.08154959  0.00522784 -0.13829534 -0.13657092  0.0132962   0.03958691
 -0.01990855 -0.06144603  0.14138867  0.0148313  -0.18613818  0.00679488
 -0.03002199  0.26242289  0.20154226  0.03123503  0.00632494 -0.11448474
  0.09608593 -0.12050517  0.00235016  0.14075267  0.10161863  0.0664096
 -0.00525522 -0.14039825 -0.0025393   0.09886201 -0.1366266  -0.03410931
  0.06776897 -0.07107369  0.00692599 -0.05223182  0.18109958  0.04059469
 -0.09204533 -0.18318765  0.13608566 -0.12848197 -0.06304564  0.02524877
 -0.17862484 -0.12057352 -0.27562898  0.03161808  0.37493813  0.09854202
 -0.16927581  0.01164801 -0.13707046 -0.00102099  0.08345999  0.12245555
 -0.00570604  0.01532134 -0.07431614 -0.04243189  0.15071695 -0.09332958
 -0.04898122  0.19842555 -0.02397097  0.08353939  0.01160882 -0.07469644
 -0.05990742  0.07846662 -0.11237713 -0.03861228  0.01390193 -0.10104624
  0.00678862  0.13153015 -0.21068613  0.12340833  0.05936825  0.07412143
  0.04755561  0.02903318 -0.11953183 -0.06876055  0.15492491 -0.19201344
  0.22289558  0.22477897  0.07278448  0.10004766  0.1218431   0.07932463
  0.00773901 -0.00796029 -0.14089888 -0.00893909  0.06478622 -0.02289825
  0.06150407 -0.00359132]