[-1.20045260e-01  1.29399821e-01  1.33571967e-01 -1.17851891e-01
 -8.33566412e-02 -5.35475723e-02 -5.77345155e-02 -1.40775353e-01
  1.48134530e-01 -1.09040312e-01  2.83830643e-01 -9.17566419e-02
 -2.15851665e-01 -8.01277906e-02 -8.92890915e-02  2.31791645e-01
 -2.32051924e-01 -1.50131330e-01 -2.46006344e-02  1.22535145e-02
  1.22730039e-01  3.35582905e-02  4.00662236e-02  6.57166529e-04
 -9.64168906e-02 -3.66043568e-01 -7.37438574e-02 -1.31849442e-02
  4.20004986e-02 -4.95165102e-02 -1.45870196e-02  7.25168139e-02
 -1.96555421e-01 -7.99969584e-03  2.03592014e-02  7.92083442e-02
 -3.09366137e-02 -1.50096878e-01  1.69808894e-01 -3.22960429e-02
 -2.93959022e-01  1.90902334e-02  5.36711402e-02  2.08882734e-01
  2.00194225e-01 -6.48432318e-03  1.82202309e-02 -1.98082075e-01
  1.11683883e-01 -1.59897670e-01 -2.11192109e-02  1.47994071e-01
  8.75986461e-03  8.87574814e-03  2.31813192e-02 -1.31411433e-01
  8.66250694e-03  1.64306059e-01 -1.47676811e-01 -6.81363866e-02
  6.59227222e-02 -1.24601558e-01  5.49774570e-03 -1.42885432e-01
  1.86624110e-01  1.02517724e-01 -9.83745158e-02 -1.88626543e-01
  1.62178963e-01 -7.32429847e-02 -6.16445541e-02  7.55969286e-02
 -1.46753430e-01 -1.44092903e-01 -2.57714003e-01 -5.52378781e-02
  3.38921875e-01  2.69797090e-02 -1.59874991e-01  9.28139687e-02
 -1.73040833e-02  2.39921082e-02  1.34118125e-01  1.96944252e-01
 -2.19406020e-02  3.69243771e-02 -9.88374725e-02 -7.83737004e-03
  2.21119240e-01 -9.05149356e-02 -1.06489994e-02  2.18382642e-01
 -3.81317772e-02  4.15164940e-02  3.15203182e-02 -8.07721447e-03
 -9.75514650e-02  8.36332515e-02 -1.43045947e-01 -4.41095717e-02
  2.61076521e-02 -3.83056722e-05 -1.90420430e-02  1.28706083e-01
 -1.18414879e-01  6.37160763e-02  1.09475534e-02  5.66702597e-02
  4.45360355e-02 -8.75268131e-02  1.67138353e-02 -6.55309111e-02
  8.07993487e-02 -2.03653261e-01  1.97186723e-01  1.43565238e-01
  2.87902150e-02  1.31207332e-01  1.37345433e-01  8.80975574e-02
 -1.17961308e-02 -3.02745830e-02 -2.03735098e-01  3.39936577e-02
  1.31932065e-01 -1.86089184e-02  1.02222405e-01 -2.90112831e-02]