[-7.90699646e-02  1.09676123e-01  3.66287045e-02 -2.10270635e-03
 -6.99906126e-02 -1.23515181e-01 -2.59861536e-02 -1.90863311e-01
  1.35299727e-01 -1.10344194e-01  1.84537277e-01 -2.14657541e-02
 -1.99476555e-01 -1.10843234e-01  1.77533161e-02  2.02053577e-01
 -1.77040368e-01 -1.40806392e-01 -5.30900471e-02  1.14465673e-02
  1.20699920e-01  2.79345214e-02  5.70882037e-02  4.12855595e-02
 -1.13672987e-01 -3.54917705e-01 -1.08088627e-01 -4.86021601e-02
  1.11169927e-02  1.10415770e-02 -7.37758353e-02  8.31457973e-02
 -1.39351740e-01 -8.53545964e-02  6.99870735e-02  3.00797820e-02
 -6.15734374e-03 -8.63308534e-02  1.98580861e-01  1.87666193e-02
 -3.06559563e-01  7.76022971e-02  5.20903729e-02  2.48763472e-01
  2.29091629e-01 -2.17475351e-02  6.54539987e-02 -1.42573848e-01
  1.69015288e-01 -1.96764708e-01  4.20392316e-04  1.03998385e-01
  5.12124859e-02  2.29944531e-02  5.37006445e-02 -1.49393722e-01
 -5.08653745e-03  9.61670950e-02 -1.67978689e-01 -3.61124128e-02
  9.38053727e-02 -7.98224583e-02 -2.84049511e-02 -7.17706680e-02
  1.43742308e-01  9.01742280e-02 -9.41815823e-02 -1.73088849e-01
  1.22446910e-01 -1.58331320e-01 -6.46990687e-02  6.00165203e-02
 -1.77239761e-01 -1.87497109e-01 -3.04379463e-01 -2.28852145e-02
  3.73100579e-01  1.13359928e-01 -1.85001045e-01  6.15289882e-02
 -2.51386147e-02  6.25142381e-02  1.82192132e-01  1.69197828e-01
  4.27921526e-02  3.29405442e-02 -8.11536759e-02 -6.86345389e-03
  2.10845232e-01 -7.57964849e-02 -6.20580278e-02  2.69227087e-01
  4.21752855e-02  1.00248329e-01  3.96466367e-02  2.22025644e-02
 -5.64694777e-02  2.04024371e-02 -1.76632389e-01 -3.18493322e-03
  1.64525695e-02  2.97983289e-02  2.21789461e-02  1.30550772e-01
 -1.28259972e-01  1.14900745e-01  6.78265980e-03  8.49491879e-02
  5.26968297e-03 -1.36059048e-02 -5.63639291e-02 -5.89936636e-02
  2.24326309e-02 -1.93017229e-01  1.68775052e-01  1.78314373e-01
 -1.66055223e-03  9.36225206e-02  5.95954657e-02  1.45151531e-02
  3.22280754e-03 -1.53727485e-02 -2.01455861e-01 -7.03157624e-03
  1.36238784e-01  3.47626221e-04  4.70477231e-02 -2.70737950e-02]