[-0.07403951  0.16054827  0.11011075 -0.01109681 -0.05371041 -0.06867044
 -0.00629763 -0.10330828  0.16382161 -0.0998056   0.25534749 -0.07061207
 -0.21577556 -0.1330471   0.0105746   0.17045061 -0.16777782 -0.07220109
 -0.02345195 -0.01686152  0.08204791  0.01358827  0.02005455  0.0291105
 -0.04669144 -0.31940433 -0.09934588 -0.06383462  0.06879876 -0.03915421
 -0.08568528  0.01582533 -0.14290085 -0.13271277  0.02061098  0.04772274
 -0.01300752 -0.06320771  0.13455978  0.01691694 -0.18179767  0.00709861
 -0.02117643  0.25326058  0.2090805   0.03714851  0.00302634 -0.1121882
  0.09946372 -0.11999945 -0.00089925  0.13726807  0.10663133  0.04808274
  0.00598796 -0.14722325 -0.01058941  0.09029853 -0.13499162 -0.02790981
  0.07497936 -0.06467102  0.00144361 -0.05662393  0.18380673  0.03673992
 -0.09528171 -0.17730692  0.12965971 -0.12876229 -0.06403401  0.0248873
 -0.17546777 -0.11902232 -0.27653724  0.02555305  0.36990115  0.08934292
 -0.18194166  0.00733559 -0.11494861  0.00448212  0.08940718  0.13618045
 -0.00569649  0.00820778 -0.06778827 -0.0474075   0.14348455 -0.08172835
 -0.04839506  0.20583935 -0.02600641  0.08193705  0.01029465 -0.0728357
 -0.05765433  0.07244854 -0.11678368 -0.04307773  0.00752544 -0.09987042
  0.00798024  0.12680772 -0.21005829  0.10913148  0.04843751  0.07494426
  0.05127509  0.02828568 -0.12131607 -0.06354323  0.15509237 -0.20026672
  0.2077636   0.2224592   0.06803771  0.09774875  0.11472895  0.08701411
  0.01819863 -0.00195335 -0.14443383 -0.01476727  0.06306025 -0.02978369
  0.0529157  -0.00208954]