[-0.1405481   0.12261323  0.08275696 -0.02546063 -0.13003772 -0.02944856
 -0.04068552 -0.10895675  0.13310325 -0.03322467  0.21195129 -0.02841404
 -0.21823977 -0.07862417 -0.01935638  0.13864112 -0.12458196 -0.12282568
 -0.04673184 -0.05974683  0.05076813  0.05956168  0.04323902  0.04019334
 -0.13357703 -0.2693685  -0.08432986 -0.06878908  0.08608989 -0.09157964
 -0.05859034 -0.00299554 -0.1075196  -0.1030127   0.08385365  0.07139729
 -0.04838862 -0.07991129  0.20356421 -0.03232566 -0.20479052  0.00710311
  0.08372452  0.31043324  0.2018303   0.00969433  0.03347829 -0.12599806
  0.16631921 -0.11367933  0.11827882  0.13632837  0.15071289  0.06349885
  0.05698255 -0.14072804  0.01150089  0.2000407  -0.13289121  0.05054096
  0.13670592 -0.03549823 -0.00450996 -0.06775817  0.16649421  0.04140001
 -0.10946622 -0.20908967  0.08830877 -0.10671307 -0.11160411  0.06913025
 -0.1815726  -0.1355323  -0.28210649  0.01789748  0.3770912   0.09119444
 -0.20772365  0.02902243 -0.01813689  0.00651334  0.10342868  0.12597768
 -0.0665149  -0.01154721 -0.08557041 -0.0266284   0.19817103 -0.03226368
 -0.06824789  0.15388523  0.05512551  0.02964205  0.05637469  0.02329627
 -0.10684258  0.04489344 -0.13143246 -0.03975297  0.01502179 -0.05159975
  0.02829448  0.10089399 -0.18148942  0.20698567  0.05998534  0.08156872
 -0.00781365 -0.01162873 -0.10198987 -0.00767364  0.14644711 -0.22873901
  0.21183427  0.14381383  0.10224301  0.11484291  0.12112124  0.0474444
  0.04032544  0.05123941 -0.11702036 -0.03314354  0.08774388 -0.07178054
  0.13116717  0.05127345]