[-0.09819798  0.12834029  0.06358259  0.01991787 -0.05244997 -0.06870393
 -0.02137209 -0.14638764  0.15618093 -0.10360274  0.19806653 -0.00858057
 -0.22402151 -0.07854503 -0.0306296   0.15510112 -0.17099559 -0.07411438
 -0.07970875 -0.04728085  0.1052868   0.08234251  0.05648473  0.0009796
 -0.11026818 -0.29143944 -0.10963732 -0.03639181  0.03987864 -0.01447957
 -0.05397427  0.04415054 -0.16174603 -0.12923168  0.07584055  0.07435753
 -0.0317479  -0.06227208  0.20093036  0.04811197 -0.17595194  0.03382939
  0.04211309  0.26545629  0.23026092 -0.00055155  0.00047487 -0.13758466
  0.10067369 -0.14226478  0.01177962  0.1709598   0.10564899  0.09517675
  0.04443024 -0.12945147  0.00452427  0.10427611 -0.11214498 -0.0060866
  0.08825056 -0.06788889  0.0126198  -0.04534402  0.12000441  0.02730999
 -0.09576685 -0.17657404  0.12926695 -0.1531541  -0.10689201  0.03088458
 -0.17468454 -0.14057724 -0.32650384 -0.02261731  0.38492617  0.11175932
 -0.17934774  0.00169913 -0.06863745 -0.03590884  0.0807297   0.12987159
 -0.03499475  0.0099022  -0.03602798  0.00731209  0.20452677 -0.01631998
 -0.09965453  0.22722276  0.01699461  0.05114401  0.05992845 -0.01097951
 -0.06794386 -0.00855419 -0.16287786 -0.04759379  0.00306738 -0.11218897
  0.01696525  0.17103285 -0.1851449   0.14512287  0.01621066  0.04154407
  0.01269084  0.02372256 -0.16129594 -0.01010849  0.16081113 -0.16371441
  0.21750288  0.21329892  0.04031207  0.08001434  0.11799911  0.07497911
 -0.0143186   0.04632332 -0.14546907 -0.07937666  0.03654332 -0.0120047
  0.09875455  0.00929086]