[-7.41495192e-02  1.11919217e-01  5.40548749e-02  5.47819436e-02
 -2.76992973e-02 -4.21826988e-02 -1.43863754e-02 -1.08880214e-01
  1.56528503e-01 -9.52478573e-02  2.30136827e-01 -1.69066768e-02
 -2.43450165e-01 -9.09289643e-02 -2.06882451e-02  1.50561020e-01
 -1.79370686e-01 -7.22484440e-02 -9.45578590e-02 -4.54935394e-02
  1.07537344e-01  6.13921471e-02  4.86298054e-02 -2.22431179e-02
 -1.07813932e-01 -3.23022753e-01 -1.00431226e-01 -5.54446839e-02
  6.96576759e-02 -3.79152298e-02 -5.05130477e-02  1.36019308e-02
 -1.70344457e-01 -1.08056784e-01  6.07814305e-02  3.63409519e-02
 -4.30611474e-03 -5.72007671e-02  2.06995562e-01  5.42550199e-02
 -1.81120098e-01  1.35883214e-02  1.97870489e-02  2.57053703e-01
  1.99762747e-01  1.14453649e-02 -2.36897115e-02 -1.34697586e-01
  9.20653716e-02 -1.66218832e-01  3.56789283e-03  1.77112058e-01
  1.10148720e-01  1.01743117e-01  3.54511440e-02 -1.19655967e-01
 -4.20872634e-03  8.74838829e-02 -1.31340653e-01 -2.47534420e-02
  6.88038319e-02 -5.51760271e-02 -1.26554267e-04 -7.00749755e-02
  1.20718636e-01  2.32192408e-02 -8.89621451e-02 -1.77661344e-01
  1.03802383e-01 -1.50512755e-01 -6.86180443e-02  4.07998972e-02
 -1.44557551e-01 -1.53607368e-01 -3.07090163e-01 -6.14742190e-03
  3.98038030e-01  1.16174020e-01 -1.77449927e-01  6.22571213e-03
 -9.50830132e-02 -6.05083369e-02  8.05661529e-02  9.37579200e-02
 -3.22265513e-02  2.92011350e-02 -3.64667475e-02  2.26328857e-02
  1.85650274e-01 -4.83375378e-02 -5.87194450e-02  2.13991523e-01
 -1.73349325e-02  6.70612901e-02  4.46159504e-02 -2.04173792e-02
 -7.62009621e-02  1.66939888e-02 -1.37173533e-01 -4.25221287e-02
  1.15346676e-02 -1.02422468e-01  4.52845655e-02  1.20360270e-01
 -1.83948934e-01  1.30739957e-01  3.06874905e-02  1.69769954e-02
  5.20696007e-02  2.49974560e-02 -1.52816340e-01 -2.64113899e-02
  1.64717600e-01 -1.96611717e-01  2.24433973e-01  2.07077295e-01
  3.77786718e-02  9.31122825e-02  1.02899127e-01  9.15703550e-02
 -4.28802446e-02  3.49489935e-02 -1.57865122e-01 -6.22050837e-02
  3.18153203e-02 -8.56074039e-03  6.70391470e-02 -2.57812776e-02]