[-1.44714370e-01  1.39811754e-01  7.26292357e-02 -1.48970038e-02
 -1.54259339e-01  6.99645746e-03 -5.86364930e-03 -7.92552158e-02
  1.82429776e-01 -1.55466041e-02  1.86641440e-01 -2.42771711e-02
 -2.36039206e-01 -6.41936511e-02 -1.14764972e-02  1.42714694e-01
 -1.26883015e-01 -1.18784405e-01 -2.17615608e-02 -9.93090570e-02
  8.77120346e-02  8.42794478e-02  3.60093229e-02  8.24450105e-02
 -1.62746966e-01 -3.03844064e-01 -9.72601697e-02 -6.77504539e-02
  5.07779196e-02 -1.12325907e-01 -3.16880792e-02  1.58670992e-02
 -1.02404058e-01 -6.05282597e-02  7.75726959e-02  8.20284709e-02
 -7.95566812e-02 -7.95792863e-02  1.82685107e-01 -2.47165561e-02
 -1.72568008e-01  3.79112326e-02  6.12085350e-02  3.16148967e-01
  1.69084474e-01  2.45882720e-02  2.20603347e-02 -1.12712882e-01
  1.49324059e-01 -1.46616459e-01  1.35116920e-01  1.68517694e-01
  1.63734660e-01  6.09949939e-02  5.91153391e-02 -1.28720447e-01
 -2.54626311e-02  2.08813146e-01 -1.63368672e-01  7.72488564e-02
  1.08417474e-01 -7.61950538e-02  1.17486983e-03 -8.22475627e-02
  1.37164339e-01  8.80299583e-02 -1.19151011e-01 -1.62551031e-01
  6.92059174e-02 -1.31152272e-01 -1.01111844e-01  5.02392836e-02
 -1.68999270e-01 -1.88321620e-01 -2.78429359e-01  7.14061782e-02
  3.93449336e-01  1.30076364e-01 -1.98073983e-01 -1.81615949e-02
  1.27989988e-04  5.00504263e-02  7.50041902e-02  1.10728517e-01
 -1.32139131e-01 -5.64472564e-02 -9.89377424e-02  3.87368351e-02
  1.82005033e-01 -3.70528214e-02 -7.34170005e-02  2.03087807e-01
  6.20559230e-02  5.92001937e-02  1.99435782e-02  1.57078747e-02
 -8.42937753e-02  3.93192135e-02 -9.91292819e-02 -7.15981796e-03
  8.44336674e-03 -7.01261386e-02  3.25419940e-02  8.39425400e-02
 -1.92299068e-01  1.89684317e-01  5.74513935e-02  2.92111095e-02
 -3.61645594e-02  1.33193797e-02 -1.58426747e-01  2.63454835e-03
  1.60353139e-01 -2.47586653e-01  2.26108894e-01  1.61223933e-01
  8.63604918e-02  1.65895954e-01  9.42428932e-02  5.61656356e-02
  3.71936262e-02 -2.33026911e-02 -7.91780874e-02 -1.22325914e-02
  1.31146953e-01 -5.23090437e-02  1.13543116e-01  4.42753993e-02]