[-0.06595563  0.09133301  0.01944204 -0.0110822  -0.09789035 -0.05183448
 -0.01659567 -0.16293088  0.12656263 -0.10670715  0.23499505 -0.0779131
 -0.19831829 -0.11196119 -0.02521896  0.21723981 -0.14755565 -0.18007647
 -0.08894756  0.03877294  0.10418985 -0.00477735  0.01845964  0.05106847
 -0.14226131 -0.33984607 -0.10546658 -0.05048506 -0.03535789 -0.04384374
 -0.06619398  0.06805661 -0.16949737 -0.08777311  0.07354405  0.0397859
 -0.02726116 -0.08769866  0.23252113 -0.00324688 -0.28232333  0.09081716
  0.08996517  0.26719376  0.17230536 -0.00690116  0.04701789 -0.15004861
  0.14459218 -0.18361883 -0.00103762  0.15532748  0.09213371  0.08496109
 -0.00127915 -0.08587138  0.00998352  0.13373162 -0.13251565 -0.00765752
  0.11063208 -0.05710999 -0.03231864 -0.11898241  0.16389935  0.06232484
 -0.12778971 -0.16608238  0.08620757 -0.12349065 -0.0891455   0.04765823
 -0.18790679 -0.21318956 -0.30020133 -0.00910407  0.38602933  0.1034614
 -0.21294022  0.02076936 -0.04480289  0.04633503  0.13137513  0.14000669
  0.04492747  0.01857905 -0.06769403  0.03020318  0.25595391 -0.09779405
 -0.00919459  0.25687313  0.04790063  0.06630363  0.00282893  0.04751114
 -0.01962853  0.05382654 -0.13434111  0.0659162   0.00685359  0.0144986
  0.03204703  0.09895532 -0.13787346  0.1175672   0.02323603  0.08225539
  0.02175692  0.01916724 -0.09322572 -0.08892792  0.05910084 -0.22123651
  0.16677774  0.1843605   0.01427964  0.06054303  0.09088441  0.07055458
 -0.00281299 -0.00755521 -0.21008246 -0.02676928  0.13503757  0.02194278
  0.04439066 -0.01505456]