[-0.16637912  0.09465645  0.08724526 -0.13252516 -0.1309246  -0.06386725
 -0.01513141 -0.12344768  0.15420084 -0.0940944   0.25693509 -0.11912703
 -0.23247135 -0.09969926 -0.01763782  0.25147149 -0.22922102 -0.17860425
 -0.01557912 -0.03095188  0.11908462 -0.0096379   0.04589679  0.06241851
 -0.14261709 -0.37762529 -0.07202078 -0.03921933 -0.01133762 -0.03086876
 -0.02866027  0.15125573 -0.19374648 -0.05337564  0.03253921  0.14778845
 -0.03348285 -0.13973913  0.17297339 -0.06767417 -0.27912575 -0.00042128
  0.10380643  0.22348607  0.1819991  -0.01109195  0.04242494 -0.1151736
  0.10918124 -0.15296008  0.00556796  0.13161516  0.05899811 -0.00773806
  0.05766003 -0.1518303   0.00954594  0.16148087 -0.1544054  -0.08136285
  0.06807981 -0.12779239  0.00431599 -0.17367253  0.21154423  0.12748007
 -0.09083069 -0.13766645  0.18589336 -0.02704282 -0.05420786  0.06239056
 -0.20100628 -0.1550497  -0.26099885 -0.04079037  0.33840901  0.03057927
 -0.16300531  0.06065711  0.02318462  0.03212377  0.11189445  0.18693747
 -0.01923582  0.03482101 -0.12445255  0.04138213  0.17995265 -0.08386836
 -0.01597525  0.18657456  0.00065233  0.02073698  0.04431645  0.00728612
 -0.09619381  0.0781508  -0.17287575 -0.01716899  0.02784611 -0.0193938
 -0.03393085  0.11296226 -0.09485023  0.0306829   0.01144565  0.04703022
 -0.05733323 -0.06839271 -0.00288199 -0.05096949  0.05001111 -0.19565283
  0.1399083   0.14313105 -0.03977973  0.15566157  0.08944327  0.09037735
 -0.00834839 -0.04731683 -0.20491444  0.02448274  0.17056057  0.00540265
  0.11953058  0.01728998]