[-6.71423525e-02  7.65025392e-02  2.52900273e-02 -5.96371666e-03
 -8.14934447e-02 -7.10924864e-02 -1.78736653e-02 -1.77183375e-01
  1.68985710e-01 -1.41433716e-01  2.04273611e-01  1.13018211e-02
 -1.92784503e-01 -1.13017045e-01  1.67736150e-02  1.96325466e-01
 -1.73510745e-01 -1.59223273e-01 -6.36212751e-02  1.85572244e-02
  8.45426247e-02  3.87601145e-02  5.37859276e-02  3.66555266e-02
 -1.49437353e-01 -3.53264481e-01 -1.09085158e-01 -4.11708355e-02
  3.58652393e-03 -1.38982758e-02 -1.11467145e-01  1.03686027e-01
 -1.47294164e-01 -8.95546004e-02  6.05878346e-02  6.68462366e-02
 -1.78191885e-02 -5.76823130e-02  1.97126731e-01  2.55394727e-02
 -3.01073104e-01  8.79237205e-02  5.17837070e-02  2.56867290e-01
  2.38519236e-01 -3.48056071e-02  5.30717634e-02 -1.44446239e-01
  1.70527697e-01 -2.11145431e-01 -1.52193010e-04  1.02469504e-01
  6.25395849e-02  4.77312580e-02  2.56112050e-02 -1.39972746e-01
 -4.30985652e-02  1.41906291e-01 -1.23376489e-01 -8.64858367e-03
  7.26468265e-02 -7.79614002e-02 -2.35982351e-02 -7.06408545e-02
  1.36703104e-01  9.99119878e-02 -1.06491886e-01 -1.89018503e-01
  9.49525908e-02 -1.70859039e-01 -9.36226174e-02  6.55931830e-02
 -1.76876679e-01 -1.89485356e-01 -3.21865052e-01 -3.55639271e-02
  3.59413892e-01  9.68690887e-02 -2.02264458e-01  2.94881798e-02
 -2.37689894e-02  5.62522411e-02  1.75846487e-01  1.60893068e-01
  3.82657498e-02  2.97132563e-02 -9.41746011e-02 -4.92593320e-03
  2.52350211e-01 -5.85754029e-02 -4.81076799e-02  2.63413638e-01
  4.57740836e-02  1.28440395e-01  4.39202897e-02  6.18758090e-02
 -5.33371754e-02  1.73214618e-02 -1.99920014e-01  1.73940591e-03
 -2.84807407e-03  2.98119579e-02  1.42532736e-02  1.41040295e-01
 -1.15826488e-01  1.48161009e-01  3.68131767e-03  9.90196168e-02
  2.94049662e-02 -6.91568200e-03 -5.62829785e-02 -6.64481744e-02
  4.77163196e-02 -1.91029474e-01  1.54535413e-01  1.89980969e-01
 -5.96100371e-03  9.15705413e-02  7.56121725e-02  2.16174163e-02
 -2.84387600e-02  2.92164995e-03 -2.22604781e-01  3.87422368e-03
  1.25452325e-01 -1.64246690e-02  4.88160811e-02 -2.96142194e-02]