[-0.07297805  0.07165972  0.01268853 -0.01366532 -0.08305447 -0.07555816
 -0.02301922 -0.17136693  0.17326716 -0.12940054  0.19173484 -0.00837966
 -0.18594645 -0.10542782  0.02050881  0.19596824 -0.18039025 -0.14477865
 -0.08078974  0.01358256  0.09332657  0.02892176  0.04308138  0.04115273
 -0.13136964 -0.36650485 -0.10113551 -0.05204827  0.00411483 -0.0048354
 -0.11411428  0.08881958 -0.14275627 -0.10701995  0.05717921  0.06407545
 -0.03049477 -0.05174124  0.19660036  0.0241106  -0.30543485  0.08381156
  0.04928046  0.25096381  0.23351024 -0.01648602  0.04624504 -0.14445174
  0.18121138 -0.2073953   0.00183539  0.11392403  0.05365213  0.05710998
  0.03739825 -0.12560458 -0.02032975  0.1383643  -0.13816631 -0.01062282
  0.0871575  -0.08255293 -0.02358475 -0.0657902   0.14836338  0.10723907
 -0.0941987  -0.1910954   0.09118489 -0.16027084 -0.09718198  0.05301557
 -0.17189424 -0.1930438  -0.32153463 -0.03466568  0.37367898  0.09852792
 -0.20882268  0.03074923 -0.03483186  0.04398933  0.20979397  0.1541028
  0.04386245  0.03148111 -0.09393808 -0.01531553  0.23962712 -0.06537302
 -0.04386161  0.26347086  0.05194045  0.12619965  0.05015166  0.06217105
 -0.0655069   0.0262035  -0.2031213  -0.01010305  0.02431155  0.03623649
  0.02360528  0.12213396 -0.11457495  0.15168467  0.01234454  0.10862982
  0.03088359 -0.01164586 -0.05946374 -0.07252582  0.05266994 -0.18343867
  0.15833275  0.18388878 -0.00142296  0.09232325  0.07733098  0.01714508
 -0.02887236  0.00271536 -0.22923695  0.01099084  0.12853265  0.00821731
  0.04443521 -0.02135822]