[-0.08429559  0.0679527   0.02527935 -0.08886047 -0.09185209 -0.05977029
 -0.0058296  -0.11742939  0.16552557 -0.09119832  0.20369378 -0.08316576
 -0.24869263 -0.09712999 -0.01060936  0.21293287 -0.19316906 -0.11629666
 -0.05096148  0.06066778  0.10645298  0.01515957 -0.00141144  0.03876924
 -0.10220817 -0.37152439 -0.10414467 -0.03410429 -0.04681931 -0.04926219
 -0.06962786  0.07569442 -0.16246919 -0.09509251  0.0409563   0.05999809
 -0.03832171 -0.08934095  0.16006182  0.01981504 -0.30067092  0.00702531
  0.06686952  0.22994292  0.19541381  0.02631725  0.02478065 -0.13164279
  0.13780789 -0.23139338  0.00109994  0.12529509  0.01440976  0.05412107
 -0.00259416 -0.12379097  0.03451441  0.10800733 -0.16390561 -0.0433854
  0.12983637 -0.08904366 -0.02756403 -0.05810709  0.1591839   0.07384325
 -0.09983032 -0.17450838  0.11268125 -0.14725187 -0.06654789  0.03408523
 -0.16655159 -0.20420818 -0.3055504  -0.0287507   0.3655245   0.09998536
 -0.15177473  0.04184852 -0.05939739  0.04078386  0.1801627   0.14269958
  0.05204425  0.04960472 -0.09676262  0.02465322  0.22558324 -0.09302197
  0.00044038  0.26356471  0.03376051  0.08944511  0.02845631  0.03818343
 -0.02340177  0.06265458 -0.14539473  0.03533515  0.06782862  0.00453852
  0.02541333  0.13521791 -0.14870803  0.14400294  0.03097305  0.079972
  0.03466637 -0.05663412 -0.05557178 -0.0732668   0.07499918 -0.18588801
  0.14825433  0.18351094  0.02328851  0.07903942  0.07069248  0.04292176
 -0.00648259 -0.04571387 -0.24649532  0.0164234   0.11755053  0.01329451
  0.05145001 -0.01496387]