[-7.98452720e-02  1.65064320e-01  7.46328458e-02 -4.95504849e-02
 -8.93832222e-02 -5.09637184e-02 -8.50534625e-03 -9.35889110e-02
  1.63638860e-01 -9.36935171e-02  2.06982136e-01 -5.26178889e-02
 -2.11400077e-01 -1.37286142e-01 -5.56654437e-03  1.78003475e-01
 -1.65633306e-01 -1.07726000e-01 -2.93165985e-02 -2.65409704e-02
  9.68499556e-02  3.50185372e-02  1.22266179e-02  2.56851744e-02
 -5.34578040e-02 -3.19604248e-01 -9.19256136e-02 -1.95728056e-02
  3.73325907e-02 -2.42510960e-02 -6.22335263e-02  3.98158133e-02
 -1.55159861e-01 -1.28206611e-01  5.42960763e-02  9.49696228e-02
 -5.31333759e-02 -9.02140364e-02  1.33849561e-01  3.48136504e-03
 -1.67297497e-01  1.75964031e-02  1.56797674e-02  2.64290780e-01
  2.09618956e-01  3.09704132e-02  6.42269710e-03 -1.16559081e-01
  1.18862949e-01 -1.33773983e-01  4.60796012e-03  1.59135699e-01
  7.72609711e-02  7.02903792e-02  2.29740404e-02 -1.30608603e-01
  2.99578067e-02  1.10629991e-01 -1.32279783e-01 -4.36717086e-02
  5.59327565e-02 -8.66808072e-02 -6.51346007e-03 -8.41817856e-02
  1.80566117e-01  4.66572084e-02 -8.69076401e-02 -1.95766136e-01
  1.29900008e-01 -1.26879081e-01 -9.89643559e-02  1.80358868e-02
 -1.78837821e-01 -1.18639484e-01 -2.78490007e-01  1.55591071e-02
  3.81357670e-01  1.16139546e-01 -1.82540432e-01  2.22995766e-02
 -5.62700592e-02  1.69319063e-02  1.16276659e-01  1.48988843e-01
 -2.07022764e-02  4.83394368e-03 -8.42594653e-02 -2.30798554e-02
  1.76429436e-01 -6.97608218e-02 -9.51545909e-02  1.95435986e-01
  1.33481594e-02  8.90362933e-02  3.95317674e-02 -6.60693273e-02
 -3.69404852e-02  7.16912523e-02 -1.46456391e-01 -3.65487449e-02
  3.45947929e-02 -9.97064263e-02 -1.22655546e-02  1.39548600e-01
 -1.63940415e-01  1.22085467e-01  4.47189100e-02  8.53182897e-02
  1.19882356e-02  2.20806710e-03 -1.33837208e-01 -3.64801399e-02
  1.34552300e-01 -1.91027269e-01  2.26641223e-01  2.08041593e-01
  5.53740636e-02  1.12827100e-01  1.29531905e-01  8.39309320e-02
  2.49443110e-02 -1.76847316e-02 -1.37273178e-01 -4.01816629e-02
  7.64899179e-02  3.15074634e-04  9.34637412e-02  1.14206802e-02]