[-0.11342063  0.07623954  0.03831478 -0.056402   -0.0657066  -0.08388257
 -0.01142131 -0.13278238  0.14797993 -0.06607959  0.23001964 -0.10248102
 -0.2162932  -0.10570806 -0.047674    0.22208527 -0.20705166 -0.11931044
 -0.03460769  0.03694461  0.13137941 -0.0012882  -0.01849225  0.03769645
 -0.13851334 -0.36301705 -0.09444187 -0.06941204 -0.04954065 -0.0526613
 -0.03469341  0.06124857 -0.17862868 -0.09662365  0.06076752  0.05537889
 -0.03724561 -0.07958863  0.18079536 -0.02396488 -0.27596912  0.01440674
  0.10425357  0.23541711  0.16815449  0.02978629  0.04890112 -0.1557654
  0.12523437 -0.17405079 -0.00723562  0.12073722  0.05150796  0.08301289
 -0.01621152 -0.12904073  0.02971168  0.11229406 -0.1454228  -0.02517438
  0.13016219 -0.08066408 -0.02518416 -0.04397279  0.18487863  0.03838008
 -0.12296399 -0.15423433  0.11276209 -0.13089991 -0.05275572  0.03899286
 -0.15342504 -0.21413913 -0.30919114 -0.04117714  0.38554466  0.07075907
 -0.1669167   0.04963468 -0.08098882  0.04653227  0.17588235  0.15920533
  0.05082138  0.05761508 -0.06987589  0.0284104   0.23369215 -0.08249812
  0.00160706  0.23912166  0.02768415  0.07569378  0.00357326  0.01870296
 -0.02626283  0.06978101 -0.09211466  0.03836272  0.03878111  0.02554993
  0.0381851   0.12191647 -0.15790169  0.13014577  0.05059759  0.1013246
  0.03413438 -0.01524949 -0.04984324 -0.08525293  0.06717517 -0.22107528
  0.16269718  0.18160944  0.01356813  0.09429949  0.07493176  0.05147685
  0.00248916 -0.03563286 -0.24763863  0.03783205  0.11165752  0.00840815
  0.07469096 -0.01979308]