[-1.55267775e-01  1.36586979e-01  4.86239344e-02 -6.23454042e-02
 -1.56276286e-01 -3.14481929e-03  5.93731040e-03 -6.36509508e-02
  1.66409343e-01 -5.23087801e-03  1.62509412e-01 -7.92306673e-04
 -2.44208127e-01 -1.04447022e-01  1.64421406e-02  1.39092699e-01
 -1.27949759e-01 -1.23771988e-01 -4.71296832e-02 -1.25011966e-01
  6.02618642e-02  9.69467983e-02  2.59641814e-03  8.15403312e-02
 -1.56622574e-01 -2.88500160e-01 -7.39279017e-02 -6.58886954e-02
  3.64329815e-02 -8.77411142e-02 -6.26510521e-03  4.72986065e-02
 -1.07509971e-01 -4.96459790e-02  8.70579183e-02  8.02014694e-02
 -1.02340437e-01 -7.30304718e-02  1.78878412e-01 -2.06071194e-02
 -1.59828886e-01  1.65389013e-02  7.90519342e-02  3.05428654e-01
  1.83342412e-01  1.81686282e-02  4.39889133e-02 -8.87824520e-02
  1.78064093e-01 -1.49849996e-01  1.00256339e-01  1.73381850e-01
  1.59970775e-01  4.98746745e-02  6.52831644e-02 -1.43906400e-01
 -2.14551874e-02  2.00759634e-01 -1.81351364e-01  6.40818179e-02
  8.38190168e-02 -1.28861114e-01 -6.01727478e-02 -1.02711193e-01
  1.54273793e-01  8.38063285e-02 -1.28643259e-01 -1.81445464e-01
  1.14384308e-01 -1.35090992e-01 -1.10756472e-01  6.50949404e-02
 -1.60610914e-01 -1.66419148e-01 -2.63454407e-01  7.47383237e-02
  3.82540762e-01  1.48492679e-01 -1.82701349e-01  4.65794280e-03
 -8.98814667e-03  4.63033281e-02  6.20960407e-02  1.18186750e-01
 -1.36845216e-01 -6.32408261e-02 -8.95799175e-02  3.02050989e-02
  1.78344965e-01 -2.66731139e-02 -6.85712919e-02  1.86786562e-01
  8.03974196e-02  6.80299476e-02 -1.02951009e-04 -2.93583274e-02
 -8.86160359e-02  2.83181127e-02 -7.81814009e-02 -1.50958961e-02
  2.27890760e-02 -8.32954273e-02  5.09053543e-02  8.58883038e-02
 -1.63538873e-01  2.13846549e-01  5.60129471e-02  5.30584455e-02
 -4.82640527e-02  2.04465841e-03 -1.24046184e-01  1.08968280e-02
  1.34652227e-01 -2.43580654e-01  2.30656728e-01  1.40363127e-01
  7.96201155e-02  1.69235349e-01  9.65384245e-02  5.89815937e-02
  3.02901659e-02 -3.12724970e-02 -9.82486978e-02 -3.22770588e-02
  1.39296487e-01 -5.54240644e-02  1.33936152e-01  4.28521447e-02]