[-0.10718125  0.09612897  0.02781637 -0.05839244 -0.08885118 -0.07915808
 -0.01035225 -0.12102125  0.1171627  -0.0671385   0.232039   -0.10205612
 -0.23253618 -0.12320347 -0.02284566  0.20642102 -0.19486655 -0.13478927
 -0.02660793  0.07469922  0.13933574 -0.01435907 -0.00418261  0.04622716
 -0.10884531 -0.37768793 -0.08685482 -0.05440639 -0.04546857 -0.06609017
 -0.04590635  0.03943537 -0.18788505 -0.1000904   0.04066627  0.05009063
 -0.03802675 -0.07713524  0.19556507 -0.00225103 -0.27527395  0.00774436
  0.06731188  0.24166086  0.16364194  0.03537758  0.05075193 -0.14642195
  0.11923978 -0.21094504 -0.01173195  0.13505326  0.03967709  0.05591302
 -0.03212804 -0.11826193  0.03547565  0.10788014 -0.15953252 -0.02066859
  0.1311177  -0.0765522  -0.02454599 -0.06441998  0.20844205  0.03785054
 -0.11479866 -0.15423395  0.11273903 -0.12686485 -0.06766707  0.0418593
 -0.14759365 -0.20916584 -0.30250785 -0.03202955  0.37559554  0.0841062
 -0.17708655  0.03016682 -0.1046473   0.04788842  0.1751505   0.13398232
  0.05655586  0.04632142 -0.10558533  0.02129193  0.23765886 -0.09115116
  0.00391712  0.24478678  0.04586905  0.09972613  0.01900086  0.01628191
 -0.01926581  0.06631869 -0.11272333  0.0500029   0.02801548  0.00378005
  0.02667849  0.13428228 -0.15149635  0.12030951  0.03774884  0.08278741
  0.02505867 -0.03075724 -0.06883565 -0.09563895  0.05643391 -0.21658652
  0.16333388  0.19337039  0.02705303  0.07908116  0.08129131  0.04728649
 -0.00705824 -0.04448427 -0.25457504  0.02679668  0.11762867  0.01331389
  0.06040093 -0.02292946]