[-0.15613766  0.13729779  0.12615047 -0.124231   -0.13521281 -0.00489207
 -0.06367789 -0.13980722  0.16282442 -0.13658407  0.21818142 -0.11407286
 -0.21632607 -0.01145951 -0.07666449  0.24607085 -0.21633723 -0.15941834
 -0.00613794  0.0006373   0.07409418  0.02251843  0.04372947  0.01092182
 -0.08650861 -0.37174156 -0.07098257  0.00990009  0.02074429 -0.08189704
 -0.04667407  0.06092155 -0.20056327 -0.01016377  0.01695131  0.14956425
 -0.07888787 -0.15698637  0.15685223 -0.01874398 -0.30528948  0.005366
  0.05097204  0.24732862  0.20846537 -0.01641694  0.00900922 -0.18472384
  0.12878564 -0.17926711  0.01264004  0.11997024 -0.00325804  0.01705468
  0.03387527 -0.1428009   0.00245459  0.15341219 -0.09687188 -0.04901192
  0.10786479 -0.10874217  0.06437459 -0.14970171  0.20256452  0.09841023
 -0.07403569 -0.18869083  0.15773752 -0.05293232 -0.03052882  0.10701551
 -0.14726195 -0.17026381 -0.25072572 -0.04135975  0.37714574  0.05896473
 -0.10332536  0.03473757 -0.02173923  0.00935479  0.12785488  0.20910087
  0.00041887  0.04252101 -0.09806304  0.03302006  0.25918698 -0.101728
 -0.04603169  0.19538893 -0.02455284  0.03129249  0.01059963  0.01771314
 -0.11079093  0.09270727 -0.17304142 -0.06644499 -0.00351388 -0.02057438
 -0.01525462  0.15657496 -0.13737777  0.08196417  0.01173182  0.04993766
  0.00099514 -0.06401077 -0.01516564 -0.04378621  0.10175929 -0.22469531
  0.15955754  0.17128496  0.03890701  0.13275278  0.11717041  0.07646341
  0.01453085 -0.03438393 -0.17977519  0.04556331  0.10876303  0.027869
  0.10049079  0.01795422]