[-0.09173549  0.17208581  0.11339726  0.00508613 -0.06911476 -0.07526251
 -0.00176427 -0.10443255  0.1565471  -0.08363485  0.25554129 -0.06665132
 -0.20168376 -0.14503899  0.00837508  0.17441069 -0.17389148 -0.07667505
 -0.02856731 -0.0087136   0.08520135  0.00972351  0.02551288  0.02265986
 -0.03686342 -0.32963052 -0.09562572 -0.07113021  0.08017794 -0.03386645
 -0.08878011  0.01989944 -0.14515162 -0.15245458  0.0172001   0.05231819
 -0.01954815 -0.04785964  0.13954364  0.01094989 -0.18982059  0.01783296
 -0.01920545  0.25663102  0.21441701  0.04881705  0.00625181 -0.11380746
  0.09352858 -0.12994318  0.00072185  0.15095405  0.09915426  0.05098828
  0.00882553 -0.14079073  0.00403409  0.07424189 -0.14350857 -0.03098712
  0.09088533 -0.07270931  0.00338898 -0.05546513  0.17505132  0.03516802
 -0.07089793 -0.17926899  0.13097872 -0.12725475 -0.07100035  0.02532419
 -0.17323665 -0.11995735 -0.28973457  0.03114028  0.38952142  0.10205207
 -0.16915701  0.01583707 -0.11438435 -0.0010819   0.09263987  0.12567198
 -0.01252102  0.00261833 -0.0801744  -0.0415489   0.12739734 -0.08125785
 -0.04094925  0.19690903 -0.01411122  0.0844551   0.01815248 -0.06622491
 -0.05314214  0.08258039 -0.1203527  -0.04129208  0.01936966 -0.10218751
  0.01954657  0.12123771 -0.20481156  0.10537814  0.03819959  0.07753306
  0.04196594  0.01958849 -0.11417677 -0.05111873  0.15269932 -0.18730137
  0.22136807  0.2284236   0.05296984  0.09825587  0.12305634  0.08919497
  0.00526141 -0.00501315 -0.14862673 -0.01749077  0.064327   -0.02862475
  0.05423305  0.01192474]