[-1.22496918e-01  1.48245484e-01  8.89230072e-02 -3.68631892e-02
 -1.49599761e-01  2.78137662e-02  1.55207142e-02 -7.26350397e-02
  1.77408949e-01 -2.41994783e-02  2.02277422e-01 -5.27011044e-03
 -2.61322439e-01 -7.89507031e-02  2.52890382e-02  1.28848523e-01
 -1.20504655e-01 -1.04294218e-01 -4.50281203e-02 -1.06232837e-01
  6.96802884e-02  1.04382806e-01  4.95257005e-02  7.91686699e-02
 -1.58955559e-01 -3.06937516e-01 -8.68996903e-02 -4.97673452e-02
  7.82607272e-02 -1.13107122e-01 -1.58754047e-02  4.25051078e-02
 -8.17522556e-02 -5.04577234e-02  6.20342270e-02  7.68562555e-02
 -9.55331251e-02 -9.14450288e-02  1.85035929e-01 -1.62986182e-02
 -1.60466298e-01  1.97255146e-02  4.29730676e-02  3.15253943e-01
  1.86882228e-01 -2.63829390e-03  4.41976860e-02 -9.11702812e-02
  1.35614797e-01 -1.77350983e-01  1.36407435e-01  1.49728104e-01
  1.73648775e-01  6.37111887e-02  6.57084659e-02 -1.39496595e-01
 -4.12293524e-02  2.17458397e-01 -1.72098055e-01  9.46828052e-02
  9.12069231e-02 -1.14028595e-01 -1.04474043e-02 -7.88813159e-02
  1.33886859e-01  9.30318236e-02 -1.28844738e-01 -1.56892940e-01
  7.83523768e-02 -1.36066601e-01 -1.07297957e-01  6.26706183e-02
 -1.61567643e-01 -1.62966907e-01 -2.74849147e-01  7.33361393e-02
  3.77460539e-01  1.37405217e-01 -2.10358292e-01 -3.51266637e-02
 -8.38582963e-03  5.68199120e-02  6.51855022e-02  1.16498582e-01
 -1.38083041e-01 -8.47188234e-02 -9.63203907e-02  3.35952640e-02
  1.66232869e-01 -3.38839553e-02 -9.05083641e-02  2.29759082e-01
  7.90516436e-02  5.97047918e-02  3.21333706e-02  1.15349470e-02
 -7.17579797e-02  2.15850137e-02 -8.77437815e-02 -3.35055823e-03
  7.00871134e-03 -1.05320193e-01  3.42376307e-02  7.99601600e-02
 -1.89784452e-01  2.26136088e-01  5.84836975e-02  4.17641103e-02
  4.83807316e-03  2.53527914e-03 -1.48742363e-01 -4.31016105e-07
  1.75939515e-01 -2.64425516e-01  2.06729874e-01  1.71170339e-01
  8.10319409e-02  1.78248033e-01  8.83834511e-02  7.73350447e-02
  4.03651781e-02 -2.79655103e-02 -6.22030161e-02 -1.55306850e-02
  1.25234842e-01 -6.01990223e-02  1.00248896e-01  4.94576283e-02]