[-1.41578004e-01  1.38351992e-01  6.81650341e-02 -2.00849827e-02
 -1.40770584e-01  9.43831075e-03  9.01752338e-03 -9.32241753e-02
  1.83285221e-01 -1.22259883e-02  1.80277213e-01 -1.10301999e-02
 -2.37281919e-01 -7.70519078e-02  1.03787920e-02  1.47347018e-01
 -1.25010118e-01 -1.28105819e-01 -4.08760421e-02 -1.11633062e-01
  7.17198551e-02  8.20413381e-02  3.50542553e-02  9.05622318e-02
 -1.74111992e-01 -2.95150250e-01 -9.33739394e-02 -6.57005832e-02
  4.90201041e-02 -1.07066922e-01 -1.54335080e-02  4.02745269e-02
 -1.02473080e-01 -4.82007265e-02  8.60598311e-02  7.20039234e-02
 -7.69707486e-02 -7.56261051e-02  1.91517919e-01 -1.62748788e-02
 -1.64776117e-01  3.26992869e-02  5.76346032e-02  3.11859548e-01
  1.76963612e-01  1.57750156e-02  3.49191837e-02 -1.10206150e-01
  1.43486395e-01 -1.56768724e-01  1.27512693e-01  1.65062979e-01
  1.48256212e-01  6.19811527e-02  5.53705394e-02 -1.42641976e-01
 -2.79476941e-02  2.02692986e-01 -1.70277447e-01  8.83746296e-02
  1.00145571e-01 -1.18146740e-01 -2.47755703e-02 -7.77525008e-02
  1.39809534e-01  1.03352599e-01 -1.22382581e-01 -1.66561440e-01
  8.30976591e-02 -1.32459864e-01 -1.09801225e-01  3.58951651e-02
 -1.70276895e-01 -1.73749775e-01 -3.01164478e-01  6.81984350e-02
  3.90352905e-01  1.32452786e-01 -2.14275196e-01 -1.42301992e-02
  1.44499922e-04  7.30821714e-02  7.59303793e-02  1.21193685e-01
 -1.45606503e-01 -7.52313286e-02 -8.67647976e-02  3.36153731e-02
  1.76319465e-01 -2.02293228e-02 -8.54701921e-02  2.01957688e-01
  5.94011061e-02  5.66274635e-02  2.27075405e-02  7.09228450e-03
 -7.54108801e-02  1.72668640e-02 -9.39710662e-02 -8.62181745e-03
  3.98841454e-03 -6.73474520e-02  4.63401042e-02  9.77711827e-02
 -1.92253157e-01  1.99511468e-01  5.37657812e-02  2.68830266e-02
 -3.10489219e-02  2.40128711e-02 -1.51644811e-01  2.68424349e-03
  1.51934072e-01 -2.51635373e-01  2.34000489e-01  1.70184135e-01
  7.95307085e-02  1.67988211e-01  9.07643884e-02  7.05721378e-02
  2.93913074e-02 -5.65399230e-03 -7.24396333e-02 -1.29967360e-02
  1.36089370e-01 -4.79838140e-02  1.13793805e-01  4.63589728e-02]