[-0.23077063  0.1242735   0.10316364 -0.10204255 -0.11393603 -0.04457157
 -0.02440674 -0.14872287  0.15807609 -0.12585106  0.2714301  -0.08706596
 -0.24826591 -0.07862411 -0.07609175  0.26436269 -0.2156363  -0.12833932
 -0.01506517  0.0027333   0.09607811 -0.00148257  0.06283825  0.05640803
 -0.07265272 -0.38009077 -0.07322874 -0.03036568 -0.03748456 -0.07816115
 -0.02521722  0.04210228 -0.19320063 -0.02560554 -0.00842336  0.13343777
 -0.09906464 -0.10714488  0.18203044 -0.02337649 -0.28718111 -0.05055883
  0.09742231  0.24419251  0.19717029  0.02725392  0.0088906  -0.15123861
  0.11962549 -0.21610546  0.00849385  0.1035885   0.02283002  0.0100694
  0.057921   -0.15930335 -0.00480296  0.1478547  -0.14055598 -0.04371644
  0.06116685 -0.12891851  0.01242892 -0.11577681  0.21546049  0.13422965
 -0.08593789 -0.14303258  0.1883314  -0.09673643 -0.03349882  0.10825939
 -0.13094656 -0.22431464 -0.28042784 -0.04639134  0.35484263  0.08676358
 -0.08683433  0.01308865 -0.02077661  0.00181346  0.11993295  0.18715625
  0.00052758  0.03743556 -0.11841545  0.00724464  0.20067178 -0.09251364
 -0.01847282  0.22884183 -0.00228929  0.01396955  0.01119621  0.01535713
 -0.10159661  0.07088926 -0.18111062 -0.06559315 -0.00978583 -0.02644118
  0.00487592  0.08352923 -0.14500634  0.04263013  0.01689193  0.0269966
 -0.03714072 -0.07399713 -0.04615682 -0.04631038  0.07448264 -0.21524394
  0.17802612  0.18227069  0.00278386  0.16586469  0.11279581  0.07541683
 -0.00072402 -0.07215572 -0.1560422   0.03498036  0.12333689  0.0156882
  0.11724015  0.00179991]