[-0.18918334  0.08545063  0.11683574 -0.09988254 -0.09515299 -0.0598275
 -0.04798684 -0.17353021  0.11716455 -0.05680982  0.27320775 -0.10907672
 -0.19736634 -0.06473939 -0.04777383  0.23728421 -0.18277128 -0.13096367
 -0.03942146  0.02803412  0.08405934  0.00140107  0.06264871  0.00155493
 -0.07945216 -0.37727737 -0.08609439 -0.02751101  0.00361839 -0.01372636
 -0.02268298  0.07296598 -0.23386286 -0.02455837  0.03543371  0.12114525
 -0.05005834 -0.15578087  0.135052   -0.07991975 -0.30137545  0.00733601
  0.09427309  0.19035701  0.17720495  0.01503665  0.00143229 -0.16989164
  0.09067757 -0.16857909  0.00311517  0.09668122  0.00279446  0.01895301
  0.0145726  -0.14356568  0.04499999  0.10117421 -0.13937899 -0.06722338
  0.07887021 -0.09687141 -0.00706668 -0.17564566  0.19870624  0.10420022
 -0.10986383 -0.13630113  0.15422836 -0.03641948 -0.00665406  0.08126004
 -0.18119779 -0.22562587 -0.27944657 -0.01490884  0.3730045   0.05447304
 -0.17219976  0.03934161 -0.0118108   0.03884579  0.11003317  0.19781768
  0.04176131  0.03655093 -0.10916924  0.00844816  0.23202589 -0.12980556
 -0.00592862  0.24623807 -0.02016959  0.03768816 -0.02182247  0.05349455
 -0.05483723  0.07644539 -0.16723382 -0.01858395  0.03715846  0.02329656
 -0.0185912   0.13471733 -0.12226768  0.06504931  0.05267035  0.05509607
  0.03032532 -0.0782965   0.0202767  -0.09389295  0.04969561 -0.20476449
  0.18635516  0.18231489  0.04005228  0.14300829  0.08555166  0.0893147
  0.01161232 -0.02327363 -0.21214044  0.02705917  0.12399944  0.01567349
  0.0370216   0.03427557]