[-0.1249989   0.08025074  0.043848   -0.09548213 -0.06709632 -0.06652176
 -0.02596819 -0.16891253  0.12508942 -0.10598747  0.2186909  -0.08549448
 -0.23207517 -0.08444019 -0.05981882  0.25663459 -0.213652   -0.1642742
 -0.03802058  0.01119061  0.08258619 -0.01764951  0.0574278   0.04154105
 -0.0912088  -0.35454106 -0.08039851 -0.03137782 -0.02889243 -0.01177305
 -0.02350636  0.09524795 -0.21205883 -0.00978803  0.05599353  0.11119407
 -0.04321462 -0.15891252  0.18535839 -0.03550569 -0.28516278 -0.01957304
  0.09374926  0.19990645  0.20122305 -0.01912525  0.01056325 -0.17279665
  0.13521133 -0.17900267  0.0424793   0.0945705   0.01995032  0.01409622
  0.0560325  -0.15037332  0.03057603  0.149174   -0.12960897 -0.07249217
  0.05973846 -0.0915946  -0.01772076 -0.17028905  0.19248676  0.1216015
 -0.10115347 -0.17125957  0.1992576  -0.08468143 -0.05232824  0.0599304
 -0.15387461 -0.18885018 -0.29770175 -0.05089136  0.30091414  0.09354925
 -0.15272869  0.05631626  0.01928166  0.02791088  0.14112864  0.19485833
  0.01119711  0.03679328 -0.09174928 -0.01034857  0.23581195 -0.06705931
 -0.06494506  0.22268431 -0.05696335  0.02287262  0.02064874 -0.00583407
 -0.0697008   0.06409365 -0.19946469 -0.04077364  0.03539814  0.00620299
 -0.03725193  0.15667515 -0.11361942  0.0271664  -0.00427397  0.06005822
  0.01290861 -0.07847124 -0.06102902 -0.04895044  0.06054024 -0.19356543
  0.19679908  0.13600513  0.03246809  0.09848364  0.11756445  0.06373152
  0.01076698 -0.05951167 -0.26104209  0.02386593  0.16622822  0.00487875
  0.09005381  0.00362405]