[-0.15714918  0.11480208  0.10330653 -0.07999243 -0.03954038 -0.01865053
  0.00188018 -0.1660025   0.14320228 -0.1054973   0.30192971 -0.14022431
 -0.26295239 -0.07630388 -0.05470163  0.2376577  -0.15955721 -0.12564921
 -0.03409638  0.03622092  0.07904401 -0.03492144  0.01005366  0.01084894
 -0.06878091 -0.35063115 -0.11259126 -0.03684277 -0.02702938 -0.06330338
 -0.02511871  0.07681184 -0.20507403 -0.00665734 -0.02627055  0.13014129
 -0.04343821 -0.09465417  0.1298051  -0.02804241 -0.24844132 -0.01276357
  0.04939861  0.21108484  0.14532082  0.03999944 -0.01880963 -0.15479788
  0.06744336 -0.16153829  0.00795186  0.08941719  0.05853178  0.02806765
 -0.00615487 -0.17720567  0.02288345  0.0744186  -0.17414981 -0.03201113
  0.06393181 -0.13229273 -0.03591237 -0.11506003  0.19018538  0.11830997
 -0.1017982  -0.11443597  0.20296684 -0.07071864  0.02515817  0.08140949
 -0.1574008  -0.22086847 -0.269173   -0.00638629  0.34007391  0.04298623
 -0.1640894   0.00855514 -0.01561107  0.01902363  0.11004501  0.16926928
  0.02330165  0.02769502 -0.134039    0.00664833  0.19786249 -0.1255461
 -0.00090474  0.22835676 -0.05414146  0.0270384  -0.01182768  0.02372524
 -0.04750928  0.04986098 -0.15555854 -0.04129736  0.01297971 -0.04516247
 -0.06359177  0.08373662 -0.12701507  0.06536191  0.06275774  0.02896868
  0.00062688 -0.08600845 -0.03319661 -0.06166329  0.12673961 -0.20849745
  0.16901757  0.17397885  0.00309214  0.12514189  0.09445723  0.11920917
 -0.00904564 -0.07269793 -0.22555521  0.01907108  0.11376249  0.0043817
  0.05064861  0.00644319]