[-0.08148938  0.03911204  0.0481699  -0.01499735 -0.10771275 -0.08703608
  0.00888374 -0.14517771  0.12859069 -0.11442032  0.19368458 -0.0616021
 -0.19822307 -0.11555509 -0.01271031  0.23016544 -0.13877188 -0.17143349
 -0.06386968 -0.02205678  0.0652016  -0.02486821  0.00877864  0.04185095
 -0.12171059 -0.33653805 -0.09168497 -0.05359224 -0.0700288  -0.01518469
 -0.07390028  0.10337372 -0.15680628 -0.0880491   0.08474258  0.0659706
 -0.00586685 -0.06766289  0.18896239 -0.02659733 -0.25972372  0.02422979
  0.1234137   0.24701408  0.16483156  0.01323564  0.03556453 -0.10305215
  0.17804877 -0.15651768 -0.01115072  0.10709528  0.10284737  0.05768599
  0.01687323 -0.10349254  0.03690816  0.11367559 -0.13064556 -0.01100777
  0.09320914 -0.10315003 -0.05659655 -0.09102378  0.19759054  0.06062922
 -0.10931348 -0.1528151   0.11747761 -0.1371346  -0.07917394  0.00606031
 -0.18933176 -0.18817632 -0.30054322 -0.0277534   0.3500528   0.10591572
 -0.20557927  0.0353085  -0.01895073  0.07481847  0.15486805  0.16214143
  0.02802169  0.06198775 -0.08541795 -0.00782993  0.23515514 -0.0898819
 -0.0206453   0.23424797  0.03269341  0.07650266  0.00826281 -0.00198191
 -0.02954113  0.04881508 -0.15913863  0.02779848  0.03605723  0.00266008
  0.03859424  0.08861032 -0.14782982  0.07985052  0.00127367  0.10798188
  0.00280635  0.0191924  -0.08960748 -0.10083192  0.042539   -0.1916595
  0.14914896  0.19294958 -0.00374736  0.08094286  0.0795148   0.05451214
  0.0081556  -0.01894183 -0.18462132 -0.01417841  0.14031747 -0.00260776
  0.0627398   0.00277333]