[-2.02636585e-01  9.07365903e-02  9.32712927e-02 -7.67842531e-02
 -9.07757804e-02 -4.45423126e-02 -4.90457974e-02 -1.87202320e-01
  1.43162042e-01 -9.08876061e-02  2.70721138e-01 -9.45998654e-02
 -2.25345328e-01 -6.26296103e-02 -1.89668499e-02  2.55344748e-01
 -2.37129450e-01 -1.60676673e-01 -4.90719713e-02  1.43802306e-02
  5.92285879e-02  4.58961073e-03  1.85526982e-02  8.74218810e-03
 -8.89764801e-02 -3.55329007e-01 -8.81724879e-02 -2.30834261e-02
 -1.80781092e-02 -2.01078709e-02 -5.59078120e-02  9.60094705e-02
 -1.82314888e-01 -9.28080734e-03  4.70882729e-02  1.62932813e-01
 -2.01618560e-02 -1.47378474e-01  1.08142041e-01 -6.92336038e-02
 -2.84646004e-01  3.28405085e-03  1.08495891e-01  2.22872898e-01
  2.31418177e-01 -4.41515073e-03 -3.72114144e-02 -1.37007251e-01
  8.97884592e-02 -1.79168493e-01 -1.52939213e-02  9.56319571e-02
  3.46534438e-02  2.71471236e-02  6.43552169e-02 -2.09426269e-01
  2.29389910e-02  6.95067421e-02 -1.31846443e-01 -8.57573897e-02
  5.21427467e-02 -1.30521864e-01  2.75708772e-02 -1.52692586e-01
  1.72624961e-01  1.14507489e-01 -9.42280889e-02 -1.62953719e-01
  1.47767797e-01 -6.76214322e-02 -3.08210906e-02  6.33442923e-02
 -1.94774270e-01 -2.26202995e-01 -3.18539679e-01 -6.42406940e-02
  3.42314750e-01  6.94384724e-02 -1.89214930e-01  5.43695800e-02
  3.62687670e-02  4.98396112e-03  1.26470894e-01  2.04262882e-01
  6.12191036e-02  2.59515848e-02 -1.60979688e-01 -3.21738247e-04
  2.17724681e-01 -1.16148949e-01 -1.04932468e-02  2.35945806e-01
 -4.09911461e-02 -2.89871427e-03  2.99118157e-03  5.41690066e-02
 -5.53959385e-02  6.97967932e-02 -1.84844464e-01 -5.09697795e-02
  1.34573802e-02  4.94854525e-03 -2.88103707e-02  1.22462884e-01
 -1.09854780e-01  3.25663723e-02  5.81762753e-02  7.36121461e-02
 -3.11047621e-02 -9.73664224e-02 -1.53918122e-03 -4.51090373e-02
  8.34334120e-02 -2.28915557e-01  1.64654464e-01  1.94922715e-01
  1.64471567e-05  1.51244551e-01  5.74342199e-02  7.73979351e-02
 -1.26460586e-02 -2.51701269e-02 -1.97223470e-01  1.83986779e-02
  5.90247475e-02  2.47147083e-02  4.10666801e-02  6.47568256e-02]