[-0.16242932  0.13016658  0.11781865 -0.08483171 -0.08808581 -0.0142182
 -0.02215464 -0.18291762  0.12043998 -0.07707094  0.24783777 -0.12973315
 -0.26815352 -0.02943935 -0.04452273  0.25034615 -0.19070707 -0.11992357
 -0.06794613  0.0123716   0.03497734  0.03588193  0.05399606  0.00918743
 -0.0697507  -0.37375712 -0.09931763 -0.02119822 -0.02975445 -0.04725706
 -0.05632689  0.08051877 -0.18194667 -0.01059012  0.02331245  0.15359536
 -0.05900174 -0.13962436  0.10609275 -0.04214758 -0.28440008  0.02297734
  0.10476017  0.24298079  0.21001768  0.01438476 -0.01689108 -0.13517046
  0.08778208 -0.19209267  0.02943332  0.07062426  0.02426964  0.02897083
  0.03518687 -0.20305948  0.00452851  0.10376977 -0.13838212 -0.04408114
  0.09064953 -0.11944882  0.0242266  -0.12087496  0.1969094   0.13035049
 -0.11944505 -0.13422988  0.12992936 -0.07362615  0.0268089   0.08936127
 -0.18936306 -0.20981169 -0.2802946  -0.00687575  0.38802117  0.04671484
 -0.15078218 -0.00662688  0.00113582  0.03211388  0.12977643  0.20819858
  0.04183664  0.01226093 -0.14738576  0.0267559   0.21632142 -0.13150755
 -0.04238546  0.2462105  -0.04274183  0.01741934 -0.01387765  0.06469797
 -0.087557    0.05550389 -0.16796446 -0.03746973  0.00402448 -0.0191141
 -0.04996436  0.1142687  -0.1030603   0.07161786  0.05369764  0.06179613
  0.00185648 -0.10080373 -0.00543988 -0.05296695  0.11268294 -0.23155165
  0.15905295  0.17658052 -0.0109218   0.1392747   0.06484673  0.09310624
  0.00999807 -0.03134226 -0.19363195  0.02936043  0.11039724  0.01623179
  0.06412272  0.03083935]