[-0.08918405  0.07449944  0.00594663 -0.03351008 -0.09599938 -0.03488683
  0.00545975 -0.14171647  0.17853597 -0.13218915  0.19093318 -0.03516355
 -0.21969238 -0.04921458 -0.00057263  0.21873645 -0.18785831 -0.1076718
 -0.03503891 -0.0005537   0.09793116  0.01674273  0.04994381  0.02562219
 -0.08047599 -0.35652727 -0.1086602  -0.0501191   0.03499748 -0.03135551
 -0.11210278  0.07860463 -0.11686653 -0.07792374  0.05401305  0.07403354
 -0.07004533 -0.12234227  0.20606005  0.02486834 -0.25654745  0.02597334
  0.07802605  0.25372171  0.17545657  0.0083408   0.0217055  -0.11018717
  0.13169919 -0.23347507  0.01008366  0.08508877  0.04609233  0.05811177
  0.03096986 -0.13181169  0.00507635  0.10416448 -0.15396205 -0.0119549
  0.0868751  -0.07477344 -0.03206229 -0.08170731  0.21625414  0.13690571
 -0.09970679 -0.14394107  0.118851   -0.13660993 -0.09105688  0.02073709
 -0.16307621 -0.20489264 -0.22684316 -0.01657821  0.41375017  0.13816808
 -0.15219684  0.04219256 -0.0260847  -0.00733333  0.19586079  0.19009081
  0.04517511  0.02318063 -0.06358027 -0.01225424  0.23150809 -0.10011841
 -0.06247513  0.24574637  0.04360211  0.11847585  0.02136112  0.00123072
 -0.04162031  0.03032045 -0.19347657 -0.05036778  0.02051026 -0.00954556
  0.00305348  0.12742256 -0.14076553  0.12811312  0.03972528  0.0523162
  0.05733524 -0.00416772 -0.07376939 -0.06254201  0.05797933 -0.21060149
  0.15884927  0.20282927  0.02621103  0.11569522  0.07581085  0.04514358
  0.05426119 -0.00874917 -0.22723539 -0.00578176  0.13269161  0.01645681
  0.03465474 -0.0104318 ]