[-0.08333303  0.04259806  0.0483196  -0.01664126 -0.10890746 -0.08874279
  0.00824624 -0.14387996  0.13691233 -0.10620991  0.20402806 -0.05949892
 -0.20029597 -0.12432646 -0.01469437  0.2317789  -0.1599972  -0.18207121
 -0.04887743 -0.01804863  0.05983258 -0.02845848  0.02659858  0.04777689
 -0.13620304 -0.35610515 -0.08913767 -0.0690915  -0.0711877  -0.00284523
 -0.06005811  0.10122504 -0.16415811 -0.08172649  0.08612406  0.06080096
  0.00464625 -0.06840772  0.2042218  -0.01046225 -0.26461205  0.0166647
  0.11698326  0.24694014  0.15928325  0.00105563  0.0437632  -0.0969592
  0.18591316 -0.1552836  -0.0196185   0.11866442  0.09493355  0.04902138
  0.01062735 -0.0922948   0.03606231  0.12375592 -0.13743387 -0.01578481
  0.08556779 -0.09570273 -0.05837876 -0.08946365  0.18432058  0.05952723
 -0.10492922 -0.15719618  0.10933562 -0.13633312 -0.0830748   0.01172696
 -0.1948058  -0.19027255 -0.30242231 -0.03404796  0.35447654  0.09661923
 -0.19830868  0.03435999 -0.0156668   0.06594776  0.14437668  0.16754033
  0.02925041  0.07072559 -0.08887198 -0.00793405  0.23150976 -0.0875418
 -0.01667638  0.23554595  0.02435328  0.08975757  0.01025033 -0.00151651
 -0.03276813  0.05503329 -0.15695287  0.02981599  0.02494954  0.01351412
  0.03502294  0.07067099 -0.15295655  0.06954127  0.00281385  0.09530889
 -0.00663082  0.01813091 -0.08019865 -0.10148913  0.04183141 -0.18817933
  0.15039878  0.19970028 -0.0059193   0.08780754  0.07747704  0.03823507
 -0.00206882 -0.01835463 -0.17657542 -0.01580397  0.13137779 -0.00682413
  0.06008036 -0.01369605]