[-0.08334512  0.07034477  0.02171472 -0.06405763 -0.08259946 -0.0650271
 -0.00156749 -0.12277055  0.132048   -0.0794595   0.19910292 -0.08625432
 -0.22284666 -0.1155157  -0.01288065  0.20971878 -0.17763773 -0.13468277
 -0.05659325  0.06206419  0.12502207  0.00390958 -0.00641128  0.03781543
 -0.11694175 -0.35910615 -0.09459986 -0.03450353 -0.04098433 -0.07156789
 -0.06868293  0.0627843  -0.17673127 -0.10396772  0.05213387  0.06299227
 -0.03672962 -0.08510111  0.19029431  0.02455086 -0.28873959  0.02126511
  0.08279656  0.2359724   0.19841616  0.03126078  0.02487101 -0.12420332
  0.13545223 -0.22175696  0.00480727  0.11795034  0.03711843  0.06958761
 -0.01094074 -0.12144252  0.03552446  0.11026086 -0.18809557 -0.02309203
  0.12541045 -0.10626655 -0.02265314 -0.05495248  0.1602159   0.06701704
 -0.09552052 -0.16699782  0.12281957 -0.15021747 -0.06223483  0.03069675
 -0.14623728 -0.19832261 -0.31186768 -0.03159823  0.36704502  0.1113148
 -0.16588691  0.02692958 -0.04849865  0.03283329  0.18008772  0.13770831
  0.05381371  0.0448105  -0.08377308  0.02599883  0.22517434 -0.06340011
 -0.00901436  0.24785331  0.03654324  0.08440696  0.03457023  0.03009632
 -0.02557124  0.05863225 -0.13477026  0.04362761  0.02327523 -0.0041079
  0.0430201   0.14471732 -0.13280241  0.13813418  0.02022491  0.07371022
  0.00667996 -0.03868745 -0.06193382 -0.07108711  0.05464005 -0.19776149
  0.15149549  0.18892236  0.01548284  0.07154398  0.06976885  0.04889649
  0.00276204 -0.03470409 -0.25174841  0.01395987  0.10937407  0.01019455
  0.07760814 -0.00624594]