[-1.89292505e-01  7.65825510e-02  8.62531587e-02 -7.64737353e-02
 -9.67302695e-02 -4.08057161e-02 -4.91885543e-02 -1.79075882e-01
  1.28733248e-01 -1.00470103e-01  2.55266994e-01 -8.49614367e-02
 -2.18891248e-01 -5.89240901e-02 -1.41322305e-02  2.49595910e-01
 -2.34582528e-01 -1.45985112e-01 -3.38076912e-02  1.04449093e-02
  4.90746908e-02  1.47194909e-02  1.56139685e-02  8.18109699e-03
 -7.58952126e-02 -3.37396950e-01 -8.97134468e-02 -1.82516910e-02
 -1.50198666e-02 -8.21056124e-03 -6.02546409e-02  1.05243288e-01
 -1.82679370e-01 -3.17414477e-03  4.47971337e-02  1.54447898e-01
 -1.47494525e-02 -1.28916711e-01  1.10315256e-01 -5.81832193e-02
 -2.68457770e-01 -1.00887427e-02  9.65766758e-02  2.24750683e-01
  2.22427890e-01  2.17118859e-03 -5.32836206e-02 -1.18605696e-01
  7.58397058e-02 -1.97056010e-01 -1.14772217e-02  8.25571939e-02
  3.20567042e-02  1.28182992e-02  4.89469543e-02 -2.09111616e-01
  2.66803503e-02  5.48970513e-02 -1.25829920e-01 -8.69013593e-02
  4.66541164e-02 -1.45046055e-01  2.10901089e-02 -1.46109924e-01
  1.90853998e-01  1.00858927e-01 -9.59654376e-02 -1.40053973e-01
  1.42181322e-01 -6.19523823e-02 -2.39741132e-02  5.80813289e-02
 -1.77597493e-01 -2.16141343e-01 -3.13619703e-01 -5.50947264e-02
  3.50144744e-01  7.82201812e-02 -1.94249973e-01  4.94270623e-02
  2.90858634e-02  3.71442729e-04  1.42207608e-01  1.94144696e-01
  5.90562932e-02  1.83175206e-02 -1.61223635e-01  6.26944751e-03
  2.06390768e-01 -1.22667767e-01 -9.78728104e-03  2.36737281e-01
 -3.67353372e-02  1.40726371e-02  1.03539227e-04  5.07338904e-02
 -4.02048789e-02  6.10351451e-02 -1.82987913e-01 -4.47517298e-02
  2.86364146e-02  6.02655127e-05 -2.88730748e-02  1.36578783e-01
 -1.16635680e-01  3.86933424e-02  5.86047359e-02  5.47181331e-02
 -1.78225674e-02 -1.02853529e-01 -1.15517741e-02 -4.67542671e-02
  8.53990912e-02 -2.25271180e-01  1.47506878e-01  1.90993339e-01
 -1.00094127e-02  1.60331294e-01  5.42490855e-02  7.78288096e-02
 -2.13026740e-02 -4.06112932e-02 -2.05348715e-01  1.42173171e-02
  7.49841556e-02  1.53653501e-02  4.49764542e-02  6.40467033e-02]