[-0.072004    0.16649254  0.10002779 -0.00978028 -0.05797166 -0.06199449
 -0.01275594 -0.09562477  0.16665229 -0.09954318  0.23467803 -0.06480389
 -0.22319567 -0.12754436  0.00680184  0.17578582 -0.17168455 -0.07926516
 -0.03540982 -0.0163678   0.07663429  0.01749831  0.00684726  0.01522245
 -0.04718889 -0.31032237 -0.08915225 -0.05198595  0.06466828 -0.04630599
 -0.08545787  0.01886617 -0.15126562 -0.14575015  0.03360013  0.05108266
 -0.02616399 -0.05471453  0.14386694  0.0292951  -0.17983706  0.0119918
 -0.02363024  0.25702417  0.20151532  0.04166945 -0.00586329 -0.12502143
  0.11145606 -0.1290748  -0.00575343  0.15075086  0.10258772  0.06059768
  0.00853418 -0.1373616   0.00527033  0.09503841 -0.14409624 -0.02731475
  0.08878278 -0.07455282  0.00336532 -0.06015412  0.17852099  0.02614951
 -0.08314928 -0.18260625  0.13172124 -0.11600576 -0.06949454  0.02496979
 -0.1537655  -0.11612966 -0.27548572  0.02388127  0.38324687  0.09510721
 -0.17312959  0.00812851 -0.11427274 -0.01838414  0.08988048  0.11712612
 -0.02322887  0.00453514 -0.05295348 -0.03994742  0.15671296 -0.06812432
 -0.04624746  0.19114764 -0.01881324  0.08127449  0.0181585  -0.08031239
 -0.06162337  0.07094691 -0.12158074 -0.05010813  0.01047982 -0.12041922
  0.01863953  0.13047086 -0.20633478  0.11739685  0.04801712  0.06965059
  0.04800586  0.03650994 -0.13375393 -0.05374678  0.15851353 -0.20156734
  0.22286963  0.21672736  0.06979994  0.08646842  0.12133815  0.08778521
  0.00842618  0.00230531 -0.14381562 -0.0323319   0.07312302 -0.01879206
  0.07081494 -0.00135117]