[-0.112136    0.07624525  0.03128803 -0.05042633 -0.0768945  -0.08347799
 -0.02340515 -0.13931632  0.13215293 -0.07233363  0.21854201 -0.08963621
 -0.21849771 -0.11403962 -0.03858481  0.2159816  -0.21384695 -0.11775611
 -0.03848271  0.0312287   0.12132657  0.00481105 -0.01209665  0.02568995
 -0.13547656 -0.36735135 -0.09455969 -0.06365389 -0.04607389 -0.04512333
 -0.03807638  0.06275427 -0.18146877 -0.10203379  0.06199119  0.05159335
 -0.03358585 -0.07446603  0.17629336 -0.02179132 -0.26428738  0.00930005
  0.10353009  0.23415346  0.17761551  0.03327151  0.04395838 -0.1510758
  0.129125   -0.17963803 -0.00384512  0.12033261  0.04095603  0.07771794
 -0.00540059 -0.12785454  0.0319021   0.10681243 -0.14085285 -0.02873618
  0.13148147 -0.07896685 -0.02987738 -0.05331322  0.1862666   0.0350431
 -0.11744066 -0.15935986  0.10773355 -0.12632227 -0.05805165  0.03417526
 -0.1506937  -0.20346366 -0.31630346 -0.04468773  0.38450399  0.07710301
 -0.16818956  0.04237137 -0.081683    0.03672081  0.18616872  0.14257406
  0.0559477   0.04057918 -0.07430287  0.02880688  0.23114283 -0.07750296
 -0.00766558  0.2318389   0.02532799  0.07650467  0.00949092  0.02533854
 -0.03802199  0.06973857 -0.0981008   0.0367374   0.05105052  0.01797714
  0.03692885  0.12976359 -0.14438562  0.13391145  0.0457706   0.10584223
  0.03800618 -0.02684399 -0.06594028 -0.07659309  0.06739952 -0.21825333
  0.17187606  0.17694539  0.00387798  0.09406818  0.07523035  0.05117813
 -0.01243797 -0.03138348 -0.2516017   0.0206232   0.10857975  0.00620374
  0.07706047 -0.01818741]