[-0.18212737  0.088193    0.08909463 -0.08295159 -0.08148205 -0.05022193
 -0.05243657 -0.19441086  0.13896918 -0.10560297  0.2702508  -0.11071463
 -0.23490684 -0.06535411 -0.02114688  0.26038495 -0.2405697  -0.15349966
 -0.05066442  0.02506086  0.06624924  0.00264311  0.0208436   0.01209642
 -0.08016091 -0.36228594 -0.09792173 -0.02213969 -0.01989827 -0.01298282
 -0.06302009  0.08092706 -0.18704994 -0.01534746  0.04637438  0.14729361
 -0.02934701 -0.15390225  0.11211729 -0.070709   -0.28245717  0.01079425
  0.10820289  0.21726166  0.21893561  0.00562529 -0.03775094 -0.15374437
  0.09180566 -0.1807906  -0.00936996  0.08987065  0.03152894  0.02429726
  0.06007658 -0.1947566   0.02768907  0.07806756 -0.13702993 -0.07935988
  0.06770102 -0.12610351  0.0123255  -0.15871945  0.18245611  0.11241706
 -0.10030229 -0.16659819  0.14473258 -0.06934545 -0.02777482  0.06117022
 -0.18749104 -0.22470546 -0.3071754  -0.06533382  0.34417516  0.06701623
 -0.1874954   0.05430352  0.02992993  0.00389758  0.14197625  0.20264387
  0.07209582  0.01869641 -0.15294759  0.00732636  0.22053054 -0.12950906
 -0.00259531  0.24547835 -0.04208447  0.00593701 -0.00578631  0.03922971
 -0.05965338  0.07729959 -0.1837834  -0.04221201  0.02754251  0.01775606
 -0.03016077  0.11895648 -0.10552714  0.03615155  0.05879971  0.06970056
 -0.00207367 -0.10462999 -0.01475676 -0.05659946  0.08267421 -0.22998925
  0.16359755  0.18461423  0.01374373  0.13615069  0.05775392  0.07714885
 -0.00547195 -0.02896844 -0.22831857  0.02506873  0.08094036  0.0200659
  0.04373286  0.04803297]