[-1.12477958e-01  1.76537678e-01  9.06399712e-02 -3.18405330e-02
 -8.55056867e-02 -5.08022122e-02  8.03566712e-04 -1.02575235e-01
  1.79814085e-01 -1.00880466e-01  2.32387662e-01 -4.70997505e-02
 -2.13515520e-01 -1.39964134e-01  5.26663288e-03  1.80864215e-01
 -1.69083640e-01 -8.97581652e-02 -2.74980199e-02 -3.75471860e-02
  8.44066143e-02  3.36250402e-02  2.90055126e-02  3.81760821e-02
 -5.98242953e-02 -3.24298054e-01 -8.88482705e-02 -6.03272580e-02
  4.68099564e-02 -3.56763601e-02 -7.40527734e-02  3.08178198e-02
 -1.44206181e-01 -1.29399240e-01  3.34859639e-02  6.51682243e-02
 -3.65170054e-02 -6.81109801e-02  1.44950077e-01  4.20337496e-03
 -1.75387725e-01 -2.79252970e-04  3.55499913e-03  2.64877409e-01
  2.11128548e-01  2.07593124e-02  4.72856034e-03 -1.10060774e-01
  1.07140757e-01 -1.25781357e-01  1.02076251e-02  1.43341884e-01
  8.76745805e-02  4.66952287e-02  2.72673499e-02 -1.44381315e-01
  3.18570854e-03  9.40654501e-02 -1.32591367e-01 -3.42570804e-02
  6.73469752e-02 -8.22921470e-02 -7.88090564e-03 -6.27294704e-02
  1.82074696e-01  5.48140369e-02 -8.26212242e-02 -1.80584118e-01
  1.35152668e-01 -1.26091048e-01 -7.57762864e-02  2.29150988e-02
 -1.84230208e-01 -1.24533735e-01 -2.84215420e-01  1.81015264e-02
  3.83383900e-01  1.12351909e-01 -1.69265941e-01  7.12356716e-03
 -8.52462202e-02  6.06422266e-03  9.65202227e-02  1.39894471e-01
 -3.82198766e-02 -3.43360385e-04 -6.84993863e-02 -1.65223163e-02
  1.55094534e-01 -5.88015430e-02 -8.03978518e-02  2.05705360e-01
  1.61772000e-03  7.30411336e-02  2.80381925e-02 -7.40900561e-02
 -4.40349393e-02  5.84119223e-02 -1.34040579e-01 -3.66504677e-02
  1.42798126e-02 -1.12400107e-01  2.80786748e-03  1.36595726e-01
 -2.04257295e-01  1.03776790e-01  4.63256948e-02  7.14708120e-02
  1.30590126e-02  1.99140124e-02 -1.38127998e-01 -3.66846323e-02
  1.48355469e-01 -1.81475818e-01  2.19563991e-01  2.14916065e-01
  6.60383329e-02  1.17707781e-01  1.23469345e-01  7.14753792e-02
  1.93743128e-02 -1.26793804e-02 -1.29646793e-01 -2.02747937e-02
  8.32383558e-02 -2.47313064e-02  9.15171504e-02  1.45565066e-02]