[-0.08865581  0.09692855  0.07487213 -0.01092356 -0.04036114 -0.08173101
 -0.03366731 -0.17865203  0.14040387 -0.0991523   0.21612035 -0.04254676
 -0.1798362  -0.12448193  0.00842507  0.22797258 -0.17456686 -0.17408204
 -0.04758758  0.01834615  0.05337174  0.01666519  0.02606526  0.06312212
 -0.11206247 -0.36290923 -0.09828124 -0.05009288  0.01467173 -0.00707122
 -0.14019586  0.07410841 -0.17140029 -0.12177508  0.08243556  0.09194045
 -0.04416495 -0.08096929  0.19998339 -0.00790283 -0.28303814  0.09147435
  0.10282137  0.24519666  0.2270588   0.01792993  0.04885074 -0.14560972
  0.15578555 -0.19393674  0.04976033  0.10621792  0.08191457  0.0654502
  0.03899547 -0.16689609 -0.03293148  0.13098696 -0.13283491 -0.00086854
  0.07711347 -0.06955368 -0.01303379 -0.08716087  0.14531444  0.09620319
 -0.08967719 -0.19929324  0.10767881 -0.13940065 -0.08884922  0.06552248
 -0.15660635 -0.17520075 -0.33566329 -0.00260855  0.36201307  0.08521208
 -0.17650524  0.05922874 -0.0007427   0.01064709  0.14083041  0.14477156
  0.02378198  0.01737989 -0.07061589 -0.01862495  0.24147597 -0.02511413
 -0.03934569  0.19898133 -0.00420264  0.09633441  0.02617059  0.05627956
 -0.0593784   0.05682308 -0.19093069 -0.01492179  0.01145043  0.03373562
  0.012219    0.13610734 -0.16866603  0.12224901  0.00807365  0.07805168
  0.02938059  0.01072761 -0.07638062 -0.03831515  0.06459796 -0.21700466
  0.19419545  0.19019926  0.02398289  0.08041681  0.09655326  0.01653021
  0.01024997 -0.00737414 -0.24201913 -0.01769138  0.14815454 -0.01842842
  0.08469732  0.0165503 ]