[-1.21585168e-01  1.31388009e-01  5.89679740e-02 -7.53396899e-02
 -8.36834535e-02 -1.84037052e-02 -6.37848079e-02 -1.36786282e-01
  1.49800286e-01 -9.11033750e-02  1.99056253e-01 -1.12888597e-01
 -2.43265182e-01 -7.14253262e-02 -5.74340038e-02  2.20335409e-01
 -2.18687177e-01 -1.69193193e-01 -3.88440453e-02 -6.01164112e-03
  9.33043286e-02  1.11811943e-02  2.11704355e-02  1.19419023e-03
 -1.14822738e-01 -3.97149295e-01 -7.65467510e-02 -2.13013031e-02
  5.46969846e-03 -3.44672793e-04 -3.38098370e-02  5.55266850e-02
 -2.14731693e-01 -1.64842103e-02  7.45066032e-02  9.34434235e-02
 -1.42516317e-02 -9.23237428e-02  1.52977169e-01  9.37942881e-03
 -2.61344522e-01  1.35527169e-02  9.07104239e-02  2.21207649e-01
  2.04701424e-01  8.44742879e-02  2.15178635e-02 -1.92911312e-01
  1.21044554e-01 -1.49803504e-01  1.68392546e-02  1.83468804e-01
  6.88056974e-03  2.68224627e-03  5.34476638e-02 -1.66999191e-01
 -4.60653013e-04  1.10956304e-01 -1.19569004e-01 -6.92316294e-02
  7.18337446e-02 -2.63246838e-02 -5.72719350e-02 -1.53783306e-01
  1.99272469e-01  7.60840029e-02 -1.07509099e-01 -1.80394784e-01
  1.92189738e-01 -1.04320899e-01 -4.82097268e-02  5.22309616e-02
 -1.58706293e-01 -1.62836507e-01 -2.77155966e-01 -5.40322177e-02
  3.91519159e-01  2.74266433e-02 -1.66909456e-01  5.72348200e-02
  8.99537187e-03  1.10971313e-02  1.32001281e-01  1.77692622e-01
 -3.59305926e-02  2.28077285e-02 -6.43156096e-02 -2.19253134e-02
  2.49351576e-01 -6.29620180e-02 -1.20770177e-02  1.74403414e-01
 -2.25992873e-02  8.26792512e-03  2.46046614e-02  4.92449872e-05
 -8.54672343e-02  3.80709730e-02 -1.77319899e-01 -7.45917112e-02
  2.25011799e-02 -2.92496514e-02 -5.71728833e-02  1.34495482e-01
 -1.87312245e-01  7.49004185e-02  2.83001252e-02  1.10854087e-02
  4.28831531e-03 -5.52187674e-02 -4.35398445e-02 -4.16460000e-02
  1.10320143e-01 -2.24400684e-01  1.76638708e-01  1.81625590e-01
  2.59419326e-02  1.17577806e-01  1.00489341e-01  9.42272395e-02
 -1.45596641e-04  7.73562258e-03 -2.20978141e-01 -5.10245375e-02
  8.16286430e-02 -2.69112773e-02  5.46022728e-02 -2.63714530e-02]