[-0.11341479  0.14760964  0.132471   -0.01094911 -0.06639422 -0.04835075
  0.01442709 -0.11039629  0.18152493 -0.09981024  0.2700372  -0.03585341
 -0.1975442  -0.14094965  0.0145634   0.16438441 -0.1658235  -0.07214988
 -0.02050423 -0.04529471  0.0832467   0.02365006  0.03815778  0.02444741
 -0.05568381 -0.33754343 -0.09746855 -0.10109778  0.08401826 -0.0487023
 -0.06181943  0.035043   -0.13753961 -0.1320198   0.00699437  0.02394905
  0.00041865 -0.02448826  0.15220219  0.0241289  -0.17240147  0.00174634
 -0.02916692  0.25456876  0.20052531  0.04226894  0.01624509 -0.09081539
  0.08343984 -0.11998743  0.00175585  0.12359124  0.12369148  0.0276064
  0.01104245 -0.16248494 -0.02942632  0.05328536 -0.14839278  0.00854668
  0.07365538 -0.08624045 -0.02181455 -0.03716899  0.17919795  0.03635953
 -0.08447484 -0.18082714  0.14767689 -0.11011374 -0.05696755  0.03506406
 -0.19807293 -0.11590985 -0.27209041  0.03890833  0.38501081  0.08301087
 -0.17480828 -0.00880681 -0.13354059  0.00984266  0.04675517  0.12012221
 -0.02972646  0.00067401 -0.04949389 -0.03200326  0.10372236 -0.06325225
 -0.06089953  0.21457474 -0.02757058  0.08746465 -0.00072345 -0.06848814
 -0.05614131  0.06937458 -0.11171501 -0.05104116  0.00408689 -0.09377699
  0.03824627  0.12860191 -0.22853486  0.12006278  0.01792228  0.06279792
  0.03107141  0.04461583 -0.12988889 -0.04451381  0.16677223 -0.19041213
  0.21083127  0.25219387  0.07272696  0.10806064  0.11448427  0.0646525
  0.0201854   0.01499235 -0.14708608 -0.00649559  0.06876006 -0.06069736
  0.04366027  0.01220872]