[-7.28316829e-02  5.69180250e-02  1.32073171e-03 -3.69266458e-02
 -1.08995669e-01 -7.49063119e-02  1.36042088e-02 -1.46319538e-01
  1.73355624e-01 -1.35820106e-01  1.63000226e-01 -1.32445861e-02
 -2.24460006e-01 -9.13995802e-02  2.45383289e-02  2.15278104e-01
 -2.04691812e-01 -1.41315982e-01 -6.28448501e-02  2.62436029e-02
  1.10151947e-01 -1.89102592e-03  5.14847413e-02  4.15836461e-02
 -9.75315869e-02 -3.46390337e-01 -1.16160981e-01 -6.43582642e-02
  3.01393662e-02 -3.34569551e-02 -9.02952477e-02  5.57529218e-02
 -1.30647227e-01 -9.40852314e-02  3.45793925e-02  3.99206616e-02
 -5.95939457e-02 -7.46249855e-02  1.96611658e-01  1.59969572e-02
 -3.01932693e-01  5.23026288e-02  4.76993583e-02  2.31506690e-01
  2.26766542e-01  2.19303798e-02  3.74209434e-02 -1.48129135e-01
  1.54318854e-01 -2.35149384e-01  2.97172666e-02  8.57647583e-02
  5.66444062e-02  6.40891045e-02  1.66619401e-02 -1.53587773e-01
  4.38889023e-03  1.02146007e-01 -1.82248443e-01  6.49384130e-03
  8.89254510e-02 -6.56406209e-02 -1.10484567e-02 -4.65641320e-02
  1.79657087e-01  1.08270191e-01 -8.71779174e-02 -1.72618315e-01
  1.40715912e-01 -2.01024204e-01 -8.38003308e-02  3.28117423e-02
 -1.55997172e-01 -1.93856806e-01 -2.79424042e-01 -6.22341894e-02
  3.75504255e-01  1.24795847e-01 -1.71501473e-01  2.11294070e-02
 -5.08567952e-02  1.74624864e-02  1.74443394e-01  1.60197616e-01
  2.23623198e-02  3.32744010e-02 -8.50375369e-02 -1.55859888e-02
  2.30762720e-01 -1.04224443e-01 -3.43411490e-02  2.88044602e-01
  8.00714791e-02  1.14030145e-01  5.58315702e-02  1.59323439e-02
 -4.21603285e-02  2.36625355e-02 -1.99239299e-01 -3.69154178e-02
  4.37489385e-03 -1.56974979e-02  2.74172761e-02  1.18679456e-01
 -1.24252521e-01  1.68072209e-01  2.19350737e-02  8.27720985e-02
  1.04144504e-02 -4.63884317e-05 -8.66717100e-02 -8.53830427e-02
  7.77579173e-02 -1.62701905e-01  1.75061971e-01  2.18197182e-01
  3.63351181e-02  8.79976824e-02  6.50943443e-02  4.57587801e-02
 -4.29691514e-03 -1.90891009e-02 -2.24449426e-01  3.93604077e-02
  1.29749700e-01 -8.87381472e-03  5.31743169e-02  1.29562188e-02]