[-8.14102218e-02  1.63705945e-01  1.04961827e-01 -1.55313564e-02
 -6.32236823e-02 -5.96080497e-02 -3.98231624e-03 -1.02452867e-01
  1.73556656e-01 -1.00504875e-01  2.47292355e-01 -6.23378530e-02
 -2.14135602e-01 -1.25787362e-01  3.44037428e-03  1.69642806e-01
 -1.71006396e-01 -7.57919103e-02 -2.13599037e-02 -1.85192842e-02
  8.22741389e-02  1.58815812e-02  1.73185952e-02  2.48476770e-02
 -5.27751558e-02 -3.20825398e-01 -9.91117358e-02 -5.98344319e-02
  6.61916658e-02 -4.10149395e-02 -7.83733726e-02  1.42247798e-02
 -1.47060677e-01 -1.33025482e-01  2.41037849e-02  4.89025414e-02
 -2.66834851e-02 -5.97059131e-02  1.33539736e-01  2.82803085e-02
 -1.79904327e-01  6.61668926e-03 -3.13482694e-02  2.57553875e-01
  2.04784974e-01  4.25729230e-02 -1.43743050e-03 -1.17608145e-01
  9.98973623e-02 -1.34037837e-01  1.67601032e-03  1.51273116e-01
  9.58386734e-02  5.11072762e-02  9.59104206e-03 -1.42494798e-01
  1.36304283e-04  8.96317735e-02 -1.42848119e-01 -2.54929606e-02
  7.94655308e-02 -6.62162304e-02  6.23954041e-03 -5.57093099e-02
  1.72800764e-01  3.63692380e-02 -8.99868459e-02 -1.72509030e-01
  1.33235559e-01 -1.22300029e-01 -6.21816590e-02  2.10080668e-02
 -1.70648605e-01 -1.36660218e-01 -2.73992777e-01  3.44579592e-02
  3.85748625e-01  1.08625151e-01 -1.71290785e-01  3.03876260e-03
 -1.15609422e-01  3.81556340e-03  8.89509246e-02  1.25764772e-01
 -1.57020297e-02 -1.26628205e-03 -6.43849522e-02 -3.98086533e-02
  1.38594896e-01 -7.75432661e-02 -5.41197732e-02  2.05376372e-01
 -2.55658682e-02  7.92832822e-02  1.21257184e-02 -6.72713518e-02
 -6.17094710e-02  7.75631592e-02 -1.16438799e-01 -4.55499478e-02
  1.14919180e-02 -1.07599616e-01  1.36817461e-02  1.32267460e-01
 -2.11208567e-01  1.19322889e-01  4.51698266e-02  6.37222528e-02
  4.24939990e-02  2.83361133e-02 -1.28470704e-01 -5.54209836e-02
  1.55834973e-01 -2.00040340e-01  2.20048502e-01  2.30403423e-01
  6.68586046e-02  1.07489027e-01  1.17844842e-01  8.24503228e-02
  1.62599962e-02 -5.73061779e-03 -1.37251288e-01 -2.46381517e-02
  6.01371527e-02 -2.37024631e-02  5.38155623e-02 -2.11110129e-03]