[-0.11573344  0.07327693  0.05787574 -0.05711137 -0.07417699 -0.0616682
  0.01144459 -0.11861211  0.16123456 -0.0913499   0.20226324 -0.08086033
 -0.22794913 -0.1219502  -0.01780655  0.21053253 -0.2054771  -0.13822968
 -0.03135111  0.0324453   0.10743254  0.0004674   0.00601548  0.01712941
 -0.14746273 -0.37470207 -0.09076621 -0.04378109 -0.04967644 -0.05047777
 -0.04478679  0.07798898 -0.1962366  -0.0938464   0.02822448  0.06259765
 -0.03477119 -0.06034452  0.19747059  0.00507952 -0.27704871  0.0157047
  0.06415198  0.24576052  0.1727636   0.01159286  0.03814931 -0.11893963
  0.14697978 -0.1977374  -0.02724796  0.14359622  0.05157806  0.04858438
 -0.02406623 -0.12285779  0.02539631  0.10262739 -0.16114365 -0.02759601
  0.12018488 -0.09953666 -0.02342525 -0.05938599  0.15660143  0.03714285
 -0.09292683 -0.19792758  0.10968062 -0.1431763  -0.0409182   0.04718895
 -0.16454177 -0.2024323  -0.32133672 -0.03380184  0.34488392  0.0696153
 -0.1491463   0.04748904 -0.0772593   0.03552926  0.14537333  0.14909771
  0.03694083  0.07570633 -0.08810858  0.01830106  0.22295545 -0.07917588
 -0.01205799  0.22657584  0.03798566  0.08300691  0.01371972 -0.00829178
 -0.04239114  0.07429669 -0.11795348  0.05881001  0.01105779 -0.01258439
  0.03224011  0.12736718 -0.15660121  0.15539366  0.01219841  0.08113757
 -0.00195776 -0.02888712 -0.07498361 -0.0782777   0.07319134 -0.21276315
  0.14559503  0.20706423  0.00112482  0.0934877   0.0780355   0.05387926
 -0.02586466  0.02330346 -0.24119453  0.02053712  0.10806084 -0.01772982
  0.07163922 -0.01447781]