[-1.60232708e-01  1.11766212e-01  5.74971512e-02 -6.25758022e-02
 -1.10090792e-01 -5.13694547e-02 -6.64774776e-02 -1.71178445e-01
  1.39612615e-01 -7.91050270e-02  2.18234852e-01 -1.02633968e-01
 -2.56640822e-01 -7.54732415e-02 -6.94581792e-02  2.33092859e-01
 -2.29029700e-01 -1.62065670e-01 -3.29330005e-02 -6.47697970e-03
  7.45688826e-02  4.72043641e-03  5.51981442e-02  2.67722104e-02
 -1.04172103e-01 -3.87831569e-01 -4.92509454e-02 -4.22400683e-02
 -3.84588055e-02  1.77350398e-02 -2.15739980e-02  7.40109384e-02
 -2.15378568e-01 -4.79874611e-02  6.52322248e-02  8.34527165e-02
 -5.61413951e-02 -8.92962664e-02  1.86511025e-01 -2.34068912e-02
 -2.51518428e-01 -4.58701290e-02  1.18604697e-01  2.16397479e-01
  2.04612717e-01  5.99793680e-02  3.85748409e-02 -2.07464337e-01
  1.04539886e-01 -1.65388748e-01  4.61801235e-03  1.71048537e-01
 -5.01680607e-03  7.61636067e-03  4.13348787e-02 -1.84944183e-01
  7.00802961e-03  1.22100092e-01 -1.05328642e-01 -4.59763929e-02
  1.02813005e-01 -4.37220149e-02 -5.16719483e-02 -1.64226711e-01
  2.18641832e-01  7.13866353e-02 -1.07074462e-01 -1.62243828e-01
  1.66519508e-01 -8.51420090e-02 -7.20180422e-02  6.52399585e-02
 -1.74550802e-01 -2.04122782e-01 -3.19990277e-01 -8.13710093e-02
  3.80950183e-01  5.42957000e-02 -1.29381880e-01  2.13874727e-02
  5.67364506e-03  9.10258945e-03  1.27245471e-01  1.68045029e-01
 -3.05956993e-02  1.09660281e-02 -8.11518133e-02  3.68935964e-03
  2.20867679e-01 -5.05473986e-02 -3.40305865e-02  1.72368497e-01
 -1.96268614e-02  1.07218437e-02  1.04563637e-02  2.64205337e-02
 -9.31890383e-02  6.28286600e-02 -2.01980516e-01 -5.86761646e-02
  2.01884732e-02  4.61864489e-04 -4.01506579e-04  1.29305065e-01
 -1.41731054e-01  5.06326668e-02  1.59038547e-02  3.49566154e-02
 -1.45324292e-02 -7.51667842e-02 -6.50971681e-02 -3.37458774e-02
  1.05256557e-01 -1.75876886e-01  1.79598317e-01  1.64069459e-01
  5.63139804e-02  1.26485124e-01  1.14095472e-01  7.54242092e-02
 -3.34524997e-02  2.54780811e-04 -2.32463762e-01 -8.21955502e-03
  9.06021297e-02 -1.21040018e-02  1.12432696e-01 -9.66390246e-04]