[-0.09360912  0.06554525  0.02012336 -0.03344905 -0.08148619 -0.06274991
 -0.00230575 -0.15662508  0.16362946 -0.12329996  0.1704611  -0.02982267
 -0.20828247 -0.08231374  0.00443528  0.21900694 -0.20878763 -0.13762051
 -0.02603441  0.01168049  0.11847927  0.02905913  0.04644857  0.03668846
 -0.12337785 -0.32011229 -0.12062055 -0.05850158  0.02120996 -0.01396249
 -0.09899118  0.07648525 -0.1301364  -0.07445119  0.05376762  0.04806975
 -0.03919796 -0.11084961  0.19631708  0.00657279 -0.27375123  0.05724769
  0.06000626  0.23721424  0.22298422 -0.01339093  0.03191978 -0.14102529
  0.13956891 -0.20117716 -0.0102911   0.10290553  0.05079651  0.06349234
  0.00514125 -0.14766775  0.00094012  0.09869795 -0.14276133 -0.01968205
  0.07544259 -0.07737349 -0.00603772 -0.06811879  0.17642809  0.08473261
 -0.10336291 -0.17358737  0.13485239 -0.15034805 -0.08740243  0.0350795
 -0.18294986 -0.19895312 -0.25498617 -0.04157734  0.36367342  0.1190858
 -0.18601005  0.07028247 -0.03599099  0.03355751  0.16778861  0.20203054
  0.04588155  0.04133324 -0.07318621 -0.01144662  0.22237901 -0.09997139
 -0.04558492  0.27385196  0.05964379  0.11216356  0.05104814  0.01433243
 -0.03426089  0.03535007 -0.17375721 -0.02672064  0.02129691  0.00878657
  0.02602664  0.14913523 -0.1123688   0.15940607  0.02234942  0.09012584
  0.02042194 -0.01162597 -0.04883257 -0.05950776  0.05648806 -0.18738425
  0.15258275  0.19221339  0.00949142  0.10635541  0.06719108  0.06524853
  0.00459393  0.00801751 -0.23101592  0.02260311  0.1355667  -0.00147542
  0.05698263  0.00568933]