[-0.06077895  0.0426509   0.04317687 -0.01800365 -0.07756121 -0.09177458
  0.03022842 -0.1636745   0.17609315 -0.11590463  0.21477829 -0.06073242
 -0.21478894 -0.1289593   0.00794116  0.21190821 -0.14776096 -0.17384101
 -0.04325751 -0.01202328  0.05243538 -0.02510962  0.03518372  0.05550624
 -0.14285345 -0.3515451  -0.11364045 -0.07587467 -0.03264764 -0.03067422
 -0.07606024  0.1066569  -0.15116987 -0.08387929  0.08330528  0.0583462
 -0.00549646 -0.08805289  0.21415325 -0.00739798 -0.28293458  0.02331697
  0.11132289  0.24041049  0.17506771 -0.0151564   0.02387013 -0.10903908
  0.18786596 -0.14474009  0.00348405  0.11600941  0.09208581  0.06109256
  0.02357933 -0.09285519  0.00773677  0.1210555  -0.14955802 -0.01506352
  0.08986304 -0.09555361 -0.07297509 -0.08389192  0.14581841  0.06254001
 -0.11259095 -0.15707326  0.10537618 -0.16980521 -0.07614384  0.04416908
 -0.19524111 -0.19417237 -0.28910252 -0.01592141  0.33877465  0.10231303
 -0.1852902   0.038494    0.00151155  0.04978706  0.13605188  0.18384659
  0.04179204  0.06299368 -0.0645998  -0.00997548  0.22440317 -0.0775923
 -0.01810319  0.24603367  0.00312488  0.0945349   0.00377702  0.00935328
 -0.0309096   0.03272359 -0.15925519  0.00813413  0.03969768  0.01535349
  0.01892099  0.08042889 -0.16872321  0.09113446  0.02352494  0.07912622
  0.02980593  0.01008175 -0.06227762 -0.09520809  0.04957336 -0.2099783
  0.16066875  0.19076151  0.00436554  0.07285257  0.05289428  0.03398389
  0.01002984 -0.02746212 -0.17565401 -0.01784951  0.13120243 -0.00779796
  0.05156208 -0.04188235]