[-0.04314436  0.07389016  0.00053445 -0.01975804 -0.08630446 -0.0827838
 -0.01876488 -0.16699319  0.12024985 -0.10862066  0.21160007 -0.06985784
 -0.18372209 -0.14160886 -0.01468     0.20742813 -0.1517413  -0.20085347
 -0.07729904  0.00836086  0.08002917 -0.02962865  0.0113804   0.05500648
 -0.17380427 -0.31858552 -0.10333826 -0.05456079 -0.05824968 -0.04623822
 -0.03987026  0.0615132  -0.17350483 -0.08450627  0.07334201  0.01958649
 -0.01825895 -0.06375641  0.24708176  0.01576938 -0.26950452  0.07798675
  0.09556525  0.27810577  0.18942074  0.00154385  0.04586554 -0.12817293
  0.18150221 -0.16959359  0.00754326  0.15395951  0.11656792  0.05954451
  0.01039719 -0.06218514  0.01723816  0.15227476 -0.16362873  0.00421745
  0.09684006 -0.06223304 -0.05086533 -0.10478365  0.16007392  0.05068235
 -0.12387791 -0.15211366  0.09258043 -0.14256535 -0.09363514  0.04047156
 -0.17340477 -0.21248937 -0.32963854 -0.02913841  0.35310677  0.11320789
 -0.20925307  0.02854379 -0.01696271  0.04923214  0.13489005  0.1332906
  0.02070858  0.02878477 -0.0629717   0.02054386  0.23837404 -0.07288602
 -0.02374968  0.2398072   0.03281264  0.05503304  0.00123887  0.03124307
 -0.03869835  0.04235798 -0.11780988  0.04548695  0.02129295  0.02127354
  0.04786609  0.09590448 -0.14501236  0.12398215  0.00641995  0.08436864
 -0.00412071  0.02583014 -0.08146026 -0.09152813  0.04684659 -0.21775079
  0.14591368  0.1791862  -0.01330058  0.05253093  0.07379946  0.04435748
 -0.02438753 -0.00192442 -0.19524625 -0.0315384   0.11649958  0.00933092
  0.09481884 -0.01757047]