[-8.96218792e-02  1.22911811e-01  5.47875464e-02  1.29776364e-02
 -4.26656306e-02 -6.62164912e-02 -2.74297129e-02 -1.50982633e-01
  1.52218208e-01 -1.17013477e-01  2.17952117e-01 -3.04337274e-02
 -2.38980874e-01 -9.11437869e-02 -2.21982952e-02  1.64316103e-01
 -1.96749732e-01 -6.93220049e-02 -5.20568006e-02 -3.80600616e-02
  1.15352273e-01  7.87515640e-02  4.67586368e-02 -4.07174742e-03
 -1.00303888e-01 -3.05530876e-01 -1.18105881e-01 -3.35751511e-02
  3.61679867e-02  9.23721865e-03 -6.62599504e-02  2.77361777e-02
 -1.67102978e-01 -1.21959172e-01  7.59417117e-02  6.76652342e-02
 -1.92397479e-02 -6.39322549e-02  2.00640798e-01  4.99403141e-02
 -1.71413347e-01  2.11525466e-02  3.36681008e-02  2.44292423e-01
  1.94929004e-01 -3.29628005e-03 -5.36441850e-03 -1.35783449e-01
  9.79914591e-02 -1.36175439e-01 -3.30779213e-03  1.74617812e-01
  1.06205724e-01  9.13214684e-02  1.71646383e-02 -1.27817377e-01
  4.91229072e-03  1.04415454e-01 -1.28910288e-01 -1.12660127e-02
  8.86657014e-02 -8.55875835e-02  1.24923559e-02 -3.88759673e-02
  1.34758741e-01  3.26872058e-02 -9.66973752e-02 -2.03855351e-01
  1.26128599e-01 -1.39661714e-01 -1.13616109e-01  2.26036254e-02
 -1.72866777e-01 -1.45949021e-01 -3.34666699e-01 -2.07290892e-02
  3.81085306e-01  1.00993611e-01 -1.79102376e-01  1.38508072e-02
 -8.17197785e-02 -4.36227582e-02  9.89286229e-02  1.34036377e-01
 -8.95313919e-03  2.68928837e-02 -5.14470898e-02  7.42926216e-03
  2.00478822e-01 -4.11789492e-02 -1.03652768e-01  2.29428649e-01
  1.08292326e-03  9.18777660e-02  5.68221994e-02 -1.12229157e-02
 -6.34520724e-02  2.96393037e-03 -1.53536126e-01 -3.64127941e-02
  1.16942367e-02 -9.96413156e-02  2.04438567e-02  1.66604802e-01
 -1.73132837e-01  1.37763992e-01  1.91029944e-02  3.50816436e-02
  1.00288466e-02  1.74587201e-02 -1.60539791e-01 -1.49136456e-02
  1.49741441e-01 -1.80717021e-01  2.26970106e-01  2.08509728e-01
  4.94282208e-02  9.34147015e-02  1.18926339e-01  6.41440377e-02
 -1.45816421e-02  2.87449490e-02 -1.65759385e-01 -8.05760026e-02
  3.75493169e-02  1.37627125e-04  1.02670245e-01  5.58106089e-03]