[-0.09672824  0.12765084  0.05603871  0.00469724 -0.0600264  -0.07602346
 -0.02613789 -0.13801579  0.15355292 -0.09119164  0.19001335 -0.01047271
 -0.22303262 -0.0838818  -0.0161471   0.15154478 -0.16725551 -0.07807182
 -0.06908956 -0.04102337  0.09965105  0.08084207  0.05711708 -0.00801921
 -0.1064956  -0.30273861 -0.10891687 -0.02967775  0.04528115  0.00075761
 -0.06007915  0.04427851 -0.15009153 -0.14280401  0.0932406   0.07869353
 -0.04023864 -0.07056708  0.18306805  0.0456849  -0.17647965  0.00395679
  0.03934724  0.27041674  0.22623281 -0.00052724  0.01252583 -0.14963637
  0.09680334 -0.13796276  0.02881492  0.16000645  0.09433316  0.09336554
  0.05241701 -0.11476608  0.02652836  0.10507568 -0.12723273 -0.01311631
  0.09775044 -0.06612363 -0.00428373 -0.05293825  0.12555963  0.02569703
 -0.08866771 -0.18686607  0.12855901 -0.14518987 -0.11645998  0.02415582
 -0.16726963 -0.14230077 -0.33094075 -0.02604746  0.37877247  0.11803929
 -0.18062077  0.01588628 -0.05506677 -0.03576246  0.09912591  0.13564166
 -0.03831653  0.02388839 -0.04052557  0.00322313  0.19594367 -0.02965854
 -0.10456927  0.21978019  0.01923386  0.05026645  0.08137446  0.00286273
 -0.06510016  0.00340593 -0.16649026 -0.06248633  0.04598292 -0.11571521
  0.02086422  0.17446385 -0.18525007  0.15122968  0.02076177  0.04957063
  0.03319037 -0.00160111 -0.14805558 -0.02860421  0.15519859 -0.16299757
  0.20064743  0.2101126   0.04652312  0.08844782  0.11330233  0.06903248
 -0.00794651  0.03762246 -0.14485307 -0.06898066  0.03460687  0.00133757
  0.09039644  0.015661  ]