[-0.08916863  0.11428472  0.05636609  0.04615354 -0.03816194 -0.03544978
 -0.01416391 -0.11185374  0.1505951  -0.08650956  0.22416429 -0.00888599
 -0.23805046 -0.08445884 -0.00710924  0.15004586 -0.16260611 -0.07618804
 -0.09935688 -0.05080098  0.10186615  0.06172077  0.06530288 -0.01046853
 -0.11455844 -0.31882647 -0.09541615 -0.04980406  0.07562096 -0.03623478
 -0.05944645  0.0154516  -0.18109305 -0.12206715  0.06715556  0.0387393
 -0.01636754 -0.05998364  0.2148875   0.04407116 -0.17995657  0.02967454
  0.02887418  0.25415057  0.20605969  0.00288224 -0.00705235 -0.13648678
  0.07607028 -0.17028432  0.00973864  0.17059229  0.11214137  0.08964308
  0.04318763 -0.11660411 -0.00824643  0.09566676 -0.12500888 -0.0114414
  0.07102995 -0.03547801 -0.00430457 -0.06297943  0.12969635  0.034325
 -0.08731063 -0.18153326  0.11807331 -0.12955199 -0.0755735   0.04823006
 -0.14770658 -0.15597819 -0.30155632 -0.0012317   0.39972538  0.12179007
 -0.18704936  0.01542029 -0.10387541 -0.04669297  0.06904162  0.0805209
 -0.05146206  0.0280681  -0.03187551  0.03843645  0.18631518 -0.02903069
 -0.06971639  0.22341497  0.00894804  0.06215745  0.05830489 -0.00433816
 -0.07195623  0.00368778 -0.16516577 -0.05792116  0.02883913 -0.09126269
  0.05986879  0.1478411  -0.19342671  0.13506611  0.02182056  0.01720543
  0.05250484  0.04536458 -0.15073183 -0.0191453   0.15019263 -0.19962445
  0.2149024   0.20680514  0.03721267  0.07733863  0.11569291  0.07467399
 -0.0215804   0.04162486 -0.15671986 -0.06357068  0.04425402 -0.00863483
  0.07695847 -0.00246539]