[-0.06971293  0.10457386  0.01978069 -0.04381271 -0.06461878 -0.09542967
 -0.02628556 -0.15195312  0.16987808 -0.11051341  0.17858215 -0.02703522
 -0.1895344  -0.10299636 -0.01790146  0.22171092 -0.21037693 -0.14456567
 -0.05627424  0.02351149  0.11193956  0.03279641  0.04738508  0.04287526
 -0.13682276 -0.33924022 -0.09711534 -0.0573496  -0.01412867 -0.02813823
 -0.09521332  0.07768281 -0.16641518 -0.1008411   0.05874094  0.06639677
 -0.05446034 -0.09811633  0.18401057  0.01866549 -0.28059915  0.06722101
  0.07275219  0.24545713  0.22205904 -0.00857441  0.04577664 -0.15296285
  0.17413603 -0.19984318 -0.00457643  0.09110799  0.05022037  0.07504573
  0.0209078  -0.14545958  0.00075609  0.1420514  -0.12970412 -0.02180091
  0.07069787 -0.06720422 -0.03468803 -0.08067332  0.17539622  0.08848041
 -0.10827007 -0.17834978  0.12226211 -0.13332111 -0.09309734  0.06303963
 -0.15896    -0.18453941 -0.28172266 -0.04306266  0.3546997   0.07724029
 -0.1830319   0.03204164 -0.03322712  0.03579154  0.1500328   0.16569667
  0.02974275  0.04173549 -0.08028328 -0.00809703  0.26209208 -0.07673027
 -0.04983194  0.24258626  0.03808467  0.11597329  0.02413005  0.01117623
 -0.05990958  0.05506004 -0.18767609 -0.01030375  0.03085498  0.01170185
 -0.02809956  0.14094082 -0.12006327  0.14044316  0.03332341  0.08620954
  0.02237008 -0.01457878 -0.07630682 -0.05865422  0.06113317 -0.18259345
  0.19220592  0.19132684  0.03338799  0.08363054  0.07961071  0.02196501
 -0.00187439 -0.00409034 -0.25217903  0.00653045  0.1605211  -0.01012347
  0.05878289 -0.02626428]