[-0.07207842  0.04869013  0.04163388 -0.00749184 -0.07334828 -0.08641231
  0.0448315  -0.17118983  0.18367067 -0.1187427   0.21614812 -0.05502269
 -0.22078763 -0.14014725  0.02834863  0.21599345 -0.14424513 -0.17344205
 -0.04416697 -0.01709083  0.04154925 -0.03393888  0.04596344  0.06214715
 -0.14356212 -0.35297614 -0.10846677 -0.08927807 -0.03737608 -0.02882501
 -0.07990097  0.10599919 -0.14554493 -0.09082966  0.07644373  0.0504407
 -0.01348346 -0.07952783  0.21499096 -0.00414297 -0.28628913  0.00941118
  0.1048209   0.23876901  0.17598222 -0.01880682  0.02646787 -0.10547731
  0.18363865 -0.14949335 -0.00350435  0.10663225  0.09096742  0.06037524
  0.02461305 -0.1070676  -0.0032127   0.12167334 -0.15170729 -0.01254925
  0.07829415 -0.09762476 -0.0709895  -0.07675873  0.15720645  0.07334157
 -0.11473229 -0.15042895  0.10150965 -0.16651995 -0.06802117  0.05174414
 -0.1953944  -0.20500842 -0.2865507  -0.0108757   0.33508235  0.10252829
 -0.18098612  0.02093563 -0.01029088  0.04859182  0.12825422  0.19212741
  0.0421514   0.05845496 -0.05654382 -0.02360229  0.20977233 -0.07777452
 -0.0178962   0.25300735 -0.00231533  0.09378698 -0.00268567  0.0080622
 -0.03976951  0.03423377 -0.15757172 -0.00692646  0.02891293  0.00901925
  0.03001652  0.07583507 -0.17738369  0.08797789  0.02228373  0.08111348
  0.02957285  0.01212721 -0.05475259 -0.09668072  0.04690146 -0.21365677
  0.15977892  0.2010614  -0.0020051   0.08185045  0.04794433  0.03271683
  0.00734731 -0.02254899 -0.16752878 -0.0027807   0.13794997 -0.01037803
  0.04405182 -0.04711096]