[-1.01282917e-01  1.46510378e-01  8.55922848e-02 -3.77660282e-02
 -4.39642891e-02 -3.18236016e-02  2.02377588e-02 -7.68416747e-02
  2.07679257e-01 -8.62079561e-02  2.42209777e-01  8.89765006e-03
 -1.93451867e-01 -1.53680950e-01  7.12948591e-02  1.50029525e-01
 -1.77324474e-01 -1.24452524e-01 -5.79254404e-02 -9.87061113e-02
  1.77767202e-02 -1.49860582e-03  1.78980585e-02  3.61624248e-02
 -1.25259534e-01 -2.89228410e-01 -9.99905765e-02 -9.08754095e-02
  7.16529563e-02 -6.44835457e-02  6.30539318e-04  7.51465186e-02
 -2.00751215e-01 -1.16845839e-01  8.58264137e-03  5.24217971e-02
 -6.40534386e-02 -4.96825986e-02  1.75391242e-01  4.83980216e-02
 -1.31115779e-01 -4.64543700e-02 -2.60843392e-02  2.83693075e-01
  2.23150641e-01  1.34680914e-02 -1.00670718e-02 -2.63916012e-02
  9.04957354e-02 -1.93493918e-01  3.01659107e-04  1.65310740e-01
  1.49680957e-01  7.54323825e-02  5.04687391e-02 -1.42405078e-01
  2.32595839e-02  7.38418102e-02 -1.76180631e-01 -2.07614750e-02
 -2.70152721e-03 -1.11948989e-01 -2.87492126e-02 -6.22353218e-02
  2.03476235e-01  9.55693349e-02 -5.25177978e-02 -1.40835464e-01
  2.17976123e-01 -8.85636806e-02 -6.80769682e-02  6.15037680e-02
 -1.67660937e-01 -1.28361419e-01 -2.83242792e-01  2.18461882e-02
  3.72065902e-01  1.22019723e-01 -1.76316723e-01 -1.08714020e-02
 -1.14362620e-01 -1.33652780e-02  2.19006627e-03  6.40022382e-02
 -9.60193053e-02 -2.92722341e-02 -3.75401154e-02  2.20976654e-03
  1.50732964e-01 -3.33717167e-02 -7.86137134e-02  1.63001388e-01
 -1.08235916e-02  2.85460558e-02  2.95496490e-02 -1.04350008e-01
 -1.90541353e-02  2.52856258e-02 -1.39780790e-01 -6.04663491e-02
  3.84788471e-03 -1.26045749e-01  5.18877059e-03  1.44356683e-01
 -2.25440696e-01  1.41174659e-01  7.32180625e-02 -5.48139680e-03
 -1.82714649e-02  6.11920170e-02 -1.37646317e-01 -2.30631940e-02
  1.72261074e-01 -2.26997599e-01  2.42549375e-01  2.37146959e-01
 -6.19447615e-04  1.21692002e-01  5.83943799e-02  9.27395150e-02
 -4.49319035e-02 -2.19679978e-02 -1.08745672e-01 -6.54963180e-02
  6.55019730e-02 -2.56021079e-02  5.23787402e-02  2.16879826e-02]