[-0.1503558   0.12732969  0.08446079 -0.07381547 -0.113642   -0.0406233
 -0.04681399 -0.12648658  0.17657022 -0.05471785  0.27598232 -0.04621476
 -0.21722786 -0.05753566 -0.03635447  0.21986461 -0.16261916 -0.11243675
 -0.03613863  0.03277915  0.072903   -0.06740895  0.08521929  0.03433978
 -0.08696537 -0.39613    -0.08832728 -0.03220913  0.01689517 -0.01397507
 -0.04972927  0.06202845 -0.20842512 -0.08594117  0.05744618  0.15148841
 -0.11216231 -0.11919969  0.18597175 -0.05436897 -0.27122483 -0.05500894
  0.04741226  0.23349147  0.20398884  0.01124239  0.06958413 -0.15539835
  0.12818277 -0.17275552  0.06784948  0.12841375  0.05130442  0.03018818
  0.0770271  -0.12099482  0.04495395  0.17678678 -0.15129223 -0.08701196
  0.07801195 -0.0609949  -0.00895865 -0.16089015  0.21760236  0.13684039
 -0.07929305 -0.1779058   0.17344366 -0.05410324 -0.00193981  0.09614179
 -0.18182142 -0.21883221 -0.28392211 -0.03505275  0.38555446  0.10121037
 -0.11631601  0.04667329 -0.04777752 -0.01502541  0.09348945  0.14463854
  0.00847242  0.06766158 -0.10000199  0.01317484  0.20609747 -0.11445502
 -0.01921397  0.19260471 -0.02261079  0.01081315  0.01303346  0.00663566
 -0.09440952  0.08360159 -0.19726391 -0.07747146  0.01125745  0.00150442
  0.01045026  0.08807249 -0.17427868  0.04959305  0.02545482  0.07724315
  0.01501816 -0.09517015 -0.06693503 -0.08619211  0.10109414 -0.23708212
  0.17331529  0.14364034  0.01230194  0.11985731  0.10621498  0.06146193
  0.02097556 -0.06133328 -0.18870026  0.05076173  0.1103462   0.01870043
  0.07229137  0.00273412]