[-1.20050848e-01  9.51153859e-02  4.96924482e-02 -6.44046962e-02
 -9.62999985e-02 -6.99199438e-02 -3.91465425e-03 -1.06978275e-01
  1.24360539e-01 -7.24592432e-02  2.24504948e-01 -1.08142331e-01
 -2.31276199e-01 -1.08941771e-01 -2.45485995e-02  2.22794607e-01
 -1.88540101e-01 -1.37936220e-01 -5.00851348e-02  4.57719266e-02
  1.20878279e-01  1.34863108e-02 -4.36514197e-03  2.60125883e-02
 -1.10758863e-01 -3.70678872e-01 -8.58570561e-02 -4.55281250e-02
 -6.63505122e-02 -6.87699988e-02 -4.80703451e-02  7.41119087e-02
 -1.72162190e-01 -1.11260392e-01  4.75969464e-02  6.54010996e-02
 -9.01558250e-03 -7.32625350e-02  1.77729174e-01  7.36598810e-03
 -2.76122868e-01  3.83673646e-02  9.90142375e-02  2.47542500e-01
  1.71758682e-01  3.86602059e-03  2.53526773e-02 -1.25399634e-01
  1.24489106e-01 -1.96723923e-01 -2.55616810e-02  1.25102952e-01
  4.71687578e-02  6.15003593e-02 -1.17621226e-02 -1.23385668e-01
  2.85361651e-02  1.00784495e-01 -1.57831535e-01 -3.02902404e-02
  1.27390996e-01 -8.79005417e-02 -2.22637933e-02 -8.68700072e-02
  1.78765878e-01  4.57537472e-02 -1.18646957e-01 -1.72809631e-01
  8.93789232e-02 -1.01795472e-01 -5.92635646e-02  3.92187946e-02
 -1.72959387e-01 -1.77193850e-01 -3.07884306e-01 -1.34172859e-02
  3.83838713e-01  5.36661334e-02 -1.74827382e-01  3.65293436e-02
 -7.95822889e-02  2.19364222e-02  1.21943213e-01  1.45540819e-01
  4.50011604e-02  5.90021424e-02 -8.63091797e-02  2.48865690e-02
  2.08512098e-01 -6.85575530e-02 -7.59415701e-03  2.30902910e-01
  2.38801837e-02  9.58942994e-02  3.28878053e-02  3.21536064e-02
 -4.53628264e-02  5.14554754e-02 -1.21895753e-01  4.72263880e-02
  1.32147933e-03 -4.92212884e-02  1.21081481e-02  1.22658364e-01
 -1.40599847e-01  1.24546580e-01  2.34929118e-02  8.89262781e-02
 -7.19017396e-03 -8.40016175e-03 -5.12533300e-02 -6.32397309e-02
  6.69207945e-02 -2.04078630e-01  1.51679561e-01  1.88005507e-01
  1.34958802e-02  8.26749355e-02  8.85746703e-02  6.01728633e-02
 -2.29329672e-02  8.56759120e-03 -2.24630520e-01  1.13619370e-02
  1.01759352e-01  4.60355077e-03  6.99137151e-02  2.11330509e-04]