[-0.12104844  0.1182605   0.0625456  -0.03971522 -0.14681675 -0.02298527
 -0.04737406 -0.1058259   0.13180663 -0.02542779  0.21059063 -0.04542912
 -0.22227326 -0.07194978 -0.00618414  0.1408966  -0.12462898 -0.10805267
 -0.04883734 -0.0557081   0.05984262  0.05233612  0.04825027  0.05529847
 -0.14177716 -0.25831625 -0.09902209 -0.06512033  0.07749847 -0.09522085
 -0.04867299  0.02380894 -0.11056603 -0.09616936  0.08307598  0.05903227
 -0.04697583 -0.07638159  0.20512596 -0.03090603 -0.20152335  0.0156292
  0.08727234  0.28837249  0.20058496  0.01659545  0.03810661 -0.12136177
  0.16426294 -0.11184611  0.10933719  0.14501041  0.16191979  0.06577312
  0.03541398 -0.14169328  0.01418813  0.20098448 -0.13282576  0.04504026
  0.13042192 -0.04983723 -0.01253954 -0.07394652  0.15192527  0.04315543
 -0.10597481 -0.20073822  0.09053164 -0.09466141 -0.11637123  0.07186764
 -0.19916987 -0.13928007 -0.29393649  0.00867757  0.37274784  0.08359809
 -0.20868765  0.02034655 -0.01864331  0.01485207  0.0709713   0.10823794
 -0.07923323 -0.03295871 -0.08166828 -0.00942218  0.20418744 -0.05828806
 -0.05265313  0.15633266  0.06795489  0.04119126  0.04090387  0.02833109
 -0.08688571  0.03244124 -0.12274469 -0.02274174  0.00500635 -0.06403483
  0.02083683  0.09713379 -0.20340465  0.21538197  0.07140257  0.0583182
 -0.02829389 -0.00338028 -0.10507169  0.00109594  0.15574174 -0.2257612
  0.20625186  0.15776382  0.10384786  0.11643445  0.11106026  0.06342527
  0.02529298  0.03812725 -0.11026906 -0.04423257  0.10134553 -0.05930225
  0.11574041  0.05517369]