[-0.06556382  0.10368192  0.01363542 -0.03705    -0.05742931 -0.09923477
 -0.01626277 -0.16232213  0.17203802 -0.0997696   0.1806512  -0.02672279
 -0.19104873 -0.10566779 -0.00898758  0.22814479 -0.210555   -0.143904
 -0.05961698  0.01547186  0.11415847  0.0167866   0.05612908  0.05368659
 -0.1264551  -0.34277704 -0.10046443 -0.06632752 -0.00634704 -0.02654283
 -0.09637123  0.08114354 -0.16623633 -0.10387988  0.06645285  0.04794563
 -0.04859107 -0.10401177  0.19013791  0.00981013 -0.28714636  0.07402507
  0.07575738  0.23174267  0.21194497 -0.00916802  0.05240974 -0.15307768
  0.17497317 -0.19638185  0.00473966  0.08918523  0.05525009  0.06217121
  0.0219133  -0.1528811  -0.00688764  0.14433844 -0.13406444 -0.01277036
  0.07682738 -0.07396327 -0.0452351  -0.07812709  0.16763528  0.10529701
 -0.10778213 -0.18149644  0.12429488 -0.12680279 -0.07887394  0.06478295
 -0.16616186 -0.19156702 -0.27653241 -0.03311518  0.35993558  0.07373813
 -0.1858076   0.0263151  -0.03744244  0.05373619  0.15246405  0.16854452
  0.0257732   0.03021733 -0.07960708 -0.01419798  0.25164077 -0.07546105
 -0.05661464  0.24659927  0.03070258  0.11505497  0.01632248  0.01459087
 -0.05920873  0.04622341 -0.18729237 -0.01441721  0.02711741  0.02013222
 -0.02996501  0.13986936 -0.12132498  0.11731771  0.0267504   0.0840492
  0.02373055 -0.00615465 -0.07054067 -0.06774542  0.04660693 -0.18341365
  0.19524813  0.19498762  0.03164149  0.0792952   0.07028624  0.02245937
  0.00922914 -0.01266279 -0.25071615  0.01253113  0.17482807 -0.00473196
  0.04435053 -0.03715166]