[-0.12714118  0.10161479  0.0468917  -0.05883218 -0.09843387 -0.06214235
 -0.00959934 -0.10926013  0.13076697 -0.07083963  0.23161899 -0.09784742
 -0.22587934 -0.1030471  -0.03201851  0.2182828  -0.18490216 -0.13998072
 -0.04139021  0.04574862  0.12530939  0.01025869 -0.00889747  0.02180603
 -0.11470137 -0.35513011 -0.08523045 -0.04022018 -0.06683026 -0.07523476
 -0.04826642  0.07204982 -0.17370759 -0.10569695  0.04339439  0.06169384
 -0.01689063 -0.07386269  0.1810554   0.00387832 -0.26928344  0.03997371
  0.09088475  0.25006658  0.16422558 -0.00588709  0.02810773 -0.13173488
  0.12018783 -0.18515725 -0.03441248  0.13694632  0.04771178  0.05860827
 -0.01730291 -0.12639199  0.02541925  0.09358158 -0.14007969 -0.02709956
  0.12311164 -0.08623575 -0.02285155 -0.08986159  0.18076426  0.04237863
 -0.11136942 -0.18006474  0.10063129 -0.08746647 -0.06532804  0.04246378
 -0.18047439 -0.18705803 -0.3008818  -0.01349211  0.38696694  0.05319686
 -0.17516819  0.05437705 -0.08307762  0.02337743  0.11257859  0.15147321
  0.03926065  0.07253959 -0.08929028  0.02962015  0.21333034 -0.06984898
 -0.012222    0.22941041  0.03069297  0.09674121  0.03985441  0.02287864
 -0.03597802  0.04919724 -0.12372277  0.03788565  0.00523399 -0.05164919
  0.01681097  0.13226603 -0.13531338  0.12266568  0.02819001  0.09825262
 -0.00958495  0.00412333 -0.04872487 -0.06561639  0.06495846 -0.20439032
  0.15174086  0.17959678  0.02051225  0.08030599  0.09514345  0.06746394
 -0.02231606  0.01779786 -0.22087668  0.01578771  0.09391773  0.01085559
  0.07009352  0.00932886]