[-0.10586567  0.13134994  0.06408348  0.01776186 -0.04889375 -0.0703458
 -0.03112805 -0.1564894   0.1532588  -0.10006078  0.18651347 -0.00408755
 -0.21529578 -0.08202761 -0.02701206  0.16165511 -0.17364584 -0.08784705
 -0.06904229 -0.04534323  0.10674336  0.08586185  0.06258336 -0.01467316
 -0.10041025 -0.30166122 -0.11131998 -0.02777317  0.05099823  0.00965311
 -0.0539348   0.02677097 -0.15351227 -0.12386861  0.08643642  0.08136439
 -0.03489017 -0.06434294  0.19047944  0.03962298 -0.18481366  0.02740378
  0.04795414  0.25670567  0.23303357  0.01272463  0.00714868 -0.14716569
  0.10095469 -0.14032258  0.02745687  0.16416878  0.09921114  0.09598314
  0.05097144 -0.12767807  0.01713011  0.09357721 -0.10866218 -0.00680538
  0.10134657 -0.07326204  0.0161238  -0.04541266  0.11446979  0.01259953
 -0.09034311 -0.18298501  0.12301513 -0.15119193 -0.11288366  0.02275897
 -0.1684218  -0.14259659 -0.33815327 -0.01999484  0.39481342  0.1143023
 -0.16734722  0.01834038 -0.04638962 -0.03003207  0.08815511  0.13730794
 -0.03700392  0.00807535 -0.04834401 -0.00726511  0.20385757 -0.0262818
 -0.10410693  0.21720865  0.00970682  0.06281373  0.06281536  0.01149917
 -0.06727634  0.00636701 -0.1520229  -0.05146715  0.02039938 -0.11111653
  0.02283173  0.1674207  -0.18193701  0.15397198  0.00851424  0.05289242
  0.02091394  0.0221108  -0.15152279 -0.01509672  0.15148357 -0.1574067
  0.21740077  0.22370949  0.04398983  0.09385574  0.12212399  0.08207899
 -0.01097422  0.05479657 -0.14721565 -0.08449947  0.02270285 -0.0051654
  0.09585265  0.03161539]