[-0.2133631   0.08892656  0.07739633 -0.11645517 -0.07903995 -0.04780436
 -0.02680224 -0.15394188  0.1440123  -0.09296191  0.25459942 -0.13405573
 -0.24435225 -0.05537701 -0.05156813  0.27790651 -0.21413784 -0.1425709
 -0.04103124  0.00648209  0.06755223  0.0030791   0.00356333  0.02594024
 -0.06176979 -0.37405038 -0.10942644 -0.04589039 -0.06678522 -0.00512722
  0.00147852  0.10277048 -0.1763109  -0.01666018  0.03128712  0.13034192
 -0.02439839 -0.13385899  0.11135536 -0.03680066 -0.25427163 -0.01226167
  0.1263437   0.24469645  0.18060289  0.0049411  -0.02282388 -0.11993517
  0.08648849 -0.16023974 -0.07530423  0.0838252   0.03220145  0.03650297
  0.04816967 -0.17028336  0.09731901  0.07397845 -0.16353045 -0.077838
  0.0770871  -0.1528521  -0.0069971  -0.12525429  0.2159531   0.09627405
 -0.11920121 -0.12648873  0.15443558 -0.03359475 -0.00267054  0.03884126
 -0.2066429  -0.2144569  -0.28839427 -0.0332428   0.34876749  0.05788738
 -0.15984669  0.05519127  0.03607794  0.03862058  0.1337399   0.20694707
  0.03228739  0.00360545 -0.14179353  0.01035878  0.17721465 -0.10644843
  0.0018263   0.20619093 -0.05139349  0.01796697 -0.00930841  0.04617546
 -0.07599004  0.07579326 -0.15668452  0.00106439  0.01872886 -0.01699906
 -0.03139456  0.08651406 -0.09569534  0.04088916  0.05159074  0.05585017
 -0.05972446 -0.08776018 -0.00296974 -0.00971139  0.07161858 -0.19433546
  0.16985999  0.18249011 -0.01497112  0.14493494  0.08197007  0.07488835
 -0.03767959 -0.02786014 -0.21619205  0.0082799   0.09080114  0.01215778
  0.06476866  0.02172018]