[-0.13041906  0.06252769  0.00526683 -0.02506987 -0.09380772 -0.07680563
  0.01194361 -0.12394335  0.14313279 -0.08779012  0.21151762 -0.07536471
 -0.22332136 -0.12858246 -0.00746663  0.21732973 -0.19328435 -0.13675354
 -0.04279901  0.04975438  0.10887378 -0.02117568 -0.00528897  0.06504614
 -0.11761717 -0.38543707 -0.10143901 -0.05267512 -0.03609312 -0.06614127
 -0.06276736  0.0770943  -0.17609566 -0.11714848  0.03348297  0.04787156
 -0.03181859 -0.06701704  0.17795581  0.0147726  -0.27823403  0.00042917
  0.09345572  0.24858366  0.17122722  0.03582871  0.06033896 -0.14481702
  0.11609425 -0.17660201 -0.00226934  0.11288588  0.07100697  0.06383085
 -0.0103943  -0.14747509  0.00799167  0.10620387 -0.12919749 -0.00320673
  0.10655685 -0.06792951 -0.03419664 -0.06040347  0.19714238  0.0535568
 -0.10145318 -0.16216911  0.14102665 -0.12901695 -0.08188932  0.02995808
 -0.16158047 -0.21595223 -0.32755843 -0.01768604  0.37204254  0.0936124
 -0.16383873  0.03467978 -0.07160669  0.03984889  0.16065237  0.17976986
  0.03605286  0.03362365 -0.07358015  0.01927946  0.20839266 -0.05141982
 -0.01506065  0.21249118  0.04223638  0.08495134  0.01931241  0.01781266
 -0.03387278  0.07599684 -0.12057688  0.02322209  0.03925927  0.00363508
  0.04304091  0.13443713 -0.1366677   0.12146454  0.04196782  0.08913936
  0.03412137  0.01080254 -0.07334187 -0.08299979  0.03971751 -0.21390302
  0.17252921  0.19895463  0.01478904  0.09128257  0.07937574  0.0742743
  0.00148119 -0.01480555 -0.24447282  0.03493583  0.12646644 -0.00482001
  0.05916351 -0.00934781]