[-9.70403478e-02  8.97262767e-02  1.23339659e-02 -2.24683639e-02
 -7.00147152e-02 -8.97220001e-02 -8.91789608e-03 -1.66816756e-01
  1.55306667e-01 -1.15087144e-01  1.84519038e-01 -9.77254193e-03
 -1.95038229e-01 -1.22663103e-01  1.32691804e-02  1.99675232e-01
 -1.68053776e-01 -1.30673751e-01 -7.00914934e-02  1.47200739e-02
  1.12225115e-01  3.03704888e-02  6.10300116e-02  2.52222568e-02
 -1.20495752e-01 -3.36333364e-01 -1.03894256e-01 -5.70593663e-02
  5.73517010e-03 -2.86471136e-02 -9.01167467e-02  8.96141753e-02
 -1.48780480e-01 -9.70019922e-02  5.20718209e-02  5.25299013e-02
 -3.45476083e-02 -5.44375256e-02  1.99877873e-01  8.51047412e-03
 -2.93854952e-01  7.56113306e-02  6.87326267e-02  2.38045529e-01
  2.33797193e-01  2.48105091e-04  4.31023650e-02 -1.56109676e-01
  1.89548314e-01 -1.78627655e-01  3.22105153e-03  1.07122079e-01
  7.17804357e-02  5.25533743e-02  4.04987559e-02 -1.29720733e-01
  7.41354981e-03  1.06004179e-01 -1.36087939e-01 -1.09254159e-02
  8.57481584e-02 -7.37973005e-02 -2.36493256e-02 -5.74888177e-02
  1.48724809e-01  6.93083107e-02 -8.83669108e-02 -1.79237828e-01
  1.20484829e-01 -1.55696630e-01 -9.11207125e-02  7.12959245e-02
 -1.80701703e-01 -1.90061435e-01 -3.04941148e-01 -4.30393815e-02
  3.47849876e-01  9.99737084e-02 -1.85959890e-01  5.24844602e-02
 -3.62742394e-02  3.97858284e-02  1.74836382e-01  1.63098201e-01
  2.12313812e-02  2.52820998e-02 -8.48403573e-02 -2.63979044e-02
  2.51386553e-01 -7.62059614e-02 -5.48008494e-02  2.56819576e-01
  5.82858734e-02  1.17189050e-01  3.37764286e-02  2.18340587e-02
 -5.46436571e-02  1.72659922e-02 -1.78549796e-01 -2.54503787e-02
  2.26036776e-02 -5.91908162e-03  6.39618421e-03  1.38228297e-01
 -1.33579820e-01  1.47054091e-01  1.21447956e-02  1.15334846e-01
  1.79757345e-02  2.04179436e-03 -6.18990026e-02 -6.02870695e-02
  3.80220897e-02 -1.72233254e-01  1.88234434e-01  1.88446507e-01
  2.64365971e-03  7.19165206e-02  8.56080651e-02  4.25236002e-02
 -1.49577474e-02  1.54781584e-02 -2.15483859e-01 -5.98135078e-03
  1.45813957e-01  1.84372521e-03  6.23053275e-02 -1.22359898e-02]