[-0.08658084  0.11221173  0.02170748 -0.01805815 -0.06383665 -0.10728917
 -0.01731143 -0.17686044  0.13665007 -0.09913754  0.17737053 -0.01966049
 -0.20462552 -0.11723923  0.02772117  0.20501688 -0.18735649 -0.14921021
 -0.06092659  0.016409    0.1047395   0.01761837  0.05607469  0.05281637
 -0.11569675 -0.36384016 -0.10086252 -0.05829954 -0.00281304  0.00730323
 -0.07311208  0.09305669 -0.14290145 -0.08347216  0.06453151  0.04348263
 -0.00482342 -0.07562112  0.19791599  0.02168492 -0.31518352  0.07221826
  0.06120446  0.25092372  0.23412295 -0.02758369  0.05638821 -0.11706897
  0.16637701 -0.20488739 -0.01025881  0.10790121  0.04295417  0.02702224
  0.05163373 -0.14540403  0.00215126  0.09723683 -0.16850588 -0.04865929
  0.08378908 -0.09073178 -0.02027047 -0.06829615  0.14780974  0.09024188
 -0.0911751  -0.17241178  0.11856665 -0.15361576 -0.05509606  0.06941696
 -0.17731264 -0.18927538 -0.29677388 -0.01523976  0.36732259  0.11783247
 -0.17426999  0.06337118 -0.03040366  0.04660758  0.1763012   0.16306554
  0.04411655  0.04062765 -0.0875982  -0.00546082  0.21302991 -0.0644094
 -0.05019744  0.26370704  0.03825724  0.10118061  0.0436568   0.02292524
 -0.05566068  0.0219774  -0.18752372  0.000629    0.00329203  0.02103282
  0.01555482  0.12071618 -0.12434818  0.10646664  0.01156114  0.08120235
 -0.01086061 -0.01047081 -0.04846893 -0.05946472  0.02627107 -0.19279103
  0.16364527  0.18356152 -0.00513714  0.08782397  0.06109303  0.00886908
 -0.0070261  -0.02063468 -0.20419545 -0.00132951  0.14583801 -0.00242444
  0.04955397 -0.03049074]