[-0.15359692  0.13147877  0.08604941 -0.13196257 -0.10320691 -0.03006534
 -0.05830822 -0.15905973  0.11599713 -0.0900746   0.28227553 -0.07696998
 -0.23628302 -0.06892281 -0.0385869   0.24504073 -0.24281529 -0.17054348
 -0.01549994  0.01797446  0.06553965  0.02521842  0.0296407   0.01910615
 -0.08729097 -0.36709794 -0.06866402 -0.02277267  0.01857882  0.00227091
 -0.00739065  0.0769678  -0.19897488  0.00296384  0.0437084   0.12357264
 -0.03178848 -0.15228955  0.16165785 -0.048028   -0.30721793  0.02492197
  0.11297845  0.23162603  0.21267715 -0.00792837 -0.01109837 -0.15598896
  0.10636266 -0.1926254   0.02239259  0.11256521  0.01733329  0.01514808
  0.04398813 -0.17381972  0.04635905  0.10246217 -0.17450796 -0.10010155
  0.07917202 -0.10871488  0.05925269 -0.16022035  0.21345638  0.09374046
 -0.10004362 -0.15237401  0.16134839 -0.06573566 -0.03219252  0.09030537
 -0.16248856 -0.17840375 -0.28659642 -0.01258347  0.34175226  0.08614074
 -0.13563143  0.07588212  0.02776127 -0.01301046  0.14130786  0.19503501
  0.04154288 -0.0130027  -0.12667094  0.00873108  0.23514557 -0.09682983
 -0.01097223  0.23934022 -0.02551745  0.0209986   0.01836332  0.05743895
 -0.09106833  0.08390748 -0.17134361 -0.00426038 -0.01582489  0.01116433
 -0.01880933  0.14082241 -0.10758346  0.04276768  0.02890863  0.03907886
 -0.01111103 -0.08917686  0.02101831 -0.07040904  0.05900247 -0.21967769
  0.19498245  0.13859519  0.02757225  0.14100376  0.09857957  0.06539476
 -0.00822008 -0.06770584 -0.21902998  0.01418152  0.11080527 -0.02023265
  0.09370956  0.0381393 ]