[-8.22481662e-02  1.65069759e-01  1.14085570e-01 -2.48138653e-03
 -5.55313788e-02 -7.31464997e-02  2.89237127e-03 -1.00738548e-01
  1.71921596e-01 -9.09425542e-02  2.81328112e-01 -4.93402295e-02
 -1.89095974e-01 -1.26641035e-01  1.26922326e-02  1.50797591e-01
 -1.58436015e-01 -6.80348352e-02 -3.85414809e-02 -1.40315769e-02
  8.07511508e-02  1.60511192e-02  2.25713309e-02  3.16384919e-02
 -6.33225814e-02 -3.09389293e-01 -1.12321652e-01 -7.29623064e-02
  9.20737386e-02 -5.05505092e-02 -8.51717666e-02  8.00608844e-03
 -1.46180779e-01 -1.32229581e-01  1.56404506e-02  2.86451764e-02
 -1.41620459e-02 -4.13382910e-02  1.39979079e-01  1.88800283e-02
 -1.91488847e-01  1.80209277e-03 -3.75297032e-02  2.50474304e-01
  1.99346602e-01  2.95617972e-02 -2.78365915e-03 -1.14105523e-01
  7.82438964e-02 -1.23491041e-01 -1.13418326e-03  1.59688875e-01
  9.47926268e-02  7.04944953e-02 -8.96804035e-03 -1.47110447e-01
 -1.44106364e-02  9.22152922e-02 -1.31650314e-01 -3.01519390e-02
  6.96547627e-02 -6.83447123e-02  1.37744850e-04 -5.46742268e-02
  1.74965188e-01  4.38970104e-02 -9.42483321e-02 -1.81319535e-01
  1.21612363e-01 -1.18937306e-01 -5.38537018e-02  4.06114832e-02
 -1.79982603e-01 -1.32319495e-01 -2.70074308e-01  4.06222753e-02
  3.88469815e-01  1.03249602e-01 -1.76700473e-01  7.63764838e-03
 -1.61767051e-01  3.70795652e-03  6.61311969e-02  1.02199316e-01
 -1.73585843e-02  1.63280349e-02 -6.79917037e-02 -2.86542773e-02
  1.27351031e-01 -8.45785439e-02 -3.17668058e-02  2.02278852e-01
 -3.07829566e-02  9.86418054e-02  6.16551703e-03 -5.87720051e-02
 -6.32190630e-02  7.12171197e-02 -1.05798483e-01 -3.76713201e-02
  1.86228380e-03 -9.32306647e-02  2.39486787e-02  1.27087474e-01
 -2.13200048e-01  1.32823631e-01  6.58429787e-02  6.76693171e-02
  4.88664843e-02  4.52206507e-02 -1.08006470e-01 -7.02417791e-02
  1.56498238e-01 -2.00429827e-01  2.33326748e-01  2.24159271e-01
  6.87967241e-02  1.09911598e-01  1.18000843e-01  8.82183462e-02
 -8.52691662e-03 -8.39430373e-03 -1.32379711e-01  1.82401761e-03
  6.06559701e-02 -3.63458805e-02  4.24416810e-02 -7.38843624e-03]