[-0.1791459   0.11202168  0.10467871 -0.11738606 -0.07635096 -0.03650976
  0.00248518 -0.14746489  0.14794891 -0.08201545  0.26783872 -0.11003287
 -0.25705251 -0.06341528 -0.03258741  0.24598782 -0.1474167  -0.11449649
 -0.04433872  0.01766083  0.07730233 -0.03809537  0.03925371  0.05202853
 -0.05157465 -0.36655125 -0.11981615 -0.04600227 -0.04547886 -0.05614523
  0.00574507  0.07814892 -0.19983253 -0.003478   -0.01574627  0.1429873
 -0.05864664 -0.12540533  0.13210924 -0.02050822 -0.25443274 -0.04132685
  0.04801984  0.19445723  0.1524273   0.01617498  0.01724012 -0.12539473
  0.09499929 -0.15978733  0.01195233  0.09393623  0.05576804  0.00782068
  0.03585002 -0.18253455  0.05774686  0.09232295 -0.18249485 -0.04842457
  0.06068349 -0.12999234 -0.04318167 -0.1173162   0.19390734  0.14750499
 -0.09843334 -0.11738684  0.22457929 -0.04178874  0.04837939  0.08463263
 -0.19265188 -0.22418998 -0.22376561 -0.00237977  0.34696954  0.05388714
 -0.16456412 -0.00250935 -0.0397023   0.03781989  0.08589976  0.16350947
  0.0210907   0.01841613 -0.14382952  0.01495897  0.16909496 -0.1264111
  0.0063833   0.2340138  -0.04035252  0.02234393 -0.01207922  0.00999166
 -0.07372022  0.06653801 -0.15325966 -0.03752504  0.013039   -0.05237236
 -0.06084237  0.05916539 -0.12735751  0.05697304  0.05803541  0.03263552
 -0.04013083 -0.09023684 -0.05207077 -0.05386319  0.12027911 -0.18744543
  0.18353891  0.16757117 -0.02852491  0.1346588   0.08602097  0.12716463
  0.00138102 -0.10035992 -0.19901718  0.0337538   0.12321615  0.00449993
  0.03040476  0.002561  ]