[-0.09115355  0.11914331  0.06048638  0.01929193 -0.05856131 -0.06425457
 -0.02124896 -0.13218543  0.16479121 -0.10208918  0.19562165 -0.01241592
 -0.24045871 -0.08200274 -0.03171886  0.15564676 -0.17988515 -0.0758659
 -0.0628046  -0.04502075  0.11096984  0.07122725  0.04727167 -0.01501306
 -0.09642699 -0.29987353 -0.10799447 -0.03466045  0.03889525 -0.00717874
 -0.06096537  0.04133723 -0.16144179 -0.13783728  0.07245999  0.07114732
 -0.02153177 -0.05848891  0.19821823  0.04721445 -0.17644064  0.00550364
  0.03592963  0.25279391  0.21334152 -0.00892041 -0.00772881 -0.13339572
  0.09146109 -0.13871723  0.00121247  0.17824501  0.11073086  0.09816776
  0.03752988 -0.12721367  0.01248779  0.1057437  -0.12995796 -0.00951917
  0.08671901 -0.08628352  0.01439996 -0.04428582  0.12924394  0.02467151
 -0.08401146 -0.19629177  0.13601878 -0.1429842  -0.10435501  0.02797566
 -0.1698162  -0.14064749 -0.33140299 -0.02449625  0.37546155  0.11133387
 -0.17101541  0.01061339 -0.07886882 -0.05300865  0.07863268  0.12725793
 -0.02872423  0.03468499 -0.0446001   0.01106027  0.18492895 -0.02815468
 -0.09518775  0.2215199   0.00480596  0.06578406  0.06576645 -0.00637702
 -0.06908055  0.00406848 -0.16412443 -0.05170866  0.01887541 -0.12394098
  0.03377974  0.16811816 -0.17437898  0.1232566   0.00931264  0.03980418
  0.00600389  0.00751749 -0.15142819 -0.01520567  0.16600789 -0.16771026
  0.21854417  0.2089951   0.03991399  0.08481917  0.11147165  0.07065287
 -0.02028531  0.02440026 -0.14914568 -0.06566864  0.02416248 -0.00598292
  0.09671491  0.0159166 ]