[-0.15066792  0.15198343  0.07577844 -0.03037645 -0.14877243  0.02154134
 -0.00372423 -0.09534115  0.17407668 -0.01872182  0.17993416 -0.01027052
 -0.23065506 -0.05967784  0.00260433  0.14055954 -0.14555132 -0.14244144
 -0.0119505  -0.12204697  0.0645875   0.08371588  0.01990626  0.08188
 -0.17369197 -0.28799921 -0.0846071  -0.06368303  0.03514787 -0.09214478
 -0.00648632  0.03368528 -0.0973979  -0.02957803  0.07627224  0.0799172
 -0.0862589  -0.0801844   0.18988937 -0.00856538 -0.14872314  0.02280197
  0.06623661  0.33584601  0.18296453  0.0081257   0.02427763 -0.09790363
  0.15262997 -0.16756216  0.13761894  0.17086653  0.15607439  0.06760319
  0.06159436 -0.13530833 -0.0226418   0.19906658 -0.15920289  0.08425713
  0.10123844 -0.10335934 -0.00376706 -0.08785119  0.16177964  0.11677821
 -0.11352407 -0.15163945  0.08237318 -0.11567308 -0.13450359  0.02812207
 -0.17443386 -0.16927312 -0.28757271  0.0724776   0.39312264  0.13568161
 -0.19956578 -0.01647979  0.01275927  0.06199037  0.08888146  0.12061403
 -0.15078872 -0.07865747 -0.086387    0.03725752  0.18922642 -0.01949129
 -0.09968219  0.19322084  0.05862455  0.04572332  0.03289142  0.00324593
 -0.06359494  0.03162608 -0.10594627 -0.01595885 -0.00240877 -0.07318863
  0.04071678  0.10352373 -0.19842616  0.19031189  0.06250908  0.03051335
 -0.036148    0.02063278 -0.14848009  0.00974719  0.15408622 -0.25077814
  0.22543156  0.15576868  0.07755867  0.1760758   0.08486819  0.06303766
  0.02665942 -0.01584338 -0.06572839 -0.01204697  0.1281292  -0.03041368
  0.11565938  0.06325946]