[-1.58924699e-01  1.13500856e-01  6.22967184e-02 -4.11439501e-02
 -1.47677049e-01 -1.42270168e-02 -5.57114196e-04 -8.06609914e-02
  1.55671060e-01 -4.10480751e-03  1.65252015e-01 -1.25976652e-03
 -2.30727479e-01 -1.06606238e-01  1.63070988e-02  1.29573107e-01
 -1.28096551e-01 -1.30720213e-01 -3.12658511e-02 -1.16433106e-01
  6.65670708e-02  8.27499256e-02  1.81001443e-02  8.21768939e-02
 -1.79717898e-01 -2.84548134e-01 -9.27155912e-02 -7.28640929e-02
  3.12299076e-02 -8.74778926e-02 -8.94364994e-03  4.41838987e-02
 -1.05419867e-01 -5.65913320e-02  9.16331112e-02  8.70882422e-02
 -7.60690570e-02 -6.93551674e-02  1.84083387e-01 -2.94363629e-02
 -1.70136154e-01  1.52757084e-02  6.98400661e-02  3.05409700e-01
  1.75245404e-01  1.78640615e-02  3.95743363e-02 -7.73890764e-02
  1.73229024e-01 -1.44169495e-01  1.18300058e-01  1.66811958e-01
  1.54104933e-01  4.40483131e-02  6.19748645e-02 -1.37359798e-01
 -1.64342057e-02  2.08932981e-01 -1.73168734e-01  7.22981840e-02
  8.54389071e-02 -1.33983716e-01 -2.98318155e-02 -8.15960243e-02
  1.38025790e-01  8.39915052e-02 -1.17508806e-01 -1.73453376e-01
  1.09866813e-01 -1.30564630e-01 -1.03080407e-01  6.13181591e-02
 -1.73608288e-01 -1.68300852e-01 -2.85030931e-01  6.63143992e-02
  3.88137102e-01  1.31028339e-01 -1.89689860e-01  1.06441765e-03
 -1.81391646e-04  5.99201992e-02  7.41671845e-02  1.19401097e-01
 -1.27075106e-01 -4.84976210e-02 -9.53671411e-02  2.98747998e-02
  1.83372542e-01 -1.77525189e-02 -7.78200254e-02  1.86142653e-01
  7.05013499e-02  6.53602108e-02  2.76288334e-02 -1.43277971e-02
 -7.00076595e-02  2.10393276e-02 -8.03144276e-02  2.67006084e-03
  2.05136277e-02 -7.64842033e-02  4.92565446e-02  9.24393758e-02
 -1.64849073e-01  1.94278896e-01  5.33569865e-02  4.76638637e-02
 -5.61129637e-02  6.08007936e-03 -1.30563647e-01  2.89480179e-03
  1.36756092e-01 -2.46870309e-01  2.23980233e-01  1.52922839e-01
  7.15122744e-02  1.66656122e-01  8.18119869e-02  5.13757356e-02
  2.40858942e-02 -2.48013567e-02 -8.81116316e-02 -2.47242060e-02
  1.35396600e-01 -5.48268743e-02  1.33027032e-01  4.66332100e-02]