[-8.99624452e-02  1.71804219e-01  1.01467013e-01 -1.20986179e-02
 -7.06630573e-02 -5.33601828e-02  5.94557542e-03 -1.10004462e-01
  1.76208422e-01 -8.94485116e-02  2.44428709e-01 -4.48278785e-02
 -2.18613610e-01 -1.48573637e-01  1.54858800e-02  1.75447494e-01
 -1.63559869e-01 -1.02166690e-01 -2.72037834e-02 -1.10494522e-02
  8.81933793e-02  1.52808353e-02  2.91749872e-02  2.53429171e-02
 -5.59958331e-02 -3.20149362e-01 -9.38130543e-02 -6.07372411e-02
  6.86544627e-02 -4.51538675e-02 -8.67828801e-02  2.43379828e-02
 -1.63336799e-01 -1.49811253e-01  3.15222740e-02  6.68417141e-02
 -2.73313615e-02 -5.75639307e-02  1.40985593e-01  1.93966143e-02
 -1.87032342e-01  1.79468747e-02 -8.66415165e-03  2.58742481e-01
  2.18404889e-01  4.22833934e-02  9.04435664e-03 -1.17994905e-01
  1.04417101e-01 -1.20055273e-01  1.60043091e-02  1.46253183e-01
  1.18389882e-01  5.56599870e-02  1.94366872e-02 -1.48588330e-01
  3.20312264e-03  8.55816826e-02 -1.35799631e-01 -1.71626266e-02
  8.76921266e-02 -6.67509288e-02 -4.81982715e-04 -5.87460510e-02
  1.74162477e-01  1.99165158e-02 -8.16798285e-02 -1.78522140e-01
  1.40439779e-01 -1.17924444e-01 -8.20432231e-02  3.19995768e-02
 -1.85293317e-01 -1.22548059e-01 -2.89280117e-01  3.15914154e-02
  3.83139223e-01  9.81122777e-02 -1.78034469e-01  9.08417907e-03
 -9.05226693e-02  7.55343912e-03  7.21205398e-02  1.35798052e-01
 -2.46105343e-02  6.68195961e-03 -7.00573102e-02 -3.39078084e-02
  1.50293484e-01 -6.11989312e-02 -5.74051924e-02  2.06964448e-01
 -1.17593454e-02  7.66350999e-02  2.21260991e-02 -6.14785925e-02
 -4.06289697e-02  7.09102675e-02 -1.30097851e-01 -4.84873317e-02
  1.39513388e-02 -1.15298890e-01  7.44691724e-03  1.37844250e-01
 -2.10811093e-01  1.04707681e-01  3.59291397e-02  7.97427222e-02
  3.05569321e-02  2.63070259e-02 -1.31080404e-01 -4.70506921e-02
  1.45330504e-01 -2.01071724e-01  2.27061272e-01  2.33796820e-01
  6.02205098e-02  8.47857594e-02  1.17758028e-01  8.63155127e-02
  2.32482310e-02  2.37473098e-04 -1.44676045e-01 -3.28094363e-02
  7.47467801e-02 -3.14738676e-02  6.83136508e-02  1.65772047e-02]