[-6.10038750e-02  8.07333291e-02  1.37041733e-02 -6.22351468e-03
 -7.45730177e-02 -7.13441297e-02 -2.58891340e-02 -1.74936980e-01
  1.73446462e-01 -1.35660440e-01  1.95479855e-01  9.34704021e-03
 -1.86230958e-01 -1.09876849e-01  8.26200657e-03  1.89841017e-01
 -1.80415407e-01 -1.51297316e-01 -6.95869401e-02  2.14711484e-02
  8.64438340e-02  4.45801318e-02  5.09621799e-02  3.72453630e-02
 -1.30658910e-01 -3.63506526e-01 -1.05683021e-01 -5.38276210e-02
  9.28892847e-03 -2.32884148e-03 -1.17598347e-01  1.00658141e-01
 -1.33861482e-01 -1.07436411e-01  5.72656468e-02  5.98338060e-02
 -1.43683003e-02 -6.44750446e-02  1.89853594e-01  2.32096724e-02
 -3.02754194e-01  8.52943510e-02  4.79917489e-02  2.63612002e-01
  2.34566674e-01 -2.97899079e-02  5.30138128e-02 -1.40663356e-01
  1.69392303e-01 -2.06168085e-01 -8.08182545e-03  9.71960947e-02
  5.89997731e-02  4.60340641e-02  3.32152545e-02 -1.40761361e-01
 -4.01296020e-02  1.43370733e-01 -1.26583993e-01 -1.74120273e-02
  6.43169358e-02 -7.59745836e-02 -2.23250967e-02 -7.72770345e-02
  1.39277607e-01  1.01035945e-01 -1.03815816e-01 -1.76733986e-01
  8.91783163e-02 -1.59961492e-01 -8.84797201e-02  5.90565577e-02
 -1.71127722e-01 -1.90903351e-01 -3.04765522e-01 -3.61229070e-02
  3.71136010e-01  9.60902721e-02 -1.99909329e-01  3.36649381e-02
 -2.60600783e-02  4.83911596e-02  1.91881344e-01  1.61716878e-01
  4.62178327e-02  2.99231000e-02 -8.93817768e-02 -1.24219703e-02
  2.37481222e-01 -6.03348613e-02 -4.86130230e-02  2.52846301e-01
  3.62618528e-02  1.23845652e-01  4.76080328e-02  7.05128461e-02
 -5.98617904e-02  3.64649110e-02 -1.97144523e-01  5.11895213e-03
  1.77621990e-02  2.85801943e-02  1.27948364e-02  1.23972140e-01
 -1.10090628e-01  1.38162836e-01  1.44510362e-02  1.04725078e-01
  4.83240001e-02 -1.87850185e-02 -4.60907184e-02 -6.41937256e-02
  5.73206209e-02 -1.91799104e-01  1.50970951e-01  1.85474113e-01
 -1.50704607e-02  1.09167770e-01  7.01213852e-02  1.90295912e-02
 -2.83377152e-02 -6.78986637e-03 -2.36418113e-01 -1.64957353e-04
  1.31251261e-01 -5.74687263e-03  4.33566310e-02 -3.50921713e-02]