[-1.79365948e-01  1.27181545e-01  1.31148770e-01 -9.43553597e-02
 -1.31743416e-01 -2.10672300e-02 -3.64911631e-02 -1.11824803e-01
  1.32680535e-01 -7.15790316e-02  2.54542023e-01 -9.00436640e-02
 -2.52343178e-01 -9.67799202e-02 -1.19073121e-02  2.47656986e-01
 -1.96646512e-01 -1.79294139e-01 -5.63385151e-03 -1.84962805e-02
  9.18125585e-02  2.20437925e-02  4.21633981e-02  5.36350422e-02
 -1.66826054e-01 -3.93362164e-01 -4.83658127e-02 -3.24963294e-02
 -3.59081514e-02 -4.03040610e-02 -5.35185896e-02  1.44817621e-01
 -1.91218659e-01 -2.48521585e-02  4.94320616e-02  1.29327044e-01
 -5.58731258e-02 -1.33209750e-01  1.53844193e-01 -5.48710003e-02
 -2.91842222e-01 -5.17596602e-02  1.15705147e-01  2.47881517e-01
  1.95148349e-01 -2.53749732e-02  2.73782518e-02 -1.06604636e-01
  9.41100791e-02 -1.97758555e-01  2.38288175e-02  1.57828957e-01
  3.92003320e-02  1.11035220e-02  6.64823577e-02 -1.38757840e-01
  1.10746371e-02  1.53597280e-01 -1.62566528e-01 -6.36281073e-02
  4.36304212e-02 -1.57213256e-01  1.10252751e-02 -1.75038382e-01
  1.82006046e-01  1.09996594e-01 -7.35771880e-02 -1.39700070e-01
  1.65753469e-01 -4.83171120e-02 -4.83932570e-02  8.50960761e-02
 -1.87305212e-01 -2.00798973e-01 -3.01482052e-01 -4.22358699e-02
  3.29140514e-01  8.81540999e-02 -1.49436891e-01  6.92335516e-02
  1.81241930e-02  3.44249280e-03  8.77380297e-02  1.78484783e-01
 -1.43620586e-02  3.08599826e-02 -1.13397084e-01  5.37030883e-02
  2.10259989e-01 -8.37743655e-02  3.46744258e-04  2.16006383e-01
 -4.39380249e-03 -2.74502337e-02  3.98067720e-02  2.00276133e-02
 -8.46334919e-02  5.14290296e-02 -1.72075227e-01 -4.72650714e-02
  5.11135114e-03 -4.32559960e-02 -1.27276098e-02  1.25754595e-01
 -1.69031620e-01  3.53110991e-02  3.09897847e-02  2.66600754e-02
 -2.36039795e-02 -8.74915794e-02 -1.53598217e-02 -7.02541620e-02
  7.02197924e-02 -2.08248883e-01  1.32369041e-01  1.58467144e-01
  2.22217292e-03  1.64106056e-01  7.15830252e-02  7.32524842e-02
 -1.91888269e-02 -8.37548971e-02 -1.56280205e-01  1.85606051e-02
  1.63938433e-01 -4.95873531e-03  9.11764055e-02  2.12716218e-02]