[-0.07767016  0.16757098  0.10607215 -0.00539537 -0.05481656 -0.07861602
  0.00321368 -0.10585646  0.16076742 -0.09492287  0.26486835 -0.05757446
 -0.20103255 -0.13520043  0.00085332  0.15330258 -0.16787109 -0.07267153
 -0.02785852 -0.00867716  0.08319493  0.01006973  0.02238488  0.02462661
 -0.05375409 -0.30599892 -0.11250768 -0.06561095  0.07887218 -0.03549411
 -0.07829161 -0.0006118  -0.14196533 -0.14001647  0.01827381  0.03980052
 -0.02010586 -0.05777359  0.14229608  0.01126654 -0.1837887   0.00795417
 -0.02848409  0.26493511  0.20197518  0.04151946 -0.00135498 -0.11450781
  0.09532786 -0.11538843  0.00946892  0.14729322  0.09925052  0.06199403
 -0.00820626 -0.14359702 -0.00282612  0.09602061 -0.13214378 -0.03543156
  0.07052391 -0.06354739  0.00738082 -0.05352525  0.1770595   0.03464764
 -0.08727603 -0.18284653  0.13220471 -0.13183121 -0.06472091  0.03134274
 -0.17725237 -0.12352339 -0.27186754  0.03125944  0.37818035  0.10485797
 -0.17159562  0.0046224  -0.13689201  0.0059158   0.08543494  0.11891955
 -0.00913653  0.01594535 -0.08068713 -0.0449696   0.14489578 -0.08954727
 -0.05586668  0.20036411 -0.01731166  0.08101282  0.01692508 -0.07449821
 -0.06001548  0.07889964 -0.11922576 -0.04454028  0.02022274 -0.09510171
  0.01021493  0.13082568 -0.20909241  0.12494466  0.06013388  0.07445318
  0.04866584  0.0260637  -0.12007431 -0.0663591   0.15994254 -0.19084287
  0.22541204  0.2212415   0.0754592   0.10608446  0.12393113  0.08178868
  0.00435271 -0.00837678 -0.14154604 -0.01410841  0.06276994 -0.02424286
  0.06641947 -0.00115053]