[-0.19141516  0.06703505  0.10700821 -0.0886775  -0.11736079 -0.04107087
 -0.0376044  -0.14784986  0.11579656 -0.07830451  0.27154073 -0.10653573
 -0.24231985 -0.06059078 -0.06914874  0.25086069 -0.1745704  -0.14188245
 -0.03412924  0.03902925  0.08689828  0.04113707  0.02355828  0.01583748
 -0.07231253 -0.378005   -0.10818299 -0.02141056 -0.00875058 -0.01899158
 -0.04472685  0.09405445 -0.18774846 -0.01503165  0.03686713  0.12642112
 -0.06098767 -0.14336626  0.12402429 -0.03905492 -0.30674395 -0.00255201
  0.13264397  0.23217411  0.19680385  0.04374265 -0.03209751 -0.13328288
  0.06460296 -0.19935215  0.01954709  0.10532625  0.02903399  0.0159036
  0.07760826 -0.13020086  0.04444584  0.08966771 -0.17342727 -0.08078008
  0.07671429 -0.12006612  0.02689802 -0.16647701  0.22444658  0.11210459
 -0.09689686 -0.13074496  0.16670929 -0.08645454 -0.03549627  0.08141445
 -0.16390449 -0.18454386 -0.28787732 -0.01337612  0.36933908  0.06326837
 -0.123111    0.07559799  0.03618323 -0.01281395  0.12384426  0.17604063
  0.03196179 -0.00618835 -0.13150689 -0.00423538  0.21911719 -0.11450342
  0.02554649  0.23006327 -0.03286544 -0.01762172  0.0161308   0.04928447
 -0.07855134  0.06355808 -0.14308487 -0.02843748  0.03330069 -0.00683863
 -0.0080786   0.12030549 -0.10226007  0.02734232  0.02137864  0.03080845
  0.02259105 -0.10852405 -0.01916469 -0.0700672   0.05433644 -0.21783762
  0.17724231  0.1124198   0.0016993   0.11451199  0.07670426  0.09751358
 -0.02636037 -0.04640708 -0.20275345  0.00166368  0.13812488 -0.02125288
  0.07401063  0.02958093]