[-0.18369833  0.12472582  0.09314591 -0.11092287 -0.07857709 -0.0027302
  0.00907082 -0.17020805  0.14553432 -0.07760762  0.26559639 -0.16221717
 -0.27586752 -0.02905555 -0.03288908  0.25231552 -0.17550085 -0.127258
 -0.04260479  0.01802296  0.08759373 -0.00853527  0.01330635  0.0299859
 -0.08477566 -0.34192714 -0.10444253 -0.02954466 -0.02468938 -0.04083208
 -0.02224134  0.06886557 -0.1975058  -0.0113141   0.01467939  0.13184522
 -0.0391328  -0.16136846  0.1260087  -0.0380602  -0.27621403 -0.0047381
  0.11169413  0.21326338  0.1432655   0.00949128 -0.0230675  -0.12480314
  0.08162733 -0.16667604 -0.0130073   0.09358508  0.03178756  0.02754287
  0.03271316 -0.18558113  0.06501453  0.07696107 -0.15885578 -0.0357806
  0.10653644 -0.11922427  0.00887842 -0.11845034  0.18072127  0.10983253
 -0.09717581 -0.13595864  0.14767745 -0.04220004  0.01470643  0.08990294
 -0.19667615 -0.22362354 -0.25153157 -0.01073618  0.37664896  0.07115271
 -0.1646565   0.01927955  0.01096455  0.02818627  0.14614606  0.19953471
  0.0557499   0.01640731 -0.1516735   0.0208667   0.21779118 -0.12457915
 -0.01223775  0.25171763 -0.03521072  0.00912579 -0.02769002  0.04015296
 -0.08057087  0.05689163 -0.14470969 -0.04184271  0.02880433 -0.01301138
 -0.04838445  0.11184054 -0.13006729  0.0545486   0.05818908  0.04356615
 -0.03256469 -0.08207365 -0.00980836 -0.02655404  0.09195886 -0.20158418
  0.15300409  0.17193232 -0.01285875  0.1023825   0.08318394  0.08685982
  0.02414576 -0.03828309 -0.20358567  0.0028893   0.10211658  0.0054844
  0.05943229  0.01351284]