[-0.05526414  0.08914466  0.01777491 -0.02013196 -0.088315   -0.07476252
 -0.02504221 -0.17301761  0.13353185 -0.10522296  0.22849619 -0.05870819
 -0.20627449 -0.11503382 -0.03628946  0.21910115 -0.17865735 -0.18396412
 -0.07238033  0.03193456  0.08081501  0.00638011  0.03336167  0.03542154
 -0.16070807 -0.33207855 -0.09921648 -0.04744445 -0.06030637 -0.02016816
 -0.050721    0.06311982 -0.16528447 -0.07452821  0.09393387  0.03802496
 -0.02882111 -0.08331397  0.23334837  0.01359662 -0.27484727  0.05215636
  0.09020259  0.26871094  0.16515012 -0.00792928  0.04803127 -0.1572233
  0.15919422 -0.17248963 -0.0276367   0.15337682  0.07109963  0.08597159
 -0.01240827 -0.07806171  0.02928844  0.13855758 -0.14838329 -0.03305621
  0.11245425 -0.07159701 -0.03921338 -0.10688909  0.16864246  0.04809939
 -0.1272185  -0.17073005  0.0889     -0.13485999 -0.10137516  0.04418949
 -0.16834015 -0.21516958 -0.30629462 -0.04971256  0.36287749  0.11531647
 -0.18536253  0.02577366 -0.0452273   0.05046091  0.13061334  0.13813363
  0.03383757  0.06384642 -0.07678044  0.02184403  0.25148025 -0.09855273
 -0.01378428  0.25537154  0.04493221  0.08158091  0.01148135  0.03427784
 -0.03059044  0.06348471 -0.13625251  0.05592833  0.01436972  0.02939106
  0.06045527  0.09314489 -0.13004242  0.12240725  0.02348641  0.08343768
  0.01563049  0.01356308 -0.07612604 -0.10356517  0.05070196 -0.22591691
  0.15610908  0.18378761  0.01567663  0.07514062  0.08123043  0.05363429
 -0.03561714 -0.0149651  -0.19884534 -0.02917275  0.11274606  0.02539507
  0.0772167  -0.02162605]