[-0.14132251  0.12274452  0.07485884 -0.05331928 -0.09754585 -0.01578085
 -0.05952486 -0.17650136  0.13801734 -0.09044456  0.22807463 -0.08103593
 -0.26163459 -0.07122748 -0.0647889   0.23053908 -0.20460509 -0.14644125
 -0.04775622 -0.00660593  0.06369974  0.00724418  0.06928527  0.02133603
 -0.09805277 -0.37276882 -0.04675126 -0.02958866 -0.02366202  0.00410934
 -0.03856862  0.05485004 -0.21293871 -0.03368435  0.06487928  0.06937416
 -0.04899883 -0.06658902  0.17631197 -0.01666314 -0.24014978 -0.02678579
  0.09660081  0.21949719  0.2027645   0.07283051  0.03695636 -0.20828639
  0.09016731 -0.17288673  0.01753714  0.16218635 -0.00520287 -0.00085544
  0.03809016 -0.19193153 -0.00795741  0.11578631 -0.0766666  -0.02472959
  0.10024064 -0.03954525 -0.05614896 -0.14785138  0.22922485  0.06565814
 -0.12517305 -0.16333532  0.15878336 -0.07724719 -0.05962227  0.05048773
 -0.17636405 -0.18800262 -0.30531806 -0.05952598  0.39693984  0.04116705
 -0.15959591  0.01437059 -0.01011318  0.02009671  0.11718564  0.17933616
 -0.03268413 -0.00279331 -0.06745239 -0.00251814  0.21627212 -0.05861672
 -0.02425195  0.18800832 -0.02221303  0.00904616  0.00174606  0.0243302
 -0.09674361  0.05928246 -0.19240966 -0.05911181  0.01001639 -0.00874084
  0.00135095  0.1426376  -0.16722099  0.0748856   0.00692028  0.03195937
  0.0245664  -0.05201752 -0.06707633 -0.04961502  0.10794758 -0.19135495
  0.18742542  0.18462682  0.06481903  0.11015794  0.11211597  0.09565978
 -0.00310862  0.04179833 -0.22205435 -0.0152145   0.08429733 -0.04712676
  0.08205025 -0.00657622]