[-0.08551355  0.05717416  0.03463315 -0.01980768 -0.10393187 -0.06027906
  0.0301885  -0.15853325  0.13893192 -0.09604166  0.20884676 -0.07824463
 -0.23202156 -0.09786927 -0.0012367   0.23375595 -0.15284346 -0.15734206
 -0.05812434  0.00988204  0.0553356  -0.02576954  0.04533198  0.05033826
 -0.10024679 -0.34784326 -0.08518215 -0.08414429 -0.03357856 -0.02624547
 -0.079306    0.0825632  -0.14329185 -0.08144679  0.07280619  0.05071617
 -0.02068101 -0.07479092  0.22002839  0.01560172 -0.29231986 -0.00149582
  0.0956668   0.25735489  0.16486804 -0.00318588  0.02645688 -0.10702689
  0.15678297 -0.16261362  0.01398073  0.08918761  0.09470582  0.04623713
  0.0183176  -0.11048076  0.01167159  0.10750033 -0.14519538 -0.03016387
  0.11518917 -0.06491013 -0.0529318  -0.10447117  0.20680189  0.06912156
 -0.10834763 -0.1429743   0.12174525 -0.12191247 -0.07272735  0.03061154
 -0.1904892  -0.17990577 -0.27160087 -0.02245884  0.36892498  0.08978786
 -0.18358916  0.00560951 -0.0315062   0.03439185  0.14482531  0.17743626
  0.04652371  0.0718368  -0.05074086 -0.02187055  0.19967899 -0.1055859
 -0.01474282  0.24159764  0.02043834  0.07495058  0.01066741 -0.00898103
 -0.02556822  0.05358744 -0.17007279 -0.00132392  0.00093127  0.00130724
  0.04447463  0.08427694 -0.16677269  0.07933947  0.03246332  0.0823283
  0.02850287  0.01380868 -0.07231904 -0.10973108  0.05700403 -0.21205938
  0.13562302  0.19022492  0.01352917  0.06059709  0.05986955  0.0484736
  0.01939024 -0.00391785 -0.20231199  0.01304186  0.15200685 -0.00549674
  0.03314246 -0.01072679]