[-0.22803989  0.13677861  0.10481407 -0.10512079 -0.12504719 -0.02014878
 -0.02971548 -0.14633754  0.16344987 -0.11337415  0.26259503 -0.10639291
 -0.25956666 -0.05100287 -0.08794584  0.28222677 -0.23514266 -0.13566802
 -0.01551282 -0.0058956   0.08217401  0.03821693  0.05446685  0.04972009
 -0.05746591 -0.38315406 -0.06417678 -0.02524423 -0.01856978 -0.06629514
 -0.03485927  0.06723987 -0.19280158 -0.03467239  0.01047951  0.13281094
 -0.08568797 -0.11757169  0.17089368 -0.03920897 -0.27987304 -0.0345474
  0.11909582  0.24941058  0.18837808  0.02255788 -0.00692921 -0.16667251
  0.09934736 -0.20256257  0.00581695  0.10731167  0.01538512  0.01924658
  0.03900735 -0.16259933 -0.00076286  0.14043112 -0.12232857 -0.04889057
  0.08927783 -0.12910955  0.03963698 -0.12291699  0.22847433  0.116126
 -0.07340247 -0.16345435  0.16618912 -0.08230053 -0.04686332  0.09875103
 -0.14011589 -0.19109252 -0.2824575  -0.04539148  0.3658393   0.06694549
 -0.08714382  0.03079847 -0.00845386 -0.00705114  0.12833445  0.19734219
 -0.00592074  0.01499415 -0.12142422  0.01233254  0.22160974 -0.08881845
 -0.02463168  0.21928807 -0.00079457  0.01693654  0.01890501  0.01961433
 -0.10050869  0.07226932 -0.1821789  -0.06263445 -0.01957976 -0.00951088
 -0.00086217  0.11396146 -0.12716512  0.04017356  0.01337455  0.03537694
 -0.02124664 -0.06480475 -0.02822282 -0.05477008  0.08613545 -0.19569309
  0.17087796  0.1609121   0.0162458   0.15641843  0.11093237  0.09304614
 -0.00731348 -0.04674796 -0.17410998  0.04026327  0.14326315  0.00557446
  0.12397077  0.0190405 ]