[-0.07552467  0.07264726  0.01186116 -0.08294725 -0.09439584 -0.05746416
 -0.00493233 -0.12005653  0.16331808 -0.0930456   0.19902909 -0.07802274
 -0.24027677 -0.10597616 -0.01887085  0.21251202 -0.20023647 -0.13462922
 -0.04136942  0.06263125  0.1103782   0.00738301 -0.00161444  0.0343224
 -0.11173322 -0.35450986 -0.10042205 -0.03674157 -0.04129316 -0.05208752
 -0.05726618  0.07755354 -0.17825438 -0.09381252  0.04847402  0.05512921
 -0.04005731 -0.07110745  0.1680948   0.02044492 -0.29294285  0.00531161
  0.07772329  0.23333624  0.19065352  0.02237823  0.02371225 -0.13994363
  0.12343826 -0.21947466  0.00523786  0.1363093   0.01629024  0.0624066
 -0.00089567 -0.13011192  0.03790532  0.09962058 -0.14425276 -0.02127309
  0.13598101 -0.07898613 -0.03050159 -0.0540134   0.16709368  0.04595109
 -0.09750249 -0.18958713  0.11452396 -0.14075588 -0.07529537  0.04492341
 -0.16559076 -0.20073584 -0.30943367 -0.03651527  0.36466631  0.10241717
 -0.15013057  0.05709705 -0.06092019  0.03451158  0.1723045   0.14634113
  0.05057907  0.05958554 -0.09645842  0.0339647   0.21983922 -0.08875521
 -0.00547931  0.25989529  0.02538412  0.09088793  0.02528036  0.02656508
 -0.02355871  0.06425863 -0.14820237  0.01835608  0.06887989  0.00361233
  0.0286502   0.14820497 -0.13658217  0.13304512  0.02572011  0.08994656
  0.02657585 -0.03691565 -0.06807297 -0.07474359  0.07238858 -0.1863683
  0.16368271  0.17908807  0.02707973  0.05862695  0.08924748  0.04630166
 -0.00271257 -0.0386251  -0.24636057  0.02432725  0.10466697  0.005805
  0.05951077 -0.01141962]