[-1.13466382e-01  8.37721005e-02  2.87047215e-02 -6.85674697e-02
 -7.80670270e-02 -8.74355212e-02 -1.44509627e-02 -1.23730712e-01
  1.49490401e-01 -7.99417421e-02  2.29379222e-01 -1.08770326e-01
 -2.48839140e-01 -9.98497680e-02 -3.89621481e-02  2.15931535e-01
 -1.98924854e-01 -1.15376882e-01 -5.32632768e-02  3.96134108e-02
  1.11281112e-01  1.81750823e-02 -1.90199446e-02  3.32552828e-02
 -1.25463083e-01 -3.67374748e-01 -9.91109163e-02 -6.22727573e-02
 -5.69114648e-02 -5.23408428e-02 -4.18752022e-02  6.87241778e-02
 -1.56994209e-01 -1.03773072e-01  5.06287813e-02  5.24799116e-02
 -2.27434654e-02 -8.18250328e-02  1.73675284e-01 -2.27571372e-02
 -2.78899521e-01  9.75488219e-03  9.12875310e-02  2.41260841e-01
  1.73693895e-01  2.02168785e-02  3.77401263e-02 -1.47856042e-01
  1.26515165e-01 -1.86697334e-01 -1.32073341e-02  1.19310044e-01
  4.48788106e-02  6.56264201e-02 -2.39673187e-03 -1.26343310e-01
  2.89654769e-02  1.24035500e-01 -1.47478327e-01 -3.66956107e-02
  1.22771695e-01 -8.36881548e-02 -2.40802746e-02 -5.41220084e-02
  1.86060265e-01  4.13043499e-02 -1.19466327e-01 -1.53252706e-01
  1.20034836e-01 -1.33355618e-01 -6.05391450e-02  3.78859974e-02
 -1.63905114e-01 -2.04160124e-01 -3.13955605e-01 -4.05564271e-02
  3.71503323e-01  7.49019906e-02 -1.71255037e-01  5.01778387e-02
 -6.99539557e-02  3.84377763e-02  1.78244174e-01  1.53166279e-01
  5.31076752e-02  3.64091955e-02 -8.67483541e-02  2.77125966e-02
  2.36365512e-01 -8.55695307e-02 -6.48306916e-03  2.38257453e-01
  2.96539608e-02  8.27013329e-02  1.47829680e-02  2.12812945e-02
 -3.22153606e-02  5.28500341e-02 -1.00772575e-01  4.89574336e-02
  6.09245263e-02  1.58040430e-02  1.61816161e-02  1.30521461e-01
 -1.37906671e-01  1.29651189e-01  4.73234877e-02  9.95808765e-02
  3.23246084e-02 -3.28233354e-02 -3.52940261e-02 -7.50094578e-02
  8.28767344e-02 -2.00301409e-01  1.60097152e-01  1.70307696e-01
  6.91414950e-03  9.03062448e-02  6.70759752e-02  3.94926257e-02
 -7.40957260e-03 -3.22162025e-02 -2.57943243e-01  1.85182448e-02
  1.16021387e-01  7.66888261e-05  7.84514323e-02 -1.70033909e-02]