[-0.09587162  0.11798003  0.04681828  0.029635   -0.05261966 -0.05469355
 -0.0312303  -0.13039441  0.14683537 -0.08914626  0.19658923 -0.00606794
 -0.23007794 -0.0724326  -0.01454402  0.15427499 -0.17041147 -0.08308135
 -0.08272061 -0.04066741  0.10365381  0.08461695  0.06150262 -0.00788795
 -0.11432467 -0.30200008 -0.10990813 -0.04105091  0.05109481 -0.0145295
 -0.06517479  0.03371297 -0.16186021 -0.12006921  0.08611108  0.0674092
 -0.02742885 -0.05820657  0.20073704  0.05996011 -0.18972544  0.03511452
  0.04464225  0.26476088  0.22489576  0.00625466 -0.0086841  -0.13820271
  0.0913967  -0.1526276   0.0240027   0.17652063  0.10900839  0.0926965
  0.04548154 -0.1218567   0.00856572  0.09404182 -0.12457533 -0.01156203
  0.08939957 -0.05695794  0.00312756 -0.05634782  0.11293799  0.02580181
 -0.08747599 -0.17735536  0.12194452 -0.14156227 -0.10145608  0.04029493
 -0.17218548 -0.15765798 -0.32109165 -0.01934194  0.39262769  0.11505654
 -0.17637457  0.02189124 -0.05976431 -0.04240623  0.0838      0.11561582
 -0.03540049  0.01803566 -0.03672086  0.02016628  0.19865699 -0.03232397
 -0.0863949   0.21966496  0.01641938  0.06087817  0.07139201  0.00586778
 -0.05534726 -0.01225527 -0.16993128 -0.0548489   0.00958114 -0.10812753
  0.02505477  0.15164457 -0.18226576  0.13804762  0.03224338  0.02755716
  0.02082238  0.02570418 -0.15299982 -0.01806686  0.1525494  -0.18022223
  0.21370578  0.2135396   0.03803664  0.081535    0.11055447  0.07478195
 -0.02287391  0.04035488 -0.15213741 -0.07760976  0.0387289   0.00081288
  0.08415519  0.01199088]