[-1.45450577e-01  1.30589634e-01  6.54962733e-02 -2.06878614e-02
 -1.46938130e-01  1.40436916e-02  1.42350113e-02 -8.70158374e-02
  1.76451668e-01 -1.95741464e-04  1.86574891e-01 -3.96912917e-03
 -2.41234809e-01 -8.33817869e-02  1.58513524e-02  1.31384686e-01
 -1.24553099e-01 -1.27007559e-01 -4.87932079e-02 -1.10954620e-01
  5.78810945e-02  9.05278102e-02  3.91080938e-02  8.40387270e-02
 -1.87375158e-01 -2.88009375e-01 -9.09429640e-02 -7.30779693e-02
  5.43994680e-02 -1.09763220e-01 -1.56047649e-03  4.94347289e-02
 -9.44994837e-02 -4.90823351e-02  8.50407258e-02  7.98759758e-02
 -8.76077041e-02 -8.33768770e-02  2.00629905e-01 -2.00964622e-02
 -1.63670644e-01  2.48657912e-02  5.97410090e-02  3.21533889e-01
  1.83373109e-01 -3.16399033e-03  4.24573235e-02 -8.94865394e-02
  1.42864868e-01 -1.65633872e-01  1.37252554e-01  1.61064029e-01
  1.62399068e-01  6.92603216e-02  6.12750016e-02 -1.48732901e-01
 -3.46801989e-02  2.24146754e-01 -1.71789855e-01  9.66869220e-02
  8.92701671e-02 -1.21530965e-01 -1.69095080e-02 -7.74042755e-02
  1.36158139e-01  1.06513582e-01 -1.23762600e-01 -1.65069267e-01
  8.88135582e-02 -1.34842306e-01 -1.08206011e-01  5.60554974e-02
 -1.71890423e-01 -1.74495861e-01 -2.94088960e-01  6.96107522e-02
  3.83083075e-01  1.33250132e-01 -2.09398016e-01 -2.17601042e-02
  1.70557445e-03  6.41870201e-02  5.77802844e-02  1.22965433e-01
 -1.40063003e-01 -7.60958418e-02 -8.81709456e-02  2.99091469e-02
  1.78744942e-01 -1.56737305e-02 -8.86788890e-02  2.08348736e-01
  6.80707693e-02  4.17066105e-02  3.14273201e-02  1.33467023e-03
 -6.63072690e-02  1.04460223e-02 -8.07135031e-02 -3.17108864e-03
 -2.50307587e-03 -8.69351849e-02  4.64293882e-02  9.00537893e-02
 -1.84192806e-01  2.10638240e-01  5.71594611e-02  3.75410281e-02
 -3.07722073e-02  9.57059860e-03 -1.32769391e-01  9.39204171e-03
  1.65949151e-01 -2.64339596e-01  2.30575353e-01  1.61628708e-01
  7.70274028e-02  1.77874908e-01  7.86529705e-02  7.16584995e-02
  2.73493733e-02 -5.85808745e-03 -6.74328357e-02 -1.20200915e-02
  1.21392764e-01 -5.23842052e-02  1.11495174e-01  5.68710528e-02]