[-0.10994019  0.05526542  0.02399867 -0.05679355 -0.08745334 -0.08916299
  0.00164849 -0.13765679  0.15852331 -0.10224785  0.18616009 -0.03923353
 -0.20103829 -0.09859725 -0.01085017  0.22473069 -0.19855176 -0.13515554
 -0.04110276  0.03559566  0.13160411  0.02596454  0.05142695  0.05390128
 -0.12878679 -0.35500494 -0.10471692 -0.05939717  0.00836036 -0.0239207
 -0.09307106  0.09293557 -0.16888762 -0.08295477  0.05368036  0.06684168
 -0.02839896 -0.09800353  0.19090545  0.01914395 -0.30285081  0.06181009
  0.06812178  0.23280235  0.21690956 -0.00458222  0.04407603 -0.14733896
  0.14368805 -0.20143722  0.00224451  0.09305733  0.05661777  0.04240222
  0.01785221 -0.1377974   0.0130429   0.10003494 -0.16378152 -0.0255867
  0.08545101 -0.07790317 -0.02098435 -0.07617362  0.16939239  0.08405229
 -0.10045648 -0.17634593  0.13377851 -0.14573874 -0.06859233  0.05694421
 -0.16860692 -0.1967409  -0.2731652  -0.03496973  0.34698525  0.10892458
 -0.19055164  0.07019112 -0.04201784  0.04273002  0.17563671  0.18315567
  0.05249948  0.05077342 -0.08703042  0.00096331  0.22265278 -0.0949064
 -0.02888237  0.26927635  0.05469278  0.10624906  0.03550171  0.01456962
 -0.05181603  0.05214046 -0.16874003 -0.00430933  0.02876612  0.03240615
  0.0168179   0.13048266 -0.11320194  0.12704007  0.01306747  0.07451798
  0.01532253 -0.02910567 -0.0570441  -0.0733576   0.02762361 -0.19293138
  0.17438582  0.18282579  0.00389545  0.09406613  0.07935015  0.04105569
  0.01250401 -0.00741402 -0.23345923  0.02899032  0.16386904 -0.0132378
  0.0651201  -0.01518404]