[-0.14005527  0.11496191  0.07295808 -0.07634052 -0.11189037 -0.03575664
 -0.04340046 -0.13197479  0.165839   -0.06706338  0.28191501 -0.06501146
 -0.22541861 -0.04943984 -0.05356401  0.24885049 -0.18239768 -0.1320769
 -0.04222245  0.03743305  0.0664196  -0.04635696  0.07433641  0.02299553
 -0.08644085 -0.40738058 -0.08465182 -0.02245159  0.00193713 -0.00658813
 -0.04063342  0.08753158 -0.21697719 -0.07922589  0.06881729  0.16183777
 -0.07615032 -0.12529056  0.19514638 -0.0431786  -0.29154256 -0.01334779
  0.0776483   0.2545782   0.18268202 -0.00243944  0.04956332 -0.15674545
  0.1080539  -0.18202049  0.06617947  0.11246499  0.04916157  0.02506508
  0.05137469 -0.11999027  0.04920405  0.1594144  -0.15041663 -0.0868195
  0.10853171 -0.07523614 -0.00226403 -0.17724268  0.22203647  0.11643306
 -0.08601375 -0.17796294  0.15681081 -0.04941856 -0.012325    0.08036772
 -0.18053469 -0.20935531 -0.30930373 -0.02541376  0.38714191  0.10075796
 -0.12488136  0.06628983 -0.02929181 -0.01234893  0.09945662  0.16488962
  0.03006637  0.07924829 -0.10242589  0.02856902  0.22544287 -0.10568929
 -0.02724556  0.21322413 -0.02685816  0.01869209  0.01271153  0.01174588
 -0.0803066   0.07142472 -0.21048324 -0.05562845  0.00744108  0.00915799
  0.00340108  0.10252734 -0.17008586  0.04428374  0.01528455  0.06909315
  0.02858895 -0.07720678 -0.05650793 -0.08815344  0.10193886 -0.23364942
  0.16544023  0.15023866  0.03457916  0.11277491  0.12559606  0.0582693
  0.01704272 -0.04995779 -0.2262388   0.04362808  0.11878016  0.01038086
  0.09043407  0.02514748]