[-0.08487668  0.11519935  0.05658397  0.03669579 -0.04289805 -0.0355832
 -0.02096231 -0.09382417  0.15371823 -0.08180487  0.20151857 -0.0014472
 -0.23392914 -0.07241488 -0.01179445  0.1375588  -0.16416101 -0.08341318
 -0.09345295 -0.05229897  0.10119599  0.07158072  0.06255558 -0.01178839
 -0.12958561 -0.31113586 -0.09626383 -0.05452888  0.06461249 -0.04428111
 -0.05524975  0.0376446  -0.17835568 -0.10974316  0.07545787  0.0562633
 -0.01362956 -0.04783678  0.21165538  0.06214844 -0.18507338  0.03713437
  0.02698885  0.27152082  0.23210096  0.00301336 -0.02257415 -0.12955326
  0.09059953 -0.17587447  0.02430433  0.19073339  0.11452138  0.09248475
  0.04953891 -0.11022641 -0.00534636  0.0934483  -0.12502827 -0.01348036
  0.0799001  -0.04508475 -0.00834591 -0.07827478  0.10651747  0.02509248
 -0.09173566 -0.17075658  0.11831432 -0.13879858 -0.07358944  0.05635585
 -0.16078036 -0.15867151 -0.29144856  0.00626484  0.38647625  0.13200933
 -0.17989969  0.01448716 -0.08302149 -0.04343556  0.06221807  0.08562148
 -0.05402022  0.01976918 -0.01776749  0.045522    0.18740122 -0.02677086
 -0.06724104  0.21437828  0.00187789  0.05776784  0.0570624  -0.01304547
 -0.06203778 -0.0029588  -0.17746794 -0.04787076  0.00770147 -0.10875458
  0.03771946  0.14313804 -0.19203423  0.13106966  0.02569987  0.0061514
  0.03543545  0.03169346 -0.15749055 -0.01317314  0.16324799 -0.19570211
  0.22017331  0.21106644  0.0365868   0.07515932  0.11356201  0.07754944
 -0.02336048  0.03477215 -0.15188801 -0.06743199  0.04970156 -0.00850272
  0.06959859 -0.01560641]