[-0.07583588  0.0851225   0.02932444 -0.08981261 -0.073201   -0.07901617
 -0.03665901 -0.13017106  0.14720844 -0.10758439  0.18720461 -0.07716116
 -0.21171503 -0.09518511 -0.06147115  0.21419454 -0.20207952 -0.14986315
 -0.07824384  0.0298955   0.11652929  0.00723211  0.02042953  0.03426156
 -0.14775781 -0.36094877 -0.07318216 -0.02987062 -0.04234435 -0.04179922
 -0.05508825  0.07236654 -0.21714106 -0.06576989  0.05925998  0.11075956
 -0.02693537 -0.09737385  0.16862853  0.0315463  -0.28056252  0.02333157
  0.05816866  0.24395101  0.19561563 -0.00073026  0.03800493 -0.15302289
  0.16783163 -0.20112975 -0.03062091  0.14267139  0.00829968  0.07388696
  0.00519804 -0.08043214  0.0521182   0.1329312  -0.12607947 -0.05724199
  0.10866316 -0.0800138  -0.04320243 -0.09551052  0.19550681  0.0603526
 -0.1299582  -0.14259611  0.13024555 -0.11297985 -0.06164974  0.02986262
 -0.14257313 -0.16400202 -0.27706549 -0.04656168  0.38841221  0.07615194
 -0.17830275  0.04158532 -0.07877371  0.04896792  0.16137992  0.14776976
  0.01702816  0.09890317 -0.07592511  0.05065298  0.2653127  -0.0780155
 -0.00206454  0.24022274  0.02296454  0.08455338  0.03574979  0.01360439
 -0.06119495  0.04914569 -0.15208948  0.02192566  0.06701883 -0.00769453
  0.004886    0.12330087 -0.12562528  0.11941177  0.03328854  0.07603219
  0.04896117 -0.0254726  -0.06858288 -0.09459399  0.05681568 -0.19585249
  0.17189334  0.17551365  0.01611217  0.07172256  0.0981968   0.0553192
 -0.01661645 -0.02257469 -0.20959158 -0.01358617  0.124246    0.02718805
  0.07218274 -0.05131835]