[-0.11023603  0.10983866  0.02941895 -0.05728478 -0.07895171 -0.08762741
 -0.01831695 -0.1275475   0.11268777 -0.06281482  0.2358346  -0.09217118
 -0.226934   -0.14724091 -0.0093636   0.19712643 -0.19233803 -0.12756115
 -0.01372626  0.07995507  0.14851272 -0.01670569  0.00969694  0.05095685
 -0.10706919 -0.38543966 -0.09407773 -0.05996262 -0.03913296 -0.06212171
 -0.04814233  0.03514343 -0.18671171 -0.10457044  0.03214289  0.04764507
 -0.04274725 -0.06723388  0.18860649 -0.00378304 -0.27477098  0.00567422
  0.05873094  0.24069361  0.16824566  0.03721019  0.06080936 -0.14488837
  0.11496889 -0.21469422 -0.00296551  0.13292526  0.04548579  0.04775921
 -0.02264683 -0.11246216  0.03097989  0.11296321 -0.17419218 -0.01638651
  0.12584279 -0.07418882 -0.0312758  -0.05864757  0.19347177  0.0583453
 -0.10903729 -0.1492068   0.11183874 -0.12829868 -0.06793527  0.0527378
 -0.14715181 -0.21948496 -0.30695799 -0.02695042  0.37487671  0.09597654
 -0.16892414  0.02117034 -0.09604137  0.05261926  0.18210492  0.12328284
  0.04615637  0.03736046 -0.10353918  0.03465829  0.2219367  -0.08999001
 -0.0020683   0.23586927  0.04557551  0.1106953   0.01386689  0.0212614
 -0.00958716  0.07351331 -0.11934944  0.05396197  0.03013094  0.00705055
  0.02888406  0.13025068 -0.14837287  0.11562338  0.04695506  0.06989079
  0.02124839 -0.03340898 -0.0691272  -0.08532204  0.04714493 -0.21300991
  0.17530613  0.19948976  0.02132824  0.08306088  0.07553842  0.03744033
 -0.00484364 -0.06784942 -0.2477852   0.02756027  0.12598754  0.01527701
  0.06265929 -0.0353403 ]