[-0.07997011  0.03405543  0.01081118 -0.04095751 -0.10739731 -0.07764192
  0.00299231 -0.14363596  0.15280743 -0.1309552   0.21815275 -0.05085864
 -0.19812898 -0.11971609  0.00452715  0.20659463 -0.15128821 -0.15877858
 -0.05392147 -0.01935133  0.09159289 -0.03825632  0.00748521  0.04936018
 -0.1317852  -0.36821926 -0.10878956 -0.06366681 -0.06617188 -0.02498119
 -0.05981317  0.06570443 -0.16008434 -0.09154046  0.05142147  0.03319094
 -0.0181638  -0.06847187  0.19101094  0.0099386  -0.25584361  0.04156399
  0.09663519  0.2458258   0.18150614  0.01545981  0.03375995 -0.11869001
  0.18760222 -0.15984324 -0.00996089  0.10966062  0.08613644  0.06068037
  0.02818862 -0.07995187  0.0353977   0.09822553 -0.15982608 -0.02485801
  0.08319876 -0.07382885 -0.06068901 -0.09765355  0.19458418  0.07290263
 -0.11050427 -0.15020236  0.10085728 -0.1440711  -0.08165369  0.0112486
 -0.18653217 -0.20929281 -0.28988838 -0.0120973   0.36260033  0.1256559
 -0.20178635  0.03943411 -0.03677243  0.04989838  0.17777447  0.15503851
  0.05658262  0.05429707 -0.07177069  0.0005493   0.20905316 -0.08844746
 -0.02071847  0.26358542  0.0326856   0.10232945  0.02579331  0.02492904
 -0.05809253  0.05792173 -0.14629565  0.01833388  0.03648974  0.01873969
  0.05017368  0.06428365 -0.14006701  0.11798525  0.01152002  0.10740799
  0.00600383  0.01091768 -0.07536297 -0.09867512  0.0245015  -0.21398337
  0.14370798  0.17981742 -0.00579996  0.09822557  0.06708994  0.03949261
 -0.01496543 -0.01852792 -0.19781132  0.00413749  0.11174168  0.01565698
  0.06112863 -0.0141822 ]