[-0.06449698  0.06827147  0.00236622 -0.04029582 -0.07495259 -0.07142924
 -0.01797425 -0.17204037  0.1711126  -0.13081954  0.16089459 -0.0156292
 -0.20854735 -0.08060566  0.0020805   0.21469836 -0.19775254 -0.14532088
 -0.05898163  0.00191831  0.11442424  0.02144859  0.04121498  0.03244067
 -0.12471799 -0.3213253  -0.12680535 -0.05755925  0.0187012  -0.03126794
 -0.09360664  0.06377687 -0.13071184 -0.07332007  0.04293954  0.05403022
 -0.02559863 -0.1169038   0.17632107  0.00888284 -0.28497443  0.05588561
  0.06173896  0.23026152  0.21741851 -0.00712758  0.03608693 -0.15465598
  0.16465198 -0.18844943  0.01583218  0.07255441  0.06287398  0.06226931
  0.02074516 -0.14665192  0.00668     0.11854693 -0.16225606 -0.00809128
  0.07854154 -0.07619857 -0.02848103 -0.07322372  0.16596176  0.10735988
 -0.10106225 -0.16680056  0.13547547 -0.15613037 -0.08770885  0.034203
 -0.16077439 -0.19614103 -0.26516476 -0.05860822  0.37166327  0.11403399
 -0.20090102  0.04885411 -0.02614702  0.02608643  0.18188292  0.17714368
  0.03555473  0.04746769 -0.09041826 -0.00420625  0.25155997 -0.09350393
 -0.04752623  0.2702713   0.04606035  0.10986049  0.04241589  0.03748925
 -0.05736267  0.03825846 -0.18050714 -0.04150429  0.04727731  0.01082432
  0.00242313  0.12307384 -0.10544723  0.1686838   0.04126137  0.09319668
  0.02782839 -0.02316795 -0.06281055 -0.05896918  0.0802362  -0.17406103
  0.15948127  0.18451835  0.01766856  0.1008209   0.06477362  0.05473712
 -0.00084981 -0.02645374 -0.24901788  0.01645394  0.14184491 -0.00619252
  0.06796127  0.00666529]