[-0.16590025  0.11434442  0.10730382 -0.08598819 -0.11685812 -0.08198871
 -0.03834685 -0.14816423  0.12265251 -0.0562119   0.25557229 -0.07206146
 -0.22693935 -0.03681887 -0.08642222  0.25345272 -0.19016556 -0.10086817
 -0.05833834  0.03187738  0.06767506 -0.03179137  0.08058115  0.02893434
 -0.04701953 -0.36278737 -0.06557178 -0.04693731 -0.02210195 -0.00935206
 -0.03965262  0.07629211 -0.19557433 -0.08468148  0.04547093  0.1269692
 -0.06924878 -0.11075451  0.19808343 -0.06215587 -0.28958341 -0.00799103
  0.10834787  0.22806536  0.20072971  0.00806172  0.04646106 -0.1607395
  0.11636623 -0.19467466  0.03987281  0.08184209  0.0721037   0.00666209
  0.04864716 -0.12906907  0.04267571  0.14241609 -0.13943361 -0.05821682
  0.12577091 -0.08225333 -0.01158672 -0.14516254  0.23546599  0.11023891
 -0.10236157 -0.13654278  0.16438095 -0.05922242 -0.02256785  0.07340919
 -0.15894692 -0.19535917 -0.28029042 -0.02934813  0.36440575  0.08679356
 -0.14569812  0.03499372 -0.05391699  0.00615799  0.1070891   0.15413447
  0.01043811  0.0571079  -0.10201521 -0.00591816  0.2216868  -0.11497901
 -0.01384466  0.22179835  0.00535515  0.0101081   0.00333217  0.00287351
 -0.08280812  0.06218925 -0.2204762  -0.04392225  0.01624109 -0.00148189
  0.00136237  0.09477525 -0.15537547  0.01993046  0.00152514  0.05528904
  0.02049068 -0.0792794  -0.06075282 -0.09194469  0.1039611  -0.1787338
  0.1698759   0.15370914  0.02228349  0.09470767  0.13696562  0.05975397
  0.02722051 -0.03720982 -0.19618325  0.03352442  0.16439222 -0.00522835
  0.10361626  0.01838557]