[-0.0623447   0.0669289   0.05169324 -0.07541045 -0.15641443  0.00425849
  0.0023075  -0.03913368  0.08700181 -0.06114243  0.29858622 -0.05821893
 -0.17191815 -0.12097235 -0.03396666  0.12064842 -0.10804377 -0.13302408
 -0.02259565  0.00573998  0.00798631  0.01917049 -0.00634325  0.0781555
 -0.13250636 -0.34878376 -0.06075397 -0.11220548  0.0093184  -0.08263665
 -0.07258241  0.15557328 -0.10078812 -0.03113957  0.05011352  0.09938872
 -0.04562345 -0.01081825  0.18608189  0.03677497 -0.21534911  0.06836845
  0.07290623  0.3052581   0.18025506  0.02558708  0.01734792 -0.03420346
  0.14878006 -0.19930826  0.07492581  0.15969552  0.15210734  0.0553281
  0.09412234 -0.07709657  0.01256161  0.06870703 -0.14533177  0.0384782
 -0.00312671 -0.02815626  0.01726195 -0.13748129  0.15710673  0.06827939
 -0.07636165 -0.10928158  0.13473484 -0.1637582  -0.14401442  0.10591268
 -0.15480909 -0.16951692 -0.21558705  0.06943384  0.36568636  0.21288781
 -0.20353393  0.03401795  0.02878421 -0.08353921  0.08054545  0.10338922
 -0.04377086  0.02029262 -0.07884757 -0.01831212  0.22011295 -0.04215073
 -0.01359297  0.23566878  0.02295902  0.09626941  0.06646577 -0.02840495
 -0.01862895  0.04637293 -0.13557062 -0.00151417  0.00261266 -0.12967594
 -0.02227733  0.05755261 -0.19423209  0.13391057 -0.00707398  0.03460857
 -0.01678484  0.06809928 -0.06441052 -0.01936888  0.13066022 -0.2363365
  0.19278626  0.1507939   0.07299461  0.08806363  0.113578    0.01758154
  0.0155861  -0.08007566 -0.10462286 -0.09233282  0.09906368 -0.07512904
  0.04671961  0.02046764]