[-0.07686372  0.11982094  0.02832377 -0.02157887 -0.05990779 -0.10776728
 -0.01800641 -0.18473664  0.14068192 -0.10439771  0.17113943 -0.02899392
 -0.20642312 -0.11790454  0.02972058  0.20784715 -0.18564382 -0.15100947
 -0.07610278  0.01193189  0.10559636  0.02482791  0.05191406  0.04077444
 -0.11944272 -0.36929551 -0.09459845 -0.05666304 -0.00434252  0.00860558
 -0.07079428  0.07851569 -0.14860712 -0.08669089  0.06632496  0.04740168
 -0.00886131 -0.08641186  0.19292752  0.02844625 -0.32071915  0.07865464
  0.04591253  0.24857056  0.23623057 -0.03581747  0.05609737 -0.12615034
  0.18157065 -0.1987071  -0.0136428   0.1115477   0.04155818  0.03008352
  0.0565576  -0.13006651  0.00273537  0.10300789 -0.17267291 -0.05941387
  0.09089576 -0.08959279 -0.02595863 -0.07335211  0.14572211  0.08792625
 -0.09166607 -0.17229198  0.11601162 -0.1472844  -0.05184535  0.06206838
 -0.18013279 -0.17886898 -0.29892623 -0.01838987  0.36851099  0.10426209
 -0.18055077  0.05810173 -0.04277541  0.06321658  0.18168245  0.16133304
  0.05268968  0.04615077 -0.07533674 -0.00484115  0.21339683 -0.07710516
 -0.05538532  0.26677805  0.03126277  0.09460349  0.04251928  0.01376413
 -0.05920835  0.01864411 -0.1732181  -0.00461315  0.02032741  0.02129465
  0.0213318   0.12050247 -0.13021292  0.10794363  0.01430099  0.09410759
  0.01412139 -0.01297341 -0.04700666 -0.07172693  0.0314988  -0.19737032
  0.16827174  0.18316294 -0.02162128  0.08049653  0.05476445  0.01073169
 -0.01314597 -0.01020365 -0.20105794 -0.00395984  0.14424436  0.0171929
  0.04411309 -0.03827239]