[-7.34470785e-02  5.72233796e-02  4.30209152e-02 -2.07013916e-02
 -1.16785362e-01 -1.08757131e-01 -1.42943189e-02 -1.50181100e-01
  1.44907042e-01 -1.00037985e-01  1.90825596e-01 -5.60321622e-02
 -2.03133807e-01 -8.97352621e-02 -3.22388969e-02  2.31160596e-01
 -1.40439227e-01 -1.55443296e-01 -6.22577630e-02 -2.19180882e-02
  7.37179294e-02 -1.35477660e-02  3.87452915e-02  4.59383801e-02
 -1.44980669e-01 -3.43073666e-01 -7.82508776e-02 -7.40350559e-02
 -6.67093173e-02 -1.69868767e-02 -6.90760314e-02  9.25186798e-02
 -1.59605488e-01 -7.99239874e-02  9.17605460e-02  5.82172647e-02
 -1.48541126e-02 -7.25010112e-02  2.14806065e-01 -1.38492808e-02
 -2.80255049e-01  2.51617525e-02  8.56333748e-02  2.45413288e-01
  1.78932697e-01  1.56651903e-02  5.26866205e-02 -1.16895430e-01
  1.80681884e-01 -1.76684693e-01 -2.40033399e-02  1.13666914e-01
  6.95173219e-02  4.62836884e-02  7.19827740e-03 -9.94964316e-02
  4.60404865e-02  1.20288633e-01 -1.43253252e-01 -4.54148836e-02
  1.01516746e-01 -9.54712629e-02 -5.49741648e-02 -8.07429850e-02
  2.09680945e-01  5.75158559e-02 -1.16071701e-01 -1.25472724e-01
  1.12825572e-01 -1.52197495e-01 -6.62519932e-02  1.55650899e-02
 -1.81954250e-01 -1.98316649e-01 -2.96567917e-01 -4.22987044e-02
  3.62328410e-01  1.12203956e-01 -2.00394854e-01  2.78175063e-02
 -2.95839440e-02  8.91940817e-02  1.60428226e-01  1.49628326e-01
  2.67819706e-02  5.91066554e-02 -7.79043958e-02 -7.83214625e-03
  2.51407117e-01 -1.10162452e-01 -1.11375377e-02  2.43636563e-01
  4.38909531e-02  9.08681676e-02 -3.75304604e-03 -1.23928266e-03
 -3.77303176e-02  4.28695045e-02 -1.38402253e-01  4.51030545e-02
  3.54446135e-02  3.15462686e-02  4.08409238e-02  9.72123966e-02
 -1.71957895e-01  8.93789455e-02 -5.12860343e-03  8.09248090e-02
  2.82303896e-03  8.70674103e-03 -6.82916045e-02 -1.12163447e-01
  4.84306403e-02 -1.89649820e-01  1.57383010e-01  2.11428836e-01
 -4.62525012e-03  8.74877721e-02  6.22044913e-02  2.41038892e-02
  3.35444522e-04 -1.27654169e-02 -1.95230931e-01 -1.89827252e-02
  1.42844021e-01 -1.26272216e-02  5.89744560e-02 -2.03346740e-02]