[-0.06152576  0.07409226  0.01162164 -0.04964902 -0.07098974 -0.07949116
 -0.00266033 -0.18022369  0.17331901 -0.10814649  0.18090336 -0.02229994
 -0.20313886 -0.09584837 -0.01392928  0.22945051 -0.20130527 -0.13782822
 -0.05896961  0.00503858  0.11843137  0.02590937  0.04067147  0.05055654
 -0.14842381 -0.30841312 -0.10912653 -0.05798271 -0.00182758 -0.03483612
 -0.08952717  0.09493662 -0.14982198 -0.06537973  0.05015729  0.05586511
 -0.02674271 -0.11338397  0.18038142  0.01590423 -0.29440036  0.07310973
  0.05427608  0.22357546  0.23025976 -0.03021538  0.04402537 -0.16267793
  0.17062385 -0.18752222  0.00045396  0.08690435  0.04017757  0.05382618
  0.01188047 -0.15077788 -0.00580881  0.12521379 -0.15506999 -0.02854246
  0.07225316 -0.08921506 -0.02815268 -0.07469625  0.13921897  0.10624444
 -0.09343088 -0.18228684  0.14057831 -0.15785713 -0.0838044   0.04755568
 -0.1675577  -0.19380689 -0.28054821 -0.05756715  0.3475382   0.107504
 -0.20782319  0.05748553 -0.0359698   0.05178834  0.1828717   0.17547081
  0.05144959  0.05180657 -0.09338209 -0.00796299  0.24807516 -0.09435099
 -0.0389526   0.28965783  0.04334393  0.09655403  0.037665    0.02079526
 -0.05752115  0.04533919 -0.16960116 -0.03286995  0.03536915  0.030297
  0.01118915  0.13778903 -0.11537645  0.15486521  0.02637764  0.10075819
  0.02032674 -0.03190989 -0.04615429 -0.06249239  0.06676135 -0.17742141
  0.16570221  0.17466576  0.00259257  0.08858524  0.06559067  0.05096855
 -0.0096766  -0.02583016 -0.24077801  0.03207688  0.15407473 -0.00959143
  0.06178539 -0.01024104]