[-1.19090788e-01  8.76320004e-02  1.31012112e-01 -9.15093999e-03
 -2.23555304e-02 -5.05646132e-02 -2.96169221e-02 -1.54904529e-01
  1.21166900e-01 -6.78166151e-02  2.88798153e-01 -3.73271182e-02
 -1.58137366e-01 -9.92989689e-02  6.55266223e-03  2.04883724e-01
 -2.23110661e-01 -9.33836028e-02 -2.04495247e-02 -2.93279445e-04
  6.13077767e-02 -2.80678105e-02  6.38561398e-02  1.23026539e-02
 -9.16480049e-02 -3.57407361e-01 -1.03227578e-01 -1.10354066e-01
  8.81251618e-02 -9.31360293e-03 -5.91822974e-02  6.95027132e-03
 -1.75065145e-01 -1.77718066e-02  2.72360630e-02  7.34076425e-02
 -1.84289273e-02 -9.11177248e-02  2.18353674e-01 -3.24541330e-02
 -2.27713108e-01  6.95568649e-03  5.25279855e-03  2.16738567e-01
  1.99421912e-01  2.50666440e-02  4.28519323e-02 -1.20561279e-01
  1.02574348e-01 -1.42138854e-01  9.19039536e-04  9.77609083e-02
  2.67790258e-02  2.07879487e-02 -1.79231744e-02 -1.65827498e-01
 -4.77097789e-03  5.90873957e-02 -1.42464980e-01 -3.03908419e-02
  5.39794378e-02 -1.03494339e-01 -1.82454418e-02 -5.61626144e-02
  2.35941246e-01  7.72805735e-02 -1.31484687e-01 -1.51944607e-01
  1.11976802e-01 -1.04685687e-01  1.18694557e-02  5.44021018e-02
 -1.78118110e-01 -1.59926578e-01 -2.97322869e-01 -7.71791628e-03
  4.21892792e-01  5.17955841e-03 -1.92849189e-01  3.58775668e-02
 -8.10749382e-02 -8.73687677e-03  1.53131664e-01  1.93084821e-01
  1.33720664e-02  5.37804067e-02 -9.96711180e-02 -1.72335468e-02
  2.06707358e-01 -1.12163760e-01 -4.18533152e-03  2.01935634e-01
 -4.99277525e-02  8.43484029e-02 -4.08470444e-03  1.18952477e-02
 -4.46689874e-02  4.40052561e-02 -1.13399886e-01 -2.22672764e-02
  1.13009457e-02  6.27919275e-04  1.13469064e-02  1.02964126e-01
 -1.75471649e-01  7.35880435e-02  4.57602702e-02  4.29129526e-02
  5.06752133e-02 -3.79397050e-02 -8.78583789e-02 -1.02479041e-01
  1.29393086e-01 -2.29627609e-01  1.77770987e-01  2.18779117e-01
  2.00804435e-02  1.16944812e-01  9.86349508e-02  8.22025836e-02
 -2.98499651e-02  2.50891540e-02 -2.05491662e-01  5.84314056e-02
  7.53370151e-02 -1.06852874e-02  5.64190149e-02 -1.91757884e-02]