[-0.1288152   0.0593205   0.13157402 -0.02317393 -0.08388483 -0.05142576
 -0.0598355  -0.14614671  0.08862036 -0.08205286  0.25602573 -0.05537276
 -0.19460903 -0.07476802  0.01757967  0.20393252 -0.15957893 -0.08922882
 -0.04239896 -0.00650171  0.00297465 -0.00589769  0.06234164  0.02741719
 -0.08634928 -0.3735424  -0.11088544 -0.10668395  0.03713498 -0.01854326
 -0.09544601  0.06756382 -0.09348945 -0.01555134  0.05670948  0.1108382
 -0.03912573 -0.08939841  0.21487832 -0.03032999 -0.23165917  0.00042246
  0.04736633  0.22485176  0.25067177  0.03208311  0.04789765 -0.08418746
  0.10320216 -0.18837732  0.0311907   0.08311467  0.04379194  0.01903193
  0.05029899 -0.17034313 -0.02189303  0.09150222 -0.14206694 -0.01438524
  0.05061501 -0.13785556 -0.0142256  -0.07845881  0.2519168   0.13213073
 -0.13477539 -0.10003822  0.15875754 -0.12303573 -0.01295837  0.02494443
 -0.18307701 -0.15352412 -0.26749596 -0.00948044  0.4002628   0.07296433
 -0.20116735  0.01395296 -0.03790599 -0.01501171  0.12852773  0.1656736
  0.00072325 -0.02032488 -0.08380149 -0.04414847  0.21087277 -0.08899246
  0.01865779  0.19903293 -0.03210501  0.06864408  0.03046362  0.00668696
 -0.06025761 -0.00296442 -0.14001499 -0.03152397 -0.01082421 -0.06518927
  0.02864651  0.09757339 -0.17401253  0.08474283  0.02343202  0.03471466
  0.0395518  -0.0273259  -0.06358492 -0.06547701  0.15523201 -0.21197462
  0.16664748  0.1917838   0.01966726  0.13926353  0.09088146  0.09629121
 -0.02177337 -0.00125792 -0.17260006  0.015613    0.07343116 -0.0107713
  0.06166768  0.02938767]