[-1.00483708e-01  6.38691112e-02  1.09896675e-01 -5.33030322e-03
 -4.61969376e-02 -6.31815791e-02 -4.89513688e-02 -1.66577324e-01
  1.37693003e-01 -7.66279548e-02  2.64767796e-01 -4.63969782e-02
 -1.80214137e-01 -8.19531605e-02 -2.53133173e-03  2.27931723e-01
 -1.95019156e-01 -9.84138697e-02 -7.29392190e-03  2.01499835e-02
  2.39602979e-02 -3.01170480e-02  7.36436322e-02  3.27777229e-02
 -6.33403882e-02 -3.85786623e-01 -1.22418337e-01 -1.14962161e-01
  5.89539371e-02 -9.20412038e-03 -7.24685118e-02  4.89783473e-02
 -1.36156514e-01 -3.25246267e-02  6.97233677e-02  8.83486792e-02
 -1.97495352e-02 -1.14802673e-01  2.14325175e-01 -2.01889761e-02
 -2.49514341e-01  1.18388096e-02  1.29377274e-02  2.15902194e-01
  2.09407136e-01  2.28437316e-02  4.81372289e-02 -1.32244676e-01
  1.18158437e-01 -1.68205410e-01 -2.28290986e-02  8.33750591e-02
  6.37591770e-03 -2.12637265e-03  2.89494172e-04 -1.62761748e-01
 -8.49306304e-03  7.40102977e-02 -1.70614034e-01 -2.90712751e-02
  4.30098251e-02 -1.07269146e-01 -2.94319931e-02 -7.48112574e-02
  2.37688705e-01  1.15072265e-01 -1.46542162e-01 -1.34250611e-01
  1.28625423e-01 -1.35808259e-01  1.72648728e-02  4.97349165e-02
 -1.81828186e-01 -1.80572465e-01 -2.80515909e-01 -2.99369600e-02
  4.38580602e-01  2.62782723e-02 -1.83871314e-01  3.51156853e-02
 -5.15973084e-02 -7.74735236e-04  1.29486114e-01  2.08906844e-01
  2.41326336e-02  3.03954482e-02 -7.62166381e-02 -5.63955717e-02
  2.20758274e-01 -1.00215308e-01 -1.66581292e-03  2.06019744e-01
 -7.22092614e-02  9.99006107e-02  9.80383623e-03  2.16705296e-02
 -4.70525175e-02  2.60939891e-03 -1.37717396e-01 -4.95384596e-02
 -1.32855866e-02 -2.06014421e-02  1.39185814e-02  9.78486091e-02
 -1.79638937e-01  5.97713105e-02  2.66518202e-02  3.27353925e-02
  6.39212802e-02 -2.35871710e-02 -6.79621100e-02 -9.13246498e-02
  1.44951105e-01 -2.29402617e-01  1.82420239e-01  2.14344651e-01
  2.47503165e-02  1.20151833e-01  7.99518153e-02  7.86872655e-02
 -3.54491733e-02  4.25723940e-03 -1.85297012e-01  3.08313202e-02
  6.57923520e-02 -1.07766315e-02  4.86118048e-02 -4.32899669e-02]