[-1.01850428e-01  6.01073205e-02  1.25709698e-01  1.81629512e-04
 -5.43090999e-02 -5.12769818e-02 -4.51938845e-02 -1.64502099e-01
  1.20245986e-01 -7.73690566e-02  2.77552038e-01 -3.92020121e-02
 -1.78180799e-01 -7.91905373e-02  2.96256971e-03  2.22952276e-01
 -1.89062640e-01 -8.81953165e-02 -2.49460898e-03  3.26844351e-03
  2.98470389e-02 -2.50211097e-02  7.00022802e-02  1.60025302e-02
 -5.84167205e-02 -3.69939834e-01 -1.21723734e-01 -1.21626914e-01
  7.57736787e-02 -1.75574031e-02 -6.83323666e-02  3.42321657e-02
 -1.27617225e-01 -2.60503832e-02  6.42036274e-02  7.68721700e-02
 -2.39226427e-02 -1.04571715e-01  2.20518857e-01 -2.92808749e-02
 -2.38404304e-01  5.56045864e-03  1.09541854e-02  2.19034716e-01
  2.04182461e-01  3.11055575e-02  5.17233685e-02 -1.17246233e-01
  1.08478069e-01 -1.57864198e-01 -1.61818359e-02  7.72515461e-02
  1.84674263e-02 -1.55868905e-03 -8.53453483e-03 -1.70140967e-01
 -8.35702103e-03  6.27009273e-02 -1.60439938e-01 -1.80093143e-02
  5.51957451e-02 -1.14776254e-01 -3.03502083e-02 -5.46773337e-02
  2.48841286e-01  9.79650542e-02 -1.47073671e-01 -1.43741399e-01
  1.21178783e-01 -1.32130891e-01  1.08355489e-02  5.16833067e-02
 -1.91249833e-01 -1.66036233e-01 -2.77194530e-01 -2.86493339e-02
  4.40544665e-01  1.19416062e-02 -1.91860080e-01  3.01496815e-02
 -5.60037009e-02  3.74691375e-03  1.40411079e-01  2.09499195e-01
  2.91713811e-02  3.09697576e-02 -8.55189934e-02 -6.09142371e-02
  2.13175058e-01 -1.15965188e-01 -4.71825432e-03  2.03774482e-01
 -6.49605989e-02  9.80730504e-02  6.98508276e-03  2.47029420e-02
 -4.28415611e-02  3.11637530e-03 -1.21567450e-01 -5.46174906e-02
 -6.16471982e-03 -2.02840455e-02  1.86015759e-02  1.03620365e-01
 -1.85394928e-01  7.75540471e-02  1.83390155e-02  4.65246849e-02
  6.01058267e-02 -2.99547501e-02 -7.04419538e-02 -8.86978731e-02
  1.51833758e-01 -2.27976799e-01  1.74251363e-01  2.25290895e-01
  1.97159257e-02  1.12814777e-01  8.57074782e-02  7.79481381e-02
 -3.18622142e-02  1.45864589e-02 -1.96933076e-01  3.24221812e-02
  5.36857732e-02 -2.00258121e-02  4.57289778e-02 -3.46494429e-02]