[-9.49291438e-02  9.29413065e-02  9.51787978e-02 -3.29771601e-02
 -3.45761739e-02 -3.44788209e-02 -4.16331924e-02 -1.56285748e-01
  1.49998993e-01 -1.14899434e-01  2.56059378e-01 -5.82256615e-02
 -1.81515872e-01 -8.58927742e-02 -2.50370298e-02  2.26288706e-01
 -2.17396572e-01 -9.67390314e-02 -1.35379555e-02  2.64532696e-02
  3.99809256e-02 -2.25326251e-02  5.17444313e-02  3.56166922e-02
 -6.84427768e-02 -4.03574198e-01 -1.33367300e-01 -1.09279990e-01
  4.15407941e-02 -1.91052500e-02 -6.80067763e-02  2.91757919e-02
 -1.22220002e-01 -7.12420139e-03  4.65949886e-02  7.68675506e-02
 -3.28145437e-02 -1.12166286e-01  2.08306864e-01 -2.34870967e-02
 -2.41621837e-01  3.06182541e-02  2.08801329e-02  2.19852209e-01
  1.95121035e-01  2.77258586e-02  4.45156358e-02 -1.21134691e-01
  1.16475046e-01 -1.67889759e-01 -1.59982052e-02  9.55049023e-02
  2.20380723e-04  2.21672617e-02 -1.98378484e-03 -1.57335743e-01
  1.88674370e-03  9.11007598e-02 -1.71044096e-01 -2.54089814e-02
  4.72416691e-02 -1.21324733e-01 -1.66018233e-02 -3.44437920e-02
  2.15627983e-01  1.20339029e-01 -1.35051638e-01 -1.54071733e-01
  1.32108003e-01 -1.55179307e-01  2.64824331e-02  2.91107241e-02
 -1.74138844e-01 -2.03982234e-01 -2.43352562e-01  2.70810584e-03
  4.34235543e-01  8.13803002e-02 -1.51429981e-01  4.42975983e-02
 -3.92597392e-02 -1.45068495e-02  1.55980855e-01  2.11577415e-01
  1.62604414e-02  1.37622850e-02 -7.70559162e-02 -1.76244210e-02
  2.16190681e-01 -9.04950574e-02 -5.72624570e-03  2.14342713e-01
 -6.21501170e-02  9.81962606e-02 -4.45665373e-03 -1.71805602e-02
 -5.18226586e-02  4.57301028e-02 -1.25158474e-01 -6.67473301e-03
 -1.68794245e-02 -1.34664373e-02  1.70938380e-03  8.82465318e-02
 -1.59643933e-01  8.16076994e-02  2.22750343e-02  1.70131531e-02
  3.93661074e-02 -2.09711250e-02 -7.80246630e-02 -7.13558346e-02
  1.42669290e-01 -2.18229517e-01  1.89425722e-01  2.18178779e-01
  5.52529469e-02  1.42615139e-01  1.03806749e-01  6.73241615e-02
  1.27800349e-02 -1.70716345e-02 -2.13614583e-01  3.58060300e-02
  8.68534446e-02 -1.77671965e-02  6.75376579e-02 -5.08217178e-02]