[-1.11920074e-01  9.38203856e-02  1.04347520e-01 -1.35504445e-02
 -9.89584066e-03 -3.92265134e-02 -3.14873941e-02 -1.52299687e-01
  9.39383581e-02 -9.73929614e-02  2.80074358e-01 -5.31957038e-02
 -1.89628869e-01 -1.07722424e-01  2.60461010e-02  1.80206224e-01
 -1.48626387e-01 -1.11030973e-01 -4.17314842e-02 -7.98921939e-03
  9.89871472e-03 -2.64567640e-02  5.85057251e-02  2.88820621e-02
 -6.96948320e-02 -3.50233167e-01 -1.16092376e-01 -1.08348228e-01
  1.80548504e-02 -5.18846624e-02 -6.35299087e-02  1.16410004e-02
 -1.33995861e-01  1.18163917e-02  1.28164981e-02  7.67416731e-02
 -5.68216573e-03 -9.96318832e-02  2.10620806e-01 -1.19722979e-02
 -2.11297542e-01 -1.69293880e-02  7.94895180e-03  2.36174017e-01
  1.90532476e-01  1.86519697e-02  2.59286705e-02 -8.16182196e-02
  8.28184411e-02 -1.40810356e-01  3.99156623e-02  7.42124394e-02
  4.99093309e-02  6.92364061e-03 -2.01833481e-03 -1.61444232e-01
 -4.85870522e-03  4.65522073e-02 -1.23933695e-01 -1.87529270e-02
  4.52652574e-02 -1.41192079e-01 -3.63218151e-02 -5.11223376e-02
  2.54310101e-01  1.23888902e-01 -1.25677377e-01 -1.21436231e-01
  1.24012902e-01 -1.14154771e-01 -5.73420385e-03  3.86382900e-02
 -1.79960430e-01 -1.57431751e-01 -2.72984803e-01  3.74664962e-02
  3.98254007e-01  5.12320884e-02 -1.95386514e-01  1.78283099e-02
 -5.64182065e-02  3.83407366e-03  1.36464372e-01  1.87341005e-01
 -1.87436622e-02  2.49842666e-02 -1.06628060e-01 -1.61662307e-02
  2.18583614e-01 -8.31250399e-02 -4.75547686e-02  1.73016503e-01
 -7.87599906e-02  6.75989315e-02  2.09839772e-02 -1.45458132e-02
 -2.08524782e-02  1.75900422e-02 -1.01464406e-01 -1.41903311e-02
  2.89432891e-02 -6.21534996e-02 -1.59697980e-02  9.98556986e-02
 -1.78171575e-01  5.29313385e-02  3.79340388e-02  1.15491068e-02
  5.67982793e-02 -5.21703763e-03 -9.02280733e-02 -8.91939253e-02
  1.34789139e-01 -2.20079422e-01  1.78400189e-01  1.94961593e-01
  4.45157140e-02  1.29815072e-01  1.00374416e-01  1.11812249e-01
 -1.52256070e-02  9.54948738e-03 -1.80599913e-01  1.82181131e-02
  8.50542709e-02  3.08227576e-02  8.72835666e-02  3.04121524e-04]