[-0.11623686  0.07292639  0.11374795 -0.02689079 -0.05440131 -0.06542364
 -0.06325538 -0.17045736  0.09929216 -0.09408399  0.2580654  -0.06155716
 -0.17590855 -0.09692674 -0.00383143  0.22730732 -0.18707402 -0.10332149
 -0.03458938  0.01525272  0.01743686 -0.03203121  0.07480524  0.02836772
 -0.07233983 -0.3686147  -0.11704099 -0.09446735  0.02755712 -0.01092436
 -0.09873616  0.04420188 -0.13985619 -0.03513569  0.04582598  0.10136306
 -0.0271867  -0.09967612  0.19645207 -0.050095   -0.24603586  0.02345324
  0.0579294   0.21607296  0.23215941  0.02763321  0.04852289 -0.11602415
  0.10293535 -0.13653763  0.01643448  0.06511941  0.04005877  0.01208295
  0.01313926 -0.15632959 -0.00595697  0.08550245 -0.11824092 -0.02009594
  0.06869975 -0.12350497 -0.01743979 -0.07146741  0.26112586  0.10234088
 -0.14242521 -0.1433298   0.12546511 -0.11764314 -0.00715502  0.03565827
 -0.18460384 -0.15776663 -0.29891258 -0.00998084  0.3988632   0.03378022
 -0.19604038  0.03743518 -0.04000183 -0.00165322  0.14276235  0.21086065
  0.01974651  0.02056047 -0.09739425 -0.04981777  0.22866927 -0.09949831
 -0.01207189  0.19114411 -0.04833144  0.06774137  0.015219    0.01431699
 -0.05757914  0.02376618 -0.13908878 -0.02200053  0.00282855 -0.037791
 -0.00489392  0.10033496 -0.14883849  0.05511253  0.02155533  0.05597109
  0.05408039 -0.01697906 -0.08119702 -0.10804355  0.12430936 -0.21796601
  0.17001678  0.20003538  0.03913577  0.11478286  0.11246035  0.1071256
 -0.01182181  0.0336593  -0.18478878  0.02965174  0.09310727 -0.0048657
  0.08938275  0.01041115]