[-9.18416008e-02  9.22625065e-02  9.95057747e-02 -5.86373024e-02
 -3.45394127e-02 -5.38207553e-02 -4.95726690e-02 -1.53708532e-01
  1.50542349e-01 -1.28219247e-01  2.50708491e-01 -7.87314102e-02
 -1.82905897e-01 -6.82333633e-02 -3.57998535e-02  2.41198450e-01
 -2.32911989e-01 -1.06056087e-01 -1.90680698e-02  3.72166634e-02
  5.59837334e-02 -1.38742402e-02  5.22033051e-02  4.25122157e-02
 -6.21175244e-02 -4.02825266e-01 -1.35023817e-01 -9.07172486e-02
  3.90824564e-02 -2.06269678e-02 -5.74881136e-02  3.48623246e-02
 -1.34062976e-01 -8.90210285e-05  5.64330891e-02  9.24813300e-02
 -1.43646477e-02 -1.46471813e-01  1.96408674e-01 -1.72341336e-02
 -2.54927009e-01  3.96295153e-02  2.91016828e-02  2.18722850e-01
  2.15482309e-01  1.31447939e-02  4.08985615e-02 -1.23915710e-01
  1.35162935e-01 -1.81866676e-01 -3.19684632e-02  8.33414495e-02
  3.39636201e-04  1.65107884e-02  2.40114313e-02 -1.62904978e-01
  8.38597585e-03  9.79658589e-02 -1.68930516e-01 -4.61528897e-02
  3.99911478e-02 -1.05986476e-01  6.45641563e-03 -6.01251796e-02
  2.23068148e-01  1.12166427e-01 -1.52795300e-01 -1.40850589e-01
  1.49409130e-01 -1.45768046e-01  3.62409763e-02  2.87811346e-02
 -1.73001140e-01 -1.91873983e-01 -2.31811240e-01 -1.63745284e-02
  4.34425354e-01  8.02782178e-02 -1.59746900e-01  6.57963678e-02
 -3.06993015e-02 -9.38451756e-03  1.34949222e-01  2.38024950e-01
  3.33054848e-02  3.86585370e-02 -7.45830387e-02 -1.85358431e-02
  2.19931319e-01 -8.88225138e-02  1.61296877e-04  2.35580251e-01
 -7.18163401e-02  9.28962529e-02  2.86322250e-03 -2.73158010e-02
 -6.45826906e-02  3.28568481e-02 -1.29704878e-01 -7.27226213e-03
 -4.03297879e-02 -1.01283984e-02 -1.68379601e-02  9.43219811e-02
 -1.45919740e-01  7.59179816e-02  1.23579921e-02  2.46146452e-02
  1.86643396e-02 -2.42172461e-02 -4.96585555e-02 -5.97197302e-02
  1.20990314e-01 -2.31143236e-01  1.71691522e-01  2.03046069e-01
  3.95939723e-02  1.43537909e-01  8.87271389e-02  7.16718361e-02
  2.33491752e-02 -1.37916431e-02 -2.07815930e-01  2.51417346e-02
  7.59724230e-02 -1.73217356e-02  6.72025010e-02 -4.94032241e-02]