[-8.44393894e-02  7.50489086e-02  1.40521809e-01 -1.82748269e-02
 -6.33110702e-02 -4.31464277e-02 -8.23486894e-02 -1.21415734e-01
  1.07984148e-01 -7.18888566e-02  2.55041689e-01 -6.62766472e-02
 -1.95300251e-01 -5.30063510e-02 -1.07530700e-02  2.38375977e-01
 -2.10194707e-01 -9.12537798e-02 -8.02619942e-03  3.48982476e-02
  3.39362286e-02 -1.53342159e-02  7.37074018e-02  1.86804775e-02
 -9.44125205e-02 -4.07999098e-01 -1.19674377e-01 -9.39608365e-02
  5.02812378e-02 -1.95100922e-02 -8.89954418e-02  2.35892665e-02
 -1.60818011e-01 -9.37301107e-03  7.18991831e-02  9.83718559e-02
 -3.10665257e-02 -1.43558294e-01  2.00983331e-01  9.09847300e-03
 -2.40960911e-01  3.96217592e-02 -4.99249483e-03  2.16749474e-01
  2.04182416e-01  2.85177715e-02  7.32662454e-02 -1.36493936e-01
  1.25778720e-01 -1.77434310e-01 -7.27558916e-04  1.13685839e-01
  2.59170099e-03  2.24029738e-02 -1.80233549e-02 -1.36268184e-01
  2.16632243e-02  1.00093104e-01 -1.77602738e-01 -2.15251204e-02
  7.92414993e-02 -9.22003463e-02  2.94611062e-04 -7.83087537e-02
  2.33004645e-01  9.41403955e-02 -1.52525589e-01 -1.30340740e-01
  1.13309793e-01 -1.16476968e-01  3.51887941e-02  2.56031659e-02
 -1.75883502e-01 -1.91402987e-01 -2.58389294e-01 -9.96771548e-03
  4.29564446e-01  5.04653119e-02 -1.93020761e-01  4.40919660e-02
 -6.49250373e-02 -7.76055595e-03  1.24116652e-01  2.17939690e-01
  3.04157734e-02  4.50448357e-02 -7.70853683e-02 -1.83647033e-02
  2.37468526e-01 -1.14880227e-01  3.28466929e-02  2.34851122e-01
 -4.79467884e-02  8.76910016e-02  1.69532802e-02  9.67507716e-03
 -6.86999485e-02  8.89432151e-03 -1.04861639e-01 -2.08367240e-02
 -3.50966230e-02 -3.71961556e-02  1.46946020e-03  7.71410614e-02
 -1.76778242e-01  9.40031037e-02  1.82048064e-02  2.36697234e-02
  5.44635355e-02 -4.15896885e-02 -6.83408305e-02 -1.02030769e-01
  1.39112607e-01 -2.43527323e-01  1.66353822e-01  2.15543672e-01
  3.80951315e-02  1.34177908e-01  8.97396877e-02  1.04115762e-01
 -2.60385964e-02  1.23279321e-03 -1.80761322e-01  2.44905185e-02
  6.76971301e-02 -4.53240442e-04  5.22547178e-02 -3.46342400e-02]