[-0.1178795   0.06719226  0.11838926 -0.00694436 -0.04542526 -0.06990697
 -0.05707293 -0.17066698  0.09397371 -0.07931899  0.25411138 -0.0708042
 -0.16272795 -0.10129964 -0.00175977  0.2181232  -0.18673562 -0.0986864
 -0.02866707  0.00229199  0.02675309 -0.03932307  0.07393187  0.0226084
 -0.07280685 -0.3615244  -0.12076785 -0.11029088  0.04066243 -0.01450311
 -0.10619394  0.02584516 -0.14739183 -0.04541622  0.03569539  0.08760469
 -0.02699807 -0.10189179  0.186415   -0.05749288 -0.22821788  0.01465481
  0.05073053  0.21464173  0.21608499  0.04076856  0.03599157 -0.10190989
  0.0893901  -0.12841067  0.02389355  0.05386097  0.03385327  0.01975531
  0.01745067 -0.15260904 -0.00321244  0.07898634 -0.12127601 -0.00822578
  0.06013718 -0.11654981 -0.01323321 -0.07344653  0.25668651  0.10343459
 -0.12386855 -0.1418902   0.10969551 -0.12310056 -0.00919343  0.03057883
 -0.17106834 -0.15961789 -0.30704933 -0.00931517  0.39353454  0.04092486
 -0.20063213  0.02885752 -0.03043082 -0.00733055  0.16405761  0.19867705
  0.0212305   0.03920852 -0.10245438 -0.05604874  0.22061026 -0.10072907
 -0.01962143  0.19142592 -0.05908868  0.06626818  0.01310004  0.00463531
 -0.04813914  0.03223919 -0.13512816 -0.02333846  0.014021   -0.03021132
 -0.0092158   0.09364659 -0.1467022   0.04021304  0.02874832  0.05246965
  0.04018818 -0.02228416 -0.09734269 -0.10298996  0.12802291 -0.22229548
  0.16839217  0.21256332  0.04125776  0.11430235  0.10323956  0.09011593
 -0.01200068  0.03119292 -0.18833824  0.03770774  0.09740408 -0.00462624
  0.0804816   0.01729329]