[-0.11181875  0.08585319  0.08519338 -0.01684692  0.00194789 -0.06145452
 -0.04755088 -0.17637204  0.09998678 -0.07855634  0.26813287 -0.04702755
 -0.18585232 -0.11684072 -0.01431315  0.21816806 -0.20012131 -0.11853492
 -0.01902874  0.0138013   0.02476652 -0.04214207  0.05744966  0.06131287
 -0.05009552 -0.33549964 -0.10338282 -0.12314752  0.02902722 -0.0098509
 -0.07577605  0.02968462 -0.15290359 -0.00070013  0.04152599  0.07233946
  0.00345109 -0.0905051   0.21106406 -0.01154837 -0.22071402  0.0015853
  0.03249836  0.23165964  0.21492966  0.01755737  0.02270056 -0.10943609
  0.09555985 -0.1588088   0.00362408  0.09221943  0.06224079  0.00532896
 -0.0089054  -0.18761994  0.00045757  0.04636299 -0.14107494 -0.01468043
  0.03191597 -0.1166489  -0.02703849 -0.05713499  0.25413504  0.10572443
 -0.13561893 -0.12062603  0.15247273 -0.11299044  0.01332015  0.04394449
 -0.18115501 -0.18677567 -0.25724959  0.00346863  0.38794723  0.06391965
 -0.19587083  0.05298932 -0.07271233  0.00159755  0.12676525  0.18050213
  0.00582331  0.0294121  -0.09290927 -0.03979365  0.21227191 -0.0923401
 -0.01065411  0.20396726 -0.07586404  0.05853358  0.01206646 -0.0229751
 -0.01843128  0.02766586 -0.14429197 -0.03559491 -0.01543016 -0.04279315
  0.00868283  0.08124878 -0.17954403  0.01480094  0.04821698  0.01831702
  0.04499644 -0.0036157  -0.09514013 -0.0963328   0.13450816 -0.21900526
  0.21019296  0.20124486  0.06276878  0.1187307   0.09960517  0.09885972
 -0.01049057 -0.02082933 -0.16727518  0.03166083  0.10022189  0.00125274
  0.07370932 -0.01451566]