[-9.49873775e-02  8.83691236e-02  1.00992560e-01 -1.25129698e-02
 -2.11905148e-02 -4.08897512e-02 -3.62734869e-02 -1.73297003e-01
  1.19786039e-01 -1.09165482e-01  2.63154298e-01 -6.07403032e-02
 -1.82815105e-01 -1.07692502e-01  5.21559909e-04  2.11270958e-01
 -1.88590258e-01 -1.21233098e-01 -2.14841310e-02  9.61253233e-03
  1.96389463e-02 -3.06087825e-02  6.47508726e-02  2.70547364e-02
 -6.91270754e-02 -3.60410899e-01 -1.23269357e-01 -1.19838551e-01
  2.69982815e-02 -3.62941697e-02 -7.82137811e-02  2.51336824e-02
 -1.29707664e-01 -2.47172243e-03  1.82553567e-02  6.15898967e-02
 -1.19894119e-02 -1.02871977e-01  2.07784966e-01 -2.52980292e-02
 -2.37909630e-01  1.21132042e-02  2.63643470e-02  2.24870205e-01
  2.09108427e-01  2.43590325e-02  3.08859386e-02 -9.88676473e-02
  9.67069343e-02 -1.34926856e-01  1.74848568e-02  6.68314993e-02
  5.09757958e-02  7.12753413e-03 -5.21152862e-04 -1.60246536e-01
 -1.68550480e-02  4.94116582e-02 -1.18326187e-01 -1.01791956e-02
  5.61069325e-02 -1.33443281e-01 -1.98274907e-02 -4.48475182e-02
  2.53713697e-01  1.10442497e-01 -1.23315707e-01 -1.47516474e-01
  1.22712314e-01 -1.39092609e-01 -2.08141506e-02  3.15283276e-02
 -1.78115845e-01 -1.60590261e-01 -2.74989545e-01  6.89594075e-03
  3.95054877e-01  4.55377363e-02 -1.91268250e-01  4.54165414e-02
 -3.83917652e-02  5.85831469e-03  1.51135638e-01  2.24886656e-01
  1.08210100e-02  2.89782193e-02 -9.93493423e-02 -5.47029674e-02
  2.25577906e-01 -1.03854202e-01 -3.92803848e-02  1.92612976e-01
 -7.82216042e-02  7.93752894e-02  1.24817332e-02 -2.69849580e-02
 -2.82005351e-02  3.92358638e-02 -1.09686449e-01 -1.94676016e-02
  9.48521402e-03 -2.79355496e-02 -1.24196466e-02  9.47861150e-02
 -1.53582722e-01  4.88058813e-02  2.15854645e-02  4.04082797e-02
  6.00268506e-02  4.65901569e-04 -8.51455629e-02 -1.01566076e-01
  1.29910618e-01 -2.22481608e-01  1.80072457e-01  1.98173627e-01
  3.88662368e-02  1.18556574e-01  1.07702814e-01  1.11151062e-01
  1.56218186e-04  3.06628998e-02 -1.95081532e-01  2.85258722e-02
  9.80964527e-02  5.59031358e-03  8.14570710e-02 -5.35710761e-03]