[-0.09145159  0.10545824  0.08438454 -0.01862588 -0.03344543 -0.07293766
 -0.02282598 -0.16567348  0.13039993 -0.08266237  0.28101584 -0.04536322
 -0.15776181 -0.13580285  0.04127669  0.16569039 -0.19891785 -0.08911689
 -0.0129344   0.00516933  0.0865102  -0.01033604  0.0991651   0.02104358
 -0.06160382 -0.39989075 -0.13734956 -0.10791677  0.10978055 -0.02057152
 -0.04598376  0.03598457 -0.10578313 -0.03126482  0.03967906  0.06999613
 -0.01871227 -0.10161438  0.21158783 -0.01852923 -0.22616795  0.02438188
  0.00575776  0.24547081  0.2196003   0.02456387  0.06654549 -0.08764208
  0.10112794 -0.15496288  0.02765777  0.08598657  0.07434145 -0.00239627
  0.03803937 -0.15397592 -0.01559717  0.07829481 -0.15678196  0.00307013
  0.05864496 -0.13289399 -0.00770761 -0.0347812   0.22809374  0.10852394
 -0.13616556 -0.13178878  0.09291621 -0.13118301 -0.02295869  0.02986729
 -0.18963906 -0.1481726  -0.27734149  0.0063573   0.40664029  0.02996924
 -0.17627373  0.04240262 -0.05340786  0.01494381  0.12438746  0.20662332
 -0.02322694  0.00211428 -0.11547597 -0.03745534  0.18287316 -0.11265751
 -0.02965189  0.22361727 -0.06783521  0.10790954  0.00337962 -0.00605917
 -0.05119498  0.03486827 -0.07526048 -0.02021146  0.02396402 -0.07169824
  0.00136493  0.09828256 -0.20503481  0.07591497  0.01067668  0.05084812
  0.07116905 -0.03839749 -0.0616914  -0.06915396  0.1142624  -0.23839255
  0.18941905  0.23407774  0.03723617  0.1487789   0.0900513   0.06943528
  0.01340245  0.01131686 -0.17450707  0.03656382  0.05137057  0.00695917
  0.02301157 -0.01326409]