[-0.12858596  0.09907639  0.08928449  0.01372579 -0.00868761 -0.03417578
 -0.04901399 -0.16091438  0.09382674 -0.06254541  0.25046167 -0.02534432
 -0.19500194 -0.121733    0.00243186  0.19784905 -0.18207841 -0.10649722
 -0.02246429 -0.01291665  0.04298694 -0.02194005  0.0541853   0.03049427
 -0.06696456 -0.34053352 -0.09964188 -0.12214857  0.04725653 -0.04475109
 -0.08537384  0.01157402 -0.13563153 -0.00686944  0.03000667  0.07910594
 -0.00256484 -0.07630607  0.2135016  -0.01833702 -0.20402931  0.00590036
  0.02676477  0.23936386  0.208975    0.04012021  0.03179374 -0.10755888
  0.08324523 -0.14940193  0.03966545  0.09775776  0.05809778  0.02216726
 -0.0049234  -0.18945272 -0.01556068  0.03963017 -0.13307291 -0.00628978
  0.05747351 -0.12344482 -0.036536   -0.05175881  0.23572853  0.10793716
 -0.11986139 -0.13827673  0.12740766 -0.12492999 -0.01713318  0.02869941
 -0.16553986 -0.16633947 -0.27407351  0.01939321  0.39231291  0.06725954
 -0.20153458  0.03892943 -0.06612793 -0.01055362  0.14911537  0.16918416
 -0.00575904  0.01311156 -0.09315485 -0.02892976  0.2065841  -0.07734825
 -0.01831647  0.17274356 -0.05118315  0.06660531  0.0138079  -0.00212492
 -0.0285444   0.03951551 -0.11852523 -0.03039191  0.00508296 -0.05120255
  0.01934388  0.09066478 -0.18261909  0.06318482  0.04819471  0.02244908
  0.05095193 -0.01129254 -0.10620298 -0.06847043  0.14411157 -0.22703901
  0.21657915  0.21241371  0.04930199  0.12918945  0.10607632  0.11627848
 -0.01013718 -0.00056448 -0.19442189  0.02041763  0.08878553  0.00116337
  0.07277932  0.00938888]