[-0.10646471  0.06917085  0.11790371 -0.01066804 -0.04367075 -0.05759803
 -0.04838782 -0.16126323  0.13088249 -0.07026307  0.28023919 -0.05162959
 -0.19197586 -0.08323281  0.00481659  0.22297196 -0.19502115 -0.0865221
 -0.00983101  0.02229605  0.01828295 -0.02843894  0.08066053  0.03951464
 -0.0626756  -0.38966554 -0.12673436 -0.11433649  0.05950688 -0.01106613
 -0.07332068  0.04404601 -0.13654877 -0.01795241  0.07405948  0.08110196
 -0.01746183 -0.12571637  0.21451263 -0.01280784 -0.23141539  0.00901785
  0.00208344  0.20760727  0.22432898  0.0094094   0.05224296 -0.11896966
  0.10764138 -0.16693582 -0.02586168  0.09320324  0.02099007 -0.01563495
  0.01257696 -0.16181043 -0.02012165  0.08353418 -0.17286101 -0.03074471
  0.03421276 -0.10780227 -0.02904844 -0.07415654  0.23080137  0.1284299
 -0.14974529 -0.12985289  0.14844795 -0.12799367  0.03184873  0.04175597
 -0.18770081 -0.18270658 -0.25644672 -0.0328619   0.42683521  0.03913916
 -0.19679902  0.03650837 -0.06930063  0.0042044   0.10825042  0.19430196
  0.01739291  0.02074113 -0.07719436 -0.05466152  0.20778683 -0.09203323
  0.00579607  0.21720882 -0.07958623  0.08050364  0.02005591 -0.00589579
 -0.0447318  -0.01430996 -0.12835252 -0.05575661 -0.03745709 -0.04375924
  0.01629704  0.09266833 -0.19067673  0.05191306  0.02554649  0.02682915
  0.05639947 -0.0239838  -0.0618408  -0.07593773  0.14710982 -0.24275923
  0.1828904   0.20224459  0.01657863  0.12838577  0.07024193  0.08780267
 -0.03379362 -0.00321365 -0.16290846  0.02151055  0.05016648 -0.00876764
  0.05269837 -0.04396352]