[-0.11527025  0.08636297  0.12000459 -0.02021746 -0.02135985 -0.05616349
 -0.03859999 -0.16096701  0.12170301 -0.07014775  0.28815857 -0.04721196
 -0.16763276 -0.10282592  0.00759799  0.21493688 -0.22627321 -0.09343173
 -0.0140556   0.01774721  0.04122337 -0.04128318  0.07367327  0.03406296
 -0.0884786  -0.375467   -0.10681539 -0.10300006  0.06261928  0.00309416
 -0.06610699  0.01691004 -0.17209879 -0.0138831   0.04189466  0.08852817
 -0.02339345 -0.12014756  0.21572724 -0.02835822 -0.23408006  0.02053694
  0.00172453  0.21488765  0.21042576  0.01582227  0.04223091 -0.12228403
  0.11796601 -0.15551434 -0.00333368  0.09867471  0.01862137  0.00225554
 -0.01535399 -0.16245665 -0.00044658  0.07120832 -0.16110961 -0.05010474
  0.03565929 -0.10551504 -0.00927792 -0.06860503  0.23441625  0.11122469
 -0.13540274 -0.14185706  0.13462181 -0.10358293  0.02682654  0.04517661
 -0.18699887 -0.18062203 -0.28754076 -0.00440887  0.41897279  0.03021243
 -0.18888234  0.03580754 -0.07691214  0.00125418  0.13883582  0.20267764
  0.02000841  0.03612326 -0.09761118 -0.02256009  0.21319905 -0.10647559
 -0.01551165  0.20913959 -0.05485929  0.0773659   0.00494757 -0.00298465
 -0.04906487  0.03628378 -0.13168983 -0.02625266 -0.00160533 -0.00195446
  0.01066624  0.10856488 -0.17830437  0.05791555  0.0451603   0.02676344
  0.05640027 -0.03372237 -0.0774515  -0.10288546  0.11890137 -0.23529465
  0.18729308  0.20817928  0.03666247  0.13043943  0.09005352  0.07840908
 -0.0234945   0.01071592 -0.1904621   0.04712401  0.07760697  0.00589919
  0.06873121 -0.02456466]