[-1.22145809e-01  8.60275626e-02  9.40867290e-02 -1.26791745e-03
 -1.10604567e-02 -5.09998091e-02 -4.81628366e-02 -1.73731953e-01
  9.40630361e-02 -7.00275525e-02  2.70480245e-01 -4.39114831e-02
 -1.97755650e-01 -1.01030424e-01 -1.36573045e-02  2.31906757e-01
 -1.92412421e-01 -1.23904467e-01 -8.67918879e-03  4.26781969e-03
  1.70760397e-02 -5.09924069e-02  4.81648967e-02  4.66984920e-02
 -5.55061363e-02 -3.34761828e-01 -1.05175689e-01 -1.20990373e-01
  3.78822535e-02 -2.24288311e-02 -8.38443413e-02  3.39128748e-02
 -1.41533494e-01 -4.42752607e-05  4.86789159e-02  7.98535347e-02
 -2.53659498e-04 -9.69114304e-02  2.16986611e-01 -2.24539749e-02
 -2.21752316e-01 -5.24091581e-03  4.51609157e-02  2.34925613e-01
  2.06308872e-01  2.42286958e-02  2.60203928e-02 -1.03238679e-01
  8.25601146e-02 -1.67977259e-01  1.33292750e-02  7.86606893e-02
  5.28135560e-02  1.85244586e-02 -1.64082926e-02 -2.02982739e-01
 -1.08197303e-02  4.39899638e-02 -1.40579209e-01 -1.66330002e-02
  3.55216675e-02 -1.26360044e-01 -3.43637094e-02 -6.85123652e-02
  2.58940309e-01  1.19840346e-01 -1.34740576e-01 -1.25561833e-01
  1.49228573e-01 -1.15053140e-01  8.82827770e-03  3.81165221e-02
 -1.72413617e-01 -1.76193640e-01 -2.62879848e-01  2.96659931e-03
  3.90059531e-01  5.98733313e-02 -1.93767145e-01  4.46630865e-02
 -5.80190718e-02 -7.51887402e-03  1.23123161e-01  1.80066705e-01
  1.28865708e-02  2.43051108e-02 -9.15386602e-02 -4.80959378e-02
  2.17988446e-01 -9.54740867e-02 -4.27086605e-03  1.86668128e-01
 -7.68640190e-02  6.08102679e-02  7.98654463e-03  2.38647847e-03
 -2.57867277e-02  2.20941138e-02 -1.40188366e-01 -4.80173305e-02
 -1.63681731e-02 -4.04180437e-02  1.20700141e-02  9.05201659e-02
 -1.83558345e-01  2.65709795e-02  4.60474826e-02  2.06403378e-02
  4.47015278e-02 -4.28443495e-03 -8.35320279e-02 -8.90096202e-02
  1.39209226e-01 -2.23879963e-01  2.07729623e-01  2.10978270e-01
  4.88055907e-02  1.19884484e-01  9.76669937e-02  1.00994661e-01
 -1.28145218e-02 -1.83547642e-02 -1.79625466e-01  2.63783243e-02
  9.17794034e-02 -4.11822135e-03  6.40101805e-02 -2.62041250e-03]