[-9.00628418e-02  8.50537345e-02  9.27983299e-02 -3.27388905e-02
 -2.36192476e-02 -5.46445213e-02 -4.68317233e-02 -1.68374375e-01
  1.14498220e-01 -6.01725765e-02  2.84777403e-01 -4.66070324e-02
 -1.66941568e-01 -1.09676912e-01  2.03023828e-03  2.08223328e-01
 -2.05328628e-01 -1.05811588e-01 -3.04724574e-02  3.04539241e-02
  5.34814298e-02 -4.21548150e-02  6.76753446e-02  3.85497436e-02
 -6.37576804e-02 -3.61617416e-01 -1.21923484e-01 -9.27975625e-02
  6.64608032e-02 -1.77199803e-02 -7.03681111e-02  3.56306732e-02
 -1.54046655e-01 -5.38816024e-03  5.43718636e-02  8.90119523e-02
 -1.16129769e-02 -1.26747563e-01  1.96940422e-01 -2.25556549e-02
 -2.45899305e-01  2.14732829e-02  1.29370755e-02  2.03858897e-01
  2.27351546e-01  9.36340354e-03  3.77110653e-02 -1.06631495e-01
  1.11009993e-01 -1.65236279e-01 -5.20865479e-03  1.08358577e-01
  3.98942493e-02  7.53081916e-03 -5.73988585e-03 -1.54977649e-01
 -6.57830248e-03  9.26225185e-02 -1.57685503e-01 -2.81124599e-02
  3.02225053e-02 -1.39786258e-01 -1.25061348e-02 -7.47164264e-02
  2.27420792e-01  1.32403597e-01 -1.51273921e-01 -1.40485227e-01
  1.27907723e-01 -1.03004850e-01  7.88179878e-03  4.14164737e-02
 -1.94631919e-01 -1.78706869e-01 -2.74189025e-01 -6.43077493e-03
  4.20327514e-01  3.37109230e-02 -1.96042284e-01  4.84900586e-02
 -7.24001154e-02  1.23514105e-02  1.17529333e-01  1.98406205e-01
  1.53613659e-02  2.47674324e-02 -1.08167075e-01 -3.64072286e-02
  2.23535493e-01 -1.11429691e-01 -9.89808049e-03  2.14650497e-01
 -8.98781046e-02  8.97401571e-02 -4.48843086e-04  1.14692608e-02
 -3.15707624e-02  2.14306023e-02 -1.12513207e-01 -3.29045057e-02
 -1.00833494e-02 -3.56285982e-02  3.56821722e-04  9.65700448e-02
 -1.60843998e-01  3.80963646e-02  4.01738547e-02  4.82752696e-02
  5.69836460e-02 -3.87180336e-02 -5.90207055e-02 -9.18736383e-02
  1.18908606e-01 -2.36681864e-01  2.12692723e-01  2.05323800e-01
  3.81442644e-02  1.16960406e-01  9.28138122e-02  9.07027349e-02
 -9.72385425e-03 -1.83535852e-02 -1.67727247e-01  3.47889438e-02
  7.32447878e-02  1.48489429e-02  5.09671643e-02 -2.84450185e-02]