[-0.10620093  0.06309389  0.12699112 -0.00546337 -0.04962498 -0.05935882
 -0.04665369 -0.16292281  0.12727788 -0.06897514  0.28123772 -0.05550722
 -0.19402201 -0.07830486  0.005455    0.23466645 -0.19214772 -0.08855624
 -0.0223949   0.00911171  0.017675   -0.0240523   0.07828233  0.03089473
 -0.06441201 -0.39443389 -0.11396896 -0.12010854  0.05656731 -0.00794198
 -0.08107997  0.03678013 -0.14007431 -0.03731595  0.0804491   0.09125366
 -0.02757094 -0.11870425  0.21445523 -0.02197678 -0.24511655  0.00530639
  0.0174295   0.19761774  0.21265741  0.03287007  0.05069315 -0.12415247
  0.10552394 -0.17635231 -0.02229912  0.08578306  0.00908324 -0.00242834
  0.01066248 -0.16165033 -0.01306887  0.08609273 -0.16704547 -0.04104598
  0.04614164 -0.11248763 -0.0277885  -0.0648432   0.23949635  0.11705305
 -0.14707875 -0.12108263  0.12827797 -0.12497443  0.02130232  0.0467005
 -0.1804163  -0.1782043  -0.27623823 -0.026392    0.45005283  0.02593235
 -0.188059    0.02343031 -0.06042378  0.00836432  0.13441025  0.19246323
  0.02672419  0.01665068 -0.07641711 -0.05592231  0.20826624 -0.10267522
  0.00921811  0.20283531 -0.07590665  0.09578492  0.01044642  0.01999681
 -0.04947834 -0.00308985 -0.12538114 -0.05291048 -0.01435803 -0.01274517
  0.02331873  0.09299799 -0.18681002  0.04311613  0.02033142  0.0228325
  0.06775784 -0.02553103 -0.0559284  -0.09269994  0.13885248 -0.24014366
  0.17704347  0.2222728  -0.00215893  0.12283423  0.07465954  0.07669804
 -0.03277371  0.00089446 -0.1831183   0.02092562  0.0644851  -0.00237168
  0.04896592 -0.04928595]