[-0.07798082  0.07538569  0.08756914 -0.01410451 -0.03558077 -0.0468515
 -0.09614809 -0.13622142  0.15416519 -0.06711026  0.26824817 -0.02180641
 -0.19924074 -0.07173564 -0.01613028  0.23268406 -0.23672698 -0.09647232
 -0.03512712  0.02118412 -0.00671223 -0.02601709  0.0877761   0.04813437
 -0.11525247 -0.38488662 -0.10502221 -0.12029231  0.01754614 -0.03800942
 -0.07816274  0.04154721 -0.17838305 -0.0154611   0.05765154  0.08974532
 -0.04057943 -0.09768321  0.18365735 -0.03258325 -0.2460002   0.03260155
  0.00895692  0.2096353   0.23841596  0.04088693  0.04561029 -0.14737748
  0.12179198 -0.16784282  0.01108833  0.11090236  0.01868969  0.0092484
 -0.01954321 -0.15455976  0.00481419  0.11898384 -0.17003445 -0.04361014
  0.07870108 -0.08858978 -0.03108094 -0.06014983  0.23757558  0.10733028
 -0.15584853 -0.13599572  0.13943045 -0.12920223  0.043683    0.05039058
 -0.16780941 -0.23658216 -0.26529092  0.00369689  0.4263773   0.05108791
 -0.17558932  0.06099063 -0.05355031  0.00833795  0.1101175   0.18237108
  0.00078613  0.00697741 -0.08902492 -0.01700701  0.21689022 -0.0860967
  0.02836104  0.20022944 -0.0593502   0.05267892  0.0231913   0.01591641
 -0.06794456  0.04208358 -0.13840589 -0.00704875 -0.02969698 -0.01088202
 -0.00387238  0.06278156 -0.12762797  0.08367558  0.03547392  0.02113503
  0.07637617 -0.00894984 -0.07677006 -0.14422946  0.14352801 -0.25952896
  0.1913126   0.17879681  0.04783399  0.15257806  0.07353029  0.14698467
 -0.04140381  0.01360347 -0.2098445   0.03266139  0.09740448 -0.02063414
  0.07961974 -0.03982024]