[-0.09224088  0.08904912  0.09357112 -0.02136852 -0.02399234 -0.04222298
 -0.04265162 -0.17276798  0.1142476  -0.09933822  0.2554808  -0.06078139
 -0.20344763 -0.09370492 -0.00271586  0.20841482 -0.18748511 -0.11832938
 -0.03367069  0.00316322  0.02455177 -0.02836448  0.06167451  0.03258963
 -0.0741034  -0.36357594 -0.12127898 -0.11307674  0.0209465  -0.04338857
 -0.08643561  0.01941878 -0.12768708 -0.00644835  0.03485224  0.07251484
 -0.01282183 -0.1069917   0.21399198 -0.02230332 -0.23711644  0.01837244
  0.03064765  0.21804774  0.20567155  0.04424941  0.03524541 -0.11135954
  0.10832709 -0.13998371  0.03653678  0.07471205  0.04754562  0.00637597
  0.00542327 -0.16519083 -0.02257112  0.0621971  -0.117893   -0.02150716
  0.06535175 -0.14276497 -0.02907629 -0.0622574   0.24542108  0.11434639
 -0.12991601 -0.14009289  0.12196245 -0.13854115 -0.02679026  0.02185305
 -0.1700007  -0.14922269 -0.27909407  0.00953926  0.4015862   0.04574192
 -0.19210097  0.0375119  -0.03688266  0.00883718  0.15285142  0.21499085
  0.00235722  0.02038141 -0.094039   -0.05146873  0.22678004 -0.09824388
 -0.03178874  0.17846607 -0.0762196   0.08816775  0.01575736 -0.01489174
 -0.04736182  0.02953922 -0.10232236 -0.01529784  0.01398441 -0.02389166
 -0.01076643  0.09778513 -0.15796308  0.04855186  0.01556777  0.02766552
  0.06521405 -0.00415494 -0.08129117 -0.10566216  0.12580562 -0.23195672
  0.17768095  0.19882867  0.02815915  0.11889072  0.10288403  0.11482574
 -0.00216417  0.03169487 -0.2083257   0.01300447  0.10814472  0.01585169
  0.0847114  -0.01344112]