[-0.09297711  0.09192613  0.10130377 -0.05783948 -0.03685552 -0.05377475
 -0.04744951 -0.14820579  0.15382563 -0.12991887  0.24530804 -0.06824788
 -0.1868663  -0.05750182 -0.03233582  0.244378   -0.22282682 -0.10846787
 -0.01545207  0.04387374  0.05010585 -0.00947879  0.05598061  0.04445817
 -0.05682998 -0.39486012 -0.14127615 -0.08530989  0.04380297 -0.01534811
 -0.05202706  0.02714322 -0.13775806  0.00363886  0.06328817  0.09639406
 -0.01623972 -0.14789264  0.19047776 -0.00973949 -0.25634521  0.04198688
  0.02632584  0.22251172  0.21875468  0.01202795  0.04259851 -0.13023067
  0.13473603 -0.1790296  -0.02840294  0.08162941  0.00743777  0.01771823
  0.03127258 -0.16713481  0.02107675  0.09838483 -0.17109488 -0.04516504
  0.04050402 -0.08942022  0.01834331 -0.05829602  0.23209623  0.0990896
 -0.15632305 -0.14060399  0.15605122 -0.14721245  0.04294569  0.03324142
 -0.17675957 -0.19319578 -0.22594671 -0.01731801  0.42709264  0.0901685
 -0.1577182   0.08257651 -0.03386979 -0.00592664  0.11730707  0.24509902
  0.03489407  0.04578102 -0.07401016 -0.02466852  0.21760343 -0.08854705
  0.00764907  0.2466681  -0.07128447  0.08727812  0.00520008 -0.03459281
 -0.0705288   0.02278849 -0.12904994 -0.02347609 -0.05285383 -0.01305849
 -0.01245381  0.09579907 -0.15515871  0.08451053  0.00693409  0.03162171
  0.01579885 -0.01729676 -0.04422263 -0.05793545  0.11867678 -0.23588638
  0.17658766  0.19604933  0.03706122  0.13789611  0.08771267  0.07820216
  0.02114227 -0.01052252 -0.19932519  0.02692246  0.06729221 -0.02954168
  0.07017385 -0.04186464]