[-0.12783973  0.07756089  0.12324758  0.01051489 -0.03330926 -0.04656066
 -0.05291254 -0.14367858  0.10641842 -0.06494813  0.25330347 -0.04420153
 -0.18603615 -0.08983674  0.01937596  0.17049301 -0.18889847 -0.0580943
 -0.03348238 -0.04024104  0.03691942 -0.00937736  0.06859479  0.01307561
 -0.08919792 -0.35072145 -0.11381842 -0.13073833  0.05930978 -0.05172212
 -0.06786288  0.03121741 -0.11568023 -0.01408747  0.01333137  0.07137837
 -0.00921367 -0.08367909  0.19226812 -0.04112815 -0.18433584 -0.02852781
  0.00462659  0.22880116  0.22915879  0.02228598  0.02783439 -0.07078071
  0.06830524 -0.16251926  0.02989833  0.07509536  0.04507502  0.02151188
  0.02610219 -0.17165284 -0.02321769  0.05241919 -0.11815079 -0.00246883
  0.06552821 -0.13624285 -0.03708351 -0.04924629  0.24260771  0.12635897
 -0.1268442  -0.13446273  0.10255771 -0.13339166 -0.01077992  0.02474545
 -0.16540752 -0.14205025 -0.2838276  -0.00344057  0.38649341  0.04762939
 -0.2226193   0.00539989 -0.07489147 -0.00120973  0.15270281  0.16019623
 -0.01383332  0.0115931  -0.09754357 -0.03069657  0.1833628  -0.08688713
 -0.02344256  0.18899351 -0.05881416  0.06080015  0.02190195 -0.011303
 -0.04284052  0.01795921 -0.09969797 -0.01971401  0.03396314 -0.06144145
  0.0072644   0.09666219 -0.17384432  0.09068381  0.03570051  0.0392189
  0.0644945  -0.03830753 -0.11094137 -0.059441    0.18188934 -0.22739494
  0.17231928  0.20429368  0.02232147  0.14101392  0.08402821  0.11356237
 -0.03344106  0.0302408  -0.18211035  0.03920873  0.06103594 -0.01405539
  0.04509414  0.00544203]