[-9.53044519e-02  7.94985965e-02  9.82941315e-02 -2.89503634e-02
 -2.42235139e-02 -4.32562046e-02 -3.67125571e-02 -1.79173276e-01
  1.07513145e-01 -1.12244450e-01  2.73739725e-01 -7.17675909e-02
 -1.94776997e-01 -1.04733959e-01  3.12731689e-04  2.05270439e-01
 -1.88525647e-01 -1.33781478e-01 -1.64303910e-02  4.68497025e-03
  1.53325573e-02 -4.16680574e-02  4.44103219e-02  2.85139028e-02
 -7.71313086e-02 -3.48789692e-01 -1.34434685e-01 -1.12437539e-01
  4.98183025e-03 -3.74869071e-02 -8.33256617e-02  2.66660042e-02
 -1.29555866e-01  6.16134936e-03  2.92702708e-02  5.51360138e-02
  3.18898936e-03 -1.07070222e-01  2.04228804e-01 -2.28247344e-02
 -2.29812965e-01  1.91323217e-02  3.19838785e-02  2.19609186e-01
  2.08710060e-01  2.68417839e-02  2.20506042e-02 -9.49021205e-02
  1.08587615e-01 -1.29839197e-01  2.17347033e-02  7.80368373e-02
  6.45161048e-02 -2.83291494e-03 -3.47193773e-03 -1.63675442e-01
 -3.02713271e-02  5.61883152e-02 -1.15307368e-01 -1.65319536e-02
  5.11104874e-02 -1.39367372e-01 -2.85895746e-02 -6.89112470e-02
  2.45569736e-01  1.14256755e-01 -1.40093654e-01 -1.43054232e-01
  1.29911780e-01 -1.24692045e-01 -2.45539639e-02  2.02331673e-02
 -1.96834072e-01 -1.64245412e-01 -2.76812702e-01  2.03303471e-02
  3.89674991e-01  4.58684154e-02 -1.95948929e-01  4.51859832e-02
 -3.53278965e-02  1.98046062e-02  1.37827218e-01  2.18260571e-01
  1.00187613e-02  2.60184016e-02 -9.35107395e-02 -5.23673110e-02
  2.23649740e-01 -1.02316633e-01 -4.52955216e-02  1.83146134e-01
 -9.70328972e-02  8.55272189e-02  9.85761639e-03 -2.38289814e-02
 -2.18225922e-02  2.69380510e-02 -1.03885271e-01 -6.48728013e-03
  6.09273266e-04 -3.15517522e-02 -1.90350898e-02  1.02787450e-01
 -1.50978133e-01  3.29358317e-02  1.94676202e-02  3.69918533e-02
  3.77787910e-02 -7.52559339e-04 -7.88017139e-02 -9.57626030e-02
  1.16877370e-01 -2.39775732e-01  1.77644968e-01  1.95888028e-01
  3.47269513e-02  1.17546163e-01  1.02052748e-01  1.00644961e-01
  1.31431373e-03  2.66044624e-02 -1.93155438e-01  1.19666718e-02
  1.02768816e-01  1.81080084e-02  8.76083598e-02 -8.21036007e-03]