[-1.16946243e-01  8.01137164e-02  1.27724797e-01 -2.50532683e-02
 -1.27238426e-02 -6.50400147e-02 -3.33732255e-02 -1.66272447e-01
  1.19470775e-01 -7.21489638e-02  2.96529323e-01 -5.01110330e-02
 -1.65349320e-01 -9.99842510e-02  9.11134854e-03  2.17621043e-01
 -2.27760509e-01 -8.96838903e-02 -1.14738513e-02  1.76613424e-02
  3.86825018e-02 -4.75697480e-02  7.73145184e-02  3.92692722e-02
 -8.53589550e-02 -3.71741056e-01 -1.18508495e-01 -1.04250208e-01
  6.23769276e-02  1.01808980e-02 -6.39113560e-02  2.38858331e-02
 -1.70471892e-01 -5.78646921e-03  3.49419564e-02  8.18915144e-02
 -1.33437635e-02 -1.17732480e-01  2.07816198e-01 -2.62506045e-02
 -2.32086137e-01  1.39882853e-02  6.76462078e-04  2.10525677e-01
  2.09231064e-01  8.74712877e-03  4.58811149e-02 -1.13999583e-01
  1.04271986e-01 -1.58825457e-01 -9.57719143e-03  8.79126117e-02
  2.02877168e-02  1.30159629e-03 -1.77510511e-02 -1.69760779e-01
 -4.02910775e-03  6.92267790e-02 -1.53631717e-01 -3.96040455e-02
  3.06137204e-02 -1.06257774e-01 -9.57064610e-03 -6.28601313e-02
  2.43923187e-01  1.18925266e-01 -1.45697236e-01 -1.37092799e-01
  1.36860132e-01 -9.94432718e-02  3.45089398e-02  4.63252701e-02
 -1.92074284e-01 -1.81301504e-01 -2.84965962e-01 -2.05884757e-03
  4.13967609e-01  2.22480875e-02 -1.95934653e-01  3.30698304e-02
 -8.79582465e-02  1.06896181e-02  1.34847641e-01  2.02568576e-01
  1.88917164e-02  4.21103016e-02 -1.03127338e-01 -2.83907484e-02
  2.11190209e-01 -1.10213771e-01 -1.33115798e-02  2.21549258e-01
 -6.39773309e-02  8.26276541e-02  2.11777911e-03 -1.31320208e-04
 -4.16736268e-02  3.07171773e-02 -1.32116899e-01 -2.21788343e-02
 -5.94232418e-03 -6.92404015e-03  2.35624984e-03  1.05235077e-01
 -1.76853418e-01  5.12175933e-02  4.71700244e-02  2.86890566e-02
  5.24458289e-02 -2.83113178e-02 -7.88898394e-02 -1.05989747e-01
  1.20735601e-01 -2.35810503e-01  1.84315979e-01  2.15167567e-01
  3.55958454e-02  1.29059955e-01  8.96744132e-02  7.99447820e-02
 -2.42134165e-02  6.80214260e-03 -1.79542080e-01  5.82140870e-02
  7.95526728e-02 -2.30811327e-03  5.57202362e-02 -2.51305755e-02]