[-9.48696658e-02  9.17972103e-02  8.13533664e-02 -2.12783907e-02
 -4.58107889e-02 -6.10912517e-02 -3.54661271e-02 -1.50927722e-01
  1.26480475e-01 -7.32430518e-02  2.82867044e-01 -3.95869017e-02
 -1.61308885e-01 -1.18867390e-01  4.51614521e-02  1.66003451e-01
 -1.97790608e-01 -6.68635368e-02 -1.63871478e-02  2.00211638e-04
  8.95143971e-02 -3.86681780e-03  1.03140354e-01  1.29234362e-02
 -6.46086261e-02 -3.94361466e-01 -1.36015221e-01 -9.53896269e-02
  1.19325832e-01 -3.07634082e-02 -5.72951436e-02  3.77589054e-02
 -1.03392296e-01 -4.04314175e-02  5.07952869e-02  7.13442639e-02
 -2.98607703e-02 -9.89462286e-02  2.19105467e-01 -1.92112010e-02
 -2.24306107e-01  2.89495233e-02  1.92780308e-02  2.34312937e-01
  2.12502718e-01  4.49153185e-02  6.41177073e-02 -9.48874205e-02
  1.01055481e-01 -1.63152874e-01  4.54450473e-02  8.84236619e-02
  6.89383000e-02 -7.67483551e-04  3.84442806e-02 -1.58592537e-01
 -1.71757769e-02  7.66578466e-02 -1.53853625e-01  8.91227741e-03
  7.66699985e-02 -1.26987413e-01 -2.47295573e-03 -4.48404029e-02
  2.16375500e-01  1.11334078e-01 -1.32189274e-01 -1.40876547e-01
  7.65546188e-02 -1.22183517e-01 -2.48291958e-02  3.73113193e-02
 -1.84359297e-01 -1.53085276e-01 -2.77782887e-01  6.96752174e-03
  4.17704195e-01  3.30286101e-02 -1.65792301e-01  3.50799784e-02
 -4.52793650e-02 -9.73611232e-03  1.27717942e-01  1.93618879e-01
 -2.79672183e-02 -7.13696657e-03 -1.05494969e-01 -2.86066383e-02
  1.89863369e-01 -1.11040711e-01 -2.52944417e-02  2.14568183e-01
 -5.62701412e-02  1.16964810e-01  6.14627847e-04  1.00011704e-02
 -6.25571236e-02  3.56106460e-02 -7.78056905e-02 -2.03064736e-02
  2.06277966e-02 -7.47641325e-02  1.33626135e-02  9.96643826e-02
 -2.02340126e-01  9.17852595e-02  7.62316165e-03  4.20920029e-02
  6.85560405e-02 -3.38745080e-02 -7.31756985e-02 -6.23838380e-02
  1.15126446e-01 -2.35797122e-01  1.88367784e-01  2.32375547e-01
  4.89542484e-02  1.45912930e-01  9.99647975e-02  7.77458772e-02
  1.60585102e-02  2.43422054e-02 -1.77612007e-01  3.19764875e-02
  5.00626937e-02  4.82738530e-03  3.45489420e-02 -6.31128019e-03]