[-1.15493849e-01  6.80892989e-02  1.03940666e-01 -7.78083876e-03
 -4.02309746e-02 -6.57329112e-02 -4.90881763e-02 -1.83948606e-01
  9.93093029e-02 -7.99975395e-02  2.52810836e-01 -5.84630072e-02
 -1.64949581e-01 -1.07538618e-01  1.75494459e-02  2.04769418e-01
 -1.80637136e-01 -9.69139338e-02 -4.28856649e-02 -1.43937496e-02
  2.43147146e-02 -3.57525833e-02  7.54403099e-02  4.02378403e-02
 -7.89146051e-02 -3.52730244e-01 -1.19627275e-01 -1.19576432e-01
  5.39789908e-02 -2.03229450e-02 -9.82737467e-02  3.91442850e-02
 -1.41344875e-01 -3.80820967e-02  3.02188527e-02  9.17106196e-02
 -1.03849992e-02 -8.76922831e-02  1.98607937e-01 -5.14158495e-02
 -2.30279595e-01  1.14633217e-02  3.66069935e-02  2.13475451e-01
  2.26204917e-01  3.67800295e-02  3.26147340e-02 -8.34118873e-02
  9.26380903e-02 -1.35252550e-01  2.56625395e-02  6.16811477e-02
  3.94548960e-02  7.23555172e-03  8.95424094e-03 -1.62651882e-01
 -1.60847586e-02  6.75497577e-02 -1.22347847e-01 -1.77045520e-02
  6.05087541e-02 -1.41787812e-01 -2.51347460e-02 -6.27277046e-02
  2.54572749e-01  1.10994838e-01 -1.24834336e-01 -1.27424225e-01
  1.13999687e-01 -1.26822814e-01 -1.57645496e-03  3.09469905e-02
 -1.78939924e-01 -1.42991185e-01 -2.97745436e-01 -1.80191628e-03
  4.08757269e-01  3.59349363e-02 -2.05797508e-01  2.75382586e-02
 -5.10841906e-02 -4.38023380e-05  1.55992568e-01  1.84400812e-01
  1.53475767e-02  2.43063960e-02 -1.03711285e-01 -4.77774553e-02
  2.11362407e-01 -9.55562219e-02 -1.01124039e-02  1.93655074e-01
 -5.88960461e-02  7.34432563e-02  1.52288023e-02  4.31751786e-03
 -5.00173680e-02  1.64562464e-02 -1.20241694e-01 -2.40370184e-02
  1.61153954e-02 -3.10124047e-02  3.05255619e-03  9.39044356e-02
 -1.58263624e-01  5.60140908e-02  3.08112986e-02  4.96160202e-02
  5.36348708e-02 -1.65929720e-02 -8.90493765e-02 -1.06933907e-01
  1.38787016e-01 -2.14513287e-01  1.63604230e-01  2.07662269e-01
  2.42680963e-02  1.19135074e-01  9.38806310e-02  1.05272949e-01
 -2.30350364e-02  3.24392878e-02 -1.90316439e-01  3.52886580e-02
  1.01696625e-01 -1.05658723e-02  7.56356120e-02  1.11980764e-02]