[-0.09579674  0.09509026  0.10780846 -0.05412136 -0.03158377 -0.04272754
 -0.04718988 -0.15301432  0.15726259 -0.13231222  0.23360832 -0.06720018
 -0.18670802 -0.05702946 -0.03353864  0.22856461 -0.21592832 -0.11354903
 -0.01482567  0.04690422  0.04946163 -0.01167325  0.0512928   0.03734785
 -0.06124435 -0.39078483 -0.14410728 -0.09201764  0.04231818 -0.01456862
 -0.05758559  0.02333415 -0.13445863  0.01009197  0.05045594  0.08846702
 -0.02020422 -0.13926958  0.19096462 -0.01138727 -0.25244063  0.03840775
  0.01824327  0.22121648  0.21282236  0.01215685  0.03904875 -0.12800492
  0.12978029 -0.18185365 -0.02649006  0.09085841 -0.00056459  0.02602658
  0.04129117 -0.16414766  0.01636418  0.09683316 -0.1575893  -0.02849456
  0.0331003  -0.09466144  0.01887965 -0.05529612  0.23217845  0.10677879
 -0.14657889 -0.14089777  0.15299872 -0.14338233  0.03830305  0.04042763
 -0.17098838 -0.18827252 -0.21285844 -0.01771667  0.42562029  0.09068502
 -0.1627533   0.07452416 -0.0456132  -0.0131146   0.12744571  0.23461378
  0.03194225  0.04186262 -0.07641301 -0.02515937  0.2254052  -0.08862615
  0.01173485  0.24434833 -0.07043444  0.08448031  0.00103752 -0.03742107
 -0.07033025  0.0238098  -0.12832609 -0.03110811 -0.03791763 -0.01196353
 -0.01493707  0.09631805 -0.15571456  0.08214466  0.01356656  0.0293104
  0.02093742 -0.02327702 -0.04377242 -0.04913     0.12575786 -0.23463793
  0.18252249  0.1884121   0.03249845  0.13268539  0.0827423   0.07412337
  0.01567173 -0.0160388  -0.19481501  0.02693986  0.07200351 -0.02121939
  0.06134256 -0.04450043]