[-0.11437633  0.08227073  0.11101848 -0.02707177 -0.02399246 -0.05815633
 -0.04362733 -0.16219114  0.12076181 -0.07742541  0.2838318  -0.04234019
 -0.16588327 -0.10225587  0.00584591  0.21147092 -0.22586058 -0.09575639
 -0.01834795  0.01185193  0.05055484 -0.04943503  0.07154235  0.03170148
 -0.08713573 -0.36695406 -0.1081323  -0.0951759   0.06497614 -0.00523378
 -0.07094964  0.01631669 -0.1747582  -0.02336629  0.03856872  0.09958059
 -0.02548116 -0.12117511  0.21762863 -0.03842609 -0.2364357   0.02729525
  0.00702699  0.2085274   0.20571919  0.02312385  0.04109398 -0.12836175
  0.12581182 -0.15193801  0.00706591  0.0979018   0.01996621  0.00818041
 -0.01472417 -0.1692972   0.00111628  0.0752845  -0.15110199 -0.05057684
  0.04028636 -0.10595983 -0.00463824 -0.07718282  0.23621877  0.11264334
 -0.13642554 -0.14969324  0.13126373 -0.10054908  0.02036139  0.04952529
 -0.18365014 -0.17593054 -0.28825739  0.00084991  0.41641122  0.0280769
 -0.18791835  0.03120871 -0.07383677 -0.00639768  0.14342226  0.20519844
  0.02059431  0.0390062  -0.09978333 -0.02480155  0.21918038 -0.10384586
 -0.02068907  0.20272262 -0.04941104  0.08768684  0.00501931  0.00785432
 -0.06090736  0.04293819 -0.13591726 -0.02161094  0.00467836 -0.00239705
  0.00294498  0.11391552 -0.16269754  0.06049769  0.03728397  0.03266165
  0.04982444 -0.03435988 -0.08171487 -0.10632124  0.11361212 -0.23383155
  0.18846701  0.20965253  0.04014755  0.12766755  0.10166879  0.08412044
 -0.01687939  0.0147619  -0.20345064  0.04744964  0.08402216  0.00728925
  0.07142434 -0.02060067]