[-0.12614843  0.06297909  0.11555038 -0.0122705  -0.0601329  -0.05788704
 -0.05521407 -0.16193414  0.09253206 -0.08418468  0.25306162 -0.05897386
 -0.19679479 -0.08330122  0.02481535  0.20324373 -0.16723669 -0.0806907
 -0.03378167 -0.0084407   0.01296716 -0.01471064  0.06625047  0.02767293
 -0.07773914 -0.35786411 -0.12050159 -0.1157574   0.03253857 -0.01555619
 -0.09407318  0.04112542 -0.11119838 -0.02049143  0.03977486  0.09916975
 -0.02521684 -0.09517059  0.20025575 -0.04279048 -0.22187662 -0.01061445
  0.0418151   0.21170795  0.23360343  0.03200001  0.03333733 -0.07779486
  0.08505946 -0.17102733  0.01922354  0.05608438  0.03576076  0.01273756
  0.02822011 -0.17152642 -0.01520865  0.07820995 -0.14244349 -0.02603298
  0.05118574 -0.14329232 -0.0262135  -0.06097427  0.26984406  0.13338129
 -0.1321999  -0.10544741  0.13905187 -0.12851016 -0.00475227  0.02473148
 -0.17350452 -0.1507383  -0.27500018 -0.00606388  0.40553603  0.05202925
 -0.19917183  0.02109487 -0.04467103 -0.00646432  0.14783011  0.16663003
  0.01389005 -0.00301442 -0.09350719 -0.04469704  0.21157907 -0.09936517
  0.00646494  0.19229358 -0.04830049  0.07035517  0.0282057   0.00142721
 -0.04253663  0.00154851 -0.12556654 -0.02362122  0.0081232  -0.05982409
  0.01546029  0.09244063 -0.17108753  0.06565384  0.0356831   0.0273624
  0.05108688 -0.03121547 -0.07690762 -0.07460208  0.15302469 -0.22467315
  0.17001802  0.19242868  0.01178461  0.14024349  0.07755493  0.10368448
 -0.02724288  0.00913709 -0.18429185  0.02092758  0.08503514 -0.00734028
  0.0722238   0.0186815 ]