[-0.11066134  0.09892257  0.09883883 -0.01307888 -0.01113426 -0.02812613
 -0.02480922 -0.15117697  0.09601144 -0.09574803  0.27588582 -0.05603246
 -0.19163603 -0.09927321  0.02697179  0.18422695 -0.14683996 -0.11748172
 -0.03261589 -0.00192713  0.02233522 -0.02020213  0.05058817  0.02472029
 -0.0678626  -0.34667554 -0.11942823 -0.10429507  0.02252095 -0.05448071
 -0.07560956  0.00632393 -0.13509385  0.00236649  0.02003783  0.07231506
 -0.00968928 -0.09749192  0.21423028 -0.00974873 -0.21016255 -0.00692897
  0.01637526  0.2383797   0.17634463  0.02226847  0.02899483 -0.08994592
  0.07975253 -0.13537022  0.05126591  0.07720661  0.05746832  0.02413453
 -0.00554012 -0.16127533 -0.00231449  0.04572029 -0.11491152 -0.00917444
  0.06061741 -0.13131519 -0.02571861 -0.05196008  0.25842744  0.10808244
 -0.12248883 -0.13419898  0.10566106 -0.1051304  -0.02382248  0.0370641
 -0.18150702 -0.15478306 -0.27439114  0.04570216  0.39693117  0.05578707
 -0.20200956  0.02811994 -0.05881566  0.00115819  0.144345    0.18977879
 -0.01016716  0.03276597 -0.10668426 -0.02261346  0.22417684 -0.08479083
 -0.05374518  0.17017037 -0.07350465  0.07755583  0.02254354 -0.00658443
 -0.02315374  0.01635789 -0.09861373 -0.02374774  0.02527754 -0.05408835
 -0.02033211  0.11092838 -0.18235435  0.06888092  0.03190533  0.01899192
  0.05067358  0.00236959 -0.08817022 -0.084475    0.12369701 -0.22595488
  0.17850952  0.19272614  0.04218974  0.12414473  0.10398419  0.11285048
 -0.01274058  0.02030865 -0.1887669   0.01341214  0.09646439  0.03816915
  0.09182345  0.00630359]