[-9.29640457e-02  8.81107673e-02  8.58134106e-02 -4.96063707e-03
 -1.79741066e-02 -4.39030230e-02 -3.53694968e-02 -1.72168761e-01
  1.08317375e-01 -1.09657526e-01  2.58015722e-01 -6.95637614e-02
 -2.08809897e-01 -9.38275680e-02  2.47923104e-04  1.94449812e-01
 -1.77790210e-01 -9.56187025e-02 -4.51264642e-02 -2.03318391e-02
  2.59304736e-02 -1.19172623e-02  5.91247939e-02  2.87567973e-02
 -6.15834706e-02 -3.53241503e-01 -1.31944463e-01 -1.31102353e-01
  2.86833700e-02 -5.47737181e-02 -7.75628015e-02  1.36813149e-02
 -1.04772508e-01 -7.08963862e-03  2.84655038e-02  4.09767702e-02
 -4.10958659e-03 -8.94728526e-02  2.23423108e-01 -2.30964124e-02
 -2.19358206e-01  9.28622496e-04  2.72088945e-02  2.18391642e-01
  2.03830287e-01  4.92521189e-02  1.83182266e-02 -9.76543576e-02
  1.00406624e-01 -1.45130888e-01  4.00072038e-02  6.90535977e-02
  6.21523634e-02  7.23057846e-03  1.80644616e-02 -1.76664755e-01
 -3.37623060e-02  6.12796061e-02 -1.25188515e-01 -5.08153951e-03
  5.88285141e-02 -1.52139425e-01 -2.83547584e-02 -3.48265581e-02
  2.42390066e-01  1.19914703e-01 -1.29700735e-01 -1.29651353e-01
  1.37536496e-01 -1.49106249e-01 -1.73399039e-02  1.68862510e-02
 -1.60770699e-01 -1.56250864e-01 -2.74272412e-01  1.65410098e-02
  3.98882538e-01  6.22636154e-02 -1.91323012e-01  2.36636065e-02
 -4.06787694e-02  1.41752814e-03  1.56051546e-01  2.01657534e-01
 -1.50461318e-02  2.68061622e-03 -8.70022103e-02 -4.74378578e-02
  2.01575354e-01 -9.28991064e-02 -3.87920737e-02  1.91427290e-01
 -8.67774114e-02  9.30175334e-02  1.60756689e-02 -2.01088283e-02
 -4.90373150e-02  1.82859767e-02 -9.35934037e-02 -6.46623224e-03
  1.90227013e-02 -3.96090709e-02 -7.48366117e-04  1.01551011e-01
 -1.54959723e-01  5.28139770e-02  8.53017159e-03  1.97522324e-02
  4.71573249e-02 -4.46463330e-03 -8.47308561e-02 -8.05426762e-02
  1.42278537e-01 -2.22234681e-01  1.79495513e-01  1.92850798e-01
  2.40463223e-02  1.32236019e-01  1.01795293e-01  1.07147537e-01
  7.01172045e-03  1.32754985e-02 -2.15667412e-01  1.05028860e-02
  1.02916934e-01  8.20508227e-03  7.70829096e-02 -8.50389898e-03]