[-1.24619879e-01  9.04399976e-02  7.76415169e-02 -1.90603884e-03
 -1.66448727e-02 -4.68297489e-02 -3.90765071e-02 -1.67538926e-01
  9.92069766e-02 -7.92795345e-02  2.48214915e-01 -3.92119400e-02
 -1.82054117e-01 -1.08941756e-01  5.80396518e-05  2.05870852e-01
 -1.84285760e-01 -1.12256899e-01 -1.59710292e-02 -1.74768846e-02
  1.86511166e-02 -3.63243110e-02  5.04030474e-02  5.08887582e-02
 -7.08667487e-02 -3.53760749e-01 -9.67467949e-02 -1.32406890e-01
  3.41364332e-02 -4.39006202e-02 -7.84772411e-02  2.91056279e-02
 -1.39584824e-01  7.49922404e-03  2.51979120e-02  8.94879326e-02
 -3.90345044e-03 -8.14186186e-02  2.08967045e-01 -3.78476456e-03
 -2.10681796e-01 -1.41603444e-02  3.32164057e-02  2.40544081e-01
  2.04668149e-01  2.11196374e-02  2.59199385e-02 -8.56500268e-02
  8.72212946e-02 -1.54731646e-01  2.61505842e-02  7.63938650e-02
  4.18440290e-02  1.65201668e-02  1.88169000e-03 -1.77184865e-01
 -5.26876887e-03  2.34628376e-02 -1.41941950e-01 -1.28966793e-02
  4.75643873e-02 -1.32130936e-01 -4.57504541e-02 -4.99561951e-02
  2.53229886e-01  1.21626668e-01 -1.20732203e-01 -1.08539462e-01
  1.34936765e-01 -1.34620115e-01 -9.42723453e-03  1.48677854e-02
 -1.54520914e-01 -1.65311098e-01 -2.72800237e-01  1.79534908e-02
  4.04134810e-01  8.19751993e-02 -1.91307887e-01  4.25616466e-02
 -5.38853407e-02 -1.86891258e-02  1.49623677e-01  1.82348177e-01
 -7.30365608e-03  3.20929810e-02 -8.86526480e-02 -2.22989917e-02
  2.00341702e-01 -6.79718181e-02 -1.96404960e-02  1.74236819e-01
 -7.54052401e-02  7.01746419e-02  2.03595497e-02 -5.81361726e-03
 -4.13591899e-02  2.20306218e-02 -1.19705893e-01 -4.15168107e-02
  9.34508629e-03 -5.89087419e-02  1.03918426e-02  8.96199122e-02
 -1.86550677e-01  5.53544350e-02  4.55981605e-02  9.69240349e-03
  5.03647402e-02  9.72251873e-03 -9.62621719e-02 -7.87424967e-02
  1.33886322e-01 -2.16841295e-01  2.03095540e-01  2.05228046e-01
  3.85405682e-02  1.36264369e-01  9.90423635e-02  1.02523699e-01
 -1.67993344e-02 -6.38583442e-03 -1.78533003e-01  1.71043314e-02
  8.29769894e-02  2.90823518e-03  7.83116221e-02  1.13710610e-03]