[-0.12366805  0.06697626  0.11407197 -0.03546732 -0.06512815 -0.05404848
 -0.07410403 -0.15311162  0.08263943 -0.09624551  0.22895347 -0.0717604
 -0.19289762 -0.06295434  0.00521936  0.2082371  -0.18267336 -0.09891826
 -0.0303048  -0.02443267  0.01040041 -0.01903558  0.05144754  0.0314577
 -0.07327604 -0.3433938  -0.11143128 -0.10961131  0.00293892 -0.038653
 -0.09174653  0.04026596 -0.12481816 -0.01946691  0.03485764  0.09373748
 -0.01376914 -0.10190815  0.19736047 -0.04802544 -0.22079387 -0.00281592
  0.05541123  0.21749325  0.2196465   0.02333199  0.02630622 -0.08824252
  0.09428959 -0.14826445  0.02739981  0.07070303  0.04065466  0.01005632
  0.01867492 -0.17055713 -0.01323354  0.08225135 -0.10845774 -0.01845909
  0.07173548 -0.12923831 -0.01825033 -0.08778983  0.26655468  0.10778365
 -0.13945447 -0.13668269  0.11064436 -0.10868488 -0.02468349  0.02248577
 -0.1820205  -0.15285532 -0.28556153  0.0046924   0.37350866  0.04878049
 -0.19841944  0.02932221 -0.04712957 -0.01652919  0.13751195  0.18653165
  0.01229672  0.01793744 -0.08180774 -0.03514616  0.21675424 -0.0916714
 -0.01574752  0.17287506 -0.06305443  0.0621332   0.00861533  0.00328279
 -0.06074235  0.02314524 -0.13239309 -0.01142696  0.00736141 -0.04930558
 -0.00967758  0.11025109 -0.1641086   0.05356505  0.01732147  0.02918481
  0.02553118 -0.0234115  -0.10133927 -0.08172728  0.15334553 -0.2219836
  0.15500431  0.20322454  0.03870165  0.12525471  0.11015504  0.09718106
 -0.0089288   0.02814999 -0.20392744  0.02690077  0.10836998  0.00242377
  0.07901564  0.02345018]