[-1.31919265e-01  7.35725090e-02  1.09876089e-01 -2.57274266e-02
 -6.13751225e-02 -7.15979934e-02 -6.48155585e-02 -1.69538796e-01
  1.03161030e-01 -8.60931054e-02  2.59505004e-01 -5.89744933e-02
 -1.72048464e-01 -1.00461438e-01  1.54424924e-03  2.17830852e-01
 -1.84059009e-01 -1.10770226e-01 -2.48136651e-02  2.21485477e-02
  1.88184511e-02 -4.74492535e-02  6.90884218e-02  3.48267220e-02
 -7.26310313e-02 -3.66230518e-01 -1.15039609e-01 -1.07480943e-01
  3.14171985e-02 -9.91691276e-03 -1.01938367e-01  3.55583988e-02
 -1.44411623e-01 -4.36256081e-02  3.56099866e-02  1.04930557e-01
 -2.67148819e-02 -9.29252133e-02  2.02628046e-01 -5.96254431e-02
 -2.50099331e-01  3.02546527e-02  4.73305024e-02  2.17467591e-01
  2.24820659e-01  2.24592239e-02  5.11152744e-02 -1.16480611e-01
  1.04621887e-01 -1.34290665e-01  1.92446299e-02  7.08610713e-02
  4.38517518e-02  8.54461547e-03  8.00612569e-03 -1.53091416e-01
  1.56331444e-04  7.80110285e-02 -1.24220349e-01 -1.15726748e-02
  7.53836334e-02 -1.22668222e-01 -1.55995209e-02 -7.40104169e-02
  2.63372928e-01  9.64584947e-02 -1.35776609e-01 -1.39565393e-01
  1.16755880e-01 -1.15876354e-01 -6.41512638e-03  4.40600663e-02
 -1.88590199e-01 -1.67562529e-01 -3.06641072e-01  6.55954285e-03
  4.00298178e-01  4.13336717e-02 -1.95725188e-01  4.26784903e-02
 -4.24067229e-02 -4.71730856e-03  1.41799361e-01  2.03932866e-01
  1.69526171e-02  2.77158748e-02 -1.05752744e-01 -4.38292995e-02
  2.30488226e-01 -9.97431800e-02 -7.13371485e-03  1.87930748e-01
 -4.03240696e-02  7.42288828e-02  1.52226659e-02  1.84334572e-02
 -4.95932214e-02  1.69750005e-02 -1.41193435e-01 -1.67321917e-02
  1.08027039e-02 -3.77424471e-02 -2.97412276e-03  9.39961597e-02
 -1.50095150e-01  4.36212234e-02  2.31767986e-02  4.98324595e-02
  4.06951867e-02 -1.63586717e-02 -8.34060833e-02 -1.10905148e-01
  1.25695571e-01 -2.12303281e-01  1.76772699e-01  2.01347753e-01
  5.18508255e-02  1.12665333e-01  1.14870586e-01  9.28523317e-02
 -1.87983345e-02  3.28625664e-02 -1.76706955e-01  3.58146988e-02
  9.95842144e-02  1.04222901e-03  9.72512215e-02  1.61044374e-02]