[-0.12698206  0.07752176  0.11761101 -0.02436948 -0.00514817 -0.07238109
 -0.02423698 -0.16793013  0.11852115 -0.0763275   0.29308662 -0.04608816
 -0.16098425 -0.11139552  0.01893064  0.21645589 -0.22718978 -0.09678342
 -0.02483981  0.00778371  0.04312285 -0.04399008  0.07678246  0.04226302
 -0.08393337 -0.36707705 -0.11074474 -0.10583498  0.05170393  0.00596381
 -0.05493647  0.02303688 -0.17591147 -0.01255103  0.03499022  0.08960296
 -0.01395036 -0.10400172  0.21124403 -0.0200866  -0.22230959  0.00291823
  0.00616008  0.21241105  0.2116003   0.01588329  0.03649683 -0.11580367
  0.10342529 -0.16109483 -0.01350789  0.08639885  0.02622493  0.00041621
 -0.01610935 -0.16989945  0.00101739  0.05407994 -0.15866826 -0.04771154
  0.03351001 -0.11562227 -0.01917819 -0.06074811  0.24800913  0.11165561
 -0.14018619 -0.13203178  0.14027873 -0.09785389  0.03111876  0.04280257
 -0.18823254 -0.17815821 -0.29065976 -0.00292863  0.41374263  0.01549815
 -0.18595131  0.03006207 -0.09265991  0.00817834  0.12882082  0.18732938
  0.00918547  0.03735678 -0.10272189 -0.01826025  0.20245324 -0.10637665
 -0.01198136  0.2083745  -0.06445766  0.08106165  0.00528298 -0.00805933
 -0.04168117  0.03882977 -0.13506916 -0.01736896 -0.00869436 -0.01234805
  0.01344377  0.1023314  -0.17344984  0.0423984   0.04565016  0.01852483
  0.04681228 -0.02581284 -0.09684408 -0.11348017  0.11609471 -0.22848867
  0.18184219  0.21958195  0.03281121  0.12957326  0.09056352  0.08807925
 -0.03109473  0.01720989 -0.18637292  0.06427836  0.08270886  0.00622048
  0.05822491 -0.02261215]