[-8.89231414e-02  8.62817988e-02  8.09594914e-02 -4.55519967e-02
 -2.72740033e-02 -4.75960262e-02 -4.88009788e-02 -1.53793380e-01
  1.15864396e-01 -6.28169775e-02  2.88227409e-01 -6.88819662e-02
 -1.78406611e-01 -1.14589952e-01 -1.79189001e-03  2.03866348e-01
 -2.01553509e-01 -1.01039052e-01 -2.77782716e-02  2.43669897e-02
  4.03934456e-02 -3.52093205e-02  4.36282121e-02  3.34400833e-02
 -6.47381172e-02 -3.64012659e-01 -1.12452857e-01 -9.19190943e-02
  4.45141420e-02 -2.74206139e-02 -8.40754732e-02  4.28574048e-02
 -1.48058742e-01 -2.24670302e-02  5.34770265e-02  9.47849303e-02
 -1.26882894e-02 -1.17245875e-01  1.96849689e-01 -1.79567225e-02
 -2.30754614e-01  1.24437455e-02  1.95009690e-02  2.04268917e-01
  2.23947197e-01  2.32282076e-02  3.07921823e-02 -1.06151439e-01
  1.17497049e-01 -1.56865641e-01 -1.43104570e-03  1.11611746e-01
  4.17127088e-02  1.44397533e-02 -2.14987732e-02 -1.57183200e-01
 -8.78893118e-03  9.76491347e-02 -1.60163850e-01 -3.50080729e-02
  3.67756672e-02 -1.42916307e-01 -1.58129390e-02 -7.10741952e-02
  2.28927881e-01  1.28932655e-01 -1.45176873e-01 -1.44101247e-01
  1.30026817e-01 -1.07384935e-01 -9.21789929e-03  2.97737513e-02
 -1.93390056e-01 -1.75599560e-01 -2.90203810e-01  2.93338974e-03
  4.16205376e-01  3.80309373e-02 -1.85487136e-01  3.92605811e-02
 -5.92503436e-02 -2.58961692e-04  1.32210836e-01  1.92823395e-01
  1.09758815e-02  1.19130723e-02 -9.73769203e-02 -3.83542366e-02
  2.29702666e-01 -9.43800509e-02 -2.65713688e-02  1.86000511e-01
 -9.16720852e-02  1.02581277e-01  3.13271070e-03  9.45508853e-03
 -2.41430644e-02  2.95449030e-02 -1.04618847e-01 -1.29784141e-02
 -9.41687077e-03 -4.70341928e-02 -4.87083336e-03  1.08560853e-01
 -1.60337612e-01  4.56398651e-02  3.91058773e-02  4.59676869e-02
  4.62520719e-02 -3.84946577e-02 -5.48974089e-02 -8.12266022e-02
  1.27477631e-01 -2.34788209e-01  2.07564995e-01  2.04026058e-01
  4.93836999e-02  1.25275403e-01  9.84711871e-02  8.51083100e-02
 -5.00394264e-03 -1.42769860e-02 -1.89906090e-01  2.15179790e-02
  7.29066953e-02  2.17201859e-02  7.47077838e-02 -1.84483118e-02]