[-1.12211727e-01  9.26909521e-02  1.02084517e-01 -3.08724027e-02
 -2.03566812e-02 -4.13766429e-02 -4.04452197e-02 -1.58201918e-01
  1.23522580e-01 -6.40375838e-02  2.85361856e-01 -3.63268629e-02
 -1.74110651e-01 -9.86076221e-02  1.57641936e-02  2.13100359e-01
 -2.17548490e-01 -8.32203850e-02 -3.41433696e-02  1.67787373e-02
  3.12841237e-02 -3.97684388e-02  8.72488618e-02  4.49466333e-02
 -8.73981938e-02 -3.69172752e-01 -1.11469209e-01 -1.05101742e-01
  6.90057650e-02 -8.68959166e-03 -6.51816353e-02  1.49365244e-02
 -1.63694948e-01 -9.52610560e-03  5.26937507e-02  9.46217030e-02
 -3.11360005e-02 -1.21613100e-01  2.23512843e-01 -2.23841909e-02
 -2.26522237e-01  1.04244426e-02  1.99536234e-03  2.10653707e-01
  2.28233725e-01  1.49439247e-02  3.99652310e-02 -1.16595484e-01
  1.25194073e-01 -1.72719792e-01 -2.59170169e-03  9.75900665e-02
  1.98709592e-02  2.13079830e-03  4.01742896e-03 -1.60407424e-01
 -5.53581885e-05  8.33809003e-02 -1.78098440e-01 -6.27777949e-02
  2.14809366e-02 -1.00074269e-01 -8.06205254e-03 -6.87784329e-02
  2.31760934e-01  1.33261368e-01 -1.40298128e-01 -1.32008895e-01
  1.45560279e-01 -1.05122559e-01  4.63575348e-02  5.22548147e-02
 -1.83204696e-01 -1.86699986e-01 -2.68496245e-01 -8.29246826e-03
  4.28009033e-01  5.20716384e-02 -1.82655141e-01  2.43050456e-02
 -7.75304362e-02 -1.35518862e-02  1.24495938e-01  1.80324510e-01
  4.30942047e-03  2.35226061e-02 -9.13317949e-02 -1.27675952e-02
  2.07455441e-01 -1.03517137e-01 -4.92700143e-03  2.07921699e-01
 -5.69587760e-02  7.41355047e-02  9.41826962e-03  6.52666378e-04
 -6.30349964e-02  2.46326830e-02 -1.40213147e-01 -3.34177129e-02
 -2.12833937e-02 -7.67049193e-03  2.39834748e-02  1.04635574e-01
 -1.68988898e-01  6.05614446e-02  4.37563956e-02  9.32735205e-03
  4.03111465e-02 -3.61322016e-02 -7.70296678e-02 -9.44499522e-02
  1.24846600e-01 -2.33489916e-01  1.82691321e-01  1.95738837e-01
  1.90512314e-02  1.29503265e-01  8.30328539e-02  8.64066631e-02
 -2.53835265e-02  2.10954854e-03 -1.75267622e-01  4.18722443e-02
  7.67091513e-02  5.24706766e-03  7.37527013e-02 -3.80872898e-02]