[-0.11890191  0.04961042  0.11272254  0.01531066 -0.04148408 -0.07278495
 -0.03746609 -0.16351019  0.13956556 -0.08458072  0.27519861 -0.02366642
 -0.16510509 -0.08379065  0.02332667  0.21982181 -0.17960131 -0.07646849
 -0.00559596 -0.00674589  0.02160024 -0.03652943  0.08776351  0.04227524
 -0.06737659 -0.38511655 -0.12724563 -0.13373934  0.07137116 -0.01267363
 -0.07539432  0.05762595 -0.12903552 -0.03289166  0.06472968  0.0746879
 -0.0138863  -0.08625721  0.21691862 -0.00954406 -0.23476997 -0.0033203
 -0.00552208  0.21215938  0.21317933  0.02285242  0.05371211 -0.10716746
  0.09275597 -0.16778891 -0.00782754  0.06615192  0.02362558 -0.00822051
 -0.00329321 -0.17004481 -0.01785061  0.05571401 -0.17595163 -0.01714841
  0.03608532 -0.12533633 -0.04320208 -0.03619178  0.24424875  0.13753791
 -0.13949545 -0.12724672  0.13102971 -0.14065611  0.02989263  0.04461634
 -0.18544295 -0.18125346 -0.26933226 -0.01402143  0.44858503  0.02740917
 -0.1896915   0.02824621 -0.0726429  -0.00397719  0.12441549  0.19880806
  0.01471722  0.01203266 -0.06050069 -0.05578199  0.1947926  -0.09292095
 -0.01115865  0.20379655 -0.07609808  0.09595477  0.0158345   0.01080483
 -0.04154105 -0.01008851 -0.11976327 -0.06656887 -0.02578736 -0.03634968
  0.02093173  0.08941626 -0.20618431  0.07042354  0.02010841  0.01953152
  0.06842273 -0.00207574 -0.07625195 -0.09474346  0.14018241 -0.22889975
  0.18985133  0.23159693  0.01968321  0.14104238  0.06689937  0.08213706
 -0.02485189  0.01468855 -0.16607803  0.04138772  0.0654755  -0.01981228
  0.03890428 -0.04439614]