[-0.11622633  0.06757321  0.11791768 -0.03156112 -0.05513296 -0.0622879
 -0.06437798 -0.17269292  0.08638458 -0.08482529  0.26193815 -0.06764511
 -0.1771311  -0.09031362  0.00270722  0.22054236 -0.18422642 -0.10089238
 -0.02535994  0.00762314  0.01143665 -0.04696235  0.06708639  0.03285128
 -0.06844174 -0.35202512 -0.12343252 -0.10831858  0.02664647 -0.00802255
 -0.09924294  0.03409325 -0.13871589 -0.02336691  0.03716611  0.09328251
 -0.02257295 -0.11045256  0.1956266  -0.05399827 -0.23069969  0.01545181
  0.04905912  0.20766692  0.22908233  0.02230396  0.03894814 -0.09603804
  0.09272321 -0.14494166  0.01640513  0.0619041   0.04637387  0.00855871
  0.00900189 -0.15704185 -0.0014937   0.08320406 -0.12765537 -0.01406885
  0.05638894 -0.12550603 -0.01752627 -0.07916825  0.27102545  0.11971146
 -0.14137106 -0.13059478  0.12513657 -0.11421176 -0.00563394  0.02988079
 -0.1878244  -0.16676383 -0.28562927 -0.00211374  0.38530636  0.04836018
 -0.21044956  0.03224314 -0.0403215  -0.00347552  0.14541586  0.19717567
  0.02343833  0.02196028 -0.09808486 -0.05328939  0.23076227 -0.10940456
 -0.00688163  0.20396042 -0.05952181  0.06751238  0.0106898   0.00194437
 -0.036574    0.01911965 -0.13783506 -0.01776238  0.00328002 -0.04166262
 -0.00856208  0.09251749 -0.15686117  0.03749689  0.02617743  0.04466955
  0.03851514 -0.0313807  -0.08707327 -0.09847254  0.14235204 -0.22087502
  0.17302521  0.20608182  0.0409799   0.11269744  0.1074209   0.09272391
 -0.00768007  0.01447112 -0.1821164   0.03583961  0.10135476 -0.01112113
  0.08072364  0.01541593]