[-8.89161825e-02  8.23615938e-02  8.72599706e-02 -3.53792161e-02
 -3.12578492e-02 -4.34344672e-02 -4.82883118e-02 -1.67058587e-01
  1.13212876e-01 -6.62520528e-02  2.80759662e-01 -5.50682507e-02
 -1.72597826e-01 -1.04320638e-01 -9.72534157e-03  2.14002326e-01
 -2.00739145e-01 -1.11369312e-01 -2.22707149e-02  2.00906787e-02
  4.48931269e-02 -4.31188457e-02  5.94337098e-02  3.96165214e-02
 -5.88398054e-02 -3.54448915e-01 -1.12641625e-01 -9.68170986e-02
  6.18190542e-02 -2.45460328e-02 -7.09630847e-02  3.76465730e-02
 -1.46733329e-01 -1.41161969e-02  6.01340421e-02  9.91686136e-02
 -1.30817359e-02 -1.27515808e-01  2.07756028e-01 -2.35101767e-02
 -2.37812802e-01  2.67610010e-02  1.44872386e-02  2.19441772e-01
  2.17821822e-01  1.21846814e-02  3.14976498e-02 -1.05324939e-01
  1.20354056e-01 -1.61830246e-01 -6.73136150e-04  1.05660215e-01
  4.07276861e-02  1.20831979e-02 -1.64442360e-02 -1.61519960e-01
  5.94025338e-03  9.37319100e-02 -1.58934131e-01 -2.56236587e-02
  4.01833616e-02 -1.46300733e-01 -7.80440262e-03 -7.42410123e-02
  2.34670311e-01  1.17570795e-01 -1.52776510e-01 -1.47247061e-01
  1.17617883e-01 -1.00649968e-01  4.62735072e-03  3.92750911e-02
 -1.97447717e-01 -1.72231719e-01 -2.75804609e-01  3.77322407e-03
  4.14729118e-01  3.87386084e-02 -1.95019305e-01  4.71447371e-02
 -5.86096421e-02  9.51651949e-03  1.21616542e-01  2.12364361e-01
  2.55318135e-02  1.97709948e-02 -1.05151035e-01 -4.70577590e-02
  2.15028927e-01 -1.06468178e-01 -2.08889842e-02  2.09982023e-01
 -9.03028697e-02  9.14731547e-02 -3.77093646e-04  1.75785255e-02
 -4.43147235e-02  2.78746765e-02 -1.07365750e-01 -3.23733650e-02
 -7.15391804e-03 -3.28569748e-02  2.84537487e-03  1.02040701e-01
 -1.63798720e-01  4.94366772e-02  2.15375666e-02  5.62144779e-02
  5.36076985e-02 -4.41681743e-02 -5.45366406e-02 -8.54795724e-02
  1.26247689e-01 -2.39555910e-01  2.05071956e-01  2.09993035e-01
  4.94376197e-02  1.17877364e-01  1.03426553e-01  8.22102651e-02
 -2.18842342e-03 -6.13925466e-03 -1.85489178e-01  3.04622352e-02
  7.02047423e-02  9.19966679e-03  5.79203181e-02 -2.15410888e-02]