[-0.08795705  0.09446134  0.09620364 -0.05373651 -0.03904957 -0.04654093
 -0.04706777 -0.14843474  0.15086736 -0.12467711  0.24673127 -0.07325222
 -0.18921961 -0.06168747 -0.04472567  0.24109803 -0.22760049 -0.10560253
 -0.01931732  0.03450045  0.05640469 -0.01681827  0.05761933  0.03722305
 -0.06403243 -0.39822814 -0.13519897 -0.08515199  0.04529971 -0.02199473
 -0.05937327  0.03159814 -0.13507222 -0.00053717  0.05266005  0.08861476
 -0.01813379 -0.14862972  0.19744234 -0.01630517 -0.25216278  0.03441361
  0.03130975  0.22285648  0.21521664  0.0151022   0.04271018 -0.1247841
  0.13285516 -0.18030487 -0.02464044  0.08251967  0.00194589  0.02301219
  0.02354625 -0.15722576  0.01325673  0.10450997 -0.16621402 -0.0424388
  0.03693986 -0.09951146  0.01561421 -0.05738871  0.22584991  0.10573903
 -0.1461921  -0.14377092  0.14905785 -0.149506    0.03493178  0.03140859
 -0.16914658 -0.19250348 -0.2359498  -0.01657742  0.42670614  0.08926715
 -0.15294981  0.06792037 -0.02920063 -0.01528832  0.13738181  0.23658417
  0.03022182  0.04168152 -0.082024   -0.02014977  0.22775845 -0.0939856
 -0.00545131  0.24002782 -0.06611226  0.08631964  0.00337747 -0.02131258
 -0.0713282   0.03457538 -0.13193743 -0.01592975 -0.03477228 -0.00773026
 -0.01607752  0.09497847 -0.14380614  0.07273429  0.00798942  0.02777361
  0.01718431 -0.03073038 -0.05453727 -0.06410676  0.12235965 -0.2282434
  0.16830078  0.20166944  0.04135495  0.13839224  0.09459054  0.06922591
  0.02657746 -0.01715229 -0.20060706  0.02745012  0.07810434 -0.01950686
  0.07066904 -0.04414856]