[-0.10946616  0.13139889 -0.01159524  0.01234855 -0.05651816 -0.05518845
 -0.06613035 -0.1120415   0.1259028  -0.0573266   0.22560553 -0.04228247
 -0.20849018 -0.13088346 -0.0508146   0.18372416 -0.24788652 -0.09158208
 -0.06899472 -0.04005581  0.02427577  0.01716419  0.04624596  0.01505766
 -0.10286927 -0.35485202 -0.07629884 -0.11911253  0.02329308 -0.01133519
 -0.01439741  0.0529157  -0.19073261 -0.0707705   0.0469126   0.02689555
 -0.00972618  0.01220791  0.24997842 -0.0169432  -0.15987498  0.01332131
  0.08766721  0.25784329  0.18953033  0.07951832 -0.00324798 -0.12803321
  0.10609601 -0.13324881 -0.00060071  0.15501879  0.06460717  0.0306528
  0.03918469 -0.10657433  0.03178801  0.05032977 -0.14576571 -0.04799685
  0.03244157 -0.0738214  -0.03736305 -0.03503379  0.24895981  0.01750835
 -0.05864622 -0.13656804  0.15732521 -0.15355374 -0.05186993  0.06209012
 -0.10019208 -0.15585636 -0.35053143 -0.02867258  0.40857536  0.08273874
 -0.15157293  0.08265442 -0.02895108 -0.10702103  0.16891274  0.1028522
 -0.07293516 -0.00999611 -0.07869232  0.02716869  0.24489596 -0.05228346
 -0.03808117  0.15145348  0.02148204  0.06332076  0.04082872 -0.05139973
 -0.0295349   0.00474517 -0.14932249  0.00769845  0.04558183 -0.02715319
 -0.007367    0.07763551 -0.14171875  0.024655    0.05875502 -0.03324833
 -0.01632831  0.01482988 -0.14335214 -0.06890431  0.15155604 -0.21944849
  0.23023589  0.14636225  0.01128569  0.10973486  0.10100853  0.06131715
 -0.0598109  -0.0023934  -0.17561138 -0.05902062  0.11300319 -0.02537056
  0.15038736 -0.00768713]