[-1.02657698e-01  1.18389428e-01  5.51913492e-02  4.79720496e-02
 -7.77916238e-02 -3.05063208e-03  8.85082036e-03 -6.22882210e-02
  1.13765024e-01 -4.72698472e-02  2.02454954e-01 -4.38076816e-02
 -2.45335087e-01 -5.04942238e-02 -1.39045892e-02  1.41397119e-01
 -1.76864922e-01 -8.84457529e-02 -4.29375581e-02 -5.46866236e-03
  7.36653432e-02  3.87069173e-02 -3.13127600e-03  5.86649850e-02
 -8.07125941e-02 -3.23579490e-01 -1.06575921e-01 -7.38950744e-02
  7.43616000e-02 -6.50158301e-02 -6.83891028e-02  1.35991154e-02
 -1.03638612e-01 -5.01256548e-02  7.42857233e-02  1.28102442e-02
 -2.14840472e-02 -4.94999811e-02  2.56746739e-01 -1.42272655e-02
 -1.78039834e-01  5.48662953e-02  6.39142320e-02  2.83579439e-01
  1.50336981e-01  8.18371698e-02 -3.77811864e-02 -8.01141784e-02
  1.00616567e-01 -1.64350852e-01  5.47903068e-02  1.88353583e-01
  1.20435975e-01  7.87638873e-02  2.20151376e-02 -1.72430992e-01
 -1.82890724e-02  1.08328700e-01 -1.72148153e-01  3.09540629e-02
  2.25632936e-02 -1.15008526e-01  2.16009673e-02 -6.12849258e-02
  1.63593456e-01  7.66374990e-02 -7.56991655e-02 -1.65227100e-01
  1.14174262e-01 -1.76798552e-01 -6.47254810e-02  1.23102712e-02
 -1.40275598e-01 -1.59207568e-01 -2.54396290e-01  4.12307046e-02
  3.44815582e-01  1.56571895e-01 -1.99504957e-01  3.83124910e-02
 -1.17209498e-02 -2.45751813e-02  1.33076295e-01  1.02716558e-01
 -8.71950909e-02 -4.18949127e-02 -6.66292608e-02 -1.51955038e-02
  1.81354269e-01 -3.44861373e-02 -4.30559292e-02  1.70694873e-01
  1.65471639e-02  4.90160286e-02  6.20879717e-02 -6.03802875e-02
 -4.62065749e-02 -4.67579672e-03 -1.42085195e-01 -5.20753954e-03
  1.77832507e-03 -9.05797109e-02  3.89616229e-02  1.04526356e-01
 -1.98212028e-01  8.56804401e-02  3.69625725e-02 -2.41714567e-02
  1.09460576e-04  6.06528223e-02 -1.65291250e-01 -2.00822968e-02
  1.59479082e-01 -2.36476690e-01  2.81873882e-01  1.70452103e-01
  2.82680038e-02  1.28988102e-01  9.92983654e-02  8.99968296e-02
 -9.54288244e-03  4.60445881e-03 -1.18695699e-01 -6.57308176e-02
  1.37167707e-01 -1.63482614e-02  1.24193087e-01 -8.48460384e-03]