[-0.12032892  0.11182757  0.02177691  0.03700294 -0.06614126 -0.02980008
  0.02097017 -0.0739373   0.12008857 -0.05394432  0.20459519 -0.05716247
 -0.23336795 -0.08296872 -0.0101744   0.14293271 -0.18195431 -0.10893185
 -0.00947823 -0.03476207  0.06121447  0.03400775 -0.01335425  0.06899824
 -0.09711301 -0.33347222 -0.10928287 -0.07635782  0.04503306 -0.04621795
 -0.03256877  0.04883533 -0.103414   -0.04167729  0.07488492  0.01667281
 -0.01807657 -0.02606247  0.26601824 -0.01203427 -0.17022558  0.03142
  0.08123524  0.30131659  0.1480702   0.07239803 -0.03950771 -0.06139339
  0.10367137 -0.12604426  0.01857193  0.19078551  0.08442365  0.06805902
 -0.01674604 -0.1478297  -0.02348923  0.0935117  -0.17238382  0.00761353
  0.02280711 -0.15445974 -0.00137688 -0.04073098  0.173768    0.04877141
 -0.0773446  -0.16244774  0.13983826 -0.19182619 -0.07320859  0.00872547
 -0.14910011 -0.15891586 -0.2790626   0.05336761  0.33311954  0.14067037
 -0.14746869  0.05979155  0.00713018 -0.01009304  0.13800301  0.1186625
 -0.08891831 -0.03725195 -0.0756815  -0.01130652  0.18767361 -0.01315798
 -0.06783117  0.15555292  0.01111785  0.07417854  0.06832182 -0.0529696
 -0.03385371 -0.01220324 -0.14967011  0.00615869  0.00630962 -0.07981613
  0.04413887  0.12134196 -0.17447503  0.08331694  0.04358048 -0.01378173
 -0.02802034  0.08104127 -0.15416992 -0.03804852  0.13050237 -0.21245728
  0.25853258  0.16534588  0.05459694  0.14159794  0.11205744  0.06699141
 -0.02574453 -0.004942   -0.12659268 -0.05956247  0.12907633  0.00533283
  0.1499055  -0.00517387]