[-0.10243031  0.10256671  0.02795746  0.02414783 -0.09135431 -0.0326531
  0.01084295 -0.08096147  0.10800651 -0.04274596  0.20979781 -0.04095186
 -0.20891546 -0.09606682 -0.02291127  0.11107053 -0.14998697 -0.07824132
 -0.00323878 -0.02246458  0.04951644  0.02410752  0.0404053   0.08635984
 -0.09198517 -0.33705378 -0.11351758 -0.09854605  0.02807949 -0.02339182
 -0.04296416  0.06996527 -0.0772422  -0.01865193  0.05470774  0.01527438
 -0.02985844 -0.03508762  0.25596774  0.00396293 -0.17355442  0.00054407
  0.06290909  0.27971163  0.17844196  0.04331549 -0.0211801  -0.06478444
  0.12016036 -0.13261004  0.00926717  0.19991098  0.07605328  0.05298309
 -0.01290044 -0.10358043  0.01286408  0.09676339 -0.17701341 -0.03201077
 -0.00405313 -0.12439884  0.00241277 -0.03627753  0.18488236  0.06626109
 -0.08236026 -0.13809104  0.11207838 -0.20352042 -0.07983124  0.029564
 -0.16717958 -0.17742436 -0.26079121  0.05982886  0.35689646  0.16012041
 -0.12662007  0.05958888 -0.04775007 -0.03944177  0.12201371  0.10273156
 -0.1060405  -0.04336049 -0.08182533 -0.02841314  0.19282193 -0.04506311
 -0.05061632  0.1797345   0.02642787  0.091198    0.06050655 -0.05984324
 -0.02853906  0.02235053 -0.1422936   0.01912406 -0.01138557 -0.10106941
  0.03971788  0.07797294 -0.22367969  0.07337373  0.056012   -0.03492502
 -0.0044678   0.02464013 -0.17265914 -0.04715562  0.14158772 -0.22619215
  0.22609718  0.15953006  0.10488602  0.16173947  0.13379322  0.05052286
 -0.02511165 -0.04184727 -0.08469405 -0.02474932  0.15529567 -0.01062628
  0.10743999 -0.02151981]