[-0.08799088  0.10219073  0.07890779 -0.01163298 -0.04528074 -0.01032905
 -0.01877444 -0.05885533  0.16386142 -0.06965437  0.22120421 -0.01072083
 -0.22413872 -0.03901616 -0.00049765  0.11342328 -0.14520973 -0.09421356
 -0.12406095 -0.07079862 -0.01081485  0.01399962  0.02423285  0.04264557
 -0.10730084 -0.322074   -0.0950867  -0.16999288  0.09178231 -0.09663723
 -0.02463482  0.00736793 -0.12441732 -0.00983317  0.02720867 -0.00237459
  0.00905617 -0.05545789  0.21308592 -0.01568693 -0.17712237 -0.06175717
  0.01657188  0.22932027  0.23839822  0.0152076  -0.00509776 -0.0661376
  0.0879485  -0.20002325  0.00329986  0.14370225  0.1148299   0.07804754
  0.06481963 -0.18338434  0.00657699  0.09312343 -0.16336386  0.01523818
 -0.00158742 -0.10089499 -0.0694055  -0.01529926  0.1798002   0.09235765
 -0.10380407 -0.14966299  0.16640191 -0.17852555  0.01742826  0.06143096
 -0.13066308 -0.16655593 -0.20481387  0.03514745  0.37324584  0.15099163
 -0.20640104  0.01382341 -0.10611894 -0.03093632  0.03161319  0.02939496
 -0.13158765 -0.05020243 -0.07414282  0.00938492  0.16536315 -0.05672149
  0.04369105  0.15164754 -0.06584999 -0.00096594  0.01460066 -0.00645573
 -0.11389413  0.02482064 -0.10149312 -0.02870033  0.06375933 -0.10779081
  0.03686846  0.08367384 -0.23219295  0.10562038  0.01229516 -0.06583529
  0.03548694  0.02128696 -0.09623834 -0.03617552  0.23611312 -0.19603278
  0.23094247  0.20259228  0.00996656  0.14583245  0.07239872  0.10664164
 -0.03437608 -0.00539065 -0.13419501 -0.04785962  0.04836538 -0.04509535
  0.00947216 -0.04191748]