[-0.11449998  0.08712675  0.00266931 -0.00217357 -0.09895252 -0.02757112
  0.0152186  -0.06544488  0.16826673 -0.06063891  0.23953496 -0.02350767
 -0.18780385 -0.11415479 -0.00862676  0.13965428 -0.18555126 -0.10708515
 -0.02381513 -0.00515767  0.04462175 -0.0153174   0.04272839  0.1128396
 -0.10104698 -0.34877929 -0.1135302  -0.1119981   0.02658026 -0.02223549
 -0.04252369  0.07160764 -0.0908411  -0.0515339   0.05094364  0.0375383
 -0.01191723 -0.00569415  0.26298738 -0.00841702 -0.19388135  0.00280836
  0.05892734  0.29483107  0.1651032   0.03549119 -0.01371194 -0.05268952
  0.1282915  -0.14976172  0.03502086  0.20120083  0.09972566  0.05047568
  0.02508684 -0.0997025   0.00542504  0.13487469 -0.15344988 -0.01251162
  0.0014769  -0.09317059  0.00899233 -0.07540482  0.19140485  0.07930838
 -0.08778135 -0.16463391  0.09008777 -0.16821484 -0.09318008  0.0380435
 -0.1945795  -0.1776043  -0.3108719   0.03824891  0.36526236  0.16202556
 -0.14050306  0.04918675 -0.05786572 -0.0434509   0.08857415  0.08905896
 -0.10075786 -0.01084515 -0.09935302 -0.01935744  0.16928594 -0.03364347
 -0.03761076  0.17715353  0.01174164  0.08397634  0.03435471 -0.04779268
 -0.0364097   0.02144504 -0.16104054  0.00673988 -0.01025952 -0.07330086
  0.04130873  0.06914267 -0.22648127  0.05665663  0.0409978  -0.00527094
 -0.02251055  0.07354144 -0.17781377 -0.05743372  0.14755033 -0.21638735
  0.21775074  0.17329647  0.09418859  0.13703172  0.13044252  0.04629185
 -0.05507917 -0.02248867 -0.09144755 -0.00628727  0.13389282 -0.01034653
  0.11339382 -0.0009342 ]