[-5.62277138e-02  8.67712647e-02  6.89440593e-02  1.97945591e-02
 -7.45366737e-02 -5.23709953e-02  5.73007716e-03 -9.84576866e-02
  1.00297980e-01  5.76114887e-03  2.54919440e-01 -4.67264615e-02
 -2.19102383e-01 -6.53013214e-02  4.86997291e-02  7.56903738e-02
 -1.47819489e-01 -4.86955345e-02 -6.86438754e-02 -7.80646950e-02
 -1.98772736e-02 -1.59481671e-02  6.85674101e-02  6.29921630e-02
 -1.06035963e-01 -2.80051053e-01 -1.02016330e-01 -1.85374483e-01
  1.21579446e-01 -8.48524794e-02 -6.40079705e-03  6.48948178e-02
 -1.57059431e-01 -5.43098934e-02  2.09672023e-02 -8.03323369e-03
 -1.61782410e-02 -5.90235852e-02  2.28419170e-01 -3.74860801e-02
 -1.42805159e-01 -7.73256049e-02 -2.37908904e-02  2.22487643e-01
  2.17490956e-01  3.69697623e-02  4.08592820e-03 -2.95394845e-02
  7.61987492e-02 -2.32336357e-01  1.52122853e-02  1.44591033e-01
  1.07968524e-01  4.05670330e-02 -8.41092318e-03 -1.64381966e-01
 -2.27531511e-03  5.53937145e-02 -1.98178753e-01  1.41107021e-02
  9.97949205e-03 -1.32233903e-01 -4.08333652e-02 -6.15293570e-02
  2.17722341e-01  1.22358739e-01 -5.80350831e-02 -1.03258632e-01
  1.78399071e-01 -1.71796262e-01 -1.35661438e-02  7.61375055e-02
 -1.42018542e-01 -1.48409113e-01 -2.33262777e-01  2.42753271e-02
  3.81309122e-01  1.25199839e-01 -1.61559895e-01  7.15972250e-03
 -1.54632092e-01 -9.04657319e-03  6.89815450e-03 -3.59367586e-05
 -9.67313796e-02 -5.58679588e-02 -6.84842393e-02  1.66474022e-02
  1.80290505e-01 -1.30341932e-01  1.13806715e-02  1.60199538e-01
 -6.69611022e-02  3.83628383e-02  2.53282171e-02 -4.60239500e-02
 -4.04250994e-02  1.62988193e-02 -6.78943545e-02  5.32471156e-03
  5.03411964e-02 -1.27289116e-01  7.22938329e-02  9.67348963e-02
 -2.53535450e-01  9.55415368e-02  2.17487551e-02 -6.48643747e-02
  5.69112003e-02 -3.97217227e-03 -9.14836302e-02 -5.20815626e-02
  2.42537379e-01 -2.41045237e-01  2.68632442e-01  1.93840846e-01
 -1.24222031e-02  1.47684440e-01  7.04257423e-03  1.25158072e-01
 -6.32853210e-02 -3.20151560e-02 -1.15224220e-01 -4.55877297e-02
  8.19667950e-02 -2.44269855e-02 -6.03139400e-03 -1.55408923e-02]