[-0.0945657   0.10613449  0.00210455  0.02006035 -0.09660012 -0.02479098
 -0.01607935 -0.06149463  0.13582066  0.00452609  0.22425246 -0.0384596
 -0.20786612 -0.07872211 -0.01468469  0.11152964 -0.2015115  -0.06978907
  0.01310921 -0.03000627  0.06343033  0.00635718  0.0362702   0.11046644
 -0.09919167 -0.32600391 -0.12797336 -0.14959882  0.0782791  -0.0417868
 -0.05694992  0.04783649 -0.1099694  -0.05143631  0.05892382  0.00452338
  0.0020662  -0.03099471  0.26118672 -0.01734331 -0.15608373  0.01341024
  0.03410509  0.27470648  0.1593336   0.04772763 -0.0230073  -0.08231085
  0.1124262  -0.11978753  0.0495737   0.2227921   0.08836579  0.06075925
 -0.03184918 -0.11891674 -0.00772952  0.12220317 -0.18549545 -0.00229531
 -0.00764879 -0.08303432  0.00094588 -0.06530892  0.17224582  0.079463
 -0.07432553 -0.16804974  0.09196538 -0.18389814 -0.0794061   0.0435639
 -0.18238954 -0.18340306 -0.28740367  0.04481292  0.3415255   0.14464907
 -0.16642408  0.05692519 -0.06989585 -0.06207486  0.10461575  0.0846837
 -0.09946387 -0.0119498  -0.08287596  0.00678985  0.18438284 -0.06639164
 -0.02127585  0.19892433  0.00736091  0.10500371  0.04485751 -0.01990406
 -0.02385211  0.00462407 -0.14537139 -0.00359938  0.01830118 -0.06115595
  0.02939002  0.08574393 -0.23853998  0.04910299  0.0695303  -0.03811989
 -0.02274972  0.01633014 -0.16438687 -0.05786201  0.19753644 -0.2219352
  0.24475347  0.17280447  0.0874505   0.14164431  0.10503279  0.03856291
 -0.04869851 -0.07752033 -0.11572814  0.00890682  0.15759802 -0.00581478
  0.07778562 -0.02051183]