[-0.11185261  0.10689199  0.09377268  0.045367   -0.04614292 -0.06808827
 -0.03584243 -0.09018686  0.11985614 -0.03058067  0.22195788 -0.03060586
 -0.19061224 -0.07315584  0.05028937  0.08859297 -0.1599756  -0.09495084
 -0.07547744 -0.11364967 -0.01753308 -0.02326947  0.0650917   0.05870992
 -0.1335011  -0.29836997 -0.08927161 -0.18594065  0.1200276  -0.08148629
  0.00856483  0.03349089 -0.15432803 -0.04953222  0.02794119  0.03709256
  0.03079828 -0.02780164  0.2137486  -0.05808139 -0.15286069 -0.04855966
  0.02773518  0.24162184  0.20347896  0.06170824 -0.00082461 -0.00332324
  0.0789998  -0.17031607  0.02134481  0.12056968  0.16804808  0.04822518
  0.03608727 -0.22027159 -0.0047241   0.07813584 -0.1376435   0.03523329
  0.02413072 -0.09930354 -0.04433374 -0.02707347  0.25695804  0.09435383
 -0.08362575 -0.12172959  0.18418942 -0.13737477 -0.0151022   0.0625452
 -0.1303855  -0.12748189 -0.2109571   0.04895369  0.34686825  0.12196103
 -0.21243398  0.01536214 -0.12329853  0.01946777 -0.03212355  0.02385663
 -0.14849468 -0.01494519 -0.08023189 -0.03549243  0.15747479 -0.04083781
  0.01657703  0.14374796 -0.04874481  0.03474821  0.01709845 -0.0982514
 -0.10482655  0.01607695 -0.12069397 -0.05164141  0.05184434 -0.10103603
  0.05113262  0.09283488 -0.2557219   0.10701662  0.01599653 -0.04141459
  0.02943913  0.10500675 -0.10675587 -0.04387913  0.2271459  -0.23210017
  0.25875071  0.21812069  0.04629213  0.16122358  0.09191654  0.11888875
 -0.01633524  0.04068193 -0.12247514 -0.05634666  0.07618142 -0.08626303
  0.01882494  0.02283289]