[-1.11204639e-01  8.33111256e-02  3.15592997e-02  4.18092357e-03
 -1.08213745e-01 -3.99323814e-02 -2.37696357e-02 -5.49020171e-02
  1.60874382e-01 -4.18207198e-02  2.01664552e-01 -3.18045281e-02
 -1.90420404e-01 -6.13971464e-02 -9.09288134e-03  1.13022618e-01
 -2.13142633e-01 -5.47272451e-02  2.89311260e-02 -3.88966165e-02
  5.76344430e-02  7.41923088e-03  2.92987805e-02  8.18557441e-02
 -9.91025195e-02 -3.44349295e-01 -1.41803652e-01 -1.48427889e-01
  8.16761926e-02 -3.90123352e-02 -3.12362369e-02  5.06505556e-02
 -1.03995696e-01 -3.44604850e-02  2.40012053e-02  2.49245428e-02
 -1.10079413e-02 -3.84006649e-02  2.46538922e-01  2.46064155e-03
 -1.55188292e-01 -3.67245041e-02  6.38937298e-03  2.54806429e-01
  1.56095773e-01  4.72559929e-02 -1.41572133e-02 -5.50794117e-02
  1.05727129e-01 -1.33219376e-01  3.23294662e-02  2.06042483e-01
  5.25745638e-02  5.05890436e-02 -6.75874064e-03 -1.33162558e-01
  9.36559122e-03  1.08967796e-01 -1.87457636e-01 -6.17085863e-03
 -9.15447157e-03 -9.28404182e-02  9.26644541e-03 -2.05932409e-02
  2.04583481e-01  8.11519027e-02 -6.91989064e-02 -1.41668960e-01
  1.19449317e-01 -1.82734698e-01 -5.35418168e-02  1.23196784e-02
 -1.74677312e-01 -1.78818554e-01 -2.81304717e-01  4.39316444e-02
  3.48323852e-01  1.22785710e-01 -1.33405969e-01  6.72231540e-02
 -7.47771785e-02 -8.16799551e-02  1.09645300e-01  1.03908278e-01
 -9.91148576e-02 -3.09500447e-03 -7.59792104e-02 -9.08146787e-04
  1.68102458e-01 -6.65223598e-02 -3.03132250e-03  1.95596352e-01
 -1.06091825e-02  9.49054584e-02  4.26969044e-02 -4.92644720e-02
 -4.17650007e-02  5.79589745e-03 -1.23588160e-01 -6.71511097e-03
  3.79705653e-02 -8.93549472e-02  1.65128130e-02  9.02372003e-02
 -2.40444422e-01  5.20877428e-02  6.27450645e-02 -5.47408760e-02
 -2.73847524e-02 -1.95013359e-04 -1.84247717e-01 -6.40723631e-02
  2.13332891e-01 -2.03136951e-01  2.32862398e-01  1.87644541e-01
  6.73065633e-02  1.73671424e-01  1.16280258e-01  4.65439670e-02
 -4.22633253e-02 -6.03304096e-02 -1.10424213e-01  2.46619359e-02
  1.28268778e-01 -1.19691351e-02  5.22027910e-02 -1.27800750e-02]