[-0.09938824  0.09271988 -0.01751093 -0.01387292 -0.03603715 -0.05600449
 -0.06137681 -0.09259686  0.12935196 -0.07080073  0.190229   -0.03982189
 -0.17389452 -0.10023063 -0.03491785  0.14312713 -0.24004655 -0.08828714
 -0.09291707 -0.04978706 -0.01674615  0.05351556  0.04254177  0.03206569
 -0.07941922 -0.33765846 -0.09347828 -0.11291701  0.05944226 -0.00185788
 -0.03902827  0.05238704 -0.13254781 -0.03693824  0.07004874  0.06148576
 -0.02299814 -0.00121047  0.23514119  0.03129338 -0.13943109 -0.01993289
  0.07189067  0.26515564  0.25335827  0.07589958 -0.03050928 -0.09798516
  0.12684211 -0.16185312  0.01336301  0.17143796  0.10739126  0.06387866
  0.08657976 -0.11396896  0.00819926  0.06698504 -0.10516673 -0.02620961
 -0.01244841 -0.06400734  0.00459494 -0.04000556  0.21683578  0.04465434
 -0.07735018 -0.12749457  0.14122729 -0.17178552 -0.0806465   0.05755553
 -0.111087   -0.13816142 -0.31952199 -0.04083912  0.35057187  0.12317126
 -0.13712154  0.03157927 -0.02873534 -0.1082454   0.11635078  0.07207469
 -0.13977227 -0.03055953 -0.08505     0.00440972  0.23163366 -0.04130703
 -0.04668426  0.13196234 -0.03778704  0.07546773  0.02405547 -0.03769838
 -0.06083688  0.00243545 -0.14117627 -0.04573478  0.07968377 -0.05755381
  0.0197413   0.10770172 -0.16213946  0.0455317   0.02529938 -0.02645319
 -0.00329271  0.01727065 -0.14557205 -0.01727419  0.18776554 -0.17190212
  0.22884186  0.15688114  0.01444168  0.10465646  0.10927544  0.0451173
 -0.08334859 -0.00933075 -0.12940232 -0.06267112  0.06436073  0.01291218
  0.12789451 -0.00479918]