[-0.07625654  0.11663363  0.01215125  0.01845684 -0.05791089 -0.00525989
  0.03385681 -0.0607353   0.13338648 -0.05283661  0.22247636 -0.0611183
 -0.22450988 -0.07294016 -0.01754346  0.12556037 -0.17968671 -0.06767728
 -0.04881514 -0.04472551  0.02356739  0.0342699   0.00635482  0.08333361
 -0.09822056 -0.30484396 -0.09544744 -0.07951418  0.06335646 -0.06853006
 -0.02171853  0.06619982 -0.10377144 -0.05583737  0.06755074 -0.00177179
 -0.0168543  -0.01877619  0.2640242   0.00581686 -0.15273581  0.02812639
  0.05847055  0.30595776  0.15667227  0.07451101 -0.05493236 -0.06155465
  0.10509147 -0.14402859  0.00528126  0.1826475   0.07158277  0.0561993
 -0.01547802 -0.14719088 -0.01798398  0.10601737 -0.17165026 -0.01495135
  0.01209993 -0.13684444  0.01396218 -0.04188343  0.16246477  0.04014866
 -0.08559161 -0.13109554  0.11932428 -0.18082462 -0.04395896  0.01323041
 -0.12629853 -0.15608875 -0.27535939  0.05673365  0.34303162  0.1627304
 -0.14420065  0.04096078 -0.02327162 -0.01970761  0.12867077  0.09065821
 -0.11414362 -0.04908753 -0.0558443  -0.01345857  0.15982887 -0.00769904
 -0.06296808  0.14940916 -0.00251482  0.05528105  0.06128109 -0.06297743
 -0.06540027 -0.00524022 -0.15709804  0.02013828 -0.01813057 -0.08712407
  0.0476955   0.10815306 -0.19916919  0.1005419   0.05099384 -0.05198266
 -0.01871445  0.07390096 -0.15596993 -0.02572355  0.1575079  -0.23114195
  0.23406945  0.16496105  0.06138981  0.15824132  0.13091899  0.06819582
 -0.03486458  0.00505284 -0.10069048 -0.06942554  0.13284425 -0.01402745
  0.15722722 -0.03247172]