[-0.10321815  0.1372797  -0.01003559  0.01324516 -0.05194005 -0.05423508
 -0.06341864 -0.10924263  0.1225608  -0.06691044  0.23692636 -0.05314846
 -0.2074118  -0.13463394 -0.04661544  0.1870921  -0.23719855 -0.09566987
 -0.05615393 -0.03296652  0.02191452  0.01459424  0.02810683  0.03412603
 -0.09830997 -0.3371869  -0.08824982 -0.12106327  0.02613821 -0.02188753
 -0.03897974  0.05485424 -0.16345595 -0.06687766  0.05015758  0.01088467
 -0.01502316  0.00908932  0.26197267 -0.01846747 -0.15377919  0.01761582
  0.08639601  0.27026621  0.18398777  0.08100571  0.00508377 -0.12338884
  0.1084339  -0.12549098  0.0045472   0.15936781  0.07104259  0.03667334
  0.03689959 -0.1178086   0.00914187  0.06620875 -0.13991144 -0.03073158
  0.01958667 -0.07717314 -0.04057514 -0.043399    0.24981526  0.02073267
 -0.06866296 -0.14930862  0.15608649 -0.15666185 -0.0673092   0.07202195
 -0.11036191 -0.1582206  -0.34533823 -0.02184572  0.39512056  0.0966966
 -0.15033256  0.0896282  -0.02325011 -0.10865593  0.16788064  0.10938709
 -0.06946155 -0.0144898  -0.07456204  0.01531734  0.24153121 -0.04983614
 -0.04311612  0.14571808  0.01644361  0.06681217  0.02744474 -0.05610222
 -0.02064346 -0.00061589 -0.13941501  0.00113502  0.04208756 -0.02321032
 -0.00969675  0.0826927  -0.14922576  0.0281739   0.05899313 -0.02135272
 -0.02720317  0.0256032  -0.14640431 -0.05300832  0.15028112 -0.23476522
  0.22325933  0.14258911  0.02285633  0.10260093  0.10571569  0.05244614
 -0.05083771 -0.01696913 -0.17787395 -0.06096211  0.1284693  -0.01830123
  0.16078781 -0.00790968]