[-0.1082141   0.11166363 -0.00148371  0.01953909 -0.10515445 -0.02133859
 -0.01441971 -0.04734682  0.1369442   0.00357439  0.17645647 -0.04020057
 -0.23014756 -0.052551   -0.01832987  0.1006295  -0.20136209 -0.08409645
  0.00078725 -0.03368305  0.06554172  0.00733348  0.01696237  0.11058404
 -0.09833977 -0.3220146  -0.11764369 -0.13685346  0.07087696 -0.05308504
 -0.03867325  0.04819367 -0.10474911 -0.03982943  0.04806379  0.01423468
  0.00074654 -0.00797924  0.25915533 -0.00258646 -0.16026533 -0.01081921
  0.03165906  0.28606999  0.16471247  0.05934021 -0.02174087 -0.06973802
  0.12091216 -0.1511226   0.05759785  0.23754881  0.10874257  0.06363745
 -0.00083187 -0.12909089 -0.01702297  0.13204992 -0.17780463  0.02312709
 -0.01377386 -0.07673537  0.01808509 -0.0675315   0.17678259  0.07393664
 -0.06886131 -0.1497259   0.11452321 -0.19200926 -0.08577949  0.04067181
 -0.16446008 -0.17724219 -0.29090294  0.03256128  0.33786458  0.14847225
 -0.15120184  0.04874491 -0.06510105 -0.0769434   0.08337984  0.07651061
 -0.13283072 -0.00812344 -0.07210328  0.01769746  0.18981259 -0.05316466
 -0.01249708  0.18877225  0.01173601  0.09303372  0.0391543  -0.03260602
 -0.02927539 -0.00799958 -0.14167583 -0.01303158  0.01425815 -0.08187999
  0.03690965  0.09149277 -0.24083395  0.04925493  0.05998637 -0.0416428
 -0.04471929  0.02857227 -0.17242861 -0.04594569  0.21423538 -0.21425863
  0.23937312  0.17670064  0.0643091   0.12687975  0.08870293  0.03696525
 -0.04154062 -0.07402862 -0.10149302  0.00499157  0.15485807 -0.01330206
  0.06496768 -0.00886874]