[-0.06905804  0.07378875  0.06840505  0.03971999 -0.07603539 -0.03552463
  0.01836455 -0.08916385  0.05183144 -0.03008395  0.18287414 -0.07843228
 -0.26268563  0.0094901  -0.03667093  0.09907255 -0.1126781  -0.06778039
 -0.15483743 -0.03473751  0.00574668  0.00383588  0.0514527   0.02920735
 -0.09598939 -0.2659789  -0.08497515 -0.13187002  0.07465964 -0.0873301
 -0.05571243  0.02857777 -0.14308736 -0.05835444  0.05546594  0.00111824
 -0.07204805 -0.06968735  0.27988979  0.02478768 -0.18411745 -0.03437438
  0.03613316  0.24847554  0.21305327  0.04452851 -0.04335582 -0.08355927
  0.10656548 -0.25853884  0.08090796  0.16866925  0.13808917  0.10770366
  0.01296729 -0.1412771   0.05050264  0.11776959 -0.18778144  0.03922044
  0.0522316  -0.15613833 -0.03016242 -0.03078461  0.13799609  0.12661494
 -0.04180153 -0.10721934  0.16838247 -0.17066346 -0.04086107 -0.00184016
 -0.10284599 -0.1601453  -0.22191739  0.01214417  0.37908599  0.18042187
 -0.19100605  0.00733615 -0.09798194 -0.05301079  0.08733388  0.0453569
 -0.11288118 -0.06950141 -0.04431178  0.00686671  0.17627993 -0.11093087
 -0.00084624  0.15286338 -0.01898901  0.00528464  0.07424145 -0.06550243
 -0.10828227  0.00671509 -0.13938415 -0.03456977  0.02410402 -0.11760286
  0.0608389   0.08216905 -0.21864553  0.11827679  0.02989262 -0.0806884
  0.06051136 -0.0378373  -0.10843493 -0.04004681  0.19290613 -0.17132024
  0.25977787  0.17080526  0.01099549  0.12601331  0.111999    0.09919953
  0.01317924  0.0195711  -0.15007232 -0.06324269  0.13232572  0.02811172
  0.03531107 -0.01304573]