[-0.10631575  0.14466423  0.06616779  0.06613465 -0.11017422 -0.02645721
 -0.02084475 -0.06268727  0.09136992 -0.01557152  0.18284342 -0.07536007
 -0.21317588 -0.05799916 -0.00837813  0.12237749 -0.19203489 -0.10501432
 -0.01846968 -0.02083392  0.0212217  -0.00915914  0.01886149  0.06871291
 -0.09491306 -0.31986389 -0.09493021 -0.14076626  0.07356922 -0.05185115
 -0.04936798  0.0105943  -0.13790022 -0.03423832  0.02779293  0.0078582
  0.01973923 -0.02398442  0.24906678 -0.04102021 -0.17689517 -0.00237128
  0.01618687  0.26309094  0.14255367  0.07137981 -0.02072988 -0.04472713
  0.08362069 -0.15260778  0.0472144   0.19691364  0.11406862  0.02877364
 -0.02115307 -0.15795392 -0.02724419  0.08329905 -0.16337924 -0.00247712
  0.00795204 -0.07129687  0.01121108 -0.07273506  0.22850683  0.07222994
 -0.0693582  -0.12001137  0.11747929 -0.16489673 -0.03401959  0.02334028
 -0.13557489 -0.15080571 -0.28542539  0.04350346  0.37428829  0.11403745
 -0.17325428  0.03363426 -0.08697106 -0.04407025  0.06667786  0.06463691
 -0.12681758  0.00358895 -0.07420329  0.01077681  0.19312303 -0.07784478
 -0.01820603  0.13229133 -0.0095474   0.05058404  0.02300737 -0.07932778
 -0.01051803 -0.00496634 -0.11043824  0.02427543  0.01392487 -0.09629303
  0.01178556  0.08422237 -0.24591067  0.02529138  0.06260811 -0.06892741
 -0.02749999  0.05197606 -0.18627071 -0.0524742   0.22062592 -0.24108231
  0.25442195  0.18188231  0.02374225  0.14589255  0.0958498   0.07208764
 -0.03826294 -0.0256142  -0.09558638 -0.04560311  0.16392064 -0.03018612
  0.09821041  0.0119306 ]