[-0.11014038  0.08260595  0.06361217  0.04144698 -0.09902989 -0.02379436
  0.00391566 -0.08086341  0.08403122 -0.03110022  0.1831162  -0.07402041
 -0.26460811 -0.03185095 -0.0037971   0.10382985 -0.12305816 -0.08409496
 -0.10241278 -0.05119227  0.01365114  0.01885806  0.05293896  0.05807042
 -0.07048813 -0.29271477 -0.08341777 -0.15158854  0.09963198 -0.07777591
 -0.0635232   0.00296276 -0.1083585  -0.05898237  0.05212415  0.0387399
 -0.05756966 -0.09547179  0.25795099 -0.02914496 -0.159125   -0.09247644
  0.01761982  0.26763028  0.19740926  0.03742462 -0.00838035 -0.07361607
  0.11147084 -0.23873596  0.09042083  0.1523719   0.14959358  0.08142322
  0.03182417 -0.18740597  0.05394763  0.14900456 -0.18239795  0.04863178
  0.05389808 -0.11513801 -0.0250459  -0.01945247  0.18470268  0.12605308
 -0.04077859 -0.14634524  0.1590607  -0.1781003  -0.0405111   0.02536994
 -0.12706903 -0.17867775 -0.20987666  0.01483773  0.36739871  0.18035431
 -0.20390558 -0.00232377 -0.07299796 -0.01470745  0.11938938  0.04653442
 -0.1220621  -0.06687368 -0.11099037 -0.01338569  0.17114784 -0.10311537
 -0.00435848  0.15612204  0.00495312 -0.00275816  0.07743305 -0.06223939
 -0.0763118   0.05258582 -0.12432358 -0.02414716  0.07104817 -0.12042341
  0.05957495  0.07219163 -0.23084371  0.10936512  0.01998557 -0.04385927
  0.04512362 -0.07126534 -0.13209155 -0.01921729  0.23220669 -0.19193052
  0.23379688  0.17877837  0.03294851  0.17294107  0.08796846  0.1088742
  0.02081302 -0.0199337  -0.16141407 -0.02643408  0.11912949 -0.00051365
  0.0203594   0.01091719]