[-0.13450541  0.0757932   0.10363615  0.03478872 -0.03673351 -0.051998
 -0.00560128 -0.0951924   0.13771179 -0.07453247  0.17710032 -0.05346457
 -0.21964557 -0.03774409  0.00371127  0.12101817 -0.1763041  -0.09323805
 -0.04338128 -0.09169692  0.02941109 -0.00516123  0.04042406  0.05439843
 -0.09612079 -0.34136271 -0.09923638 -0.16746809  0.08263783 -0.05248534
 -0.01102637  0.04389821 -0.12690578 -0.02067309  0.02812883  0.02805707
  0.00492959 -0.01768609  0.2289114  -0.01826976 -0.15516022 -0.06670117
  0.01014247  0.23309126  0.17728388  0.07139487 -0.01004633 -0.0444866
  0.0701864  -0.2050921   0.01933521  0.1574963   0.12465835  0.06175852
  0.02976016 -0.210867   -0.02587986  0.06307041 -0.14761086  0.04528017
 -0.00050398 -0.12451302 -0.03498238 -0.01201783  0.24955587  0.10330432
 -0.09849685 -0.10477903  0.20552368 -0.13225463 -0.01567985  0.00595322
 -0.1551917  -0.14667733 -0.22592011  0.03883924  0.37526366  0.10384005
 -0.16654101  0.02338991 -0.14866002  0.0139033   0.01475027  0.06536122
 -0.12814532 -0.03997056 -0.02839587 -0.00854076  0.1243242  -0.06480096
 -0.02327144  0.13329412 -0.06479718  0.06642197  0.00310809 -0.08191103
 -0.08122547  0.00882986 -0.1250124  -0.05392794  0.03708625 -0.07793187
  0.06549416  0.11876849 -0.24910021  0.07774571  0.0254212  -0.06293777
  0.04221565  0.09214821 -0.14780392 -0.04943731  0.20049517 -0.2259928
  0.27340537  0.2368166   0.03050935  0.17207351  0.08415093  0.09246265
  0.00688479  0.01683223 -0.13254093 -0.0236436   0.11087503 -0.01173594
 -0.00333499  0.00319165]