[-9.44722220e-02  1.04251385e-01 -1.04982043e-02  1.90796256e-02
 -1.07944958e-01  1.05767921e-02 -6.33767322e-02 -1.01708911e-01
  1.50025412e-01 -3.09571065e-02  1.71839461e-01 -4.76081632e-02
 -2.19707638e-01 -7.81194568e-02 -3.68932225e-02  1.74348861e-01
 -2.39896104e-01 -9.33789462e-02 -7.27919936e-02 -4.79632169e-02
  1.47906067e-02  3.16660516e-02  4.08218168e-02  5.80576174e-02
 -6.01352453e-02 -3.64911139e-01 -9.83340517e-02 -8.44791085e-02
  5.44492379e-02 -2.55830567e-02 -4.97058108e-02  4.39720079e-02
 -1.71907410e-01 -7.44225308e-02  6.64342642e-02  7.90349767e-02
 -4.48611379e-02 -5.20471223e-02  2.11149320e-01 -1.98223740e-02
 -1.40165642e-01 -4.67714679e-04  1.08125404e-01  2.28026778e-01
  1.99599028e-01  1.14097945e-01 -1.82680208e-02 -7.46330842e-02
  1.40911028e-01 -1.53438717e-01  2.48338990e-02  2.03778431e-01
  6.61939010e-02  7.57254884e-02  5.47105074e-02 -1.27475247e-01
  1.19258873e-02  1.08926438e-01 -9.13443118e-02  6.92688767e-03
  1.59260873e-02 -8.46457258e-02  1.06437607e-02 -6.29430041e-02
  1.91905305e-01  4.03255783e-02 -4.17869426e-02 -1.79497585e-01
  9.38947946e-02 -1.77736402e-01 -9.91425142e-02  5.05404770e-02
 -1.40100643e-01 -1.53569907e-01 -3.41261894e-01 -3.08433622e-02
  3.80042434e-01  1.08365193e-01 -1.40190244e-01  3.21570635e-02
  1.10903876e-02 -8.73412564e-02  1.22392558e-01  1.09296799e-01
 -6.40501976e-02 -3.35332565e-02 -1.30024120e-01 -1.25655802e-02
  2.53342658e-01 -4.62079197e-02 -3.05501856e-02  1.80921510e-01
 -5.35562122e-03  6.63347766e-02  1.72285344e-02 -3.31640686e-03
 -5.73005937e-02  2.72747886e-04 -1.40052021e-01 -4.93493006e-02
  6.75697550e-02 -2.34078914e-02 -9.79065802e-03  7.11977035e-02
 -1.54525593e-01  3.85998748e-02  1.17662773e-02  1.52412867e-02
 -2.32473221e-02 -1.68210641e-02 -1.74305394e-01 -2.44435910e-02
  2.02910423e-01 -1.94575071e-01  2.24627838e-01  1.73775136e-01
  5.18849818e-03  1.03079729e-01  9.56163406e-02  8.45450386e-02
 -5.78911863e-02 -1.95313133e-02 -1.37928233e-01 -8.36019218e-02
  8.00289661e-02 -3.82588361e-03  9.15792137e-02  6.89793332e-03]