[-0.11170682  0.13372736 -0.00897759  0.00843704 -0.05584465 -0.05515216
 -0.05953475 -0.11249887  0.13308771 -0.0649163   0.23667966 -0.04426635
 -0.20774029 -0.1291915  -0.05339807  0.18582587 -0.24910145 -0.10065663
 -0.05466902 -0.03555365  0.03270644  0.01424642  0.03807619  0.02554804
 -0.09475641 -0.34766996 -0.0788376  -0.13188875  0.0262274  -0.01597993
 -0.00992065  0.05044848 -0.17874414 -0.06761016  0.03942812  0.01235377
 -0.01087768  0.01387014  0.25894746 -0.01654528 -0.16286634  0.00973932
  0.08634985  0.26479959  0.18604288  0.08083295  0.0022453  -0.1253103
  0.10615449 -0.13390876 -0.0013243   0.15196224  0.06994955  0.0324786
  0.03829157 -0.12127638  0.01963727  0.04593619 -0.146102   -0.03203224
  0.02860752 -0.07381508 -0.03705695 -0.03616929  0.25850174  0.01431524
 -0.06406852 -0.14145577  0.16548221 -0.15364638 -0.06329291  0.06967884
 -0.10894211 -0.15668912 -0.3422887  -0.02417288  0.39822623  0.07809629
 -0.14422412  0.0888417  -0.02575356 -0.1041951   0.15628329  0.11207167
 -0.06607106 -0.00766318 -0.07590508  0.01662073  0.23733997 -0.05661605
 -0.03917589  0.15578417  0.01181185  0.06332437  0.03558111 -0.04874982
 -0.02574748  0.00960563 -0.14851311  0.00469972  0.04218814 -0.02280096
 -0.00779977  0.07430898 -0.14394251  0.02236114  0.05053435 -0.02692145
 -0.02978766  0.01735501 -0.1447684  -0.05974385  0.15446638 -0.21976636
  0.23622249  0.14595242  0.02185261  0.10802829  0.10437191  0.05300999
 -0.05155205 -0.00800888 -0.18179159 -0.05495406  0.11719253 -0.02686573
  0.14606382 -0.00473658]