[-0.11672125  0.14867449  0.00633899 -0.00858279 -0.06744832 -0.05416136
 -0.0658884  -0.08620591  0.10512777 -0.03284689  0.2533088  -0.05864158
 -0.20821123 -0.10395437 -0.06546866  0.14409371 -0.23002064 -0.08444428
 -0.03620594 -0.01708874  0.04028196  0.05088593  0.03319779  0.05228093
 -0.08266994 -0.32888338 -0.08069197 -0.07580818  0.04155785 -0.03683905
 -0.04766609  0.04573928 -0.16282146 -0.07285064  0.09450334  0.05911176
 -0.01042692  0.01631098  0.23714475 -0.02416801 -0.13638823  0.03514723
  0.11075469  0.29912493  0.22020224  0.08762982 -0.01842681 -0.13728856
  0.1315397  -0.15690032  0.00663056  0.1808355   0.08119076  0.0523737
  0.02557557 -0.14185253 -0.01933102  0.11864801 -0.08894157 -0.00978887
  0.00596391 -0.0593712   0.01475321 -0.06128524  0.22693272 -0.00372133
 -0.10259368 -0.16960764  0.10770475 -0.15562694 -0.08384752  0.09874912
 -0.12598254 -0.14665446 -0.32908696 -0.00955382  0.39961824  0.08935644
 -0.14890189  0.06535954 -0.04796074 -0.08295453  0.11811154  0.08478897
 -0.08772199 -0.02757652 -0.11373205  0.01166559  0.27161384 -0.04461826
 -0.04059442  0.14912665  0.0093263   0.11663976  0.02524911 -0.02315869
 -0.05622451  0.00603071 -0.17099354 -0.01449113 -0.00867173 -0.03986689
 -0.00321473  0.12298054 -0.17827065  0.0473876   0.04962366 -0.00579577
 -0.03416178  0.02630667 -0.12367523 -0.02924521  0.14769177 -0.24326108
  0.24075556  0.15683033  0.07540826  0.11025935  0.11970967  0.02450103
 -0.03288142 -0.00626622 -0.12952694 -0.05238564  0.08733207 -0.01756972
  0.14424956 -0.01896719]