[-0.07331273  0.12565088  0.01894555  0.02113401 -0.06325614 -0.0072883
  0.01355478 -0.06301495  0.1391385  -0.05308972  0.21886991 -0.04798865
 -0.24020925 -0.06743377 -0.02065605  0.12690051 -0.19042929 -0.06599208
 -0.03416997 -0.03831062  0.04653075  0.03621579  0.01287664  0.07085289
 -0.09831597 -0.30849892 -0.09680971 -0.06325116  0.05992565 -0.07423837
 -0.04291626  0.05624812 -0.11171378 -0.05835698  0.06799825  0.00681252
 -0.01287536 -0.01876583  0.25820771  0.01268532 -0.15730219  0.04430619
  0.05867202  0.29917356  0.16047667  0.07096191 -0.04841788 -0.08114766
  0.10725717 -0.137004    0.0171967   0.19745822  0.07957347  0.06306282
 -0.01789292 -0.14928015 -0.02753828  0.10983431 -0.16027378 -0.00583603
  0.03582031 -0.13254303  0.00965457 -0.05073353  0.15454303  0.04411255
 -0.08833456 -0.15419608  0.10375015 -0.17357773 -0.06539632  0.01237277
 -0.13145298 -0.15093365 -0.27644634  0.05172932  0.3393048   0.15048957
 -0.15482914  0.04372429 -0.03198041 -0.02697065  0.1228596   0.09711593
 -0.10501976 -0.03517637 -0.05797024 -0.00412293  0.16580647 -0.01118452
 -0.05996258  0.15337655  0.00477605  0.07006448  0.06126514 -0.04811737
 -0.07235628 -0.00133214 -0.16240846  0.0077651  -0.01752134 -0.09704783
  0.04258997  0.10812866 -0.20206809  0.10758626  0.05121785 -0.04254043
 -0.01125843  0.07111848 -0.15610605 -0.02162544  0.1525353  -0.23963609
  0.25183284  0.1675998   0.06831213  0.15025617  0.12867916  0.07881708
 -0.03224382  0.00738773 -0.10019878 -0.07202738  0.12122326 -0.0070054
  0.15700866 -0.0280785 ]