[-0.08946041  0.10433674  0.08173455  0.03145593 -0.11067487  0.00727661
 -0.04530656 -0.04282675  0.07384656 -0.06082083  0.17804654 -0.05506067
 -0.24150948 -0.0055256  -0.00199171  0.0977979  -0.12103863 -0.08278225
 -0.06912598 -0.02497729  0.02301594  0.04310357  0.01839007  0.02518431
 -0.08818299 -0.32135612 -0.10331573 -0.10567994  0.04474459 -0.09871043
 -0.06628504  0.03231113 -0.10811992 -0.02253186  0.0349369   0.04930971
 -0.05280196 -0.05718558  0.22770739  0.01721833 -0.18396908 -0.04496035
 -0.00051285  0.27202329  0.17544173  0.0305091  -0.02850448 -0.07604444
  0.07440597 -0.21276954  0.09624782  0.20272258  0.09364822  0.08448439
  0.0456731  -0.12035545  0.03460909  0.11918491 -0.14693584  0.04428604
  0.04078754 -0.11879458  0.00155604 -0.06107193  0.15519544  0.10240457
 -0.03588838 -0.15819578  0.11682963 -0.16678904 -0.08352193  0.04629549
 -0.13092996 -0.19254142 -0.24326114  0.04047423  0.34838599  0.17198816
 -0.19492273  0.02649556 -0.03470806 -0.08758017  0.13630773  0.09276184
 -0.08344889 -0.03763768 -0.06384688  0.03026524  0.20661743 -0.08559733
 -0.01796037  0.16815399 -0.01873795  0.0296049   0.07228022 -0.04354532
 -0.03113077  0.02634115 -0.12908998 -0.01479478  0.0633902  -0.13741271
 -0.00683447  0.09150723 -0.21526399  0.09028668  0.03061362 -0.05449629
  0.03466959 -0.04271333 -0.16210687 -0.03266751  0.24142079 -0.20714049
  0.23329957  0.18766518  0.02622421  0.12802768  0.11122277  0.09561715
  0.00731549 -0.04629612 -0.15809834 -0.02766171  0.12504971  0.01101845
  0.01155285 -0.00342504]