[-3.62092666e-02  1.20778978e-01 -1.11076239e-04  1.10053821e-02
 -4.91220318e-02 -2.52185501e-02  2.15101689e-02 -6.05404377e-02
  1.09358229e-01 -2.46784221e-02  2.12120369e-01 -3.50064337e-02
 -2.00831562e-01 -5.59348837e-02 -2.79343929e-02  8.04693103e-02
 -1.52820840e-01 -2.48167496e-02 -1.09229222e-01 -4.07537585e-03
  1.68336462e-02  3.32298689e-02  6.01166449e-02  5.58748133e-02
 -9.73688737e-02 -2.99352616e-01 -1.05643168e-01 -1.10669613e-01
  6.64934441e-02 -9.57228914e-02 -2.75093149e-02  7.59643093e-02
 -1.12123586e-01 -4.99315299e-02  4.28097583e-02 -2.94628534e-02
 -2.56329626e-02 -8.96417070e-03  2.80723006e-01  5.91515787e-02
 -1.63197026e-01  5.35307638e-02  2.84872893e-02  3.09510946e-01
  1.94824979e-01  1.44128008e-02 -3.35346647e-02 -6.26665577e-02
  1.05529308e-01 -1.67560220e-01  3.45608108e-02  1.77937359e-01
  1.25481993e-01  6.17969520e-02  1.86236836e-02 -8.76588821e-02
  9.03986674e-03  7.88738355e-02 -1.79933950e-01  8.91983788e-03
  1.76349413e-02 -1.09094463e-01 -2.17012074e-02 -2.61221770e-02
  1.23046160e-01  7.23495781e-02 -5.53765856e-02 -1.25930414e-01
  1.17704310e-01 -1.78405568e-01 -4.38805334e-02  2.17066444e-02
 -1.26888245e-01 -1.62568629e-01 -2.43534714e-01  4.39310633e-02
  3.24927777e-01  1.77206233e-01 -1.84854358e-01  5.13844155e-02
 -8.65253732e-02 -6.88792169e-02  9.47053805e-02  6.05492070e-02
 -1.13233350e-01 -2.86226720e-02 -3.44784968e-02  2.41347309e-02
  1.70249924e-01 -6.73847869e-02 -4.24932018e-02  1.77445948e-01
  1.39643149e-02  3.54277007e-02  6.40469491e-02 -9.55062881e-02
 -5.63152917e-02 -1.07808886e-02 -1.60114765e-01  1.68907922e-02
 -4.40531783e-03 -1.23797834e-01  2.50393040e-02  7.80740902e-02
 -2.30836824e-01  1.08759835e-01  6.99675456e-02 -8.64279494e-02
  2.79494412e-02  4.54972573e-02 -1.49143368e-01 -4.76475768e-02
  1.76231071e-01 -2.14932561e-01  2.51711071e-01  1.61472782e-01
  4.88242880e-02  1.15765028e-01  1.12658434e-01  6.55186996e-02
 -1.35066612e-02  2.13424210e-02 -7.61497095e-02 -6.25893399e-02
  1.30829215e-01  1.31345037e-02  7.73262903e-02 -4.50048223e-02]