[-6.98272586e-02  1.28842473e-01  1.99677777e-02  1.31280273e-02
 -6.36514053e-02  6.77346578e-03  2.37257574e-02 -5.14532737e-02
  1.51506975e-01 -6.12927787e-02  2.18511015e-01 -4.29233760e-02
 -2.25704551e-01 -7.43159205e-02 -1.29151493e-02  1.29958615e-01
 -1.80952594e-01 -6.64096400e-02 -4.22309861e-02 -3.87847498e-02
  2.38501262e-02  3.56596112e-02  6.67474000e-03  8.33495408e-02
 -9.54359546e-02 -3.06760877e-01 -9.97199416e-02 -6.97659403e-02
  6.85251951e-02 -7.98613653e-02 -2.82445736e-02  5.87896593e-02
 -9.91525352e-02 -4.81118448e-02  5.92051521e-02 -5.11703640e-03
 -1.92720443e-02 -2.72812787e-02  2.63147086e-01  1.63889267e-02
 -1.47358611e-01  3.36647592e-02  4.78218198e-02  3.02741379e-01
  1.46283612e-01  6.10793605e-02 -5.02255931e-02 -5.92087395e-02
  1.04445793e-01 -1.49492785e-01  5.72685292e-03  1.88938901e-01
  6.94901645e-02  6.14015125e-02 -8.99091829e-03 -1.47706151e-01
 -1.43557861e-02  1.12717569e-01 -1.87241361e-01 -4.58402559e-03
  7.47054955e-03 -1.43154591e-01  5.38288103e-03 -4.07441817e-02
  1.55698687e-01  6.15496449e-02 -7.62184039e-02 -1.48136050e-01
  1.16439641e-01 -1.78549811e-01 -4.30671945e-02  1.36398599e-02
 -1.23514555e-01 -1.52849302e-01 -2.69497424e-01  5.56684546e-02
  3.31296951e-01  1.77226797e-01 -1.43491194e-01  4.43116985e-02
 -2.80085746e-02 -2.61478014e-02  1.12852335e-01  8.29179734e-02
 -1.21672682e-01 -4.61032242e-02 -5.22714332e-02 -3.44415079e-03
  1.49986565e-01 -4.40912336e-05 -5.58131598e-02  1.57474995e-01
  7.94201344e-03  5.42486906e-02  5.83490543e-02 -7.16663674e-02
 -6.32275864e-02 -1.19993333e-02 -1.54261872e-01  1.57490708e-02
 -2.18279753e-02 -1.01705030e-01  5.15126958e-02  1.00547448e-01
 -2.12060437e-01  1.04473948e-01  5.48166111e-02 -6.17445819e-02
 -1.80812869e-02  8.34081545e-02 -1.61402866e-01 -1.87991951e-02
  1.63161680e-01 -2.40237236e-01  2.45492414e-01  1.67937547e-01
  6.92379475e-02  1.60095260e-01  1.24261476e-01  7.41658136e-02
 -4.00881544e-02 -7.14720786e-03 -7.92610273e-02 -6.96258321e-02
  1.22822441e-01 -1.68299209e-02  1.54514819e-01 -2.70944294e-02]