[-1.25601724e-01  9.83195826e-02  4.30439487e-02  3.75003666e-02
 -1.03198744e-01 -9.70853772e-03 -9.43748932e-03 -4.05835584e-02
  1.36205778e-01 -3.13567109e-02  1.65117607e-01 -4.08079848e-02
 -2.13202521e-01 -5.75900674e-02  1.85021050e-02  1.18626431e-01
 -1.60984829e-01 -9.67042968e-02 -9.86624788e-03 -3.98366153e-02
  4.86882254e-02 -3.29724583e-03  1.08058900e-02  1.08146064e-01
 -1.32842585e-01 -3.44197959e-01 -1.30037934e-01 -1.06227256e-01
  4.70326990e-02 -3.14634852e-02 -7.48718753e-02  3.04635353e-02
 -1.16361432e-01 -2.74342597e-02  5.55587187e-02  2.32180934e-02
 -2.24524587e-02 -4.13165055e-02  2.29072928e-01 -4.06030007e-02
 -1.88675985e-01  6.45972043e-03  5.95816486e-02  2.47305200e-01
  1.56688988e-01  7.04731345e-02 -2.76941750e-02 -4.40690666e-02
  9.55592915e-02 -1.49785861e-01  4.26498391e-02  2.28593156e-01
  7.38713965e-02  6.93178028e-02  1.42154023e-02 -1.24598980e-01
 -2.20883265e-03  1.19595625e-01 -1.59741506e-01 -1.06863622e-02
 -3.63482684e-02 -1.14750765e-01  2.22355258e-02 -5.44446111e-02
  1.71920091e-01  9.76485237e-02 -6.07864745e-02 -1.58107325e-01
  1.03963509e-01 -1.89296722e-01 -6.03082553e-02  2.83799004e-02
 -1.59822106e-01 -1.86630368e-01 -2.91083544e-01  5.17497659e-02
  3.70285183e-01  1.62385687e-01 -1.46292374e-01  7.14007244e-02
 -5.78355603e-02 -4.98181358e-02  9.76282433e-02  7.36522302e-02
 -1.21397212e-01 -4.09230143e-02 -7.58361444e-02  2.24908851e-02
  2.07996756e-01 -4.70565818e-02 -1.37162283e-02  1.45700678e-01
  1.37029691e-02  6.93004057e-02  3.13732252e-02 -3.54170129e-02
 -3.94760445e-02  2.75949552e-03 -1.24732152e-01  5.41497348e-03
  3.03848963e-02 -7.33044967e-02  3.33842486e-02  9.24061313e-02
 -2.63850302e-01  5.76446243e-02  7.25601837e-02 -6.85697123e-02
 -2.58934181e-02  6.40144125e-02 -1.88606814e-01 -3.12786587e-02
  1.63653284e-01 -2.46942475e-01  2.59669632e-01  1.87192753e-01
  4.83212583e-02  1.58172920e-01  9.66662690e-02  4.58887219e-02
 -3.31787318e-02 -5.56981526e-02 -8.31488296e-02 -3.48487347e-02
  1.65240988e-01 -9.17885453e-03  9.73012894e-02 -7.09965825e-05]