[-9.38038677e-02  1.28650174e-01  2.30207797e-02  4.84063774e-02
 -8.84209275e-02 -2.26794258e-02 -8.64352193e-03 -7.19830021e-02
  8.18855911e-02  4.87462059e-03  1.81911409e-01 -9.48407575e-02
 -2.46404529e-01 -2.55082455e-02 -4.48418111e-02  1.31518111e-01
 -1.63934276e-01 -8.04496557e-02 -4.65699136e-02 -4.09718119e-02
  3.22080962e-02  1.95015911e-02  5.81256999e-03  7.27015808e-02
 -8.73520151e-02 -2.97193378e-01 -1.13678932e-01 -1.09745137e-01
  5.18621504e-02 -7.61235654e-02 -5.70022576e-02  7.80889252e-03
 -1.03221714e-01 -4.06705029e-02  6.16448633e-02 -9.30599854e-05
 -1.73806194e-02 -5.08182719e-02  2.46988520e-01 -4.85684862e-03
 -1.52890310e-01  2.70023532e-02  7.61933327e-02  2.86240548e-01
  1.59272417e-01  9.18079838e-02 -3.95968035e-02 -6.70179799e-02
  1.00491345e-01 -1.38418660e-01  5.82550056e-02  1.78236321e-01
  9.73942280e-02  6.36900216e-02 -2.78869364e-02 -1.46846876e-01
 -1.34529835e-02  9.94968340e-02 -1.68735966e-01  1.53663130e-02
  4.37731966e-02 -1.14707172e-01 -2.68236846e-02 -6.00856319e-02
  1.71421126e-01  9.31208879e-02 -5.32967225e-02 -1.57447815e-01
  1.34523138e-01 -2.06792876e-01 -6.40747324e-02 -5.94861293e-03
 -1.21634021e-01 -1.41271949e-01 -2.58216143e-01  3.65014188e-02
  3.38852674e-01  1.31718352e-01 -1.67763248e-01  4.07191291e-02
 -2.51362901e-02 -2.12618131e-02  1.11453667e-01  7.23848641e-02
 -1.13784872e-01 -3.19929644e-02 -8.83377939e-02 -2.95679662e-02
  2.01617002e-01 -6.49377331e-02 -2.20488105e-02  1.52073249e-01
  9.22863930e-03  4.12689894e-02  7.63415173e-02 -5.72559647e-02
 -5.70387915e-02 -1.12654511e-02 -1.26880035e-01 -2.79799476e-03
  1.27491197e-02 -1.04693115e-01  2.43989509e-02  8.15518424e-02
 -2.09244490e-01  7.44578317e-02  5.21271490e-02 -4.14841846e-02
 -8.39836057e-03  4.47582714e-02 -1.54647529e-01 -5.51885031e-02
  2.00995356e-01 -2.05989510e-01  2.30149060e-01  1.58703402e-01
  4.78260778e-02  1.28061876e-01  1.07204698e-01  1.02932297e-01
 -2.77430099e-02  6.79832092e-03 -1.24823272e-01 -5.63004017e-02
  1.30384132e-01 -7.26506114e-03  9.08008069e-02  1.04647661e-02]