[-1.10061839e-01  9.72517878e-02  3.05875745e-02  1.16607426e-02
 -9.34459418e-02 -3.22914757e-02 -1.62700005e-02 -5.95270060e-02
  1.65892720e-01 -3.86994854e-02  2.00915009e-01 -2.66000684e-02
 -1.76564083e-01 -7.92761669e-02 -6.88353507e-03  1.05735935e-01
 -2.19199091e-01 -7.19691887e-02  3.95220034e-02 -3.05848774e-02
  6.24307804e-02 -2.54700519e-03  2.74724197e-02  9.68157575e-02
 -1.11319616e-01 -3.36674243e-01 -1.40745863e-01 -1.55430585e-01
  8.80956799e-02 -3.70942429e-02 -4.82189506e-02  5.60508743e-02
 -1.25370935e-01 -4.60884236e-02  2.80226059e-02  4.88627795e-03
  8.01066495e-03 -4.00850996e-02  2.37022743e-01 -8.38898122e-05
 -1.46242157e-01 -3.04933283e-02 -9.72282898e-04  2.60950118e-01
  1.47406444e-01  4.15141955e-02 -1.29833613e-02 -6.00825734e-02
  9.96868759e-02 -1.20324872e-01  4.03268710e-02  2.12277725e-01
  5.83745427e-02  5.75161949e-02 -2.81426739e-02 -1.32296130e-01
  1.23401759e-02  1.17596708e-01 -1.95022151e-01  6.54341234e-03
 -7.38456566e-03 -1.06291130e-01  1.06787391e-03 -2.02321243e-02
  1.97610781e-01  8.50586072e-02 -6.61942586e-02 -1.59221411e-01
  1.20564677e-01 -1.66782111e-01 -5.36921881e-02  1.12952758e-02
 -1.70702130e-01 -1.79192409e-01 -2.76807845e-01  5.32483235e-02
  3.38490546e-01  1.41989455e-01 -1.47432134e-01  7.77067170e-02
 -1.05116189e-01 -6.25372157e-02  1.06084444e-01  1.06013194e-01
 -9.12045836e-02 -9.51573066e-03 -7.21962079e-02 -1.27212703e-03
  1.58129796e-01 -4.67295535e-02 -1.31031452e-02  1.94388807e-01
 -1.29227014e-02  7.56257996e-02  3.86448316e-02 -4.97760400e-02
 -4.00288180e-02  1.57519430e-02 -1.18528806e-01 -6.05714275e-03
  2.54000816e-02 -7.34250322e-02  1.07480204e-02  9.98045281e-02
 -2.53881276e-01  5.18996119e-02  6.78180158e-02 -5.40449396e-02
 -1.87496189e-02 -4.26274911e-03 -1.72185987e-01 -6.26337901e-02
  1.86644569e-01 -2.33181953e-01  2.41034180e-01  1.83739945e-01
  8.09196532e-02  1.87156960e-01  1.05454959e-01  4.68380861e-02
 -3.12749445e-02 -7.73524120e-02 -1.14284001e-01  1.71562918e-02
  1.50139838e-01 -9.45879240e-03  5.29327393e-02 -1.53087554e-02]