[-1.21458486e-01  1.46232456e-01  7.82130286e-02  7.07906708e-02
 -7.11592808e-02 -3.13937478e-02  1.07249832e-02 -9.46751758e-02
  1.54425934e-01 -2.26502847e-02  2.25175127e-01 -3.90869379e-02
 -2.09883690e-01 -1.03056625e-01  1.39226196e-02  1.45036772e-01
 -2.08685443e-01 -9.72392634e-02 -1.17839640e-02 -3.50162238e-02
  2.75269477e-03 -6.12427620e-03  1.16255647e-02  9.14759263e-02
 -9.01007429e-02 -3.17515463e-01 -9.99297649e-02 -1.58480138e-01
  8.60945582e-02 -3.09369564e-02 -7.12649450e-02  5.52443266e-02
 -1.58500269e-01 -4.84462306e-02  1.79871079e-02  4.65544267e-03
  3.08930874e-02  4.87175304e-03  2.04068944e-01 -1.27939824e-02
 -1.54201791e-01 -1.43979713e-02 -1.13573186e-02  2.52638459e-01
  1.54056758e-01  4.78623211e-02 -2.21154504e-02 -5.14870957e-02
  8.19301233e-02 -1.53918833e-01  4.76950640e-03  1.92188665e-01
  1.17001258e-01  3.07262968e-02 -2.22270843e-02 -1.85548142e-01
 -4.84282933e-02  5.76449148e-02 -1.60942838e-01  1.33249704e-02
  4.62552911e-04 -9.83710214e-02 -2.30973158e-02 -5.11103049e-02
  2.20550209e-01  9.18632448e-02 -6.35114610e-02 -1.26268059e-01
  1.51837364e-01 -1.47792146e-01 -1.53059131e-02  3.95228714e-02
 -1.52738959e-01 -1.50221989e-01 -2.82917559e-01  5.88019751e-02
  3.81266028e-01  1.05619192e-01 -1.82954937e-01  1.70558225e-02
 -1.34400770e-01 -1.15525173e-02  4.35983501e-02  4.56059799e-02
 -1.27006024e-01 -1.28433350e-02 -8.98601562e-02 -4.00199834e-03
  1.64155260e-01 -5.63333333e-02  8.33358057e-03  1.65639848e-01
 -3.05551887e-02  5.73315285e-02  1.06409667e-02 -8.30565766e-02
 -1.25925932e-02 -1.58419833e-02 -1.18103735e-01 -2.04581823e-02
  7.55036017e-03 -1.01956904e-01  2.65211053e-02  9.26008448e-02
 -2.50915021e-01  2.06615441e-02  7.01578707e-02 -4.89472263e-02
 -1.02443439e-04  7.28697181e-02 -1.66397557e-01 -5.98495975e-02
  2.11420298e-01 -2.23924026e-01  2.72770047e-01  1.79478273e-01
  1.85273923e-02  1.43451437e-01  5.89725152e-02  9.93773267e-02
 -8.63121971e-02 -4.75992970e-02 -6.94391876e-02 -3.10700964e-02
  1.55837670e-01 -4.66074049e-02  5.58015183e-02 -1.33881783e-02]