[-4.95110527e-02  9.32787284e-02  4.22084145e-02 -7.87413155e-04
 -1.70879394e-01  3.06448080e-02 -3.47086005e-02 -6.42636642e-02
  1.41778335e-01 -8.82577300e-02  1.58627853e-01  4.22379337e-02
 -1.84313238e-01 -7.88358450e-02 -5.91430464e-04  1.49616763e-01
 -1.28132999e-01 -1.48636132e-01 -1.28867701e-01 -1.04231730e-01
 -4.72178124e-02  1.02314569e-01  7.55885169e-02  7.51679251e-03
 -2.01378733e-01 -2.99236625e-01 -5.44815063e-02 -5.71732335e-02
  6.69197440e-02 -9.29444507e-02 -3.08703003e-03  7.66798183e-02
 -2.35573456e-01 -4.26536985e-02  2.49479916e-02  4.46400270e-02
 -5.68913519e-02 -4.95014638e-02  2.29359195e-01  3.99544872e-02
 -2.20235825e-01  6.44057542e-02  5.88620193e-02  2.74260134e-01
  2.36140847e-01 -5.82834445e-02  3.00149317e-03 -5.92972292e-03
  1.01575397e-01 -2.42222264e-01  2.14626342e-02  1.77207679e-01
  1.13594137e-01  8.20628554e-02  8.92376900e-03 -1.15613297e-01
 -2.35342588e-02  1.85533181e-01 -1.49427235e-01  7.57532939e-02
  1.50382388e-02 -7.82731771e-02 -2.28570793e-02 -3.34360711e-02
  1.73786044e-01  5.71619086e-02 -7.34041035e-02 -2.30139777e-01
  1.46469697e-01 -1.44175857e-01 -4.70153950e-02  1.23563461e-01
 -1.34225056e-01 -1.88770890e-01 -2.63365716e-01  1.01048410e-01
  3.39512110e-01  1.62894949e-01 -1.76712960e-01  2.78989058e-02
 -8.08134675e-02 -1.79158375e-02 -4.06292565e-02  3.92279066e-02
 -4.78286706e-02 -4.93334159e-02 -8.17963108e-02  5.82603179e-02
  2.34436974e-01 -4.88377027e-02 -4.74609360e-02  2.61025965e-01
  4.42459323e-02 -5.96991321e-03  3.01696989e-03  3.05576455e-02
 -1.15503423e-01  3.25153656e-02 -1.32041678e-01 -2.03437638e-02
  7.97552913e-02 -1.03601985e-01  5.84475473e-02  1.44864827e-01
 -1.59969315e-01  2.11162120e-01 -4.08066176e-02 -7.91286863e-03
  2.09995154e-02  7.23302886e-02 -1.17719069e-01 -5.57754114e-02
  1.84052691e-01 -2.19978198e-01  2.83286035e-01  1.95171863e-01
  1.66958962e-02  1.26965448e-01  1.20206036e-01  9.20740739e-02
 -1.81839612e-04  4.28737216e-02 -9.19752643e-02 -1.07559361e-01
  6.05130382e-02 -8.19964111e-02  5.43541610e-02  6.95990920e-02]