[-0.11325177  0.13591594 -0.00465445 -0.02210279 -0.06936728 -0.04953552
 -0.07668834 -0.08902146  0.09270587 -0.03029981  0.2371912  -0.06094822
 -0.2049289  -0.09622224 -0.05875486  0.1411766  -0.24791685 -0.08539035
 -0.04515212 -0.02863256  0.03852595  0.07340102  0.03398823  0.03608794
 -0.08178604 -0.33787763 -0.07412674 -0.0794301   0.05077359 -0.03161161
 -0.04944029  0.03217935 -0.16637135 -0.06405365  0.10279989  0.07880939
 -0.01987221  0.00346278  0.23209445 -0.00766385 -0.13686587  0.03906414
  0.11866095  0.28875771  0.23457241  0.07957838 -0.02890339 -0.13824753
  0.1393594  -0.16183501  0.01358211  0.18401729  0.07753258  0.06933031
  0.03040164 -0.12541994 -0.00866297  0.11718609 -0.08697461 -0.0071489
  0.02216765 -0.05899926  0.01742548 -0.05583446  0.23075962 -0.00428234
 -0.10174123 -0.17993076  0.10018887 -0.15863596 -0.10928642  0.09241705
 -0.12760065 -0.1369257  -0.33068317 -0.00508983  0.3922528   0.08159199
 -0.15109073  0.06131693 -0.03441353 -0.09039615  0.13668166  0.09780613
 -0.07541274 -0.03176549 -0.10866343  0.01250783  0.28464034 -0.04896689
 -0.04730431  0.15509087  0.0059103   0.13379101  0.03451685 -0.01363523
 -0.05490702  0.00416262 -0.16953526 -0.01895983  0.00847131 -0.03807
 -0.00611284  0.13524283 -0.15810578  0.05398747  0.04264696 -0.00359832
 -0.01951343  0.01247182 -0.11557529 -0.03578408  0.14943898 -0.23360305
  0.25224802  0.16438033  0.08137988  0.09643348  0.11759473  0.01951267
 -0.02962868  0.00825849 -0.14855528 -0.04946442  0.0733024  -0.00733244
  0.12377597 -0.01503873]