[-0.07908622  0.15163358  0.09734807  0.03659501 -0.10141685 -0.01036675
 -0.02657092 -0.0659742   0.12651443 -0.03492094  0.19374686 -0.04611296
 -0.22324991 -0.01425885 -0.02665721  0.10182694 -0.18595608 -0.09122318
 -0.03744865 -0.04269756 -0.00775613 -0.00360498 -0.00076729  0.08226012
 -0.1002176  -0.30779254 -0.10208634 -0.12680076  0.09713668 -0.06787648
 -0.05263425  0.01400243 -0.13148141 -0.01234309  0.02694932  0.00042914
  0.00288163 -0.02871341  0.22916837 -0.0107817  -0.1648297   0.0238028
  0.001362    0.2565625   0.17744456  0.0782062  -0.02618544 -0.05377247
  0.10503154 -0.18068197  0.02992434  0.20772758  0.12233194  0.0410382
 -0.01032683 -0.19085851 -0.04461459  0.09317771 -0.16685669  0.03346489
  0.00258823 -0.11095893  0.00067249 -0.05982983  0.20387626  0.11814862
 -0.08682023 -0.11869824  0.15584643 -0.18129648 -0.01511382  0.02421004
 -0.12537682 -0.13143376 -0.24357525  0.05391624  0.38626453  0.13081479
 -0.16438478  0.00344126 -0.10328746 -0.01530385  0.02851805  0.0434493
 -0.17231993 -0.05502039 -0.05688082  0.00894795  0.1907243  -0.04633842
  0.0021393   0.13583575 -0.03261618  0.05826517  0.01110847 -0.07142862
 -0.06411812 -0.01384989 -0.10515841  0.0174199  -0.01153486 -0.11931232
  0.0327042   0.09702966 -0.25624597  0.05507536  0.04681714 -0.08155122
  0.00045035  0.08129585 -0.16453163 -0.03436613  0.23878558 -0.24439357
  0.29221815  0.18535601  0.03743976  0.14070664  0.0905474   0.07965081
 -0.03919001 -0.03148572 -0.07251422 -0.06583983  0.12213552 -0.06294086
  0.07819328 -0.01376123]