[-0.08827458  0.10685656  0.09926447  0.04401446 -0.06349593 -0.01760014
  0.02135879 -0.08495792  0.16430187 -0.08274355  0.23210059 -0.04686767
 -0.19174352 -0.07181605 -0.01852435  0.13884579 -0.1976205  -0.0911516
 -0.0233559  -0.03958411 -0.00683942 -0.00259852  0.00697973  0.07895179
 -0.07241029 -0.34309214 -0.09873078 -0.14230627  0.09240398 -0.02910163
 -0.07655302  0.07408594 -0.13983408 -0.03215687  0.02488149  0.01329162
  0.03556177 -0.00218203  0.19990657  0.00504693 -0.1757351   0.01363848
 -0.01796595  0.25305304  0.18204924  0.05357002 -0.03619592 -0.07022577
  0.10856195 -0.14384864 -0.01156466  0.17342588  0.1210639   0.02454552
 -0.03371128 -0.18071967 -0.0643609   0.05113437 -0.15936908 -0.00041605
 -0.01856284 -0.1207945  -0.00539645 -0.04165588  0.19552934  0.09977066
 -0.08524024 -0.12688765  0.16633588 -0.17068651  0.00807579  0.01576967
 -0.15102725 -0.13746797 -0.23347573  0.05679245  0.40017495  0.10171106
 -0.17938198  0.01154921 -0.12747692 -0.01161495  0.05873836  0.09188735
 -0.11423272 -0.02733419 -0.05867063 -0.02405131  0.16110227 -0.06191378
 -0.01023065  0.14795016 -0.06185975  0.06747879  0.01926069 -0.07779203
 -0.06152674  0.01445812 -0.13851257 -0.02827108 -0.03190438 -0.09685495
  0.02960416  0.08429356 -0.23682669  0.04956436  0.04606625 -0.05398631
  0.02951389  0.07786828 -0.13935287 -0.06668959  0.19963302 -0.21258226
  0.26141047  0.18272972  0.03298452  0.17505248  0.08939817  0.10100116
 -0.04861153 -0.02820614 -0.07594869 -0.03629869  0.13397029 -0.03506298
  0.0673466  -0.0467033 ]