[-0.11113043  0.13155738 -0.00318122  0.01503106 -0.05551851 -0.06204046
 -0.06402653 -0.11352661  0.13133685 -0.06262412  0.23063067 -0.04171174
 -0.20110102 -0.13855615 -0.0406508   0.18383072 -0.24592207 -0.10133845
 -0.04898317 -0.04171403  0.02315555  0.00553863  0.03935234  0.01745835
 -0.10185864 -0.34738687 -0.08533292 -0.12167326  0.03601826 -0.01163221
 -0.01663468  0.058321   -0.18606159 -0.07245753  0.04281761  0.01039739
 -0.01092307  0.01281167  0.26247141 -0.01659717 -0.15273677  0.00962281
  0.07826455  0.26144955  0.18422443  0.07466958  0.00645751 -0.12108725
  0.10144359 -0.1219957  -0.00077551  0.15899923  0.06333357  0.0352379
  0.03431291 -0.11824697  0.02403274  0.04297848 -0.14960563 -0.0382259
  0.02971961 -0.07825118 -0.04720204 -0.03506463  0.25990912  0.0148428
 -0.06054813 -0.1493178   0.1601945  -0.14232802 -0.05162203  0.0695598
 -0.1108884  -0.15098248 -0.34404072 -0.01800743  0.39630219  0.0757336
 -0.14845321  0.09633674 -0.03116846 -0.10836086  0.16004907  0.1064624
 -0.06754797 -0.00495719 -0.07005675  0.02237836  0.22902019 -0.05039525
 -0.04602755  0.14395086  0.01496543  0.06530943  0.03778053 -0.05289175
 -0.02140036  0.00455591 -0.14357662  0.00324527  0.05099852 -0.02450997
 -0.00690236  0.07456814 -0.14191858  0.03026438  0.06007071 -0.02508887
 -0.03178935  0.01486587 -0.14864907 -0.05619549  0.14710146 -0.2342727
  0.24135916  0.14212835  0.01537432  0.111072    0.10118899  0.05404363
 -0.05753654 -0.0042238  -0.1675172  -0.0561768   0.1172117  -0.02281023
  0.15581386 -0.00263408]