[-0.11662131  0.132433   -0.00759081  0.00761011 -0.05713163 -0.06599691
 -0.06320142 -0.11381426  0.13062714 -0.06059061  0.23358095 -0.04202189
 -0.20228373 -0.13911495 -0.05236095  0.19085702 -0.24831946 -0.09482513
 -0.05876143 -0.04484433  0.0246309   0.01336511  0.03830379  0.02524083
 -0.0951878  -0.3457067  -0.08444768 -0.11935558  0.02847853 -0.00924575
 -0.02035542  0.05092791 -0.18412597 -0.08251043  0.04927894  0.02693501
 -0.01253743  0.0099833   0.25503531 -0.02284528 -0.15490025  0.01084357
  0.09652913  0.26811376  0.19277988  0.08640703  0.00345692 -0.12475216
  0.11090177 -0.12791018  0.00125153  0.15523076  0.06545908  0.03224424
  0.03698093 -0.11184528  0.0244731   0.06286638 -0.14503267 -0.03970013
  0.03336342 -0.08177067 -0.03975683 -0.03655371  0.25912502  0.01800825
 -0.06691515 -0.13873421  0.16376351 -0.1551923  -0.06018965  0.05865753
 -0.10678432 -0.15214045 -0.35590693 -0.02589684  0.40516096  0.08355314
 -0.14410904  0.09054577 -0.02613014 -0.10226294  0.16797476  0.11352153
 -0.06808672 -0.00984344 -0.08007478  0.01785068  0.24158065 -0.04818688
 -0.03676389  0.14875881  0.01884305  0.06202846  0.03498477 -0.0464042
 -0.03044889  0.00297711 -0.14874473  0.00478218  0.04671084 -0.02324867
 -0.00436483  0.07843258 -0.14411719  0.02393986  0.05662938 -0.0217042
 -0.027825    0.01059737 -0.13942768 -0.06172529  0.14880122 -0.21820068
  0.23315716  0.14668266  0.01214275  0.11310253  0.1069175   0.05838788
 -0.05503944 -0.01213432 -0.17412762 -0.05961541  0.11246711 -0.02575593
  0.1647868  -0.00137257]