[-0.05321149  0.11042415 -0.0031888   0.02014474 -0.06565937 -0.01118434
  0.00144564 -0.03094173  0.13676453 -0.04728196  0.18008372 -0.06930105
 -0.20370023 -0.06722204 -0.03230679  0.13205037 -0.16579585 -0.07557195
 -0.05047287 -0.03469092  0.03885808  0.0201398   0.00620566  0.07606816
 -0.0914697  -0.3169319  -0.10662252 -0.09884524  0.08750098 -0.08598728
 -0.0589134   0.04956187 -0.10709655 -0.05302983  0.07151458 -0.03235565
  0.00155325 -0.03694066  0.24679053  0.01889195 -0.16692875  0.05345356
  0.06442609  0.29097554  0.17370872  0.07140138 -0.039699   -0.07972282
  0.13317025 -0.11762583  0.01163637  0.18468365  0.09510921  0.05728621
  0.0057501  -0.12849067  0.00126624  0.0901201  -0.17973934  0.00049272
  0.01236079 -0.09191479 -0.00717011 -0.04471872  0.13225548  0.02291021
 -0.07171734 -0.17255199  0.11439186 -0.19665653 -0.03107953  0.0077305
 -0.12314196 -0.16143253 -0.26216313  0.04945692  0.31820491  0.17845778
 -0.14995568  0.08655678 -0.01909269 -0.05305706  0.10219815  0.09925633
 -0.11956771 -0.02973429 -0.04866312 -0.00987898  0.16633599 -0.03395927
 -0.02393485  0.15047605 -0.00695218  0.05420288  0.03258867 -0.06159574
 -0.10038187  0.01376626 -0.14126517  0.00577105 -0.00378052 -0.08177172
  0.03551332  0.09348827 -0.21552706  0.0928515   0.03662186 -0.05466018
 -0.03053486  0.0666359  -0.15664823 -0.02517617  0.14316848 -0.2162499
  0.22343104  0.16964436  0.09345935  0.13032985  0.14232676  0.04942
  0.00096157  0.00580837 -0.11137336 -0.06444888  0.12752128 -0.02318553
  0.10663712 -0.03050315]