[-0.03441869  0.11884119 -0.00527747  0.02174238 -0.0641221   0.00504679
 -0.00091876 -0.0481481   0.12589602 -0.05153714  0.19113235 -0.06329141
 -0.20844121 -0.07267652 -0.03468549  0.13204193 -0.17614047 -0.06676051
 -0.05812348 -0.03866848  0.04369106  0.02667598  0.0167118   0.06673943
 -0.0919015  -0.31585962 -0.10583165 -0.09666716  0.09703483 -0.0965033
 -0.05123991  0.04519811 -0.10705592 -0.03700003  0.06746977 -0.03881912
  0.00410142 -0.04522523  0.24249096  0.01818159 -0.16665132  0.06313732
  0.06448629  0.27824664  0.16761357  0.06267639 -0.03906618 -0.08507464
  0.12369215 -0.11736975  0.01904447  0.18322992  0.08470111  0.06439003
 -0.00774683 -0.13238673 -0.00701016  0.09790724 -0.17498504  0.00864952
  0.02325167 -0.10845472 -0.01335134 -0.04268687  0.12078869  0.03591871
 -0.0709103  -0.18299767  0.1047902  -0.19785194 -0.03557371  0.00725976
 -0.12292419 -0.15667123 -0.25562486  0.04949623  0.31583282  0.18481748
 -0.15451078  0.07343724 -0.02876005 -0.039573    0.11026572  0.10238718
 -0.10426518 -0.04055291 -0.04812937 -0.00600762  0.16354167 -0.03950899
 -0.03105262  0.16482316 -0.01117511  0.05516357  0.02862984 -0.06344291
 -0.10125817  0.01154169 -0.13208415  0.00204524 -0.01287062 -0.08328328
  0.03503552  0.09167679 -0.20793949  0.1016316   0.03697434 -0.05220008
 -0.00744886  0.06365535 -0.14577723 -0.02783423  0.14877203 -0.22027819
  0.2390915   0.1765044   0.10103931  0.13542412  0.14414243  0.06885996
 -0.00036657 -0.00164299 -0.11494088 -0.06207699  0.12150703 -0.02326571
  0.09865575 -0.03976009]