[-0.11519666  0.09243089  0.02153661  0.06143053 -0.07636399 -0.03197329
  0.00945349 -0.08552345  0.16863458 -0.05841143  0.21033792 -0.03091761
 -0.1830776  -0.06078082  0.00333122  0.1137766  -0.19920562 -0.07898589
  0.01198641 -0.03669652  0.06710007 -0.02767697  0.01403663  0.11180023
 -0.0976299  -0.31568724 -0.12273457 -0.14884497  0.10617623 -0.04709341
 -0.04853288  0.05408676 -0.1207117  -0.02113674  0.01418729  0.00835089
  0.02281002 -0.02870692  0.23234002 -0.01130464 -0.15740199  0.00232086
 -0.01410379  0.25031647  0.14394806  0.06157806 -0.02148673 -0.05020614
  0.08372289 -0.12191088  0.00866585  0.19005096  0.11729665  0.05130078
 -0.03996567 -0.19961773 -0.03431306  0.05546918 -0.13945955  0.0148745
 -0.02069196 -0.09693936  0.0141154  -0.04847365  0.20529318  0.07330004
 -0.08037382 -0.12461338  0.1084378  -0.1738545  -0.03738463  0.01618295
 -0.18120448 -0.18424313 -0.24741144  0.05638698  0.35352203  0.14051728
 -0.16736574  0.04095833 -0.1055757  -0.0204926   0.06905385  0.0939719
 -0.09330764 -0.02908165 -0.06985732 -0.02114686  0.16901921 -0.06401785
 -0.02329464  0.16936634 -0.03303684  0.08670657 -0.01157694 -0.09146347
 -0.03044885  0.01929897 -0.09084327 -0.01319284 -0.00979733 -0.07983171
  0.02694809  0.08018153 -0.25760287  0.05175712  0.06485938 -0.0362472
 -0.00142998  0.08610959 -0.19992648 -0.04809257  0.19300029 -0.23144864
  0.28119326  0.2180258   0.07895222  0.17517732  0.10048087  0.08246852
 -0.03118613 -0.01601455 -0.09939166 -0.00230294  0.14545487 -0.03041712
  0.05171137 -0.01909133]