[-0.11353405  0.12190195  0.0300779   0.03933806 -0.0697083  -0.03097285
  0.02685081 -0.07425268  0.12505762 -0.04198669  0.20914565 -0.05636985
 -0.25193045 -0.068258   -0.00481009  0.14314349 -0.17396949 -0.10195738
 -0.00495697 -0.01661274  0.08124166  0.03253117  0.00047139  0.08333176
 -0.08239949 -0.32207426 -0.12191198 -0.07659609  0.06324133 -0.04938447
 -0.05052274  0.03432893 -0.09599085 -0.04133533  0.07203948  0.00145359
 -0.01633531 -0.03790195  0.26562166 -0.01281851 -0.17891173  0.02597597
  0.0633499   0.28785262  0.14312959  0.07314467 -0.03383679 -0.07049672
  0.08296137 -0.14853762  0.03065186  0.19943514  0.08969339  0.05985761
 -0.00739818 -0.1604649  -0.02600335  0.10284606 -0.18351798  0.02206922
  0.02116266 -0.14477293  0.00795064 -0.04221231  0.17108245  0.06795751
 -0.08338429 -0.15725358  0.12612225 -0.18884276 -0.06923062  0.01988769
 -0.15355878 -0.17050253 -0.27127033  0.04696938  0.34596702  0.14654614
 -0.15916853  0.06318795 -0.00912449 -0.0036754   0.14125192  0.11081325
 -0.0905159  -0.04264604 -0.08966617 -0.00819989  0.17282663 -0.03485939
 -0.05957388  0.1699162   0.00568318  0.08238109  0.06095285 -0.03773364
 -0.02520519 -0.01603037 -0.13723122  0.00266725  0.00832249 -0.07812355
  0.04162422  0.11471331 -0.18222491  0.06454374  0.04693849 -0.02216017
 -0.02663906  0.06749691 -0.15568867 -0.03206007  0.13325845 -0.22651212
  0.26897705  0.16724436  0.0293936   0.13421273  0.09879182  0.0705029
 -0.01837714 -0.02829213 -0.1127881  -0.05055675  0.14025341  0.00257954
  0.13874407 -0.01284758]