[-0.12516361  0.145009    0.06187771  0.06332508 -0.06447754 -0.02833508
 -0.01714786 -0.10738545  0.14862615 -0.05527937  0.20553994 -0.0641622
 -0.19859795 -0.08002899 -0.02905868  0.14412896 -0.21654955 -0.10738504
 -0.01633768 -0.04093355  0.02037139 -0.00099136  0.00571086  0.07100935
 -0.08666851 -0.3389619  -0.09702959 -0.15386215  0.09575752 -0.01683937
 -0.07321726  0.04826183 -0.1601879  -0.03356202  0.02044651  0.01309466
  0.03119397  0.00933583  0.22651    -0.01149796 -0.16350812  0.01301955
 -0.0027897   0.24913393  0.15280789  0.07592048 -0.02306262 -0.08376019
  0.07438105 -0.11074867 -0.00288898  0.20954879  0.11490262  0.03841753
 -0.03837384 -0.18582663 -0.04644018  0.02616785 -0.13306411  0.01822822
  0.00762437 -0.10665388 -0.00732232 -0.0419796   0.23052417  0.0553272
 -0.0771198  -0.13811146  0.15046449 -0.16746946 -0.0252025   0.01928263
 -0.14559545 -0.15101074 -0.28463206  0.05120114  0.38324744  0.09895289
 -0.17626224  0.04230262 -0.10921595 -0.04567648  0.07628978  0.11031421
 -0.11764242 -0.0161944  -0.064532   -0.01059755  0.19031978 -0.06512619
 -0.0130035   0.15861613 -0.03958038  0.08821774 -0.0100537  -0.0829613
 -0.03298646  0.00851756 -0.09650958 -0.00039271  0.00974195 -0.07590016
  0.01892835  0.09914733 -0.21978299  0.01520033  0.05344903 -0.03964902
  0.00348697  0.08345757 -0.17614602 -0.08241797  0.20696054 -0.21613677
  0.27850595  0.20236354  0.04521694  0.14298479  0.1176037   0.09154322
 -0.0307569  -0.00588368 -0.11403946 -0.03307859  0.1473029  -0.04413662
  0.06463592 -0.00545612]