[-3.76129150e-02  1.04599476e-01  1.24541121e-02  3.84621701e-04
 -1.03058398e-01  2.87814569e-02  6.97551388e-03 -1.06923066e-01
  1.30938917e-01 -1.05094306e-01  1.76132008e-01 -1.52889034e-02
 -1.64674938e-01 -1.24500349e-01  2.74169352e-02  1.26051143e-01
 -1.42112076e-01 -1.82696223e-01 -9.03356597e-02 -9.22031775e-02
  3.50523703e-02  5.88269010e-02 -3.52923833e-02  2.52802856e-02
 -1.43107712e-01 -2.60785967e-01 -1.02961443e-01 -9.74515602e-02
  1.40275210e-01 -3.02154608e-02 -8.47200304e-02  4.98105846e-02
 -1.23704530e-01 -8.19785595e-02  8.66273791e-02  5.40240891e-02
 -3.98332290e-02 -4.41281609e-02  1.61647484e-01 -3.30770910e-02
 -2.04667494e-01  5.45959733e-02  8.02970678e-02  2.75292665e-01
  1.99432850e-01  5.94338663e-02 -2.48205778e-03 -3.12865041e-02
  1.08981632e-01 -1.31108925e-01  8.62651765e-02  1.31437391e-01
  1.53469622e-01  8.79437327e-02  2.26753633e-02 -1.92119747e-01
 -1.89893544e-02  1.18569128e-01 -1.64887667e-01  4.76675816e-02
  7.73274824e-02 -1.32812962e-01 -2.86715385e-02 -4.51344289e-02
  1.51421413e-01  7.74064809e-02 -8.00921023e-02 -2.09199294e-01
  1.54594302e-01 -2.12842375e-01 -5.54429404e-02  7.97509775e-02
 -1.29491940e-01 -1.08066797e-01 -2.28943393e-01  6.51695160e-03
  4.02363777e-01  1.65881872e-01 -1.75005943e-01  5.19160880e-03
  1.93421096e-02  2.82533597e-02  1.48052618e-01  1.01671793e-01
 -5.51541820e-02 -2.58933790e-02 -9.38931555e-02 -2.69362759e-02
  2.06810385e-01 -1.16989529e-02 -6.99707717e-02  1.66323721e-01
  2.64793392e-02  3.08429599e-02  5.64077385e-02 -1.51817491e-02
 -4.17789780e-02 -5.47260046e-04 -1.01339698e-01 -1.03882207e-02
 -2.39534844e-02 -8.30436796e-02 -2.64988397e-03  1.02418639e-01
 -1.03587590e-01  1.95492774e-01  1.97407939e-02  8.55473503e-02
 -4.29426059e-02  1.80527475e-02 -7.98862949e-02 -6.07876515e-04
  1.61138892e-01 -2.12876901e-01  1.83292732e-01  1.62281781e-01
  3.99452932e-02  1.28248721e-01  9.24236849e-02  7.35067502e-02
  2.60195520e-04 -5.40998764e-02 -2.17713982e-01 -8.92143175e-02
  6.64848685e-02 -1.09263115e-01  1.24345794e-01  3.78498435e-02]