[-0.11579973  0.10197902  0.05339934 -0.01074041 -0.08926825 -0.0212533
 -0.05848609 -0.18328865  0.10080051 -0.10850038  0.20324545 -0.0363063
 -0.19917116 -0.10559598 -0.03416702  0.19263439 -0.1188406  -0.15501294
 -0.05024306 -0.00906052  0.06870728 -0.01755118  0.03032145  0.03296439
 -0.06980561 -0.32807431 -0.10883414 -0.09900717  0.02269251 -0.02167161
 -0.12672882  0.02174048 -0.15250345 -0.06906174  0.03954875  0.05810027
 -0.03146463 -0.05830713  0.2134954  -0.05448435 -0.23753922  0.04218007
  0.11540627  0.23153578  0.19783263  0.05448243  0.0319475  -0.08610182
  0.10638237 -0.1600295   0.04436947  0.096232    0.10115249  0.02456765
  0.02724933 -0.17203359 -0.01383906  0.05876247 -0.10209656  0.02213359
  0.07701425 -0.10021818 -0.06895844 -0.0710642   0.25225982  0.11310331
 -0.09442642 -0.18802331  0.13460056 -0.16159254 -0.08335828  0.0121142
 -0.17870605 -0.13806689 -0.30270782 -0.00174085  0.38707051  0.10760739
 -0.19453305  0.07116033 -0.0246487   0.01564761  0.14028211  0.13492751
 -0.02334497  0.04107692 -0.09421803 -0.04074978  0.24801631 -0.07827508
 -0.03692732  0.18963243  0.00871048  0.08509737  0.02644721 -0.01129805
 -0.04378393 -0.00583945 -0.18806671 -0.01990642  0.01834083 -0.0113137
  0.01473314  0.12975882 -0.16159348  0.05851003 -0.00354911  0.05369393
  0.00319247  0.02198121 -0.1413354  -0.07422736  0.10826878 -0.1705227
  0.18254624  0.18296416  0.06949089  0.07183396  0.17525834  0.04871559
  0.03911972  0.03367003 -0.22378974 -0.03562787  0.14543545 -0.04098041
  0.09303798  0.04266744]