[-0.03250898  0.08760526 -0.00355912 -0.00561767 -0.08113031  0.01368381
  0.01310378 -0.11481132  0.14261697 -0.10526023  0.19214116 -0.02942326
 -0.19372748 -0.10355246 -0.00331629  0.11879986 -0.14743264 -0.16371003
 -0.08694545 -0.06885727  0.06187941  0.07647884 -0.020434    0.01951931
 -0.11281239 -0.28571203 -0.10272198 -0.0887184   0.10353304 -0.01120142
 -0.08876177  0.02842498 -0.12617789 -0.07379388  0.07271647  0.02752956
 -0.02109635 -0.04011529  0.1719121  -0.02993338 -0.22027205  0.04551418
  0.08527828  0.27412888  0.1978216   0.05678938  0.00688458 -0.07967985
  0.11339071 -0.09666339  0.07494872  0.13916832  0.13000476  0.08404064
 -0.00166744 -0.17644773 -0.03028665  0.1336738  -0.12857094  0.04115226
  0.10529931 -0.10434746 -0.01694012 -0.04484987  0.17030798  0.036972
 -0.10048101 -0.23296003  0.12602656 -0.22065651 -0.0948476   0.05300529
 -0.1471339  -0.12623186 -0.25068599  0.00823955  0.38060322  0.13262281
 -0.17410295  0.04410917 -0.00486498  0.02915785  0.18365568  0.12873816
 -0.02994283  0.01430996 -0.11603639 -0.04041036  0.23653193 -0.0281347
 -0.0742221   0.18297961  0.00939754  0.04622151  0.05893105  0.01301601
 -0.05434155  0.03694734 -0.12142344  0.00791844 -0.0055006  -0.05873426
 -0.00155087  0.09759223 -0.10850441  0.19416918  0.01248982  0.10826343
 -0.02199163 -0.00955335 -0.08122017 -0.01391006  0.14942737 -0.20555559
  0.18694007  0.14049834  0.08454089  0.13402894  0.11418422  0.07120465
  0.00554091 -0.02679971 -0.25635386 -0.06471701  0.07510804 -0.07435127
  0.13728283  0.04121592]