[-0.05950364  0.09069119  0.01340677 -0.00738527 -0.10960009  0.00764652
 -0.01874903 -0.13761024  0.11095013 -0.10782506  0.20733316 -0.03335507
 -0.19627708 -0.14043775 -0.01133898  0.14884533 -0.12678564 -0.18433645
 -0.09073617 -0.02832758  0.05633429  0.0324199   0.03320081  0.01349255
 -0.12317242 -0.28867525 -0.11185547 -0.10967927  0.08540789 -0.02840248
 -0.11425587  0.02402867 -0.16195029 -0.11164733  0.06547813  0.05599488
 -0.02030477 -0.04415263  0.19570242 -0.04827217 -0.23874111  0.05736057
  0.09396682  0.25619671  0.16471505  0.04519808  0.00451883 -0.05944368
  0.11311231 -0.10309608  0.10083594  0.11046986  0.19234143  0.08245915
 -0.00504824 -0.17114113  0.01339397  0.1536766  -0.14051729  0.04012581
  0.09188838 -0.10191542 -0.0253449  -0.05005598  0.18446551  0.05696277
 -0.08929615 -0.19896495  0.12133508 -0.14826666 -0.05423973  0.07069516
 -0.17016859 -0.13113423 -0.25114226  0.00409529  0.36042559  0.11805584
 -0.21001248  0.00425769 -0.00279877  0.02587662  0.1192859   0.10871954
 -0.02969489  0.03073019 -0.1114944  -0.0300205   0.21737528 -0.06202613
 -0.05251896  0.19254756  0.03166683  0.05637815  0.05697516  0.00510581
 -0.04007082  0.01664706 -0.13028663  0.0221455  -0.00602913 -0.07395678
 -0.02647061  0.07395183 -0.116512    0.14420776  0.01920763  0.08325277
 -0.03494969 -0.01208782 -0.08261333 -0.0429387   0.13928358 -0.19850813
  0.20194641  0.17422307  0.06209811  0.11787385  0.12369122  0.05898881
  0.00956136 -0.02294182 -0.23582371 -0.0742201   0.1322924  -0.0900126
  0.13094418  0.04778839]