[-1.18391231e-01  1.08879939e-01  8.80373642e-02  3.40498122e-03
 -8.84600878e-02 -3.00101819e-03 -6.58861920e-02 -1.62314370e-01
  1.03301525e-01 -9.43355113e-02  2.14950472e-01 -2.31807828e-02
 -2.01285228e-01 -1.03310920e-01 -1.28178811e-02  1.93114728e-01
 -9.47154760e-02 -1.36014938e-01 -3.10913678e-02 -2.66589853e-03
  6.87562451e-02 -2.47616712e-02  6.32008836e-02  4.87228595e-02
 -8.08349252e-02 -3.34735006e-01 -1.05269030e-01 -8.51702318e-02
  1.59627723e-03 -2.12033987e-02 -1.30138204e-01  4.41519991e-02
 -1.14871524e-01 -4.90702093e-02  4.01161015e-02  7.30178878e-02
 -1.77899748e-02 -7.14489296e-02  2.22405821e-01 -5.78711890e-02
 -2.37062261e-01  1.83555279e-02  9.43266675e-02  2.35275939e-01
  2.02811673e-01  4.88789640e-02  3.49035077e-02 -6.19310327e-02
  1.11986317e-01 -1.60767108e-01  4.60387245e-02  1.02849059e-01
  9.47092250e-02  1.21610705e-02  3.30624618e-02 -1.78137735e-01
 -7.93403853e-03  6.28653094e-02 -8.20997730e-02 -7.87458848e-03
  4.55785356e-02 -1.09551907e-01 -5.21247685e-02 -8.71058032e-02
  2.40920067e-01  1.20243311e-01 -1.00619376e-01 -1.56388342e-01
  1.16131447e-01 -1.31439254e-01 -7.40520358e-02  1.65279962e-05
 -2.14615777e-01 -1.52084842e-01 -2.98124701e-01  9.43967793e-03
  3.71898085e-01  1.20357417e-01 -2.19415098e-01  6.20126836e-02
  4.13400400e-03  3.56559046e-02  1.25466347e-01  1.68426991e-01
 -3.63443606e-02  4.51632477e-02 -9.35533866e-02 -4.91518192e-02
  2.11201623e-01 -8.05644020e-02 -3.38377766e-02  2.06982657e-01
  1.38735818e-02  1.00238040e-01  3.37169766e-02 -1.58843473e-02
 -2.86525693e-02  8.88184365e-03 -1.94333866e-01 -6.14260649e-03
  2.13659443e-02 -1.30080031e-02  2.72443183e-02  1.21517457e-01
 -1.85347617e-01  4.75866310e-02  9.72435460e-04  6.26548827e-02
  1.86783709e-02  2.75078006e-02 -1.41774684e-01 -8.30662027e-02
  1.10392652e-01 -1.69337466e-01  1.41362339e-01  1.94287091e-01
  5.77899776e-02  9.70323011e-02  1.83609977e-01  8.00258890e-02
  4.65659350e-02  4.05341871e-02 -1.91511333e-01 -1.37673533e-02
  1.55418068e-01 -4.02917564e-02  7.29804039e-02  4.60170098e-02]