[-0.03088886  0.08846819  0.00745247 -0.0030089  -0.09340145  0.01225438
  0.01430814 -0.1132796   0.13631819 -0.11381729  0.20231144 -0.03821165
 -0.20255843 -0.10263114  0.00071693  0.12076298 -0.1441453  -0.17113416
 -0.10198124 -0.05827539  0.06055851  0.0647103  -0.01474589  0.01780039
 -0.10180386 -0.28828713 -0.09683218 -0.09898915  0.10891618 -0.01906186
 -0.08931318  0.00993755 -0.12798715 -0.07901359  0.06858137  0.02982314
 -0.03134834 -0.0423577   0.16279715 -0.03657763 -0.22935799  0.042163
  0.07535725  0.26763526  0.18502854  0.06676112  0.00529023 -0.07791124
  0.11548819 -0.12031671  0.0883165   0.12438498  0.15643044  0.09405966
  0.00873109 -0.19574331 -0.02118778  0.13744178 -0.13378374  0.05305436
  0.10256976 -0.09762273 -0.00746919 -0.04814447  0.19491933  0.05038223
 -0.10752479 -0.22092037  0.12327025 -0.21293795 -0.08115345  0.06521311
 -0.13938609 -0.12245619 -0.2356766   0.0036404   0.38361523  0.12456151
 -0.18577531  0.01351153 -0.0197681   0.03900061  0.16302039  0.12446592
 -0.02892396  0.01373779 -0.11913302 -0.05446113  0.22773658 -0.05134184
 -0.06504944  0.19579808  0.01002937  0.04801073  0.05428169  0.00056878
 -0.05680276  0.0356547  -0.10564806  0.01079279 -0.01885111 -0.07095333
 -0.0106972   0.07422198 -0.1093683   0.18843515  0.00843925  0.1130684
 -0.01797433 -0.01111149 -0.0759923  -0.02396555  0.1524028  -0.22416051
  0.2018389   0.15099525  0.08500962  0.13722508  0.10102027  0.07110927
  0.01055481 -0.03074851 -0.24904564 -0.06005239  0.07678652 -0.08549211
  0.11193152  0.04192916]