[-0.07874387  0.09129563  0.10298064 -0.02714587 -0.0916902  -0.0172936
 -0.07340171 -0.20001709  0.08750505 -0.14203358  0.20999432 -0.0291194
 -0.20269386 -0.07288476 -0.01943927  0.19886263 -0.08806811 -0.17137463
 -0.04171222  0.01143439  0.058573   -0.02326795  0.03653778  0.03640182
 -0.06164693 -0.28699401 -0.13812314 -0.04189114  0.01280672 -0.00175333
 -0.13290043  0.05088655 -0.11890682 -0.02117191  0.04755741  0.08695155
 -0.01686337 -0.10584394  0.19355124 -0.02558171 -0.26413962  0.07248519
  0.05290912  0.22220321  0.21394657  0.01918527  0.06215381 -0.09105062
  0.12153289 -0.18446521  0.04782996  0.11344067  0.12109603  0.02500491
  0.00512306 -0.17308503 -0.00226345  0.08199717 -0.09251611  0.0238977
  0.1053718  -0.13785625 -0.01918782 -0.09410418  0.20761135  0.14734647
 -0.13085042 -0.18176816  0.11507037 -0.14445138 -0.08408682  0.01497639
 -0.22006023 -0.14541328 -0.28485188  0.02279716  0.37962419  0.12915772
 -0.19350068  0.0501454  -0.00634263  0.07484565  0.10414007  0.18805182
 -0.01893392  0.02774771 -0.09412837 -0.03814601  0.24179566 -0.10074546
 -0.04089778  0.22366074 -0.00744144  0.10299865  0.0064233   0.02598454
 -0.01296541  0.0082262  -0.13860524  0.02834957 -0.01872822 -0.02580594
  0.0277355   0.12273216 -0.14291286  0.07978338 -0.04880468  0.08582771
  0.00431137  0.00726124 -0.10041776 -0.05922957  0.09060657 -0.18304501
  0.1542301   0.1993244   0.0569447   0.06972694  0.16997322  0.09602564
  0.05193378  0.00902205 -0.18480799 -0.03908845  0.12553784 -0.01778607
  0.06587208  0.04954598]