[-0.11216559  0.12348142  0.06411899 -0.01491436 -0.08694466 -0.02828079
 -0.05814102 -0.20359997  0.1101468  -0.1157262   0.2269827  -0.01427572
 -0.19532038 -0.12626962 -0.02996444  0.19901271 -0.11991554 -0.15160947
 -0.04633635  0.0041352   0.06756198 -0.02404947  0.05353087  0.04116322
 -0.06521897 -0.32471776 -0.110168   -0.07887333  0.01982642 -0.01815227
 -0.12250014  0.0302597  -0.14963257 -0.0664864   0.04120316  0.06667554
 -0.03243591 -0.05597762  0.21851714 -0.04060433 -0.24284764  0.03874559
  0.10440608  0.24246576  0.21754873  0.03472735  0.0470561  -0.08958056
  0.11129405 -0.17208676  0.03814166  0.0955786   0.10538419  0.01896584
  0.02583396 -0.1838499  -0.01717321  0.06154044 -0.08901262  0.0052326
  0.07473724 -0.10827266 -0.05627818 -0.05680161  0.26126373  0.12120738
 -0.10619169 -0.18598974  0.13215147 -0.14886773 -0.07842806  0.01649056
 -0.19607365 -0.13145931 -0.31466755  0.00145298  0.40455815  0.10411266
 -0.1939517   0.05988726 -0.04653338  0.02764698  0.11904915  0.15272491
 -0.02379847  0.03771528 -0.10291292 -0.03972477  0.23716095 -0.08475564
 -0.04045289  0.20390645  0.01713964  0.09695717  0.01902146 -0.01568186
 -0.04615412  0.00160784 -0.1893516  -0.01884042 -0.00984513 -0.00616319
  0.02917558  0.14327425 -0.17111133  0.05931732 -0.00186169  0.05773805
  0.00764298  0.02657439 -0.12862355 -0.08782636  0.08665535 -0.17608163
  0.17799285  0.18969585  0.07434738  0.07561541  0.17510037  0.05720878
  0.04543826  0.03843526 -0.18987811 -0.01917992  0.1293485  -0.04160031
  0.0861409   0.03703389]