[-3.37597989e-02  9.38590467e-02  2.56400555e-03  1.96306640e-03
 -1.12273626e-01  1.77440997e-02 -1.61997024e-02 -1.12167336e-01
  1.26597911e-01 -1.07672028e-01  1.74190387e-01 -3.90896760e-02
 -1.78318352e-01 -1.12912811e-01  9.72947665e-03  1.47373170e-01
 -1.52476683e-01 -1.92765951e-01 -6.33771196e-02 -8.40515718e-02
  4.65010293e-02  4.55920845e-02 -4.73298542e-02  2.85873450e-02
 -1.18813992e-01 -2.72951603e-01 -1.10079311e-01 -9.45269391e-02
  1.24957599e-01 -2.27504056e-02 -8.81472379e-02  4.19924259e-02
 -1.41070351e-01 -9.79027003e-02  8.29001442e-02  4.95332591e-02
 -2.67083105e-02 -5.71206175e-02  1.61013141e-01 -4.31565233e-02
 -2.01164395e-01  5.14258407e-02  8.30810890e-02  2.64270842e-01
  1.85629353e-01  6.97937310e-02  5.63815236e-03 -3.44202965e-02
  9.37611833e-02 -1.16057053e-01  6.90594539e-02  1.31840691e-01
  1.57270893e-01  7.92448670e-02 -4.43749037e-03 -1.92841411e-01
 -2.05282420e-02  1.22981004e-01 -1.65993124e-01  3.67026217e-02
  8.13756511e-02 -1.22215621e-01 -2.40155254e-02 -5.97206019e-02
  1.66365474e-01  6.61747828e-02 -7.34468400e-02 -2.14779645e-01
  1.61392912e-01 -2.06509933e-01 -7.24480003e-02  4.57769632e-02
 -1.37055233e-01 -1.11447848e-01 -2.48687983e-01 -6.38050167e-03
  3.85171592e-01  1.43645510e-01 -1.70355007e-01  2.96694338e-02
  3.56870033e-02  2.63505131e-02  1.35479525e-01  1.00410007e-01
 -3.68419662e-02 -1.06014190e-02 -9.20799300e-02 -2.79212147e-02
  2.12820575e-01 -2.22234465e-02 -6.39772341e-02  1.45552918e-01
  6.11621747e-03  2.97060665e-02  6.02349117e-02 -2.68982723e-04
 -3.11803203e-02  1.21599641e-02 -1.05406426e-01  3.15438001e-03
 -2.21700557e-02 -7.44547993e-02 -6.68582693e-03  1.02770343e-01
 -1.06116317e-01  1.77015990e-01  7.06443796e-03  7.84063935e-02
 -6.30466864e-02  1.42473672e-02 -8.66393372e-02  4.87051858e-03
  1.69365093e-01 -2.03683138e-01  1.89165935e-01  1.71714380e-01
  3.89233790e-02  1.32674441e-01  9.06788260e-02  7.11729527e-02
 -2.30216910e-03 -5.42787723e-02 -2.48888358e-01 -1.04400590e-01
  6.90286383e-02 -1.00107528e-01  1.33006871e-01  5.35070784e-02]