[-0.03475733  0.10567013  0.02408043  0.00689751 -0.10145583 -0.0093019
 -0.03131762 -0.13140202  0.12081399 -0.12877849  0.17775619 -0.0143967
 -0.15658364 -0.11936647 -0.01779613  0.14911623 -0.10420936 -0.19022803
 -0.05949695 -0.08195059  0.06183615  0.06994522 -0.01302375  0.02904004
 -0.12734541 -0.26743552 -0.10881861 -0.08963919  0.06112654 -0.01899992
 -0.07958604  0.06390519 -0.11442532 -0.05899335  0.08008493  0.08927945
 -0.01999825 -0.02368156  0.15844679 -0.02330635 -0.2083555   0.04713608
  0.0825936   0.29445833  0.19630265  0.02156415  0.02739428 -0.03468351
  0.10564309 -0.11466499  0.06136948  0.11195808  0.15813673  0.07781982
  0.00428297 -0.17054355 -0.00160279  0.1266114  -0.13752581  0.0407747
  0.0839804  -0.15255508 -0.04250829 -0.0248055   0.18041703  0.06771609
 -0.09462338 -0.20715491  0.13656716 -0.20999303 -0.09311246  0.05009036
 -0.16980648 -0.11404298 -0.27503935  0.00042263  0.41066885  0.14169778
 -0.18976896  0.04297043  0.04035369  0.05848978  0.14589198  0.1384865
 -0.03228718  0.02172179 -0.12292721 -0.01475738  0.21687062 -0.03876671
 -0.09273336  0.15084682  0.01880997  0.07709717  0.05634369 -0.01133439
 -0.02413044  0.0037624  -0.13061224  0.00830929 -0.0503981  -0.0554239
 -0.02419596  0.09138007 -0.09158187  0.18312618  0.01038736  0.08334518
 -0.07568916  0.02467913 -0.09190719 -0.00953145  0.14550458 -0.17696762
  0.16853355  0.1693408   0.06683394  0.13940354  0.11974155  0.060192
  0.01232517 -0.03845603 -0.22070928 -0.07463973  0.06779174 -0.09071054
  0.13378005  0.0456923 ]