[-0.08704467  0.14678846  0.09157356 -0.01582789 -0.07112206 -0.02956645
 -0.07759807 -0.19429664  0.12391175 -0.12585779  0.27072886 -0.02707112
 -0.22171445 -0.11997356 -0.02919967  0.22380953 -0.16525318 -0.17852466
 -0.01394472  0.02446553  0.10029862 -0.03773909  0.07009802  0.04585196
 -0.08822181 -0.35667989 -0.11342466 -0.04937863  0.0298092  -0.02100902
 -0.11199357  0.04282651 -0.14871636 -0.03241571  0.04208448  0.09039917
 -0.01156227 -0.11234996  0.21286705 -0.0347737  -0.26642135  0.02498087
  0.06309071  0.22600225  0.21217977  0.02429761  0.04823199 -0.09433541
  0.09467205 -0.15821075  0.01303797  0.12961665  0.10597712  0.01839527
 -0.00657586 -0.19147037  0.00200813  0.08083124 -0.11156789 -0.06134179
  0.06368314 -0.13483918 -0.01102466 -0.06595085  0.24058782  0.12469319
 -0.11312783 -0.16560097  0.14953251 -0.12295202 -0.06456529 -0.00261219
 -0.20782474 -0.13627227 -0.30054808 -0.02583274  0.39216718  0.07691273
 -0.18791394  0.07423492 -0.02402036  0.04816529  0.09035797  0.18316951
 -0.03865274  0.04293607 -0.12553148 -0.03810329  0.21324055 -0.08687352
 -0.02524923  0.20999327 -0.00828873  0.10385994  0.05179475 -0.00858985
 -0.03920282  0.0341777  -0.15652727  0.00756028 -0.04052795 -0.0259617
  0.00875057  0.13261992 -0.16297401  0.03521254  0.0057105   0.06283762
  0.02489109  0.02847832 -0.10067154 -0.11992939  0.0751602  -0.20528527
  0.1565696   0.21098326  0.05529317  0.1102185   0.16554895  0.10530734
  0.02758719  0.00706594 -0.19984941 -0.01213138  0.11297734 -0.03489605
  0.07155334  0.02765366]