[-1.20472811e-01  8.47473294e-02  7.74811655e-02 -4.43779025e-03
 -9.50669870e-02 -2.43300684e-02 -4.92126122e-02 -1.58135131e-01
  8.42549428e-02 -1.20179750e-01  2.26447985e-01 -3.32253687e-02
 -2.07200080e-01 -9.63233039e-02 -1.14219608e-02  1.89668804e-01
 -9.55803096e-02 -1.70669407e-01 -4.73317355e-02 -1.00452565e-02
  7.87341446e-02  7.45014331e-05  4.16766554e-02  1.99653562e-02
 -8.02622810e-02 -3.13864797e-01 -1.08912565e-01 -7.00245053e-02
  3.39781642e-02 -2.75640916e-02 -1.31805897e-01  2.46267132e-02
 -1.47951514e-01 -5.73276356e-02  4.84048240e-02  7.67735764e-02
 -9.73385293e-03 -7.34206364e-02  2.31420025e-01 -3.21394019e-02
 -2.48599887e-01  4.53388877e-02  8.79889578e-02  2.40659863e-01
  1.90590471e-01  2.82255001e-02  2.48068850e-02 -7.19056800e-02
  9.08815488e-02 -1.63014412e-01  5.06489985e-02  9.87426937e-02
  1.39671922e-01  1.14039201e-02  1.19680418e-02 -1.54986307e-01
 -1.80307589e-02  6.81468397e-02 -1.17973246e-01  9.44076944e-03
  7.95054659e-02 -1.25493288e-01 -6.40591905e-02 -9.79209170e-02
  2.24601626e-01  1.12515919e-01 -9.81085524e-02 -1.71821937e-01
  1.32156536e-01 -1.44356295e-01 -8.13896358e-02  2.47634742e-02
 -1.87112108e-01 -1.34947106e-01 -2.86328495e-01  2.92219012e-03
  3.76504481e-01  1.08669415e-01 -2.17068389e-01  6.66145608e-02
  5.24164317e-03  3.73317711e-02  1.25433862e-01  1.47841945e-01
 -2.42546741e-02  6.19262643e-02 -9.42357630e-02 -2.64441967e-02
  2.25107893e-01 -8.24678019e-02 -4.78127897e-02  1.83948264e-01
  1.81375500e-02  9.20466632e-02  6.05954118e-02 -2.48794793e-03
 -9.22689680e-03 -2.95902919e-02 -1.76377624e-01 -5.84705407e-03
 -2.67257052e-03 -4.06589806e-02  1.57698598e-02  1.12421155e-01
 -1.46489933e-01  6.16007447e-02 -1.18020829e-02  4.20419239e-02
 -3.39461677e-03  2.38715168e-02 -1.06402718e-01 -7.54384547e-02
  8.96836370e-02 -1.81580305e-01  1.53705195e-01  1.89557031e-01
  2.97674537e-02  8.99090543e-02  1.55765846e-01  7.90408030e-02
  2.45135482e-02  3.80474888e-02 -1.99496031e-01 -5.31060360e-02
  1.30965993e-01 -2.49926299e-02  1.15791820e-01  4.61214781e-02]