[-0.03337676  0.10333902 -0.00326904 -0.00595409 -0.08870225  0.02319344
  0.00716882 -0.11743487  0.12082005 -0.09235486  0.19179825 -0.03061788
 -0.18708465 -0.1244601  -0.00117811  0.133404   -0.15668029 -0.16640171
 -0.089264   -0.07047522  0.05641715  0.05762751 -0.02203437  0.03042933
 -0.11767644 -0.2543146  -0.10912585 -0.1070444   0.11870785 -0.03001081
 -0.07501721  0.03015541 -0.12433908 -0.07849627  0.07584623  0.02741676
 -0.025182   -0.03612331  0.18380688 -0.03450279 -0.22085595  0.0550683
  0.09006862  0.26329738  0.18133612  0.05447282 -0.01736218 -0.03454363
  0.09723251 -0.12617299  0.08246782  0.14235018  0.17017742  0.09129835
  0.01218136 -0.18644039 -0.02091927  0.1275394  -0.14968422  0.04661138
  0.07861299 -0.11899741 -0.00711274 -0.04428696  0.15388869  0.06937649
 -0.08817178 -0.21535431  0.14689361 -0.20220254 -0.07552302  0.07621077
 -0.13299203 -0.11577395 -0.23347448 -0.00274431  0.37549183  0.14601813
 -0.18966901  0.00642141 -0.00614822  0.01791949  0.14311354  0.09060352
 -0.03796139 -0.01070044 -0.09688451 -0.04851897  0.21306355 -0.03288011
 -0.06695535  0.18507284  0.01458622  0.04004378  0.0541718  -0.00915286
 -0.02797346  0.01360295 -0.10384236  0.01366139 -0.02718836 -0.09262671
 -0.01007942  0.09017835 -0.11630075  0.17796814  0.02680652  0.08354969
 -0.04697581  0.02644771 -0.09358587  0.00244179  0.17531601 -0.21467321
  0.22149892  0.16400716  0.04678266  0.11222845  0.10371107  0.07148939
 -0.00150441 -0.06059339 -0.22501662 -0.09506508  0.08215557 -0.10879415
  0.1183416   0.04128895]