[-0.10028839  0.11165156  0.05604322  0.00335385 -0.08545192 -0.01473987
 -0.05949613 -0.18937002  0.09349407 -0.10995757  0.19710116 -0.02964539
 -0.18941776 -0.09511822 -0.02796115  0.19274418 -0.10358056 -0.1535697
 -0.06009185 -0.00827251  0.07462899 -0.00352364  0.02405556  0.04203375
 -0.06305163 -0.30978248 -0.10050093 -0.08940075  0.03192489 -0.01097956
 -0.1359161   0.02414403 -0.14021288 -0.0628266   0.05404589  0.0604936
 -0.03678107 -0.06442378  0.21283184 -0.04982021 -0.23999719  0.05496584
  0.10506894  0.2334661   0.19726884  0.05251743  0.05026976 -0.08793623
  0.11380389 -0.1818838   0.04723754  0.09932683  0.094832    0.03191181
  0.02572303 -0.19237874 -0.01375306  0.05392608 -0.09230979  0.02998588
  0.07978679 -0.10906475 -0.05415333 -0.05779791  0.24341416  0.1158001
 -0.09345476 -0.19134068  0.12029626 -0.16127761 -0.08934758  0.0144532
 -0.18798655 -0.13781637 -0.31308231  0.0153565   0.4151493   0.1206236
 -0.18552008  0.07514687 -0.01683499  0.03492848  0.14443515  0.14226416
 -0.02917056  0.03132537 -0.0980755  -0.02766964  0.25245747 -0.08367404
 -0.05095198  0.18598342  0.01097993  0.0911525   0.01753615 -0.00044125
 -0.03822831 -0.00799735 -0.17763074 -0.01522121  0.02070902  0.00504933
  0.03018843  0.14371374 -0.16357842  0.06421886 -0.02170645  0.05281152
  0.00061697  0.02752051 -0.14192088 -0.05906713  0.09622262 -0.16125877
  0.18207042  0.18447539  0.07823583  0.07137199  0.1787426   0.04467633
  0.05387459  0.03614203 -0.21574603 -0.04369899  0.14773969 -0.02310701
  0.08802768  0.04300628]