[-3.74959223e-02  1.03362381e-01 -2.81310687e-03 -8.95308051e-03
 -1.03758313e-01  2.81381961e-02  1.39495349e-02 -1.18101679e-01
  1.22794524e-01 -1.07190989e-01  1.79689005e-01 -3.02719176e-02
 -1.77875772e-01 -1.08226836e-01  1.77579578e-02  1.23170890e-01
 -1.47756323e-01 -1.87896252e-01 -9.79501605e-02 -1.00753836e-01
  5.02286851e-02  6.82890341e-02 -5.06828390e-02  2.62535606e-02
 -1.40315101e-01 -2.45833680e-01 -1.02015235e-01 -1.03391826e-01
  1.48743659e-01 -2.80954000e-02 -7.08717629e-02  4.31388877e-02
 -1.25011370e-01 -7.61287734e-02  8.85787308e-02  4.56299707e-02
 -4.33360152e-02 -4.83241528e-02  1.66734055e-01 -4.35971506e-02
 -2.11680248e-01  4.14536260e-02  8.74166414e-02  2.72128105e-01
  1.92187414e-01  5.07507697e-02 -1.14886770e-02 -2.85432786e-02
  9.84706581e-02 -1.25603408e-01  8.33190009e-02  1.41284809e-01
  1.61461383e-01  1.06498145e-01  1.73642021e-02 -1.91709980e-01
 -1.64789446e-02  1.23306729e-01 -1.55661926e-01  4.81017046e-02
  8.83024633e-02 -1.39812544e-01 -1.69609841e-02 -4.66758683e-02
  1.52256414e-01  5.78294098e-02 -8.39734301e-02 -2.12913781e-01
  1.63877457e-01 -2.16080785e-01 -8.39868560e-02  6.21477850e-02
 -1.27601475e-01 -1.07205234e-01 -2.31670812e-01  4.21211822e-03
  3.82354468e-01  1.64015934e-01 -1.82988301e-01  2.02506799e-02
  2.32223254e-02  2.68517919e-02  1.51009247e-01  9.67958495e-02
 -4.78224866e-02 -1.94276404e-02 -9.43025351e-02 -3.64088900e-02
  2.19133601e-01 -2.48924326e-02 -6.86799288e-02  1.72252908e-01
  1.45219183e-02  2.08498873e-02  6.77974448e-02 -6.70207292e-03
 -4.13226597e-02 -1.46476930e-04 -1.00906841e-01 -9.87463514e-04
 -1.58959515e-02 -9.06504989e-02 -1.00403894e-02  1.09174266e-01
 -1.01801991e-01  2.08652884e-01  1.88842583e-02  9.00609493e-02
 -5.47060966e-02  1.36045469e-02 -8.74029994e-02  4.15792922e-03
  1.73728630e-01 -2.01544926e-01  2.03958020e-01  1.63036332e-01
  4.86027971e-02  1.26316056e-01  1.06417559e-01  6.64635450e-02
  7.83811510e-03 -5.38067296e-02 -2.36308858e-01 -1.07045546e-01
  7.53261670e-02 -1.08084120e-01  1.14755943e-01  4.79217134e-02]