[-0.02415929  0.09095307 -0.00655509  0.02195453 -0.11856677 -0.05261907
  0.00279738 -0.15575136  0.13978045 -0.0850152   0.2087817  -0.00803418
 -0.16765702 -0.10352208  0.01772037  0.12527278 -0.10548326 -0.16943108
 -0.07748038 -0.07722552  0.06820511  0.04962478 -0.00846972  0.03487864
 -0.11823793 -0.24769139 -0.11153402 -0.07166427  0.08537451 -0.01315026
 -0.07610711  0.07951652 -0.1306753  -0.10669082  0.113068    0.05420077
 -0.02012998 -0.03802461  0.19283955 -0.02771321 -0.2044411   0.05469827
  0.10452332  0.27529812  0.2115072   0.03627582  0.02730306 -0.07051279
  0.13392825 -0.11028071  0.06521144  0.12208066  0.15088402  0.06738121
  0.01474416 -0.18477252  0.00180769  0.09725652 -0.17125161  0.02210619
  0.11838915 -0.13938631 -0.04990579 -0.04513229  0.16849262  0.05320712
 -0.07577488 -0.21702328  0.11566959 -0.21306784 -0.10334003  0.06337708
 -0.18333037 -0.12456446 -0.29738432 -0.00263501  0.42077723  0.13031611
 -0.17486349  0.06589477  0.03669378  0.03653894  0.15328909  0.1124754
 -0.0110566   0.00385228 -0.12893257 -0.00796239  0.22704315 -0.04697945
 -0.09032325  0.16139291  0.02154323  0.06924138  0.05450742  0.00786105
 -0.034877    0.00264671 -0.13552505  0.00390827 -0.03540571 -0.02465826
  0.0090187   0.09047566 -0.10843296  0.16111642  0.0037534   0.08333547
 -0.08945359 -0.02362922 -0.08944228 -0.00085455  0.11085813 -0.20628266
  0.19105104  0.131548    0.05587822  0.1193467   0.07580095  0.03905969
  0.01195306 -0.01948826 -0.205754   -0.07536893  0.06056742 -0.0670348
  0.14636521  0.04221697]