[-0.13072233  0.1160087   0.09934355 -0.00597111 -0.08556852 -0.02920719
 -0.0623911  -0.16364418  0.10646122 -0.10835896  0.23059773 -0.03441989
 -0.2177414  -0.09888943 -0.03258218  0.20387676 -0.10843418 -0.15350434
 -0.0317522   0.00266452  0.07873271 -0.01432229  0.05097932  0.04855815
 -0.06589795 -0.32473046 -0.09747385 -0.06136194  0.00149478 -0.01966459
 -0.13196026  0.04437533 -0.13818505 -0.0462179   0.04177698  0.1022338
 -0.01928891 -0.07308308  0.21273935 -0.05369439 -0.24512279  0.02088082
  0.093124    0.23656051  0.21326502  0.04236013  0.02743505 -0.078807
  0.10224904 -0.16523309  0.02785125  0.11949258  0.1122733   0.0115872
  0.01614241 -0.18605836 -0.01140298  0.06110939 -0.08452301 -0.0254943
  0.06369949 -0.1300777  -0.05075939 -0.09019529  0.24457946  0.11477543
 -0.11141745 -0.16796914  0.13550901 -0.14538051 -0.0829589   0.00399696
 -0.20225385 -0.13856412 -0.30126265 -0.00051757  0.36403817  0.10097871
 -0.20599782  0.08373284 -0.0023345   0.04464121  0.10242436  0.17609146
 -0.03986101  0.06271236 -0.11281069 -0.04593271  0.21334408 -0.08394722
 -0.02633142  0.19413023  0.00989228  0.09736792  0.04396023 -0.02080421
 -0.02765039  0.00492013 -0.19309938 -0.00212335 -0.00125381 -0.025322
  0.01598111  0.11790019 -0.16848594  0.04269249 -0.0090297   0.06069426
  0.00515244  0.01496264 -0.12490667 -0.08312722  0.09733328 -0.17563727
  0.15624088  0.18717645  0.05460495  0.09990751  0.18761997  0.0922623
  0.04199134  0.03810909 -0.19073884 -0.02765102  0.13857251 -0.03951803
  0.09297714  0.04725328]