[-5.56785762e-02  7.54588768e-02  1.16101978e-02 -4.20592465e-02
 -1.31775901e-01 -5.63280359e-02 -3.71573754e-02 -1.40745714e-01
  1.64841592e-01 -1.19040966e-01  2.08047494e-01  2.58346628e-02
 -1.65987968e-01 -9.81144607e-02  1.48346992e-02  1.67929605e-01
 -1.50446936e-01 -2.06064567e-01 -4.14779522e-02 -4.61942106e-02
 -1.13612246e-02 -1.64368693e-02  1.98002183e-03  5.27728572e-02
 -1.67185336e-01 -2.95780808e-01 -1.08723544e-01 -8.93081278e-02
 -1.77498832e-02  1.71074122e-02 -5.29214516e-02  8.33236501e-02
 -1.19486980e-01 -4.92361784e-02  6.59637973e-02  8.09041709e-02
 -5.34970453e-03 -2.57141385e-02  2.04966858e-01 -2.94190478e-02
 -2.72396177e-01  5.95457032e-02  9.35222358e-02  2.55258709e-01
  2.16625810e-01  9.09646135e-03  6.12523817e-02 -7.83418491e-02
  1.36431679e-01 -1.42035082e-01  8.42492208e-02  1.13800719e-01
  8.86508748e-02  5.26526682e-02  7.36470241e-03 -1.76213801e-01
  4.07882413e-04  1.22803643e-01 -1.71066016e-01 -2.75816806e-02
  7.50403777e-02 -9.11418796e-02 -2.34400686e-02 -6.04760647e-02
  2.26472884e-01  1.41894475e-01 -9.28918272e-02 -1.89240143e-01
  1.59141123e-01 -1.97392151e-01 -1.10629380e-01  4.30455767e-02
 -1.98336288e-01 -1.57099172e-01 -3.29241723e-01  8.92513990e-03
  4.24422741e-01  1.63173780e-01 -1.48081392e-01  7.80031085e-02
  9.47297178e-03  2.28867531e-02  1.29012391e-01  1.37793928e-01
 -2.11247783e-02  3.34658362e-02 -8.31994787e-02  8.14702013e-04
  2.42489532e-01 -1.46986544e-02 -9.00955945e-02  1.47457257e-01
  3.46873403e-02  9.07488614e-02  5.69571666e-02  1.36931185e-02
 -1.16923321e-02  1.64827388e-02 -1.73709378e-01  2.27723923e-02
 -5.16086295e-02  6.06978312e-03  2.43914463e-02  9.40452144e-02
 -1.25221476e-01  1.52920425e-01  2.73703393e-02  5.69981411e-02
 -8.78241062e-02  7.72611871e-02 -4.38122116e-02 -4.41203117e-02
  1.08251952e-01 -2.11833626e-01  2.09137008e-01  1.43321291e-01
  6.35195300e-02  1.49381563e-01  9.14564878e-02  4.05737869e-02
 -2.01901030e-02 -3.32621299e-02 -1.88626140e-01 -2.85598282e-02
  7.17996657e-02 -5.49833439e-02  1.98098108e-01  9.35613811e-02]