[-0.07592059  0.09732783  0.00743579 -0.00448779 -0.10209645 -0.00123107
 -0.0228392  -0.14074007  0.10653108 -0.09975567  0.2064321  -0.0392982
 -0.19145317 -0.14771445 -0.02024025  0.15364026 -0.12402759 -0.19469313
 -0.09121421 -0.02545318  0.05535947  0.01855662  0.03450217  0.0265372
 -0.12558965 -0.2936556  -0.1109246  -0.10794722  0.08328781 -0.03432191
 -0.11313555  0.02122588 -0.17264754 -0.11267509  0.06468173  0.06320947
 -0.01599835 -0.04469341  0.20527838 -0.05006332 -0.24151054  0.06605428
  0.09543012  0.26308081  0.16615023  0.04069678  0.00659154 -0.05559144
  0.10729658 -0.10974747  0.10318019  0.11721363  0.19889799  0.08251017
 -0.01265203 -0.16663902  0.01293342  0.15512066 -0.13851485  0.04168654
  0.09140594 -0.10102437 -0.02972222 -0.04981678  0.18140087  0.06912205
 -0.09022629 -0.20212905  0.12266083 -0.15093283 -0.04604028  0.07213718
 -0.16398056 -0.13625489 -0.25226378  0.01525235  0.35347983  0.12322252
 -0.20910433  0.00622555 -0.00602669  0.0305048   0.1046133   0.1015816
 -0.040747    0.02998718 -0.11031556 -0.02442482  0.22004583 -0.05038025
 -0.05127027  0.19132455  0.0318118   0.0530762   0.05493717  0.00854876
 -0.0356346   0.01792174 -0.12296003  0.03195989 -0.0010704  -0.07482686
 -0.02199645  0.07515836 -0.1226721   0.13761728  0.01261485  0.08157218
 -0.03288883  0.0020161  -0.08271503 -0.0456033   0.13441175 -0.19862388
  0.21230948  0.18114713  0.06351127  0.11218505  0.13026492  0.05807458
  0.01712723 -0.01956563 -0.22870927 -0.07483882  0.13369118 -0.0917261
  0.12938996  0.05010964]