[-0.03850146  0.0946075   0.00192897  0.01892726 -0.10684382 -0.0352206
 -0.01722239 -0.16667177  0.12482282 -0.09764632  0.21242595 -0.01774642
 -0.1674913  -0.10491919 -0.01712007  0.13995056 -0.11100381 -0.17714094
 -0.04512025 -0.05243263  0.08085255  0.05650124  0.00709991  0.03360233
 -0.10283738 -0.25890982 -0.10856801 -0.07059601  0.06381687 -0.0093843
 -0.09607898  0.06965622 -0.14915477 -0.09797134  0.10323651  0.07885356
 -0.01003447 -0.03268623  0.19093211 -0.02697757 -0.20803335  0.0595681
  0.10720064  0.27500901  0.19215229  0.04183741  0.01661818 -0.08379225
  0.10369804 -0.09449138  0.05075809  0.12059324  0.16500035  0.05444495
 -0.01376412 -0.18163824 -0.00492714  0.08865584 -0.12563206  0.0134381
  0.1128726  -0.12135146 -0.02862785 -0.05686646  0.19473122  0.04446183
 -0.07576926 -0.21656159  0.11463773 -0.19289918 -0.12283682  0.05497221
 -0.1852431  -0.12081764 -0.28693044 -0.01332408  0.39851362  0.11121104
 -0.18507795  0.06530991  0.02397427  0.04448005  0.14483888  0.11850774
 -0.01098075  0.0284024  -0.12922153 -0.02317352  0.25055268 -0.05554421
 -0.08916663  0.14736436  0.0126639   0.08731996  0.05700282 -0.00795556
 -0.01963425  0.02515832 -0.15620589  0.00629222 -0.04898363 -0.0281286
 -0.00073779  0.11295121 -0.12330919  0.13191631 -0.00050484  0.06908653
 -0.06501716  0.00287007 -0.10603553 -0.01743535  0.11874001 -0.19641154
  0.19831167  0.15174685  0.0702798   0.11163848  0.11129016  0.05650211
  0.01099833 -0.00372206 -0.22939463 -0.07417662  0.08500898 -0.0745052
  0.14873347  0.0419088 ]