[-9.58637055e-03  1.03889108e-01  4.50565806e-03 -1.24508841e-02
 -7.54998326e-02 -2.76239414e-04 -8.19898862e-03 -1.35924459e-01
  1.36417821e-01 -1.11013673e-01  1.89990133e-01 -2.51052715e-02
 -1.79974288e-01 -1.24606729e-01  1.57856718e-02  1.21406429e-01
 -1.33922413e-01 -1.84353083e-01 -4.76970039e-02 -4.47982661e-02
  5.85166514e-02  7.35628754e-02 -2.17190869e-02  2.00198870e-02
 -1.07152581e-01 -2.68412650e-01 -1.14985742e-01 -7.64111876e-02
  8.25794712e-02 -1.12218736e-02 -1.07793801e-01  5.65084703e-02
 -1.34403810e-01 -8.59674215e-02  1.01406813e-01  5.07451668e-02
 -2.66554952e-02 -3.35931070e-02  1.77317902e-01 -2.24101562e-02
 -2.10515887e-01  6.39662519e-02  9.71810743e-02  2.73849785e-01
  2.24969149e-01  5.75935356e-02  1.45376837e-02 -8.42928365e-02
  1.20783567e-01 -7.73613006e-02  7.47206211e-02  1.42558321e-01
  1.53090402e-01  7.08009973e-02 -5.69040701e-03 -1.87332004e-01
 -2.54168753e-02  9.62111279e-02 -1.35221004e-01  1.50592243e-02
  1.08108334e-01 -1.19168736e-01 -2.31028125e-02 -3.09805274e-02
  1.66951880e-01  1.93639100e-02 -8.35907534e-02 -2.46648550e-01
  1.30883962e-01 -2.13700444e-01 -1.16441526e-01  5.03327362e-02
 -1.80002972e-01 -1.14462651e-01 -2.70462096e-01  1.05767995e-02
  3.71570021e-01  1.25824556e-01 -1.67542920e-01  8.84560868e-02
  3.19703929e-02  2.51460355e-02  1.52727067e-01  1.44058824e-01
 -2.64046732e-02  2.23324951e-02 -1.08116262e-01 -2.75643654e-02
  2.33968362e-01 -3.91951837e-02 -8.63759443e-02  1.41064122e-01
 -1.78841132e-04  6.25316128e-02  6.58870041e-02 -1.36763901e-02
 -3.17193344e-02  3.18017267e-02 -1.52224943e-01 -8.77122954e-03
 -3.04339882e-02 -3.61167490e-02 -6.65640552e-03  1.32828325e-01
 -1.19147591e-01  1.76992342e-01  2.09356030e-03  7.57034943e-02
 -6.10209703e-02 -1.26830488e-02 -8.37194324e-02 -8.17693304e-03
  1.21625505e-01 -2.04155564e-01  1.80450723e-01  1.34252295e-01
  8.51912498e-02  1.19871773e-01  1.17917858e-01  6.32415339e-02
  2.44970564e-02 -1.11865951e-02 -2.49924213e-01 -8.12736750e-02
  8.62049982e-02 -4.83574457e-02  1.66659385e-01  3.89673524e-02]