[-0.11614367  0.11292441  0.10373358 -0.01611656 -0.09853271 -0.03232087
 -0.06875524 -0.19316934  0.10765912 -0.12379303  0.21842746 -0.04008508
 -0.20788506 -0.0781045  -0.0326116   0.21503246 -0.114483   -0.18015701
 -0.04332398  0.00973082  0.07655324 -0.02146979  0.03370987  0.05532363
 -0.07547311 -0.31372577 -0.1070618  -0.05486704  0.01587965 -0.01584967
 -0.13567448  0.04058309 -0.17733651 -0.0634974   0.05072017  0.08997496
 -0.0210202  -0.08468707  0.19800046 -0.05940518 -0.27353662  0.07402417
  0.10042192  0.21673918  0.20346351  0.04120703  0.04090102 -0.09399728
  0.10101622 -0.1686617   0.03338182  0.11436435  0.11989833  0.01599847
  0.01397175 -0.19733578 -0.01951144  0.07473414 -0.08804948  0.00041844
  0.08904717 -0.11382494 -0.01732952 -0.08885764  0.24140219  0.11477026
 -0.10512958 -0.1899956   0.13829516 -0.13807811 -0.07332209  0.02040713
 -0.19891831 -0.13301471 -0.30193281  0.00587754  0.38548031  0.09468185
 -0.19413231  0.08604544 -0.02862407  0.05342075  0.08289604  0.15747917
 -0.01760155  0.04707699 -0.09661818 -0.03791318  0.24736869 -0.07884996
 -0.02139692  0.20393558  0.00682642  0.07617524  0.02110404 -0.01316795
 -0.04590135 -0.000527   -0.18027456 -0.00244251 -0.03698703  0.00192349
  0.01890265  0.14233063 -0.16658638  0.04169217 -0.02803492  0.05785847
 -0.00837201  0.0494097  -0.12040515 -0.09236977  0.07635076 -0.19483462
  0.17700991  0.19009495  0.05910045  0.0705186   0.17258255  0.07674009
  0.05555638  0.04391402 -0.19407952 -0.03991861  0.15560257 -0.04650094
  0.09184805  0.05346161]