[-0.03511678  0.08391058 -0.01703983  0.00886836 -0.11691711 -0.05941405
 -0.00053375 -0.14874156  0.10909629 -0.07668485  0.1941053  -0.01360772
 -0.16343181 -0.11668596  0.01137639  0.12408831 -0.11940227 -0.17562266
 -0.06332343 -0.08365082  0.05110529  0.05663627 -0.01889708  0.04210687
 -0.11882515 -0.25102949 -0.10390794 -0.08118     0.05264661 -0.00497598
 -0.06008709  0.08959352 -0.14223097 -0.09360207  0.11297184  0.05165324
 -0.0199747  -0.03029754  0.20646368 -0.02707698 -0.19626239  0.05244258
  0.11366737  0.28093585  0.19314286  0.02210569  0.01424599 -0.05919487
  0.13980334 -0.09665434  0.04103152  0.14088546  0.14450587  0.06829258
 -0.00684738 -0.16255851  0.01660599  0.0929245  -0.17449966  0.00819078
  0.08972564 -0.15725966 -0.04876506 -0.05676866  0.16468763  0.0393277
 -0.06819271 -0.21076398  0.11332371 -0.21391939 -0.11445961  0.05642576
 -0.17675827 -0.1335782  -0.29852828 -0.00140796  0.38500425  0.13632965
 -0.17765346  0.07896646  0.04417235  0.02115838  0.16174112  0.11873386
 -0.01092683  0.01635442 -0.11442118 -0.00360506  0.2355736  -0.04520353
 -0.09116602  0.15059803  0.02274061  0.0801327   0.06489459 -0.00771183
 -0.01676662  0.00601441 -0.13485883  0.03170847 -0.03596504 -0.03887771
  0.00418918  0.08480544 -0.10816987  0.1519035   0.01496891  0.06720582
 -0.1053751  -0.01817938 -0.08782186 -0.00735396  0.10971989 -0.2023201
  0.20913708  0.13854188  0.04468127  0.13114941  0.07875471  0.03063022
 -0.01089452 -0.03096445 -0.20403197 -0.08383796  0.08576102 -0.05688162
  0.15827154  0.03392147]