[-1.17088318e-01  1.13123260e-01  8.39659795e-02 -4.30219667e-03
 -8.50253254e-02 -2.75754370e-02 -5.20048104e-02 -1.72189355e-01
  8.78196880e-02 -1.18466832e-01  2.37081394e-01 -3.30856964e-02
 -1.96061417e-01 -1.04908921e-01 -3.24501917e-02  1.91948235e-01
 -1.12061672e-01 -1.65636420e-01 -4.90224212e-02 -1.07548088e-02
  8.58882815e-02  2.65058270e-03  2.93454323e-02  1.70323458e-02
 -6.43827245e-02 -3.05457205e-01 -1.01494886e-01 -6.04261868e-02
  4.50473838e-02 -3.31417397e-02 -1.22637093e-01  2.31944676e-02
 -1.51084110e-01 -6.98327944e-02  4.56714444e-02  7.99700320e-02
 -1.76928695e-02 -7.07547963e-02  2.21302465e-01 -4.60323319e-02
 -2.29917154e-01  5.49235232e-02  9.09676701e-02  2.50757068e-01
  1.91726625e-01  3.23013403e-02  2.74271555e-02 -8.38421360e-02
  8.90018120e-02 -1.56138301e-01  3.62773128e-02  1.06603205e-01
  1.35937676e-01  2.72573382e-02  1.19574005e-02 -1.62972376e-01
 -2.27594282e-02  6.57123998e-02 -9.76319835e-02  1.66955683e-02
  8.86361897e-02 -1.20725870e-01 -5.58861978e-02 -9.98031199e-02
  2.23609328e-01  9.30350721e-02 -1.06723070e-01 -1.74539432e-01
  1.31804749e-01 -1.37993440e-01 -9.27770361e-02  1.52326692e-02
 -1.79142803e-01 -1.28260419e-01 -2.90400922e-01  4.45962744e-03
  3.78622025e-01  1.09643102e-01 -2.16797337e-01  6.05434477e-02
 -2.86580669e-03  3.57663520e-02  1.19807936e-01  1.51128963e-01
 -2.37899516e-02  5.67153990e-02 -9.61840078e-02 -2.63991300e-02
  2.21080497e-01 -7.24651292e-02 -5.06295934e-02  1.86313421e-01
  1.48667097e-02  9.10150632e-02  4.32397127e-02 -2.53153848e-03
 -1.75694358e-02 -9.43809748e-03 -1.77159742e-01 -4.60244715e-04
 -1.55182870e-03 -3.71381789e-02  1.46584138e-02  1.27768800e-01
 -1.35974690e-01  7.14960098e-02 -1.02778748e-02  6.46509826e-02
  6.66994601e-05  3.02827749e-02 -1.13274038e-01 -6.74559176e-02
  9.62124094e-02 -1.76990375e-01  1.67517453e-01  1.96224034e-01
  4.27779034e-02  8.27119723e-02  1.71027854e-01  8.08253959e-02
  3.66197787e-02  3.69020514e-02 -2.04987168e-01 -5.90846725e-02
  1.16746619e-01 -3.22310142e-02  1.09177366e-01  4.94669043e-02]