[-0.042636    0.10453113  0.00414812 -0.0185309  -0.1151567   0.01945988
  0.01061898 -0.08201487  0.10252494 -0.083654    0.1749499  -0.06473332
 -0.20486312 -0.10003714  0.02932482  0.13477676 -0.14894877 -0.18080997
 -0.07461359 -0.12973617  0.05697926  0.05534316 -0.09666988  0.06048128
 -0.15873291 -0.24524824 -0.08506234 -0.09878547  0.10653903 -0.04457713
 -0.06866047  0.0444941  -0.13471258 -0.07647794  0.08275463  0.02934862
 -0.04079887 -0.06427181  0.18031503 -0.02669078 -0.18123244  0.04406569
  0.09589662  0.27451712  0.1779775   0.04838762  0.00245728 -0.03744773
  0.13654999 -0.14156394  0.06085862  0.16464512  0.11553186  0.10085695
  0.00576578 -0.18199183 -0.03226593  0.1224568  -0.18491831  0.04737794
  0.05226195 -0.14868605 -0.05589592 -0.09007426  0.12021466  0.04506659
 -0.07829238 -0.22572675  0.16100387 -0.21322289 -0.11318395  0.05144475
 -0.12392186 -0.12408821 -0.27931592  0.04567761  0.38490206  0.16690941
 -0.17643325  0.05777667  0.05432753 -0.01349044  0.15451178  0.1154178
 -0.02459688 -0.01949081 -0.07155287  0.01187264  0.20990005 -0.03222677
 -0.05505723  0.15531479  0.0158757   0.04597533  0.05289461  0.01986142
 -0.05986288  0.01321538 -0.10573846  0.01511441  0.0157347  -0.05946618
  0.00210254  0.09892634 -0.11111399  0.20029917  0.0271262   0.04332572
 -0.10079769 -0.00470249 -0.10377979  0.02646016  0.15973561 -0.21429276
  0.18750666  0.16651009  0.0474408   0.12946767  0.10767289  0.03014173
  0.025898   -0.06388285 -0.23990002 -0.11430065  0.09513412 -0.0703318
  0.1066551   0.03755898]