[-0.02633087  0.09398716 -0.00393031 -0.0136139  -0.09674094  0.01458964
 -0.00241984 -0.12592186  0.12190989 -0.10384309  0.17917459 -0.03701317
 -0.1797912  -0.12713169  0.02018826  0.13172682 -0.15309276 -0.18425873
 -0.061816   -0.09378626  0.06107238  0.05433809 -0.03955661  0.02990893
 -0.14477725 -0.25930855 -0.11497656 -0.09655236  0.11711752 -0.02135233
 -0.07007995  0.05728737 -0.1279196  -0.07604807  0.09427073  0.04905925
 -0.03535907 -0.04595526  0.1662396  -0.03536626 -0.20638013  0.04875087
  0.08779436  0.26753446  0.2021091   0.05136834 -0.00208515 -0.04102411
  0.11122711 -0.11435703  0.07716375  0.14565207  0.14195755  0.08722269
  0.00576621 -0.17669678 -0.01997458  0.12342014 -0.16096236  0.04193255
  0.09092275 -0.14402194 -0.03011744 -0.05122471  0.14193411  0.05939877
 -0.08638314 -0.21972382  0.16087148 -0.21264835 -0.08937073  0.0561995
 -0.14936486 -0.11834086 -0.24913843 -0.00151676  0.39108759  0.15451668
 -0.17888589  0.03548638  0.03466128  0.03446678  0.16458571  0.11835076
 -0.02508728 -0.01573201 -0.09011091 -0.02738675  0.21382764 -0.02922209
 -0.07993563  0.16776155  0.00698292  0.05308879  0.0664743  -0.00775653
 -0.0308523   0.00734766 -0.11715009 -0.00178707 -0.0287117  -0.06995473
 -0.00660322  0.10885256 -0.09073909  0.20012784  0.02632491  0.09072397
 -0.06259877  0.01116372 -0.08717418  0.00308442  0.15598191 -0.20487328
  0.19476704  0.16106708  0.05376543  0.12574743  0.10439964  0.06688654
  0.0092087  -0.05881823 -0.23990369 -0.091125    0.07099189 -0.08883536
  0.12707828  0.03615028]