[-0.10530967  0.10009109  0.0908626  -0.00494217 -0.11171774 -0.01880042
 -0.07379665 -0.17801207  0.08265033 -0.11000695  0.20648396 -0.02379528
 -0.21213996 -0.0764356  -0.04233686  0.21161106 -0.11117771 -0.17318876
 -0.05722322 -0.00303441  0.06429043 -0.02668834  0.048627    0.03799341
 -0.07880235 -0.31139651 -0.09983736 -0.06515514  0.01735957 -0.02448959
 -0.13953152  0.03679807 -0.14769684 -0.04574851  0.04725689  0.0736949
 -0.02037155 -0.09978222  0.21677537 -0.04107694 -0.25852785  0.05750507
  0.10548434  0.21966393  0.19380695  0.01597826  0.04829419 -0.08884537
  0.11109277 -0.18521072  0.02799225  0.11257882  0.11684489  0.02315756
  0.01162899 -0.18182008 -0.00935358  0.08041048 -0.09380949  0.02437227
  0.07793213 -0.11793466 -0.05419024 -0.10997047  0.21835981  0.12945579
 -0.10877883 -0.18092903  0.1162568  -0.13606109 -0.0698687   0.02364518
 -0.19521561 -0.14819169 -0.28885466 -0.00288788  0.37959281  0.11985222
 -0.20212196  0.05043519 -0.01689374  0.03804025  0.09051098  0.15599509
 -0.03131114  0.04759851 -0.1003601  -0.02453513  0.23667644 -0.08809949
 -0.02076855  0.20631221  0.0187401   0.09300708  0.01736549  0.01182659
 -0.05084977 -0.00796626 -0.17768559 -0.00084395 -0.01577172 -0.02576899
  0.02640333  0.11289199 -0.14395879  0.03707824 -0.02499497  0.05292856
  0.00144916  0.02532463 -0.11845373 -0.0860078   0.09409495 -0.16795425
  0.15636724  0.20605056  0.06104907  0.06887382  0.17753094  0.07507706
  0.0336934   0.03005105 -0.18448395 -0.03099821  0.13609754 -0.04457131
  0.07165037  0.03860692]