[-1.31317243e-01  1.17453687e-01  1.00219443e-01 -4.84728394e-03
 -9.79264602e-02 -5.37361763e-02 -6.88437670e-02 -1.95134193e-01
  1.14676833e-01 -1.22424677e-01  2.34848976e-01 -2.92422324e-02
 -2.04740167e-01 -9.92346331e-02 -3.20298932e-02  2.14647323e-01
 -1.14879303e-01 -1.61457390e-01 -4.61423174e-02  9.77334101e-03
  8.00057352e-02 -4.79494520e-02  5.72090633e-02  6.51117414e-02
 -7.63878599e-02 -3.30285460e-01 -1.09127201e-01 -6.48765191e-02
  1.41717242e-02 -1.86957270e-02 -1.26117036e-01  2.41351034e-02
 -1.85595438e-01 -8.27787369e-02  3.15765813e-02  9.59129035e-02
 -1.82712823e-02 -7.74550512e-02  2.06121787e-01 -6.55120537e-02
 -2.68919468e-01  5.45781516e-02  1.01313248e-01  2.13787824e-01
  1.98046908e-01  4.88632508e-02  5.33264466e-02 -8.63971338e-02
  1.04284361e-01 -1.69561490e-01  3.90915833e-02  9.63859186e-02
  1.20436430e-01  7.01676402e-03  2.24335939e-02 -1.96932495e-01
 -1.45709813e-02  7.58042336e-02 -9.85933021e-02 -1.13266325e-02
  7.92281404e-02 -1.05791368e-01 -2.75916290e-02 -7.61819035e-02
  2.56668001e-01  1.35407120e-01 -9.57304612e-02 -1.74370810e-01
  1.48712665e-01 -1.42904222e-01 -5.38426898e-02  2.06419807e-02
 -1.94707945e-01 -1.29503548e-01 -3.24841172e-01  3.81178426e-04
  3.96542877e-01  9.56364200e-02 -1.78181335e-01  6.77907392e-02
 -4.66162525e-02  5.10326400e-02  7.44373575e-02  1.46706030e-01
 -2.30814498e-02  5.37348688e-02 -1.03977822e-01 -2.79417243e-02
  2.26832107e-01 -7.53414631e-02 -2.00164504e-02  1.96740791e-01
  1.67626478e-02  7.65270963e-02  1.90459918e-02 -1.82212126e-02
 -6.28915578e-02 -4.65432694e-03 -1.81037098e-01 -1.58504106e-03
 -3.11672688e-02  8.23802408e-03  3.06435078e-02  1.29617453e-01
 -1.73407912e-01  1.99360475e-02 -2.35088076e-02  4.43677716e-02
 -5.65105211e-03  5.80282025e-02 -1.27658710e-01 -1.08573809e-01
  6.86006695e-02 -1.87514812e-01  1.77004457e-01  1.92836985e-01
  4.74757887e-02  7.99742341e-02  1.67021036e-01  7.85495639e-02
  4.51773480e-02  4.17666323e-02 -1.78031847e-01 -2.87603289e-02
  1.42494574e-01 -4.87179384e-02  1.01088941e-01  4.88999300e-02]