[-9.81349200e-02  1.05419420e-01  8.09217021e-02 -2.18686406e-02
 -6.36075661e-02 -2.79866755e-02 -8.13081041e-02 -1.33815572e-01
  7.36062005e-02 -8.79631042e-02  2.37105519e-01 -4.74062823e-02
 -1.95315346e-01 -9.98259410e-02 -2.53541023e-02  1.87935904e-01
 -1.78653523e-01 -1.22637413e-01 -3.28494087e-02 -4.21653641e-03
  6.28856942e-02  1.33992657e-02  2.18351912e-02  1.92368813e-02
 -5.65636717e-02 -3.57441276e-01 -9.53388661e-02 -6.45695925e-02
  4.62320298e-02 -2.45956164e-02 -1.05578780e-01 -1.16692192e-03
 -2.02337414e-01 -6.45876974e-02  3.86103280e-02  7.69301578e-02
 -2.17550527e-02 -7.49489442e-02  1.91021800e-01 -3.67337875e-02
 -2.38994405e-01  6.55251220e-02  9.49045867e-02  2.17842922e-01
  1.75847173e-01  8.88758823e-02  3.36200558e-02 -1.46869212e-01
  9.84530449e-02 -1.04669742e-01  5.10742627e-02  1.18131697e-01
  8.91115516e-02  2.62105819e-02 -7.75337219e-03 -1.92623839e-01
  1.49211762e-02  6.94664046e-02 -1.30636662e-01 -1.47582013e-02
  7.21469894e-02 -9.47398171e-02  4.15136032e-02 -4.37521636e-02
  2.66635478e-01  5.37317470e-02 -8.07960257e-02 -1.63608298e-01
  1.44868568e-01 -1.11199059e-01 -3.92301753e-02  4.41164821e-02
 -1.39919713e-01 -1.56267345e-01 -3.08035642e-01  3.32024954e-02
  3.94619673e-01  6.55084178e-02 -1.85366511e-01  8.04282948e-02
 -4.13409397e-02 -2.70098988e-02  1.79448619e-01  1.64211109e-01
 -3.09118219e-02  3.58175449e-02 -1.12208180e-01 -1.18097169e-02
  2.71727085e-01 -6.24769740e-02 -3.74313109e-02  1.48858815e-01
  2.68500415e-03  6.51171431e-02  6.05196729e-02  1.29690263e-02
 -7.94610158e-02  3.52803543e-02 -1.73646480e-01 -1.12849884e-02
 -1.51480886e-03 -3.30233090e-02 -1.30900685e-02  1.19649880e-01
 -1.49318561e-01  5.07729948e-02  2.56111976e-02 -1.81228463e-02
 -2.24928167e-02 -6.98309392e-03 -1.04031421e-01 -7.80013651e-02
  9.90383402e-02 -2.20229656e-01  2.27969006e-01  1.65373653e-01
  7.53530413e-02  1.46201104e-01  1.58907965e-01  9.16040614e-02
  2.75940460e-04 -2.08966359e-02 -1.99003682e-01 -2.98165623e-02
  1.45437539e-01 -4.85935947e-03  1.75853059e-01  3.23504917e-02]