[-4.55566235e-02  9.02780667e-02  3.91698293e-02  1.09711429e-02
 -1.53439656e-01 -4.21235971e-02 -6.05841540e-02 -1.65510327e-01
  1.30701408e-01 -9.89140645e-02  2.19120309e-01  1.36565818e-02
 -1.66894034e-01 -7.97152370e-02  8.16048682e-03  1.59431338e-01
 -1.53206944e-01 -2.03203991e-01 -4.23499942e-02 -2.18621362e-02
  2.22996771e-02  1.15717035e-02  5.26019223e-02  3.92929576e-02
 -1.71503454e-01 -3.10710281e-01 -1.15723513e-01 -8.09382051e-02
  2.59305183e-02  8.63470123e-05 -6.86680302e-02  7.21093416e-02
 -1.02666222e-01 -3.39839906e-02  8.77296627e-02  8.69913325e-02
 -2.57485360e-02 -3.84197719e-02  2.12273121e-01 -3.91878895e-02
 -2.97042340e-01  5.93476854e-02  8.12781081e-02  2.52931982e-01
  2.46067479e-01  1.79929323e-02  7.58749992e-02 -1.09659843e-01
  1.09605946e-01 -1.27795190e-01  1.20850682e-01  1.41484663e-01
  1.22040033e-01  6.16900995e-02  1.27877844e-02 -1.91716015e-01
 -1.74466651e-02  1.26170680e-01 -1.16661228e-01 -2.03678887e-02
  1.07299760e-01 -5.05556464e-02  3.03823743e-02 -3.92475724e-02
  2.11979777e-01  9.95108262e-02 -1.09565094e-01 -1.90439984e-01
  1.30208850e-01 -1.79351553e-01 -1.17018737e-01  7.91351125e-02
 -2.20638141e-01 -1.70019582e-01 -3.20146680e-01 -1.20098274e-02
  4.66704935e-01  1.10920049e-01 -1.86935797e-01  2.81260163e-02
  2.66861706e-03  2.48192754e-02  1.25320062e-01  1.52989641e-01
 -2.74013281e-02 -2.44032219e-03 -1.23460911e-01 -8.80927220e-03
  2.52905905e-01 -5.08457720e-02 -1.00117460e-01  1.54194921e-01
  4.97348122e-02  8.04828480e-02  6.74175024e-02  6.19757362e-02
 -1.78852100e-02  3.94013710e-02 -1.58432215e-01  2.66589667e-03
 -5.95720522e-02  8.26853700e-03 -4.27824585e-03  1.13105014e-01
 -1.15105651e-01  1.77144632e-01  2.99113840e-02  7.06469417e-02
 -6.66800961e-02  4.78693321e-02 -7.16053545e-02 -5.12999296e-02
  1.26502037e-01 -2.24398360e-01  1.89692974e-01  1.53284863e-01
  6.60830811e-02  1.42235473e-01  9.27783847e-02  7.35401139e-02
 -9.71068814e-03 -2.21762862e-02 -1.87886328e-01 -2.03917306e-02
  6.08779453e-02 -5.69432378e-02  1.53640017e-01  8.59449506e-02]