[-0.11827368  0.11020847  0.08488204 -0.01368908 -0.08686004 -0.0147477
 -0.07185181 -0.18215245  0.08719643 -0.11324622  0.21511172 -0.04738741
 -0.21200123 -0.07364674 -0.02783347  0.19334374 -0.09316688 -0.17499478
 -0.04456865 -0.00175764  0.06451029 -0.00521098  0.04265645  0.0362134
 -0.0705661  -0.30151451 -0.11329219 -0.06294635  0.01553946 -0.0176621
 -0.13758032  0.02747929 -0.13620031 -0.0435476   0.04313461  0.08383576
  0.00541857 -0.07975631  0.22349261 -0.04289358 -0.24268328  0.04548605
  0.09389729  0.23395753  0.19694011  0.02999165  0.0374479  -0.0731851
  0.09568579 -0.16670676  0.05285585  0.11284988  0.12580487  0.02583931
  0.00402198 -0.17649858 -0.01785827  0.08410525 -0.08516939  0.03341497
  0.08740851 -0.10984363 -0.04614307 -0.09649796  0.22259836  0.12985206
 -0.11182155 -0.18341087  0.10369749 -0.14064202 -0.09538593  0.0154529
 -0.20631936 -0.13536881 -0.28999117  0.00311233  0.3676517   0.10219234
 -0.21403947  0.05814397  0.01016272  0.03416588  0.10503457  0.15516023
 -0.0326822   0.04717682 -0.0997276  -0.03184841  0.24563818 -0.07286806
 -0.04088415  0.19933984 -0.00618144  0.09518692  0.02762794  0.03241038
 -0.01488324 -0.00466973 -0.15511943  0.01117149  0.0077207  -0.03764337
  0.01071046  0.12102477 -0.16555734  0.06559969 -0.03127575  0.07417404
 -0.00138703  0.02568157 -0.10357583 -0.05483076  0.11758041 -0.16605671
  0.15774022  0.19801989  0.03735224  0.07439898  0.16605678  0.08668412
  0.04526422  0.04650591 -0.20083106 -0.05358535  0.12237052 -0.03517389
  0.09385922  0.06633648]