[-0.01884744  0.09665382 -0.00491777  0.01975618 -0.10860139 -0.03668534
 -0.01642302 -0.16757974  0.13400422 -0.09536348  0.22309434 -0.00459592
 -0.16404782 -0.12053336  0.018817    0.12835643 -0.1076519  -0.17463757
 -0.04857903 -0.06410088  0.07039761  0.04442545 -0.00099444  0.03581482
 -0.11814778 -0.24825393 -0.11377489 -0.07721638  0.07478409 -0.02352368
 -0.09403584  0.07621532 -0.14345896 -0.10702691  0.11006244  0.06764852
 -0.00890347 -0.03793112  0.18630354 -0.02971078 -0.19487321  0.06794064
  0.09789103  0.27047518  0.19529159  0.03491453  0.02238316 -0.07661656
  0.12625541 -0.10137979  0.05931178  0.11850943  0.1548162   0.05250102
 -0.00057278 -0.18972467  0.00042683  0.08096235 -0.15306441  0.01638147
  0.10873919 -0.12870859 -0.04519322 -0.04779587  0.17694961  0.05091545
 -0.072284   -0.21826077  0.10084506 -0.19540469 -0.11148264  0.05793653
 -0.19144118 -0.12607656 -0.29498896 -0.00301602  0.41092068  0.12063956
 -0.19444048  0.07826969  0.03235938  0.03815125  0.15065818  0.11872714
  0.00190343  0.01797073 -0.12977058 -0.01221619  0.23536225 -0.05497215
 -0.08795585  0.15497081  0.01285185  0.09130751  0.05978226 -0.00381562
 -0.02516639  0.00689267 -0.14686702  0.00276261 -0.04782419 -0.01976684
 -0.00520298  0.10140099 -0.12148251  0.14617363  0.00872619  0.06836619
 -0.07915803 -0.01109152 -0.09577714 -0.01159358  0.10821985 -0.21535718
  0.19315697  0.14436889  0.06305357  0.12020247  0.0905176   0.04429585
  0.01362834 -0.00929345 -0.21439886 -0.07815089  0.07072014 -0.06875821
  0.14085118  0.03332624]