[-0.10960356  0.1036396   0.06547956 -0.0147139  -0.08930569 -0.01662687
 -0.06134797 -0.18321383  0.10424949 -0.10537735  0.20714664 -0.02475835
 -0.20399137 -0.10679521 -0.03194724  0.20197926 -0.11058666 -0.16211431
 -0.05324309 -0.00042855  0.06812595 -0.00674359  0.04558272  0.03738708
 -0.06505203 -0.32250211 -0.10641706 -0.09174921  0.0130674  -0.02129707
 -0.13419162  0.02406731 -0.15702426 -0.07039519  0.05454251  0.06802605
 -0.03318891 -0.06755471  0.21939242 -0.04517229 -0.24923812  0.04945641
  0.11740052  0.23067124  0.19912718  0.04856977  0.0333573  -0.0922248
  0.10833728 -0.17059264  0.04697157  0.10396055  0.10225543  0.02269572
  0.02517022 -0.1776589  -0.00947128  0.06640744 -0.09523787  0.01461967
  0.08054125 -0.10040923 -0.06660336 -0.07243849  0.25019649  0.11600981
 -0.1012734  -0.19588375  0.12177513 -0.15022582 -0.08671734  0.02716117
 -0.19376235 -0.13519832 -0.30109739 -0.00190383  0.39146838  0.09699028
 -0.19965027  0.06670511 -0.03057285  0.03007628  0.12598822  0.14121084
 -0.02016849  0.04305787 -0.09680068 -0.04345817  0.25022429 -0.08250382
 -0.03579867  0.19647194  0.01428566  0.0898862   0.02418265 -0.00559542
 -0.03543734 -0.00779843 -0.19592957 -0.02099085  0.00770789 -0.00296503
  0.01394109  0.13385732 -0.17237431  0.04824532 -0.00789614  0.04870224
  0.00863433  0.01958922 -0.13774613 -0.0798676   0.09980401 -0.17696556
  0.18161917  0.18911693  0.07001767  0.06285282  0.17693135  0.05371423
  0.03994033  0.03340704 -0.21745074 -0.03555403  0.15129273 -0.03564727
  0.08725684  0.03584188]