[-0.07618268  0.10502426  0.0960209  -0.01941153 -0.10911744 -0.00609101
 -0.06779648 -0.18579862  0.08105175 -0.14175445  0.21077617 -0.02904739
 -0.21836446 -0.06959935 -0.02488304  0.19563559 -0.08871969 -0.16575304
 -0.0387197   0.00998753  0.06909569 -0.0231762   0.04570552  0.0290184
 -0.05431438 -0.30119577 -0.13168548 -0.03886435  0.0240055  -0.01778544
 -0.12739144  0.0556147  -0.1210013  -0.02616069  0.03678124  0.08755227
 -0.02438783 -0.10645815  0.19358659 -0.01807492 -0.24673109  0.06906174
  0.04703898  0.23545264  0.21056969  0.01923628  0.06666694 -0.08920579
  0.11129902 -0.19018485  0.04240555  0.12178513  0.12936154  0.02917724
  0.00667002 -0.16980216  0.00874909  0.06565113 -0.09251692  0.0303457
  0.11195566 -0.12078165 -0.01547904 -0.10053317  0.21518271  0.13377766
 -0.12675397 -0.17246147  0.11009552 -0.14595214 -0.08426069  0.00611619
 -0.22002268 -0.14557259 -0.26973772  0.02122584  0.37089691  0.13961868
 -0.19149372  0.04788756 -0.00722759  0.06457952  0.09808731  0.1869038
 -0.02612119  0.02645652 -0.09663187 -0.02435369  0.23153614 -0.10718247
 -0.04183028  0.23272303 -0.00132629  0.10541867  0.01518998  0.01960386
 -0.02045767  0.01530853 -0.13485657  0.03267143 -0.0175394  -0.05682617
  0.02381786  0.11568963 -0.13814925  0.08339524 -0.05866837  0.09387213
  0.00756273  0.00112145 -0.11786085 -0.05357716  0.10061125 -0.17997852
  0.16062662  0.20738934  0.04855771  0.06641569  0.17970729  0.10528363
  0.05487201  0.01192129 -0.18377608 -0.04131062  0.11737555 -0.03039113
  0.05389325  0.04709901]