[-7.30850920e-02  7.35954791e-02  2.84731183e-02 -2.08019763e-02
 -1.57494366e-01 -7.23421499e-02 -6.29889593e-02 -1.50490806e-01
  1.12157397e-01 -8.58025178e-02  2.10521013e-01  1.68348551e-02
 -1.71098098e-01 -1.05901018e-01  1.25802085e-02  1.49630368e-01
 -1.52480274e-01 -2.03502283e-01 -4.60257158e-02 -3.42468806e-02
 -5.27914241e-03 -9.32774879e-03  3.17318253e-02  5.11858724e-02
 -1.66492805e-01 -2.99043179e-01 -1.21679746e-01 -7.30731711e-02
  5.90131292e-03 -4.98343399e-03 -4.81154434e-02  9.13799033e-02
 -1.04471102e-01 -3.88575606e-02  9.37125161e-02  8.87047276e-02
 -1.14115346e-02 -2.68240664e-02  2.14712575e-01 -4.60681990e-02
 -2.75839388e-01  3.46713178e-02  9.11673754e-02  2.58695453e-01
  2.48970062e-01  1.49251772e-02  8.43975469e-02 -7.96927065e-02
  1.43720642e-01 -1.37001097e-01  1.20920502e-01  1.40809759e-01
  1.22274093e-01  5.34732640e-02  2.14963537e-02 -1.82812199e-01
  1.66890700e-03  1.35110617e-01 -1.29422680e-01 -3.08085978e-02
  9.58809480e-02 -8.05371553e-02 -2.44385819e-03 -3.60092185e-02
  1.96721792e-01  1.12027757e-01 -1.02354981e-01 -2.01146349e-01
  1.52152225e-01 -1.84098259e-01 -1.05607867e-01  8.48042741e-02
 -2.13577852e-01 -1.50599882e-01 -3.30418736e-01 -5.56826731e-03
  4.54238802e-01  1.28198415e-01 -1.73891097e-01  3.48501578e-02
  5.53033827e-03  2.62021516e-02  1.17388241e-01  1.29623219e-01
 -4.91071455e-02  2.23459979e-03 -1.29712999e-01  3.03243112e-04
  2.40437895e-01 -2.62979362e-02 -9.83264297e-02  1.26833111e-01
  6.54998496e-02  7.80194104e-02  7.92722329e-02  5.72260506e-02
 -1.00321239e-02  1.79903246e-02 -1.45673051e-01  2.18483638e-02
 -4.10378464e-02 -1.55156114e-04  2.41184607e-03  1.05303548e-01
 -1.04351960e-01  1.81655541e-01  2.51918491e-02  7.23696724e-02
 -1.04468822e-01  4.20213453e-02 -4.66628224e-02 -3.82178128e-02
  1.01479046e-01 -2.22937465e-01  1.81143194e-01  1.37887463e-01
  4.62106727e-02  1.45817637e-01  7.14070350e-02  6.40801787e-02
 -2.53540166e-02 -3.90046500e-02 -1.53989807e-01 -4.48136851e-02
  5.39348982e-02 -4.23374847e-02  1.72753692e-01  8.26334432e-02]