[-0.06404605  0.09043225  0.00754898 -0.00495225 -0.10137524 -0.00605764
 -0.02812017 -0.14792092  0.10934444 -0.10620647  0.20709801 -0.0276877
 -0.17581233 -0.14876162 -0.01479049  0.14787586 -0.11221885 -0.19698361
 -0.09474272 -0.02658434  0.0505348   0.02833605  0.02148164  0.0120028
 -0.11882585 -0.29001054 -0.11913066 -0.10050767  0.0799952  -0.02277547
 -0.10741693  0.02912705 -0.17269246 -0.11517792  0.07756688  0.0728161
 -0.02085035 -0.04155393  0.18583225 -0.0524549  -0.23645516  0.07577815
  0.0960431   0.25621957  0.17173104  0.05468766  0.0025921  -0.05670605
  0.10528649 -0.1082113   0.10245877  0.11612727  0.19164784  0.08020157
  0.00438349 -0.1704924   0.02463312  0.13426244 -0.14188144  0.02816851
  0.08949696 -0.09979727 -0.03201389 -0.04801107  0.17603642  0.06490034
 -0.0835494  -0.19856091  0.12219352 -0.15743719 -0.0469323   0.07110751
 -0.17041002 -0.13996544 -0.25328639  0.01222388  0.36589855  0.13136549
 -0.20967531  0.02016007  0.01310241  0.0394228   0.12160003  0.09415676
 -0.02677293  0.02390654 -0.11398356 -0.02763454  0.22184649 -0.05148837
 -0.06125586  0.18053903  0.02242466  0.05345262  0.05660383  0.00323443
 -0.02273699  0.01373216 -0.12680626  0.02674576  0.00228574 -0.05889267
 -0.03120375  0.07547139 -0.11027717  0.14044885  0.0119697   0.08447786
 -0.04166543 -0.00643354 -0.08250614 -0.03433072  0.13124913 -0.19878958
  0.22048819  0.17423144  0.0476806   0.11506591  0.12478528  0.05396074
  0.01267728 -0.02501062 -0.23360375 -0.09110713  0.12048947 -0.08866528
  0.1355865   0.04785613]