[-0.12011339  0.09765485  0.09293596 -0.01355064 -0.09450167 -0.00861479
 -0.06006591 -0.1683367   0.08913111 -0.11485078  0.21833797 -0.0073369
 -0.20745447 -0.08372077 -0.01555021  0.16567457 -0.08650351 -0.13739558
 -0.03849239 -0.0112347   0.06789374  0.00356901  0.03437992  0.03009373
 -0.06229372 -0.31683558 -0.11168281 -0.0596975   0.05790136 -0.03756979
 -0.12862553  0.04325834 -0.12291974 -0.04721     0.03396454  0.08316077
 -0.00109012 -0.06185174  0.20855215 -0.01729392 -0.23388253  0.06523606
  0.0453739   0.25176042  0.21537791  0.03812494  0.04962666 -0.08422154
  0.11000567 -0.19243167  0.07237457  0.10752667  0.10973831  0.01159915
  0.01728457 -0.17852525 -0.03694158  0.06456923 -0.11436286  0.04998399
  0.08888645 -0.1167651  -0.05097761 -0.09933815  0.19842172  0.14091502
 -0.11739545 -0.16324307  0.11793554 -0.15995489 -0.07656606  0.01236923
 -0.1976407  -0.13768516 -0.27488571  0.04343909  0.38770723  0.14125589
 -0.20685117  0.04790897  0.01021034  0.03307886  0.12763418  0.17485145
 -0.0296652   0.0280561  -0.05707162 -0.00747818  0.20977362 -0.05308114
 -0.04899026  0.21447428 -0.00058266  0.11547961  0.03195111  0.02633899
 -0.01986132 -0.01156732 -0.1510037   0.00967887  0.00427873 -0.04298398
  0.0422481   0.12492912 -0.14969268  0.11018109 -0.03819763  0.07287702
  0.02051948  0.00711102 -0.08932561 -0.03347655  0.11379945 -0.17155589
  0.18717562  0.19935606  0.04444481  0.08779189  0.15533026  0.0767618
  0.06163182  0.030957   -0.1899987  -0.03995024  0.11469165 -0.05734261
  0.0869829   0.03880851]