[-0.06766035  0.06927566  0.0323947  -0.00543602 -0.14657378 -0.06887116
 -0.05424281 -0.16896443  0.13026449 -0.09237514  0.21940432  0.0294645
 -0.15560623 -0.09887236  0.04135178  0.1339768  -0.15442584 -0.20291518
 -0.04584141 -0.0353422   0.00128845 -0.02760611  0.05145318  0.05017763
 -0.19813459 -0.30209288 -0.12577549 -0.08120198  0.01985197  0.00179806
 -0.0375183   0.09496915 -0.11067011 -0.034982    0.08342573  0.08956134
 -0.01775589 -0.01839611  0.21173851 -0.04247615 -0.28153539  0.04947475
  0.07487287  0.24494     0.25624153  0.03058696  0.08772665 -0.07766439
  0.12661661 -0.14556997  0.12045448  0.13661657  0.11144661  0.04798224
  0.03397189 -0.18232298 -0.00944668  0.11333626 -0.13661505 -0.02152055
  0.0955578  -0.06966725  0.01091514 -0.03335063  0.20515668  0.1218087
 -0.10707178 -0.16553228  0.15536517 -0.18124658 -0.10025831  0.08831412
 -0.21414642 -0.16642652 -0.32320768 -0.00308985  0.47897893  0.12456373
 -0.16816552  0.0283263   0.0020533   0.02770124  0.11010648  0.13158661
 -0.04324714 -0.01082983 -0.11152869  0.00264854  0.23957112 -0.02110089
 -0.09779211  0.14142573  0.05818301  0.076158    0.07299797  0.05685072
 -0.00811523  0.01282028 -0.14652988  0.01375719 -0.05874935  0.00735743
  0.00778496  0.10156715 -0.10771463  0.18330991  0.02986373  0.05991812
 -0.09282722  0.06486209 -0.05238839 -0.04582519  0.09486379 -0.24583581
  0.1846187   0.15149724  0.03929279  0.14674132  0.05581057  0.06891511
 -0.01958053 -0.01827582 -0.1468236  -0.04166384  0.0437226  -0.04943999
  0.16097769  0.08286411]