[-0.01847871  0.09842855  0.00226871 -0.01921677 -0.0834757  -0.01291947
 -0.01048908 -0.13012338  0.14777596 -0.09964257  0.181154   -0.0313509
 -0.17066066 -0.1277623   0.0132878   0.12089554 -0.14691897 -0.18248203
 -0.05235666 -0.06614749  0.04904273  0.06283783 -0.01336691  0.02703543
 -0.13321631 -0.27285054 -0.12310362 -0.09239099  0.08770076 -0.01451131
 -0.09256323  0.04922196 -0.13922617 -0.08067436  0.09088116  0.04475431
 -0.0095929  -0.03717712  0.17044906 -0.03295506 -0.20595348  0.05339793
  0.09743678  0.27041319  0.22698469  0.05484423  0.01881431 -0.06503855
  0.13780116 -0.08115742  0.08211602  0.13275646  0.13701145  0.07272071
 -0.0039353  -0.17279868 -0.02445026  0.11669999 -0.15437722  0.02349631
  0.10968681 -0.1191842  -0.03996196 -0.03441971  0.16645996  0.04341508
 -0.09162071 -0.24465632  0.12988193 -0.22752631 -0.09453893  0.05184624
 -0.17101014 -0.10764529 -0.27882633  0.003678    0.37684625  0.12784022
 -0.16088894  0.07519782  0.02543901  0.03413902  0.14572604  0.13385975
 -0.03093624  0.02922634 -0.1124779  -0.01776676  0.22907154 -0.03156304
 -0.0801575   0.15165953 -0.00137948  0.0613095   0.05489979  0.00113177
 -0.04296924  0.02118074 -0.12612133  0.01030117 -0.02219936 -0.03010156
 -0.00781463  0.10905266 -0.10972903  0.1914777   0.00592054  0.08582761
 -0.07561173 -0.01696308 -0.07032753 -0.00296974  0.12884288 -0.21030577
  0.17745493  0.12801141  0.07230318  0.13256903  0.09233222  0.05961096
  0.00854219 -0.02085549 -0.23436646 -0.07812015  0.070735   -0.06586081
  0.16904509  0.04523176]