[-0.11366554  0.11802454  0.08945408 -0.01511972 -0.10255837 -0.03610303
 -0.06050057 -0.1804086   0.09264255 -0.10597914  0.2227983  -0.01747879
 -0.21545477 -0.10001987 -0.04913826  0.21358471 -0.12265479 -0.16174366
 -0.0526963   0.0045464   0.07685645 -0.04019852  0.06205992  0.04408767
 -0.07208943 -0.32267198 -0.09459344 -0.0506904   0.00660938 -0.01842174
 -0.12144578  0.05297974 -0.16484001 -0.05526888  0.03420267  0.0795294
 -0.02023815 -0.09020165  0.21636303 -0.04441428 -0.25246513  0.05288918
  0.10684345  0.22214501  0.19952866  0.00930714  0.06330755 -0.0998303
  0.11426979 -0.17932458  0.01318361  0.1058917   0.12613001  0.01109288
  0.00974172 -0.19046795 -0.00910597  0.06713859 -0.08976784  0.00374878
  0.06821    -0.12128677 -0.05507122 -0.10826272  0.22380269  0.11782195
 -0.10695604 -0.18280926  0.13496153 -0.12910242 -0.05886656  0.02871655
 -0.19211634 -0.1452875  -0.30518493 -0.00063061  0.37468401  0.10842828
 -0.19131094  0.05683387 -0.04075088  0.03892117  0.07204624  0.15919989
 -0.03793498  0.05353257 -0.11243957 -0.01819639  0.22946981 -0.09380694
 -0.02656644  0.20653155  0.03018885  0.09827198  0.01212439 -0.00408581
 -0.05863777  0.01432029 -0.18624948  0.01421812 -0.02511878 -0.0315677
  0.02588167  0.11343966 -0.14913641  0.0239741  -0.02193818  0.04946189
 -0.00329467  0.02386799 -0.1277944  -0.09694927  0.07703739 -0.17757671
  0.1576903   0.2070071   0.06347353  0.07949868  0.18530646  0.08102388
  0.04063939  0.03001906 -0.17344414 -0.0186908   0.13985623 -0.0452737
  0.07217196  0.03732087]