[-0.02170869  0.10229532 -0.00788059  0.01156115 -0.1093478  -0.05252987
  0.00934358 -0.15797448  0.12034263 -0.07226168  0.23105815 -0.00670031
 -0.18224333 -0.14591771  0.02229856  0.11188624 -0.09994835 -0.16299917
 -0.08193713 -0.07779809  0.05984265  0.0202002   0.02968266  0.04431279
 -0.11826046 -0.2508384  -0.11035999 -0.10077186  0.08013886 -0.02514132
 -0.07632601  0.0672218  -0.14662901 -0.11042126  0.0921196   0.04185618
 -0.02432251 -0.01665852  0.20409285 -0.03939902 -0.18880789  0.05276362
  0.09057392  0.26587856  0.2025954   0.03575988  0.02482382 -0.05039621
  0.1202184  -0.11117845  0.07293066  0.11510716  0.18558146  0.0565961
  0.01970296 -0.17369592  0.00815808  0.10488194 -0.17793252  0.02593059
  0.08680057 -0.13632314 -0.05582029 -0.03403962  0.19776103  0.0700824
 -0.07954546 -0.1914344   0.1268737  -0.19874004 -0.08193374  0.08143985
 -0.17243798 -0.12047311 -0.27278152  0.00531916  0.4034768   0.12658161
 -0.20340073  0.0369093   0.00206383  0.03538889  0.13517162  0.083616
 -0.03716723  0.00770421 -0.13377784 -0.01561613  0.21037821 -0.05933672
 -0.0862151   0.17793237  0.03060635  0.08324257  0.06523529 -0.02062391
 -0.02331956 -0.00194798 -0.13526244  0.01930857 -0.04179345 -0.0573123
 -0.00692337  0.0644357  -0.11568914  0.13223206  0.01315895  0.06341814
 -0.09186786 -0.01558144 -0.09232146 -0.01985472  0.11278647 -0.23401232
  0.21188369  0.14362353  0.04838043  0.1164258   0.0712814   0.03256212
  0.01211813 -0.0389685  -0.18125296 -0.07226691  0.09118461 -0.08722619
  0.14155114  0.02969759]