[-0.11453816  0.12068514  0.08900916 -0.00150322 -0.08080388 -0.0175506
 -0.0741851  -0.16158794  0.1114965  -0.10823774  0.22025357 -0.04709814
 -0.22779445 -0.09081183 -0.03426044  0.21478777 -0.12086546 -0.15728818
 -0.03156709  0.00203732  0.08909524 -0.00870384  0.03139476  0.04515273
 -0.06091961 -0.32141921 -0.08966428 -0.06268951  0.00771635 -0.03359403
 -0.13841601  0.04534737 -0.14050649 -0.0438663   0.04218628  0.09456877
 -0.01954767 -0.07712678  0.20450003 -0.05749932 -0.25249621  0.03673926
  0.09054314  0.22659414  0.21579972  0.0491971   0.01729702 -0.09241565
  0.09043182 -0.16634358  0.02470121  0.13251247  0.10306878  0.02405622
  0.00221203 -0.19590351 -0.01666665  0.05498861 -0.08171115 -0.01689252
  0.08356937 -0.13201651 -0.04408493 -0.08811279  0.24137297  0.10155058
 -0.11742826 -0.16887681  0.12019236 -0.14889771 -0.07993636  0.00712523
 -0.19226131 -0.14635248 -0.29015967 -0.00079515  0.36763301  0.09662482
 -0.21169542  0.08729344 -0.00211502  0.04096081  0.11814542  0.17701463
 -0.02840899  0.04797737 -0.10604924 -0.0458568   0.22330557 -0.08112837
 -0.01702545  0.20386887  0.00161483  0.0940142   0.0367181  -0.00995067
 -0.01962643  0.00552242 -0.17636268 -0.00609975 -0.00055535 -0.03349784
  0.00918344  0.11811258 -0.16149879  0.04967479 -0.00588076  0.0755583
  0.01916153  0.01900729 -0.12308768 -0.08133993  0.11216398 -0.17997669
  0.16500172  0.18791707  0.0604654   0.09234271  0.18573926  0.10893532
  0.03954376  0.02692184 -0.21021822 -0.02504233  0.13923997 -0.03668007
  0.09085328  0.04561668]