[-4.72409166e-02  6.81208968e-02  2.38774493e-02  3.58043308e-03
 -1.32273898e-01 -6.68820441e-02 -3.11039388e-02 -1.45071656e-01
  1.13832228e-01 -7.53277615e-02  2.32529268e-01 -1.13947466e-02
 -1.66988239e-01 -1.30129948e-01  1.12632141e-02  1.32975712e-01
 -1.61633983e-01 -1.79101601e-01 -4.60867696e-02 -6.42159730e-02
  4.39325087e-02  6.14051754e-03  2.46565919e-02  4.24172580e-02
 -2.05986664e-01 -3.22402984e-01 -1.11074328e-01 -1.13231994e-01
  1.40663628e-02 -3.17824595e-02 -2.55028158e-02  8.49262998e-02
 -1.10824443e-01 -5.02243042e-02  6.63916543e-02  5.60532585e-02
 -1.64474566e-02 -1.36184245e-02  1.92924336e-01 -1.30871153e-02
 -2.39069745e-01  2.59107947e-02  8.59484002e-02  2.73091584e-01
  2.18163997e-01  3.37331295e-02  7.89168626e-02 -7.93596059e-02
  9.22192261e-02 -1.09519936e-01  1.05752967e-01  1.08846955e-01
  1.38038531e-01  7.01075122e-02  3.79331522e-02 -1.82456538e-01
  4.13633155e-04  9.62044820e-02 -1.31624624e-01  4.86839423e-03
  7.09685609e-02 -6.17223382e-02  3.83155048e-03 -1.60854531e-03
  2.37407088e-01  5.96138909e-02 -9.42910239e-02 -1.46042883e-01
  1.39845446e-01 -1.69652253e-01 -9.64837596e-02  1.02007233e-01
 -1.84790701e-01 -1.55224726e-01 -2.99133003e-01 -3.15144821e-03
  4.80736732e-01  1.01138078e-01 -2.25971684e-01 -5.45878196e-03
 -1.68446247e-02  4.02405206e-03  1.67225525e-01  1.32141992e-01
 -3.32031026e-02  8.32720101e-03 -1.33516103e-01  1.04282042e-02
  2.26400882e-01 -3.57893147e-02 -1.01602875e-01  1.70186907e-01
  6.47425726e-02  7.60008618e-02  8.38017464e-02  1.73245501e-02
 -3.23535316e-02  4.10095342e-02 -1.09475732e-01 -2.18739342e-02
  2.64169648e-04 -1.93335791e-03 -1.12664262e-02  9.16667134e-02
 -1.00128867e-01  1.80828318e-01  5.32419160e-02  5.49468175e-02
 -7.23417923e-02  3.92314121e-02 -6.47777617e-02 -5.53721152e-02
  1.23580217e-01 -2.39681512e-01  1.56042561e-01  1.48542807e-01
  4.62140255e-02  1.48310050e-01  4.68824320e-02  5.25134802e-02
 -2.92332768e-02 -4.35202792e-02 -1.70211777e-01  2.85909255e-03
  6.08928688e-02 -7.11684600e-02  1.55602679e-01  4.63626198e-02]