[-0.04104029  0.09801506  0.00314298 -0.01382174 -0.09531271  0.01688427
 -0.00197105 -0.12693302  0.12897466 -0.11468537  0.17788474 -0.02548903
 -0.17739995 -0.11700549  0.01768759  0.13169579 -0.14662026 -0.1897414
 -0.06000256 -0.08943267  0.06332386  0.05521576 -0.04455374  0.02940756
 -0.13984261 -0.25448501 -0.11632619 -0.09105192  0.12214679 -0.0164377
 -0.07230737  0.05138258 -0.12002859 -0.06670883  0.08751028  0.05137659
 -0.03175381 -0.03885954  0.17095619 -0.03518591 -0.21053846  0.04887987
  0.08940078  0.26772457  0.19664051  0.05347858 -0.0012505  -0.03612872
  0.1024837  -0.12228373  0.07231055  0.14151023  0.15418576  0.08363379
  0.00804528 -0.1871637  -0.02101462  0.11660858 -0.15968738  0.05293467
  0.09240957 -0.14663197 -0.02883851 -0.04327482  0.15245134  0.06885805
 -0.09061208 -0.21753059  0.16059284 -0.21804078 -0.08492424  0.06288547
 -0.14368832 -0.11463719 -0.23982735 -0.0033912   0.38710836  0.15444927
 -0.17663081  0.02888101  0.03401397  0.03633207  0.15750508  0.11028256
 -0.04214375 -0.01949901 -0.0964393  -0.03534956  0.22131038 -0.01904219
 -0.07292933  0.16909677  0.01456008  0.05125306  0.05991226 -0.00482576
 -0.02964518 -0.00278364 -0.11180072 -0.0022853  -0.03323343 -0.07836471
 -0.00507214  0.11253744 -0.09958206  0.19763719  0.01481123  0.08870455
 -0.06297083  0.02337366 -0.0895568   0.00453932  0.15858971 -0.19634561
  0.19063345  0.16508612  0.05162689  0.11972373  0.1075222   0.0675781
  0.00566204 -0.05295783 -0.23456688 -0.0927582   0.06666535 -0.10648137
  0.13008559  0.04008408]