[-1.97983664e-02  9.90897864e-02  4.39520692e-03 -1.63026284e-02
 -8.12283680e-02 -8.25062115e-03 -8.05107038e-03 -1.37669802e-01
  1.38318464e-01 -1.07584111e-01  1.85079023e-01 -3.15818004e-02
 -1.75706968e-01 -1.39093101e-01  1.62102319e-02  1.30697846e-01
 -1.36096090e-01 -1.79978967e-01 -4.05215509e-02 -4.97591533e-02
  5.79323284e-02  6.51105419e-02 -1.28850741e-02  2.79020127e-02
 -1.17599979e-01 -2.84617007e-01 -1.13721095e-01 -7.49576539e-02
  7.81551972e-02 -4.84440709e-03 -1.00033537e-01  6.27740994e-02
 -1.34631366e-01 -8.80622864e-02  1.00061908e-01  6.09913245e-02
 -2.62551494e-02 -3.48204263e-02  1.85815513e-01 -3.01934220e-02
 -2.15132073e-01  5.64757846e-02  1.00952759e-01  2.69600838e-01
  2.16897711e-01  5.03762141e-02  2.28169970e-02 -7.49223605e-02
  1.29348278e-01 -8.24203566e-02  7.32347593e-02  1.40098676e-01
  1.40841186e-01  6.10190928e-02 -1.22038356e-03 -1.75159812e-01
 -2.44013872e-02  1.03139438e-01 -1.36840031e-01  7.01388810e-03
  1.06756881e-01 -1.15703754e-01 -3.19438800e-02 -3.41396406e-02
  1.61719128e-01  2.33809836e-02 -8.06490704e-02 -2.43326589e-01
  1.38071328e-01 -2.12341860e-01 -1.12807207e-01  4.39167134e-02
 -1.78517461e-01 -1.18271910e-01 -2.86140859e-01  1.13655701e-02
  3.78104866e-01  1.36104688e-01 -1.66308984e-01  8.78599212e-02
  3.37394252e-02  3.22761834e-02  1.58071607e-01  1.39042050e-01
 -2.72264015e-02  3.07369120e-02 -1.08286262e-01 -2.40350273e-02
  2.27697805e-01 -3.32523249e-02 -9.09292027e-02  1.41913220e-01
  1.32992538e-02  7.66410604e-02  6.56492114e-02 -1.91977005e-02
 -3.01347952e-02  2.97880359e-02 -1.62236378e-01 -2.12829560e-04
 -1.89593676e-02 -2.61262991e-02  1.98633526e-03  1.33135989e-01
 -1.20905355e-01  1.83262765e-01  8.72402918e-03  7.29575157e-02
 -6.25993237e-02  2.93414108e-03 -9.41533148e-02 -9.71548725e-03
  1.18154325e-01 -1.97831556e-01  1.73363894e-01  1.38461158e-01
  8.66117105e-02  1.25777677e-01  1.27743289e-01  5.55358902e-02
  2.56813653e-02 -1.30964285e-02 -2.42960811e-01 -8.15800354e-02
  9.05822664e-02 -5.24810329e-02  1.70243040e-01  4.37690280e-02]