[-0.10465948  0.08916124  0.10237852 -0.03259397 -0.09604314 -0.01066215
 -0.06216246 -0.18143685  0.08639179 -0.12713526  0.23356055 -0.0111011
 -0.20535825 -0.08492856 -0.00453584  0.16561532 -0.07159884 -0.15518986
 -0.05141998 -0.01654109  0.04942568 -0.00661596  0.02758085  0.03688613
 -0.06127439 -0.30969927 -0.11946813 -0.04725349  0.03901498 -0.02158387
 -0.12969601  0.05301873 -0.12524925 -0.05036714  0.03525117  0.08897232
 -0.01235036 -0.06713694  0.20649529 -0.03001388 -0.23306194  0.07545059
  0.05269764  0.24559236  0.20908861  0.02987016  0.06548081 -0.06984635
  0.10085481 -0.19313256  0.06909911  0.11182727  0.13289316  0.00998787
  0.01274481 -0.17710304 -0.03645713  0.0766594  -0.1089836   0.05211402
  0.09061749 -0.13232522 -0.04675327 -0.10427048  0.20163627  0.15077922
 -0.1251922  -0.16940325  0.1120558  -0.15487359 -0.08786913  0.00507695
 -0.21508394 -0.13744977 -0.2934581   0.04850187  0.37945941  0.132594
 -0.20539324  0.04753469  0.01356865  0.04545268  0.10379531  0.16844915
 -0.03372291  0.02411917 -0.06665174 -0.0043137   0.21726866 -0.06094132
 -0.04925817  0.20786278 -0.00126245  0.11167439  0.02137872  0.03453801
 -0.01009044 -0.00908474 -0.1481549   0.04193135 -0.01299344 -0.03689789
  0.03934737  0.12274256 -0.14886431  0.10594209 -0.05010555  0.06923474
  0.00234403  0.01313608 -0.08960926 -0.04637395  0.10842432 -0.17564841
  0.1678901   0.21186534  0.05192028  0.08466329  0.1580697   0.06964397
  0.0666373   0.03440913 -0.19247396 -0.04755722  0.1119184  -0.05185559
  0.08395962  0.05718331]