[-0.01010234  0.09712913 -0.00368348  0.02328514 -0.08909485 -0.03697607
 -0.00827518 -0.162361    0.13801056 -0.09146623  0.22492532 -0.01367935
 -0.17595607 -0.12916121  0.00695625  0.13258916 -0.13115104 -0.17118958
 -0.08461603 -0.05109746  0.06644499  0.03673955  0.02463031  0.0214353
 -0.10853803 -0.25983396 -0.12433501 -0.10881799  0.09200242 -0.02539532
 -0.08841129  0.03710778 -0.15364559 -0.10895933  0.09601751  0.02547776
 -0.0108158  -0.03280544  0.18250969 -0.0301482  -0.20337927  0.06344947
  0.08320476  0.25603136  0.19612703  0.04693834  0.01175429 -0.08325442
  0.10942452 -0.09967426  0.07399593  0.10904165  0.17681311  0.07241564
  0.01850278 -0.18401152  0.00142061  0.10635718 -0.15547189  0.03290632
  0.09444398 -0.09659883 -0.04027727 -0.03235371  0.19320706  0.06040952
 -0.08438885 -0.20708476  0.11532666 -0.18605338 -0.07530015  0.07933471
 -0.17521925 -0.12404493 -0.26326567 -0.02544738  0.40939981  0.10083608
 -0.20997477  0.03492983 -0.00647432  0.0369402   0.14100862  0.10086618
 -0.01391165  0.0186065  -0.11930092 -0.02428767  0.21964745 -0.06648618
 -0.07957859  0.18068337  0.00172244  0.07137848  0.05477175 -0.01529523
 -0.01849171  0.00489469 -0.12673247 -0.00496255 -0.03996811 -0.03484823
 -0.02185869  0.07218988 -0.10994861  0.13025032  0.02465979  0.07969572
 -0.05936852 -0.00908203 -0.08544067 -0.02051617  0.12742284 -0.23305678
  0.22048695  0.14788665  0.0440908   0.10346975  0.06047833  0.04916716
 -0.00132579 -0.02859988 -0.21338394 -0.06373544  0.07773858 -0.0797561
  0.12641022  0.01989676]