[-7.39860535e-02  1.06723122e-01  1.06371358e-01 -2.26601996e-02
 -9.83045325e-02 -2.06360761e-02 -7.57643729e-02 -2.03761458e-01
  9.24668536e-02 -1.44373804e-01  2.18176052e-01 -2.12302059e-02
 -2.19714642e-01 -7.06063136e-02 -1.91840772e-02  2.03239873e-01
 -9.02674571e-02 -1.71390101e-01 -4.27297615e-02  1.09930485e-02
  6.39477745e-02 -3.74441482e-02  4.99807596e-02  3.39460410e-02
 -6.60616755e-02 -2.92939991e-01 -1.34236842e-01 -3.40096802e-02
  2.56766565e-04 -8.96899123e-03 -1.22051083e-01  5.93264587e-02
 -1.31385893e-01 -2.87481733e-02  4.13734093e-02  9.11392495e-02
 -1.99524686e-02 -1.02505445e-01  1.94265217e-01 -2.55577713e-02
 -2.61214584e-01  7.09570795e-02  4.51698564e-02  2.25071222e-01
  2.16890648e-01  1.48579124e-02  6.74615726e-02 -9.59438607e-02
  1.26022100e-01 -1.89674422e-01  3.77598479e-02  1.18465737e-01
  1.23752117e-01  2.50813495e-02  3.09753022e-03 -1.74958915e-01
  8.29642918e-03  6.76287338e-02 -9.65085402e-02  1.09395236e-02
  1.07439138e-01 -1.39130637e-01 -1.00578023e-02 -9.69637036e-02
  2.10767731e-01  1.42595470e-01 -1.23139858e-01 -1.82255208e-01
  1.16455294e-01 -1.41440049e-01 -8.00673366e-02  1.02428840e-02
 -2.30340436e-01 -1.46979555e-01 -2.98762053e-01  1.69897620e-02
  3.77084941e-01  1.26562461e-01 -1.86763987e-01  5.20331971e-02
 -1.26587255e-02  7.09355175e-02  8.30684155e-02  1.87429875e-01
 -1.91369336e-02  3.46915163e-02 -9.78540257e-02 -2.37006228e-02
  2.41125748e-01 -1.15465477e-01 -4.47054729e-02  2.29372412e-01
 -5.37071703e-03  1.07637681e-01  1.05878403e-02  1.90506447e-02
 -2.49854904e-02  1.40882498e-02 -1.49761975e-01  3.46438661e-02
 -3.45476978e-02 -2.87120529e-02  3.11849359e-02  1.20927967e-01
 -1.38888851e-01  7.17954785e-02 -5.57381809e-02  8.49114209e-02
 -8.08526389e-03  1.03760036e-02 -1.16613090e-01 -7.36572742e-02
  8.88411328e-02 -1.80272266e-01  1.59677967e-01  2.07105428e-01
  5.45350425e-02  6.39386922e-02  1.72582194e-01  9.92869660e-02
  5.07488027e-02  2.09290367e-02 -1.74142763e-01 -3.52487974e-02
  1.23617314e-01 -1.69450250e-02  6.08014651e-02  4.80800904e-02]