[-4.03501801e-02  9.83572826e-02  3.69262137e-02 -1.23581998e-02
 -1.22910999e-01  8.41431972e-03 -8.21566209e-03 -1.38849780e-01
  1.08853519e-01 -1.08528793e-01  1.95649251e-01 -4.28745225e-02
 -1.87860489e-01 -1.35733083e-01  3.01246047e-02  1.46457896e-01
 -9.59256515e-02 -2.25655347e-01 -7.51281306e-02 -5.07624559e-02
  4.95559834e-02  2.72774193e-02  1.98842405e-04  2.84617078e-02
 -1.34873614e-01 -2.74960220e-01 -1.14879131e-01 -7.79687986e-02
  7.99740329e-02 -3.81998830e-02 -1.12825476e-01  5.77518307e-02
 -1.53907120e-01 -1.03764944e-01  9.30518731e-02  9.03769061e-02
 -3.83648649e-02 -6.16205707e-02  1.83988139e-01 -5.24831489e-02
 -2.18363047e-01  6.24808185e-02  1.06518649e-01  2.61518568e-01
  1.76535055e-01  4.88165990e-02  1.94695983e-02 -5.68411350e-02
  1.20767824e-01 -1.15097694e-01  1.23084866e-01  1.26739487e-01
  1.76982090e-01  8.25968012e-02  6.69826660e-03 -1.76952899e-01
  6.90544723e-03  1.25036821e-01 -1.59473136e-01  4.04767208e-02
  1.05942719e-01 -1.21900976e-01 -4.74110618e-02 -6.28410131e-02
  1.56388074e-01  6.38873130e-02 -7.61594474e-02 -2.17828155e-01
  1.35291591e-01 -1.59055158e-01 -8.74072090e-02  5.70901111e-02
 -1.91357926e-01 -1.22024946e-01 -2.74426848e-01  3.67189646e-02
  3.81575912e-01  1.30968019e-01 -1.91941604e-01  3.02876122e-02
  5.58055528e-02  3.46269719e-02  1.01690531e-01  1.17169619e-01
 -4.16213199e-02  1.45192686e-02 -1.18286312e-01  1.40212420e-02
  2.11744055e-01 -5.44339120e-02 -6.91309869e-02  1.59939632e-01
  3.23634334e-02  5.93245514e-02  5.92182055e-02  1.70049742e-02
 -2.67387815e-02  1.86267979e-02 -1.61568508e-01  1.26703996e-02
 -2.40926468e-03 -3.86699401e-02 -2.23222580e-02  1.07311867e-01
 -1.03182018e-01  1.53786182e-01  5.98802930e-03  5.68300560e-02
 -8.03275332e-02 -1.40332002e-02 -1.03962518e-01 -3.09218261e-02
  1.16277955e-01 -1.92458853e-01  1.67286277e-01  1.69223517e-01
  7.49184638e-02  1.04780219e-01  1.24101341e-01  5.16213737e-02
  5.12859598e-02 -3.22465114e-02 -2.31092021e-01 -8.36412087e-02
  1.25677481e-01 -5.64828888e-02  1.22628070e-01  6.87934458e-02]