[-5.13813980e-02  1.07424043e-01  3.11313607e-02  1.07943919e-02
 -9.55444500e-02 -1.05514117e-02 -8.81443918e-03 -1.25203937e-01
  1.32154733e-01 -1.19132400e-01  1.92817792e-01 -1.78713503e-03
 -1.55970320e-01 -1.51149765e-01 -1.57091022e-02  1.46932080e-01
 -1.06803134e-01 -1.86683252e-01 -8.08690935e-02 -7.69931227e-02
  5.08211143e-02  5.97789250e-02 -2.79675820e-03  3.50571387e-02
 -1.30108371e-01 -2.84217447e-01 -9.98869240e-02 -9.78406593e-02
  6.86370060e-02 -3.68227623e-02 -6.44355416e-02  6.20617047e-02
 -1.15425467e-01 -6.68131486e-02  7.15977103e-02  8.42747614e-02
 -2.25732904e-02 -3.72490287e-03  1.68698251e-01 -2.64603924e-02
 -2.20729545e-01  4.67485152e-02  6.97906688e-02  3.01150411e-01
  1.91111729e-01  1.79268699e-02  1.68679021e-02 -1.78487636e-02
  1.00440457e-01 -1.38259456e-01  5.97879291e-02  1.16219699e-01
  1.58588022e-01  6.74143136e-02  1.88070182e-02 -1.64289370e-01
 -1.60993729e-02  1.34623036e-01 -1.43177420e-01  4.97327559e-02
  7.08411485e-02 -1.61756918e-01 -5.09821549e-02 -1.61930472e-02
  1.69972852e-01  7.41452947e-02 -1.00872174e-01 -1.99711993e-01
  1.44103795e-01 -2.06807733e-01 -6.52129576e-02  6.78852499e-02
 -1.55113608e-01 -1.21084802e-01 -2.67237455e-01  1.53317600e-02
  4.16307896e-01  1.47008315e-01 -1.99836239e-01  1.16193742e-02
  1.16752610e-02  6.41275272e-02  1.30482182e-01  1.17989577e-01
 -4.16607894e-02  1.31174149e-02 -1.28160164e-01 -1.79893579e-02
  1.92057669e-01 -2.41873153e-02 -8.53617191e-02  1.68421447e-01
  2.57412400e-02  7.35288858e-02  4.79169525e-02 -2.29244288e-02
 -2.83375736e-02 -3.28926748e-04 -1.33060157e-01  8.64862371e-03
 -3.88209783e-02 -5.88604808e-02 -1.20719513e-02  8.50436687e-02
 -8.87933597e-02  1.80374548e-01  1.60178225e-02  8.02014843e-02
 -5.87112866e-02  4.18787003e-02 -9.41060111e-02 -2.15095412e-02
  1.48589522e-01 -1.80729523e-01  1.86436579e-01  1.79882064e-01
  6.47720620e-02  1.33267596e-01  1.19592428e-01  4.91503403e-02
  9.41254571e-03 -4.43963334e-02 -1.97619244e-01 -6.86005279e-02
  6.79615885e-02 -1.09793119e-01  1.23336591e-01  2.92424094e-02]