[-5.77262118e-02  7.28058219e-02  1.74490307e-02 -7.24832201e-03
 -1.11720286e-01  1.56004978e-02 -1.05360169e-02 -1.27805039e-01
  1.06863491e-01 -1.30619898e-01  2.04728201e-01 -3.45192254e-02
 -2.03741789e-01 -1.37336776e-01 -1.38105033e-02  1.59445748e-01
 -1.22109711e-01 -1.89857870e-01 -8.71620551e-02 -4.21453603e-02
  5.45625463e-02  4.56787199e-02  1.52547527e-02  1.07742725e-02
 -1.21301450e-01 -2.86583722e-01 -1.08434491e-01 -1.00478865e-01
  6.80522770e-02 -3.37531641e-02 -1.10268369e-01  3.79017442e-02
 -1.46941304e-01 -8.90539736e-02  6.95201755e-02  5.74428849e-02
 -1.58418715e-02 -4.23973650e-02  1.89795673e-01 -3.82248200e-02
 -2.39143491e-01  5.28459214e-02  9.80576202e-02  2.65324920e-01
  1.49539798e-01  3.43165286e-02 -5.70618547e-03 -6.03598170e-02
  1.08328484e-01 -1.14839844e-01  9.66351926e-02  1.12717450e-01
  1.82679757e-01  8.37620422e-02 -1.19978283e-02 -1.66546062e-01
  1.72487963e-02  1.43265739e-01 -1.40339851e-01  4.14126441e-02
  9.32381526e-02 -1.15657687e-01 -3.64808254e-02 -4.00259271e-02
  1.79000065e-01  6.17649220e-02 -8.97853374e-02 -2.07762867e-01
  1.19731523e-01 -1.55059144e-01 -6.22613430e-02  6.98295534e-02
 -1.71363577e-01 -1.34175926e-01 -2.39700079e-01  5.62863750e-03
  3.66185725e-01  1.21020548e-01 -2.11470872e-01  9.47537366e-03
  2.30237478e-04  3.08156852e-02  1.42319515e-01  1.14916377e-01
 -2.14899294e-02  2.61909403e-02 -1.11453153e-01 -1.72845162e-02
  2.20287606e-01 -6.45955652e-02 -6.22440167e-02  1.91117659e-01
  3.98347415e-02  5.53573370e-02  6.27682209e-02  2.50598905e-03
 -2.50165593e-02  1.57448407e-02 -1.36171445e-01  1.64353848e-02
 -4.13344242e-04 -7.24387616e-02 -2.86647175e-02  6.96073771e-02
 -1.14673272e-01  1.56416938e-01  2.48735659e-02  7.62440711e-02
 -2.74640527e-02 -9.92770586e-03 -8.83977860e-02 -3.62285040e-02
  1.36926174e-01 -1.95698291e-01  1.98753923e-01  1.73685417e-01
  7.23724589e-02  1.22021914e-01  1.24581926e-01  5.79025559e-02
  1.14606712e-02 -4.06886227e-02 -2.35142812e-01 -7.23250285e-02
  1.32711008e-01 -8.37140456e-02  1.28926784e-01  3.97059433e-02]