[-4.22424860e-02  1.02385305e-01 -1.55745877e-03 -2.85665330e-04
 -1.08386002e-01  1.43727884e-02 -9.21921432e-03 -1.13997497e-01
  1.26444012e-01 -9.66791138e-02  1.66850135e-01 -2.98880246e-02
 -1.69882759e-01 -1.03671230e-01  2.22131722e-02  1.34262070e-01
 -1.46462366e-01 -1.88569829e-01 -6.62628785e-02 -9.80583876e-02
  5.21450229e-02  5.21348789e-02 -4.90783863e-02  2.96263937e-02
 -1.43421099e-01 -2.49793440e-01 -1.08110391e-01 -9.08612758e-02
  1.25142783e-01 -2.56627705e-02 -8.12461451e-02  7.17553273e-02
 -1.30272076e-01 -8.28339756e-02  1.00918852e-01  5.33143952e-02
 -2.55830977e-02 -3.86611484e-02  1.69707373e-01 -3.31834517e-02
 -2.00543329e-01  4.89459969e-02  9.72849503e-02  2.68953145e-01
  2.01703265e-01  5.04928045e-02  5.33035304e-03 -2.82923412e-02
  9.86428782e-02 -1.21347480e-01  6.41449913e-02  1.47307292e-01
  1.46289811e-01  7.68363923e-02  1.20922457e-02 -1.91711873e-01
 -2.91512944e-02  1.15001880e-01 -1.57176778e-01  5.38080446e-02
  9.72435996e-02 -1.45985529e-01 -4.04885672e-02 -5.76581843e-02
  1.45361722e-01  6.51356876e-02 -7.82620460e-02 -2.21041232e-01
  1.65450916e-01 -2.08768874e-01 -7.62565210e-02  6.48300126e-02
 -1.42613634e-01 -1.16295971e-01 -2.43863851e-01 -6.65686419e-03
  3.92634898e-01  1.54710621e-01 -1.70836732e-01  4.09522355e-02
  3.81957069e-02  2.69195680e-02  1.46811321e-01  1.05184369e-01
 -3.65951732e-02 -1.82918534e-02 -8.78046006e-02 -2.37318464e-02
  2.20214084e-01 -1.01686306e-02 -6.73705488e-02  1.48757204e-01
  1.18451146e-02  3.57391872e-02  5.82946800e-02 -7.68026058e-03
 -2.94118281e-02 -1.55170280e-02 -1.18091606e-01 -5.64135192e-03
 -4.88818400e-02 -8.23807716e-02 -9.98122338e-03  1.12210952e-01
 -9.63639989e-02  1.76565215e-01  1.37436306e-02  8.06394815e-02
 -8.46209973e-02  2.19823029e-02 -8.64489302e-02  1.11505343e-02
  1.58689663e-01 -2.04094008e-01  1.79187819e-01  1.64443359e-01
  3.62998806e-02  1.18678622e-01  9.64364409e-02  7.03496933e-02
  9.36042331e-03 -4.73311357e-02 -2.28208229e-01 -1.01969577e-01
  5.90895601e-02 -1.00714467e-01  1.21749453e-01  4.17590067e-02]