[-9.25131217e-02  1.48965508e-01  8.95593986e-02 -1.06050428e-02
 -6.69637471e-02 -2.85961460e-02 -7.76224956e-02 -2.03632981e-01
  1.22953691e-01 -1.31776690e-01  2.79698908e-01 -9.25101060e-03
 -2.10700318e-01 -1.32717803e-01 -1.10492567e-02  2.20391914e-01
 -1.53982624e-01 -1.81894541e-01 -1.29133491e-02  1.72411799e-02
  9.24845263e-02 -4.77509499e-02  7.99185559e-02  5.69027178e-02
 -9.40724686e-02 -3.62097353e-01 -1.26617119e-01 -5.50525077e-02
  2.40799021e-02 -2.22812444e-02 -1.12416528e-01  3.20514366e-02
 -1.50089383e-01 -3.88180017e-02  3.97546701e-02  8.50151405e-02
 -2.00991202e-02 -1.10190704e-01  2.14139029e-01 -3.50090824e-02
 -2.55562991e-01  2.27764994e-02  6.62535429e-02  2.24202082e-01
  2.10515454e-01  2.37594377e-02  6.46124482e-02 -9.13485885e-02
  9.29732099e-02 -1.53596088e-01  2.63711698e-02  1.17706612e-01
  1.04120187e-01  2.02119704e-02 -1.55272265e-03 -1.93268433e-01
 -4.38426528e-03  9.03429314e-02 -1.07459985e-01 -5.37234209e-02
  5.83873875e-02 -1.29173726e-01 -1.41964033e-02 -5.87253273e-02
  2.45342642e-01  1.43750563e-01 -1.07619859e-01 -1.73842221e-01
  1.46854401e-01 -1.24095432e-01 -6.43636659e-02 -6.85244813e-05
 -2.11591229e-01 -1.38615981e-01 -3.05536658e-01 -1.78131741e-02
  3.87349784e-01  7.95262456e-02 -1.75966367e-01  6.43257424e-02
 -3.25466357e-02  5.04303165e-02  8.02333802e-02  1.69487000e-01
 -4.49327379e-02  3.57539766e-02 -1.23949878e-01 -3.47640477e-02
  2.16552764e-01 -7.23277852e-02 -2.71900035e-02  2.09057599e-01
 -1.17801866e-02  1.03393868e-01  5.37652448e-02 -5.00982674e-03
 -4.56573814e-02  3.41551565e-02 -1.57150745e-01  7.59141240e-03
 -5.40717505e-02 -2.33430993e-02  1.43273687e-02  1.31652743e-01
 -1.72948942e-01  3.44648249e-02 -1.25340547e-03  6.08830042e-02
  1.67392343e-02  3.61575484e-02 -1.14380799e-01 -1.18646003e-01
  6.92130029e-02 -2.06619933e-01  1.55819237e-01  2.14009240e-01
  6.17882721e-02  1.12675808e-01  1.67586654e-01  1.00193493e-01
  2.30447147e-02  2.71864771e-03 -2.00639173e-01  6.75727439e-04
  1.15638487e-01 -3.66268829e-02  7.06584156e-02  2.91096251e-02]