[-6.81771934e-02  5.86165749e-02  1.81906801e-02 -1.71984080e-02
 -1.42264709e-01 -7.12979957e-02 -5.80626689e-02 -1.58574104e-01
  1.28948465e-01 -8.71063992e-02  2.20553830e-01  2.61860676e-02
 -1.53156951e-01 -1.09169774e-01  3.32241543e-02  1.33659109e-01
 -1.58466056e-01 -1.99503526e-01 -4.40591648e-02 -3.14530917e-02
  3.14077432e-03 -3.23036127e-02  3.93813662e-02  6.74804598e-02
 -1.82809189e-01 -2.96525210e-01 -1.28723547e-01 -8.37729797e-02
  7.01808021e-04  7.74824200e-03 -4.18721847e-02  9.56477150e-02
 -1.17052674e-01 -5.57259023e-02  8.86143148e-02  9.17993113e-02
 -1.01519953e-02 -1.89168192e-02  2.02601582e-01 -4.16417643e-02
 -2.68997073e-01  5.10642044e-02  8.41292366e-02  2.47705221e-01
  2.51550406e-01  4.11317162e-02  7.11864755e-02 -6.71291873e-02
  1.38775617e-01 -1.60256013e-01  1.20313920e-01  1.37366533e-01
  1.07486986e-01  4.99088168e-02  3.86541300e-02 -1.88420147e-01
  6.86469674e-03  1.22341909e-01 -1.38131499e-01 -2.57323980e-02
  6.90074116e-02 -7.48857036e-02  1.64951179e-02 -3.89858074e-02
  2.08590731e-01  1.31895319e-01 -9.93505791e-02 -1.76891580e-01
  1.53196856e-01 -1.78596005e-01 -1.03488244e-01  9.29955915e-02
 -2.16470912e-01 -1.61916986e-01 -3.32735032e-01  6.50876027e-04
  4.77261037e-01  1.28915474e-01 -1.75857112e-01  3.06792017e-02
  6.21844083e-06  2.44716592e-02  1.14155315e-01  1.25349462e-01
 -2.97698472e-02 -1.50151867e-02 -1.22159816e-01 -1.73672941e-02
  2.37900004e-01 -1.34974346e-02 -1.02569185e-01  1.41293049e-01
  5.46781383e-02  7.65740648e-02  8.52096304e-02  5.54995351e-02
 -1.07973469e-02  9.36350878e-03 -1.56000510e-01  1.27950879e-02
 -5.87151609e-02  8.45067948e-03 -7.31602404e-03  1.02568068e-01
 -1.11225918e-01  1.67203009e-01  2.37751007e-02  5.47943600e-02
 -1.05844140e-01  5.59139661e-02 -4.94792089e-02 -4.06298712e-02
  9.27462280e-02 -2.47294769e-01  1.88729942e-01  1.46823406e-01
  4.30922247e-02  1.51416257e-01  4.86093163e-02  6.19769208e-02
 -2.96599325e-02 -2.63647288e-02 -1.47955492e-01 -4.95323166e-02
  4.61085662e-02 -4.65683155e-02  1.57150745e-01  7.74944574e-02]