[-3.90249267e-02  1.02522768e-01 -5.39640337e-03  2.11103912e-02
 -9.87837091e-02 -5.88766299e-02 -5.09566162e-03 -1.67738438e-01
  1.36292920e-01 -7.98499957e-02  2.19036460e-01 -1.21751893e-02
 -1.70565233e-01 -1.25547186e-01  2.30390276e-03  1.30896613e-01
 -1.19763725e-01 -1.75142318e-01 -6.50769621e-02 -5.97566441e-02
  7.88981542e-02  4.96089458e-02 -2.30435329e-03  3.29546742e-02
 -1.06610768e-01 -2.67751038e-01 -1.14438631e-01 -7.67271891e-02
  7.20243230e-02 -1.73088890e-02 -7.73622319e-02  7.02017695e-02
 -1.44090995e-01 -1.06559038e-01  1.06239550e-01  5.60095422e-02
 -6.79985015e-03 -3.80680077e-02  1.87623397e-01 -4.27951887e-02
 -1.98899776e-01  4.58785892e-02  1.18887246e-01  2.72482127e-01
  2.04262972e-01  3.54878120e-02  2.48202216e-02 -7.71070719e-02
  1.26772806e-01 -8.90350863e-02  5.36973476e-02  1.19579211e-01
  1.66703865e-01  6.58170506e-02  3.61708598e-03 -1.77988529e-01
 -1.15761347e-03  9.65173170e-02 -1.64169595e-01  2.36989018e-02
  1.11329548e-01 -1.33997425e-01 -5.88677339e-02 -4.27470766e-02
  1.72848329e-01  4.60163727e-02 -8.38168040e-02 -2.22402677e-01
  1.06557846e-01 -2.10998520e-01 -1.10380553e-01  5.78733496e-02
 -1.82259023e-01 -1.31716534e-01 -3.02742779e-01 -1.82828493e-02
  3.99065048e-01  1.17449261e-01 -1.91085860e-01  6.75866976e-02
  2.91450676e-02  3.51125821e-02  1.47105291e-01  1.15278617e-01
 -1.23605924e-02  2.31549200e-02 -1.44474685e-01 -1.28681604e-02
  2.36521587e-01 -4.27268036e-02 -9.16535631e-02  1.60990044e-01
  1.11806737e-02  7.48816133e-02  4.83517237e-02  8.27809796e-03
 -2.88012978e-02  8.61999579e-03 -1.41064942e-01 -2.06901881e-04
 -2.99690049e-02 -1.85437929e-02 -8.05525854e-03  9.05403644e-02
 -1.08351849e-01  1.48420915e-01  1.29553573e-02  9.11356732e-02
 -8.16283375e-02 -2.63303965e-02 -9.40102562e-02 -8.13288148e-03
  1.09941795e-01 -1.99764743e-01  1.98175058e-01  1.35357067e-01
  5.97918034e-02  1.19683556e-01  8.33879188e-02  3.93057540e-02
  8.26535653e-03 -2.45262925e-02 -2.14092284e-01 -7.69705921e-02
  6.92926347e-02 -6.64846525e-02  1.57434613e-01  3.43562625e-02]