[-6.00003712e-02  1.06969573e-01  3.81162837e-02  4.71989764e-03
 -1.09330989e-01 -2.20248732e-03 -1.92315318e-02 -1.26130164e-01
  1.31534681e-01 -1.17005184e-01  1.84901401e-01 -1.23936580e-02
 -1.48810610e-01 -1.36153564e-01 -1.54057089e-02  1.65879473e-01
 -1.03896640e-01 -1.88257799e-01 -7.47883543e-02 -6.76792711e-02
  3.61783803e-02  5.95691577e-02  2.09032558e-04  4.20871042e-02
 -1.28821477e-01 -2.82378763e-01 -9.73216370e-02 -1.05078124e-01
  6.27066717e-02 -2.14544386e-02 -8.89197141e-02  6.46602735e-02
 -1.23036794e-01 -6.87193498e-02  7.38636628e-02  8.75431821e-02
 -2.09651273e-02 -1.91447344e-02  1.61340937e-01 -2.97872629e-02
 -2.38171980e-01  5.64380847e-02  7.62956589e-02  2.88283348e-01
  1.87916622e-01  1.60335284e-02  1.88521463e-02 -1.92682799e-02
  9.78093073e-02 -1.37101814e-01  4.14774604e-02  1.07209682e-01
  1.52221069e-01  5.85758761e-02  2.13772055e-05 -1.65547863e-01
 -2.36182706e-03  1.28962249e-01 -1.44958884e-01  3.76454033e-02
  7.34820887e-02 -1.56338960e-01 -4.37941514e-02 -2.07509901e-02
  1.91684753e-01  8.66292119e-02 -9.98348966e-02 -2.02141002e-01
  1.36097312e-01 -2.00847149e-01 -6.09770902e-02  7.40361661e-02
 -1.61823690e-01 -1.20198406e-01 -2.70865679e-01  5.61400363e-03
  4.18921322e-01  1.36043102e-01 -1.95788369e-01  1.68995038e-02
  4.80096415e-03  7.01872930e-02  1.26909643e-01  1.26453489e-01
 -3.72553356e-02  1.19437678e-02 -1.21221952e-01 -3.19178738e-02
  2.17257425e-01 -3.37785296e-02 -7.44045377e-02  1.67249903e-01
  3.24819051e-02  7.21191317e-02  3.68236303e-02 -1.80591587e-02
 -1.73786543e-02 -5.08704362e-03 -1.24086343e-01  1.85229350e-02
 -5.11381030e-02 -5.66212423e-02 -1.72826294e-02  9.05536041e-02
 -1.14727966e-01  1.66208908e-01  1.41985090e-02  7.53761753e-02
 -5.40946499e-02  4.30220068e-02 -8.41446593e-02 -2.50778478e-02
  1.48054913e-01 -1.87681615e-01  1.79310605e-01  1.89425617e-01
  6.72093555e-02  1.27053693e-01  1.18936770e-01  4.50670607e-02
  3.37257492e-03 -3.68431173e-02 -2.03309610e-01 -6.94559664e-02
  8.57467279e-02 -1.23477496e-01  1.20601550e-01  3.73831950e-02]