[-0.12256982  0.09064203  0.08637789 -0.01702172 -0.1202516  -0.01458637
 -0.06426859 -0.1715232   0.08693647 -0.11604147  0.22159146 -0.00462662
 -0.20945719 -0.0793708  -0.00577574  0.16665356 -0.0807752  -0.14381738
 -0.03501274  0.00556976  0.05723127 -0.00719703  0.04655123  0.03502053
 -0.06171146 -0.32537401 -0.12352677 -0.04751426  0.04351511 -0.03924011
 -0.13410288  0.04345886 -0.12248687 -0.05321684  0.03587729  0.08927805
 -0.01482367 -0.07989978  0.20777309 -0.01189407 -0.24299157  0.05085022
  0.05429065  0.24236237  0.21721552  0.03337241  0.0538389  -0.07462216
  0.10512395 -0.19595371  0.06184918  0.10508376  0.1200522   0.01080834
  0.01270907 -0.16951671 -0.01910864  0.06920653 -0.11364986  0.03132028
  0.0872077  -0.1188216  -0.04622805 -0.095558    0.21205036  0.15659468
 -0.1117333  -0.17216825  0.10521839 -0.15653451 -0.09554004  0.01500122
 -0.20809172 -0.13798426 -0.28541866  0.02899863  0.38374659  0.13259292
 -0.19549266  0.04086163  0.0058152   0.0330382   0.10615688  0.16757904
 -0.03253108  0.01924724 -0.07474904 -0.01291927  0.22065698 -0.06359902
 -0.0504376   0.19970749  0.00431782  0.12214575  0.03321415  0.03484588
 -0.01879939 -0.00415976 -0.14100452  0.01316718  0.0077827  -0.0438864
  0.04018191  0.12924618 -0.15998118  0.10504794 -0.04163201  0.06696832
  0.02089602 -0.00099648 -0.09295474 -0.0353735   0.10157327 -0.17981742
  0.18739219  0.20555286  0.03965774  0.08154391  0.1508569   0.0687812
  0.04971297  0.0365365  -0.18337663 -0.04450714  0.10864327 -0.05559692
  0.08452214  0.04162229]