[-0.12732489  0.13711029  0.07508386  0.02046291 -0.06189898 -0.04649926
 -0.05673462 -0.18710066  0.10172039 -0.09179489  0.30888608 -0.02744165
 -0.22272785 -0.13079804 -0.00472563  0.19595349 -0.14194347 -0.14916365
 -0.00870849 -0.00562744  0.08706816 -0.0430442   0.06663397  0.03618947
 -0.08579861 -0.32867131 -0.10871378 -0.09658297  0.03562049 -0.03576457
 -0.11531547  0.01672489 -0.16641319 -0.07046679  0.02624928  0.07008512
 -0.01284468 -0.0743283   0.19377425 -0.0770443  -0.22273767  0.00181401
  0.07195974  0.22184916  0.19039357  0.05246843  0.0288081  -0.08307444
  0.04065779 -0.13868496  0.03613942  0.09380442  0.09385401  0.01562967
 -0.01883848 -0.18797088 -0.0053074   0.05385786 -0.12103202 -0.05242404
  0.08167078 -0.11731155 -0.05190653 -0.06568629  0.25925466  0.12211376
 -0.09021601 -0.15797138  0.13806523 -0.13067631 -0.06584111  0.01558787
 -0.18072179 -0.14609241 -0.2844719   0.0057821   0.40020829  0.07015344
 -0.17832284  0.0825021  -0.03498424  0.02700606  0.10687607  0.11641043
 -0.02322939  0.03407328 -0.13245331 -0.03635508  0.19949313 -0.08069614
 -0.01984402  0.17166694 -0.02655655  0.07046006  0.07376062  0.0055439
 -0.02489647  0.03581724 -0.14410384 -0.00664362 -0.00615614 -0.05736677
  0.00160198  0.10518724 -0.17046778  0.03816361  0.01708384  0.05310464
  0.03430494  0.02218258 -0.10005273 -0.10336711  0.09027267 -0.21832421
  0.18758593  0.19059375  0.04214391  0.12792681  0.13638988  0.11759486
  0.00281035  0.01780582 -0.2224191  -0.02808376  0.11405045 -0.03937452
  0.09552027  0.0397839 ]