[-3.73164713e-02  1.23647965e-01  2.68383678e-02  1.23843560e-02
 -1.20697811e-01  1.49119273e-02 -3.23696658e-02 -1.29299402e-01
  1.21965125e-01 -1.14536934e-01  2.01728746e-01 -2.62074377e-02
 -1.64350495e-01 -1.00532725e-01 -2.32127141e-02  1.62616014e-01
 -1.19090535e-01 -1.82201788e-01 -7.27794394e-02 -6.41583800e-02
  5.98314218e-02  5.64550869e-02  9.27425083e-03  3.38004604e-02
 -1.19582020e-01 -2.59257793e-01 -1.03682317e-01 -1.10736385e-01
  1.02095060e-01 -3.97779942e-02 -1.05441369e-01  3.85724865e-02
 -1.39431626e-01 -7.08576068e-02  6.66759685e-02  6.40780479e-02
 -1.37523608e-02 -2.47268416e-02  1.69558927e-01 -2.75233574e-02
 -2.27366313e-01  5.89583181e-02  8.14851448e-02  2.80505896e-01
  1.94507852e-01  3.36539708e-02  1.31840026e-02 -3.21178325e-02
  8.76730233e-02 -1.33222222e-01  7.23425299e-02  1.01427607e-01
  1.72304019e-01  7.37196729e-02  2.43203351e-04 -1.92037225e-01
 -7.93627929e-03  1.28743932e-01 -1.30150229e-01  6.26969934e-02
  9.91050601e-02 -1.37858436e-01 -1.93250012e-02 -2.75535826e-02
  2.09330603e-01  6.80115744e-02 -9.00549069e-02 -1.96302339e-01
  1.37923345e-01 -1.77248999e-01 -5.36021255e-02  8.62794071e-02
 -1.62599906e-01 -1.08347297e-01 -2.58067459e-01  2.06215540e-03
  4.26121384e-01  1.19208992e-01 -1.86148629e-01  1.75795611e-02
  5.67646278e-03  5.33056967e-02  1.22150876e-01  1.10964440e-01
 -3.15410569e-02  1.10458140e-03 -1.26098111e-01 -1.49335479e-02
  2.24421412e-01 -6.02098815e-02 -5.87421656e-02  1.74174532e-01
  1.04013802e-02  6.07658401e-02  3.91117260e-02  5.82607463e-03
 -2.63251215e-02 -1.15618412e-03 -1.07396938e-01  1.97597183e-02
 -6.25220165e-02 -8.19278136e-02 -2.80041397e-02  8.59955475e-02
 -1.15436450e-01  1.37455225e-01  5.47512574e-03  7.52886832e-02
 -6.42370805e-02  2.87267100e-02 -8.71289819e-02 -1.79788750e-02
  1.61716104e-01 -2.06810743e-01  1.92079738e-01  1.79756030e-01
  5.47604226e-02  1.14812933e-01  1.01892367e-01  6.99393675e-02
  9.15053021e-03 -4.23375666e-02 -2.15789318e-01 -6.96889833e-02
  7.99358264e-02 -1.19609430e-01  1.09482609e-01  5.25729544e-02]