[-0.07404732  0.09793704  0.10171624 -0.02310184 -0.09906576 -0.00907076
 -0.07236148 -0.18945904  0.07771145 -0.15031339  0.21529806 -0.02157405
 -0.21021609 -0.067522   -0.0225856   0.19165409 -0.08188862 -0.16816615
 -0.04241232  0.0111176   0.0642147  -0.02082387  0.03905344  0.02328826
 -0.05330154 -0.28479311 -0.13731901 -0.03460779  0.02807356 -0.01291538
 -0.13096543  0.05007381 -0.126424   -0.02326325  0.04103497  0.08512447
 -0.02303701 -0.0922184   0.19409917 -0.02218154 -0.24806741  0.07496483
  0.04658457  0.22720206  0.20756601  0.026126    0.06168472 -0.09849656
  0.11012222 -0.18320519  0.06067276  0.11859258  0.13573761  0.034296
  0.01191413 -0.17232855  0.00242833  0.06879111 -0.08219941  0.03735051
  0.10513818 -0.11776241 -0.01305552 -0.10040007  0.20829682  0.1273692
 -0.12454013 -0.18142369  0.11597721 -0.14301883 -0.08989073  0.01738489
 -0.2156118  -0.14091678 -0.27688217  0.02511474  0.37016159  0.1365837
 -0.19495533  0.05251178 -0.0041325   0.05334288  0.09570678  0.1802016
 -0.02673046  0.0281837  -0.0887936  -0.02676838  0.24025173 -0.10592182
 -0.04259923  0.22684458 -0.00571675  0.10630628  0.01127021  0.02195772
 -0.01355382  0.00994112 -0.1384867   0.02371565 -0.01714978 -0.04938835
  0.01928057  0.12433982 -0.14127226  0.08668013 -0.0575515   0.09008308
  0.00572655  0.01481888 -0.1173523  -0.05784741  0.09849671 -0.18081431
  0.16714126  0.20481835  0.05274763  0.05737884  0.17969535  0.10432138
  0.05784193  0.01295374 -0.18613127 -0.04627467  0.12196952 -0.02690051
  0.05841545  0.05477117]