[-3.70109677e-02  1.14807725e-01  3.16021629e-02  1.29142329e-02
 -1.03981137e-01 -2.72136163e-02 -2.84990128e-02 -1.24506973e-01
  1.19872130e-01 -1.09888494e-01  2.11973310e-01  5.46232471e-03
 -1.54212192e-01 -1.44793630e-01 -4.94722184e-03  1.39135152e-01
 -1.01291001e-01 -1.75198153e-01 -5.71313910e-02 -6.91472739e-02
  6.51586503e-02  3.84446047e-02  8.48688371e-03  3.08485217e-02
 -1.33978114e-01 -2.67985195e-01 -1.08337641e-01 -1.00031987e-01
  5.45409918e-02 -4.30041812e-02 -6.81808814e-02  6.78320453e-02
 -1.14475921e-01 -7.69827515e-02  7.66205937e-02  8.50972533e-02
 -1.93360634e-02 -4.42757038e-03  1.68822780e-01 -2.76021007e-02
 -2.07741931e-01  6.04226999e-02  7.62366205e-02  2.87029147e-01
  1.94358572e-01  2.76531130e-02  3.98646817e-02 -2.97430810e-02
  1.10721186e-01 -1.22915410e-01  5.85453287e-02  1.13733761e-01
  1.64311722e-01  5.62703572e-02  1.56655498e-02 -1.65667698e-01
  5.62760979e-05  1.15950242e-01 -1.60245478e-01  3.77992913e-02
  8.39527473e-02 -1.43360347e-01 -4.91030291e-02 -1.68556422e-02
  1.76849589e-01  7.56839961e-02 -9.26984921e-02 -1.95425853e-01
  1.35388002e-01 -2.02357680e-01 -7.52191469e-02  7.53373578e-02
 -1.73553169e-01 -1.27290562e-01 -2.65899032e-01  1.08854277e-02
  4.27619606e-01  1.41793698e-01 -1.85226843e-01  3.78585085e-02
  1.86842289e-02  4.87090312e-02  1.18167154e-01  1.15071610e-01
 -3.92119251e-02  2.72115450e-02 -1.27385929e-01 -1.18463496e-02
  2.00457931e-01 -3.50228213e-02 -8.41198489e-02  1.51843175e-01
  3.03476751e-02  8.44893083e-02  6.10070899e-02 -2.84122173e-02
 -2.50256751e-02 -7.52893090e-03 -1.39706835e-01  3.33137973e-03
 -7.23750964e-02 -6.90493211e-02 -2.24151742e-02  6.86932653e-02
 -9.40969810e-02  1.63450524e-01  9.03781503e-03  6.66074678e-02
 -9.46651921e-02  3.88981886e-02 -9.50652733e-02 -1.66907795e-02
  1.34204701e-01 -1.91873431e-01  1.77453727e-01  1.71783850e-01
  6.75084740e-02  1.30294412e-01  1.18076041e-01  5.49554713e-02
  9.30577237e-03 -3.83110233e-02 -1.82947323e-01 -7.34740943e-02
  6.31325468e-02 -9.79244485e-02  1.43656731e-01  2.52169315e-02]