[-0.11743023  0.08322585  0.09497264 -0.02503692 -0.10928992 -0.0158965
 -0.06930957 -0.17702036  0.08454774 -0.11921597  0.23171549 -0.00497583
 -0.20023127 -0.08798718 -0.00994042  0.16143781 -0.07221786 -0.14526223
 -0.03863582 -0.00699801  0.04792151 -0.00787543  0.03446319  0.03020485
 -0.06977328 -0.31984571 -0.12455808 -0.05306221  0.04983591 -0.03624254
 -0.1182353   0.04963117 -0.1252322  -0.04629285  0.03503804  0.08789456
 -0.00876838 -0.05887607  0.20911467 -0.01924896 -0.23716126  0.06354963
  0.04911832  0.24842866  0.21036433  0.03854123  0.06025457 -0.07920554
  0.10171019 -0.19248287  0.07380083  0.10067569  0.12282228  0.000597
  0.02058489 -0.17510891 -0.03081183  0.06806048 -0.12020409  0.0474901
  0.08563673 -0.11277731 -0.05686957 -0.09754041  0.20771502  0.15325777
 -0.12038033 -0.16268632  0.12086447 -0.16155039 -0.07947786  0.01510075
 -0.20046583 -0.13759676 -0.29627243  0.03736211  0.38504267  0.13091205
 -0.20621891  0.04202249  0.01622864  0.03869569  0.11183404  0.16055289
 -0.04361174  0.02317602 -0.06103051 -0.0082794   0.2143188  -0.05454576
 -0.04425648  0.20472279  0.00325155  0.11726159  0.02997742  0.03365507
 -0.01265796 -0.01634502 -0.14503603  0.02592091  0.00220692 -0.03991504
  0.04523335  0.12882274 -0.15676208  0.11022907 -0.03992249  0.06130335
  0.0143195   0.01423167 -0.09223757 -0.04424299  0.11234935 -0.18256477
  0.17897329  0.20573314  0.04288229  0.08265144  0.15655331  0.06658576
  0.05297111  0.03388056 -0.18457091 -0.04154935  0.1031173  -0.06849375
  0.08315342  0.04729724]