[-1.17281131e-01  9.27940011e-02  5.91472983e-02 -8.79671983e-03
 -8.60882029e-02 -1.43228089e-02 -5.54704964e-02 -1.85900524e-01
  1.03538863e-01 -1.14215218e-01  2.00451240e-01 -2.28488538e-02
 -1.97447941e-01 -1.08004965e-01 -3.18793654e-02  1.92279488e-01
 -1.09734416e-01 -1.55891046e-01 -5.33194058e-02  2.70216167e-03
  7.22693279e-02 -8.06609821e-03  3.42588909e-02  2.99111903e-02
 -7.52902851e-02 -3.21402520e-01 -1.11856163e-01 -9.87184867e-02
  9.04910266e-03 -1.28610386e-02 -1.30599529e-01  1.26124565e-02
 -1.42625675e-01 -6.57090619e-02  4.75167446e-02  5.92874885e-02
 -3.82320024e-02 -6.25753179e-02  2.19163135e-01 -4.27933820e-02
 -2.47111037e-01  4.58332188e-02  1.14402846e-01  2.32800230e-01
  2.03133345e-01  5.45881689e-02  3.05711757e-02 -9.18681771e-02
  1.10623457e-01 -1.72735855e-01  5.10169528e-02  9.37570930e-02
  1.03341058e-01  3.05197965e-02  2.76044067e-02 -1.72618210e-01
 -6.08782796e-03  6.16468787e-02 -1.05971456e-01  2.16483530e-02
  8.01308379e-02 -9.88372341e-02 -6.33336082e-02 -5.74219599e-02
  2.53132641e-01  1.23122931e-01 -1.01525426e-01 -1.88657984e-01
  1.24308467e-01 -1.63983449e-01 -8.58267769e-02  1.79004483e-02
 -1.85037836e-01 -1.46133944e-01 -2.93110907e-01  1.47452950e-03
  3.98175240e-01  1.11867860e-01 -1.97231963e-01  5.97142950e-02
 -2.90839076e-02  2.35056188e-02  1.48121789e-01  1.37905017e-01
 -2.04510633e-02  3.49925198e-02 -8.86266455e-02 -4.68125604e-02
  2.54831374e-01 -7.87233636e-02 -3.93187255e-02  2.02319726e-01
  1.85358282e-02  8.28713179e-02  2.87901107e-02 -1.20958993e-02
 -3.25551108e-02  3.72603536e-04 -1.85257882e-01 -1.90723557e-02
  1.85049605e-02 -7.63622532e-03  2.88437903e-02  1.28368571e-01
 -1.69223428e-01  6.52161762e-02 -5.49065415e-03  5.37867323e-02
  1.59593523e-02  1.43766096e-02 -1.46974087e-01 -7.11373463e-02
  1.05752192e-01 -1.72323599e-01  1.84383184e-01  1.80420086e-01
  7.52351359e-02  7.10125342e-02  1.77876547e-01  4.98482473e-02
  4.16312218e-02  3.62084135e-02 -2.21076831e-01 -2.87015289e-02
  1.50136277e-01 -3.78130972e-02  9.98588577e-02  3.86184417e-02]