[-0.02452025  0.11074346  0.0190291   0.0147017  -0.10124186 -0.01583782
 -0.02038568 -0.13082667  0.13311216 -0.12802771  0.17161392 -0.02282548
 -0.14432375 -0.11570444 -0.02176158  0.1403311  -0.10028038 -0.18515845
 -0.07308741 -0.09619844  0.05340512  0.07576702 -0.02487489  0.0283341
 -0.12938724 -0.25811899 -0.09303864 -0.0978596   0.07450246 -0.02888274
 -0.07453202  0.07160387 -0.11655482 -0.07054085  0.08862827  0.09398477
 -0.03168924 -0.01819451  0.16479422 -0.02459091 -0.20479019  0.04843421
  0.08034118  0.30199131  0.20484605  0.01266097  0.01221217 -0.04053714
  0.11369424 -0.12306195  0.05389019  0.11602663  0.14619696  0.07992551
  0.01717522 -0.17068462  0.00316005  0.11484108 -0.1497362   0.03735554
  0.09420365 -0.16471604 -0.05327326 -0.01656662  0.16858974  0.05799065
 -0.08458276 -0.20110968  0.14386414 -0.2225807  -0.07812979  0.05843626
 -0.15407215 -0.11332943 -0.27829978  0.00309247  0.43713966  0.15642174
 -0.18485241  0.04430674  0.04143814  0.05904869  0.16697221  0.13176844
 -0.03045665  0.0068544  -0.11730678 -0.00527282  0.20120294 -0.03118167
 -0.10088272  0.13362561  0.01818589  0.07012758  0.05737857 -0.02336
 -0.03397651 -0.00355328 -0.13745022  0.00563705 -0.05095911 -0.05125639
 -0.01840587  0.09856825 -0.08429094  0.18258245  0.01659639  0.06949149
 -0.07394659  0.02493337 -0.08831184 -0.0056339   0.14756732 -0.18160103
  0.16865496  0.15802082  0.06044068  0.14333877  0.11254451  0.05349465
  0.01353185 -0.03750622 -0.21855555 -0.0781624   0.0511537  -0.08366766
  0.13520706  0.0333414 ]