[-7.57282302e-02  5.95425852e-02  1.36544206e-03 -3.77235077e-02
 -1.69694409e-01 -1.90564152e-02  1.38161601e-02 -1.26335457e-01
  1.41962424e-01 -1.21477559e-01  2.44626090e-01  1.20577831e-02
 -2.29030132e-01 -1.30553320e-01  4.17640768e-02  1.16594754e-01
 -1.52494296e-01 -1.76658913e-01 -6.25179335e-02 -5.77633046e-02
 -4.91980463e-04  1.94578450e-02  1.48984017e-02  5.89410663e-02
 -1.26546592e-01 -3.02372754e-01 -1.26639679e-01 -1.05972841e-01
  2.93422174e-02 -2.93298792e-02 -2.79565901e-02  7.49871358e-02
 -6.95320442e-02 -5.07073589e-02  6.26568496e-02  8.80946442e-02
 -8.17439780e-02  2.88932188e-03  2.00911120e-01 -2.62467321e-02
 -2.31867939e-01  6.60405320e-04  3.33874822e-02  2.98288792e-01
  1.87091261e-01  2.80716475e-02  1.27147082e-02 -5.03677092e-02
  1.10642314e-01 -1.96371362e-01  9.18508098e-02  1.66584432e-01
  1.44775793e-01  8.46695527e-02  5.51890247e-02 -1.44799143e-01
  1.30653456e-02  1.42827317e-01 -1.73024580e-01 -1.10426331e-02
  3.07345297e-02 -9.56196487e-02  4.22722986e-03 -4.44624983e-02
  2.21310407e-01  1.07153788e-01 -1.04719661e-01 -1.56711400e-01
  1.47878751e-01 -2.10148811e-01 -1.25987992e-01  1.20196603e-01
 -1.70800239e-01 -1.81555524e-01 -2.34716684e-01  4.39656852e-03
  4.26066935e-01  1.59672603e-01 -1.95395797e-01 -2.25832891e-02
 -2.76316591e-02 -2.68134512e-02  1.25773743e-01  9.66425389e-02
 -3.76605131e-02 -2.15383735e-03 -1.29237756e-01 -2.21664123e-02
  1.98921263e-01 -7.96001032e-02 -5.62667139e-02  2.26995662e-01
  8.97534266e-02  8.45842436e-02  1.01802580e-01  9.42637492e-03
  1.68255251e-02  1.07249292e-02 -1.44750580e-01 -1.47031415e-02
 -9.52698319e-05 -8.19639787e-02 -9.80121642e-03  3.65546718e-02
 -1.33577138e-01  2.22520694e-01  5.23917563e-02  5.09837382e-02
 -7.03793243e-02 -1.42274490e-02 -6.26043454e-02 -2.68903673e-02
  1.79531798e-01 -2.71065205e-01  2.02010304e-01  1.75475851e-01
  3.60709094e-02  1.62704036e-01  3.12975608e-02  3.17916721e-02
 -4.89320941e-02 -1.20567024e-01 -1.47739276e-01 -4.67410833e-02
  7.38481209e-02 -7.09144697e-02  9.02014300e-02  3.39145921e-02]