[-0.11114426  0.11045071  0.09188982 -0.01677255 -0.10724046 -0.02692592
 -0.07124714 -0.18126026  0.09416961 -0.11215258  0.20366526 -0.02795023
 -0.21014304 -0.07046709 -0.05874116  0.21574299 -0.12114158 -0.17379639
 -0.04887552 -0.00212767  0.07017576 -0.01952783  0.04462048  0.03764459
 -0.07592104 -0.30485281 -0.0935613  -0.05207596  0.01709843 -0.02133923
 -0.13574342  0.05353948 -0.15372211 -0.03745899  0.04545476  0.08080707
 -0.02584556 -0.09703938  0.21310623 -0.03953048 -0.2553148   0.05583728
  0.10430815  0.2231926   0.209159    0.0133293   0.04732167 -0.10334015
  0.11259439 -0.18541391  0.01430652  0.1151107   0.11113628  0.02607815
  0.00231612 -0.19096647 -0.01502789  0.071279   -0.08640552  0.01703915
  0.08030792 -0.123647   -0.05421378 -0.11415257  0.21817794  0.11934103
 -0.1134003  -0.18485785  0.13107853 -0.14271334 -0.07508958  0.02117356
 -0.1864364  -0.14996283 -0.2863782  -0.00550341  0.36494073  0.11966051
 -0.19543755  0.06209032 -0.01255049  0.03911441  0.08521456  0.16448165
 -0.03737079  0.05124242 -0.10104325 -0.02882547  0.24657102 -0.08995294
 -0.02300666  0.20893815  0.0200494   0.09643487  0.01295575  0.00532199
 -0.0492173   0.00544132 -0.18854961  0.00474868 -0.0247731  -0.0266396
  0.01981926  0.12110889 -0.13912351  0.04768683 -0.02560741  0.05583486
 -0.0099636   0.01607903 -0.11915398 -0.0794579   0.09298108 -0.16484153
  0.16165125  0.20459409  0.07563912  0.07734869  0.18822305  0.07635563
  0.04554767  0.03207903 -0.18599857 -0.02936655  0.139433   -0.04874696
  0.07235292  0.04423678]