[-0.0051364   0.10420882 -0.01000799  0.01341148 -0.12492516 -0.05197737
  0.00091562 -0.15917931  0.13368179 -0.08157305  0.22286223  0.0039906
 -0.17287953 -0.1343834   0.03131675  0.11583129 -0.10242597 -0.16000941
 -0.08263858 -0.08105983  0.04499421  0.0224938   0.03184987  0.04087829
 -0.11401558 -0.24185316 -0.11542597 -0.09950424  0.09414057 -0.0416976
 -0.07125791  0.06658214 -0.14693674 -0.11524335  0.10150013  0.03688117
 -0.03776488 -0.03938193  0.19863749 -0.03744045 -0.18014739  0.05752341
  0.0867199   0.26159886  0.20168903  0.03276421  0.03970603 -0.06487492
  0.13486829 -0.1083419   0.07883217  0.10633165  0.16128074  0.05369037
  0.02967485 -0.18440016  0.01577923  0.09858587 -0.18072899  0.03921164
  0.10085852 -0.13638441 -0.06960341 -0.03248332  0.18476464  0.07292908
 -0.06696691 -0.20971687  0.12889294 -0.20393434 -0.08523     0.08220806
 -0.17829639 -0.1154538  -0.28361866 -0.00758894  0.4218435   0.13311924
 -0.18637574  0.04724855  0.01746071  0.03707704  0.12999986  0.10692072
 -0.02759055 -0.00410027 -0.12721187 -0.00181581  0.20619459 -0.05818994
 -0.09844965  0.1621407   0.02789304  0.07599687  0.05758985 -0.02418908
 -0.03336306 -0.0138461  -0.12875687  0.00476284 -0.04353809 -0.04563064
 -0.01149436  0.07511219 -0.10890738  0.14173624  0.00847496  0.05922532
 -0.09524334 -0.01541721 -0.08654124 -0.00807665  0.10641469 -0.23520796
  0.21571124  0.14149249  0.05207064  0.11530446  0.05784105  0.03920972
  0.01641463 -0.0286379  -0.18131727 -0.08137485  0.06184223 -0.07448235
  0.14037566  0.02944118]