[-6.26824424e-02  7.17470646e-02  3.05591952e-02 -1.22966813e-02
 -1.30170137e-01 -7.38767385e-02 -5.02238460e-02 -1.56820282e-01
  1.46448106e-01 -8.51594880e-02  1.92277268e-01  2.26464868e-02
 -1.71942115e-01 -9.78780985e-02  3.91416438e-02  1.35814428e-01
 -1.60507277e-01 -2.08426818e-01 -3.20322514e-02 -3.88881862e-02
  1.28316553e-02 -2.11532284e-02  2.81771179e-02  4.85985167e-02
 -1.99454054e-01 -2.95848280e-01 -1.21595375e-01 -8.79705325e-02
  9.96054709e-03 -2.15283292e-03 -4.24337052e-02  9.35432836e-02
 -1.04560830e-01 -3.57375555e-02  8.46317187e-02  9.04150978e-02
 -1.41000962e-02 -2.71441881e-02  2.05456257e-01 -3.25309336e-02
 -2.69596547e-01  3.88771258e-02  7.78395385e-02  2.37181336e-01
  2.61050612e-01  2.41178535e-02  7.91016147e-02 -8.54722708e-02
  1.44740671e-01 -1.49882853e-01  1.12559535e-01  1.37858823e-01
  1.06139533e-01  6.06483221e-02  4.16045785e-02 -1.94938987e-01
 -1.01309586e-02  1.08998679e-01 -1.55311689e-01 -1.97745543e-02
  9.26829875e-02 -7.15169013e-02 -1.38637057e-04 -3.72214690e-02
  1.93540618e-01  1.18695132e-01 -1.02428079e-01 -1.73621640e-01
  1.59224197e-01 -1.97579384e-01 -9.47386548e-02  8.88407752e-02
 -2.02664778e-01 -1.60131559e-01 -3.12850147e-01 -7.75043294e-03
  4.49595273e-01  1.28689989e-01 -1.68913215e-01  2.97578666e-02
  8.34574085e-03  2.25895755e-02  1.16504572e-01  1.22912459e-01
 -3.84756960e-02 -5.40908240e-03 -1.11006692e-01 -1.08220689e-02
  2.39919111e-01 -1.25170350e-02 -8.94135758e-02  1.36949927e-01
  5.22011332e-02  8.02291110e-02  7.61759356e-02  4.50448282e-02
 -2.04757638e-02  6.52729347e-03 -1.52024671e-01  1.53547747e-03
 -6.39823303e-02  1.43447740e-03  7.66941172e-04  1.01101235e-01
 -9.91593525e-02  1.79962620e-01  3.07185501e-02  5.53742349e-02
 -1.09773032e-01  4.77560274e-02 -5.53126708e-02 -3.53163071e-02
  1.05665386e-01 -2.32101992e-01  1.81152388e-01  1.36320621e-01
  3.84741388e-02  1.42914563e-01  4.29611094e-02  6.76709935e-02
 -3.28063965e-02 -2.71462146e-02 -1.51111141e-01 -3.38204913e-02
  4.35963534e-02 -4.75312024e-02  1.58664480e-01  6.98735863e-02]