[-0.08916288  0.09557037  0.1100748  -0.023832   -0.09787299 -0.01486504
 -0.07525616 -0.19582701  0.0822018  -0.1420389   0.20993884 -0.0295802
 -0.21153191 -0.07141389 -0.0218502   0.19783086 -0.0797769  -0.16754842
 -0.03797347  0.01189161  0.06246392 -0.02795733  0.03987214  0.02781364
 -0.06071086 -0.29384619 -0.14053033 -0.03947855  0.01160249 -0.00266613
 -0.12998919  0.05067074 -0.12245083 -0.0248815   0.03880389  0.0872108
 -0.02004621 -0.09597739  0.19496766 -0.02811967 -0.25614962  0.06743976
  0.04983584  0.22669934  0.20854469  0.02661044  0.06832997 -0.0858232
  0.10715883 -0.18448611  0.04500765  0.1173921   0.12700765  0.02231319
  0.00496889 -0.16707528  0.00662842  0.06947012 -0.09303436  0.02965192
  0.10830753 -0.13907534 -0.02383994 -0.09063848  0.21654613  0.13700484
 -0.12595306 -0.1791337   0.11361625 -0.1444702  -0.08219752  0.00910052
 -0.22137511 -0.14875424 -0.28584275  0.02553012  0.37906489  0.13460121
 -0.19567059  0.06270701 -0.00765266  0.06861015  0.10179104  0.18697576
 -0.02299767  0.03569509 -0.09518486 -0.03300244  0.23574364 -0.10999896
 -0.03785373  0.22557855 -0.00100171  0.10255406  0.01000175  0.01784044
 -0.01141975  0.00680737 -0.13445602  0.02693912 -0.00833761 -0.03510366
  0.03154043  0.11596783 -0.1457781   0.0817668  -0.05469121  0.08622324
  0.00489338  0.00760948 -0.11058845 -0.06491742  0.09662873 -0.18161348
  0.15153743  0.20754381  0.04649679  0.06939497  0.18107863  0.10282862
  0.05621661  0.02223277 -0.17839214 -0.04196286  0.12700431 -0.02281474
  0.06883268  0.05420348]