[-0.11466914  0.10122234  0.09032206 -0.02174775 -0.11569893 -0.02764449
 -0.07047617 -0.17008702  0.0765864  -0.10819621  0.20618489 -0.03556394
 -0.20625429 -0.07197984 -0.03943209  0.2121454  -0.1076437  -0.15554029
 -0.04762656 -0.00486896  0.0669865  -0.02235569  0.04704323  0.02874001
 -0.06985957 -0.30422938 -0.08479966 -0.05871876  0.01312075 -0.02429751
 -0.12701155  0.04272726 -0.15708397 -0.04173226  0.04837247  0.07662293
 -0.03481369 -0.08672066  0.22052781 -0.05272649 -0.25200218  0.04464408
  0.11391189  0.21848373  0.19352043  0.02905861  0.03638276 -0.11046777
  0.11479783 -0.18440931  0.03362721  0.09576766  0.10711696  0.01118018
  0.01631954 -0.18204972  0.01287759  0.06236866 -0.0975134   0.01056039
  0.08594929 -0.10923473 -0.06913051 -0.10140828  0.23653018  0.10462196
 -0.10699891 -0.16984513  0.12680535 -0.1251418  -0.06915122  0.02889218
 -0.17469519 -0.15542689 -0.29282624 -0.00196085  0.37214428  0.11553822
 -0.21142554  0.06231007 -0.00735036  0.03223379  0.12179396  0.15779328
 -0.03679816  0.03953313 -0.10279723 -0.0248714   0.23631807 -0.10146233
 -0.0184405   0.2086577   0.03803967  0.09423561  0.01181345  0.00611289
 -0.04720918  0.00503342 -0.19682983 -0.00639881  0.01345582 -0.01583271
  0.01728432  0.13157891 -0.16366987  0.04508008 -0.01468393  0.04215341
  0.00807403  0.00666678 -0.120869   -0.09067824  0.08141372 -0.17393221
  0.14439903  0.19921836  0.06585099  0.07371186  0.18923143  0.06467208
  0.05481676  0.02675064 -0.20570521 -0.02169189  0.15148354 -0.04176148
  0.06779969  0.04771378]