[-1.10340647e-01  9.13338885e-02  8.74089599e-02 -3.47987488e-02
 -5.96855246e-02 -3.99084501e-02 -8.22193921e-02 -1.32950023e-01
  6.71622381e-02 -9.16936547e-02  2.20192894e-01 -3.54111679e-02
 -1.97849438e-01 -8.19601044e-02 -4.12398539e-02  1.90768465e-01
 -1.74877807e-01 -1.48356840e-01 -1.94077138e-02 -1.66005045e-02
  5.33074439e-02  1.37604522e-02  8.22948013e-03  2.94241905e-02
 -7.48776942e-02 -3.25464636e-01 -9.28545296e-02 -6.22114837e-02
  1.76555943e-02 -5.33061568e-03 -8.91577378e-02  2.28680670e-04
 -1.90991193e-01 -4.54912744e-02  4.15610373e-02  8.81458968e-02
 -1.56950038e-02 -8.20415244e-02  1.87331244e-01 -3.82591560e-02
 -2.47805461e-01  7.57904798e-02  1.15629867e-01  2.32162118e-01
  1.81853041e-01  7.80464560e-02  2.36366894e-02 -1.39830217e-01
  1.16491817e-01 -1.25205040e-01  3.89849767e-02  1.15155652e-01
  8.60442892e-02  2.16012727e-02  3.79480864e-03 -1.86541036e-01
  2.04534288e-02  8.11723992e-02 -1.37655258e-01 -1.63613763e-02
  5.06597422e-02 -8.13290328e-02  5.59329689e-02 -6.56876490e-02
  2.59067506e-01  6.80763051e-02 -9.35198888e-02 -1.46558106e-01
  1.45493791e-01 -1.27991319e-01 -5.66375554e-02  5.19698337e-02
 -1.41238108e-01 -1.59023181e-01 -3.14452410e-01  1.97252817e-02
  3.71907294e-01  8.34146217e-02 -1.65827706e-01  9.39811245e-02
 -1.06353788e-02 -9.91843548e-03  1.71241552e-01  1.60838231e-01
 -4.34680469e-02  5.13543151e-02 -1.08597420e-01 -1.84078068e-02
  2.87449807e-01 -4.43180576e-02 -4.67210039e-02  1.46700487e-01
  2.20132619e-03  6.15653880e-02  6.39666840e-02  2.54373346e-02
 -7.64209479e-02  1.65250730e-02 -1.96291253e-01 -1.39132133e-02
 -1.20848501e-02 -1.87800806e-02 -5.32464683e-03  1.19537964e-01
 -1.43246531e-01  3.99908796e-02  1.83839630e-02 -1.45092802e-02
 -4.92743850e-02  7.20132655e-03 -9.57528725e-02 -5.67731261e-02
  9.30893868e-02 -2.06293806e-01  2.22642288e-01  1.57669023e-01
  6.85576349e-02  1.30366042e-01  1.64917991e-01  5.78817911e-02
 -1.99662372e-02 -2.87050810e-02 -1.83443695e-01 -3.82975638e-02
  1.46263719e-01 -1.59041733e-02  2.06015661e-01  3.79827619e-02]