[-0.14217751  0.12776341  0.12511456 -0.00098371  0.00890347 -0.04591608
 -0.00861645 -0.0913543   0.11106073 -0.05406677  0.25828359 -0.02328785
 -0.23206282 -0.08051578 -0.02556312  0.17936794 -0.16968824 -0.11402495
 -0.1323791  -0.0820675   0.02398847  0.03817996  0.02301558 -0.01431834
 -0.07704373 -0.30621174 -0.08594965 -0.0897915   0.04565383 -0.08161893
  0.0174782   0.01110965 -0.12272867  0.01214519  0.02854306  0.03493195
 -0.00283194 -0.07049807  0.17680393 -0.01935725 -0.17872612 -0.06282689
  0.06623325  0.23352928  0.22695766  0.03248168 -0.0343984  -0.0769292
  0.01791924 -0.23397557  0.03792759  0.11257418  0.0771101   0.09269188
  0.06047294 -0.16797192 -0.03449817  0.04895152 -0.13012676 -0.03863556
 -0.01674594 -0.14487304 -0.08523855 -0.05982649  0.17018363  0.12517412
 -0.1225237  -0.12740675  0.14865935 -0.1531442  -0.02766336  0.05098229
 -0.08710712 -0.12898904 -0.25689033  0.00863009  0.38235074  0.09379394
 -0.19576295  0.02070816 -0.08395152 -0.03015997  0.03792099  0.08875514
 -0.08790001 -0.00310002 -0.08158575  0.00088829  0.14181256 -0.07453991
 -0.02098375  0.1768506  -0.06226726  0.01078422  0.02121526  0.01030072
 -0.04470029 -0.0007066  -0.09663644 -0.08579895  0.07214498 -0.05689124
  0.01142583  0.07102765 -0.16225015  0.09549981  0.05995688 -0.00756093
  0.07079569  0.00962059 -0.0518877  -0.06064912  0.17304567 -0.20021315
  0.19605021  0.19865678 -0.03647204  0.15057337  0.08920803  0.13758303
 -0.02977019 -0.02188427 -0.11406656 -0.0309967   0.03721355  0.01822786
  0.03295537  0.00773515]