[-0.12909606  0.1178228   0.06799961 -0.0414024  -0.0651057  -0.02855053
 -0.04296017 -0.15575708  0.06346249 -0.00844992  0.31771791 -0.07481182
 -0.21311787 -0.09191479 -0.01334107  0.14335577 -0.1212092  -0.11849778
 -0.08722177  0.01557457  0.06107374 -0.08433227  0.00659542  0.04897087
 -0.07059013 -0.32431054 -0.15744179 -0.02411387  0.00399207 -0.05939568
 -0.02443511  0.02933626 -0.14917091 -0.06241445  0.03636559  0.10329922
 -0.02639487 -0.07748183  0.18914095 -0.05974317 -0.16280709  0.02939576
  0.07202058  0.24997286  0.25648308  0.05694401  0.05368051 -0.0902423
  0.05675305 -0.195325    0.07256025  0.12264271  0.08604126  0.05703641
 -0.01404926 -0.19219778 -0.00311869  0.0945076  -0.12530135 -0.02091531
  0.01861197 -0.126692   -0.08831178 -0.07118369  0.19169372  0.15743162
 -0.13732162 -0.2059046   0.1383778  -0.11220347 -0.06422244  0.03596985
 -0.20935272 -0.1564903  -0.36920467  0.04096202  0.45784637  0.03811419
 -0.25425014  0.02927035 -0.05103321  0.01095392  0.06331438  0.1073113
 -0.04574188 -0.00842315 -0.17846014  0.01056658  0.19502132 -0.07462799
 -0.06786745  0.16681963 -0.00846097  0.06667721  0.0744971   0.11925681
 -0.01916371  0.00461001 -0.16932409 -0.03054494  0.06140218 -0.02166704
 -0.03352537  0.11710041 -0.16410778  0.15101968  0.03876838  0.04628557
 -0.03675888 -0.08512454 -0.08666645 -0.00559008  0.16836099 -0.24089912
  0.14028601  0.19374567  0.039808    0.11828428  0.14497447  0.07691658
  0.01273901  0.00816302 -0.19072077 -0.01413302  0.01926797  0.03074644
  0.06299936  0.05986142]