[-0.12814099  0.1170491   0.04580411 -0.0282802  -0.05088402 -0.01588712
 -0.02002223 -0.1259257   0.10738865 -0.00880868  0.35537943 -0.04624039
 -0.22420323 -0.12340029  0.03053564  0.15059932 -0.18748657 -0.09185014
 -0.08317691  0.01936554  0.08244548 -0.07032385  0.06235841  0.07258547
 -0.09046226 -0.36981937 -0.11516571 -0.09330976  0.06617381 -0.11294021
 -0.08377319  0.03827833 -0.16133063 -0.06990937  0.03227652  0.12417781
 -0.02820695 -0.08895288  0.20387633 -0.06292583 -0.16892779  0.0309002
  0.0402591   0.23306036  0.20560543  0.06084123  0.04999281 -0.08828269
  0.08433636 -0.18874736  0.09166548  0.125643    0.1170335   0.03851999
  0.0489428  -0.18374653 -0.0248291   0.10171547 -0.1099764   0.01915229
  0.01100463 -0.10090853 -0.04967683 -0.09433216  0.19870691  0.14214899
 -0.11292683 -0.13088615  0.13341597 -0.06900295 -0.07602841  0.04567361
 -0.19923657 -0.1901034  -0.30759585  0.02521964  0.39384761  0.07119783
 -0.28012845  0.01776106 -0.03854448 -0.00818253  0.08831098  0.12908176
 -0.04920994  0.02390846 -0.1759738   0.03539167  0.19586046 -0.07649813
 -0.02918551  0.21055023 -0.02466458  0.08836023  0.06206917  0.04939664
 -0.02737843 -0.00716961 -0.17334664 -0.0583537   0.0993353  -0.03667251
 -0.0561152   0.09299061 -0.16947909  0.06397142  0.03953614  0.03098512
  0.01108486 -0.05888923 -0.08506539 -0.02440341  0.14794169 -0.2471811
  0.20722888  0.21195601  0.01931244  0.11235555  0.10574172  0.06874501
  0.01985227 -0.03133333 -0.19295211 -0.01531963  0.09080915  0.03071419
  0.04918981  0.01046529]