[-0.10063795  0.13903545  0.11202661 -0.03295311 -0.07328515 -0.02931444
 -0.05428034 -0.16323774  0.09242766 -0.06814687  0.30086228 -0.04709543
 -0.21484767 -0.0781428  -0.00676825  0.18654084 -0.20548756 -0.10049536
 -0.09025175  0.03535316  0.04716194 -0.06074915  0.05215312  0.03126306
 -0.03024776 -0.35964254 -0.13337938 -0.05600259  0.03293907 -0.04176844
 -0.06799484  0.02303917 -0.11106036 -0.0416113   0.0302584   0.09884425
 -0.06884291 -0.09481255  0.18160306 -0.08321226 -0.21360822 -0.00595591
  0.07183757  0.19811921  0.27438787  0.06674049  0.02143252 -0.10042758
  0.0551345  -0.22068755  0.06395008  0.13264696  0.07637265  0.08304214
  0.02883049 -0.19053371  0.01307817  0.1026473  -0.10508039 -0.03112931
  0.02592382 -0.14123942 -0.00714361 -0.02389842  0.19567974  0.15296619
 -0.10341314 -0.16155671  0.13441809 -0.13160865 -0.07498291  0.02467068
 -0.19473045 -0.18006782 -0.31868914 -0.02557848  0.42173576  0.08742743
 -0.21327244 -0.01041409 -0.0532728  -0.02266805  0.1022013   0.12296136
 -0.04978509 -0.04645073 -0.17197128 -0.01227591  0.20414995 -0.11180805
 -0.03076217  0.20852843 -0.01694685  0.05261127  0.04187331  0.05502565
 -0.01470814  0.03470662 -0.19455171 -0.06793944  0.05424516 -0.03468419
 -0.04092965  0.11226168 -0.1820852   0.07505631  0.04069648  0.03850146
  0.02531223 -0.07325969 -0.10381007 -0.05213999  0.19317348 -0.18264429
  0.18133786  0.24755993  0.04395057  0.11670077  0.13733855  0.08366093
  0.01456764 -0.06323425 -0.17991059  0.0110527   0.06039038  0.03381642
  0.03832154  0.03653123]