[-0.14284293  0.10574364  0.03252909 -0.05190164 -0.04528468 -0.01595882
 -0.02970296 -0.13439684  0.09586471 -0.01735031  0.34145993 -0.06735765
 -0.2167857  -0.16100757  0.02403577  0.15677415 -0.211705   -0.12610884
 -0.06653505  0.0110746   0.06833941 -0.07760578  0.04790094  0.06876948
 -0.10492505 -0.35476077 -0.12421646 -0.09350748  0.04221445 -0.10140264
 -0.07254773  0.07931297 -0.16887625 -0.05145078  0.03851901  0.14486569
 -0.01111075 -0.06968963  0.19530447 -0.03218509 -0.15596096  0.01932975
  0.04376522  0.23890598  0.22318144  0.04846467  0.04039341 -0.06428593
  0.11002419 -0.16293019  0.04938215  0.15202926  0.12523299  0.04421471
  0.05548384 -0.17099737  0.00644206  0.0951996  -0.10016996  0.00336866
  0.00146831 -0.14555021 -0.02396682 -0.08381199  0.19123153  0.10614824
 -0.09242731 -0.14460297  0.16856928 -0.04503242 -0.0836693   0.06252797
 -0.2150528  -0.17608011 -0.3145467   0.02298303  0.38991717  0.07491098
 -0.25619483  0.04372554 -0.01861305 -0.02365626  0.07771325  0.14437665
 -0.05336834  0.03392541 -0.18852173  0.02335547  0.19667906 -0.06334712
 -0.02680318  0.18485022 -0.03594844  0.10190152  0.07602199  0.01431062
 -0.0171873   0.00098898 -0.16160376 -0.05065141  0.05826066 -0.05842383
 -0.06013529  0.08597495 -0.12931122  0.04579151  0.03286419  0.03149011
 -0.06978352 -0.06194442 -0.05999136  0.00340932  0.1234794  -0.25983006
  0.19378211  0.20908742  0.0207359   0.11029749  0.1035308   0.07083172
 -0.00421102 -0.03358121 -0.16897616 -0.03208657  0.08089896  0.04055221
  0.06022605  0.01465759]