[-0.09013453  0.11650111  0.05240048 -0.06157395  0.01450851 -0.01284103
  0.00356912 -0.11889546  0.10728996 -0.03063296  0.3413372  -0.04882983
 -0.21931115 -0.16635157  0.0132568   0.14514278 -0.17737882 -0.10228012
 -0.08262359  0.00688047  0.1003355  -0.06901367  0.04440033  0.03250975
 -0.09049415 -0.37095475 -0.13437733 -0.08548903  0.07493573 -0.06529509
 -0.02929596  0.05069623 -0.14980815 -0.03712367  0.02494601  0.07899553
  0.00513862 -0.08099644  0.17020079 -0.02689731 -0.17323172  0.06431039
  0.01573853  0.23957358  0.22033945  0.05072224  0.07346165 -0.12288275
  0.07674292 -0.1758078   0.08805126  0.10798062  0.07838881  0.02681734
  0.0872248  -0.18826337 -0.00843037  0.07747175 -0.1391836   0.0242352
 -0.01222278 -0.09514372 -0.04672321 -0.07529227  0.14065848  0.11113451
 -0.12462723 -0.15494332  0.18494497 -0.07725525 -0.03292358  0.06695639
 -0.18291034 -0.18038885 -0.31874323  0.057748    0.43367836  0.10384689
 -0.2564151   0.05214372 -0.03750147  0.00219571  0.13001467  0.15252194
 -0.04786525  0.00792979 -0.15983537  0.02773715  0.16419703 -0.05480414
 -0.07639923  0.21047103 -0.05202845  0.08501094  0.05080279  0.05531171
 -0.03995767  0.02389097 -0.16650702 -0.05469927  0.08710598 -0.04406239
 -0.05931691  0.10063274 -0.13943291  0.08054652  0.03946707  0.02489127
 -0.01440664 -0.05053618 -0.05835977  0.02314632  0.11820185 -0.26540905
  0.19801401  0.21359833  0.04705907  0.11544152  0.13294375  0.05002565
  0.04186884 -0.0673671  -0.2011752  -0.01905904  0.04900756  0.03821704
  0.04961654  0.00710922]