[-0.09543582  0.12915707  0.05382897 -0.01283895 -0.03285997  0.00243408
 -0.02468918 -0.15967958  0.11593588 -0.06689543  0.34324622 -0.04674576
 -0.20936012 -0.11957603  0.02192563  0.18563703 -0.20395723 -0.12977457
 -0.08596814  0.00351857  0.07978413 -0.04045575  0.04970526  0.05751466
 -0.07905471 -0.34030908 -0.09725332 -0.08738594  0.06035647 -0.08704227
 -0.09965476  0.0141561  -0.16967705 -0.0659221   0.05199272  0.09726991
 -0.02758816 -0.07277786  0.20510426 -0.05844765 -0.17094223  0.05198899
  0.04565076  0.2339354   0.19598459  0.0711797   0.01533635 -0.12922259
  0.08364972 -0.19102894  0.06539793  0.11476471  0.10064288  0.04662128
  0.00742343 -0.20547037 -0.01707428  0.08579737 -0.10777675  0.00977139
  0.02635262 -0.11900411 -0.05558704 -0.05891979  0.2099558   0.11864991
 -0.11026715 -0.16082937  0.10695882 -0.06730362 -0.06838553  0.05255323
 -0.18696216 -0.1744743  -0.29830271 -0.00323367  0.41522178  0.03315964
 -0.27239367  0.01005778 -0.03800087  0.01175406  0.12282896  0.12961411
 -0.03528001 -0.00412309 -0.17260526  0.03541419  0.1996095  -0.09487235
 -0.03543036  0.20645788 -0.02775784  0.09069815  0.04767163  0.06040663
 -0.03057982  0.01978656 -0.18045245 -0.06639006  0.08106121  0.01115113
 -0.04593159  0.1084039  -0.17076893  0.07002058  0.02973466  0.02966677
  0.0306423  -0.06107372 -0.08546324 -0.03884463  0.1379441  -0.2376879
  0.19003923  0.22373675  0.02902506  0.1077394   0.10388242  0.05814309
  0.01061842 -0.02061474 -0.24422355 -0.00222394  0.09927794  0.02432708
  0.05476445 -0.00400154]