[-8.37346837e-02  1.51411995e-01  5.26882671e-02 -3.41517143e-02
 -3.29391137e-02  3.20014060e-02 -9.66371521e-02 -1.41415462e-01
  5.60948439e-02 -5.88365011e-02  3.42599064e-01 -5.35904951e-02
 -2.37298951e-01 -1.39474556e-01 -1.79284631e-04  1.68129668e-01
 -1.72217369e-01 -1.21334456e-01 -8.92464519e-02 -1.35599254e-02
  7.72815719e-02 -2.92896237e-02  1.67217981e-02  2.72814035e-02
 -1.39527485e-01 -3.73727411e-01 -1.43398389e-01 -4.75115478e-02
  1.65808517e-02 -9.89985093e-02 -4.64365259e-02  9.05042049e-03
 -1.36279464e-01 -2.76369583e-02  5.12499213e-02  6.97052255e-02
 -8.17788020e-03 -8.23338851e-02  2.01164722e-01 -7.73702282e-03
 -1.66415915e-01  8.78384188e-02  5.51995821e-02  2.69637376e-01
  2.46978506e-01  6.33597001e-02  7.21017793e-02 -1.13599233e-01
  9.89926383e-02 -1.69553623e-01  1.00173488e-01  1.57538384e-01
  9.10556540e-02  5.69938198e-02  8.68982729e-03 -1.59918949e-01
 -3.31560075e-02  1.19942032e-01 -1.28965691e-01  9.96944378e-04
  3.91208045e-02 -1.17141940e-01 -6.61657229e-02 -6.16131611e-02
  1.42104670e-01  1.24278776e-01 -1.42884672e-01 -1.97237849e-01
  1.60465419e-01 -8.92360508e-02 -7.68278167e-02  9.70693585e-03
 -2.10261032e-01 -1.76148638e-01 -3.58389944e-01  6.10778332e-02
  4.43812132e-01  6.76701590e-02 -2.46808872e-01  4.26143222e-02
 -8.12537875e-03 -6.71339547e-03  9.21579972e-02  1.49940774e-01
 -4.01347168e-02 -4.73542400e-02 -1.11664020e-01  6.08227551e-02
  2.06067786e-01 -4.77808416e-02 -5.93042076e-02  1.98225126e-01
 -2.06606425e-02  7.17818663e-02  7.98096880e-02  1.08684324e-01
 -4.49810699e-02  1.65296402e-02 -1.27245724e-01  8.07296485e-03
  4.23147902e-02 -3.99899445e-02 -2.27646474e-02  1.17569737e-01
 -1.47554323e-01  1.61476240e-01  3.43432203e-02  3.79936062e-02
  1.70268340e-03 -3.02034151e-02 -8.82450640e-02 -1.60160474e-02
  1.47082329e-01 -2.62981981e-01  1.65062904e-01  2.14328557e-01
  6.39783740e-02  1.21764377e-01  1.56243548e-01  9.41997617e-02
  3.80305871e-02 -8.23043566e-03 -2.35325962e-01 -5.84582947e-02
  2.94783600e-02  2.97154319e-02  5.95576726e-02  3.24837379e-02]