[-0.11807231  0.05845774  0.05895592 -0.01395694 -0.03711312 -0.03196613
  0.00822195 -0.1160559   0.08863952  0.00114447  0.34348962 -0.0773996
 -0.21681654 -0.1461986   0.02624224  0.13555251 -0.14717898 -0.11051083
 -0.09738854 -0.00546357  0.08439602 -0.0940101   0.00716494  0.06132134
 -0.09873263 -0.36336342 -0.12117674 -0.08546165  0.04466705 -0.10061779
 -0.02724986  0.07763576 -0.15756078 -0.06769609  0.04702408  0.132119
  0.00076056 -0.09169403  0.18851408 -0.08941101 -0.17309593  0.04929844
  0.05572442  0.22877324  0.17650577  0.0320341   0.04042306 -0.05929605
  0.0881274  -0.19337125  0.05074224  0.14342682  0.09599559  0.04512235
  0.03317746 -0.15293786 -0.0131883   0.10164464 -0.16461465  0.01417077
 -0.01161345 -0.13639395 -0.06798936 -0.07824608  0.15269789  0.15304053
 -0.11229316 -0.15314142  0.15390573 -0.10064162 -0.03984661  0.03899977
 -0.20272098 -0.18811628 -0.30589497  0.06116363  0.42206851  0.04958872
 -0.27093837  0.04799777 -0.04132951  0.00350649  0.07872549  0.10826869
 -0.02807235  0.03199345 -0.16508591  0.04263888  0.19535485 -0.06657252
 -0.02321468  0.19806583 -0.02188188  0.0543618   0.08300468  0.04897421
 -0.00657272 -0.02448766 -0.18278921 -0.03727021  0.08779915 -0.04719954
 -0.03410604  0.06367293 -0.14668439  0.06570515  0.04792209  0.01292973
 -0.01135614 -0.05142221 -0.07992938 -0.02763252  0.14607492 -0.24789765
  0.20261236  0.19697946  0.04142919  0.11699285  0.09856888  0.06066813
  0.02664127 -0.04453826 -0.14852493 -0.02481133  0.06331932  0.05365152
  0.02324089 -0.00307657]