[-0.08055215  0.14569187  0.11288061 -0.02873288 -0.05881438 -0.02490866
 -0.02050187 -0.13316011  0.09818026 -0.04612011  0.32731959 -0.03596001
 -0.21306498 -0.09476378  0.01184703  0.1907984  -0.20014428 -0.10412104
 -0.09432416  0.02499821  0.03897951 -0.06043942  0.07134967  0.0337017
 -0.05014043 -0.33918077 -0.12701377 -0.07487323  0.06133613 -0.0658832
 -0.06936681  0.02374268 -0.12015828 -0.03074727  0.04150198  0.06942974
 -0.03615126 -0.09441946  0.20525451 -0.06403311 -0.20462321 -0.00400202
  0.05685813  0.18367395  0.27812332  0.06457233  0.02389577 -0.09704261
  0.04476601 -0.20043714  0.07509351  0.12122058  0.08202805  0.07476187
 -0.00081893 -0.20560037 -0.01595209  0.10891221 -0.12274734 -0.03743989
  0.01452663 -0.15123487 -0.02593335 -0.02949909  0.20008408  0.15834795
 -0.11416443 -0.17298986  0.1594318  -0.13250594 -0.05467526  0.03533169
 -0.18901956 -0.14546059 -0.29664999 -0.01405651  0.39262667  0.07715468
 -0.22860463 -0.026691   -0.07171633 -0.0131259   0.06077281  0.13476318
 -0.05313121 -0.05420387 -0.16496792 -0.02899745  0.184953   -0.10193043
 -0.01912892  0.20708941 -0.03165344  0.05999825  0.03033647  0.03870539
 -0.03004916  0.02325985 -0.1637862  -0.06963157  0.00794511 -0.03056848
 -0.0421813   0.13110076 -0.17791282  0.07012515  0.0194009   0.02272127
  0.01281086 -0.06259295 -0.0526776  -0.06694958  0.17175111 -0.18773536
  0.1816683   0.23903401  0.0324126   0.11293481  0.1171871   0.11264467
  0.01221871 -0.05338282 -0.19244593  0.02255166  0.05313657  0.00405142
  0.03994456  0.02642099]