[-0.12213657  0.10469399  0.05694662 -0.02078651 -0.05621604 -0.00745998
 -0.00933376 -0.1349055   0.11969862 -0.03135096  0.3325538  -0.042381
 -0.22338557 -0.10736455  0.02152925  0.16208576 -0.18197076 -0.12156542
 -0.07883018  0.03166366  0.07961466 -0.06186431  0.05151437  0.07498931
 -0.08081961 -0.36468092 -0.11645027 -0.09306508  0.06229536 -0.10502633
 -0.09872993  0.05173383 -0.16021131 -0.06523661  0.03051199  0.13061433
 -0.02595006 -0.0949388   0.19178486 -0.06059634 -0.18311976  0.03739523
  0.03724154  0.23730241  0.19085453  0.04505356  0.05451648 -0.09432761
  0.07901001 -0.18455945  0.08828102  0.1224268   0.11338641  0.04842546
  0.05073015 -0.19254704 -0.01818325  0.09377331 -0.09992077  0.03732234
  0.0232696  -0.10398819 -0.04539767 -0.09605245  0.18569563  0.12679447
 -0.10140368 -0.14259015  0.12491208 -0.07433821 -0.08449372  0.04548846
 -0.20981503 -0.18959606 -0.30635312  0.02095193  0.38464278  0.07935729
 -0.27573812  0.0330072  -0.01957478  0.00828926  0.09356131  0.1451772
 -0.03837859  0.04623456 -0.18164143  0.03997611  0.19002208 -0.07313521
 -0.03139409  0.20954128 -0.02825337  0.07419852  0.06531215  0.05533748
 -0.01598809 -0.00737933 -0.18567239 -0.06378911  0.10136217 -0.02483975
 -0.0624674   0.08969237 -0.15839672  0.05667186  0.02419117  0.03864762
  0.00503734 -0.06106235 -0.08996701 -0.01720956  0.14563972 -0.23773117
  0.19672039  0.21366599  0.01717506  0.10406893  0.10156415  0.06790808
  0.01361139 -0.03413732 -0.19923261 -0.01478103  0.10473771  0.03732318
  0.04654066  0.01411453]