[-0.1082572   0.1409625   0.1094231  -0.02910707 -0.00973582 -0.02766195
 -0.01160476 -0.14795224  0.13000146 -0.05833717  0.31360826 -0.03134219
 -0.23155145 -0.12926097  0.0180936   0.191384   -0.22485606 -0.13584602
 -0.12344228  0.00254943  0.02217163 -0.02460494  0.05936734 -0.00648624
 -0.05867572 -0.33851776 -0.11313691 -0.10354455  0.09071694 -0.03042126
 -0.03411594  0.01362398 -0.16350965 -0.04123957  0.07560726  0.05626673
  0.00512063 -0.05405085  0.18919668 -0.10625345 -0.21841137 -0.03418243
  0.06930824  0.1713824   0.23100185  0.05603797 -0.01492494 -0.10988408
  0.02829303 -0.21518473  0.02703335  0.1317427   0.08315908  0.07234229
  0.0344259  -0.20810576 -0.03639503  0.11015288 -0.13124548 -0.06490483
 -0.02806967 -0.13865024 -0.06657065 -0.05237044  0.17970119  0.10369394
 -0.12975544 -0.1627105   0.14737898 -0.12087335  0.00074677  0.0624394
 -0.14112283 -0.15417738 -0.27931881 -0.0385937   0.37778723  0.05202721
 -0.22039758  0.03180348 -0.09613162 -0.02015222  0.01477153  0.08366569
 -0.06501199  0.01699538 -0.11322524 -0.00795816  0.16079143 -0.12619939
  0.04686856  0.20421641 -0.07614111  0.03778793  0.0075687   0.02476809
 -0.01788444 -0.00555819 -0.15862094 -0.08112571  0.05251798 -0.02361125
 -0.01122627  0.08810545 -0.21226957  0.04340852  0.04915025 -0.00646841
  0.04394566 -0.0611113  -0.01203575 -0.07301566  0.18654242 -0.22874534
  0.21355355  0.25074536 -0.03428671  0.14380358  0.08646756  0.08894157
 -0.0175076  -0.0564369  -0.16588186 -0.01813383  0.0732912  -0.00482106
  0.01569501 -0.01932613]