[-1.38625368e-01  1.25798151e-01  6.55229613e-02  4.09930944e-04
 -4.67639230e-02 -2.48045009e-02 -2.64069140e-02 -1.53524712e-01
  1.25393644e-01 -6.10697269e-02  3.47491950e-01 -2.05729734e-02
 -2.31045827e-01 -1.26082733e-01  8.25086422e-03  1.66462868e-01
 -1.77820638e-01 -1.24189451e-01 -6.64522573e-02  1.52422150e-03
  1.08959429e-01 -5.91416135e-02  6.16619252e-02  8.45723227e-02
 -7.56974295e-02 -3.34480375e-01 -1.08061887e-01 -1.00466743e-01
  6.38184175e-02 -8.47762749e-02 -1.02075472e-01  1.66605283e-02
 -1.77023321e-01 -7.97202513e-02  3.76213193e-02  1.00173011e-01
 -8.39674380e-03 -9.61805284e-02  1.84625313e-01 -1.20339729e-01
 -1.79763749e-01  5.61222024e-02  5.23123853e-02  1.92343533e-01
  1.70117781e-01  4.21063937e-02  3.45827490e-02 -9.68751833e-02
  6.09775260e-02 -1.64274082e-01  5.63546903e-02  1.18000738e-01
  1.15285508e-01  2.70470977e-02  3.35868634e-02 -2.29213476e-01
 -3.42540853e-02  1.04833283e-01 -9.30890664e-02  7.94740114e-03
  2.44690361e-03 -1.27363443e-01 -5.23837470e-02 -6.76663816e-02
  1.80512682e-01  1.23951077e-01 -1.06498674e-01 -1.68391705e-01
  1.13596164e-01 -7.31504932e-02 -1.90914366e-02  9.15909186e-02
 -1.99115679e-01 -1.88988253e-01 -2.39485100e-01  4.22310233e-02
  4.11642641e-01  6.33520707e-02 -2.37541392e-01  5.31303287e-02
 -5.32460473e-02  2.40608789e-02  6.79917559e-02  1.14137270e-01
 -1.96209196e-02  9.01761558e-03 -1.83307678e-01  4.13926281e-02
  1.59600943e-01 -7.50297606e-02 -1.68958250e-02  2.11920738e-01
 -3.23313363e-02  7.34085441e-02  4.72634733e-02  4.00704406e-02
 -4.10764813e-02  1.60252172e-02 -1.41653180e-01 -4.73116152e-02
  7.66088292e-02 -1.70479212e-02 -4.33100909e-02  6.60825893e-02
 -1.39529273e-01 -2.81242724e-03  7.81663973e-03  4.30664904e-02
  1.99314989e-02 -3.00421454e-02 -7.80629143e-02 -4.71450128e-02
  1.07062452e-01 -2.58609384e-01  2.16332942e-01  1.97177842e-01
  8.81815981e-03  1.30472407e-01  9.61815044e-02  7.94664249e-02
  3.65849398e-02 -3.96634229e-02 -1.92847714e-01 -1.33823426e-02
  1.16894923e-01  8.91782995e-03  6.11318462e-02 -1.84691884e-02]