[-5.89172952e-02  1.31366059e-01  1.75719149e-02 -3.97063904e-02
  2.76570034e-04 -1.11727361e-02 -1.27241318e-03 -1.32063553e-01
  1.49076000e-01 -5.85121177e-02  3.45826715e-01 -4.68621179e-02
 -2.39085749e-01 -1.49463490e-01  1.58214550e-02  1.70762688e-01
 -1.60244092e-01 -1.07291363e-01 -1.13466538e-01  1.53992297e-02
  4.98708673e-02 -8.41431171e-02  3.21812294e-02  6.95776641e-02
 -6.56297058e-02 -3.01901996e-01 -1.13207690e-01 -1.00989163e-01
  3.09904646e-02 -1.04739062e-01 -6.94194660e-02  1.15772588e-02
 -1.55365512e-01 -1.04464591e-01  9.90049075e-03  6.42505884e-02
 -3.61413471e-02 -8.45513269e-02  2.10220769e-01 -7.66088367e-02
 -1.68786243e-01  5.00089899e-02  1.15054846e-02  2.40097985e-01
  2.28132114e-01  4.44571450e-02  4.09992561e-02 -1.43186837e-01
  7.60494620e-02 -1.64439186e-01  4.01176400e-02  1.00633256e-01
  1.01976298e-01  4.61379588e-02  6.89610234e-03 -1.81664988e-01
  2.85599586e-02  1.00237571e-01 -1.46081865e-01 -1.62537117e-02
  3.43205333e-02 -1.31256372e-01 -4.69110832e-02 -3.51977125e-02
  1.75940230e-01  1.11287296e-01 -6.66427836e-02 -1.74276754e-01
  1.86440706e-01 -1.05382361e-01 -4.65808176e-02  5.15859090e-02
 -1.72837466e-01 -1.90129384e-01 -2.97372729e-01  4.62230388e-03
  4.03890818e-01  8.49457532e-02 -2.35999063e-01  5.06919809e-02
 -5.83411865e-02  1.15550729e-02  1.37022302e-01  7.85205886e-02
 -3.37684453e-02 -4.97218780e-02 -1.63058668e-01  3.38316336e-02
  2.11834177e-01 -8.53717849e-02 -3.52349877e-02  1.49362668e-01
 -1.92331374e-02  2.69767474e-02  7.51494542e-02  2.68027782e-02
 -2.28176708e-03  8.59296918e-02 -1.67443618e-01  1.64849516e-02
  7.48265907e-02 -6.13286979e-02 -1.93355288e-02  7.28294402e-02
 -1.73415214e-01  7.73357376e-02  5.40369451e-02  1.46889780e-02
  2.01780256e-02 -4.51802202e-02 -9.21523497e-02 -6.35018293e-03
  1.82874426e-01 -2.47428566e-01  2.31535673e-01  2.04989120e-01
  3.92800272e-02  1.07555747e-01  9.42771286e-02  1.06336311e-01
  3.01754917e-03 -4.84179668e-02 -2.50782549e-01 -1.72742587e-02
  7.61790946e-02  3.66509780e-02  1.05933502e-01  2.16844380e-02]