[-0.08474261  0.11383923  0.06774681 -0.04337786 -0.04809271 -0.02678298
 -0.02608204 -0.15117453  0.10512169 -0.01390526  0.36559892 -0.05104355
 -0.20899959 -0.13781004  0.0087268   0.19526479 -0.16165188 -0.12276375
 -0.0969656   0.00696963  0.0776912  -0.02121113  0.07092991  0.0595961
 -0.11341436 -0.34869391 -0.10769527 -0.04921052  0.06184393 -0.10122561
 -0.08537472  0.07968614 -0.17531608 -0.07601772  0.07497618  0.12569986
 -0.02442481 -0.08153738  0.20890462 -0.0393652  -0.21770187  0.0419859
  0.08103889  0.23496225  0.22071028  0.04990195  0.05441009 -0.11953449
  0.02184747 -0.15804161  0.06861853  0.11960372  0.08258167  0.03183961
  0.00840764 -0.177361   -0.04475575  0.11185075 -0.11470003 -0.02426365
  0.03391625 -0.1046318  -0.06060097 -0.07317727  0.2082191   0.12088501
 -0.12250066 -0.17344736  0.1316366  -0.08641992 -0.08717558  0.07735933
 -0.18974112 -0.15813495 -0.32224035 -0.00280582  0.41551802  0.02340578
 -0.28019288  0.03535526 -0.02382877 -0.00308372  0.10402723  0.13591225
 -0.04256448  0.05650944 -0.15965152  0.02939553  0.21685632 -0.06744833
 -0.03352221  0.21801579 -0.00712433  0.07671579  0.07809981  0.0688746
 -0.01657293  0.0042238  -0.20012052 -0.08430134  0.0772429   0.01273704
 -0.02920712  0.13239551 -0.14881764  0.079701    0.03942956  0.02508712
  0.02129581 -0.03899425 -0.06247288 -0.07774668  0.13708645 -0.23380533
  0.15372643  0.20710774  0.03161067  0.07919542  0.1414734   0.08149668
  0.02333644 -0.01943343 -0.19899268  0.0123994   0.10141072 -0.00583332
  0.09864495  0.00575568]