[-0.12324028  0.1276321   0.0911225  -0.01186799 -0.01647927  0.00608215
 -0.02254274 -0.16850963  0.07879313 -0.07911148  0.34464261 -0.06689336
 -0.24196272 -0.18449095  0.02490725  0.16712128 -0.16214009 -0.13722339
 -0.07223639  0.0097033   0.04734096 -0.07629513  0.04308025  0.01373411
 -0.07348698 -0.34767017 -0.11325756 -0.06828464  0.00987622 -0.06630086
 -0.06878591  0.05189129 -0.14213397 -0.04156329  0.02722896  0.13567261
 -0.00400747 -0.05820894  0.18276812 -0.09191525 -0.1708485   0.0009786
  0.0676034   0.20781426  0.20740934  0.02855378  0.02698805 -0.08229131
  0.04618661 -0.15795915  0.07410578  0.13273284  0.09231633  0.04683436
  0.0274929  -0.191846   -0.0038204   0.09360432 -0.07821562 -0.01378497
  0.02729582 -0.14535037 -0.05233023 -0.03117632  0.15581678  0.10569093
 -0.08648827 -0.1865117   0.1359546  -0.10722759 -0.05887331  0.04326008
 -0.20386305 -0.17164229 -0.31693819  0.02597116  0.41276702  0.07895335
 -0.23889475  0.04332509 -0.01922589 -0.02912591  0.11238623  0.15402579
 -0.02316616  0.01214515 -0.16985692  0.0039823   0.17636302 -0.05309279
 -0.03591394  0.19018915 -0.02944577  0.06041635  0.07204723 -0.00399033
  0.01986165  0.02203008 -0.16876355 -0.04732498  0.02538592 -0.07563057
 -0.05679145  0.08712964 -0.16341434  0.0535424   0.03676023  0.05061809
  0.01051665 -0.04658443 -0.06330186 -0.04039219  0.15167563 -0.23251729
  0.13870239  0.23131256  0.05090312  0.12546419  0.14541373  0.11748692
  0.04444888 -0.01943159 -0.19952933 -0.00457736  0.04299667  0.02009265
  0.04948407  0.03335556]