[-0.12290668  0.14712885  0.10091702  0.00551349 -0.01692283 -0.02230711
  0.00954093 -0.19973134  0.09210014 -0.0737143   0.33152181 -0.03074458
 -0.24158585 -0.15970145  0.02225345  0.17271075 -0.1662567  -0.14819355
 -0.09351619  0.00225341  0.04891955 -0.04954678  0.0480813   0.03309339
 -0.09195623 -0.30699226 -0.13020414 -0.08569281  0.02227586 -0.04915936
 -0.05246957  0.02088218 -0.15714829 -0.05608672  0.04010053  0.09472712
  0.00092172 -0.06122574  0.18947123 -0.08532051 -0.18593624 -0.01767268
  0.08650573  0.18651202  0.21164571  0.03591662  0.01779352 -0.07043401
  0.00819399 -0.16099797  0.04025267  0.10614035  0.08165599  0.05802117
  0.03367079 -0.22415729 -0.04641281  0.09243317 -0.08640261 -0.02532062
 -0.01378325 -0.17035607 -0.06087458 -0.03885285  0.15241461  0.10950737
 -0.09013174 -0.18285316  0.1504247  -0.141067   -0.07058262  0.04839488
 -0.16681445 -0.14131503 -0.31802219 -0.01499337  0.40618268  0.07673737
 -0.22769713  0.03590429 -0.04862691 -0.02103787  0.06282064  0.12000813
 -0.00690078  0.0219415  -0.15525685 -0.01372932  0.16740118 -0.06133009
 -0.01375783  0.19421254 -0.06396847  0.04809637  0.05301771  0.00135882
 -0.01136436  0.01327266 -0.14690834 -0.06368447  0.01771475 -0.045835
 -0.02410424  0.09428649 -0.1732465   0.03401041  0.03560105  0.02735105
 -0.00081698 -0.02448832 -0.07347463 -0.03921355  0.16141224 -0.23396902
  0.18060881  0.23839715 -0.03277322  0.11866193  0.12635039  0.10737367
  0.01407741 -0.02012003 -0.19033419 -0.03282195  0.05250975 -0.01372448
  0.0668337   0.01813932]