[-9.48128328e-02  1.34182319e-01  6.19230084e-02 -9.64414328e-03
 -1.53838489e-02 -1.22019509e-02 -1.10325182e-03 -1.39313743e-01
  9.69559476e-02 -2.62655020e-02  3.42406392e-01 -2.47367676e-02
 -2.43593618e-01 -1.25937313e-01  2.14718431e-02  1.64191112e-01
 -1.33055314e-01 -9.81335267e-02 -7.38674179e-02  2.29957011e-02
  9.30111930e-02 -7.92793334e-02  7.31927752e-02  1.80346761e-02
 -5.27346991e-02 -3.22556138e-01 -1.37692079e-01 -2.85584386e-02
  5.72170280e-02 -8.74782130e-02 -3.34626511e-02  1.09767914e-02
 -1.71512797e-01 -5.15278466e-02  2.54121479e-02  9.47517753e-02
 -5.11946063e-03 -8.41263980e-02  1.90804824e-01 -4.07029092e-02
 -1.54340163e-01  4.12830450e-02  5.23403957e-02  2.11503848e-01
  2.03814730e-01  7.26444945e-02  5.53801134e-02 -1.30323991e-01
  3.94144729e-02 -1.81016669e-01  8.64232704e-02  7.47319907e-02
  8.11335519e-02  3.69511358e-02  3.34245265e-02 -2.05680087e-01
  9.96854343e-03  7.88859725e-02 -1.18686311e-01 -5.24659781e-03
  5.47422701e-03 -8.47020373e-02 -6.59817681e-02 -4.99989353e-02
  1.70620278e-01  1.06931329e-01 -7.47499242e-02 -1.83156475e-01
  1.59311384e-01 -1.00576721e-01 -6.10531084e-02  7.24474341e-02
 -1.62734553e-01 -1.55151367e-01 -3.28450143e-01  1.46344500e-02
  4.08675194e-01  5.35107367e-02 -2.33739808e-01  5.31599335e-02
 -4.18937840e-02 -1.39377269e-04  8.95799473e-02  9.59594920e-02
 -3.55944522e-02 -2.67889048e-03 -1.81623310e-01  1.64272636e-03
  2.07889065e-01 -7.55160972e-02 -4.74566408e-02  2.04568222e-01
 -4.15515527e-03  6.95525706e-02  5.99939786e-02  4.95643578e-02
  8.45442526e-03  2.00770684e-02 -1.76409960e-01 -7.35564157e-02
  5.49798794e-02 -5.74952960e-02 -5.44562340e-02  9.42783877e-02
 -2.24833563e-01  6.41542003e-02  3.99310701e-02  1.16982264e-02
  1.57264657e-02 -4.62876037e-02 -9.32318792e-02 -3.57835367e-03
  1.36144429e-01 -2.90228307e-01  1.83212206e-01  2.44592071e-01
  2.82043200e-02  9.38026533e-02  1.14401139e-01  9.84578356e-02
  3.81659046e-02 -3.10107358e-02 -1.94942102e-01 -1.68970320e-02
  3.53677534e-02  1.86959598e-02  2.70437542e-02  4.71647717e-02]