[-0.07712732  0.13937718  0.11490358 -0.01127269 -0.07802645 -0.02399893
 -0.03491254 -0.13453837  0.08437934 -0.0447723   0.30429381 -0.03181009
 -0.22244859 -0.08796827  0.00515239  0.18756416 -0.19160528 -0.10109639
 -0.08647614  0.03365711  0.0463464  -0.06719934  0.08092465  0.03145089
 -0.04706223 -0.33667278 -0.11780492 -0.0764211   0.05372986 -0.07163565
 -0.07420247  0.00678012 -0.12378496 -0.03712322  0.02918142  0.06922474
 -0.05543292 -0.10008559  0.21051335 -0.057373   -0.21009269 -0.00919261
  0.04556891  0.18405031  0.28177235  0.071328    0.02307539 -0.0900264
  0.06525644 -0.2395592   0.0878455   0.11754906  0.08858997  0.0659588
  0.02338683 -0.20293276 -0.01103873  0.11652837 -0.12410396 -0.0196975
  0.01261695 -0.14375779 -0.01195704 -0.03881834  0.19287145  0.16071908
 -0.10023987 -0.14577036  0.16116224 -0.13057464 -0.0623411   0.02163159
 -0.17251274 -0.16234222 -0.31383261 -0.01857955  0.38470048  0.09901377
 -0.22399023 -0.02833249 -0.05604794 -0.00237358  0.06929304  0.12424153
 -0.0486796  -0.05581408 -0.16406655 -0.03229414  0.1767886  -0.11686903
 -0.01634234  0.21533151 -0.03011102  0.06214914  0.03514022  0.03922625
 -0.03095348  0.0274626  -0.17225844 -0.05767751  0.01943626 -0.03768738
 -0.02559303  0.11920493 -0.17936935  0.05223091  0.01249002  0.01939587
  0.01440328 -0.07355537 -0.08004593 -0.05710522  0.17064026 -0.1921338
  0.19466709  0.24241824  0.0146932   0.11449937  0.12293365  0.10011139
  0.01887975 -0.06116001 -0.18509535  0.01006619  0.05911359  0.01420296
  0.02352484  0.03902447]