[-0.10690168  0.11813451  0.07738549 -0.03887665 -0.06063432 -0.01970862
 -0.04712789 -0.15347093  0.05469671 -0.01607711  0.3112357  -0.05839468
 -0.22034474 -0.09240212 -0.00350172  0.15250613 -0.11557652 -0.10433171
 -0.11387233  0.00844459  0.05408564 -0.05773745  0.0248442   0.04562389
 -0.07819723 -0.31514549 -0.14161268 -0.005566    0.00833084 -0.06383726
 -0.04423521  0.03735444 -0.1354381  -0.04875783  0.0471316   0.11381065
 -0.0491191  -0.09206958  0.20012431 -0.04634881 -0.17027277  0.03610101
  0.07032945  0.25132099  0.25755307  0.05056653  0.0595926  -0.10202157
  0.06583627 -0.2096221   0.08614651  0.13012908  0.07170646  0.06482422
  0.00256248 -0.19329639 -0.01041838  0.11753219 -0.11031239 -0.01983649
  0.01501825 -0.12904435 -0.08193135 -0.08331452  0.17957078  0.17105012
 -0.1411593  -0.20194483  0.13557385 -0.1075681  -0.08776738  0.02970105
 -0.20600127 -0.14977154 -0.37520725  0.03055641  0.44931522  0.0498611
 -0.26540586  0.01070827 -0.03751254  0.00498776  0.08085754  0.12600718
 -0.0518624  -0.02047041 -0.16681251  0.01563344  0.20224662 -0.07405709
 -0.07085174  0.17401616  0.01143209  0.06747369  0.06643587  0.11254984
 -0.03052508  0.00567533 -0.18259956 -0.03471939  0.06558779 -0.01874739
 -0.02598178  0.13588415 -0.16053043  0.16496734  0.04563508  0.0411956
 -0.00784486 -0.07802041 -0.09008235 -0.01062389  0.15907526 -0.23197167
  0.14224207  0.20021883  0.04874017  0.10821668  0.15353635  0.08927312
  0.02110416  0.01201642 -0.1965106  -0.01760143  0.02936312  0.0380918
  0.05692124  0.06060467]