[-0.1083767   0.11884516  0.05172854 -0.01311377 -0.07389613 -0.01095892
 -0.03921498 -0.1424406   0.10258466 -0.0349366   0.32151613 -0.06388419
 -0.22905846 -0.09493006 -0.01082611  0.15512757 -0.17663154 -0.13310659
 -0.07308467 -0.0064071   0.10336945 -0.07458668  0.01109279  0.0771291
 -0.11634012 -0.3291131  -0.11437666 -0.0495036   0.03561529 -0.11776592
 -0.0659906   0.03352134 -0.17490458 -0.04747     0.04495715  0.14562769
 -0.04732748 -0.09133907  0.19601832 -0.05725902 -0.17116351  0.06348021
  0.04858514  0.23784065  0.19937918  0.06175508  0.01962643 -0.13284628
  0.07973491 -0.17917775  0.06651245  0.18420079  0.06782871  0.05881709
  0.02014964 -0.1896107  -0.01819986  0.10869695 -0.13795844 -0.00536605
  0.02432297 -0.10942989 -0.05455328 -0.1103086   0.18053827  0.16715901
 -0.10771164 -0.18189001  0.1665892  -0.11657419 -0.09709434  0.03131639
 -0.1741019  -0.18395968 -0.31119275  0.01416063  0.40561816  0.0673003
 -0.27356645  0.03099458 -0.01709878 -0.00833565  0.09952717  0.11918052
 -0.05713859  0.02655866 -0.16663443  0.03562403  0.20796482 -0.05009757
 -0.0250921   0.19247285  0.00206816  0.05844036  0.10584237  0.05114146
 -0.05306709 -0.0033207  -0.22344945 -0.06292613  0.04726579 -0.0391275
 -0.04849055  0.1055363  -0.13794982  0.09600175  0.04365377 -0.00090872
 -0.04315532 -0.05399682 -0.1236944  -0.01711761  0.16380358 -0.25194547
  0.21404755  0.18677913  0.06033549  0.10987383  0.14012401  0.08846723
  0.00477473 -0.03586908 -0.19680929 -0.02058593  0.06360958  0.01539488
  0.06346307  0.01239963]