[-0.15623794  0.12339979  0.08854404 -0.00720999 -0.00233475 -0.04565682
  0.00746815 -0.16921054  0.09036819 -0.06259622  0.34387955 -0.04216911
 -0.21171431 -0.17636548  0.02960659  0.17085204 -0.17638306 -0.13800435
 -0.08821917 -0.0179488   0.02599155 -0.05485753  0.03337403  0.05345067
 -0.09009957 -0.30903938 -0.1109342  -0.108165    0.02220016 -0.05704657
 -0.04390779  0.059512   -0.16954553 -0.04706151  0.03419442  0.09765538
  0.02762958 -0.03378191  0.19886337 -0.08029415 -0.17276111 -0.02888325
  0.08989899  0.19728263  0.21006978  0.02394593  0.00574348 -0.02815425
  0.00861202 -0.17702636  0.01692564  0.10980173  0.08129282  0.05085982
  0.03235352 -0.23168318 -0.05481442  0.06171329 -0.07932764 -0.02657868
 -0.03649529 -0.15404475 -0.07215988 -0.03784737  0.19746087  0.10783435
 -0.11850058 -0.15939179  0.15537928 -0.12114877 -0.0418812   0.07422391
 -0.17077494 -0.14660041 -0.3080332   0.01977982  0.39709947  0.06502298
 -0.23716755  0.03937782 -0.07451533 -0.0313064   0.05240245  0.11244214
 -0.00627146  0.02837489 -0.13874488 -0.01678933  0.16265784 -0.03549496
 -0.01929142  0.18620972 -0.0665547   0.0579126   0.03569216 -0.00386431
  0.0129419  -0.01492829 -0.1457402  -0.04120217  0.01121409 -0.0486024
 -0.04495004  0.09324431 -0.16835099  0.02110037  0.04758449  0.01805241
 -0.02801686  0.00815072 -0.06977362 -0.038415    0.14352341 -0.25329137
  0.19241537  0.23282674 -0.02117804  0.12712716  0.11504658  0.09015685
  0.01293176 -0.01803058 -0.1587441  -0.03745944  0.0567351  -0.01993365
  0.05460341  0.0126763 ]