[-1.16156176e-01  1.12719752e-01  8.11057612e-02 -2.46979780e-02
 -5.01877181e-02 -3.08103114e-02 -5.07148281e-02 -1.62880778e-01
  7.21824691e-02 -2.67940704e-02  3.13450903e-01 -5.62040620e-02
 -2.13696346e-01 -9.31740254e-02 -7.14696152e-03  1.69074610e-01
 -1.26552045e-01 -1.08845033e-01 -1.05388500e-01  3.13168950e-02
  5.53436279e-02 -5.99112511e-02  4.07813452e-02  4.57066521e-02
 -6.24904335e-02 -3.26396435e-01 -1.35932416e-01 -1.55788464e-02
  8.07589479e-03 -5.78111298e-02 -5.65320253e-02  3.13583501e-02
 -1.43721744e-01 -4.74037491e-02  4.92989123e-02  1.17727034e-01
 -3.48318964e-02 -8.45428333e-02  2.12279990e-01 -5.26755862e-02
 -1.93496689e-01  1.29209971e-02  6.14283457e-02  2.40157232e-01
  2.45843723e-01  5.76847754e-02  4.76287939e-02 -1.04545318e-01
  5.69386259e-02 -1.97721615e-01  7.55384043e-02  1.27383441e-01
  7.78134316e-02  6.17782548e-02 -2.30617709e-02 -1.95658386e-01
  1.47511892e-03  1.15338705e-01 -1.16733901e-01 -2.97787376e-02
  2.78583951e-02 -1.30297825e-01 -7.41000623e-02 -5.55212758e-02
  2.01631740e-01  1.67524248e-01 -1.47982344e-01 -2.00425297e-01
  1.21743515e-01 -1.14241026e-01 -7.61626586e-02  3.11527736e-02
 -2.08210513e-01 -1.62696362e-01 -3.73023361e-01  6.12804154e-03
  4.47072953e-01  3.91375273e-02 -2.69649029e-01 -1.22558174e-03
 -4.45944592e-02  4.17013932e-03  9.05484632e-02  1.47651866e-01
 -4.27412465e-02 -4.45599621e-03 -1.71512410e-01  2.30595475e-07
  2.02748373e-01 -7.37385452e-02 -6.45661131e-02  1.82283804e-01
  7.21952692e-03  7.38454014e-02  4.64923456e-02  1.07641272e-01
 -1.36217894e-02  1.18269986e-02 -1.75044656e-01 -3.66718955e-02
  5.41663431e-02  8.71151034e-03 -2.58946847e-02  1.40936285e-01
 -1.65224284e-01  1.49451688e-01  4.29820083e-02  4.97500300e-02
  6.93351123e-03 -7.23268539e-02 -8.00434351e-02 -4.30378579e-02
  1.49055436e-01 -2.22176656e-01  1.37822852e-01  2.12584361e-01
  4.89999838e-02  1.06154494e-01  1.41606733e-01  9.46342275e-02
  2.44204160e-02  1.47476867e-02 -2.14084908e-01 -1.38025358e-03
  3.48996483e-02  2.92309467e-02  6.31378219e-02  5.21510951e-02]