[-0.09024544  0.13845141  0.11500988 -0.02492876 -0.06372421 -0.03546099
 -0.05781868 -0.15761422  0.09852093 -0.06691288  0.30815965 -0.04934771
 -0.20687805 -0.09225094 -0.00314059  0.19717298 -0.2202013  -0.10351063
 -0.07929584  0.03004781  0.05962097 -0.0541491   0.04681032  0.01858263
 -0.0203792  -0.3510668  -0.13430011 -0.07217146  0.06022865 -0.05634523
 -0.0733771   0.01772981 -0.11777546 -0.05976596  0.03499151  0.08294151
 -0.05231733 -0.09712076  0.17750894 -0.08321355 -0.20385568 -0.00460522
  0.07304802  0.19410126  0.27161267  0.0807201   0.01613737 -0.12077643
  0.05715812 -0.20203853  0.05533637  0.12102471  0.09930582  0.08060864
  0.00791382 -0.20077454  0.01923566  0.07628462 -0.13526538 -0.02580387
  0.0415764  -0.13476883 -0.01940273 -0.01155796  0.21519306  0.13976109
 -0.10782919 -0.16990153  0.13449018 -0.13119523 -0.06688407  0.02800308
 -0.19292758 -0.17069779 -0.31442675 -0.03639596  0.41618371  0.06488091
 -0.22032619 -0.0007952  -0.05279643 -0.02514432  0.09581129  0.14040792
 -0.05733757 -0.03095962 -0.16409349 -0.01093874  0.19242932 -0.11892507
 -0.02630421  0.20708029 -0.02260477  0.06383254  0.04101469  0.05127044
 -0.01489721  0.03225333 -0.18694246 -0.08156761  0.05574974 -0.02148051
 -0.0360627   0.11552789 -0.16642246  0.07455404  0.03363695  0.04066822
  0.02308258 -0.08802499 -0.09361859 -0.05914843  0.19302088 -0.17477356
  0.17722225  0.24104612  0.04890411  0.10956048  0.13461454  0.09285811
  0.01203863 -0.06011285 -0.19806747  0.02705876  0.06386136  0.0157481
  0.05135566  0.02736264]