[-9.21790749e-02  1.20921530e-01  7.27956668e-02 -1.26538472e-02
 -2.03683976e-05 -4.04981077e-02  2.28018574e-02 -1.55423388e-01
  1.27988219e-01 -1.05377072e-02  3.56546491e-01 -1.41760753e-02
 -1.92640722e-01 -1.94969699e-01  1.78079009e-02  1.46451339e-01
 -1.13663077e-01 -1.42944112e-01 -8.22431073e-02 -1.71462155e-03
  7.25094602e-02 -6.99058473e-02  7.15896413e-02  5.84686361e-02
 -8.82807970e-02 -3.14178377e-01 -1.16722800e-01 -1.07238904e-01
  2.38793399e-02 -1.23655848e-01 -2.63918731e-02  2.71562822e-02
 -1.75764784e-01 -7.89014921e-02  2.16426123e-02  7.49938712e-02
 -1.81477293e-02 -6.11529648e-02  1.98226139e-01 -4.14947867e-02
 -1.90763697e-01  2.77549569e-02  2.81660706e-02  2.38117009e-01
  2.01892897e-01  3.06585561e-02  6.93108439e-02 -9.07765031e-02
  3.82784419e-02 -1.56761229e-01  4.79189940e-02  1.17537491e-01
  8.73502716e-02  1.10529084e-02  3.51909138e-02 -1.98484227e-01
 -2.20385380e-02  4.94347773e-02 -1.23539343e-01 -7.39150506e-04
 -5.45425853e-03 -9.28696021e-02 -5.93302064e-02 -8.37355386e-03
  1.72641993e-01  1.02143861e-01 -1.04701877e-01 -1.49152562e-01
  1.49782896e-01 -9.38930511e-02 -2.54219063e-02  9.96359214e-02
 -1.94098517e-01 -1.84808642e-01 -2.93206662e-01  4.00918387e-02
  4.77308750e-01  1.23068905e-02 -2.51554489e-01  3.46643403e-02
 -9.58574042e-02  1.91987958e-02  6.08443134e-02  1.04415417e-01
 -4.09035720e-02  4.43669409e-02 -1.89031348e-01  1.10282544e-02
  1.71117499e-01 -6.54358193e-02 -5.78744113e-02  1.64425343e-01
 -3.25461477e-02  4.07658219e-02  7.78344870e-02  6.27700686e-02
 -9.56739020e-03  3.14526670e-02 -1.52748227e-01 -5.33300154e-02
  4.06075604e-02 -5.64827621e-02 -4.82345596e-02  7.68572912e-02
 -1.69517681e-01  6.39501438e-02  5.84719144e-02 -6.77305972e-03
 -3.93973701e-02 -8.61770194e-03 -7.53400475e-02 -4.33333851e-02
  1.20509103e-01 -2.58104533e-01  1.94427475e-01  2.17746928e-01
  8.94194376e-03  1.20374791e-01  9.25942808e-02  9.37751681e-02
  7.16343289e-03 -2.53383126e-02 -1.27426624e-01 -2.18986627e-02
  2.65685115e-02  3.92712764e-02  6.75825700e-02 -2.30765273e-03]