[-0.11116486  0.1075725   0.07111906 -0.04458197 -0.00191595 -0.02748196
 -0.02467602 -0.16735932  0.12750186 -0.07075913  0.35553965 -0.04968829
 -0.18783389 -0.18079157  0.00687026  0.17288631 -0.17904572 -0.15786137
 -0.06291426  0.04265105  0.0799693  -0.10903146  0.02420953  0.04795144
 -0.06269293 -0.3564432  -0.14729045 -0.07350336  0.03657532 -0.04732576
 -0.07008132  0.01826178 -0.19410546 -0.06874774  0.0069827   0.11776294
 -0.01556137 -0.04839663  0.16604982 -0.06725102 -0.18835475  0.05225949
  0.02657595  0.23053229  0.20718232  0.06541503  0.06635124 -0.12999474
  0.07033169 -0.15214208  0.06818457  0.13508891  0.11834323  0.04240757
 -0.00997302 -0.20559452  0.00252283  0.07243307 -0.11116254  0.02545084
  0.03811364 -0.09846606 -0.03675312 -0.03773922  0.19491087  0.11185459
 -0.12414368 -0.20562799  0.14535151 -0.09784371 -0.02248118  0.06911183
 -0.21714869 -0.19239242 -0.33965123  0.01479122  0.43341073  0.02430963
 -0.24527891  0.02114642 -0.09601114  0.00994359  0.09823207  0.13351412
 -0.01497305  0.0228373  -0.2154928   0.00581106  0.21692292 -0.08881948
 -0.03025706  0.19030873 -0.02618691  0.07608223  0.0240975   0.07050564
 -0.01508609  0.05129122 -0.16596003 -0.02507843  0.01223047 -0.01738811
 -0.06782138  0.08429821 -0.14524238  0.08597076  0.04666076  0.06277145
 -0.03324346 -0.05215105 -0.09759863 -0.06246357  0.13751362 -0.22930539
  0.17653081  0.23393404  0.07811514  0.10519611  0.13189505  0.08864102
  0.00434047 -0.04417404 -0.2217571   0.02594054  0.02749888  0.02216145
  0.05043199  0.03170801]