[-8.93392786e-02  1.33512318e-01  6.64768144e-02 -1.99816748e-02
 -6.73449039e-03 -4.32075374e-02  1.52019439e-02 -1.36569321e-01
  1.23671889e-01 -3.77731957e-03  3.59788984e-01 -2.51541138e-02
 -2.17243508e-01 -1.95926353e-01  1.24741234e-02  1.48670226e-01
 -1.08959831e-01 -1.33125812e-01 -8.74941349e-02 -2.84508249e-04
  9.29258391e-02 -6.13190830e-02  7.69971013e-02  5.59655130e-02
 -9.80980620e-02 -3.16629440e-01 -1.15835898e-01 -8.73866752e-02
  2.21447255e-02 -1.37665808e-01 -3.11540011e-02  3.82895730e-02
 -1.86634064e-01 -8.38787481e-02  2.60495674e-02  7.58744404e-02
 -1.44473491e-02 -5.73144369e-02  2.02345759e-01 -3.67524549e-02
 -1.84156299e-01  2.72970740e-02  3.13647985e-02  2.37230301e-01
  2.03795597e-01  3.34465690e-02  7.42062852e-02 -8.78995880e-02
  3.53194848e-02 -1.73360512e-01  6.13864772e-02  1.30749911e-01
  9.47044939e-02  1.18854130e-02  3.83022130e-02 -2.00744033e-01
 -2.69185603e-02  6.78216070e-02 -1.29957035e-01  1.21015757e-02
  6.38064090e-03 -8.38171616e-02 -6.91512376e-02 -1.07830297e-02
  1.70133099e-01  1.04499519e-01 -1.25582695e-01 -1.52881280e-01
  1.51702747e-01 -8.99580270e-02 -1.84144955e-02  1.06695786e-01
 -1.95490137e-01 -1.89733386e-01 -3.05499971e-01  4.60995324e-02
  4.73967642e-01  1.57485511e-02 -2.55383819e-01  2.99010519e-02
 -8.87993276e-02  2.13799737e-02  5.80087788e-02  1.00754969e-01
 -5.09231687e-02  4.11365740e-02 -1.88820392e-01  3.42671871e-02
  1.67050466e-01 -5.70756383e-02 -7.05763027e-02  1.82426140e-01
 -2.46692672e-02  5.84353693e-02  7.17649683e-02  7.54509196e-02
 -3.38216056e-03  1.62902270e-02 -1.46955937e-01 -2.71939244e-02
  4.25481237e-02 -6.74701631e-02 -6.17679954e-02  8.73605236e-02
 -1.46846205e-01  6.36615604e-02  5.13421595e-02  4.60465346e-03
 -5.57378903e-02 -1.20297410e-02 -8.88233706e-02 -3.62339877e-02
  1.10950232e-01 -2.68604577e-01  1.97148427e-01  2.12380275e-01
  3.17922118e-03  1.06235959e-01  1.01919174e-01  9.06283483e-02
  3.25958319e-02 -3.39671373e-02 -1.30172759e-01 -3.16885784e-02
  2.95722540e-02  2.82162521e-02  7.17275888e-02 -1.14909711e-03]