[-0.12514095  0.12081315  0.12795739  0.00625759 -0.02724942  0.00281075
 -0.05063281 -0.07938027  0.05916402 -0.02667521  0.28197891 -0.02724202
 -0.25292003 -0.08685961  0.05157645  0.1429801  -0.16204737 -0.06894991
 -0.13013746 -0.05113909  0.00909524 -0.0280574   0.04898816 -0.01612602
 -0.11821529 -0.31971976 -0.06907982 -0.09337717  0.06324448 -0.08349653
 -0.03424924  0.03368936 -0.14297502 -0.00393937  0.0400892   0.10963639
 -0.01360795 -0.03360061  0.17762771 -0.02695888 -0.17527919 -0.00466603
  0.01702324  0.22409284  0.20494373  0.06687301  0.03053367 -0.0902697
  0.05027632 -0.22377925  0.06868123  0.11770254  0.08011244  0.07105363
  0.07163466 -0.20538776  0.00894483  0.08977585 -0.11064138 -0.00719191
  0.0128095  -0.14459853 -0.06493788 -0.07033595  0.21193324  0.11803837
 -0.10882737 -0.1465818   0.16778676 -0.08434724 -0.0641515   0.07221691
 -0.10513506 -0.11566744 -0.32253939  0.00999925  0.36162207  0.0753375
 -0.26674947  0.00827423 -0.09312811 -0.02667597  0.05954063  0.10838592
 -0.08476464  0.00228424 -0.0957125  -0.01686703  0.18243341 -0.06828474
  0.02009251  0.17581886  0.00101313  0.03912088  0.03416619 -0.00589527
 -0.05364424 -0.03097317 -0.14182246 -0.08231363  0.06055845 -0.09325529
 -0.01848643  0.09282898 -0.25846571  0.1241624   0.04769002 -0.02462753
  0.05376927 -0.03155172 -0.04394208 -0.00265053  0.18989262 -0.31093764
  0.20088077  0.26068375  0.03526418  0.12055186  0.11131301  0.09206992
 -0.01594459 -0.0066588  -0.1844454  -0.04676862  0.04313665 -0.01948699
 -0.02565026  0.04042784]