[-0.12901492  0.13977024  0.10274196  0.0032095  -0.00652873 -0.02091729
  0.0053741  -0.21083216  0.09462728 -0.07124988  0.33130592 -0.03237443
 -0.23757143 -0.15597841  0.0188637   0.17890881 -0.17675154 -0.15606758
 -0.09017317  0.01631897  0.03289322 -0.05851016  0.04452874  0.03412417
 -0.07982164 -0.30002761 -0.12844513 -0.08960199  0.02011406 -0.0263457
 -0.06432246  0.0178991  -0.15671168 -0.04736703  0.04131351  0.09698125
 -0.00096774 -0.06773581  0.19675398 -0.09180398 -0.19115265 -0.00812581
  0.09140269  0.17907545  0.21145509  0.02712539  0.0226511  -0.0760664
  0.02189603 -0.15604161  0.03110926  0.10851552  0.10045405  0.05098424
  0.02422978 -0.23836318 -0.05009419  0.08550739 -0.08363316 -0.01996584
 -0.00998708 -0.15526818 -0.05550668 -0.0399331   0.15307587  0.11562725
 -0.10085344 -0.19064812  0.15224165 -0.13566223 -0.0596416   0.05851654
 -0.17916453 -0.15151776 -0.31880963 -0.02279649  0.40039644  0.06249894
 -0.22551635  0.02490608 -0.05338651 -0.02004612  0.05373063  0.12295756
 -0.00912151  0.02111489 -0.16633038 -0.02815942  0.18323998 -0.06329078
 -0.01472072  0.18551818 -0.05829828  0.0439874   0.03617397  0.01097955
 -0.00393532  0.0096747  -0.1570569  -0.05703033 -0.00327857 -0.03777277
 -0.02926965  0.09438499 -0.16834113  0.02344939  0.03957263  0.03019981
 -0.01325421 -0.02320199 -0.07478935 -0.03971367  0.15973067 -0.22772379
  0.17255984  0.2334419  -0.01604572  0.10861396  0.12363201  0.10119241
  0.00681339 -0.01527583 -0.19206011 -0.0341065   0.0449237  -0.00840206
  0.06741212  0.02541571]