[-0.07892089  0.07522032  0.05806359 -0.01773537 -0.05235937 -0.01469351
 -0.01753155 -0.14098211  0.10306522 -0.02492626  0.34063777 -0.08025454
 -0.19972099 -0.14303276  0.02002344  0.16329387 -0.12433758 -0.13346523
 -0.07795409 -0.00090346  0.05545671 -0.10464867  0.01838315  0.08464521
 -0.09571259 -0.36666363 -0.14118783 -0.10459352  0.02382897 -0.08024579
 -0.07275081  0.05918368 -0.15154707 -0.06458739  0.01755114  0.11309091
 -0.01838581 -0.08857768  0.16969247 -0.05426779 -0.17617415  0.06228383
  0.02102735  0.2168275   0.18072082  0.04653559  0.08374869 -0.07364436
  0.05500103 -0.16157317  0.07301981  0.13528495  0.10360491  0.03883458
  0.00106806 -0.15395342 -0.02483906  0.1098094  -0.15433453  0.04320867
 -0.00128322 -0.11981719 -0.07428429 -0.05845087  0.18646146  0.18699132
 -0.10805559 -0.16023888  0.14001438 -0.11450638 -0.05167858  0.03326511
 -0.21316388 -0.20074046 -0.30271491  0.06520479  0.41603151  0.04277839
 -0.27961239  0.02936363 -0.04079214  0.02670654  0.10538702  0.12742665
 -0.00953856  0.0071922  -0.172341    0.0080883   0.1979237  -0.09528635
 -0.02522388  0.20720735 -0.03846918  0.05575441  0.06820793  0.07680315
  0.00144972  0.01185733 -0.13432364 -0.03329172  0.0829669  -0.0358651
 -0.05267448  0.03146728 -0.14369746  0.05612326  0.02949885  0.03000368
  0.00181999 -0.04690484 -0.08814126 -0.0681501   0.17158172 -0.24271737
  0.18680862  0.21345077  0.01618159  0.12017492  0.10768867  0.09585168
  0.02368986 -0.05976148 -0.16126125 -0.00121539  0.07225703  0.04448547
  0.01696556  0.00975219]