[-1.46156386e-01  1.66605696e-01  3.84323560e-02 -1.04690783e-01
 -1.57243311e-01  9.79594537e-04 -6.97529688e-02 -1.78974211e-01
  1.40003413e-01 -1.29864320e-01  2.35329255e-01 -5.73375635e-02
 -2.47920737e-01 -2.62326133e-02 -1.23864703e-01  1.95321277e-01
 -2.03944117e-01 -2.03373060e-01  4.70579369e-03 -6.60219491e-02
  3.19114886e-02 -1.15879877e-02 -2.90870070e-02  4.04574014e-02
 -1.12470023e-01 -2.82779157e-01 -5.37414365e-02 -5.67755476e-02
  1.61436554e-02 -2.95700319e-02  9.92171746e-03  5.11954911e-02
 -1.72299311e-01  5.40884547e-02 -1.19232377e-02  1.52106181e-01
  8.64510890e-03 -2.95831393e-02  1.42290920e-01  1.37825254e-02
 -2.28163943e-01  1.99627373e-02  7.20793977e-02  2.60515332e-01
  1.93426296e-01  5.52752567e-03  5.25704622e-02 -1.30030319e-01
  1.26016617e-01 -1.58416316e-01  4.02778797e-02  1.23906814e-01
  1.72725961e-01  1.98040511e-02  1.08512640e-02 -1.84076115e-01
 -9.45369340e-03  1.04480557e-01 -1.33437499e-01  3.70876901e-02
  9.32817459e-02 -6.30693138e-02 -2.90250760e-02 -9.31829289e-02
  2.82745302e-01  1.49530038e-01 -1.27343088e-01 -1.69669896e-01
  2.11412415e-01 -1.61622807e-01 -1.54285535e-01  7.81658590e-02
 -1.22458853e-01 -1.06662475e-01 -3.02001923e-01 -1.54942125e-02
  3.87806237e-01  7.62717575e-02 -1.71047807e-01  3.30932811e-02
  2.45892955e-03  1.97122078e-02  7.08811432e-02  1.57117605e-01
 -9.57799479e-02  2.51422953e-02 -1.18758611e-01 -3.97998318e-02
  2.80404180e-01 -4.56270240e-02 -8.09806511e-02  1.64360285e-01
 -4.40326659e-03  4.84744906e-02  2.50460710e-02  4.76836115e-02
 -6.33891895e-02 -1.62130600e-04 -1.02921560e-01 -6.97187856e-02
 -1.84140187e-02 -9.43043455e-02 -5.50846867e-02  8.59436914e-02
 -1.66993275e-01  1.26844704e-01 -2.49627735e-02  4.91452031e-02
 -5.85507266e-02  3.03048845e-02 -3.36712077e-02  6.61641359e-03
  1.80849373e-01 -2.37538099e-01  2.42654324e-01  1.58414528e-01
  2.82630082e-02  1.13871612e-01  1.30095705e-01  7.20658228e-02
 -1.87461381e-03 -3.08019407e-02 -1.21182144e-01 -1.02422290e-01
  3.26763466e-02 -1.14619866e-01  1.29976496e-01  6.70141205e-02]