[-0.13016121  0.13711663  0.00152044 -0.04447161 -0.07393425 -0.00097525
 -0.06385095 -0.17137535  0.14961128 -0.0051081   0.23645973 -0.01129723
 -0.18620722 -0.14451905 -0.05441351  0.16755091 -0.2046514  -0.1696815
  0.01544477 -0.0029858   0.0741869   0.00244687  0.04274042  0.03423338
 -0.12283273 -0.29093513 -0.06767801 -0.10583526  0.0317318  -0.02577778
 -0.03226341 -0.01395078 -0.24002187 -0.06360777  0.0480852   0.13560714
 -0.0006768  -0.01192896  0.18846259 -0.02733651 -0.21317177  0.02610776
  0.0681032   0.25013456  0.18383186  0.03794245  0.06048901 -0.17263924
  0.11582959 -0.10322344  0.09745681  0.13724513  0.13144176 -0.00373113
 -0.00630595 -0.19927676 -0.02566718  0.13715529 -0.09326261  0.01373529
  0.09146954  0.00986246 -0.03197731 -0.06793853  0.2119884   0.05733759
 -0.09369709 -0.19188084  0.11847756 -0.0991182  -0.07722656  0.09343756
 -0.1490785  -0.17353216 -0.3324939  -0.00962911  0.41635409  0.00875708
 -0.21559966  0.05621684 -0.04345472  0.03178369  0.13842086  0.12059627
 -0.03796939  0.07315686 -0.14025429 -0.02017007  0.24273907 -0.06629623
 -0.02479623  0.14201014 -0.00356564  0.05827931  0.03850846  0.05301587
 -0.02223118  0.07487222 -0.1307786  -0.03862876  0.01075839 -0.03068584
 -0.00434599  0.09742462 -0.19069901  0.06886163  0.0549827   0.04461534
 -0.01322984 -0.01447987 -0.0647776  -0.06592494  0.15675156 -0.25289002
  0.22140634  0.16246723 -0.01873014  0.13761008  0.11285229  0.11926025
 -0.02328054  0.00396652 -0.187572   -0.00169593  0.05655047 -0.03060248
  0.11534827  0.03464677]