[-1.12503432e-01  1.95932731e-01  5.14264591e-02 -4.25120108e-02
 -8.87507424e-02  1.29312081e-02 -7.82419592e-02 -1.10238910e-01
  1.35884047e-01 -6.26953170e-02  2.72603601e-01 -1.82555858e-02
 -2.07922503e-01 -9.47186574e-02 -7.30885491e-02  1.72502086e-01
 -1.96428627e-01 -1.51870757e-01 -2.13733073e-02 -3.10948491e-02
  8.74879360e-02  1.29618375e-02  3.56613169e-03  6.43506041e-03
 -1.20622754e-01 -3.01782340e-01 -6.57617375e-02 -8.38004798e-03
  7.66265914e-02 -4.40313295e-02 -8.43329057e-02  1.87297408e-02
 -1.93550631e-01 -4.39087413e-02  4.74720374e-02  1.27204284e-01
 -2.19770428e-02 -3.48370448e-02  1.97878733e-01  5.58567978e-03
 -1.99452400e-01  5.26092760e-02  6.63198084e-02  2.77198911e-01
  2.22542927e-01  4.68548052e-02  1.79568809e-02 -1.51624814e-01
  1.18904546e-01 -1.64643124e-01  5.86246066e-02  1.94325492e-01
  7.88055584e-02  7.39124417e-02  1.55925443e-02 -1.85219333e-01
 -3.30146439e-02  1.22930266e-01 -8.95347223e-02 -3.15946639e-02
  1.89093910e-02 -3.55140828e-02 -7.45756784e-03 -1.21573023e-01
  2.31683418e-01  1.02554992e-01 -9.43803564e-02 -2.33073667e-01
  1.73152968e-01 -1.18016720e-01 -1.25011384e-01  9.82882455e-02
 -1.32163003e-01 -1.11845650e-01 -3.14059824e-01  1.89876562e-04
  4.04384673e-01  6.41605183e-02 -2.14645341e-01  5.59351258e-02
 -2.96233054e-02 -5.50254695e-02  1.20238207e-01  1.28936812e-01
 -5.57452813e-02  4.63192649e-02 -1.13433026e-01 -3.35697643e-02
  2.87528694e-01 -3.98503058e-02 -7.23126754e-02  1.61998808e-01
  3.38216536e-02  9.37086567e-02  7.55623430e-02  4.42742184e-02
 -6.03257082e-02  2.11404860e-02 -1.94882631e-01 -7.37597421e-02
 -3.25669278e-03 -6.61718324e-02 -5.61997890e-02  1.47694215e-01
 -1.71655819e-01  1.33548781e-01  4.32118289e-02  4.51226942e-02
 -4.02612202e-02 -2.93068099e-03 -7.01607615e-02 -1.03449672e-02
  1.55431315e-01 -2.56872088e-01  2.47809216e-01  1.67504206e-01
  4.98097911e-02  1.09847821e-01  1.54726416e-01  7.53249153e-02
 -2.19154218e-03 -9.92341526e-03 -1.57057360e-01 -6.98906779e-02
  4.22012359e-02 -6.62212074e-02  1.08677164e-01  3.94176804e-02]