[-0.12629426  0.1496297   0.05030071 -0.03353565 -0.04830277 -0.04810619
 -0.03631204 -0.14327641  0.13660215 -0.05633227  0.23092709  0.02151234
 -0.17853767 -0.17138146  0.00185142  0.1570929  -0.17282639 -0.18712075
 -0.01882533 -0.05593935  0.05791546  0.01072559 -0.0015994  -0.00132724
 -0.10238943 -0.28047922 -0.09867635 -0.08377434  0.09484147 -0.04110035
 -0.07311038  0.01630897 -0.18267079 -0.06467434  0.0523783   0.0823729
  0.00839078 -0.01688822  0.19197348 -0.01253909 -0.1836206   0.00883508
  0.07528835  0.24414554  0.19960521  0.05449925  0.04780143 -0.08845685
  0.09005308 -0.06546804  0.06543048  0.15005696  0.14806105  0.05843624
  0.01506637 -0.20324734 -0.02641493  0.04883328 -0.11045665  0.02364142
  0.05096233 -0.09751447 -0.05335975 -0.02731389  0.22392762  0.05629797
 -0.08363023 -0.22295904  0.16465865 -0.15118887 -0.12133741  0.03844402
 -0.1556782  -0.08663194 -0.31224236  0.0016579   0.34474668  0.05826662
 -0.21727872  0.09156024 -0.02634312 -0.01962409  0.10847925  0.15152946
 -0.06837454  0.07627968 -0.11052554 -0.05497877  0.23085272 -0.03157024
 -0.06246982  0.13453953 -0.00864659  0.09033173  0.0479524  -0.01013002
 -0.02061979  0.01157153 -0.10466119 -0.06067401  0.02863417 -0.0674991
 -0.01614468  0.13321279 -0.14934479  0.09288559  0.03717692  0.07638239
 -0.05595705  0.04809105 -0.07812668 -0.06816762  0.11200632 -0.2062863
  0.2624695   0.19984324  0.00344386  0.09873638  0.13691668  0.09519853
  0.01485445  0.01921532 -0.14106409 -0.06612351  0.04832743 -0.04320716
  0.13058804  0.06414512]