[-1.38805971e-01  1.04156792e-01  3.28092766e-03 -7.68383518e-02
 -9.46631059e-02 -1.19891949e-02 -6.95634633e-02 -1.43596470e-01
  1.02981091e-01 -7.43664354e-02  2.63594896e-01 -4.03372198e-02
 -1.84018195e-01 -6.92994222e-02 -9.06946212e-02  1.45712778e-01
 -1.86493278e-01 -1.55040383e-01  1.36852069e-02  6.48526242e-03
  9.80473310e-02  1.06135979e-02 -9.58764460e-03  4.65694182e-02
 -9.82986614e-02 -2.78479874e-01 -6.74263239e-02 -1.06264427e-01
  4.08671163e-02 -2.09513167e-03  2.03719568e-02  1.60527509e-02
 -2.07654580e-01 -1.90277826e-02  1.63092818e-02  1.30442366e-01
  3.36989053e-02 -2.58214044e-04  1.79169521e-01 -7.69470260e-03
 -2.22289115e-01  2.99040470e-02  7.81828538e-02  2.58539408e-01
  1.47019908e-01  4.77050878e-02  5.54983728e-02 -1.42921969e-01
  1.09134734e-01 -1.81006536e-01  8.91405270e-02  1.00494266e-01
  1.55871436e-01  2.86819618e-02  1.46345617e-02 -2.36677766e-01
  2.19033379e-02  8.80848765e-02 -1.51915848e-01  5.89066222e-02
  5.87229803e-02  4.83948551e-02  4.45526605e-03 -7.04006106e-02
  2.50798434e-01  1.07299805e-01 -1.10127114e-01 -1.76036879e-01
  1.73347637e-01 -1.35065958e-01 -1.07270755e-01  1.30395621e-01
 -1.46581024e-01 -1.54408842e-01 -3.36280912e-01 -1.02019897e-02
  3.63683075e-01  5.09160757e-02 -1.93466425e-01  1.92764085e-02
 -3.20032681e-03  2.00561769e-02  1.09121181e-01  8.95890966e-02
 -5.56535721e-02  5.37548959e-02 -1.15148447e-01 -2.02208832e-02
  2.63897479e-01 -3.84020880e-02 -7.36064240e-02  1.69244990e-01
 -4.24089289e-04  3.88502404e-02  4.77665998e-02  1.08349502e-01
 -2.13097371e-02  1.56135801e-02 -1.55729756e-01 -1.48510933e-02
  1.68270674e-02 -5.65665476e-02 -4.58947755e-02  1.22287311e-01
 -2.04535246e-01  1.03332438e-01 -2.50650328e-02  6.13674382e-03
 -7.72133693e-02  2.85193702e-04 -8.13864321e-02  3.01376022e-02
  1.82848975e-01 -2.16441736e-01  2.58900315e-01  1.65371820e-01
  3.69736478e-02  1.11666046e-01  1.20882370e-01  3.67966406e-02
 -2.44406685e-02 -4.05556373e-02 -1.98993564e-01 -7.46092126e-02
  3.92782614e-02 -8.98216665e-02  9.65367481e-02  5.02709262e-02]