[-1.12771235e-01  1.89864039e-01  4.07411009e-02 -5.98037243e-02
 -6.81890845e-02  1.06744422e-02 -5.99389933e-02 -1.40787005e-01
  1.38376638e-01 -4.13561687e-02  2.56010920e-01  4.84607508e-03
 -1.89214453e-01 -1.05147123e-01 -7.28352293e-02  1.64130598e-01
 -2.00375348e-01 -1.75046757e-01 -8.84840172e-03 -1.00359516e-02
  8.70353356e-02  5.70895663e-03 -3.04792629e-04 -7.76176993e-03
 -7.45490640e-02 -3.05209339e-01 -7.32431337e-02 -8.72230437e-03
  6.96823373e-02 -5.41860377e-03 -6.68608397e-02  2.08090688e-03
 -2.11083174e-01 -4.35692184e-02  6.58699572e-02  1.49189606e-01
 -2.92299092e-02 -1.86322536e-02  1.87360540e-01 -1.33847268e-02
 -1.86899588e-01  4.31180410e-02  8.12087730e-02  2.52174735e-01
  2.05553412e-01  5.95899522e-02  3.25200967e-02 -1.57519907e-01
  7.81637430e-02 -1.27665892e-01  7.29926005e-02  1.90589294e-01
  9.95307788e-02  7.52028078e-02  7.26662949e-03 -1.89086974e-01
 -2.48079840e-02  1.03079990e-01 -7.86764771e-02 -1.71486121e-02
  5.94576411e-02 -4.69697155e-02 -1.90205853e-02 -1.11462116e-01
  2.24677369e-01  8.88941661e-02 -9.82401147e-02 -2.52160758e-01
  1.54829994e-01 -1.26066342e-01 -1.43562004e-01  6.22529984e-02
 -1.25847533e-01 -1.10162020e-01 -3.09315622e-01  3.38181527e-03
  3.90317410e-01  6.58610165e-02 -2.09244236e-01  5.60706854e-02
 -2.24281158e-02 -4.23708037e-02  1.19055107e-01  1.28425151e-01
 -5.90087064e-02  6.66824430e-02 -1.32163450e-01 -4.16868739e-02
  2.69337863e-01 -3.13123874e-02 -6.28177151e-02  1.42280206e-01
  9.90610570e-04  1.00085750e-01  5.12860380e-02  4.97689955e-02
 -3.61866541e-02  6.31584749e-02 -1.85266539e-01 -6.20344765e-02
 -5.75095322e-03 -5.69042228e-02 -3.70357484e-02  1.56360850e-01
 -1.57964751e-01  1.11496799e-01  1.76778268e-02  5.85975908e-02
 -4.09894511e-02 -1.84312952e-03 -7.09676668e-02 -2.87729949e-02
  1.45346075e-01 -2.36424759e-01  2.57695258e-01  1.82280138e-01
  3.61843109e-02  9.95785221e-02  1.63106933e-01  9.45192203e-02
  1.43215088e-02 -9.42366477e-03 -1.93830162e-01 -5.89993261e-02
  1.82169974e-02 -5.08919358e-02  1.08981088e-01  5.92985749e-02]