[-0.10534654  0.17237417  0.0897268  -0.04423717 -0.01807414 -0.01053771
 -0.04876667 -0.08459355  0.17545915 -0.07323538  0.25790498 -0.00166818
 -0.18920456 -0.06919092 -0.03298839  0.14112313 -0.1956933  -0.11100171
 -0.05835023 -0.07142158  0.02478337  0.02269628 -0.04165329  0.04019318
 -0.11680134 -0.26060531 -0.04976819 -0.10934538  0.08096125 -0.1298918
 -0.07506549 -0.01196237 -0.14503263 -0.04739202  0.00600866  0.07351404
  0.01360918 -0.0154531   0.16955893  0.03368783 -0.18028161 -0.01115563
  0.02285912  0.30553159  0.23403518  0.02592902  0.0043316  -0.110677
  0.156276   -0.1978247   0.027862    0.13617456  0.12750497  0.09367575
  0.0223582  -0.20100093 -0.04400203  0.10105383 -0.10622437  0.03903308
  0.05856466 -0.05949951 -0.03698258 -0.05498126  0.22693515  0.07967434
 -0.13760759 -0.16978247  0.1543379  -0.12477841 -0.08959158  0.07831635
 -0.10300453 -0.11608489 -0.27529654  0.03185149  0.38528255  0.0835865
 -0.21847923  0.00737109 -0.13786517 -0.03035633  0.06456796  0.09177168
 -0.0743103   0.02964894 -0.07139796 -0.03063051  0.23262374 -0.0169516
  0.00133284  0.14349744 -0.02872194  0.05922401  0.00075699  0.04102432
 -0.11105671  0.03734804 -0.12413986 -0.06225055  0.0147529  -0.08716311
 -0.00142668  0.1364111  -0.2501196   0.19165385  0.05879684  0.02963864
  0.03149378  0.04797683 -0.05733871 -0.01758766  0.20488398 -0.2462374
  0.22661562  0.20604277  0.06308136  0.10864037  0.09276441  0.07851867
 -0.0201382  -0.00113805 -0.15902162 -0.05260779  0.01734221 -0.06963628
  0.03646606  0.00939722]