[-0.15583754  0.19557992  0.01187182 -0.01848768 -0.15365605 -0.02727085
 -0.06652647 -0.12190526  0.16318314 -0.01907009  0.20785239  0.00106257
 -0.18069565 -0.11794368 -0.0792745   0.16328532 -0.16385698 -0.20862453
  0.03715554 -0.00985852  0.08855926  0.00790533  0.00145698  0.04521821
 -0.14147095 -0.29789326 -0.0566089  -0.07734784  0.04133363 -0.04240915
 -0.00476637  0.05599558 -0.18174574 -0.06593672  0.07798775  0.15028432
 -0.03268423  0.02072438  0.21511252 -0.02027971 -0.21082261  0.01645882
  0.08187013  0.2899763   0.15570512  0.05948209  0.06274192 -0.15025632
  0.10465407 -0.1236946   0.09559243  0.18978594  0.1473949   0.05679153
 -0.00684362 -0.17698959  0.02312368  0.10542067 -0.14921527  0.03873729
  0.09553844 -0.05502329 -0.03399916 -0.02957397  0.2553207   0.07905802
 -0.07991367 -0.18434578  0.16583255 -0.13452809 -0.13159749  0.08706211
 -0.10849734 -0.13433717 -0.29103321 -0.0050958   0.43188864  0.06012291
 -0.18084864  0.0683997  -0.03166764 -0.01514803  0.06966303  0.10527743
 -0.13019143  0.02569721 -0.12580822 -0.01154041  0.26207513 -0.01883779
 -0.03809512  0.16053309  0.06324283  0.08583968  0.06466862  0.02918927
 -0.0210799   0.04161646 -0.10380707 -0.06449389  0.03772679 -0.09350803
  0.00540358  0.1074447  -0.20517226  0.11311759  0.03264623  0.07037821
 -0.02915354  0.05270189 -0.09911662 -0.05075683  0.16082972 -0.22598484
  0.28028616  0.1368109   0.02989695  0.12824507  0.16071653  0.09007993
  0.01507344 -0.05567993 -0.11976333 -0.04631043  0.06946757 -0.07279907
  0.13546787  0.07850738]