[-0.12224575  0.17550485  0.09510218 -0.03343658 -0.02921518 -0.02411859
 -0.02743611 -0.11823561  0.16708127 -0.05823107  0.27539864  0.01265176
 -0.20471637 -0.10732096 -0.01950151  0.1389005  -0.20322156 -0.12912647
 -0.01986243 -0.07071147  0.019182   -0.00484516 -0.0305772   0.04075335
 -0.10613679 -0.26798931 -0.06399483 -0.11345714  0.09885172 -0.09037697
 -0.06374522 -0.02899635 -0.14494643 -0.05487936  0.00163177  0.07363731
  0.00491729 -0.02485539  0.16881239  0.00193254 -0.17188725 -0.02186592
  0.024264    0.29638237  0.21874857  0.03234714  0.02266619 -0.10873833
  0.13581872 -0.1800655   0.05270446  0.13334481  0.14164197  0.07950883
  0.01231414 -0.21679167 -0.03483883  0.10635803 -0.13390917  0.03909386
  0.0547171  -0.04943627 -0.02987061 -0.04416222  0.24327438  0.09767909
 -0.13032159 -0.17170642  0.16448109 -0.14645797 -0.1035303   0.05996545
 -0.1089277  -0.11676333 -0.29158887  0.03144103  0.38296655  0.08958706
 -0.21764164  0.01141031 -0.12675373 -0.02251137  0.07269493  0.10082706
 -0.08232494  0.02634943 -0.0970358  -0.06035161  0.21710046 -0.01034235
 -0.01395634  0.15333743 -0.01784316  0.05979295  0.01770446  0.03502026
 -0.09164748  0.04416503 -0.11479197 -0.06919751  0.01387251 -0.09232277
  0.00368915  0.13292637 -0.2589708   0.18982659  0.0606944   0.04564992
  0.02609378  0.03161219 -0.04832182 -0.01813173  0.2003506  -0.2547279
  0.24903925  0.21151268  0.06348946  0.12741718  0.08819721  0.0709943
 -0.01943489 -0.02032342 -0.15563145 -0.04426754  0.01014821 -0.10202005
  0.05798636  0.03734745]