[-0.13320951  0.15282437  0.01946769 -0.01247341 -0.10134228 -0.02712984
 -0.05904211 -0.14000627  0.1797061  -0.06494837  0.25281435  0.00276085
 -0.17746902 -0.1316437  -0.05872754  0.1642261  -0.16401128 -0.16668163
  0.04298968  0.00988507  0.08536457  0.00102201  0.00232047  0.04716834
 -0.10747404 -0.30600652 -0.10265825 -0.0954864   0.04122104 -0.03749612
 -0.0569183   0.03135236 -0.17939238 -0.06863394  0.05097121  0.12752385
 -0.03057279  0.00123401  0.20109092 -0.01161792 -0.19894521  0.00390942
  0.0479271   0.26497325  0.15822072  0.03885283  0.04831057 -0.146819
  0.08930472 -0.12341063  0.08761614  0.16225262  0.15632305  0.07435573
 -0.04293028 -0.14964786  0.00203151  0.07867076 -0.14518733  0.04307678
  0.0810072  -0.06600618 -0.05806064 -0.00428656  0.27346426  0.10357169
 -0.10973366 -0.22240539  0.15375929 -0.15595599 -0.14909625  0.07523675
 -0.13390885 -0.15260541 -0.31138957  0.01670966  0.44024393  0.05516313
 -0.19666231  0.08211817 -0.09377944 -0.03467075  0.07750355  0.14269756
 -0.05921132  0.04843688 -0.11158115 -0.01828282  0.26265106 -0.05863158
 -0.06120343  0.19181992  0.02720897  0.12830745  0.04332426  0.03556911
  0.01787258  0.0403257  -0.09935366 -0.06343204  0.05641457 -0.05713825
 -0.00380631  0.11578363 -0.20698431  0.13401039  0.04774583  0.07496914
  0.03678229  0.04365731 -0.12952882 -0.07871567  0.16026126 -0.25518042
  0.27727485  0.14725111  0.06944516  0.11820786  0.15451519  0.08989673
  0.03719684 -0.05700659 -0.16100359 -0.02806443  0.07351856 -0.04192926
  0.10251906  0.06437465]