[-1.48627833e-01  1.24459341e-01  1.15077328e-02 -7.64127597e-02
 -3.87616940e-02 -2.92202029e-02  1.96161284e-03 -1.77630231e-01
  1.73410475e-01 -8.28333274e-02  3.00166577e-01 -7.56110717e-03
 -1.87084958e-01 -1.17599703e-01 -5.64471669e-02  1.60354361e-01
 -2.43979529e-01 -1.21718578e-01 -1.50493383e-02 -1.55225862e-02
  8.53427872e-02 -6.22530952e-02 -7.83103425e-03  2.52395459e-02
 -1.23511866e-01 -2.83459008e-01 -1.04561508e-01 -7.33022019e-02
  6.90690577e-02  2.19197683e-02  3.14619625e-03 -2.17221957e-02
 -2.11136818e-01 -4.73018587e-02  5.86251915e-03  1.21083282e-01
 -8.13942682e-03 -2.72222757e-02  1.85908794e-01 -4.83844690e-02
 -1.93340346e-01  6.79792836e-02  7.41898939e-02  2.50631958e-01
  1.61558583e-01  3.17346454e-02  8.05289000e-02 -1.59395188e-01
  1.10328712e-01 -1.33855596e-01  8.71540681e-02  1.09379187e-01
  1.24127381e-01  5.19537106e-02  2.62165116e-03 -2.23673105e-01
 -1.27214706e-02  9.24596936e-02 -1.29668236e-01  1.13377832e-02
  8.30388516e-02  2.22479738e-02 -3.46529223e-02 -3.92730609e-02
  2.07714081e-01  1.30325288e-01 -1.26417115e-01 -2.30854034e-01
  1.54729486e-01 -1.47467598e-01 -8.13961551e-02  5.64403944e-02
 -1.47108778e-01 -1.63034588e-01 -3.36041987e-01  2.34909169e-02
  4.17461455e-01  8.14515054e-02 -1.76824719e-01  6.56507388e-02
 -8.14671665e-02 -9.50414687e-04  1.36361912e-01  1.28891438e-01
 -3.13487835e-02  8.58478397e-02 -1.25005290e-01  4.11032280e-03
  2.20707968e-01 -5.12384772e-02 -7.20323920e-02  1.74448445e-01
  2.02005953e-02  4.25808989e-02  1.08294031e-02  5.00840917e-02
 -6.27743229e-02  6.67381510e-02 -1.45623952e-01 -4.07289825e-02
  4.75600474e-02 -8.26420542e-03  5.43657271e-03  1.03065155e-01
 -1.96652994e-01  1.63602576e-01  3.70725654e-02  5.59619367e-02
 -2.70164665e-02  1.72093399e-02 -7.68723786e-02  2.18628021e-03
  1.33549437e-01 -2.52582401e-01  2.59640485e-01  1.73588559e-01
  3.22228521e-02  1.34740084e-01  1.54669613e-01  5.84457926e-02
  2.29416694e-02  1.33833410e-02 -1.86971411e-01 -3.19438241e-02
  2.56136816e-04 -3.95921245e-02  1.44236758e-01  5.62438555e-02]