[-0.18332325  0.09705723  0.01328368 -0.04982702 -0.07093234 -0.04029002
 -0.02797853 -0.1611339   0.1198728  -0.06034938  0.27544188 -0.06648073
 -0.21782911 -0.09744818 -0.08788463  0.18397023 -0.20872994 -0.1479377
 -0.01674944 -0.00288191  0.07947502 -0.02943647  0.0087227   0.02707325
 -0.10437267 -0.31349835 -0.07420103 -0.07184532  0.04033794  0.04523986
 -0.01112284  0.02757531 -0.21839039 -0.04668041  0.04294292  0.1440704
  0.01178033 -0.02362761  0.21351515 -0.02712943 -0.22707884  0.05179494
  0.09909979  0.24993637  0.14430988  0.04820998  0.07201369 -0.17676178
  0.08620453 -0.113478    0.07056961  0.14658849  0.1283108   0.04394043
 -0.01068654 -0.22306323  0.00864174  0.08261018 -0.11064737 -0.00713974
  0.09826443  0.01168564 -0.0145314  -0.09238844  0.24611719  0.09249647
 -0.13080825 -0.2085142   0.15786901 -0.12758076 -0.10066884  0.06213439
 -0.15740001 -0.14680977 -0.35723832  0.01038443  0.38164598  0.04802997
 -0.19061187  0.07326345 -0.0407474   0.00263044  0.12853597  0.1660862
 -0.03822603  0.0807007  -0.10191854 -0.04651004  0.23370484 -0.04211038
 -0.06875971  0.1431662   0.01665402  0.04380848  0.04233074  0.05531655
 -0.05367286  0.03594721 -0.14137246 -0.0168769   0.0116528  -0.03968088
 -0.00655335  0.09564912 -0.18265432  0.1070305   0.00742434  0.04280666
 -0.04018268  0.01403372 -0.06550106 -0.00908891  0.12287126 -0.24750924
  0.26662377  0.16401355  0.03726866  0.13590311  0.1808864   0.09124082
 -0.00538498  0.04733802 -0.18633953 -0.06221294  0.03828827 -0.04191247
  0.14650349  0.0650671 ]