[-0.16331616  0.11108118  0.00279888 -0.07890915 -0.0410703  -0.03441006
  0.00382727 -0.16591267  0.16378295 -0.0980485   0.28426704 -0.02677862
 -0.19322018 -0.11646102 -0.05761133  0.170121   -0.23283713 -0.14236894
 -0.01658958 -0.02669695  0.08444007 -0.06237794 -0.01403422  0.03424058
 -0.12391242 -0.28436771 -0.0989565  -0.07472227  0.04543867  0.02037281
  0.00862257 -0.01083961 -0.21091525 -0.03959139  0.00380239  0.12350227
 -0.00401518 -0.02960664  0.19872686 -0.03440354 -0.19588995  0.06122033
  0.07963823  0.26192462  0.16565843  0.0276904   0.06337811 -0.16017875
  0.11310961 -0.1458161   0.07272494  0.10900407  0.11037051  0.05803922
  0.00600731 -0.21754935  0.00573762  0.08271304 -0.14699784  0.003786
  0.06771924  0.00860518 -0.0360382  -0.05053296  0.21768819  0.13603924
 -0.1217071  -0.22762573  0.16785794 -0.15024868 -0.08515507  0.0689482
 -0.14195065 -0.16354159 -0.34142709  0.01903571  0.41238099  0.088599
 -0.17202267  0.06427564 -0.06534708 -0.00406776  0.1522695   0.12865901
 -0.03144901  0.07155095 -0.1173891   0.00566437  0.22265673 -0.04099825
 -0.09089197  0.16118748  0.02239565  0.04188528  0.02459286  0.05952284
 -0.05600599  0.06472823 -0.15835135 -0.03157467  0.04295799 -0.01613366
  0.0018046   0.0961784  -0.18563332  0.15112905  0.03546048  0.04023309
 -0.05413008  0.01633793 -0.08579907  0.02343718  0.1235161  -0.26132631
  0.26252851  0.17311986  0.03015308  0.13909586  0.1537597   0.05045587
  0.00996774  0.00182485 -0.18829495 -0.03852826  0.00994554 -0.02208824
  0.15720974  0.06046887]