[-0.14111583  0.16295549  0.01170678 -0.02252288 -0.12785995 -0.0381573
 -0.08210625 -0.12741552  0.16829757 -0.05696893  0.21898253 -0.00087032
 -0.17535481 -0.12057386 -0.10055069  0.17897238 -0.17264993 -0.16566063
  0.04286932  0.0235166   0.11055666  0.01914545 -0.00371102  0.05344365
 -0.1359766  -0.30824846 -0.08888573 -0.08122196  0.03011829 -0.01972127
 -0.03917934  0.03503408 -0.17982015 -0.06889503  0.06395008  0.14849886
 -0.04887923  0.02847633  0.1851763  -0.00196556 -0.22260085  0.03261053
  0.08477601  0.28013635  0.18232493  0.07443903  0.07026806 -0.17026427
  0.08813625 -0.13329802  0.07943185  0.1624798   0.15624547  0.07098631
 -0.02434236 -0.1490411   0.01077118  0.10209075 -0.15656491  0.05562925
  0.11103536 -0.05996479 -0.04149232 -0.01145252  0.27835032  0.0894528
 -0.11723359 -0.20474569  0.178864   -0.18926767 -0.14816721  0.08343456
 -0.10061506 -0.14546566 -0.32319775 -0.01348289  0.43857375  0.07886644
 -0.17474748  0.07178301 -0.05883794 -0.01085909  0.08824255  0.13945064
 -0.07990044  0.02690219 -0.11003351 -0.02720257  0.27394795 -0.03933144
 -0.03024833  0.18345942  0.06577711  0.10359491  0.04419348  0.03013094
 -0.02509016  0.03364912 -0.10292395 -0.05834724  0.01567759 -0.06265902
  0.01796148  0.11704715 -0.18015039  0.14565085  0.02290074  0.06711443
  0.01306067  0.05856672 -0.1203908  -0.0738614   0.15607674 -0.22787896
  0.27203569  0.13649005  0.06591851  0.10918889  0.17158023  0.10528719
  0.01427359 -0.0489682  -0.15806977 -0.03539408  0.06170343 -0.09368815
  0.1455747   0.05812459]