[-1.64760411e-01  9.60179940e-02  2.88943406e-02 -5.59007935e-02
 -7.91924745e-02 -1.81396604e-02 -3.70514691e-02 -1.58294067e-01
  1.39244422e-01 -7.18651935e-02  2.75049657e-01 -8.00073594e-02
 -2.07696423e-01 -7.07301721e-02 -7.73414448e-02  1.88436553e-01
 -2.24903449e-01 -1.41552582e-01 -2.01455485e-02  5.13895589e-04
  7.35700727e-02 -2.54992731e-02  8.07770249e-03  2.80338116e-02
 -1.02909066e-01 -3.10686648e-01 -7.11735487e-02 -6.03622086e-02
  5.40189222e-02  4.76162136e-02 -2.11915802e-02  3.07934284e-02
 -2.22144395e-01 -4.97018360e-02  4.78685498e-02  1.42574057e-01
  1.40039651e-02 -3.22994553e-02  1.95097312e-01 -4.68144119e-02
 -2.19952449e-01  6.48344681e-02  9.04555097e-02  2.32929707e-01
  1.30942091e-01  3.60890515e-02  7.06436485e-02 -1.82394415e-01
  7.69102126e-02 -1.18631065e-01  5.15493415e-02  1.52997524e-01
  1.29183888e-01  3.80036309e-02 -8.91523249e-03 -2.16560647e-01
 -6.02688640e-04  1.08151630e-01 -9.00196955e-02  9.98482667e-03
  1.02545343e-01  2.29374841e-02  2.80639157e-04 -1.03693023e-01
  2.40646392e-01  8.88314769e-02 -1.34417921e-01 -2.22420171e-01
  1.27825633e-01 -1.01060390e-01 -1.03516042e-01  5.63428514e-02
 -1.64539412e-01 -1.49345711e-01 -3.51867318e-01  2.26651886e-04
  3.84934932e-01  2.71068271e-02 -2.10522324e-01  7.08685070e-02
 -4.35712114e-02  7.98038382e-04  1.09331049e-01  1.66293100e-01
 -3.87214236e-02  7.16991574e-02 -1.00768805e-01 -3.68868560e-02
  2.38695905e-01 -5.35033010e-02 -5.01640998e-02  1.41690478e-01
  8.78021121e-03  3.32130529e-02  2.16338821e-02  5.54598682e-02
 -6.21078201e-02  3.83265354e-02 -1.47052169e-01 -2.26018429e-02
  5.58734825e-03 -2.95466073e-02 -1.80336852e-02  1.06322147e-01
 -1.96484089e-01  1.13247991e-01 -3.58700752e-04  3.00594922e-02
 -2.81514116e-02  1.84924342e-02 -6.09574281e-02 -6.52072718e-03
  1.40261859e-01 -2.47877434e-01  2.48076543e-01  1.75399303e-01
  4.53333668e-02  1.31992623e-01  1.66884840e-01  9.33781117e-02
 -7.23101955e-04  7.40646943e-02 -1.83395058e-01 -6.10853843e-02
  3.46086882e-02 -5.13466261e-02  1.21879958e-01  5.77584393e-02]