[-0.14751253  0.12550507  0.01817086 -0.07261999 -0.16183482 -0.02054912
 -0.04751352 -0.14270659  0.13028295 -0.1090107   0.23024543 -0.02919328
 -0.21696322 -0.08577549 -0.10672647  0.18460053 -0.21178313 -0.18724477
  0.0308974  -0.02589172  0.06993627  0.00811028 -0.03185786  0.01147966
 -0.11101948 -0.2842347  -0.05785929 -0.06074486  0.04214751 -0.03032265
 -0.00181721  0.07312532 -0.16065867 -0.02545199  0.02114199  0.18884873
 -0.01172885 -0.01221     0.1657788   0.01077016 -0.20816188  0.00823821
  0.08366006  0.29036784  0.16788734  0.02136918  0.05666099 -0.14225256
  0.12854752 -0.20574541  0.07277494  0.08918706  0.17007659  0.05180199
  0.02550011 -0.19996908  0.01807147  0.10689361 -0.12827298  0.05397008
  0.08943989 -0.0627277   0.00121929 -0.07056887  0.26533887  0.08496927
 -0.09635769 -0.15530695  0.1859584  -0.14691684 -0.167918    0.08378765
 -0.08522329 -0.10755821 -0.3406224  -0.01038282  0.41827962  0.08748943
 -0.17738216  0.02161652  0.0007387  -0.01496765  0.11633889  0.13047378
 -0.07510308  0.02008509 -0.15119845 -0.04049991  0.28174791 -0.05184686
 -0.06579085  0.1498237   0.04234932  0.09089119  0.05202505  0.05192417
 -0.04748524  0.02865997 -0.12705335 -0.05960653  0.01756368 -0.11584268
 -0.03883894  0.11348267 -0.16979551  0.13395981 -0.00759442  0.03250185
 -0.04413519 -0.00168944 -0.06883632  0.01648317  0.17100571 -0.22899301
  0.23570369  0.1765475   0.03445867  0.14263825  0.14447163  0.06194214
 -0.01532462 -0.05316476 -0.14945756 -0.08071776  0.03642432 -0.08300759
  0.11254589  0.07871975]