[-1.71875447e-01  1.48408130e-01  4.91758157e-03 -1.04791820e-01
 -1.58440396e-01  2.73520350e-02 -5.30615561e-02 -1.46881387e-01
  1.52871639e-01 -1.29884019e-01  2.51693338e-01 -3.42641063e-02
 -2.10805804e-01 -6.73114210e-02 -8.64265189e-02  1.90358639e-01
 -2.05457196e-01 -1.90359250e-01  5.52953184e-02 -4.56794500e-02
  7.51534477e-02  1.15947044e-02 -3.32058184e-02  3.26903090e-02
 -1.30933806e-01 -2.94464469e-01 -6.21673726e-02 -8.42668414e-02
  1.12074213e-02 -5.52912466e-02  8.38029291e-03  6.16285987e-02
 -1.56395599e-01  3.66027914e-02  7.21091172e-03  1.68162212e-01
 -1.90765597e-02 -1.34749115e-02  1.56390756e-01  1.99074764e-02
 -2.15086296e-01  8.56133830e-03  6.91568851e-02  2.71354407e-01
  1.82766438e-01 -9.91666690e-03  4.98521142e-02 -1.34714499e-01
  1.31051987e-01 -1.77576974e-01  5.55254593e-02  1.08878814e-01
  1.40473530e-01  1.99141707e-02  3.72511186e-02 -1.85681775e-01
 -9.03545879e-03  1.01220228e-01 -1.21084332e-01  4.78760898e-02
  8.55024606e-02 -6.69304132e-02 -1.86088532e-02 -7.67916366e-02
  2.57755250e-01  1.15928888e-01 -1.09525993e-01 -1.87668368e-01
  1.94553941e-01 -1.33794472e-01 -1.65560037e-01  9.88874212e-02
 -1.22612312e-01 -1.43698677e-01 -3.08331937e-01  3.32099921e-03
  3.84614408e-01  9.29339752e-02 -1.66469797e-01  4.91666161e-02
  1.10696955e-02  6.00241881e-04  9.98424739e-02  1.63731888e-01
 -6.01571314e-02  1.59520041e-02 -1.39008805e-01 -3.18791717e-02
  2.62781352e-01 -4.30449285e-02 -6.84371293e-02  1.75512955e-01
 -7.28462590e-03  8.66598040e-02  3.64208631e-02  5.63618951e-02
 -6.78204075e-02  1.43753141e-02 -1.12576939e-01 -8.85110646e-02
 -8.08455329e-03 -9.55727100e-02 -5.17645292e-02  1.32863477e-01
 -1.73762068e-01  1.38841465e-01 -3.94896083e-02  4.85290661e-02
 -7.75479600e-02  3.72085720e-04 -3.73116732e-02  4.00041044e-02
  1.53761104e-01 -2.31239513e-01  2.18234688e-01  1.52934775e-01
  3.03823408e-02  1.36714324e-01  1.51573285e-01  4.80753444e-02
 -5.97154256e-03 -4.95672822e-02 -1.82346463e-01 -5.88379391e-02
  2.57418286e-02 -8.46262351e-02  9.60692912e-02  5.92242368e-02]