[-0.14064394  0.20435829  0.04097446 -0.03809397 -0.09314682  0.01590883
 -0.05206336 -0.12919663  0.15242174 -0.05517543  0.27701488  0.01192098
 -0.20780294 -0.12700443 -0.05716136  0.1599323  -0.19036666 -0.16680652
 -0.01439176 -0.03399879  0.10021817  0.0015303   0.01118866 -0.0019011
 -0.11344361 -0.32832572 -0.07392333 -0.01483609  0.06276726 -0.02701139
 -0.05830636 -0.00506447 -0.20162383 -0.04678127  0.04481471  0.14507639
 -0.0168006  -0.02319072  0.19118206 -0.00516844 -0.19767229  0.0297999
  0.06563509  0.27679268  0.22202063  0.03425734  0.04154139 -0.15212123
  0.10495257 -0.13615747  0.08023067  0.19408205  0.09304474  0.06203336
  0.03072184 -0.18606827 -0.03253031  0.10259575 -0.07814663 -0.04733315
  0.04339823 -0.0236941  -0.01077416 -0.10340896  0.22389226  0.09971578
 -0.08946548 -0.24634688  0.15856519 -0.133182   -0.12600783  0.078552
 -0.14685526 -0.11774763 -0.3314499   0.01399923  0.43492413  0.06849624
 -0.21783772  0.04436357 -0.04281573 -0.04391458  0.13419676  0.13054803
 -0.05653894  0.06269406 -0.14366256 -0.02487412  0.27426049 -0.03343852
 -0.08437467  0.14984174  0.03244232  0.08716809  0.08197862  0.04808401
 -0.05436162  0.04574513 -0.18388139 -0.06611932 -0.00964818 -0.07040201
 -0.0450743   0.14098743 -0.17270838  0.12664676  0.04009276  0.05276879
 -0.05980066 -0.00932149 -0.08531871 -0.01640996  0.14579232 -0.24562357
  0.24666874  0.16932361  0.02674313  0.13038763  0.15659423  0.09169463
 -0.00268062 -0.00716203 -0.14855033 -0.05544043  0.00825445 -0.05226494
  0.11816406  0.04577979]