[-0.16681485  0.19140325  0.02317221  0.00329736 -0.1594115  -0.03319159
 -0.05245153 -0.12497213  0.15776096 -0.02888414  0.22890389  0.01266192
 -0.18428303 -0.14531676 -0.07830098  0.16045728 -0.15440466 -0.19537596
  0.03188423 -0.00083767  0.09732856 -0.0068052   0.03052769  0.04611966
 -0.13070099 -0.30867863 -0.05786489 -0.08861575  0.06069275 -0.05622799
 -0.01230106  0.03013891 -0.18392412 -0.06611612  0.04827542  0.13690166
 -0.03491889  0.02267752  0.22082341 -0.02714073 -0.21592326  0.0095926
  0.06029105  0.27476695  0.1586443   0.05580154  0.06065742 -0.15297909
  0.11786524 -0.14041232  0.109995    0.16838075  0.1647533   0.04469093
  0.00386735 -0.16662835  0.01972478  0.1170418  -0.16426198  0.04413699
  0.0812239  -0.03977431 -0.03167536 -0.0196988   0.24831176  0.08602875
 -0.07504769 -0.16344407  0.16422886 -0.14635868 -0.10336582  0.10757991
 -0.09329617 -0.15171693 -0.28405577  0.00560659  0.45576987  0.08485974
 -0.17701158  0.0474149  -0.04852023 -0.02042374  0.07568043  0.09349018
 -0.13592942  0.02385359 -0.13771965 -0.00837351  0.2378993  -0.02384412
 -0.0342772   0.18924646  0.07569567  0.10564636  0.06097381  0.01550975
 -0.0175694   0.04476185 -0.09291199 -0.06342486  0.02854258 -0.09641706
  0.01609714  0.07478249 -0.19501181  0.10293388  0.03427618  0.07531071
 -0.0161731   0.04602579 -0.10450131 -0.05635843  0.14680457 -0.23542476
  0.275956    0.13332169  0.02628698  0.13826652  0.15732257  0.08873799
  0.01821599 -0.07785682 -0.10367355 -0.02300463  0.08505523 -0.08874103
  0.13841817  0.06932848]