[-1.37030467e-01  1.31447643e-01  9.77244303e-02 -7.06250295e-02
 -6.95349202e-02 -2.88729165e-02 -3.68492752e-02 -9.92933959e-02
  1.51430234e-01 -1.31595269e-01  2.45559335e-01 -3.05791404e-02
 -1.92832425e-01 -4.40608263e-02 -2.45115403e-02  1.41590521e-01
 -1.69639096e-01 -1.13657765e-01 -7.66812116e-02 -1.20529614e-01
  6.24559834e-05  5.91708086e-02 -4.10275571e-02 -7.59447087e-03
 -7.53478631e-02 -2.80776948e-01 -7.41135105e-02 -1.19050600e-01
  3.67433354e-02 -7.68671259e-02  1.41785340e-02  4.58183177e-02
 -1.40359834e-01  1.60688709e-03  1.03511205e-02  6.53012320e-02
  2.66895276e-02 -1.98599882e-02  1.30522877e-01 -2.20967438e-02
 -1.68621391e-01 -5.56728952e-02  4.25044410e-02  2.66983867e-01
  1.91397041e-01 -1.27585260e-02 -1.06047709e-02 -9.83614475e-02
  9.86267477e-02 -2.02470616e-01  8.82217940e-03  1.11164294e-01
  7.67575577e-02  6.82191104e-02  8.15007240e-02 -1.85264230e-01
 -1.57835279e-02  9.71675739e-02 -1.04292408e-01  3.79314497e-02
  2.38588732e-02 -1.34569228e-01 -6.37188330e-02 -1.10467575e-01
  2.37228513e-01  9.04822499e-02 -1.14237010e-01 -1.73507318e-01
  1.78856358e-01 -1.35750622e-01 -8.11726972e-02  8.69097933e-02
 -1.21201806e-01 -1.19221471e-01 -2.79992431e-01  2.24521440e-02
  3.74560207e-01  1.04496777e-01 -1.87099144e-01  3.56151387e-02
 -9.46451649e-02 -3.67025323e-02  4.45635132e-02  1.25475079e-01
 -3.78377326e-02 -3.76987946e-03 -5.62717095e-02 -7.31963664e-03
  2.15914249e-01 -6.30901977e-02 -7.86157977e-03  1.57665104e-01
 -8.19301531e-02  2.05670521e-02 -2.86970045e-02 -4.93130228e-03
 -8.59531090e-02 -3.89886205e-03 -8.96330699e-02 -5.39533161e-02
  1.69473197e-02 -1.27042934e-01 -4.16512191e-02  1.29713103e-01
 -2.34464049e-01  1.37563825e-01  5.17499913e-03 -3.74652143e-03
 -1.55040552e-03 -1.13064831e-03  7.17796246e-03  5.00266720e-03
  2.16727063e-01 -2.29410842e-01  2.33178496e-01  2.10261822e-01
  2.67246217e-02  1.67410001e-01  3.95815708e-02  9.12399814e-02
 -3.47655080e-02 -2.55977754e-02 -1.69946924e-01 -5.77792935e-02
 -7.61820760e-04 -5.63252158e-02 -1.68812182e-02  2.36222502e-02]