[-1.70538232e-01  1.59271583e-01  1.23481154e-02 -9.98147652e-02
 -1.65819407e-01  2.34939437e-02 -5.70374802e-02 -1.47853091e-01
  1.57276228e-01 -1.43540785e-01  2.53316104e-01 -4.14058752e-02
 -2.08966762e-01 -6.32966608e-02 -7.90641159e-02  1.80581242e-01
 -2.02507094e-01 -1.88759372e-01  5.45116849e-02 -6.02411628e-02
  8.31127316e-02  1.37313297e-02 -3.58741209e-02  2.60655116e-02
 -1.36694580e-01 -2.97447979e-01 -6.60114214e-02 -7.78094828e-02
  1.85309704e-02 -5.95509894e-02  1.46714868e-02  5.75979240e-02
 -1.51623115e-01  3.82311046e-02  2.42269482e-03  1.71056494e-01
 -1.86205804e-02 -1.85716804e-02  1.61078483e-01  1.90122910e-02
 -2.09244639e-01  1.28651503e-02  5.44540659e-02  2.78458774e-01
  1.79738626e-01 -1.76185295e-02  6.08737431e-02 -1.37047276e-01
  1.39665738e-01 -1.68912545e-01  6.66547790e-02  1.19945899e-01
  1.42562300e-01  1.54028609e-02  5.28596155e-02 -1.79095864e-01
 -2.05408819e-02  1.09043479e-01 -1.11183003e-01  4.33979072e-02
  1.01534180e-01 -5.32842241e-02 -2.32624244e-02 -8.55400190e-02
  2.50307560e-01  1.17690109e-01 -1.07754186e-01 -1.89067006e-01
  1.96358323e-01 -1.31495938e-01 -1.69663206e-01  9.61565375e-02
 -1.26193717e-01 -1.39433265e-01 -3.03740680e-01  1.56113608e-02
  3.88259947e-01  9.50843841e-02 -1.70055717e-01  4.38569561e-02
  1.50304651e-02  5.89796621e-03  1.04974709e-01  1.64810106e-01
 -6.60015866e-02  2.12242529e-02 -1.36038437e-01 -2.05503684e-02
  2.55824476e-01 -4.14779149e-02 -7.37142116e-02  1.74492732e-01
  9.79517470e-04  7.76349604e-02  3.95665169e-02  4.81702052e-02
 -7.22867697e-02  1.00271255e-02 -1.12302497e-01 -8.72583315e-02
  2.76943529e-03 -9.74812135e-02 -5.89976870e-02  1.33639321e-01
 -1.74944431e-01  1.47679850e-01 -4.41446118e-02  4.72999103e-02
 -8.44627693e-02 -2.11762451e-03 -4.10622507e-02  4.76401746e-02
  1.55945972e-01 -2.33096555e-01  2.02239230e-01  1.45161599e-01
  2.28329003e-02  1.44097120e-01  1.52057618e-01  5.41305430e-02
 -9.63360071e-06 -4.82334234e-02 -1.77727953e-01 -6.67260811e-02
  1.84701961e-02 -7.01887608e-02  8.97157118e-02  5.72030134e-02]