[-0.13251294  0.12753163  0.07283088 -0.03517104 -0.04268977 -0.05341774
 -0.04323968 -0.12926489  0.11866418 -0.07584097  0.25704682  0.00266468
 -0.18975928 -0.15382701 -0.02161027  0.16250913 -0.16586362 -0.15637009
 -0.04513191 -0.04237007  0.0637477   0.02639421  0.0005162  -0.01188831
 -0.0943843  -0.28877977 -0.10976841 -0.06844165  0.05678763 -0.03902478
 -0.08451805  0.0169511  -0.14202921 -0.07097556  0.04074021  0.09349691
 -0.00498775 -0.0160259   0.18667616  0.00475593 -0.20835553  0.00975009
  0.06169052  0.27064148  0.20198837  0.05553315  0.0261541  -0.0895343
  0.09414446 -0.11483531  0.07373126  0.14903277  0.14695197  0.06441572
  0.02864581 -0.15987469 -0.01428083  0.06878068 -0.10558467  0.00427552
  0.04298986 -0.11500075 -0.01841564 -0.03174841  0.21832965  0.08642533
 -0.08647402 -0.20069781  0.16213171 -0.14490394 -0.1391197   0.03846275
 -0.15680903 -0.09633268 -0.33466741 -0.00359847  0.37093043  0.05327571
 -0.21901636  0.07302805 -0.03881643 -0.02678084  0.13482232  0.15363844
 -0.06176059  0.07772203 -0.11548879 -0.06458744  0.2420018  -0.05937965
 -0.07788139  0.14599784  0.00706878  0.09009482  0.08514591  0.00426088
 -0.0092343   0.00072504 -0.1237422  -0.05180237  0.04074856 -0.08281104
 -0.02522267  0.11791886 -0.14746159  0.10612316  0.04819943  0.07001524
 -0.02610484  0.03093716 -0.07760431 -0.07436963  0.12928174 -0.19696817
  0.2369051   0.19894533  0.01086276  0.10390425  0.14347297  0.09079674
 -0.0089759   0.0114701  -0.13161778 -0.06517019  0.05708187 -0.01323727
  0.12533133  0.06277913]