[-1.54040322e-01  1.15416460e-01  5.35313925e-03 -5.92784174e-02
 -3.64506394e-02 -3.09112258e-02  2.58533726e-03 -1.66515842e-01
  1.74466610e-01 -8.79298300e-02  3.13443750e-01  1.91701632e-02
 -2.03602478e-01 -1.35990232e-01 -5.08039258e-02  1.61609501e-01
 -2.24423155e-01 -1.21331789e-01 -3.10434084e-02 -2.31918301e-02
  8.67224857e-02 -8.11726227e-02  1.25524346e-02  3.78509201e-02
 -1.33240238e-01 -2.80403942e-01 -1.07833281e-01 -8.93451050e-02
  7.49126151e-02 -1.15515664e-02  6.46373583e-03 -3.44744958e-02
 -2.01710746e-01 -5.28711453e-02 -1.13230059e-02  1.04984879e-01
 -1.72406025e-02 -4.43173163e-02  2.04620197e-01 -4.37932871e-02
 -2.00571939e-01  6.79693446e-02  5.41803613e-02  2.47614264e-01
  1.67041123e-01  2.20851488e-02  9.01569948e-02 -1.53616667e-01
  1.18320659e-01 -1.50750592e-01  9.15418416e-02  9.54490602e-02
  1.48903668e-01  4.65006605e-02  1.62448473e-02 -2.30307922e-01
 -1.32257193e-02  1.03369094e-01 -1.46962896e-01  1.28695965e-02
  5.41748516e-02  2.67234240e-02 -3.61982286e-02 -2.85223071e-02
  1.88878283e-01  1.55010521e-01 -1.27015471e-01 -2.13361979e-01
  1.67018518e-01 -1.52118653e-01 -5.98895513e-02  7.88390711e-02
 -1.37647778e-01 -1.83642253e-01 -3.20532769e-01  2.42958479e-02
  4.24252599e-01  9.90190729e-02 -1.81871369e-01  4.60569635e-02
 -8.36806223e-02 -1.83644894e-04  1.26390561e-01  1.17412947e-01
 -4.49401550e-02  6.61034361e-02 -1.23014800e-01  3.74241290e-03
  2.04259232e-01 -4.28950563e-02 -8.10035616e-02  1.75919220e-01
  3.25360782e-02  4.56790663e-02  2.28229892e-02  5.59535399e-02
 -6.72721416e-02  6.62182793e-02 -1.33254871e-01 -3.43423523e-02
  4.08395901e-02 -1.81757696e-02  1.18624326e-02  6.97217882e-02
 -1.77899271e-01  1.59879982e-01  4.35778312e-02  5.13307117e-02
 -2.96947565e-02  2.86352839e-02 -8.84874389e-02  1.14685735e-02
  1.25967741e-01 -2.63880312e-01  2.70696282e-01  1.78550586e-01
  1.72312651e-02  1.41543671e-01  1.58048585e-01  5.86465076e-02
  2.23807935e-02 -5.17493580e-03 -1.73780277e-01 -3.41216885e-02
  6.81419810e-03 -4.48478423e-02  1.51517659e-01  4.20480072e-02]