[-0.16294564  0.20360017  0.02696449 -0.01117782 -0.15056685 -0.02606842
 -0.06142095 -0.1268927   0.15988111 -0.01668143  0.22297668  0.00635578
 -0.1799815  -0.13820715 -0.07425608  0.16567807 -0.16393287 -0.20763652
  0.03529605 -0.00422342  0.0960518   0.00687714  0.01092685  0.04610147
 -0.13534646 -0.30668733 -0.05648589 -0.08603024  0.04846906 -0.04842686
 -0.00619478  0.0420748  -0.17738688 -0.06683802  0.06292069  0.14805333
 -0.04009406  0.02089258  0.21052723 -0.02456524 -0.21023934  0.01361054
  0.07757165  0.28603649  0.16534734  0.0625265   0.06343348 -0.14358765
  0.09902799 -0.13528852  0.10308516  0.18134435  0.16459207  0.05531646
  0.00194365 -0.17679778  0.0108692   0.11180311 -0.15227719  0.04730179
  0.08855964 -0.05335006 -0.03302812 -0.02608809  0.26093492  0.08859615
 -0.08790139 -0.16282521  0.16117096 -0.13229774 -0.12708059  0.08380497
 -0.10583281 -0.13833335 -0.28571075  0.00169311  0.43712711  0.06114497
 -0.18727779  0.05462012 -0.0360228  -0.00835204  0.06334338  0.10553063
 -0.13653861  0.02008423 -0.1295812  -0.01400652  0.24075332 -0.02120037
 -0.02793242  0.17993852  0.05927366  0.09376015  0.05988806  0.02256664
 -0.01499362  0.0465537  -0.09292512 -0.06606402  0.03563594 -0.09582678
  0.01403663  0.09331071 -0.19815882  0.10500766  0.03565523  0.08391671
 -0.01305398  0.04914292 -0.09822636 -0.05699414  0.16020527 -0.22539094
  0.27891633  0.13861004  0.018037    0.13261929  0.16421533  0.0973276
  0.01884052 -0.064707   -0.11515754 -0.02769386  0.07707598 -0.08206493
  0.13060783  0.07891483]