[-1.50531292e-01  1.54165059e-01 -8.54179307e-05 -3.01883053e-02
 -1.32306397e-01 -4.44063060e-02 -8.27208757e-02 -1.23791985e-01
  1.69672057e-01 -5.03860898e-02  2.11200833e-01 -3.52655584e-03
 -1.81436762e-01 -1.32016331e-01 -9.21254605e-02  1.77252218e-01
 -1.72299072e-01 -1.71427935e-01  5.27964532e-02  1.38122737e-02
  1.15078025e-01  1.68902334e-02 -9.02139302e-03  5.70402220e-02
 -1.47377893e-01 -2.98191398e-01 -8.43419209e-02 -8.16677362e-02
  1.46821234e-02 -2.58813109e-02 -2.71648411e-02  4.57252562e-02
 -1.73986182e-01 -6.25287443e-02  6.54779896e-02  1.50875285e-01
 -4.32481878e-02  2.74550747e-02  1.90737382e-01 -6.47543464e-03
 -2.21321627e-01  1.94041524e-02  8.78633484e-02  2.81871021e-01
  1.85494006e-01  6.08945154e-02  6.49871677e-02 -1.59694880e-01
  9.12625417e-02 -1.21701717e-01  6.73698485e-02  1.72765881e-01
  1.44498453e-01  6.65870532e-02 -2.49233861e-02 -1.45990476e-01
  1.85662489e-02  1.06254198e-01 -1.59205496e-01  4.35514711e-02
  1.08843639e-01 -7.86428750e-02 -5.11233583e-02 -1.61767006e-02
  2.69679904e-01  7.91255161e-02 -1.12039141e-01 -2.12385058e-01
  1.74126744e-01 -1.88275486e-01 -1.60251126e-01  8.14571604e-02
 -1.12040699e-01 -1.47502393e-01 -3.32593888e-01 -1.98736824e-02
  4.19941485e-01  8.22127610e-02 -1.77231222e-01  9.07935649e-02
 -4.47669737e-02 -4.94095497e-03  9.52440277e-02  1.40485451e-01
 -7.36232102e-02  3.23481821e-02 -1.14437364e-01 -3.02397758e-02
  2.64658451e-01 -3.45844738e-02 -3.33932750e-02  1.72336593e-01
  6.78694919e-02  9.90740582e-02  5.23172393e-02  2.16412470e-02
 -1.69390421e-02  3.13079841e-02 -1.01142384e-01 -5.83108328e-02
  2.09777113e-02 -6.88391775e-02  2.22783592e-02  1.13647692e-01
 -1.79938987e-01  1.46408439e-01  3.06208637e-02  7.14221522e-02
 -5.50414622e-03  5.38335405e-02 -1.15561917e-01 -6.37141764e-02
  1.52342364e-01 -2.29787305e-01  2.71619052e-01  1.35629058e-01
  6.67818338e-02  1.16410613e-01  1.69531778e-01  1.04848050e-01
  1.71621668e-03 -4.29021232e-02 -1.51231587e-01 -3.49384882e-02
  5.64468317e-02 -8.29760879e-02  1.58965573e-01  6.24121688e-02]