[-1.21968701e-01  1.97712973e-01  5.42485416e-02 -6.13152944e-02
 -9.09832567e-02  3.46435467e-03 -5.62207699e-02 -1.19308494e-01
  1.56500742e-01 -8.76017958e-02  2.77563632e-01 -2.10188981e-02
 -2.08210692e-01 -9.10715088e-02 -5.43994568e-02  1.70696095e-01
 -2.11015299e-01 -1.43987894e-01 -8.69469717e-03 -2.26729661e-02
  9.94781628e-02  6.90933783e-03 -1.52119529e-03  8.34438112e-03
 -1.30386233e-01 -3.12261075e-01 -8.43399838e-02 -1.33692939e-02
  5.56143522e-02 -3.63532118e-02 -6.71830624e-02 -1.62850323e-04
 -1.76344186e-01 -3.98967378e-02  4.36624438e-02  1.22802831e-01
 -1.88599098e-02 -4.67002951e-02  1.98614821e-01 -1.86087785e-03
 -2.12476417e-01  3.59481834e-02  7.30829313e-02  2.78880686e-01
  2.16246799e-01  3.81993167e-02  2.31399778e-02 -1.59193903e-01
  1.35205224e-01 -1.43025368e-01  5.54884374e-02  1.67969301e-01
  7.97025487e-02  6.01249821e-02  1.77833419e-02 -1.74541220e-01
 -2.38403436e-02  1.37961909e-01 -1.10063411e-01 -3.95804346e-02
  4.37956974e-02 -5.42234965e-02 -4.24066046e-03 -1.03181802e-01
  2.40380317e-01  1.00405835e-01 -9.93578583e-02 -2.32996464e-01
  1.78710386e-01 -1.24023117e-01 -1.19315170e-01  9.14146528e-02
 -1.42545700e-01 -1.23566352e-01 -3.10521424e-01 -1.77409500e-04
  4.22961950e-01  6.90283850e-02 -1.98606491e-01  4.31450866e-02
 -3.65996659e-02 -4.97033931e-02  1.40787497e-01  1.54633164e-01
 -4.29211780e-02  4.02448885e-02 -1.18796252e-01 -2.32911371e-02
  2.91992515e-01 -4.52589504e-02 -6.89055994e-02  1.67098507e-01
  3.75335626e-02  8.48838836e-02  6.04743548e-02  2.26412900e-02
 -7.39988610e-02  3.75383124e-02 -1.85590148e-01 -6.82475716e-02
 -9.43783578e-03 -5.81397712e-02 -4.82107252e-02  1.58785045e-01
 -1.85871437e-01  1.33602068e-01  4.61693890e-02  3.41243260e-02
 -4.05864343e-02 -1.43474564e-02 -6.30944148e-02 -2.21711043e-02
  1.45039484e-01 -2.55091727e-01  2.17814356e-01  1.64941773e-01
  5.61385825e-02  1.23183548e-01  1.36250392e-01  7.22845644e-02
  6.98947534e-03 -1.29052717e-02 -1.75583825e-01 -4.10211943e-02
  4.46595438e-02 -6.05758913e-02  1.30623072e-01  2.59799492e-02]