[-0.18135123  0.17029908  0.01378332 -0.10586534 -0.16710725  0.02207105
 -0.05850424 -0.13591562  0.14836596 -0.1176775   0.25543609 -0.03073343
 -0.20987462 -0.08221612 -0.06911858  0.19389422 -0.20015232 -0.17942855
  0.03889111 -0.05566401  0.07581752  0.01248389 -0.02680541  0.03010763
 -0.12818268 -0.28423101 -0.0584814  -0.08375116  0.020933   -0.06801435
  0.00978673  0.04447785 -0.15041064  0.02086365  0.01245215  0.16487925
 -0.02812219 -0.03066683  0.15742783 -0.00443809 -0.21096568  0.01124611
  0.07625957  0.2658363   0.19197303 -0.01818182  0.05405546 -0.13444977
  0.14444257 -0.15748952  0.065154    0.10983697  0.14812076  0.03184092
  0.03804634 -0.18504536 -0.00171511  0.12250455 -0.12429132  0.03117486
  0.09014832 -0.06460616 -0.03515669 -0.07702032  0.24816249  0.12273532
 -0.1176568  -0.2002724   0.18294208 -0.12394567 -0.16211696  0.10037974
 -0.13767682 -0.13162149 -0.30849752  0.0103454   0.37908697  0.07895681
 -0.17932728  0.03144745  0.02029063  0.00335653  0.08787189  0.17433606
 -0.06739435 -0.00354734 -0.12865965 -0.02934606  0.24803577 -0.04390331
 -0.0706341   0.16363238  0.01206222  0.07435923  0.03118256  0.05903745
 -0.06809299  0.01295031 -0.10052528 -0.07918346 -0.00210495 -0.10409994
 -0.06377374  0.12986289 -0.17411499  0.15231444 -0.02443721  0.06064976
 -0.08005538 -0.00982718 -0.02852007  0.04374715  0.15065663 -0.22428587
  0.22738686  0.15561494  0.02945369  0.13735147  0.14845634  0.05859121
  0.00325872 -0.03869301 -0.17365681 -0.06173614  0.02676916 -0.08496299
  0.09815627  0.05771127]