[-1.48561567e-01  1.61114395e-01  9.94299632e-03 -2.55282354e-02
 -1.24683432e-01 -3.67296748e-02 -8.14509764e-02 -1.25837594e-01
  1.66302964e-01 -5.14408834e-02  2.20946461e-01  4.54336396e-06
 -1.75174654e-01 -1.30749762e-01 -8.92999396e-02  1.79126561e-01
 -1.74190834e-01 -1.64078638e-01  5.82628734e-02  2.45864037e-02
  1.16202392e-01  1.59861017e-02 -7.75061408e-03  5.31151406e-02
 -1.39204040e-01 -3.05326730e-01 -9.32013392e-02 -8.44193622e-02
  2.15306394e-02 -2.05412991e-02 -3.56677249e-02  3.97269726e-02
 -1.73049748e-01 -6.50105998e-02  5.98309897e-02  1.47581756e-01
 -4.97672036e-02  2.39849631e-02  1.90252095e-01 -3.30825779e-03
 -2.16776446e-01  2.52755079e-02  8.18533897e-02  2.79123098e-01
  1.80541620e-01  6.33749291e-02  7.19891265e-02 -1.60529986e-01
  9.11184624e-02 -1.21852301e-01  7.10434318e-02  1.66714028e-01
  1.58391997e-01  7.17375129e-02 -2.52339095e-02 -1.44853845e-01
  1.22943847e-02  1.05622433e-01 -1.63542315e-01  4.90295999e-02
  1.03004135e-01 -6.83433414e-02 -3.57979350e-02 -1.72318742e-02
  2.78160691e-01  8.74125138e-02 -1.18573479e-01 -2.03012928e-01
  1.69516310e-01 -1.78696558e-01 -1.52419433e-01  7.88083002e-02
 -1.13090687e-01 -1.51704118e-01 -3.27865392e-01 -6.97506964e-03
  4.22328621e-01  7.68255070e-02 -1.72361538e-01  8.06617364e-02
 -5.00494912e-02 -1.72481071e-02  8.62993151e-02  1.46176681e-01
 -7.73303658e-02  3.15207168e-02 -1.05361521e-01 -2.92775277e-02
  2.65309691e-01 -3.93635482e-02 -2.97472905e-02  1.78756729e-01
  5.68516664e-02  1.05913542e-01  4.35006805e-02  2.64112744e-02
 -1.80118419e-02  3.69692221e-02 -9.14247483e-02 -5.24764918e-02
  1.22592887e-02 -7.39096627e-02  2.29857098e-02  1.15316264e-01
 -1.79596946e-01  1.40501067e-01  2.48516556e-02  7.25604594e-02
 -1.85798854e-06  5.21920882e-02 -1.21222787e-01 -6.69310093e-02
  1.52273729e-01 -2.31994435e-01  2.71793753e-01  1.33681819e-01
  5.77157214e-02  1.14544943e-01  1.70248017e-01  1.08084224e-01
  4.69954638e-03 -4.63507064e-02 -1.53495952e-01 -2.76446771e-02
  6.86233565e-02 -8.32595751e-02  1.52634785e-01  5.88147901e-02]