[-0.11959811  0.14467677  0.0453133  -0.03064675 -0.04605284 -0.05683884
 -0.03634826 -0.14583634  0.14780091 -0.0749168   0.22263353  0.02453798
 -0.17209743 -0.17098895  0.0026731   0.15742797 -0.16475521 -0.19317012
 -0.02525913 -0.05933071  0.06057454  0.00492245 -0.00457373  0.00702478
 -0.11347727 -0.27127445 -0.1017983  -0.07797877  0.09309176 -0.05722633
 -0.07530089  0.01933213 -0.18325008 -0.066545    0.05256584  0.08885432
  0.00069396 -0.02285208  0.1961927  -0.00904962 -0.18948683  0.01579711
  0.06893133  0.25058156  0.2035578   0.05083662  0.03728364 -0.09925863
  0.11263851 -0.07371359  0.08132081  0.14473414  0.14500725  0.06253687
  0.02726405 -0.20510553 -0.01308397  0.04835971 -0.11822474  0.02444339
  0.05714044 -0.10792547 -0.05329506 -0.02706272  0.20651503  0.06322356
 -0.07310989 -0.22046371  0.17117243 -0.16097377 -0.10854615  0.04297128
 -0.1456431  -0.08980826 -0.3132011  -0.00239687  0.35391548  0.07341281
 -0.21207753  0.09374701 -0.01591004 -0.01769835  0.12141769  0.15086709
 -0.07008702  0.06627737 -0.10636894 -0.04638103  0.23083067 -0.02242328
 -0.06649107  0.13483071 -0.00422585  0.08817928  0.05668999 -0.02059274
 -0.02784773  0.01267131 -0.10380004 -0.0527369   0.02188811 -0.07299681
 -0.01731535  0.12868743 -0.14631818  0.10161864  0.04220917  0.07758911
 -0.05290079  0.05485028 -0.08991899 -0.06859223  0.10406255 -0.21245721
  0.26372615  0.19020836  0.00690586  0.10180785  0.13166143  0.10254291
  0.01569016  0.01485149 -0.14297496 -0.06031933  0.04939615 -0.04026952
  0.1343479   0.06430342]