[-1.54461130e-01  1.56152606e-01  3.35985683e-02 -1.06787361e-01
 -1.51537627e-01  4.03456250e-03 -6.78247437e-02 -1.83001027e-01
  1.41473413e-01 -1.42427728e-01  2.47331008e-01 -5.66095710e-02
 -2.36970350e-01 -2.26137936e-02 -1.28762349e-01  1.93326160e-01
 -2.10925743e-01 -1.91997096e-01  4.00129100e-03 -5.68528250e-02
  4.23678420e-02 -2.41040364e-02 -4.34802137e-02  5.18459752e-02
 -1.19804338e-01 -2.65962929e-01 -6.87929764e-02 -6.13113120e-02
  1.61002222e-02 -4.69555892e-02 -4.23172110e-04  2.85512265e-02
 -1.66502908e-01  4.48868908e-02 -2.31226757e-02  1.46867543e-01
  4.93811816e-03 -3.89452949e-02  1.39401972e-01  1.82301737e-02
 -2.23695621e-01  2.71984544e-02  7.59513304e-02  2.54723161e-01
  1.94091514e-01  8.25611688e-03  5.22110537e-02 -1.29851997e-01
  1.32489249e-01 -1.61853924e-01  3.66464444e-02  1.14506163e-01
  1.81233168e-01  3.16054337e-02  8.37791245e-03 -1.90413073e-01
 -6.27998961e-03  1.07893489e-01 -1.19356535e-01  4.93150763e-02
  9.04939994e-02 -5.38905449e-02 -2.17136890e-02 -7.14873895e-02
  2.60117859e-01  1.49833500e-01 -1.21383265e-01 -1.73086330e-01
  2.13923052e-01 -1.63181186e-01 -1.57003865e-01  8.46831724e-02
 -1.27098799e-01 -1.24630712e-01 -2.97143191e-01 -1.34880068e-02
  3.99497449e-01  9.23486650e-02 -1.72107980e-01  2.11911276e-02
  2.83042900e-04  1.77888479e-02  8.06259438e-02  1.58184722e-01
 -7.98024610e-02  1.70420725e-02 -1.21528529e-01 -3.69027331e-02
  2.81726688e-01 -4.00962085e-02 -7.61497244e-02  1.63865089e-01
  6.00404991e-03  4.79992442e-02  2.32814495e-02  5.28972149e-02
 -6.39243945e-02  6.16043014e-03 -9.58174467e-02 -7.04667643e-02
 -1.66469719e-02 -8.09298679e-02 -5.61558381e-02  9.12462845e-02
 -1.65413067e-01  1.38486579e-01 -2.16559954e-02  4.37545329e-02
 -6.60520196e-02  3.64363007e-02 -3.31791565e-02  1.93817131e-02
  1.78494781e-01 -2.29928136e-01  2.30436906e-01  1.73713863e-01
  2.94488948e-02  1.05581306e-01  1.28364429e-01  6.76608905e-02
  5.04077878e-03 -2.72631701e-02 -1.30921170e-01 -1.01476274e-01
  1.93976592e-02 -1.16402864e-01  1.25779614e-01  5.63532189e-02]