[-0.14607693  0.13085972  0.02318585 -0.07135966 -0.15284021 -0.00272003
 -0.05694139 -0.14169668  0.13091625 -0.11120871  0.22771648 -0.0426917
 -0.21520709 -0.06381863 -0.11736529  0.21152781 -0.21345726 -0.18805447
  0.02375396 -0.03095492  0.0463691   0.02082221 -0.03980806  0.01687317
 -0.11557062 -0.29514417 -0.03851413 -0.0634908   0.03722866 -0.02215724
 -0.01100668  0.08635794 -0.1516519   0.00520072  0.02323187  0.1804353
  0.00787648 -0.013509    0.15391713  0.0227471  -0.22108702  0.02031226
  0.08831825  0.29565984  0.17805205  0.01966748  0.05606925 -0.14651287
  0.12368438 -0.20039657  0.03402547  0.09511968  0.1458203   0.04489738
  0.009059   -0.19050278  0.02041689  0.08579698 -0.13593139  0.0528442
  0.09072166 -0.05798272  0.00959231 -0.06764827  0.27579832  0.08378857
 -0.10677376 -0.14494754  0.18827756 -0.15440762 -0.16040568  0.06613098
 -0.09408791 -0.11770063 -0.33968744 -0.02170122  0.40556905  0.09150753
 -0.17848057  0.03878419  0.01597665 -0.00995337  0.12634425  0.15488747
 -0.06871521  0.00927516 -0.13681707 -0.04259018  0.30260924 -0.04746173
 -0.05447457  0.15793286  0.0301537   0.07243413  0.03608477  0.06759851
 -0.05461525  0.02336456 -0.12233458 -0.06029785  0.00480098 -0.09954675
 -0.02775959  0.11848839 -0.17459598  0.13716203 -0.01485966  0.03705412
 -0.03279931  0.01739121 -0.04579086  0.0121701   0.1748489  -0.2084236
  0.23379818  0.18324511  0.04234543  0.12975089  0.14282039  0.06224969
 -0.0181979  -0.03698086 -0.14691512 -0.08752724  0.0269707  -0.10343762
  0.11342674  0.07796999]