[-1.25825554e-01  1.21035241e-01  2.86935945e-03 -7.26301223e-02
 -9.66378003e-02 -8.66361987e-03 -6.69666529e-02 -1.45892665e-01
  1.17294624e-01 -7.43064508e-02  2.53470778e-01 -5.60917333e-02
 -1.85377911e-01 -6.37004599e-02 -9.15984511e-02  1.59010246e-01
 -1.90940320e-01 -1.55075967e-01  5.86545328e-03  1.00183180e-02
  9.15554762e-02  4.81223827e-03  1.71792775e-03  4.50546667e-02
 -8.12003240e-02 -2.92901665e-01 -5.82379289e-02 -9.80402008e-02
  4.74978052e-02  6.17669150e-03  6.57065352e-03  1.61877982e-02
 -2.14577004e-01 -2.60562729e-02  1.33383963e-02  1.24007940e-01
  3.09134610e-02 -2.53111124e-04  1.75479800e-01 -1.79927144e-02
 -2.25575492e-01  4.12794612e-02  7.67711625e-02  2.59997100e-01
  1.55097038e-01  4.88279127e-02  5.48173897e-02 -1.55541778e-01
  1.00034595e-01 -1.69172868e-01  8.11578706e-02  1.03636421e-01
  1.38193324e-01  2.69513875e-02  9.88535676e-03 -2.33474970e-01
  1.82487685e-02  7.45885968e-02 -1.40625075e-01  5.54885380e-02
  7.19849691e-02  5.22952341e-02 -4.44910768e-03 -8.26663449e-02
  2.56617159e-01  9.68527868e-02 -1.09722570e-01 -1.92593202e-01
  1.58030823e-01 -1.36913642e-01 -1.06122270e-01  1.15859292e-01
 -1.47404298e-01 -1.47680759e-01 -3.47178817e-01 -1.36276139e-02
  3.64068329e-01  4.78545576e-02 -2.00362086e-01  2.86546778e-02
 -1.85571518e-03  1.81934405e-02  1.09898858e-01  1.05203055e-01
 -5.28757684e-02  6.07228391e-02 -1.21854261e-01 -1.91759970e-02
  2.56143540e-01 -5.11410236e-02 -7.65516981e-02  1.69360325e-01
 -4.86693159e-03  3.53376456e-02  3.59577052e-02  1.12640262e-01
 -3.50251868e-02  2.69190129e-02 -1.71027943e-01 -2.35005915e-02
  3.12779434e-02 -5.00478446e-02 -4.87102941e-02  1.24758974e-01
 -2.06860170e-01  1.07858792e-01 -2.83689406e-02  1.55044645e-02
 -6.54066950e-02  3.62399756e-03 -8.29224959e-02  2.42802277e-02
  1.85940251e-01 -2.07870722e-01  2.57300228e-01  1.68836147e-01
  4.79839034e-02  1.06183447e-01  1.28513321e-01  4.43451218e-02
 -1.91443320e-02 -1.74439456e-02 -2.02777177e-01 -7.30793774e-02
  3.29680517e-02 -8.28740522e-02  9.80197191e-02  6.15931526e-02]