[-0.12349644  0.15487866  0.04420056 -0.09080079 -0.08664355  0.02608604
 -0.03201213 -0.08171126  0.14055917 -0.06062596  0.23459129  0.01937632
 -0.25043678 -0.10377979  0.04122133  0.10933858 -0.1807265  -0.16005372
 -0.09722801 -0.14147814  0.01215185  0.02457017 -0.04839595  0.01591529
 -0.17076249 -0.26429486 -0.06185731 -0.08131939  0.16246302 -0.11966246
 -0.07170358 -0.0458445  -0.17171408 -0.05038708  0.04243233  0.10583267
 -0.00342349 -0.07067487  0.19927208 -0.00781554 -0.1682231   0.02071174
  0.09519085  0.27207741  0.19533879  0.03813326  0.03849384 -0.02737071
  0.17207234 -0.15616137  0.12131107  0.12375822  0.21226738  0.04640605
  0.09049667 -0.25826174 -0.045185    0.1289127  -0.16014163  0.06846636
  0.05654112 -0.10940305 -0.0638572  -0.06171736  0.18768638  0.0970213
 -0.08971882 -0.19864342  0.21419938 -0.14624004 -0.0570824   0.06464859
 -0.10088155 -0.06576985 -0.28059939  0.0350587   0.36861721  0.11155543
 -0.20163532  0.05116965 -0.01770382 -0.03053831  0.06784069  0.08805802
 -0.11644986  0.03036263 -0.09426731  0.01169504  0.22697166  0.0105093
 -0.01119641  0.1331144   0.02970074  0.04239617  0.05300682 -0.00367613
 -0.1169851  -0.0377606  -0.06182338 -0.01106892  0.01917596 -0.15050803
  0.00790142  0.10949804 -0.20822155  0.15587786  0.04410379  0.02067928
 -0.05375917  0.04807256 -0.03582153 -0.01312934  0.16196838 -0.30114192
  0.22580464  0.2061785  -0.00051153  0.12878935  0.07675225  0.06303188
  0.04440245  0.015692   -0.15367709 -0.12374877 -0.01582598 -0.11397522
  0.09990536  0.08955653]