[-0.16685687  0.1658971   0.01117308 -0.10147543 -0.17192625  0.0379335
 -0.0575668  -0.13856022  0.15644595 -0.14280058  0.25410938 -0.04191393
 -0.21157749 -0.0491137  -0.08514655  0.19230376 -0.19996308 -0.1853113
  0.04807067 -0.05630725  0.07333519  0.01613986 -0.029861    0.03537683
 -0.13692366 -0.28946409 -0.05220347 -0.0792341   0.02027726 -0.06546482
  0.00430318  0.05853239 -0.15486161  0.04357557 -0.00102303  0.16772348
 -0.02617382 -0.02682041  0.16299233  0.01924377 -0.21618922  0.01560428
  0.06173423  0.27557936  0.18278013 -0.0198592   0.05635953 -0.13633712
  0.135305   -0.16919959  0.06101978  0.11704158  0.1423098   0.02200951
  0.04000936 -0.18128847 -0.01083167  0.10551854 -0.10919666  0.03655425
  0.09502856 -0.05359006 -0.01939346 -0.0812928   0.25776556  0.11763976
 -0.1063429  -0.18597816  0.19489968 -0.12700406 -0.16842566  0.10163745
 -0.12970051 -0.13955095 -0.29818097  0.01289538  0.3828766   0.09830432
 -0.16876744  0.04775648  0.02224249  0.00366946  0.10195335  0.1807286
 -0.05952938  0.00833734 -0.13028692 -0.0183135   0.25604174 -0.0489389
 -0.07430448  0.16950095  0.00820558  0.06938464  0.03351686  0.05421927
 -0.07506494  0.0133187  -0.10905657 -0.08725207 -0.00220797 -0.08592688
 -0.06337616  0.13443589 -0.17511833  0.14728753 -0.04151931  0.04298672
 -0.07485815  0.00219665 -0.02884742  0.04134686  0.14929909 -0.23066442
  0.20620716  0.14528309  0.02117394  0.13881092  0.15128344  0.05924248
  0.00734697 -0.04011533 -0.17955421 -0.07011525  0.0268759  -0.07857715
  0.09364625  0.05680109]