[-0.10340627  0.16327089  0.06885674 -0.03513167 -0.0437191   0.00136613
 -0.03108726 -0.11327167  0.17353812 -0.06938443  0.29237875  0.00436378
 -0.20005874 -0.09555586 -0.02211896  0.14389776 -0.22026458 -0.1242203
 -0.00931857 -0.0603909   0.03405852 -0.01018562 -0.03248097  0.02623437
 -0.10200091 -0.276474   -0.07262748 -0.10818412  0.09297369 -0.0730879
 -0.05295932 -0.01567209 -0.14548366 -0.04437175  0.00846904  0.06439152
 -0.00436917 -0.02549217  0.18904491  0.00526987 -0.16767208  0.00442817
  0.02636294  0.2913315   0.2065026   0.03159837  0.01844212 -0.12179277
  0.12945986 -0.18359588  0.0532474   0.14898451  0.12386159  0.07988738
  0.01971856 -0.21784504 -0.023781    0.09695297 -0.13648894  0.04528126
  0.06124002 -0.03546003 -0.01994074 -0.05655427  0.24252222  0.10979769
 -0.12085563 -0.19977199  0.16591154 -0.13389915 -0.11443932  0.0727099
 -0.12932207 -0.13694339 -0.2990137   0.02761721  0.3873491   0.08786796
 -0.21218978  0.01118746 -0.0948831  -0.03415675  0.10261307  0.10521652
 -0.06583112  0.00815211 -0.09867372 -0.04671909  0.22828542 -0.01727235
 -0.03823301  0.16269056 -0.02138464  0.06415689  0.02021926  0.04725097
 -0.06799943  0.05187005 -0.1369161  -0.05159546  0.01486358 -0.09245131
 -0.00969414  0.13979207 -0.24245964  0.17325731  0.04309295  0.04071254
 -0.00248805  0.01710298 -0.06836019  0.01873815  0.20712887 -0.2650604
  0.2685512   0.20194224  0.0739684   0.11492329  0.09449787  0.0584164
 -0.02164088 -0.03146244 -0.18902253 -0.04467768 -0.00753579 -0.0901231
  0.05389053  0.04243389]