[-0.15405314  0.11190736  0.01484045 -0.07930147 -0.14748612 -0.01663691
 -0.04686999 -0.12871492  0.13430953 -0.10186403  0.2260046  -0.03079288
 -0.22328758 -0.08610064 -0.11085712  0.19591109 -0.21606617 -0.19095436
  0.02719173 -0.05313694  0.05477142  0.01749574 -0.04007794  0.02612193
 -0.12784879 -0.29241639 -0.03602219 -0.07687607  0.03897632 -0.03410324
  0.00441435  0.09617563 -0.16639921 -0.00269581  0.02174998  0.18019822
  0.00764885 -0.00140886  0.16421863  0.02731015 -0.20575023  0.00788463
  0.08525177  0.29932907  0.17472506  0.02267761  0.05348158 -0.1200244
  0.13025664 -0.2036707   0.04220523  0.10059098  0.15869522  0.04211354
  0.01232291 -0.18402408  0.01961606  0.08892491 -0.14978877  0.06160667
  0.07788491 -0.0764948  -0.00743928 -0.0504028   0.26799962  0.08257616
 -0.09789535 -0.13840304  0.20377314 -0.16366291 -0.15894262  0.07637914
 -0.0883094  -0.11068887 -0.32854044 -0.02041427  0.40357232  0.09111227
 -0.18023218  0.04182575  0.01102122 -0.00685764  0.13320154  0.13659504
 -0.07326823  0.01676766 -0.13712895 -0.03700499  0.29529402 -0.03385643
 -0.06447773  0.15744223  0.04330527  0.07713371  0.05478657  0.04645646
 -0.03733664  0.0069847  -0.12377899 -0.06103361  0.00512411 -0.10199197
 -0.03212735  0.09905543 -0.16457038  0.13134295 -0.00255254  0.03015851
 -0.05025094  0.02189208 -0.05483017  0.00715196  0.16473229 -0.21861711
  0.24309917  0.18292157  0.03425405  0.13617723  0.12897238  0.05010827
 -0.01562135 -0.05484958 -0.13022846 -0.09601881  0.03576835 -0.09557956
  0.12468822  0.06712825]