[-0.18607984  0.15803866  0.00493006 -0.10622299 -0.17695644  0.01694785
 -0.05209475 -0.14784975  0.14578198 -0.12681694  0.26045141 -0.03862731
 -0.19622861 -0.08283356 -0.07068308  0.18440081 -0.20133761 -0.18395458
  0.05297115 -0.06349289  0.08944879  0.00946468 -0.04251762  0.02815214
 -0.14044397 -0.29634172 -0.07256192 -0.08517621  0.01840423 -0.06389172
  0.02375662  0.07458571 -0.15292093  0.02824049  0.00541391  0.17461999
 -0.01898193 -0.0042606   0.15228787  0.02126598 -0.2034729   0.0206062
  0.05934986  0.27943158  0.19011202 -0.01461386  0.05747783 -0.1215384
  0.12779868 -0.19305484  0.05695757  0.11586884  0.12678844  0.02244294
  0.05352416 -0.17976531 -0.01032316  0.0944695  -0.13574544  0.04113172
  0.09367918 -0.07180814 -0.03362967 -0.08070003  0.24276908  0.130769
 -0.1091825  -0.18013984  0.18732654 -0.13691892 -0.15915211  0.10038342
 -0.12223315 -0.14354412 -0.31619021  0.02481071  0.40005913  0.10410579
 -0.17065765  0.03708601  0.01620549  0.00561457  0.106828    0.14528601
 -0.0642668   0.00942641 -0.13651383 -0.01323797  0.23963885 -0.04069619
 -0.06145065  0.19019616  0.00369525  0.08740117  0.04186003  0.06907327
 -0.0588258  -0.00050603 -0.10067818 -0.07454657  0.00073196 -0.11398412
 -0.05273785  0.12741749 -0.17286184  0.14986788 -0.04545084  0.04691243
 -0.10844804 -0.01478632 -0.03505741  0.06225527  0.15326026 -0.23670302
  0.20974138  0.16281267  0.00229868  0.14876361  0.14913814  0.04406238
 -0.01417636 -0.06557713 -0.16409956 -0.06382414  0.01282949 -0.07558292
  0.07580264  0.05661161]