[-0.12578969  0.19133256  0.05269609 -0.03655408 -0.06442256 -0.04096195
 -0.02592968 -0.1190858   0.19136024 -0.07157644  0.27552888 -0.01095938
 -0.21741357 -0.10459445 -0.0297753   0.14701276 -0.20819011 -0.10721862
 -0.02586213 -0.06935337  0.04394142  0.01383015  0.00146164  0.0034792
 -0.07521214 -0.27870867 -0.07637224 -0.08822835  0.07597475 -0.0974226
 -0.03043423 -0.00392777 -0.17201762 -0.07951238  0.00307195  0.07223889
  0.01040377 -0.01461695  0.1458631   0.00474566 -0.17680234 -0.03835473
  0.01103053  0.288349    0.18562654  0.02617366  0.00378784 -0.15917921
  0.08512311 -0.12302663  0.01467157  0.13379203  0.08257421  0.05746089
 -0.00100662 -0.20572157 -0.01541848  0.06783279 -0.11114698 -0.0135361
  0.11033728 -0.05855843 -0.0479554  -0.07667665  0.2396605   0.06140219
 -0.1022746  -0.20581229  0.1622864  -0.12617856 -0.09086274  0.07844321
 -0.10618448 -0.12694228 -0.28356576  0.00728165  0.38197216  0.06860533
 -0.18208559  0.01437768 -0.13748145 -0.02431938  0.08771206  0.1053617
 -0.05135331  0.05546259 -0.10629695 -0.02405164  0.20630746 -0.05318644
 -0.02640869  0.14954548 -0.02254395  0.06903761  0.019163    0.01233497
 -0.07859465  0.08095571 -0.1310585  -0.04161347  0.02101124 -0.12319247
 -0.01395673  0.11734002 -0.21375389  0.15341569  0.07577624  0.03734699
 -0.00284953  0.00219763 -0.06482007 -0.01761672  0.20391989 -0.2552292
  0.26761511  0.20795822  0.06895076  0.14119025  0.10064701  0.1052403
 -0.03456679 -0.02976573 -0.17352378 -0.02811574 -0.0046569  -0.07362478
  0.05660751  0.03051682]