[-0.08461315  0.17131351  0.04825466 -0.07830057 -0.0768062   0.03704964
 -0.03724371 -0.11893355  0.1358743  -0.06977586  0.29316515 -0.02263877
 -0.2294427  -0.09218084 -0.0420862   0.14024076 -0.18739896 -0.16117792
 -0.02560814 -0.07940674  0.05266484  0.02355331 -0.04699653  0.0202923
 -0.14928947 -0.23325054 -0.09822013 -0.02683395  0.07566514 -0.11237544
  0.00679331  0.05600328 -0.13023946  0.01429218  0.02979815  0.05087662
 -0.05036419 -0.06131512  0.19303352  0.04640853 -0.16487099  0.03088526
  0.01534792  0.30010125  0.17943102  0.03646213  0.02834462 -0.12842551
  0.118905   -0.19300993  0.06245595  0.20868956  0.12098507  0.08941646
  0.01547842 -0.21609803 -0.00194166  0.11911812 -0.13234298  0.04961213
  0.0411566  -0.10592324  0.03070195 -0.0646799   0.16771851  0.10195185
 -0.10060433 -0.17216931  0.17404239 -0.08450241 -0.11426749  0.10817035
 -0.12843461 -0.16398366 -0.26391599  0.03805344  0.39889497  0.10722151
 -0.17577974  0.01977573 -0.03838489 -0.00712952  0.0943675   0.08618709
 -0.1388649  -0.04585939 -0.11008988  0.00121084  0.24898639 -0.03138884
 -0.07901219  0.18544595 -0.00203479  0.0614872   0.05051265  0.05273698
 -0.03814444  0.05413563 -0.05796656 -0.0233741   0.02220617 -0.14293747
 -0.00648424  0.11984303 -0.18659981  0.19273047  0.04830248  0.0436403
 -0.05981116  0.00964359 -0.06508443  0.05756235  0.17707257 -0.29860029
  0.26421511  0.18494169  0.04921807  0.14395595  0.12898625  0.08666504
 -0.02226212 -0.09050229 -0.10760448 -0.07797781  0.03601844 -0.02904192
  0.09172283  0.0481757 ]