[-0.12447273  0.09438115  0.070691   -0.05647663 -0.07812101 -0.04268828
 -0.05454404 -0.13756731  0.09449004 -0.03389249  0.25604019 -0.04961864
 -0.17145531 -0.15383284 -0.07541963  0.19775756 -0.23526032 -0.13507015
  0.00792705 -0.02643155  0.12519312 -0.00995614  0.00935427  0.01063539
 -0.12727056 -0.28787619 -0.07535481 -0.06776962  0.032492   -0.02765753
 -0.05813191  0.00731793 -0.23614116 -0.07967171  0.03116206  0.08937908
 -0.00360824 -0.06822636  0.12948276 -0.05698427 -0.18736848  0.04726417
  0.08583207  0.23217912  0.21987036  0.06871963  0.00712163 -0.12023834
  0.09877282 -0.11072998  0.04877085  0.11510148  0.07086971  0.05034963
 -0.01372787 -0.12986179  0.00046403  0.11103044 -0.10150614  0.01226891
  0.06547473 -0.09668209  0.01317067 -0.11052545  0.19295375  0.02677289
 -0.09916905 -0.17162308  0.12676023 -0.10962365 -0.10168024  0.02054979
 -0.14979289 -0.13240583 -0.35677812 -0.0079583   0.35932156  0.06156596
 -0.20857863  0.04809684 -0.00153927  0.02537652  0.15911444  0.16159485
  0.01924091  0.04980629 -0.11909794 -0.01700771  0.23130742 -0.0727169
 -0.04528299  0.20534909 -0.02586438  0.04292609  0.03383084  0.03622217
 -0.03136031  0.07795949 -0.11306913 -0.00368485  0.03977874 -0.0376286
 -0.00178993  0.13214843 -0.11039551  0.05339072  0.01831077  0.09541413
 -0.01675281 -0.03107766 -0.08297712 -0.06926332  0.10076188 -0.20495163
  0.23053728  0.2008225   0.03497413  0.10280492  0.11679412  0.08779956
 -0.01130422 -0.00325784 -0.17894648 -0.01734877  0.07362785 -0.02944211
  0.13977075  0.05395905]