[-0.12181848  0.13378321  0.0365839  -0.06350854 -0.07620459 -0.04035673
 -0.0407729  -0.14217727  0.14397864 -0.07395727  0.2188489  -0.07873993
 -0.18127386 -0.09083513 -0.06677713  0.16489534 -0.19702923 -0.11015975
 -0.03974503  0.03813516  0.13864248 -0.02730498  0.02144866  0.0254064
 -0.11534554 -0.32572943 -0.11157278 -0.09831914  0.06615733 -0.06806199
 -0.08530255 -0.03017633 -0.19769238 -0.09606932 -0.01090616  0.0979177
 -0.02074895 -0.05141479  0.10925386  0.00664377 -0.23740576  0.06013377
  0.02499896  0.2448058   0.21732798  0.10355493  0.05537825 -0.1460468
  0.11225788 -0.11412873  0.09555362  0.08662968  0.1066165   0.0589884
  0.03816937 -0.14360188  0.01325858  0.11534797 -0.13395952  0.06165984
  0.11763304 -0.03940426  0.02638574 -0.05675853  0.19457854  0.06334337
 -0.08707649 -0.15391767  0.14104612 -0.14729953 -0.07909435  0.02499473
 -0.1275674  -0.15741675 -0.30466023  0.00329928  0.39998946  0.11685248
 -0.19909592  0.03127116 -0.04388441  0.00355457  0.16092765  0.1728151
  0.00495006  0.05996982 -0.11343247 -0.04681815  0.22181776 -0.08204892
 -0.02573105  0.20985746 -0.02172976  0.02380533  0.02494468  0.01067091
 -0.11184006  0.06329523 -0.08277595 -0.07024111  0.03004233 -0.06275763
 -0.03498926  0.10039965 -0.14724982  0.12255698  0.00330739  0.07528465
 -0.00687204 -0.01097761 -0.06387671 -0.06302127  0.12298298 -0.20222437
  0.2103211   0.20755665  0.02710034  0.1057284   0.11825689  0.10394231
  0.0344807   0.03407948 -0.1818532  -0.02920966  0.07217483 -0.01734742
  0.11033807  0.03149405]