[-0.13386093  0.09756445  0.06397052 -0.02827785 -0.06173125 -0.06634816
 -0.0266291  -0.14050619  0.0946484  -0.03167969  0.25027087 -0.01942566
 -0.14641772 -0.15193495 -0.05788007  0.17385478 -0.23526792 -0.13934286
 -0.00540766 -0.00643552  0.12916207  0.01838155  0.03219691  0.02799286
 -0.10982464 -0.31322327 -0.11129134 -0.10824297  0.04575424 -0.03503152
 -0.061037    0.03792694 -0.17119221 -0.07469262  0.03875283  0.07779454
  0.00691862 -0.05921739  0.13233137 -0.0307733  -0.17568834  0.0635423
  0.08580828  0.28424612  0.24460721  0.08200072  0.01315592 -0.08565658
  0.1042602  -0.11494162  0.04949935  0.11048311  0.07804438  0.04583634
  0.05813631 -0.1398315  -0.00790888  0.07237983 -0.10857226  0.0215522
  0.04163387 -0.05450277  0.02505107 -0.10942592  0.17470625  0.04071666
 -0.0940694  -0.14550778  0.12992811 -0.13968599 -0.12828998 -0.00252456
 -0.18180786 -0.13430117 -0.31317127 -0.02685752  0.3343105   0.09734162
 -0.21246512  0.06625424  0.01492807  0.0194411   0.14835447  0.14086413
 -0.00310563  0.06152366 -0.14116447 -0.04555152  0.21111815 -0.04580062
 -0.04879592  0.21684144 -0.03941792  0.02948288  0.06540885  0.00517273
 -0.0367546   0.06067356 -0.16177131 -0.03374534  0.02300072 -0.04940335
 -0.02878787  0.11628415 -0.11350504  0.05823589  0.01548215  0.10622378
 -0.05406598 -0.02034726 -0.12294248 -0.0188293   0.10934168 -0.17908035
  0.2344514   0.1980262   0.02293044  0.09544218  0.11749915  0.06030494
 -0.02952821 -0.00205549 -0.17661288 -0.03843628  0.08447134 -0.0271255
  0.11553287  0.04790887]