[-0.12022626  0.11492699  0.02672225 -0.0757193  -0.09760843 -0.03819555
 -0.04159327 -0.13836382  0.12627833 -0.0880648   0.21341148 -0.09147499
 -0.17944227 -0.08700256 -0.07561433  0.17119916 -0.2102865  -0.12824932
 -0.02420043  0.03504626  0.12818623 -0.03372861 -0.00813941  0.02675653
 -0.12902217 -0.31901929 -0.11466029 -0.08924153  0.03513042 -0.06465252
 -0.05224603 -0.00629899 -0.21215354 -0.0758789  -0.00341051  0.0938516
 -0.01911568 -0.05615447  0.11710819 -0.00159086 -0.23600879  0.05867396
  0.04353147  0.23945807  0.20000243  0.09150507  0.04238286 -0.13224958
  0.1290646  -0.11030073  0.08239812  0.09172568  0.09752889  0.06802442
  0.02536081 -0.13599415  0.02438131  0.1334492  -0.13228822  0.06187323
  0.10046323 -0.05735018  0.04110439 -0.0631037   0.20815301  0.06025724
 -0.0815261  -0.16096573  0.16064394 -0.14297448 -0.08871795  0.02539486
 -0.12893862 -0.15693377 -0.30647585  0.00431528  0.37839481  0.11991634
 -0.18835938  0.036714   -0.02187868  0.00278914  0.15761344  0.18101525
  0.00613353  0.06112346 -0.102117   -0.03708288  0.24832045 -0.06704955
 -0.03402064  0.2231711  -0.02856299  0.02360092  0.03060537 -0.01142691
 -0.09553317  0.05320451 -0.08050937 -0.05761018  0.03009355 -0.06250428
 -0.03598874  0.12007856 -0.13165663  0.11064958 -0.01331817  0.08573975
 -0.03365317 -0.00394769 -0.0622398  -0.05366227  0.11575501 -0.20183976
  0.2235527   0.1846116   0.02935457  0.09973844  0.12109634  0.08968768
  0.0271438   0.01271234 -0.187424   -0.02845539  0.09200012 -0.01881973
  0.12911765  0.03300055]