[-0.09397843  0.10141668  0.03413608 -0.08399548 -0.13954489 -0.01642751
 -0.09926108 -0.15407099  0.10900529 -0.09526654  0.23798649 -0.03833622
 -0.14692874 -0.10324708 -0.07058906  0.16072665 -0.23398529 -0.14408527
  0.04303481  0.00918824  0.11504984 -0.00581481  0.00491398  0.0323252
 -0.09806057 -0.29193196 -0.13369572 -0.05248197  0.02435612 -0.05728197
 -0.06311022 -0.01575495 -0.20303915 -0.06420296  0.02546804  0.07919619
 -0.01351121 -0.06719984  0.13378352 -0.03240241 -0.17518018  0.07392968
  0.05490835  0.22044544  0.20909202  0.10391928  0.02279956 -0.12330087
  0.11163707 -0.12064488  0.06067211  0.12567778  0.10508318  0.02656086
 -0.02897275 -0.14659557  0.00122954  0.11403167 -0.10246231  0.03508563
  0.08352765 -0.05463192  0.04388843 -0.06762133  0.24661985  0.06756037
 -0.10037074 -0.19457845  0.1433374  -0.11697644 -0.1282247   0.02705534
 -0.1459168  -0.15421236 -0.26362738 -0.01450248  0.39484569  0.08476862
 -0.20255105  0.03838065 -0.05497605  0.00659066  0.11305443  0.13045768
 -0.00264282  0.02536592 -0.14113922 -0.02453543  0.26768798 -0.06684536
 -0.04299182  0.23067117  0.00231959  0.08632376  0.04627983  0.02858633
 -0.03953023  0.08902083 -0.09805083 -0.01618173  0.0172332  -0.04281244
 -0.01982335  0.14885341 -0.13432081  0.13147233 -0.02101738  0.08227283
 -0.04879839 -0.01571566 -0.09372707 -0.03436494  0.12946342 -0.23857203
  0.21307658  0.17649738  0.06128231  0.12947649  0.11622979  0.09149013
  0.01399719 -0.03734086 -0.20684071 -0.04083177  0.05943705 -0.0506838
  0.13884149  0.07380738]