[-1.19485453e-01  1.31112486e-01  1.14075184e-01 -5.09655476e-02
 -7.22432658e-02 -7.51761422e-02 -5.83054908e-02 -1.10782579e-01
  8.92391428e-02 -5.04561476e-02  3.07190448e-01 -7.40210265e-02
 -1.91735268e-01 -1.06996633e-01 -7.57834837e-02  1.65453866e-01
 -2.16735825e-01 -1.10343017e-01  8.21805466e-03 -2.09217258e-02
  1.48027226e-01  1.30668003e-02  8.74894299e-03  3.13787884e-03
 -1.48010224e-01 -3.13755721e-01 -1.06398001e-01 -6.94583729e-02
  1.33009227e-02 -4.12483327e-02 -5.81747368e-02  9.08100605e-03
 -2.04063058e-01 -7.87747428e-02  2.69004535e-02  9.31592509e-02
  1.10609028e-02 -3.36804874e-02  1.12807930e-01 -2.41589304e-02
 -1.88709989e-01  4.97192107e-02  5.08666225e-02  2.92398721e-01
  2.06560209e-01  7.77940601e-02  7.05848727e-03 -9.52421725e-02
  5.79951219e-02 -1.35975942e-01  3.97626758e-02  1.21730983e-01
  8.71242508e-02  4.13213149e-02 -8.51668068e-04 -1.12492107e-01
 -1.21574197e-02  1.32250205e-01 -1.21487342e-01  1.12427659e-02
  6.94643930e-02 -1.04165688e-01  2.71373838e-02 -9.82397124e-02
  2.18103603e-01  4.97822985e-02 -1.28166169e-01 -1.28069341e-01
  1.34000659e-01 -1.08979426e-01 -1.05933025e-01  1.57694798e-02
 -1.76310614e-01 -1.35239452e-01 -3.63763362e-01  9.19818692e-03
  4.00096983e-01  5.13062365e-02 -2.11885557e-01  2.35379450e-02
 -1.16208224e-02  4.01064977e-02  1.51312456e-01  1.60275474e-01
 -2.72761704e-03  5.94236255e-02 -1.24642335e-01  2.24785190e-02
  2.18461022e-01 -9.07647982e-02 -5.42196147e-02  1.96221799e-01
 -3.62135023e-02  7.37710819e-02  3.78763489e-02  2.12054346e-02
 -3.37827243e-02  4.23108563e-02 -1.33699939e-01  2.15016361e-02
  2.10539249e-04 -4.07816395e-02 -4.35969643e-02  1.53077155e-01
 -1.17124915e-01  4.46199439e-02  3.41844745e-02  4.07663621e-02
 -4.65243496e-02 -1.49081619e-02 -6.87458888e-02 -7.83735290e-02
  1.07106842e-01 -2.16695189e-01  2.02923939e-01  2.32493028e-01
  3.49849798e-02  1.04103997e-01  9.81525406e-02  3.69054489e-02
  4.66255093e-04 -8.35894886e-03 -1.82667732e-01 -1.94546450e-02
  6.71145320e-02 -3.55292782e-02  1.17148593e-01  1.62166357e-02]