[-0.11278069  0.13082342  0.0683803  -0.0529124  -0.06434973 -0.05651805
 -0.08276208 -0.13081977  0.08280016 -0.04727684  0.30041462 -0.06737493
 -0.1912936  -0.13324094 -0.07112792  0.17971605 -0.24671935 -0.11392768
 -0.01159768 -0.03166967  0.15321667  0.01954239  0.01081673 -0.00041888
 -0.16399191 -0.30624986 -0.0826026  -0.05320429  0.02207338 -0.05535132
 -0.05247953  0.01056047 -0.23104809 -0.06356441  0.04814633  0.08885022
 -0.00640008 -0.05776979  0.12953691 -0.03089361 -0.18820281  0.06377017
  0.06846302  0.2599825   0.20923607  0.08963396  0.0020444  -0.1284598
  0.11392859 -0.10537795  0.05597481  0.14047316  0.08435524  0.05061793
  0.01059344 -0.13009265 -0.00765125  0.1299022  -0.10137846 -0.02764083
  0.07205836 -0.09152096  0.02903546 -0.11183555  0.18024462  0.02831537
 -0.11760103 -0.14860328  0.09965374 -0.08251531 -0.09535386  0.03027084
 -0.14701973 -0.14640838 -0.33597994  0.00187905  0.37617084  0.04338565
 -0.21586458  0.04376317  0.01217252  0.01059486  0.17417304  0.14988264
  0.00056206  0.04840397 -0.12477525  0.01244593  0.23290472 -0.08871296
 -0.04093273  0.19631018 -0.04164789  0.05137537  0.04033972  0.02681333
 -0.07582524  0.08066303 -0.09363776  0.00280171  0.03289946 -0.03209026
 -0.03659659  0.11710884 -0.10186408  0.07019681  0.03516269  0.07591555
 -0.03126499 -0.03903195 -0.07713362 -0.06608875  0.07626424 -0.23709305
  0.2282574   0.18079028  0.01172473  0.12562864  0.11738759  0.07574822
 -0.0112985   0.00211832 -0.18427853 -0.04698561  0.09098329 -0.00211644
  0.14441514  0.00151882]