[-0.10361483  0.10425098  0.05263326 -0.02939554 -0.05413521 -0.04533868
 -0.0198342  -0.12585394  0.08165594 -0.07343617  0.24838102 -0.01641521
 -0.17803559 -0.14355148 -0.03931799  0.14784823 -0.24371333 -0.15037222
 -0.00603255 -0.01677168  0.12593484  0.01308739 -0.00552507 -0.00879974
 -0.12671636 -0.2867057  -0.10337657 -0.08892144  0.02825588 -0.0336956
 -0.04040488  0.06081324 -0.18411733 -0.0835349   0.05422376  0.06154681
  0.01282627 -0.04443223  0.12740606 -0.0206932  -0.16668732  0.07998887
  0.06185927  0.29161349  0.20897794  0.06579185 -0.01256753 -0.08940895
  0.11492753 -0.09817145  0.02579722  0.10916828  0.10417342  0.05242936
  0.03770613 -0.14254683  0.01788799  0.06712994 -0.14256871  0.01871384
  0.03399955 -0.12252182  0.02214238 -0.10025149  0.15046322  0.01022043
 -0.0857845  -0.17543316  0.13430034 -0.11721063 -0.12823276  0.02109241
 -0.16543171 -0.13571334 -0.31226441 -0.00262071  0.32702765  0.10842985
 -0.20962238  0.07634362  0.04384793  0.00373237  0.15268318  0.17098776
 -0.00862648  0.0689626  -0.1109217  -0.01815358  0.195757   -0.03981071
 -0.100935    0.19856314 -0.05292515  0.03789062  0.08654964 -0.01704337
 -0.03886371  0.04954469 -0.16654848 -0.03580008  0.03148757 -0.07229218
 -0.04158568  0.12954836 -0.08429732  0.05906123 -0.00635279  0.0865404
 -0.07339456 -0.03457749 -0.10970702  0.00048534  0.08962045 -0.2212225
  0.23527229  0.196887    0.02901647  0.09997098  0.12451734  0.02398978
 -0.01422522 -0.00211829 -0.19657551 -0.07408492  0.10790312 -0.0068363
  0.15177822  0.01189845]