[-0.14587273  0.09104918  0.04683943 -0.07563944 -0.10002916 -0.06623831
 -0.06634172 -0.15454862  0.0953665  -0.13242479  0.23223937 -0.07832583
 -0.15973872 -0.08554261 -0.08872428  0.17218189 -0.24257608 -0.14819096
  0.01499661 -0.01055488  0.13850392  0.00146743 -0.00423963  0.01394949
 -0.1988492  -0.30095258 -0.11415622 -0.04864592 -0.02951443  0.00914253
 -0.03715628  0.05819425 -0.23779534 -0.03672359  0.02142785  0.11139578
 -0.04180011 -0.04020276  0.13105808 -0.01535321 -0.17020978  0.04145351
  0.05227869  0.26826909  0.20391965  0.03665724  0.02566886 -0.1235286
  0.08881622 -0.14486983  0.00313126  0.11176797  0.06966741  0.07054962
 -0.00305121 -0.11577903  0.03893047  0.13277456 -0.08820107  0.003994
  0.05422949 -0.12771071  0.00775005 -0.09125827  0.26450914  0.04522702
 -0.11288287 -0.14789414  0.15033944 -0.09753444 -0.10262989  0.02376264
 -0.13336574 -0.15981187 -0.31893477 -0.01493589  0.35378394  0.08790798
 -0.19759811  0.0842353  -0.02146025  0.03959138  0.16409029  0.16313072
 -0.01270731  0.07139892 -0.1174917   0.01992961  0.24862333 -0.0852541
 -0.04793102  0.2272809  -0.00644277  0.05722684  0.06931508 -0.03014815
 -0.05949637  0.04613601 -0.10744558  0.00040492  0.04612687 -0.04609782
 -0.03499669  0.14460871 -0.10313225  0.10511371 -0.01553567  0.07288599
 -0.03850415 -0.05320463 -0.08806302 -0.05101488  0.07953627 -0.24630666
  0.17870723  0.16742201  0.00887302  0.15277882  0.13136266  0.05624733
 -0.03308499  0.02335154 -0.21038067 -0.00513568  0.12391193 -0.01885089
  0.13917544  0.0218187 ]