[-7.80770183e-02  1.45125538e-01  5.42271920e-02 -3.04602720e-02
 -7.06672892e-02 -2.19256040e-02 -2.38273814e-02 -1.29499137e-01
  9.22048911e-02 -2.69369432e-03  2.65302569e-01 -4.39497754e-02
 -1.65456906e-01 -1.44907936e-01 -9.46849808e-02  1.47938907e-01
 -2.47605801e-01 -1.07213520e-01 -4.25159186e-03  2.56024208e-02
  1.01807453e-01  1.08414767e-02  3.70866507e-02  8.86897650e-03
 -6.58223554e-02 -3.04833531e-01 -7.93152824e-02 -6.85399696e-02
  7.72552863e-02 -5.03953509e-02 -6.74214065e-02  2.83897407e-02
 -1.93576366e-01 -6.60748333e-02  3.61074917e-02  5.89858703e-02
  1.05686458e-02 -5.11667840e-02  1.44055888e-01 -2.75105480e-02
 -1.96285084e-01  1.00414686e-01  4.13558222e-02  2.70421565e-01
  2.68752724e-01  6.78325817e-02 -2.20862050e-02 -1.44554675e-01
  1.30578145e-01 -1.19688869e-01  4.72388566e-02  1.54295355e-01
  6.27842396e-02  2.67170854e-02  3.90730820e-05 -1.30340815e-01
 -1.15680089e-02  1.02753818e-01 -1.08569287e-01  5.07099787e-03
  6.77147731e-02 -7.32849464e-02  5.97578287e-02 -1.13478161e-01
  1.46071985e-01  1.68839395e-02 -9.32227373e-02 -1.92728236e-01
  1.12882234e-01 -1.38361990e-01 -9.18414667e-02  5.97132407e-02
 -1.38808355e-01 -1.37885049e-01 -3.00133377e-01  1.30453873e-02
  3.90524507e-01  9.78315994e-02 -2.11796314e-01  3.93774696e-02
 -4.06157859e-02 -3.34661710e-03  1.72420368e-01  1.42480701e-01
 -3.75541480e-04 -1.14343246e-03 -1.61225900e-01 -6.98883981e-02
  2.38267094e-01 -5.22214659e-02 -7.16867074e-02  2.03465983e-01
 -4.65223603e-02  4.99106646e-02  4.89274859e-02  2.28829663e-02
 -5.30517474e-02  1.02567032e-01 -1.44443274e-01 -1.98734980e-02
 -1.32356528e-02 -9.32222903e-02 -4.42881584e-02  1.29284829e-01
 -1.28307283e-01  8.14697295e-02  1.44388424e-02  9.61118862e-02
 -9.32046492e-03 -6.17755316e-02 -7.19110444e-02 -1.64906436e-03
  1.34970441e-01 -2.40593910e-01  2.74174780e-01  1.67175055e-01
  6.67573959e-02  1.04658842e-01  1.20441757e-01  8.71449709e-02
 -2.49412954e-02 -2.61249300e-02 -1.65641263e-01 -4.71171141e-02
  6.13589399e-02 -3.78448330e-02  1.29887804e-01  1.70293916e-02]