[-0.13019209  0.09503923  0.07168406 -0.05382947 -0.0875385  -0.05471496
 -0.0573372  -0.13628863  0.09088369 -0.03918811  0.25185496 -0.05598477
 -0.17072257 -0.14548634 -0.08082079  0.20235638 -0.2380261  -0.14167164
  0.00854061 -0.03064652  0.13569368 -0.0082122   0.00426076  0.00793688
 -0.13416785 -0.28588617 -0.07764592 -0.07146268  0.02316776 -0.02006909
 -0.04891255  0.01134097 -0.23135665 -0.07795314  0.03446697  0.09482537
 -0.00290921 -0.06372728  0.13565679 -0.05860506 -0.19353758  0.04136079
  0.09242373  0.23942252  0.22763932  0.05906236  0.00338217 -0.11323114
  0.10056006 -0.11467075  0.04295294  0.12033129  0.07773077  0.0572108
 -0.00775743 -0.12364686  0.01333609  0.11573271 -0.10449713  0.00046198
  0.07328095 -0.10107968  0.01683185 -0.10300738  0.1919512   0.02092316
 -0.09847652 -0.17046627  0.12649857 -0.11000935 -0.10644408  0.01872466
 -0.15774496 -0.13344787 -0.36440572 -0.01608984  0.3710098   0.06262622
 -0.20729664  0.0542797   0.00212462  0.02728701  0.17085569  0.15476762
  0.02505657  0.0449543  -0.12685579 -0.01170114  0.22794358 -0.08117037
 -0.04724246  0.19685116 -0.02202317  0.04429526  0.03584056  0.03568433
 -0.02877879  0.08152693 -0.11658257  0.00368823  0.03236679 -0.0318871
 -0.00520462  0.12772466 -0.10398526  0.05055475  0.02410263  0.09883276
 -0.03531021 -0.03335946 -0.09114781 -0.06353916  0.09968632 -0.20034666
  0.22611406  0.19974422  0.02076638  0.10323264  0.12156506  0.07844979
 -0.01409771 -0.00792894 -0.18469898 -0.01666309  0.07204243 -0.02347579
  0.1402788   0.05573693]