[-1.31347418e-01  1.48898482e-01  7.59308562e-02  2.80714519e-02
 -9.59656984e-02 -1.63272384e-03 -2.66351104e-02 -8.29388052e-02
  5.72709627e-02 -2.01615375e-02  2.35774115e-01 -7.14429840e-02
 -1.98903561e-01 -7.32681230e-02 -9.59336907e-02  1.45832822e-01
 -1.62748471e-01 -1.53497860e-01 -9.92393494e-02 -5.60819022e-02
  9.67571512e-02  4.96178791e-02 -2.39385366e-02  7.62687763e-03
 -1.06288992e-01 -3.21823895e-01 -5.27875088e-02 -5.77453338e-02
  4.95295711e-02 -1.13475084e-01 -5.34201674e-02  3.88405775e-03
 -1.74224421e-01 -6.19178414e-02  5.44509403e-02  6.47213385e-02
 -1.06529368e-03 -2.75701080e-02  1.54716954e-01 -1.30059198e-02
 -1.94451168e-01  9.26368460e-02  1.04816161e-01  3.34025770e-01
  1.66588411e-01  1.11395217e-01 -4.16909754e-02 -7.23844916e-02
  9.20222625e-02 -1.82160556e-01  5.83236925e-02  1.76364586e-01
  1.17717579e-01  1.01042546e-01  4.40127142e-02 -1.44056305e-01
 -1.33340436e-04  7.47424811e-02 -1.08535640e-01  2.80324761e-02
  8.39459449e-02 -9.14171785e-02  3.25610526e-02 -1.37936041e-01
  1.84478894e-01  4.90331203e-02 -9.52269807e-02 -1.55409306e-01
  6.19385950e-02 -1.48318991e-01 -7.89810196e-02  5.62587455e-02
 -9.78454500e-02 -1.19965091e-01 -2.72779644e-01  4.63446826e-02
  3.97684216e-01  1.34340554e-01 -2.21376568e-01 -4.74595604e-03
 -2.21510474e-02  1.75593626e-02  1.38435841e-01  8.70118067e-02
 -4.80667353e-02  2.13255435e-02 -1.26550242e-01 -2.60403454e-02
  2.12390974e-01 -3.05230860e-02 -4.91686836e-02  1.67185232e-01
  5.19907521e-03  2.01996509e-02  5.01148589e-02  2.10786667e-02
 -9.86366719e-02  3.35828401e-02 -9.42671522e-02  1.23815713e-02
 -2.55189370e-02 -7.31955394e-02 -1.23810722e-02  7.50369430e-02
 -1.15652025e-01  1.15405791e-01  7.41691911e-04  5.67955784e-02
 -4.02717926e-02  3.34741734e-02 -8.04071352e-02 -2.60691624e-02
  1.11148499e-01 -2.62526333e-01  2.39432260e-01  1.85579821e-01
  1.12654893e-02  1.15048684e-01  1.01394787e-01  9.30964649e-02
 -3.64416987e-02  2.60782000e-02 -1.27849296e-01 -1.06332920e-01
  6.82013556e-02 -5.06901257e-02  9.29428712e-02  1.58029385e-02]