[-8.88385698e-02  1.14317395e-01  7.35283270e-02 -1.98875014e-02
 -6.90332577e-02 -2.13690754e-02 -1.54947434e-02 -1.34429589e-01
  9.91600528e-02 -8.10814351e-02  2.55632877e-01 -3.22865918e-02
 -1.86447501e-01 -1.32743075e-01 -6.18507229e-02  1.60861537e-01
 -2.45973587e-01 -1.51026070e-01  2.48071738e-04  4.99843759e-03
  1.33332059e-01  1.77658796e-02  7.32608512e-03 -2.46128794e-02
 -1.00260876e-01 -3.08912873e-01 -1.04390204e-01 -7.94194639e-02
  6.82162270e-02 -3.52629945e-02 -6.14626892e-02  4.27861623e-02
 -1.75279304e-01 -7.76632354e-02  5.05562313e-02  5.35256751e-02
  1.17448000e-02 -6.07978590e-02  1.29443809e-01 -3.27145755e-02
 -1.81812748e-01  9.77973938e-02  5.61108589e-02  2.75628567e-01
  2.08001137e-01  6.86957240e-02 -3.23092449e-03 -1.20838419e-01
  1.19634412e-01 -9.76745859e-02  2.51113772e-02  1.21302962e-01
  1.00445628e-01  5.71181364e-02  2.37397775e-02 -1.42362937e-01
 -2.51590507e-03  7.83093870e-02 -1.32013604e-01  3.47659476e-02
  6.09467290e-02 -9.11181793e-02  3.29108201e-02 -1.08858518e-01
  1.56092763e-01  3.07895220e-03 -1.01273693e-01 -1.97873384e-01
  1.26418561e-01 -1.28134504e-01 -1.20820068e-01  2.06971597e-02
 -1.72809109e-01 -1.25173971e-01 -2.93822974e-01 -6.55192370e-03
  3.43397558e-01  8.82104710e-02 -2.01833040e-01  6.65326566e-02
  2.17668153e-02  8.41494650e-03  1.36836514e-01  1.84564680e-01
  1.44399016e-03  5.56778200e-02 -1.11722983e-01 -3.96465212e-02
  2.06909403e-01 -5.65826669e-02 -8.50472674e-02  2.15005353e-01
 -5.04571088e-02  4.93385941e-02  6.34148344e-02 -3.31727602e-03
 -4.73346040e-02  5.99850304e-02 -1.52461082e-01 -3.32660936e-02
  7.11846352e-03 -7.49805942e-02 -3.99106331e-02  1.31028578e-01
 -9.15053859e-02  7.65620098e-02 -2.00585928e-02  1.10087395e-01
 -3.84346880e-02 -3.79590765e-02 -9.93049517e-02 -4.23524110e-03
  1.03223227e-01 -2.28544027e-01  2.42163226e-01  1.99242711e-01
  5.47529235e-02  8.87657925e-02  1.25329956e-01  4.52944078e-02
  3.26886766e-05  1.05732074e-02 -2.01928973e-01 -6.71965405e-02
  8.87377188e-02 -3.23600359e-02  1.21267714e-01  1.44282728e-02]