[-0.0974943   0.12276579  0.0648018  -0.01946447 -0.05907074 -0.04226851
 -0.02601747 -0.13660279  0.08071511 -0.08641933  0.26155314 -0.01191169
 -0.17919521 -0.15817682 -0.04642686  0.14376672 -0.24288996 -0.14454274
 -0.00476684  0.00195152  0.14593624  0.00563033  0.01499293 -0.01121427
 -0.1199437  -0.30589271 -0.11350395 -0.08552106  0.05520963 -0.05689929
 -0.05658837  0.03155302 -0.18615253 -0.09257986  0.02940263  0.05839385
  0.01043195 -0.05712016  0.11979625 -0.02603795 -0.17160463  0.09890249
  0.05238745  0.28368568  0.21804738  0.08213596 -0.00129012 -0.09628317
  0.12196457 -0.10291371  0.03753319  0.101505    0.10799829  0.05207136
  0.04910262 -0.14300847  0.01253299  0.07705453 -0.146502    0.02989438
  0.03647629 -0.10246672  0.04298154 -0.08766454  0.15138923  0.01315876
 -0.08324519 -0.16143043  0.13606885 -0.12357868 -0.11611041  0.0204016
 -0.15548646 -0.13356768 -0.29975128 -0.00240608  0.33370763  0.11856141
 -0.20252906  0.06936063  0.02743611  0.00466494  0.14567952  0.16282213
 -0.00745217  0.06315842 -0.12611555 -0.01811466  0.192219   -0.03669661
 -0.08891056  0.22067583 -0.04728409  0.04023131  0.08783776 -0.00957004
 -0.06276771  0.05517894 -0.15467951 -0.03868349  0.02959445 -0.08077724
 -0.04445996  0.12062657 -0.08650594  0.06643112 -0.01495695  0.09680003
 -0.06042501 -0.04188988 -0.10836238  0.0087498   0.08382759 -0.23059984
  0.24557331  0.19920559  0.02800317  0.10360467  0.12779348  0.02875653
 -0.00663199 -0.0162487  -0.19138499 -0.07930506  0.1023137  -0.02194012
  0.15434937  0.0134868 ]