[-1.25859454e-01  9.72097442e-02  7.90599436e-02 -5.11384085e-02
 -7.11846501e-02 -4.76644076e-02 -5.29620759e-02 -1.30459547e-01
  8.76226351e-02 -4.60464358e-02  2.56422311e-01 -6.29840717e-02
 -1.79721549e-01 -1.39110282e-01 -7.86717683e-02  2.00924978e-01
 -2.32272133e-01 -1.33628517e-01  6.08923053e-03 -1.90962348e-02
  1.31525517e-01 -4.81216062e-04  2.08568017e-04  8.04571062e-03
 -1.17308140e-01 -2.82847613e-01 -8.75430703e-02 -6.50149211e-02
  3.18411812e-02 -2.88776103e-02 -6.76618293e-02 -1.35799078e-02
 -2.24342391e-01 -8.16684514e-02  3.67589593e-02  8.44364390e-02
 -8.34739488e-03 -7.41369575e-02  1.24135233e-01 -5.60976975e-02
 -1.90929249e-01  3.99552286e-02  9.20979157e-02  2.40753204e-01
  2.27495745e-01  8.09133276e-02 -5.68635156e-03 -1.24863319e-01
  9.38223824e-02 -1.27020076e-01  4.80673276e-02  1.12197116e-01
  7.30515271e-02  5.41473702e-02 -1.37806116e-02 -1.35821804e-01
  5.04380884e-03  1.09074831e-01 -1.04731023e-01  7.51172099e-03
  6.71276674e-02 -8.87521803e-02  2.07200907e-02 -9.38361809e-02
  1.95060343e-01  1.98260769e-02 -1.07593454e-01 -1.77990064e-01
  1.29478127e-01 -1.23620950e-01 -9.77923721e-02  1.96432155e-02
 -1.47604242e-01 -1.39123335e-01 -3.55080634e-01 -1.05876951e-02
  3.72304976e-01  5.36980517e-02 -1.97509155e-01  5.56942113e-02
 -6.37020031e-03  1.99981835e-02  1.62839636e-01  1.58890709e-01
  2.23300010e-02  3.84457596e-02 -1.26466557e-01 -2.12065112e-02
  2.38822326e-01 -8.92726108e-02 -4.08846624e-02  1.99601755e-01
 -3.07456441e-02  3.78337018e-02  3.56945656e-02  4.25669663e-02
 -3.35539877e-02  8.47882703e-02 -1.15540422e-01 -1.60194933e-04
  3.78595106e-02 -4.00467776e-02 -1.13733122e-02  1.38611913e-01
 -1.19878426e-01  5.58595322e-02  2.25285236e-02  8.54232535e-02
 -1.61638595e-02 -4.22919132e-02 -1.00277081e-01 -6.75013289e-02
  1.07466951e-01 -2.07632333e-01  2.22373560e-01  2.08573014e-01
  4.01816256e-02  9.96623635e-02  1.23577140e-01  8.00785944e-02
  3.24692135e-03 -3.18773161e-03 -1.94504246e-01 -1.90091915e-02
  7.04813749e-02 -3.03119868e-02  1.27824709e-01  5.04332669e-02]