[-0.11851063  0.13438247  0.07916313  0.001785   -0.04794844 -0.02928433
 -0.04065082 -0.11758558  0.07287525 -0.05905295  0.24763171 -0.06291161
 -0.18208024 -0.09924551 -0.07883348  0.1601422  -0.18242529 -0.1513979
 -0.06030098 -0.02582281  0.11035134  0.02900844 -0.02226362 -0.009528
 -0.11671507 -0.30702782 -0.09896451 -0.0581972   0.00173116 -0.0552444
 -0.04498292 -0.03003916 -0.19408399 -0.04820017  0.04287239  0.05243678
 -0.01442503 -0.04512596  0.16515224 -0.00435404 -0.20197399  0.07883467
  0.09262333  0.29561639  0.17334454  0.08943524 -0.01245373 -0.10647547
  0.08124363 -0.101709    0.05179436  0.15923312  0.09541836  0.07403041
  0.03512863 -0.11592411  0.00464801  0.10504232 -0.11758853  0.01827739
  0.08951758 -0.09175684  0.02011453 -0.10729754  0.19118519  0.06049604
 -0.0965412  -0.18534702  0.11328073 -0.15188099 -0.10340502  0.04100187
 -0.12199842 -0.13858862 -0.31254202  0.00836619  0.38184986  0.08639391
 -0.21158493  0.01996237  0.00897013  0.00324568  0.19219251  0.14647257
 -0.0185291   0.04612183 -0.10551268 -0.03571978  0.25178009 -0.02064862
 -0.07093465  0.15575586 -0.020422   -0.00129556  0.0569513  -0.00941535
 -0.04830705  0.03872148 -0.11368753  0.01654445 -0.03800786 -0.06527155
 -0.04455313  0.09867264 -0.10545678  0.07587009  0.02123227  0.04481078
 -0.06512821  0.01065269 -0.10530577 -0.03233473  0.10476673 -0.24642824
  0.23056975  0.17236544  0.01981861  0.09233887  0.11033051  0.09311707
 -0.03324557  0.01888205 -0.18489572 -0.07772665  0.06405433 -0.02489557
  0.15515421  0.01208819]