[-0.15107755  0.09396403  0.08206972 -0.05262188 -0.09212829 -0.04801331
 -0.05522949 -0.14639421  0.10576686 -0.1314612   0.24055345 -0.07319742
 -0.16776465 -0.086899   -0.08692221  0.1707273  -0.23019223 -0.14473128
  0.01081075 -0.00066434  0.13957083 -0.0039705  -0.00812459 -0.00803639
 -0.17962107 -0.3235231  -0.11756857 -0.04237511 -0.01631949  0.00384897
 -0.04693394  0.03340324 -0.22863817 -0.0342256   0.00740977  0.09461702
 -0.03608502 -0.04697083  0.12773328 -0.02360086 -0.18042003  0.05188184
  0.04185519  0.25307241  0.20351104  0.05203917  0.02832335 -0.1344716
  0.09688675 -0.13863832  0.01187403  0.11897878  0.07365828  0.07272881
 -0.0077916  -0.12389975  0.01284523  0.12477338 -0.08126829  0.0171593
  0.04972322 -0.11402638  0.00815376 -0.09266078  0.25656143  0.04499629
 -0.1242247  -0.14937355  0.1545718  -0.10335299 -0.0825564   0.01577531
 -0.13477039 -0.166224   -0.29558223 -0.00077072  0.36333618  0.06648352
 -0.21354561  0.07327443 -0.0377771   0.03490878  0.15446864  0.18832861
  0.00070277  0.06938053 -0.10757252 -0.00530731  0.25398993 -0.08620816
 -0.0365378   0.24570727 -0.00524688  0.05832257  0.06237578 -0.02439542
 -0.05496235  0.04948326 -0.09770274 -0.00128496  0.03508031 -0.05536915
 -0.04237011  0.12208565 -0.11035284  0.12226937 -0.00754376  0.09560829
 -0.01484245 -0.06082861 -0.07918219 -0.05396521  0.0914861  -0.25243929
  0.18775651  0.16946097  0.01289573  0.16250551  0.12863834  0.07935323
 -0.01372415  0.02783316 -0.2056078  -0.0020359   0.11038708 -0.03201793
  0.11664909  0.02607502]