[-0.13671106  0.07453441  0.07078092 -0.02068531 -0.05101471 -0.06444093
 -0.03177243 -0.10366978  0.0645849  -0.04704194  0.24874344 -0.04510308
 -0.15815759 -0.14766039 -0.03564089  0.16884246 -0.24227138 -0.14178634
 -0.00614401 -0.01180714  0.12575839 -0.01010704 -0.00517538  0.00805229
 -0.13539974 -0.28796616 -0.09874504 -0.08974746  0.03551017 -0.03050837
 -0.06727347  0.04703435 -0.19530128 -0.08204245  0.04190469  0.07985254
  0.00928945 -0.06008433  0.13115247 -0.02978839 -0.17911641  0.06138832
  0.07526036  0.26769787  0.21548867  0.07818259 -0.01030892 -0.07314954
  0.10652991 -0.11341126  0.02994615  0.12305633  0.0972192   0.06439724
  0.0486079  -0.13685043  0.04391563  0.07305714 -0.11742165 -0.01461252
  0.01765417 -0.08715302  0.0510299  -0.0931624   0.16191494  0.0117358
 -0.0655758  -0.1486219   0.1255717  -0.09663259 -0.10834228  0.03039281
 -0.16136461 -0.1400671  -0.31434393 -0.01524056  0.33150968  0.08932097
 -0.20757535  0.0963568   0.0293343  -0.01580991  0.17205976  0.14727488
  0.00217475  0.06727211 -0.11927992 -0.02517285  0.20514353 -0.04848884
 -0.04925267  0.17317002 -0.03232583  0.02102452  0.0826075  -0.01669015
 -0.0192694   0.06925704 -0.13111526 -0.02159367  0.0407019  -0.0610795
 -0.04231761  0.09940257 -0.12088602  0.04480162  0.02595831  0.08113661
 -0.07077752 -0.04008807 -0.09658355  0.00587908  0.07770932 -0.23566006
  0.22734785  0.20261315 -0.00320825  0.10057519  0.10447141  0.03731281
 -0.03030435 -0.00668372 -0.18158562 -0.0546787   0.10760285 -0.0115436
  0.13187546  0.03157808]