[-0.13165534  0.11016101  0.06363764 -0.05001494 -0.0670168  -0.07586473
 -0.05908496 -0.12019723  0.0812102  -0.05937552  0.2933881  -0.07137081
 -0.1927359  -0.14222926 -0.07260085  0.18832685 -0.23941147 -0.11980762
 -0.02926424 -0.02513082  0.15500814  0.02190885  0.01032726 -0.00353783
 -0.13994078 -0.33313128 -0.08100715 -0.05594847  0.0140908  -0.03405799
 -0.05002104  0.01351184 -0.22842741 -0.08210181  0.05092808  0.09131985
 -0.00975209 -0.05747948  0.11651283 -0.0216828  -0.19456553  0.05199921
  0.07578564  0.26324472  0.21108346  0.09362552  0.0098988  -0.13729422
  0.09712592 -0.10458002  0.03993717  0.12965986  0.06799506  0.05640631
  0.0099369  -0.11721414  0.00925538  0.11464405 -0.10568533 -0.03907512
  0.07208555 -0.09174456  0.00771322 -0.10871493  0.19708292  0.0253173
 -0.10659876 -0.16299538  0.12726915 -0.10413241 -0.11470969  0.0089431
 -0.15671547 -0.13438755 -0.34394571 -0.00232607  0.37510034  0.04418161
 -0.1981521   0.06100855  0.00639405  0.02280941  0.17715196  0.1660177
  0.00723214  0.05659191 -0.11262113  0.00226642  0.22495912 -0.08538858
 -0.05167047  0.18617566 -0.03199312  0.0443512   0.06353938  0.00271007
 -0.06067172  0.07863885 -0.11416085 -0.00410784  0.03988724 -0.03516207
 -0.03134206  0.11622621 -0.09765542  0.06103966  0.02544963  0.07664227
 -0.01617421 -0.0390875  -0.07859733 -0.07510149  0.0637758  -0.21645068
  0.23597465  0.1973062   0.03576749  0.12246292  0.12508014  0.07188666
 -0.00727343  0.02044286 -0.19976389 -0.03828993  0.0915694   0.00259757
  0.13490534  0.00380622]