[-1.32781103e-01  8.69023427e-02  8.53939205e-02 -5.61443809e-03
 -6.09929077e-02 -4.87937741e-02 -1.50535731e-02 -1.22414850e-01
  8.61301348e-02 -4.50521484e-02  2.75451005e-01 -5.73289581e-02
 -1.56660587e-01 -1.48476154e-01 -4.10466082e-02  1.91811249e-01
 -2.60453075e-01 -1.28405675e-01 -5.73723391e-03  5.19108819e-03
  1.34759530e-01 -2.50581950e-02  2.65262206e-03  6.58082729e-03
 -1.22212313e-01 -3.01162153e-01 -9.40453187e-02 -9.34170634e-02
  7.81320482e-02 -3.56656499e-02 -8.38369578e-02  1.16089899e-02
 -2.00550303e-01 -8.56767744e-02  3.04119568e-02  5.48268929e-02
  4.15537739e-03 -7.80195668e-02  1.41208604e-01 -3.62056047e-02
 -1.94865152e-01  9.16864201e-02  6.28476068e-02  2.50999421e-01
  2.12408021e-01  8.71198773e-02  4.86727804e-05 -9.99883115e-02
  1.13549165e-01 -1.12658285e-01  3.36845666e-02  1.15087330e-01
  1.04194917e-01  4.90515642e-02  3.77580822e-02 -1.48413926e-01
  3.82098416e-03  7.13625625e-02 -1.30250707e-01  1.84317527e-03
  3.99119668e-02 -6.87298551e-02  5.73300011e-02 -1.08333342e-01
  1.68077469e-01  2.07196306e-02 -8.10723901e-02 -1.55741021e-01
  1.22127786e-01 -9.80909988e-02 -8.97585824e-02  1.47179607e-02
 -1.52244210e-01 -1.40855253e-01 -3.20194304e-01 -1.05183097e-02
  3.42378438e-01  7.34238848e-02 -2.16508582e-01  7.62994587e-02
  9.28756956e-04 -9.26384795e-03  1.57644495e-01  1.65389583e-01
  2.45446619e-02  5.19704819e-02 -1.16616450e-01 -4.98841591e-02
  1.95370406e-01 -7.41463080e-02 -2.75282301e-02  1.98334649e-01
 -3.60111222e-02  9.72450245e-03  4.55070846e-02 -1.03949253e-02
 -5.11448979e-02  7.62495697e-02 -1.07565992e-01 -2.64203791e-02
  1.56741794e-02 -4.63365391e-02 -2.09689345e-02  9.58808064e-02
 -1.35967001e-01  5.02845421e-02  1.68757290e-02  8.44488516e-02
 -4.63983491e-02 -4.13022339e-02 -9.15322006e-02 -7.56112486e-03
  7.51681700e-02 -2.51382709e-01  2.41058022e-01  2.03756645e-01
  5.16546331e-03  1.02441512e-01  1.01425052e-01  5.29222153e-02
 -1.81512218e-02  1.69773679e-02 -1.76860586e-01 -4.63296138e-02
  9.27236080e-02 -2.83626262e-02  1.17854193e-01  3.58378850e-02]