[-0.13963179  0.0953574   0.0312076  -0.0317655  -0.07030432 -0.07415798
 -0.04162002 -0.10819695  0.10728808 -0.0364511   0.19797222 -0.01206943
 -0.15975006 -0.14126545 -0.0476581   0.15921713 -0.24778204 -0.15148734
  0.00204872 -0.02937712  0.12092368  0.01642091  0.00390658  0.03146838
 -0.10868461 -0.29878905 -0.09221949 -0.10971081  0.02770197 -0.0267074
 -0.04468596  0.07251401 -0.16955011 -0.07324358  0.03426656  0.06908827
  0.03093182 -0.01891727  0.15127461 -0.02089002 -0.17477849  0.06007561
  0.08383729  0.28586015  0.22913225  0.06781107 -0.00960169 -0.05842694
  0.10662585 -0.12457339  0.01845287  0.14503331  0.09142456  0.03926506
  0.04542632 -0.15246639  0.00475213  0.04759846 -0.12629341  0.01434345
  0.04015082 -0.08593857  0.00871537 -0.10890434  0.16941129  0.02855577
 -0.07339969 -0.15196668  0.12740484 -0.13964652 -0.11271993  0.0148806
 -0.16595523 -0.13602774 -0.28420314 -0.02167371  0.32670197  0.11163881
 -0.19252686  0.09639322  0.00629538 -0.01327762  0.13692804  0.10775079
 -0.02441206  0.06281779 -0.11897101 -0.02490722  0.19859871 -0.02681862
 -0.04099203  0.18935612 -0.02049079  0.04705273  0.06835871 -0.02666962
 -0.01884457  0.05378709 -0.16228233 -0.01259341  0.01189969 -0.08978846
 -0.0196988   0.08401781 -0.11417203  0.05089819  0.02714193  0.08618926
 -0.08647364  0.01202428 -0.12973583 -0.00554954  0.12436502 -0.18370561
  0.24500071  0.19230293  0.02071483  0.11137327  0.10957219  0.05966106
 -0.0460198  -0.01057795 -0.16258001 -0.05002466  0.09554822 -0.03022729
  0.13005574  0.05102735]