[-0.08442447  0.12676676  0.06878001 -0.04371116 -0.07208943 -0.05797773
  0.01308123 -0.10372106  0.07711279 -0.03349671  0.28802499 -0.05494104
 -0.19104321 -0.10162689 -0.08699606  0.15336268 -0.21138592 -0.08622687
 -0.06788506 -0.01436939  0.11806814  0.04143108  0.02959686 -0.01636574
 -0.05872101 -0.31825849 -0.09439006 -0.04765334  0.06189392 -0.05286234
 -0.03264167  0.03517437 -0.18138328 -0.07074054  0.0347403   0.03402132
 -0.02114077 -0.07881909  0.17792462  0.00826193 -0.18903154  0.04981785
  0.07144418  0.28986773  0.19272143  0.06658147 -0.0115175  -0.08113729
  0.08828626 -0.15313144  0.02369893  0.12913093  0.06488394  0.04476016
  0.03789594 -0.11436095  0.01624085  0.08613679 -0.13844037 -0.00075124
  0.07054304 -0.11686192  0.03088626 -0.11661173  0.14940928  0.03019181
 -0.08169331 -0.15263498  0.11274951 -0.13823423 -0.08526386  0.04544913
 -0.12779838 -0.13876654 -0.28965738  0.00936844  0.3891497   0.11684337
 -0.17041253  0.01170415 -0.00867502 -0.0262347   0.18505472  0.11885784
 -0.01118907  0.03632612 -0.15149181 -0.015055    0.22639807 -0.07425144
 -0.08330417  0.20587717 -0.03412871  0.03766252  0.03881321 -0.0017684
 -0.05409264  0.0709267  -0.13618071  0.02711145  0.00737872 -0.09970372
 -0.05025686  0.10040082 -0.10353259  0.05375255  0.01115532  0.03764534
 -0.0582219  -0.06064519 -0.1057846  -0.01184157  0.10687131 -0.2060753
  0.23225836  0.19984004  0.0295551   0.10387705  0.11717426  0.0445707
 -0.01119963 -0.03440319 -0.16643278 -0.08078083  0.0720541  -0.00690442
  0.12621476 -0.00174262]