[-0.16024946  0.12769184  0.07056306 -0.06558677 -0.12279113 -0.01364174
 -0.07594755 -0.14168753  0.07675064 -0.09096818  0.21496312 -0.05194714
 -0.17719117 -0.07388989 -0.05747823  0.14849252 -0.22937551 -0.15678376
  0.00254594  0.01612584  0.13402626 -0.00052126  0.02872534 -0.02259766
 -0.11561894 -0.34298936 -0.13707113 -0.06840178  0.08299762 -0.03796482
 -0.03776068 -0.07381234 -0.20805469 -0.03774564  0.00531012  0.05849249
 -0.01185739 -0.08201175  0.15621735 -0.04581446 -0.19002746  0.09319283
  0.04036202  0.22603455  0.21023679  0.09308445  0.05560351 -0.11689099
  0.09172833 -0.12911943  0.06339418  0.11703993  0.1035077   0.05144115
 -0.0087838  -0.13064888  0.00408376  0.10185313 -0.13544139  0.06842583
  0.09073796 -0.04587014  0.04156606 -0.07855539  0.22312538  0.04619419
 -0.11715253 -0.18853416  0.1229798  -0.14793843 -0.07342452  0.02036631
 -0.14083953 -0.15041554 -0.25784943  0.00836112  0.38256162  0.09686577
 -0.1836247   0.0455932  -0.03128998 -0.00932605  0.08771774  0.15799026
 -0.02745695  0.04360094 -0.10906287 -0.00261207  0.25990745 -0.07561561
 -0.03736236  0.24238189  0.0003929   0.06206651  0.03997073  0.03481431
 -0.06359287  0.04026863 -0.04631051  0.00335393  0.00789179 -0.08067934
 -0.01786982  0.12159552 -0.11886107  0.15062842 -0.05460225  0.08301578
 -0.05809198 -0.02311691 -0.06947259 -0.02976255  0.12257948 -0.22522815
  0.21846311  0.22203262  0.02950501  0.12772551  0.11509693  0.08186879
  0.02244966  0.05302931 -0.19124103 -0.05342199  0.04778017 -0.05126793
  0.13275592  0.07113095]