[-0.15923169  0.14025776  0.05676873 -0.026581   -0.07191063 -0.01049245
 -0.01790182 -0.05254344  0.06166487 -0.0227421   0.18217029 -0.05357708
 -0.24134944 -0.02153318 -0.06686657  0.16451807 -0.16359293 -0.14152777
 -0.15014127 -0.08385792  0.05860573  0.05755519 -0.03289974  0.03400099
 -0.07437614 -0.27666768 -0.06626332 -0.01684946  0.04347361 -0.07833996
 -0.00816554 -0.01682977 -0.22631776 -0.0719705   0.05503311  0.05017811
 -0.04488057 -0.05852058  0.17232935  0.00957987 -0.17182583  0.00824542
  0.13291863  0.32329437  0.14535242  0.0859862  -0.03326196 -0.04098767
  0.0478595  -0.24761291  0.03015986  0.1672539   0.11386045  0.11738715
  0.05493223 -0.15852094  0.04643298  0.09360304 -0.1217707   0.02724268
  0.03493661 -0.12408543 -0.0174314  -0.11490186  0.2201995   0.07776494
 -0.09183108 -0.16661592  0.12587243 -0.13805552 -0.06496369  0.06866483
 -0.06526227 -0.11514559 -0.31083164  0.03026649  0.37646458  0.1226768
 -0.19943194  0.02370466 -0.01969191  0.00145831  0.09966317  0.09707619
 -0.09439095  0.04156817 -0.09160008  0.01389976  0.20893049 -0.03238858
 -0.05172519  0.14808181  0.03912308 -0.02914043  0.07150416  0.03605531
 -0.06940036 -0.04026137 -0.1241883   0.01498995  0.02340155 -0.0820599
 -0.02136483  0.1006778  -0.12828514  0.10356367  0.01686708 -0.03277061
 -0.06639256  0.02696005 -0.08751469 -0.04249758  0.11034459 -0.25328577
  0.21721171  0.20984045 -0.05168997  0.1053018   0.07252087  0.10405915
 -0.03385807  0.03407057 -0.10126872 -0.13733977  0.07529759 -0.02979083
  0.07763034  0.01565916]