[-0.1755109   0.08955486  0.05581149 -0.07247036 -0.10241731 -0.02779452
 -0.06028469 -0.13043009  0.09381741 -0.09692607  0.26642585 -0.07420205
 -0.15102264 -0.06829114 -0.06982583  0.18641031 -0.20753436 -0.13110732
  0.00917358 -0.01218938  0.13916638 -0.04687161 -0.03426339  0.02287605
 -0.18289153 -0.26345968 -0.11509293 -0.07810422  0.00254946 -0.03643647
 -0.02740101 -0.02411276 -0.24091636 -0.06098929  0.00169182  0.0533997
 -0.00202462 -0.03923009  0.15172043 -0.06418447 -0.17104416  0.09861246
  0.09243395  0.24738704  0.18219917  0.05991725  0.02570205 -0.12168037
  0.09151376 -0.14495842  0.06188706  0.07681205  0.12188343  0.06146578
 -0.01345647 -0.14153226  0.01891096  0.11633215 -0.11976284  0.08179183
  0.10153917 -0.04540279  0.01099618 -0.09596906  0.24742208  0.06107838
 -0.13591896 -0.15190254  0.11860601 -0.0795991  -0.05041962  0.02053937
 -0.1450064  -0.19096504 -0.30604064  0.03785403  0.36846462  0.10457017
 -0.23881571  0.05355573 -0.0333798   0.02908312  0.13881476  0.12720166
  0.01501671  0.02301485 -0.08944192  0.02167533  0.24598245 -0.06804541
 -0.01947409  0.23708351  0.00144774  0.01763622  0.01373955  0.0355987
 -0.07529428  0.03780016 -0.0883223   0.02019163  0.00148392 -0.03257582
 -0.00628441  0.12531303 -0.13084926  0.13143982 -0.01540707  0.07653215
 -0.06974046  0.01304406 -0.09304699 -0.03225519  0.09451997 -0.22058037
  0.20642033  0.16438012  0.02171302  0.12164225  0.13507615  0.07714566
  0.01049779  0.05475152 -0.19604892 -0.01008331  0.0901971  -0.06330007
  0.16116534  0.06618141]