[-1.31094798e-01  1.07077889e-01  3.34903933e-02 -7.15961903e-02
 -9.01943073e-02 -4.41418327e-02 -4.54923213e-02 -1.32224008e-01
  1.16467215e-01 -8.22187588e-02  2.20337868e-01 -8.40465650e-02
 -1.79884985e-01 -8.73092264e-02 -7.07138255e-02  1.69714808e-01
 -2.00281143e-01 -1.24392465e-01 -2.91430950e-02  3.57799754e-02
  1.27689496e-01 -4.30500284e-02  8.37673154e-03  2.05600392e-02
 -1.20820597e-01 -3.11348021e-01 -1.14470579e-01 -9.12227407e-02
  3.41606438e-02 -6.28221780e-02 -6.35614097e-02 -2.92071532e-02
 -2.19843790e-01 -8.68189484e-02  3.02219461e-03  9.43463445e-02
 -1.77859869e-02 -5.52387312e-02  1.18342116e-01 -5.14722569e-03
 -2.30278924e-01  5.86992912e-02  3.98114137e-02  2.34249026e-01
  1.95922434e-01  1.08788274e-01  3.14184874e-02 -1.32677078e-01
  1.29011407e-01 -1.16896249e-01  1.00963272e-01  8.30880553e-02
  1.00625947e-01  6.29219115e-02  2.77032051e-02 -1.27343684e-01
  3.93728167e-02  1.33343130e-01 -1.30852506e-01  5.30316830e-02
  1.00390963e-01 -4.65836078e-02  3.26580815e-02 -6.11382127e-02
  2.08436772e-01  6.57555088e-02 -7.90452287e-02 -1.58867195e-01
  1.55187339e-01 -1.26002237e-01 -8.66115540e-02  2.67152023e-02
 -1.30949110e-01 -1.55309334e-01 -3.02059561e-01  1.32669359e-02
  3.92037809e-01  1.16554298e-01 -1.92103788e-01  3.26774865e-02
 -2.48944946e-02  5.13507985e-03  1.56514511e-01  1.67875171e-01
  2.19138642e-03  5.93669005e-02 -1.04308844e-01 -3.99604440e-02
  2.38730237e-01 -7.24012256e-02 -3.87263596e-02  2.12451860e-01
 -2.52307039e-02  2.78116222e-02  3.52183022e-02 -6.15368085e-03
 -8.97322372e-02  5.54893427e-02 -8.95600840e-02 -6.56936914e-02
  4.39427346e-02 -5.27920127e-02 -3.78791466e-02  1.18713394e-01
 -1.38844252e-01  9.91610512e-02 -1.18862931e-02  7.63290301e-02
 -2.28038244e-02 -2.39439309e-04 -6.27815872e-02 -6.21048026e-02
  9.74261984e-02 -2.05014378e-01  2.24606276e-01  1.93442747e-01
  3.11412252e-02  9.28293392e-02  1.19399644e-01  8.46679434e-02
  3.63993421e-02  2.51449626e-02 -1.89872578e-01 -3.69775407e-02
  9.72163305e-02 -5.66251203e-03  1.27268806e-01  3.55646014e-02]