[-0.12312237  0.11879505  0.06412362 -0.06279375 -0.07960926 -0.05467872
 -0.06746327 -0.12823859  0.09283014 -0.04582926  0.29826826 -0.06673782
 -0.18079399 -0.13114266 -0.07637735  0.18771116 -0.25389323 -0.11273017
 -0.0017364  -0.02991873  0.14483775  0.0072478   0.01559941  0.00115336
 -0.15689126 -0.30413541 -0.08133048 -0.05572441  0.03493412 -0.04687411
 -0.03685804  0.01586493 -0.24498653 -0.06974528  0.04045593  0.08841997
 -0.00736684 -0.06331671  0.12869929 -0.03993582 -0.18244807  0.05511778
  0.07782228  0.25407434  0.21396707  0.08277801  0.0060466  -0.12751669
  0.09461968 -0.09389124  0.06168575  0.12186855  0.07391792  0.0518301
  0.00819161 -0.13275173  0.00136925  0.13077649 -0.09729536 -0.02381739
  0.07728572 -0.08185261  0.03235986 -0.1113285   0.19627152  0.02141279
 -0.10689527 -0.15411736  0.11784118 -0.08240262 -0.09714281  0.018306
 -0.14812623 -0.13482063 -0.34378576  0.0021697   0.37048671  0.05173812
 -0.20799573  0.05342852  0.01422681  0.0100677   0.1691972   0.16001928
  0.00798464  0.0431603  -0.11731344  0.00514198  0.22264075 -0.07673307
 -0.04447958  0.19423173 -0.04036717  0.02838435  0.04213184  0.01583374
 -0.07149694  0.08647223 -0.09820031 -0.00399964  0.02643324 -0.0359828
 -0.03185405  0.13004912 -0.10808703  0.06751629  0.02882589  0.07697944
 -0.03213861 -0.03252025 -0.070626   -0.06340645  0.07604797 -0.23242335
  0.23602219  0.18050511  0.0197108   0.12984647  0.11810954  0.08798229
 -0.0056313   0.01545001 -0.18364343 -0.03496493  0.07871979 -0.01492542
  0.15305658  0.0263113 ]