[-0.17487691  0.09460422  0.04408242 -0.0711385  -0.11258029 -0.06216667
 -0.10072191 -0.15472244  0.08254325 -0.09784051  0.21845651 -0.06103759
 -0.13288908 -0.09303673 -0.0592018   0.16466801 -0.20797768 -0.13662897
  0.02084046  0.00151898  0.1051993  -0.01424025  0.02261895  0.0040594
 -0.18130851 -0.29459748 -0.11766737 -0.0785247  -0.00330898 -0.00260567
 -0.03651035  0.01247526 -0.22589283 -0.05841564  0.01863579  0.08630734
 -0.00268024 -0.02045091  0.14088154 -0.02471097 -0.18767105  0.01554774
  0.07239136  0.2566658   0.20203856  0.08386604  0.04591936 -0.12835465
  0.08714681 -0.1096596   0.06969398  0.08456864  0.07689101  0.04909799
  0.00253837 -0.14532785  0.04072086  0.11812873 -0.08727263  0.04269784
  0.0995728  -0.0373259   0.01217269 -0.08699658  0.28448007  0.04052383
 -0.11493739 -0.13426846  0.14395963 -0.06774131 -0.07826122  0.02307765
 -0.14427753 -0.1750845  -0.29816997 -0.00901987  0.37621436  0.10248029
 -0.20350401  0.05526353 -0.044707    0.0044577   0.1475367   0.14879568
 -0.00405795  0.05270071 -0.08710361 -0.00304552  0.24471641 -0.06457995
 -0.02012003  0.21882184 -0.00588563  0.04183747  0.02548938  0.00711453
 -0.07752945  0.07998198 -0.0853434  -0.01528339  0.04436504 -0.04824404
  0.00412122  0.14534478 -0.14213875  0.13166825  0.00674468  0.09633426
 -0.02835435 -0.00309409 -0.07355951 -0.06121777  0.09662465 -0.21712266
  0.18858553  0.17228234  0.02384153  0.15072773  0.13823448  0.09917213
  0.00204394  0.04290399 -0.20777459  0.0007182   0.08925175 -0.0485854
  0.14447249  0.08329512]