[-0.1369797   0.09094069  0.08098527 -0.01362055 -0.06672022 -0.04981417
 -0.01749377 -0.12225955  0.09753669 -0.04588567  0.27236891 -0.05603334
 -0.15430582 -0.14617686 -0.04420819  0.19219163 -0.25056696 -0.13387941
  0.00222082  0.01411633  0.13363439 -0.03037594  0.00687936  0.01792272
 -0.11679786 -0.30895564 -0.09920184 -0.08801457  0.07441712 -0.04239333
 -0.08506071  0.01828289 -0.20858236 -0.08614862  0.02243846  0.06136657
 -0.00042325 -0.07956995  0.13763405 -0.03910795 -0.19280045  0.08952836
  0.05991826  0.24825418  0.21601336  0.08240895  0.00869573 -0.10234372
  0.10613468 -0.11250313  0.03606832  0.1190354   0.09524059  0.05207786
  0.03202059 -0.15188198  0.00551653  0.0609479  -0.11974523  0.00883527
  0.04179644 -0.05548993  0.0571254  -0.1073334   0.16507044  0.01582474
 -0.07464281 -0.15926836  0.12396351 -0.10519574 -0.08296026  0.01731096
 -0.16010378 -0.15513228 -0.31070325 -0.00257795  0.33704576  0.08708242
 -0.20987888  0.08463737  0.00088721 -0.01121646  0.14341713  0.15983009
  0.02395016  0.05954164 -0.12294375 -0.0376919   0.20393257 -0.07130061
 -0.02496185  0.21018796 -0.03299459  0.01440511  0.0468951  -0.00829955
 -0.04226229  0.08171393 -0.11546159 -0.02223265  0.01737102 -0.0506146
 -0.02607735  0.09538197 -0.13489048  0.0550763   0.01382723  0.08863714
 -0.05572011 -0.03271284 -0.10295117 -0.01156826  0.08199289 -0.23598567
  0.24344194  0.20605575  0.01933349  0.10277027  0.10769623  0.05985987
 -0.00897287  0.01227301 -0.16835204 -0.03815114  0.09168281 -0.02899297
  0.11501785  0.04503595]