[-1.66071460e-01  1.21212199e-01  5.89596927e-02 -2.78991498e-02
 -1.03929482e-01 -4.62093614e-02 -4.41524051e-02 -1.61580354e-01
  1.20007694e-01 -1.30707011e-01  2.44773820e-01 -6.40773997e-02
 -1.67048886e-01 -6.63549975e-02 -7.83732161e-02  1.78720057e-01
 -2.14251786e-01 -1.49168462e-01  4.07278258e-03  2.93544289e-02
  1.44148812e-01 -2.37434544e-02 -2.94601661e-03  2.78181732e-02
 -1.58321127e-01 -3.00624639e-01 -1.06994726e-01 -5.66313267e-02
 -4.00454644e-03 -1.84993930e-02 -4.82018925e-02 -5.62072545e-03
 -2.03225970e-01 -4.32002805e-02  1.49831092e-02  1.12554692e-01
 -3.71866301e-02 -5.46416417e-02  1.54934525e-01 -2.03283560e-02
 -2.07989380e-01  4.00376208e-02  5.38766868e-02  2.69747645e-01
  2.00362161e-01  5.09021655e-02  2.07976103e-02 -1.15347840e-01
  9.19128507e-02 -1.43244416e-01  3.29471380e-02  8.84843096e-02
  1.13527417e-01  5.58946021e-02  3.00038345e-02 -1.52757928e-01
  1.80741865e-02  1.46106839e-01 -9.45750400e-02  3.04446463e-02
  5.36368154e-02 -9.34191868e-02  4.94037420e-02 -6.01110123e-02
  2.78944165e-01  6.45689890e-02 -1.09293304e-01 -1.08301796e-01
  1.79661676e-01 -9.61767137e-02 -9.03475285e-02  8.70022085e-03
 -1.28749385e-01 -1.79836378e-01 -2.82452434e-01 -1.32718952e-02
  4.15314496e-01  9.94861349e-02 -2.22863063e-01  5.44378646e-02
 -1.47419991e-02  1.31964004e-02  1.47846341e-01  1.91709667e-01
 -9.08478629e-03  5.62466644e-02 -1.20174006e-01 -2.03505065e-02
  2.54034013e-01 -5.50790243e-02 -3.38563211e-02  2.35929012e-01
  2.31739876e-04  2.21624896e-02  6.65362477e-02 -5.22628091e-02
 -6.15446046e-02  3.44473720e-02 -1.20432928e-01 -5.36991432e-02
 -3.32522253e-03 -6.60607442e-02 -3.20281498e-02  1.34523019e-01
 -1.46259144e-01  9.12709460e-02  7.38825602e-03  6.86102360e-02
 -3.68973576e-02 -7.76418438e-03 -7.86085054e-02 -3.58729735e-02
  9.43015590e-02 -2.35666141e-01  1.95530638e-01  1.64332375e-01
  2.12975889e-02  1.51168466e-01  1.18106745e-01  6.95985109e-02
  2.47441959e-02  2.71061249e-02 -1.87634096e-01 -1.27937561e-02
  9.40284878e-02 -4.34995107e-02  1.51990280e-01  4.71208096e-02]