[-0.13832767  0.08114454  0.06663972 -0.05212798 -0.06962334 -0.0730345
 -0.06037432 -0.13376036  0.07541868 -0.05201719  0.25716719 -0.06276747
 -0.17999074 -0.14559405 -0.06784208  0.19196312 -0.23826869 -0.13054863
  0.00595445 -0.02488489  0.12708591  0.00727328 -0.00510102  0.00304755
 -0.13084784 -0.30555895 -0.0988931  -0.06320154 -0.00690693 -0.02478194
 -0.04839583  0.01194363 -0.2108634  -0.08081894  0.05138228  0.09614761
  0.00826451 -0.06078409  0.12062635 -0.03580766 -0.18603808  0.02426918
  0.0942688   0.25817484  0.22378992  0.07274403 -0.00995291 -0.11453807
  0.09516032 -0.12406632  0.03188377  0.10558762  0.06264825  0.05556536
 -0.001047   -0.11578757  0.01835382  0.10622235 -0.10964149 -0.01525357
  0.0577356  -0.11165652  0.01815956 -0.08463981  0.19730853  0.02443758
 -0.1034108  -0.1610236   0.12569736 -0.11844812 -0.11143415  0.01149256
 -0.15339951 -0.1417373  -0.37211305 -0.01450891  0.37919056  0.05678464
 -0.20250635  0.04688154  0.00280043  0.02076339  0.18808146  0.15638968
  0.02137196  0.04542376 -0.12359846 -0.00608733  0.23900543 -0.07619274
 -0.0572823   0.19049032 -0.03248049  0.05457699  0.05914934  0.03724219
 -0.02201852  0.0714606  -0.12307879  0.00181845  0.05115103 -0.03788248
 -0.00800513  0.14288592 -0.10961503  0.04434641  0.03280288  0.07302684
 -0.0247301  -0.03730397 -0.09402043 -0.06959222  0.09268728 -0.21070591
  0.21193872  0.2124102   0.02369398  0.11179358  0.10604575  0.06201556
 -0.02201167 -0.01114548 -0.18174954 -0.01959636  0.07033819  0.00244138
  0.13436134  0.03131932]