[-1.25406668e-01  9.90923196e-02  7.54298344e-02 -5.28615788e-02
 -7.79857710e-02 -4.36676629e-02 -5.53742535e-02 -1.40264824e-01
  9.66861248e-02 -3.93286198e-02  2.67976403e-01 -5.63735738e-02
 -1.74703553e-01 -1.42137915e-01 -8.16743895e-02  2.04710409e-01
 -2.34353587e-01 -1.31796792e-01  6.69425447e-03 -1.49576217e-02
  1.28672108e-01 -1.00437747e-02  7.44555751e-03  1.61076989e-02
 -1.27664983e-01 -2.88599104e-01 -8.89075249e-02 -6.03763536e-02
  2.10970882e-02 -3.52618881e-02 -6.00224808e-02  2.84492970e-04
 -2.26157069e-01 -7.47540817e-02  3.16120759e-02  9.13653001e-02
 -1.09500652e-02 -7.19523579e-02  1.25792235e-01 -5.53889275e-02
 -1.90050483e-01  3.98472622e-02  8.96114260e-02  2.45978460e-01
  2.31466576e-01  7.34317601e-02  9.94081493e-04 -1.18582211e-01
  9.37332734e-02 -1.20631956e-01  4.59464453e-02  1.12490810e-01
  6.70052469e-02  5.41846529e-02 -4.47330764e-03 -1.29504845e-01
 -2.34759224e-04  1.22476079e-01 -9.95738730e-02  2.64126295e-03
  6.23345636e-02 -8.95035639e-02  2.66587380e-02 -1.05489992e-01
  1.97297990e-01  2.79514473e-02 -1.09104231e-01 -1.62601218e-01
  1.25665456e-01 -1.11243404e-01 -9.90374908e-02  1.63094383e-02
 -1.54726431e-01 -1.46554500e-01 -3.64787668e-01 -1.28120882e-02
  3.73397589e-01  6.12303205e-02 -2.06265286e-01  4.46323343e-02
  2.22563697e-03  2.45385692e-02  1.62551031e-01  1.55084997e-01
  2.12427266e-02  4.41620462e-02 -1.32987186e-01 -1.63009223e-02
  2.34791115e-01 -7.94019327e-02 -3.97638492e-02  2.05752954e-01
 -3.26947533e-02  3.02006938e-02  3.43915150e-02  4.65437211e-02
 -3.42375711e-02  8.27221423e-02 -1.22202016e-01 -3.32235848e-03
  3.06663048e-02 -3.50851603e-02 -8.03571194e-03  1.34032533e-01
 -1.14335977e-01  5.38646989e-02  2.83601042e-02  9.06032473e-02
 -2.73600556e-02 -3.70696373e-02 -9.84967649e-02 -6.43111467e-02
  1.05873100e-01 -2.12245390e-01  2.19427541e-01  2.00901181e-01
  3.07735857e-02  1.04184583e-01  1.16026640e-01  8.53431746e-02
 -1.39886765e-02 -8.72378144e-03 -1.76529020e-01 -1.53934825e-02
  6.93600401e-02 -2.44370308e-02  1.40163660e-01  5.15065677e-02]