[-0.08936333  0.0961138   0.03585178 -0.07203224 -0.14237195 -0.0033183
 -0.0994239  -0.14302471  0.10547751 -0.09634213  0.23825014 -0.04039977
 -0.14869043 -0.09447668 -0.07077932  0.16595224 -0.23802821 -0.1449459
  0.03946714  0.01279129  0.11893012 -0.00991237 -0.01269354  0.02702859
 -0.10226914 -0.29318181 -0.13045131 -0.05249305  0.03185746 -0.06349602
 -0.06421065 -0.02221088 -0.20016392 -0.06259996  0.02591688  0.0712679
 -0.01631842 -0.06599348  0.13763505 -0.02919807 -0.1792839   0.08380709
  0.05236831  0.22367902  0.20785908  0.10482047  0.01901306 -0.11887367
  0.11669759 -0.12864652  0.05930093  0.12912928  0.11897489  0.03783503
 -0.03547348 -0.14542021  0.00066211  0.11045551 -0.10853425  0.04033694
  0.08532641 -0.05736395  0.04806991 -0.06723122  0.2324765   0.05753514
 -0.09797559 -0.20048325  0.13952462 -0.12102494 -0.12694688  0.02126498
 -0.14461926 -0.15881929 -0.27405435 -0.01347201  0.39575663  0.09176569
 -0.20636158  0.03843267 -0.04748962  0.00373568  0.11197082  0.13178863
  0.00352071  0.02218216 -0.13371091 -0.02211369  0.26387528 -0.07081112
 -0.03819171  0.22953837  0.00616298  0.08517814  0.04325753  0.02971168
 -0.0372427   0.08501066 -0.09217568 -0.01354921  0.00716485 -0.03653483
 -0.01080071  0.14684425 -0.13412565  0.14449422 -0.02237174  0.08619671
 -0.04907357 -0.00827881 -0.09858331 -0.03299347  0.13297194 -0.23904566
  0.20713525  0.18398046  0.06321254  0.12216043  0.11736193  0.08703694
  0.01210117 -0.03026207 -0.21651475 -0.04227371  0.05344544 -0.05301919
  0.13073418  0.07479341]