[-1.00683428e-01  1.18183486e-01  6.12099282e-02 -2.80954447e-02
 -6.31901324e-02 -4.60261516e-02 -1.44956708e-02 -1.33289471e-01
  9.52581018e-02 -8.00144300e-02  2.67046571e-01 -2.02935990e-02
 -1.82057500e-01 -1.55304283e-01 -4.52140234e-02  1.56110838e-01
 -2.52927184e-01 -1.37264445e-01  1.02629361e-03  3.37827997e-03
  1.39846623e-01  1.01155164e-02  2.08089482e-02 -9.43174679e-03
 -1.28268436e-01 -3.03840071e-01 -1.04914717e-01 -7.79104605e-02
  5.33135049e-02 -4.95166257e-02 -5.60788326e-02  4.62731831e-02
 -1.87229946e-01 -8.98130313e-02  4.45840992e-02  6.92647919e-02
  4.85912338e-03 -5.72658889e-02  1.21014215e-01 -1.89485941e-02
 -1.78506181e-01  8.87815282e-02  5.37408702e-02  2.91438550e-01
  2.20516279e-01  7.31582046e-02 -7.04555353e-03 -1.07271366e-01
  1.25362650e-01 -1.09125711e-01  3.66690271e-02  1.01684712e-01
  9.22084451e-02  4.72832359e-02  4.86595519e-02 -1.45002097e-01
  1.14416918e-02  7.90760964e-02 -1.47970244e-01  1.78962946e-02
  4.69156653e-02 -1.02650121e-01  3.81968282e-02 -1.00470200e-01
  1.51883051e-01  1.70178693e-02 -8.91535953e-02 -1.70215577e-01
  1.39862031e-01 -1.22641183e-01 -1.16570488e-01  2.00553741e-02
 -1.57757953e-01 -1.33508787e-01 -3.13389271e-01 -7.99805671e-03
  3.26994836e-01  1.13106251e-01 -2.04737708e-01  6.37122393e-02
  3.69902924e-02  1.11040100e-02  1.48814455e-01  1.80474505e-01
 -1.41171739e-03  6.61856756e-02 -1.26339436e-01 -2.58551724e-02
  1.87042803e-01 -4.61520068e-02 -8.76636282e-02  2.21015215e-01
 -4.54647988e-02  3.47252749e-02  8.63381401e-02 -1.03472723e-02
 -7.13607222e-02  5.50813973e-02 -1.66375697e-01 -4.37753759e-02
  2.55593937e-02 -7.78048858e-02 -4.12470959e-02  1.37760937e-01
 -8.98848101e-02  7.35379010e-02 -1.44172851e-02  8.95189270e-02
 -5.83048053e-02 -4.77344282e-02 -9.44125354e-02  2.42754628e-04
  7.62614533e-02 -2.28040695e-01  2.42678314e-01  1.95413053e-01
  3.32670920e-02  1.05568074e-01  1.18728183e-01  3.46457772e-02
 -1.14570502e-02  7.28417945e-04 -1.85903177e-01 -7.16033950e-02
  8.92008394e-02 -2.36824043e-02  1.46770880e-01  9.74872243e-03]