[-1.03395224e-01  1.17717199e-01  6.24286532e-02 -1.76822003e-02
 -6.89194947e-02 -4.53016013e-02 -1.92703810e-02 -1.41816482e-01
  9.33540463e-02 -7.40974322e-02  2.52724588e-01 -2.03541946e-02
 -1.78475529e-01 -1.39739633e-01 -5.02018817e-02  1.49807543e-01
 -2.41872653e-01 -1.45416960e-01  2.08621103e-04 -8.74177646e-03
  1.35916427e-01  1.55290142e-02  3.77670536e-03 -5.47683146e-03
 -1.21050082e-01 -2.93899029e-01 -1.02252282e-01 -8.57221186e-02
  5.61679564e-02 -4.46147174e-02 -5.84843419e-02  4.58332412e-02
 -1.85142443e-01 -1.00314632e-01  5.08563519e-02  6.67902753e-02
  7.54911313e-03 -5.47513142e-02  1.28976837e-01 -2.40488667e-02
 -1.72820523e-01  8.85524973e-02  6.56764433e-02  2.93698967e-01
  2.20105693e-01  7.46826455e-02 -4.77121444e-03 -1.01852588e-01
  1.18001483e-01 -9.59714353e-02  3.26118805e-02  1.03236616e-01
  1.00631118e-01  5.38294129e-02  4.16615196e-02 -1.57243893e-01
  3.86994565e-03  7.41554201e-02 -1.41390741e-01  3.00972201e-02
  4.78279814e-02 -1.07949995e-01  3.68447341e-02 -9.31702480e-02
  1.64427966e-01  7.46518839e-03 -8.62168819e-02 -1.72443345e-01
  1.33602411e-01 -1.27732381e-01 -1.27561674e-01  1.61061790e-02
 -1.62015498e-01 -1.24514416e-01 -3.14736217e-01 -7.89991580e-03
  3.39566797e-01  1.03420518e-01 -2.06265688e-01  7.36517832e-02
  3.66589762e-02  3.72169842e-03  1.50563315e-01  1.79259464e-01
 -2.45774718e-04  6.67948574e-02 -1.13874033e-01 -2.81137377e-02
  1.98420033e-01 -3.57940085e-02 -9.36131179e-02  2.10377738e-01
 -4.90538739e-02  3.35317664e-02  8.53268430e-02 -1.01739783e-02
 -6.19912259e-02  4.86021899e-02 -1.63384587e-01 -4.93176281e-02
  2.39983480e-02 -7.11241513e-02 -3.31938230e-02  1.37486547e-01
 -9.84626561e-02  6.53361306e-02 -1.21586276e-02  9.55083892e-02
 -6.33535013e-02 -4.24219742e-02 -1.05771281e-01  5.71206864e-03
  9.37205479e-02 -2.28525072e-01  2.45051429e-01  1.94884822e-01
  3.54407392e-02  1.01413548e-01  1.24052957e-01  2.34719161e-02
 -1.11247005e-03  6.68461388e-03 -1.89018786e-01 -7.19016716e-02
  9.51727182e-02 -2.56665181e-02  1.56450465e-01  1.97618213e-02]