[-1.29194081e-01  9.11717117e-02  6.93519413e-02 -4.79702279e-02
 -7.36390725e-02 -6.47929534e-02 -5.84433340e-02 -1.31089494e-01
  8.22993144e-02 -3.64738218e-02  2.52444953e-01 -6.24652281e-02
 -1.73799276e-01 -1.61702737e-01 -7.32112527e-02  2.00264886e-01
 -2.24514276e-01 -1.38792157e-01 -4.95062489e-03 -2.85345204e-02
  1.38476253e-01  2.64618557e-05  8.74347147e-03  9.46691819e-03
 -1.25677809e-01 -2.96156734e-01 -8.08212683e-02 -7.09941536e-02
  2.38786917e-02 -2.52827890e-02 -6.06778935e-02  6.63255155e-03
 -2.21919879e-01 -8.81874561e-02  4.24858034e-02  9.54196453e-02
  7.72289932e-05 -5.88491037e-02  1.26030326e-01 -5.07927351e-02
 -1.92427963e-01  3.22567783e-02  9.23429430e-02  2.47621968e-01
  2.36392379e-01  8.32994953e-02  2.15016934e-03 -1.15967087e-01
  1.02441706e-01 -1.18679576e-01  4.75281179e-02  1.17093340e-01
  7.04214126e-02  5.67873381e-02 -1.92032044e-03 -1.16291277e-01
  1.92315616e-02  1.04360871e-01 -1.07670546e-01 -2.84935976e-03
  6.91009760e-02 -9.97549295e-02  8.50007962e-03 -9.27581787e-02
  1.91024289e-01  9.53721441e-03 -9.72395390e-02 -1.71037152e-01
  1.24242686e-01 -1.21447481e-01 -1.08096801e-01  2.50679702e-02
 -1.59332871e-01 -1.31266102e-01 -3.71017545e-01 -1.58384312e-02
  3.82864565e-01  5.90607785e-02 -2.01417118e-01  5.57005517e-02
  3.69442045e-03  2.54650954e-02  1.78553164e-01  1.48921549e-01
  2.13685911e-02  4.32498716e-02 -1.34183660e-01 -1.30533604e-02
  2.32416019e-01 -8.57514068e-02 -5.02181128e-02  1.93372041e-01
 -2.27518678e-02  4.80106324e-02  4.17493135e-02  4.11675461e-02
 -2.53099650e-02  8.26929286e-02 -1.15640484e-01 -6.11466262e-03
  5.67227975e-02 -2.90581938e-02 -4.15792549e-03  1.25198886e-01
 -1.06655575e-01  5.12148328e-02  2.51122713e-02  9.88146365e-02
 -2.17441190e-02 -3.90293784e-02 -1.00821517e-01 -7.09151253e-02
  9.72439051e-02 -1.95363671e-01  2.17475295e-01  2.09446907e-01
  3.38225290e-02  9.39846560e-02  1.19891189e-01  7.47252554e-02
 -1.08403461e-02 -7.53926067e-03 -1.84880719e-01 -2.09700447e-02
  7.49175698e-02 -1.33516341e-02  1.36913896e-01  4.82052863e-02]