[-0.07715736  0.09276388  0.02385176 -0.08264007 -0.13657093 -0.01274722
 -0.11070762 -0.14613098  0.10983973 -0.08826405  0.22814393 -0.05082012
 -0.16506122 -0.10875883 -0.07419591  0.16267869 -0.22323959 -0.14567968
  0.04154868 -0.00252891  0.1117624   0.00250266  0.00219766  0.03189001
 -0.09167726 -0.29074618 -0.1317742  -0.05223612  0.01098673 -0.05092063
 -0.0501968  -0.00097628 -0.20046754 -0.0708478   0.03644202  0.06799059
 -0.00805133 -0.05983021  0.13195114 -0.01646479 -0.17966889  0.06847631
  0.06258581  0.22452508  0.21145768  0.11138399  0.01275665 -0.11959235
  0.11636873 -0.11271495  0.06659474  0.13849218  0.12433235  0.01569857
 -0.02943903 -0.13815393  0.00060241  0.1154191  -0.0973319   0.03254095
  0.09215429 -0.05784269  0.03246592 -0.07503273  0.23057993  0.05119832
 -0.10127492 -0.19486476  0.14204709 -0.11709161 -0.13756889  0.02950213
 -0.15408011 -0.14779276 -0.27798367 -0.01905929  0.39388129  0.07424977
 -0.20481162  0.03809603 -0.03699514  0.01127225  0.10357007  0.13834508
 -0.00787251  0.01847097 -0.13024753 -0.03975788  0.26062319 -0.06561671
 -0.05102373  0.22595894 -0.00324509  0.08758973  0.04802147  0.02268604
 -0.03406155  0.07549527 -0.10269872 -0.0263073   0.01102832 -0.04314905
 -0.0247885   0.14109863 -0.13595429  0.13163279 -0.01659558  0.08314576
 -0.04543082 -0.01051275 -0.09413081 -0.03674791  0.13836633 -0.22362652
  0.19470769  0.16886105  0.0762514   0.12007806  0.12491626  0.09583735
  0.00910764 -0.03656763 -0.21007875 -0.05430651  0.0583245  -0.05117111
  0.13767467  0.0689446 ]