[-0.11853651  0.13799898  0.04620458 -0.04122877 -0.05149233 -0.07629596
 -0.04411471 -0.1255703   0.07689875 -0.0744001   0.30185834 -0.0857967
 -0.20753708 -0.08697307 -0.08448789  0.15324251 -0.22227497 -0.11286081
 -0.04142994 -0.03179948  0.17255296  0.01384882 -0.00976071  0.00954824
 -0.15935993 -0.28363726 -0.09508222 -0.05759791  0.03185471 -0.03901902
 -0.05525513  0.00331194 -0.18117157 -0.07148287  0.04458551  0.0639827
 -0.01723248 -0.0437349   0.14199242 -0.00817605 -0.21273468  0.06781846
  0.06817835  0.30593762  0.20030521  0.10519459 -0.01662375 -0.12036829
  0.09679124 -0.13136992  0.05686805  0.1492642   0.09779861  0.06084242
  0.03916446 -0.12084439  0.01528092  0.10194077 -0.10240974 -0.0319591
  0.08930834 -0.08389802  0.05740627 -0.10725152  0.18011896  0.03262261
 -0.10559992 -0.11002772  0.14015    -0.1089371  -0.11457226  0.01902391
 -0.14325726 -0.14479245 -0.3110604   0.00330241  0.4157261   0.08981311
 -0.17253305  0.0569641   0.00554781  0.00829683  0.19582343  0.12775572
 -0.03577869  0.03895107 -0.11180128  0.0066517   0.23524061 -0.08322039
 -0.05995026  0.18153319 -0.02711763  0.0334783   0.07811456  0.0034112
 -0.07663693  0.06206918 -0.11118472  0.00912461  0.02580736 -0.07593003
 -0.03222184  0.12431277 -0.1207016   0.07100212  0.04178865  0.06179176
 -0.02953954  0.01123956 -0.08852314 -0.05202026  0.07171931 -0.21920584
  0.2206534   0.18395965  0.0339598   0.10279764  0.13018233  0.05042456
 -0.00356149  0.00786594 -0.19206925 -0.0741891   0.09385459  0.00108404
  0.14423624  0.00633381]