[-1.08578555e-01  1.30339056e-01  6.51908442e-02 -5.90993278e-02
 -6.84841201e-02 -4.74905185e-02 -7.66892061e-02 -1.26552224e-01
  9.14679915e-02 -5.59789203e-02  2.98902839e-01 -7.05036446e-02
 -1.89468190e-01 -1.33068159e-01 -7.08480701e-02  1.79752722e-01
 -2.44141102e-01 -1.19805172e-01 -7.44567660e-04 -2.34747678e-02
  1.49651214e-01  1.41414599e-02  7.29574263e-03  5.30645659e-04
 -1.61149099e-01 -3.11910093e-01 -8.55250731e-02 -4.88154106e-02
  2.25333106e-02 -5.05822301e-02 -5.08427620e-02  1.91477127e-02
 -2.33616233e-01 -6.04684129e-02  4.85298336e-02  9.74334925e-02
  7.13886693e-04 -6.03267662e-02  1.19609833e-01 -3.68579142e-02
 -1.87915012e-01  6.30286410e-02  6.16778545e-02  2.58280635e-01
  2.05041990e-01  8.21324512e-02  6.87885284e-03 -1.29194289e-01
  1.05760992e-01 -8.79090279e-02  5.57525046e-02  1.37194380e-01
  7.95217678e-02  4.98069040e-02  2.43808702e-03 -1.28938124e-01
 -3.28712701e-03  1.42715588e-01 -1.00532942e-01 -2.43901256e-02
  6.85248524e-02 -9.65200886e-02  3.50458547e-02 -1.08273938e-01
  1.83410719e-01  2.63716262e-02 -1.11307479e-01 -1.62693605e-01
  1.12464443e-01 -8.57838616e-02 -9.62958559e-02  2.50694696e-02
 -1.53457269e-01 -1.42479792e-01 -3.33285719e-01 -1.67824328e-04
  3.67755622e-01  4.77671027e-02 -2.14049608e-01  5.44338599e-02
  1.42777357e-02  1.68081764e-02  1.73631743e-01  1.64261147e-01
  8.64079967e-03  4.73681390e-02 -1.24659181e-01  7.72936782e-03
  2.36752540e-01 -8.07578564e-02 -4.67155986e-02  1.95892006e-01
 -4.75722216e-02  4.28190641e-02  4.28129807e-02  1.55414641e-02
 -6.76869228e-02  8.44504982e-02 -9.08788964e-02 -1.06976635e-03
  2.37862952e-02 -4.11581732e-02 -4.42332998e-02  1.26638517e-01
 -1.09672956e-01  6.76419362e-02  2.86315121e-02  8.49964470e-02
 -2.72120293e-02 -3.52044068e-02 -6.51624277e-02 -6.59948513e-02
  7.90078416e-02 -2.43986607e-01  2.30692610e-01  1.83315068e-01
  1.95649769e-02  1.30667686e-01  1.14056326e-01  8.24404359e-02
 -1.50579622e-03 -2.76631280e-03 -1.90651819e-01 -4.17507254e-02
  8.41658860e-02 -5.81353251e-03  1.45274028e-01  8.86025839e-03]