[-0.12368824  0.07950577  0.07740705 -0.022232   -0.05208825 -0.06378156
 -0.03284634 -0.10753993  0.06955488 -0.05232849  0.25651309 -0.04378199
 -0.16751283 -0.14093891 -0.03776902  0.16256694 -0.24711874 -0.14276229
 -0.00372296 -0.014904    0.13384223 -0.01600709  0.00046896  0.00710951
 -0.13970949 -0.28604266 -0.09725072 -0.08482663  0.04777752 -0.03503317
 -0.07931548  0.0333502  -0.2033911  -0.07624876  0.03496534  0.0738994
  0.01413298 -0.0724421   0.13272262 -0.02521488 -0.17036609  0.07086041
  0.05311612  0.25943369  0.21952327  0.07463589 -0.00904204 -0.08144455
  0.11566793 -0.1174776   0.03409104  0.12767392  0.09697572  0.05737923
  0.04837785 -0.14486872  0.02720033  0.07332112 -0.12124479 -0.00857922
  0.01054826 -0.07589837  0.05405233 -0.10835201  0.14813465  0.01871223
 -0.07041255 -0.14836209  0.12548964 -0.1003562  -0.10499709  0.02178866
 -0.16020274 -0.14092498 -0.31391284 -0.01545317  0.32606801  0.09843117
 -0.22214353  0.08259621  0.02812989 -0.0150971   0.16602412  0.1428618
 -0.00194178  0.07664266 -0.12974004 -0.02007512  0.20170899 -0.05311872
 -0.05565494  0.18686007 -0.03846749  0.03051665  0.08240975 -0.00892149
 -0.03787768  0.06419816 -0.13946821 -0.0257417   0.03740348 -0.05804163
 -0.04660868  0.10561814 -0.1110715   0.04403788  0.01643974  0.07455581
 -0.08415806 -0.04481348 -0.10196122  0.0065255   0.07663906 -0.23007165
  0.22504123  0.20430546  0.00060641  0.10255019  0.10428698  0.02945997
 -0.02871178 -0.00621137 -0.17519055 -0.06138844  0.09695293 -0.00605566
  0.13377516  0.02973774]