[-0.09347869  0.10232764  0.01398724 -0.02722236 -0.09603375 -0.04053842
 -0.03267151 -0.14392149  0.10830788 -0.03456496  0.18401325 -0.00043217
 -0.18970473 -0.16587196  0.00451635  0.17089617 -0.20293365 -0.15886073
 -0.0305135  -0.03689016  0.09827042  0.02003044 -0.01686473  0.01628509
 -0.11648587 -0.36041057 -0.09266297 -0.05698829  0.04875375 -0.02470724
 -0.09449202  0.0853222  -0.1965702  -0.12104137  0.0908094   0.08125863
  0.01309309 -0.02300943  0.15661009 -0.00396908 -0.21063279  0.11263295
  0.10424747  0.25950661  0.21998616  0.06904861  0.03401214 -0.10968534
  0.11802774 -0.10182215  0.02731543  0.1545022   0.08977439  0.04097451
  0.0064409  -0.15691593 -0.01678979  0.0538464  -0.20074275 -0.01987747
  0.04503114 -0.10251409 -0.02174238 -0.07015731  0.13115202  0.02906783
 -0.0476748  -0.21314633  0.12417513 -0.17459272 -0.07479811  0.02756332
 -0.16566837 -0.14513023 -0.33057094  0.00233127  0.37869161  0.10553533
 -0.17158724  0.09435228 -0.01213519 -0.04374877  0.14567466  0.10505966
 -0.00513688  0.05213774 -0.07191602  0.03603724  0.22951643 -0.02893236
 -0.03366863  0.20080224  0.03153748  0.06807666  0.05734477  0.02258004
 -0.03199435  0.03812586 -0.15540929 -0.03223968  0.00386307 -0.05396978
  0.04629439  0.12507765 -0.17102104  0.08439556  0.02573021  0.05223221
 -0.05564417 -0.00405846 -0.09259078 -0.05851052  0.09614301 -0.23298442
  0.21437858  0.2339859   0.02491316  0.09837925  0.07483041  0.01857175
 -0.00292044 -0.03618355 -0.17618386 -0.03818152  0.10070828 -0.02154606
  0.11840055  0.03257756]