[-0.17656851  0.10013767  0.05372126 -0.05627893 -0.1132367  -0.04999532
 -0.09596729 -0.09886725  0.15036343 -0.04345703  0.16591461 -0.02335057
 -0.19497569 -0.0732471  -0.05511656  0.18515602 -0.16102675 -0.14784233
 -0.04738306 -0.04882784  0.06256875  0.05038799 -0.00469514  0.01367271
 -0.12614845 -0.33463022 -0.06830793 -0.01948751  0.02902816 -0.01072489
 -0.06984823  0.01295022 -0.19898798 -0.0798237   0.08458798  0.15438192
  0.01193885 -0.00630359  0.17378032  0.02734287 -0.20783232  0.06377149
  0.08269586  0.28524223  0.20595053  0.05324898  0.04157457 -0.13063173
  0.1280822  -0.1299489   0.02307335  0.19017474  0.11311395  0.01308302
  0.02383826 -0.15569647  0.00618307  0.15341559 -0.147902    0.02841515
  0.10132612 -0.07269343 -0.05087546 -0.08687676  0.18805914  0.06866366
 -0.1085149  -0.20745833  0.12273517 -0.1191296  -0.07435248 -0.00215208
 -0.17014211 -0.14911887 -0.35657987 -0.01882161  0.39332551  0.08926298
 -0.22070925  0.09886844 -0.01979627  0.03132745  0.12808734  0.12793574
 -0.05739474  0.05570481 -0.09765007  0.0003967   0.20472606 -0.01664295
 -0.01739948  0.12358854  0.03937632  0.08188704  0.02817693  0.01841123
 -0.10343969 -0.00341796 -0.15095264 -0.04381395 -0.01267742 -0.03476147
  0.06024567  0.10952377 -0.16137019  0.13540126  0.03511926  0.04739525
 -0.05089882  0.0490774  -0.05477    -0.050235    0.11959765 -0.19306518
  0.22203533  0.20602666  0.00586088  0.13439441  0.14155845  0.07793316
 -0.0166523   0.0921815  -0.12833409 -0.05182201 -0.0011593  -0.04380062
  0.15756075  0.0655328 ]