[-0.17673562  0.12617356  0.01735434 -0.06456374 -0.10893138 -0.07211398
 -0.08925804 -0.14084737  0.11809023 -0.05790901  0.19256125 -0.08596642
 -0.2136977  -0.0803314  -0.10373729  0.19109571 -0.19735567 -0.13801263
 -0.02816137 -0.03989295  0.10037433  0.06497648 -0.01455931  0.06238991
 -0.1216351  -0.36927682 -0.08110271 -0.08598173 -0.0039468  -0.00453918
 -0.08982497  0.01270624 -0.20944767 -0.09399156  0.05116711  0.12222005
  0.01818394 -0.04456361  0.14988849  0.01383513 -0.18174022  0.10397496
  0.11302357  0.28012508  0.21916114  0.05496864  0.07017802 -0.13493811
  0.09473703 -0.1420925  -0.00684438  0.14815196  0.07786454  0.01834337
  0.0177323  -0.14468408 -0.03494407  0.11461121 -0.1345716   0.03378911
  0.11367718 -0.05354501 -0.05232961 -0.11139249  0.22497778  0.07066436
 -0.12327423 -0.16571479  0.14417014 -0.17392689 -0.10367409 -0.02495302
 -0.14264791 -0.14998394 -0.32167614  0.01961404  0.39554542  0.10838418
 -0.18126021  0.11946719 -0.02992157  0.02833561  0.14727114  0.12688194
  0.00647763  0.02716017 -0.07945028  0.02039186  0.24300347 -0.02311072
 -0.00323985  0.16974907  0.00394088  0.07519916  0.03831041  0.0226748
 -0.09282745  0.02737561 -0.10868522  0.05138797 -0.01419137 -0.04918722
  0.02354318  0.08879726 -0.13207328  0.07851247 -0.00289087  0.0300794
 -0.04450728  0.02160369 -0.07809588 -0.02492675  0.11919635 -0.21969925
  0.24281941  0.18764184  0.01003376  0.14576809  0.12936895  0.06473076
  0.01417802  0.05210875 -0.19645922 -0.0819963   0.05737271 -0.0519947
  0.1377493   0.04344482]