[-0.12386109  0.14797226  0.03952299 -0.07369129 -0.14296393 -0.05405013
 -0.10401799 -0.13621955  0.12072579 -0.00924757  0.29156843 -0.00783371
 -0.19162731 -0.09960335 -0.06102988  0.18456125 -0.23559676 -0.10632788
 -0.01680236 -0.00698381  0.08194912  0.05567634  0.03628847  0.05381962
 -0.07065666 -0.34701103 -0.04648523 -0.02896421  0.04995329 -0.01013872
 -0.07016644  0.05410759 -0.1929861  -0.1174634   0.09141018  0.13474047
 -0.03562387 -0.02846302  0.17617142  0.00618832 -0.19000894  0.07945313
  0.11088002  0.27704522  0.23114304  0.07335367  0.05122184 -0.13792507
  0.09850363 -0.17256944  0.0509247   0.17230067  0.1310344   0.02296051
  0.0092356  -0.14203809 -0.03451227  0.14397767 -0.13339294  0.01724537
  0.10709602 -0.05085934 -0.02745522 -0.12730081  0.21294148  0.08690244
 -0.11985333 -0.16674162  0.08343664 -0.09839565 -0.1671987   0.04374366
 -0.16936252 -0.1443667  -0.33453095 -0.00491941  0.39596853  0.05804586
 -0.17393832  0.03937293 -0.00290483 -0.00969139  0.08497962  0.10323918
 -0.04619953 -0.00468258 -0.08565894  0.0247055   0.21644461 -0.040791
 -0.02568217  0.2040973   0.01537736  0.09306579  0.02355176  0.07399797
 -0.02628836  0.05732984 -0.1478052  -0.02057741  0.02957666 -0.05182328
  0.04574196  0.10467596 -0.18758182  0.06627529  0.007544    0.07228284
  0.03978107  0.00210363 -0.07587492 -0.05511765  0.13558613 -0.22673617
  0.26089546  0.20680253  0.04140776  0.09961833  0.11941258  0.05058161
  0.00916187 -0.01037249 -0.14483804 -0.05434047  0.053735   -0.04322194
  0.12202831  0.04412556]