[-1.23159610e-01  1.41385794e-01  3.17116641e-02 -6.99015856e-02
 -1.44909382e-01 -4.74223867e-02 -1.08957410e-01 -1.35880470e-01
  1.22864246e-01 -1.55250048e-02  2.81134486e-01 -1.82887409e-02
 -1.93156034e-01 -8.79595652e-02 -6.31908104e-02  1.90416858e-01
 -2.36655280e-01 -1.11465313e-01 -1.65142473e-02 -9.36159678e-03
  8.39056373e-02  6.73722029e-02  3.56728695e-02  5.49636483e-02
 -7.30971545e-02 -3.46018434e-01 -4.13189270e-02 -3.33483256e-02
  4.93021198e-02 -4.32310859e-03 -7.68978521e-02  6.18673675e-02
 -1.95051029e-01 -1.17803015e-01  1.01331823e-01  1.40042543e-01
 -2.71247476e-02 -2.81637702e-02  1.75136968e-01  3.06933839e-03
 -1.93346471e-01  7.95161799e-02  1.17861785e-01  2.80648738e-01
  2.25137517e-01  7.09815845e-02  4.85664122e-02 -1.41155645e-01
  9.43474397e-02 -1.64359361e-01  4.94665317e-02  1.67467669e-01
  1.29556105e-01  2.57104430e-02  9.60239023e-03 -1.45984471e-01
 -3.07378173e-02  1.45692810e-01 -1.31119281e-01  1.59525704e-02
  1.10338978e-01 -5.02485223e-02 -1.75997298e-02 -1.23714887e-01
  2.20945343e-01  7.91114569e-02 -1.15901940e-01 -1.72853976e-01
  8.55276883e-02 -9.34698507e-02 -1.71609595e-01  3.99054848e-02
 -1.72500625e-01 -1.38927981e-01 -3.40113014e-01 -1.16053903e-02
  3.98768663e-01  4.82304804e-02 -1.74379095e-01  5.26796542e-02
  8.82689562e-03 -1.36802318e-02  9.15304124e-02  1.13798857e-01
 -3.81655060e-02 -4.22494346e-03 -8.06265324e-02  2.87214909e-02
  2.22915560e-01 -4.28238809e-02 -2.75368225e-02  1.93610758e-01
  1.39551116e-02  8.30915347e-02  2.82340292e-02  7.92232975e-02
 -2.75652539e-02  5.86953275e-02 -1.52099594e-01 -1.77480094e-02
  2.31065657e-02 -4.51859049e-02  4.32135686e-02  1.11346029e-01
 -1.87207446e-01  6.09730743e-02  5.78123936e-03  6.42033517e-02
  3.40689681e-02  5.07832086e-03 -7.20886439e-02 -5.35669513e-02
  1.31523952e-01 -2.31913686e-01  2.58113146e-01  2.02599093e-01
  4.46890853e-02  1.03751995e-01  1.10473000e-01  5.08412607e-02
  1.62848644e-02  1.05632840e-04 -1.55999705e-01 -6.02460280e-02
  5.78103550e-02 -3.81350219e-02  1.20521262e-01  5.19866720e-02]