[-0.18066882  0.12323271  0.02440921 -0.06551395 -0.10982089 -0.07734386
 -0.08902372 -0.14070253  0.11371585 -0.06065375  0.1950395  -0.08824687
 -0.20943551 -0.08068703 -0.10374973  0.18981604 -0.20264049 -0.13205715
 -0.02215573 -0.03753917  0.09676514  0.05629294 -0.02050149  0.05884802
 -0.11317527 -0.37229526 -0.08528592 -0.08189156  0.00115692  0.001549
 -0.08409534  0.01383823 -0.20745133 -0.09463426  0.04786653  0.11967681
  0.01728619 -0.04914871  0.15213485  0.01177315 -0.17879911  0.10251535
  0.10774577  0.27936777  0.21371651  0.05804817  0.07346087 -0.13160977
  0.09479631 -0.13973871 -0.00871849  0.14720859  0.07984497  0.02538524
  0.01443777 -0.14285904 -0.02744561  0.1084464  -0.13570546  0.02596374
  0.11268687 -0.05683787 -0.04595089 -0.10732868  0.23707612  0.06905159
 -0.12594543 -0.16071454  0.1487093  -0.167327   -0.10156261 -0.0277353
 -0.14061156 -0.1456763  -0.31992593  0.03355802  0.39288995  0.10995711
 -0.17934109  0.11604287 -0.03530161  0.02611033  0.14640765  0.13504611
  0.00697398  0.02594337 -0.07159892  0.01596841  0.23749308 -0.02397494
 -0.00589447  0.16932641  0.0089449   0.07358234  0.03602328  0.0213593
 -0.08738843  0.03004027 -0.10017828  0.05718126 -0.00235717 -0.04734399
  0.0257785   0.09182229 -0.13514732  0.08138298 -0.0049793   0.02772359
 -0.04096872  0.01846249 -0.07353842 -0.02530344  0.11309465 -0.22921495
  0.24675329  0.18892184  0.01059685  0.15071328  0.12616283  0.06459973
  0.01705044  0.04784316 -0.18790622 -0.08590218  0.06056976 -0.04656422
  0.13480277  0.04414449]