[-0.15602849  0.13373955  0.035707   -0.01705989 -0.09635729 -0.01940018
 -0.04535349 -0.08194083  0.14890707 -0.02503935  0.21008864 -0.04378738
 -0.21745656 -0.09977161 -0.03554111  0.1708044  -0.2043536  -0.11492155
 -0.04583248 -0.07338428  0.10587468  0.08109169 -0.04147592  0.02320778
 -0.1381034  -0.33268604 -0.06577937 -0.06075064  0.01674423 -0.04289417
 -0.06684577  0.01947973 -0.18512355 -0.10374299  0.08023033  0.08981626
 -0.01567711 -0.00568524  0.13539957  0.02730762 -0.15496719  0.03136431
  0.12699321  0.29790884  0.21341851  0.08927708 -0.0210715  -0.12421323
  0.12460943 -0.15653501  0.02313142  0.1778024   0.09145526  0.06517097
  0.07696159 -0.13521962 -0.02567733  0.08754216 -0.14893532  0.02798117
  0.05609008 -0.04008764 -0.03441055 -0.11988892  0.18184416  0.05812462
 -0.08157632 -0.21197765  0.11620706 -0.18308012 -0.15245131  0.02927282
 -0.13544159 -0.14510994 -0.38071242 -0.0191212   0.38752377  0.10018164
 -0.21207285  0.04486761  0.02433218 -0.05154795  0.15705638  0.11952839
 -0.04335226  0.03435321 -0.07800021 -0.00786874  0.24657242 -0.01402208
 -0.04068029  0.18324542  0.0200003   0.06197086  0.05213118 -0.00358549
 -0.07507084 -0.0012079  -0.1761312  -0.05857432 -0.00532311 -0.04996055
  0.01088134  0.13419802 -0.15389864  0.1044539   0.04020553  0.02988403
 -0.0682632   0.01741165 -0.13939205 -0.02377549  0.15054129 -0.19810209
  0.21699296  0.18305089  0.03502643  0.08362853  0.09732354  0.04591849
 -0.02828879  0.04766481 -0.15171412 -0.06013945  0.03784112 -0.07092092
  0.10281298  0.01938738]