[-0.13664787  0.13420068  0.03061382 -0.00386309 -0.07473391 -0.01841905
 -0.05180847 -0.11791881  0.16591083 -0.02581786  0.21401449 -0.06386879
 -0.21131597 -0.09939868 -0.05629129  0.19505671 -0.20021997 -0.11727505
 -0.041404   -0.05136954  0.0888892   0.06887166 -0.00220041  0.01203425
 -0.10939618 -0.35981029 -0.07497112 -0.06561732  0.01972598 -0.01911092
 -0.07411461  0.0181108  -0.18602933 -0.08819903  0.08995614  0.0951271
 -0.01631378 -0.01106761  0.14637969  0.02742293 -0.14700781  0.03568353
  0.13453151  0.28931338  0.18661121  0.09250303  0.00514722 -0.13965337
  0.10588644 -0.13092969  0.0219941   0.16189286  0.06869417  0.06017795
  0.0786956  -0.13750307 -0.01402173  0.07339856 -0.14089897  0.03554949
  0.08826742 -0.01699103 -0.07047638 -0.10151817  0.21468051  0.06656598
 -0.09862011 -0.20840409  0.10582823 -0.16123994 -0.12651671  0.00835166
 -0.140999   -0.13920633 -0.36210081 -0.0291059   0.41838121  0.0570646
 -0.20252071  0.06645623  0.02653681 -0.04254932  0.15723716  0.13584314
 -0.03864586  0.05210036 -0.08356195 -0.01042741  0.22654092 -0.02256592
 -0.0325916   0.17435193 -0.00333959  0.06397644  0.03773163  0.01004607
 -0.06907071  0.01091439 -0.16740814 -0.05445845  0.00596059 -0.04456856
  0.00422311  0.09826132 -0.15833172  0.09397101  0.04690404  0.03826979
 -0.03460975  0.02334803 -0.13478152 -0.02293375  0.14003427 -0.22777252
  0.22190164  0.17017944  0.03635488  0.08709609  0.09177657  0.06816991
 -0.01313074  0.06840318 -0.15856618 -0.06536951  0.01146798 -0.05696383
  0.08809277  0.02953591]