[-0.15730272  0.12819014  0.05016546 -0.04998297 -0.09048753 -0.04030786
 -0.04838253 -0.11369357  0.14164719 -0.02347223  0.23730855 -0.05770433
 -0.22578096 -0.13466179 -0.04726234  0.19898753 -0.20398127 -0.11869895
 -0.02515365 -0.0311393   0.1132552   0.04308188  0.00798228  0.00827065
 -0.10425154 -0.38485694 -0.07590526 -0.06261947  0.00106994 -0.03933534
 -0.07241356  0.02691202 -0.18445356 -0.098615    0.06695553  0.0945518
 -0.02428677 -0.01562465  0.15634345  0.00495984 -0.2044117   0.04201691
  0.12034395  0.2661728   0.21024476  0.08201041  0.03837901 -0.17054005
  0.11711415 -0.09882699  0.03218666  0.15444793  0.08224607  0.03498183
  0.05452961 -0.12864695 -0.01077658  0.08531611 -0.14508858  0.0051081
  0.10497939 -0.07759633 -0.04363383 -0.10382736  0.18520859  0.03714127
 -0.0884395  -0.21860261  0.12250911 -0.14763218 -0.13334627  0.02717501
 -0.16140001 -0.14552875 -0.40283808 -0.01340367  0.39134234  0.0508583
 -0.18291967  0.06409746  0.02026687 -0.02439642  0.16594195  0.17012009
 -0.03936299  0.04412    -0.09056508 -0.00357746  0.22003789 -0.04214382
 -0.04099763  0.15086377  0.00779954  0.08866017  0.0405117   0.0298078
 -0.06927468  0.04754382 -0.1509978  -0.01666796  0.00271539 -0.05104311
  0.01498288  0.11752087 -0.1484286   0.07401953  0.02602854  0.04013726
 -0.05161235 -0.00765616 -0.09672298 -0.0466579   0.10274883 -0.21906546
  0.21655357  0.20442975  0.04699038  0.09371237  0.11496887  0.06150464
 -0.01623294  0.04277859 -0.18470676 -0.02355012  0.05626457 -0.02805603
  0.12335878  0.02832562]