[-0.13803487  0.20422816  0.01134191 -0.04697118 -0.16142438 -0.04793417
 -0.10601991 -0.14977336  0.11329742  0.0296479   0.2278506  -0.01499405
 -0.18485847 -0.11190343 -0.08402991  0.19619475 -0.20964406 -0.15012304
 -0.01634643 -0.0124762   0.07814782  0.04043118  0.06255499  0.04841534
 -0.10175247 -0.2887347  -0.04436506 -0.05979579  0.05350671 -0.03791729
 -0.06543256  0.01219029 -0.22740889 -0.12517029  0.07609474  0.11332003
 -0.05389746 -0.02143854  0.2059608   0.01873736 -0.19257447  0.07905736
  0.10472105  0.3029885   0.22885799  0.04087753  0.04535352 -0.12906075
  0.0714024  -0.14591874  0.05056537  0.17942263  0.11980542  0.0439735
 -0.00259157 -0.12502243  0.01164111  0.10631748 -0.14035916  0.01050258
  0.12796354 -0.02101146 -0.03176322 -0.09409635  0.20187651  0.05727035
 -0.07903112 -0.17791803  0.07406471 -0.11174496 -0.14542474  0.07317885
 -0.14209139 -0.13918798 -0.35130382 -0.02771717  0.40655127  0.08270834
 -0.17512336  0.04010719 -0.00061423 -0.02721495  0.08517294  0.08215201
 -0.06581164  0.04167773 -0.10281292  0.04667125  0.21601927 -0.05472453
 -0.03802717  0.19264567  0.06384035  0.0741647   0.03532154  0.07499573
 -0.00730178  0.04633928 -0.14054103 -0.01324529  0.01823674 -0.05366545
  0.03752287  0.1001653  -0.17027603  0.06630477  0.04400169  0.05228205
 -0.05285802  0.01537382 -0.09855633 -0.0441913   0.13809939 -0.21434675
  0.25229803  0.21172753  0.01487277  0.05952625  0.12867729  0.03212522
 -0.00702861 -0.00264971 -0.10954032 -0.06233733  0.04593888 -0.04779742
  0.14667019  0.07616927]