[-1.55236766e-01  1.11546896e-01  1.39961839e-02 -5.72455339e-02
 -9.67933163e-02 -2.87355464e-02 -5.54546788e-02 -7.59610087e-02
  1.37990549e-01 -1.71826314e-02  1.97059169e-01 -2.87002064e-02
 -2.24815607e-01 -1.01403929e-01 -3.00089996e-02  1.58750519e-01
 -2.12014943e-01 -1.16475515e-01 -1.99678782e-02 -7.57380053e-02
  9.98356268e-02  8.67000446e-02 -4.75675240e-02  2.71108933e-02
 -1.34536982e-01 -3.21319789e-01 -6.46483526e-02 -6.99486285e-02
 -2.11312361e-02 -3.38870548e-02 -3.36984098e-02  6.07964993e-02
 -1.78143248e-01 -8.69958922e-02  9.17197391e-02  1.10312916e-01
 -1.99944582e-02 -3.19716707e-03  1.52782410e-01  2.96108406e-02
 -1.45816609e-01  5.30158449e-03  1.30880311e-01  3.01740259e-01
  2.03947291e-01  7.39982352e-02 -9.90955066e-03 -9.79970247e-02
  1.16496816e-01 -1.52558863e-01  2.74277218e-02  1.83857292e-01
  7.94433355e-02  5.98488562e-02  6.51227683e-02 -1.42965212e-01
 -3.11441836e-03  7.15587065e-02 -1.44782111e-01  5.59368217e-03
  6.35269806e-02 -7.91020989e-02 -5.21050803e-02 -1.11402504e-01
  1.87779620e-01  5.33379279e-02 -7.61002526e-02 -2.14374810e-01
  1.22910775e-01 -1.69446215e-01 -1.76845476e-01  2.57807970e-02
 -1.56821340e-01 -1.34686932e-01 -3.70788068e-01 -1.74658876e-02
  3.50890696e-01  9.33586881e-02 -1.99961767e-01  6.80967495e-02
  3.42061706e-02 -4.31745313e-02  1.61492929e-01  1.14243023e-01
 -3.33059691e-02  4.13346738e-02 -7.90120587e-02  1.39087442e-05
  2.44986638e-01 -1.74490120e-02 -5.56742251e-02  1.53990656e-01
  1.90298390e-02  5.83316684e-02  7.01679215e-02 -1.21171055e-02
 -4.18460257e-02  1.92455947e-04 -1.85214847e-01 -4.15939055e-02
  1.68520510e-02 -5.64178340e-02 -4.75645822e-04  1.39862821e-01
 -1.56472623e-01  9.85100344e-02  4.01031338e-02  1.27838729e-02
 -8.57158750e-02 -2.12170067e-03 -1.44491151e-01 -1.68078411e-02
  1.53041899e-01 -1.91213340e-01  2.27166101e-01  1.77460641e-01
  3.59315015e-02  9.65912566e-02  1.00359857e-01  4.22367789e-02
 -3.72853279e-02  2.88754832e-02 -1.66346103e-01 -7.24530742e-02
  5.08129112e-02 -3.02546080e-02  1.13841072e-01  2.00225525e-02]