[-0.17084727  0.10403532  0.06588618 -0.06225884 -0.07883789 -0.02876326
 -0.06720459 -0.0987834   0.14375417 -0.08624645  0.23653124 -0.07264663
 -0.20739661 -0.00580622 -0.10542592  0.21342127 -0.16204213 -0.11980095
 -0.05989569 -0.02161479  0.09691812  0.07156572 -0.06043493  0.02266046
 -0.11152434 -0.34636089 -0.11803134 -0.05880482 -0.02233296 -0.00415565
 -0.06279818  0.01792142 -0.18313468 -0.06840406  0.03853222  0.08072556
  0.0150136  -0.02696335  0.14483516  0.01413313 -0.17574339  0.12211736
  0.12033772  0.26881927  0.17780624  0.06409759  0.06559087 -0.1434323
  0.05087963 -0.16593456  0.01437285  0.12444495  0.09428082  0.07671661
  0.02361193 -0.16521154 -0.0281227   0.11600631 -0.12229098  0.07718264
  0.10937138 -0.0414221  -0.0267477  -0.09115158  0.21187368  0.08642124
 -0.136695   -0.17055443  0.12232863 -0.13573284 -0.07534071 -0.01764625
 -0.16378278 -0.17257649 -0.33023724  0.05686878  0.39912027  0.10227825
 -0.19108684  0.09396385 -0.01984452  0.02931708  0.1255803   0.0987623
 -0.02129391  0.00373513 -0.07065479  0.02979895  0.24613146 -0.01986334
 -0.00259396  0.17910725 -0.01357975  0.04374394  0.01432623  0.07087465
 -0.07756784 -0.00201943 -0.11119144  0.04030594 -0.02261096 -0.04503301
  0.01185904  0.10134237 -0.13584223  0.10511153 -0.02335536  0.02704242
 -0.05634407  0.07008872 -0.08900055 -0.01099729  0.14055678 -0.1823298
  0.2194906   0.17939989 -0.00350435  0.12855822  0.14228085  0.09916698
 -0.01517558  0.06752609 -0.18998535 -0.06531524  0.05450667 -0.02488447
  0.13260032  0.06125578]