[-0.12728934  0.2058879   0.01835106 -0.04883959 -0.15569741 -0.05409978
 -0.10029829 -0.1492849   0.10691573  0.0395632   0.22562754 -0.00806392
 -0.18205951 -0.0967245  -0.07167447  0.18593489 -0.22276555 -0.14482999
 -0.02555011 -0.01412426  0.07880151  0.05185429  0.06090257  0.05338537
 -0.09131807 -0.28327185 -0.05171384 -0.04844495  0.07730322 -0.05240731
 -0.05460114  0.01294354 -0.22469604 -0.1094242   0.06322651  0.0977838
 -0.05863753 -0.03990672  0.21451461  0.02028006 -0.18601096  0.08372396
  0.09663933  0.3113333   0.23964237  0.03168079  0.04212652 -0.12053721
  0.06484975 -0.16427104  0.04549505  0.19137487  0.10783718  0.04548921
 -0.01076834 -0.11602509  0.00359003  0.10380214 -0.14930855  0.0235068
  0.12991166 -0.02978904 -0.03440979 -0.1031783   0.19374476  0.06833626
 -0.07677606 -0.17080639  0.06863659 -0.12639426 -0.15692289  0.06129734
 -0.14556946 -0.13772468 -0.34866545 -0.03109108  0.39563224  0.08393548
 -0.1780649   0.0469939   0.00498865 -0.02227764  0.09240775  0.08000097
 -0.07790213  0.03635232 -0.10373912  0.06659012  0.22235493 -0.05403917
 -0.03802548  0.20367996  0.06883093  0.06851839  0.04072176  0.07324936
  0.01494773  0.03189271 -0.14810859 -0.00175293  0.02362318 -0.05334027
  0.03681405  0.10734196 -0.16148007  0.07570689  0.05520106  0.04673319
 -0.04229676  0.01021504 -0.10524591 -0.04801979  0.14803866 -0.20505543
  0.25492844  0.21603242  0.00961496  0.05150194  0.11273222  0.04422019
 -0.01704238 -0.00279521 -0.10320308 -0.05393826  0.05076842 -0.03851236
  0.13969935  0.07404115]