[-0.10012177  0.10450201  0.02241144 -0.03836461 -0.0878907  -0.04967847
 -0.02679459 -0.1391432   0.09428484 -0.02715101  0.19026855  0.00094546
 -0.18651269 -0.17414105  0.00071848  0.16774553 -0.20061925 -0.15931171
 -0.02972089 -0.05250189  0.08895998  0.0106047  -0.02346247  0.02459937
 -0.1227149  -0.34589994 -0.08488596 -0.05796232  0.02554989 -0.02924848
 -0.08753761  0.09327566 -0.19768012 -0.12309023  0.08491866  0.08920394
  0.00460415 -0.02090142  0.15676384 -0.00195849 -0.18750851  0.11104129
  0.10514028  0.2713165   0.2287834   0.06589041  0.03519137 -0.09975746
  0.11460831 -0.11135004  0.01838565  0.15857287  0.07465531  0.04961148
  0.00673717 -0.14959966 -0.01462011  0.05518577 -0.18954156 -0.02057701
  0.02533613 -0.12054157 -0.02548856 -0.07783785  0.14280431  0.03586433
 -0.04910276 -0.20105298  0.13085842 -0.1657546  -0.09182142  0.02086798
 -0.16839446 -0.13885726 -0.33375955  0.01952192  0.36949852  0.11453765
 -0.17308499  0.09800224 -0.01497214 -0.03657153  0.14845417  0.10731434
 -0.00453505  0.04966892 -0.06679868  0.0387439   0.22372995 -0.02329454
 -0.04583693  0.18978022  0.02681584  0.06891903  0.06488258  0.01397268
 -0.02770205  0.04261057 -0.16159676 -0.03018701  0.0149059  -0.05634622
  0.04944335  0.1294457  -0.16266656  0.07191022  0.02425958  0.04977558
 -0.06124614 -0.00104797 -0.0892057  -0.05655692  0.09082247 -0.23472157
  0.22582678  0.24051316  0.01627988  0.0980094   0.08205278  0.01693211
 -0.00394963 -0.03370845 -0.16099034 -0.03704494  0.10524303 -0.00368852
  0.12684405  0.03178462]