[-0.15203638  0.13807307  0.0130974  -0.0277156  -0.08455512 -0.05857612
 -0.06227902 -0.09517701  0.10655396 -0.00216166  0.22198299 -0.04988638
 -0.20401621 -0.13871349 -0.06720183  0.19560705 -0.19074421 -0.1146516
 -0.03885762 -0.05013115  0.12062144  0.05510329  0.00068378  0.0207409
 -0.13704275 -0.32283062 -0.04861682 -0.0451294   0.01335495 -0.0472949
 -0.07925265  0.04993718 -0.21402375 -0.11152478  0.0940006   0.10496149
 -0.00427601 -0.02163057  0.16902898  0.00492554 -0.18193525  0.04310567
  0.13300477  0.30928409  0.22411428  0.05986871  0.01097723 -0.12777357
  0.10876656 -0.13340522  0.04966257  0.16070692  0.028329    0.05434069
  0.02894387 -0.13580193  0.00497064  0.10553777 -0.14891756 -0.02358066
  0.07731592 -0.07992649 -0.04467797 -0.09798209  0.16875146  0.02974975
 -0.0771748  -0.21045017  0.09872734 -0.14690803 -0.08697563  0.04107435
 -0.14652994 -0.13680997 -0.38850781  0.0019269   0.40809011  0.07480474
 -0.1653304   0.10310753  0.01757371 -0.04781767  0.18603344  0.11909609
 -0.00551529  0.04128041 -0.08971017  0.03261067  0.23732911 -0.02730122
 -0.05244678  0.15053463  0.01532202  0.02449441  0.06293182  0.03834983
 -0.06193101  0.02902133 -0.14505726 -0.01605101  0.00993003 -0.07332774
  0.00462219  0.12147168 -0.15829067  0.06697929  0.05159935  0.04257622
 -0.05388677 -0.02071749 -0.10789778 -0.0451945   0.09163209 -0.22189508
  0.22974983  0.1803869   0.04167493  0.10980611  0.10746273  0.05413249
 -0.00609563  0.03314824 -0.14614052 -0.04949921  0.05826477 -0.00830115
  0.14940856  0.02853657]