[-0.1584757   0.13698021  0.04116978 -0.03633113 -0.08423083 -0.06892895
 -0.04784925 -0.1045264   0.15016234 -0.00866386  0.22966592 -0.04436703
 -0.20629823 -0.16247912 -0.03987527  0.21530883 -0.20350938 -0.13788061
 -0.03579516 -0.06123301  0.08615818  0.04545989  0.02096871  0.02800192
 -0.14361453 -0.36426064 -0.03701629 -0.04696622  0.01424627 -0.04414475
 -0.10774767  0.05112002 -0.24661116 -0.148517    0.1052826   0.14858541
 -0.01257433 -0.02012116  0.15903853  0.00858092 -0.18988073  0.04159756
  0.11588812  0.29974645  0.21114941  0.05023531  0.03381013 -0.15246277
  0.10360625 -0.08933791  0.0318723   0.17208473  0.05776108  0.04060347
  0.01665279 -0.15158184  0.00297502  0.11011522 -0.13618314 -0.00855943
  0.10105634 -0.09497913 -0.02992798 -0.08024835  0.17913418 -0.00237505
 -0.07606563 -0.21215864  0.10269365 -0.12028042 -0.06539463  0.0277425
 -0.15511924 -0.15281244 -0.38943586  0.00210025  0.39771962  0.05192433
 -0.19257998  0.08415287 -0.01265225 -0.03573683  0.15915994  0.15687932
 -0.01116365  0.0664795  -0.10950575  0.03436356  0.22518671 -0.02514952
 -0.025969    0.1520538   0.00968945  0.04394721  0.05292227  0.02705042
 -0.10346105  0.05932274 -0.14578708 -0.02878922  0.00715887 -0.07983848
  0.01992077  0.12492255 -0.16770063  0.0554456   0.04264891  0.04011849
 -0.04565911 -0.00274787 -0.08631794 -0.09663297  0.09100492 -0.21730545
  0.22883324  0.22680454  0.03740497  0.12842821  0.10782035  0.07117859
 -0.00200941  0.05020452 -0.13912186 -0.0196216   0.03880692 -0.01757479
  0.15136357  0.03267704]