[-1.65995181e-01  1.32563770e-01  3.50268893e-02 -4.12829220e-02
 -1.13939635e-01 -3.74637023e-02 -8.65084529e-02 -1.28433228e-01
  1.19573198e-01 -3.09627354e-02  2.55667627e-01 -3.09052002e-02
 -2.02289566e-01 -7.66216516e-02 -1.05092384e-01  1.69604108e-01
 -1.85092449e-01 -1.29549369e-01 -8.20979383e-03 -5.55175357e-02
  1.34392917e-01  7.76785165e-02  1.47116426e-02  4.94344495e-02
 -1.02366306e-01 -3.55140567e-01 -6.85724467e-02 -4.22436781e-02
  4.63036671e-02 -3.60221341e-02 -3.46564353e-02  5.81339262e-02
 -2.27458715e-01 -7.95707032e-02  5.20801954e-02  1.12453833e-01
  1.70821231e-02  3.28867143e-04  1.44454062e-01 -1.50224706e-02
 -1.47975177e-01  9.49011818e-02  1.02144979e-01  3.02163631e-01
  2.23693848e-01  4.07954492e-02  4.92102541e-02 -1.65072307e-01
  5.00907004e-02 -1.46522209e-01  5.19424640e-02  1.63120255e-01
  7.97319785e-02  3.96097489e-02 -3.86421394e-04 -1.65769264e-01
 -6.61253631e-02  1.37538478e-01 -1.13388531e-01  8.34658891e-02
  9.59304720e-02 -2.79551744e-02 -4.56393510e-02 -1.37842894e-01
  1.69340178e-01  7.01136813e-02 -1.24157213e-01 -2.07421020e-01
  7.41184056e-02 -1.60384402e-01 -1.14288270e-01  1.18400538e-02
 -1.64081499e-01 -1.61818370e-01 -3.44149679e-01  2.04569995e-02
  3.55832815e-01  7.85451978e-02 -1.99822828e-01  9.79897156e-02
  1.28947888e-02  2.55650934e-02  1.25885829e-01  9.98108387e-02
 -3.65966335e-02  1.70087721e-02 -8.53626058e-02  5.62686436e-02
  2.07581267e-01 -6.00375747e-03 -3.94773744e-02  2.19928294e-01
 -2.50850320e-02  7.42939413e-02  4.91780043e-02  8.95840153e-02
 -6.18090704e-02  4.43478823e-02 -1.58571020e-01  1.18182125e-02
 -3.01228259e-02 -5.98162971e-02  2.60082185e-02  9.23232064e-02
 -1.29212424e-01  9.42355767e-02 -1.19013274e-02  9.16712582e-02
 -2.40647476e-02  1.00675737e-02 -1.18049681e-01 -2.35678609e-02
  1.52387500e-01 -2.01160192e-01  2.66979605e-01  1.90925226e-01
  4.13065813e-02  1.40823752e-01  1.62524268e-01  8.05960894e-02
  1.25795975e-02  3.13409902e-02 -1.66869327e-01 -5.91720780e-03
  4.64170575e-02 -6.68674856e-02  1.07342951e-01  4.82183211e-02]