[-0.16673662  0.13103555  0.02259874 -0.02159469 -0.09354807 -0.02488983
 -0.04806549 -0.08265589  0.15331958 -0.02922889  0.21161251 -0.04434014
 -0.21417065 -0.11292604 -0.03741933  0.17326501 -0.20021065 -0.1099745
 -0.04100905 -0.07445154  0.10454892  0.07933532 -0.03092219  0.01895947
 -0.11961196 -0.34122437 -0.0603818  -0.06221586  0.00364181 -0.04137124
 -0.05867161  0.02574062 -0.18703456 -0.10623988  0.08090501  0.10354872
 -0.02655238 -0.00962688  0.14291623  0.01507007 -0.14900959  0.02617236
  0.12531948  0.29736039  0.20215404  0.08649456 -0.01741029 -0.12489358
  0.13019526 -0.14262003  0.02680708  0.17230715  0.07871445  0.05659436
  0.0768424  -0.12887709 -0.01456356  0.08575033 -0.14259684  0.00555048
  0.067785   -0.05086915 -0.04572595 -0.1211675   0.1858948   0.05723551
 -0.06932328 -0.21914616  0.11575969 -0.17344716 -0.14996223  0.0281581
 -0.13703629 -0.14464343 -0.37097949 -0.01322748  0.37873557  0.09797678
 -0.18954794  0.05984107  0.02479319 -0.04707607  0.16271698  0.11567991
 -0.03606675  0.03694421 -0.08271499 -0.00908376  0.24241364 -0.01539988
 -0.05100197  0.16533089  0.02048995  0.0567131   0.05426946 -0.02290898
 -0.06672337  0.01065698 -0.17911193 -0.05250954  0.00083357 -0.0528952
  0.0063565   0.11968886 -0.15607606  0.09534647  0.03935436  0.03317272
 -0.0655018   0.00720475 -0.14280976 -0.01788616  0.13858989 -0.2027477
  0.22424419  0.17119196  0.04934777  0.10228025  0.10517363  0.04969541
 -0.02541924  0.04467952 -0.16279013 -0.06290352  0.04559727 -0.0414736
  0.11339889  0.02460397]