[-0.12721115  0.18607192  0.00452413 -0.05825249 -0.16493534 -0.05005689
 -0.11567459 -0.14558671  0.10644398  0.01978972  0.22855397 -0.0195966
 -0.18609843 -0.10327969 -0.0830161   0.1993089  -0.22534811 -0.14847137
 -0.0139841  -0.01129064  0.07651721  0.05940555  0.05645922  0.04748013
 -0.09234216 -0.30590338 -0.04384126 -0.05853143  0.0558103  -0.03283051
 -0.06077921  0.02914329 -0.22975636 -0.11570902  0.08569147  0.12382489
 -0.04131172 -0.02109386  0.19934244  0.0189769  -0.19058616  0.07836013
  0.10436592  0.2999537   0.21698546  0.03610557  0.05766748 -0.14174631
  0.06722831 -0.14072256  0.05512815  0.17626503  0.11049952  0.05066564
 -0.01795655 -0.12514292  0.01009278  0.11510056 -0.13585912  0.01344665
  0.13890572 -0.02007271 -0.03291235 -0.09723599  0.20981161  0.04868773
 -0.08385019 -0.19513576  0.06719694 -0.11510251 -0.1657635   0.06430499
 -0.14446341 -0.12673782 -0.35866785 -0.03268011  0.39848965  0.06755998
 -0.17924456  0.04802104 -0.00484623 -0.03328682  0.08910263  0.08788321
 -0.0561589   0.04550539 -0.10148883  0.05598057  0.23144436 -0.05454444
 -0.034937    0.18933918  0.0599914   0.08011471  0.03741403  0.08469971
 -0.00519155  0.04620117 -0.14078385 -0.01137853  0.01920188 -0.0477726
  0.02668079  0.1081984  -0.17334692  0.08498988  0.03533905  0.04938976
 -0.04051146  0.01010118 -0.09300464 -0.04706037  0.14496021 -0.21254638
  0.25322303  0.21363726  0.03557667  0.06899563  0.12335064  0.03707845
 -0.01361138 -0.00765765 -0.13572928 -0.06068438  0.04957916 -0.0392211
  0.13760942  0.07661185]