[-0.12863427  0.19031397  0.02721089 -0.06800326 -0.13874663 -0.03998858
 -0.10332952 -0.15766174  0.11932738 -0.01294471  0.23978689 -0.0095189
 -0.18423538 -0.11964454 -0.05356898  0.18153623 -0.23143502 -0.13935073
 -0.00986262 -0.01926557  0.08145899  0.05096998  0.06059703  0.07681295
 -0.12102445 -0.33341455 -0.04959021 -0.06301996  0.05759441 -0.02557805
 -0.08780219  0.05186427 -0.21202187 -0.13346334  0.08967688  0.15470731
 -0.02092592 -0.01691763  0.16930629  0.01864188 -0.19115664  0.07812648
  0.12634601  0.32366905  0.24521437  0.06177593  0.05819051 -0.13648461
  0.10578296 -0.11754389  0.06318977  0.14914642  0.11167905  0.03562969
  0.03469976 -0.13794677 -0.00925819  0.13737886 -0.14755359  0.02694204
  0.13569629 -0.04429095  0.00614775 -0.11434746  0.21968544  0.05583863
 -0.08884215 -0.17632173  0.11394937 -0.11787822 -0.15447296  0.05473137
 -0.15006922 -0.1132782  -0.34376583 -0.02017368  0.37877193  0.09572615
 -0.17524709  0.02720265  0.00679508 -0.03697814  0.10626113  0.11502673
 -0.0388722   0.02102817 -0.09382284  0.02618474  0.23966573 -0.00682996
 -0.01606124  0.19702229  0.04093862  0.03967715  0.05091099  0.06201365
 -0.09088239  0.05967698 -0.19560972 -0.02968757 -0.03671806 -0.06179891
  0.03004603  0.12486739 -0.17762387  0.06697061  0.0189274   0.03598787
 -0.04130372  0.00791363 -0.10172456 -0.05726087  0.13255732 -0.21977206
  0.22947064  0.20385611  0.06713849  0.08345837  0.11760759  0.04936091
  0.00578713 -0.00898773 -0.13775723 -0.05964595  0.06742392 -0.07326069
  0.14644009  0.0530503 ]