[-0.15934172  0.12496489  0.01781061 -0.02526987 -0.09420017 -0.02470147
 -0.05582068 -0.08303793  0.14983055 -0.02062412  0.20689681 -0.04616567
 -0.22104119 -0.10178318 -0.03845404  0.16368349 -0.19253968 -0.11345174
 -0.04030922 -0.05981783  0.11047035  0.0754618  -0.03294392  0.027646
 -0.13013907 -0.33392039 -0.06783646 -0.06889646  0.00851243 -0.04771592
 -0.05728571  0.02629132 -0.19417997 -0.10539092  0.07315701  0.09926624
 -0.01072096 -0.00106318  0.1456711   0.01777622 -0.16383998  0.03007728
  0.12807919  0.28478968  0.19979286  0.09275653 -0.01070587 -0.11908712
  0.10792426 -0.13780473  0.02587133  0.1783997   0.08389172  0.04986062
  0.07486679 -0.137366   -0.02291956  0.07927937 -0.13933375  0.01616507
  0.06288674 -0.03148374 -0.04265814 -0.11210817  0.17964126  0.04967105
 -0.06856813 -0.21420208  0.12392554 -0.18075521 -0.15212534  0.03835109
 -0.13985313 -0.14419678 -0.37198934 -0.02134272  0.3834438   0.09186964
 -0.1973418   0.07043217  0.02299998 -0.05503406  0.15300183  0.10752352
 -0.03320462  0.0466349  -0.08047676 -0.00301962  0.24555747 -0.01177948
 -0.03435978  0.1651554   0.02257004  0.05699229  0.05516076 -0.00868348
 -0.0605917   0.00098229 -0.17599252 -0.0535013   0.00458693 -0.04510251
  0.00642078  0.12831236 -0.15588334  0.08781501  0.0435059   0.02119392
 -0.06865454  0.03209842 -0.13902622 -0.02938823  0.14713059 -0.19867216
  0.21729536  0.17548124  0.03060113  0.07995453  0.1037994   0.05642508
 -0.02279494  0.04904494 -0.16597618 -0.07016549  0.03985746 -0.05268089
  0.10921738  0.02555102]