[-0.1028867   0.10333183  0.02609752 -0.01785252 -0.09727544 -0.06994035
 -0.02804961 -0.13927236  0.09045239 -0.02740316  0.20860033  0.00188481
 -0.18196353 -0.17557661  0.00287456  0.17077874 -0.18616486 -0.14463629
 -0.03873286 -0.03870422  0.11063176  0.02033274 -0.00798023  0.02727783
 -0.10870951 -0.35866842 -0.08816206 -0.06197525  0.04162804 -0.02909072
 -0.09638049  0.07806212 -0.19611077 -0.13795729  0.09035216  0.09236356
  0.01196176 -0.02285903  0.1631501  -0.00717475 -0.20283933  0.11277261
  0.10025525  0.25918281  0.21241117  0.06790008  0.0388729  -0.10735746
  0.11948671 -0.10761055  0.02554093  0.15088511  0.08550294  0.04671074
  0.0098181  -0.14726363 -0.00605372  0.05740144 -0.20163111 -0.03040729
  0.03816647 -0.10535426 -0.02589067 -0.0732099   0.13769431  0.03380629
 -0.0426076  -0.20536588  0.11823664 -0.16929685 -0.08424934  0.03252664
 -0.17123225 -0.14106493 -0.32937565  0.01520737  0.38051587  0.111129
 -0.18093722  0.09170397 -0.02494803 -0.03578383  0.15401502  0.09125219
  0.0132292   0.05410857 -0.08279248  0.03708781  0.21852663 -0.03704729
 -0.03655334  0.19927783  0.03722098  0.08467843  0.06450115  0.01448762
 -0.03398566  0.04233439 -0.15756054 -0.02734286  0.01465093 -0.04204836
  0.04730206  0.11102831 -0.16328138  0.07082947  0.02274148  0.05272601
 -0.05486168 -0.0052454  -0.09916812 -0.06273255  0.08499602 -0.22471392
  0.23442093  0.23346566  0.01481859  0.09740326  0.08179946  0.01339276
 -0.00437279 -0.04146504 -0.16883993 -0.03602656  0.11213932 -0.01352966
  0.12029274  0.02169511]