[-0.12937902  0.157086    0.01960966 -0.0769159  -0.10766847 -0.03560196
 -0.11044627 -0.15417248  0.11312377 -0.06252978  0.22296166 -0.00859394
 -0.20475422 -0.08037277 -0.08495858  0.18635848 -0.22265165 -0.12040239
 -0.03610344 -0.05220615  0.06828696  0.07733889  0.01978054  0.03036857
 -0.07453337 -0.28250399 -0.04025375 -0.04838608  0.02883657 -0.01140448
 -0.06914618  0.05174752 -0.17960434 -0.07837138  0.08233167  0.11637845
 -0.01823096 -0.0134354   0.19549522 -0.00148077 -0.17676254  0.06724243
  0.11237786  0.2820541   0.22135022  0.03612027  0.01921886 -0.15361093
  0.12642124 -0.15465383  0.04318275  0.17934428  0.12109975  0.05490603
 -0.00407291 -0.15513988 -0.00300567  0.10295522 -0.11096007 -0.00337961
  0.12256327 -0.05647534 -0.0477421  -0.10333025  0.19705515  0.05302172
 -0.12032008 -0.18526179  0.09441578 -0.10514875 -0.13992649  0.04758994
 -0.16641633 -0.13808475 -0.3051585  -0.00350867  0.38308486  0.09668981
 -0.15918322  0.07135146 -0.02976813 -0.0234208   0.10472262  0.09975722
 -0.05020091  0.01208092 -0.05180817  0.03890251  0.21708255 -0.04565958
 -0.05181906  0.18119554  0.0321895   0.08432595  0.01979664  0.05672873
 -0.03133217  0.04387129 -0.1537504  -0.00929322  0.02134698 -0.06011133
  0.03887806  0.11301245 -0.17696156  0.11057758  0.02341839  0.07171665
  0.01578875  0.02137304 -0.0925474  -0.03923868  0.14271751 -0.20881732
  0.24360569  0.19014922  0.05341715  0.10400143  0.14271453  0.0679015
  0.0084822   0.00439865 -0.16691832 -0.07597546  0.0787133  -0.01889201
  0.13115723  0.05403346]