[-0.1337893   0.15368578  0.02216195 -0.04997033 -0.10105629 -0.07201926
 -0.02354982 -0.10540412  0.15778568 -0.05027363  0.2466971  -0.05028718
 -0.23417018 -0.10176861 -0.0841506   0.18713844 -0.21422744 -0.1049727
 -0.03677846 -0.05242559  0.12550998  0.06454026  0.01414012  0.04690939
 -0.09426341 -0.35516644 -0.09492596 -0.02849061  0.02139514 -0.05346448
 -0.06979938  0.06645713 -0.17979468 -0.07981199  0.05285631  0.06560137
 -0.03006399 -0.0137045   0.16004527  0.05480916 -0.18487442  0.03574322
  0.088647    0.31851557  0.2148118   0.05591774  0.01549502 -0.13126293
  0.09713882 -0.17269492  0.00142273  0.1978519   0.05525243  0.04245308
  0.06586505 -0.10266068 -0.01772162  0.1003929  -0.16360961  0.01808482
  0.07363402 -0.07384931 -0.01753424 -0.10373063  0.17199941  0.07506449
 -0.0828612  -0.2064549   0.12669496 -0.20564449 -0.12413412  0.07236446
 -0.13776805 -0.1720303  -0.35017762 -0.01543112  0.41471162  0.13607667
 -0.14358836  0.05550143 -0.00677633 -0.0494183   0.17603606  0.12286033
 -0.05672509  0.05154327 -0.12300134  0.02848404  0.23009454 -0.03541263
 -0.07179962  0.22355309  0.02234495  0.0773802   0.04880401  0.01694106
 -0.06394535  0.01315651 -0.16094024 -0.02980368 -0.01469708 -0.07979503
 -0.00963534  0.11142317 -0.11986506  0.07197082  0.01097323  0.02736722
 -0.0949012   0.00493169 -0.11506142 -0.03405959  0.10156744 -0.21876501
  0.21056199  0.19516051  0.02916882  0.08765206  0.0822885   0.03877508
 -0.02596026 -0.03292376 -0.10432231 -0.04981343  0.0530283  -0.03267018
  0.12425728 -0.0147404 ]