[-0.14532237  0.13057658  0.04203193 -0.05214673 -0.11139029 -0.04677113
 -0.02846227 -0.11194408  0.13744807 -0.01161768  0.24015442 -0.00226287
 -0.19906636 -0.13610524 -0.02635579  0.17957011 -0.19132105 -0.12554966
 -0.0506556  -0.03312337  0.07966548  0.00759912  0.02529763  0.05584143
 -0.14866482 -0.34595975 -0.05580002 -0.08019934  0.02055742 -0.08402618
 -0.07100318  0.07365113 -0.18550707 -0.11782291  0.0659375   0.07499536
  0.03305645  0.02810678  0.16720197  0.02225291 -0.21827745  0.0996325
  0.13371301  0.29973751  0.24114501  0.05186204  0.01805792 -0.10478338
  0.099534   -0.16682135  0.04938974  0.12472131  0.07137637  0.02179428
  0.0621038  -0.11929506 -0.01552741  0.0732199  -0.19384158  0.03822307
  0.08650061 -0.05929635 -0.06039448 -0.05866613  0.1413627   0.07659315
 -0.06809906 -0.18878405  0.09885376 -0.16872144 -0.10819266  0.04511421
 -0.1464117  -0.13869809 -0.36030066 -0.00077474  0.37724876  0.11897033
 -0.19714291  0.07394808 -0.00628581 -0.03817078  0.12921563  0.07807975
 -0.04372661  0.04539859 -0.06158451  0.04976735  0.20152576  0.01592839
 -0.01509898  0.22957745  0.04097989  0.04181586  0.05912146  0.04430648
 -0.05016757  0.00429962 -0.20627561 -0.04658728  0.00624292 -0.05059591
  0.04799922  0.09919558 -0.22185671  0.07084375  0.02755657  0.0204292
 -0.04532463  0.04494446 -0.09556818 -0.03374147  0.10944755 -0.22184372
  0.22984885  0.23400202  0.0513739   0.04632815  0.1028054  -0.02306558
  0.01873111  0.0098069  -0.09701634 -0.0319219   0.07058252 -0.08339824
  0.12463825  0.03092478]