[-0.130743    0.1955063   0.0050519  -0.05360522 -0.16179222 -0.04939365
 -0.10781293 -0.14443462  0.11183029  0.02956896  0.22508617 -0.01994221
 -0.18781611 -0.09983601 -0.08416607  0.1949804  -0.22005902 -0.14938512
 -0.0181007  -0.01249533  0.07668769  0.04932445  0.05896825  0.04672377
 -0.09274438 -0.29843149 -0.04146088 -0.05828669  0.05247993 -0.04045891
 -0.05783863  0.02276022 -0.22639613 -0.11940209  0.08109119  0.11233204
 -0.05003874 -0.01496427  0.20781253  0.01497742 -0.195439    0.08472599
  0.10709172  0.30782467  0.22193377  0.04002477  0.04470114 -0.1355233
  0.06888938 -0.14101075  0.05361966  0.18702368  0.11473974  0.04702726
 -0.01309628 -0.11963766  0.01071786  0.1172959  -0.13831133  0.01838727
  0.14229162 -0.02204557 -0.02681259 -0.0969357   0.20255764  0.04712583
 -0.08167338 -0.18661129  0.06536414 -0.11224154 -0.1579096   0.06388459
 -0.14682291 -0.13935517 -0.35129985 -0.03091731  0.39748424  0.07278152
 -0.17426424  0.04795859 -0.00387879 -0.03203986  0.08918276  0.08190852
 -0.06337067  0.03825793 -0.1003073   0.05135116  0.22760849 -0.05276647
 -0.03651889  0.18993448  0.06044722  0.07324212  0.03229192  0.07589927
 -0.00472831  0.04922467 -0.14812611 -0.00918507  0.00899643 -0.05548042
  0.03042836  0.10266196 -0.17590225  0.07762459  0.0454538   0.05458178
 -0.04770001  0.0192999  -0.09742507 -0.04740414  0.14497443 -0.21268134
  0.26058874  0.21662155  0.03681087  0.06036902  0.1261501   0.03078215
 -0.00691589 -0.00139227 -0.12668017 -0.05720833  0.05043143 -0.0408243
  0.14220302  0.0802812 ]