[-0.09473332  0.13987978  0.05186237 -0.0574831  -0.13030231 -0.03263782
 -0.11335462 -0.13855483  0.11158673 -0.03168055  0.2762979  -0.01559557
 -0.18936287 -0.07104115 -0.0696316   0.19659458 -0.22248855 -0.11564727
 -0.02628082 -0.00205332  0.07358826  0.07307082  0.03493909  0.04308417
 -0.06417037 -0.33441266 -0.046527   -0.02351484  0.05571915 -0.00859356
 -0.0965152   0.06987917 -0.19303213 -0.09815288  0.10524384  0.12608068
 -0.0169362  -0.02205536  0.17830627 -0.00485582 -0.1941966   0.09206177
  0.11490792  0.26958281  0.22349797  0.06128919  0.03994321 -0.14844145
  0.0933426  -0.15802328  0.03848546  0.17547874  0.13427275  0.03613659
 -0.00504965 -0.13990498 -0.02905944  0.13826527 -0.11576793  0.02566566
  0.10982051 -0.06077244 -0.02027152 -0.12475745  0.2100867   0.05576388
 -0.12559047 -0.18043427  0.07615074 -0.08779449 -0.15684916  0.03708196
 -0.17613336 -0.13413954 -0.32610029 -0.01535154  0.3916823   0.03810915
 -0.18852697  0.06950497  0.00224952 -0.02188702  0.075618    0.11373841
 -0.0395519  -0.00308685 -0.07519375  0.03355715  0.2316895  -0.05185035
 -0.01012943  0.19429567 -0.00176007  0.08757897  0.01939946  0.08923053
 -0.02787649  0.05376109 -0.15042511 -0.01122213  0.01328655 -0.05528598
  0.03360012  0.11503078 -0.19171092  0.07635584 -0.00336125  0.07215817
  0.05353691  0.01205893 -0.07670089 -0.05860019  0.1412677  -0.22890022
  0.25138077  0.20212746  0.04369105  0.08569231  0.11451381  0.06925018
  0.01175085  0.00821528 -0.16874401 -0.06655923  0.06835058 -0.05074177
  0.10612728  0.04734585]