[-1.36984035e-01  1.44768357e-01  8.26874897e-02 -1.87399089e-02
 -9.37613919e-02 -3.65212187e-02 -4.48454358e-02 -1.17063597e-01
  1.47519439e-01 -4.51580249e-02  2.14227304e-01 -1.49651095e-02
 -1.71646535e-01 -1.47109807e-01 -4.10369746e-02  1.91510245e-01
 -1.94159925e-01 -1.24928452e-01 -3.14844213e-02 -1.74394604e-02
  7.49040246e-02  6.65519238e-02  2.91101635e-02  1.66336801e-02
 -1.08756088e-01 -3.68484378e-01 -5.14767431e-02 -9.07933041e-02
  4.15714197e-02 -5.48419952e-02 -1.09613456e-01  3.43648680e-02
 -1.64549455e-01 -1.03240728e-01  6.42174482e-02  9.38721076e-02
  7.22169131e-03  8.72817170e-03  1.61252484e-01  1.53754819e-02
 -2.32351854e-01  7.51411319e-02  1.08283423e-01  2.82335699e-01
  2.55405515e-01  4.60761748e-02  2.31026262e-02 -1.30234763e-01
  1.32267863e-01 -9.86199155e-02  4.13200222e-02  1.37203857e-01
  8.39686766e-02  4.87494394e-02  3.92581150e-02 -1.22452319e-01
 -2.38120612e-02  6.75143152e-02 -1.43945202e-01  1.72701124e-02
  1.04870178e-01 -7.07616583e-02 -5.80825880e-02 -3.50126550e-02
  1.48046628e-01  2.10412927e-02 -7.28405491e-02 -2.18498826e-01
  1.23536766e-01 -1.73175201e-01 -1.23376191e-01  2.71506291e-02
 -1.54600903e-01 -1.21949784e-01 -3.38835806e-01 -1.64717231e-02
  3.79156113e-01  8.63541812e-02 -2.05542281e-01  9.18117836e-02
 -1.28663173e-02 -2.44894233e-02  1.45001292e-01  1.68278262e-01
  2.19552967e-04  6.27610311e-02 -6.46185502e-02 -8.29042215e-03
  1.91740438e-01 -1.35793090e-02 -2.47919764e-02  1.97404623e-01
  3.38910967e-02  7.15607628e-02  5.66128902e-02  1.77336782e-02
 -4.75707985e-02  4.29124311e-02 -1.74808055e-01 -5.25711961e-02
  7.90048391e-03 -4.41529676e-02  2.54466068e-02  9.79313776e-02
 -2.00387463e-01  1.31621107e-01  4.32663523e-02  8.06456581e-02
  5.39864227e-03  2.34243255e-02 -7.00489134e-02 -3.83814275e-02
  1.20699875e-01 -2.09090933e-01  2.29250416e-01  2.11863309e-01
  5.22499196e-02  9.31459740e-02  1.18157759e-01  4.01268192e-02
  2.57114358e-02  2.64724195e-02 -1.58151224e-01 -4.17071134e-02
  4.54664603e-02 -6.62504733e-02  1.11529611e-01  5.00064865e-02]