[-1.42232180e-01  1.27713144e-01  1.02853496e-02 -4.29580733e-02
 -7.70173892e-02 -3.88020687e-02 -6.14691339e-02 -9.50606689e-02
  1.14647485e-01  1.23785352e-02  2.28481576e-01 -5.92900291e-02
 -2.08681032e-01 -1.37329862e-01 -5.23666739e-02  1.83066472e-01
 -2.02519700e-01 -1.13904692e-01 -3.40607502e-02 -5.67681491e-02
  9.49278176e-02  4.13352735e-02 -1.62175242e-02  2.49699596e-02
 -1.39715120e-01 -3.25552046e-01 -5.70879877e-02 -7.07974657e-02
  8.08317401e-03 -2.94798892e-02 -8.53467137e-02  5.14543913e-02
 -2.09845498e-01 -1.21024899e-01  9.36743841e-02  1.11940086e-01
  2.62575527e-03 -2.41114926e-02  1.63366541e-01 -8.12809356e-03
 -1.63801283e-01  6.05206788e-02  1.24310888e-01  2.93542027e-01
  2.11960316e-01  6.37795404e-02  1.33279907e-02 -1.17869757e-01
  1.06465839e-01 -1.03595495e-01  4.46547270e-02  1.69948101e-01
  5.13326712e-02  6.33531585e-02  1.53360581e-02 -1.34322941e-01
  1.21731153e-02  1.01333700e-01 -1.47677228e-01 -2.75323428e-02
  7.92228952e-02 -8.33435282e-02 -3.67549807e-02 -9.54793096e-02
  1.69879839e-01  3.65389250e-02 -6.62946627e-02 -2.06496239e-01
  1.09421171e-01 -1.34770423e-01 -9.40268487e-02  2.34523397e-02
 -1.60999253e-01 -1.35205582e-01 -3.66525501e-01  2.07499545e-02
  3.91524941e-01  7.79482424e-02 -1.91085204e-01  9.71893519e-02
  1.93232596e-02 -4.04895656e-02  1.87818393e-01  1.13846324e-01
 -7.94402510e-03  4.12454233e-02 -8.55338648e-02  2.12274864e-02
  2.38389418e-01 -2.50808150e-02 -3.80851403e-02  1.43790245e-01
  1.55887473e-02  3.04459166e-02  7.98283219e-02  2.84475591e-02
 -4.39837240e-02  3.69132571e-02 -1.44560829e-01  3.48419708e-04
  2.14625653e-02 -7.61001036e-02  6.26856461e-03  1.11037195e-01
 -1.59871027e-01  6.53215647e-02  5.37786968e-02  3.57048959e-02
 -5.59222959e-02 -1.16197262e-02 -8.57836828e-02 -4.66224514e-02
  1.20066933e-01 -2.23113850e-01  2.31111526e-01  1.82250068e-01
  3.39218453e-02  1.15706362e-01  9.53672305e-02  6.78827688e-02
 -1.84123199e-02  3.00823953e-02 -1.58628687e-01 -5.83448224e-02
  6.21848404e-02 -2.17998703e-03  1.46179408e-01  3.60260382e-02]