[-0.20592923  0.08958229  0.06873522 -0.08675788 -0.07506564 -0.05313092
 -0.07364176 -0.10922816  0.11960778 -0.07779681  0.23043752 -0.07449138
 -0.21843894 -0.04108226 -0.10847076  0.20348231 -0.1761315  -0.11831365
 -0.04270487 -0.03997874  0.09922081  0.0718581  -0.06030944  0.02999258
 -0.10137957 -0.36642772 -0.12113173 -0.06314558 -0.02632755  0.00048449
 -0.04870922  0.02034554 -0.19343255 -0.06732354  0.0287196   0.0971772
  0.03935893 -0.01366745  0.13479817  0.02633333 -0.17903976  0.11494444
  0.1326323   0.27315181  0.1924541   0.07141536  0.05978033 -0.12569501
  0.06522764 -0.16551869  0.00964173  0.1278705   0.10516318  0.05257822
  0.01208669 -0.15725611 -0.02957946  0.117534   -0.1371384   0.06970948
  0.11432977 -0.0603365  -0.04840448 -0.08104032  0.20972024  0.09446859
 -0.1452058  -0.16126995  0.14358835 -0.14542992 -0.0782311  -0.01805864
 -0.17029667 -0.15689608 -0.33702135  0.06634713  0.40206632  0.09781793
 -0.18089537  0.08896226 -0.03361195  0.05166567  0.13740388  0.10269123
 -0.02417265  0.00112378 -0.06413031  0.02741051  0.22707848  0.00249922
 -0.00831758  0.17350653 -0.00268008  0.07359156  0.01828513  0.06680512
 -0.06622448 -0.01092803 -0.11302642  0.0498792  -0.02883635 -0.04349732
  0.02154451  0.09930372 -0.13296489  0.10148366 -0.00894694  0.02522682
 -0.05520229  0.06689503 -0.06488816 -0.01224109  0.12005651 -0.18886796
  0.22468781  0.1990208  -0.00242089  0.13616817  0.14077881  0.08534555
 -0.01347085  0.04800472 -0.1863064  -0.06705748  0.05635692 -0.03656438
  0.13655832  0.05050298]