[-1.78768843e-01  9.71091837e-02  5.12959920e-02 -6.00847192e-02
 -1.17790483e-01 -4.94193286e-02 -9.93523821e-02 -9.15111676e-02
  1.48645669e-01 -3.87899615e-02  1.70853257e-01 -2.42149197e-02
 -1.94816440e-01 -7.03114644e-02 -5.59357479e-02  1.80736780e-01
 -1.68045819e-01 -1.51833311e-01 -3.57453153e-02 -4.39377427e-02
  6.53431639e-02  5.11379950e-02 -3.56482202e-03  1.29918577e-02
 -1.26848742e-01 -3.41972589e-01 -6.96596727e-02 -1.96615010e-02
  2.66642123e-02 -1.30873593e-02 -6.05237968e-02  1.32119795e-02
 -2.00491711e-01 -7.39029571e-02  8.42320472e-02  1.52164742e-01
  1.99847873e-02 -7.04459846e-03  1.76147491e-01  2.75056958e-02
 -2.12253913e-01  6.06614836e-02  8.10701177e-02  2.85206795e-01
  2.03375936e-01  5.25694788e-02  3.95230576e-02 -1.28436550e-01
  1.26910657e-01 -1.29002631e-01  2.64525414e-02  1.91154897e-01
  1.06001928e-01  8.21176451e-03  1.96607504e-02 -1.55486897e-01
  5.20610064e-03  1.53399467e-01 -1.46738678e-01  2.34492272e-02
  9.68640074e-02 -6.65314272e-02 -4.39519696e-02 -8.80011693e-02
  1.86058611e-01  6.73614666e-02 -1.03736155e-01 -2.12995321e-01
  1.18940309e-01 -1.20379262e-01 -7.77089968e-02  3.91742913e-03
 -1.70778915e-01 -1.50085285e-01 -3.56287837e-01 -2.02364530e-02
  3.89317572e-01  8.43822882e-02 -2.18506843e-01  1.03676699e-01
 -1.35215139e-02  3.00580543e-02  1.29248843e-01  1.28142893e-01
 -5.86165860e-02  6.60317764e-02 -1.03345729e-01  3.41873994e-04
  2.08412319e-01 -1.32833142e-02 -2.17620246e-02  1.26734540e-01
  3.62179987e-02  8.77274051e-02  3.96235771e-02  2.28342135e-02
 -9.53647047e-02 -2.94380332e-03 -1.53266713e-01 -4.32981551e-02
 -1.09246625e-02 -3.23314965e-02  5.48953675e-02  1.10442236e-01
 -1.61394298e-01  1.30753726e-01  3.19014378e-02  4.79229987e-02
 -5.80587797e-02  4.79581319e-02 -4.89267223e-02 -4.94441278e-02
  1.19791627e-01 -1.94994330e-01  2.18809083e-01  2.02656299e-01
  6.51235133e-03  1.38980195e-01  1.41080573e-01  7.28738233e-02
 -2.17066389e-02  8.71221721e-02 -1.28831506e-01 -4.68607768e-02
 -3.44467280e-03 -4.03816365e-02  1.59888968e-01  6.58477917e-02]