[-1.82373896e-01  1.12968385e-01  6.24914169e-02 -5.25720380e-02
 -1.24476336e-01 -4.76044230e-02 -9.89171714e-02 -9.53993052e-02
  1.51759699e-01 -5.28024323e-02  1.76947266e-01 -1.36772534e-02
 -1.84785053e-01 -8.03936571e-02 -4.84398417e-02  1.84777856e-01
 -1.63657814e-01 -1.45819739e-01 -2.88785100e-02 -3.41620333e-02
  8.07023868e-02  3.96650210e-02  3.69072868e-03  1.67339183e-02
 -1.35495141e-01 -3.34971428e-01 -7.76454434e-02 -1.87528618e-02
  4.86423559e-02 -1.31711653e-02 -8.18882212e-02 -6.53296709e-03
 -1.94977939e-01 -7.84562007e-02  6.76450655e-02  1.51489422e-01
  1.48718655e-02 -2.01849416e-02  1.66044474e-01  3.26858684e-02
 -2.17129230e-01  5.50923124e-02  5.96317723e-02  2.72343189e-01
  1.93961412e-01  5.06366305e-02  5.81227802e-02 -1.27756774e-01
  1.32300511e-01 -1.29184321e-01  3.77141051e-02  1.75647244e-01
  1.28167495e-01  7.48922070e-03  2.41837613e-02 -1.67223155e-01
  1.25789651e-04  1.62056729e-01 -1.52122661e-01  2.86663808e-02
  8.58292431e-02 -5.47923930e-02 -3.25304680e-02 -8.67403969e-02
  1.86046973e-01  8.76501203e-02 -1.03653051e-01 -2.06040069e-01
  1.37106791e-01 -1.07522331e-01 -7.20570087e-02  5.20114880e-03
 -1.67996809e-01 -1.50565758e-01 -3.57327223e-01 -1.54967252e-02
  4.00580168e-01  9.88559648e-02 -2.17724353e-01  7.71615654e-02
 -2.42258813e-02  2.68737078e-02  1.09096549e-01  1.37454197e-01
 -6.58601895e-02  6.54894263e-02 -1.05004624e-01 -9.27057117e-05
  1.96859881e-01 -1.98289696e-02 -2.13364493e-02  1.30048752e-01
  4.68752496e-02  9.78189632e-02  2.33972762e-02  2.07871329e-02
 -1.11386411e-01  4.35238471e-03 -1.33613318e-01 -4.71692272e-02
 -1.63312405e-02 -3.54195051e-02  5.48014417e-02  1.22783981e-01
 -1.60684928e-01  1.39255449e-01  3.12957130e-02  4.42364886e-02
 -6.27205074e-02  5.46714142e-02 -4.96422611e-02 -4.76067439e-02
  1.07320644e-01 -1.87134683e-01  2.12782457e-01  2.10818082e-01
  8.33466649e-03  1.42041847e-01  1.41173691e-01  7.34904036e-02
 -8.42518266e-03  7.72592649e-02 -1.27281114e-01 -4.55975793e-02
 -1.98033827e-04 -6.04971908e-02  1.51133388e-01  7.20053837e-02]