[-0.13266554  0.13354282  0.055339   -0.04757882 -0.08903705 -0.04707696
 -0.05927813 -0.12722677  0.12923098 -0.02500256  0.23584865 -0.04749395
 -0.2215668  -0.12942684 -0.07012643  0.20484821 -0.16555761 -0.12928003
 -0.0482497  -0.02501454  0.11732581  0.03850763  0.0281553   0.01337677
 -0.09880199 -0.33840293 -0.07221493 -0.0298802   0.02636428 -0.04303294
 -0.09097411  0.02771244 -0.20442913 -0.09481142  0.07206409  0.09371296
 -0.02117318 -0.0344348   0.16722444 -0.01185175 -0.19701718  0.06398378
  0.12561594  0.26895946  0.2151957   0.06380437  0.05285    -0.17790924
  0.09193014 -0.08653726  0.03264396  0.15461905  0.08082869  0.04715508
  0.04469799 -0.14450046 -0.00469619  0.1040132  -0.11822245  0.00961084
  0.10047436 -0.04995558 -0.04295561 -0.11567843  0.19812432  0.01769892
 -0.10427237 -0.20964217  0.11653721 -0.13535643 -0.10581257  0.03631607
 -0.17125991 -0.12930946 -0.38293257 -0.02388439  0.39273107  0.05964274
 -0.19808052  0.08033045  0.00515079 -0.00750582  0.14557305  0.14610915
 -0.04826511  0.06225955 -0.09457329  0.01097413  0.22776413 -0.03815042
 -0.03575583  0.16554803  0.0329366   0.05962604  0.03592683  0.03227371
 -0.05810255  0.03024142 -0.15628418 -0.01375803 -0.01228797 -0.06332228
  0.0196339   0.12073462 -0.14836542  0.06796731  0.03700989  0.05996909
 -0.04505547  0.01916643 -0.10360879 -0.06088694  0.09107346 -0.22888856
  0.20983031  0.20032509  0.0608441   0.07391738  0.12370761  0.08784141
 -0.00679389  0.0508329  -0.14836691 -0.02761233  0.05512257 -0.03195253
  0.14560188  0.05073481]