[-1.78703934e-01  1.35780126e-01  2.67224442e-02 -6.51096627e-02
 -1.14488222e-01 -7.11325854e-02 -8.62186700e-02 -1.41370818e-01
  1.11788563e-01 -5.38420565e-02  1.95696592e-01 -8.13063756e-02
 -2.15503573e-01 -8.48919153e-02 -1.02596954e-01  1.88989177e-01
 -1.95128441e-01 -1.39678761e-01 -2.37612687e-02 -3.78315113e-02
  1.07789397e-01  6.16192222e-02 -1.48540651e-02  5.61867952e-02
 -1.16987586e-01 -3.64844888e-01 -8.22146237e-02 -8.22449550e-02
 -1.60051417e-03 -8.82898178e-03 -8.89534131e-02  1.77113879e-02
 -2.09173709e-01 -9.42101330e-02  4.70359772e-02  1.23030938e-01
  1.16509749e-02 -4.66731489e-02  1.48254409e-01  1.67381950e-02
 -1.77640021e-01  1.05819106e-01  1.07785843e-01  2.80997038e-01
  2.20656559e-01  5.52736633e-02  7.57079422e-02 -1.33929461e-01
  8.52572769e-02 -1.35674670e-01 -4.95915301e-03  1.50993630e-01
  7.93948546e-02  2.61971559e-02  2.35996097e-02 -1.47907898e-01
 -3.69206369e-02  9.92449895e-02 -1.25640199e-01  2.95688342e-02
  1.10861473e-01 -5.42004518e-02 -4.76940535e-02 -1.18827857e-01
  2.23085791e-01  6.19781874e-02 -1.19296841e-01 -1.65062219e-01
  1.48049220e-01 -1.66158244e-01 -1.13721959e-01 -1.67901572e-02
 -1.45628020e-01 -1.43199012e-01 -3.17502290e-01  2.61620115e-02
  3.91692489e-01  1.12527370e-01 -1.84586748e-01  1.09938100e-01
 -3.13002132e-02  2.17871051e-02  1.41403362e-01  1.29224911e-01
  1.06863184e-02  3.11884433e-02 -8.01606700e-02  2.11649016e-02
  2.39845708e-01 -2.90577300e-02 -9.76439286e-03  1.71766505e-01
  1.12944571e-02  7.49750435e-02  3.62013392e-02  2.09371336e-02
 -8.39458779e-02  3.22437882e-02 -1.11185849e-01  4.58369181e-02
 -1.17046302e-02 -5.26918359e-02  1.66688636e-02  9.23318490e-02
 -1.26924589e-01  7.34455809e-02 -3.61431768e-04  3.00293602e-02
 -5.81744201e-02  1.73626151e-02 -8.46626908e-02 -1.90716907e-02
  1.16036668e-01 -2.23636150e-01  2.45889306e-01  1.94747984e-01
  9.01946705e-03  1.37895375e-01  1.31870911e-01  6.36554286e-02
  1.83021463e-02  4.11417633e-02 -1.86851069e-01 -8.70838985e-02
  6.03274778e-02 -4.26077843e-02  1.32200465e-01  4.70019840e-02]