[-0.14658506  0.12857887 -0.00078327 -0.07641763 -0.08523223 -0.05506755
 -0.08672416 -0.12271976  0.15555918 -0.06292818  0.18902741 -0.08758245
 -0.25388119 -0.08401786 -0.12968424  0.18820678 -0.21796036 -0.12629627
  0.00086901 -0.04082247  0.11853542  0.07632023 -0.02170049  0.04948802
 -0.0847721  -0.37715816 -0.09746804 -0.04235454 -0.00170291 -0.03483176
 -0.02103171  0.04729621 -0.21506028 -0.07533094  0.0484024   0.11170512
  0.02050952 -0.01578359  0.17112978  0.02351481 -0.17538637  0.06174215
  0.10157863  0.27621725  0.18597087  0.07714865  0.03373072 -0.15449163
  0.07179835 -0.11127881 -0.01530602  0.18683061  0.04455559  0.03151105
 -0.01467143 -0.15968792 -0.04600622  0.1254767  -0.13825572  0.01792336
  0.09591462 -0.10189443 -0.06125255 -0.0987675   0.19179995  0.02368222
 -0.11843039 -0.18981907  0.17451808 -0.17204361 -0.09873535 -0.00444588
 -0.12155441 -0.15246026 -0.32568496  0.01632768  0.38772073  0.08438276
 -0.14735396  0.13337512 -0.00944142  0.00103072  0.13306741  0.1362848
 -0.01868153  0.04338376 -0.06468881  0.03088123  0.2101022  -0.00098705
 -0.02762888  0.15837699 -0.01903814  0.10438943  0.04980272  0.02290469
 -0.06662266  0.03534378 -0.14092661  0.03254919 -0.00423397 -0.06906535
  0.01461506  0.08675029 -0.11702585  0.09814525  0.02980535  0.00965629
 -0.05614806  0.03149116 -0.09881373 -0.01255942  0.15581375 -0.23758581
  0.26817474  0.18403135  0.03404704  0.17116472  0.14996472  0.09987114
  0.00559069 -0.00242483 -0.19592552 -0.08369225  0.05668077 -0.02906165
  0.16303547  0.02583617]