[-0.16159093  0.124711    0.01702678 -0.06395464 -0.10427346 -0.06203603
 -0.08477144 -0.13533919  0.13234478 -0.04878879  0.19517168 -0.07209413
 -0.20860477 -0.07752234 -0.10049635  0.18754159 -0.20193921 -0.12688005
 -0.0348995  -0.02527141  0.10086932  0.06863683 -0.01705438  0.05217468
 -0.11025542 -0.36726633 -0.07822809 -0.09166912 -0.00442302 -0.00488553
 -0.0861305   0.02317866 -0.20444874 -0.09595965  0.05747753  0.1215524
  0.01206596 -0.04476026  0.15069529  0.00304121 -0.1883186   0.10497554
  0.11589267  0.2685855   0.20962118  0.04681972  0.06870412 -0.14311527
  0.09420715 -0.1243688   0.00544831  0.14634778  0.08946853  0.02805988
  0.02388397 -0.15016839 -0.03515267  0.10700246 -0.12432339  0.03048316
  0.11494439 -0.05063242 -0.05369971 -0.10979978  0.223038    0.06249428
 -0.12219057 -0.17665727  0.1413887  -0.16128786 -0.10925441 -0.01809024
 -0.15002701 -0.14790957 -0.31705782  0.02042016  0.39430624  0.09180935
 -0.19553199  0.11769449 -0.03718581  0.01352833  0.14027765  0.1379182
  0.01409764  0.03334888 -0.07340427  0.01452164  0.24740553 -0.03004645
 -0.00509049  0.17064272  0.00587783  0.06820392  0.03234131  0.01183446
 -0.07824645  0.03089003 -0.11724831  0.04156478 -0.00726994 -0.04888121
  0.00901242  0.09258848 -0.13781296  0.07426246  0.01057669  0.03414395
 -0.02587174  0.02140212 -0.08579119 -0.0367738   0.13113362 -0.2214943
  0.25038868  0.17538294  0.02296798  0.13719273  0.12612385  0.07484569
  0.0210347   0.04948613 -0.20509015 -0.07316459  0.06633764 -0.0427867
  0.12410603  0.04385112]