[-0.16139692  0.13531806  0.017229   -0.05496532 -0.11063237 -0.06561306
 -0.09200018 -0.14312303  0.12419995 -0.0598672   0.18635733 -0.08262726
 -0.20428644 -0.07860048 -0.10261693  0.18420009 -0.20073707 -0.14164205
 -0.02467029 -0.02915286  0.10312863  0.061017   -0.01544785  0.06035612
 -0.11870267 -0.36576968 -0.07911655 -0.08287128 -0.00139984 -0.00557684
 -0.09848084  0.01764048 -0.21418028 -0.09411746  0.05962867  0.12130486
  0.01767993 -0.0391435   0.16161126  0.01479646 -0.18112767  0.11751222
  0.10141653  0.28059238  0.21472552  0.04872046  0.06958351 -0.13715903
  0.08933835 -0.13411324  0.00850548  0.16064037  0.09148719  0.02580507
  0.01285061 -0.15253291 -0.04584851  0.10709584 -0.12397732  0.03417188
  0.12164203 -0.05496848 -0.05080424 -0.11449825  0.22953832  0.06997392
 -0.12751316 -0.17930314  0.13122733 -0.16519578 -0.10132124 -0.01947021
 -0.14182316 -0.14342317 -0.30977139  0.03208702  0.39517868  0.10625903
 -0.19680704  0.10926334 -0.044929    0.01799336  0.13036233  0.13147973
  0.00714358  0.03566173 -0.07240234  0.02395383  0.23875847 -0.02363182
 -0.00846844  0.17203772  0.00407426  0.07024007  0.03097006  0.0120769
 -0.08933058  0.02853119 -0.10604954  0.04600976 -0.01637305 -0.05117297
  0.01736515  0.09805151 -0.14121382  0.08219453 -0.01053233  0.02569753
 -0.04249387  0.02238884 -0.08530698 -0.02656623  0.12237027 -0.23315683
  0.2480499   0.17746204  0.01987286  0.14462335  0.12582684  0.07112422
  0.02235553  0.05371179 -0.19311742 -0.08266962  0.06152576 -0.04342819
  0.13646255  0.04253332]