[-1.38905272e-01  1.30957186e-01  7.04331174e-02 -2.30388977e-02
 -9.54047665e-02 -9.37728807e-02 -5.70248738e-02 -1.16439283e-01
  8.71489719e-02 -3.95298079e-02  2.57839531e-01 -6.41807169e-02
 -2.18423530e-01 -8.58893245e-02 -8.36532563e-02  1.78240985e-01
 -1.91982254e-01 -1.28183797e-01 -7.12591261e-02 -4.85310555e-02
  1.18024111e-01  2.02305857e-02  2.94674165e-03  1.77393053e-02
 -1.31066248e-01 -3.07788223e-01 -5.40671051e-02 -2.25362442e-02
  5.15901446e-02 -2.57325750e-02 -4.23641205e-02  8.73669982e-04
 -2.51198858e-01 -8.25228319e-02  6.70783669e-02  1.02457777e-01
 -2.90501304e-02 -3.94553095e-02  1.46209612e-01 -2.63561662e-02
 -2.50100464e-01 -6.29945099e-03  6.63845390e-02  2.55393595e-01
  2.49811843e-01  5.24679497e-02 -2.79930246e-04 -1.78216368e-01
  7.31068105e-02 -1.87723204e-01  1.50053771e-02  1.95716038e-01
  3.23146991e-02  6.28999993e-02 -3.18237464e-03 -1.38580188e-01
  1.54757118e-02  1.30080998e-01 -1.15370505e-01 -5.98852225e-02
  9.89085436e-02 -8.03162828e-02 -1.51664810e-02 -1.25433192e-01
  1.94170654e-01  2.76780818e-02 -1.26495630e-01 -1.83509499e-01
  1.37822762e-01 -1.80107430e-01 -6.68291301e-02  7.48705715e-02
 -1.06887974e-01 -1.74076825e-01 -3.71106654e-01 -5.55366045e-03
  4.40904617e-01  1.03211097e-01 -1.89629003e-01  6.02280796e-02
 -4.23337445e-02  1.65005345e-02  1.75253019e-01  1.43263385e-01
 -2.32384801e-02  6.34785146e-02 -1.05802231e-01  1.23920748e-02
  2.22116902e-01 -6.96539581e-02 -2.06847396e-02  1.83512375e-01
 -3.19465972e-03  5.63103035e-02  6.60087168e-02  5.12535945e-02
 -8.19732621e-02  3.86997536e-02 -1.39729217e-01 -2.82662152e-03
  7.87364971e-03 -3.62760238e-02  1.45197306e-02  1.35500401e-01
 -1.03373371e-01  1.06805682e-01  2.02900376e-02  5.10269180e-02
 -1.47937983e-02 -4.78632934e-02 -5.21470085e-02 -9.38287079e-02
  1.08369686e-01 -2.12432548e-01  2.16657624e-01  1.94575474e-01
  1.44823939e-02  1.18151985e-01  1.37558579e-01  9.59650353e-02
 -2.93369088e-02  4.58486099e-03 -1.77742898e-01 -1.25528667e-02
  4.14707176e-02 -6.95474371e-02  1.12388566e-01 -2.06495617e-02]