[-0.13581501  0.12283953  0.02000934 -0.01625424 -0.06773762 -0.04425983
 -0.04797535 -0.1088295   0.12273548 -0.01063227  0.25006101 -0.06435578
 -0.18907662 -0.14227369 -0.06751777  0.20408542 -0.21337132 -0.11404069
 -0.03738968 -0.02668632  0.12653084  0.0443184   0.0038913   0.01539409
 -0.10661749 -0.32308564 -0.04698042 -0.06373258  0.03612466 -0.03128438
 -0.09074151  0.03032302 -0.22589961 -0.11260513  0.08002408  0.09732171
 -0.0091346  -0.02845625  0.15539983 -0.00463103 -0.17879869  0.0608505
  0.10652156  0.27304837  0.21842504  0.0717222   0.0008707  -0.16232422
  0.0849845  -0.12206828  0.02830343  0.16018102  0.02916276  0.06664575
 -0.00153974 -0.1413777   0.00444939  0.07860916 -0.14457037 -0.01968553
  0.0838299  -0.0589263  -0.04069132 -0.10270132  0.16777594  0.01676657
 -0.08426308 -0.21806119  0.09042107 -0.14768545 -0.09848952  0.0378514
 -0.14387858 -0.14946227 -0.37694234 -0.00655821  0.41177008  0.05081054
 -0.17877176  0.0924743   0.00199019 -0.04935089  0.17648666  0.13172154
  0.01367534  0.03889172 -0.08958882  0.0110737   0.22542851 -0.04699605
 -0.03411868  0.16731505 -0.0031323   0.03457862  0.0484132   0.04844621
 -0.0345492   0.06298331 -0.13855548 -0.01236723  0.0043738  -0.06779139
 -0.00177119  0.10334926 -0.16144054  0.07160924  0.04762305  0.04892388
 -0.02547155 -0.03286127 -0.10696466 -0.04003332  0.11085594 -0.23283675
  0.240376    0.20300594  0.06615933  0.10852783  0.10679362  0.07339702
 -0.0115475   0.03593331 -0.18819085 -0.03644073  0.0432226  -0.01342947
  0.11589424  0.03421159]