[-0.13810125  0.15153337  0.0871396  -0.02431781 -0.102749   -0.05166703
 -0.04076458 -0.11207934  0.14365156 -0.04160781  0.23524833 -0.01842988
 -0.17716113 -0.15631221 -0.02370494  0.19111073 -0.18466963 -0.11750143
 -0.03053462 -0.02513137  0.07763208  0.05041506  0.02695139  0.02095286
 -0.1138818  -0.36587262 -0.05666455 -0.0969073   0.03287558 -0.06822928
 -0.09791668  0.03614473 -0.17097521 -0.12420676  0.06044864  0.0864095
  0.00798679  0.01155953  0.14868432  0.00505352 -0.22325705  0.08642395
  0.10470503  0.27412108  0.23527873  0.0484276   0.03390744 -0.13827816
  0.11739186 -0.0861402   0.03905671  0.12324866  0.09045519  0.0441234
  0.03793988 -0.12478691 -0.01530225  0.06080762 -0.15390871  0.00870258
  0.11815925 -0.06269232 -0.06756184 -0.03003852  0.16535702  0.03514983
 -0.0695329  -0.21754248  0.12722759 -0.15678744 -0.12170553  0.02790398
 -0.15408318 -0.11391671 -0.33069888 -0.00380022  0.36453152  0.08100394
 -0.2179077   0.08283512 -0.03251648 -0.00409673  0.14035907  0.15219519
 -0.00294643  0.05967696 -0.06429162  0.00179981  0.17487015 -0.01802684
 -0.01921469  0.19877791  0.04678093  0.07889128  0.06060416  0.00530013
 -0.05531756  0.04472207 -0.17573035 -0.04760601  0.01525997 -0.03203334
  0.02848454  0.09925906 -0.19397496  0.12341621  0.04364083  0.07513418
 -0.00182529  0.03481485 -0.06521624 -0.04702244  0.10552578 -0.21369605
  0.23700128  0.20660308  0.04647106  0.08521278  0.12279847  0.03615047
  0.02637433  0.01768831 -0.15791284 -0.02864023  0.0591232  -0.07041553
  0.1095769   0.04318035]