[-0.1586818   0.11773407 -0.01390889 -0.08661848 -0.09173054 -0.06195288
 -0.08348617 -0.12222754  0.13937603 -0.06732325  0.18701406 -0.09329831
 -0.24252596 -0.08347411 -0.13105991  0.18317942 -0.22825959 -0.12616114
 -0.00083139 -0.05377821  0.11167278  0.07096042 -0.02944457  0.04996506
 -0.09341555 -0.36449799 -0.09170774 -0.04618915 -0.00818244 -0.03005712
 -0.00639765  0.06018234 -0.21556428 -0.07207618  0.05032914  0.11532121
  0.01932204 -0.00602731  0.17487471  0.01928096 -0.16915661  0.05698712
  0.11660629  0.28476307  0.18030828  0.06473443  0.02322858 -0.1425155
  0.07980797 -0.11920916 -0.026745    0.18487483  0.03549721  0.03533866
 -0.01212933 -0.14262968 -0.02775642  0.12443316 -0.1392156   0.01502831
  0.09701587 -0.10974908 -0.06562764 -0.0982449   0.18996581  0.02461804
 -0.11390436 -0.19523822  0.1634887  -0.17132828 -0.10908218  0.00400237
 -0.11625452 -0.14797638 -0.33272955  0.01184023  0.38297752  0.09039699
 -0.1334518   0.13857187 -0.00432629 -0.00832455  0.14808844  0.12725098
 -0.02015273  0.044017   -0.0638121   0.04068608  0.2109174   0.00254915
 -0.03398198  0.15006235 -0.01493168  0.10357504  0.05150221  0.02467681
 -0.06734573  0.03179291 -0.14452776  0.037227    0.00461903 -0.06750291
  0.01612465  0.08687775 -0.11260062  0.09751641  0.02671393  0.01064361
 -0.06697968  0.02781754 -0.09783151 -0.00158342  0.14534773 -0.2367636
  0.26302227  0.18238305  0.03247742  0.16291244  0.15607834  0.07474285
 -0.00322496 -0.00068878 -0.19467442 -0.08563894  0.05737564 -0.02555239
  0.16510876  0.02044561]