[-1.53094694e-01  1.40458658e-01  3.72070782e-02 -5.49917519e-02
 -1.09865896e-01 -5.66068664e-02 -3.46841328e-02 -1.25781879e-01
  1.43911108e-01 -1.27582056e-02  2.32381016e-01  5.24223084e-03
 -2.02440813e-01 -1.37018219e-01 -3.00757419e-02  1.74068674e-01
 -2.00926736e-01 -1.24417238e-01 -2.90935077e-02 -3.38034332e-02
  8.43825340e-02  3.26565392e-02  4.03661393e-02  4.60600294e-02
 -1.40558779e-01 -3.47456187e-01 -6.69917464e-02 -7.39072785e-02
  2.26032808e-02 -7.04806745e-02 -5.72389476e-02  7.74034783e-02
 -1.81806505e-01 -1.06330171e-01  7.19270036e-02  6.81715906e-02
  2.88876928e-02  3.08695640e-02  1.77164003e-01  2.94246078e-02
 -2.17867211e-01  8.17541778e-02  1.28560588e-01  3.03279817e-01
  2.34524205e-01  4.05348316e-02  2.35906038e-02 -1.19599380e-01
  8.58637318e-02 -1.35799512e-01  4.59060147e-02  1.36219352e-01
  6.15709797e-02  1.44289453e-02  4.87084575e-02 -1.19129017e-01
 -2.31517535e-02  6.53482229e-02 -1.95274308e-01  3.84245478e-02
  9.84960720e-02 -6.93146735e-02 -6.78201914e-02 -5.33229969e-02
  1.41316965e-01  6.65765032e-02 -7.28913173e-02 -2.05763534e-01
  1.01309061e-01 -1.75228760e-01 -1.16870463e-01  5.31172454e-02
 -1.52400255e-01 -1.41402707e-01 -3.60921264e-01 -1.03589622e-02
  3.74495089e-01  1.01182878e-01 -1.78305626e-01  8.30416307e-02
 -2.88809737e-04 -4.66150455e-02  1.27465293e-01  1.01751886e-01
 -5.38764708e-02  6.00014403e-02 -5.46601787e-02  5.55368550e-02
  2.00424656e-01  1.51034212e-02 -3.73973921e-02  2.28652507e-01
  3.73590812e-02  5.21885827e-02  6.52997866e-02  4.62419726e-02
 -3.42813879e-02  3.53129813e-03 -2.00546488e-01 -4.39384766e-02
  6.80117309e-03 -6.61373138e-02  4.70912158e-02  1.05226375e-01
 -2.09829763e-01  7.35669360e-02  3.54186930e-02  2.13384032e-02
 -5.10478429e-02  4.02552336e-02 -1.02430381e-01 -3.85341048e-02
  1.13598786e-01 -2.21522480e-01  2.38347486e-01  2.27884278e-01
  5.97445741e-02  5.83025292e-02  1.03871457e-01 -1.23438835e-02
  1.55235529e-02  9.32021625e-03 -9.02355239e-02 -2.73335110e-02
  6.58100247e-02 -7.40435869e-02  1.42008528e-01  3.17911804e-02]