[-1.62335634e-01  1.22099079e-01  1.72410998e-02 -5.56844771e-02
 -8.39282498e-02 -6.29479289e-02 -5.70871010e-02 -1.06279872e-01
  1.56408995e-01 -1.00902915e-02  2.20508128e-01 -2.32116394e-02
 -1.97516963e-01 -1.55588374e-01 -4.66771387e-02  2.04638675e-01
 -2.22695753e-01 -1.55156419e-01 -1.45978853e-02 -5.96869588e-02
  7.81447291e-02  3.95119600e-02 -3.36995418e-03  4.29675952e-02
 -1.44948617e-01 -3.42547417e-01 -4.68420833e-02 -6.03242218e-02
  1.31020101e-03 -3.70896868e-02 -8.13447163e-02  6.16365783e-02
 -2.32708082e-01 -1.31648898e-01  1.10026933e-01  1.53384209e-01
  1.45853125e-03 -1.78253986e-02  1.49063557e-01  1.12804514e-03
 -1.94842145e-01  2.96920966e-02  1.29359722e-01  3.00505608e-01
  1.98310971e-01  4.88821417e-02  2.04551425e-02 -1.38439611e-01
  1.06967114e-01 -8.58464018e-02  2.94267721e-02  1.70285165e-01
  6.32055551e-02  4.26593199e-02  1.06589803e-02 -1.42066732e-01
  1.73345283e-02  1.11552827e-01 -1.37788132e-01 -1.85380075e-02
  9.39252675e-02 -1.07708871e-01 -2.77320631e-02 -7.23713264e-02
  1.78297907e-01  7.65989302e-03 -7.40882978e-02 -2.19948649e-01
  1.04358055e-01 -1.25140220e-01 -9.69156846e-02  3.97623926e-02
 -1.54631317e-01 -1.45938799e-01 -3.88051480e-01 -1.47268918e-04
  3.91724735e-01  5.59265800e-02 -1.66349143e-01  9.73229781e-02
 -3.90013983e-03 -3.25701833e-02  1.53062627e-01  1.46147415e-01
 -2.07160544e-02  6.04528561e-02 -1.09687686e-01  3.03812977e-02
  2.37147689e-01 -1.02486825e-02 -2.86692679e-02  1.33128062e-01
  2.67812726e-03  4.20486629e-02  5.17058484e-02  3.85647267e-02
 -7.70423785e-02  6.24527708e-02 -1.42718375e-01 -2.96116378e-02
  2.21550260e-02 -5.93224466e-02  2.14113295e-02  1.31252050e-01
 -1.70339048e-01  3.78062762e-02  4.66580205e-02  3.45101953e-02
 -4.18655574e-02  1.00864973e-02 -8.57860595e-02 -9.53300223e-02
  9.27992985e-02 -2.22853214e-01  2.30867013e-01  2.18219548e-01
  4.60127778e-02  1.17121831e-01  1.03598833e-01  5.49981855e-02
 -1.50674423e-02  1.87170636e-02 -1.45555526e-01 -2.66523417e-02
  5.05567193e-02 -1.35103306e-02  1.52015612e-01  2.69864835e-02]