[-0.19759846  0.07511596  0.08074775 -0.06818438 -0.0672526  -0.02898386
 -0.07239655 -0.10164012  0.1003231  -0.08998135  0.23454204 -0.05939372
 -0.1791537  -0.0400141  -0.10375567  0.19634348 -0.16731837 -0.13111816
 -0.03522159 -0.03019415  0.09178108  0.04373262 -0.06612737  0.03633664
 -0.11664323 -0.35605201 -0.11437353 -0.06840423 -0.03214566  0.00781963
 -0.06999408  0.00973426 -0.20145471 -0.0552894   0.02749779  0.08872297
  0.01665011 -0.01783733  0.13638446  0.02242136 -0.18060397  0.12047385
  0.11852884  0.26946586  0.1962326   0.06449716  0.05420481 -0.12721959
  0.06605374 -0.16315471  0.05353856  0.12407175  0.10977584  0.05276642
  0.01792826 -0.16669647 -0.04010401  0.11571798 -0.10795043  0.07958971
  0.07854066 -0.03816731 -0.02156217 -0.0906206   0.18970311  0.11309097
 -0.12762828 -0.18318442  0.15272152 -0.12719549 -0.06625704 -0.00723363
 -0.17170426 -0.16899078 -0.32449549  0.07295489  0.40910172  0.0982873
 -0.18577705  0.06630899 -0.04007785  0.02034213  0.13571171  0.10570456
 -0.01567294 -0.01939062 -0.05855438  0.02519527  0.23739448  0.00799969
 -0.02439143  0.16084807 -0.02018945  0.04137782  0.01722537  0.06211063
 -0.07886984  0.02773874 -0.12054092  0.02955    -0.04562395 -0.04029309
  0.01025056  0.12604417 -0.14420865  0.09348492 -0.01458746  0.0293078
 -0.04316438  0.07498353 -0.09460249 -0.02121117  0.1136018  -0.17967035
  0.21581748  0.18852918  0.02471578  0.12585792  0.15058313  0.07736336
  0.0051098   0.0456785  -0.21564893 -0.03677678  0.05814901 -0.03276337
  0.11564364  0.06081049]