[-0.08471068  0.07072346  0.0742301  -0.0099801  -0.0892519  -0.04524468
 -0.08529246 -0.13256381  0.11302557 -0.07641993  0.24392465  0.00617282
 -0.17705266 -0.09397278 -0.03909975  0.14762802 -0.14783894 -0.08059471
 -0.00746742  0.01627535  0.03621899 -0.04821634  0.08800442  0.01724846
 -0.09404476 -0.32165828 -0.12896715 -0.10733642 -0.0326798  -0.03412275
 -0.07378338  0.01660107 -0.1660998  -0.03539193 -0.0203747   0.07327053
 -0.04756934 -0.04892835  0.19999664 -0.01367353 -0.16979337 -0.01798212
  0.01400679  0.22265887  0.1973937   0.06712188  0.04978959 -0.04826735
  0.07541765 -0.19437103  0.05204285  0.07739473  0.10820941 -0.00486622
  0.01018718 -0.13245875  0.01517831  0.06458821 -0.08541306  0.00251785
  0.04862523 -0.07377468 -0.05385606 -0.03978284  0.30032626  0.12743495
 -0.1206577  -0.10409833  0.10149737 -0.11654592 -0.07928652  0.01418195
 -0.17415328 -0.17487423 -0.33938679  0.02419639  0.40005931  0.07096562
 -0.17857164  0.01042036 -0.06874471  0.02801325  0.10892898  0.09856516
 -0.06477033  0.0321013  -0.13275687 -0.00310632  0.22128308 -0.11744811
 -0.05890733  0.16524197 -0.02173215  0.11726909 -0.00887965 -0.01440566
  0.02084222  0.05249818 -0.12754779  0.05679589  0.08310046 -0.02845513
 -0.00986789  0.10164169 -0.16991971  0.01390373  0.01471186 -0.00193017
  0.03760022 -0.00959809 -0.21587656 -0.08932524  0.1447078  -0.23503016
  0.18693183  0.20361029  0.03270119  0.10235454  0.15018408  0.06190722
 -0.00188143  0.01407932 -0.18436849 -0.00907913  0.11679164 -0.00624853
  0.07815136  0.03446665]