[-9.91321132e-02  4.90106754e-02  2.03668494e-02 -5.45893125e-02
 -8.32605958e-02 -4.54209112e-02 -6.15910962e-02 -1.70982555e-01
  1.24101795e-01 -6.92158714e-02  2.54364669e-01 -7.57607296e-02
 -1.55316189e-01 -1.42443925e-01 -7.29643479e-02  1.51860803e-01
 -1.87829956e-01 -1.39921591e-01 -8.83580279e-03 -2.72853374e-02
  6.53221458e-02 -3.04258000e-02  3.74414288e-02  4.12606187e-02
 -1.02831736e-01 -3.26235384e-01 -1.40082330e-01 -6.73333481e-02
  1.26197962e-02  5.08555037e-04 -4.30911295e-02  5.51806949e-02
 -2.20344767e-01 -8.75919685e-02  2.64147650e-02  7.67580196e-02
 -1.60688553e-02 -6.14239946e-02  1.75639763e-01 -1.18642012e-02
 -1.90881371e-01  2.98098028e-02  2.64561959e-02  2.44347528e-01
  1.63126037e-01  6.59883693e-02  2.78636348e-02 -1.32349283e-01
  1.05211489e-01 -9.37227905e-02  5.25120310e-02  1.68170199e-01
  7.85952955e-02  4.11250480e-02 -6.84006810e-02 -1.34011403e-01
  3.56175154e-02  8.39475766e-02 -1.13194190e-01 -3.57852168e-02
  6.84129596e-02 -9.82021466e-02 -4.15945463e-02 -9.91797149e-02
  2.04994678e-01  7.46948570e-02 -9.20091197e-02 -2.00638279e-01
  1.43712297e-01 -9.46959555e-02 -6.64841756e-02  4.73095030e-02
 -1.96162879e-01 -1.75041839e-01 -3.37755382e-01  4.47290801e-02
  4.05465752e-01  5.00363223e-02 -1.70130655e-01  5.59916198e-02
 -6.08412996e-02  4.62342724e-02  1.14239350e-01  1.52148828e-01
 -2.37773042e-02  6.70058727e-02 -1.01185679e-01 -7.11315451e-03
  1.82928398e-01 -9.24953818e-02 -8.74912515e-02  1.70346633e-01
 -1.13736708e-02  8.89714509e-02  6.81905374e-02  5.22923730e-02
 -5.58982929e-03  9.18376669e-02 -1.09920882e-01  5.41373603e-02
  7.90340826e-02 -2.81760674e-02 -5.25102041e-05  8.51072669e-02
 -1.32192776e-01  1.16854429e-01  2.68074162e-02  4.19996008e-02
 -7.34598795e-03 -4.69296053e-02 -9.42206010e-02 -7.92358890e-02
  1.23843588e-01 -2.62668103e-01  1.99064180e-01  1.86256573e-01
  7.07792938e-02  1.78765491e-01  1.26172841e-01  1.13150075e-01
 -3.72478329e-02 -8.01990554e-03 -1.91546619e-01 -2.30680816e-02
  9.39801559e-02  1.98399536e-02  9.06839371e-02  4.15631607e-02]