[-0.07147647  0.0625242   0.05371276  0.00312726 -0.1042366  -0.05394536
 -0.03827049 -0.08626964  0.10833874 -0.05599698  0.23131537 -0.00408839
 -0.21926962 -0.08426259  0.03776139  0.15078865 -0.12529741 -0.08022869
 -0.1519632  -0.04634003 -0.05447576 -0.02260684  0.09406893  0.00069056
 -0.09731236 -0.3462646  -0.12216485 -0.0770391   0.01746705 -0.04943441
 -0.01142911  0.03364139 -0.15130883 -0.03443959  0.02772113  0.06526
 -0.09410504 -0.09361766  0.22832827 -0.01590955 -0.19777909 -0.02201821
  0.00583322  0.1986815   0.24756749  0.01760374  0.03258381 -0.05508566
  0.06766091 -0.23875551  0.05990992  0.15842003  0.03681691  0.07891003
  0.03427261 -0.08379006  0.02118118  0.15262453 -0.14968181 -0.04689178
  0.00229875 -0.14856599 -0.05048947 -0.05110407  0.18423943  0.16665858
 -0.07182658 -0.13962992  0.15723243 -0.16247253 -0.05896871  0.01758962
 -0.15389432 -0.1879473  -0.33335409  0.04952092  0.37739873  0.13490814
 -0.1508241   0.00362442 -0.06519362 -0.02915217  0.03798055  0.06515201
 -0.07108467 -0.07242879 -0.09852017  0.02970097  0.21253081 -0.11801391
 -0.02991215  0.15652752 -0.0168755   0.02194494  0.03110873  0.01469369
 -0.02925873  0.00174208 -0.12480229 -0.00213666  0.10077639 -0.09089228
  0.02288566  0.0778565  -0.17154594  0.10208547  0.0208367  -0.05912282
  0.03951467 -0.02932502 -0.09942376 -0.06517794  0.18122685 -0.19037428
  0.27190325  0.21814194  0.00388485  0.15363231  0.08883243  0.11268906
 -0.04900579 -0.01579466 -0.11009219 -0.06101152  0.04535085  0.08062568
  0.04636626  0.04071937]