[-0.03236445  0.05450032  0.02068535 -0.06435412 -0.08272654 -0.05303691
 -0.07146443 -0.12488476  0.15457718 -0.11731406  0.25293729 -0.04305324
 -0.15762854 -0.1361867  -0.04327691  0.13601457 -0.19172946 -0.11445122
 -0.00714701  0.00428129  0.11700785 -0.01816936  0.03635354  0.0055351
 -0.07801802 -0.31850514 -0.12368529 -0.05002679  0.04620905 -0.00067455
 -0.05395005  0.03776237 -0.2151891  -0.09236957  0.0053815   0.04464225
 -0.03885256 -0.06087632  0.17456996 -0.00339488 -0.1792364  -0.00809629
 -0.00140254  0.21045986  0.18907522  0.05722193  0.01204746 -0.1200185
  0.08515564 -0.16491011  0.04505173  0.13748674  0.12375487  0.05708123
 -0.03019965 -0.12252314  0.05593367  0.08072534 -0.09359267 -0.03185283
  0.07105841 -0.08168413 -0.02309552 -0.04225808  0.2705614   0.06238942
 -0.08619083 -0.17719768  0.13257734 -0.07484535 -0.08421099  0.05474433
 -0.15553954 -0.13688982 -0.28127784  0.00074697  0.37901589  0.05487899
 -0.2001739   0.028172   -0.11743581  0.0289256   0.13304068  0.08539911
 -0.02670369  0.02547521 -0.14071213  0.00570909  0.20834355 -0.12905173
 -0.06092986  0.20936604  0.01169665  0.12120204  0.03735168  0.00345052
 -0.00784231  0.10309102 -0.11950524  0.0131369   0.13104047 -0.0041241
 -0.00838728  0.13501444 -0.14147532  0.11573277  0.01668044  0.05115465
  0.05948257 -0.06901307 -0.11619128 -0.07992256  0.1123433  -0.21222559
  0.19194262  0.1497265   0.07853922  0.12756045  0.11881407  0.07333546
 -0.02136195 -0.05795447 -0.23485553  0.00612359  0.09137694  0.00649893
  0.06492897  0.02576489]