[-9.17209163e-02  7.25384951e-02  4.90259156e-02  1.28088612e-02
 -1.00876927e-01 -3.85286473e-02 -3.03314980e-02 -8.48640874e-02
  1.55844510e-01 -7.92198330e-02  2.21944973e-01 -5.30438498e-04
 -1.95845097e-01 -1.17401682e-01  2.32906342e-02  1.27373442e-01
 -1.19246922e-01 -1.01262569e-01 -2.60524545e-02 -6.07065763e-03
  4.31309901e-02 -4.68662148e-03  1.14228785e-01  3.21850069e-02
 -9.96357873e-02 -4.10596460e-01 -9.51926708e-02 -9.46803689e-02
  2.17939238e-03 -1.96881834e-02 -2.58154720e-02  5.27206361e-02
 -1.73303649e-01 -1.98246837e-02 -3.52619594e-04  7.98114464e-02
 -1.45122027e-02 -4.72773872e-02  2.36569077e-01  3.73989879e-03
 -1.87098190e-01 -8.64961073e-02  9.22627747e-03  2.20412061e-01
  1.31440744e-01  3.11092418e-02  5.28000556e-02 -3.57627533e-02
  8.33754465e-02 -1.41746253e-01  2.48362329e-02  1.38222873e-01
  8.80113095e-02 -2.87252646e-02  3.86637263e-02 -1.28845572e-01
  2.45572440e-02  4.41531464e-02 -1.04438417e-01 -4.78874743e-02
  7.80926785e-03 -3.23239826e-02 -7.76231885e-02 -3.08936294e-02
  2.64207244e-01  7.25977048e-02 -7.28062466e-02 -1.45062581e-01
  9.86027643e-02 -1.20359182e-01 -5.19775338e-02  3.56102176e-02
 -2.00390488e-01 -1.70919836e-01 -3.10982525e-01  8.67437478e-03
  3.52795601e-01  5.86881749e-02 -1.70553356e-01  4.24688905e-02
 -7.53907785e-02  5.49066765e-03  9.61382017e-02  9.24843252e-02
 -7.46325776e-02  6.39048889e-02 -1.57181904e-01  3.32510732e-02
  1.80640548e-01 -1.07924342e-01 -5.30322269e-02  1.67878270e-01
  4.84569755e-04  1.16721511e-01 -4.69831470e-03 -5.17794378e-02
 -2.26399843e-02  6.26388937e-02 -1.43936306e-01  1.67699587e-02
  1.35497168e-01  3.24967504e-03  5.15129790e-03  9.28549021e-02
 -2.05627799e-01  7.29268137e-03  2.78965868e-02 -1.81083959e-02
  4.89532948e-02  6.61311625e-03 -2.29175672e-01 -1.20937660e-01
  1.25264376e-01 -1.99192435e-01  1.66507348e-01  1.83428794e-01
  1.04644960e-02  1.22781590e-01  1.46471381e-01  5.13264351e-02
 -1.61599589e-03  1.16287638e-02 -1.67676002e-01  1.79739890e-03
  1.05695702e-01  4.44223080e-03  3.05069983e-02  1.46248273e-03]