[-0.08898603  0.05690251  0.03535356 -0.03523133 -0.08744639 -0.0263002
 -0.06143476 -0.16281609  0.12791054 -0.08045918  0.2674903  -0.0741985
 -0.15795754 -0.12683748 -0.06679669  0.15383735 -0.1869799  -0.1239233
 -0.02280631 -0.00960054  0.0796782  -0.03271971  0.04819856  0.02010575
 -0.0925852  -0.32861415 -0.13599615 -0.05401196  0.0313453  -0.00598969
 -0.05303599  0.03355698 -0.21690336 -0.090772    0.0199651   0.05942665
 -0.02130342 -0.05944769  0.16957116 -0.02264228 -0.20043366  0.03921134
  0.02568988  0.23742855  0.15693179  0.08136994  0.02719477 -0.14349797
  0.10464938 -0.10199249  0.06832685  0.15466897  0.08333419  0.04153528
 -0.05115236 -0.14347228  0.01603687  0.10210796 -0.09050494 -0.01773248
  0.07630631 -0.07133894 -0.03201341 -0.11426479  0.20219536  0.07279735
 -0.09448042 -0.20132862  0.12783591 -0.07663301 -0.0628114   0.047536
 -0.19558512 -0.17920522 -0.33163843  0.03731891  0.41225123  0.04486678
 -0.17518517  0.04043975 -0.05552309  0.04599077  0.11372695  0.1588261
 -0.01671062  0.06708401 -0.09521497 -0.00831544  0.17821172 -0.10564104
 -0.07927717  0.18111195 -0.01290631  0.08135328  0.04837704  0.04532925
 -0.01479937  0.09505179 -0.12224936  0.03782878  0.06968065 -0.02132615
 -0.00155105  0.08140115 -0.13564284  0.1179309   0.0267391   0.0572088
  0.01247677 -0.04324022 -0.09356383 -0.07329246  0.12080076 -0.26346618
  0.1947988   0.18703787  0.07688497  0.17057948  0.12931915  0.11944201
 -0.01956791  0.01034476 -0.20067814 -0.01540965  0.09097274  0.01461324
  0.07799085  0.04206419]