[-0.10813268  0.0760247   0.08020546 -0.0104711  -0.0950477  -0.043646
 -0.08563125 -0.12625983  0.12558936 -0.07264844  0.24902451 -0.00468289
 -0.17849775 -0.09973442 -0.04519009  0.14052333 -0.14006248 -0.07727578
  0.00469334  0.01831086  0.03260524 -0.04674051  0.09201878  0.03818221
 -0.10107739 -0.32479054 -0.12735479 -0.1069019  -0.03250379 -0.03820715
 -0.06505106  0.01745111 -0.16148472 -0.04240465 -0.02388963  0.08060034
 -0.03823953 -0.03364005  0.20359071 -0.01353216 -0.17708443 -0.01573696
  0.00954801  0.23093724  0.18975137  0.07380788  0.04557674 -0.0396772
  0.07783159 -0.20212419  0.06178331  0.08939201  0.118617   -0.01857165
  0.01209696 -0.12718725  0.00566935  0.07834609 -0.08211707  0.00565015
  0.04813268 -0.05553898 -0.03985465 -0.02899656  0.28908822  0.13251434
 -0.1220032  -0.10564709  0.09404588 -0.12387663 -0.08465899  0.02674799
 -0.16993237 -0.17491882 -0.3478196   0.03544514  0.41203794  0.07653891
 -0.1763768   0.0059681  -0.07693607  0.03087812  0.09373157  0.09301319
 -0.07918664  0.0225894  -0.13004097 -0.01780529  0.21128929 -0.09687768
 -0.06434789  0.16689184 -0.00700088  0.12243133 -0.0111151  -0.01737227
  0.01983771  0.04804835 -0.12077164  0.05691108  0.07274355 -0.01795523
 -0.00527645  0.10041095 -0.19384699  0.02777822  0.01561574 -0.00819583
  0.03732578  0.01960021 -0.21469684 -0.08328407  0.1451077  -0.24520366
  0.18016696  0.20241606  0.04122491  0.11006586  0.16158788  0.05448008
  0.0100856   0.02318531 -0.15591726 -0.02096596  0.11647319 -0.02357939
  0.08349892  0.03710746]