[-0.09189854  0.06510763  0.05838962  0.01319146 -0.11167059 -0.04486373
 -0.03677574 -0.0947478   0.15871392 -0.0813294   0.21621864 -0.01058032
 -0.1987956  -0.10912067  0.02324239  0.13334131 -0.12079352 -0.10951056
 -0.024597   -0.00636418  0.03727562 -0.01061505  0.10338333  0.03368648
 -0.0981588  -0.4033576  -0.09994939 -0.09220798  0.00388559 -0.01496667
 -0.03048967  0.05120899 -0.17604871 -0.02566364 -0.00360866  0.08056474
 -0.02803999 -0.06066501  0.23342328 -0.00577587 -0.19561087 -0.09273612
  0.01217585  0.20979731  0.13626543  0.03226843  0.05106454 -0.03616095
  0.07967724 -0.14270082  0.01605396  0.13972315  0.08472528 -0.02639402
  0.02889751 -0.12669276  0.02571538  0.05175738 -0.11246496 -0.0498067
  0.01820521 -0.05256552 -0.08473104 -0.03521734  0.26930019  0.07909871
 -0.06976403 -0.14433353  0.1088748  -0.12465068 -0.05848168  0.0339811
 -0.19587922 -0.17035834 -0.31449252 -0.00234527  0.36196071  0.05269529
 -0.16599861  0.04714236 -0.06907983  0.00781091  0.09663828  0.09718622
 -0.06743328  0.06127151 -0.15748794  0.02915645  0.18420169 -0.11180212
 -0.04348414  0.16057998  0.00451657  0.1120102  -0.00254048 -0.05113032
 -0.01545845  0.05759206 -0.14454727  0.0145815   0.13461445  0.01297863
  0.0070022   0.08646807 -0.19441821  0.01342362  0.03702804 -0.01816737
  0.04681575 -0.00842853 -0.22035289 -0.1198011   0.1312788  -0.19935763
  0.16029346  0.17681724  0.01141792  0.12497266  0.13983078  0.05400258
 -0.00802109  0.00432271 -0.17664687  0.0012601   0.10762107  0.00192298
  0.04017722  0.00855985]