[-0.09051137  0.08913475  0.08195959 -0.00556676 -0.04245275 -0.05342934
 -0.03576334 -0.14285429  0.11694687 -0.09189378  0.23955098 -0.0339756
 -0.17992465 -0.16139923  0.04551094  0.16743742 -0.12417529 -0.15806177
 -0.05145578 -0.01445898  0.03052493 -0.02601258  0.08809406  0.05999584
 -0.09523787 -0.36422047 -0.12062009 -0.08748916 -0.00299869 -0.02214198
 -0.0743449   0.0454267  -0.16130146 -0.03995317  0.03757374  0.0956924
 -0.04277202 -0.06420589  0.19165859 -0.05700461 -0.2110126  -0.03731818
  0.03426519  0.22834404  0.19324988  0.02465215  0.04073332 -0.04893802
  0.05874963 -0.14194344  0.06676619  0.11878105  0.08846306  0.02410511
  0.0059363  -0.12895165 -0.00082642  0.11306875 -0.09436921 -0.01750818
  0.03890952 -0.14989297 -0.07191714 -0.04469276  0.21664332  0.09174266
 -0.09210842 -0.18634471  0.11153921 -0.11735723 -0.05795128  0.04757994
 -0.20404725 -0.18775828 -0.28980574  0.0468935   0.38137159  0.09022924
 -0.19051623  0.04720954 -0.04051588  0.03121983  0.09979945  0.13609621
 -0.02342901  0.02454138 -0.1484032   0.02249075  0.18686368 -0.10375863
 -0.05664506  0.16373241 -0.03300893  0.08966672  0.00663576 -0.04304983
  0.00428127  0.08527293 -0.16307394 -0.0009627   0.06725927  0.01710136
 -0.01222859  0.0818702  -0.14094864  0.0597764   0.04163472  0.01858397
  0.03049591 -0.00901225 -0.15472804 -0.11500378  0.11335337 -0.20387585
  0.16795105  0.21207272  0.08244385  0.13674629  0.13371541  0.07874586
  0.04771232 -0.02009488 -0.20237699  0.02655245  0.1506331   0.02131811
  0.06934004  0.0170448 ]