[-9.34169963e-02  8.01828131e-02  7.88278207e-02 -2.38798149e-02
 -8.72388035e-02 -4.27594297e-02 -9.40166488e-02 -1.17860250e-01
  1.49643257e-01 -1.35529146e-01  2.15225205e-01 -2.54049134e-02
 -2.07745478e-01 -8.85525942e-02 -5.30318394e-02  1.60645679e-01
 -1.67443410e-01 -1.18635558e-01  1.21786539e-02  3.28503065e-02
  6.83015585e-02  1.98718216e-02  4.32303771e-02  3.63196735e-03
 -9.56622437e-02 -3.51207346e-01 -1.43022418e-01 -7.95888379e-02
  1.32542998e-02 -1.27669005e-02 -1.25966758e-01  1.04975356e-02
 -1.40794396e-01 -5.92017844e-02  2.50440370e-02  1.04563296e-01
 -7.47141913e-02 -8.08372870e-02  1.82108805e-01 -6.48964942e-03
 -2.12540269e-01 -2.49583181e-02  2.45205108e-02  2.42329553e-01
  2.19513535e-01  8.46994817e-02  2.30143871e-02 -9.42984447e-02
  9.85152870e-02 -2.01687008e-01  7.64305219e-02  1.20525658e-01
  1.11628748e-01  4.91655096e-02  4.31902371e-02 -1.26012117e-01
  3.77639022e-04  9.38961431e-02 -9.23135430e-02 -2.06183065e-02
  4.52910475e-02 -5.76503836e-02  1.59381311e-02 -4.42421213e-02
  2.94984102e-01  9.76089463e-02 -1.26675993e-01 -1.11174844e-01
  1.38862759e-01 -1.54331669e-01 -1.01643287e-01  2.82824095e-02
 -1.61149129e-01 -1.68960720e-01 -3.03073525e-01  5.62166655e-03
  4.17744964e-01  1.06012061e-01 -1.56091169e-01  3.75211164e-02
 -3.04450970e-02 -1.84427518e-02  1.39713541e-01  1.55274317e-01
 -4.55546677e-02  3.62416357e-02 -1.00110449e-01 -1.83258932e-02
  2.64265686e-01 -1.07603051e-01 -7.23096132e-02  1.68759435e-01
 -9.77551937e-03  1.21644072e-01  3.50731574e-02 -2.08851937e-02
  2.05319235e-03  2.45186593e-02 -1.42485067e-01 -3.65370372e-03
  7.85325393e-02 -1.36607690e-02 -3.16223316e-02  1.40941620e-01
 -1.31841823e-01  6.94159791e-02  2.51723025e-02  1.07111335e-02
  3.80189978e-02 -3.31416689e-02 -1.69244960e-01 -7.24456534e-02
  1.35411412e-01 -2.13604718e-01  1.96043968e-01  1.58917725e-01
  4.99210022e-02  1.23955823e-01  1.36854887e-01  4.99534570e-02
  1.79225188e-02 -2.73363143e-02 -1.89681485e-01 -4.31767814e-02
  1.33438870e-01  3.35381192e-04  1.30675599e-01  1.42175620e-02]