[-0.08790758  0.02698472  0.01575929 -0.03123748 -0.07063883 -0.04744363
 -0.08880698 -0.10612952  0.15343663 -0.11393082  0.24336563 -0.0471714
 -0.16840923 -0.12017546 -0.08021361  0.17093763 -0.15961146 -0.08569967
 -0.02766162 -0.00847823  0.04916953 -0.00901046  0.03413644  0.04293089
 -0.04395899 -0.36760321 -0.13715079 -0.0863399   0.00925795 -0.03516157
 -0.0535243   0.07223671 -0.17070352 -0.09623732  0.02271672  0.09210435
 -0.02949739 -0.06106859  0.16119978 -0.03426841 -0.15568556 -0.04398991
  0.06740905  0.23088415  0.17827506  0.11085647  0.03967637 -0.10114907
  0.09263257 -0.16463883  0.03268285  0.11465092  0.06879827  0.026554
  0.00671953 -0.11452895  0.0365106   0.10778805 -0.10424963 -0.00527951
  0.05293773 -0.06661134 -0.06577304 -0.04238404  0.26031324  0.10553759
 -0.09477503 -0.1521569   0.15218745 -0.15859821 -0.09233021 -0.01064965
 -0.15459956 -0.18585306 -0.31533626 -0.0024892   0.39011905  0.11101715
 -0.14053889  0.09664353 -0.02049536  0.00488606  0.14032924  0.12658077
 -0.05287597  0.03599748 -0.10549591 -0.01198517  0.22005041 -0.05384023
 -0.0455102   0.14339453 -0.03759664  0.07908341  0.04511629 -0.01290246
 -0.01811782  0.05140203 -0.1715377  -0.00146421  0.10108513  0.0055679
 -0.01056348  0.07853241 -0.12795423  0.08111244 -0.0016736   0.01921506
  0.03973398 -0.03922581 -0.15791781 -0.04764419  0.15438147 -0.16757165
  0.18986616  0.15100217  0.08222221  0.16161135  0.18190768  0.10002925
  0.00971068 -0.0325462  -0.22267424 -0.0432137   0.10667451 -0.00844793
  0.11721417  0.00277735]