[-0.07634639  0.07323821  0.05721491 -0.02771502 -0.10259034 -0.00394203
 -0.03668814 -0.08246404  0.16502491 -0.06741317  0.24568832 -0.02017315
 -0.20901366 -0.11171263  0.01560572  0.15010846 -0.13710399 -0.07540577
 -0.01965319 -0.01575643  0.0408514  -0.03001535  0.10574163  0.01357021
 -0.10441376 -0.38640845 -0.1189723  -0.10514764 -0.01136851 -0.05761802
 -0.02535603  0.04225977 -0.17573731 -0.0171301  -0.01515271  0.04516825
 -0.06807316 -0.05858138  0.21677528 -0.03489929 -0.1707723  -0.07320203
  0.02529041  0.171295    0.18673021  0.03612114  0.0497813  -0.05854076
  0.05481733 -0.13242041  0.04082167  0.13807108  0.08763641  0.0109813
  0.03443006 -0.09471891  0.03196174  0.05956114 -0.09232288 -0.0452401
  0.03904144 -0.02235969 -0.05640263  0.00419671  0.2718721   0.08402942
 -0.08181518 -0.13277768  0.10885844 -0.11690634 -0.05509334  0.03553314
 -0.20191149 -0.19041674 -0.29626542  0.00148676  0.38385689  0.06282569
 -0.17622109  0.03297653 -0.08439519 -0.0005691   0.11365139  0.07513555
 -0.10179664  0.02693932 -0.12946735  0.03898207  0.19994503 -0.10515865
 -0.05915238  0.17844318  0.0010931   0.09481106  0.01892672 -0.03774116
  0.0256046   0.04698731 -0.12768756  0.0024154   0.11441561 -0.03594753
 -0.01180367  0.09914355 -0.19611798  0.04414709  0.04030317  0.00527352
  0.03441657  0.01071739 -0.21127589 -0.090352    0.15074791 -0.21277542
  0.16814755  0.16759579  0.00389813  0.10817003  0.13898458  0.09305311
 -0.01589495 -0.01698754 -0.15448779  0.01876461  0.10851427  0.02024022
  0.08462264  0.01600171]