[-1.04122356e-01  6.71286285e-02  1.12384394e-01 -4.64927815e-02
 -9.55511481e-02 -4.32701521e-02 -7.27934241e-02 -1.49577424e-01
  8.68041664e-02 -7.39994273e-02  2.79723227e-01 -5.17067574e-02
 -1.50896266e-01 -1.40185043e-01 -6.60524517e-02  1.69848531e-01
 -1.66526839e-01 -1.17855646e-01 -1.21325823e-02  1.07775526e-02
  7.24625811e-02 -4.37871963e-02  6.16320036e-02  5.38782496e-03
 -7.55034015e-02 -3.23261887e-01 -1.43381432e-01 -3.83531302e-02
  4.53862958e-02 -1.58747565e-02 -6.58899546e-02  1.30731314e-02
 -2.24788904e-01 -9.61630046e-02 -1.04364296e-02  7.66015872e-02
 -3.69853303e-02 -7.16271177e-02  1.11079536e-01 -5.02815507e-02
 -1.92753792e-01  4.18946333e-02  3.96914780e-02  2.35686347e-01
  2.04520583e-01  6.25777841e-02  4.21861447e-02 -1.39621258e-01
  7.48298913e-02 -1.31721452e-01  9.01360288e-02  1.05343081e-01
  9.89054069e-02  5.48894517e-02  7.99245609e-04 -1.23250961e-01
  3.56720947e-02  1.32953271e-01 -8.76828358e-02  1.71063207e-02
  5.81923388e-02 -1.44599965e-02  1.26336692e-02 -9.35981944e-02
  1.98169976e-01  8.19331408e-02 -8.81846696e-02 -1.64165169e-01
  1.48301765e-01 -5.94078079e-02 -4.74976562e-02  6.42716512e-02
 -1.89234719e-01 -1.76610991e-01 -3.22643101e-01  2.87575182e-02
  4.16872829e-01  7.65686706e-02 -1.97613597e-01  8.62603169e-03
 -5.66828027e-02  3.96110080e-02  1.20592140e-01  1.20965652e-01
 -1.76091250e-02  3.95916142e-02 -1.25417218e-01  1.65921319e-02
  1.83217093e-01 -9.58889201e-02 -6.25867620e-02  1.98214248e-01
  1.08240787e-02  5.24191037e-02  4.55623642e-02  6.79399744e-02
 -8.35678447e-03  1.05283551e-01 -1.66929871e-01  2.22211340e-04
  5.87980114e-02 -2.99876165e-02 -1.55736087e-02  1.00828551e-01
 -1.17001951e-01  1.09182552e-01  5.20891137e-02  7.24438131e-02
  8.39211140e-03 -3.60551551e-02 -8.63412619e-02 -5.67144826e-02
  1.12154558e-01 -2.27155238e-01  1.96525127e-01  1.97468713e-01
  6.02787919e-02  1.28118902e-01  1.16926186e-01  1.02926724e-01
 -8.67970102e-03 -5.14882207e-02 -1.54784724e-01  8.94220825e-03
  7.64619038e-02 -1.18825939e-02  8.37379694e-02  6.85367957e-02]