[-1.87856201e-02  4.83570769e-02  1.45734670e-02 -6.18525520e-02
 -9.51907411e-02 -5.16784266e-02 -5.39982617e-02 -1.10211089e-01
  1.61917821e-01 -1.16398297e-01  2.47214004e-01 -5.90796247e-02
 -1.54277146e-01 -1.22892439e-01 -4.11168151e-02  1.38094693e-01
 -1.93545297e-01 -1.22280933e-01  6.83864579e-03  1.89663656e-02
  1.24729134e-01 -2.06174701e-02  4.01696377e-02  2.14446755e-03
 -7.71943778e-02 -3.32851142e-01 -1.28958672e-01 -5.46352975e-02
  5.83342314e-02 -9.10580624e-03 -5.36896363e-02  4.07013558e-02
 -2.18694672e-01 -9.06976014e-02 -1.07814376e-04  3.67794968e-02
 -3.96755822e-02 -6.86216131e-02  1.73778862e-01  8.64096265e-03
 -1.96922183e-01 -1.21930595e-02 -5.22781396e-03  2.10472986e-01
  1.77096948e-01  5.83757162e-02  9.28694662e-03 -1.18610479e-01
  7.43593797e-02 -1.65201411e-01  4.94105928e-02  1.24934457e-01
  1.23307824e-01  6.18684888e-02 -3.41190211e-02 -1.15809441e-01
  5.35442196e-02  7.47357830e-02 -9.94978249e-02 -2.70698015e-02
  7.31210858e-02 -6.94350675e-02 -5.46494639e-03 -4.87555079e-02
  2.76863873e-01  5.02656475e-02 -7.87506774e-02 -1.65340662e-01
  1.32563695e-01 -7.13357553e-02 -8.27249736e-02  5.95620163e-02
 -1.48422718e-01 -1.41694248e-01 -2.71572441e-01  6.70749275e-03
  3.86971682e-01  5.06182089e-02 -1.87319800e-01  2.37595867e-02
 -1.14503741e-01  2.35670488e-02  1.32944271e-01  8.86736289e-02
 -1.78991333e-02  2.94411574e-02 -1.40313745e-01  9.64672398e-03
  2.14886621e-01 -1.47593290e-01 -6.27816990e-02  2.03573331e-01
 -2.13245308e-04  1.30675390e-01  3.10805794e-02  7.11898133e-03
 -1.70522032e-03  1.19439483e-01 -1.15632392e-01  1.78251192e-02
  1.27271295e-01 -1.09770009e-02 -1.96875967e-02  1.33065388e-01
 -1.40791595e-01  1.05343439e-01  2.38067247e-02  3.51513699e-02
  5.58612458e-02 -6.16106987e-02 -1.19092487e-01 -8.27327892e-02
  1.06725894e-01 -2.22878382e-01  1.99844286e-01  1.55425459e-01
  7.59517476e-02  1.30407214e-01  1.07133724e-01  6.98345602e-02
 -1.51406974e-02 -7.02506006e-02 -2.35325813e-01  1.20953117e-02
  1.01646893e-01  1.52409347e-02  5.39877824e-02  2.61308532e-02]