[-7.30661973e-02  6.81547746e-02  1.03637753e-02 -1.17580406e-01
 -1.30634889e-01 -3.21514793e-02 -2.74829846e-02 -9.71693918e-02
  1.67255431e-01 -1.04403891e-01  2.49779493e-01 -6.72159493e-02
 -1.91844478e-01 -1.11844100e-01 -5.38185500e-02  1.68433324e-01
 -2.11984262e-01 -1.01391256e-01 -8.23643059e-05  4.70507182e-02
  1.18527018e-01 -6.24097651e-03  5.36558926e-02  4.41152081e-02
 -5.51648438e-02 -3.62151623e-01 -1.22218989e-01 -6.15149513e-02
  1.11140776e-02 -2.17221174e-02 -7.75382891e-02  4.90731597e-02
 -2.05541641e-01 -9.81928930e-02  8.52340553e-03  5.41869998e-02
 -4.06488851e-02 -5.92003725e-02  1.61582321e-01  2.24514934e-03
 -2.05375478e-01 -2.25482769e-02  3.50480154e-02  2.21452400e-01
  1.79536954e-01  5.32139614e-02  1.98006909e-02 -1.18078269e-01
  5.94606362e-02 -1.71386108e-01  6.69988021e-02  1.07906856e-01
  1.09130122e-01  2.94876229e-02 -2.78678536e-02 -1.02718830e-01
  2.20536049e-02  1.02287270e-01 -1.20280817e-01 -9.18897521e-03
  1.10210136e-01 -7.02148005e-02 -4.77256067e-02 -7.48795047e-02
  2.81661600e-01  1.11521564e-01 -9.73640606e-02 -1.81938902e-01
  1.53173178e-01 -8.35088938e-02 -8.94301087e-02  3.97235192e-02
 -1.70313045e-01 -1.46788344e-01 -2.51845151e-01  3.50278476e-03
  3.75945121e-01  7.86813051e-02 -1.71395779e-01 -2.89959105e-04
 -1.13101855e-01  4.20169272e-02  1.28311977e-01  9.43896621e-02
 -3.10356673e-02  4.48191315e-02 -1.19079351e-01  4.10244875e-02
  1.94148093e-01 -1.22409336e-01 -6.03793748e-02  2.21014932e-01
  1.30401598e-02  9.80198607e-02  4.61013094e-02 -1.86674856e-03
  1.47707686e-02  9.56509784e-02 -1.59957349e-01  2.27862597e-02
  1.06220804e-01 -4.27799374e-02 -7.71649275e-03  1.34474620e-01
 -1.37470111e-01  6.92993477e-02  8.54489487e-03  3.01112812e-02
  4.80992459e-02 -5.19210361e-02 -1.28983736e-01 -8.96317735e-02
  1.14971571e-01 -1.99387237e-01  1.97895393e-01  1.47840813e-01
  7.33573511e-02  1.13834038e-01  1.06536247e-01  8.38292763e-02
  7.09073571e-03 -7.78049454e-02 -2.18214110e-01  2.36757528e-02
  1.42799199e-01  9.55458265e-03  1.01195931e-01  1.65570173e-02]