[-1.03370510e-01  7.47819543e-02  7.89486319e-02 -8.44176207e-03
 -9.64882597e-02 -4.74532805e-02 -8.23493823e-02 -1.25145525e-01
  1.19825639e-01 -7.04166964e-02  2.48782143e-01 -2.70130043e-03
 -1.79212987e-01 -1.02659702e-01 -3.63143794e-02  1.46640599e-01
 -1.46432206e-01 -7.59197921e-02 -6.18587621e-03  1.89052764e-02
  2.52961274e-02 -5.65531440e-02  9.33275148e-02  3.38733196e-02
 -9.71460938e-02 -3.35131347e-01 -1.27958432e-01 -1.03532150e-01
 -3.31401154e-02 -3.77250984e-02 -6.25318810e-02  1.86209865e-02
 -1.56406686e-01 -3.63404229e-02 -2.39223875e-02  7.55854249e-02
 -5.03175631e-02 -4.61261161e-02  2.00632140e-01 -1.68076865e-02
 -1.75048679e-01 -3.65511291e-02  6.63839653e-03  2.27969751e-01
  1.94950774e-01  6.86443448e-02  5.31525500e-02 -3.77622359e-02
  8.07418972e-02 -2.08295777e-01  5.03615737e-02  8.75383839e-02
  1.01363160e-01 -1.39283780e-02  1.13982484e-02 -1.21214800e-01
  1.35892509e-02  7.43485987e-02 -8.39127824e-02 -6.21931255e-03
  4.42830995e-02 -6.77626282e-02 -5.00382595e-02 -3.15303914e-02
  2.94949681e-01  1.37499526e-01 -1.17933892e-01 -1.09209396e-01
  1.00709461e-01 -1.23805739e-01 -7.67098442e-02  2.03739740e-02
 -1.68964341e-01 -1.77201122e-01 -3.43430907e-01  2.24939771e-02
  4.09622759e-01  7.22711757e-02 -1.68671638e-01  3.35376570e-03
 -8.69123340e-02  2.79398840e-02  9.81370807e-02  8.91181976e-02
 -7.41877109e-02  2.10707933e-02 -1.40690297e-01 -1.29501494e-02
  2.18375161e-01 -1.13210097e-01 -5.61574660e-02  1.64688677e-01
 -8.10220558e-03  1.15091003e-01 -1.00915106e-02 -2.03448590e-02
  1.78753175e-02  5.64938746e-02 -1.19458914e-01  5.68426736e-02
  8.30531865e-02 -2.07607374e-02 -3.18413088e-03  9.29728001e-02
 -1.85926095e-01  2.79760864e-02  2.31450424e-02 -5.39150671e-04
  4.54164632e-02 -6.04555011e-04 -2.21079543e-01 -9.28234607e-02
  1.47256300e-01 -2.38901541e-01  1.77081704e-01  2.03324825e-01
  4.09573913e-02  1.09659813e-01  1.53869256e-01  5.79463020e-02
  9.12509859e-05  1.30115515e-02 -1.59327909e-01 -8.58348142e-03
  1.12185411e-01 -1.36235533e-02  6.77786395e-02  3.14570814e-02]