[-0.09410178  0.07006298  0.06137422 -0.05030086 -0.09083968 -0.01700115
 -0.04065632 -0.11904686  0.12286016 -0.08904856  0.26203558 -0.07271333
 -0.15586002 -0.13980326 -0.09937289  0.16574429 -0.16557448 -0.10892298
  0.00440668  0.01666669  0.134688   -0.01336315  0.03591391  0.02805564
 -0.0700219  -0.3077274  -0.14758371 -0.04836049  0.04952582 -0.03618387
 -0.06055048  0.01752241 -0.18906708 -0.10552614  0.00983876  0.08264736
 -0.05554472 -0.05809016  0.11247195 -0.04028106 -0.18819439  0.02509776
  0.05656846  0.25379339  0.19020669  0.09634259 -0.00140124 -0.15782253
  0.10299237 -0.14067112  0.09706449  0.12761007  0.08864281  0.10739563
  0.004463   -0.12063053  0.0550181   0.14533184 -0.10724407  0.00218811
  0.04223604 -0.00574154  0.04139992 -0.06242201  0.18215939  0.07056283
 -0.0806811  -0.19201343  0.15126872 -0.09243523 -0.06896956  0.08662754
 -0.1816483  -0.1751142  -0.29047561  0.03126406  0.43391427  0.10432961
 -0.14053436  0.01238743 -0.05434989  0.01968627  0.13592814  0.11077863
 -0.02234523  0.01750156 -0.11978705  0.01182962  0.1694932  -0.09920947
 -0.0723827   0.20402113  0.01281615  0.07338072  0.04644394  0.06640094
 -0.02787019  0.14369018 -0.15878405 -0.02407424  0.07041569 -0.02148148
  0.00342372  0.11802669 -0.11850538  0.13019224  0.04335391  0.08457474
  0.00734072 -0.03375133 -0.10875145 -0.03094881  0.10938318 -0.2214725
  0.20921981  0.16727889  0.0846974   0.12418957  0.13248445  0.09599917
  0.01224869 -0.09212003 -0.18139064  0.02001373  0.09593832  0.00315678
  0.07495832  0.04161919]