[-0.08245703  0.04629325  0.04655727  0.0180019  -0.11498959 -0.03715848
 -0.0425997  -0.08835654  0.15150112 -0.09192129  0.21002744 -0.00843954
 -0.19418651 -0.09238441  0.02357681  0.13137256 -0.12664393 -0.09902832
 -0.03411173 -0.00441335  0.03275347  0.01155318  0.0940573   0.03701809
 -0.0973478  -0.39898792 -0.09924537 -0.09375092 -0.01057356 -0.02561771
 -0.03655996  0.06091117 -0.16263898 -0.00787599  0.01550184  0.0876365
 -0.02429511 -0.04807565  0.23718241  0.00706841 -0.21051596 -0.06408726
  0.01803332  0.21550246  0.14306901  0.0285863   0.02075638 -0.03956745
  0.09182461 -0.13736831  0.02341009  0.15328     0.09532096 -0.0232385
  0.03205877 -0.13018237  0.01691577  0.04731965 -0.10666813 -0.05934799
  0.01224365 -0.04159458 -0.06076736 -0.02967975  0.25142619  0.07196265
 -0.08402094 -0.13552897  0.0835     -0.14275436 -0.0555186   0.02700907
 -0.19971168 -0.18543814 -0.30516803 -0.00331322  0.35156924  0.05182673
 -0.18547484  0.04397111 -0.05559016 -0.01263281  0.1040343   0.11552551
 -0.06742289  0.06773879 -0.13739108  0.02596635  0.18678461 -0.10791049
 -0.03190666  0.18788375  0.00376986  0.11065038  0.00785597 -0.05678731
 -0.01289232  0.03850269 -0.15071552  0.01277336  0.10706007 -0.00311624
  0.00062404  0.08465083 -0.206111    0.01892453  0.03906929 -0.01956304
  0.04529935  0.00337193 -0.22513714 -0.12894139  0.13898869 -0.20114861
  0.15426968  0.17454939  0.0151763   0.12789245  0.14409451  0.05592139
 -0.0104376   0.00916931 -0.17099726  0.00950845  0.11142799  0.0045119
  0.03375766 -0.00189056]