[-8.08746368e-02  1.95383076e-02  8.50564241e-03 -2.97032446e-02
 -8.01434815e-02 -5.32766171e-02 -8.12459514e-02 -1.00719802e-01
  1.47349000e-01 -1.01503037e-01  2.31275201e-01 -3.80681418e-02
 -1.75376788e-01 -1.10004202e-01 -6.61614910e-02  1.51628390e-01
 -1.53898999e-01 -8.45279694e-02 -2.86690872e-02 -2.74345442e-03
  5.01755364e-02 -3.77571280e-03  3.70164625e-02  4.21413295e-02
 -4.75317538e-02 -3.72822613e-01 -1.35349840e-01 -8.81057605e-02
  8.12420249e-03 -1.95507295e-02 -4.72549461e-02  7.84647688e-02
 -1.64975271e-01 -9.61549729e-02  2.82469075e-02  8.41536373e-02
 -2.95402352e-02 -4.99888435e-02  1.70595273e-01 -2.24434622e-02
 -1.73575133e-01 -4.96584959e-02  6.43190816e-02  2.31261283e-01
  1.87566042e-01  1.05957046e-01  4.21908312e-02 -9.87784937e-02
  9.60038528e-02 -1.65615544e-01  4.34084423e-02  1.21856742e-01
  8.13438371e-02  2.38472614e-02  8.22021812e-03 -1.10916317e-01
  3.37353684e-02  9.97890308e-02 -1.08274415e-01 -1.20868869e-02
  5.94423711e-02 -6.63402379e-02 -6.43319115e-02 -4.58601303e-02
  2.48822555e-01  9.95257422e-02 -9.03053209e-02 -1.48023933e-01
  1.52434841e-01 -1.66153446e-01 -9.96847898e-02 -3.88062932e-03
 -1.61103934e-01 -1.82425022e-01 -3.19421947e-01 -3.27235763e-03
  3.87119949e-01  1.05551399e-01 -1.37641132e-01  8.73096958e-02
 -2.26589236e-02  8.65403004e-03  1.45257816e-01  1.18472353e-01
 -5.31376861e-02  2.85941958e-02 -9.83018205e-02 -1.05544413e-02
  2.21074387e-01 -6.17702119e-02 -4.94550131e-02  1.36661932e-01
 -3.04366946e-02  8.44413564e-02  5.37495799e-02 -2.77183834e-03
 -7.91238341e-03  5.19321747e-02 -1.73564985e-01  1.19100800e-02
  9.98898894e-02 -1.61697494e-03 -3.09177488e-03  7.85897970e-02
 -1.35644570e-01  8.02242681e-02  4.19138465e-03  1.51941795e-02
  4.57651280e-02 -4.16019708e-02 -1.60380647e-01 -5.59375957e-02
  1.54497683e-01 -1.66004255e-01  1.93593651e-01  1.48311794e-01
  7.08656684e-02  1.55857250e-01  1.67830929e-01  9.45271775e-02
  5.03772113e-04 -3.64135280e-02 -2.22244456e-01 -4.24962305e-02
  1.08739376e-01 -1.56784512e-03  1.06173448e-01 -2.58370506e-04]