[-0.03385319  0.06145482  0.01981108 -0.07474278 -0.08786716 -0.05408594
 -0.05825299 -0.12599817  0.15718104 -0.10603555  0.25576314 -0.05318181
 -0.16056018 -0.14772604 -0.04862326  0.13813065 -0.20384789 -0.1306721
  0.01850595  0.00751625  0.11160344 -0.02389273  0.04094485  0.00689718
 -0.10128715 -0.33214483 -0.12522769 -0.06448597  0.03982287  0.00407902
 -0.0468946   0.06136911 -0.20788684 -0.08824127  0.00511222  0.05485048
 -0.03785354 -0.05121715  0.16869186  0.00327939 -0.17789233 -0.0165375
  0.00379076  0.22472389  0.19488966  0.04530601  0.01543077 -0.11098508
  0.07733624 -0.16708422  0.0322311   0.14106451  0.11925232  0.06549317
 -0.0288328  -0.10012966  0.06818137  0.06838038 -0.11550248 -0.03764545
  0.07430596 -0.08755536 -0.00852305 -0.0426276   0.27670071  0.04833592
 -0.08228722 -0.1641228   0.14156006 -0.07909939 -0.09041405  0.05430106
 -0.16243774 -0.13864379 -0.29197741  0.01142769  0.37905681  0.07526838
 -0.17805098  0.03895448 -0.10953679  0.02677835  0.12315056  0.08420082
 -0.02980989  0.029961   -0.14607328  0.0128599   0.19746332 -0.13300465
 -0.06280281  0.20213871  0.00534871  0.13328667  0.04603369  0.00541262
 -0.00913738  0.1111927  -0.12139934  0.02215697  0.11679603 -0.00956272
  0.00100129  0.14053282 -0.12547705  0.10828338  0.01261035  0.03824969
  0.03877294 -0.06084127 -0.10555147 -0.0877199   0.10532769 -0.21701126
  0.18739219  0.1539523   0.07749685  0.12683852  0.11030342  0.06383999
 -0.03498635 -0.0621134  -0.21555054  0.01075265  0.09109735  0.00174799
  0.06802732  0.02643429]