[-0.08826464  0.07999641  0.0658436  -0.01529526 -0.11759835 -0.01993468
 -0.03498024 -0.076073    0.16274534 -0.07641535  0.25218445 -0.00986987
 -0.21057431 -0.10461702  0.00370086  0.1703666  -0.13615245 -0.09304006
 -0.03992483  0.00086587  0.03727781 -0.03282353  0.10079338  0.00764381
 -0.07713345 -0.3913084  -0.11791509 -0.08658085  0.00041085 -0.03471924
 -0.04066816  0.03836187 -0.16544637 -0.02589422 -0.00944455  0.04580901
 -0.07151707 -0.06272999  0.23082069 -0.02445776 -0.18761492 -0.05894014
  0.03532614  0.19154619  0.21354063  0.04732649  0.05437599 -0.05329858
  0.06724204 -0.16070569  0.03319193  0.13560449  0.10273936  0.0185527
  0.04174179 -0.10175096  0.03386296  0.06311308 -0.09460818 -0.0436813
  0.04155054 -0.0495632  -0.05371536 -0.01378438  0.27894878  0.09170451
 -0.08214178 -0.14503913  0.11541905 -0.12714833 -0.06180753  0.04255579
 -0.2093827  -0.17293175 -0.31491539 -0.00412712  0.38783726  0.07074559
 -0.1554736   0.02567802 -0.06513265  0.00722729  0.10778433  0.08358008
 -0.09067848 -0.00391855 -0.14932348  0.02327508  0.20781313 -0.11649089
 -0.06036281  0.16744208  0.0058449   0.09550294 -0.00204297 -0.02619052
  0.02287307  0.04878314 -0.12541431  0.01342267  0.10117322 -0.02343745
 -0.00345386  0.09052961 -0.17567404  0.02009043  0.01583706  0.02498645
  0.02494317 -0.00427276 -0.201562   -0.07999229  0.13195971 -0.20043404
  0.18385839  0.17543529 -0.00566029  0.09067015  0.138289    0.08128055
 -0.01983486 -0.01299052 -0.15750431  0.00518171  0.09398079  0.01914873
  0.08915442  0.02588713]