[-0.08632379  0.03447762  0.03239428 -0.033083   -0.08389749 -0.04475355
 -0.10453906 -0.1048599   0.15207081 -0.12487494  0.25164756 -0.04864439
 -0.17066303 -0.1090062  -0.08059415  0.175271   -0.16049212 -0.09219878
 -0.02893181 -0.00596143  0.04264755 -0.00765196  0.02919251  0.04946942
 -0.03871173 -0.37840751 -0.14659654 -0.07526169  0.02122596 -0.04245244
 -0.06017687  0.0674855  -0.16537181 -0.0857304   0.02326589  0.100137
 -0.03037726 -0.073337    0.16414981 -0.03580952 -0.16154248 -0.0536004
  0.05701732  0.22725642  0.17800762  0.10380113  0.04569541 -0.09171467
  0.0897515  -0.17204267  0.04417824  0.12612997  0.08161864  0.02859127
  0.01590717 -0.11134698  0.03461093  0.12264574 -0.10824256 -0.0027277
  0.04948634 -0.07357052 -0.05548137 -0.0411888   0.26058322  0.11694192
 -0.09935559 -0.15299378  0.15872191 -0.16278903 -0.09505381 -0.01047721
 -0.15339933 -0.18618169 -0.32811478 -0.00815169  0.39960852  0.11967725
 -0.15164746  0.0927637  -0.01309718 -0.00329662  0.13541609  0.1343555
 -0.06028774  0.03682701 -0.1108703  -0.00655936  0.2204798  -0.0471297
 -0.04914119  0.14843301 -0.03703604  0.08248208  0.04959171 -0.00367588
 -0.0083152   0.03248163 -0.16232999  0.0041699   0.09346427  0.00880558
 -0.02518008  0.07908102 -0.12504807  0.08380082 -0.00356109  0.01647312
  0.02823865 -0.03979778 -0.16117273 -0.04812884  0.16360715 -0.1794039
  0.17933922  0.15382956  0.07316288  0.16515706  0.17785572  0.0974768
  0.01507646 -0.05590705 -0.21264406 -0.05322964  0.10074275 -0.01563062
  0.11638018  0.00854591]