[-0.10812717  0.05568958  0.09733673 -0.05032558 -0.09198485 -0.04042317
 -0.06740755 -0.15432668  0.09288342 -0.07230978  0.28031737 -0.06458985
 -0.14844348 -0.13641824 -0.06833193  0.16924636 -0.17660506 -0.12014773
 -0.00986453  0.00378607  0.07044555 -0.04540359  0.0554804   0.0128315
 -0.08347595 -0.3211785  -0.14654046 -0.04442531  0.04371945 -0.00648917
 -0.06484018  0.02601732 -0.22436634 -0.09687024 -0.00549004  0.08154038
 -0.03122965 -0.07461497  0.12093838 -0.04828199 -0.18949652  0.0402134
  0.0499262   0.23619662  0.19426766  0.0561329   0.04233354 -0.13690922
  0.07418593 -0.12094156  0.0863137   0.11049405  0.09430964  0.06462049
 -0.01437285 -0.11893119  0.03606362  0.13244008 -0.08021885  0.01418533
  0.07382598 -0.02815946  0.00430373 -0.09779926  0.19779955  0.09053858
 -0.08645048 -0.17562853  0.14383166 -0.05543811 -0.06467145  0.05861625
 -0.19642134 -0.16617277 -0.32990533  0.03058866  0.42047197  0.07208411
 -0.18878613  0.01339368 -0.05567747  0.04447646  0.12832789  0.12541713
 -0.01634467  0.0419653  -0.1202805   0.02077762  0.18577114 -0.08756794
 -0.07129676  0.17975497  0.00724738  0.05975021  0.04821838  0.07197191
 -0.00260554  0.10551091 -0.16419254  0.01069257  0.06252714 -0.02031094
 -0.01028868  0.1003556  -0.11291607  0.11294414  0.05436793  0.07069747
  0.00824193 -0.03173778 -0.08219108 -0.04465659  0.1096549  -0.22893873
  0.19745508  0.18887304  0.06696101  0.13110331  0.12109637  0.10619243
 -0.01746589 -0.04359658 -0.16635893  0.00447042  0.07858626  0.00179029
  0.09384814  0.06980791]