[-0.10778586  0.05963364  0.07223385 -0.07884964 -0.09771766 -0.06977931
 -0.08007585 -0.16757889  0.08467408 -0.06462952  0.28075299 -0.06463298
 -0.13823605 -0.16063938 -0.07147082  0.1579666  -0.18105644 -0.12707363
 -0.01243039  0.00765185  0.05727742 -0.05952797  0.06529268  0.0227375
 -0.07357316 -0.31136641 -0.15201573 -0.04628168  0.05397887  0.00421262
 -0.0515276   0.02817653 -0.22470847 -0.09082364 -0.00681905  0.08914744
 -0.01677753 -0.07304005  0.13682996 -0.03330575 -0.18704897  0.00984408
  0.03587407  0.24172257  0.20753518  0.05799232  0.03679897 -0.10719784
  0.10572352 -0.13951842  0.06889431  0.11838037  0.09761886  0.032113
 -0.01506802 -0.12127361  0.06707079  0.1442215  -0.10619364 -0.00533067
  0.04895449 -0.04485327 -0.00154679 -0.07917442  0.22516003  0.10440744
 -0.08844026 -0.15316331  0.15805386 -0.05945477 -0.04132162  0.05555245
 -0.19367692 -0.15783475 -0.32492504  0.01353811  0.42654034  0.07003047
 -0.19215083  0.02212318 -0.06310668  0.04150082  0.13092485  0.11272527
 -0.04061277  0.04937568 -0.15954159 -0.00836749  0.18850015 -0.09823892
 -0.05216686  0.19387127  0.00669113  0.07901556  0.05742026  0.05362711
 -0.01271268  0.08952826 -0.1471144   0.01300034  0.07126775 -0.0357554
 -0.01557554  0.09461825 -0.1138344   0.09606688  0.05428298  0.07279868
 -0.01080799 -0.05963835 -0.05689135 -0.06901342  0.10705195 -0.21181916
  0.18195052  0.18390526  0.04878614  0.1420092   0.12310294  0.09544437
 -0.02960511 -0.05038477 -0.14289382  0.00256606  0.06585095 -0.01209352
  0.08977427  0.0619071 ]